[
  {
    "Default": {
      "$type": "ConfigAbility",
      "abilityName": "Vehicle_Natsaurus_Common_01",
      "modifiers": {
        "Mosasaurus_Stealth_Handler": {
          "modifierName": "",
          "elementDurability": 100.0,
          "modifierMixins": [
            {
              "$type": "AIPerceptionMixin",
              "featureTagIDs": [4047, 4048],
              "perceptionTemplateID": 4
            }
          ]
        },
        "UNIQUE_Common_GetOffVehicle_StateWhiteList_Handler": {
          "modifierName": "",
          "forceTriggerWhenChangeAuthority": true,
          "elementDurability": 100.0,
          "modifierMixins": [
            {
              "$type": "AttachToStateIDMixin",
              "stateIDs": [
                "Standby",
                "NormalMove",
                "ArcLightMoving",
                "Swim",
                "StandbyShow",
                "MoveRushAS",
                "DrillingExit"
              ],
              "modifierName": "UNIQUE_Common_GetOffVehicle_StateWhiteList",
              "isCheckOnAttach": true,
              "animatorWhiteList": [
                "DrillingGroundExitFallToGround",
                "FallOnGround",
                "FallOnGroundLit",
                "FallToGroundRun",
                "FallToGroundRunHard"
              ],
              "CODCDFCFLJF": 0,
              "DGFCLAIDIFI": ""
            }
          ]
        },
        "UNIQUE_Common_GetOnVehicle_StateBlackList_Handler": {
          "modifierName": "",
          "forceTriggerWhenChangeAuthority": true,
          "elementDurability": 100.0,
          "modifierMixins": [
            {
              "$type": "AttachModifierToGlobalValueMixin",
              "globalValueKey": "_NatsaurusVehicle_CanNotUseDriving_Flag",
              "valueSteps": [-0.5, 0.5, 1.5],
              "modifierNameSteps": [
                "Blank",
                "UNIQUE_Common_GetOnVehicle_CanNotUseDriving"
              ]
            }
          ]
        },
        "UNIQUE_Common_GetOnVehicle_CanNotUseDriving": {
          "modifierName": "",
          "forceTriggerWhenChangeAuthority": true,
          "elementDurability": 100.0,
          "onAdded": [
            {
              "$type": "AttachModifier",
              "target": "Team",
              "modifierName": "UNIQUE_Team_Common_GetOnVehicle_CanNotUseDriving"
            }
          ]
        },
        "UNIQUE_Team_Common_GetOnVehicle_CanNotUseDriving": {
          "modifierName": "",
          "forceTriggerWhenChangeAuthority": true,
          "elementDurability": 100.0,
          "onAdded": [
            {
              "$type": "SetGlobalValue",
              "target": "Team",
              "value": 1.0,
              "key": "Disable_Transfer_Vehicle_From_Motion",
              "maxValue": 0.0,
              "minValue": 0.0
            }
          ],
          "onRemoved": [
            {
              "$type": "SetGlobalValue",
              "target": "Team",
              "value": 0.0,
              "key": "Disable_Transfer_Vehicle_From_Motion",
              "maxValue": 0.0,
              "minValue": 0.0
            }
          ],
          "useDummyAbility": true
        },
        "UNIQUE_Common_GetOffVehicle_DisableButton_Handler": {
          "modifierName": "",
          "forceTriggerWhenChangeAuthority": true,
          "elementDurability": 100.0,
          "modifierMixins": [
            {
              "$type": "AttachToStateIDMixin",
              "stateIDs": [
                "Standby",
                "NormalMove",
                "Jump",
                "Slip",
                "StandbyShow",
                "Swim",
                "ArcLightMoving",
                "DrillingExit"
              ],
              "modifierName": "UNIQUE_Common_GetOffVehicle_DisableButton",
              "isCheckOnAttach": true,
              "animatorWhiteList": [
                "DrillingGroundExitFallToGround",
                "FallOnGround",
                "FallOnGroundLit",
                "FallToGroundRun",
                "FallToGroundRunHard"
              ],
              "CODCDFCFLJF": 0,
              "DGFCLAIDIFI": ""
            }
          ]
        },
        "UNIQUE_Common_Vehicle_Occupied": {
          "modifierName": "",
          "forceTriggerWhenChangeAuthority": true,
          "elementDurability": 100.0,
          "onAdded": [
            {
              "$type": "EnablePushColliderName",
              "pushColliderNames": ["PushCollider"],
              "setEnable": true
            },
            {
              "$type": "SetGlobalValue",
              "value": 0.0,
              "key": "GV_AvatarAbility_HoldOnUI_Index04",
              "maxValue": 0.0,
              "minValue": 0.0
            },
            {
              "$type": "Predicated",
              "targetPredicates": [
                {
                  "$type": "JPMOLHMEJGO",
                  "entityTypes": ["Monster"]
                },
                {
                  "$type": "ByTargetGlobalValue",
                  "key": "_ABILITY_Natsaurus_TransferedVehicle",
                  "value": 0.0,
                  "compareType": "NoneOrEqual"
                }
              ],
              "successActions": [
                {
                  "$type": "SetGlobalValue",
                  "value": 1.0,
                  "key": "_ABILITY_Natsaurus_TransferedVehicle",
                  "maxValue": 0.0,
                  "minValue": 0.0
                },
                {
                  "$type": "SetAnimatorBool",
                  "boolID": "MonsterConvert",
                  "value": true
                }
              ],
              "failActions": [
                {
                  "$type": "SetAnimatorBool",
                  "boolID": "MonsterConvert"
                }
              ]
            },
            {
              "$type": "AttachModifier",
              "shieldHP": true,
              "modifierName": "UNIQUE_Vehicle_Common_SaurTotem_GetOnVehicle_SetShaderCtrl"
            },
            {
              "$type": "SetAnimatorInt",
              "predicates": [
                {
                  "$type": "ByAny",
                  "predicates": [
                    {
                      "$type": "ByAnimatorInt",
                      "logic": "Equal",
                      "value": 1,
                      "parameter": "SaurTotemShaderCtrl"
                    },
                    {
                      "$type": "ByAnimatorInt",
                      "logic": "Equal",
                      "value": 3,
                      "parameter": "SaurTotemShaderCtrl"
                    }
                  ]
                }
              ],
              "intID": "SaurTotemShaderCtrl",
              "value": 0.0,
              "persistent": true
            },
            {
              "$type": "AttachModifier",
              "modifierName": "UNIQUE_Vehicle_Common_SaurTotem_VehicleRestrict"
            },
            {
              "$type": "ApplyModifier",
              "modifierName": "UNIQUE_Check_NatLand_Area"
            }
          ],
          "onKill": [
            {
              "$type": "HCLAKBJKPLE",
              "watcherId": 81506,
              "authorityOnly": true
            }
          ]
        },
        "UNIQUE_Check_NatLand_Area": {
          "modifierName": "",
          "forceTriggerWhenChangeAuthority": true,
          "duration": 1.0,
          "elementDurability": 100.0,
          "onRemoved": [
            {
              "$type": "Predicated",
              "target": "Team",
              "targetPredicates": [
                {
                  "$type": "BHFFBBOLCCP",
                  "modifierName": "UNIQUE_TeamModifier_NatLand_Area"
                }
              ],
              "failActions": [
                {
                  "$type": "DebugLog",
                  "content": "Predicated UNIQUE_TeamModifier_NatLand_Area > failActions"
                },
                {
                  "$type": "SetGlobalValue",
                  "target": "Vehicle",
                  "value": 1.0,
                  "key": "Disable_Eff_SaurTotem",
                  "maxValue": 0.0,
                  "minValue": 0.0
                },
                {
                  "$type": "CLDHCOFLGDL"
                }
              ]
            }
          ]
        },
        "UNIQUE_Team_PhlogistonBar_Visible": {
          "modifierName": "",
          "forceTriggerWhenChangeAuthority": true,
          "elementDurability": 100.0,
          "modifierMixins": [
            {
              "$type": "DPHELBNLOCL"
            }
          ]
        },
        "UNIQUE_Common_Vehicle_Unoccupied": {
          "modifierName": "",
          "forceTriggerWhenChangeAuthority": true,
          "elementDurability": 100.0,
          "onAdded": [
            {
              "$type": "AttachModifier",
              "shieldHP": true,
              "modifierName": "Invincible"
            },
            {
              "$type": "AttachModifier",
              "shieldHP": true,
              "modifierName": "GhostToEmeny"
            },
            {
              "$type": "AttachModifier",
              "shieldHP": true,
              "modifierName": "DenyLock"
            },
            {
              "$type": "AttachModifier",
              "shieldHP": true,
              "modifierName": "UNIQUE_Vehicle_Restrict"
            },
            {
              "$type": "EnablePushColliderName",
              "pushColliderNames": ["PushCollider"]
            },
            {
              "$type": "AttachModifier",
              "shieldHP": true,
              "predicates": [
                {
                  "$type": "ByTargetGlobalValue",
                  "key": "_ABILITY_Vehicle_Exit_Type",
                  "value": 0.0,
                  "compareType": "NoneOrEqual"
                }
              ],
              "modifierName": "UNIQUE_Vehicle_Common_SaurTotem_GetOffVehicle_SetShaderCtrl"
            },
            {
              "$type": "SetAnimatorInt",
              "predicates": [
                {
                  "$type": "ByAny",
                  "predicates": [
                    {
                      "$type": "ByAnimatorInt",
                      "logic": "Equal",
                      "value": 0,
                      "parameter": "SaurTotemShaderCtrl"
                    },
                    {
                      "$type": "ByAnimatorInt",
                      "logic": "Equal",
                      "value": 2,
                      "parameter": "SaurTotemShaderCtrl"
                    }
                  ]
                },
                {
                  "$type": "ByTargetGlobalValue",
                  "key": "_ABILITY_Vehicle_Exit_Type",
                  "value": 0.0,
                  "compareType": "NoneOrEqual"
                }
              ],
              "intID": "SaurTotemShaderCtrl",
              "value": 3.0,
              "persistent": true
            },
            {
              "$type": "ApplyModifier",
              "predicates": [
                {
                  "$type": "ByTargetGlobalValue",
                  "key": "Disable_Eff_SaurTotem",
                  "value": 1.0
                }
              ],
              "modifierName": "UNIQUE_KillSelf_CountDown"
            },
            {
              "$type": "ApplyModifier",
              "predicates": [
                {
                  "$type": "ByTargetGlobalValue",
                  "key": "_Mosasaurus_Is_In_ArcLight",
                  "value": 1.0
                }
              ],
              "modifierName": "UNIQUE_KillSelf_CountDown"
            },
            {
              "$type": "ApplyModifier",
              "shieldHP": true,
              "modifierName": "UNIQUE_Vehicle_DrillHead_Enhanced_Remover"
            }
          ],
          "onReconnect": [
            {
              "$type": "AttachModifier",
              "shieldHP": true,
              "modifierName": "Invincible"
            },
            {
              "$type": "AttachModifier",
              "shieldHP": true,
              "modifierName": "GhostToEmeny"
            },
            {
              "$type": "AttachModifier",
              "shieldHP": true,
              "modifierName": "DenyLock"
            },
            {
              "$type": "EnablePushColliderName",
              "pushColliderNames": ["PushCollider"]
            }
          ]
        },
        "UNIQUE_Vehicle_DrillHead_Enhanced_Remover": {
          "modifierName": "",
          "forceTriggerWhenChangeAuthority": true,
          "duration": 0.05000000074505806,
          "elementDurability": 100.0,
          "onAdded": [
            {
              "$type": "RemoveUniqueModifier",
              "shieldHP": true,
              "modifierName": "UNIQUE_Vehicle_Natsaurus_Drillhead_Enhanced_Shader"
            }
          ]
        },
        "UNIQUE_Vehicle_Restrict": {
          "modifierName": "",
          "forceTriggerWhenChangeAuthority": true,
          "elementDurability": 100.0,
          "thinkInterval": 1.5,
          "modifierMixins": [
            {
              "$type": "BCAKBEKLLCO",
              "ICKEIKPICNI": true
            }
          ],
          "onThinkInterval": [
            {
              "$type": "AttachModifier",
              "shieldHP": true,
              "modifierName": "UNIQUE_Vehicle_FullyRestrict"
            }
          ]
        },
        "UNIQUE_Vehicle_FullyRestrict": {
          "modifierName": "",
          "forceTriggerWhenChangeAuthority": true,
          "elementDurability": 100.0,
          "modifierMixins": [
            {
              "$type": "BCAKBEKLLCO",
              "HOPJAEOPENK": true,
              "KDNGOKEDOAJ": true
            }
          ],
          "onAdded": [
            {
              "$type": "HMIDGKNOHJM",
              "renderNames": ["Body"]
            }
          ],
          "onRemoved": [
            {
              "$type": "HMIDGKNOHJM",
              "renderNames": ["Body"],
              "setEnable": true
            }
          ]
        },
        "UNIQUE_KillSelf_CountDown": {
          "modifierName": "",
          "forceTriggerWhenChangeAuthority": true,
          "duration": 2.0,
          "elementDurability": 100.0,
          "onAdded": [
            {
              "$type": "SetGlobalValue",
              "value": 1.0,
              "key": "Disable_SubTagScanEntityMixin",
              "maxValue": 0.0,
              "minValue": 0.0
            },
            {
              "$type": "ApplyModifier",
              "modifierName": "UNIQUE_KillSelf_Die_Pattern"
            }
          ],
          "onRemoved": [
            {
              "$type": "KillSelf",
              "configIdArray": [
                45003011, 45003021, 45003031, 45003041, 45003051, 45003061
              ]
            }
          ]
        },
        "UNIQUE_KillSelf_Die_Pattern": {
          "modifierName": "",
          "forceTriggerWhenChangeAuthority": true,
          "duration": 5.0,
          "elementDurability": 100.0,
          "modifierMixins": [
            {
              "$type": "NAOEBBPINOO",
              "dieEndTime": 1.5,
              "dieForceDisappearTime": 1.5,
              "dieDisappearEffect": "",
              "dieShaderData": "MonsterInvisible",
              "muteHitBox": true,
              "dieDenyLockOn": true,
              "dieIsGhostToEnemy": true,
              "muteBillboard": true,
              "mutePushCollider": true
            }
          ]
        },
        "DenyLock": {
          "modifierName": "",
          "elementDurability": 100.0,
          "state": "DenyLockOn"
        },
        "Invincible": {
          "modifierName": "",
          "elementDurability": 100.0,
          "state": "Invincible"
        },
        "GhostToEmeny": {
          "modifierName": "",
          "elementDurability": 100.0,
          "state": "IsGhostToEnemy"
        },
        "UNIQUE_Common_GetOffVehicle_StateWhiteList": {
          "modifierName": "",
          "forceTriggerWhenChangeAuthority": true,
          "elementDurability": 100.0,
          "onAdded": [
            {
              "$type": "SetGlobalValue",
              "value": 1.0,
              "key": "_ABILITY_Vehicle_GetOff_WhiteList",
              "maxValue": 0.0,
              "minValue": 0.0
            }
          ],
          "onRemoved": [
            {
              "$type": "SetGlobalValue",
              "value": 0.0,
              "key": "_ABILITY_Vehicle_GetOff_WhiteList",
              "maxValue": 0.0,
              "minValue": 0.0
            }
          ]
        },
        "UNIQUE_Common_GetOffVehicle_DisableButton": {
          "modifierName": "",
          "forceTriggerWhenChangeAuthority": true,
          "elementDurability": 100.0,
          "onAdded": [
            {
              "$type": "SetGlobalValue",
              "value": 1.0,
              "key": "_ABILITY_Vehicle_GetOff_DisableButton",
              "maxValue": 0.0,
              "minValue": 0.0
            }
          ],
          "onRemoved": [
            {
              "$type": "SetGlobalValue",
              "value": 0.0,
              "key": "_ABILITY_Vehicle_GetOff_DisableButton",
              "maxValue": 0.0,
              "minValue": 0.0
            }
          ]
        },
        "Vehicle_Common_Occupied_Handler": {
          "modifierName": "",
          "elementDurability": 100.0,
          "modifierMixins": [
            {
              "$type": "MOOFJOLPHJI",
              "onVehicleOut": [
                {
                  "$type": "Predicated",
                  "targetPredicates": [
                    {
                      "$type": "NPEIIGBOEJL",
                      "GBKFIDGIOKK": "DestoryVehcile"
                    }
                  ],
                  "successActions": [
                    {
                      "$type": "SetGlobalValue",
                      "value": 1.0,
                      "key": "_ABILITY_Vehicle_Exit_Type",
                      "maxValue": 0.0,
                      "minValue": 0.0
                    }
                  ],
                  "failActions": [
                    {
                      "$type": "SetGlobalValue",
                      "value": 0.0,
                      "key": "_ABILITY_Vehicle_Exit_Type",
                      "maxValue": 0.0,
                      "minValue": 0.0
                    }
                  ]
                }
              ]
            },
            {
              "$type": "BLNNLCPGKGH",
              "globalValueKey": "_ABILITY_Vehicle_Driving_Flag"
            },
            {
              "$type": "AttachModifierToGlobalValueMixin",
              "globalValueKey": "_ABILITY_Vehicle_Driving_Flag",
              "valueSteps": [-0.5, 0.5, 1.5],
              "modifierNameSteps": [
                "UNIQUE_Common_Vehicle_Unoccupied",
                "UNIQUE_Common_Vehicle_Occupied"
              ]
            }
          ],
          "onAdded": [
            {
              "$type": "AttachModifier",
              "modifierName": "UNIQUE_Vehicle_Common_SaurTotem_ShaderLerpHandler"
            },
            {
              "$type": "AttachModifier",
              "modifierName": "UNIQUE_Vehicle_Common_SaurTotem_EffectHandler"
            },
            {
              "$type": "SetGlobalValue",
              "value": 0.0,
              "key": "Disable_Eff_SaurTotem",
              "maxValue": 0.0,
              "minValue": 0.0
            },
            {
              "$type": "SetGlobalValue",
              "value": 0.0,
              "key": "_Mosasaurus_Is_In_ArcLight",
              "maxValue": 0.0,
              "minValue": 0.0
            }
          ],
          "onReconnect": [
            {
              "$type": "SetGlobalValue",
              "value": 0.0,
              "key": "GV_AvatarAbility_HoldOnUI_Index04",
              "maxValue": 0.0,
              "minValue": 0.0
            }
          ]
        },
        "UNIQUE_Vehicle_Common_SaurTotem_VehicleRestrict": {
          "modifierName": "",
          "forceTriggerWhenChangeAuthority": true,
          "duration": 0.4000000059604645,
          "elementDurability": 100.0,
          "modifierMixins": [
            {
              "$type": "BCAKBEKLLCO",
              "ICKEIKPICNI": true,
              "DAEPPGOPCEI": true
            }
          ]
        },
        "UNIQUE_Vehicle_Common_SaurTotem_GetOnVehicle_SetShaderCtrl": {
          "modifierName": "",
          "forceTriggerWhenChangeAuthority": true,
          "duration": 2.0,
          "elementDurability": 100.0,
          "onAdded": [
            {
              "$type": "SetAnimatorInt",
              "intID": "SaurTotemShaderCtrl",
              "value": 2.0,
              "persistent": true
            }
          ],
          "onRemoved": [
            {
              "$type": "SetAnimatorInt",
              "intID": "SaurTotemShaderCtrl",
              "value": 0.0,
              "persistent": true
            }
          ]
        },
        "UNIQUE_Vehicle_Common_SaurTotem_GetOffVehicle_SetShaderCtrl": {
          "modifierName": "",
          "forceTriggerWhenChangeAuthority": true,
          "duration": 2.0,
          "elementDurability": 100.0,
          "onAdded": [
            {
              "$type": "SetAnimatorInt",
              "intID": "SaurTotemShaderCtrl",
              "value": 1.0,
              "persistent": true
            }
          ],
          "onRemoved": [
            {
              "$type": "SetAnimatorInt",
              "intID": "SaurTotemShaderCtrl",
              "value": 3.0,
              "persistent": true
            }
          ]
        },
        "UNIQUE_Vehicle_Common_SaurTotem_ShaderLerpHandler": {
          "modifierName": "",
          "forceTriggerWhenChangeAuthority": true,
          "elementDurability": 100.0,
          "onAdded": [
            {
              "$type": "AttachModifier",
              "predicates": [
                {
                  "$type": "BGMAGODJEMF",
                  "featureTagIDs": [30011]
                }
              ],
              "modifierName": "UNIQUE_Vehicle_Common_SaurTotem_ShaderLerp_Drillhead_Handler"
            },
            {
              "$type": "AttachModifier",
              "predicates": [
                {
                  "$type": "BGMAGODJEMF",
                  "featureTagIDs": [30012]
                }
              ],
              "modifierName": "UNIQUE_Vehicle_Common_SaurTotem_ShaderLerp_Hookwalker_Handler"
            },
            {
              "$type": "AttachModifier",
              "predicates": [
                {
                  "$type": "BGMAGODJEMF",
                  "featureTagIDs": [30013]
                }
              ],
              "modifierName": "UNIQUE_Vehicle_Common_SaurTotem_ShaderLerp_Mosasaurus_Handler"
            }
          ]
        },
        "UNIQUE_Vehicle_Common_SaurTotem_EffectHandler": {
          "modifierName": "",
          "forceTriggerWhenChangeAuthority": true,
          "elementDurability": 100.0,
          "modifierMixins": [
            {
              "$type": "AttachModifierToGlobalValueMixin",
              "globalValueKey": "Disable_Eff_SaurTotem",
              "valueSteps": [-0.5, 0.5],
              "modifierNameSteps": [
                "UNIQUE_Vehicle_Common_SaurTotem_EffectHandler_Normal"
              ]
            }
          ]
        },
        "UNIQUE_Vehicle_Common_SaurTotem_EffectHandler_Normal": {
          "modifierName": "",
          "forceTriggerWhenChangeAuthority": true,
          "elementDurability": 100.0,
          "modifierMixins": [
            {
              "$type": "AttachModifierToGlobalValueMixin",
              "globalValueKey": "_Mosasaurus_Is_In_ArcLight",
              "valueSteps": [-0.5, 0.5],
              "modifierNameSteps": [
                "UNIQUE_Vehicle_Common_SaurTotem_EffectHandler_Enable"
              ]
            }
          ]
        },
        "UNIQUE_Vehicle_Common_SaurTotem_ShaderLerp_Drillhead_Handler": {
          "modifierName": "",
          "forceTriggerWhenChangeAuthority": true,
          "elementDurability": 100.0,
          "modifierMixins": [
            {
              "$type": "AttachToStateIDMixin",
              "stateIDs": ["ChangeToSaurTotem", "ChangeToVehicle"],
              "modifierName": "UNIQUE_Vehicle_Common_SaurTotem_ShaderLerp_Drillhead",
              "isCheckOnAttach": true,
              "DGFCLAIDIFI": "SaurTotem Layer"
            }
          ]
        },
        "UNIQUE_Vehicle_Common_SaurTotem_ShaderLerp_Hookwalker_Handler": {
          "modifierName": "",
          "forceTriggerWhenChangeAuthority": true,
          "elementDurability": 100.0,
          "modifierMixins": [
            {
              "$type": "AttachToStateIDMixin",
              "stateIDs": ["ChangeToSaurTotem", "ChangeToVehicle"],
              "modifierName": "UNIQUE_Vehicle_Common_SaurTotem_ShaderLerp_Hookwalker",
              "isCheckOnAttach": true,
              "DGFCLAIDIFI": "SaurTotem Layer"
            }
          ]
        },
        "UNIQUE_Vehicle_Common_SaurTotem_ShaderLerp_Mosasaurus_Handler": {
          "modifierName": "",
          "forceTriggerWhenChangeAuthority": true,
          "elementDurability": 100.0,
          "modifierMixins": [
            {
              "$type": "AttachToStateIDMixin",
              "stateIDs": ["ChangeToSaurTotem", "ChangeToVehicle"],
              "modifierName": "UNIQUE_Vehicle_Common_SaurTotem_ShaderLerp_Mosasaurus",
              "isCheckOnAttach": true,
              "DGFCLAIDIFI": "SaurTotem Layer"
            }
          ]
        },
        "UNIQUE_Vehicle_Common_SaurTotem_EffectHandler_Enable": {
          "modifierName": "",
          "forceTriggerWhenChangeAuthority": true,
          "elementDurability": 100.0,
          "onAdded": [
            {
              "$type": "AttachModifier",
              "predicates": [
                {
                  "$type": "BGMAGODJEMF",
                  "featureTagIDs": [30011]
                }
              ],
              "modifierName": "UNIQUE_Vehicle_Common_SaurTotem_Eff_Drillhead_Handler"
            },
            {
              "$type": "AttachModifier",
              "predicates": [
                {
                  "$type": "BGMAGODJEMF",
                  "featureTagIDs": [30012]
                }
              ],
              "modifierName": "UNIQUE_Vehicle_Common_SaurTotem_Eff_Hookwalker_Handler"
            },
            {
              "$type": "AttachModifier",
              "predicates": [
                {
                  "$type": "BGMAGODJEMF",
                  "featureTagIDs": [30013]
                }
              ],
              "modifierName": "UNIQUE_Vehicle_Common_SaurTotem_Eff_Mosasaurus_Handler"
            }
          ]
        },
        "UNIQUE_Vehicle_Common_SaurTotem_Eff_Drillhead_Handler": {
          "modifierName": "",
          "forceTriggerWhenChangeAuthority": true,
          "elementDurability": 100.0,
          "modifierMixins": [
            {
              "$type": "APJKOLPHCGH",
              "stateIDs": ["ChangeToSaurTotem"],
              "enterActions": [
                {
                  "$type": "SendEffectTrigger",
                  "parameter": "Enable",
                  "attachPoint": "",
                  "damageRatio": "Bool",
                  "value": 1,
                  "rotationDampTime": "Eff_Vehicle_Natsaurus_Drillhead_SaurTotem"
                },
                {
                  "$type": "SendEffectTrigger",
                  "parameter": "Appear",
                  "attachPoint": "",
                  "value": 1,
                  "rotationDampTime": "Eff_Vehicle_Natsaurus_Drillhead_SaurTotem"
                }
              ],
              "DGFCLAIDIFI": "SaurTotem Layer"
            },
            {
              "$type": "APJKOLPHCGH",
              "stateIDs": ["ChangeToVehicle"],
              "enterActions": [
                {
                  "$type": "SendEffectTrigger",
                  "parameter": "Enable",
                  "attachPoint": "",
                  "damageRatio": "Bool",
                  "rotationDampTime": "Eff_Vehicle_Natsaurus_Drillhead_SaurTotem"
                },
                {
                  "$type": "SendEffectTrigger",
                  "parameter": "Disappear",
                  "attachPoint": "",
                  "value": 1,
                  "rotationDampTime": "Eff_Vehicle_Natsaurus_Drillhead_SaurTotem"
                }
              ],
              "DGFCLAIDIFI": "SaurTotem Layer"
            }
          ],
          "onAdded": [
            {
              "$type": "AttachEffect",
              "rotationDampTime": "Eff_Vehicle_Natsaurus_Drillhead_SaurTotem",
              "PPPDJGDDOGD": 1.0,
              "AJDILHJFNKE": -1.0
            },
            {
              "$type": "SendEffectTrigger",
              "predicates": [
                {
                  "$type": "ByAny",
                  "predicates": [
                    {
                      "$type": "ByAnimatorInt",
                      "logic": "Equal",
                      "value": 1,
                      "parameter": "SaurTotemShaderCtrl"
                    },
                    {
                      "$type": "ByAnimatorInt",
                      "logic": "Equal",
                      "value": 3,
                      "parameter": "SaurTotemShaderCtrl"
                    }
                  ]
                }
              ],
              "parameter": "Enable",
              "attachPoint": "",
              "damageRatio": "Bool",
              "value": 1,
              "rotationDampTime": "Eff_Vehicle_Natsaurus_Drillhead_SaurTotem"
            },
            {
              "$type": "SendEffectTrigger",
              "predicates": [
                {
                  "$type": "ByAny",
                  "predicates": [
                    {
                      "$type": "ByAnimatorInt",
                      "logic": "Equal",
                      "value": 1,
                      "parameter": "SaurTotemShaderCtrl"
                    },
                    {
                      "$type": "ByAnimatorInt",
                      "logic": "Equal",
                      "value": 3,
                      "parameter": "SaurTotemShaderCtrl"
                    }
                  ]
                }
              ],
              "parameter": "Appear",
              "attachPoint": "",
              "value": 1,
              "rotationDampTime": "Eff_Vehicle_Natsaurus_Drillhead_SaurTotem"
            }
          ]
        },
        "UNIQUE_Vehicle_Common_SaurTotem_Eff_Hookwalker_Handler": {
          "modifierName": "",
          "forceTriggerWhenChangeAuthority": true,
          "elementDurability": 100.0,
          "modifierMixins": [
            {
              "$type": "APJKOLPHCGH",
              "stateIDs": ["ChangeToSaurTotem"],
              "enterActions": [
                {
                  "$type": "SendEffectTrigger",
                  "parameter": "Enable",
                  "attachPoint": "",
                  "damageRatio": "Bool",
                  "value": 1,
                  "rotationDampTime": "Eff_Vehicle_Natsaurus_Hookwalker_SaurTotem"
                },
                {
                  "$type": "SendEffectTrigger",
                  "parameter": "Appear",
                  "attachPoint": "",
                  "value": 1,
                  "rotationDampTime": "Eff_Vehicle_Natsaurus_Hookwalker_SaurTotem"
                }
              ],
              "DGFCLAIDIFI": "SaurTotem Layer"
            },
            {
              "$type": "APJKOLPHCGH",
              "stateIDs": ["ChangeToVehicle"],
              "enterActions": [
                {
                  "$type": "SendEffectTrigger",
                  "parameter": "Enable",
                  "attachPoint": "",
                  "damageRatio": "Bool",
                  "rotationDampTime": "Eff_Vehicle_Natsaurus_Hookwalker_SaurTotem"
                },
                {
                  "$type": "SendEffectTrigger",
                  "parameter": "Disappear",
                  "attachPoint": "",
                  "value": 1,
                  "rotationDampTime": "Eff_Vehicle_Natsaurus_Hookwalker_SaurTotem"
                }
              ],
              "DGFCLAIDIFI": "SaurTotem Layer"
            }
          ],
          "onAdded": [
            {
              "$type": "AttachEffect",
              "rotationDampTime": "Eff_Vehicle_Natsaurus_Hookwalker_SaurTotem",
              "PPPDJGDDOGD": 1.0,
              "AJDILHJFNKE": -1.0
            },
            {
              "$type": "SendEffectTrigger",
              "predicates": [
                {
                  "$type": "ByAny",
                  "predicates": [
                    {
                      "$type": "ByAnimatorInt",
                      "logic": "Equal",
                      "value": 1,
                      "parameter": "SaurTotemShaderCtrl"
                    },
                    {
                      "$type": "ByAnimatorInt",
                      "logic": "Equal",
                      "value": 3,
                      "parameter": "SaurTotemShaderCtrl"
                    }
                  ]
                }
              ],
              "parameter": "Enable",
              "attachPoint": "",
              "damageRatio": "Bool",
              "value": 1,
              "rotationDampTime": "Eff_Vehicle_Natsaurus_Hookwalker_SaurTotem"
            },
            {
              "$type": "SendEffectTrigger",
              "predicates": [
                {
                  "$type": "ByAny",
                  "predicates": [
                    {
                      "$type": "ByAnimatorInt",
                      "logic": "Equal",
                      "value": 1,
                      "parameter": "SaurTotemShaderCtrl"
                    },
                    {
                      "$type": "ByAnimatorInt",
                      "logic": "Equal",
                      "value": 3,
                      "parameter": "SaurTotemShaderCtrl"
                    }
                  ]
                }
              ],
              "parameter": "Appear",
              "attachPoint": "",
              "value": 1,
              "rotationDampTime": "Eff_Vehicle_Natsaurus_Hookwalker_SaurTotem"
            }
          ]
        },
        "UNIQUE_Vehicle_Common_SaurTotem_Eff_Mosasaurus_Handler": {
          "modifierName": "",
          "forceTriggerWhenChangeAuthority": true,
          "elementDurability": 100.0,
          "modifierMixins": [
            {
              "$type": "APJKOLPHCGH",
              "stateIDs": ["ChangeToSaurTotem"],
              "enterActions": [
                {
                  "$type": "SendEffectTrigger",
                  "parameter": "Enable",
                  "attachPoint": "",
                  "damageRatio": "Bool",
                  "value": 1,
                  "rotationDampTime": "Eff_Vehicle_Natsaurus_Mosasaurus_SaurTotem"
                },
                {
                  "$type": "SendEffectTrigger",
                  "parameter": "Appear",
                  "attachPoint": "",
                  "value": 1,
                  "rotationDampTime": "Eff_Vehicle_Natsaurus_Mosasaurus_SaurTotem"
                }
              ],
              "DGFCLAIDIFI": "SaurTotem Layer"
            },
            {
              "$type": "APJKOLPHCGH",
              "stateIDs": ["ChangeToVehicle"],
              "enterActions": [
                {
                  "$type": "SendEffectTrigger",
                  "parameter": "Enable",
                  "attachPoint": "",
                  "damageRatio": "Bool",
                  "rotationDampTime": "Eff_Vehicle_Natsaurus_Mosasaurus_SaurTotem"
                },
                {
                  "$type": "SendEffectTrigger",
                  "parameter": "Disappear",
                  "attachPoint": "",
                  "value": 1,
                  "rotationDampTime": "Eff_Vehicle_Natsaurus_Mosasaurus_SaurTotem"
                }
              ],
              "DGFCLAIDIFI": "SaurTotem Layer"
            }
          ],
          "onAdded": [
            {
              "$type": "AttachEffect",
              "rotationDampTime": "Eff_Vehicle_Natsaurus_Mosasaurus_SaurTotem",
              "PPPDJGDDOGD": 1.0,
              "AJDILHJFNKE": -1.0
            },
            {
              "$type": "SendEffectTrigger",
              "predicates": [
                {
                  "$type": "ByAny",
                  "predicates": [
                    {
                      "$type": "ByAnimatorInt",
                      "logic": "Equal",
                      "value": 1,
                      "parameter": "SaurTotemShaderCtrl"
                    },
                    {
                      "$type": "ByAnimatorInt",
                      "logic": "Equal",
                      "value": 3,
                      "parameter": "SaurTotemShaderCtrl"
                    }
                  ]
                }
              ],
              "parameter": "Enable",
              "attachPoint": "",
              "damageRatio": "Bool",
              "value": 1,
              "rotationDampTime": "Eff_Vehicle_Natsaurus_Mosasaurus_SaurTotem"
            },
            {
              "$type": "SendEffectTrigger",
              "predicates": [
                {
                  "$type": "ByAny",
                  "predicates": [
                    {
                      "$type": "ByAnimatorInt",
                      "logic": "Equal",
                      "value": 1,
                      "parameter": "SaurTotemShaderCtrl"
                    },
                    {
                      "$type": "ByAnimatorInt",
                      "logic": "Equal",
                      "value": 3,
                      "parameter": "SaurTotemShaderCtrl"
                    }
                  ]
                }
              ],
              "parameter": "Appear",
              "attachPoint": "",
              "value": 1,
              "rotationDampTime": "Eff_Vehicle_Natsaurus_Mosasaurus_SaurTotem"
            }
          ]
        },
        "UNIQUE_Vehicle_Common_SaurTotem_ShaderLerp_Drillhead": {
          "modifierName": "",
          "forceTriggerWhenChangeAuthority": true,
          "elementDurability": 100.0,
          "modifierMixins": [
            {
              "$type": "ShaderLerpMixin",
              "damageRatio": "NatsaurusSaurTotem_Drillhead",
              "forceStopWhenRemoved": true
            }
          ]
        },
        "UNIQUE_Vehicle_Common_SaurTotem_ShaderLerp_Hookwalker": {
          "modifierName": "",
          "forceTriggerWhenChangeAuthority": true,
          "elementDurability": 100.0,
          "modifierMixins": [
            {
              "$type": "ShaderLerpMixin",
              "damageRatio": "NatsaurusSaurTotem_Hookwalker",
              "forceStopWhenRemoved": true
            }
          ]
        },
        "UNIQUE_Vehicle_Common_SaurTotem_ShaderLerp_Mosasaurus": {
          "modifierName": "",
          "forceTriggerWhenChangeAuthority": true,
          "elementDurability": 100.0,
          "modifierMixins": [
            {
              "$type": "ShaderLerpMixin",
              "damageRatio": "NatsaurusSaurTotem_Mosasaurus",
              "forceStopWhenRemoved": true
            }
          ]
        }
      },
      "onAdded": [
        {
          "$type": "AttachModifier",
          "shieldHP": true,
          "modifierName": "Vehicle_Common_Occupied_Handler"
        },
        {
          "$type": "AttachModifier",
          "shieldHP": true,
          "modifierName": "UNIQUE_Common_GetOnVehicle_StateBlackList_Handler"
        },
        {
          "$type": "AttachModifier",
          "shieldHP": true,
          "modifierName": "UNIQUE_Common_GetOffVehicle_StateWhiteList_Handler"
        },
        {
          "$type": "AttachModifier",
          "shieldHP": true,
          "modifierName": "UNIQUE_Common_GetOffVehicle_DisableButton_Handler"
        },
        {
          "$type": "AttachModifier",
          "shieldHP": true,
          "modifierName": "Mosasaurus_Stealth_Handler"
        }
      ]
    }
  },
  {
    "Default": {
      "$type": "ConfigAbility",
      "abilityName": "Vehicle_Natsaurus_Normal_ServerBuff_Handler",
      "modifiers": {
        "SERVER_Natsaurus_Normal_AvatarStatue_Handler": {
          "stacking": "Multiple",
          "modifierName": "",
          "elementDurability": 100.0,
          "thinkInterval": 2.0,
          "state": "DenyLockOn",
          "onAdded": [
            {
              "$type": "SetGlobalValue",
              "value": 1.0,
              "key": "_ABILITY_Avatar_Driving_Natsaurus_Flag",
              "maxValue": 0.0,
              "minValue": 0.0
            },
            {
              "$type": "AttachModifier",
              "shieldHP": true,
              "modifierName": "UNIQUE_Natsaurus_Normal_AvatarStatue_Invincible"
            },
            {
              "$type": "AttachModifier",
              "shieldHP": true,
              "modifierName": "UNIQUE_Natsaurus_Normal_AvatarStatue_IsGhostToEnemy"
            },
            {
              "$type": "AttachModifier",
              "shieldHP": true,
              "modifierName": "UNIQUE_Natsaurus_Normal_AvatarStatue_LockHP"
            },
            {
              "$type": "AttachAbilityStateResistance",
              "shieldHP": true,
              "resistanceListID": 15001
            },
            {
              "$type": "AttachAbilityStateResistance",
              "shieldHP": true,
              "resistanceListID": 15002
            }
          ],
          "onRemoved": [
            {
              "$type": "SetGlobalValue",
              "value": 0.0,
              "key": "_ABILITY_Avatar_Driving_Natsaurus_Flag",
              "maxValue": 0.0,
              "minValue": 0.0
            },
            {
              "$type": "FireEffect",
              "rotationDampTime": "Eff_Skiff_Normal_AvatarOut",
              "PPPDJGDDOGD": 1.0,
              "AJDILHJFNKE": -1.0
            },
            {
              "$type": "NEPOFLKIEMC",
              "velocity": 1.5,
              "forceType": "SpeedupType",
              "born": {
                "$type": "ConfigBornBySelf",
                "direction": {
                  "$type": "ConfigDirectionByEntity",
                  "angleOffset": {
                    "x": -90.0,
                    "y": 0.0,
                    "z": 0.0
                  }
                },
                "useRotation": true
              },
              "attenuation": 1.0,
              "DENLCFNBPDG": true
            }
          ],
          "onThinkInterval": [
            {
              "$type": "SetGlobalValue",
              "value": 1.0,
              "key": "_ABILITY_Avatar_Driving_Natsaurus_Flag",
              "maxValue": 0.0,
              "minValue": 0.0
            },
            {
              "$type": "AttachModifier",
              "shieldHP": true,
              "modifierName": "UNIQUE_Natsaurus_Normal_AvatarStatue_Invincible"
            },
            {
              "$type": "AttachModifier",
              "shieldHP": true,
              "modifierName": "UNIQUE_Natsaurus_Normal_AvatarStatue_IsGhostToEnemy"
            },
            {
              "$type": "AttachModifier",
              "shieldHP": true,
              "modifierName": "UNIQUE_Natsaurus_Normal_AvatarStatue_LockHP"
            }
          ]
        },
        "UNIQUE_Natsaurus_Normal_AvatarStatue_Invincible": {
          "stacking": "Unique",
          "modifierName": "",
          "forceTriggerWhenChangeAuthority": true,
          "elementDurability": 100.0,
          "state": "Invincible"
        },
        "UNIQUE_Natsaurus_Normal_AvatarStatue_IsGhostToEnemy": {
          "stacking": "Unique",
          "modifierName": "",
          "forceTriggerWhenChangeAuthority": true,
          "elementDurability": 100.0,
          "state": "IsGhostToEnemy"
        },
        "UNIQUE_Natsaurus_Normal_AvatarStatue_LockHP": {
          "stacking": "Unique",
          "modifierName": "",
          "forceTriggerWhenChangeAuthority": true,
          "elementDurability": 100.0,
          "state": "LockHP"
        }
      },
      "isDynamicAbility": true
    }
  },
  {
    "Default": {
      "$type": "ConfigAbility",
      "abilityName": "Vehicle_Natsaurus_Common_ChargeExit",
      "abilityMixins": [
        {
          "$type": "OGMLIGFFHDJ",
          "chargeTime": 0.5,
          "secondChargeTime": 999999.0,
          "onBeginUncharged": [
            {
              "$type": "SetGlobalValue",
              "value": 0.5,
              "key": "GV_AvatarAbility_HoldOnUI_Index04",
              "maxValue": 0.0,
              "minValue": 0.0
            }
          ],
          "onReleaseUncharged": [
            {
              "$type": "SetGlobalValue",
              "value": 0.0,
              "key": "GV_AvatarAbility_HoldOnUI_Index04",
              "maxValue": 0.0,
              "minValue": 0.0
            }
          ],
          "onBeginCharged": [
            {
              "$type": "SetGlobalValue",
              "value": 0.0,
              "key": "GV_AvatarAbility_HoldOnUI_Index04",
              "maxValue": 0.0,
              "minValue": 0.0
            },
            {
              "$type": "Predicated",
              "targetPredicates": [
                {
                  "$type": "ByTargetGlobalValue",
                  "key": "_ABILITY_Vehicle_GetOff_WhiteList",
                  "value": 1.0
                }
              ],
              "successActions": [
                {
                  "$type": "SetGlobalValue",
                  "value": 0.0,
                  "key": "GV_AvatarAbility_HoldOnUI_Index04",
                  "maxValue": 0.0,
                  "minValue": 0.0
                },
                {
                  "$type": "CLDHCOFLGDL"
                }
              ],
              "failActions": [
                {
                  "$type": "BAKEBEKLLAC",
                  "id": 800000001
                }
              ]
            }
          ],
          "onReleaseCharged": [
            {
              "$type": "SetGlobalValue",
              "value": 0.0,
              "key": "GV_AvatarAbility_HoldOnUI_Index04",
              "maxValue": 0.0,
              "minValue": 0.0
            }
          ],
          "inputActionControllerType": "VehicleSkillController",
          "inputActionType": "Action6"
        }
      ]
    }
  },
  {
    "Default": {
      "$type": "ConfigAbility",
      "abilityName": "Vehicle_Natsaurus_Common_Drowned_KillSelf",
      "abilityMixins": [
        {
          "$type": "AttachToStateIDMixin",
          "stateIDs": ["Swim"],
          "modifierName": "UNIQUE_Vehicle_Natsaurus_Common_Drowned_KillSelf",
          "isCheckOnAttach": true,
          "DGFCLAIDIFI": ""
        }
      ],
      "modifiers": {
        "UNIQUE_Vehicle_Natsaurus_Common_Drowned_KillSelf": {
          "modifierName": "",
          "forceTriggerWhenChangeAuthority": true,
          "elementDurability": 100.0,
          "onAdded": [
            {
              "$type": "KillSelf",
              "dieStateFlage": "DieDrawn",
              "configIdArray": [
                45003011, 45003012, 45003021, 45003031, 45003041, 45003051,
                45003061
              ]
            }
          ]
        }
      }
    }
  }
]
