[
  {
    "Default": {
      "$type": "ConfigAbility",
      "abilityName": "Avatar_PlayerBoy_ExtraAttack_Grass",
      "abilityMixins": [
        {
          "$type": "ButtonHoldChargeMixin",
          "skillID": 100547,
          "chargeTime": 0.11999999731779099,
          "secondChargeTime": 0.20000000298023224,
          "onBeginUncharged": [
            {
              "$type": "SetAnimatorTrigger",
              "triggerID": "DoSkill"
            },
            {
              "$type": "SetAnimatorInt",
              "predicates": [
                {
                  "$type": "ByAny",
                  "predicates": [
                    {
                      "$type": "ByAnimatorInt",
                      "logic": "Equal",
                      "value": 0,
                      "parameter": "ComboCount"
                    },
                    {
                      "$type": "ByAnimatorInt",
                      "logic": "Equal",
                      "value": 5,
                      "parameter": "ComboCount"
                    }
                  ]
                }
              ],
              "intID": "SkillID",
              "value": 99.0
            },
            {
              "$type": "SetAnimatorBool",
              "boolID": "IsCharging"
            }
          ],
          "onReleaseUncharged": [
            {
              "$type": "SetAnimatorInt",
              "intID": "SkillID",
              "value": 1.0
            }
          ],
          "onBeginCharged": [
            {
              "$type": "SetAnimatorBool",
              "boolID": "IsCharging",
              "value": true
            }
          ],
          "onReleaseCharged": [
            {
              "$type": "SetAnimatorBool",
              "boolID": "IsCharging"
            },
            {
              "$type": "SetAnimatorInt",
              "intID": "SkillID",
              "value": 1.0
            }
          ],
          "onBeginSecondCharged": [
            {
              "$type": "SetAnimatorTrigger",
              "predicates": [
                {
                  "$type": "ByLocalAvatarStamina",
                  "logic": "GreaterOrEqual",
                  "stamina": [
                    "ExtraAttack_Sword_Stamina_Cost",
                    "Flexible_Stamina",
                    "ADD"
                  ]
                }
              ],
              "triggerID": "DoSkill"
            },
            {
              "$type": "SetAnimatorInt",
              "predicates": [
                {
                  "$type": "ByLocalAvatarStamina",
                  "logic": "GreaterOrEqual",
                  "stamina": [
                    "ExtraAttack_Sword_Stamina_Cost",
                    "Flexible_Stamina",
                    "ADD"
                  ]
                }
              ],
              "intID": "SkillID",
              "value": 6.0
            },
            {
              "$type": "SetAnimatorBool",
              "boolID": "IsCharging"
            }
          ],
          "chargeStateIDs": [
            "Attack01",
            "Attack02",
            "Attack03",
            "Attack04",
            "Run"
          ]
        },
        {
          "$type": "AttachToStateIDMixin",
          "stateIDs": ["ExtraAttack"],
          "modifierName": "ExtraAttack_StaminaCost",
          "DGFCLAIDIFI": ""
        }
      ],
      "abilitySpecials": {
        "ExtraAttack_Sword_Stamina_Cost": 0.0,
        "Flexible_Stamina": -2.0
      },
      "modifiers": {
        "ExtraAttack_StaminaCost": {
          "modifierName": "",
          "elementDurability": 100.0,
          "onAdded": [
            {
              "$type": "AvatarSkillStart",
              "skillID": 10001,
              "amountByTargetCurrentHPRatio": 1.0,
              "costStaminaRatio": "ExtraAttack_Sword_Stamina_Cost"
            }
          ]
        }
      },
      "isDynamicAbility": true
    }
  },
  {
    "Default": {
      "$type": "ConfigAbility",
      "abilityName": "Avatar_PlayerGirl_ExtraAttack_Grass",
      "abilityMixins": [
        {
          "$type": "ButtonHoldChargeMixin",
          "skillID": 100557,
          "chargeTime": 0.11999999731779099,
          "secondChargeTime": 0.20000000298023224,
          "onBeginUncharged": [
            {
              "$type": "SetAnimatorTrigger",
              "triggerID": "DoSkill"
            },
            {
              "$type": "SetAnimatorInt",
              "predicates": [
                {
                  "$type": "ByAny",
                  "predicates": [
                    {
                      "$type": "ByAnimatorInt",
                      "logic": "Equal",
                      "value": 0,
                      "parameter": "ComboCount"
                    },
                    {
                      "$type": "ByAnimatorInt",
                      "logic": "Equal",
                      "value": 5,
                      "parameter": "ComboCount"
                    }
                  ]
                }
              ],
              "intID": "SkillID",
              "value": 99.0
            },
            {
              "$type": "SetAnimatorBool",
              "boolID": "IsCharging"
            }
          ],
          "onReleaseUncharged": [
            {
              "$type": "SetAnimatorInt",
              "intID": "SkillID",
              "value": 1.0
            }
          ],
          "onBeginCharged": [
            {
              "$type": "SetAnimatorBool",
              "boolID": "IsCharging",
              "value": true
            }
          ],
          "onReleaseCharged": [
            {
              "$type": "SetAnimatorBool",
              "boolID": "IsCharging"
            },
            {
              "$type": "SetAnimatorInt",
              "intID": "SkillID",
              "value": 1.0
            }
          ],
          "onBeginSecondCharged": [
            {
              "$type": "SetAnimatorTrigger",
              "predicates": [
                {
                  "$type": "ByLocalAvatarStamina",
                  "logic": "GreaterOrEqual",
                  "stamina": [
                    "ExtraAttack_Sword_Stamina_Cost",
                    "Flexible_Stamina",
                    "ADD"
                  ]
                }
              ],
              "triggerID": "DoSkill"
            },
            {
              "$type": "SetAnimatorInt",
              "predicates": [
                {
                  "$type": "ByLocalAvatarStamina",
                  "logic": "GreaterOrEqual",
                  "stamina": [
                    "ExtraAttack_Sword_Stamina_Cost",
                    "Flexible_Stamina",
                    "ADD"
                  ]
                }
              ],
              "intID": "SkillID",
              "value": 6.0
            },
            {
              "$type": "SetAnimatorBool",
              "boolID": "IsCharging"
            }
          ],
          "chargeStateIDs": [
            "Attack01",
            "Attack02",
            "Attack03",
            "Attack04",
            "Run"
          ]
        },
        {
          "$type": "AttachToStateIDMixin",
          "stateIDs": ["ExtraAttack"],
          "modifierName": "ExtraAttack_StaminaCost",
          "DGFCLAIDIFI": ""
        }
      ],
      "abilitySpecials": {
        "ExtraAttack_Sword_Stamina_Cost": 0.0,
        "Flexible_Stamina": -2.0
      },
      "modifiers": {
        "ExtraAttack_StaminaCost": {
          "modifierName": "",
          "elementDurability": 100.0,
          "onAdded": [
            {
              "$type": "AvatarSkillStart",
              "skillID": 10001,
              "amountByTargetCurrentHPRatio": 1.0,
              "costStaminaRatio": "ExtraAttack_Sword_Stamina_Cost"
            }
          ]
        }
      },
      "isDynamicAbility": true
    }
  },
  {
    "Default": {
      "$type": "ConfigAbility",
      "abilityName": "Avatar_PlayerBoy_ElementalArt_Grass",
      "abilityMixins": [
        {
          "$type": "AttachToNormalizedTimeMixin",
          "stateID": "Player_Grass_ElementalArt",
          "modifierName": "PlayerBoy_Grass_Sword_Eff",
          "DGFCLAIDIFI": ""
        }
      ],
      "abilitySpecials": {
        "ElementArt_Damage": 0.0,
        "Element_Recover_By_Talent_1": 0.0
      },
      "modifiers": {
        "PlayerBoy_Grass_Sword_Eff": {
          "stacking": "Unique",
          "modifierName": "",
          "elementDurability": 100.0,
          "onAdded": [
            {
              "$type": "AttachEffect",
              "rotationDampTime": "Eff_Player_Grass_ElementalArt_Impact_Sword",
              "PPPDJGDDOGD": 1.0,
              "AJDILHJFNKE": -1.0
            }
          ]
        },
        "Avatar_PlayerBoy_EA_Grass_ElemBall_Handler": {
          "stacking": "Unique",
          "modifierName": "",
          "elementDurability": 100.0,
          "onAttackLanded": [
            {
              "$type": "Predicated",
              "target": "Target",
              "targetPredicates": [
                {
                  "$type": "ByAttackTags",
                  "attackTags": ["Elemental_Art"]
                },
                {
                  "$type": "ByEntityTypes",
                  "entityTypes": ["Monster"]
                },
                {
                  "$type": "ByTargetGlobalValue",
                  "key": "_ANIMAL_ENTITY_TYPE",
                  "value": 0.0,
                  "compareType": "NoneOrEqual"
                }
              ],
              "successActions": [
                {
                  "$type": "ApplyModifier",
                  "modifierName": "PlayerBoy_Grass_ElemBall"
                }
              ]
            }
          ]
        },
        "PlayerBoy_Grass_ElemBall": {
          "stacking": "Unique",
          "modifierName": "",
          "duration": 0.30000001192092896,
          "elementDurability": 100.0,
          "onAdded": [
            {
              "$type": "GenerateElemBall",
              "shieldHP": true,
              "configID": 2019,
              "born": {
                "$type": "ConfigBornByTarget",
                "offset": {
                  "x": 0.0,
                  "y": 0.0,
                  "z": 1.0
                }
              },
              "hpRatio": 1.0,
              "baseEnergy": 6.0
            },
            {
              "$type": "Randomed",
              "chance": 0.5,
              "successActions": [
                {
                  "$type": "GenerateElemBall",
                  "shieldHP": true,
                  "configID": 2019,
                  "born": {
                    "$type": "ConfigBornByTarget",
                    "offset": {
                      "x": 0.0,
                      "y": 0.0,
                      "z": 1.0
                    }
                  },
                  "hpRatio": 1.0,
                  "baseEnergy": 3.0
                }
              ]
            }
          ]
        },
        "Avatar_Player_Grass_Impact_Energy_Recover_Handler": {
          "modifierName": "",
          "elementDurability": 100.0,
          "onAttackLanded": [
            {
              "$type": "Predicated",
              "target": "Target",
              "shieldHP": true,
              "targetPredicates": [
                {
                  "$type": "ByEntityTypes",
                  "entityTypes": ["Monster"]
                },
                {
                  "$type": "ByTargetGlobalValue",
                  "key": "_ANIMAL_ENTITY_TYPE",
                  "value": 0.0,
                  "compareType": "NoneOrEqual"
                },
                {
                  "$type": "ByAttackTags",
                  "attackTags": ["Elemental_Art"]
                }
              ],
              "successActions": [
                {
                  "$type": "ApplyModifier",
                  "shieldHP": true,
                  "modifierName": "UNIQUE_Avatar_Player_Grass_Impact_Energy_Recover"
                }
              ]
            }
          ]
        },
        "UNIQUE_Avatar_Player_Grass_Impact_Energy_Recover": {
          "stacking": "Unique",
          "modifierName": "",
          "forceTriggerWhenChangeAuthority": true,
          "duration": 0.30000001192092896,
          "elementDurability": 100.0,
          "onAdded": [
            {
              "$type": "ReviveElemEnergy",
              "target": "Caster",
              "shieldHP": true,
              "value": "Element_Recover_By_Talent_1"
            }
          ]
        }
      },
      "onAdded": [
        {
          "$type": "ApplyModifier",
          "modifierName": "Avatar_PlayerBoy_EA_Grass_ElemBall_Handler"
        },
        {
          "$type": "ApplyModifier",
          "predicates": [
            {
              "$type": "ByUnlockTalentParam",
              "talentParam": "Player_Grass_ElementArt_Energy_Recover_Talent_1"
            }
          ],
          "modifierName": "Avatar_Player_Grass_Impact_Energy_Recover_Handler"
        }
      ],
      "onAbilityStart": [
        {
          "$type": "AvatarSkillStart",
          "predicates": [
            {
              "$type": "BySkillReady",
              "skillID": 10117
            }
          ],
          "skillID": 10117,
          "amountByTargetCurrentHPRatio": 1.0,
          "costStaminaRatio": 1.0
        },
        {
          "$type": "FireEffect",
          "rotationDampTime": "Eff_Player_Grass_ElementalArt_Impact",
          "PPPDJGDDOGD": 1.0,
          "AJDILHJFNKE": -1.0
        },
        {
          "$type": "TriggerAttackEvent",
          "attackEvent": {
            "attackPattern": {
              "$type": "ConfigAttackCircle",
              "triggerType": "TriggerNoRepeat",
              "born": {
                "$type": "ConfigBornBySelf",
                "offset": {
                  "x": 0.0,
                  "y": -0.5,
                  "z": -0.30000001192092896
                }
              },
              "height": 2.0,
              "fanAngle": 130.0,
              "radius": 6.5
            },
            "attackInfo": {
              "attackTag": "Elemental_Art",
              "attenuationTag": "",
              "attenuationGroup": "default",
              "attackProperty": {
                "actorGrassSubHurtDelta": "ElementArt_Damage",
                "actorWindSubHurtDelta": 0.0,
                "elementType": "Grass",
                "elementDurability": 25.0,
                "strikeType": "Default",
                "enBreak": 120.0,
                "attackType": "Melee",
                "GLKMCMDJBIK": 0.0
              },
              "hitPattern": {
                "onHitEffectName": "default",
                "hitImpulseY": "",
                "hitImpulseType": "LV4",
                "hitHaltTimeScale": 0.019999999552965164
              },
              "cameraShake": {
                "shakeRange": 0.36000001430511475,
                "shakeTime": 0.11999999731779099,
                "shakeDistance": 30.0
              }
            }
          },
          "targetType": "Enemy"
        }
      ],
      "isDynamicAbility": true
    }
  },
  {
    "Default": {
      "$type": "ConfigAbility",
      "abilityName": "Avatar_Player_Grass_ElementalBurst_CameraExit",
      "abilityMixins": [
        {
          "$type": "AttachToStateIDMixin",
          "stateIDs": [
            "Player_Grass_ElementalBurst",
            "Player_Grass_ElementalBurst_AS"
          ],
          "modifierName": "ExitCamera",
          "DGFCLAIDIFI": ""
        },
        {
          "$type": "AttachToStateIDMixin",
          "stateIDs": ["Player_Grass_ElementalBurst"],
          "modifierName": "ExitCameraHeadControl",
          "DGFCLAIDIFI": ""
        },
        {
          "$type": "AttachToNormalizedTimeMixin",
          "stateID": "Player_Grass_ElementalBurst_AS",
          "modifierName": "Grass_ElementalBurst_Exit_Camera",
          "normalizeEnd": 0.4000000059604645,
          "DGFCLAIDIFI": ""
        }
      ],
      "modifiers": {
        "ExitCamera": {
          "modifierName": "",
          "elementDurability": 100.0
        },
        "ExitCameraHeadControl": {
          "modifierName": "",
          "elementDurability": 100.0,
          "onAdded": [
            {
              "$type": "EnableHeadControl",
              "blend": false
            }
          ],
          "onRemoved": [
            {
              "$type": "EnableHeadControl",
              "shieldHP": true,
              "enable": true
            }
          ]
        },
        "Grass_ElementalBurst_Exit_Camera": {
          "modifierName": "",
          "elementDurability": 100.0,
          "onRemoved": [
            {
              "$type": "AvatarExitCameraShot",
              "shieldHP": true
            },
            {
              "$type": "AvatarCameraParam",
              "shieldHP": true,
              "cameraParam": {
                "forceRadius": 6.0,
                "forceRadiusDuration": 0.0,
                "shouldKeepForceRadius": true
              }
            }
          ]
        }
      },
      "onAbilityStart": [
        {
          "$type": "ActCameraRadialBlur",
          "cameraRadialBlur": {
            "power": 1.0,
            "blurTime": 0.15000000596046448,
            "fadeTime": 0.6000000238418579
          }
        }
      ],
      "isDynamicAbility": true
    }
  },
  {
    "Default": {
      "$type": "ConfigAbility",
      "abilityName": "Avatar_Player_Grass_ElementalBurst_WeaponDisplay",
      "abilityMixins": [
        {
          "$type": "AttachToNormalizedTimeMixin",
          "stateID": "Player_Grass_ElementalBurst",
          "modifierName": "Player_Grass_ElementalBurst_HideWeapon",
          "normalizeStart": 0.46000000834465027,
          "DGFCLAIDIFI": ""
        },
        {
          "$type": "AttachToNormalizedTimeMixin",
          "stateID": "Player_Grass_ElementalBurst_AS",
          "modifierName": "Player_Grass_ElementalBurst_HideWeapon",
          "DGFCLAIDIFI": ""
        }
      ],
      "modifiers": {
        "Player_Grass_ElementalBurst_HideWeapon": {
          "modifierName": "",
          "elementDurability": 100.0,
          "onAdded": [
            {
              "$type": "TriggerHideWeapon",
              "partNames": ["equip01", "equip02", "sheathPoint"]
            }
          ],
          "onRemoved": [
            {
              "$type": "TriggerHideWeapon",
              "shieldHP": true,
              "KGGEDGKGLDD": true,
              "partNames": ["equip01", "equip02", "sheathPoint"]
            }
          ]
        }
      },
      "isDynamicAbility": true
    }
  },
  {
    "Default": {
      "$type": "ConfigAbility",
      "abilityName": "Avatar_Player_Grass_ElementalBurst_Initiate",
      "abilityMixins": [
        {
          "$type": "AttachToStateIDMixin",
          "stateIDs": ["Player_Grass_ElementalBurst"],
          "modifierName": "Player_Grass_ElementalBurst_Invincible",
          "DGFCLAIDIFI": ""
        },
        {
          "$type": "AttachToNormalizedTimeMixin",
          "stateID": "Player_Grass_ElementalBurst",
          "modifierName": "Player_Grass_Seed_Sword_Eff",
          "normalizeStart": 0.10000000149011612,
          "DGFCLAIDIFI": ""
        }
      ],
      "modifiers": {
        "Player_Grass_ElementalBurst_Invincible": {
          "modifierName": "",
          "elementDurability": 100.0,
          "state": "Invincible",
          "onAdded": [
            {
              "$type": "AttachAbilityStateResistance",
              "resistanceListID": 11002
            },
            {
              "$type": "AvatarSkillStart",
              "skillID": 10118,
              "amountByTargetCurrentHPRatio": 1.0,
              "costStaminaRatio": 1.0
            }
          ]
        },
        "Player_Grass_Seed_Sword_Eff": {
          "modifierName": "",
          "elementDurability": 100.0,
          "onAdded": [
            {
              "$type": "FireEffect",
              "rotationDampTime": "Eff_Player_Grass_ElementalBurst_Seed_Sword",
              "PPPDJGDDOGD": 1.0,
              "AJDILHJFNKE": -1.0
            }
          ]
        }
      },
      "onAbilityStart": [
        {
          "$type": "KillGadget",
          "gadgetInfo": {
            "configID": 41011001
          }
        },
        {
          "$type": "SetGlobalValue",
          "value": 0.0,
          "key": "_ABILITY_PLAYER_GRASS_SEED_STATE_ON_AVATAR",
          "useLimitRange": true,
          "maxValue": 3.0,
          "minValue": 0.0
        },
        {
          "$type": "CreateGadget",
          "born": {
            "$type": "ConfigBornBySelf",
            "offset": {
              "x": 0.0,
              "y": 0.0,
              "z": 1.5
            },
            "onGround": true,
            "onGroundRaycastUpDist": 3.0
          },
          "gadgetID": 41011001,
          "campID": 1001,
          "campTargetType": "Enemy"
        }
      ],
      "isDynamicAbility": true
    }
  },
  {
    "Default": {
      "$type": "ConfigAbility",
      "abilityName": "Avatar_Player_Grass_Seed_Gadget",
      "abilityMixins": [
        {
          "$type": "DoActionOnGlobalValueChangeMixin",
          "globalValueKey": "_ABILITY_PLAYER_GRASS_SEED_STATE_MARK_Cache",
          "actions": [
            {
              "$type": "Predicated",
              "targetPredicates": [
                {
                  "$type": "ByTargetGlobalValue",
                  "key": "_ABILITY_PLAYER_GRASS_SEED_STATE_MARK_Cache",
                  "value": 0.0,
                  "compareType": "MoreThan"
                }
              ],
              "successActions": [
                {
                  "$type": "ApplyModifier",
                  "modifierName": "UNIQUE_Player_Grass_Seed_State_Modify"
                },
                {
                  "$type": "KillGadget",
                  "gadgetInfo": {
                    "configID": 4101102
                  }
                }
              ]
            }
          ]
        }
      ],
      "abilitySpecials": {
        "Grass_Seed_State_Mark_Temp": 0.0,
        "Grass_Seed_Duration": 0.30000001192092896,
        "Grass_Seed_Damage_Ratio": 0.0,
        "Grass_Seed_Fire_Boom_Ratio": 0.0
      },
      "modifiers": {
        "UNIQUE_Player_Grass_Seed_State_Modify": {
          "stacking": "Unique",
          "modifierName": "",
          "forceTriggerWhenChangeAuthority": true,
          "duration": 25.0,
          "elementDurability": 100.0,
          "onAdded": [
            {
              "$type": "CopyGlobalValue",
              "srcTarget": "Self",
              "dstTarget": "Self",
              "srcKey": "_ABILITY_PLAYER_GRASS_SEED_STATE_MARK_Cache",
              "dstKey": "_ABILITY_PLAYER_GRASS_SEED_STATE_MARK"
            },
            {
              "$type": "CopyGlobalValue",
              "srcTarget": "Self",
              "dstTarget": "CasterOwner",
              "srcKey": "_ABILITY_PLAYER_GRASS_SEED_STATE_MARK_Cache",
              "dstKey": "_ABILITY_PLAYER_GRASS_SEED_STATE_ON_AVATAR"
            }
          ]
        },
        "UNIQUE_Player_Grass_Seed_Attack_Handler_Delay": {
          "stacking": "Unique",
          "modifierName": "",
          "forceTriggerWhenChangeAuthority": true,
          "duration": 0.5,
          "elementDurability": 100.0,
          "onRemoved": [
            {
              "$type": "ApplyModifier",
              "modifierName": "UNIQUE_Player_Grass_Seed_Attack_Handler"
            }
          ]
        },
        "UNIQUE_Player_Grass_Seed_Eff_Handler": {
          "stacking": "Unique",
          "modifierName": "",
          "forceTriggerWhenChangeAuthority": true,
          "elementDurability": 100.0,
          "modifierMixins": [
            {
              "$type": "AttachModifierToGlobalValueMixin",
              "globalValueKey": "_ABILITY_PLAYER_GRASS_SEED_STATE_MARK",
              "valueSteps": [-0.5, 0.5, 1.5, 2.5, 3.5],
              "modifierNameSteps": [
                "UNIQUE_Player_Grass_Seed_Eff_Origin",
                "UNIQUE_Player_Grass_Seed_Eff_Electric",
                "UNIQUE_Player_Grass_Seed_Eff_Fire",
                "UNIQUE_Player_Grass_Seed_Eff_Water"
              ]
            }
          ]
        },
        "UNIQUE_Player_Grass_Seed_Circle_Eff_Handler": {
          "stacking": "Unique",
          "modifierName": "",
          "forceTriggerWhenChangeAuthority": true,
          "elementDurability": 100.0,
          "modifierMixins": [
            {
              "$type": "AttachModifierToGlobalValueMixin",
              "globalValueKey": "_ABILITY_PLAYER_GRASS_SEED_STATE_MARK",
              "valueSteps": [-0.5, 1.5, 2.5, 3.5],
              "modifierNameSteps": [
                "UNIQUE_Player_Grass_Seed_Circle_Eff_Little",
                "UNIQUE_Player_Grass_Seed_Circle_Eff_None",
                "UNIQUE_Player_Grass_Seed_Circle_Eff_Big"
              ]
            }
          ]
        },
        "UNIQUE_Player_Grass_Seed_Attack_Handler": {
          "stacking": "Unique",
          "modifierName": "",
          "forceTriggerWhenChangeAuthority": true,
          "duration": "Grass_Seed_Duration",
          "elementDurability": 100.0,
          "modifierMixins": [
            {
              "$type": "AttachModifierToGlobalValueMixin",
              "globalValueKey": "_ABILITY_PLAYER_GRASS_SEED_STATE_MARK",
              "valueSteps": [-0.5, 0.5, 1.5, 2.5, 3.5],
              "modifierNameSteps": [
                "UNIQUE_Player_Grass_Seed_Attacker_Origin",
                "UNIQUE_Player_Grass_Seed_Attacker_Electric",
                "UNIQUE_Player_Grass_Seed_Attacker_Fire",
                "UNIQUE_Player_Grass_Seed_Attacker_Water"
              ]
            }
          ],
          "onRemoved": [
            {
              "$type": "KillSelf"
            }
          ]
        },
        "UNIQUE_Player_Grass_Seed_Attacker_Origin": {
          "stacking": "Unique",
          "modifierName": "",
          "forceTriggerWhenChangeAuthority": true,
          "duration": 20.0,
          "elementDurability": 100.0,
          "thinkInterval": 1.5,
          "onAdded": [
            {
              "$type": "SetGlobalPos",
              "key": "_ABILITY_PLAYER_GRASS_SEED_ATTACKER_POS",
              "born": {
                "$type": "ConfigBornBySelf",
                "offset": {
                  "x": 0.0,
                  "y": 0.20000000298023224,
                  "z": 0.0
                },
                "bornRandom": {
                  "$type": "BornRandomFromCenter",
                  "minRandomRange": 1.0,
                  "maxRandomRange": 6.0
                }
              }
            },
            {
              "$type": "Predicated",
              "otherTargets": {
                "$type": "SelectTargetsByShape",
                "topLimit": 1,
                "entityTypePriority": ["Monster", "Gadget"],
                "sortType": "Random",
                "shapeName": "CircleR8H10",
                "campTargetType": "Enemy",
                "doOffStage": 1.0
              },
              "predicates": [
                {
                  "$type": "ByEntityTypes",
                  "entityTypes": ["Monster", "Gadget"]
                },
                {
                  "$type": "ByTargetGlobalValue",
                  "key": "_ANIMAL_ENTITY_TYPE",
                  "value": 0.0,
                  "compareType": "NoneOrEqual"
                },
                {
                  "$type": "ByTargetGlobalValue",
                  "key": "_ABILITY_PLAYER_GRASS_SEED_OWN_GADGET_MARK",
                  "value": 0.0,
                  "compareType": "NoneOrEqual"
                }
              ],
              "successActions": [
                {
                  "$type": "SetGlobalPos",
                  "target": "Target",
                  "key": "_ABILITY_PLAYER_GRASS_SEED_ATTACKER_FIXPOS",
                  "born": {
                    "$type": "ConfigBornByTarget",
                    "offset": {
                      "x": 0.0,
                      "y": 0.20000000298023224,
                      "z": 0.0
                    }
                  },
                  "setTarget": false
                },
                {
                  "$type": "CopyGlobalValue",
                  "srcTarget": "Self",
                  "dstTarget": "Self",
                  "srcKey": "_ABILITY_PLAYER_GRASS_SEED_ATTACKER_FIXPOS_0",
                  "dstKey": "_ABILITY_PLAYER_GRASS_SEED_ATTACKER_POS_0"
                },
                {
                  "$type": "CopyGlobalValue",
                  "srcTarget": "Self",
                  "dstTarget": "Self",
                  "srcKey": "_ABILITY_PLAYER_GRASS_SEED_ATTACKER_FIXPOS_1",
                  "dstKey": "_ABILITY_PLAYER_GRASS_SEED_ATTACKER_POS_1"
                },
                {
                  "$type": "CopyGlobalValue",
                  "srcTarget": "Self",
                  "dstTarget": "Self",
                  "srcKey": "_ABILITY_PLAYER_GRASS_SEED_ATTACKER_FIXPOS_2",
                  "dstKey": "_ABILITY_PLAYER_GRASS_SEED_ATTACKER_POS_2"
                }
              ]
            },
            {
              "$type": "FireEffect",
              "rotationDampTime": "Eff_Player_Grass_ElementalBurst_Seed_Attack",
              "born": {
                "$type": "ConfigBornByGlobalValue",
                "onGround": true,
                "onGroundRaycastUpDist": 3.0,
                "positionKey": "_ABILITY_PLAYER_GRASS_SEED_ATTACKER_POS",
                "directionKey": ""
              },
              "PPPDJGDDOGD": 1.0,
              "AJDILHJFNKE": -1.0
            },
            {
              "$type": "FireEffect",
              "rotationDampTime": "Eff_Player_Grass_ElementalBurst_Seed_Emission",
              "PPPDJGDDOGD": 1.0,
              "AJDILHJFNKE": -1.0
            },
            {
              "$type": "ApplyModifier",
              "modifierName": "Player_Grass_Seed_Attack_Delay_Origin"
            }
          ],
          "onThinkInterval": [
            {
              "$type": "SetGlobalPos",
              "key": "_ABILITY_PLAYER_GRASS_SEED_ATTACKER_POS",
              "born": {
                "$type": "ConfigBornBySelf",
                "offset": {
                  "x": 0.0,
                  "y": 0.20000000298023224,
                  "z": 0.0
                },
                "bornRandom": {
                  "$type": "BornRandomFromCenter",
                  "minRandomRange": 1.0,
                  "maxRandomRange": 6.0
                }
              }
            },
            {
              "$type": "Predicated",
              "otherTargets": {
                "$type": "SelectTargetsByShape",
                "topLimit": 1,
                "entityTypePriority": ["Monster", "Gadget"],
                "sortType": "Random",
                "shapeName": "CircleR8H10",
                "campTargetType": "Enemy",
                "doOffStage": 1.0
              },
              "predicates": [
                {
                  "$type": "ByEntityTypes",
                  "entityTypes": ["Monster", "Gadget"]
                },
                {
                  "$type": "ByTargetGlobalValue",
                  "key": "_ANIMAL_ENTITY_TYPE",
                  "value": 0.0,
                  "compareType": "NoneOrEqual"
                },
                {
                  "$type": "ByTargetGlobalValue",
                  "key": "_ABILITY_PLAYER_GRASS_SEED_OWN_GADGET_MARK",
                  "value": 0.0,
                  "compareType": "NoneOrEqual"
                }
              ],
              "successActions": [
                {
                  "$type": "SetGlobalPos",
                  "target": "Target",
                  "key": "_ABILITY_PLAYER_GRASS_SEED_ATTACKER_FIXPOS",
                  "born": {
                    "$type": "ConfigBornByTarget",
                    "offset": {
                      "x": 0.0,
                      "y": 0.20000000298023224,
                      "z": 0.0
                    }
                  },
                  "setTarget": false
                },
                {
                  "$type": "CopyGlobalValue",
                  "srcTarget": "Self",
                  "dstTarget": "Self",
                  "srcKey": "_ABILITY_PLAYER_GRASS_SEED_ATTACKER_FIXPOS_0",
                  "dstKey": "_ABILITY_PLAYER_GRASS_SEED_ATTACKER_POS_0"
                },
                {
                  "$type": "CopyGlobalValue",
                  "srcTarget": "Self",
                  "dstTarget": "Self",
                  "srcKey": "_ABILITY_PLAYER_GRASS_SEED_ATTACKER_FIXPOS_1",
                  "dstKey": "_ABILITY_PLAYER_GRASS_SEED_ATTACKER_POS_1"
                },
                {
                  "$type": "CopyGlobalValue",
                  "srcTarget": "Self",
                  "dstTarget": "Self",
                  "srcKey": "_ABILITY_PLAYER_GRASS_SEED_ATTACKER_FIXPOS_2",
                  "dstKey": "_ABILITY_PLAYER_GRASS_SEED_ATTACKER_POS_2"
                }
              ]
            },
            {
              "$type": "FireEffect",
              "rotationDampTime": "Eff_Player_Grass_ElementalBurst_Seed_Attack",
              "born": {
                "$type": "ConfigBornByGlobalValue",
                "onGround": true,
                "onGroundRaycastUpDist": 3.0,
                "positionKey": "_ABILITY_PLAYER_GRASS_SEED_ATTACKER_POS",
                "directionKey": ""
              },
              "PPPDJGDDOGD": 1.0,
              "AJDILHJFNKE": -1.0
            },
            {
              "$type": "FireEffect",
              "rotationDampTime": "Eff_Player_Grass_ElementalBurst_Seed_Emission",
              "PPPDJGDDOGD": 1.0,
              "AJDILHJFNKE": -1.0
            },
            {
              "$type": "ApplyModifier",
              "modifierName": "Player_Grass_Seed_Attack_Delay_Origin"
            }
          ]
        },
        "UNIQUE_Player_Grass_Seed_Attacker_Fire": {
          "stacking": "Unique",
          "modifierName": "",
          "forceTriggerWhenChangeAuthority": true,
          "duration": 1.5,
          "elementDurability": 100.0,
          "thinkInterval": 1.0,
          "onRemoved": [
            {
              "$type": "KillSelf"
            }
          ],
          "onThinkInterval": [
            {
              "$type": "FireEffect",
              "rotationDampTime": "Eff_Player_Grass_ElementalBurst_Seed_Fire_Explosion",
              "born": {
                "$type": "ConfigBornBySelf",
                "offset": {
                  "x": 0.0,
                  "y": 0.0,
                  "z": 0.0
                }
              },
              "PPPDJGDDOGD": 1.0,
              "AJDILHJFNKE": -1.0
            },
            {
              "$type": "TriggerAttackEvent",
              "attackEvent": {
                "attackPattern": {
                  "$type": "ConfigAttackCircle",
                  "triggerType": "TriggerNoRepeat",
                  "born": {
                    "$type": "ConfigBornBySelf",
                    "offset": {
                      "x": 0.0,
                      "y": -1.0,
                      "z": 0.0
                    }
                  },
                  "height": 3.0,
                  "radius": 6.5
                },
                "attackInfo": {
                  "attackTag": "Elemental_Burst",
                  "attenuationTag": "",
                  "attenuationGroup": "default",
                  "attackProperty": {
                    "actorGrassSubHurtDelta": "Grass_Seed_Fire_Boom_Ratio",
                    "actorWindSubHurtDelta": 0.0,
                    "elementType": "Grass",
                    "elementDurability": 50.0,
                    "strikeType": "Default",
                    "enBreak": 200.0,
                    "attackType": "Range",
                    "GLKMCMDJBIK": 0.0
                  },
                  "hitPattern": {
                    "onHitEffectName": "default",
                    "hitImpulseY": "",
                    "hitImpulseType": "LV1"
                  },
                  "canBeModifiedBy": "Owner"
                }
              },
              "targetType": "Enemy"
            }
          ]
        },
        "UNIQUE_Player_Grass_Seed_Attacker_Electric": {
          "stacking": "Unique",
          "modifierName": "",
          "forceTriggerWhenChangeAuthority": true,
          "duration": 20.0,
          "elementDurability": 100.0,
          "thinkInterval": 0.8999999761581421,
          "onAdded": [
            {
              "$type": "SetGlobalPos",
              "key": "_ABILITY_PLAYER_GRASS_SEED_ATTACKER_POS",
              "born": {
                "$type": "ConfigBornBySelf",
                "offset": {
                  "x": 0.0,
                  "y": 0.20000000298023224,
                  "z": 0.0
                },
                "bornRandom": {
                  "$type": "BornRandomFromCenter",
                  "minRandomRange": 1.0,
                  "maxRandomRange": 6.0
                }
              }
            },
            {
              "$type": "Predicated",
              "otherTargets": {
                "$type": "SelectTargetsByShape",
                "topLimit": 1,
                "entityTypePriority": ["Monster", "Gadget"],
                "sortType": "Random",
                "shapeName": "CircleR8H10",
                "campTargetType": "Enemy",
                "doOffStage": 1.0
              },
              "predicates": [
                {
                  "$type": "ByEntityTypes",
                  "entityTypes": ["Monster", "Gadget"]
                },
                {
                  "$type": "ByTargetGlobalValue",
                  "key": "_ANIMAL_ENTITY_TYPE",
                  "value": 0.0,
                  "compareType": "NoneOrEqual"
                },
                {
                  "$type": "ByTargetGlobalValue",
                  "key": "_ABILITY_PLAYER_GRASS_SEED_OWN_GADGET_MARK",
                  "value": 0.0,
                  "compareType": "NoneOrEqual"
                }
              ],
              "successActions": [
                {
                  "$type": "SetGlobalPos",
                  "target": "Target",
                  "key": "_ABILITY_PLAYER_GRASS_SEED_ATTACKER_FIXPOS",
                  "born": {
                    "$type": "ConfigBornByTarget",
                    "offset": {
                      "x": 0.0,
                      "y": 0.20000000298023224,
                      "z": 0.0
                    }
                  },
                  "setTarget": false
                },
                {
                  "$type": "CopyGlobalValue",
                  "srcTarget": "Self",
                  "dstTarget": "Self",
                  "srcKey": "_ABILITY_PLAYER_GRASS_SEED_ATTACKER_FIXPOS_0",
                  "dstKey": "_ABILITY_PLAYER_GRASS_SEED_ATTACKER_POS_0"
                },
                {
                  "$type": "CopyGlobalValue",
                  "srcTarget": "Self",
                  "dstTarget": "Self",
                  "srcKey": "_ABILITY_PLAYER_GRASS_SEED_ATTACKER_FIXPOS_1",
                  "dstKey": "_ABILITY_PLAYER_GRASS_SEED_ATTACKER_POS_1"
                },
                {
                  "$type": "CopyGlobalValue",
                  "srcTarget": "Self",
                  "dstTarget": "Self",
                  "srcKey": "_ABILITY_PLAYER_GRASS_SEED_ATTACKER_FIXPOS_2",
                  "dstKey": "_ABILITY_PLAYER_GRASS_SEED_ATTACKER_POS_2"
                },
                {
                  "$type": "FireEffect",
                  "rotationDampTime": "Eff_Player_Grass_ElementalBurst_Seed_Attack_Electric",
                  "born": {
                    "$type": "ConfigBornByGlobalValue",
                    "onGround": true,
                    "onGroundRaycastUpDist": 3.0,
                    "positionKey": "_ABILITY_PLAYER_GRASS_SEED_ATTACKER_POS",
                    "directionKey": ""
                  },
                  "PPPDJGDDOGD": 1.0,
                  "AJDILHJFNKE": -1.0
                },
                {
                  "$type": "ApplyModifier",
                  "modifierName": "Player_Grass_Seed_Attack_Delay_Origin"
                }
              ]
            }
          ],
          "onThinkInterval": [
            {
              "$type": "SetGlobalPos",
              "key": "_ABILITY_PLAYER_GRASS_SEED_ATTACKER_POS",
              "born": {
                "$type": "ConfigBornBySelf",
                "offset": {
                  "x": 0.0,
                  "y": 0.20000000298023224,
                  "z": 0.0
                },
                "bornRandom": {
                  "$type": "BornRandomFromCenter",
                  "minRandomRange": 1.0,
                  "maxRandomRange": 6.0
                }
              }
            },
            {
              "$type": "Predicated",
              "otherTargets": {
                "$type": "SelectTargetsByShape",
                "topLimit": 1,
                "entityTypePriority": ["Monster", "Gadget"],
                "sortType": "Random",
                "shapeName": "CircleR8H10",
                "campTargetType": "Enemy",
                "doOffStage": 1.0
              },
              "predicates": [
                {
                  "$type": "ByEntityTypes",
                  "entityTypes": ["Monster", "Gadget"]
                },
                {
                  "$type": "ByTargetGlobalValue",
                  "key": "_ANIMAL_ENTITY_TYPE",
                  "value": 0.0,
                  "compareType": "NoneOrEqual"
                },
                {
                  "$type": "ByTargetGlobalValue",
                  "key": "_ABILITY_PLAYER_GRASS_SEED_OWN_GADGET_MARK",
                  "value": 0.0,
                  "compareType": "NoneOrEqual"
                }
              ],
              "successActions": [
                {
                  "$type": "SetGlobalPos",
                  "target": "Target",
                  "key": "_ABILITY_PLAYER_GRASS_SEED_ATTACKER_FIXPOS",
                  "born": {
                    "$type": "ConfigBornByTarget",
                    "offset": {
                      "x": 0.0,
                      "y": 0.20000000298023224,
                      "z": 0.0
                    }
                  },
                  "setTarget": false
                },
                {
                  "$type": "CopyGlobalValue",
                  "srcTarget": "Self",
                  "dstTarget": "Self",
                  "srcKey": "_ABILITY_PLAYER_GRASS_SEED_ATTACKER_FIXPOS_0",
                  "dstKey": "_ABILITY_PLAYER_GRASS_SEED_ATTACKER_POS_0"
                },
                {
                  "$type": "CopyGlobalValue",
                  "srcTarget": "Self",
                  "dstTarget": "Self",
                  "srcKey": "_ABILITY_PLAYER_GRASS_SEED_ATTACKER_FIXPOS_1",
                  "dstKey": "_ABILITY_PLAYER_GRASS_SEED_ATTACKER_POS_1"
                },
                {
                  "$type": "CopyGlobalValue",
                  "srcTarget": "Self",
                  "dstTarget": "Self",
                  "srcKey": "_ABILITY_PLAYER_GRASS_SEED_ATTACKER_FIXPOS_2",
                  "dstKey": "_ABILITY_PLAYER_GRASS_SEED_ATTACKER_POS_2"
                }
              ]
            },
            {
              "$type": "FireEffect",
              "rotationDampTime": "Eff_Player_Grass_ElementalBurst_Seed_Attack_Electric",
              "born": {
                "$type": "ConfigBornByGlobalValue",
                "onGround": true,
                "onGroundRaycastUpDist": 3.0,
                "positionKey": "_ABILITY_PLAYER_GRASS_SEED_ATTACKER_POS",
                "directionKey": ""
              },
              "PPPDJGDDOGD": 1.0,
              "AJDILHJFNKE": -1.0
            },
            {
              "$type": "FireEffect",
              "rotationDampTime": "Eff_Player_Grass_ElementalBurst_Seed_Emission",
              "PPPDJGDDOGD": 1.0,
              "AJDILHJFNKE": -1.0
            },
            {
              "$type": "ApplyModifier",
              "modifierName": "Player_Grass_Seed_Attack_Delay_Origin"
            }
          ]
        },
        "UNIQUE_Player_Grass_Seed_Attacker_Water": {
          "stacking": "Unique",
          "modifierName": "",
          "forceTriggerWhenChangeAuthority": true,
          "duration": 20.0,
          "elementDurability": 100.0,
          "thinkInterval": 1.5,
          "onAdded": [
            {
              "$type": "SetGlobalPos",
              "key": "_ABILITY_PLAYER_GRASS_SEED_ATTACKER_POS",
              "born": {
                "$type": "ConfigBornBySelf",
                "offset": {
                  "x": 0.0,
                  "y": 0.20000000298023224,
                  "z": 0.0
                },
                "bornRandom": {
                  "$type": "BornRandomFromCenter",
                  "minRandomRange": 1.0,
                  "maxRandomRange": 8.0
                }
              }
            },
            {
              "$type": "Predicated",
              "otherTargets": {
                "$type": "SelectTargetsByShape",
                "topLimit": 1,
                "entityTypePriority": ["Monster", "Gadget"],
                "sortType": "Random",
                "shapeName": "CircleR12H10",
                "campTargetType": "Enemy",
                "doOffStage": 1.0
              },
              "predicates": [
                {
                  "$type": "ByEntityTypes",
                  "entityTypes": ["Monster", "Gadget"]
                },
                {
                  "$type": "ByTargetGlobalValue",
                  "key": "_ANIMAL_ENTITY_TYPE",
                  "value": 0.0,
                  "compareType": "NoneOrEqual"
                },
                {
                  "$type": "ByTargetGlobalValue",
                  "key": "_ABILITY_PLAYER_GRASS_SEED_OWN_GADGET_MARK",
                  "value": 0.0,
                  "compareType": "NoneOrEqual"
                }
              ],
              "successActions": [
                {
                  "$type": "SetGlobalPos",
                  "target": "Target",
                  "key": "_ABILITY_PLAYER_GRASS_SEED_ATTACKER_FIXPOS",
                  "born": {
                    "$type": "ConfigBornByTarget",
                    "offset": {
                      "x": 0.0,
                      "y": 0.20000000298023224,
                      "z": 0.0
                    }
                  },
                  "setTarget": false
                },
                {
                  "$type": "CopyGlobalValue",
                  "srcTarget": "Self",
                  "dstTarget": "Self",
                  "srcKey": "_ABILITY_PLAYER_GRASS_SEED_ATTACKER_FIXPOS_0",
                  "dstKey": "_ABILITY_PLAYER_GRASS_SEED_ATTACKER_POS_0"
                },
                {
                  "$type": "CopyGlobalValue",
                  "srcTarget": "Self",
                  "dstTarget": "Self",
                  "srcKey": "_ABILITY_PLAYER_GRASS_SEED_ATTACKER_FIXPOS_1",
                  "dstKey": "_ABILITY_PLAYER_GRASS_SEED_ATTACKER_POS_1"
                },
                {
                  "$type": "CopyGlobalValue",
                  "srcTarget": "Self",
                  "dstTarget": "Self",
                  "srcKey": "_ABILITY_PLAYER_GRASS_SEED_ATTACKER_FIXPOS_2",
                  "dstKey": "_ABILITY_PLAYER_GRASS_SEED_ATTACKER_POS_2"
                }
              ]
            },
            {
              "$type": "FireEffect",
              "rotationDampTime": "Eff_Player_Grass_ElementalBurst_Seed_Attack_Big",
              "born": {
                "$type": "ConfigBornByGlobalValue",
                "onGround": true,
                "onGroundRaycastUpDist": 3.0,
                "positionKey": "_ABILITY_PLAYER_GRASS_SEED_ATTACKER_POS",
                "directionKey": ""
              },
              "PPPDJGDDOGD": 1.0,
              "AJDILHJFNKE": -1.0
            },
            {
              "$type": "ApplyModifier",
              "modifierName": "Player_Grass_Seed_Attack_Delay_Water"
            }
          ],
          "onThinkInterval": [
            {
              "$type": "SetGlobalPos",
              "key": "_ABILITY_PLAYER_GRASS_SEED_ATTACKER_POS",
              "born": {
                "$type": "ConfigBornBySelf",
                "offset": {
                  "x": 0.0,
                  "y": 0.20000000298023224,
                  "z": 0.0
                },
                "bornRandom": {
                  "$type": "BornRandomFromCenter",
                  "minRandomRange": 1.0,
                  "maxRandomRange": 8.0
                }
              }
            },
            {
              "$type": "Predicated",
              "otherTargets": {
                "$type": "SelectTargetsByShape",
                "topLimit": 1,
                "entityTypePriority": ["Monster", "Gadget"],
                "sortType": "Random",
                "shapeName": "CircleR12H10",
                "campTargetType": "Enemy",
                "doOffStage": 1.0
              },
              "predicates": [
                {
                  "$type": "ByEntityTypes",
                  "entityTypes": ["Monster", "Gadget"]
                },
                {
                  "$type": "ByTargetGlobalValue",
                  "key": "_ANIMAL_ENTITY_TYPE",
                  "value": 0.0,
                  "compareType": "NoneOrEqual"
                },
                {
                  "$type": "ByTargetGlobalValue",
                  "key": "_ABILITY_PLAYER_GRASS_SEED_OWN_GADGET_MARK",
                  "value": 0.0,
                  "compareType": "NoneOrEqual"
                }
              ],
              "successActions": [
                {
                  "$type": "SetGlobalPos",
                  "target": "Target",
                  "key": "_ABILITY_PLAYER_GRASS_SEED_ATTACKER_FIXPOS",
                  "born": {
                    "$type": "ConfigBornByTarget",
                    "offset": {
                      "x": 0.0,
                      "y": 0.20000000298023224,
                      "z": 0.0
                    }
                  },
                  "setTarget": false
                },
                {
                  "$type": "CopyGlobalValue",
                  "srcTarget": "Self",
                  "dstTarget": "Self",
                  "srcKey": "_ABILITY_PLAYER_GRASS_SEED_ATTACKER_FIXPOS_0",
                  "dstKey": "_ABILITY_PLAYER_GRASS_SEED_ATTACKER_POS_0"
                },
                {
                  "$type": "CopyGlobalValue",
                  "srcTarget": "Self",
                  "dstTarget": "Self",
                  "srcKey": "_ABILITY_PLAYER_GRASS_SEED_ATTACKER_FIXPOS_1",
                  "dstKey": "_ABILITY_PLAYER_GRASS_SEED_ATTACKER_POS_1"
                },
                {
                  "$type": "CopyGlobalValue",
                  "srcTarget": "Self",
                  "dstTarget": "Self",
                  "srcKey": "_ABILITY_PLAYER_GRASS_SEED_ATTACKER_FIXPOS_2",
                  "dstKey": "_ABILITY_PLAYER_GRASS_SEED_ATTACKER_POS_2"
                }
              ]
            },
            {
              "$type": "FireEffect",
              "rotationDampTime": "Eff_Player_Grass_ElementalBurst_Seed_Attack_Big",
              "born": {
                "$type": "ConfigBornByGlobalValue",
                "onGround": true,
                "onGroundRaycastUpDist": 3.0,
                "positionKey": "_ABILITY_PLAYER_GRASS_SEED_ATTACKER_POS",
                "directionKey": ""
              },
              "PPPDJGDDOGD": 1.0,
              "AJDILHJFNKE": -1.0
            },
            {
              "$type": "FireEffect",
              "rotationDampTime": "Eff_Player_Grass_ElementalBurst_Seed_Emission",
              "PPPDJGDDOGD": 1.0,
              "AJDILHJFNKE": -1.0
            },
            {
              "$type": "ApplyModifier",
              "modifierName": "Player_Grass_Seed_Attack_Delay_Water"
            }
          ]
        },
        "Player_Grass_Seed_Attack_Delay_Origin": {
          "stacking": "Multiple",
          "modifierName": "",
          "duration": 0.25,
          "elementDurability": 100.0,
          "onRemoved": [
            {
              "$type": "TriggerAttackEvent",
              "attackEvent": {
                "attackPattern": {
                  "$type": "ConfigAttackCircle",
                  "triggerType": "TriggerNoRepeat",
                  "born": {
                    "$type": "ConfigBornByGlobalValue",
                    "offset": {
                      "x": 0.0,
                      "y": -1.0,
                      "z": 0.0
                    },
                    "onGround": true,
                    "onGroundRaycastUpDist": 3.0,
                    "positionKey": "_ABILITY_PLAYER_GRASS_SEED_ATTACKER_POS",
                    "directionKey": ""
                  },
                  "height": 3.799999952316284,
                  "radius": 2.0
                },
                "attackInfo": {
                  "attackTag": "Elemental_Burst",
                  "attenuationTag": "default",
                  "attenuationGroup": "default",
                  "attackProperty": {
                    "actorGrassSubHurtDelta": "Grass_Seed_Damage_Ratio",
                    "actorWindSubHurtDelta": 0.0,
                    "elementType": "Grass",
                    "elementDurability": 25.0,
                    "strikeType": "Default",
                    "attackType": "Range",
                    "GLKMCMDJBIK": 0.0
                  },
                  "hitPattern": {
                    "onHitEffectName": "default",
                    "hitImpulseY": "",
                    "hitImpulseType": "LV1",
                    "hitHaltTimeScale": 0.019999999552965164
                  },
                  "canBeModifiedBy": "Owner"
                }
              },
              "targetType": "Enemy"
            }
          ]
        },
        "Player_Grass_Seed_Attack_Delay_Water": {
          "stacking": "Multiple",
          "modifierName": "",
          "duration": 0.25,
          "elementDurability": 100.0,
          "onRemoved": [
            {
              "$type": "TriggerAttackEvent",
              "attackEvent": {
                "attackPattern": {
                  "$type": "ConfigAttackCircle",
                  "triggerType": "TriggerNoRepeat",
                  "born": {
                    "$type": "ConfigBornByGlobalValue",
                    "offset": {
                      "x": 0.0,
                      "y": -1.0,
                      "z": 0.0
                    },
                    "onGround": true,
                    "onGroundRaycastUpDist": 3.0,
                    "positionKey": "_ABILITY_PLAYER_GRASS_SEED_ATTACKER_POS",
                    "directionKey": ""
                  },
                  "height": 3.799999952316284,
                  "radius": 4.0
                },
                "attackInfo": {
                  "attackTag": "Elemental_Burst",
                  "attenuationTag": "default",
                  "attenuationGroup": "default",
                  "attackProperty": {
                    "actorGrassSubHurtDelta": "Grass_Seed_Damage_Ratio",
                    "actorWindSubHurtDelta": 0.0,
                    "elementType": "Grass",
                    "elementDurability": 25.0,
                    "strikeType": "Default",
                    "enBreak": 50.0,
                    "attackType": "Range",
                    "GLKMCMDJBIK": 0.0
                  },
                  "hitPattern": {
                    "onHitEffectName": "default",
                    "hitImpulseY": "",
                    "hitImpulseType": "LV1",
                    "hitHaltTimeScale": 0.019999999552965164
                  },
                  "canBeModifiedBy": "Owner"
                }
              },
              "targetType": "Enemy"
            }
          ]
        },
        "UNIQUE_Player_Grass_Seed_Eff_Origin": {
          "stacking": "Unique",
          "modifierName": "",
          "forceTriggerWhenChangeAuthority": true,
          "elementDurability": 100.0,
          "onAdded": [
            {
              "$type": "TriggerAudio",
              "operation": {
                "$type": "ConfigAudioEventOp",
                "operation": {
                  "text": "Play_sfx_char_hero_grass_elementalBurst_seed_lp"
                }
              }
            }
          ]
        },
        "UNIQUE_Player_Grass_Seed_Eff_Fire": {
          "stacking": "Unique",
          "modifierName": "",
          "forceTriggerWhenChangeAuthority": true,
          "elementDurability": 100.0,
          "onAdded": [
            {
              "$type": "SetAnimatorTrigger",
              "triggerID": "ChangeFire",
              "mpTriggerOnRemote": true
            },
            {
              "$type": "SetAnimatorTrigger",
              "triggerID": "ChangeFireTexture",
              "mpTriggerOnRemote": true
            },
            {
              "$type": "FireEffect",
              "rotationDampTime": "Eff_Player_Grass_ElementalBurst_Seed_TurnFire",
              "PPPDJGDDOGD": 1.0,
              "AJDILHJFNKE": -1.0
            }
          ]
        },
        "UNIQUE_Player_Grass_Seed_Eff_Electric": {
          "stacking": "Unique",
          "modifierName": "",
          "forceTriggerWhenChangeAuthority": true,
          "elementDurability": 100.0,
          "onAdded": [
            {
              "$type": "SetAnimatorTrigger",
              "triggerID": "ChangeThunder",
              "mpTriggerOnRemote": true
            },
            {
              "$type": "SetAnimatorTrigger",
              "triggerID": "ChangeThunderTexture",
              "mpTriggerOnRemote": true
            },
            {
              "$type": "FireEffect",
              "rotationDampTime": "Eff_Player_Grass_ElementalBurst_Seed_TurnElectric",
              "PPPDJGDDOGD": 1.0,
              "AJDILHJFNKE": -1.0
            },
            {
              "$type": "TriggerAudio",
              "operation": {
                "$type": "ConfigAudioEventOp",
                "operation": {
                  "text": "Play_sfx_char_hero_grass_elementalBurst_seed_fast_lp"
                }
              }
            }
          ]
        },
        "UNIQUE_Player_Grass_Seed_Eff_Water": {
          "stacking": "Unique",
          "modifierName": "",
          "forceTriggerWhenChangeAuthority": true,
          "elementDurability": 100.0,
          "onAdded": [
            {
              "$type": "SetAnimatorTrigger",
              "triggerID": "ChangeWater",
              "mpTriggerOnRemote": true
            },
            {
              "$type": "SetAnimatorTrigger",
              "triggerID": "ChangeWaterTexture",
              "mpTriggerOnRemote": true
            },
            {
              "$type": "FireEffect",
              "rotationDampTime": "Eff_Player_Grass_ElementalBurst_Seed_TurnWater",
              "PPPDJGDDOGD": 1.0,
              "AJDILHJFNKE": -1.0
            },
            {
              "$type": "TriggerAudio",
              "operation": {
                "$type": "ConfigAudioEventOp",
                "operation": {
                  "text": "Play_sfx_char_hero_grass_elementalBurst_seed_big_lp"
                }
              }
            }
          ]
        },
        "UNIQUE_Player_Grass_Seed_Circle_Eff_Little": {
          "stacking": "Unique",
          "modifierName": "",
          "forceTriggerWhenChangeAuthority": true,
          "elementDurability": 100.0,
          "onAdded": [
            {
              "$type": "AttachEffect",
              "rotationDampTime": "Eff_Player_Grass_ElementalBurst_Seed_Range_Circle",
              "PPPDJGDDOGD": 1.0,
              "AJDILHJFNKE": -1.0
            }
          ],
          "onKill": [
            {
              "$type": "FireEffect",
              "rotationDampTime": "Eff_Player_Grass_ElementalBurst_Seed_Dispear",
              "othereffectPatterns": [
                "Eff_Player_Grass_ElementalBurst_Seed_Range_Circle_Disappear"
              ],
              "PPPDJGDDOGD": 1.0,
              "AJDILHJFNKE": -1.0
            }
          ]
        },
        "UNIQUE_Player_Grass_Seed_Circle_Eff_None": {
          "stacking": "Unique",
          "modifierName": "",
          "forceTriggerWhenChangeAuthority": true,
          "elementDurability": 100.0,
          "onAdded": [
            {
              "$type": "FireEffect",
              "rotationDampTime": "Eff_Player_Grass_ElementalBurst_Seed_Range_Circle_Disappear",
              "PPPDJGDDOGD": 1.0,
              "AJDILHJFNKE": -1.0
            }
          ]
        },
        "UNIQUE_Player_Grass_Seed_Circle_Eff_Big": {
          "stacking": "Unique",
          "modifierName": "",
          "forceTriggerWhenChangeAuthority": true,
          "elementDurability": 100.0,
          "onAdded": [
            {
              "$type": "AttachEffect",
              "rotationDampTime": "Eff_Player_Grass_ElementalBurst_Seed_Range_Circle_Big",
              "PPPDJGDDOGD": 1.0,
              "AJDILHJFNKE": -1.0
            }
          ],
          "onKill": [
            {
              "$type": "FireEffect",
              "rotationDampTime": "Eff_Player_Grass_ElementalBurst_Seed_Dispear_Water",
              "PPPDJGDDOGD": 1.0,
              "AJDILHJFNKE": -1.0
            },
            {
              "$type": "FireEffect",
              "rotationDampTime": "Eff_Player_Grass_ElementalBurst_Seed_Range_Circle_Big_Disappear",
              "PPPDJGDDOGD": 1.0,
              "AJDILHJFNKE": -1.0
            }
          ]
        }
      },
      "onAdded": [
        {
          "$type": "SetGlobalValue",
          "value": 0.0,
          "key": "_ABILITY_PLAYER_GRASS_SEED_STATE_MARK",
          "useLimitRange": true,
          "maxValue": 3.0,
          "minValue": 0.0
        },
        {
          "$type": "SetGlobalValue",
          "value": 0.0,
          "key": "_ABILITY_PLAYER_GRASS_SEED_STATE_MARK_Cache",
          "useLimitRange": true,
          "maxValue": 3.0,
          "minValue": 0.0
        },
        {
          "$type": "AttachModifier",
          "modifierName": "UNIQUE_Player_Grass_Seed_Eff_Handler"
        },
        {
          "$type": "AttachModifier",
          "modifierName": "UNIQUE_Player_Grass_Seed_Circle_Eff_Handler"
        },
        {
          "$type": "ApplyModifier",
          "modifierName": "UNIQUE_Player_Grass_Seed_Attack_Handler_Delay"
        },
        {
          "$type": "CreateGadget",
          "born": {
            "$type": "ConfigBornBySelf"
          },
          "lifeByOwnerV2": true,
          "gadgetID": 41011002,
          "campID": 5003,
          "campTargetType": "All"
        },
        {
          "$type": "FireEffect",
          "rotationDampTime": "Eff_Player_Grass_ElementalBurst_Seed_Ground_Impact",
          "PPPDJGDDOGD": 1.0,
          "AJDILHJFNKE": -1.0
        }
      ],
      "onKill": [
        {
          "$type": "TriggerAudio",
          "operation": {
            "$type": "ConfigAudioEventOp",
            "operation": {
              "text": "Stop_sfx_char_hero_grass_elementalBurst_seed_lp"
            }
          }
        }
      ]
    }
  },
  {
    "Default": {
      "$type": "ConfigAbility",
      "abilityName": "Avatar_Player_Grass_Seed_Gadget_HitBox",
      "abilityMixins": [
        {
          "$type": "DoActionBySelfElementReactionMixin",
          "reactionTypes": ["Burning"],
          "actionQueue": [
            {
              "$type": "SetGlobalValue",
              "target": "Owner",
              "value": 2.0,
              "key": "_ABILITY_PLAYER_GRASS_SEED_STATE_MARK_Cache",
              "maxValue": 0.0,
              "minValue": 0.0
            },
            {
              "$type": "RemoveModifier",
              "modifierName": "Avatar_Player_Grass_Seed_Original_Grass_Durability"
            },
            {
              "$type": "KillSelf"
            }
          ]
        },
        {
          "$type": "DoActionBySelfElementReactionMixin",
          "reactionTypes": ["Overdose"],
          "actionQueue": [
            {
              "$type": "SetGlobalValue",
              "target": "Owner",
              "value": 1.0,
              "key": "_ABILITY_PLAYER_GRASS_SEED_STATE_MARK_Cache",
              "maxValue": 0.0,
              "minValue": 0.0
            },
            {
              "$type": "RemoveModifier",
              "modifierName": "Avatar_Player_Grass_Seed_Original_Grass_Durability"
            },
            {
              "$type": "KillSelf"
            }
          ]
        },
        {
          "$type": "DoActionBySelfElementReactionMixin",
          "reactionTypes": ["Overgrow"],
          "actionQueue": [
            {
              "$type": "SetGlobalValue",
              "target": "Owner",
              "value": 3.0,
              "key": "_ABILITY_PLAYER_GRASS_SEED_STATE_MARK_Cache",
              "maxValue": 0.0,
              "minValue": 0.0
            },
            {
              "$type": "RemoveModifier",
              "modifierName": "Avatar_Player_Grass_Seed_Original_Grass_Durability"
            },
            {
              "$type": "KillSelf"
            }
          ]
        }
      ],
      "modifiers": {
        "Avatar_Player_Grass_Seed_Original_Grass_Durability": {
          "stacking": "Unique",
          "modifierName": "",
          "elementType": "Grass",
          "elementDurability": 10.0
        }
      },
      "onAdded": [
        {
          "$type": "SetGlobalValue",
          "value": 1.0,
          "key": "_ABILITY_PLAYER_GRASS_SEED_OWN_GADGET_MARK",
          "maxValue": 0.0,
          "minValue": 0.0
        },
        {
          "$type": "AttachModifier",
          "modifierName": "Avatar_Player_Grass_Seed_Original_Grass_Durability"
        }
      ]
    }
  },
  {
    "Default": {
      "$type": "ConfigAbility",
      "abilityName": "Avatar_Player_Grass_Permanent_Skill_1",
      "abilitySpecials": {
        "Grass_Seed_Element_Mastery_Count": 0.0,
        "Grass_Seed_Element_Mastery_Up": 0.0,
        "Elemental_Damage_Up_Ratio": 0.0,
        "Grass_Seed_type_Cache": 0.0
      },
      "modifiers": {
        "Player_Grass_Seed_Aura_Count_Handler": {
          "modifierName": "",
          "elementDurability": 100.0,
          "thinkInterval": 1.0,
          "modifierMixins": [
            {
              "$type": "DoActionOnGlobalValueChangeMixin",
              "globalValueKey": "_ABILITY_PLAYER_GRASS_SEED_STATE_MARK",
              "actions": [
                {
                  "$type": "SetGlobalValueToOverrideMap",
                  "globalValueKey": "_ABILITY_PLAYER_GRASS_SEED_STATE_MARK",
                  "overrideMapKey": "Grass_Seed_type_Cache"
                }
              ]
            }
          ],
          "onAdded": [
            {
              "$type": "SetGlobalValueToOverrideMap",
              "target": "Caster",
              "globalValueKey": "_ABILITY_PLAYER_GRASS_SEDD_AURA_LAYER_COUNT",
              "overrideMapKey": "Grass_Seed_Element_Mastery_Count"
            }
          ],
          "onThinkInterval": [
            {
              "$type": "AddGlobalValue",
              "value": 1.0,
              "key": "_ABILITY_PLAYER_GRASS_SEDD_AURA_LAYER_COUNT",
              "useLimitRange": true,
              "maxValue": 10.0,
              "minValue": 1.0
            },
            {
              "$type": "SetGlobalValueToOverrideMap",
              "target": "Caster",
              "globalValueKey": "_ABILITY_PLAYER_GRASS_SEDD_AURA_LAYER_COUNT",
              "overrideMapKey": "Grass_Seed_Element_Mastery_Count"
            }
          ]
        },
        "Player_Grass_Seed_Aura_Extra_Count_Handler": {
          "modifierName": "",
          "elementDurability": 100.0,
          "modifierMixins": [
            {
              "$type": "DoActionOnGlobalValueChangeMixin",
              "globalValueKey": "_ABILITY_PLAYER_GRASS_SEED_STATE_MARK",
              "actions": [
                {
                  "$type": "AddGlobalValue",
                  "value": 5.0,
                  "key": "_ABILITY_PLAYER_GRASS_SEDD_AURA_LAYER_COUNT",
                  "useLimitRange": true,
                  "maxValue": 10.0,
                  "minValue": 1.0
                }
              ]
            }
          ]
        },
        "Player_Grass_Seed_Aura_Handler": {
          "modifierName": "",
          "elementDurability": 100.0,
          "thinkInterval": 0.30000001192092896,
          "onAdded": [
            {
              "$type": "Predicated",
              "targetPredicates": [
                {
                  "$type": "ByTargetGlobalValue",
                  "key": "_ABILITY_PLAYER_GRASS_SEED_STATE_MARK",
                  "value": 3.0
                }
              ],
              "successActions": [
                {
                  "$type": "ApplyModifier",
                  "otherTargets": {
                    "$type": "SelectTargetsByShape",
                    "shapeName": "CircleR12H10",
                    "campTargetType": "Alliance",
                    "doOffStage": 1.0
                  },
                  "predicates": [
                    {
                      "$type": "ByEntityTypes",
                      "entityTypes": ["Avatar"]
                    }
                  ],
                  "modifierName": "UNIQUE_Player_Grass_Mastery_Up_Handler"
                }
              ],
              "failActions": [
                {
                  "$type": "ApplyModifier",
                  "otherTargets": {
                    "$type": "SelectTargetsByShape",
                    "shapeName": "CircleR8H10",
                    "campTargetType": "Alliance",
                    "doOffStage": 1.0
                  },
                  "predicates": [
                    {
                      "$type": "ByEntityTypes",
                      "entityTypes": ["Avatar"]
                    }
                  ],
                  "modifierName": "UNIQUE_Player_Grass_Mastery_Up_Handler"
                }
              ]
            }
          ],
          "onThinkInterval": [
            {
              "$type": "Predicated",
              "targetPredicates": [
                {
                  "$type": "ByTargetGlobalValue",
                  "key": "_ABILITY_PLAYER_GRASS_SEED_STATE_MARK",
                  "value": 3.0
                }
              ],
              "successActions": [
                {
                  "$type": "ApplyModifier",
                  "otherTargets": {
                    "$type": "SelectTargetsByShape",
                    "shapeName": "CircleR12H10",
                    "campTargetType": "Alliance",
                    "doOffStage": 1.0
                  },
                  "predicates": [
                    {
                      "$type": "ByEntityTypes",
                      "entityTypes": ["Avatar"]
                    }
                  ],
                  "modifierName": "UNIQUE_Player_Grass_Mastery_Up_Handler"
                }
              ],
              "failActions": [
                {
                  "$type": "ApplyModifier",
                  "otherTargets": {
                    "$type": "SelectTargetsByShape",
                    "shapeName": "CircleR8H10",
                    "campTargetType": "Alliance",
                    "doOffStage": 1.0
                  },
                  "predicates": [
                    {
                      "$type": "ByEntityTypes",
                      "entityTypes": ["Avatar"]
                    }
                  ],
                  "modifierName": "UNIQUE_Player_Grass_Mastery_Up_Handler"
                }
              ]
            }
          ]
        },
        "UNIQUE_Player_Grass_Seed_Aura_Element_Mastery_Up": {
          "modifierName": "",
          "forceTriggerWhenChangeAuthority": true,
          "elementDurability": 100.0,
          "properties": {
            "Actor_ElemMasteryDelta": [
              "Grass_Seed_Element_Mastery_Count",
              "Grass_Seed_Element_Mastery_Up",
              "MUL"
            ]
          },
          "onAdded": [
            {
              "$type": "AttachModifier",
              "predicates": [
                {
                  "$type": "ByUnlockTalentParam",
                  "talentParam": "Player_Grass_Seed_Aura_Extra_Talent_6"
                },
                {
                  "$type": "ByTargetGlobalValue",
                  "target": "Caster",
                  "key": "_ABILITY_PLAYER_GRASS_SEED_STATE_MARK",
                  "value": 0.0,
                  "compareType": "NoneOrEqual"
                }
              ],
              "modifierName": "Player_Grass_Seed_Aura_Element_Damage_Up_Origin"
            },
            {
              "$type": "AttachModifier",
              "predicates": [
                {
                  "$type": "ByUnlockTalentParam",
                  "talentParam": "Player_Grass_Seed_Aura_Extra_Talent_6"
                },
                {
                  "$type": "ByTargetGlobalValue",
                  "target": "Caster",
                  "key": "_ABILITY_PLAYER_GRASS_SEED_STATE_MARK",
                  "value": 2.0,
                  "compareType": "NoneOrEqual"
                }
              ],
              "modifierName": "Player_Grass_Seed_Aura_Element_Damage_Up_Fire"
            },
            {
              "$type": "AttachModifier",
              "predicates": [
                {
                  "$type": "ByUnlockTalentParam",
                  "talentParam": "Player_Grass_Seed_Aura_Extra_Talent_6"
                },
                {
                  "$type": "ByTargetGlobalValue",
                  "target": "Caster",
                  "key": "_ABILITY_PLAYER_GRASS_SEED_STATE_MARK",
                  "value": 1.0,
                  "compareType": "NoneOrEqual"
                }
              ],
              "modifierName": "Player_Grass_Seed_Aura_Element_Damage_Up_Electric"
            },
            {
              "$type": "AttachModifier",
              "predicates": [
                {
                  "$type": "ByUnlockTalentParam",
                  "talentParam": "Player_Grass_Seed_Aura_Extra_Talent_6"
                },
                {
                  "$type": "ByTargetGlobalValue",
                  "target": "Caster",
                  "key": "_ABILITY_PLAYER_GRASS_SEED_STATE_MARK",
                  "value": 3.0,
                  "compareType": "NoneOrEqual"
                }
              ],
              "modifierName": "Player_Grass_Seed_Aura_Element_Damage_Up_Water"
            }
          ],
          "onAvatarOut": [
            {
              "$type": "RemoveModifier",
              "shieldHP": true,
              "modifierName": "UNIQUE_Player_Grass_Seed_Aura_Element_Mastery_Up"
            }
          ],
          "isLimitedProperties": true
        },
        "UNIQUE_Player_Grass_Mastery_Up_Handler": {
          "modifierName": "",
          "forceTriggerWhenChangeAuthority": true,
          "duration": 1.0,
          "elementDurability": 100.0,
          "thinkInterval": 0.30000001192092896,
          "modifierMixins": [
            {
              "$type": "DoActionOnGlobalValueChangeMixin",
              "globalValueKey": "_ABILITY_Player_Grass_Aura_Count_Cache",
              "actions": [
                {
                  "$type": "RemoveModifier",
                  "modifierName": "UNIQUE_Player_Grass_Seed_Aura_Element_Mastery_Up"
                },
                {
                  "$type": "AttachModifier",
                  "modifierName": "UNIQUE_Player_Grass_Seed_Aura_Element_Mastery_Up"
                }
              ]
            },
            {
              "$type": "DoActionOnGlobalValueChangeMixin",
              "globalValueKey": "_ABILITY_Player_Grass_Seed_State_Cache",
              "actions": [
                {
                  "$type": "RemoveModifier",
                  "modifierName": "UNIQUE_Player_Grass_Seed_Aura_Element_Mastery_Up"
                },
                {
                  "$type": "AttachModifier",
                  "modifierName": "UNIQUE_Player_Grass_Seed_Aura_Element_Mastery_Up"
                }
              ]
            }
          ],
          "state": "AttackUp",
          "onAdded": [
            {
              "$type": "SetGlobalValue",
              "value": "Grass_Seed_Element_Mastery_Count",
              "key": "_ABILITY_Player_Grass_Aura_Count_Cache",
              "maxValue": 0.0,
              "minValue": 0.0
            },
            {
              "$type": "SetGlobalValue",
              "value": "Grass_Seed_type_Cache",
              "key": "_ABILITY_Player_Grass_Seed_State_Cache",
              "maxValue": 0.0,
              "minValue": 0.0
            },
            {
              "$type": "AttachModifier",
              "modifierName": "UNIQUE_Player_Grass_Seed_Aura_Element_Mastery_Up"
            }
          ],
          "onRemoved": [
            {
              "$type": "SetGlobalValue",
              "value": 0.0,
              "key": "_ABILITY_Player_Grass_Aura_Count_Cache",
              "maxValue": 0.0,
              "minValue": 0.0
            }
          ],
          "onThinkInterval": [
            {
              "$type": "SetGlobalValue",
              "predicates": [
                {
                  "$type": "ByNot",
                  "predicates": [
                    {
                      "$type": "ByTargetGlobalValue",
                      "key": "_ABILITY_Player_Grass_Aura_Count_Cache",
                      "value": "Grass_Seed_Element_Mastery_Count"
                    }
                  ]
                }
              ],
              "value": "Grass_Seed_Element_Mastery_Count",
              "key": "_ABILITY_Player_Grass_Aura_Count_Cache",
              "maxValue": 0.0,
              "minValue": 0.0
            },
            {
              "$type": "SetGlobalValue",
              "predicates": [
                {
                  "$type": "ByNot",
                  "predicates": [
                    {
                      "$type": "ByTargetGlobalValue",
                      "key": "_ABILITY_Player_Grass_Seed_State_Cache",
                      "value": "Grass_Seed_type_Cache"
                    }
                  ]
                }
              ],
              "value": "Grass_Seed_type_Cache",
              "key": "_ABILITY_Player_Grass_Seed_State_Cache",
              "maxValue": 0.0,
              "minValue": 0.0
            }
          ],
          "onAvatarOut": [
            {
              "$type": "RemoveModifier",
              "shieldHP": true,
              "modifierName": "UNIQUE_Player_Grass_Mastery_Up_Handler"
            }
          ]
        },
        "Player_Grass_Seed_Aura_Element_Damage_Up_Origin": {
          "modifierName": "",
          "elementDurability": 100.0,
          "properties": {
            "Actor_GrassAddHurtDelta": "Elemental_Damage_Up_Ratio"
          },
          "isLimitedProperties": true
        },
        "Player_Grass_Seed_Aura_Element_Damage_Up_Fire": {
          "modifierName": "",
          "elementDurability": 100.0,
          "properties": {
            "Actor_GrassAddHurtDelta": "Elemental_Damage_Up_Ratio",
            "Actor_FireAddHurtDelta": "Elemental_Damage_Up_Ratio"
          },
          "isLimitedProperties": true
        },
        "Player_Grass_Seed_Aura_Element_Damage_Up_Electric": {
          "modifierName": "",
          "elementDurability": 100.0,
          "properties": {
            "Actor_GrassAddHurtDelta": "Elemental_Damage_Up_Ratio",
            "Actor_ElecAddHurtDelta": "Elemental_Damage_Up_Ratio"
          },
          "isLimitedProperties": true
        },
        "Player_Grass_Seed_Aura_Element_Damage_Up_Water": {
          "modifierName": "",
          "elementDurability": 100.0,
          "properties": {
            "Actor_GrassAddHurtDelta": "Elemental_Damage_Up_Ratio",
            "Actor_WaterAddHurtDelta": "Elemental_Damage_Up_Ratio"
          },
          "isLimitedProperties": true
        }
      },
      "onAdded": [
        {
          "$type": "SetGlobalValue",
          "predicates": [
            {
              "$type": "ByUnlockTalentParam",
              "talentParam": "Player_Grass_Seed_Aura_Permanent_Skill_1"
            }
          ],
          "value": 1.0,
          "key": "_ABILITY_PLAYER_GRASS_SEDD_AURA_LAYER_COUNT",
          "useLimitRange": true,
          "maxValue": 10.0,
          "minValue": 1.0
        },
        {
          "$type": "AttachModifier",
          "predicates": [
            {
              "$type": "ByUnlockTalentParam",
              "talentParam": "Player_Grass_Seed_Aura_Permanent_Skill_1"
            }
          ],
          "modifierName": "Player_Grass_Seed_Aura_Handler"
        },
        {
          "$type": "AttachModifier",
          "predicates": [
            {
              "$type": "ByUnlockTalentParam",
              "talentParam": "Player_Grass_Seed_Aura_Permanent_Skill_1"
            }
          ],
          "modifierName": "Player_Grass_Seed_Aura_Count_Handler"
        },
        {
          "$type": "AttachModifier",
          "predicates": [
            {
              "$type": "ByUnlockTalentParam",
              "talentParam": "Player_Grass_Seed_Aura_Up_Talent_4"
            }
          ],
          "modifierName": "Player_Grass_Seed_Aura_Extra_Count_Handler"
        }
      ]
    }
  },
  {
    "Default": {
      "$type": "ConfigAbility",
      "abilityName": "Avatar_Player_Grass_Damage_Up_By_Element_Mastery",
      "abilitySpecials": {
        "Element_Mastery_Cache": 0.0,
        "Element_Mastery_Transform_To_ElementArt_Damage_Ratio": 0.0,
        "Element_Mastery_Transform_To_ElementBurst_Damage_Ratio": 0.0
      },
      "modifiers": {
        "UNIQUE_Avatar_Player_Grass_Damage_Up_Handler": {
          "modifierName": "",
          "forceTriggerWhenChangeAuthority": true,
          "elementDurability": 100.0,
          "thinkInterval": 0.5,
          "modifierMixins": [
            {
              "$type": "ModifyDamageMixin",
              "attackTags": ["Elemental_Art"],
              "actorWindSubHurtDelta": [
                "Element_Mastery_Cache",
                "Element_Mastery_Transform_To_ElementArt_Damage_Ratio",
                "MUL"
              ],
              "predicates": [
                {
                  "$type": "ByTargetGlobalValue",
                  "target": "Self",
                  "key": "_ABILITY_Player_Element_Mastery_Lower_Limit",
                  "value": "FIGHT_PROP_ELEMENT_MASTERY",
                  "compareType": "LessAndEqual"
                }
              ]
            },
            {
              "$type": "ModifyDamageMixin",
              "attackTags": ["Elemental_Burst"],
              "actorWindSubHurtDelta": [
                "Element_Mastery_Cache",
                "Element_Mastery_Transform_To_ElementBurst_Damage_Ratio",
                "MUL"
              ],
              "predicates": [
                {
                  "$type": "ByTargetGlobalValue",
                  "target": "Self",
                  "key": "_ABILITY_Player_Element_Mastery_Lower_Limit",
                  "value": "FIGHT_PROP_ELEMENT_MASTERY",
                  "compareType": "LessAndEqual"
                }
              ]
            }
          ],
          "onAdded": [
            {
              "$type": "SetGlobalValueToOverrideMap",
              "shieldHP": true,
              "globalValueKey": "_ABILITY_Player_Element_MasterY_Cache",
              "overrideMapKey": "Element_Mastery_Cache"
            }
          ],
          "onThinkInterval": [
            {
              "$type": "Predicated",
              "targetPredicates": [
                {
                  "$type": "ByNot",
                  "predicates": [
                    {
                      "$type": "ByTargetGlobalValue",
                      "key": "_ABILITY_Player_Element_MasterY_Cache",
                      "value": "FIGHT_PROP_ELEMENT_MASTERY"
                    }
                  ]
                }
              ],
              "successActions": [
                {
                  "$type": "SetGlobalValue",
                  "shieldHP": true,
                  "value": "FIGHT_PROP_ELEMENT_MASTERY",
                  "key": "_ABILITY_Player_Element_MasterY_Cache",
                  "maxValue": 0.0,
                  "minValue": 0.0
                },
                {
                  "$type": "SetGlobalValueToOverrideMap",
                  "shieldHP": true,
                  "globalValueKey": "_ABILITY_Player_Element_MasterY_Cache",
                  "overrideMapKey": "Element_Mastery_Cache"
                }
              ]
            }
          ]
        }
      },
      "onAdded": [
        {
          "$type": "SetGlobalValue",
          "shieldHP": true,
          "value": "FIGHT_PROP_ELEMENT_MASTERY",
          "key": "_ABILITY_Player_Element_MasterY_Cache",
          "maxValue": 0.0,
          "minValue": 0.0
        },
        {
          "$type": "AttachModifier",
          "shieldHP": true,
          "modifierName": "UNIQUE_Avatar_Player_Grass_Damage_Up_Handler"
        },
        {
          "$type": "SetGlobalValue",
          "shieldHP": true,
          "value": 0.0,
          "key": "_ABILITY_Player_Element_Mastery_Lower_Limit",
          "maxValue": 0.0,
          "minValue": 0.0
        }
      ],
      "isDynamicAbility": true
    }
  }
]
