[
  {
    "Default": {
      "$type": "ConfigAbility",
      "abilityName": "Avatar_Yunjin_NormalAttack_DamageHandler",
      "abilityMixins": [
        {
          "$type": "ModifyDamageMixin",
          "animEventNames": ["ATK01"],
          "actorGrassSubHurtDelta": "Yunjin_NormalAttack_01_Damage_AtkRatio",
          "actorWindSubHurtDelta": 0.0
        },
        {
          "$type": "ModifyDamageMixin",
          "animEventNames": ["ATK02"],
          "actorGrassSubHurtDelta": "Yunjin_NormalAttack_02_Damage_AtkRatio",
          "actorWindSubHurtDelta": 0.0
        },
        {
          "$type": "ModifyDamageMixin",
          "animEventNames": ["ATK03A"],
          "actorGrassSubHurtDelta": "Yunjin_NormalAttack_03A_Damage_AtkRatio",
          "actorWindSubHurtDelta": 0.0
        },
        {
          "$type": "ModifyDamageMixin",
          "animEventNames": ["ATK03B"],
          "actorGrassSubHurtDelta": "Yunjin_NormalAttack_03B_Damage_AtkRatio",
          "actorWindSubHurtDelta": 0.0
        },
        {
          "$type": "ModifyDamageMixin",
          "animEventNames": ["ATK04A"],
          "actorGrassSubHurtDelta": "Yunjin_NormalAttack_04A_Damage_AtkRatio",
          "actorWindSubHurtDelta": 0.0
        },
        {
          "$type": "ModifyDamageMixin",
          "animEventNames": ["ATK04B"],
          "actorGrassSubHurtDelta": "Yunjin_NormalAttack_04B_Damage_AtkRatio",
          "actorWindSubHurtDelta": 0.0
        },
        {
          "$type": "ModifyDamageMixin",
          "animEventNames": ["ATK05"],
          "actorGrassSubHurtDelta": "Yunjin_NormalAttack_05_Damage_AtkRatio",
          "actorWindSubHurtDelta": 0.0
        }
      ],
      "abilitySpecials": {
        "Yunjin_NormalAttack_01_Damage_AtkRatio": 0.0,
        "Yunjin_NormalAttack_02_Damage_AtkRatio": 0.0,
        "Yunjin_NormalAttack_03A_Damage_AtkRatio": 0.0,
        "Yunjin_NormalAttack_03B_Damage_AtkRatio": 0.0,
        "Yunjin_NormalAttack_04A_Damage_AtkRatio": 0.0,
        "Yunjin_NormalAttack_04B_Damage_AtkRatio": 0.0,
        "Yunjin_NormalAttack_05_Damage_AtkRatio": 0.0
      }
    }
  },
  {
    "Default": {
      "$type": "ConfigAbility",
      "abilityName": "Avatar_Yunjin_ExtraAttack",
      "abilityMixins": [
        {
          "$type": "AttachToStateIDMixin",
          "stateIDs": ["ExtraAttack"],
          "modifierName": "ExtraAttack_FX",
          "DGFCLAIDIFI": ""
        },
        {
          "$type": "AttachToStateIDMixin",
          "stateIDs": ["ExtraAttack_BS"],
          "modifierName": "ExtraAttack_BS_FX",
          "DGFCLAIDIFI": ""
        },
        {
          "$type": "AttachToStateIDMixin",
          "stateIDs": ["ExtraAttack"],
          "modifierName": "ExtraAttack_CloseCollider",
          "DGFCLAIDIFI": ""
        },
        {
          "$type": "ButtonHoldChargeMixin",
          "skillID": 10641,
          "chargeTime": 0.11999999731779099,
          "secondChargeTime": 0.20000000298023224,
          "onBeginUncharged": [
            {
              "$type": "SetAnimatorTrigger",
              "triggerID": "DoSkill"
            },
            {
              "$type": "SetAnimatorInt",
              "predicates": [
                {
                  "$type": "ByAny",
                  "predicates": [
                    {
                      "$type": "ByAnimatorInt",
                      "logic": "Equal",
                      "value": 0,
                      "parameter": "ComboCount"
                    },
                    {
                      "$type": "ByAnimatorInt",
                      "logic": "Equal",
                      "value": 5,
                      "parameter": "ComboCount"
                    }
                  ]
                }
              ],
              "intID": "SkillID",
              "value": 99.0
            },
            {
              "$type": "SetAnimatorBool",
              "boolID": "IsCharging"
            }
          ],
          "onReleaseUncharged": [
            {
              "$type": "SetAnimatorInt",
              "intID": "SkillID",
              "value": 1.0
            }
          ],
          "onBeginCharged": [
            {
              "$type": "SetAnimatorBool",
              "boolID": "IsCharging",
              "value": true
            }
          ],
          "onReleaseCharged": [
            {
              "$type": "SetAnimatorBool",
              "boolID": "IsCharging"
            },
            {
              "$type": "SetAnimatorInt",
              "intID": "SkillID",
              "value": 1.0
            }
          ],
          "onBeginSecondCharged": [
            {
              "$type": "SetAnimatorTrigger",
              "predicates": [
                {
                  "$type": "ByLocalAvatarStamina",
                  "logic": "GreaterOrEqual",
                  "stamina": [
                    "ExtraAttack_Pole_Stamina_Cost",
                    "Flexible_Stamina",
                    "ADD"
                  ]
                }
              ],
              "triggerID": "DoSkill"
            },
            {
              "$type": "SetAnimatorInt",
              "predicates": [
                {
                  "$type": "ByLocalAvatarStamina",
                  "logic": "GreaterOrEqual",
                  "stamina": [
                    "ExtraAttack_Pole_Stamina_Cost",
                    "Flexible_Stamina",
                    "ADD"
                  ]
                }
              ],
              "intID": "SkillID",
              "value": 6.0
            },
            {
              "$type": "SetAnimatorBool",
              "boolID": "IsCharging"
            }
          ],
          "chargeStateIDs": [
            "Attack01",
            "Attack02",
            "Attack03",
            "Attack04",
            "Run"
          ]
        },
        {
          "$type": "AttachToStateIDMixin",
          "stateIDs": ["ExtraAttack"],
          "modifierName": "ExtraAttack_StaminaCost",
          "DGFCLAIDIFI": ""
        }
      ],
      "abilitySpecials": {
        "ExtraAttack_Pole_Stamina_Cost": 0.0,
        "Flexible_Stamina": -2.0
      },
      "modifiers": {
        "ExtraAttack_StaminaCost": {
          "modifierName": "",
          "elementDurability": 100.0,
          "onAdded": [
            {
              "$type": "AvatarSkillStart",
              "skillID": 10002,
              "amountByTargetCurrentHPRatio": 1.0,
              "costStaminaRatio": "ExtraAttack_Pole_Stamina_Cost"
            }
          ]
        },
        "ExtraAttack_FX": {
          "modifierName": "",
          "elementDurability": 100.0,
          "onAdded": [
            {
              "$type": "AttachEffect",
              "rotationDampTime": "Eff_Avatar_Girl_Pole_Yunjin_ExtraAttack_Sprint",
              "born": {
                "$type": "ConfigBornByTarget",
                "offset": {
                  "x": 0.0,
                  "y": -0.30000001192092896,
                  "z": 0.0
                }
              },
              "PPPDJGDDOGD": 1.0,
              "AJDILHJFNKE": -1.0
            }
          ]
        },
        "ExtraAttack_BS_FX": {
          "modifierName": "",
          "elementDurability": 100.0,
          "onAdded": [
            {
              "$type": "AttachEffect",
              "rotationDampTime": "Eff_Avatar_Girl_Pole_Yunjin_ExtraAttack_BS",
              "born": {
                "$type": "ConfigBornByTarget",
                "offset": {
                  "x": 0.0,
                  "y": -0.30000001192092896,
                  "z": 0.0
                }
              },
              "PPPDJGDDOGD": 1.0,
              "AJDILHJFNKE": -1.0
            }
          ]
        },
        "ExtraAttack_CloseCollider": {
          "modifierName": "",
          "elementDurability": 100.0,
          "onAdded": [
            {
              "$type": "TriggerSetPassThrough",
              "shieldHP": true,
              "passThrough": true
            },
            {
              "$type": "EnableHDMesh",
              "hdMeshKey": "Default"
            }
          ],
          "onRemoved": [
            {
              "$type": "TriggerSetPassThrough",
              "shieldHP": true,
              "canBeHandledOnRecover": true
            },
            {
              "$type": "EnableHDMesh",
              "canBeHandledOnRecover": true,
              "enable": true,
              "hdMeshKey": "Default"
            },
            {
              "$type": "KillGadget",
              "shieldHP": true,
              "gadgetInfo": {
                "configID": 41064011
              }
            }
          ]
        }
      }
    }
  },
  {
    "Default": {
      "$type": "ConfigAbility",
      "abilityName": "Avatar_Yunjin_ExtraAttack_Cast",
      "onAbilityStart": [
        {
          "$type": "TriggerBullet",
          "bulletID": 41064011
        }
      ]
    }
  },
  {
    "Default": {
      "$type": "ConfigAbility",
      "abilityName": "Avatar_Yunjin_ExtraAttack_Bullet",
      "abilitySpecials": {
        "Yunjin_ExtraAttack_Damage_AtkRatio": 0.0
      },
      "onAbilityStart": [
        {
          "$type": "Predicated",
          "target": "Target",
          "targetPredicates": [
            {
              "$type": "ByEntityTypes",
              "entityTypes": ["MonsterEquip"]
            }
          ],
          "successActions": [
            {
              "$type": "DamageByAttackValue",
              "target": "Target",
              "attackInfo": {
                "attackTag": "ExtraAttack",
                "attenuationTag": "ExtraAttack",
                "attenuationGroup": "Avatar_Pole_ExtraAttack",
                "attackProperty": {
                  "actorGrassSubHurtDelta": "Yunjin_ExtraAttack_Damage_AtkRatio",
                  "actorWindSubHurtDelta": 0.0,
                  "elementDurability": 25.0,
                  "overrideByWeapon": true,
                  "strikeType": "Spear",
                  "enBreak": 120.0,
                  "attackType": "Melee",
                  "GLKMCMDJBIK": 0.0
                },
                "hitPattern": {
                  "onHitEffectName": "default",
                  "hitImpulseY": "",
                  "hitImpulseType": "LV6",
                  "hitHaltTimeScale": 0.009999999776482582,
                  "canBeDefenceHalt": true
                },
                "cameraShake": {
                  "shakeType": "CustomVector",
                  "shakeRange": 0.36000001430511475,
                  "shakeTime": 0.11999999731779099,
                  "shakeDistance": 30.0,
                  "shakeDir": {
                    "y": -1.0
                  }
                },
                "canBeModifiedBy": "OriginOwner"
              }
            }
          ],
          "failActions": [
            {
              "$type": "TriggerAttackEvent",
              "attackEvent": {
                "attackPattern": {
                  "$type": "ConfigAttackSphere",
                  "triggerType": "TriggerNoRepeat",
                  "born": {
                    "$type": "ConfigBornByCollisionPoint",
                    "offset": {
                      "x": 0.0,
                      "y": 0.0,
                      "z": 0.0
                    }
                  },
                  "radius": 0.800000011920929
                },
                "attackInfo": {
                  "attackTag": "ExtraAttack",
                  "attenuationTag": "ExtraAttack",
                  "attenuationGroup": "Avatar_Pole_ExtraAttack",
                  "attackProperty": {
                    "actorGrassSubHurtDelta": "Yunjin_ExtraAttack_Damage_AtkRatio",
                    "actorWindSubHurtDelta": 0.0,
                    "elementDurability": 25.0,
                    "overrideByWeapon": true,
                    "strikeType": "Spear",
                    "enBreak": 120.0,
                    "attackType": "Melee",
                    "GLKMCMDJBIK": 0.0
                  },
                  "hitPattern": {
                    "onHitEffectName": "default",
                    "hitImpulseY": "",
                    "hitImpulseType": "LV5",
                    "hitHaltTimeScale": 0.009999999776482582,
                    "canBeDefenceHalt": true
                  },
                  "cameraShake": {
                    "shakeType": "CustomVector",
                    "shakeRange": 0.36000001430511475,
                    "shakeTime": 0.11999999731779099,
                    "shakeDistance": 30.0,
                    "shakeDir": {
                      "y": -1.0
                    }
                  },
                  "canBeModifiedBy": "OriginOwner"
                }
              },
              "targetType": "Enemy"
            }
          ]
        }
      ]
    }
  },
  {
    "Default": {
      "$type": "ConfigAbility",
      "abilityName": "Avatar_Yunjin_FallingAnthem",
      "abilityMixins": [
        {
          "$type": "AvatarChangeSkillMixin",
          "jumpSkillID": 5064010,
          "flySkillID": 5064010
        },
        {
          "$type": "AttachToStateIDMixin",
          "stateIDs": ["FallingAnthem_BS"],
          "modifierName": "FallingAnthem_BS_Material",
          "DGFCLAIDIFI": ""
        },
        {
          "$type": "AttachToStateIDMixin",
          "stateIDs": ["FallingAnthem_Loop"],
          "modifierName": "FallingAnthem_Loop_Normal",
          "DGFCLAIDIFI": ""
        },
        {
          "$type": "AttachToStateIDMixin",
          "stateIDs": ["FallingAnthem_Loop"],
          "modifierName": "FallingAnthem_LoopDamage",
          "DGFCLAIDIFI": ""
        },
        {
          "$type": "AttachToStateIDMixin",
          "stateIDs": ["FallingAnthem_BS"],
          "modifierName": "FallingAnthem_BS_VelocityForce_Initialize",
          "DGFCLAIDIFI": ""
        },
        {
          "$type": "AttachToStateIDMixin",
          "stateIDs": [
            "FallingAnthem_BS",
            "FallingAnthem_Loop",
            "FallingAnthem_AS_1",
            "FallingAnthem_AS_2"
          ],
          "modifierName": "FallingAnthem_Height_Detect",
          "DGFCLAIDIFI": ""
        },
        {
          "$type": "AttachToStateIDMixin",
          "stateIDs": [
            "FallingAnthem_BS",
            "FallingAnthem_Loop",
            "FallingAnthem_AS_1",
            "FallingAnthem_AS_2"
          ],
          "modifierName": "FallingAnthem_FallingDamageImmune_01",
          "DGFCLAIDIFI": ""
        },
        {
          "$type": "AttachToStateIDMixin",
          "stateIDs": ["FallingAnthem_BS", "FallingAnthem_Loop"],
          "modifierName": "Inertia",
          "DGFCLAIDIFI": ""
        },
        {
          "$type": "AttachToStateIDMixin",
          "stateIDs": [
            "FallingAnthem_BS",
            "FallingAnthem_Loop",
            "FallingAnthem_AS_1",
            "FallingAnthem_AS_2"
          ],
          "modifierName": "FallingAnthem_OverHead_Camera",
          "DGFCLAIDIFI": ""
        },
        {
          "$type": "AttachToStateIDMixin",
          "stateIDs": ["FallingAnthem_BS"],
          "modifierName": "FallingAnthem_ClearVelocityForce",
          "DGFCLAIDIFI": ""
        }
      ],
      "abilitySpecials": {
        "FallingAnthem_Normal_Loop_Damage": 0.0,
        "FallingAnthem_Normal_Rank_1_Damage": 0.0,
        "FallingAnthem_Normal_Rank_2_Damage": 0.0,
        "FallingAnthem_Altitude_Lv0": 20.0,
        "FallingAnthem_Altitude_Lv1": 40.0,
        "FallingAnthem_Altitude_Lv2": 60.0,
        "FallingAnthem_Altitude_Lv3": 100.0,
        "FallingAnthem_Altitude_Lv4": 200.0,
        "FallingAnthem_FallingDamageRatio_Lv0": -1.0,
        "FallingAnthem_FallingDamageRatio_Lv1": -1.0,
        "FallingAnthem_FallingDamageRatio_Lv2": -0.8999999761581421,
        "FallingAnthem_FallingDamageRatio_Lv3": -0.800000011920929,
        "FallingAnthem_FallingDamageRatio_Lv4": -0.6000000238418579,
        "FallingAnthem_FallingDamageRatio": 0.0
      },
      "modifiers": {
        "FallingAnthem_BS_Material": {
          "modifierName": "",
          "duration": 0.5299999713897705,
          "elementDurability": 100.0,
          "onAdded": [
            {
              "$type": "FireEffect",
              "rotationDampTime": "Eff_Avatar_Pole_FallingAnthem_BS_Normal",
              "PPPDJGDDOGD": 1.0,
              "AJDILHJFNKE": -1.0
            },
            {
              "$type": "FireEffect",
              "rotationDampTime": "Eff_Avatar_Sprint_Boost",
              "PPPDJGDDOGD": 1.0,
              "AJDILHJFNKE": -1.0
            }
          ],
          "onRemoved": [
            {
              "$type": "ActCameraRadialBlur",
              "cameraRadialBlur": {
                "power": 0.30000001192092896,
                "blurTime": 0.30000001192092896,
                "fadeTime": 0.15000000596046448
              }
            }
          ]
        },
        "FallingAnthem_BS_VelocityForce_Initialize": {
          "modifierName": "",
          "elementDurability": 100.0,
          "properties": {
            "Actor_AddGravityScale": -2.0
          },
          "onAdded": [
            {
              "$type": "RemoveVelocityForce",
              "forces": ["RushMoveType"]
            }
          ]
        },
        "FallingAnthem_LoopDamage": {
          "modifierName": "",
          "elementDurability": 100.0,
          "thinkInterval": 0.30000001192092896,
          "onAdded": [
            {
              "$type": "TriggerAttackEvent",
              "attackEvent": {
                "attackPattern": {
                  "$type": "ConfigAttackSphere",
                  "triggerType": "TriggerNoRepeat",
                  "born": {
                    "$type": "ConfigBornBySelf",
                    "offset": {
                      "x": 0.0,
                      "y": 0.0,
                      "z": 1.0
                    }
                  },
                  "radius": 1.0
                },
                "attackInfo": {
                  "attackTag": "FallingAttack",
                  "attenuationTag": "",
                  "attenuationGroup": "default",
                  "attackProperty": {
                    "actorGrassSubHurtDelta": "FallingAnthem_Normal_Loop_Damage",
                    "actorWindSubHurtDelta": 0.0,
                    "elementDurability": 0.0,
                    "overrideByWeapon": true,
                    "strikeType": "Slash",
                    "enBreak": 25.0,
                    "attackType": "Melee",
                    "GLKMCMDJBIK": 0.0
                  },
                  "hitPattern": {
                    "onHitEffectName": "default",
                    "hitImpulseY": "",
                    "hitImpulseType": "LV2",
                    "hitHaltTimeScale": 0.019999999552965164
                  }
                }
              },
              "targetType": "Enemy"
            }
          ],
          "onThinkInterval": [
            {
              "$type": "TriggerAttackEvent",
              "attackEvent": {
                "attackPattern": {
                  "$type": "ConfigAttackSphere",
                  "triggerType": "TriggerNoRepeat",
                  "born": {
                    "$type": "ConfigBornBySelf",
                    "offset": {
                      "x": 0.0,
                      "y": 0.0,
                      "z": 1.0
                    }
                  },
                  "radius": 1.0
                },
                "attackInfo": {
                  "attackTag": "FallingAttack",
                  "attenuationTag": "",
                  "attenuationGroup": "default",
                  "attackProperty": {
                    "actorGrassSubHurtDelta": "FallingAnthem_Normal_Loop_Damage",
                    "actorWindSubHurtDelta": 0.0,
                    "elementDurability": 0.0,
                    "overrideByWeapon": true,
                    "strikeType": "Slash",
                    "enBreak": 25.0,
                    "attackType": "Melee",
                    "GLKMCMDJBIK": 0.0
                  },
                  "hitPattern": {
                    "onHitEffectName": "default",
                    "hitImpulseY": "",
                    "hitImpulseType": "LV4",
                    "hitHaltTimeScale": 0.019999999552965164
                  }
                }
              },
              "targetType": "Enemy"
            }
          ]
        },
        "FallingAnthem_FallingDamageImmune_01": {
          "modifierName": "",
          "elementDurability": 100.0,
          "onAdded": [
            {
              "$type": "ClearGlobalValue",
              "key": "_ABILITY_FallingAttack_Altitude"
            },
            {
              "$type": "AddGlobalValue",
              "predicates": [
                {
                  "$type": "ByTargetAltitude",
                  "logic": "LesserOrEqual",
                  "value": "FallingAnthem_Altitude_Lv0"
                }
              ],
              "value": "FallingAnthem_FallingDamageRatio_Lv0",
              "key": "_ABILITY_FallingAttack_Altitude",
              "useLimitRange": true,
              "maxValue": "FallingAnthem_FallingDamageRatio_Lv0",
              "minValue": "FallingAnthem_FallingDamageRatio_Lv0"
            },
            {
              "$type": "AddGlobalValue",
              "predicates": [
                {
                  "$type": "ByTargetAltitude",
                  "logic": "LesserOrEqual",
                  "value": "FallingAnthem_Altitude_Lv1"
                },
                {
                  "$type": "ByTargetAltitude",
                  "value": "FallingAnthem_Altitude_Lv0"
                }
              ],
              "value": "FallingAnthem_FallingDamageRatio_Lv1",
              "key": "_ABILITY_FallingAttack_Altitude",
              "useLimitRange": true,
              "maxValue": "FallingAnthem_FallingDamageRatio_Lv1",
              "minValue": "FallingAnthem_FallingDamageRatio_Lv1"
            },
            {
              "$type": "AddGlobalValue",
              "predicates": [
                {
                  "$type": "ByTargetAltitude",
                  "logic": "LesserOrEqual",
                  "value": "FallingAnthem_Altitude_Lv2"
                },
                {
                  "$type": "ByTargetAltitude",
                  "value": "FallingAnthem_Altitude_Lv1"
                }
              ],
              "value": "FallingAnthem_FallingDamageRatio_Lv2",
              "key": "_ABILITY_FallingAttack_Altitude",
              "useLimitRange": true,
              "maxValue": "FallingAnthem_FallingDamageRatio_Lv2",
              "minValue": "FallingAnthem_FallingDamageRatio_Lv2"
            },
            {
              "$type": "AddGlobalValue",
              "predicates": [
                {
                  "$type": "ByTargetAltitude",
                  "logic": "LesserOrEqual",
                  "value": "FallingAnthem_Altitude_Lv3"
                },
                {
                  "$type": "ByTargetAltitude",
                  "value": "FallingAnthem_Altitude_Lv2"
                }
              ],
              "value": "FallingAnthem_FallingDamageRatio_Lv3",
              "key": "_ABILITY_FallingAttack_Altitude",
              "useLimitRange": true,
              "maxValue": "FallingAnthem_FallingDamageRatio_Lv3",
              "minValue": "FallingAnthem_FallingDamageRatio_Lv3"
            },
            {
              "$type": "AddGlobalValue",
              "predicates": [
                {
                  "$type": "ByTargetAltitude",
                  "value": "FallingAnthem_Altitude_Lv3"
                }
              ],
              "value": "FallingAnthem_FallingDamageRatio_Lv4",
              "key": "_ABILITY_FallingAttack_Altitude",
              "useLimitRange": true,
              "maxValue": "FallingAnthem_FallingDamageRatio_Lv4",
              "minValue": "FallingAnthem_FallingDamageRatio_Lv4"
            },
            {
              "$type": "AttachModifier",
              "modifierName": "FallingAnthem_FallingDamageImmune_02"
            }
          ]
        },
        "FallingAnthem_FallingDamageImmune_02": {
          "modifierName": "",
          "elementDurability": 100.0,
          "onAdded": [
            {
              "$type": "SetGlobalValueToOverrideMap",
              "globalValueKey": "_ABILITY_FallingAttack_Altitude",
              "overrideMapKey": "FallingAnthem_FallingDamageRatio"
            },
            {
              "$type": "AttachModifier",
              "modifierName": "FallingAnthem_FallingDamageImmune_03"
            }
          ]
        },
        "FallingAnthem_FallingDamageImmune_03": {
          "modifierName": "",
          "elementDurability": 100.0,
          "properties": {
            "Actor_FallingDamageRatio": "FallingAnthem_FallingDamageRatio"
          }
        },
        "FallingAnthem_Loop_Normal": {
          "modifierName": "",
          "elementDurability": 100.0,
          "modifierMixins": [
            {
              "$type": "AttachModifierToSelfGlobalValueMixin",
              "globalValueKey": "_ABILITY_FallingAnthem_UseCamera",
              "gvInTalk": 0.0,
              "valueSteps": [-1.0, 0.5, 1.5],
              "modifierNameSteps": [
                "FallingAnthem_Loop_Normal_Rank_1",
                "FallingAnthem_Loop_Normal_Rank_2"
              ]
            }
          ]
        },
        "FallingAnthem_Loop_Normal_Rank_1": {
          "modifierName": "",
          "elementDurability": 100.0,
          "onAdded": [
            {
              "$type": "FireEffect",
              "rotationDampTime": "Eff_Avatar_Pole_FallingAnthem_Loop_01_Normal",
              "PPPDJGDDOGD": 1.0,
              "AJDILHJFNKE": -1.0
            }
          ]
        },
        "FallingAnthem_Loop_Normal_Rank_2": {
          "modifierName": "",
          "elementDurability": 100.0,
          "onAdded": [
            {
              "$type": "AttachEffect",
              "rotationDampTime": "Eff_Avatar_Pole_FallingAnthem_Loop_02_Normal",
              "PPPDJGDDOGD": 1.0,
              "AJDILHJFNKE": -1.0
            }
          ]
        },
        "Inertia": {
          "modifierName": "",
          "elementDurability": 100.0,
          "modifierMixins": [
            {
              "$type": "ApplyInertiaVelocityMixin",
              "useXZ": false,
              "useY": false
            }
          ]
        },
        "FallingAnthem_Height_Detect": {
          "modifierName": "",
          "elementDurability": 100.0,
          "onAdded": [
            {
              "$type": "AddGlobalValue",
              "predicates": [
                {
                  "$type": "ByTargetAltitude",
                  "logic": "LesserOrEqual",
                  "value": 2.4000000953674316
                }
              ],
              "value": 0.0,
              "key": "_ABILITY_FallingAnthem_UseCamera",
              "useLimitRange": true,
              "maxValue": 0.0,
              "minValue": 0.0
            },
            {
              "$type": "AddGlobalValue",
              "predicates": [
                {
                  "$type": "ByTargetAltitude",
                  "value": 2.4000000953674316
                }
              ],
              "value": 5.0,
              "key": "_ABILITY_FallingAnthem_UseCamera",
              "useLimitRange": true,
              "maxValue": 1.0,
              "minValue": 0.0
            },
            {
              "$type": "SetAnimatorFloat",
              "predicates": [
                {
                  "$type": "ByTargetAltitude",
                  "logic": "LesserOrEqual",
                  "value": 2.4000000953674316
                }
              ],
              "floatID": "FallingAnthem_UseCamera",
              "value": 0.0
            },
            {
              "$type": "SetAnimatorFloat",
              "predicates": [
                {
                  "$type": "ByTargetAltitude",
                  "value": 2.4000000953674316
                }
              ],
              "floatID": "FallingAnthem_UseCamera",
              "value": 1.0
            }
          ],
          "onRemoved": [
            {
              "$type": "SetAnimatorFloat",
              "floatID": "FallingAnthem_UseCamera",
              "value": 0.0
            },
            {
              "$type": "AddGlobalValue",
              "value": 0.0,
              "key": "_ABILITY_FallingAnthem_UseCamera",
              "useLimitRange": true,
              "maxValue": 0.0,
              "minValue": 0.0
            }
          ]
        },
        "FallingAnthem_OverHead_Camera": {
          "modifierName": "",
          "elementDurability": 100.0,
          "onAdded": [
            {
              "$type": "AvatarCameraParam",
              "predicates": [
                {
                  "$type": "ByAnimatorFloat",
                  "logic": "Equal",
                  "value": 1.0,
                  "parameter": "FallingAnthem_UseCamera"
                }
              ],
              "cameraParam": {
                "forceRadius": 4.5,
                "forceRadiusDuration": 0.20000000298023224,
                "shouldKeepForceRadius": true
              }
            }
          ]
        },
        "FallingAnthem_OverHead_Camera_Remover": {
          "modifierName": "",
          "elementDurability": 100.0,
          "onAdded": [
            {
              "$type": "AvatarExitCameraShot",
              "shieldHP": true
            }
          ]
        },
        "FallingAnthem_Landed_Camera": {
          "modifierName": "",
          "elementDurability": 100.0,
          "onAdded": [
            {
              "$type": "AvatarCameraParam",
              "predicates": [
                {
                  "$type": "ByAnimatorFloat",
                  "logic": "Equal",
                  "value": 1.0,
                  "parameter": "FallingAnthem_UseCamera"
                }
              ],
              "cameraParam": {
                "forceRadius": 6.0,
                "forceRadiusDuration": 0.10000000149011612,
                "shouldKeepForceRadius": true
              }
            }
          ]
        },
        "FallingAnthem_ClearVelocityForce": {
          "modifierName": "",
          "elementDurability": 100.0,
          "onAdded": [
            {
              "$type": "RemoveVelocityForce",
              "forces": ["RushMoveType", "InertiaType"]
            }
          ]
        }
      },
      "onAbilityStart": [
        {
          "$type": "TriggerAttackEvent",
          "predicates": [
            {
              "$type": "ByTargetGlobalValue",
              "key": "_ABILITY_FallingAnthem_UseCamera",
              "value": 0.0,
              "forceByCaster": true,
              "compareType": "NoneOrEqual"
            }
          ],
          "attackEvent": {
            "attackPattern": {
              "$type": "ConfigAttackCircle",
              "triggerType": "TriggerNoRepeat",
              "born": {
                "$type": "ConfigBornByTarget",
                "offset": {
                  "x": 0.0,
                  "y": -0.5,
                  "z": 1.0
                }
              },
              "height": 2.0,
              "radius": 3.0
            },
            "attackInfo": {
              "attackTag": "FallingAttack",
              "attenuationTag": "",
              "attenuationGroup": "default",
              "attackProperty": {
                "actorGrassSubHurtDelta": "FallingAnthem_Normal_Rank_1_Damage",
                "actorWindSubHurtDelta": 0.0,
                "elementDurability": 25.0,
                "overrideByWeapon": true,
                "strikeType": "Blunt",
                "enBreak": 100.0,
                "attackType": "Melee",
                "GLKMCMDJBIK": 0.0
              },
              "hitPattern": {
                "onHitEffectName": "none",
                "hitImpulseY": "",
                "hitImpulseType": "LV4",
                "hitHaltTimeScale": 0.10000000149011612
              },
              "forceCameraShake": true,
              "cameraShake": {
                "shakeType": "CustomVector",
                "shakeRange": 0.23999999463558197,
                "shakeTime": 0.11999999731779099,
                "shakeDistance": 30.0,
                "shakeDir": {
                  "y": 1.0
                },
                "extension": {
                  "baseCycle": 0.23999999463558197,
                  "cycleDamping": 0.0,
                  "rangeAttenuation": 0.30000001192092896
                }
              }
            }
          },
          "targetType": "Enemy"
        },
        {
          "$type": "TriggerAttackEvent",
          "predicates": [
            {
              "$type": "ByTargetGlobalValue",
              "key": "_ABILITY_FallingAnthem_UseCamera",
              "value": 1.0,
              "forceByCaster": true
            }
          ],
          "attackEvent": {
            "attackPattern": {
              "$type": "ConfigAttackCircle",
              "triggerType": "TriggerNoRepeat",
              "born": {
                "$type": "ConfigBornByTarget",
                "offset": {
                  "x": 0.0,
                  "y": -0.5,
                  "z": 1.0
                }
              },
              "height": 2.0,
              "radius": 5.0
            },
            "attackInfo": {
              "attackTag": "FallingAttack",
              "attenuationTag": "",
              "attenuationGroup": "default",
              "attackProperty": {
                "actorGrassSubHurtDelta": "FallingAnthem_Normal_Rank_2_Damage",
                "actorWindSubHurtDelta": 0.0,
                "elementDurability": 25.0,
                "overrideByWeapon": true,
                "strikeType": "Blunt",
                "enBreak": 150.0,
                "attackType": "Melee",
                "GLKMCMDJBIK": 0.0
              },
              "hitPattern": {
                "onHitEffectName": "none",
                "hitImpulseY": "",
                "hitImpulseType": "LV7",
                "hitHaltTimeScale": 0.10000000149011612
              },
              "forceCameraShake": true,
              "cameraShake": {
                "shakeType": "CustomVector",
                "shakeRange": 0.5,
                "shakeTime": 0.20000000298023224,
                "shakeDistance": 30.0,
                "shakeDir": {
                  "y": 1.0,
                  "z": 1.0
                },
                "extension": {
                  "baseCycle": 0.4000000059604645,
                  "cycleDamping": 0.0,
                  "rangeAttenuation": 0.30000001192092896
                }
              }
            }
          },
          "targetType": "Enemy"
        },
        {
          "$type": "FireEffect",
          "predicates": [
            {
              "$type": "ByTargetGlobalValue",
              "key": "_ABILITY_FallingAnthem_UseCamera",
              "value": 0.0,
              "forceByCaster": true,
              "compareType": "NoneOrEqual"
            }
          ],
          "rotationDampTime": "Eff_Avatar_Pole_FallingAnthem_Strike_01_Normal",
          "PPPDJGDDOGD": 1.0,
          "AJDILHJFNKE": -1.0
        },
        {
          "$type": "FireEffect",
          "predicates": [
            {
              "$type": "ByTargetGlobalValue",
              "key": "_ABILITY_FallingAnthem_UseCamera",
              "value": 1.0,
              "forceByCaster": true
            }
          ],
          "rotationDampTime": "Eff_Avatar_Pole_FallingAnthem_Strike_02_Normal",
          "PPPDJGDDOGD": 1.0,
          "AJDILHJFNKE": -1.0
        }
      ]
    }
  },
  {
    "Default": {
      "$type": "ConfigAbility",
      "abilityName": "Avatar_Yunjin_ElementalArt_Handler",
      "abilityMixins": [
        {
          "$type": "SkillButtonHoldChargeMixin",
          "skillID": 10642,
          "nextLoopTriggerID": "NextLoopTrigger",
          "endHoldTrigger": "EndHoldTrigger",
          "beforeStateIDs": ["Yunjin_ElementalArt_BS"],
          "chargeLoopStateIDs": [
            "Yunjin_ElementalArt_Loop_1",
            "Yunjin_ElementalArt_Loop_2",
            "Yunjin_ElementalArt_Loop_3"
          ],
          "chargeLoopDurations": [0.5799999833106995, 0.7200000286102295, 0.5]
        },
        {
          "$type": "AttachToStateIDMixin",
          "stateIDs": ["Yunjin_ElementalArt_Loop_1"],
          "modifierName": "Yunjin_ElementalArt_Loop_1",
          "DGFCLAIDIFI": ""
        },
        {
          "$type": "AttachToStateIDMixin",
          "stateIDs": ["Yunjin_ElementalArt_Loop_2"],
          "modifierName": "Yunjin_ElementalArt_Loop_2",
          "DGFCLAIDIFI": ""
        },
        {
          "$type": "AttachToStateIDMixin",
          "stateIDs": ["Yunjin_ElementalArt_Loop_3"],
          "modifierName": "Yunjin_ElementalArt_Loop_3",
          "DGFCLAIDIFI": ""
        },
        {
          "$type": "AttachToStateIDMixin",
          "stateIDs": [
            "Yunjin_ElementalArt_BS",
            "Yunjin_ElementalArt_Loop_1",
            "Yunjin_ElementalArt_Loop_2",
            "Yunjin_ElementalArt_Loop_3",
            "Yunjin_ElementalArt_Cast"
          ],
          "modifierName": "Yunjin_ElementalArt_Shield",
          "DGFCLAIDIFI": ""
        },
        {
          "$type": "AttachToStateIDMixin",
          "stateIDs": [
            "Yunjin_ElementalArt_Loop_1",
            "Yunjin_ElementalArt_Loop_2",
            "Yunjin_ElementalArt_Loop_3"
          ],
          "modifierName": "Yunjin_ElementalArt_Charge_VFX",
          "DGFCLAIDIFI": ""
        },
        {
          "$type": "AttachToStateIDMixin",
          "stateIDs": [
            "Yunjin_ElementalArt_BS",
            "Yunjin_ElementalArt_Loop_1",
            "Yunjin_ElementalArt_Loop_2",
            "Yunjin_ElementalArt_Loop_3"
          ],
          "modifierName": "Yunjin_ElementalArt_Hit_Handler",
          "DGFCLAIDIFI": ""
        },
        {
          "$type": "AttachToStateIDMixin",
          "stateIDs": [
            "Yunjin_ElementalArt_BS",
            "Yunjin_ElementalArt_Loop_1",
            "Yunjin_ElementalArt_Loop_2",
            "Yunjin_ElementalArt_Loop_3",
            "Yunjin_ElementalArt_Cast"
          ],
          "modifierName": "Yunjin_ElementalArt_Endura",
          "DGFCLAIDIFI": ""
        },
        {
          "$type": "AttachToStateIDMixin",
          "stateIDs": ["Yunjin_ElementalArt_Loop_1"],
          "modifierName": "Yunjin_ElementalArt_Kaoqi_VFX",
          "DGFCLAIDIFI": ""
        },
        {
          "$type": "AttachToNormalizedTimeMixin",
          "stateID": "Yunjin_ElementalArt_Cast",
          "modifierName": "Avatar_Yunjin_ElementalArt_Remover",
          "normalizeStart": 0.11999999731779099,
          "DGFCLAIDIFI": ""
        }
      ],
      "abilitySpecials": {
        "CounterStage": 0.0,
        "Yunjin_ElementalArt_Shield_HPRatio": 0.0,
        "Yunjin_ElementalArt_Shield_Base": 0.0
      },
      "modifiers": {
        "Yunjin_ElementalArt_Loop_1": {
          "modifierName": "",
          "elementDurability": 100.0,
          "onAdded": [
            {
              "$type": "SetGlobalValue",
              "value": 1.0,
              "key": "_ABILITY_Yunjin_ElementalArt_Stage",
              "maxValue": 0.0,
              "minValue": 0.0
            },
            {
              "$type": "SetAnimatorInt",
              "intID": "CounterStage",
              "value": 1.0
            },
            {
              "$type": "AttachModifier",
              "modifierName": "Yunjin_ElementalArt_Weapon_VFX_1"
            }
          ]
        },
        "Yunjin_ElementalArt_Loop_2": {
          "modifierName": "",
          "elementDurability": 100.0,
          "onAdded": [
            {
              "$type": "SetGlobalValue",
              "value": 2.0,
              "key": "_ABILITY_Yunjin_ElementalArt_Stage",
              "maxValue": 0.0,
              "minValue": 0.0
            },
            {
              "$type": "SendEffectTrigger",
              "parameter": "Stage_2",
              "attachPoint": "",
              "rotationDampTime": "Eff_Avatar_Girl_Pole_Yunjin_Kaoqi"
            },
            {
              "$type": "AttachModifier",
              "modifierName": "Yunjin_ElementalArt_Weapon_VFX_2"
            },
            {
              "$type": "ActCameraShake",
              "cameraShake": {
                "shakeRange": 0.30000001192092896,
                "shakeTime": 0.11999999731779099,
                "shakeDistance": 30.0,
                "extension": {
                  "baseCycle": 0.07999999821186066,
                  "cycleDamping": -0.03999999910593033
                }
              }
            }
          ]
        },
        "Yunjin_ElementalArt_Loop_3": {
          "modifierName": "",
          "elementDurability": 100.0,
          "onAdded": [
            {
              "$type": "SetGlobalValue",
              "value": 3.0,
              "key": "_ABILITY_Yunjin_ElementalArt_Stage",
              "maxValue": 0.0,
              "minValue": 0.0
            },
            {
              "$type": "SendEffectTrigger",
              "parameter": "Stage_3",
              "attachPoint": "",
              "rotationDampTime": "Eff_Avatar_Girl_Pole_Yunjin_Kaoqi"
            },
            {
              "$type": "SetAnimatorInt",
              "intID": "CounterStage",
              "value": 3.0
            },
            {
              "$type": "AttachModifier",
              "modifierName": "Yunjin_ElementalArt_Weapon_VFX_3"
            },
            {
              "$type": "ActCameraShake",
              "cameraShake": {
                "shakeRange": 0.3199999928474426,
                "shakeTime": 0.1599999964237213,
                "shakeDistance": 30.0,
                "extension": {
                  "baseCycle": 0.07999999821186066,
                  "cycleDamping": -0.03999999910593033
                }
              }
            },
            {
              "$type": "ActCameraRadialBlur",
              "cameraRadialBlur": {
                "power": 1.0,
                "blurTime": 0.30000001192092896,
                "fadeTime": 0.15000000596046448
              }
            }
          ]
        },
        "Yunjin_ElementalArt_Weapon_VFX_1": {
          "modifierName": "",
          "elementDurability": 100.0,
          "onAdded": [
            {
              "$type": "SetEmissionScaler",
              "materialType": "Weapon",
              "value": 3.0,
              "duration": 0.10000000149011612
            }
          ],
          "onRemoved": [
            {
              "$type": "SetEmissionScaler",
              "materialType": "Weapon",
              "value": -1.0,
              "duration": 0.10000000149011612
            }
          ]
        },
        "Yunjin_ElementalArt_Weapon_VFX_2": {
          "modifierName": "",
          "elementDurability": 100.0,
          "onAdded": [
            {
              "$type": "SetEmissionScaler",
              "materialType": "Weapon",
              "value": 6.0,
              "duration": 0.10000000149011612
            }
          ],
          "onRemoved": [
            {
              "$type": "SetEmissionScaler",
              "materialType": "Weapon",
              "value": -1.0,
              "duration": 0.10000000149011612
            }
          ]
        },
        "Yunjin_ElementalArt_Weapon_VFX_3": {
          "modifierName": "",
          "elementDurability": 100.0,
          "onAdded": [
            {
              "$type": "SetEmissionScaler",
              "materialType": "Weapon",
              "value": 8.0,
              "duration": 0.10000000149011612
            }
          ],
          "onRemoved": [
            {
              "$type": "SetEmissionScaler",
              "materialType": "Weapon",
              "value": -1.0,
              "duration": 0.10000000149011612
            }
          ]
        },
        "Yunjin_ElementalArt_Weapon_Cast_Handler": {
          "modifierName": "",
          "elementDurability": 100.0,
          "onAdded": [
            {
              "$type": "AttachModifier",
              "modifierName": "Yunjin_ElementalArt_Weapon_Cast_VFX"
            }
          ]
        },
        "Yunjin_ElementalArt_Weapon_Cast_VFX": {
          "modifierName": "",
          "elementDurability": 100.0,
          "onAdded": [
            {
              "$type": "SetEmissionScaler",
              "materialType": "Weapon",
              "value": 8.0,
              "duration": 0.10000000149011612
            }
          ],
          "onRemoved": [
            {
              "$type": "SetEmissionScaler",
              "materialType": "Weapon",
              "value": -1.0,
              "duration": 0.10000000149011612
            }
          ]
        },
        "Yunjin_ElementalArt_Shield": {
          "modifierName": "",
          "elementDurability": 100.0,
          "modifierMixins": [
            {
              "$type": "EliteShieldMixin",
              "shieldType": "Avatar_Rock",
              "DLBHHADKGJN": 360.0,
              "maxShieldByHPRatio": "Yunjin_ElementalArt_Shield_HPRatio",
              "HOBPOPLIMAC": "Yunjin_ElementalArt_Shield_Base",
              "costShieldRatioName": "",
              "showDamageText": "INFO_ELITE_DEFENCE",
              "onShieldBroken": [
                {
                  "$type": "SetAnimatorTrigger",
                  "triggerID": "EndHoldTrigger"
                }
              ]
            }
          ],
          "onAdded": [
            {
              "$type": "AttachEffect",
              "rotationDampTime": "Eff_Avatar_Girl_Pole_Yunjin_ElementalArt_Shield",
              "PPPDJGDDOGD": 1.0,
              "AJDILHJFNKE": -1.0
            }
          ],
          "onBeingHit": [
            {
              "$type": "Predicated",
              "target": "Target",
              "targetPredicates": [
                {
                  "$type": "ByHitEnBreak",
                  "enBreak": 0.0
                }
              ],
              "successActions": [
                {
                  "$type": "ApplyModifier",
                  "modifierName": "Yunjin_ElementalArt_Shield_Hit_Handler"
                }
              ]
            }
          ]
        },
        "Yunjin_ElementalArt_Shield_Hit_Handler": {
          "stacking": "Unique",
          "modifierName": "",
          "duration": 0.5,
          "elementDurability": 100.0,
          "onAdded": [
            {
              "$type": "SendEffectTrigger",
              "parameter": "Hit",
              "attachPoint": "",
              "rotationDampTime": "Eff_Avatar_Girl_Pole_Yunjin_ElementalArt_Shield"
            }
          ]
        },
        "Yunjin_ElementalArt_Charge_VFX": {
          "modifierName": "",
          "elementDurability": 100.0,
          "onAdded": [
            {
              "$type": "AttachEffect",
              "rotationDampTime": "Eff_Avatar_Girl_Pole_Yunjin_ElementalArt_Charge",
              "PPPDJGDDOGD": 1.0,
              "AJDILHJFNKE": -1.0
            }
          ]
        },
        "Yunjin_ElementalArt_Endura": {
          "modifierName": "",
          "elementDurability": 100.0,
          "properties": {
            "Actor_EndureDelta": 0.0
          }
        },
        "Yunjin_ElementalArt_Hit_Handler": {
          "modifierName": "",
          "elementDurability": 100.0,
          "onAdded": [
            {
              "$type": "ClearEndura"
            },
            {
              "$type": "SetGlobalValue",
              "value": 1.0,
              "key": "_ABILITY_Yunjin_ElementalArt_Stage",
              "maxValue": 0.0,
              "minValue": 0.0
            },
            {
              "$type": "SetAnimatorInt",
              "intID": "CounterStage",
              "value": 1.0
            },
            {
              "$type": "ApplyModifier",
              "predicates": [
                {
                  "$type": "ByUnlockTalentParam",
                  "talentParam": "Yunjin_PermanentSkill_1_JustGuard"
                }
              ],
              "modifierName": "UNIQUE_Yunjin_ElementalArt_JustGuard_Timer"
            }
          ],
          "onBeingHit": [
            {
              "$type": "ActCameraShake",
              "predicates": [
                {
                  "$type": "ByTargetGlobalValue",
                  "target": "Self",
                  "key": "_ABILITY_Yunjin_ElementalArt_Stage",
                  "value": 3.0,
                  "compareType": "MoreThanAndEqual"
                },
                {
                  "$type": "ByHitEnBreak",
                  "enBreak": 0.0
                }
              ],
              "cameraShake": {
                "shakeRange": 0.30000001192092896,
                "shakeTime": 0.11999999731779099,
                "shakeDistance": 30.0,
                "extension": {
                  "baseCycle": 0.07999999821186066,
                  "cycleDamping": -0.03999999910593033
                }
              }
            }
          ]
        },
        "UNIQUE_Yunjin_ElementalArt_JustGuard_Timer": {
          "modifierName": "",
          "forceTriggerWhenChangeAuthority": true,
          "duration": 0.30000001192092896,
          "elementDurability": 100.0,
          "onAdded": [
            {
              "$type": "SetGlobalValue",
              "value": 1.0,
              "key": "_ABILITY_Yunjin_JustGuard_Flag",
              "maxValue": 0.0,
              "minValue": 0.0
            }
          ],
          "onRemoved": [
            {
              "$type": "SetGlobalValue",
              "shieldHP": true,
              "value": 0.0,
              "key": "_ABILITY_Yunjin_JustGuard_Flag",
              "maxValue": 0.0,
              "minValue": 0.0
            }
          ],
          "onBeingHit": [
            {
              "$type": "ApplyModifier",
              "predicates": [
                {
                  "$type": "ByHitEnBreak",
                  "enBreak": 0.0
                }
              ],
              "modifierName": "Yunjin_ElementalArt_JustGuard_Handler"
            }
          ]
        },
        "Avatar_Yunjin_ElementalArt_Remover": {
          "modifierName": "",
          "elementDurability": 100.0,
          "onAdded": [
            {
              "$type": "RemoveUniqueModifier",
              "predicates": [
                {
                  "$type": "ByUnlockTalentParam",
                  "talentParam": "Yunjin_PermanentSkill_1_JustGuard"
                }
              ],
              "modifierName": "UNIQUE_Yunjin_ElementalArt_JustGuard_Timer"
            }
          ]
        },
        "Yunjin_ElementalArt_JustGuard_Handler": {
          "modifierName": "",
          "duration": 0.30000001192092896,
          "elementDurability": 100.0,
          "onAdded": [
            {
              "$type": "ActCameraShake",
              "cameraShake": {
                "shakeRange": 0.3199999928474426,
                "shakeTime": 0.1599999964237213,
                "shakeDistance": 30.0,
                "extension": {
                  "baseCycle": 0.07999999821186066,
                  "cycleDamping": -0.03999999910593033
                }
              }
            },
            {
              "$type": "SetGlobalValue",
              "value": 3.0,
              "key": "_ABILITY_Yunjin_ElementalArt_Stage",
              "maxValue": 0.0,
              "minValue": 0.0
            },
            {
              "$type": "SetGlobalValueToOverrideMap",
              "globalValueKey": "_ABILITY_Yunjin_ElementalArt_Stage",
              "overrideMapKey": "CounterStage"
            },
            {
              "$type": "SetAnimatorInt",
              "intID": "CounterStage",
              "value": "CounterStage"
            },
            {
              "$type": "SendEffectTrigger",
              "predicates": [
                {
                  "$type": "ByHitEnBreak",
                  "enBreak": 0.0
                }
              ],
              "parameter": "Stage_3",
              "attachPoint": "",
              "rotationDampTime": "Eff_Avatar_Girl_Pole_Yunjin_Kaoqi"
            },
            {
              "$type": "FireEffect",
              "predicates": [
                {
                  "$type": "ByHitEnBreak",
                  "enBreak": 0.0
                },
                {
                  "$type": "ByTargetGlobalValue",
                  "target": "Self",
                  "key": "_ABILITY_Yunjin_JustGuard_Flag",
                  "value": 1.0
                }
              ],
              "rotationDampTime": "Eff_Avatar_Girl_Pole_Yunjin_ElementalArt_JustGuard",
              "PPPDJGDDOGD": 1.0,
              "AJDILHJFNKE": -1.0
            }
          ]
        },
        "Yunjin_ElementalArt_ElementalBall_Handler": {
          "modifierName": "",
          "elementDurability": 100.0,
          "onAttackLanded": [
            {
              "$type": "Predicated",
              "target": "Target",
              "targetPredicates": [
                {
                  "$type": "ByAttackTags",
                  "attackTags": ["Elemental_Art"]
                },
                {
                  "$type": "ByEntityTypes",
                  "entityTypes": ["Monster"]
                },
                {
                  "$type": "ByTargetGlobalValue",
                  "key": "_ANIMAL_ENTITY_TYPE",
                  "value": 0.0,
                  "compareType": "NoneOrEqual"
                }
              ],
              "successActions": [
                {
                  "$type": "ApplyModifier",
                  "modifierName": "Yunjin_ElementalArt_ElementalBall"
                }
              ]
            }
          ]
        },
        "Yunjin_ElementalArt_ElementalBall": {
          "stacking": "Unique",
          "modifierName": "",
          "duration": 0.30000001192092896,
          "elementDurability": 100.0,
          "onAdded": [
            {
              "$type": "Randomed",
              "chance": 1.0,
              "successActions": [
                {
                  "$type": "GenerateElemBall",
                  "configID": 2023,
                  "born": {
                    "$type": "ConfigBornByTarget",
                    "offset": {
                      "x": 0.0,
                      "y": 0.0,
                      "z": 1.0
                    }
                  },
                  "hpRatio": 1.0,
                  "baseEnergy": 6.0
                }
              ]
            },
            {
              "$type": "Randomed",
              "predicates": [
                {
                  "$type": "ByTargetGlobalValue",
                  "key": "_ABILITY_Yunjin_ElementalArt_Stage",
                  "value": 2.0
                }
              ],
              "chance": 0.5,
              "successActions": [
                {
                  "$type": "GenerateElemBall",
                  "configID": 2023,
                  "born": {
                    "$type": "ConfigBornByTarget",
                    "offset": {
                      "x": 0.0,
                      "y": 0.0,
                      "z": 1.0
                    }
                  },
                  "hpRatio": 1.0,
                  "baseEnergy": 3.0
                }
              ]
            },
            {
              "$type": "Randomed",
              "predicates": [
                {
                  "$type": "ByTargetGlobalValue",
                  "key": "_ABILITY_Yunjin_ElementalArt_Stage",
                  "value": 3.0,
                  "compareType": "MoreThanAndEqual"
                }
              ],
              "chance": 1.0,
              "successActions": [
                {
                  "$type": "GenerateElemBall",
                  "configID": 2023,
                  "born": {
                    "$type": "ConfigBornByTarget",
                    "offset": {
                      "x": 0.0,
                      "y": 0.0,
                      "z": 1.0
                    }
                  },
                  "hpRatio": 1.0,
                  "baseEnergy": 3.0
                }
              ]
            }
          ]
        },
        "Yunjin_ElementalArt_Kaoqi_VFX": {
          "modifierName": "",
          "elementDurability": 100.0,
          "onAdded": [
            {
              "$type": "TriggerAbility",
              "abilityName": "Avatar_Yunjin_Kaoqi"
            }
          ]
        }
      },
      "onAdded": [
        {
          "$type": "SetGlobalValue",
          "value": 0.0,
          "key": "_ABILITY_Yunjin_ElementalArt_Stage",
          "maxValue": 0.0,
          "minValue": 0.0
        },
        {
          "$type": "AttachModifier",
          "modifierName": "Yunjin_ElementalArt_ElementalBall_Handler"
        }
      ]
    }
  },
  {
    "Default": {
      "$type": "ConfigAbility",
      "abilityName": "Avatar_Yunjin_Kaoqi",
      "abilityMixins": [
        {
          "$type": "AttachToStateIDMixin",
          "stateIDs": ["Yunjin_ElementalArt_BS"],
          "modifierName": "Avatar_Yunjin_Kaoqi_Reset",
          "DGFCLAIDIFI": ""
        },
        {
          "$type": "AttachToStateIDMixin",
          "stateIDs": ["Yunjin_ElementalArt_Cast"],
          "modifierName": "Yunjin_ElementalArt_Kaoqi_Cast",
          "DGFCLAIDIFI": ""
        },
        {
          "$type": "AttachToStateIDMixin",
          "stateIDs": [
            "Yunjin_ElementalArt_Loop_2",
            "Yunjin_ElementalArt_Loop_3",
            "Yunjin_ElementalArt_Cast"
          ],
          "modifierName": "Yunjin_ElementalArt_Kaoqi_Dissolve",
          "DGFCLAIDIFI": ""
        },
        {
          "$type": "AttachToStateIDMixin",
          "stateIDs": [
            "Yunjin_ElementalArt_BS",
            "Yunjin_ElementalArt_Loop_1",
            "Yunjin_ElementalArt_Loop_2",
            "Yunjin_ElementalArt_Loop_3",
            "Yunjin_ElementalArt_Cast"
          ],
          "modifierName": "Yunjin_ElementalArt_Kaoqi_Flag",
          "DGFCLAIDIFI": ""
        }
      ],
      "modifiers": {
        "Avatar_Yunjin_Kaoqi_Reset": {
          "modifierName": "",
          "elementDurability": 100.0,
          "onAdded": [
            {
              "$type": "RemoveUniqueModifier",
              "modifierName": "UNIQUE_Avatar_Yunjin_Kaoqi"
            }
          ]
        },
        "Yunjin_ElementalArt_Kaoqi_Flag": {
          "modifierName": "",
          "elementDurability": 100.0,
          "onAdded": [
            {
              "$type": "SetGlobalValue",
              "value": 1.0,
              "key": "_ABILITY_Yunjin_ElementalArt_Flag",
              "maxValue": 0.0,
              "minValue": 0.0
            }
          ],
          "onRemoved": [
            {
              "$type": "SetGlobalValue",
              "shieldHP": true,
              "value": 0.0,
              "key": "_ABILITY_Yunjin_ElementalArt_Flag",
              "maxValue": 0.0,
              "minValue": 0.0
            }
          ]
        },
        "UNIQUE_Avatar_Yunjin_Kaoqi": {
          "modifierName": "",
          "forceTriggerWhenChangeAuthority": true,
          "elementDurability": 100.0,
          "onAdded": [
            {
              "$type": "AttachEffect",
              "rotationDampTime": "Eff_Avatar_Girl_Pole_Yunjin_Kaoqi",
              "PPPDJGDDOGD": 1.0,
              "AJDILHJFNKE": -1.0
            }
          ]
        },
        "Yunjin_ElementalArt_Kaoqi_Cast": {
          "modifierName": "",
          "elementDurability": 100.0,
          "onAdded": [
            {
              "$type": "SendEffectTrigger",
              "parameter": "Cast",
              "attachPoint": "",
              "rotationDampTime": "Eff_Avatar_Girl_Pole_Yunjin_Kaoqi"
            }
          ]
        },
        "Yunjin_ElementalArt_Kaoqi_Dissolve": {
          "modifierName": "",
          "elementDurability": 100.0,
          "onRemoved": [
            {
              "$type": "ApplyModifier",
              "shieldHP": true,
              "modifierName": "Avatar_Yunjin_Kaoqi_Remover"
            }
          ]
        },
        "Avatar_Yunjin_Kaoqi_Remover": {
          "modifierName": "",
          "duration": 0.6000000238418579,
          "elementDurability": 100.0,
          "onAdded": [
            {
              "$type": "SendEffectTrigger",
              "parameter": "Dissolve",
              "attachPoint": "",
              "rotationDampTime": "Eff_Avatar_Girl_Pole_Yunjin_Kaoqi"
            }
          ],
          "onRemoved": [
            {
              "$type": "RemoveUniqueModifier",
              "shieldHP": true,
              "predicates": [
                {
                  "$type": "ByNot",
                  "predicates": [
                    {
                      "$type": "ByTargetGlobalValue",
                      "key": "_ABILITY_Yunjin_ElementalArt_Flag",
                      "value": 1.0,
                      "forceByCaster": true
                    }
                  ]
                }
              ],
              "modifierName": "UNIQUE_Avatar_Yunjin_Kaoqi"
            }
          ]
        }
      },
      "onAbilityStart": [
        {
          "$type": "ApplyModifier",
          "modifierName": "UNIQUE_Avatar_Yunjin_Kaoqi"
        }
      ]
    }
  },
  {
    "Default": {
      "$type": "ConfigAbility",
      "abilityName": "Avatar_Yunjin_ElementalArt_Strike",
      "abilityMixins": [
        {
          "$type": "AttachToNormalizedTimeMixin",
          "stateID": "Yunjin_ElementalArt_Cast",
          "modifierName": "Avatar_Yunjin_ElementalArt_Strike_VFX",
          "normalizeStart": 0.14000000059604645,
          "DGFCLAIDIFI": ""
        }
      ],
      "abilitySpecials": {
        "Yunjin_ElementalArt_LV1_Damage_DefRatio": 0.0,
        "Yunjin_ElementalArt_LV2_Damage_DefRatio": 0.0,
        "Yunjin_ElementalArt_LV3_Damage_DefRatio": 0.0
      },
      "modifiers": {
        "Avatar_Yunjin_ElementalArt_Strike_VFX": {
          "modifierName": "",
          "elementDurability": 100.0,
          "onAdded": [
            {
              "$type": "FireEffect",
              "predicates": [
                {
                  "$type": "ByTargetGlobalValue",
                  "key": "_ABILITY_Yunjin_ElementalArt_Stage",
                  "value": 1.0,
                  "compareType": "NoneOrEqual"
                }
              ],
              "rotationDampTime": "Eff_Avatar_Girl_Pole_Yunjin_ElementalArt_Cast_1",
              "PPPDJGDDOGD": 1.0,
              "AJDILHJFNKE": -1.0
            },
            {
              "$type": "FireEffect",
              "predicates": [
                {
                  "$type": "ByTargetGlobalValue",
                  "key": "_ABILITY_Yunjin_ElementalArt_Stage",
                  "value": 2.0
                }
              ],
              "rotationDampTime": "Eff_Avatar_Girl_Pole_Yunjin_ElementalArt_Cast_2",
              "PPPDJGDDOGD": 1.0,
              "AJDILHJFNKE": -1.0
            },
            {
              "$type": "FireEffect",
              "predicates": [
                {
                  "$type": "ByTargetGlobalValue",
                  "key": "_ABILITY_Yunjin_ElementalArt_Stage",
                  "value": 3.0
                }
              ],
              "rotationDampTime": "Eff_Avatar_Girl_Pole_Yunjin_ElementalArt_Cast_3",
              "PPPDJGDDOGD": 1.0,
              "AJDILHJFNKE": -1.0
            },
            {
              "$type": "ApplyModifier",
              "predicates": [
                {
                  "$type": "ByTargetGlobalValue",
                  "key": "_ABILITY_Yunjin_ElementalArt_Stage",
                  "value": 3.0
                }
              ],
              "modifierName": "Avatar_Yunjin_ElementalArt_Strike_Weather"
            }
          ]
        },
        "Avatar_Yunjin_ElementalArt_Strike_Weather": {
          "modifierName": "",
          "duration": 1.0,
          "elementDurability": 100.0,
          "modifierMixins": [
            {
              "$type": "TriggerWeatherMixin",
              "damageRatio": "Skill",
              "weatherPattern": "Weather_Yunjin_ElementalArt",
              "transDuration": 0.20000000298023224,
              "duration": 0.699999988079071
            }
          ]
        }
      },
      "onAbilityStart": [
        {
          "$type": "AvatarSkillStart",
          "shieldHP": true,
          "skillID": 10642,
          "amountByTargetCurrentHPRatio": 1.0,
          "costStaminaRatio": 1.0
        },
        {
          "$type": "TriggerAttackEvent",
          "predicates": [
            {
              "$type": "ByTargetGlobalValue",
              "key": "_ABILITY_Yunjin_ElementalArt_Stage",
              "value": 1.0
            }
          ],
          "attackEvent": {
            "attackPattern": {
              "$type": "ConfigAttackCircle",
              "triggerType": "TriggerNoRepeat",
              "born": {
                "$type": "ConfigBornBySelf",
                "offset": {
                  "x": 0.0,
                  "y": 0.0,
                  "z": 0.0
                }
              },
              "height": 1.5,
              "radius": 4.0,
              "detectDirection": "Clockwise"
            },
            "attackInfo": {
              "attackTag": "Elemental_Art",
              "attenuationTag": "",
              "attenuationGroup": "default",
              "attackProperty": {
                "actorWindSubHurtDelta": 0.0,
                "elementType": "Rock",
                "elementDurability": 50.0,
                "strikeType": "Spear",
                "enBreak": 100.0,
                "attackType": "Melee",
                "HMBONGBFIAP": [
                  "Yunjin_ElementalArt_LV1_Damage_DefRatio",
                  "FIGHT_PROP_CUR_DEFENSE",
                  "MUL"
                ],
                "GLKMCMDJBIK": 0.0
              },
              "hitPattern": {
                "onHitEffectName": "Eff_Avatar_Girl_Pole_Yunjin_ElementalBurst_HitVFX",
                "hitImpulseY": "",
                "hitImpulseType": "LV4",
                "hitHaltTime": 0.05999999865889549,
                "hitHaltTimeScale": 0.009999999776482582,
                "canBeDefenceHalt": true
              },
              "cameraShake": {
                "shakeType": "CustomVector",
                "shakeRange": 0.23999999463558197,
                "shakeTime": 0.20999999344348907,
                "shakeDistance": 30.0,
                "shakeDir": {
                  "x": 1.0,
                  "y": -0.20000000298023224
                }
              }
            }
          },
          "targetType": "Enemy"
        },
        {
          "$type": "TriggerAttackEvent",
          "predicates": [
            {
              "$type": "ByTargetGlobalValue",
              "key": "_ABILITY_Yunjin_ElementalArt_Stage",
              "value": 2.0
            }
          ],
          "attackEvent": {
            "attackPattern": {
              "$type": "ConfigAttackCircle",
              "triggerType": "TriggerNoRepeat",
              "born": {
                "$type": "ConfigBornBySelf",
                "offset": {
                  "x": 0.0,
                  "y": 0.0,
                  "z": 0.0
                }
              },
              "height": 1.5,
              "radius": 6.0,
              "detectDirection": "Clockwise"
            },
            "attackInfo": {
              "attackTag": "Elemental_Art",
              "attenuationTag": "",
              "attenuationGroup": "default",
              "attackProperty": {
                "actorWindSubHurtDelta": 0.0,
                "elementType": "Rock",
                "elementDurability": 50.0,
                "strikeType": "Spear",
                "enBreak": 200.0,
                "attackType": "Melee",
                "HMBONGBFIAP": [
                  "Yunjin_ElementalArt_LV2_Damage_DefRatio",
                  "FIGHT_PROP_CUR_DEFENSE",
                  "MUL"
                ],
                "GLKMCMDJBIK": 0.0
              },
              "hitPattern": {
                "onHitEffectName": "Eff_Avatar_Girl_Pole_Yunjin_ElementalBurst_HitVFX",
                "hitImpulseY": "",
                "hitImpulseType": "LV4",
                "hitHaltTime": 0.09000000357627869,
                "hitHaltTimeScale": 0.009999999776482582,
                "canBeDefenceHalt": true
              },
              "cameraShake": {
                "shakeType": "CustomVector",
                "shakeRange": 0.23999999463558197,
                "shakeTime": 0.20999999344348907,
                "shakeDistance": 30.0,
                "shakeDir": {
                  "x": 1.0,
                  "y": -0.20000000298023224
                }
              }
            }
          },
          "targetType": "Enemy"
        },
        {
          "$type": "TriggerAttackEvent",
          "predicates": [
            {
              "$type": "ByTargetGlobalValue",
              "key": "_ABILITY_Yunjin_ElementalArt_Stage",
              "value": 3.0
            }
          ],
          "attackEvent": {
            "attackPattern": {
              "$type": "ConfigAttackCircle",
              "triggerType": "TriggerNoRepeat",
              "born": {
                "$type": "ConfigBornBySelf",
                "offset": {
                  "x": 0.0,
                  "y": 0.0,
                  "z": 0.0
                }
              },
              "height": 1.5,
              "radius": 8.0,
              "detectDirection": "Clockwise"
            },
            "attackInfo": {
              "attackTag": "Elemental_Art",
              "attenuationTag": "",
              "attenuationGroup": "default",
              "attackProperty": {
                "actorWindSubHurtDelta": 0.0,
                "elementType": "Rock",
                "elementDurability": 100.0,
                "strikeType": "Spear",
                "enBreak": 300.0,
                "attackType": "Melee",
                "HMBONGBFIAP": [
                  "Yunjin_ElementalArt_LV3_Damage_DefRatio",
                  "FIGHT_PROP_CUR_DEFENSE",
                  "MUL"
                ],
                "GLKMCMDJBIK": 0.0
              },
              "hitPattern": {
                "onHitEffectName": "Eff_Avatar_Girl_Pole_Yunjin_ElementalBurst_HitVFX",
                "hitImpulseY": "",
                "hitImpulseType": "LV6",
                "hitHaltTime": 0.11999999731779099,
                "hitHaltTimeScale": 0.009999999776482582,
                "canBeDefenceHalt": true
              },
              "cameraShake": {
                "shakeType": "CustomVector",
                "shakeRange": 0.36000001430511475,
                "shakeTime": 0.30000001192092896,
                "shakeDistance": 30.0,
                "shakeDir": {
                  "x": 1.0,
                  "y": -0.20000000298023224
                }
              }
            }
          },
          "targetType": "Enemy"
        }
      ]
    }
  },
  {
    "Default": {
      "$type": "ConfigAbility",
      "abilityName": "Avatar_Yunjin_ElementalBurst_Cast",
      "abilityMixins": [
        {
          "$type": "AttachToStateIDMixin",
          "stateIDs": ["Yunjin_ElementalBurst"],
          "modifierName": "Weather_Handler",
          "DGFCLAIDIFI": ""
        },
        {
          "$type": "AttachToStateIDMixin",
          "stateIDs": ["Yunjin_ElementalBurst"],
          "modifierName": "VFX",
          "DGFCLAIDIFI": ""
        },
        {
          "$type": "AttachToStateIDMixin",
          "stateIDs": ["Yunjin_ElementalBurst"],
          "modifierName": "ExitCamera",
          "DGFCLAIDIFI": ""
        },
        {
          "$type": "AttachToStateIDMixin",
          "stateIDs": ["Yunjin_ElementalBurst"],
          "modifierName": "SkillStart",
          "DGFCLAIDIFI": ""
        },
        {
          "$type": "AttachToStateIDMixin",
          "stateIDs": ["Yunjin_ElementalBurst"],
          "modifierName": "Invincible",
          "DGFCLAIDIFI": ""
        }
      ],
      "abilitySpecials": {
        "Yunjin_ElementalBurst_Damage_AtkRatio": 0.0
      },
      "modifiers": {
        "Invincible": {
          "modifierName": "",
          "elementDurability": 100.0,
          "state": "Invincible",
          "onAdded": [
            {
              "$type": "AttachAbilityStateResistance",
              "resistanceListID": 11002
            }
          ]
        },
        "SkillStart": {
          "modifierName": "",
          "elementDurability": 100.0,
          "onAdded": [
            {
              "$type": "RemoveUniqueModifier",
              "modifierName": "UNIQUE_Avatar_Yunjin_ElementalBurst_Buff_Handler"
            },
            {
              "$type": "AvatarSkillStart",
              "skillID": 10643,
              "amountByTargetCurrentHPRatio": 1.0,
              "costStaminaRatio": 1.0
            }
          ]
        },
        "Weather_Handler": {
          "modifierName": "",
          "elementDurability": 100.0,
          "onAdded": [
            {
              "$type": "ApplyModifier",
              "modifierName": "Weather"
            }
          ]
        },
        "Weather": {
          "modifierName": "",
          "duration": 1.5,
          "elementDurability": 100.0,
          "modifierMixins": [
            {
              "$type": "TriggerWeatherMixin",
              "damageRatio": "Skill",
              "weatherPattern": "Weather_Yunjin_ElementalBurst",
              "transDuration": 0.20000000298023224,
              "duration": 0.8999999761581421
            }
          ]
        },
        "VFX": {
          "modifierName": "",
          "elementDurability": 100.0,
          "onAdded": [
            {
              "$type": "AttachEffect",
              "rotationDampTime": "Eff_Avatar_Girl_Pole_Yunjin_ElementalBurst_BS",
              "PPPDJGDDOGD": 1.0,
              "AJDILHJFNKE": -1.0
            }
          ]
        },
        "RadialBlur": {
          "modifierName": "",
          "duration": 0.10000000149011612,
          "elementDurability": 100.0,
          "modifierMixins": [
            {
              "$type": "CameraBlurMixin",
              "cameraRadialBlur": {
                "power": 1.0,
                "fadeTime": 0.20000000298023224
              }
            }
          ]
        },
        "ExitCamera": {
          "modifierName": "",
          "elementDurability": 100.0,
          "onRemoved": [
            {
              "$type": "AvatarExitCameraShot",
              "shieldHP": true
            },
            {
              "$type": "AvatarCameraParam",
              "shieldHP": true,
              "cameraParam": {
                "forceRadius": 6.0,
                "forceRadiusDuration": 0.0,
                "shouldKeepForceRadius": true
              }
            }
          ]
        }
      },
      "onAbilityStart": [
        {
          "$type": "FireEffect",
          "rotationDampTime": "Eff_Avatar_Girl_Pole_Yunjin_ElementalBurst_Cast",
          "PPPDJGDDOGD": 1.0,
          "AJDILHJFNKE": -1.0
        },
        {
          "$type": "ApplyModifier",
          "modifierName": "RadialBlur"
        },
        {
          "$type": "TriggerAttackEvent",
          "attackEvent": {
            "attackPattern": {
              "$type": "ConfigAttackCircle",
              "triggerType": "TriggerNoRepeat",
              "born": {
                "$type": "ConfigBornBySelf",
                "offset": {
                  "x": 0.0,
                  "y": 0.0,
                  "z": 0.0
                }
              },
              "height": 4.0,
              "radius": 6.0
            },
            "attackInfo": {
              "attackTag": "Elemental_Burst",
              "attenuationTag": "",
              "attenuationGroup": "default",
              "attackProperty": {
                "actorGrassSubHurtDelta": "Yunjin_ElementalBurst_Damage_AtkRatio",
                "actorWindSubHurtDelta": 0.0,
                "elementType": "Rock",
                "elementRank": 1.5,
                "elementDurability": 50.0,
                "strikeType": "Blunt",
                "enBreak": 200.0,
                "attackType": "Melee",
                "GLKMCMDJBIK": 0.0
              },
              "hitPattern": {
                "onHitEffectName": "default",
                "hitImpulseY": "",
                "hitImpulseType": "LV4",
                "retreatType": "ByHitDirection"
              },
              "forceCameraShake": true,
              "cameraShake": {
                "shakeRange": 0.6000000238418579,
                "shakeTime": 0.36000001430511475,
                "shakeDistance": 30.0,
                "extension": {
                  "baseCycle": 0.07999999821186066,
                  "cycleDamping": -0.03999999910593033
                }
              }
            }
          },
          "targetType": "Enemy"
        },
        {
          "$type": "TriggerAbility",
          "abilityName": "Avatar_Yunjin_ElementalBurst_Buff"
        }
      ]
    }
  },
  {
    "Default": {
      "$type": "ConfigAbility",
      "abilityName": "Avatar_Yunjin_ElementalBurst_Buff",
      "abilityMixins": [
        {
          "$type": "AttachToStateIDMixin",
          "stateIDs": ["Yunjin_ElementalBurst"],
          "modifierName": "Avatar_Yunjin_ElementalBurst_Reset",
          "DGFCLAIDIFI": ""
        }
      ],
      "abilitySpecials": {
        "Yunjin_ElementalBurst_Buff_Duration": 0.0,
        "Yunjin_ElementalBurst_Buff_ExtraDamage_DefRatio": 0.0,
        "Yunjin_Constellation_2_Buff_Duration": 0.0,
        "Yunjin_Constellation_2_Buff_DamagePercentageRatio": 0.0,
        "Yunjin_ElementalBurst_Buff_ExtraDamage_ElementNum": 0.0,
        "Yunjin_PermanentSkill_2_ElementNum_Elem_1": 0.0,
        "Yunjin_PermanentSkill_2_ElementNum_Elem_2": 0.0,
        "Yunjin_PermanentSkill_2_ElementNum_Elem_3": 0.0,
        "Yunjin_PermanentSkill_2_ElementNum_Elem_4": 0.0,
        "Yunjin_ElementalBurst_Buff_AttackSpeedRatio": 0.0
      },
      "modifiers": {
        "UNIQUE_Avatar_Yunjin_ElementalBurst_Buff_Handler": {
          "modifierName": "",
          "forceTriggerWhenChangeAuthority": true,
          "duration": "Yunjin_ElementalBurst_Buff_Duration",
          "elementDurability": 100.0,
          "onAdded": [
            {
              "$type": "SetGlobalValue",
              "shieldHP": true,
              "value": 0.0,
              "key": "_ABILITY_Yunjin_ElementalBurst_Buff_Mark",
              "maxValue": 0.0,
              "minValue": 0.0
            },
            {
              "$type": "SetGlobalValue",
              "shieldHP": true,
              "value": 1.0,
              "key": "_ABILITY_Yunjin_ElementalBurst_Buff_Mark",
              "maxValue": 0.0,
              "minValue": 0.0
            },
            {
              "$type": "AttachModifier",
              "shieldHP": true,
              "modifierName": "UNIQUE_Avatar_Yunjin_ElementalBurst_Buff"
            },
            {
              "$type": "ApplyModifier",
              "shieldHP": true,
              "modifierName": "UNIQUE_Avatar_Yunjin_ElementalBurst_Buff_VFX"
            },
            {
              "$type": "AttachModifier",
              "target": "Caster",
              "predicates": [
                {
                  "$type": "ByUnlockTalentParam",
                  "talentParam": "Yunjin_PermanentSkill_2_ElementNum"
                }
              ],
              "modifierName": "UNIQUE_Yunjin_ElementalBurst_PermanentSkill_2_ElementNum"
            },
            {
              "$type": "AttachModifier",
              "shieldHP": true,
              "predicates": [
                {
                  "$type": "ByUnlockTalentParam",
                  "talentParam": "Yunjin_Constellation_6"
                }
              ],
              "modifierName": "UNIQUE_Yunjin_Constellation_6"
            }
          ],
          "onRemoved": [
            {
              "$type": "ApplyModifier",
              "shieldHP": true,
              "modifierName": "Avatar_Yunjin_Buff_VFX_Remover"
            },
            {
              "$type": "SetGlobalValue",
              "shieldHP": true,
              "value": 0.0,
              "key": "_ABILITY_Yunjin_ElementalBurst_Buff_Mark",
              "maxValue": 0.0,
              "minValue": 0.0
            }
          ]
        },
        "UNIQUE_Avatar_Yunjin_ElementalBurst_Buff": {
          "modifierName": "",
          "forceTriggerWhenChangeAuthority": true,
          "elementDurability": 100.0,
          "modifierMixins": [
            {
              "$type": "ModifyDamageCountMixin",
              "attackTags": [
                "NormalAttack_01",
                "NormalAttack_02",
                "NormalAttack_03",
                "NormalAttack_04",
                "NormalAttack_05",
                "NormalAttack_06"
              ],
              "actorWindSubHurtDelta": 0.0,
              "HMBONGBFIAP": [
                "FIGHT_PROP_CUR_DEFENSE",
                "Yunjin_ElementalBurst_Buff_ExtraDamage_DefRatio",
                "MUL",
                "FIGHT_PROP_CUR_DEFENSE",
                "Yunjin_ElementalBurst_Buff_ExtraDamage_ElementNum",
                "MUL",
                "ADD"
              ],
              "predicates": [
                {
                  "$type": "ByEntityTypes",
                  "entityTypes": ["Monster"]
                },
                {
                  "$type": "ByTargetGlobalValue",
                  "key": "_ANIMAL_ENTITY_TYPE",
                  "value": 0.0,
                  "compareType": "NoneOrEqual"
                }
              ],
              "maxModifyCount": 30.0,
              "maxCountActions": [
                {
                  "$type": "RemoveUniqueModifier",
                  "shieldHP": true,
                  "modifierName": "UNIQUE_Yunjin_ElementalBurst_PermanentSkill_2_ElementNum"
                },
                {
                  "$type": "RemoveUniqueModifier",
                  "shieldHP": true,
                  "modifierName": "UNIQUE_Yunjin_Constellation_6"
                },
                {
                  "$type": "ApplyModifier",
                  "shieldHP": true,
                  "modifierName": "Avatar_Yunjin_Buff_VFX_Remover"
                }
              ],
              "bonusCritical": ""
            }
          ]
        },
        "UNIQUE_Avatar_Yunjin_ElementalBurst_Buff_VFX": {
          "modifierName": "",
          "forceTriggerWhenChangeAuthority": true,
          "elementDurability": 100.0,
          "onAdded": [
            {
              "$type": "AttachEffect",
              "shieldHP": true,
              "rotationDampTime": "Eff_Avatar_Girl_Pole_Yunjin_ElementalBurst_Buff",
              "PPPDJGDDOGD": 1.0,
              "AJDILHJFNKE": -1.0
            }
          ]
        },
        "UNIQUE_Yunjin_ElementalBurst_PermanentSkill_2_ElementNum": {
          "modifierName": "",
          "forceTriggerWhenChangeAuthority": true,
          "elementDurability": 100.0,
          "thinkInterval": 0.5,
          "onAdded": [
            {
              "$type": "SetGlobalValue",
              "shieldHP": true,
              "value": 0.0,
              "key": "_ABILITY_Yunjin_PermanentSkill_2_ElementNum",
              "maxValue": 0.0,
              "minValue": 0.0
            }
          ],
          "onThinkInterval": [
            {
              "$type": "SetGlobalValue",
              "shieldHP": true,
              "value": 0.0,
              "key": "_ABILITY_Yunjin_PermanentSkill_2_ElementNum",
              "maxValue": 0.0,
              "minValue": 0.0
            },
            {
              "$type": "AddGlobalValue",
              "shieldHP": true,
              "predicates": [
                {
                  "$type": "ByBigTeamHasElementType",
                  "elementType": "Fire",
                  "number": 1,
                  "logic": "GreaterOrEqual"
                }
              ],
              "value": 1.0,
              "key": "_ABILITY_Yunjin_PermanentSkill_2_ElementNum",
              "useLimitRange": true,
              "maxValue": 4.0,
              "minValue": 0.0
            },
            {
              "$type": "AddGlobalValue",
              "shieldHP": true,
              "predicates": [
                {
                  "$type": "ByBigTeamHasElementType",
                  "elementType": "Water",
                  "number": 1,
                  "logic": "GreaterOrEqual"
                }
              ],
              "value": 1.0,
              "key": "_ABILITY_Yunjin_PermanentSkill_2_ElementNum",
              "useLimitRange": true,
              "maxValue": 4.0,
              "minValue": 0.0
            },
            {
              "$type": "AddGlobalValue",
              "shieldHP": true,
              "predicates": [
                {
                  "$type": "ByBigTeamHasElementType",
                  "elementType": "Electric",
                  "number": 1,
                  "logic": "GreaterOrEqual"
                }
              ],
              "value": 1.0,
              "key": "_ABILITY_Yunjin_PermanentSkill_2_ElementNum",
              "useLimitRange": true,
              "maxValue": 4.0,
              "minValue": 0.0
            },
            {
              "$type": "AddGlobalValue",
              "shieldHP": true,
              "predicates": [
                {
                  "$type": "ByBigTeamHasElementType",
                  "elementType": "Rock",
                  "number": 1,
                  "logic": "GreaterOrEqual"
                }
              ],
              "value": 1.0,
              "key": "_ABILITY_Yunjin_PermanentSkill_2_ElementNum",
              "useLimitRange": true,
              "maxValue": 4.0,
              "minValue": 0.0
            },
            {
              "$type": "AddGlobalValue",
              "shieldHP": true,
              "predicates": [
                {
                  "$type": "ByBigTeamHasElementType",
                  "elementType": "Wind",
                  "number": 1,
                  "logic": "GreaterOrEqual"
                }
              ],
              "value": 1.0,
              "key": "_ABILITY_Yunjin_PermanentSkill_2_ElementNum",
              "useLimitRange": true,
              "maxValue": 4.0,
              "minValue": 0.0
            },
            {
              "$type": "AddGlobalValue",
              "shieldHP": true,
              "predicates": [
                {
                  "$type": "ByBigTeamHasElementType",
                  "elementType": "Grass",
                  "number": 1,
                  "logic": "GreaterOrEqual"
                }
              ],
              "value": 1.0,
              "key": "_ABILITY_Yunjin_PermanentSkill_2_ElementNum",
              "useLimitRange": true,
              "maxValue": 4.0,
              "minValue": 0.0
            },
            {
              "$type": "AddGlobalValue",
              "shieldHP": true,
              "predicates": [
                {
                  "$type": "ByBigTeamHasElementType",
                  "elementType": "Ice",
                  "number": 1,
                  "logic": "GreaterOrEqual"
                }
              ],
              "value": 1.0,
              "key": "_ABILITY_Yunjin_PermanentSkill_2_ElementNum",
              "useLimitRange": true,
              "maxValue": 4.0,
              "minValue": 0.0
            },
            {
              "$type": "SetOverrideMapValue",
              "shieldHP": true,
              "predicates": [
                {
                  "$type": "ByTargetGlobalValue",
                  "key": "_ABILITY_Yunjin_PermanentSkill_2_ElementNum",
                  "value": 1.0
                }
              ],
              "value": "Yunjin_PermanentSkill_2_ElementNum_Elem_1",
              "overrideMapKey": "Yunjin_ElementalBurst_Buff_ExtraDamage_ElementNum",
              "maxValue": 0.0,
              "minValue": 0.0
            },
            {
              "$type": "SetOverrideMapValue",
              "shieldHP": true,
              "predicates": [
                {
                  "$type": "ByTargetGlobalValue",
                  "key": "_ABILITY_Yunjin_PermanentSkill_2_ElementNum",
                  "value": 2.0
                }
              ],
              "value": "Yunjin_PermanentSkill_2_ElementNum_Elem_2",
              "overrideMapKey": "Yunjin_ElementalBurst_Buff_ExtraDamage_ElementNum",
              "maxValue": 0.0,
              "minValue": 0.0
            },
            {
              "$type": "SetOverrideMapValue",
              "shieldHP": true,
              "predicates": [
                {
                  "$type": "ByTargetGlobalValue",
                  "key": "_ABILITY_Yunjin_PermanentSkill_2_ElementNum",
                  "value": 3.0
                }
              ],
              "value": "Yunjin_PermanentSkill_2_ElementNum_Elem_3",
              "overrideMapKey": "Yunjin_ElementalBurst_Buff_ExtraDamage_ElementNum",
              "maxValue": 0.0,
              "minValue": 0.0
            },
            {
              "$type": "SetOverrideMapValue",
              "shieldHP": true,
              "predicates": [
                {
                  "$type": "ByTargetGlobalValue",
                  "key": "_ABILITY_Yunjin_PermanentSkill_2_ElementNum",
                  "value": 4.0
                }
              ],
              "value": "Yunjin_PermanentSkill_2_ElementNum_Elem_4",
              "overrideMapKey": "Yunjin_ElementalBurst_Buff_ExtraDamage_ElementNum",
              "maxValue": 0.0,
              "minValue": 0.0
            }
          ]
        },
        "UNIQUE_Yunjin_Constellation_6": {
          "modifierName": "",
          "forceTriggerWhenChangeAuthority": true,
          "elementDurability": 100.0,
          "properties": {
            "Animator_AttackSpeedRatio": "Yunjin_ElementalBurst_Buff_AttackSpeedRatio"
          },
          "isLimitedProperties": true
        },
        "UNIQUE_Avatar_Yunjin_Constellation_2_Buff": {
          "modifierName": "",
          "forceTriggerWhenChangeAuthority": true,
          "duration": "Yunjin_Constellation_2_Buff_Duration",
          "elementDurability": 100.0,
          "modifierMixins": [
            {
              "$type": "ModifyDamageMixin",
              "attackTags": [
                "NormalAttack_01",
                "NormalAttack_02",
                "NormalAttack_03",
                "NormalAttack_04",
                "NormalAttack_05",
                "NormalAttack_06"
              ],
              "actorWindSubHurtDelta": "Yunjin_Constellation_2_Buff_DamagePercentageRatio"
            }
          ],
          "state": "AttackUp",
          "isLimitedProperties": true
        },
        "Avatar_Yunjin_Buff_VFX_Remover": {
          "modifierName": "",
          "duration": 0.4000000059604645,
          "elementDurability": 100.0,
          "onAdded": [
            {
              "$type": "SendEffectTrigger",
              "shieldHP": true,
              "parameter": "Die",
              "attachPoint": "",
              "rotationDampTime": "Eff_Avatar_Girl_Pole_Yunjin_ElementalBurst_Buff"
            }
          ],
          "onRemoved": [
            {
              "$type": "RemoveUniqueModifier",
              "shieldHP": true,
              "predicates": [
                {
                  "$type": "ByTargetGlobalValue",
                  "target": "Self",
                  "key": "_ABILITY_Yunjin_ElementalBurst_Buff_Mark",
                  "value": 0.0
                }
              ],
              "modifierName": "UNIQUE_Avatar_Yunjin_ElementalBurst_Buff_VFX"
            }
          ]
        },
        "Avatar_Yunjin_ElementalBurst_Reset": {
          "modifierName": "",
          "elementDurability": 100.0,
          "onAdded": [
            {
              "$type": "RemoveUniqueModifier",
              "target": "AllPlayerAvatars",
              "shieldHP": true,
              "predicates": [
                {
                  "$type": "ByTargetPositionToSelfPosition",
                  "logic": "LesserOrEqual",
                  "compareType": "XYZ",
                  "value": 40.0,
                  "DDALGNLEHOD": ""
                }
              ],
              "modifierName": "UNIQUE_Avatar_Yunjin_ElementalBurst_Buff_Handler"
            },
            {
              "$type": "RemoveUniqueModifier",
              "target": "AllPlayerAvatars",
              "shieldHP": true,
              "predicates": [
                {
                  "$type": "ByUnlockTalentParam",
                  "talentParam": "Yunjin_Constellation_2"
                },
                {
                  "$type": "ByTargetPositionToSelfPosition",
                  "logic": "LesserOrEqual",
                  "compareType": "XYZ",
                  "value": 40.0,
                  "DDALGNLEHOD": ""
                }
              ],
              "modifierName": "UNIQUE_Avatar_Yunjin_Constellation_2_Buff"
            }
          ]
        },
        "Blank": {
          "modifierName": "",
          "elementDurability": 100.0
        }
      },
      "onAbilityStart": [
        {
          "$type": "AttachModifier",
          "target": "AllPlayerAvatars",
          "shieldHP": true,
          "predicates": [
            {
              "$type": "ByTargetPositionToSelfPosition",
              "logic": "LesserOrEqual",
              "compareType": "XYZ",
              "value": 40.0,
              "DDALGNLEHOD": ""
            }
          ],
          "modifierName": "UNIQUE_Avatar_Yunjin_ElementalBurst_Buff_Handler"
        },
        {
          "$type": "AttachModifier",
          "target": "AllPlayerAvatars",
          "shieldHP": true,
          "predicates": [
            {
              "$type": "ByUnlockTalentParam",
              "talentParam": "Yunjin_Constellation_2"
            },
            {
              "$type": "ByTargetPositionToSelfPosition",
              "logic": "LesserOrEqual",
              "compareType": "XYZ",
              "value": 40.0,
              "DDALGNLEHOD": ""
            }
          ],
          "modifierName": "UNIQUE_Avatar_Yunjin_Constellation_2_Buff"
        }
      ]
    }
  },
  {
    "Default": {
      "$type": "ConfigAbility",
      "abilityName": "Avatar_Yunjin_Constellation_4",
      "abilitySpecials": {
        "Yunjin_CrystallizeAddDef_Duration": 0.0,
        "Yunjin_CrystallizeAddDef_DefRatio": 0.0
      },
      "modifiers": {
        "Yunjin_CrystallizeAddDef_Handler": {
          "modifierName": "",
          "elementDurability": 100.0,
          "modifierMixins": [
            {
              "$type": "DoActionByElementReactionMixin",
              "entityTypes": ["Monster"],
              "reactionTypes": [
                "CrystallizeWater",
                "CrystallizeElectric",
                "CrystallizeIce",
                "CrystallizeFire"
              ],
              "actions": [
                {
                  "$type": "AttachModifier",
                  "shieldHP": true,
                  "modifierName": "UNIQUE_Yunjin_CrystallizeAddDef"
                }
              ]
            }
          ]
        },
        "UNIQUE_Yunjin_CrystallizeAddDef": {
          "modifierName": "",
          "forceTriggerWhenChangeAuthority": true,
          "duration": "Yunjin_CrystallizeAddDef_Duration",
          "elementDurability": 100.0,
          "properties": {
            "Actor_DefenceRatio": "Yunjin_CrystallizeAddDef_DefRatio"
          },
          "state": "DefenseUp",
          "isLimitedProperties": true
        }
      },
      "onAdded": [
        {
          "$type": "AttachModifier",
          "modifierName": "Yunjin_CrystallizeAddDef_Handler"
        }
      ],
      "isDynamicAbility": true
    }
  }
]
