[
  {
    "Default": {
      "$type": "ConfigAbility",
      "abilityName": "Avatar_SprintBS_Invincible",
      "modifiers": {
        "SprintBS_Invincible": {
          "stacking": "Multiple",
          "stackingOption": {
            "abilitySpecialName": "",
            "maxModifierNumForMultipleType": 2.0
          },
          "modifierName": "",
          "duration": 0.30000001192092896,
          "elementDurability": 100.0,
          "properties": {
            "Actor_EndureDelta": 0.0
          },
          "onAdded": [
            {
              "$type": "EnableHitBoxByName",
              "shieldHP": true,
              "hitBoxNames": ["HitBox"]
            }
          ],
          "onRemoved": [
            {
              "$type": "EnableHitBoxByName",
              "shieldHP": true,
              "hitBoxNames": ["HitBox"],
              "setEnable": true
            }
          ]
        }
      },
      "onAbilityStart": [
        {
          "$type": "ApplyModifier",
          "shieldHP": true,
          "modifierName": "SprintBS_Invincible"
        }
      ],
      "isDynamicAbility": true
    }
  },
  {
    "Default": {
      "$type": "ConfigAbility",
      "abilityName": "Avatar_Freeze_Duration_Reducer",
      "modifiers": {
        "UNIQUE_Freeze_Duration_Reducer": {
          "modifierName": "",
          "forceTriggerWhenChangeAuthority": true,
          "elementDurability": 100.0,
          "onAdded": [
            {
              "$type": "AttachAbilityStateResistance",
              "shieldHP": true,
              "canBeHandledOnRecover": true,
              "resistanceListID": 14002,
              "durationRatio": 0.4000000059604645
            }
          ]
        }
      },
      "onAdded": [
        {
          "$type": "ApplyModifier",
          "shieldHP": true,
          "modifierName": "UNIQUE_Freeze_Duration_Reducer"
        }
      ],
      "isDynamicAbility": true
    }
  },
  {
    "Default": {
      "$type": "ConfigAbility",
      "abilityName": "Avatar_Girl_Catalyst_HitFallToGround_Hide",
      "abilityMixins": [
        {
          "$type": "AttachToNormalizedTimeMixin",
          "stateID": "Hit_Throw_Ground",
          "modifierName": "Girl_Catalyst_HitFallToGround_Visible_Handler",
          "normalizeStart": 0.1550000011920929,
          "normalizeEnd": 0.2720000147819519,
          "DGFCLAIDIFI": ""
        },
        {
          "$type": "AttachToNormalizedTimeMixin",
          "stateID": "Hit_Throw_Ground",
          "modifierName": "Girl_Catalyst_HitFallToGround_HideSpark",
          "normalizeStart": 0.11500000208616257,
          "normalizeEnd": 0.2720000147819519,
          "DGFCLAIDIFI": ""
        }
      ],
      "modifiers": {
        "Girl_Catalyst_HitFallToGround_HideSpark": {
          "modifierName": "",
          "elementDurability": 100.0,
          "onAdded": [
            {
              "$type": "FireEffect",
              "rotationDampTime": "Eff_Avatar_Girl_Catalyst_HitFallToGround_HideSpark",
              "PPPDJGDDOGD": 1.0,
              "AJDILHJFNKE": -1.0
            }
          ]
        },
        "Girl_Catalyst_HitFallToGround_Visible_Handler": {
          "modifierName": "",
          "elementDurability": 100.0,
          "onAdded": [
            {
              "$type": "TriggerSetVisible"
            }
          ],
          "onRemoved": [
            {
              "$type": "TriggerSetVisible",
              "shieldHP": true,
              "KGGEDGKGLDD": true
            },
            {
              "$type": "FireEffect",
              "rotationDampTime": "Eff_Avatar_Girl_Catalyst_HitFallToGround_ShowSpark",
              "PPPDJGDDOGD": 1.0,
              "AJDILHJFNKE": -1.0
            }
          ]
        }
      }
    }
  },
  {
    "Default": {
      "$type": "ConfigAbility",
      "abilityName": "Avatar_Bow_Aim_EmoController",
      "abilityMixins": [
        {
          "$type": "AttachToStateIDMixin",
          "stateIDs": ["Aim"],
          "modifierName": "AimLoop_EmoController",
          "DGFCLAIDIFI": ""
        }
      ],
      "modifiers": {
        "AimLoop_EmoController": {
          "modifierName": "",
          "elementDurability": 100.0,
          "onAdded": [
            {
              "$type": "BPEACDIGDCF",
              "emoSyncAssetPath": "Cutscene/ShortDialog/Cs_Emo_Avatar_Simple_Common_Set/Cs_Emo_Avatar_Common_Bow_Fight_Aim"
            },
            {
              "$type": "ControlEmotion",
              "toggleBlink": false
            }
          ],
          "onRemoved": [
            {
              "$type": "BPEACDIGDCF",
              "emoSyncAssetPath": "Cutscene/ShortDialog/Cs_Emo_Avatar_Simple_Common_Set/Cs_Emo_Avatar_Common_Normal"
            },
            {
              "$type": "ControlEmotion"
            }
          ]
        }
      }
    }
  },
  {
    "Default": {
      "$type": "ConfigAbility",
      "abilityName": "Avatar_RockGadget_Summon_Detect",
      "modifiers": {
        "RockGadget_Summon_Detect": {
          "modifierName": "",
          "elementDurability": 100.0,
          "onAdded": [
            {
              "$type": "TriggerAttackEvent",
              "attackEvent": {
                "attackPattern": {
                  "$type": "ConfigAttackBox",
                  "triggerType": "TriggerNoRepeat",
                  "born": {
                    "$type": "ConfigBornBySelf",
                    "offset": {
                      "x": 0.0,
                      "y": 2.0,
                      "z": -1.399999976158142
                    }
                  },
                  "size": {
                    "x": 2.799999952316284,
                    "y": 4.199999809265137,
                    "z": 2.799999952316284
                  }
                },
                "attackInfo": {
                  "attackTag": "Gadget_Summon_Detect",
                  "attenuationTag": "",
                  "attenuationGroup": "default",
                  "attackProperty": {
                    "actorGrassSubHurtDelta": 0.0,
                    "actorWindSubHurtDelta": 0.0,
                    "elementDurability": 0.0,
                    "enBreak": 0.0,
                    "GLKMCMDJBIK": 0.0
                  }
                }
              },
              "targetType": "All"
            }
          ]
        },
        "RockGadget_Summon_Suicide": {
          "modifierName": "",
          "elementDurability": 100.0,
          "onAttackLanded": [
            {
              "$type": "Predicated",
              "target": "Target",
              "targetPredicates": [
                {
                  "$type": "ByTargetType",
                  "isTarget": false,
                  "ALBJEAMOFLG": ""
                },
                {
                  "$type": "ByAny",
                  "predicates": [
                    {
                      "$type": "ByTargetGlobalValue",
                      "key": "_COMMON_GADGET_ISSUMMON",
                      "value": 0.0,
                      "compareType": "MoreThan"
                    },
                    {
                      "$type": "ByTargetGlobalValue",
                      "key": "_SCENE_GADGET_ISSUMMON",
                      "value": 0.0,
                      "compareType": "MoreThan"
                    }
                  ]
                }
              ],
              "successActions": [
                {
                  "$type": "KillSelf"
                },
                {
                  "$type": "ActCameraShake",
                  "cameraShake": {
                    "shakeRange": 0.03999999910593033,
                    "shakeTime": 0.07999999821186066
                  }
                }
              ]
            }
          ]
        }
      },
      "onAdded": [
        {
          "$type": "AddGlobalValue",
          "value": 1.0,
          "key": "_COMMON_GADGET_ISSUMMON",
          "useLimitRange": true,
          "maxValue": 1.0,
          "minValue": 0.0
        }
      ]
    }
  },
  {
    "Default": {
      "$type": "ConfigAbility",
      "abilityName": "RocketGadget_WeightRatio",
      "modifiers": {
        "RocketGadget_WeightRatio": {
          "modifierName": "",
          "elementDurability": 100.0,
          "properties": {
            "Entity_WeightRatio": 2.0
          }
        }
      },
      "onAdded": [
        {
          "$type": "ApplyModifier",
          "modifierName": "RocketGadget_WeightRatio"
        }
      ]
    }
  },
  {
    "Default": {
      "$type": "ConfigAbility",
      "abilityName": "Avatar_Common_Achievement_Listener",
      "modifiers": {
        "Achievement_Listener_82001": {
          "modifierName": "",
          "elementDurability": 100.0,
          "onAttackLanded": [
            {
              "$type": "Predicated",
              "target": "Target",
              "targetPredicates": [
                {
                  "$type": "ByEntityTypes",
                  "entityTypes": ["Monster"]
                },
                {
                  "$type": "ByTargetConfigID",
                  "configIdArray": [28030201, 28030202, 28030203, 28030204]
                },
                {
                  "$type": "ByAttackTags",
                  "attackTags": ["ExtraAttack"]
                }
              ],
              "successActions": [
                {
                  "$type": "HCLAKBJKPLE",
                  "watcherId": 82001,
                  "authorityOnly": true
                }
              ]
            }
          ]
        },
        "Achievement_Listener_82002": {
          "modifierName": "",
          "elementDurability": 100.0,
          "onAttackLanded": [
            {
              "$type": "Predicated",
              "target": "Target",
              "targetPredicates": [
                {
                  "$type": "ByEntityTypes",
                  "entityTypes": ["Monster"]
                },
                {
                  "$type": "ByHitBoxType",
                  "hitBoxType": "Head"
                },
                {
                  "$type": "ByAttackTags",
                  "attackTags": ["ExtraAttack"]
                },
                {
                  "$type": "ByTargetPositionToSelfPosition",
                  "logic": "GreaterOrEqual",
                  "compareType": "XYZ",
                  "value": 38.0,
                  "DDALGNLEHOD": ""
                }
              ],
              "successActions": [
                {
                  "$type": "HCLAKBJKPLE",
                  "watcherId": 82002,
                  "authorityOnly": true
                }
              ]
            }
          ]
        },
        "Achievement_Listener_82003": {
          "modifierName": "",
          "elementDurability": 100.0,
          "onAttackLanded": [
            {
              "$type": "Predicated",
              "target": "Target",
              "targetPredicates": [
                {
                  "$type": "ByEntityTypes",
                  "entityTypes": ["Monster"]
                },
                {
                  "$type": "ByHitBoxType",
                  "hitBoxType": "Head"
                },
                {
                  "$type": "ByAttackTags",
                  "attackTags": ["ExtraAttack"]
                },
                {
                  "$type": "ByTargetPositionToSelfPosition",
                  "logic": "GreaterOrEqual",
                  "compareType": "XYZ",
                  "value": 80.0,
                  "DDALGNLEHOD": ""
                }
              ],
              "successActions": [
                {
                  "$type": "HCLAKBJKPLE",
                  "watcherId": 82003,
                  "authorityOnly": true
                }
              ]
            }
          ]
        }
      },
      "onAdded": [
        {
          "$type": "ApplyModifier",
          "modifierName": "Achievement_Listener_82001"
        },
        {
          "$type": "ApplyModifier",
          "modifierName": "Achievement_Listener_82002"
        },
        {
          "$type": "ApplyModifier",
          "modifierName": "Achievement_Listener_82003"
        }
      ],
      "isDynamicAbility": true
    }
  },
  {
    "Default": {
      "$type": "ConfigAbility",
      "abilityName": "Avatar_FallAnthem_Achievement_Listener",
      "abilityMixins": [
        {
          "$type": "AttachToStateIDMixin",
          "stateIDs": [
            "FallingAnthem_BS",
            "FallingAnthem_Loop",
            "FallingAnthem_AS_1",
            "FallingAnthem_AS_2"
          ],
          "modifierName": "Achievement_Listener_82060",
          "DGFCLAIDIFI": ""
        }
      ],
      "modifiers": {
        "Achievement_Listener_82060": {
          "modifierName": "",
          "elementDurability": 100.0,
          "thinkInterval": 1.0,
          "onAdded": [
            {
              "$type": "AddGlobalValue",
              "value": -5.0,
              "key": "_FallAnthem_Achievement_Timer",
              "useLimitRange": true,
              "maxValue": 5.0,
              "minValue": 0.0
            }
          ],
          "onRemoved": [
            {
              "$type": "AddGlobalValue",
              "value": -5.0,
              "key": "_FallAnthem_Achievement_Timer",
              "useLimitRange": true,
              "maxValue": 5.0,
              "minValue": 0.0
            }
          ],
          "onAttackLanded": [
            {
              "$type": "Predicated",
              "target": "Target",
              "targetPredicates": [
                {
                  "$type": "ByEntityTypes",
                  "entityTypes": ["Monster"]
                },
                {
                  "$type": "ByAttackTags",
                  "attackTags": ["FallingAttack"]
                },
                {
                  "$type": "ByTargetGlobalValue",
                  "key": "_FallAnthem_Achievement_Timer",
                  "value": 5.0,
                  "forceByCaster": true,
                  "compareType": "MoreThanAndEqual"
                }
              ],
              "successActions": [
                {
                  "$type": "HCLAKBJKPLE",
                  "watcherId": 82060,
                  "authorityOnly": true
                }
              ]
            }
          ],
          "onThinkInterval": [
            {
              "$type": "AddGlobalValue",
              "value": 1.0,
              "key": "_FallAnthem_Achievement_Timer",
              "useLimitRange": true,
              "maxValue": 5.0,
              "minValue": 0.0
            }
          ]
        },
        "Achievement_Listener_82159": {
          "modifierName": "",
          "elementDurability": 100.0,
          "modifierMixins": [
            {
              "$type": "CHIDEOBOCLD",
              "eventKey": "Achievement_82159",
              "checkTime": 3.0,
              "checkCount": 2,
              "actionQueue": [
                {
                  "$type": "HCLAKBJKPLE",
                  "watcherId": 82159,
                  "authorityOnly": true
                }
              ]
            }
          ]
        },
        "Achievement_Listener_81524": {
          "modifierName": "",
          "elementDurability": 100.0,
          "modifierMixins": [
            {
              "$type": "JJIHJPCPPGO",
              "abilityStates": ["NyxState"],
              "modifierName": "UNIQUE_Achievement_Listener_81524_Timer"
            },
            {
              "$type": "DoActionOnGlobalValueChangeMixin",
              "globalValueKey": "_ABILITY_Achievement_Listener_81524_Count",
              "actions": [
                {
                  "$type": "Predicated",
                  "shieldHP": true,
                  "targetPredicates": [
                    {
                      "$type": "ByTargetGlobalValue",
                      "key": "_ABILITY_Achievement_Listener_81524_Count",
                      "value": 36.0,
                      "compareType": "MoreThanAndEqual"
                    }
                  ],
                  "successActions": [
                    {
                      "$type": "HCLAKBJKPLE",
                      "shieldHP": true,
                      "watcherId": 81524,
                      "authorityOnly": true
                    },
                    {
                      "$type": "DebugLog",
                      "shieldHP": true,
                      "content": "!!!!!DoWatcherSystemAction!!!!!"
                    }
                  ]
                }
              ],
              "KBAAABINCDL": true
            }
          ],
          "onAdded": [
            {
              "$type": "SetGlobalValue",
              "shieldHP": true,
              "value": 0.0,
              "key": "_ABILITY_Achievement_Listener_81524_Count",
              "maxValue": 0.0,
              "minValue": 0.0
            }
          ]
        },
        "UNIQUE_Achievement_Listener_81524_Timer": {
          "modifierName": "",
          "forceTriggerWhenChangeAuthority": true,
          "elementDurability": 100.0,
          "thinkInterval": 0.5,
          "onAdded": [
            {
              "$type": "SetGlobalValue",
              "shieldHP": true,
              "value": 0.0,
              "key": "_ABILITY_Achievement_Listener_81524_Count",
              "maxValue": 0.0,
              "minValue": 0.0
            }
          ],
          "onRemoved": [
            {
              "$type": "SetGlobalValue",
              "shieldHP": true,
              "value": 0.0,
              "key": "_ABILITY_Achievement_Listener_81524_Count",
              "maxValue": 0.0,
              "minValue": 0.0
            }
          ],
          "onThinkInterval": [
            {
              "$type": "AddGlobalValue",
              "shieldHP": true,
              "value": 1.0,
              "key": "_ABILITY_Achievement_Listener_81524_Count",
              "useLimitRange": true,
              "maxValue": 99.0,
              "minValue": 0.0
            }
          ]
        }
      },
      "onAdded": [
        {
          "$type": "ApplyModifier",
          "modifierName": "Achievement_Listener_82159"
        },
        {
          "$type": "ApplyModifier",
          "modifierName": "Achievement_Listener_81524"
        }
      ],
      "isDynamicAbility": true
    }
  },
  {
    "Default": {
      "$type": "ConfigAbility",
      "abilityName": "Avatar_Watcher_SnowMountain_MPPlay",
      "abilityMixins": [
        {
          "$type": "AttachModifierToSelfGlobalValueMixin",
          "globalValueKey": "HAS_BLOOD_BUFF_MARK",
          "gvInTalk": 0.0,
          "valueSteps": [-1.0, 0.5, 1.5],
          "modifierNameSteps": ["Blank", "BloodSmash_Buff_AttackCount_Handler"]
        }
      ],
      "modifiers": {
        "Blank": {
          "modifierName": "",
          "elementDurability": 100.0
        },
        "BloodSmash_Buff_AttackCount_Handler": {
          "modifierName": "",
          "elementDurability": 100.0,
          "onAttackLanded": [
            {
              "$type": "Predicated",
              "target": "Target",
              "targetPredicates": [
                {
                  "$type": "ByEntityTypes",
                  "entityTypes": ["Monster"]
                },
                {
                  "$type": "ByTargetConfigID",
                  "configIdArray": [26020102]
                }
              ],
              "successActions": [
                {
                  "$type": "ApplyModifier",
                  "target": "Team",
                  "shieldHP": false,
                  "modifierName": "Team_BloodSmash_Buff_Attack_Count"
                }
              ]
            }
          ]
        },
        "Team_BloodSmash_Buff_Attack_Count": {
          "modifierName": "",
          "duration": 0.20000000298023224,
          "elementDurability": 100.0,
          "onAdded": [
            {
              "$type": "AddGlobalValue",
              "shieldHP": true,
              "value": 1.0,
              "key": "_ABILITY_Team_BloodSmash_Buff_Attack_Count",
              "useLimitRange": true,
              "maxValue": 10.0,
              "minValue": 0.0
            }
          ]
        },
        "UNIQUE_SnowMountain_MPPlay_Trigger_Wtacher_Handler": {
          "stacking": "Unique",
          "modifierName": "",
          "forceTriggerWhenChangeAuthority": true,
          "elementDurability": 100.0,
          "modifierMixins": [
            {
              "$type": "AttachModifierToSelfGlobalValueMixin",
              "globalValueKey": "_ABILITY_Team_BloodSmash_Buff_Attack_Count",
              "gvInTalk": 0.0,
              "valueSteps": [-1.0, 9.5, 10.5],
              "modifierNameSteps": [
                "Blank_2",
                "SnowMountain_MPPlay_Trigger_Wtacher"
              ]
            }
          ],
          "onAdded": [
            {
              "$type": "AddGlobalValue",
              "shieldHP": true,
              "value": -10.0,
              "key": "_ABILITY_Team_BloodSmash_Buff_Attack_Count",
              "useLimitRange": true,
              "maxValue": 10.0,
              "minValue": 0.0
            }
          ]
        },
        "Blank_2": {
          "modifierName": "",
          "elementDurability": 100.0
        },
        "SnowMountain_MPPlay_Trigger_Wtacher": {
          "modifierName": "",
          "elementDurability": 100.0,
          "onAdded": [
            {
              "$type": "HCLAKBJKPLE",
              "watcherId": 3010116,
              "authorityOnly": true
            },
            {
              "$type": "ApplyModifier",
              "modifierName": "XnowMountain_MPPlay_ResetAttackCount"
            }
          ]
        },
        "XnowMountain_MPPlay_ResetAttackCount": {
          "modifierName": "",
          "duration": 1.0,
          "elementDurability": 100.0,
          "onAdded": [
            {
              "$type": "AddGlobalValue",
              "shieldHP": true,
              "value": -10.0,
              "key": "_ABILITY_Team_BloodSmash_Buff_Attack_Count",
              "useLimitRange": true,
              "maxValue": 10.0,
              "minValue": 0.0
            }
          ]
        }
      },
      "onAdded": [
        {
          "$type": "ApplyModifier",
          "target": "Team",
          "shieldHP": true,
          "modifierName": "UNIQUE_SnowMountain_MPPlay_Trigger_Wtacher_Handler"
        }
      ],
      "isDynamicAbility": true
    }
  },
  {
    "Default": {
      "$type": "ConfigAbility",
      "abilityName": "Avatar_Attack_ReviveEnergy",
      "abilitySpecials": {
        "Pole_ReviveEnergy_Chance": 0.0,
        "Bow_ReviveEnergy_Chance": 0.0,
        "Sword_ReviveEnergy_Chance": 0.0,
        "Claymore_ReviveEnergy_Chance": 0.0,
        "Catalyst_ReviveEnergy_Chance": 0.0
      },
      "modifiers": {
        "Avatar_Sword_ReviveEnergy_Handler": {
          "modifierName": "",
          "elementDurability": 100.0,
          "modifierMixins": [
            {
              "$type": "LAPLEIMPKPK",
              "attackTags": [
                "NormalAttack_01",
                "NormalAttack_02",
                "NormalAttack_03",
                "NormalAttack_04",
                "NormalAttack_05",
                "NormalAttack_06",
                "ExtraAttack"
              ],
              "maxValue": 1.0,
              "minValue": 0.10000000149011612,
              "addValue": 0.05000000074505806,
              "reviveAction": {
                "$type": "ReviveElemEnergy",
                "value": 1.0
              },
              "fireEffectActions": {
                "Fire": {
                  "$type": "FireEffect",
                  "rotationDampTime": "Eff_Avatar_ReviveEnergy_Fire",
                  "PPPDJGDDOGD": 1.0,
                  "AJDILHJFNKE": -1.0
                },
                "Ice": {
                  "$type": "FireEffect",
                  "rotationDampTime": "Eff_Avatar_ReviveEnergy_Ice",
                  "PPPDJGDDOGD": 1.0,
                  "AJDILHJFNKE": -1.0
                },
                "Electric": {
                  "$type": "FireEffect",
                  "rotationDampTime": "Eff_Avatar_ReviveEnergy_Electric",
                  "PPPDJGDDOGD": 1.0,
                  "AJDILHJFNKE": -1.0
                },
                "Water": {
                  "$type": "FireEffect",
                  "rotationDampTime": "Eff_Avatar_ReviveEnergy_Water",
                  "PPPDJGDDOGD": 1.0,
                  "AJDILHJFNKE": -1.0
                },
                "Wind": {
                  "$type": "FireEffect",
                  "rotationDampTime": "Eff_Avatar_ReviveEnergy_Wind",
                  "PPPDJGDDOGD": 1.0,
                  "AJDILHJFNKE": -1.0
                },
                "Rock": {
                  "$type": "FireEffect",
                  "rotationDampTime": "Eff_Avatar_ReviveEnergy_Rock",
                  "PPPDJGDDOGD": 1.0,
                  "AJDILHJFNKE": -1.0
                },
                "Grass": {
                  "$type": "FireEffect",
                  "rotationDampTime": "Eff_Avatar_ReviveEnergy_Grass",
                  "PPPDJGDDOGD": 1.0,
                  "AJDILHJFNKE": -1.0
                }
              }
            }
          ]
        },
        "Avatar_Bow_ReviveEnergy_Handler": {
          "modifierName": "",
          "elementDurability": 100.0,
          "modifierMixins": [
            {
              "$type": "LAPLEIMPKPK",
              "attackTags": [
                "NormalAttack_01",
                "NormalAttack_02",
                "NormalAttack_03",
                "NormalAttack_04",
                "NormalAttack_05",
                "NormalAttack_06",
                "ExtraAttack"
              ],
              "maxValue": 1.0,
              "addValue": 0.05000000074505806,
              "reviveAction": {
                "$type": "ReviveElemEnergy",
                "value": 1.0
              },
              "fireEffectActions": {
                "Fire": {
                  "$type": "FireEffect",
                  "rotationDampTime": "Eff_Avatar_ReviveEnergy_Fire",
                  "PPPDJGDDOGD": 1.0,
                  "AJDILHJFNKE": -1.0
                },
                "Ice": {
                  "$type": "FireEffect",
                  "rotationDampTime": "Eff_Avatar_ReviveEnergy_Ice",
                  "PPPDJGDDOGD": 1.0,
                  "AJDILHJFNKE": -1.0
                },
                "Electric": {
                  "$type": "FireEffect",
                  "rotationDampTime": "Eff_Avatar_ReviveEnergy_Electric",
                  "PPPDJGDDOGD": 1.0,
                  "AJDILHJFNKE": -1.0
                },
                "Water": {
                  "$type": "FireEffect",
                  "rotationDampTime": "Eff_Avatar_ReviveEnergy_Water",
                  "PPPDJGDDOGD": 1.0,
                  "AJDILHJFNKE": -1.0
                },
                "Wind": {
                  "$type": "FireEffect",
                  "rotationDampTime": "Eff_Avatar_ReviveEnergy_Wind",
                  "PPPDJGDDOGD": 1.0,
                  "AJDILHJFNKE": -1.0
                },
                "Rock": {
                  "$type": "FireEffect",
                  "rotationDampTime": "Eff_Avatar_ReviveEnergy_Rock",
                  "PPPDJGDDOGD": 1.0,
                  "AJDILHJFNKE": -1.0
                },
                "Grass": {
                  "$type": "FireEffect",
                  "rotationDampTime": "Eff_Avatar_ReviveEnergy_Grass",
                  "PPPDJGDDOGD": 1.0,
                  "AJDILHJFNKE": -1.0
                }
              }
            }
          ]
        },
        "Avatar_Claymore_ReviveEnergy_Handler": {
          "modifierName": "",
          "elementDurability": 100.0,
          "modifierMixins": [
            {
              "$type": "LAPLEIMPKPK",
              "attackTags": [
                "NormalAttack_01",
                "NormalAttack_02",
                "NormalAttack_03",
                "NormalAttack_04",
                "NormalAttack_05",
                "NormalAttack_06",
                "ExtraAttack"
              ],
              "maxValue": 1.0,
              "addValue": 0.10000000149011612,
              "reviveAction": {
                "$type": "ReviveElemEnergy",
                "value": 1.0
              },
              "fireEffectActions": {
                "Fire": {
                  "$type": "FireEffect",
                  "rotationDampTime": "Eff_Avatar_ReviveEnergy_Fire",
                  "PPPDJGDDOGD": 1.0,
                  "AJDILHJFNKE": -1.0
                },
                "Ice": {
                  "$type": "FireEffect",
                  "rotationDampTime": "Eff_Avatar_ReviveEnergy_Ice",
                  "PPPDJGDDOGD": 1.0,
                  "AJDILHJFNKE": -1.0
                },
                "Electric": {
                  "$type": "FireEffect",
                  "rotationDampTime": "Eff_Avatar_ReviveEnergy_Electric",
                  "PPPDJGDDOGD": 1.0,
                  "AJDILHJFNKE": -1.0
                },
                "Water": {
                  "$type": "FireEffect",
                  "rotationDampTime": "Eff_Avatar_ReviveEnergy_Water",
                  "PPPDJGDDOGD": 1.0,
                  "AJDILHJFNKE": -1.0
                },
                "Wind": {
                  "$type": "FireEffect",
                  "rotationDampTime": "Eff_Avatar_ReviveEnergy_Wind",
                  "PPPDJGDDOGD": 1.0,
                  "AJDILHJFNKE": -1.0
                },
                "Rock": {
                  "$type": "FireEffect",
                  "rotationDampTime": "Eff_Avatar_ReviveEnergy_Rock",
                  "PPPDJGDDOGD": 1.0,
                  "AJDILHJFNKE": -1.0
                },
                "Grass": {
                  "$type": "FireEffect",
                  "rotationDampTime": "Eff_Avatar_ReviveEnergy_Grass",
                  "PPPDJGDDOGD": 1.0,
                  "AJDILHJFNKE": -1.0
                }
              }
            }
          ]
        },
        "Avatar_Pole_ReviveEnergy_Handler": {
          "modifierName": "",
          "elementDurability": 100.0,
          "modifierMixins": [
            {
              "$type": "LAPLEIMPKPK",
              "attackTags": [
                "NormalAttack_01",
                "NormalAttack_02",
                "NormalAttack_03",
                "NormalAttack_04",
                "NormalAttack_05",
                "NormalAttack_06",
                "ExtraAttack"
              ],
              "maxValue": 1.0,
              "addValue": 0.03999999910593033,
              "reviveAction": {
                "$type": "ReviveElemEnergy",
                "value": 1.0
              },
              "fireEffectActions": {
                "Fire": {
                  "$type": "FireEffect",
                  "rotationDampTime": "Eff_Avatar_ReviveEnergy_Fire",
                  "PPPDJGDDOGD": 1.0,
                  "AJDILHJFNKE": -1.0
                },
                "Ice": {
                  "$type": "FireEffect",
                  "rotationDampTime": "Eff_Avatar_ReviveEnergy_Ice",
                  "PPPDJGDDOGD": 1.0,
                  "AJDILHJFNKE": -1.0
                },
                "Electric": {
                  "$type": "FireEffect",
                  "rotationDampTime": "Eff_Avatar_ReviveEnergy_Electric",
                  "PPPDJGDDOGD": 1.0,
                  "AJDILHJFNKE": -1.0
                },
                "Water": {
                  "$type": "FireEffect",
                  "rotationDampTime": "Eff_Avatar_ReviveEnergy_Water",
                  "PPPDJGDDOGD": 1.0,
                  "AJDILHJFNKE": -1.0
                },
                "Wind": {
                  "$type": "FireEffect",
                  "rotationDampTime": "Eff_Avatar_ReviveEnergy_Wind",
                  "PPPDJGDDOGD": 1.0,
                  "AJDILHJFNKE": -1.0
                },
                "Rock": {
                  "$type": "FireEffect",
                  "rotationDampTime": "Eff_Avatar_ReviveEnergy_Rock",
                  "PPPDJGDDOGD": 1.0,
                  "AJDILHJFNKE": -1.0
                },
                "Grass": {
                  "$type": "FireEffect",
                  "rotationDampTime": "Eff_Avatar_ReviveEnergy_Grass",
                  "PPPDJGDDOGD": 1.0,
                  "AJDILHJFNKE": -1.0
                }
              }
            }
          ]
        },
        "Avatar_Catalyst_ReviveEnergy_Handler": {
          "modifierName": "",
          "elementDurability": 100.0,
          "modifierMixins": [
            {
              "$type": "LAPLEIMPKPK",
              "attackTags": [
                "NormalAttack_01",
                "NormalAttack_02",
                "NormalAttack_03",
                "NormalAttack_04",
                "NormalAttack_05",
                "NormalAttack_06",
                "ExtraAttack"
              ],
              "maxValue": 1.0,
              "addValue": 0.10000000149011612,
              "reviveAction": {
                "$type": "ReviveElemEnergy",
                "value": 1.0
              },
              "fireEffectActions": {
                "Fire": {
                  "$type": "FireEffect",
                  "rotationDampTime": "Eff_Avatar_ReviveEnergy_Fire",
                  "PPPDJGDDOGD": 1.0,
                  "AJDILHJFNKE": -1.0
                },
                "Ice": {
                  "$type": "FireEffect",
                  "rotationDampTime": "Eff_Avatar_ReviveEnergy_Ice",
                  "PPPDJGDDOGD": 1.0,
                  "AJDILHJFNKE": -1.0
                },
                "Electric": {
                  "$type": "FireEffect",
                  "rotationDampTime": "Eff_Avatar_ReviveEnergy_Electric",
                  "PPPDJGDDOGD": 1.0,
                  "AJDILHJFNKE": -1.0
                },
                "Water": {
                  "$type": "FireEffect",
                  "rotationDampTime": "Eff_Avatar_ReviveEnergy_Water",
                  "PPPDJGDDOGD": 1.0,
                  "AJDILHJFNKE": -1.0
                },
                "Wind": {
                  "$type": "FireEffect",
                  "rotationDampTime": "Eff_Avatar_ReviveEnergy_Wind",
                  "PPPDJGDDOGD": 1.0,
                  "AJDILHJFNKE": -1.0
                },
                "Rock": {
                  "$type": "FireEffect",
                  "rotationDampTime": "Eff_Avatar_ReviveEnergy_Rock",
                  "PPPDJGDDOGD": 1.0,
                  "AJDILHJFNKE": -1.0
                },
                "Grass": {
                  "$type": "FireEffect",
                  "rotationDampTime": "Eff_Avatar_ReviveEnergy_Grass",
                  "PPPDJGDDOGD": 1.0,
                  "AJDILHJFNKE": -1.0
                }
              }
            }
          ]
        }
      },
      "onAdded": [
        {
          "$type": "ApplyModifier",
          "shieldHP": true,
          "predicates": [
            {
              "$type": "ByAvatarWeaponType",
              "weaponTypes": ["WEAPON_SWORD_ONE_HAND"]
            }
          ],
          "modifierName": "Avatar_Sword_ReviveEnergy_Handler"
        },
        {
          "$type": "ApplyModifier",
          "predicates": [
            {
              "$type": "ByAvatarWeaponType",
              "weaponTypes": ["WEAPON_BOW"]
            }
          ],
          "modifierName": "Avatar_Bow_ReviveEnergy_Handler"
        },
        {
          "$type": "ApplyModifier",
          "predicates": [
            {
              "$type": "ByAvatarWeaponType",
              "weaponTypes": ["WEAPON_CLAYMORE"]
            }
          ],
          "modifierName": "Avatar_Claymore_ReviveEnergy_Handler"
        },
        {
          "$type": "ApplyModifier",
          "predicates": [
            {
              "$type": "ByAvatarWeaponType",
              "weaponTypes": ["WEAPON_POLE"]
            }
          ],
          "modifierName": "Avatar_Pole_ReviveEnergy_Handler"
        },
        {
          "$type": "ApplyModifier",
          "predicates": [
            {
              "$type": "ByAvatarWeaponType",
              "weaponTypes": ["WEAPON_CATALYST"]
            }
          ],
          "modifierName": "Avatar_Catalyst_ReviveEnergy_Handler"
        }
      ],
      "isDynamicAbility": true
    }
  },
  {
    "Default": {
      "$type": "ConfigAbility",
      "abilityName": "Avatar_Component_Initializer",
      "modifiers": {
        "Visible_Initializer_Handler": {
          "modifierName": "",
          "elementDurability": 100.0,
          "onAdded": [
            {
              "$type": "TriggerSetVisible",
              "shieldHP": true,
              "canBeHandledOnRecover": true,
              "KGGEDGKGLDD": true
            }
          ]
        },
        "PushCollider_Initializer_Handler": {
          "modifierName": "",
          "elementDurability": 100.0,
          "onAdded": [
            {
              "$type": "TriggerSetPassThrough",
              "shieldHP": true,
              "canBeHandledOnRecover": true
            }
          ]
        },
        "HitBox_Initializer_Handler": {
          "modifierName": "",
          "elementDurability": 100.0,
          "onAdded": [
            {
              "$type": "EnableHitBoxByName",
              "shieldHP": true,
              "canBeHandledOnRecover": true,
              "hitBoxNames": ["HitBox"],
              "setEnable": true
            }
          ]
        },
        "ElectricFairy_Initializer_Handler": {
          "modifierName": "",
          "elementDurability": 100.0,
          "onAdded": [
            {
              "$type": "SetGlobalValue",
              "target": "Team",
              "shieldHP": true,
              "value": 0.0,
              "key": "HAS_ELECTRIC_FAIRY_BUFF_Team",
              "maxValue": 0.0,
              "minValue": 0.0
            }
          ]
        },
        "HDMesh_Initializer_Handler": {
          "modifierName": "",
          "elementDurability": 100.0,
          "onAdded": [
            {
              "$type": "EnableHDMesh",
              "shieldHP": true,
              "canBeHandledOnRecover": true,
              "enable": true,
              "hdMeshKey": "Default"
            }
          ]
        }
      },
      "onAdded": [
        {
          "$type": "ApplyModifier",
          "shieldHP": true,
          "modifierName": "Visible_Initializer_Handler"
        },
        {
          "$type": "ApplyModifier",
          "shieldHP": true,
          "modifierName": "PushCollider_Initializer_Handler"
        },
        {
          "$type": "ApplyModifier",
          "shieldHP": true,
          "modifierName": "HitBox_Initializer_Handler"
        },
        {
          "$type": "ApplyModifier",
          "shieldHP": true,
          "modifierName": "ElectricFairy_Initializer_Handler"
        },
        {
          "$type": "ApplyModifier",
          "shieldHP": true,
          "modifierName": "HDMesh_Initializer_Handler"
        }
      ],
      "isDynamicAbility": true
    }
  },
  {
    "Default": {
      "$type": "ConfigAbility",
      "abilityName": "Avatar_PlayMusic_Lyre_Controller",
      "abilityMixins": [
        {
          "$type": "AttachToStateIDMixin",
          "stateIDs": ["PlayMusic_Lyre_BS", "PlayMusic_Lyre_Loop"],
          "modifierName": "Avatar_PlayMusic_Lyre",
          "DGFCLAIDIFI": ""
        }
      ],
      "modifiers": {
        "Avatar_PlayMusic_Lyre": {
          "modifierName": "",
          "elementDurability": 100.0,
          "onAdded": [
            {
              "$type": "AttachEffect",
              "rotationDampTime": "Eff_Avatar_PlayMusic_Lyre",
              "PPPDJGDDOGD": 1.0,
              "AJDILHJFNKE": -1.0
            }
          ],
          "onRemoved": [
            {
              "$type": "FireEffect",
              "rotationDampTime": "Eff_Avatar_PlayMusic_Lyre_AS",
              "PPPDJGDDOGD": 1.0,
              "AJDILHJFNKE": -1.0
            }
          ]
        }
      },
      "isDynamicAbility": true
    }
  },
  {
    "Default": {
      "$type": "ConfigAbility",
      "abilityName": "Avatar_Watcher_SuperTrial_RangeKillEnemy",
      "abilityMixins": [
        {
          "$type": "MFCOIAIMHEL",
          "detectWindow": 0.6000000238418579,
          "onKill": [
            {
              "$type": "Predicated",
              "target": "Other",
              "targetPredicates": [
                {
                  "$type": "ByTargetPositionToSelfPosition",
                  "logic": "GreaterOrEqual",
                  "value": 3.0,
                  "DDALGNLEHOD": ""
                },
                {
                  "$type": "LNMPDFFBILH",
                  "sceneIds": [43006]
                },
                {
                  "$type": "ByEntityTypes",
                  "entityTypes": ["Monster"]
                },
                {
                  "$type": "IGGDNFHNDBO",
                  "campBaseOn": "Caster",
                  "campTargetType": "Enemy"
                }
              ],
              "successActions": [
                {
                  "$type": "HCLAKBJKPLE",
                  "target": "Caster",
                  "watcherId": 1502220,
                  "authorityOnly": true
                }
              ]
            }
          ]
        }
      ],
      "isDynamicAbility": true
    }
  },
  {
    "Default": {
      "$type": "ConfigAbility",
      "abilityName": "Avatar_RockGadget_KillByBlunt",
      "modifiers": {
        "RockDurability_Handler": {
          "modifierName": "",
          "elementType": "Rock",
          "elementDurability": 100.0,
          "onRemoved": [
            {
              "$type": "KillSelf"
            }
          ],
          "onBeingHit": [
            {
              "$type": "ApplyModifier",
              "modifierName": "Recover_RockDurability"
            }
          ]
        },
        "Recover_RockDurability": {
          "modifierName": "",
          "duration": 0.5,
          "elementDurability": 100.0,
          "onAdded": [
            {
              "$type": "AddElementDurability",
              "value": 100.0,
              "modifierName": "RockDurability_Handler",
              "elementType": "Rock",
              "useLimitRange": true,
              "maxValue": 100.0
            }
          ]
        }
      },
      "onAdded": [
        {
          "$type": "ApplyModifier",
          "modifierName": "RockDurability_Handler"
        }
      ],
      "isDynamicAbility": true
    }
  },
  {
    "Default": {
      "$type": "ConfigAbility",
      "abilityName": "Avatar_ElementReaction_Test",
      "modifiers": {
        "A_Element_Test": {
          "modifierName": "",
          "elementType": "Electric",
          "elementDurability": 100.0
        },
        "B_Element_Test": {
          "modifierName": "",
          "elementDurability": 100.0,
          "thinkInterval": 2.5,
          "onThinkInterval": [
            {
              "$type": "DamageByAttackValue",
              "shieldHP": true,
              "born": {
                "$type": "ConfigBornByAttachPoint",
                "offset": {
                  "x": 0.0,
                  "y": 0.0,
                  "z": 0.0
                },
                "attachPointName": "RootNode"
              },
              "attackInfo": {
                "attackTag": "ElementReaction_Test",
                "attenuationTag": "",
                "attenuationGroup": "default",
                "attackProperty": {
                  "actorGrassSubHurtDelta": 1.0,
                  "actorWindSubHurtDelta": 0.0,
                  "elementType": "Fire",
                  "elementDurability": 25.0,
                  "ignoreAttackerProperty": true,
                  "strikeType": "Default",
                  "enBreak": 0.0,
                  "GLKMCMDJBIK": 0.0
                },
                "hitPattern": {
                  "onHitEffectName": "default",
                  "hitImpulseY": "",
                  "hitImpulseType": "LV1",
                  "hitHaltTimeScale": 0.05000000074505806
                }
              }
            }
          ]
        }
      },
      "onAdded": [
        {
          "$type": "ApplyModifier",
          "modifierName": "A_Element_Test"
        },
        {
          "$type": "ApplyModifier",
          "modifierName": "B_Element_Test"
        }
      ],
      "isDynamicAbility": true
    }
  },
  {
    "Default": {
      "$type": "ConfigAbility",
      "abilityName": "Avatar_HDMesh_Controller",
      "abilityMixins": [
        {
          "$type": "AttachToStateIDMixin",
          "stateIDs": ["Fly", "Climb"],
          "modifierName": "Avatar_Enable_HDMesh",
          "DGFCLAIDIFI": ""
        }
      ],
      "modifiers": {
        "Avatar_Enable_HDMesh": {
          "modifierName": "",
          "elementDurability": 100.0,
          "onAdded": [
            {
              "$type": "EnableHDMesh",
              "hdMeshKey": "Default"
            }
          ],
          "onRemoved": [
            {
              "$type": "EnableHDMesh",
              "shieldHP": true,
              "canBeHandledOnRecover": true,
              "enable": true,
              "hdMeshKey": "Default"
            }
          ]
        }
      },
      "isDynamicAbility": true
    }
  },
  {
    "Default": {
      "$type": "ConfigAbility",
      "abilityName": "Avatar_ArkheGrade_CD_Controller",
      "abilityMixins": [
        {
          "$type": "AvatarCombatMixin",
          "onEnterCombat": [
            {
              "$type": "AttachModifier",
              "shieldHP": true,
              "predicates": [
                {
                  "$type": "ByAny",
                  "predicates": [
                    {
                      "$type": "ByHasFeatureTag",
                      "featureTagIDs": [1005]
                    },
                    {
                      "$type": "ByHasFeatureTag",
                      "featureTagIDs": [1011]
                    }
                  ]
                }
              ],
              "modifierName": "UNIQUE_Avatar_ArkheGrade_CD_Loop_Controller"
            }
          ],
          "onExitCombat": [
            {
              "$type": "RemoveUniqueModifier",
              "shieldHP": true,
              "predicates": [
                {
                  "$type": "ByAny",
                  "predicates": [
                    {
                      "$type": "ByHasFeatureTag",
                      "featureTagIDs": [1005]
                    },
                    {
                      "$type": "ByHasFeatureTag",
                      "featureTagIDs": [1011]
                    }
                  ]
                }
              ],
              "modifierName": "UNIQUE_Avatar_ArkheGrade_CD_Loop_Controller"
            }
          ]
        }
      ],
      "modifiers": {
        "UNIQUE_Avatar_ArkheGrade_CD_Controller": {
          "modifierName": "",
          "forceTriggerWhenChangeAuthority": true,
          "elementDurability": 100.0,
          "modifierMixins": [
            {
              "$type": "AttachModifierToSelfGlobalValueMixin",
              "globalValueKey": "_ABILITY_ArkheGrade_Attack_CD",
              "gvInTalk": 0.0,
              "valueSteps": [-0.5, 0.5, 1.5],
              "modifierNameSteps": ["Avatar_ArkheGrade_Attack_Ready", "Blank_1"]
            }
          ]
        },
        "Avatar_ArkheGrade_Attack_Ready": {
          "modifierName": "",
          "elementDurability": 100.0,
          "onAdded": [
            {
              "$type": "FireEffect",
              "predicates": [
                {
                  "$type": "CLGEBEJCLLE",
                  "BMODAPNPODN": "Pneuma"
                },
                {
                  "$type": "ByIsLocalAvatar"
                }
              ],
              "rotationDampTime": "Eff_Avatar_Pneuma_Attack_Ready",
              "PPPDJGDDOGD": 1.0,
              "AJDILHJFNKE": -1.0
            },
            {
              "$type": "FireEffect",
              "predicates": [
                {
                  "$type": "CLGEBEJCLLE",
                  "BMODAPNPODN": "Ousia"
                },
                {
                  "$type": "ByIsLocalAvatar"
                }
              ],
              "rotationDampTime": "Eff_Avatar_Ousia_Attack_Ready",
              "PPPDJGDDOGD": 1.0,
              "AJDILHJFNKE": -1.0
            }
          ],
          "onAvatarIn": [
            {
              "$type": "FireEffect",
              "predicates": [
                {
                  "$type": "CLGEBEJCLLE",
                  "BMODAPNPODN": "Pneuma"
                },
                {
                  "$type": "ByIsLocalAvatar"
                }
              ],
              "rotationDampTime": "Eff_Avatar_Pneuma_Attack_Ready",
              "PPPDJGDDOGD": 1.0,
              "AJDILHJFNKE": -1.0
            },
            {
              "$type": "FireEffect",
              "predicates": [
                {
                  "$type": "CLGEBEJCLLE",
                  "BMODAPNPODN": "Ousia"
                },
                {
                  "$type": "ByIsLocalAvatar"
                }
              ],
              "rotationDampTime": "Eff_Avatar_Ousia_Attack_Ready",
              "PPPDJGDDOGD": 1.0,
              "AJDILHJFNKE": -1.0
            }
          ]
        },
        "Blank_1": {
          "modifierName": "",
          "elementDurability": 100.0
        },
        "UNIQUE_Avatar_ArkheGrade_CD_Loop_Controller": {
          "modifierName": "",
          "forceTriggerWhenChangeAuthority": true,
          "elementDurability": 100.0,
          "modifierMixins": [
            {
              "$type": "AttachModifierToSelfGlobalValueMixin",
              "globalValueKey": "_ABILITY_ArkheGrade_Attack_CD",
              "gvInTalk": 0.0,
              "valueSteps": [-0.5, 0.5, 1.5],
              "modifierNameSteps": [
                "Avatar_ArkheGrade_Attack_Ready_Loop",
                "Blank_2"
              ]
            }
          ]
        },
        "Avatar_ArkheGrade_Attack_Ready_Loop": {
          "modifierName": "",
          "elementDurability": 100.0,
          "modifierMixins": [
            {
              "$type": "DoActionOnGlobalValueChangeMixin",
              "globalValueKey": "_ABILITY_Furina_ArkheGrade",
              "actions": [
                {
                  "$type": "RemoveModifier",
                  "shieldHP": true,
                  "modifierName": "Avatar_ArkheGrade_Attack_Ready_Loop_Fx"
                },
                {
                  "$type": "AttachModifier",
                  "shieldHP": true,
                  "modifierName": "Avatar_ArkheGrade_Attack_Ready_Loop_Fx"
                }
              ]
            }
          ],
          "onAdded": [
            {
              "$type": "AttachModifier",
              "shieldHP": true,
              "modifierName": "Avatar_ArkheGrade_Attack_Ready_Loop_Fx"
            }
          ]
        },
        "Avatar_ArkheGrade_Attack_Ready_Loop_Fx": {
          "modifierName": "",
          "elementDurability": 100.0,
          "onAdded": [
            {
              "$type": "AttachEffect",
              "shieldHP": true,
              "predicates": [
                {
                  "$type": "CLGEBEJCLLE",
                  "BMODAPNPODN": "Pneuma"
                }
              ],
              "rotationDampTime": "Eff_Avatar_Pneuma_Attack_Loop",
              "PPPDJGDDOGD": 1.0,
              "AJDILHJFNKE": -1.0
            },
            {
              "$type": "AttachEffect",
              "shieldHP": true,
              "predicates": [
                {
                  "$type": "CLGEBEJCLLE",
                  "BMODAPNPODN": "Ousia"
                },
                {
                  "$type": "ByHasFeatureTag",
                  "featureTagIDs": [1005]
                }
              ],
              "rotationDampTime": "Eff_Avatar_Ousia_Attack_Loop",
              "PPPDJGDDOGD": 1.0,
              "AJDILHJFNKE": -1.0
            },
            {
              "$type": "AttachEffect",
              "shieldHP": true,
              "predicates": [
                {
                  "$type": "CLGEBEJCLLE",
                  "BMODAPNPODN": "Ousia"
                },
                {
                  "$type": "ByHasFeatureTag",
                  "featureTagIDs": [1011]
                }
              ],
              "rotationDampTime": "Eff_Avatar_Player_Ousia_Attack_Loop",
              "PPPDJGDDOGD": 1.0,
              "AJDILHJFNKE": -1.0
            }
          ]
        },
        "Blank_2": {
          "modifierName": "",
          "elementDurability": 100.0
        }
      },
      "onAdded": [
        {
          "$type": "Predicated",
          "shieldHP": true,
          "targetPredicates": [
            {
              "$type": "ByAny",
              "predicates": [
                {
                  "$type": "ByHasFeatureTag",
                  "featureTagIDs": [1005]
                },
                {
                  "$type": "ByHasFeatureTag",
                  "featureTagIDs": [1011]
                }
              ]
            }
          ],
          "successActions": [
            {
              "$type": "AddGlobalValue",
              "shieldHP": true,
              "value": 0.0,
              "key": "_ABILITY_ArkheGrade_Attack_CD",
              "useLimitRange": true,
              "maxValue": 1.0,
              "minValue": 0.0
            },
            {
              "$type": "ApplyModifier",
              "shieldHP": true,
              "modifierName": "UNIQUE_Avatar_ArkheGrade_CD_Controller"
            }
          ]
        }
      ],
      "isDynamicAbility": true
    }
  },
  {
    "Default": {
      "$type": "ConfigAbility",
      "abilityName": "Avatar_FluidAgitator",
      "modifiers": {
        "Avatar_FluidAgitator_Handler": {
          "modifierName": "",
          "elementDurability": 100.0,
          "modifierMixins": [
            {
              "$type": "JDOAAFILDAM"
            }
          ]
        }
      },
      "onAdded": [
        {
          "$type": "AttachModifier",
          "shieldHP": true,
          "modifierName": "Avatar_FluidAgitator_Handler"
        }
      ],
      "isDynamicAbility": true
    }
  },
  {
    "Default": {
      "$type": "ConfigAbility",
      "abilityName": "Avatar_TriggerNyxInstant",
      "abilityMixins": [
        {
          "$type": "DoActionByTeamStatusMixin",
          "actions": [
            {
              "$type": "SetOverrideMapValue",
              "shieldHP": true,
              "predicates": [
                {
                  "$type": "MDALMMBNCCJ",
                  "featureTagID": 1006,
                  "number": 1,
                  "logic": "Equal"
                }
              ],
              "value": 18.0,
              "overrideMapKey": "NyxInstant_CD",
              "maxValue": 0.0,
              "minValue": 0.0
            },
            {
              "$type": "SetOverrideMapValue",
              "shieldHP": true,
              "predicates": [
                {
                  "$type": "MDALMMBNCCJ",
                  "featureTagID": 1006,
                  "number": 2,
                  "logic": "Equal"
                }
              ],
              "value": 12.0,
              "overrideMapKey": "NyxInstant_CD",
              "maxValue": 0.0,
              "minValue": 0.0
            },
            {
              "$type": "SetOverrideMapValue",
              "shieldHP": true,
              "predicates": [
                {
                  "$type": "MDALMMBNCCJ",
                  "featureTagID": 1006,
                  "number": 3,
                  "logic": "GreaterOrEqual"
                }
              ],
              "value": 9.0,
              "overrideMapKey": "NyxInstant_CD",
              "maxValue": 0.0,
              "minValue": 0.0
            }
          ],
          "waitTime": 20.0,
          "waitForBigteam": true,
          "runPostRecover": true
        }
      ],
      "abilitySpecials": {
        "NyxInstant_CD": 18.0
      },
      "modifiers": {
        "Avatar_NyxInstant_Handler": {
          "modifierName": "",
          "elementDurability": 100.0,
          "modifierMixins": [
            {
              "$type": "PAKJKDHLCNE",
              "target": "AllPlayerAvatars",
              "actions": [
                {
                  "$type": "ApplyModifier",
                  "target": "CurLocalAvatar",
                  "shieldHP": true,
                  "modifierName": "UNIQUE_Avatar_NyxFever_Fx"
                }
              ]
            }
          ],
          "onAttackLanded": [
            {
              "$type": "Predicated",
              "target": "Target",
              "shieldHP": true,
              "targetPredicates": [
                {
                  "$type": "ByEntityTypes",
                  "entityTypes": ["Monster"]
                },
                {
                  "$type": "ByTargetGlobalValue",
                  "key": "_ANIMAL_ENTITY_TYPE",
                  "value": 0.0,
                  "compareType": "NoneOrEqual"
                },
                {
                  "$type": "ByHitDamage",
                  "damage": 0.0
                },
                {
                  "$type": "ByAny",
                  "predicates": [
                    {
                      "$type": "ByHitElement",
                      "element": "Ice"
                    },
                    {
                      "$type": "ByHitElement",
                      "element": "Fire"
                    },
                    {
                      "$type": "ByHitElement",
                      "element": "Water"
                    },
                    {
                      "$type": "ByHitElement",
                      "element": "Electric"
                    },
                    {
                      "$type": "ByHitElement",
                      "element": "Rock"
                    },
                    {
                      "$type": "ByHitElement",
                      "element": "Wind"
                    },
                    {
                      "$type": "ByHitElement",
                      "element": "Grass"
                    }
                  ]
                }
              ],
              "successActions": [
                {
                  "$type": "ApplyModifier",
                  "target": "Team",
                  "shieldHP": true,
                  "predicates": [
                    {
                      "$type": "MDALMMBNCCJ",
                      "featureTagID": 1006,
                      "number": 1,
                      "logic": "GreaterOrEqual"
                    }
                  ],
                  "modifierName": "UNIQUE_Team_TriggerNyxInstant"
                },
                {
                  "$type": "HCLAKBJKPLE",
                  "predicates": [
                    {
                      "$type": "MDALMMBNCCJ",
                      "featureTagID": 1006,
                      "number": 1,
                      "logic": "GreaterOrEqual"
                    }
                  ],
                  "watcherId": 1047,
                  "authorityOnly": true
                }
              ]
            }
          ]
        },
        "UNIQUE_Avatar_NyxFever_Fx": {
          "modifierName": "",
          "forceTriggerWhenChangeAuthority": true,
          "duration": 1.0,
          "elementDurability": 100.0,
          "onAdded": [
            {
              "$type": "FireEffect",
              "shieldHP": true,
              "rotationDampTime": "Eff_NyxBall_Absorb",
              "PPPDJGDDOGD": 1.0,
              "AJDILHJFNKE": -1.0
            }
          ]
        },
        "UNIQUE_Team_TriggerNyxInstant": {
          "modifierName": "",
          "forceTriggerWhenChangeAuthority": true,
          "duration": 0.10000000149011612,
          "elementDurability": 100.0,
          "onAdded": [
            {
              "$type": "Predicated",
              "target": "Team",
              "shieldHP": true,
              "targetPredicates": [
                {
                  "$type": "ByTargetGlobalValue",
                  "key": "_ABILITY_NyxInstant_CD",
                  "value": 0.0,
                  "compareType": "NoneOrEqual"
                }
              ],
              "successActions": [
                {
                  "$type": "ApplyModifier",
                  "target": "Caster",
                  "modifierName": "UNIQUE_Avatar_TriggerNyxInstant"
                },
                {
                  "$type": "DungeonFogEffects",
                  "canBeHandledOnRecover": true,
                  "muteRemoteAction": true,
                  "enable": true,
                  "effectName": "Eff_NyxBall"
                },
                {
                  "$type": "ApplyModifier",
                  "target": "AllTeams",
                  "shieldHP": true,
                  "modifierName": "NyxInstant_CD"
                }
              ]
            }
          ]
        },
        "UNIQUE_Avatar_TriggerNyxInstant": {
          "modifierName": "",
          "forceTriggerWhenChangeAuthority": true,
          "duration": 0.10000000149011612,
          "elementDurability": 100.0,
          "onAdded": [
            {
              "$type": "AHCCLGDDNDM",
              "shieldHP": true
            }
          ]
        },
        "NyxInstant_CD": {
          "modifierName": "",
          "duration": "NyxInstant_CD",
          "elementDurability": 100.0,
          "onAdded": [
            {
              "$type": "SetGlobalValue",
              "shieldHP": true,
              "value": 1.0,
              "key": "_ABILITY_NyxInstant_CD",
              "maxValue": 0.0,
              "minValue": 0.0
            }
          ],
          "onRemoved": [
            {
              "$type": "SetGlobalValue",
              "shieldHP": true,
              "value": 0.0,
              "key": "_ABILITY_NyxInstant_CD",
              "maxValue": 0.0,
              "minValue": 0.0
            }
          ]
        }
      },
      "onAdded": [
        {
          "$type": "AttachModifier",
          "shieldHP": true,
          "modifierName": "Avatar_NyxInstant_Handler"
        },
        {
          "$type": "SetOverrideMapValue",
          "shieldHP": true,
          "value": 18.0,
          "overrideMapKey": "NyxInstant_CD",
          "maxValue": 0.0,
          "minValue": 0.0
        }
      ],
      "isDynamicAbility": true
    }
  },
  {
    "Default": {
      "$type": "ConfigAbility",
      "abilityName": "Avatar_NyxState_Listener",
      "abilityMixins": [
        {
          "$type": "AttachToStateIDMixin",
          "stateIDs": [
            "NyxSwitchBS_Ground",
            "NyxSwitchBS_AirLow",
            "NyxSwitchBS"
          ],
          "modifierName": "Watcher_Listener_1048",
          "DGFCLAIDIFI": ""
        }
      ],
      "modifiers": {
        "Watcher_Listener_1048": {
          "modifierName": "",
          "elementDurability": 100.0,
          "onAdded": [
            {
              "$type": "HCLAKBJKPLE",
              "watcherId": 1048,
              "authorityOnly": true
            }
          ]
        },
        "Watcher_Listener_1049": {
          "modifierName": "",
          "elementDurability": 100.0,
          "modifierMixins": [
            {
              "$type": "JJIHJPCPPGO",
              "abilityStates": ["NyxState"],
              "modifierName": "Watcher_Listener_1049_Trigger"
            }
          ]
        },
        "Watcher_Listener_1049_Trigger": {
          "modifierName": "",
          "elementDurability": 100.0,
          "onAdded": [
            {
              "$type": "HCLAKBJKPLE",
              "watcherId": 1049,
              "authorityOnly": true
            }
          ]
        }
      },
      "onAdded": [
        {
          "$type": "ApplyModifier",
          "modifierName": "Watcher_Listener_1049"
        }
      ],
      "isDynamicAbility": true
    }
  }
]
