[
  {
    "Default": {
      "$type": "ConfigAbility",
      "abilityName": "Avatar_Weapon_Metal"
    }
  },
  {
    "Default": {
      "$type": "ConfigAbility",
      "abilityName": "Avatar_Weapon_Wood_Normal",
      "modifiers": {
        "GrassMaterial": {
          "modifierName": "",
          "elementType": "Grass",
          "elementDurability": 150.0,
          "onRemoved": [
            {
              "$type": "ApplyModifier",
              "shieldHP": true,
              "modifierName": "Burned"
            }
          ]
        },
        "Burned": {
          "modifierName": "",
          "duration": 5.0,
          "elementDurability": 100.0,
          "onRemoved": [
            {
              "$type": "ApplyModifier",
              "shieldHP": true,
              "modifierName": "GrassMaterial"
            }
          ]
        }
      },
      "onAdded": [
        {
          "$type": "ApplyModifier",
          "modifierName": "GrassMaterial"
        }
      ]
    }
  },
  {
    "Default": {
      "$type": "ConfigAbility",
      "abilityName": "Avatar_Weapon_Wood_Hard",
      "modifiers": {
        "GrassMaterial": {
          "modifierName": "",
          "elementType": "Grass",
          "elementDurability": 150.0,
          "onRemoved": [
            {
              "$type": "ApplyModifier",
              "modifierName": "Burned"
            }
          ]
        },
        "AntiFireMaterial": {
          "modifierName": "",
          "elementType": "AntiFire",
          "elementDurability": 100.0
        },
        "Burned": {
          "modifierName": "",
          "duration": 5.0,
          "elementDurability": 100.0,
          "onRemoved": [
            {
              "$type": "ApplyModifier",
              "modifierName": "GrassMaterial"
            },
            {
              "$type": "ApplyModifier",
              "modifierName": "AntiFireMaterial"
            }
          ]
        }
      },
      "onAdded": [
        {
          "$type": "ApplyModifier",
          "modifierName": "GrassMaterial"
        },
        {
          "$type": "ApplyModifier",
          "modifierName": "AntiFireMaterial"
        }
      ]
    }
  }
]
