[
  {
    "Default": {
      "$type": "ConfigAbility",
      "abilityName": "Avatar_Bennett_ExtraAttack",
      "abilityMixins": [
        {
          "$type": "ButtonHoldChargeMixin",
          "skillID": 10321,
          "chargeTime": 0.11999999731779099,
          "secondChargeTime": 0.20000000298023224,
          "onBeginUncharged": [
            {
              "$type": "SetAnimatorTrigger",
              "triggerID": "DoSkill"
            },
            {
              "$type": "SetAnimatorInt",
              "intID": "SkillID",
              "value": 99.0
            },
            {
              "$type": "SetAnimatorBool",
              "boolID": "IsCharging"
            }
          ],
          "onReleaseUncharged": [
            {
              "$type": "SetAnimatorInt",
              "intID": "SkillID",
              "value": 1.0
            }
          ],
          "onBeginCharged": [
            {
              "$type": "SetAnimatorBool",
              "boolID": "IsCharging",
              "value": true
            }
          ],
          "onReleaseCharged": [
            {
              "$type": "SetAnimatorBool",
              "boolID": "IsCharging"
            },
            {
              "$type": "SetAnimatorInt",
              "intID": "SkillID",
              "value": 1.0
            }
          ],
          "onBeginSecondCharged": [
            {
              "$type": "SetAnimatorTrigger",
              "predicates": [
                {
                  "$type": "ByLocalAvatarStamina",
                  "logic": "GreaterOrEqual",
                  "stamina": [
                    "ExtraAttack_Sword_Stamina_Cost",
                    "Flexible_Stamina",
                    "ADD"
                  ]
                }
              ],
              "triggerID": "DoSkill"
            },
            {
              "$type": "SetAnimatorInt",
              "predicates": [
                {
                  "$type": "ByLocalAvatarStamina",
                  "logic": "GreaterOrEqual",
                  "stamina": [
                    "ExtraAttack_Sword_Stamina_Cost",
                    "Flexible_Stamina",
                    "ADD"
                  ]
                }
              ],
              "intID": "SkillID",
              "value": 6.0
            },
            {
              "$type": "SetAnimatorBool",
              "boolID": "IsCharging"
            }
          ],
          "chargeStateIDs": [
            "Attack01",
            "Attack02",
            "Attack03",
            "Attack04",
            "Run"
          ]
        },
        {
          "$type": "AttachToStateIDMixin",
          "stateIDs": ["ExtraAttack"],
          "modifierName": "ExtraAttack_StaminaCost",
          "DGFCLAIDIFI": ""
        }
      ],
      "abilitySpecials": {
        "ExtraAttack_Sword_Stamina_Cost": 0.0,
        "Flexible_Stamina": -2.0
      },
      "modifiers": {
        "ExtraAttack_StaminaCost": {
          "modifierName": "",
          "elementDurability": 100.0,
          "onAdded": [
            {
              "$type": "AvatarSkillStart",
              "skillID": 10001,
              "amountByTargetCurrentHPRatio": 1.0,
              "costStaminaRatio": "ExtraAttack_Sword_Stamina_Cost"
            }
          ]
        }
      }
    }
  },
  {
    "Default": {
      "$type": "ConfigAbility",
      "abilityName": "Avatar_Bennett_Shake",
      "onAbilityStart": [
        {
          "$type": "AddGlobalValue",
          "value": 1.0,
          "key": "_ABILITY_Bennett_ElementalArt_Level",
          "useLimitRange": true,
          "maxValue": 2.0,
          "minValue": 0.0
        },
        {
          "$type": "ActCameraShake",
          "cameraShake": {
            "shakeRange": 0.30000001192092896,
            "shakeTime": 0.09000000357627869,
            "shakeDistance": 2.0,
            "extension": {
              "baseCycle": 0.07999999821186066,
              "cycleDamping": -0.03999999910593033
            }
          }
        }
      ]
    }
  },
  {
    "Default": {
      "$type": "ConfigAbility",
      "abilityName": "Avatar_Bennett_ElementalArt_Handler",
      "abilityMixins": [
        {
          "$type": "AttachToStateIDMixin",
          "stateIDs": [
            "BennettElementalArt_BS",
            "BennettElementalArt_01",
            "BennettElementalArt_02",
            "BennettElementalArt_03",
            "BennettElementalArt_Strike01",
            "BennettElementalArt_Strike02",
            "BennettElementalArt_Strike02_01",
            "BennettElementalArt_Strike03",
            "BennettElementalArt_Strike03_01"
          ],
          "modifierName": "ElementalArt_CD_Protect",
          "DGFCLAIDIFI": ""
        },
        {
          "$type": "AvatarSteerByCameraMixin",
          "stateIDs": [
            "BennettElementalArt_Strike02",
            "BennettElementalArt_Strike02_01",
            "BennettElementalArt_Strike03",
            "BennettElementalArt_Strike03_01"
          ],
          "PBLEFEPFBPH": "",
          "LBOBGGPJOOP": ""
        },
        {
          "$type": "SkillButtonHoldChargeMixin",
          "skillID": 10322,
          "nextLoopTriggerID": "NextLoopTrigger",
          "endHoldTrigger": "EndHoldTrigger",
          "beforeStateIDs": ["BennettElementalArt_BS"],
          "chargeLoopStateIDs": [
            "BennettElementalArt_01",
            "BennettElementalArt_02",
            "BennettElementalArt_03"
          ],
          "chargeLoopDurations": [
            0.550000011920929, 1.100000023841858, 0.30000001192092896
          ]
        }
      ],
      "abilitySpecials": {
        "GetElementRatio": 1.0
      },
      "modifiers": {
        "ElementalArt_CD_Protect": {
          "modifierName": "",
          "elementDurability": 100.0,
          "onAdded": [
            {
              "$type": "AttachEffect",
              "rotationDampTime": "Eff_Avatar_Boy_Sword_Bennett_ElementalArt_ChargeLoop",
              "PPPDJGDDOGD": 1.0,
              "AJDILHJFNKE": -1.0
            },
            {
              "$type": "AddGlobalValue",
              "value": 0.0,
              "key": "_ABILITY_Bennett_ElementalArt_Level",
              "useLimitRange": true,
              "maxValue": 0.0,
              "minValue": 0.0
            }
          ]
        },
        "GenerateElemBall_ElementalArt": {
          "stacking": "Unique",
          "modifierName": "",
          "elementDurability": 100.0,
          "onAttackLanded": [
            {
              "$type": "Predicated",
              "target": "Target",
              "targetPredicates": [
                {
                  "$type": "ByAttackTags",
                  "attackTags": ["Elemental_Art"]
                },
                {
                  "$type": "ByEntityTypes",
                  "entityTypes": ["Monster"]
                },
                {
                  "$type": "ByTargetGlobalValue",
                  "key": "_ANIMAL_ENTITY_TYPE",
                  "value": 0.0,
                  "compareType": "NoneOrEqual"
                }
              ],
              "successActions": [
                {
                  "$type": "ApplyModifier",
                  "predicates": [
                    {
                      "$type": "ByTargetGlobalValue",
                      "key": "_ABILITY_Bennett_ElementalArt_Level",
                      "value": 0.0,
                      "compareType": "NoneOrEqual"
                    }
                  ],
                  "modifierName": "Ball1"
                },
                {
                  "$type": "ApplyModifier",
                  "predicates": [
                    {
                      "$type": "ByTargetGlobalValue",
                      "key": "_ABILITY_Bennett_ElementalArt_Level",
                      "value": 0.0,
                      "compareType": "MoreThan"
                    }
                  ],
                  "modifierName": "Ball2"
                }
              ]
            }
          ]
        },
        "Ball1": {
          "stacking": "Unique",
          "modifierName": "",
          "duration": 0.30000001192092896,
          "elementDurability": 100.0,
          "onAdded": [
            {
              "$type": "Randomed",
              "chance": 1.0,
              "successActions": [
                {
                  "$type": "GenerateElemBall",
                  "configID": 2017,
                  "born": {
                    "$type": "ConfigBornByTarget",
                    "offset": {
                      "x": 0.0,
                      "y": 0.0,
                      "z": 1.0
                    }
                  },
                  "hpRatio": "GetElementRatio",
                  "baseEnergy": 6.0
                }
              ]
            },
            {
              "$type": "Randomed",
              "chance": 0.25,
              "successActions": [
                {
                  "$type": "GenerateElemBall",
                  "configID": 2017,
                  "born": {
                    "$type": "ConfigBornByTarget",
                    "offset": {
                      "x": 0.0,
                      "y": 0.0,
                      "z": 1.0
                    }
                  },
                  "hpRatio": "GetElementRatio",
                  "baseEnergy": 3.0
                }
              ]
            }
          ]
        },
        "Ball2": {
          "stacking": "Unique",
          "modifierName": "",
          "duration": 1.5,
          "elementDurability": 100.0,
          "onAdded": [
            {
              "$type": "Randomed",
              "chance": 1.0,
              "successActions": [
                {
                  "$type": "GenerateElemBall",
                  "configID": 2017,
                  "born": {
                    "$type": "ConfigBornByTarget",
                    "offset": {
                      "x": 0.0,
                      "y": 0.0,
                      "z": 1.0
                    }
                  },
                  "hpRatio": "GetElementRatio",
                  "baseEnergy": 9.0
                }
              ]
            }
          ]
        },
        "Bennett_Talent_Globalvalue_Control": {
          "modifierName": "",
          "duration": 2.0999999046325684,
          "elementDurability": 100.0,
          "onAdded": [
            {
              "$type": "AddGlobalValue",
              "value": 1.0,
              "key": "_ABILITY_Talent_Bennett_DonotBlow",
              "useLimitRange": true,
              "maxValue": 1.0,
              "minValue": 1.0
            }
          ],
          "onRemoved": [
            {
              "$type": "AddGlobalValue",
              "shieldHP": true,
              "value": 0.0,
              "key": "_ABILITY_Talent_Bennett_DonotBlow",
              "useLimitRange": true,
              "maxValue": 0.0,
              "minValue": 0.0
            }
          ]
        }
      },
      "onAdded": [
        {
          "$type": "AttachModifier",
          "modifierName": "GenerateElemBall_ElementalArt"
        },
        {
          "$type": "SetGlobalValue",
          "value": 0.0,
          "key": "_ABILITY_Talent_Bennett_DonotBlow",
          "maxValue": 0.0,
          "minValue": 0.0
        }
      ],
      "onAbilityStart": [
        {
          "$type": "ApplyModifier",
          "modifierName": "Bennett_Talent_Globalvalue_Control"
        }
      ]
    }
  },
  {
    "Default": {
      "$type": "ConfigAbility",
      "abilityName": "Avatar_Bennett_ElementalArt_Strike01_01",
      "abilitySpecials": {
        "Strike_01": 0.0
      },
      "onAbilityStart": [
        {
          "$type": "Predicated",
          "targetPredicates": [
            {
              "$type": "ByTargetGlobalValue",
              "key": "_ABILITY_Talent_Bennett_DonotBlow",
              "value": 1.0
            }
          ],
          "successActions": [
            {
              "$type": "AvatarSkillStart",
              "predicates": [
                {
                  "$type": "BySkillReady",
                  "skillID": 10322
                }
              ],
              "skillID": 10322,
              "amountByTargetCurrentHPRatio": 0.5,
              "costStaminaRatio": 1.0
            }
          ],
          "failActions": [
            {
              "$type": "AvatarSkillStart",
              "predicates": [
                {
                  "$type": "BySkillReady",
                  "skillID": 10322
                }
              ],
              "skillID": 10322,
              "amountByTargetCurrentHPRatio": 1.0,
              "costStaminaRatio": 1.0
            }
          ]
        },
        {
          "$type": "TriggerAttackEvent",
          "attackEvent": {
            "attackPattern": {
              "$type": "ConfigAttackCircle",
              "triggerType": "TriggerNoRepeat",
              "massiveAttackRatio": 0.4000000059604645,
              "born": {
                "$type": "ConfigBornBySelf",
                "offset": {
                  "x": 0.0,
                  "y": -0.699999988079071,
                  "z": 0.800000011920929
                }
              },
              "height": 2.5,
              "fanAngle": 270.0,
              "radius": 2.5,
              "detectDirection": "Counterclockwise"
            },
            "attackInfo": {
              "attackTag": "Elemental_Art",
              "attenuationTag": "",
              "attenuationGroup": "default",
              "attackProperty": {
                "actorGrassSubHurtDelta": "Strike_01",
                "actorWindSubHurtDelta": 0.0,
                "elementType": "Fire",
                "elementDurability": 50.0,
                "strikeType": "Slash",
                "enBreak": 100.0,
                "attackType": "Melee",
                "GLKMCMDJBIK": 0.0
              },
              "hitPattern": {
                "onHitEffectName": "Eff_Diluc_FireBlade_Hit_01",
                "hitImpulseY": "",
                "hitImpulseType": "LV4",
                "hitHaltTime": 0.09000000357627869,
                "hitHaltTimeScale": 0.009999999776482582,
                "canBeDefenceHalt": true
              },
              "cameraShake": {
                "shakeType": "CustomVector",
                "shakeRange": 0.23999999463558197,
                "shakeTime": 0.09000000357627869,
                "shakeDistance": 30.0,
                "shakeDir": {
                  "x": 1.0,
                  "y": 0.30000001192092896
                }
              }
            }
          },
          "targetType": "Enemy"
        }
      ]
    }
  },
  {
    "Default": {
      "$type": "ConfigAbility",
      "abilityName": "Avatar_Bennett_ElementalArt_Strike02_01",
      "abilitySpecials": {
        "Strike_02_01": 0.0
      },
      "onAbilityStart": [
        {
          "$type": "Predicated",
          "targetPredicates": [
            {
              "$type": "ByTargetGlobalValue",
              "key": "_ABILITY_Talent_Bennett_DonotBlow",
              "value": 1.0
            }
          ],
          "successActions": [
            {
              "$type": "AvatarSkillStart",
              "predicates": [
                {
                  "$type": "BySkillReady",
                  "skillID": 10322
                }
              ],
              "skillID": 10322,
              "amountByTargetCurrentHPRatio": 0.75,
              "costStaminaRatio": 1.0
            }
          ],
          "failActions": [
            {
              "$type": "AvatarSkillStart",
              "predicates": [
                {
                  "$type": "BySkillReady",
                  "skillID": 10322
                }
              ],
              "skillID": 10322,
              "amountByTargetCurrentHPRatio": 1.5,
              "costStaminaRatio": 1.0
            }
          ]
        },
        {
          "$type": "TriggerAttackEvent",
          "attackEvent": {
            "attackPattern": {
              "$type": "ConfigAttackCircle",
              "triggerType": "TriggerNoRepeat",
              "massiveAttackRatio": 0.800000011920929,
              "born": {
                "$type": "ConfigBornBySelf",
                "offset": {
                  "x": 0.0,
                  "y": -0.699999988079071,
                  "z": 0.5
                }
              },
              "height": 2.5,
              "radius": 2.5,
              "detectDirection": "Counterclockwise"
            },
            "attackInfo": {
              "attackTag": "Elemental_Art",
              "attenuationTag": "",
              "attenuationGroup": "default",
              "attackProperty": {
                "actorGrassSubHurtDelta": "Strike_02_01",
                "actorWindSubHurtDelta": 0.0,
                "elementType": "Fire",
                "elementDurability": 25.0,
                "strikeType": "Slash",
                "enBreak": 100.0,
                "attackType": "Melee",
                "GLKMCMDJBIK": 0.0
              },
              "hitPattern": {
                "onHitEffectName": "Eff_Diluc_FireBlade_Hit_01",
                "hitImpulseY": "",
                "hitImpulseType": "LV3",
                "hitHaltTime": 0.09000000357627869,
                "hitHaltTimeScale": 0.009999999776482582,
                "canBeDefenceHalt": true
              },
              "cameraShake": {
                "shakeType": "CustomVector",
                "shakeRange": 0.23999999463558197,
                "shakeTime": 0.09000000357627869,
                "shakeDistance": 30.0,
                "shakeDir": {
                  "x": 1.0,
                  "y": -0.20000000298023224
                }
              }
            }
          },
          "targetType": "Enemy"
        }
      ]
    }
  },
  {
    "Default": {
      "$type": "ConfigAbility",
      "abilityName": "Avatar_Bennett_ElementalArt_Strike02_02",
      "abilitySpecials": {
        "Strike_02_02": 0.0
      },
      "onAbilityStart": [
        {
          "$type": "TriggerAttackEvent",
          "attackEvent": {
            "attackPattern": {
              "$type": "ConfigAttackBox",
              "triggerType": "TriggerNoRepeat",
              "born": {
                "$type": "ConfigBornByTarget",
                "offset": {
                  "x": 0.0,
                  "y": 1.2000000476837158,
                  "z": 0.0
                }
              },
              "size": {
                "x": 3.0,
                "y": 3.0,
                "z": 3.0
              }
            },
            "attackInfo": {
              "attackTag": "Elemental_Art",
              "attenuationTag": "",
              "attenuationGroup": "default",
              "attackProperty": {
                "actorGrassSubHurtDelta": "Strike_02_02",
                "actorWindSubHurtDelta": 0.0,
                "elementType": "Fire",
                "elementDurability": 25.0,
                "strikeType": "Slash",
                "enBreak": 100.0,
                "attackType": "Melee",
                "GLKMCMDJBIK": 0.0
              },
              "hitPattern": {
                "onHitEffectName": "Eff_Diluc_FireBlade_Hit_01",
                "hitImpulseY": "",
                "hitImpulseType": "LV7",
                "overrideHitImpulse": {
                  "hitLevel": "Air",
                  "IMIJMPGJOGG": 300.0,
                  "BPCDKKBKOBM": 900.0
                },
                "retreatType": "ByHitDirection",
                "hitHaltTime": 0.09000000357627869,
                "hitHaltTimeScale": 0.009999999776482582,
                "canBeDefenceHalt": true
              },
              "cameraShake": {
                "shakeType": "CustomVector",
                "shakeRange": 0.23999999463558197,
                "shakeTime": 0.09000000357627869,
                "shakeDistance": 30.0,
                "shakeDir": {
                  "y": -1.0
                }
              }
            }
          },
          "targetType": "Enemy"
        }
      ]
    }
  },
  {
    "Default": {
      "$type": "ConfigAbility",
      "abilityName": "Avatar_Bennett_ElementalArt_Strike02_03",
      "abilitySpecials": {
        "Strike_02_02": 0.0,
        "Ratio_Of_Strike02_02": 0.0
      },
      "onAbilityStart": [
        {
          "$type": "TriggerAttackEvent",
          "attackEvent": {
            "attackPattern": {
              "$type": "ConfigAttackBox",
              "triggerType": "TriggerNoRepeat",
              "born": {
                "$type": "ConfigBornByTarget",
                "offset": {
                  "x": 0.0,
                  "y": 1.0,
                  "z": -1.0
                }
              },
              "size": {
                "x": 3.0,
                "y": 2.5,
                "z": 4.0
              }
            },
            "attackInfo": {
              "attackTag": "Elemental_Art",
              "attenuationTag": "",
              "attenuationGroup": "default",
              "attackProperty": {
                "actorGrassSubHurtDelta": [
                  "Strike_02_02",
                  "Ratio_Of_Strike02_02",
                  "MUL"
                ],
                "actorWindSubHurtDelta": 0.0,
                "elementType": "Fire",
                "elementDurability": 25.0,
                "strikeType": "Slash",
                "enBreak": 100.0,
                "attackType": "Melee",
                "GLKMCMDJBIK": 0.0
              },
              "hitPattern": {
                "onHitEffectName": "Eff_Diluc_FireBlade_Hit_01",
                "hitImpulseY": "",
                "hitImpulseType": "LV6",
                "hitHaltTime": 0.11999999731779099,
                "hitHaltTimeScale": 0.009999999776482582,
                "canBeDefenceHalt": true
              },
              "forceCameraShake": true,
              "cameraShake": {
                "shakeType": "CustomVector",
                "shakeRange": 0.3499999940395355,
                "shakeTime": 0.23999999463558197,
                "shakeDistance": 30.0,
                "shakeDir": {
                  "y": 1.0,
                  "z": -1.0
                }
              }
            }
          },
          "targetType": "Enemy"
        }
      ]
    }
  },
  {
    "Default": {
      "$type": "ConfigAbility",
      "abilityName": "Avatar_Bennett_ElementalArt_Strike03_01",
      "abilitySpecials": {
        "Strike_03_01": 0.0
      },
      "onAbilityStart": [
        {
          "$type": "Predicated",
          "targetPredicates": [
            {
              "$type": "ByTargetGlobalValue",
              "key": "_ABILITY_Talent_Bennett_DonotBlow",
              "value": 1.0
            }
          ],
          "successActions": [
            {
              "$type": "AvatarSkillStart",
              "predicates": [
                {
                  "$type": "BySkillReady",
                  "skillID": 10322
                }
              ],
              "skillID": 10322,
              "amountByTargetCurrentHPRatio": 1.0,
              "costStaminaRatio": 1.0
            }
          ],
          "failActions": [
            {
              "$type": "AvatarSkillStart",
              "predicates": [
                {
                  "$type": "BySkillReady",
                  "skillID": 10322
                }
              ],
              "skillID": 10322,
              "amountByTargetCurrentHPRatio": 2.0,
              "costStaminaRatio": 1.0
            }
          ]
        },
        {
          "$type": "TriggerAttackEvent",
          "attackEvent": {
            "attackPattern": {
              "$type": "ConfigAttackCircle",
              "triggerType": "TriggerNoRepeat",
              "massiveAttackRatio": 0.6000000238418579,
              "born": {
                "$type": "ConfigBornBySelf",
                "offset": {
                  "x": 0.0,
                  "y": -0.699999988079071,
                  "z": 0.5
                }
              },
              "height": 2.5,
              "radius": 2.5,
              "detectDirection": "Counterclockwise"
            },
            "attackInfo": {
              "attackTag": "Elemental_Art",
              "attenuationTag": "",
              "attenuationGroup": "default",
              "attackProperty": {
                "actorGrassSubHurtDelta": "Strike_03_01",
                "actorWindSubHurtDelta": 0.0,
                "elementType": "Fire",
                "elementDurability": 25.0,
                "strikeType": "Slash",
                "enBreak": 100.0,
                "attackType": "Melee",
                "GLKMCMDJBIK": 0.0
              },
              "hitPattern": {
                "onHitEffectName": "Eff_Diluc_FireBlade_Hit_01",
                "hitImpulseY": "",
                "hitImpulseType": "LV3",
                "hitHaltTime": 0.09000000357627869,
                "hitHaltTimeScale": 0.009999999776482582,
                "canBeDefenceHalt": true
              },
              "cameraShake": {
                "shakeType": "CustomVector",
                "shakeRange": 0.23999999463558197,
                "shakeTime": 0.09000000357627869,
                "shakeDistance": 30.0,
                "shakeDir": {
                  "x": 1.0,
                  "y": -0.20000000298023224
                }
              }
            }
          },
          "targetType": "Enemy"
        }
      ]
    }
  },
  {
    "Default": {
      "$type": "ConfigAbility",
      "abilityName": "Avatar_Bennett_ElementalArt_Strike03_02",
      "abilitySpecials": {
        "Strike_03_02": 0.0
      },
      "onAbilityStart": [
        {
          "$type": "TriggerAttackEvent",
          "attackEvent": {
            "attackPattern": {
              "$type": "ConfigAttackBox",
              "triggerType": "TriggerNoRepeat",
              "born": {
                "$type": "ConfigBornByTarget",
                "offset": {
                  "x": 0.0,
                  "y": 1.5,
                  "z": 0.0
                }
              },
              "size": {
                "x": 3.0,
                "y": 4.0,
                "z": 3.0
              }
            },
            "attackInfo": {
              "attackTag": "Elemental_Art",
              "attenuationTag": "",
              "attenuationGroup": "default",
              "attackProperty": {
                "actorGrassSubHurtDelta": "Strike_03_02",
                "actorWindSubHurtDelta": 0.0,
                "elementType": "Fire",
                "elementDurability": 25.0,
                "strikeType": "Slash",
                "enBreak": 100.0,
                "attackType": "Melee",
                "GLKMCMDJBIK": 0.0
              },
              "hitPattern": {
                "onHitEffectName": "Eff_Diluc_FireBlade_Hit_01",
                "hitImpulseY": "",
                "hitImpulseType": "LV6",
                "overrideHitImpulse": {
                  "hitLevel": "Air",
                  "IMIJMPGJOGG": 300.0,
                  "BPCDKKBKOBM": 900.0
                },
                "retreatType": "ByHitDirection",
                "hitHaltTime": 0.09000000357627869,
                "hitHaltTimeScale": 0.009999999776482582,
                "canBeDefenceHalt": true
              },
              "cameraShake": {
                "shakeType": "CustomVector",
                "shakeRange": 0.23999999463558197,
                "shakeTime": 0.09000000357627869,
                "shakeDistance": 30.0,
                "shakeDir": {
                  "y": -1.0
                }
              }
            }
          },
          "targetType": "Enemy"
        }
      ]
    }
  },
  {
    "Default": {
      "$type": "ConfigAbility",
      "abilityName": "Avatar_Bennett_ElementalArt_Explode",
      "abilitySpecials": {
        "Strike_03_03": 0.0
      },
      "onAbilityStart": [
        {
          "$type": "TriggerAttackEvent",
          "attackEvent": {
            "attackPattern": {
              "$type": "ConfigAttackCircle",
              "triggerType": "TriggerNoRepeat",
              "massiveAttackRatio": 0.5,
              "born": {
                "$type": "ConfigBornBySelf",
                "offset": {
                  "x": 0.0,
                  "y": -0.699999988079071,
                  "z": 1.0
                }
              },
              "height": 2.5,
              "radius": 3.5
            },
            "attackInfo": {
              "attackTag": "Elemental_Art",
              "attenuationTag": "",
              "attenuationGroup": "default",
              "attackProperty": {
                "actorGrassSubHurtDelta": "Strike_03_03",
                "actorWindSubHurtDelta": 0.0,
                "elementType": "Fire",
                "elementDurability": 25.0,
                "enBreak": 250.0,
                "attackType": "Melee",
                "GLKMCMDJBIK": 0.0
              },
              "hitPattern": {
                "onHitEffectName": "Eff_Diluc_FireBlade_Hit_01",
                "hitImpulseY": "",
                "hitImpulseType": "LV8",
                "hitHaltTimeScale": 0.009999999776482582,
                "canBeDefenceHalt": true
              },
              "forceCameraShake": true,
              "cameraShake": {
                "shakeType": "CustomVector",
                "shakeRange": 0.3499999940395355,
                "shakeTime": 0.30000001192092896,
                "shakeDistance": 30.0,
                "shakeDir": {
                  "y": 1.0
                }
              }
            }
          },
          "targetType": "Enemy"
        },
        {
          "$type": "TriggerAttackEvent",
          "predicates": [
            {
              "$type": "ByTargetGlobalValue",
              "target": "Self",
              "key": "_ABILITY_Talent_Bennett_DonotBlow",
              "value": 0.0,
              "compareType": "NoneOrEqual"
            }
          ],
          "attackEvent": {
            "attackPattern": {
              "$type": "ConfigAttackCircle",
              "triggerType": "TriggerNoRepeat",
              "born": {
                "$type": "ConfigBornBySelf",
                "offset": {
                  "x": 0.0,
                  "y": -0.699999988079071,
                  "z": 1.0
                }
              },
              "height": 2.5,
              "radius": 3.5
            },
            "attackInfo": {
              "attackTag": "",
              "attenuationTag": "",
              "attenuationGroup": "default",
              "attackProperty": {
                "actorGrassSubHurtDelta": 0.0,
                "actorWindSubHurtDelta": 0.0,
                "elementDurability": 100.0,
                "enBreak": 250.0,
                "attackType": "Melee",
                "GLKMCMDJBIK": 0.0
              },
              "hitPattern": {
                "onHitEffectName": "default",
                "hitImpulseY": "",
                "hitImpulseType": "LV8",
                "overrideHitImpulse": {
                  "hitLevel": "Air",
                  "IMIJMPGJOGG": 650.0,
                  "BPCDKKBKOBM": 950.0
                },
                "hitHaltTimeScale": 0.009999999776482582
              }
            }
          },
          "targetType": "Self"
        }
      ]
    }
  },
  {
    "Default": {
      "$type": "ConfigAbility",
      "abilityName": "Avatar_Bennett_ElementalBurst_Strike",
      "abilitySpecials": {
        "Burst_DMG": 0.0
      },
      "onAbilityStart": [
        {
          "$type": "AvatarSkillStart",
          "skillID": 10323,
          "amountByTargetCurrentHPRatio": 1.0,
          "costStaminaRatio": 1.0
        },
        {
          "$type": "FireEffect",
          "rotationDampTime": "Eff_Avatar_Boy_Sword_Bennett_ElementalBurst",
          "PPPDJGDDOGD": 1.0,
          "AJDILHJFNKE": -1.0
        },
        {
          "$type": "TriggerAttackEvent",
          "attackEvent": {
            "attackPattern": {
              "$type": "ConfigAttackCircle",
              "triggerType": "TriggerNoRepeat",
              "ignoreMassive": true,
              "born": {
                "$type": "ConfigBornBySelf",
                "offset": {
                  "x": 0.0,
                  "y": 0.0,
                  "z": 0.5
                }
              },
              "radius": 6.0
            },
            "attackInfo": {
              "attackTag": "Elemental_Burst",
              "attenuationTag": "",
              "attenuationGroup": "default",
              "attackProperty": {
                "actorGrassSubHurtDelta": "Burst_DMG",
                "actorWindSubHurtDelta": 0.0,
                "elementType": "Fire",
                "elementDurability": 50.0,
                "strikeType": "Default",
                "enBreak": 200.0,
                "GLKMCMDJBIK": 0.0
              },
              "hitPattern": {
                "onHitEffectName": "default",
                "hitImpulseY": "",
                "hitImpulseType": "LV4",
                "retreatType": "ByHitDirection",
                "hitHaltTimeScale": 0.009999999776482582
              },
              "forceCameraShake": true,
              "cameraShake": {
                "shakeType": "CustomVector",
                "shakeRange": 0.44999998807907104,
                "shakeTime": 0.23999999463558197,
                "shakeDistance": 30.0,
                "shakeDir": {
                  "y": 1.0
                }
              }
            }
          },
          "targetType": "Enemy"
        }
      ]
    }
  },
  {
    "Default": {
      "$type": "ConfigAbility",
      "abilityName": "Avatar_Bennett_ElementalBurst",
      "abilityMixins": [
        {
          "$type": "AttachToStateIDMixin",
          "stateIDs": ["WarmField"],
          "modifierName": "isGhost",
          "DGFCLAIDIFI": ""
        },
        {
          "$type": "AttachToStateIDMixin",
          "stateIDs": ["WarmField"],
          "modifierName": "invincible",
          "DGFCLAIDIFI": ""
        },
        {
          "$type": "AttachToStateIDMixin",
          "stateIDs": ["WarmField"],
          "modifierName": "WarmField_WeaponFade",
          "DGFCLAIDIFI": ""
        }
      ],
      "modifiers": {
        "isGhost": {
          "modifierName": "",
          "elementDurability": 100.0,
          "onAdded": [
            {
              "$type": "AttachAbilityStateResistance",
              "resistanceListID": 11002
            }
          ]
        },
        "invincible": {
          "modifierName": "",
          "elementDurability": 100.0,
          "state": "Invincible"
        },
        "WarmField_WeaponFade": {
          "modifierName": "",
          "elementDurability": 100.0,
          "onAdded": [
            {
              "$type": "TriggerHideWeapon",
              "partNames": ["equip01", "sheathPoint"]
            }
          ],
          "onRemoved": [
            {
              "$type": "TriggerHideWeapon",
              "KGGEDGKGLDD": true,
              "partNames": ["equip01", "sheathPoint"]
            }
          ]
        }
      },
      "onAbilityStart": [
        {
          "$type": "AddGlobalValue",
          "value": 1.0,
          "key": "_ABILITY_Bennett_WarmField_BaseAttack",
          "useLimitRange": true,
          "maxValue": "FIGHT_PROP_BASE_ATTACK",
          "minValue": "FIGHT_PROP_BASE_ATTACK"
        },
        {
          "$type": "CreateGadget",
          "born": {
            "$type": "ConfigBornByTarget",
            "offset": {
              "x": 0.0,
              "y": 0.0,
              "z": 1.5
            }
          },
          "gadgetID": 41032002,
          "campID": 1001,
          "campTargetType": "Alliance"
        }
      ]
    }
  },
  {
    "Default": {
      "$type": "ConfigAbility",
      "abilityName": "Avatar_Bennett_ElementalBurst_Gadget",
      "abilitySpecials": {
        "HealMaxHpRatio": 0.0,
        "HealConst": 0.0,
        "HPTreshhold": 0.699999988079071,
        "AttackTreshhold": 0.699999988079071,
        "AttackUpRatio": 0.0,
        "FireUp": 0.0,
        "Bennett_WarmField_BaseAttack": 0.0
      },
      "modifiers": {
        "WarmField_Handler": {
          "modifierName": "",
          "duration": 12.5,
          "elementDurability": 100.0,
          "thinkInterval": 1.0,
          "onAdded": [
            {
              "$type": "ApplyModifier",
              "otherTargets": {
                "$type": "SelectTargetsByShape",
                "shapeName": "CircleR6",
                "campTargetType": "Alliance",
                "doOffStage": 1.0
              },
              "predicates": [
                {
                  "$type": "ByEntityTypes",
                  "entityTypes": ["Avatar"]
                }
              ],
              "modifierName": "WarmField_Modifier"
            }
          ],
          "onThinkInterval": [
            {
              "$type": "ApplyModifier",
              "otherTargets": {
                "$type": "SelectTargetsByShape",
                "shapeName": "CircleR6",
                "campTargetType": "Alliance",
                "doOffStage": 1.0
              },
              "predicates": [
                {
                  "$type": "ByEntityTypes",
                  "entityTypes": ["Avatar"]
                }
              ],
              "modifierName": "WarmField_Modifier"
            },
            {
              "$type": "ApplyModifier",
              "otherTargets": {
                "$type": "SelectTargetsByShape",
                "shapeName": "CircleR6",
                "campTargetType": "Alliance",
                "doOffStage": 1.0
              },
              "predicates": [
                {
                  "$type": "ByEntityTypes",
                  "entityTypes": ["Avatar"]
                }
              ],
              "modifierName": "UNIQUE_WarmField_FireBuff"
            },
            {
              "$type": "HealHP",
              "otherTargets": {
                "$type": "SelectTargetsByShape",
                "shapeName": "CircleR6",
                "campTargetType": "Alliance",
                "doOffStage": 1.0
              },
              "predicates": [
                {
                  "$type": "ByEntityTypes",
                  "entityTypes": ["Avatar"]
                },
                {
                  "$type": "ByTargetHPRatio",
                  "logic": "LesserOrEqual",
                  "ratio": "HPTreshhold"
                }
              ],
              "amount": "HealConst",
              "amountByCasterMaxHPRatio": "HealMaxHpRatio",
              "cdRatio": ""
            }
          ]
        },
        "WarmField_Modifier": {
          "modifierName": "",
          "duration": 0.5,
          "elementDurability": 100.0,
          "onAdded": [
            {
              "$type": "ApplyModifier",
              "predicates": [
                {
                  "$type": "ByAny",
                  "predicates": [
                    {
                      "$type": "ByTargetHPRatio",
                      "ratio": "AttackTreshhold"
                    },
                    {
                      "$type": "ByUnlockTalentParam",
                      "talentParam": "Unlock_AttackUp"
                    }
                  ]
                }
              ],
              "modifierName": "UNIQUE_WarmField_AttackUp"
            },
            {
              "$type": "ApplyModifier",
              "predicates": [
                {
                  "$type": "ByUnlockTalentParam",
                  "talentParam": "Unlock_FireEnhance"
                }
              ],
              "modifierName": "UNIQUE_Talent_Avatar_FireUp"
            },
            {
              "$type": "ApplyModifier",
              "otherTargets": {
                "$type": "SelectTargetsByEquipParts",
                "equipPartNames": ["equip01", "sheathPoint"]
              },
              "predicates": [
                {
                  "$type": "ByUnlockTalentParam",
                  "talentParam": "Unlock_FireEnhance"
                },
                {
                  "$type": "ByAvatarWeaponType",
                  "target": "Self",
                  "weaponTypes": [
                    "WEAPON_SWORD_ONE_HAND",
                    "WEAPON_CLAYMORE",
                    "WEAPON_POLE"
                  ]
                }
              ],
              "modifierName": "UNIQUE_Talent_Weapon_FireEnhanced"
            },
            {
              "$type": "TriggerAbility",
              "predicates": [
                {
                  "$type": "ByUnlockTalentParam",
                  "talentParam": "Donot_Blow_Self"
                },
                {
                  "$type": "ByHasFeatureTag",
                  "featureTagIDs": [10032]
                }
              ],
              "abilityName": "Avatar_Bennett_ElementalArt_Handler"
            }
          ]
        },
        "UNIQUE_WarmField_AttackUp": {
          "modifierName": "",
          "forceTriggerWhenChangeAuthority": true,
          "duration": 2.0999999046325684,
          "elementDurability": 100.0,
          "properties": {
            "Actor_AttackExtraDelta": [
              "AttackUpRatio",
              "Bennett_WarmField_BaseAttack",
              "MUL"
            ]
          },
          "state": "AttackUp",
          "isLimitedProperties": true
        },
        "UNIQUE_WarmField_FireBuff": {
          "modifierName": "",
          "forceTriggerWhenChangeAuthority": true,
          "duration": 2.0999999046325684,
          "elementType": "Fire",
          "elementDurability": 25.0,
          "state": "ElementFire"
        },
        "UNIQUE_Talent_Avatar_FireUp": {
          "modifierName": "",
          "forceTriggerWhenChangeAuthority": true,
          "duration": 2.0999999046325684,
          "elementDurability": 100.0,
          "properties": {
            "Actor_FireAddHurtDelta": "FireUp"
          }
        },
        "UNIQUE_Talent_Weapon_FireEnhanced": {
          "modifierName": "",
          "forceTriggerWhenChangeAuthority": true,
          "duration": 2.0999999046325684,
          "elementType": "Fire",
          "elementDurability": 25.0,
          "overrideWeaponElement": true
        }
      },
      "onAdded": [
        {
          "$type": "SetGlobalValueToOverrideMap",
          "isFromOwner": true,
          "globalValueKey": "_ABILITY_Bennett_WarmField_BaseAttack",
          "overrideMapKey": "Bennett_WarmField_BaseAttack"
        },
        {
          "$type": "AttachModifier",
          "modifierName": "WarmField_Handler"
        },
        {
          "$type": "AttachEffect",
          "rotationDampTime": "Eff_Avatar_Boy_Sword_Bennett_ElementalBurst_Field",
          "PPPDJGDDOGD": 1.0,
          "AJDILHJFNKE": -1.0
        }
      ]
    }
  },
  {
    "Default": {
      "$type": "ConfigAbility",
      "abilityName": "Avatar_Bennett_NormalAttackDamage",
      "abilityMixins": [
        {
          "$type": "ModifyDamageMixin",
          "animEventNames": ["ATK01"],
          "actorGrassSubHurtDelta": "Attack01",
          "actorWindSubHurtDelta": 0.0
        },
        {
          "$type": "ModifyDamageMixin",
          "animEventNames": ["ATK02"],
          "actorGrassSubHurtDelta": "Attack02",
          "actorWindSubHurtDelta": 0.0
        },
        {
          "$type": "ModifyDamageMixin",
          "animEventNames": ["ATK03"],
          "actorGrassSubHurtDelta": "Attack03",
          "actorWindSubHurtDelta": 0.0
        },
        {
          "$type": "ModifyDamageMixin",
          "animEventNames": ["ATK04"],
          "actorGrassSubHurtDelta": "Attack04",
          "actorWindSubHurtDelta": 0.0
        },
        {
          "$type": "ModifyDamageMixin",
          "animEventNames": ["ATK05"],
          "actorGrassSubHurtDelta": "Attack05",
          "actorWindSubHurtDelta": 0.0
        },
        {
          "$type": "ModifyDamageMixin",
          "animEventNames": ["ExtraAttack_1"],
          "actorGrassSubHurtDelta": "ExtraAttack1",
          "actorWindSubHurtDelta": 0.0
        },
        {
          "$type": "ModifyDamageMixin",
          "animEventNames": ["ExtraAttack_2"],
          "actorGrassSubHurtDelta": "ExtraAttack2",
          "actorWindSubHurtDelta": 0.0
        }
      ],
      "abilitySpecials": {
        "Attack01": 0.0,
        "Attack02": 0.0,
        "Attack03": 0.0,
        "Attack04": 0.0,
        "Attack05": 0.0,
        "ExtraAttack1": 0.0,
        "ExtraAttack2": 0.0
      }
    }
  },
  {
    "Default": {
      "$type": "ConfigAbility",
      "abilityName": "Avatar_Bennett_Talent_Capacitor",
      "abilityMixins": [
        {
          "$type": "AttachModifierToPredicateMixin",
          "onEvent": "HP",
          "predicates": [
            {
              "$type": "ByTargetHPRatio",
              "logic": "LesserOrEqual",
              "ratio": "HPRatio"
            }
          ],
          "modifierName": "Capacitor_EnergyGain_Up"
        }
      ],
      "abilitySpecials": {
        "HPRatio": 0.0,
        "Rate": 0.0
      },
      "modifiers": {
        "Capacitor_EnergyGain_Up": {
          "modifierName": "",
          "elementDurability": 100.0,
          "properties": {
            "Actor_ChargeEfficiencyDelta": "Rate"
          },
          "isLimitedProperties": true
        }
      },
      "isDynamicAbility": true
    }
  },
  {
    "Default": {
      "$type": "ConfigAbility",
      "abilityName": "Avatar_Bennett_FallingAnthem",
      "abilityMixins": [
        {
          "$type": "AvatarChangeSkillMixin",
          "jumpSkillID": 5032010,
          "flySkillID": 5032010
        },
        {
          "$type": "AttachToStateIDMixin",
          "stateIDs": ["FallingAnthem_BS"],
          "modifierName": "FallingAnthem_BS_Material",
          "DGFCLAIDIFI": ""
        },
        {
          "$type": "AttachToStateIDMixin",
          "stateIDs": ["FallingAnthem_BS"],
          "modifierName": "FallingAnthem_Loop_Normal",
          "DGFCLAIDIFI": ""
        },
        {
          "$type": "AttachToAnimatorStateIDMixin",
          "stateIDs": [
            "FallingAnthem_BS_2",
            "FallingAnthem_Loop",
            "FallingAnthem_Loop_Low"
          ],
          "modifierName": "FallingAnthem_LoopDamage",
          "DGFCLAIDIFI": ""
        },
        {
          "$type": "AttachToStateIDMixin",
          "stateIDs": ["FallingAnthem_BS"],
          "modifierName": "FallingAnthem_BS_VelocityForce_Initialize",
          "DGFCLAIDIFI": ""
        },
        {
          "$type": "AttachToStateIDMixin",
          "stateIDs": [
            "FallingAnthem_BS",
            "FallingAnthem_Loop",
            "FallingAnthem_AS_1",
            "FallingAnthem_AS_2"
          ],
          "modifierName": "FallingAnthem_Height_Detect",
          "DGFCLAIDIFI": ""
        },
        {
          "$type": "AttachToStateIDMixin",
          "stateIDs": [
            "FallingAnthem_BS",
            "FallingAnthem_Loop",
            "FallingAnthem_AS_1",
            "FallingAnthem_AS_2"
          ],
          "modifierName": "FallingAnthem_FallingDamageImmune_01",
          "DGFCLAIDIFI": ""
        },
        {
          "$type": "AttachToStateIDMixin",
          "stateIDs": ["FallingAnthem_BS", "FallingAnthem_Loop"],
          "modifierName": "Inertia",
          "DGFCLAIDIFI": ""
        },
        {
          "$type": "AttachToStateIDMixin",
          "stateIDs": [
            "FallingAnthem_BS",
            "FallingAnthem_Loop",
            "FallingAnthem_AS_1",
            "FallingAnthem_AS_2"
          ],
          "modifierName": "FallingAnthem_OverHead_Camera",
          "DGFCLAIDIFI": ""
        },
        {
          "$type": "AttachToStateIDMixin",
          "stateIDs": ["FallingAnthem_BS"],
          "modifierName": "FallingAnthem_ClearVelocityForce",
          "DGFCLAIDIFI": ""
        },
        {
          "$type": "AttachToStateIDMixin",
          "stateIDs": ["FallingAnthem_AS_1", "FallingAnthem_AS_2"],
          "modifierName": "FallingAnthem_ClearVelocityForce_AS",
          "DGFCLAIDIFI": ""
        },
        {
          "$type": "AttachToStateIDMixin",
          "stateIDs": ["FallingAnthem_BS", "FallingAnthem_Loop"],
          "modifierName": "FallingAnthem_AttachWeaponEffect",
          "DGFCLAIDIFI": ""
        },
        {
          "$type": "AttachToAnimatorStateIDMixin",
          "stateIDs": ["FallingAnthem_BS_2"],
          "modifierName": "FallingAnthem_CameraRadialBlur",
          "DGFCLAIDIFI": ""
        }
      ],
      "abilitySpecials": {
        "FallingAnthem_Normal_Loop_Damage": 0.0,
        "FallingAnthem_Normal_Rank_1_Damage": 0.0,
        "FallingAnthem_Normal_Rank_2_Damage": 0.0,
        "FallingAnthem_Altitude_Lv0": 20.0,
        "FallingAnthem_Altitude_Lv1": 40.0,
        "FallingAnthem_Altitude_Lv2": 60.0,
        "FallingAnthem_Altitude_Lv3": 100.0,
        "FallingAnthem_Altitude_Lv4": 200.0,
        "FallingAnthem_FallingDamageRatio_Lv0": -1.0,
        "FallingAnthem_FallingDamageRatio_Lv1": -1.0,
        "FallingAnthem_FallingDamageRatio_Lv2": -0.8999999761581421,
        "FallingAnthem_FallingDamageRatio_Lv3": -0.800000011920929,
        "FallingAnthem_FallingDamageRatio_Lv4": -0.6000000238418579,
        "FallingAnthem_FallingDamageRatio": 0.0
      },
      "modifiers": {
        "FallingAnthem_AttachWeaponEffect": {
          "modifierName": "",
          "elementDurability": 100.0,
          "onAdded": [
            {
              "$type": "AttachEffect",
              "rotationDampTime": "Eff_Avatar_Sword_FallAnthem_Self_01",
              "PPPDJGDDOGD": 1.0,
              "AJDILHJFNKE": -1.0
            }
          ]
        },
        "FallingAnthem_CameraRadialBlur": {
          "modifierName": "",
          "duration": 0.23000000417232513,
          "elementDurability": 100.0,
          "modifierMixins": [
            {
              "$type": "CameraBlurMixin",
              "cameraRadialBlur": {
                "power": 0.30000001192092896,
                "fadeTime": 0.15000000596046448
              }
            }
          ]
        },
        "FallingAnthem_BS_Material": {
          "modifierName": "",
          "elementDurability": 100.0,
          "onAdded": [
            {
              "$type": "FireEffect",
              "rotationDampTime": "Eff_Avatar_Sword_FallAnthem_BS",
              "PPPDJGDDOGD": 1.0,
              "AJDILHJFNKE": -1.0
            }
          ]
        },
        "FallingAnthem_BS_VelocityForce_Initialize": {
          "modifierName": "",
          "elementDurability": 100.0,
          "properties": {
            "Actor_AddGravityScale": -2.0
          },
          "onAdded": [
            {
              "$type": "RemoveVelocityForce",
              "forces": ["RushMoveType"]
            }
          ]
        },
        "FallingAnthem_LoopDamage": {
          "modifierName": "",
          "elementDurability": 100.0,
          "thinkInterval": 0.30000001192092896,
          "onThinkInterval": [
            {
              "$type": "TriggerAttackEvent",
              "attackEvent": {
                "attackPattern": {
                  "$type": "ConfigAttackSphere",
                  "triggerType": "TriggerNoRepeat",
                  "born": {
                    "$type": "ConfigBornBySelf",
                    "offset": {
                      "x": 0.0,
                      "y": 0.0,
                      "z": 1.0
                    }
                  },
                  "radius": 1.0
                },
                "attackInfo": {
                  "attackTag": "FallingAttack",
                  "attenuationTag": "",
                  "attenuationGroup": "default",
                  "attackProperty": {
                    "actorGrassSubHurtDelta": "FallingAnthem_Normal_Loop_Damage",
                    "actorWindSubHurtDelta": 0.0,
                    "elementDurability": 0.0,
                    "overrideByWeapon": true,
                    "strikeType": "Slash",
                    "enBreak": 25.0,
                    "attackType": "Melee",
                    "GLKMCMDJBIK": 0.0
                  },
                  "hitPattern": {
                    "onHitEffectName": "default",
                    "hitImpulseY": "",
                    "hitImpulseType": "LV2",
                    "hitHaltTimeScale": 0.019999999552965164
                  }
                }
              },
              "targetType": "Enemy"
            }
          ]
        },
        "FallingAnthem_FallingDamageImmune_01": {
          "modifierName": "",
          "elementDurability": 100.0,
          "onAdded": [
            {
              "$type": "ClearGlobalValue",
              "key": "_ABILITY_FallingAttack_Altitude"
            },
            {
              "$type": "AddGlobalValue",
              "predicates": [
                {
                  "$type": "ByTargetAltitude",
                  "logic": "LesserOrEqual",
                  "value": "FallingAnthem_Altitude_Lv0"
                }
              ],
              "value": "FallingAnthem_FallingDamageRatio_Lv0",
              "key": "_ABILITY_FallingAttack_Altitude",
              "useLimitRange": true,
              "maxValue": "FallingAnthem_FallingDamageRatio_Lv0",
              "minValue": "FallingAnthem_FallingDamageRatio_Lv0"
            },
            {
              "$type": "AddGlobalValue",
              "predicates": [
                {
                  "$type": "ByTargetAltitude",
                  "logic": "LesserOrEqual",
                  "value": "FallingAnthem_Altitude_Lv1"
                },
                {
                  "$type": "ByTargetAltitude",
                  "value": "FallingAnthem_Altitude_Lv0"
                }
              ],
              "value": "FallingAnthem_FallingDamageRatio_Lv1",
              "key": "_ABILITY_FallingAttack_Altitude",
              "useLimitRange": true,
              "maxValue": "FallingAnthem_FallingDamageRatio_Lv1",
              "minValue": "FallingAnthem_FallingDamageRatio_Lv1"
            },
            {
              "$type": "AddGlobalValue",
              "predicates": [
                {
                  "$type": "ByTargetAltitude",
                  "logic": "LesserOrEqual",
                  "value": "FallingAnthem_Altitude_Lv2"
                },
                {
                  "$type": "ByTargetAltitude",
                  "value": "FallingAnthem_Altitude_Lv1"
                }
              ],
              "value": "FallingAnthem_FallingDamageRatio_Lv2",
              "key": "_ABILITY_FallingAttack_Altitude",
              "useLimitRange": true,
              "maxValue": "FallingAnthem_FallingDamageRatio_Lv2",
              "minValue": "FallingAnthem_FallingDamageRatio_Lv2"
            },
            {
              "$type": "AddGlobalValue",
              "predicates": [
                {
                  "$type": "ByTargetAltitude",
                  "logic": "LesserOrEqual",
                  "value": "FallingAnthem_Altitude_Lv3"
                },
                {
                  "$type": "ByTargetAltitude",
                  "value": "FallingAnthem_Altitude_Lv2"
                }
              ],
              "value": "FallingAnthem_FallingDamageRatio_Lv3",
              "key": "_ABILITY_FallingAttack_Altitude",
              "useLimitRange": true,
              "maxValue": "FallingAnthem_FallingDamageRatio_Lv3",
              "minValue": "FallingAnthem_FallingDamageRatio_Lv3"
            },
            {
              "$type": "AddGlobalValue",
              "predicates": [
                {
                  "$type": "ByTargetAltitude",
                  "value": "FallingAnthem_Altitude_Lv3"
                }
              ],
              "value": "FallingAnthem_FallingDamageRatio_Lv4",
              "key": "_ABILITY_FallingAttack_Altitude",
              "useLimitRange": true,
              "maxValue": "FallingAnthem_FallingDamageRatio_Lv4",
              "minValue": "FallingAnthem_FallingDamageRatio_Lv4"
            },
            {
              "$type": "AttachModifier",
              "modifierName": "FallingAnthem_FallingDamageImmune_02"
            }
          ]
        },
        "FallingAnthem_FallingDamageImmune_02": {
          "modifierName": "",
          "elementDurability": 100.0,
          "onAdded": [
            {
              "$type": "SetGlobalValueToOverrideMap",
              "globalValueKey": "_ABILITY_FallingAttack_Altitude",
              "overrideMapKey": "FallingAnthem_FallingDamageRatio"
            },
            {
              "$type": "AttachModifier",
              "modifierName": "FallingAnthem_FallingDamageImmune_03"
            }
          ]
        },
        "FallingAnthem_FallingDamageImmune_03": {
          "modifierName": "",
          "elementDurability": 100.0,
          "properties": {
            "Actor_FallingDamageRatio": "FallingAnthem_FallingDamageRatio"
          }
        },
        "FallingAnthem_Loop_Normal": {
          "modifierName": "",
          "elementDurability": 100.0,
          "modifierMixins": [
            {
              "$type": "AttachModifierToSelfGlobalValueMixin",
              "globalValueKey": "_ABILITY_FallingAnthem_UseCamera",
              "gvInTalk": 0.0,
              "valueSteps": [-1.0, 0.5, 1.5],
              "modifierNameSteps": [
                "FallingAnthem_Loop_Normal_Rank_1",
                "FallingAnthem_Loop_Normal_Rank_2"
              ]
            }
          ]
        },
        "FallingAnthem_Loop_Normal_Rank_1": {
          "modifierName": "",
          "elementDurability": 100.0,
          "onAdded": [
            {
              "$type": "AttachEffect",
              "rotationDampTime": "Eff_Avatar_Sword_FallAnthem_Loop_01",
              "PPPDJGDDOGD": 1.0,
              "AJDILHJFNKE": -1.0
            }
          ]
        },
        "FallingAnthem_Loop_Normal_Rank_2": {
          "modifierName": "",
          "elementDurability": 100.0,
          "onAdded": [
            {
              "$type": "AttachEffect",
              "rotationDampTime": "Eff_Avatar_Sword_FallAnthem_Loop_02",
              "PPPDJGDDOGD": 1.0,
              "AJDILHJFNKE": -1.0
            }
          ]
        },
        "Inertia": {
          "modifierName": "",
          "elementDurability": 100.0,
          "modifierMixins": [
            {
              "$type": "ApplyInertiaVelocityMixin",
              "useXZ": false,
              "useY": false
            }
          ]
        },
        "FallingAnthem_Height_Detect": {
          "modifierName": "",
          "elementDurability": 100.0,
          "onAdded": [
            {
              "$type": "AddGlobalValue",
              "predicates": [
                {
                  "$type": "ByTargetAltitude",
                  "logic": "LesserOrEqual",
                  "value": 2.4000000953674316
                }
              ],
              "value": 0.0,
              "key": "_ABILITY_FallingAnthem_UseCamera",
              "useLimitRange": true,
              "maxValue": 0.0,
              "minValue": 0.0
            },
            {
              "$type": "AddGlobalValue",
              "predicates": [
                {
                  "$type": "ByTargetAltitude",
                  "value": 2.4000000953674316
                }
              ],
              "value": 5.0,
              "key": "_ABILITY_FallingAnthem_UseCamera",
              "useLimitRange": true,
              "maxValue": 1.0,
              "minValue": 0.0
            },
            {
              "$type": "SetAnimatorFloat",
              "predicates": [
                {
                  "$type": "ByTargetAltitude",
                  "logic": "LesserOrEqual",
                  "value": 2.4000000953674316
                }
              ],
              "floatID": "FallingAnthem_UseCamera",
              "value": 0.0
            },
            {
              "$type": "SetAnimatorFloat",
              "predicates": [
                {
                  "$type": "ByTargetAltitude",
                  "value": 2.4000000953674316
                }
              ],
              "floatID": "FallingAnthem_UseCamera",
              "value": 1.0
            }
          ],
          "onRemoved": [
            {
              "$type": "SetAnimatorFloat",
              "floatID": "FallingAnthem_UseCamera",
              "value": 0.0
            },
            {
              "$type": "AddGlobalValue",
              "value": 0.0,
              "key": "_ABILITY_FallingAnthem_UseCamera",
              "useLimitRange": true,
              "maxValue": 0.0,
              "minValue": 0.0
            }
          ]
        },
        "FallingAnthem_OverHead_Camera": {
          "modifierName": "",
          "elementDurability": 100.0,
          "onAdded": [
            {
              "$type": "AvatarCameraParam",
              "predicates": [
                {
                  "$type": "ByAnimatorFloat",
                  "logic": "Equal",
                  "value": 1.0,
                  "parameter": "FallingAnthem_UseCamera"
                }
              ],
              "cameraParam": {
                "forceRadius": 4.5,
                "forceRadiusDuration": 0.20000000298023224,
                "shouldKeepForceRadius": true
              }
            }
          ]
        },
        "FallingAnthem_OverHead_Camera_Remover": {
          "modifierName": "",
          "elementDurability": 100.0,
          "onAdded": [
            {
              "$type": "AvatarExitCameraShot",
              "shieldHP": true
            }
          ]
        },
        "FallingAnthem_Landed_Camera": {
          "modifierName": "",
          "elementDurability": 100.0,
          "onAdded": [
            {
              "$type": "AvatarCameraParam",
              "predicates": [
                {
                  "$type": "ByAnimatorFloat",
                  "logic": "Equal",
                  "value": 1.0,
                  "parameter": "FallingAnthem_UseCamera"
                }
              ],
              "cameraParam": {
                "forceRadius": 6.0,
                "forceRadiusDuration": 0.10000000149011612,
                "shouldKeepForceRadius": true
              }
            }
          ]
        },
        "FallingAnthem_ClearVelocityForce": {
          "modifierName": "",
          "elementDurability": 100.0,
          "onAdded": [
            {
              "$type": "RemoveVelocityForce",
              "forces": ["RushMoveType", "InertiaType"]
            }
          ]
        },
        "FallingAnthem_ClearVelocityForce_AS": {
          "modifierName": "",
          "elementDurability": 100.0,
          "onAdded": [
            {
              "$type": "RemoveVelocityForce",
              "forces": ["RushMoveType", "InertiaType"]
            }
          ]
        }
      },
      "onAbilityStart": [
        {
          "$type": "TriggerAttackEvent",
          "predicates": [
            {
              "$type": "ByTargetGlobalValue",
              "key": "_ABILITY_FallingAnthem_UseCamera",
              "value": 0.0,
              "forceByCaster": true,
              "compareType": "NoneOrEqual"
            }
          ],
          "attackEvent": {
            "attackPattern": {
              "$type": "ConfigAttackCircle",
              "triggerType": "TriggerNoRepeat",
              "born": {
                "$type": "ConfigBornByTarget",
                "offset": {
                  "x": 0.0,
                  "y": -0.5,
                  "z": 1.0
                }
              },
              "height": 2.0,
              "radius": 3.0
            },
            "attackInfo": {
              "attackTag": "FallingAttack",
              "attenuationTag": "",
              "attenuationGroup": "default",
              "attackProperty": {
                "actorGrassSubHurtDelta": "FallingAnthem_Normal_Rank_1_Damage",
                "actorWindSubHurtDelta": 0.0,
                "elementDurability": 25.0,
                "overrideByWeapon": true,
                "strikeType": "Blunt",
                "enBreak": 100.0,
                "attackType": "Melee",
                "GLKMCMDJBIK": 0.0
              },
              "hitPattern": {
                "onHitEffectName": "none",
                "hitImpulseY": "",
                "hitImpulseType": "LV4",
                "hitHaltTimeScale": 0.10000000149011612
              },
              "forceCameraShake": true,
              "cameraShake": {
                "shakeType": "CustomVector",
                "shakeRange": 0.23999999463558197,
                "shakeTime": 0.11999999731779099,
                "shakeDistance": 30.0,
                "shakeDir": {
                  "y": 1.0
                },
                "extension": {
                  "baseCycle": 0.23999999463558197,
                  "cycleDamping": 0.0,
                  "rangeAttenuation": 0.30000001192092896
                }
              }
            }
          },
          "targetType": "Enemy"
        },
        {
          "$type": "TriggerAttackEvent",
          "predicates": [
            {
              "$type": "ByTargetGlobalValue",
              "key": "_ABILITY_FallingAnthem_UseCamera",
              "value": 1.0,
              "forceByCaster": true
            }
          ],
          "attackEvent": {
            "attackPattern": {
              "$type": "ConfigAttackCircle",
              "triggerType": "TriggerNoRepeat",
              "born": {
                "$type": "ConfigBornByTarget",
                "offset": {
                  "x": 0.0,
                  "y": -0.5,
                  "z": 1.0
                }
              },
              "height": 2.0,
              "radius": 5.0
            },
            "attackInfo": {
              "attackTag": "FallingAttack",
              "attenuationTag": "",
              "attenuationGroup": "default",
              "attackProperty": {
                "actorGrassSubHurtDelta": "FallingAnthem_Normal_Rank_2_Damage",
                "actorWindSubHurtDelta": 0.0,
                "elementDurability": 25.0,
                "overrideByWeapon": true,
                "strikeType": "Blunt",
                "enBreak": 150.0,
                "attackType": "Melee",
                "GLKMCMDJBIK": 0.0
              },
              "hitPattern": {
                "onHitEffectName": "none",
                "hitImpulseY": "",
                "hitImpulseType": "LV7",
                "hitHaltTimeScale": 0.10000000149011612
              },
              "forceCameraShake": true,
              "cameraShake": {
                "shakeType": "CustomVector",
                "shakeRange": 0.5,
                "shakeTime": 0.20000000298023224,
                "shakeDistance": 30.0,
                "shakeDir": {
                  "y": 1.0,
                  "z": 1.0
                },
                "extension": {
                  "baseCycle": 0.4000000059604645,
                  "cycleDamping": 0.0,
                  "rangeAttenuation": 0.30000001192092896
                }
              }
            }
          },
          "targetType": "Enemy"
        },
        {
          "$type": "FireEffect",
          "predicates": [
            {
              "$type": "ByTargetGlobalValue",
              "key": "_ABILITY_FallingAnthem_UseCamera",
              "value": 0.0,
              "forceByCaster": true,
              "compareType": "NoneOrEqual"
            }
          ],
          "rotationDampTime": "Eff_Avatar_Sword_FallAnthem_Strike_01",
          "PPPDJGDDOGD": 1.0,
          "AJDILHJFNKE": -1.0
        },
        {
          "$type": "FireEffect",
          "predicates": [
            {
              "$type": "ByTargetGlobalValue",
              "key": "_ABILITY_FallingAnthem_UseCamera",
              "value": 1.0,
              "forceByCaster": true
            }
          ],
          "rotationDampTime": "Eff_Avatar_Sword_FallAnthem_Strike_02",
          "PPPDJGDDOGD": 1.0,
          "AJDILHJFNKE": -1.0
        }
      ]
    }
  }
]
