[
  {
    "Default": {
      "$type": "ConfigAbility",
      "abilityName": "Avatar_PlayerBoy_ExtraAttack_Electric",
      "abilityMixins": [
        {
          "$type": "ButtonHoldChargeMixin",
          "skillID": 100546,
          "chargeTime": 0.11999999731779099,
          "secondChargeTime": 0.20000000298023224,
          "onBeginUncharged": [
            {
              "$type": "SetAnimatorTrigger",
              "triggerID": "DoSkill"
            },
            {
              "$type": "SetAnimatorInt",
              "predicates": [
                {
                  "$type": "ByAny",
                  "predicates": [
                    {
                      "$type": "ByAnimatorInt",
                      "logic": "Equal",
                      "value": 0,
                      "parameter": "ComboCount"
                    },
                    {
                      "$type": "ByAnimatorInt",
                      "logic": "Equal",
                      "value": 5,
                      "parameter": "ComboCount"
                    }
                  ]
                }
              ],
              "intID": "SkillID",
              "value": 99.0
            },
            {
              "$type": "SetAnimatorBool",
              "boolID": "IsCharging"
            }
          ],
          "onReleaseUncharged": [
            {
              "$type": "SetAnimatorInt",
              "intID": "SkillID",
              "value": 1.0
            }
          ],
          "onBeginCharged": [
            {
              "$type": "SetAnimatorBool",
              "boolID": "IsCharging",
              "value": true
            }
          ],
          "onReleaseCharged": [
            {
              "$type": "SetAnimatorBool",
              "boolID": "IsCharging"
            },
            {
              "$type": "SetAnimatorInt",
              "intID": "SkillID",
              "value": 1.0
            }
          ],
          "onBeginSecondCharged": [
            {
              "$type": "SetAnimatorTrigger",
              "predicates": [
                {
                  "$type": "ByLocalAvatarStamina",
                  "logic": "GreaterOrEqual",
                  "stamina": [
                    "ExtraAttack_Sword_Stamina_Cost",
                    "Flexible_Stamina",
                    "ADD"
                  ]
                }
              ],
              "triggerID": "DoSkill"
            },
            {
              "$type": "SetAnimatorInt",
              "predicates": [
                {
                  "$type": "ByLocalAvatarStamina",
                  "logic": "GreaterOrEqual",
                  "stamina": [
                    "ExtraAttack_Sword_Stamina_Cost",
                    "Flexible_Stamina",
                    "ADD"
                  ]
                }
              ],
              "intID": "SkillID",
              "value": 6.0
            },
            {
              "$type": "SetAnimatorBool",
              "boolID": "IsCharging"
            }
          ],
          "chargeStateIDs": [
            "Attack01",
            "Attack02",
            "Attack03",
            "Attack04",
            "Run"
          ]
        },
        {
          "$type": "AttachToStateIDMixin",
          "stateIDs": ["ExtraAttack"],
          "modifierName": "ExtraAttack_StaminaCost",
          "DGFCLAIDIFI": ""
        }
      ],
      "abilitySpecials": {
        "ExtraAttack_Sword_Stamina_Cost": 0.0,
        "Flexible_Stamina": -2.0
      },
      "modifiers": {
        "ExtraAttack_StaminaCost": {
          "modifierName": "",
          "elementDurability": 100.0,
          "onAdded": [
            {
              "$type": "AvatarSkillStart",
              "skillID": 10001,
              "amountByTargetCurrentHPRatio": 1.0,
              "costStaminaRatio": "ExtraAttack_Sword_Stamina_Cost"
            }
          ]
        }
      },
      "isDynamicAbility": true
    }
  },
  {
    "Default": {
      "$type": "ConfigAbility",
      "abilityName": "Avatar_PlayerGirl_ExtraAttack_Electric",
      "abilityMixins": [
        {
          "$type": "ButtonHoldChargeMixin",
          "skillID": 100556,
          "chargeTime": 0.11999999731779099,
          "secondChargeTime": 0.20000000298023224,
          "onBeginUncharged": [
            {
              "$type": "SetAnimatorTrigger",
              "triggerID": "DoSkill"
            },
            {
              "$type": "SetAnimatorInt",
              "predicates": [
                {
                  "$type": "ByAny",
                  "predicates": [
                    {
                      "$type": "ByAnimatorInt",
                      "logic": "Equal",
                      "value": 0,
                      "parameter": "ComboCount"
                    },
                    {
                      "$type": "ByAnimatorInt",
                      "logic": "Equal",
                      "value": 5,
                      "parameter": "ComboCount"
                    }
                  ]
                }
              ],
              "intID": "SkillID",
              "value": 99.0
            },
            {
              "$type": "SetAnimatorBool",
              "boolID": "IsCharging"
            }
          ],
          "onReleaseUncharged": [
            {
              "$type": "SetAnimatorInt",
              "intID": "SkillID",
              "value": 1.0
            }
          ],
          "onBeginCharged": [
            {
              "$type": "SetAnimatorBool",
              "boolID": "IsCharging",
              "value": true
            }
          ],
          "onReleaseCharged": [
            {
              "$type": "SetAnimatorBool",
              "boolID": "IsCharging"
            },
            {
              "$type": "SetAnimatorInt",
              "intID": "SkillID",
              "value": 1.0
            }
          ],
          "onBeginSecondCharged": [
            {
              "$type": "SetAnimatorTrigger",
              "predicates": [
                {
                  "$type": "ByLocalAvatarStamina",
                  "logic": "GreaterOrEqual",
                  "stamina": [
                    "ExtraAttack_Sword_Stamina_Cost",
                    "Flexible_Stamina",
                    "ADD"
                  ]
                }
              ],
              "triggerID": "DoSkill"
            },
            {
              "$type": "SetAnimatorInt",
              "predicates": [
                {
                  "$type": "ByLocalAvatarStamina",
                  "logic": "GreaterOrEqual",
                  "stamina": [
                    "ExtraAttack_Sword_Stamina_Cost",
                    "Flexible_Stamina",
                    "ADD"
                  ]
                }
              ],
              "intID": "SkillID",
              "value": 6.0
            },
            {
              "$type": "SetAnimatorBool",
              "boolID": "IsCharging"
            }
          ],
          "chargeStateIDs": [
            "Attack01",
            "Attack02",
            "Attack03",
            "Attack04",
            "Run"
          ]
        },
        {
          "$type": "AttachToStateIDMixin",
          "stateIDs": ["ExtraAttack"],
          "modifierName": "ExtraAttack_StaminaCost",
          "DGFCLAIDIFI": ""
        }
      ],
      "abilitySpecials": {
        "ExtraAttack_Sword_Stamina_Cost": 0.0,
        "Flexible_Stamina": -2.0
      },
      "modifiers": {
        "ExtraAttack_StaminaCost": {
          "modifierName": "",
          "elementDurability": 100.0,
          "onAdded": [
            {
              "$type": "AvatarSkillStart",
              "skillID": 10001,
              "amountByTargetCurrentHPRatio": 1.0,
              "costStaminaRatio": "ExtraAttack_Sword_Stamina_Cost"
            }
          ]
        }
      },
      "isDynamicAbility": true
    }
  },
  {
    "Default": {
      "$type": "ConfigAbility",
      "abilityName": "Avatar_PlayerGirl_Electric_ElementalBurst_WeaponDisplay",
      "abilityMixins": [
        {
          "$type": "AttachToNormalizedTimeMixin",
          "stateID": "Player_Electric_ElementalBurst_AS",
          "modifierName": "Player_Electric_ElementalBurst_HideWeapon",
          "normalizeEnd": 0.2199999988079071,
          "DGFCLAIDIFI": ""
        }
      ],
      "modifiers": {
        "Player_Electric_ElementalBurst_HideWeapon": {
          "modifierName": "",
          "elementDurability": 100.0,
          "onAdded": [
            {
              "$type": "TriggerHideWeapon",
              "partNames": ["equip01", "equip02", "sheathPoint"]
            }
          ],
          "onRemoved": [
            {
              "$type": "TriggerHideWeapon",
              "shieldHP": true,
              "KGGEDGKGLDD": true,
              "partNames": ["equip01", "equip02", "sheathPoint"]
            }
          ]
        }
      },
      "isDynamicAbility": true
    }
  },
  {
    "Default": {
      "$type": "ConfigAbility",
      "abilityName": "Avatar_PlayerBoy_Electric_ElementalBurst_WeaponDisplay",
      "abilityMixins": [
        {
          "$type": "AttachToNormalizedTimeMixin",
          "stateID": "Player_Electric_ElementalBurst_AS",
          "modifierName": "Player_Electric_ElementalBurst_HideWeapon",
          "normalizeEnd": 0.2199999988079071,
          "DGFCLAIDIFI": ""
        }
      ],
      "modifiers": {
        "Player_Electric_ElementalBurst_HideWeapon": {
          "modifierName": "",
          "elementDurability": 100.0,
          "onAdded": [
            {
              "$type": "TriggerHideWeapon",
              "partNames": ["equip01", "equip02", "sheathPoint"]
            }
          ],
          "onRemoved": [
            {
              "$type": "TriggerHideWeapon",
              "shieldHP": true,
              "KGGEDGKGLDD": true,
              "partNames": ["equip01", "equip02", "sheathPoint"]
            }
          ]
        }
      },
      "isDynamicAbility": true
    }
  },
  {
    "Default": {
      "$type": "ConfigAbility",
      "abilityName": "Avatar_Player_Electric_ElementalBurst_Initiate",
      "abilityMixins": [
        {
          "$type": "AttachToNormalizedTimeMixin",
          "stateID": "Player_Electric_ElementalBurst",
          "modifierName": "Player_Electric_ElementalBurst_VFX",
          "DGFCLAIDIFI": ""
        },
        {
          "$type": "AttachToStateIDMixin",
          "stateIDs": ["Player_Electric_ElementalBurst"],
          "modifierName": "Player_Electric_ElementalBurst_Weather",
          "DGFCLAIDIFI": ""
        },
        {
          "$type": "AttachToStateIDMixin",
          "stateIDs": ["Player_Electric_ElementalBurst"],
          "modifierName": "Player_Electric_ElementalBurst_Invincible",
          "DGFCLAIDIFI": ""
        }
      ],
      "abilitySpecials": {
        "ElementalBurst_InitiateDamage": 0.0
      },
      "modifiers": {
        "Player_Electric_ElementalBurst_Invincible": {
          "modifierName": "",
          "elementDurability": 100.0,
          "state": "Invincible",
          "onAdded": [
            {
              "$type": "AttachAbilityStateResistance",
              "resistanceListID": 11002
            }
          ]
        },
        "Player_Electric_ElementalBurst_VFX": {
          "modifierName": "",
          "elementDurability": 100.0,
          "onAdded": [
            {
              "$type": "FireEffect",
              "rotationDampTime": "Eff_Player_Electric_ElementalBurst_Initiate",
              "PPPDJGDDOGD": 1.0,
              "AJDILHJFNKE": -1.0
            },
            {
              "$type": "KillGadget",
              "gadgetInfo": {
                "configID": 41044001
              }
            }
          ]
        },
        "Player_Electric_ElementalBurst_Weather": {
          "modifierName": "",
          "elementDurability": 100.0,
          "modifierMixins": [
            {
              "$type": "TriggerWeatherMixin",
              "damageRatio": "Skill",
              "weatherPattern": "Weather_Player_Electric_ElementalBurst",
              "transDuration": 1.0,
              "duration": 2.0
            }
          ]
        }
      },
      "onAbilityStart": [
        {
          "$type": "TriggerAttackEvent",
          "attackEvent": {
            "attackPattern": {
              "$type": "ConfigAttackSphere",
              "triggerType": "TriggerNoRepeat",
              "radius": 5.0
            },
            "attackInfo": {
              "attackTag": "Elemental_Burst",
              "attenuationTag": "",
              "attenuationGroup": "default",
              "attackProperty": {
                "actorGrassSubHurtDelta": "ElementalBurst_InitiateDamage",
                "actorWindSubHurtDelta": 0.0,
                "elementType": "Electric",
                "elementRank": 3.0,
                "elementDurability": 25.0,
                "strikeType": "Blunt",
                "enBreak": 150.0,
                "GLKMCMDJBIK": 0.0
              },
              "hitPattern": {
                "onHitEffectName": "default",
                "hitImpulseY": "",
                "hitImpulseType": "LV3",
                "retreatType": "ByHitDirection",
                "hitHaltTimeScale": 0.05000000074505806
              },
              "forceCameraShake": true,
              "cameraShake": {
                "shakeRange": 0.6000000238418579,
                "shakeTime": 0.36000001430511475,
                "shakeDistance": 30.0,
                "extension": {
                  "baseCycle": 0.07999999821186066,
                  "cycleDamping": -0.03999999910593033
                }
              }
            }
          },
          "targetType": "Enemy"
        },
        {
          "$type": "ActCameraRadialBlur",
          "cameraRadialBlur": {
            "power": 1.0,
            "blurTime": 0.4000000059604645,
            "fadeTime": 0.20000000298023224
          }
        },
        {
          "$type": "AvatarSkillStart",
          "skillID": 10605,
          "amountByTargetCurrentHPRatio": 1.0,
          "costStaminaRatio": 1.0
        },
        {
          "$type": "FireEffect",
          "rotationDampTime": "Eff_Player_Electric_ElementalBurst_Burst",
          "PPPDJGDDOGD": 1.0,
          "AJDILHJFNKE": -1.0
        },
        {
          "$type": "CreateGadget",
          "lifeByOwnerIsAlive": true,
          "born": {
            "$type": "ConfigBornByTarget",
            "offset": {
              "x": 0.0,
              "y": 0.0,
              "z": 0.0
            }
          },
          "gadgetID": 41044001,
          "campID": 1001,
          "campTargetType": "Enemy"
        }
      ],
      "isDynamicAbility": true
    }
  },
  {
    "Default": {
      "$type": "ConfigAbility",
      "abilityName": "Avatar_Player_Electric_ElementalBurst_CameraExit",
      "abilityMixins": [
        {
          "$type": "AttachToStateIDMixin",
          "stateIDs": ["Player_Electric_ElementalBurst"],
          "modifierName": "ExitCamera",
          "DGFCLAIDIFI": ""
        }
      ],
      "modifiers": {
        "ExitCamera": {
          "modifierName": "",
          "elementDurability": 100.0,
          "onRemoved": [
            {
              "$type": "AvatarExitCameraShot",
              "shieldHP": true
            },
            {
              "$type": "AvatarCameraParam",
              "shieldHP": true,
              "cameraParam": {
                "forceRadius": 6.0,
                "forceRadiusDuration": 0.0,
                "shouldKeepForceRadius": true
              }
            }
          ]
        }
      },
      "isDynamicAbility": true
    }
  },
  {
    "Default": {
      "$type": "ConfigAbility",
      "abilityName": "Avatar_Player_Electric_ElementalBurst_Bullet",
      "abilitySpecials": {
        "ElementalBurst_Duration": 0.0,
        "ElementalBurst_ElecResDown_Duration": 0.0,
        "ElementalBurst_ElecResDown_ElecSubHurtDelta": 0.0,
        "ElementalBurst_ReviveEnergy_Default": 0.0,
        "ElementalBurst_ReviveEnergy_Enhanced": 0.0,
        "ElementalBurst_ThunderAttack_Default_Damage": 0.0,
        "ElementalBurst_ThunderAttack_Enhanced_Damage_Percentage": 0.0
      },
      "modifiers": {
        "Player_Electric_ElementalBurst_Bullet_1_VFX": {
          "modifierName": "",
          "elementDurability": 100.0,
          "onAdded": [
            {
              "$type": "AttachEffect",
              "rotationDampTime": "Eff_Player_Electric_ElementalBurst_Magatama_1",
              "born": {
                "$type": "ConfigBornByAttachPoint",
                "offset": {
                  "x": 0.0,
                  "y": 0.0,
                  "z": 0.0
                },
                "direction": {
                  "$type": "ConfigDirectionByDefault",
                  "angleOffset": {
                    "x": 0.0,
                    "y": 0.0,
                    "z": 0.0
                  }
                },
                "attachPointName": "Ponit1"
              },
              "PPPDJGDDOGD": 1.0,
              "AJDILHJFNKE": -1.0
            }
          ]
        },
        "Player_Electric_ElementalBurst_Bullet_2_VFX": {
          "modifierName": "",
          "elementDurability": 100.0,
          "onAdded": [
            {
              "$type": "AttachEffect",
              "rotationDampTime": "Eff_Player_Electric_ElementalBurst_Magatama_2",
              "born": {
                "$type": "ConfigBornByAttachPoint",
                "offset": {
                  "x": 0.0,
                  "y": 0.0,
                  "z": 0.0
                },
                "direction": {
                  "$type": "ConfigDirectionByDefault",
                  "angleOffset": {
                    "x": 0.0,
                    "y": 0.0,
                    "z": 0.0
                  }
                },
                "attachPointName": "Ponit2"
              },
              "PPPDJGDDOGD": 1.0,
              "AJDILHJFNKE": -1.0
            }
          ]
        },
        "Player_Electric_ElementalBurst_Bullet_3_VFX": {
          "modifierName": "",
          "elementDurability": 100.0,
          "onAdded": [
            {
              "$type": "AttachEffect",
              "rotationDampTime": "Eff_Player_Electric_ElementalBurst_Magatama_3",
              "born": {
                "$type": "ConfigBornByAttachPoint",
                "offset": {
                  "x": 0.0,
                  "y": 0.0,
                  "z": 0.0
                },
                "direction": {
                  "$type": "ConfigDirectionByDefault",
                  "angleOffset": {
                    "x": 0.0,
                    "y": 0.0,
                    "z": 0.0
                  }
                },
                "attachPointName": "Ponit3"
              },
              "PPPDJGDDOGD": 1.0,
              "AJDILHJFNKE": -1.0
            }
          ]
        },
        "UNIQUE_Player_Electric_ElementalBurst_Handler": {
          "modifierName": "",
          "forceTriggerWhenChangeAuthority": true,
          "duration": "ElementalBurst_Duration",
          "elementDurability": 100.0,
          "modifierMixins": [
            {
              "$type": "CurLocalAvatarMixin",
              "modifierName": "UNIQUE_Player_Electric_ElementalBurst_Detect"
            },
            {
              "$type": "AttachModifierToSelfGlobalValueMixin",
              "globalValueKey": "_ABILITY_Player_Electric_ElementalBurst_Counter",
              "gvInTalk": 0.0,
              "valueSteps": [-0.5, 0.5, 1.5, 2.5, 3.5, 4.5],
              "modifierNameSteps": [
                "Blank",
                "Blank",
                "Blank",
                "Blank",
                "Blank"
              ],
              "actionQueues": [
                [],
                [],
                [
                  {
                    "$type": "Predicated",
                    "shieldHP": true,
                    "targetPredicates": [
                      {
                        "$type": "ByUnlockTalentParam",
                        "talentParam": "Player_Electric_ElementalBurst_ThunderAttack_Enhanced"
                      }
                    ],
                    "failActions": [
                      {
                        "$type": "SetGlobalValue",
                        "shieldHP": true,
                        "value": 0.0,
                        "key": "_ABILITY_Player_Electric_ElementalBurst_Counter",
                        "maxValue": 0.0,
                        "minValue": 0.0
                      }
                    ]
                  }
                ],
                [
                  {
                    "$type": "SetGlobalValue",
                    "shieldHP": true,
                    "value": 0.0,
                    "key": "_ABILITY_Player_Electric_ElementalBurst_Counter",
                    "maxValue": 0.0,
                    "minValue": 0.0
                  }
                ],
                []
              ]
            }
          ],
          "onAdded": [
            {
              "$type": "AttachModifier",
              "predicates": [
                {
                  "$type": "ByUnlockTalentParam",
                  "talentParam": "Player_Electric_ElementalBurst_ElecResDown"
                }
              ],
              "modifierName": "Player_Electric_ElementalBurst_ElecResDown"
            },
            {
              "$type": "SetGlobalValue",
              "target": "Caster",
              "shieldHP": true,
              "value": 1.0,
              "key": "_ABILITY_Player_Electric_ElementalBurst_CD",
              "maxValue": 0.0,
              "minValue": 0.0
            }
          ],
          "onRemoved": [
            {
              "$type": "SetGlobalValue",
              "shieldHP": true,
              "value": 0.0,
              "key": "_ABILITY_Player_Electric_ElementalBurst_Counter",
              "maxValue": 0.0,
              "minValue": 0.0
            }
          ]
        },
        "Blank": {
          "modifierName": "",
          "elementDurability": 100.0
        },
        "Player_Electric_ElementalBurst_ElecResDown": {
          "modifierName": "",
          "elementDurability": 100.0,
          "onAttackLanded": [
            {
              "$type": "Predicated",
              "target": "Target",
              "shieldHP": true,
              "targetPredicates": [
                {
                  "$type": "ByEntityTypes",
                  "entityTypes": ["Monster"]
                },
                {
                  "$type": "ByTargetGlobalValue",
                  "key": "_ANIMAL_ENTITY_TYPE",
                  "value": 0.0,
                  "compareType": "NoneOrEqual"
                },
                {
                  "$type": "ByAttackTags",
                  "attackTags": ["Elemental_Burst"]
                },
                {
                  "$type": "ByHitStrikeType"
                }
              ],
              "successActions": [
                {
                  "$type": "RemoveUniqueModifier",
                  "target": "Target",
                  "shieldHP": true,
                  "modifierName": "UNIQUE_Player_Electric_ElementalBurst_ElecResDown"
                },
                {
                  "$type": "ApplyModifier",
                  "target": "Target",
                  "shieldHP": true,
                  "modifierName": "UNIQUE_Player_Electric_ElementalBurst_ElecResDown"
                }
              ]
            }
          ]
        },
        "UNIQUE_Player_Electric_ElementalBurst_ElecResDown": {
          "stacking": "Unique",
          "modifierName": "",
          "forceTriggerWhenChangeAuthority": true,
          "duration": "ElementalBurst_ElecResDown_Duration",
          "elementDurability": 100.0,
          "properties": {
            "Actor_ElecSubHurtDelta": "ElementalBurst_ElecResDown_ElecSubHurtDelta"
          },
          "state": "DefenseDown",
          "isLimitedProperties": true
        },
        "UNIQUE_Player_Electric_ElementalBurst_Detect": {
          "modifierName": "",
          "forceTriggerWhenChangeAuthority": true,
          "elementDurability": 100.0,
          "onAttackLanded": [
            {
              "$type": "Predicated",
              "target": "Other",
              "targetPredicates": [
                {
                  "$type": "ByEntityTypes",
                  "entityTypes": ["Monster", "Gadget"]
                },
                {
                  "$type": "ByTargetGlobalValue",
                  "key": "_ANIMAL_ENTITY_TYPE",
                  "value": 0.0,
                  "compareType": "NoneOrEqual"
                },
                {
                  "$type": "ByAttackTags",
                  "attackTags": [
                    "NormalAttack_01",
                    "NormalAttack_02",
                    "NormalAttack_03",
                    "NormalAttack_04",
                    "NormalAttack_05",
                    "NormalAttack_06",
                    "ExtraAttack"
                  ]
                },
                {
                  "$type": "ByTargetGlobalValue",
                  "target": "Caster",
                  "key": "_ABILITY_Player_Electric_ElementalBurst_CD",
                  "value": 1.0,
                  "forceByCaster": true
                },
                {
                  "$type": "ByTargetPositionToSelfPosition",
                  "logic": "LesserOrEqual",
                  "value": 15.0,
                  "DDALGNLEHOD": ""
                }
              ],
              "successActions": [
                {
                  "$type": "SetGlobalPos",
                  "target": "SelfAttackTarget",
                  "key": "_ABILITY_Player_Electric_ElementalBurst_Pos",
                  "born": {
                    "$type": "ConfigBornBySelectedPoint",
                    "offset": {
                      "x": 0.0,
                      "y": 0.0,
                      "z": 0.0
                    }
                  },
                  "setTarget": false
                },
                {
                  "$type": "ApplyModifier",
                  "target": "Caster",
                  "shieldHP": true,
                  "predicates": [
                    {
                      "$type": "ByTargetGlobalValue",
                      "target": "Caster",
                      "key": "_ABILITY_Player_Electric_ElementalBurst_Counter",
                      "value": 1.0,
                      "compareType": "LessAndEqual"
                    }
                  ],
                  "modifierName": "Player_Electric_ElementalBurst_ThunderAttack_Default"
                },
                {
                  "$type": "ApplyModifier",
                  "shieldHP": true,
                  "predicates": [
                    {
                      "$type": "ByTargetGlobalValue",
                      "target": "Caster",
                      "key": "_ABILITY_Player_Electric_ElementalBurst_Counter",
                      "value": 1.0,
                      "compareType": "LessAndEqual"
                    }
                  ],
                  "modifierName": "Player_Electric_ElementalBurst_Energy_Default"
                },
                {
                  "$type": "ApplyModifier",
                  "target": "Caster",
                  "shieldHP": true,
                  "predicates": [
                    {
                      "$type": "ByTargetGlobalValue",
                      "target": "Caster",
                      "key": "_ABILITY_Player_Electric_ElementalBurst_Counter",
                      "value": 2.0
                    }
                  ],
                  "modifierName": "Player_Electric_ElementalBurst_ThunderAttack_Enhanced"
                },
                {
                  "$type": "ApplyModifier",
                  "shieldHP": true,
                  "predicates": [
                    {
                      "$type": "ByTargetGlobalValue",
                      "target": "Caster",
                      "key": "_ABILITY_Player_Electric_ElementalBurst_Counter",
                      "value": 2.0
                    }
                  ],
                  "modifierName": "Player_Electric_ElementalBurst_Energy_Extra"
                },
                {
                  "$type": "ApplyModifier",
                  "target": "Caster",
                  "shieldHP": true,
                  "modifierName": "Player_Electric_ElementalBurst_Count"
                },
                {
                  "$type": "SetGlobalValue",
                  "target": "Caster",
                  "shieldHP": true,
                  "value": 0.0,
                  "key": "_ABILITY_Player_Electric_ElementalBurst_CD",
                  "maxValue": 0.0,
                  "minValue": 0.0
                }
              ]
            }
          ]
        },
        "Player_Electric_ElementalBurst_Count": {
          "stacking": "Unique",
          "modifierName": "",
          "duration": 0.5,
          "elementDurability": 100.0,
          "onAdded": [
            {
              "$type": "AddGlobalValue",
              "target": "Caster",
              "shieldHP": true,
              "value": 1.0,
              "key": "_ABILITY_Player_Electric_ElementalBurst_Counter",
              "useLimitRange": true,
              "maxValue": 3.0,
              "minValue": 0.0
            }
          ],
          "onRemoved": [
            {
              "$type": "SetGlobalValue",
              "target": "Caster",
              "shieldHP": true,
              "value": 1.0,
              "key": "_ABILITY_Player_Electric_ElementalBurst_CD",
              "maxValue": 0.0,
              "minValue": 0.0
            }
          ]
        },
        "Player_Electric_ElementalBurst_Energy_Default": {
          "stacking": "Unique",
          "modifierName": "",
          "duration": 0.20000000298023224,
          "elementDurability": 100.0,
          "onAdded": [
            {
              "$type": "ReviveElemEnergy",
              "value": "ElementalBurst_ReviveEnergy_Default"
            }
          ]
        },
        "Player_Electric_ElementalBurst_Energy_Extra": {
          "stacking": "Unique",
          "modifierName": "",
          "duration": 0.20000000298023224,
          "elementDurability": 100.0,
          "onAdded": [
            {
              "$type": "ReviveElemEnergy",
              "value": [
                "ElementalBurst_ReviveEnergy_Default",
                "ElementalBurst_ReviveEnergy_Enhanced",
                "ADD"
              ]
            }
          ]
        },
        "Player_Electric_ElementalBurst_ThunderAttack_Default": {
          "modifierName": "",
          "duration": 0.20000000298023224,
          "elementDurability": 100.0,
          "onAdded": [
            {
              "$type": "FireEffect",
              "rotationDampTime": "Eff_Player_Electric_ElementalBurst_Thunder",
              "born": {
                "$type": "ConfigBornByGlobalValue",
                "positionKey": "_ABILITY_Player_Electric_ElementalBurst_Pos",
                "directionKey": ""
              },
              "PPPDJGDDOGD": 1.0,
              "AJDILHJFNKE": -1.0
            },
            {
              "$type": "TriggerAttackEvent",
              "target": "Caster",
              "attackEvent": {
                "attackPattern": {
                  "$type": "ConfigAttackSphere",
                  "triggerType": "TriggerNoRepeat",
                  "ignoreMassive": true,
                  "born": {
                    "$type": "ConfigBornByGlobalValue",
                    "positionKey": "_ABILITY_Player_Electric_ElementalBurst_Pos",
                    "directionKey": ""
                  },
                  "radius": 2.0
                },
                "attackInfo": {
                  "attackTag": "Elemental_Burst",
                  "attenuationTag": "Elemental_Burst",
                  "attenuationGroup": "default",
                  "attackProperty": {
                    "actorGrassSubHurtDelta": "ElementalBurst_ThunderAttack_Default_Damage",
                    "actorWindSubHurtDelta": 0.0,
                    "elementType": "Electric",
                    "elementRank": 1.5,
                    "elementDurability": 25.0,
                    "strikeType": "Default",
                    "enBreak": 50.0,
                    "GLKMCMDJBIK": 0.0
                  },
                  "hitPattern": {
                    "onHitEffectName": "default",
                    "hitImpulseY": "",
                    "hitImpulseType": "LV2",
                    "hitHaltTimeScale": 0.05000000074505806
                  },
                  "canBeModifiedBy": "OriginOwner"
                }
              },
              "targetType": "Enemy"
            }
          ]
        },
        "Player_Electric_ElementalBurst_ThunderAttack_Enhanced": {
          "modifierName": "",
          "duration": 0.20000000298023224,
          "elementDurability": 100.0,
          "onAdded": [
            {
              "$type": "FireEffect",
              "rotationDampTime": "Eff_Player_Electric_ElementalBurst_Thunder_Enhanced",
              "born": {
                "$type": "ConfigBornByGlobalValue",
                "positionKey": "_ABILITY_Player_Electric_ElementalBurst_Pos",
                "directionKey": ""
              },
              "PPPDJGDDOGD": 1.0,
              "AJDILHJFNKE": -1.0
            },
            {
              "$type": "TriggerAttackEvent",
              "target": "Caster",
              "attackEvent": {
                "attackPattern": {
                  "$type": "ConfigAttackSphere",
                  "triggerType": "TriggerNoRepeat",
                  "ignoreMassive": true,
                  "born": {
                    "$type": "ConfigBornByGlobalValue",
                    "positionKey": "_ABILITY_Player_Electric_ElementalBurst_Pos",
                    "directionKey": ""
                  },
                  "radius": 2.5
                },
                "attackInfo": {
                  "attackTag": "Elemental_Burst",
                  "attenuationTag": "Elemental_Burst",
                  "attenuationGroup": "default",
                  "attackProperty": {
                    "actorGrassSubHurtDelta": [
                      "ElementalBurst_ThunderAttack_Enhanced_Damage_Percentage",
                      "ElementalBurst_ThunderAttack_Default_Damage",
                      "MUL"
                    ],
                    "actorWindSubHurtDelta": 0.0,
                    "elementType": "Electric",
                    "elementRank": 1.5,
                    "elementDurability": 25.0,
                    "strikeType": "Default",
                    "enBreak": 50.0,
                    "GLKMCMDJBIK": 0.0
                  },
                  "hitPattern": {
                    "onHitEffectName": "default",
                    "hitImpulseY": "",
                    "hitImpulseType": "LV2",
                    "hitHaltTimeScale": 0.05000000074505806
                  },
                  "canBeModifiedBy": "OriginOwner"
                }
              },
              "targetType": "Enemy"
            }
          ]
        }
      },
      "onAdded": [
        {
          "$type": "ApplyModifier",
          "modifierName": "Player_Electric_ElementalBurst_Bullet_1_VFX"
        },
        {
          "$type": "ApplyModifier",
          "modifierName": "Player_Electric_ElementalBurst_Bullet_2_VFX"
        },
        {
          "$type": "ApplyModifier",
          "modifierName": "Player_Electric_ElementalBurst_Bullet_3_VFX"
        },
        {
          "$type": "AttachModifier",
          "modifierName": "UNIQUE_Player_Electric_ElementalBurst_Handler"
        }
      ],
      "onKill": [
        {
          "$type": "RemoveUniqueModifier",
          "shieldHP": true,
          "modifierName": "UNIQUE_Player_Electric_ElementalBurst_Handler"
        },
        {
          "$type": "FireEffect",
          "rotationDampTime": "Eff_Player_Electric_ElementalBurst_Magatama_Die",
          "born": {
            "$type": "ConfigBornByAttachPoint",
            "offset": {
              "x": 0.0,
              "y": 0.0,
              "z": 0.0
            },
            "attachPointName": "Ponit1"
          },
          "PPPDJGDDOGD": 1.0,
          "AJDILHJFNKE": -1.0
        },
        {
          "$type": "FireEffect",
          "rotationDampTime": "Eff_Player_Electric_ElementalBurst_Magatama_Die",
          "born": {
            "$type": "ConfigBornByAttachPoint",
            "offset": {
              "x": 0.0,
              "y": 0.0,
              "z": 0.0
            },
            "attachPointName": "Ponit2"
          },
          "PPPDJGDDOGD": 1.0,
          "AJDILHJFNKE": -1.0
        },
        {
          "$type": "FireEffect",
          "rotationDampTime": "Eff_Player_Electric_ElementalBurst_Magatama_Die",
          "born": {
            "$type": "ConfigBornByAttachPoint",
            "offset": {
              "x": 0.0,
              "y": 0.0,
              "z": 0.0
            },
            "attachPointName": "Ponit3"
          },
          "PPPDJGDDOGD": 1.0,
          "AJDILHJFNKE": -1.0
        }
      ]
    }
  },
  {
    "Default": {
      "$type": "ConfigAbility",
      "abilityName": "Avatar_Player_Electric_ElementalArt_Click",
      "onAbilityStart": [
        {
          "$type": "AvatarSkillStart",
          "skillID": 10602,
          "amountByTargetCurrentHPRatio": 1.0,
          "costStaminaRatio": 1.0
        },
        {
          "$type": "AddGlobalValue",
          "shieldHP": true,
          "value": -1.0,
          "key": "_Ability_Player_Electric_ElementBall_Mark",
          "useLimitRange": true,
          "maxValue": 1.0,
          "minValue": 0.0
        },
        {
          "$type": "FireEffect",
          "rotationDampTime": "Eff_Player_Electric_ElementalArt_Cast",
          "born": {
            "$type": "ConfigBornBySelf",
            "offset": {
              "x": 0.0,
              "y": 0.0,
              "z": 0.0
            }
          },
          "PPPDJGDDOGD": 1.0,
          "AJDILHJFNKE": -1.0
        },
        {
          "$type": "KillGadget",
          "gadgetInfo": {
            "configID": 41044131
          }
        },
        {
          "$type": "AddGlobalValue",
          "value": -4.0,
          "key": "_ABILITY_Player_Electric_ElementalArt_Counter",
          "useLimitRange": true,
          "maxValue": 0.0,
          "minValue": 0.0
        },
        {
          "$type": "TriggerBullet",
          "bulletID": 41044103,
          "born": {
            "$type": "ConfigBornBySelf",
            "offset": {
              "x": 0.0,
              "y": 0.800000011920929,
              "z": 0.5
            }
          }
        },
        {
          "$type": "TriggerBullet",
          "bulletID": 41044102,
          "born": {
            "$type": "ConfigBornBySelf",
            "offset": {
              "x": 0.20000000298023224,
              "y": 0.800000011920929,
              "z": 0.20000000298023224
            },
            "direction": {
              "$type": "ConfigDirectionByDefault",
              "angleOffset": {
                "x": 0.0,
                "y": 20.0,
                "z": 0.0
              }
            }
          }
        },
        {
          "$type": "TriggerBullet",
          "bulletID": 41044104,
          "born": {
            "$type": "ConfigBornBySelf",
            "offset": {
              "x": -0.20000000298023224,
              "y": 0.800000011920929,
              "z": 0.20000000298023224
            },
            "direction": {
              "$type": "ConfigDirectionByDefault",
              "angleOffset": {
                "x": 0.0,
                "y": -20.0,
                "z": 0.0
              }
            }
          }
        }
      ],
      "isDynamicAbility": true
    }
  },
  {
    "Default": {
      "$type": "ConfigAbility",
      "abilityName": "Player_Electric_ElementalArt_Bullet_1",
      "abilitySpecials": {
        "ElementalArt_Damage": 0.0
      },
      "modifiers": {
        "Player_Electric_ElementalArt_ElementBall_Handler": {
          "modifierName": "",
          "elementDurability": 100.0,
          "onAttackLanded": [
            {
              "$type": "Predicated",
              "target": "Target",
              "shieldHP": true,
              "targetPredicates": [
                {
                  "$type": "ByAttackTags",
                  "attackTags": ["Elemental_Art"]
                },
                {
                  "$type": "ByEntityTypes",
                  "entityTypes": ["Monster"]
                },
                {
                  "$type": "ByTargetGlobalValue",
                  "key": "_ANIMAL_ENTITY_TYPE",
                  "value": 0.0,
                  "compareType": "NoneOrEqual"
                },
                {
                  "$type": "ByTargetGlobalValue",
                  "target": "OriginOwner",
                  "key": "_Ability_Player_Electric_ElementBall_Mark",
                  "value": 0.0,
                  "compareType": "NoneOrEqual"
                },
                {
                  "$type": "PEJAIAPIAJD",
                  "target": "OriginOwner",
                  "elementType": "Electric"
                }
              ],
              "successActions": [
                {
                  "$type": "GenerateElemBall",
                  "configID": 2020,
                  "born": {
                    "$type": "ConfigBornByTarget",
                    "offset": {
                      "x": 0.0,
                      "y": 0.0,
                      "z": 0.0
                    }
                  },
                  "hpRatio": 1.0,
                  "baseEnergy": 3.0
                },
                {
                  "$type": "AddGlobalValue",
                  "target": "OriginOwner",
                  "shieldHP": true,
                  "value": 1.0,
                  "key": "_Ability_Player_Electric_ElementBall_Mark",
                  "useLimitRange": true,
                  "maxValue": 1.0,
                  "minValue": 0.0
                }
              ]
            }
          ]
        },
        "Player_Electric_ElementalArt_Bullet_Handler": {
          "modifierName": "",
          "elementDurability": 100.0,
          "onAttackLanded": [
            {
              "$type": "Predicated",
              "target": "Target",
              "shieldHP": true,
              "targetPredicates": [
                {
                  "$type": "ByAttackTags",
                  "attackTags": ["Elemental_Art"]
                },
                {
                  "$type": "ByEntityTypes",
                  "entityTypes": ["Monster"]
                },
                {
                  "$type": "ByTargetGlobalValue",
                  "key": "_ANIMAL_ENTITY_TYPE",
                  "value": 0.0,
                  "compareType": "NoneOrEqual"
                },
                {
                  "$type": "ByTargetGlobalValue",
                  "target": "Owner",
                  "key": "_ABILITY_Player_Electric_ElementalArt_Counter",
                  "value": 1.0,
                  "compareType": "LessAndEqual"
                }
              ],
              "successActions": [
                {
                  "$type": "AddGlobalValue",
                  "target": "Owner",
                  "value": 1.0,
                  "key": "_ABILITY_Player_Electric_ElementalArt_Counter",
                  "useLimitRange": true,
                  "maxValue": 2.0,
                  "minValue": 0.0
                },
                {
                  "$type": "TriggerAbility",
                  "target": "Owner",
                  "abilityName": "Avatar_Player_Electric_ElementalArt_SetGadget_1"
                }
              ]
            }
          ],
          "onHittingOther": [
            {
              "$type": "Predicated",
              "target": "Target",
              "shieldHP": true,
              "targetPredicates": [
                {
                  "$type": "ByAttackTags",
                  "attackTags": ["Elemental_Art"]
                },
                {
                  "$type": "ByEntityTypes",
                  "entityTypes": ["Monster"]
                },
                {
                  "$type": "ByTargetGlobalValue",
                  "key": "_ANIMAL_ENTITY_TYPE",
                  "value": 0.0,
                  "compareType": "NoneOrEqual"
                },
                {
                  "$type": "ByTargetGlobalValue",
                  "target": "Owner",
                  "key": "_ABILITY_Player_Electric_ElementalArt_Counter",
                  "value": 1.0,
                  "compareType": "LessAndEqual"
                }
              ],
              "successActions": [
                {
                  "$type": "SetGlobalPos",
                  "target": "Owner",
                  "key": "_ABILITY_Player_Electric_ElementalArt_BulletPos_1",
                  "born": {
                    "$type": "ConfigBornByCollisionPoint",
                    "offset": {
                      "x": 0.0,
                      "y": 0.0,
                      "z": 0.0
                    }
                  }
                },
                {
                  "$type": "SetGlobalDir",
                  "target": "Owner",
                  "key": "_ABILITY_Player_Electric_ElementalArt_BulletDir_1",
                  "born": {
                    "$type": "ConfigBornByCollisionPoint",
                    "offset": {
                      "x": 0.0,
                      "y": 0.0,
                      "z": 0.0
                    }
                  }
                }
              ]
            }
          ]
        },
        "Player_Electric_ElementalArt_Bullet_Extra_Handler": {
          "modifierName": "",
          "elementDurability": 100.0,
          "onAttackLanded": [
            {
              "$type": "Predicated",
              "target": "Target",
              "shieldHP": true,
              "targetPredicates": [
                {
                  "$type": "ByAttackTags",
                  "attackTags": ["Elemental_Art"]
                },
                {
                  "$type": "ByEntityTypes",
                  "entityTypes": ["Monster"]
                },
                {
                  "$type": "ByTargetGlobalValue",
                  "key": "_ANIMAL_ENTITY_TYPE",
                  "value": 0.0,
                  "compareType": "NoneOrEqual"
                },
                {
                  "$type": "ByTargetGlobalValue",
                  "target": "Owner",
                  "key": "_ABILITY_Player_Electric_ElementalArt_Counter",
                  "value": 2.0,
                  "compareType": "LessAndEqual"
                }
              ],
              "successActions": [
                {
                  "$type": "AddGlobalValue",
                  "target": "Owner",
                  "value": 1.0,
                  "key": "_ABILITY_Player_Electric_ElementalArt_Counter",
                  "useLimitRange": true,
                  "maxValue": 3.0,
                  "minValue": 0.0
                },
                {
                  "$type": "TriggerAbility",
                  "target": "Owner",
                  "abilityName": "Avatar_Player_Electric_ElementalArt_SetGadget_1"
                }
              ]
            }
          ],
          "onHittingOther": [
            {
              "$type": "Predicated",
              "target": "Target",
              "shieldHP": true,
              "targetPredicates": [
                {
                  "$type": "ByAttackTags",
                  "attackTags": ["Elemental_Art"]
                },
                {
                  "$type": "ByEntityTypes",
                  "entityTypes": ["Monster"]
                },
                {
                  "$type": "ByTargetGlobalValue",
                  "key": "_ANIMAL_ENTITY_TYPE",
                  "value": 0.0,
                  "compareType": "NoneOrEqual"
                },
                {
                  "$type": "ByTargetGlobalValue",
                  "target": "Owner",
                  "key": "_ABILITY_Player_Electric_ElementalArt_Counter",
                  "value": 2.0,
                  "compareType": "LessAndEqual"
                }
              ],
              "successActions": [
                {
                  "$type": "SetGlobalPos",
                  "target": "Owner",
                  "key": "_ABILITY_Player_Electric_ElementalArt_BulletPos_1",
                  "born": {
                    "$type": "ConfigBornByCollisionPoint",
                    "offset": {
                      "x": 0.0,
                      "y": 0.0,
                      "z": 0.0
                    }
                  }
                },
                {
                  "$type": "SetGlobalDir",
                  "target": "Owner",
                  "key": "_ABILITY_Player_Electric_ElementalArt_BulletDir_1",
                  "born": {
                    "$type": "ConfigBornByCollisionPoint",
                    "offset": {
                      "x": 0.0,
                      "y": 0.0,
                      "z": 0.0
                    }
                  }
                }
              ]
            }
          ]
        }
      },
      "onAdded": [
        {
          "$type": "ApplyModifier",
          "modifierName": "Player_Electric_ElementalArt_ElementBall_Handler"
        },
        {
          "$type": "AttachEffect",
          "rotationDampTime": "Eff_Player_Electric_ElementalArt_Magatama_Bullet",
          "PPPDJGDDOGD": 1.0,
          "AJDILHJFNKE": -1.0
        },
        {
          "$type": "AttachEffect",
          "rotationDampTime": "Eff_Player_Electric_ElementalArt_Magatama_Bullet_Trail",
          "PPPDJGDDOGD": 1.0,
          "AJDILHJFNKE": -1.0
        },
        {
          "$type": "Predicated",
          "shieldHP": true,
          "targetPredicates": [
            {
              "$type": "ByUnlockTalentParam",
              "talentParam": "Player_Electric_ElementalArt_MaxNumUp"
            }
          ],
          "successActions": [
            {
              "$type": "ApplyModifier",
              "modifierName": "Player_Electric_ElementalArt_Bullet_Extra_Handler"
            }
          ],
          "failActions": [
            {
              "$type": "ApplyModifier",
              "modifierName": "Player_Electric_ElementalArt_Bullet_Handler"
            }
          ]
        }
      ],
      "onAbilityStart": [
        {
          "$type": "Predicated",
          "target": "Target",
          "targetPredicates": [
            {
              "$type": "ByEntityTypes",
              "entityTypes": ["MonsterEquip"]
            }
          ],
          "successActions": [
            {
              "$type": "DamageByAttackValue",
              "target": "Target",
              "attackInfo": {
                "attackTag": "Elemental_Art",
                "attenuationTag": "Elemental_Art",
                "attenuationGroup": "default",
                "attackProperty": {
                  "actorGrassSubHurtDelta": "ElementalArt_Damage",
                  "actorWindSubHurtDelta": 0.0,
                  "elementType": "Electric",
                  "elementDurability": 25.0,
                  "strikeType": "Pierce",
                  "enBreak": 100.0,
                  "attackType": "Range",
                  "GLKMCMDJBIK": 0.0
                },
                "hitPattern": {
                  "onHitEffectName": "default",
                  "hitImpulseY": "",
                  "hitImpulseType": "LV3",
                  "hitHaltTimeScale": 0.009999999776482582
                },
                "canBeModifiedBy": "OriginOwner"
              }
            }
          ],
          "failActions": [
            {
              "$type": "TriggerAttackEvent",
              "attackEvent": {
                "attackPattern": {
                  "$type": "ConfigAttackBox",
                  "triggerType": "TriggerNoRepeat",
                  "checkHitLayerType": "Both",
                  "born": {
                    "$type": "ConfigBornByCollisionPoint",
                    "offset": {
                      "x": 0.0,
                      "y": 0.0,
                      "z": 0.0
                    }
                  },
                  "size": {
                    "x": 0.10000000149011612,
                    "y": 0.10000000149011612,
                    "z": 0.6000000238418579
                  }
                },
                "attackInfo": {
                  "attackTag": "Elemental_Art",
                  "attenuationTag": "Elemental_Art",
                  "attenuationGroup": "default",
                  "attackProperty": {
                    "actorGrassSubHurtDelta": "ElementalArt_Damage",
                    "actorWindSubHurtDelta": 0.0,
                    "elementType": "Electric",
                    "elementDurability": 25.0,
                    "strikeType": "Pierce",
                    "enBreak": 100.0,
                    "attackType": "Range",
                    "GLKMCMDJBIK": 0.0
                  },
                  "hitPattern": {
                    "onHitEffectName": "Eff_Player_Electric_ElementalArt_Bullet_Hit",
                    "hitImpulseY": "",
                    "hitImpulseType": "LV3",
                    "hitHaltTimeScale": 0.009999999776482582
                  },
                  "canBeModifiedBy": "OriginOwner"
                }
              },
              "targetType": "Enemy"
            }
          ]
        }
      ],
      "onKill": [
        {
          "$type": "FireEffect",
          "rotationDampTime": "Eff_Player_Electric_ElementalArt_Bullet_Die",
          "PPPDJGDDOGD": 1.0,
          "AJDILHJFNKE": -1.0
        }
      ]
    }
  },
  {
    "Default": {
      "$type": "ConfigAbility",
      "abilityName": "Player_Electric_ElementalArt_Bullet_2",
      "abilitySpecials": {
        "ElementalArt_Damage": 0.0
      },
      "modifiers": {
        "Player_Electric_ElementalArt_ElementBall_Handler": {
          "modifierName": "",
          "elementDurability": 100.0,
          "onAttackLanded": [
            {
              "$type": "Predicated",
              "target": "Target",
              "shieldHP": true,
              "targetPredicates": [
                {
                  "$type": "ByAttackTags",
                  "attackTags": ["Elemental_Art"]
                },
                {
                  "$type": "ByEntityTypes",
                  "entityTypes": ["Monster"]
                },
                {
                  "$type": "ByTargetGlobalValue",
                  "key": "_ANIMAL_ENTITY_TYPE",
                  "value": 0.0,
                  "compareType": "NoneOrEqual"
                },
                {
                  "$type": "ByTargetGlobalValue",
                  "target": "OriginOwner",
                  "key": "_Ability_Player_Electric_ElementBall_Mark",
                  "value": 0.0,
                  "compareType": "NoneOrEqual"
                },
                {
                  "$type": "PEJAIAPIAJD",
                  "target": "OriginOwner",
                  "elementType": "Electric"
                }
              ],
              "successActions": [
                {
                  "$type": "GenerateElemBall",
                  "configID": 2020,
                  "born": {
                    "$type": "ConfigBornByTarget",
                    "offset": {
                      "x": 0.0,
                      "y": 0.0,
                      "z": 0.0
                    }
                  },
                  "hpRatio": 1.0,
                  "baseEnergy": 3.0
                },
                {
                  "$type": "AddGlobalValue",
                  "target": "OriginOwner",
                  "shieldHP": true,
                  "value": 1.0,
                  "key": "_Ability_Player_Electric_ElementBall_Mark",
                  "useLimitRange": true,
                  "maxValue": 1.0,
                  "minValue": 0.0
                }
              ]
            }
          ]
        },
        "Player_Electric_ElementalArt_Bullet_Handler": {
          "modifierName": "",
          "elementDurability": 100.0,
          "onAttackLanded": [
            {
              "$type": "Predicated",
              "target": "Target",
              "shieldHP": true,
              "targetPredicates": [
                {
                  "$type": "ByAttackTags",
                  "attackTags": ["Elemental_Art"]
                },
                {
                  "$type": "ByEntityTypes",
                  "entityTypes": ["Monster"]
                },
                {
                  "$type": "ByTargetGlobalValue",
                  "key": "_ANIMAL_ENTITY_TYPE",
                  "value": 0.0,
                  "compareType": "NoneOrEqual"
                },
                {
                  "$type": "ByTargetGlobalValue",
                  "target": "Owner",
                  "key": "_ABILITY_Player_Electric_ElementalArt_Counter",
                  "value": 1.0,
                  "compareType": "LessAndEqual"
                }
              ],
              "successActions": [
                {
                  "$type": "AddGlobalValue",
                  "target": "Owner",
                  "value": 1.0,
                  "key": "_ABILITY_Player_Electric_ElementalArt_Counter",
                  "useLimitRange": true,
                  "maxValue": 2.0,
                  "minValue": 0.0
                },
                {
                  "$type": "TriggerAbility",
                  "target": "Owner",
                  "abilityName": "Avatar_Player_Electric_ElementalArt_SetGadget_2"
                }
              ]
            }
          ],
          "onHittingOther": [
            {
              "$type": "Predicated",
              "target": "Target",
              "shieldHP": true,
              "targetPredicates": [
                {
                  "$type": "ByAttackTags",
                  "attackTags": ["Elemental_Art"]
                },
                {
                  "$type": "ByEntityTypes",
                  "entityTypes": ["Monster"]
                },
                {
                  "$type": "ByTargetGlobalValue",
                  "key": "_ANIMAL_ENTITY_TYPE",
                  "value": 0.0,
                  "compareType": "NoneOrEqual"
                },
                {
                  "$type": "ByTargetGlobalValue",
                  "target": "Owner",
                  "key": "_ABILITY_Player_Electric_ElementalArt_Counter",
                  "value": 1.0,
                  "compareType": "LessAndEqual"
                }
              ],
              "successActions": [
                {
                  "$type": "SetGlobalPos",
                  "target": "Owner",
                  "key": "_ABILITY_Player_Electric_ElementalArt_BulletPos_2",
                  "born": {
                    "$type": "ConfigBornByCollisionPoint",
                    "offset": {
                      "x": 0.0,
                      "y": 0.0,
                      "z": 0.0
                    }
                  }
                },
                {
                  "$type": "SetGlobalDir",
                  "target": "Owner",
                  "key": "_ABILITY_Player_Electric_ElementalArt_BulletDir_2",
                  "born": {
                    "$type": "ConfigBornByCollisionPoint",
                    "offset": {
                      "x": 0.0,
                      "y": 0.0,
                      "z": 0.0
                    }
                  }
                }
              ]
            }
          ]
        },
        "Player_Electric_ElementalArt_Bullet_Extra_Handler": {
          "modifierName": "",
          "elementDurability": 100.0,
          "onAttackLanded": [
            {
              "$type": "Predicated",
              "target": "Target",
              "shieldHP": true,
              "targetPredicates": [
                {
                  "$type": "ByAttackTags",
                  "attackTags": ["Elemental_Art"]
                },
                {
                  "$type": "ByEntityTypes",
                  "entityTypes": ["Monster"]
                },
                {
                  "$type": "ByTargetGlobalValue",
                  "key": "_ANIMAL_ENTITY_TYPE",
                  "value": 0.0,
                  "compareType": "NoneOrEqual"
                },
                {
                  "$type": "ByTargetGlobalValue",
                  "target": "Owner",
                  "key": "_ABILITY_Player_Electric_ElementalArt_Counter",
                  "value": 2.0,
                  "compareType": "LessAndEqual"
                }
              ],
              "successActions": [
                {
                  "$type": "AddGlobalValue",
                  "target": "Owner",
                  "value": 1.0,
                  "key": "_ABILITY_Player_Electric_ElementalArt_Counter",
                  "useLimitRange": true,
                  "maxValue": 3.0,
                  "minValue": 0.0
                },
                {
                  "$type": "TriggerAbility",
                  "target": "Owner",
                  "abilityName": "Avatar_Player_Electric_ElementalArt_SetGadget_2"
                }
              ]
            }
          ],
          "onHittingOther": [
            {
              "$type": "Predicated",
              "target": "Target",
              "shieldHP": true,
              "targetPredicates": [
                {
                  "$type": "ByAttackTags",
                  "attackTags": ["Elemental_Art"]
                },
                {
                  "$type": "ByEntityTypes",
                  "entityTypes": ["Monster"]
                },
                {
                  "$type": "ByTargetGlobalValue",
                  "key": "_ANIMAL_ENTITY_TYPE",
                  "value": 0.0,
                  "compareType": "NoneOrEqual"
                },
                {
                  "$type": "ByTargetGlobalValue",
                  "target": "Owner",
                  "key": "_ABILITY_Player_Electric_ElementalArt_Counter",
                  "value": 2.0,
                  "compareType": "LessAndEqual"
                }
              ],
              "successActions": [
                {
                  "$type": "SetGlobalPos",
                  "target": "Owner",
                  "key": "_ABILITY_Player_Electric_ElementalArt_BulletPos_2",
                  "born": {
                    "$type": "ConfigBornByCollisionPoint",
                    "offset": {
                      "x": 0.0,
                      "y": 0.0,
                      "z": 0.0
                    }
                  }
                },
                {
                  "$type": "SetGlobalDir",
                  "target": "Owner",
                  "key": "_ABILITY_Player_Electric_ElementalArt_BulletDir_2",
                  "born": {
                    "$type": "ConfigBornByCollisionPoint",
                    "offset": {
                      "x": 0.0,
                      "y": 0.0,
                      "z": 0.0
                    }
                  }
                }
              ]
            }
          ]
        }
      },
      "onAdded": [
        {
          "$type": "ApplyModifier",
          "modifierName": "Player_Electric_ElementalArt_ElementBall_Handler"
        },
        {
          "$type": "AttachEffect",
          "rotationDampTime": "Eff_Player_Electric_ElementalArt_Magatama_Bullet",
          "PPPDJGDDOGD": 1.0,
          "AJDILHJFNKE": -1.0
        },
        {
          "$type": "AttachEffect",
          "rotationDampTime": "Eff_Player_Electric_ElementalArt_Magatama_Bullet_Trail",
          "PPPDJGDDOGD": 1.0,
          "AJDILHJFNKE": -1.0
        },
        {
          "$type": "Predicated",
          "shieldHP": true,
          "targetPredicates": [
            {
              "$type": "ByUnlockTalentParam",
              "talentParam": "Player_Electric_ElementalArt_MaxNumUp"
            }
          ],
          "successActions": [
            {
              "$type": "ApplyModifier",
              "modifierName": "Player_Electric_ElementalArt_Bullet_Extra_Handler"
            }
          ],
          "failActions": [
            {
              "$type": "ApplyModifier",
              "modifierName": "Player_Electric_ElementalArt_Bullet_Handler"
            }
          ]
        }
      ],
      "onAbilityStart": [
        {
          "$type": "Predicated",
          "target": "Target",
          "targetPredicates": [
            {
              "$type": "ByEntityTypes",
              "entityTypes": ["MonsterEquip"]
            }
          ],
          "successActions": [
            {
              "$type": "DamageByAttackValue",
              "target": "Target",
              "attackInfo": {
                "attackTag": "Elemental_Art",
                "attenuationTag": "Elemental_Art",
                "attenuationGroup": "default",
                "attackProperty": {
                  "actorGrassSubHurtDelta": "ElementalArt_Damage",
                  "actorWindSubHurtDelta": 0.0,
                  "elementType": "Electric",
                  "elementDurability": 25.0,
                  "strikeType": "Pierce",
                  "enBreak": 100.0,
                  "attackType": "Range",
                  "GLKMCMDJBIK": 0.0
                },
                "hitPattern": {
                  "onHitEffectName": "default",
                  "hitImpulseY": "",
                  "hitImpulseType": "LV3",
                  "hitHaltTimeScale": 0.009999999776482582
                },
                "canBeModifiedBy": "OriginOwner"
              }
            }
          ],
          "failActions": [
            {
              "$type": "TriggerAttackEvent",
              "attackEvent": {
                "attackPattern": {
                  "$type": "ConfigAttackBox",
                  "triggerType": "TriggerNoRepeat",
                  "checkHitLayerType": "Both",
                  "born": {
                    "$type": "ConfigBornByCollisionPoint",
                    "offset": {
                      "x": 0.0,
                      "y": 0.0,
                      "z": 0.0
                    }
                  },
                  "size": {
                    "x": 0.10000000149011612,
                    "y": 0.10000000149011612,
                    "z": 0.6000000238418579
                  }
                },
                "attackInfo": {
                  "attackTag": "Elemental_Art",
                  "attenuationTag": "Elemental_Art",
                  "attenuationGroup": "default",
                  "attackProperty": {
                    "actorGrassSubHurtDelta": "ElementalArt_Damage",
                    "actorWindSubHurtDelta": 0.0,
                    "elementType": "Electric",
                    "elementDurability": 25.0,
                    "strikeType": "Pierce",
                    "enBreak": 100.0,
                    "attackType": "Range",
                    "GLKMCMDJBIK": 0.0
                  },
                  "hitPattern": {
                    "onHitEffectName": "Eff_Player_Electric_ElementalArt_Bullet_Hit",
                    "hitImpulseY": "",
                    "hitImpulseType": "LV3",
                    "hitHaltTimeScale": 0.009999999776482582
                  },
                  "canBeModifiedBy": "OriginOwner"
                }
              },
              "targetType": "Enemy"
            }
          ]
        }
      ],
      "onKill": [
        {
          "$type": "FireEffect",
          "rotationDampTime": "Eff_Player_Electric_ElementalArt_Bullet_Die",
          "PPPDJGDDOGD": 1.0,
          "AJDILHJFNKE": -1.0
        }
      ]
    }
  },
  {
    "Default": {
      "$type": "ConfigAbility",
      "abilityName": "Player_Electric_ElementalArt_Bullet_3",
      "abilitySpecials": {
        "ElementalArt_Damage": 0.0
      },
      "modifiers": {
        "Player_Electric_ElementalArt_ElementBall_Handler": {
          "modifierName": "",
          "elementDurability": 100.0,
          "onAttackLanded": [
            {
              "$type": "Predicated",
              "target": "Target",
              "shieldHP": true,
              "targetPredicates": [
                {
                  "$type": "ByAttackTags",
                  "attackTags": ["Elemental_Art"]
                },
                {
                  "$type": "ByEntityTypes",
                  "entityTypes": ["Monster"]
                },
                {
                  "$type": "ByTargetGlobalValue",
                  "key": "_ANIMAL_ENTITY_TYPE",
                  "value": 0.0,
                  "compareType": "NoneOrEqual"
                },
                {
                  "$type": "ByTargetGlobalValue",
                  "target": "OriginOwner",
                  "key": "_Ability_Player_Electric_ElementBall_Mark",
                  "value": 0.0,
                  "compareType": "NoneOrEqual"
                },
                {
                  "$type": "PEJAIAPIAJD",
                  "target": "OriginOwner",
                  "elementType": "Electric"
                }
              ],
              "successActions": [
                {
                  "$type": "GenerateElemBall",
                  "configID": 2020,
                  "born": {
                    "$type": "ConfigBornByTarget",
                    "offset": {
                      "x": 0.0,
                      "y": 0.0,
                      "z": 0.0
                    }
                  },
                  "hpRatio": 1.0,
                  "baseEnergy": 3.0
                },
                {
                  "$type": "AddGlobalValue",
                  "target": "OriginOwner",
                  "shieldHP": true,
                  "value": 1.0,
                  "key": "_Ability_Player_Electric_ElementBall_Mark",
                  "useLimitRange": true,
                  "maxValue": 1.0,
                  "minValue": 0.0
                }
              ]
            }
          ]
        },
        "Player_Electric_ElementalArt_Bullet_Handler": {
          "modifierName": "",
          "elementDurability": 100.0,
          "onAttackLanded": [
            {
              "$type": "Predicated",
              "target": "Target",
              "shieldHP": true,
              "targetPredicates": [
                {
                  "$type": "ByAttackTags",
                  "attackTags": ["Elemental_Art"]
                },
                {
                  "$type": "ByEntityTypes",
                  "entityTypes": ["Monster"]
                },
                {
                  "$type": "ByTargetGlobalValue",
                  "key": "_ANIMAL_ENTITY_TYPE",
                  "value": 0.0,
                  "compareType": "NoneOrEqual"
                },
                {
                  "$type": "ByTargetGlobalValue",
                  "target": "Owner",
                  "key": "_ABILITY_Player_Electric_ElementalArt_Counter",
                  "value": 1.0,
                  "compareType": "LessAndEqual"
                }
              ],
              "successActions": [
                {
                  "$type": "AddGlobalValue",
                  "target": "Owner",
                  "value": 1.0,
                  "key": "_ABILITY_Player_Electric_ElementalArt_Counter",
                  "useLimitRange": true,
                  "maxValue": 2.0,
                  "minValue": 0.0
                },
                {
                  "$type": "TriggerAbility",
                  "target": "Owner",
                  "abilityName": "Avatar_Player_Electric_ElementalArt_SetGadget_3"
                }
              ]
            }
          ],
          "onHittingOther": [
            {
              "$type": "Predicated",
              "target": "Target",
              "shieldHP": true,
              "targetPredicates": [
                {
                  "$type": "ByAttackTags",
                  "attackTags": ["Elemental_Art"]
                },
                {
                  "$type": "ByEntityTypes",
                  "entityTypes": ["Monster"]
                },
                {
                  "$type": "ByTargetGlobalValue",
                  "key": "_ANIMAL_ENTITY_TYPE",
                  "value": 0.0,
                  "compareType": "NoneOrEqual"
                },
                {
                  "$type": "ByTargetGlobalValue",
                  "target": "Owner",
                  "key": "_ABILITY_Player_Electric_ElementalArt_Counter",
                  "value": 1.0,
                  "compareType": "LessAndEqual"
                }
              ],
              "successActions": [
                {
                  "$type": "SetGlobalPos",
                  "target": "Owner",
                  "key": "_ABILITY_Player_Electric_ElementalArt_BulletPos_3",
                  "born": {
                    "$type": "ConfigBornByCollisionPoint",
                    "offset": {
                      "x": 0.0,
                      "y": 0.0,
                      "z": 0.0
                    }
                  }
                },
                {
                  "$type": "SetGlobalDir",
                  "target": "Owner",
                  "key": "_ABILITY_Player_Electric_ElementalArt_BulletDir_3",
                  "born": {
                    "$type": "ConfigBornByCollisionPoint",
                    "offset": {
                      "x": 0.0,
                      "y": 0.0,
                      "z": 0.0
                    }
                  }
                }
              ]
            }
          ]
        },
        "Player_Electric_ElementalArt_Bullet_Extra_Handler": {
          "modifierName": "",
          "elementDurability": 100.0,
          "onAttackLanded": [
            {
              "$type": "Predicated",
              "target": "Target",
              "shieldHP": true,
              "targetPredicates": [
                {
                  "$type": "ByAttackTags",
                  "attackTags": ["Elemental_Art"]
                },
                {
                  "$type": "ByEntityTypes",
                  "entityTypes": ["Monster"]
                },
                {
                  "$type": "ByTargetGlobalValue",
                  "key": "_ANIMAL_ENTITY_TYPE",
                  "value": 0.0,
                  "compareType": "NoneOrEqual"
                },
                {
                  "$type": "ByTargetGlobalValue",
                  "target": "Owner",
                  "key": "_ABILITY_Player_Electric_ElementalArt_Counter",
                  "value": 2.0,
                  "compareType": "LessAndEqual"
                }
              ],
              "successActions": [
                {
                  "$type": "AddGlobalValue",
                  "target": "Owner",
                  "value": 1.0,
                  "key": "_ABILITY_Player_Electric_ElementalArt_Counter",
                  "useLimitRange": true,
                  "maxValue": 3.0,
                  "minValue": 0.0
                },
                {
                  "$type": "TriggerAbility",
                  "target": "Owner",
                  "abilityName": "Avatar_Player_Electric_ElementalArt_SetGadget_3"
                }
              ]
            }
          ],
          "onHittingOther": [
            {
              "$type": "Predicated",
              "target": "Target",
              "shieldHP": true,
              "targetPredicates": [
                {
                  "$type": "ByAttackTags",
                  "attackTags": ["Elemental_Art"]
                },
                {
                  "$type": "ByEntityTypes",
                  "entityTypes": ["Monster"]
                },
                {
                  "$type": "ByTargetGlobalValue",
                  "key": "_ANIMAL_ENTITY_TYPE",
                  "value": 0.0,
                  "compareType": "NoneOrEqual"
                },
                {
                  "$type": "ByTargetGlobalValue",
                  "target": "Owner",
                  "key": "_ABILITY_Player_Electric_ElementalArt_Counter",
                  "value": 2.0,
                  "compareType": "LessAndEqual"
                }
              ],
              "successActions": [
                {
                  "$type": "SetGlobalPos",
                  "target": "Owner",
                  "key": "_ABILITY_Player_Electric_ElementalArt_BulletPos_3",
                  "born": {
                    "$type": "ConfigBornByCollisionPoint",
                    "offset": {
                      "x": 0.0,
                      "y": 0.0,
                      "z": 0.0
                    }
                  }
                },
                {
                  "$type": "SetGlobalDir",
                  "target": "Owner",
                  "key": "_ABILITY_Player_Electric_ElementalArt_BulletDir_3",
                  "born": {
                    "$type": "ConfigBornByCollisionPoint",
                    "offset": {
                      "x": 0.0,
                      "y": 0.0,
                      "z": 0.0
                    }
                  }
                }
              ]
            }
          ]
        }
      },
      "onAdded": [
        {
          "$type": "ApplyModifier",
          "modifierName": "Player_Electric_ElementalArt_ElementBall_Handler"
        },
        {
          "$type": "AttachEffect",
          "rotationDampTime": "Eff_Player_Electric_ElementalArt_Magatama_Bullet",
          "PPPDJGDDOGD": 1.0,
          "AJDILHJFNKE": -1.0
        },
        {
          "$type": "AttachEffect",
          "rotationDampTime": "Eff_Player_Electric_ElementalArt_Magatama_Bullet_Trail",
          "PPPDJGDDOGD": 1.0,
          "AJDILHJFNKE": -1.0
        },
        {
          "$type": "Predicated",
          "shieldHP": true,
          "targetPredicates": [
            {
              "$type": "ByUnlockTalentParam",
              "talentParam": "Player_Electric_ElementalArt_MaxNumUp"
            }
          ],
          "successActions": [
            {
              "$type": "ApplyModifier",
              "modifierName": "Player_Electric_ElementalArt_Bullet_Extra_Handler"
            }
          ],
          "failActions": [
            {
              "$type": "ApplyModifier",
              "modifierName": "Player_Electric_ElementalArt_Bullet_Handler"
            }
          ]
        }
      ],
      "onAbilityStart": [
        {
          "$type": "Predicated",
          "target": "Target",
          "targetPredicates": [
            {
              "$type": "ByEntityTypes",
              "entityTypes": ["MonsterEquip"]
            }
          ],
          "successActions": [
            {
              "$type": "DamageByAttackValue",
              "target": "Target",
              "attackInfo": {
                "attackTag": "Elemental_Art",
                "attenuationTag": "Elemental_Art",
                "attenuationGroup": "default",
                "attackProperty": {
                  "actorGrassSubHurtDelta": "ElementalArt_Damage",
                  "actorWindSubHurtDelta": 0.0,
                  "elementType": "Electric",
                  "elementDurability": 25.0,
                  "strikeType": "Pierce",
                  "enBreak": 100.0,
                  "attackType": "Range",
                  "GLKMCMDJBIK": 0.0
                },
                "hitPattern": {
                  "onHitEffectName": "default",
                  "hitImpulseY": "",
                  "hitImpulseType": "LV3",
                  "hitHaltTimeScale": 0.009999999776482582
                },
                "canBeModifiedBy": "OriginOwner"
              }
            }
          ],
          "failActions": [
            {
              "$type": "TriggerAttackEvent",
              "attackEvent": {
                "attackPattern": {
                  "$type": "ConfigAttackBox",
                  "triggerType": "TriggerNoRepeat",
                  "checkHitLayerType": "Both",
                  "born": {
                    "$type": "ConfigBornByCollisionPoint",
                    "offset": {
                      "x": 0.0,
                      "y": 0.0,
                      "z": 0.0
                    }
                  },
                  "size": {
                    "x": 0.10000000149011612,
                    "y": 0.10000000149011612,
                    "z": 0.6000000238418579
                  }
                },
                "attackInfo": {
                  "attackTag": "Elemental_Art",
                  "attenuationTag": "Elemental_Art",
                  "attenuationGroup": "default",
                  "attackProperty": {
                    "actorGrassSubHurtDelta": "ElementalArt_Damage",
                    "actorWindSubHurtDelta": 0.0,
                    "elementType": "Electric",
                    "elementDurability": 25.0,
                    "strikeType": "Pierce",
                    "enBreak": 100.0,
                    "attackType": "Range",
                    "GLKMCMDJBIK": 0.0
                  },
                  "hitPattern": {
                    "onHitEffectName": "Eff_Player_Electric_ElementalArt_Bullet_Hit",
                    "hitImpulseY": "",
                    "hitImpulseType": "LV3",
                    "hitHaltTimeScale": 0.009999999776482582
                  },
                  "canBeModifiedBy": "OriginOwner"
                }
              },
              "targetType": "Enemy"
            }
          ]
        }
      ],
      "onKill": [
        {
          "$type": "FireEffect",
          "rotationDampTime": "Eff_Player_Electric_ElementalArt_Bullet_Die",
          "PPPDJGDDOGD": 1.0,
          "AJDILHJFNKE": -1.0
        }
      ]
    }
  },
  {
    "Default": {
      "$type": "ConfigAbility",
      "abilityName": "Avatar_Player_Electric_ElementalArt_SetGadget_1",
      "onAbilityStart": [
        {
          "$type": "CreateGadget",
          "lifeByOwnerIsAlive": true,
          "born": {
            "$type": "ConfigBornByGlobalValue",
            "offset": {
              "x": 0.0,
              "y": 0.0,
              "z": -0.5
            },
            "bornRandom": {
              "$type": "BornRandomFromCenter",
              "minRandomRange": 0.20000000298023224,
              "maxRandomRange": 0.4000000059604645
            },
            "onGround": true,
            "positionKey": "_ABILITY_Player_Electric_ElementalArt_BulletPos_1",
            "directionKey": "_ABILITY_Player_Electric_ElementalArt_BulletDir_1"
          },
          "gadgetID": 41044131
        }
      ],
      "isDynamicAbility": true
    }
  },
  {
    "Default": {
      "$type": "ConfigAbility",
      "abilityName": "Avatar_Player_Electric_ElementalArt_SetGadget_2",
      "onAbilityStart": [
        {
          "$type": "CreateGadget",
          "lifeByOwnerIsAlive": true,
          "born": {
            "$type": "ConfigBornByGlobalValue",
            "offset": {
              "x": 0.0,
              "y": 0.0,
              "z": -0.5
            },
            "bornRandom": {
              "$type": "BornRandomFromCenter",
              "minRandomRange": 0.20000000298023224,
              "maxRandomRange": 0.4000000059604645
            },
            "onGround": true,
            "positionKey": "_ABILITY_Player_Electric_ElementalArt_BulletPos_2",
            "directionKey": "_ABILITY_Player_Electric_ElementalArt_BulletDir_2"
          },
          "gadgetID": 41044131
        }
      ],
      "isDynamicAbility": true
    }
  },
  {
    "Default": {
      "$type": "ConfigAbility",
      "abilityName": "Avatar_Player_Electric_ElementalArt_SetGadget_3",
      "onAbilityStart": [
        {
          "$type": "CreateGadget",
          "lifeByOwnerIsAlive": true,
          "born": {
            "$type": "ConfigBornByGlobalValue",
            "offset": {
              "x": 0.0,
              "y": 0.0,
              "z": -0.5
            },
            "bornRandom": {
              "$type": "BornRandomFromCenter",
              "minRandomRange": 0.20000000298023224,
              "maxRandomRange": 0.4000000059604645
            },
            "onGround": true,
            "positionKey": "_ABILITY_Player_Electric_ElementalArt_BulletPos_3",
            "directionKey": "_ABILITY_Player_Electric_ElementalArt_BulletDir_3"
          },
          "gadgetID": 41044131
        }
      ],
      "isDynamicAbility": true
    }
  },
  {
    "Default": {
      "$type": "ConfigAbility",
      "abilityName": "Player_Electric_ElementalArt_Magatama_Trigger",
      "onAdded": [
        {
          "$type": "AttachEffect",
          "rotationDampTime": "Eff_Element_Crystal_Elect_Trail",
          "PPPDJGDDOGD": 1.0,
          "AJDILHJFNKE": -1.0
        }
      ]
    }
  },
  {
    "Default": {
      "$type": "ConfigAbility",
      "abilityName": "Player_Electric_ElementalArt_Magatama_Pickable",
      "abilitySpecials": {
        "ElementalArt_Magatama_ModifySkillCD": 0.0,
        "ElementalArt_Magatama_ExtraEfficiencyUp_Percentage": 0.0,
        "ElementalArt_Magatama_EfficiencyUp": 0.0,
        "ElementalArt_Magatama_ReviveElemEnergy": 0.0,
        "ElementalArt_Magatama_ReviveExtraElemEnergy_Check_Percentage": 0.0,
        "ElementalArt_Magatama_Life_Duration": 0.0,
        "ElementalArt_Magatama_EfficiencyUp_Duration": 0.0
      },
      "modifiers": {
        "Player_Electric_ElementalArt_Magatama_ModifySkillCD": {
          "modifierName": "",
          "duration": 1.0,
          "elementDurability": 100.0,
          "onAdded": [
            {
              "$type": "Predicated",
              "shieldHP": true,
              "targetPredicates": [
                {
                  "$type": "ByUnlockTalentParam",
                  "talentParam": "Player_Electric_ElementalArt_ModifySkillCD"
                }
              ],
              "successActions": [
                {
                  "$type": "ModifyAvatarSkillCD",
                  "shieldHP": true,
                  "skillSlot": [2],
                  "cdMin": "ElementalArt_Magatama_ModifySkillCD"
                }
              ]
            }
          ]
        },
        "UNIQUE_Player_Electric_ElementalArt_Magatama_ExtraEfficiencyUp": {
          "modifierName": "",
          "forceTriggerWhenChangeAuthority": true,
          "duration": "ElementalArt_Magatama_EfficiencyUp_Duration",
          "elementDurability": 100.0,
          "properties": {
            "Actor_ChargeEfficiencyExtraDelta": [
              "ElementalArt_Magatama_ExtraEfficiencyUp_Percentage",
              "FIGHT_PROP_NONEXTRA_CHARGE_EFFICIENCY",
              "MUL"
            ]
          },
          "isLimitedProperties": true
        },
        "UNIQUE_Player_Electric_ElementalArt_Magatama_EfficiencyUp": {
          "modifierName": "",
          "forceTriggerWhenChangeAuthority": true,
          "duration": "ElementalArt_Magatama_EfficiencyUp_Duration",
          "elementDurability": 100.0,
          "properties": {
            "Actor_ChargeEfficiencyExtraDelta": "ElementalArt_Magatama_EfficiencyUp"
          },
          "onAdded": [
            {
              "$type": "AttachEffect",
              "rotationDampTime": "Eff_Player_Electric_ElementalArt_Magatama_Buff",
              "PPPDJGDDOGD": 1.0,
              "AJDILHJFNKE": -1.0
            }
          ],
          "isLimitedProperties": true
        },
        "Player_Electric_ElementalArt_Magatama_ReviveExtraElemEnergy": {
          "modifierName": "",
          "duration": 0.5,
          "elementDurability": 100.0,
          "onAdded": [
            {
              "$type": "ReviveElemEnergy",
              "value": "ElementalArt_Magatama_ReviveElemEnergy"
            }
          ]
        },
        "Player_Electric_ElementalArt_Magatama_ReviveElemEnergy": {
          "modifierName": "",
          "duration": 0.5,
          "elementDurability": 100.0,
          "onAdded": [
            {
              "$type": "ReviveElemEnergy",
              "value": "ElementalArt_Magatama_ReviveElemEnergy"
            }
          ]
        },
        "Player_Electric_ElementalArt_Magatama_VFX": {
          "modifierName": "",
          "elementDurability": 100.0,
          "onAdded": [
            {
              "$type": "AttachEffect",
              "rotationDampTime": "Eff_Player_Electric_ElementalArt_Magatama",
              "PPPDJGDDOGD": 1.0,
              "AJDILHJFNKE": -1.0
            }
          ]
        },
        "Player_Electric_ElementalArt_Magatama_Life_Duration": {
          "modifierName": "",
          "duration": "ElementalArt_Magatama_Life_Duration",
          "elementDurability": 100.0,
          "onRemoved": [
            {
              "$type": "KillSelf"
            }
          ]
        }
      },
      "onAdded": [
        {
          "$type": "AttachModifier",
          "modifierName": "Player_Electric_ElementalArt_Magatama_VFX"
        },
        {
          "$type": "AttachModifier",
          "modifierName": "Player_Electric_ElementalArt_Magatama_Life_Duration"
        }
      ],
      "onKill": [
        {
          "$type": "FireEffect",
          "rotationDampTime": "Eff_Player_Electric_ElementalArt_Magatama_Die",
          "PPPDJGDDOGD": 1.0,
          "AJDILHJFNKE": -1.0
        }
      ],
      "onFieldEnter": [
        {
          "$type": "Predicated",
          "target": "Target",
          "targetPredicates": [
            {
              "$type": "ByTargetType",
              "targetType": "Owner",
              "isTarget": false,
              "ALBJEAMOFLG": ""
            },
            {
              "$type": "ByEntityTypes",
              "entityTypes": ["Avatar"]
            }
          ],
          "successActions": [
            {
              "$type": "ApplyModifier",
              "target": "Owner",
              "predicates": [
                {
                  "$type": "ByTargetPositionToSelfPosition",
                  "logic": "LesserOrEqual",
                  "value": 40.0,
                  "DDALGNLEHOD": ""
                }
              ],
              "modifierName": "Player_Electric_ElementalArt_Magatama_ModifySkillCD"
            }
          ]
        },
        {
          "$type": "ApplyModifier",
          "target": "Target",
          "predicates": [
            {
              "$type": "ByEntityTypes",
              "entityTypes": ["Avatar"]
            },
            {
              "$type": "ByEnergyRatio",
              "logic": "LesserOrEqual",
              "hpRatio": "ElementalArt_Magatama_ReviveExtraElemEnergy_Check_Percentage"
            },
            {
              "$type": "ByUnlockTalentParam",
              "talentParam": "Player_Electric_ElementalArt_ExtraEnergy"
            }
          ],
          "modifierName": "Player_Electric_ElementalArt_Magatama_ReviveExtraElemEnergy"
        },
        {
          "$type": "ApplyModifier",
          "target": "Target",
          "predicates": [
            {
              "$type": "ByEntityTypes",
              "entityTypes": ["Avatar"]
            }
          ],
          "modifierName": "Player_Electric_ElementalArt_Magatama_ReviveElemEnergy"
        },
        {
          "$type": "RemoveUniqueModifier",
          "target": "Target",
          "predicates": [
            {
              "$type": "ByEntityTypes",
              "entityTypes": ["Avatar"]
            }
          ],
          "modifierName": "UNIQUE_Player_Electric_ElementalArt_Magatama_EfficiencyUp"
        },
        {
          "$type": "RemoveUniqueModifier",
          "target": "Target",
          "predicates": [
            {
              "$type": "ByEntityTypes",
              "entityTypes": ["Avatar"]
            }
          ],
          "modifierName": "UNIQUE_Player_Electric_ElementalArt_Magatama_ExtraEfficiencyUp"
        },
        {
          "$type": "ApplyModifier",
          "target": "Target",
          "predicates": [
            {
              "$type": "ByEntityTypes",
              "entityTypes": ["Avatar"]
            },
            {
              "$type": "ByUnlockTalentParam",
              "talentParam": "Player_Electric_ElementalArt_ExtraChargeEfficiency"
            }
          ],
          "modifierName": "UNIQUE_Player_Electric_ElementalArt_Magatama_ExtraEfficiencyUp"
        },
        {
          "$type": "ApplyModifier",
          "target": "Target",
          "predicates": [
            {
              "$type": "ByEntityTypes",
              "entityTypes": ["Avatar"]
            }
          ],
          "modifierName": "UNIQUE_Player_Electric_ElementalArt_Magatama_EfficiencyUp"
        },
        {
          "$type": "KillSelf",
          "duration": 0.15000000596046448
        }
      ]
    }
  }
]
