[
  {
    "Default": {
      "$type": "ConfigAbility",
      "abilityName": "ClimateAbility_TsurumiMist",
      "modifiers": {
        "SERVER_ClimateAbility_TsurumiMist_Area": {
          "stacking": "Multiple",
          "modifierName": "",
          "elementDurability": 100.0,
          "thinkInterval": 1.0,
          "onAdded": [
            {
              "$type": "ApplyModifier",
              "predicates": [
                {
                  "$type": "ByIsLocalAvatar"
                }
              ],
              "modifierName": "UNIQUE_ClimateAbility_Avatar_TsurumiMistPoint_Search_Handler"
            }
          ],
          "onRemoved": [
            {
              "$type": "RemoveModifier",
              "shieldHP": true,
              "modifierName": "UNIQUE_ClimateAbility_Avatar_TsurumiMistPoint_Search_Handler"
            }
          ],
          "onThinkInterval": [
            {
              "$type": "ApplyModifier",
              "predicates": [
                {
                  "$type": "ByIsLocalAvatar"
                }
              ],
              "modifierName": "UNIQUE_ClimateAbility_Avatar_TsurumiMistPoint_Search_Handler"
            }
          ],
          "onAvatarIn": [
            {
              "$type": "ApplyModifier",
              "shieldHP": true,
              "modifierName": "UNIQUE_ClimateAbility_Avatar_TsurumiMistPoint_Search_Handler"
            }
          ],
          "onAvatarOut": [
            {
              "$type": "RemoveModifier",
              "shieldHP": true,
              "modifierName": "UNIQUE_ClimateAbility_Avatar_TsurumiMistPoint_Search_Handler"
            }
          ]
        },
        "UNIQUE_ClimateAbility_Avatar_TsurumiMistPoint_Search_Handler": {
          "modifierName": "",
          "forceTriggerWhenChangeAuthority": true,
          "elementDurability": 100.0,
          "thinkInterval": 0.5,
          "onThinkInterval": [
            {
              "$type": "Predicated",
              "otherTargets": {
                "$type": "SelectTargetsByShape",
                "shapeName": "CircleR12H10",
                "campTargetType": "All",
                "doOffStage": 1.0
              },
              "targetPredicates": [
                {
                  "$type": "ByTargetGlobalValue",
                  "key": "IS_TSURUMIMIST_POINT",
                  "value": 1.0
                }
              ],
              "successActions": [
                {
                  "$type": "ApplyModifier",
                  "target": "CurLocalAvatar",
                  "modifierName": "UNIQUE_TsurumiMistBuff"
                }
              ]
            }
          ]
        },
        "UNIQUE_TsurumiMistBuff": {
          "modifierName": "",
          "forceTriggerWhenChangeAuthority": true,
          "duration": 1.0,
          "elementDurability": 100.0,
          "thinkInterval": 0.20000000298023224,
          "modifierMixins": [
            {
              "$type": "BCFMIGNCJFK",
              "climateTypes": ["TsurumiRegionalMist"],
              "trend": "Rise",
              "hpRatio": -999.0,
              "damageRatio": "Current"
            }
          ],
          "onThinkInterval": [
            {
              "$type": "BPCFNMBFJJO",
              "climateType": "TsurumiRegionalMist",
              "value": -25.0
            }
          ]
        }
      }
    }
  },
  {
    "Default": {
      "$type": "ConfigAbility",
      "abilityName": "ClimateAbility_TatariRegion",
      "modifiers": {
        "SERVER_ClimateAbility_TatariRegion_Area": {
          "stacking": "Multiple",
          "modifierName": "",
          "elementDurability": 100.0,
          "thinkInterval": 1.0,
          "onAdded": [
            {
              "$type": "ApplyModifier",
              "predicates": [
                {
                  "$type": "ByIsLocalAvatar"
                }
              ],
              "modifierName": "UNIQUE_ClimateAbility_Avatar_TatariRegionPoint_Search_Handler"
            }
          ],
          "onRemoved": [
            {
              "$type": "RemoveModifier",
              "shieldHP": true,
              "modifierName": "UNIQUE_ClimateAbility_Avatar_TatariRegionPoint_Search_Handler"
            }
          ],
          "onThinkInterval": [
            {
              "$type": "ApplyModifier",
              "predicates": [
                {
                  "$type": "ByIsLocalAvatar"
                }
              ],
              "modifierName": "UNIQUE_ClimateAbility_Avatar_TatariRegionPoint_Search_Handler"
            }
          ],
          "onAvatarIn": [
            {
              "$type": "ApplyModifier",
              "shieldHP": true,
              "modifierName": "UNIQUE_ClimateAbility_Avatar_TatariRegionPoint_Search_Handler"
            }
          ],
          "onAvatarOut": [
            {
              "$type": "RemoveModifier",
              "shieldHP": true,
              "modifierName": "UNIQUE_ClimateAbility_Avatar_TatariRegionPoint_Search_Handler"
            }
          ]
        },
        "UNIQUE_ClimateAbility_Avatar_TatariRegionPoint_Search_Handler": {
          "modifierName": "",
          "forceTriggerWhenChangeAuthority": true,
          "elementDurability": 100.0,
          "thinkInterval": 0.5,
          "onThinkInterval": [
            {
              "$type": "Predicated",
              "otherTargets": {
                "$type": "SelectTargetsByShape",
                "shapeName": "CircleR5H10",
                "campTargetType": "All",
                "doOffStage": 1.0
              },
              "targetPredicates": [
                {
                  "$type": "ByTargetGlobalValue",
                  "key": "IS_TATAERIREGION_POINT",
                  "value": 1.0
                }
              ],
              "successActions": [
                {
                  "$type": "ApplyModifier",
                  "target": "CurLocalAvatar",
                  "modifierName": "UNIQUE_TatariRegionBuff"
                }
              ]
            }
          ]
        },
        "UNIQUE_TatariRegionBuff": {
          "modifierName": "",
          "forceTriggerWhenChangeAuthority": true,
          "duration": 1.0,
          "elementDurability": 100.0,
          "thinkInterval": 0.20000000298023224,
          "modifierMixins": [
            {
              "$type": "BCFMIGNCJFK",
              "climateTypes": ["TatariRegion"],
              "trend": "Rise",
              "hpRatio": -999.0,
              "damageRatio": "Current"
            }
          ],
          "onThinkInterval": [
            {
              "$type": "BPCFNMBFJJO",
              "climateType": "TatariRegion",
              "value": -50.0
            }
          ]
        },
        "SERVER_ClimateAbility_TatariRegion_Lv1": {
          "stacking": "Multiple",
          "modifierName": "",
          "elementDurability": 100.0
        },
        "UNIQUE_MinusElectricReject": {
          "stacking": "Unique",
          "modifierName": "",
          "forceTriggerWhenChangeAuthority": true,
          "duration": 0.5,
          "elementDurability": 100.0,
          "onAdded": [
            {
              "$type": "AddGlobalValue",
              "value": -1.0,
              "key": "_ABILITY_SceneObj_Electric_Fairy_Immunity_Time",
              "useLimitRange": true,
              "maxValue": 100.0,
              "minValue": 0.0
            }
          ]
        },
        "SERVER_ClimateAbility_TatariRegion_Lv2": {
          "stacking": "Multiple",
          "modifierName": "",
          "elementDurability": 100.0,
          "thinkInterval": 2.0,
          "onAdded": [
            {
              "$type": "SetGlobalValue",
              "target": "Team",
              "value": 0.0,
              "key": "_TatariRegionLoseHp",
              "maxValue": 0.0,
              "minValue": 0.0
            }
          ],
          "onRemoved": [
            {
              "$type": "SetGlobalValue",
              "target": "Team",
              "value": 0.0,
              "key": "_TatariRegionLoseHp",
              "maxValue": 0.0,
              "minValue": 0.0
            }
          ],
          "onThinkInterval": [
            {
              "$type": "SetGlobalValue",
              "target": "Team",
              "shieldHP": false,
              "predicates": [
                {
                  "$type": "INGPMALFKLK"
                },
                {
                  "$type": "ByTargetGlobalValue",
                  "target": "Self",
                  "key": "HAS_ELECTRIC_FAIRY_BUFF",
                  "value": 1.0
                }
              ],
              "value": 0.0,
              "key": "_TatariRegionLoseHp",
              "maxValue": 0.0,
              "minValue": 0.0
            },
            {
              "$type": "AddGlobalValue",
              "target": "Team",
              "shieldHP": false,
              "predicates": [
                {
                  "$type": "INGPMALFKLK"
                },
                {
                  "$type": "ByTargetGlobalValue",
                  "target": "Self",
                  "key": "HAS_ELECTRIC_FAIRY_BUFF",
                  "value": 0.0,
                  "compareType": "NoneOrEqual"
                }
              ],
              "value": 1.0,
              "key": "_TatariRegionLoseHp",
              "useLimitRange": true,
              "maxValue": 35.0,
              "minValue": 0.0
            },
            {
              "$type": "CopyGlobalValue",
              "shieldHP": true,
              "srcTarget": "Team",
              "dstTarget": "Self",
              "srcKey": "_TatariRegionLoseHp",
              "dstKey": "_TatariRegionLoseHp"
            },
            {
              "$type": "Predicated",
              "targetPredicates": [
                {
                  "$type": "ByTargetGlobalValue",
                  "key": "_TatariRegionLoseHp",
                  "value": 30.0,
                  "compareType": "MoreThan"
                }
              ],
              "successActions": [
                {
                  "$type": "LoseHP",
                  "target": "CurLocalAvatar",
                  "predicates": [
                    {
                      "$type": "INGPMALFKLK"
                    },
                    {
                      "$type": "ByNot",
                      "predicates": [
                        {
                          "$type": "ByTargetGlobalValue",
                          "key": "HAS_ELECTRIC_FAIRY_BUFF",
                          "value": 1.0
                        }
                      ]
                    },
                    {
                      "$type": "ByIsLocalAvatar"
                    }
                  ],
                  "amount": 450.0,
                  "CKDBFHCIJEK": 0.029999999329447746,
                  "enableInvincible": true,
                  "enableLockHP": true,
                  "disableWhenLoading": true,
                  "BJKGFBGEFPB": ""
                },
                {
                  "$type": "ApplyModifier",
                  "target": "Team",
                  "shieldHP": false,
                  "modifierName": "UNIQUE_MinusElectricReject"
                }
              ],
              "failActions": [
                {
                  "$type": "LoseHP",
                  "target": "CurLocalAvatar",
                  "predicates": [
                    {
                      "$type": "INGPMALFKLK"
                    },
                    {
                      "$type": "ByNot",
                      "predicates": [
                        {
                          "$type": "ByTargetGlobalValue",
                          "key": "HAS_ELECTRIC_FAIRY_BUFF",
                          "value": 1.0
                        }
                      ]
                    },
                    {
                      "$type": "ByIsLocalAvatar"
                    }
                  ],
                  "amount": 150.0,
                  "CKDBFHCIJEK": 0.009999999776482582,
                  "enableInvincible": true,
                  "enableLockHP": true,
                  "disableWhenLoading": true,
                  "BJKGFBGEFPB": ""
                },
                {
                  "$type": "ApplyModifier",
                  "target": "Team",
                  "shieldHP": false,
                  "modifierName": "UNIQUE_MinusElectricReject"
                }
              ]
            }
          ]
        }
      }
    }
  },
  {
    "Default": {
      "$type": "ConfigAbility",
      "abilityName": "ClimateAbility_SeiraiStorm",
      "modifiers": {
        "SERVER_ClimateAbility_SeiraiStorm_Area": {
          "stacking": "Multiple",
          "modifierName": "",
          "elementDurability": 100.0,
          "thinkInterval": 1.0,
          "onAdded": [
            {
              "$type": "ApplyModifier",
              "predicates": [
                {
                  "$type": "ByIsLocalAvatar"
                }
              ],
              "modifierName": "UNIQUE_ClimateAbility_Avatar_SeiraiStorm_Thunder_Handler"
            }
          ],
          "onRemoved": [
            {
              "$type": "RemoveModifier",
              "shieldHP": true,
              "modifierName": "UNIQUE_ClimateAbility_Avatar_SeiraiStorm_Thunder_Handler"
            }
          ],
          "onThinkInterval": [
            {
              "$type": "ApplyModifier",
              "predicates": [
                {
                  "$type": "ByIsLocalAvatar"
                }
              ],
              "modifierName": "UNIQUE_ClimateAbility_Avatar_SeiraiStorm_Thunder_Handler"
            }
          ],
          "onAvatarIn": [
            {
              "$type": "ApplyModifier",
              "shieldHP": true,
              "modifierName": "UNIQUE_ClimateAbility_Avatar_SeiraiStorm_Thunder_Handler"
            }
          ],
          "onAvatarOut": [
            {
              "$type": "RemoveModifier",
              "shieldHP": true,
              "modifierName": "UNIQUE_ClimateAbility_Avatar_SeiraiStorm_Thunder_Handler"
            }
          ]
        },
        "UNIQUE_ClimateAbility_Avatar_SeiraiStorm_Thunder_Handler": {
          "modifierName": "",
          "forceTriggerWhenChangeAuthority": true,
          "elementDurability": 100.0
        },
        "SERVER_ClimateAbility_SeiraiStorm_Lv1": {
          "stacking": "Multiple",
          "modifierName": "",
          "elementDurability": 100.0
        },
        "SERVER_ClimateAbility_SeiraiStorm_Lv2": {
          "stacking": "Multiple",
          "modifierName": "",
          "elementDurability": 100.0,
          "thinkInterval": 2.0,
          "onAdded": [
            {
              "$type": "AddGlobalValue",
              "target": "Team",
              "value": -20.0,
              "key": "_SeiraiStormLoseHp",
              "useLimitRange": true,
              "maxValue": 20.0,
              "minValue": 0.0
            }
          ],
          "onRemoved": [
            {
              "$type": "AddGlobalValue",
              "target": "Team",
              "value": -20.0,
              "key": "_SeiraiStormLoseHp",
              "useLimitRange": true,
              "maxValue": 20.0,
              "minValue": 0.0
            }
          ],
          "onThinkInterval": [
            {
              "$type": "AddGlobalValue",
              "target": "Team",
              "shieldHP": false,
              "predicates": [
                {
                  "$type": "INGPMALFKLK"
                }
              ],
              "value": 1.0,
              "key": "_SeiraiStormLoseHp",
              "useLimitRange": true,
              "maxValue": 20.0,
              "minValue": 0.0
            }
          ]
        }
      },
      "isDynamicAbility": true
    }
  },
  {
    "Default": {
      "$type": "ConfigAbility",
      "abilityName": "ClimateAbility_SeaMist",
      "modifiers": {
        "SERVER_ClimateAbility_Cold_Area": {
          "stacking": "Multiple",
          "modifierName": "",
          "elementDurability": 100.0,
          "thinkInterval": 1.0,
          "onAdded": [
            {
              "$type": "ApplyModifier",
              "predicates": [
                {
                  "$type": "ByIsLocalAvatar"
                }
              ],
              "modifierName": "UNIQUE_ClimateAbility_Avatar_SeaMistPoint_Search_Handler"
            }
          ],
          "onRemoved": [
            {
              "$type": "RemoveModifier",
              "shieldHP": true,
              "modifierName": "UNIQUE_ClimateAbility_Avatar_SeaMistPoint_Search_Handler"
            }
          ],
          "onThinkInterval": [
            {
              "$type": "ApplyModifier",
              "predicates": [
                {
                  "$type": "ByIsLocalAvatar"
                }
              ],
              "modifierName": "UNIQUE_ClimateAbility_Avatar_SeaMistPoint_Search_Handler"
            }
          ],
          "onAvatarIn": [
            {
              "$type": "ApplyModifier",
              "shieldHP": true,
              "modifierName": "UNIQUE_ClimateAbility_Avatar_SeaMistPoint_Search_Handler"
            }
          ],
          "onAvatarOut": [
            {
              "$type": "RemoveModifier",
              "shieldHP": true,
              "modifierName": "UNIQUE_ClimateAbility_Avatar_SeaMistPoint_Search_Handler"
            }
          ]
        },
        "UNIQUE_ClimateAbility_Avatar_SeaMistPoint_Search_Handler": {
          "modifierName": "",
          "forceTriggerWhenChangeAuthority": true,
          "elementDurability": 100.0,
          "thinkInterval": 0.5,
          "onThinkInterval": [
            {
              "$type": "Predicated",
              "otherTargets": {
                "$type": "SelectTargetsByShape",
                "shapeName": "CircleR6.5H5",
                "campTargetType": "All",
                "doOffStage": 1.0
              },
              "targetPredicates": [
                {
                  "$type": "ByTargetGlobalValue",
                  "key": "IS_SEAMIST_POINT",
                  "value": 1.0
                }
              ],
              "successActions": [
                {
                  "$type": "ApplyModifier",
                  "target": "CurLocalAvatar",
                  "modifierName": "UNIQUE_SeaMistBuff"
                }
              ]
            }
          ]
        },
        "UNIQUE_SeaMistBuff": {
          "modifierName": "",
          "forceTriggerWhenChangeAuthority": true,
          "duration": 1.0,
          "elementDurability": 100.0,
          "thinkInterval": 0.20000000298023224,
          "modifierMixins": [
            {
              "$type": "BCFMIGNCJFK",
              "climateTypes": ["SeaMist"],
              "trend": "Rise",
              "hpRatio": -999.0,
              "damageRatio": "Current"
            }
          ],
          "onThinkInterval": [
            {
              "$type": "BPCFNMBFJJO",
              "climateType": "SeaMist",
              "value": -5.0
            }
          ]
        }
      }
    }
  },
  {
    "Default": {
      "$type": "ConfigAbility",
      "abilityName": "ClimateAbility_Cold",
      "modifiers": {
        "SERVER_ClimateAbility_Cold_Area": {
          "stacking": "Multiple",
          "modifierName": "",
          "elementDurability": 100.0,
          "thinkInterval": 1.0,
          "onAdded": [
            {
              "$type": "ApplyModifier",
              "predicates": [
                {
                  "$type": "ByIsLocalAvatar"
                }
              ],
              "modifierName": "UNIQUE_ClimateAbility_Avatar_Warmpoint_Search_Handler"
            }
          ],
          "onRemoved": [
            {
              "$type": "NGODDGAOBJI",
              "target": "CurTeamAvatars",
              "sBuffId": 500101,
              "isTeamBuff": true
            },
            {
              "$type": "NGODDGAOBJI",
              "target": "CurTeamAvatars",
              "sBuffId": 500102,
              "isTeamBuff": true
            },
            {
              "$type": "RemoveModifier",
              "shieldHP": true,
              "modifierName": "UNIQUE_ClimateAbility_Avatar_Warmpoint_Search_Handler"
            }
          ],
          "onThinkInterval": [
            {
              "$type": "ApplyModifier",
              "predicates": [
                {
                  "$type": "ByIsLocalAvatar"
                }
              ],
              "modifierName": "UNIQUE_ClimateAbility_Avatar_Warmpoint_Search_Handler"
            }
          ],
          "onAvatarIn": [
            {
              "$type": "ApplyModifier",
              "shieldHP": true,
              "modifierName": "UNIQUE_ClimateAbility_Avatar_Warmpoint_Search_Handler"
            }
          ],
          "onAvatarOut": [
            {
              "$type": "RemoveModifier",
              "shieldHP": true,
              "modifierName": "UNIQUE_ClimateAbility_Avatar_Warmpoint_Search_Handler"
            }
          ]
        },
        "UNIQUE_ClimateAbility_Avatar_Warmpoint_Search_Handler": {
          "modifierName": "",
          "forceTriggerWhenChangeAuthority": true,
          "elementDurability": 100.0,
          "thinkInterval": 0.5,
          "onAdded": [
            {
              "$type": "SetGlobalValue",
              "target": "Team",
              "value": 1.0,
              "key": "_ABILITY_Salamander_SnowArea",
              "maxValue": 0.0,
              "minValue": 0.0
            }
          ],
          "onRemoved": [
            {
              "$type": "SetGlobalValue",
              "target": "Team",
              "value": 0.0,
              "key": "_ABILITY_Salamander_SnowArea",
              "maxValue": 0.0,
              "minValue": 0.0
            }
          ],
          "onThinkInterval": [
            {
              "$type": "Predicated",
              "otherTargets": {
                "$type": "SelectTargetsByShape",
                "shapeName": "CircleR6.5H5",
                "campTargetType": "All",
                "doOffStage": 1.0
              },
              "targetPredicates": [
                {
                  "$type": "ByTargetGlobalValue",
                  "key": "IS_WARM_POINT",
                  "value": 1.0
                }
              ],
              "successActions": [
                {
                  "$type": "ApplyModifier",
                  "target": "CurLocalAvatar",
                  "modifierName": "UNIQUE_WarmBuff"
                }
              ]
            }
          ]
        },
        "UNIQUE_WarmBuff": {
          "modifierName": "",
          "forceTriggerWhenChangeAuthority": true,
          "duration": 1.0,
          "elementDurability": 100.0,
          "thinkInterval": 0.20000000298023224,
          "modifierMixins": [
            {
              "$type": "BCFMIGNCJFK",
              "climateTypes": ["Cold"],
              "trend": "Rise",
              "hpRatio": -999.0,
              "damageRatio": "Current"
            }
          ],
          "onThinkInterval": [
            {
              "$type": "BPCFNMBFJJO",
              "climateType": "Cold",
              "value": -5.0
            }
          ]
        },
        "SERVER_ClimateAbility_Cold_Lv1": {
          "stacking": "Multiple",
          "modifierName": "",
          "elementDurability": 100.0,
          "onAdded": [
            {
              "$type": "ApplyModifier",
              "predicates": [
                {
                  "$type": "ByIsLocalAvatar"
                }
              ],
              "modifierName": "ClimateAbility_Cold_Lv1_Handler"
            },
            {
              "$type": "ApplyModifier",
              "predicates": [
                {
                  "$type": "ByIsLocalAvatar"
                }
              ],
              "modifierName": "ClimateAbility_Avatar_Perform_Handler"
            }
          ],
          "onRemoved": [
            {
              "$type": "RemoveModifier",
              "shieldHP": true,
              "modifierName": "ClimateAbility_Cold_Lv1_Handler"
            },
            {
              "$type": "RemoveModifier",
              "shieldHP": true,
              "modifierName": "ClimateAbility_Avatar_Perform_Handler"
            }
          ],
          "onAvatarIn": [
            {
              "$type": "ApplyModifier",
              "shieldHP": true,
              "modifierName": "ClimateAbility_Cold_Lv1_Handler"
            },
            {
              "$type": "ApplyModifier",
              "shieldHP": true,
              "modifierName": "ClimateAbility_Avatar_Perform_Handler"
            }
          ],
          "onAvatarOut": [
            {
              "$type": "RemoveModifier",
              "shieldHP": true,
              "modifierName": "ClimateAbility_Cold_Lv1_Handler"
            },
            {
              "$type": "RemoveModifier",
              "shieldHP": true,
              "modifierName": "ClimateAbility_Avatar_Perform_Handler"
            }
          ]
        },
        "ClimateAbility_Cold_Lv1_Handler": {
          "modifierName": "",
          "elementDurability": 100.0,
          "modifierMixins": [
            {
              "$type": "JJIHJPCPPGO",
              "abilityStates": [
                "ElementWet",
                "ElementFrozen",
                "ElementIce",
                "ElementFreeze"
              ],
              "modifierName": "UNIQUE_ClimateAbility_Cold_Lv1_Accelerator_IceAndWater"
            },
            {
              "$type": "JJIHJPCPPGO",
              "abilityStates": ["ElementFire", "ElementBurning"],
              "modifierName": "UNIQUE_ClimateAbility_Cold_Lv1_Accelerator_FireAndBurning"
            },
            {
              "$type": "AttachToStateIDMixin",
              "stateIDs": ["Swim"],
              "modifierName": "UNIQUE_ClimateAbility_Cold_Lv1_Accelerator_Swiming",
              "isCheckOnAttach": true,
              "DGFCLAIDIFI": ""
            }
          ]
        },
        "SERVER_ClimateAbility_Cold_Lv2": {
          "stacking": "Multiple",
          "modifierName": "",
          "elementDurability": 100.0,
          "thinkInterval": 1.0,
          "onThinkInterval": [
            {
              "$type": "LoseHP",
              "target": "CurLocalAvatar",
              "predicates": [
                {
                  "$type": "INGPMALFKLK"
                }
              ],
              "amount": 150.0,
              "CKDBFHCIJEK": 0.009999999776482582,
              "enableInvincible": true,
              "enableLockHP": true,
              "disableWhenLoading": true,
              "BJKGFBGEFPB": ""
            }
          ]
        },
        "UNIQUE_ClimateAbility_Cold_Lv1_Accelerator_Flag_Element": {
          "modifierName": "",
          "forceTriggerWhenChangeAuthority": true,
          "elementDurability": 100.0,
          "onAdded": [
            {
              "$type": "AddGlobalValue",
              "value": 1.0,
              "key": "_ABILITY_CLIMATE_COLD_ACCELERATOR_FLAG",
              "maxValue": 0.0,
              "minValue": 0.0
            }
          ],
          "onRemoved": [
            {
              "$type": "AddGlobalValue",
              "value": -1.0,
              "key": "_ABILITY_CLIMATE_COLD_ACCELERATOR_FLAG",
              "maxValue": 0.0,
              "minValue": 0.0
            }
          ]
        },
        "ClimateAbility_Cold_Lv1_Accelerator_Blank": {
          "modifierName": "",
          "elementDurability": 100.0
        },
        "ClimateAbility_Cold_Lv1_Accelerator": {
          "modifierName": "",
          "elementDurability": 100.0,
          "modifierMixins": [
            {
              "$type": "BCFMIGNCJFK",
              "climateTypes": ["Cold"],
              "source": "Climate",
              "trend": "Rise",
              "hpRatio": 0.5,
              "damageRatio": "Current"
            }
          ]
        },
        "UNIQUE_ClimateAbility_Cold_Lv1_Accelerator_IceAndWater": {
          "modifierName": "",
          "forceTriggerWhenChangeAuthority": true,
          "elementDurability": 100.0,
          "modifierMixins": [
            {
              "$type": "BCFMIGNCJFK",
              "climateTypes": ["Cold"],
              "source": "Climate",
              "trend": "Rise",
              "hpRatio": 0.20000000298023224,
              "damageRatio": "Current"
            }
          ]
        },
        "UNIQUE_ClimateAbility_Cold_Lv1_Accelerator_FireAndBurning": {
          "modifierName": "",
          "forceTriggerWhenChangeAuthority": true,
          "elementDurability": 100.0,
          "modifierMixins": [
            {
              "$type": "BCFMIGNCJFK",
              "climateTypes": ["Cold"],
              "source": "Climate",
              "trend": "Rise",
              "hpRatio": -0.20000000298023224,
              "damageRatio": "Current"
            }
          ]
        },
        "UNIQUE_ClimateAbility_Cold_Lv1_Accelerator_Swiming": {
          "modifierName": "",
          "forceTriggerWhenChangeAuthority": true,
          "elementDurability": 100.0,
          "modifierMixins": [
            {
              "$type": "BCFMIGNCJFK",
              "climateTypes": ["Cold"],
              "source": "Climate",
              "trend": "Rise",
              "hpRatio": 1.7999999523162842,
              "damageRatio": "Current"
            }
          ]
        },
        "ClimateAbility_Avatar_Perform_Handler": {
          "modifierName": "",
          "elementDurability": 100.0,
          "modifierMixins": [
            {
              "$type": "AttachToStateIDMixin",
              "stateIDs": ["NormalStandby"],
              "modifierName": "NormalStandby_Avatar_Perform_Cold_Breath",
              "DGFCLAIDIFI": ""
            },
            {
              "$type": "AttachToStateIDMixin",
              "stateIDs": ["Climb", "Sprint", "Fly"],
              "modifierName": "Move_Avatar_Perform_Cold_Breath",
              "DGFCLAIDIFI": ""
            },
            {
              "$type": "AttachToNormalizedTimeMixin",
              "stateID": "Walk",
              "modifierName": "Walk_Avatar_Perform_Cold_Breath",
              "DGFCLAIDIFI": ""
            },
            {
              "$type": "AttachToNormalizedTimeMixin",
              "stateID": "Run",
              "modifierName": "Run_Avatar_Perform_Cold_Breath",
              "DGFCLAIDIFI": ""
            }
          ]
        },
        "NormalStandby_Avatar_Perform_Cold_Breath": {
          "modifierName": "",
          "elementDurability": 100.0,
          "thinkInterval": 3.0,
          "onThinkInterval": [
            {
              "$type": "FireEffect",
              "predicates": [
                {
                  "$type": "ByNot",
                  "predicates": [
                    {
                      "$type": "BGMAGODJEMF",
                      "featureTagIDs": [10052]
                    }
                  ]
                }
              ],
              "rotationDampTime": "Eff_Character_Cold_Breath",
              "PPPDJGDDOGD": 1.0,
              "AJDILHJFNKE": -1.0
            }
          ]
        },
        "Move_Avatar_Perform_Cold_Breath": {
          "modifierName": "",
          "elementDurability": 100.0,
          "thinkInterval": 3.0,
          "onThinkInterval": [
            {
              "$type": "FireEffect",
              "predicates": [
                {
                  "$type": "ByNot",
                  "predicates": [
                    {
                      "$type": "BGMAGODJEMF",
                      "featureTagIDs": [10052]
                    }
                  ]
                }
              ],
              "rotationDampTime": "Eff_Character_Cold_Breath_Move",
              "PPPDJGDDOGD": 1.0,
              "AJDILHJFNKE": -1.0
            }
          ]
        },
        "Walk_Avatar_Perform_Cold_Breath": {
          "modifierName": "",
          "elementDurability": 100.0,
          "thinkInterval": 3.0,
          "onThinkInterval": [
            {
              "$type": "FireEffect",
              "predicates": [
                {
                  "$type": "ByNot",
                  "predicates": [
                    {
                      "$type": "BGMAGODJEMF",
                      "featureTagIDs": [10052]
                    }
                  ]
                }
              ],
              "rotationDampTime": "Eff_Character_Cold_Breath_Move",
              "PPPDJGDDOGD": 1.0,
              "AJDILHJFNKE": -1.0
            }
          ]
        },
        "Run_Avatar_Perform_Cold_Breath": {
          "modifierName": "",
          "elementDurability": 100.0,
          "thinkInterval": 2.0,
          "onThinkInterval": [
            {
              "$type": "FireEffect",
              "predicates": [
                {
                  "$type": "ByNot",
                  "predicates": [
                    {
                      "$type": "BGMAGODJEMF",
                      "featureTagIDs": [10052]
                    }
                  ]
                }
              ],
              "rotationDampTime": "Eff_Character_Cold_Breath_Move",
              "PPPDJGDDOGD": 1.0,
              "AJDILHJFNKE": -1.0
            }
          ]
        }
      }
    }
  },
  {
    "Default": {
      "$type": "ConfigAbility",
      "abilityName": "ClimateAbility_ColdMonster",
      "modifiers": {
        "SERVER_ClimateAbility_ColdMonster_Area": {
          "stacking": "Multiple",
          "modifierName": "",
          "elementDurability": 100.0,
          "thinkInterval": 1.0,
          "onAdded": [
            {
              "$type": "ApplyModifier",
              "predicates": [
                {
                  "$type": "ByIsLocalAvatar"
                }
              ],
              "modifierName": "UNIQUE_ClimateAbility_ColdMonster_Avatar_HotPoint_Search_Handler"
            }
          ],
          "onRemoved": [
            {
              "$type": "RemoveUniqueModifier",
              "shieldHP": true,
              "modifierName": "UNIQUE_ClimateAbility_ColdMonster_Avatar_HotPoint_Search_Handler"
            }
          ],
          "onThinkInterval": [
            {
              "$type": "ApplyModifier",
              "predicates": [
                {
                  "$type": "ByIsLocalAvatar"
                }
              ],
              "modifierName": "UNIQUE_ClimateAbility_ColdMonster_Avatar_HotPoint_Search_Handler"
            }
          ],
          "onAvatarIn": [
            {
              "$type": "ApplyModifier",
              "shieldHP": true,
              "modifierName": "UNIQUE_ClimateAbility_ColdMonster_Avatar_HotPoint_Search_Handler"
            }
          ],
          "onAvatarOut": [
            {
              "$type": "RemoveUniqueModifier",
              "shieldHP": true,
              "modifierName": "UNIQUE_ClimateAbility_ColdMonster_Avatar_HotPoint_Search_Handler"
            }
          ]
        },
        "UNIQUE_ClimateAbility_ColdMonster_Avatar_HotPoint_Search_Handler": {
          "modifierName": "",
          "forceTriggerWhenChangeAuthority": true,
          "elementDurability": 100.0,
          "thinkInterval": 0.5,
          "onThinkInterval": [
            {
              "$type": "Predicated",
              "otherTargets": {
                "$type": "SelectTargetsByShape",
                "shapeName": "CircleR3H5",
                "campTargetType": "All",
                "doOffStage": 1.0
              },
              "targetPredicates": [
                {
                  "$type": "ByTargetGlobalValue",
                  "key": "IS_HOTMONSTER_POINT",
                  "value": 1.0
                }
              ],
              "successActions": [
                {
                  "$type": "ApplyModifier",
                  "target": "CurLocalAvatar",
                  "modifierName": "UNIQUE_ColdMonster_ColdBuff"
                }
              ]
            }
          ]
        },
        "UNIQUE_ColdMonster_ColdBuff": {
          "modifierName": "",
          "forceTriggerWhenChangeAuthority": true,
          "duration": 1.0,
          "elementDurability": 100.0,
          "thinkInterval": 0.20000000298023224,
          "onThinkInterval": [
            {
              "$type": "BPCFNMBFJJO",
              "climateType": "ColdMonster",
              "value": -4.0
            }
          ],
          "onThinkIntervalIsFixedUpdate": true
        },
        "SERVER_ClimateAbility_ColdMonster_Lv1": {
          "stacking": "Multiple",
          "modifierName": "",
          "elementDurability": 100.0,
          "onAdded": [
            {
              "$type": "ApplyModifier",
              "predicates": [
                {
                  "$type": "ByIsLocalAvatar"
                }
              ],
              "modifierName": "ClimateAbility_ColdMonster_Lv1_Handler"
            },
            {
              "$type": "ApplyModifier",
              "predicates": [
                {
                  "$type": "ByIsLocalAvatar"
                }
              ],
              "modifierName": "ClimateAbility_Avatar_Perform_Handler"
            }
          ],
          "onRemoved": [
            {
              "$type": "RemoveModifier",
              "shieldHP": true,
              "modifierName": "ClimateAbility_ColdMonster_Lv1_Handler"
            },
            {
              "$type": "RemoveModifier",
              "shieldHP": true,
              "modifierName": "ClimateAbility_Avatar_Perform_Handler"
            }
          ],
          "onAvatarIn": [
            {
              "$type": "ApplyModifier",
              "shieldHP": true,
              "modifierName": "ClimateAbility_ColdMonster_Lv1_Handler"
            },
            {
              "$type": "ApplyModifier",
              "shieldHP": true,
              "modifierName": "ClimateAbility_Avatar_Perform_Handler"
            }
          ],
          "onAvatarOut": [
            {
              "$type": "RemoveModifier",
              "shieldHP": true,
              "modifierName": "ClimateAbility_ColdMonster_Lv1_Handler"
            },
            {
              "$type": "RemoveModifier",
              "shieldHP": true,
              "modifierName": "ClimateAbility_Avatar_Perform_Handler"
            }
          ]
        },
        "ClimateAbility_ColdMonster_Lv1_Handler": {
          "modifierName": "",
          "elementDurability": 100.0,
          "modifierMixins": [
            {
              "$type": "JJIHJPCPPGO",
              "abilityStates": [
                "ElementWet",
                "ElementFrozen",
                "ElementIce",
                "ElementFreeze"
              ],
              "modifierName": "UNIQUE_ClimateAbility_ColdMonster_Lv1_Accelerator_IceAndWater"
            },
            {
              "$type": "JJIHJPCPPGO",
              "abilityStates": ["ElementFire", "ElementBurning"],
              "modifierName": "UNIQUE_ClimateAbility_ColdMonster_Lv1_Accelerator_FireAndBurning"
            }
          ]
        },
        "SERVER_ClimateAbility_ColdMonster_Lv2": {
          "stacking": "Multiple",
          "modifierName": "",
          "elementDurability": 100.0,
          "thinkInterval": 1.0,
          "onThinkInterval": [
            {
              "$type": "LoseHP",
              "target": "CurLocalAvatar",
              "predicates": [
                {
                  "$type": "INGPMALFKLK"
                },
                {
                  "$type": "ByTargetGlobalValue",
                  "key": "_MONSTER_LASIGNORA_CLIMATE_QUESTADJUST",
                  "value": 0.0,
                  "compareType": "NoneOrEqual"
                }
              ],
              "amount": 150.0,
              "CKDBFHCIJEK": 0.029999999329447746,
              "enableInvincible": true,
              "enableLockHP": true,
              "disableWhenLoading": true,
              "BJKGFBGEFPB": ""
            },
            {
              "$type": "LoseHP",
              "target": "CurLocalAvatar",
              "predicates": [
                {
                  "$type": "INGPMALFKLK"
                },
                {
                  "$type": "ByTargetGlobalValue",
                  "key": "_MONSTER_LASIGNORA_CLIMATE_QUESTADJUST",
                  "value": 1.0
                },
                {
                  "$type": "ByTargetGlobalValue",
                  "key": "_MONSTER_LASIGNORA_STORYADJUST",
                  "value": 0.0,
                  "compareType": "NoneOrEqual"
                }
              ],
              "amount": 150.0,
              "CKDBFHCIJEK": 0.009999999776482582,
              "enableInvincible": true,
              "enableLockHP": true,
              "disableWhenLoading": true,
              "BJKGFBGEFPB": ""
            },
            {
              "$type": "LoseHP",
              "target": "CurLocalAvatar",
              "predicates": [
                {
                  "$type": "INGPMALFKLK"
                },
                {
                  "$type": "ByTargetGlobalValue",
                  "key": "_MONSTER_LASIGNORA_CLIMATE_QUESTADJUST",
                  "value": 1.0
                },
                {
                  "$type": "ByTargetGlobalValue",
                  "key": "_MONSTER_LASIGNORA_STORYADJUST",
                  "value": 1.0
                }
              ],
              "amount": 100.0,
              "CKDBFHCIJEK": 0.0,
              "enableInvincible": true,
              "enableLockHP": true,
              "disableWhenLoading": true,
              "BJKGFBGEFPB": ""
            }
          ]
        },
        "UNIQUE_ClimateAbility_ColdMonster_Lv1_Accelerator_IceAndWater": {
          "modifierName": "",
          "forceTriggerWhenChangeAuthority": true,
          "elementDurability": 100.0,
          "modifierMixins": [
            {
              "$type": "BCFMIGNCJFK",
              "climateTypes": ["ColdMonster"],
              "source": "Climate",
              "trend": "Rise",
              "hpRatio": 0.20000000298023224,
              "damageRatio": "Current"
            }
          ]
        },
        "UNIQUE_ClimateAbility_ColdMonster_Lv1_Accelerator_FireAndBurning": {
          "modifierName": "",
          "forceTriggerWhenChangeAuthority": true,
          "elementDurability": 100.0,
          "modifierMixins": [
            {
              "$type": "BCFMIGNCJFK",
              "climateTypes": ["ColdMonster"],
              "source": "Climate",
              "trend": "Rise",
              "hpRatio": -0.20000000298023224,
              "damageRatio": "Current"
            }
          ]
        },
        "ClimateAbility_Avatar_Perform_Handler": {
          "modifierName": "",
          "elementDurability": 100.0,
          "modifierMixins": [
            {
              "$type": "AttachToStateIDMixin",
              "stateIDs": ["NormalStandby"],
              "modifierName": "NormalStandby_Avatar_Perform_Cold_Breath",
              "DGFCLAIDIFI": ""
            },
            {
              "$type": "AttachToStateIDMixin",
              "stateIDs": ["Climb", "Sprint", "Fly"],
              "modifierName": "Move_Avatar_Perform_Cold_Breath",
              "DGFCLAIDIFI": ""
            },
            {
              "$type": "AttachToNormalizedTimeMixin",
              "stateID": "Walk",
              "modifierName": "Walk_Avatar_Perform_Cold_Breath",
              "DGFCLAIDIFI": ""
            },
            {
              "$type": "AttachToNormalizedTimeMixin",
              "stateID": "Run",
              "modifierName": "Run_Avatar_Perform_Cold_Breath",
              "DGFCLAIDIFI": ""
            }
          ]
        },
        "NormalStandby_Avatar_Perform_Cold_Breath": {
          "modifierName": "",
          "elementDurability": 100.0,
          "thinkInterval": 3.0,
          "onThinkInterval": [
            {
              "$type": "FireEffect",
              "rotationDampTime": "Eff_Character_Cold_Breath",
              "PPPDJGDDOGD": 1.0,
              "AJDILHJFNKE": -1.0
            }
          ]
        },
        "Move_Avatar_Perform_Cold_Breath": {
          "modifierName": "",
          "elementDurability": 100.0,
          "thinkInterval": 3.0,
          "onThinkInterval": [
            {
              "$type": "FireEffect",
              "rotationDampTime": "Eff_Character_Cold_Breath_Move",
              "PPPDJGDDOGD": 1.0,
              "AJDILHJFNKE": -1.0
            }
          ]
        },
        "Walk_Avatar_Perform_Cold_Breath": {
          "modifierName": "",
          "elementDurability": 100.0,
          "thinkInterval": 3.0,
          "onThinkInterval": [
            {
              "$type": "FireEffect",
              "rotationDampTime": "Eff_Character_Cold_Breath_Move",
              "PPPDJGDDOGD": 1.0,
              "AJDILHJFNKE": -1.0
            }
          ]
        },
        "Run_Avatar_Perform_Cold_Breath": {
          "modifierName": "",
          "elementDurability": 100.0,
          "thinkInterval": 2.0,
          "onThinkInterval": [
            {
              "$type": "FireEffect",
              "rotationDampTime": "Eff_Character_Cold_Breath_Move",
              "PPPDJGDDOGD": 1.0,
              "AJDILHJFNKE": -1.0
            }
          ]
        }
      }
    }
  },
  {
    "Default": {
      "$type": "ConfigAbility",
      "abilityName": "ClimateAbility_HotMonster",
      "modifiers": {
        "SERVER_ClimateAbility_HotMonster_Area": {
          "stacking": "Multiple",
          "modifierName": "",
          "elementDurability": 100.0,
          "thinkInterval": 1.0,
          "onAdded": [
            {
              "$type": "ApplyModifier",
              "predicates": [
                {
                  "$type": "ByIsLocalAvatar"
                }
              ],
              "modifierName": "UNIQUE_ClimateAbility_HotMonster_Avatar_ColdPoint_Search_Handler"
            }
          ],
          "onRemoved": [
            {
              "$type": "RemoveUniqueModifier",
              "shieldHP": true,
              "modifierName": "UNIQUE_ClimateAbility_HotMonster_Avatar_ColdPoint_Search_Handler"
            }
          ],
          "onThinkInterval": [
            {
              "$type": "ApplyModifier",
              "predicates": [
                {
                  "$type": "ByIsLocalAvatar"
                }
              ],
              "modifierName": "UNIQUE_ClimateAbility_HotMonster_Avatar_ColdPoint_Search_Handler"
            }
          ],
          "onAvatarIn": [
            {
              "$type": "ApplyModifier",
              "shieldHP": true,
              "modifierName": "UNIQUE_ClimateAbility_HotMonster_Avatar_ColdPoint_Search_Handler"
            }
          ],
          "onAvatarOut": [
            {
              "$type": "RemoveUniqueModifier",
              "shieldHP": true,
              "modifierName": "UNIQUE_ClimateAbility_HotMonster_Avatar_ColdPoint_Search_Handler"
            }
          ]
        },
        "UNIQUE_ClimateAbility_HotMonster_Avatar_ColdPoint_Search_Handler": {
          "modifierName": "",
          "forceTriggerWhenChangeAuthority": true,
          "elementDurability": 100.0,
          "thinkInterval": 0.5,
          "onThinkInterval": [
            {
              "$type": "Predicated",
              "otherTargets": {
                "$type": "SelectTargetsByShape",
                "shapeName": "CircleR3H5",
                "campTargetType": "All",
                "doOffStage": 1.0
              },
              "targetPredicates": [
                {
                  "$type": "ByTargetGlobalValue",
                  "key": "IS_COLDMONSTER_POINT",
                  "value": 1.0
                }
              ],
              "successActions": [
                {
                  "$type": "ApplyModifier",
                  "target": "CurLocalAvatar",
                  "modifierName": "UNIQUE_HotMonster_ColdBuff"
                }
              ]
            }
          ]
        },
        "UNIQUE_HotMonster_ColdBuff": {
          "modifierName": "",
          "forceTriggerWhenChangeAuthority": true,
          "duration": 1.0,
          "elementDurability": 100.0,
          "thinkInterval": 0.20000000298023224,
          "onThinkInterval": [
            {
              "$type": "BPCFNMBFJJO",
              "climateType": "HotMonster",
              "value": -4.0
            }
          ],
          "onThinkIntervalIsFixedUpdate": true
        },
        "SERVER_ClimateAbility_HotMonster_Lv1": {
          "stacking": "Multiple",
          "modifierName": "",
          "elementDurability": 100.0,
          "onAdded": [
            {
              "$type": "ApplyModifier",
              "predicates": [
                {
                  "$type": "ByIsLocalAvatar"
                }
              ],
              "modifierName": "ClimateAbility_HotMonster_Lv1_Handler"
            }
          ],
          "onRemoved": [
            {
              "$type": "RemoveModifier",
              "shieldHP": true,
              "modifierName": "ClimateAbility_HotMonster_Lv1_Handler"
            }
          ],
          "onAvatarIn": [
            {
              "$type": "ApplyModifier",
              "shieldHP": true,
              "modifierName": "ClimateAbility_HotMonster_Lv1_Handler"
            }
          ],
          "onAvatarOut": [
            {
              "$type": "RemoveModifier",
              "shieldHP": true,
              "modifierName": "ClimateAbility_HotMonster_Lv1_Handler"
            }
          ]
        },
        "ClimateAbility_HotMonster_Lv1_Handler": {
          "modifierName": "",
          "elementDurability": 100.0,
          "modifierMixins": [
            {
              "$type": "JJIHJPCPPGO",
              "abilityStates": [
                "ElementWet",
                "ElementFrozen",
                "ElementIce",
                "ElementFreeze"
              ],
              "modifierName": "UNIQUE_ClimateAbility_HotMonster_Lv1_Accelerator_IceAndWater"
            },
            {
              "$type": "JJIHJPCPPGO",
              "abilityStates": ["ElementFire", "ElementBurning"],
              "modifierName": "UNIQUE_ClimateAbility_HotMonster_Lv1_Accelerator_FireAndBurning"
            }
          ]
        },
        "SERVER_ClimateAbility_HotMonster_Lv2": {
          "stacking": "Multiple",
          "modifierName": "",
          "elementDurability": 100.0,
          "thinkInterval": 1.0,
          "onThinkInterval": [
            {
              "$type": "LoseHP",
              "target": "CurLocalAvatar",
              "predicates": [
                {
                  "$type": "INGPMALFKLK"
                },
                {
                  "$type": "ByTargetGlobalValue",
                  "key": "_MONSTER_LASIGNORA_HARBINGER_CLIMATE_QUESTADJUST",
                  "value": 0.0,
                  "compareType": "NoneOrEqual"
                }
              ],
              "amount": 150.0,
              "CKDBFHCIJEK": 0.029999999329447746,
              "enableInvincible": true,
              "enableLockHP": true,
              "disableWhenLoading": true,
              "BJKGFBGEFPB": ""
            },
            {
              "$type": "LoseHP",
              "target": "CurLocalAvatar",
              "predicates": [
                {
                  "$type": "INGPMALFKLK"
                },
                {
                  "$type": "ByTargetGlobalValue",
                  "key": "_MONSTER_LASIGNORA_HARBINGER_CLIMATE_QUESTADJUST",
                  "value": 1.0
                },
                {
                  "$type": "ByTargetGlobalValue",
                  "key": "_MONSTER_LASIGNORA_HARBINGER_STORYADJUST",
                  "value": 0.0,
                  "compareType": "NoneOrEqual"
                }
              ],
              "amount": 150.0,
              "CKDBFHCIJEK": 0.009999999776482582,
              "enableInvincible": true,
              "enableLockHP": true,
              "disableWhenLoading": true,
              "BJKGFBGEFPB": ""
            },
            {
              "$type": "LoseHP",
              "target": "CurLocalAvatar",
              "predicates": [
                {
                  "$type": "INGPMALFKLK"
                },
                {
                  "$type": "ByTargetGlobalValue",
                  "key": "_MONSTER_LASIGNORA_HARBINGER_CLIMATE_QUESTADJUST",
                  "value": 1.0
                },
                {
                  "$type": "ByTargetGlobalValue",
                  "key": "_MONSTER_LASIGNORA_HARBINGER_STORYADJUST",
                  "value": 1.0
                }
              ],
              "amount": 100.0,
              "CKDBFHCIJEK": 0.0,
              "enableInvincible": true,
              "enableLockHP": true,
              "disableWhenLoading": true,
              "BJKGFBGEFPB": ""
            }
          ]
        },
        "UNIQUE_ClimateAbility_HotMonster_Lv1_Accelerator_IceAndWater": {
          "modifierName": "",
          "forceTriggerWhenChangeAuthority": true,
          "elementDurability": 100.0,
          "modifierMixins": [
            {
              "$type": "BCFMIGNCJFK",
              "climateTypes": ["HotMonster"],
              "source": "Climate",
              "trend": "Rise",
              "hpRatio": -0.20000000298023224,
              "damageRatio": "Current"
            }
          ]
        },
        "UNIQUE_ClimateAbility_HotMonster_Lv1_Accelerator_FireAndBurning": {
          "modifierName": "",
          "forceTriggerWhenChangeAuthority": true,
          "elementDurability": 100.0,
          "modifierMixins": [
            {
              "$type": "BCFMIGNCJFK",
              "climateTypes": ["HotMonster"],
              "source": "Climate",
              "trend": "Rise",
              "hpRatio": 0.20000000298023224,
              "damageRatio": "Current"
            }
          ]
        }
      }
    }
  }
]
