[
  {
    "Default": {
      "$type": "ConfigAbility",
      "abilityName": "DynamicAbility_ArcLight_Predicate",
      "abilityMixins": [
        {
          "$type": "IKKCOEMOKIE",
          "tag": "ArcLight",
          "GLKIFCGEKCA": "GV_AvatarIn_ArcLight_Common",
          "speed": "GV_AvatarIn_Curve_Speed_Common",
          "isTeam": true,
          "BLMJDMNFEJC": ""
        }
      ],
      "isDynamicAbility": true
    }
  },
  {
    "Default": {
      "$type": "ConfigAbility",
      "abilityName": "DynamicAbility_ArcLight_HideSlot_Y_MultLongling",
      "abilityMixins": [
        {
          "$type": "AttachModifierToSelfGlobalValueNoInitMixin",
          "globalValueKey": "GV_AvatarIn_ArcLight_Common",
          "valueSteps": [0.5, 1.5],
          "modifierNameSteps": ["ArcLight_HideSlot_Y_MultLongling"],
          "NMCLMHFBALJ": true
        }
      ],
      "modifiers": {
        "ArcLight_HideSlot_Y_MultLongling": {
          "modifierName": "",
          "elementDurability": 100.0,
          "onAdded": [
            {
              "$type": "SetGlobalValue",
              "target": "Vehicle",
              "value": 1.0,
              "key": "_Mosasaurus_Is_In_ArcLight",
              "maxValue": 0.0,
              "minValue": 0.0
            },
            {
              "$type": "SetGlobalValue",
              "value": 1.0,
              "key": "Disable_Transfer_Vehicle_From_ArcLight",
              "maxValue": 0.0,
              "minValue": 0.0
            }
          ],
          "onRemoved": [
            {
              "$type": "SetGlobalValue",
              "target": "Vehicle",
              "value": 0.0,
              "key": "_Mosasaurus_Is_In_ArcLight",
              "maxValue": 0.0,
              "minValue": 0.0
            },
            {
              "$type": "SetGlobalValue",
              "value": 0.0,
              "key": "Disable_Transfer_Vehicle_From_ArcLight",
              "maxValue": 0.0,
              "minValue": 0.0
            }
          ]
        }
      },
      "isDynamicAbility": true
    }
  },
  {
    "Default": {
      "$type": "ConfigAbility",
      "abilityName": "SceneObj_Area_Nt_Property_Prop_YouLieDragon_Collision_DynamicAbility",
      "abilityMixins": [
        {
          "$type": "AttachModifierToSelfGlobalValueNoInitMixin",
          "globalValueKey": "GV_AvatarIn_ArcLight_Common",
          "valueSteps": [0.5, 1.5],
          "modifierNameSteps": ["ArcLight_Common_Collider"],
          "NMCLMHFBALJ": true
        }
      ],
      "modifiers": {
        "ArcLight_Common_Collider": {
          "modifierName": "",
          "elementDurability": 100.0,
          "modifierMixins": [
            {
              "$type": "IGCCGKILJEA",
              "triggerName": "YouLieDragon_Collision",
              "DBGFCICDHLG": "RootNode",
              "NLPLPPIMNKF": {
                "shapeName": "SphereR1",
                "KPFPCEEALPH": "Character",
                "prefabName": "",
                "triggerType": "TriggerAlways",
                "triggerCD": 3.0,
                "campTargetType": "All"
              },
              "BNGKJLBOCJJ": [
                {
                  "$type": "Predicated",
                  "target": "Target",
                  "targetPredicates": [
                    {
                      "$type": "ByTargetGlobalValue",
                      "key": "Is_ArcLight_SpeedUp",
                      "value": 1.0
                    }
                  ],
                  "successActions": [
                    {
                      "$type": "ApplyModifier",
                      "otherTargets": {
                        "$type": "MPCBJEMGPJO",
                        "BNEILALINLG": {
                          "$type": "GHCGDDCEJKD",
                          "target": "Vehicle"
                        },
                        "DMNLEFGBCGC": {
                          "$type": "GHCGDDCEJKD",
                          "target": "CurLocalAvatar"
                        }
                      },
                      "modifierName": "ArcLightSpeedUp"
                    }
                  ]
                }
              ]
            }
          ]
        },
        "ArcLightSpeedUp": {
          "modifierName": "",
          "duration": 0.6700000166893005,
          "elementDurability": 100.0,
          "modifierMixins": [
            {
              "$type": "ILFLCDBHPNO",
              "FPLOBLGAHFD": 20.0,
              "lerpInTime": 0.10000000149011612,
              "lerpOutTime": 0.20000000298023224
            }
          ],
          "onAdded": [
            {
              "$type": "OMDKBFJEGHF"
            }
          ]
        }
      },
      "isDynamicAbility": true
    }
  },
  {
    "Default": {
      "$type": "ConfigAbility",
      "abilityName": "DynamicAbility_CommonArcLight_Invincible_V5_0",
      "abilityMixins": [
        {
          "$type": "AttachModifierToSelfGlobalValueNoInitMixin",
          "globalValueKey": "GV_AvatarIn_ArcLight_Common",
          "valueSteps": [0.5, 1.5],
          "modifierNameSteps": ["Avatar_In_ArcLight"],
          "NMCLMHFBALJ": true
        }
      ],
      "modifiers": {
        "Avatar_In_ArcLight": {
          "modifierName": "",
          "elementDurability": 100.0,
          "modifierMixins": [
            {
              "$type": "AttachModifierToGlobalValueMixin",
              "globalValueTarget": "CurLocalAvatar",
              "globalValueKey": "_ABILITY_Activity_ArcLightType",
              "valueSteps": [0.5, 1.5, 2.5],
              "modifierNameSteps": [
                "Limbo_AvatarInArcLight_Team",
                "Invincible_AvatarInArcLight_Team"
              ],
              "NMCLMHFBALJ": true
            },
            {
              "$type": "AttachModifierToGlobalValueMixin",
              "globalValueTarget": "Vehicle",
              "globalValueKey": "_ABILITY_Activity_ArcLightType",
              "valueSteps": [0.5, 1.5, 2.5],
              "modifierNameSteps": [
                "Limbo_VehicleInArcLight_Team",
                "Invincible_VechileInArcLight_Team"
              ],
              "NMCLMHFBALJ": true
            }
          ]
        },
        "Invincible_AvatarInArcLight_Team": {
          "modifierName": "",
          "elementDurability": 100.0,
          "modifierMixins": [
            {
              "$type": "EEPKCGMKKJC",
              "modifierName": "Invincible_InArcLight"
            }
          ]
        },
        "Limbo_AvatarInArcLight_Team": {
          "modifierName": "",
          "elementDurability": 100.0,
          "modifierMixins": [
            {
              "$type": "EEPKCGMKKJC",
              "modifierName": "Limbo_InArcLight"
            }
          ]
        },
        "Invincible_VechileInArcLight_Team": {
          "modifierName": "",
          "elementDurability": 100.0,
          "modifierMixins": [
            {
              "$type": "EEPKCGMKKJC",
              "modifierName": "Invincible_InArcLight"
            }
          ],
          "onAdded": [
            {
              "$type": "AttachModifier",
              "target": "Vehicle",
              "modifierName": "Invincible_InArcLight"
            }
          ]
        },
        "Limbo_VehicleInArcLight_Team": {
          "modifierName": "",
          "elementDurability": 100.0,
          "modifierMixins": [
            {
              "$type": "EEPKCGMKKJC",
              "modifierName": "Limbo_InArcLight"
            }
          ],
          "onAdded": [
            {
              "$type": "AttachModifier",
              "target": "Vehicle",
              "modifierName": "Limbo_InArcLight"
            }
          ]
        },
        "Invincible_InArcLight": {
          "modifierName": "",
          "elementDurability": 100.0,
          "state": "Invincible"
        },
        "Limbo_InArcLight": {
          "modifierName": "",
          "elementDurability": 100.0,
          "state": "Limbo"
        }
      },
      "isDynamicAbility": true
    }
  },
  {
    "Default": {
      "$type": "ConfigAbility",
      "abilityName": "DynamicAbility_CommonArcLight_V5_0",
      "abilityMixins": [
        {
          "$type": "AttachModifierToSelfGlobalValueNoInitMixin",
          "globalValueKey": "GV_AvatarIn_ArcLight_Common",
          "valueSteps": [0.5, 1.5],
          "modifierNameSteps": ["Avatar_In_Curve_Common"],
          "NMCLMHFBALJ": true
        }
      ],
      "modifiers": {
        "Avatar_In_Curve_Common": {
          "modifierName": "",
          "elementDurability": 100.0,
          "onAdded": [
            {
              "$type": "MCOBFPMHMHJ",
              "luaCallType": "LevelBankZoneContainsGroup",
              "callParamList": [10013],
              "sourceName": "ArcLight_ConnectGroup",
              "paramNum": 1,
              "param1": 1.0,
              "MGAMDEHMCOL": 0.0,
              "MMHOHAOGPLP": 0.0
            }
          ],
          "onRemoved": [
            {
              "$type": "MCOBFPMHMHJ",
              "luaCallType": "LevelBankZoneContainsGroup",
              "callParamList": [10013],
              "sourceName": "ArcLight_DisconnectGroup",
              "paramNum": 1,
              "param1": 1.0,
              "MGAMDEHMCOL": 0.0,
              "MMHOHAOGPLP": 0.0
            }
          ]
        }
      },
      "isDynamicAbility": true
    }
  },
  {
    "Default": {
      "$type": "ConfigAbility",
      "abilityName": "DynamicAbility_ArcLight_Challenge",
      "abilityMixins": [
        {
          "$type": "AttachModifierToGlobalValueMixin",
          "globalValueKey": "GV_AvatarIn_ArcLight_Common",
          "valueSteps": [0.5, 1.5],
          "modifierNameSteps": ["ArcLight_Challenge_Block_JumpButton"],
          "NMCLMHFBALJ": true
        }
      ],
      "modifiers": {
        "ArcLight_Challenge_Block_JumpButton": {
          "modifierName": "",
          "elementDurability": 100.0,
          "modifierMixins": [
            {
              "$type": "KAIOONFFNHC",
              "slotType": "Slot5"
            },
            {
              "$type": "KAIOONFFNHC",
              "slotType": "Slot2"
            },
            {
              "$type": "KAIOONFFNHC",
              "slotType": "SlotExtra"
            }
          ]
        }
      },
      "isDynamicAbility": true
    }
  },
  {
    "Default": {
      "$type": "ConfigAbility",
      "abilityName": "DynamicAbility_ArcLight_Wathcer",
      "abilityMixins": [
        {
          "$type": "AttachModifierToGlobalValueMixin",
          "globalValueKey": "GV_AvatarIn_ArcLight_Common",
          "valueSteps": [0.5, 1.5],
          "modifierNameSteps": ["ArcLight_Wathcer"],
          "NMCLMHFBALJ": true
        }
      ],
      "modifiers": {
        "ArcLight_Wathcer": {
          "modifierName": "",
          "elementDurability": 100.0,
          "onAdded": [
            {
              "$type": "HCLAKBJKPLE",
              "target": "CurLocalAvatar",
              "watcherId": 10240
            },
            {
              "$type": "HCLAKBJKPLE",
              "target": "CurLocalAvatar",
              "watcherId": 81516
            }
          ]
        }
      },
      "isDynamicAbility": true
    }
  },
  {
    "Default": {
      "$type": "ConfigAbility",
      "abilityName": "DynamicAbility_ArcLight_ExtraEff",
      "abilityMixins": [
        {
          "$type": "AttachModifierToGlobalValueMixin",
          "globalValueKey": "GV_AvatarIn_ArcLight_Common",
          "valueSteps": [0.5, 1.5],
          "modifierNameSteps": ["ArcLight_Extra_Effect"],
          "NMCLMHFBALJ": true
        }
      ],
      "modifiers": {
        "ArcLight_Extra_Effect": {
          "modifierName": "",
          "elementDurability": 100.0,
          "thinkInterval": 5.0,
          "modifierMixins": [
            {
              "$type": "TriggerPostProcessEffectMixin",
              "postEffectAssetName": "PostEffect_Scene_ArcLight_01",
              "duration": 0.0
            }
          ],
          "onAdded": [
            {
              "$type": "ApplyModifier",
              "modifierName": "ArcLight_Eff"
            },
            {
              "$type": "AttachModifier",
              "shieldHP": true,
              "predicates": [
                {
                  "$type": "HPHKLAMPGJJ",
                  "sceneTypes": ["SCENE_WORLD"]
                }
              ],
              "modifierName": "ArcLight_PostEffect"
            }
          ],
          "onThinkInterval": [
            {
              "$type": "AttachModifier",
              "shieldHP": true,
              "predicates": [
                {
                  "$type": "HPHKLAMPGJJ",
                  "sceneTypes": ["SCENE_WORLD"]
                }
              ],
              "modifierName": "ArcLight_PostEffect"
            }
          ]
        },
        "ArcLight_PostEffect": {
          "modifierName": "",
          "elementDurability": 100.0,
          "modifierMixins": [
            {
              "$type": "TriggerWeatherMixin",
              "damageRatio": "Skill",
              "weatherPattern": "Weather_ArcLight",
              "transDuration": 0.30000001192092896
            }
          ]
        },
        "ArcLight_Eff": {
          "modifierName": "",
          "duration": 2.5,
          "elementDurability": 100.0,
          "onAdded": [
            {
              "$type": "NBFEIIOBAPA",
              "canBeHandledOnRecover": true,
              "muteRemoteAction": true,
              "enable": true,
              "effectName": "Eff_SceneObj_Stages_Arcline_ScreenEff_01"
            }
          ],
          "onRemoved": [
            {
              "$type": "NBFEIIOBAPA",
              "canBeHandledOnRecover": true,
              "muteRemoteAction": true,
              "effectName": "Eff_SceneObj_Stages_Arcline_ScreenEff_01"
            }
          ]
        }
      },
      "isDynamicAbility": true
    }
  }
]
