[
  {
    "Default": {
      "$type": "ConfigAbility",
      "abilityName": "LevelAbility_Quest_XiaoDungeonStageReady",
      "abilityMixins": [
        {
          "$type": "EJNMIOFDIGF",
          "onStageReady": [
            {
              "$type": "AHPEKICBIIL",
              "luaCallType": "SpecificGroup",
              "callParamList": [201032010],
              "funcName": "stage_ready",
              "param1": 0.0,
              "MGAMDEHMCOL": 0.0,
              "MMHOHAOGPLP": 0.0
            }
          ]
        }
      ],
      "isDynamicAbility": true
    }
  },
  {
    "Default": {
      "$type": "ConfigAbility",
      "abilityName": "LevelAbility_Quest_ShougunDungeonStageReady",
      "abilityMixins": [
        {
          "$type": "EJNMIOFDIGF",
          "onStageReady": [
            {
              "$type": "AHPEKICBIIL",
              "luaCallType": "FromGroup",
              "funcName": "EndlessBladeDecliningEnergy",
              "param1": 0.0,
              "MGAMDEHMCOL": 0.0,
              "MMHOHAOGPLP": 0.0
            }
          ]
        }
      ],
      "isDynamicAbility": true
    }
  },
  {
    "Default": {
      "$type": "ConfigAbility",
      "abilityName": "LevelAbility_WQ_JiWuPuMoveOnWater",
      "abilityMixins": [
        {
          "$type": "AttachModifierToSelfGlobalValueMixin",
          "globalValueKey": "_LevelAbility_WQ_JiWuPuMoveOnWater_Flag",
          "gvInTalk": 0.0,
          "valueSteps": [-0.5, 0.5, 1.5],
          "modifierNameSteps": ["MoveOnWater_Off", "MoveOnWater_On"]
        }
      ],
      "modifiers": {
        "MoveOnWater_On": {
          "modifierName": "",
          "elementDurability": 100.0,
          "onAdded": [
            {
              "$type": "MHLMCNFHCPJ",
              "shieldHP": true,
              "canBeHandledOnRecover": true,
              "enable": true
            }
          ]
        },
        "MoveOnWater_Off": {
          "modifierName": "",
          "elementDurability": 100.0,
          "onAdded": [
            {
              "$type": "MHLMCNFHCPJ",
              "shieldHP": true,
              "canBeHandledOnRecover": true
            }
          ]
        }
      },
      "onAdded": [
        {
          "$type": "SetGlobalValue",
          "shieldHP": true,
          "value": 0.0,
          "key": "_LevelAbility_WQ_JiWuPuMoveOnWater_Flag",
          "maxValue": 0.0,
          "minValue": 0.0
        }
      ],
      "onRemoved": [
        {
          "$type": "SetGlobalValue",
          "shieldHP": true,
          "value": 0.0,
          "key": "_LevelAbility_WQ_JiWuPuMoveOnWater_Flag",
          "maxValue": 0.0,
          "minValue": 0.0
        }
      ],
      "isDynamicAbility": true
    }
  },
  {
    "Default": {
      "$type": "ConfigAbility",
      "abilityName": "LevelAbility_Quest_NatlandFirstSightTele",
      "modifiers": {
        "NatlandFirstSightTele_handler": {
          "modifierName": "",
          "elementDurability": 100.0,
          "thinkInterval": 5.0,
          "onAdded": [
            {
              "$type": "AttachModifier",
              "modifierName": "NatlandFirstSightTele_region_check"
            }
          ],
          "onThinkInterval": [
            {
              "$type": "AttachModifier",
              "modifierName": "NatlandFirstSightTele_region_check"
            }
          ]
        },
        "NatlandFirstSightTele_region_check": {
          "modifierName": "",
          "duration": 1.0,
          "elementDurability": 100.0,
          "onAdded": [
            {
              "$type": "Predicated",
              "targetPredicates": [
                {
                  "$type": "CKHKMHGMACL"
                },
                {
                  "$type": "LNMPDFFBILH",
                  "sceneIds": [3]
                },
                {
                  "$type": "BJFBOPMODCM"
                },
                {
                  "$type": "KGMHMHFHGIC",
                  "isHost": true
                },
                {
                  "$type": "ByTargetAltitude",
                  "logic": "Lesser",
                  "value": 1.0,
                  "targetAltitudeType": "GroundOnly"
                },
                {
                  "$type": "ByTargetGlobalValue",
                  "key": "SGV_NatlandFirstSightTele_Teleported",
                  "value": 0.0,
                  "compareType": "NoneOrEqual"
                }
              ],
              "successActions": [
                {
                  "$type": "AttachModifier",
                  "modifierName": "NatlandFirstSightTele_Tele"
                }
              ]
            }
          ]
        },
        "NatlandFirstSightTele_Tele": {
          "stacking": "Unique",
          "modifierName": "",
          "elementDurability": 100.0,
          "thinkInterval": 30.0,
          "onAdded": [
            {
              "$type": "AHPEKICBIIL",
              "shieldHP": true,
              "luaCallType": "SpecificGroup",
              "callParamList": [133504009],
              "funcName": "SLC_Start_Tele",
              "param1": 0.0,
              "MGAMDEHMCOL": 0.0,
              "MMHOHAOGPLP": 0.0
            }
          ],
          "onThinkInterval": [
            {
              "$type": "RemoveModifier",
              "predicates": [
                {
                  "$type": "ByTargetGlobalValue",
                  "key": "SGV_NatlandFirstSightTele_Teleported",
                  "value": 0.0,
                  "compareType": "NoneOrEqual"
                }
              ],
              "modifierName": "NatlandFirstSightTele_Tele"
            }
          ]
        }
      },
      "onAdded": [
        {
          "$type": "AttachModifier",
          "modifierName": "NatlandFirstSightTele_handler"
        }
      ],
      "isDynamicAbility": true
    }
  },
  {
    "Default": {
      "$type": "ConfigAbility",
      "abilityName": "LevelAbility_Quest_TestingMedicine",
      "abilityMixins": [
        {
          "$type": "AttachModifierToSelfGlobalValueMixin",
          "globalValueKey": "_Medicine_State",
          "gvInTalk": 0.0,
          "valueSteps": [-0.5, 0.5, 1.5, 2.5],
          "modifierNameSteps": ["LockHP_50", "Reminder_Timer", "LockHP_1"]
        },
        {
          "$type": "LAPMOOFOPBM",
          "valueSteps": [0.5],
          "modifierNameSteps": ["HP_Dummy", "HP_Medicine"]
        }
      ],
      "modifiers": {
        "HP_Dummy": {
          "modifierName": "",
          "elementDurability": 100.0
        },
        "HP_Medicine": {
          "modifierName": "",
          "elementDurability": 100.0,
          "state": "DefenseDown",
          "onAdded": [
            {
              "$type": "SetGlobalValue",
              "value": 1.0,
              "key": "_Medicine_State",
              "maxValue": 0.0,
              "minValue": 0.0
            }
          ]
        },
        "LockHP_50": {
          "modifierName": "",
          "elementDurability": 100.0,
          "properties": {
            "Actor_HpThresholdRatio": 0.49900001287460327
          },
          "state": "Limbo"
        },
        "Reminder_Timer": {
          "modifierName": "",
          "elementDurability": 100.0,
          "thinkInterval": 3.5,
          "state": "LockHP",
          "onThinkInterval": [
            {
              "$type": "SetGlobalValue",
              "value": 2.0,
              "key": "_Medicine_State",
              "maxValue": 0.0,
              "minValue": 0.0
            }
          ]
        },
        "LockHP_1": {
          "modifierName": "",
          "elementDurability": 100.0,
          "thinkInterval": 0.30000001192092896,
          "properties": {
            "Actor_HpThresholdRatio": 0.008999999612569809
          },
          "state": "Limbo",
          "onThinkInterval": [
            {
              "$type": "LoseHP",
              "amountByCasterMaxHPRatio": 0.019999999552965164,
              "enableLockHP": true,
              "BJKGFBGEFPB": ""
            }
          ]
        }
      },
      "isDynamicAbility": true
    }
  }
]
