{
  "Drake_Rock_FollowHitBox_Roll": {
    "$type": "CJKJIENLOHD",
    "common": {
      "effectAttachShape": {
        "$type": "OMIODKONOMG"
      }
    },
    "combat": {
      "property": {
        "useCreatorProperty": true,
        "isInvincible": true,
        "isLockHP": true,
        "isGhostToAllied": true,
        "isGhostToEnemy": true,
        "canTriggerBullet": false
      },
      "beHit": {
        "hitBloodEffect": ""
      },
      "combatLock": {
        "lockShape": "CircleLockEnemy",
        "denyLockOn": true,
        "lockType": "Default"
      }
    },
    "combatTemplate": "",
    "abilities": [
      {
        "abilityID": "Monster_Drake_Rock_FollowHitBox_Roll",
        "abilityName": "Monster_Drake_Rock_FollowHitBox_Roll",
        "abilityOverride": ""
      }
    ],
    "timer": {
      "lifeTime": 8.0
    },
    "move": {
      "$type": "MMAPEFIEGAL",
      "target": "TargetEntity",
      "attachPoint": "",
      "offset": {
        "z": 0.20000000298023224
      },
      "LFOHLEKJFBI": ""
    },
    "gadget": {
      "$type": "JENBBNKGGJP",
      "collision": {
        "triggerType": "TriggerNoRepeat",
        "targetType": "Enemy",
        "ignoreScene": true
      },
      "triggerActions": [
        {
          "$type": "AILPBJHDHDG",
          "abilityName": "Monster_Drake_Rock_FollowHitBox_Roll"
        }
      ],
      "killByOther": true
    }
  },
  "Drake_Rock_SlapGround_DamageWave": {
    "$type": "CJKJIENLOHD",
    "common": {
      "effectAttachShape": {
        "$type": "OMIODKONOMG"
      }
    },
    "combat": {
      "property": {
        "useCreatorProperty": true,
        "hp": 999999.0,
        "attack": 10.0,
        "defense": 999999.0,
        "isInvincible": true,
        "isGhostToAllied": true,
        "isGhostToEnemy": true
      },
      "beHit": {
        "hitBloodEffect": "",
        "muteAllHit": true,
        "muteAllHitEffect": true,
        "muteAllHitText": true
      },
      "combatLock": {
        "lockShape": "CircleLockEnemy",
        "denyLockOn": true,
        "lockType": "Default"
      }
    },
    "combatTemplate": "",
    "abilities": [
      {
        "abilityID": "Monster_Drake_Rock_SlapGround_DamageWave",
        "abilityName": "Monster_Drake_Rock_SlapGround_DamageWave",
        "abilityOverride": ""
      }
    ],
    "timer": {
      "lifeTime": 1.2000000476837158
    },
    "move": {
      "$type": "DMLAFKAOGID",
      "speed": 10.0,
      "maxSpeed": 15.0,
      "minSpeed": 10.0,
      "anglerVelocity": 1080.0,
      "acceleration": 5.0,
      "delay": 0.10000000149011612,
      "stickToGround": {
        "maxStepHeight": 4.0,
        "maxSlopeAngle": 30.0,
        "heightToGround": 0.20000000298023224,
        "flexibleRange": 0.10000000149011612,
        "unstickWhenDownSlide": "Keep",
        "unstickWhenUpSlide": "Keep"
      },
      "itanoCircusStartAngler": 180.0,
      "destroyWhenTargetDie": true,
      "guidanceDelay": 0.15000000596046448,
      "guidanceMinAnglerVelocity": 720.0
    },
    "gadget": {
      "$type": "JENBBNKGGJP",
      "collision": {
        "triggerType": "TriggerNoRepeat",
        "targetType": "Enemy",
        "ignoreScene": true
      }
    }
  },
  "Drake_Rock_SlapGroundFinal_DamageWave": {
    "$type": "CJKJIENLOHD",
    "common": {
      "effectAttachShape": {
        "$type": "OMIODKONOMG"
      }
    },
    "combat": {
      "property": {
        "useCreatorProperty": true,
        "hp": 999999.0,
        "attack": 10.0,
        "defense": 999999.0,
        "isInvincible": true,
        "isGhostToAllied": true,
        "isGhostToEnemy": true
      },
      "beHit": {
        "hitBloodEffect": "",
        "muteAllHit": true,
        "muteAllHitEffect": true,
        "muteAllHitText": true
      },
      "combatLock": {
        "lockShape": "CircleLockEnemy",
        "denyLockOn": true,
        "lockType": "Default"
      }
    },
    "combatTemplate": "",
    "abilities": [
      {
        "abilityID": "Monster_Drake_Rock_SlapGroundFinal_DamageWave",
        "abilityName": "Monster_Drake_Rock_SlapGroundFinal_DamageWave",
        "abilityOverride": ""
      }
    ],
    "timer": {
      "lifeTime": 1.2000000476837158
    },
    "move": {
      "$type": "DMLAFKAOGID",
      "speed": 10.0,
      "maxSpeed": 15.0,
      "minSpeed": 10.0,
      "anglerVelocity": 1080.0,
      "acceleration": 5.0,
      "delay": 0.10000000149011612,
      "stickToGround": {
        "maxStepHeight": 4.0,
        "maxSlopeAngle": 30.0,
        "heightToGround": 0.20000000298023224,
        "flexibleRange": 0.10000000149011612,
        "unstickWhenDownSlide": "Keep",
        "unstickWhenUpSlide": "Keep"
      },
      "itanoCircusStartAngler": 180.0,
      "destroyWhenTargetDie": true,
      "guidanceDelay": 0.15000000596046448,
      "guidanceMinAnglerVelocity": 720.0
    },
    "gadget": {
      "$type": "JENBBNKGGJP",
      "collision": {
        "triggerType": "TriggerNoRepeat",
        "targetType": "Enemy",
        "ignoreScene": true
      }
    }
  },
  "Drake_Rock_FireEnhance_LatencyGadget": {
    "$type": "CJKJIENLOHD",
    "common": {
      "effectAttachShape": {
        "$type": "OMIODKONOMG"
      }
    },
    "combat": {
      "property": {
        "useCreatorProperty": true,
        "hp": 999999.0,
        "attack": 10.0,
        "defense": 999999.0,
        "isInvincible": true,
        "isGhostToAllied": true,
        "isGhostToEnemy": true
      },
      "beHit": {
        "hitBloodEffect": "",
        "muteAllHit": true,
        "muteAllHitEffect": true,
        "muteAllHitText": true
      },
      "combatLock": {
        "lockShape": "CircleLockEnemy",
        "denyLockOn": true,
        "lockType": "Default"
      }
    },
    "combatTemplate": "",
    "abilities": [
      {
        "abilityID": "Monster_Drake_Rock_FireEnhance_LatencyGadget_JumpAtk",
        "abilityName": "Monster_Drake_Rock_FireEnhance_LatencyGadget_JumpAtk",
        "abilityOverride": ""
      },
      {
        "abilityID": "Monster_Drake_Rock_FireEnhance_LatencyGadget_JumpAtkFinal",
        "abilityName": "Monster_Drake_Rock_FireEnhance_LatencyGadget_JumpAtkFinal",
        "abilityOverride": ""
      }
    ],
    "timer": {
      "lifeTime": 1.0
    }
  },
  "Drake_Rock_IceEnhance_Gadget": {
    "$type": "CJKJIENLOHD",
    "common": {
      "effectAttachShape": {
        "$type": "OMIODKONOMG"
      }
    },
    "combat": {
      "property": {
        "useCreatorProperty": true,
        "hp": 999999.0,
        "attack": 10.0,
        "defense": 999999.0,
        "isInvincible": true,
        "isGhostToAllied": true,
        "isGhostToEnemy": true
      },
      "beHit": {
        "hitBloodEffect": "",
        "muteAllHit": true,
        "muteAllHitEffect": true,
        "muteAllHitText": true
      },
      "combatLock": {
        "lockShape": "CircleLockEnemy",
        "denyLockOn": true,
        "lockType": "Default"
      }
    },
    "combatTemplate": "",
    "abilities": [
      {
        "abilityID": "Monster_Drake_Rock_IceEnhance_Gadget",
        "abilityName": "Monster_Drake_Rock_IceEnhance_Gadget",
        "abilityOverride": ""
      }
    ],
    "timer": {
      "lifeTime": 5.0
    },
    "gadget": {
      "$type": "JENBBNKGGJP",
      "collision": {
        "targetType": "Enemy",
        "ignoreScene": true
      },
      "triggerActions": [
        {
          "$type": "AILPBJHDHDG",
          "abilityName": "Monster_Drake_Rock_IceEnhance_Gadget"
        }
      ],
      "triggerLifeOverActions": [
        {
          "$type": "AILPBJHDHDG",
          "abilityName": "Monster_Drake_Rock_IceEnhance_Gadget"
        }
      ]
    }
  },
  "Drake_Rock_WaterEnhance_ChasingTarget": {
    "$type": "CJKJIENLOHD",
    "common": {
      "effectAttachShape": {
        "$type": "OMIODKONOMG",
        "scaleX": 1.2000000476837158,
        "scaleY": 1.2000000476837158,
        "scaleZ": 1.2000000476837158
      },
      "scale": 1.2000000476837158
    },
    "hasModel": true,
    "combat": {
      "property": {
        "useCreatorProperty": true,
        "hp": 999999.0,
        "attack": 15.0,
        "defense": 999999.0,
        "isGhostToEnemy": true
      },
      "beHit": {
        "hitBloodEffect": "",
        "hitAutoRedirect": false,
        "muteAllHitText": true
      },
      "combatLock": {
        "lockShape": "CircleLockEnemy",
        "denyLockOn": true,
        "lockType": "Default"
      }
    },
    "combatTemplate": "",
    "timer": {
      "lifeTime": 5.0
    },
    "move": {
      "$type": "MMAPEFIEGAL",
      "target": "TargetEntity",
      "attachPoint": "",
      "LFOHLEKJFBI": ""
    }
  },
  "Drake_Rock_WaterEnhance_Bullet": {
    "$type": "CJKJIENLOHD",
    "common": {
      "effectAttachShape": {
        "$type": "OMIODKONOMG"
      }
    },
    "combat": {
      "property": {
        "useCreatorProperty": true,
        "hp": 999999.0,
        "attack": 10.0,
        "defense": 999999.0,
        "isInvincible": true,
        "isGhostToAllied": true,
        "isGhostToEnemy": true
      },
      "beHit": {
        "hitBloodEffect": "",
        "muteAllHit": true,
        "muteAllHitEffect": true,
        "muteAllHitText": true
      },
      "combatLock": {
        "lockShape": "CircleLockEnemy",
        "denyLockOn": true,
        "lockType": "Default"
      }
    },
    "combatTemplate": "",
    "timer": {
      "lifeTime": 2.5
    },
    "move": {
      "$type": "DMLAFKAOGID",
      "speed": 10.0,
      "maxSpeed": 20.0,
      "minSpeed": 10.0,
      "anglerVelocity": 1080.0,
      "acceleration": 10.0,
      "delay": 0.20000000298023224,
      "stickToGround": {
        "maxStepHeight": 4.0,
        "maxSlopeAngle": 30.0,
        "heightToGround": 0.20000000298023224,
        "flexibleRange": 0.10000000149011612,
        "unstickWhenDownSlide": "Keep",
        "unstickWhenUpSlide": "Keep"
      },
      "itanoCircusStartAngler": 180.0,
      "guidanceDelay": 0.15000000596046448,
      "guidanceMinAnglerVelocity": 720.0
    },
    "gadget": {
      "$type": "JENBBNKGGJP",
      "collision": {
        "targetType": "Enemy"
      }
    }
  },
  "Drake_Rock_WaterEnhance_LatencyGadget": {
    "$type": "CJKJIENLOHD",
    "common": {
      "effectAttachShape": {
        "$type": "OMIODKONOMG"
      }
    },
    "combat": {
      "property": {
        "useCreatorProperty": true,
        "hp": 999999.0,
        "attack": 10.0,
        "defense": 999999.0,
        "isInvincible": true,
        "isGhostToAllied": true,
        "isGhostToEnemy": true
      },
      "beHit": {
        "hitBloodEffect": "",
        "muteAllHit": true,
        "muteAllHitEffect": true,
        "muteAllHitText": true
      },
      "combatLock": {
        "lockShape": "CircleLockEnemy",
        "denyLockOn": true,
        "lockType": "Default"
      }
    },
    "combatTemplate": "",
    "abilities": [
      {
        "abilityID": "Monster_Drake_Rock_WaterEnhance_LatencyGadget",
        "abilityName": "Monster_Drake_Rock_WaterEnhance_LatencyGadget",
        "abilityOverride": ""
      }
    ],
    "timer": {
      "lifeTime": 5.0
    }
  },
  "Drake_Rock_ElecEnhance_Bullet": {
    "$type": "CJKJIENLOHD",
    "common": {
      "effectAttachShape": {
        "$type": "OMIODKONOMG"
      }
    },
    "combat": {
      "property": {
        "useCreatorProperty": true,
        "hp": 999999.0,
        "attack": 10.0,
        "defense": 999999.0,
        "isInvincible": true,
        "isGhostToAllied": true,
        "isGhostToEnemy": true
      },
      "beHit": {
        "hitBloodEffect": "",
        "muteAllHit": true,
        "muteAllHitEffect": true,
        "muteAllHitText": true
      },
      "combatLock": {
        "lockShape": "CircleLockEnemy",
        "denyLockOn": true,
        "lockType": "Default"
      }
    },
    "combatTemplate": "",
    "abilities": [
      {
        "abilityID": "Monster_Drake_Rock_ElecEnhance_Bullet",
        "abilityName": "Monster_Drake_Rock_ElecEnhance_Bullet",
        "abilityOverride": ""
      },
      {
        "abilityID": "Monster_Drake_Rock_ElecEnhance_PinballAreaTrigger",
        "abilityName": "Monster_Drake_Rock_ElecEnhance_PinballAreaTrigger",
        "abilityOverride": ""
      }
    ],
    "timer": {
      "lifeTime": 0.5
    },
    "move": {
      "$type": "GONNMCBKAOC",
      "speed": 16.0,
      "stickToGround": {
        "maxStepHeight": 4.0,
        "maxSlopeAngle": 30.0,
        "heightToGround": 0.30000001192092896,
        "flexibleRange": 0.10000000149011612,
        "unstickWhenDownSlide": "Keep",
        "unstickWhenUpSlide": "Keep"
      }
    },
    "gadget": {
      "$type": "JENBBNKGGJP",
      "collision": {
        "triggerType": "TriggerNoRepeat",
        "targetType": "Enemy",
        "ignoreScene": true
      },
      "triggerActions": [
        {
          "$type": "AILPBJHDHDG",
          "abilityName": "Monster_Drake_Rock_ElecEnhance_Bullet"
        }
      ],
      "triggerLifeOverActions": [
        {
          "$type": "AILPBJHDHDG",
          "abilityName": "Monster_Drake_Rock_ElecEnhance_PinballAreaTrigger"
        }
      ]
    }
  },
  "Drake_Rock_ElecEnhance_Pinball": {
    "$type": "CJKJIENLOHD",
    "combat": {
      "property": {
        "useCreatorProperty": true,
        "isInvincible": true,
        "isGhostToAllied": true,
        "isGhostToEnemy": true,
        "canTriggerBullet": false
      },
      "beHit": {
        "hitBloodEffect": "",
        "muteAllHit": true,
        "muteAllHitEffect": true,
        "muteAllHitText": true
      },
      "combatLock": {
        "lockShape": "CircleLockEnemy",
        "denyLockOn": true,
        "lockType": "Default"
      }
    },
    "combatTemplate": "",
    "abilities": [
      {
        "abilityID": "Monster_Drake_Rock_ElecEnhance_Pinball",
        "abilityName": "Monster_Drake_Rock_ElecEnhance_Pinball",
        "abilityOverride": ""
      }
    ],
    "timer": {
      "lifeTime": 6.0
    },
    "move": {
      "$type": "POHFDPGKAFL",
      "speed": 8.0,
      "DPAAFHNMHHN": {
        "$type": "IFAANDLLGLP"
      },
      "stickToGround": {
        "maxStepHeight": 4.0,
        "maxSlopeAngle": 30.0,
        "heightToGround": 0.30000001192092896,
        "flexibleRange": 0.10000000149011612,
        "unstickWhenDownSlide": "Keep",
        "unstickWhenUpSlide": "Keep"
      },
      "radius": 4.0,
      "outOfRangeFixCD": 0.5
    },
    "gadget": {
      "$type": "JENBBNKGGJP",
      "collision": {
        "triggerType": "TriggerAlways",
        "triggerCD": 0.5,
        "targetType": "Enemy"
      },
      "triggerActions": [
        {
          "$type": "AILPBJHDHDG",
          "abilityName": "Monster_Drake_Rock_ElecEnhance_Pinball"
        }
      ]
    }
  },
  "Drake_Rock_ElecEnhance_PinballArea": {
    "$type": "CJKJIENLOHD",
    "combat": {
      "property": {
        "useCreatorProperty": true,
        "hp": 100.0,
        "attack": 10.0,
        "isInvincible": true,
        "canTriggerBullet": false
      },
      "combatLock": {
        "lockShape": "CircleLockEnemy",
        "denyLockOn": true,
        "lockType": "Default"
      }
    },
    "combatTemplate": "",
    "abilities": [
      {
        "abilityID": "Monster_Drake_Rock_ElecEnhance_CreatePinball",
        "abilityName": "Monster_Drake_Rock_ElecEnhance_CreatePinball",
        "abilityOverride": ""
      }
    ],
    "timer": {
      "lifeTime": 8.0
    }
  },
  "Drake_Primo_Rock_ScaleShot_Bullet_Electric": {
    "$type": "CJKJIENLOHD",
    "common": {},
    "combat": {
      "property": {
        "useCreatorProperty": true,
        "hp": 999999.0,
        "attack": 15.0,
        "defense": 999999.0,
        "isInvincible": true,
        "isGhostToAllied": true,
        "isGhostToEnemy": true
      },
      "beHit": {
        "hitBloodEffect": "",
        "muteAllHit": true,
        "muteAllHitEffect": true,
        "muteAllHitText": true
      },
      "combatLock": {
        "lockShape": "CircleLockEnemy",
        "denyLockOn": true,
        "lockType": "Default"
      }
    },
    "combatTemplate": "",
    "abilities": [
      {
        "abilityID": "Drake_Primo_Rock_ScaleShot_Bullet_Electric",
        "abilityName": "Drake_Primo_Rock_ScaleShot_Bullet_Electric",
        "abilityOverride": ""
      }
    ],
    "timer": {
      "lifeTime": 5.0
    },
    "move": {
      "$type": "GONNMCBKAOC",
      "speed": 25.0,
      "DPAAFHNMHHN": {
        "$type": "IFAANDLLGLP"
      }
    },
    "gadget": {
      "$type": "JENBBNKGGJP",
      "collision": {},
      "triggerActions": [
        {
          "$type": "AILPBJHDHDG",
          "abilityName": "Drake_Primo_Rock_ScaleShot_Bullet_Electric"
        }
      ]
    }
  },
  "Drake_Primo_Rock_ScaleShot_Bullet_Fire": {
    "$type": "CJKJIENLOHD",
    "common": {},
    "combat": {
      "property": {
        "useCreatorProperty": true,
        "hp": 999999.0,
        "attack": 15.0,
        "defense": 999999.0,
        "isInvincible": true,
        "isGhostToAllied": true,
        "isGhostToEnemy": true
      },
      "beHit": {
        "hitBloodEffect": "",
        "muteAllHit": true,
        "muteAllHitEffect": true,
        "muteAllHitText": true
      },
      "combatLock": {
        "lockShape": "CircleLockEnemy",
        "denyLockOn": true,
        "lockType": "Default"
      }
    },
    "combatTemplate": "",
    "abilities": [
      {
        "abilityID": "Drake_Primo_Rock_ScaleShot_Bullet_Fire",
        "abilityName": "Drake_Primo_Rock_ScaleShot_Bullet_Fire",
        "abilityOverride": ""
      }
    ],
    "timer": {
      "lifeTime": 5.0
    },
    "move": {
      "$type": "GONNMCBKAOC",
      "speed": 25.0,
      "DPAAFHNMHHN": {
        "$type": "IFAANDLLGLP"
      }
    },
    "gadget": {
      "$type": "JENBBNKGGJP",
      "collision": {},
      "triggerActions": [
        {
          "$type": "AILPBJHDHDG",
          "abilityName": "Drake_Primo_Rock_ScaleShot_Bullet_Fire"
        }
      ]
    }
  },
  "Drake_Primo_Rock_ScaleShot_Bullet_Ice": {
    "$type": "CJKJIENLOHD",
    "common": {},
    "combat": {
      "property": {
        "useCreatorProperty": true,
        "hp": 999999.0,
        "attack": 15.0,
        "defense": 999999.0,
        "isInvincible": true,
        "isGhostToAllied": true,
        "isGhostToEnemy": true
      },
      "beHit": {
        "hitBloodEffect": "",
        "muteAllHit": true,
        "muteAllHitEffect": true,
        "muteAllHitText": true
      },
      "combatLock": {
        "lockShape": "CircleLockEnemy",
        "denyLockOn": true,
        "lockType": "Default"
      }
    },
    "combatTemplate": "",
    "abilities": [
      {
        "abilityID": "Drake_Primo_Rock_ScaleShot_Bullet_Ice",
        "abilityName": "Drake_Primo_Rock_ScaleShot_Bullet_Ice",
        "abilityOverride": ""
      }
    ],
    "timer": {
      "lifeTime": 5.0
    },
    "move": {
      "$type": "GONNMCBKAOC",
      "speed": 25.0,
      "DPAAFHNMHHN": {
        "$type": "IFAANDLLGLP"
      }
    },
    "gadget": {
      "$type": "JENBBNKGGJP",
      "collision": {},
      "triggerActions": [
        {
          "$type": "AILPBJHDHDG",
          "abilityName": "Drake_Primo_Rock_ScaleShot_Bullet_Ice"
        }
      ]
    }
  },
  "Drake_Primo_Rock_ScaleShot_Bullet_Water": {
    "$type": "CJKJIENLOHD",
    "common": {},
    "combat": {
      "property": {
        "useCreatorProperty": true,
        "hp": 999999.0,
        "attack": 15.0,
        "defense": 999999.0,
        "isInvincible": true,
        "isGhostToAllied": true,
        "isGhostToEnemy": true
      },
      "beHit": {
        "hitBloodEffect": "",
        "muteAllHit": true,
        "muteAllHitEffect": true,
        "muteAllHitText": true
      },
      "combatLock": {
        "lockShape": "CircleLockEnemy",
        "denyLockOn": true,
        "lockType": "Default"
      }
    },
    "combatTemplate": "",
    "abilities": [
      {
        "abilityID": "Drake_Primo_Rock_ScaleShot_Bullet_Water",
        "abilityName": "Drake_Primo_Rock_ScaleShot_Bullet_Water",
        "abilityOverride": ""
      }
    ],
    "timer": {
      "lifeTime": 5.0
    },
    "move": {
      "$type": "GONNMCBKAOC",
      "speed": 25.0,
      "DPAAFHNMHHN": {
        "$type": "IFAANDLLGLP"
      }
    },
    "gadget": {
      "$type": "JENBBNKGGJP",
      "collision": {},
      "triggerActions": [
        {
          "$type": "AILPBJHDHDG",
          "abilityName": "Drake_Primo_Rock_ScaleShot_Bullet_Water"
        }
      ]
    }
  },
  "Drake_Primo_Rock_ScaleBurst_Bullet_Electric": {
    "$type": "CJKJIENLOHD",
    "common": {},
    "combat": {
      "property": {
        "useCreatorProperty": true,
        "hp": 999999.0,
        "attack": 15.0,
        "defense": 999999.0,
        "isInvincible": true,
        "isGhostToAllied": true,
        "isGhostToEnemy": true
      },
      "beHit": {
        "hitBloodEffect": "",
        "muteAllHit": true,
        "muteAllHitEffect": true,
        "muteAllHitText": true
      },
      "combatLock": {
        "lockShape": "CircleLockEnemy",
        "denyLockOn": true,
        "lockType": "Default"
      }
    },
    "combatTemplate": "",
    "abilities": [
      {
        "abilityID": "Drake_Primo_Rock_ScaleBurst_Bullet_Electric",
        "abilityName": "Drake_Primo_Rock_ScaleBurst_Bullet_Electric",
        "abilityOverride": ""
      }
    ],
    "timer": {
      "lifeTime": 5.0
    },
    "move": {
      "$type": "BFICFPAEFPB",
      "speed": 20.0,
      "DPAAFHNMHHN": {
        "$type": "IFAANDLLGLP"
      },
      "straightRange": 1.5,
      "gravityOfAcceleration": 30.0
    },
    "gadget": {
      "$type": "JENBBNKGGJP",
      "collision": {},
      "triggerActions": [
        {
          "$type": "AILPBJHDHDG",
          "abilityName": "Drake_Primo_Rock_ScaleBurst_Bullet_Electric"
        }
      ]
    }
  },
  "Drake_Primo_Rock_ScaleBurst_Bullet_Fire": {
    "$type": "CJKJIENLOHD",
    "common": {},
    "combat": {
      "property": {
        "useCreatorProperty": true,
        "hp": 999999.0,
        "attack": 15.0,
        "defense": 999999.0,
        "isInvincible": true,
        "isGhostToAllied": true,
        "isGhostToEnemy": true
      },
      "beHit": {
        "hitBloodEffect": "",
        "muteAllHit": true,
        "muteAllHitEffect": true,
        "muteAllHitText": true
      },
      "combatLock": {
        "lockShape": "CircleLockEnemy",
        "denyLockOn": true,
        "lockType": "Default"
      }
    },
    "combatTemplate": "",
    "abilities": [
      {
        "abilityID": "Drake_Primo_Rock_ScaleBurst_Bullet_Fire",
        "abilityName": "Drake_Primo_Rock_ScaleBurst_Bullet_Fire",
        "abilityOverride": ""
      }
    ],
    "timer": {
      "lifeTime": 5.0
    },
    "move": {
      "$type": "BFICFPAEFPB",
      "speed": 20.0,
      "DPAAFHNMHHN": {
        "$type": "IFAANDLLGLP"
      },
      "straightRange": 1.5,
      "gravityOfAcceleration": 30.0
    },
    "gadget": {
      "$type": "JENBBNKGGJP",
      "collision": {},
      "triggerActions": [
        {
          "$type": "AILPBJHDHDG",
          "abilityName": "Drake_Primo_Rock_ScaleBurst_Bullet_Fire"
        }
      ]
    }
  },
  "Drake_Primo_Rock_ScaleBurst_Bullet_Ice": {
    "$type": "CJKJIENLOHD",
    "common": {},
    "combat": {
      "property": {
        "useCreatorProperty": true,
        "hp": 999999.0,
        "attack": 15.0,
        "defense": 999999.0,
        "isInvincible": true,
        "isGhostToAllied": true,
        "isGhostToEnemy": true
      },
      "beHit": {
        "hitBloodEffect": "",
        "muteAllHit": true,
        "muteAllHitEffect": true,
        "muteAllHitText": true
      },
      "combatLock": {
        "lockShape": "CircleLockEnemy",
        "denyLockOn": true,
        "lockType": "Default"
      }
    },
    "combatTemplate": "",
    "abilities": [
      {
        "abilityID": "Drake_Primo_Rock_ScaleBurst_Bullet_Ice",
        "abilityName": "Drake_Primo_Rock_ScaleBurst_Bullet_Ice",
        "abilityOverride": ""
      }
    ],
    "timer": {
      "lifeTime": 5.0
    },
    "move": {
      "$type": "BFICFPAEFPB",
      "speed": 20.0,
      "DPAAFHNMHHN": {
        "$type": "IFAANDLLGLP"
      },
      "straightRange": 1.5,
      "gravityOfAcceleration": 30.0
    },
    "gadget": {
      "$type": "JENBBNKGGJP",
      "collision": {},
      "triggerActions": [
        {
          "$type": "AILPBJHDHDG",
          "abilityName": "Drake_Primo_Rock_ScaleBurst_Bullet_Ice"
        }
      ]
    }
  },
  "Drake_Primo_Rock_ScaleBurst_Bullet_Water": {
    "$type": "CJKJIENLOHD",
    "common": {},
    "combat": {
      "property": {
        "useCreatorProperty": true,
        "hp": 999999.0,
        "attack": 15.0,
        "defense": 999999.0,
        "isInvincible": true,
        "isGhostToAllied": true,
        "isGhostToEnemy": true
      },
      "beHit": {
        "hitBloodEffect": "",
        "muteAllHit": true,
        "muteAllHitEffect": true,
        "muteAllHitText": true
      },
      "combatLock": {
        "lockShape": "CircleLockEnemy",
        "denyLockOn": true,
        "lockType": "Default"
      }
    },
    "combatTemplate": "",
    "abilities": [
      {
        "abilityID": "Drake_Primo_Rock_ScaleBurst_Bullet_Water",
        "abilityName": "Drake_Primo_Rock_ScaleBurst_Bullet_Water",
        "abilityOverride": ""
      }
    ],
    "timer": {
      "lifeTime": 5.0
    },
    "move": {
      "$type": "BFICFPAEFPB",
      "speed": 20.0,
      "DPAAFHNMHHN": {
        "$type": "IFAANDLLGLP"
      },
      "straightRange": 1.5,
      "gravityOfAcceleration": 30.0
    },
    "gadget": {
      "$type": "JENBBNKGGJP",
      "collision": {},
      "triggerActions": [
        {
          "$type": "AILPBJHDHDG",
          "abilityName": "Drake_Primo_Rock_ScaleBurst_Bullet_Water"
        }
      ]
    }
  },
  "Drake_Primo_Rock_ScaleGadget_Electric": {
    "$type": "CJKJIENLOHD",
    "common": {},
    "combat": {
      "property": {
        "useCreatorProperty": true,
        "hp": 999999.0,
        "attack": 15.0,
        "defense": 999999.0,
        "isInvincible": true,
        "isGhostToAllied": true,
        "isGhostToEnemy": true
      },
      "beHit": {
        "hitBloodEffect": "",
        "muteAllHit": true,
        "muteAllHitEffect": true,
        "muteAllHitText": true
      },
      "combatLock": {
        "lockShape": "CircleLockEnemy",
        "denyLockOn": true,
        "lockType": "Default"
      }
    },
    "combatTemplate": "",
    "abilities": [
      {
        "abilityID": "Drake_Primo_Rock_ScaleGadget_Electric",
        "abilityName": "Drake_Primo_Rock_ScaleGadget_Electric",
        "abilityOverride": ""
      }
    ],
    "timer": {
      "lifeTime": 5.0
    }
  },
  "Drake_Primo_Rock_ScaleGadget_ActivityCycle_Electric": {
    "$type": "CJKJIENLOHD",
    "common": {},
    "combat": {
      "property": {
        "useCreatorProperty": true,
        "hp": 999999.0,
        "attack": 15.0,
        "defense": 999999.0,
        "isInvincible": true,
        "isGhostToAllied": true,
        "isGhostToEnemy": true
      },
      "beHit": {
        "hitBloodEffect": "",
        "muteAllHit": true,
        "muteAllHitEffect": true,
        "muteAllHitText": true
      },
      "combatLock": {
        "lockShape": "CircleLockEnemy",
        "denyLockOn": true,
        "lockType": "Default"
      }
    },
    "combatTemplate": "",
    "abilities": [
      {
        "abilityID": "Drake_Primo_Rock_ScaleGadget_ActivityCycle_Electric",
        "abilityName": "Drake_Primo_Rock_ScaleGadget_ActivityCycle_Electric",
        "abilityOverride": ""
      }
    ],
    "timer": {
      "lifeInfinite": true
    }
  },
  "Drake_Primo_Rock_ScaleGadget_Electric_Bullet": {
    "$type": "CJKJIENLOHD",
    "common": {},
    "combat": {
      "property": {
        "useCreatorProperty": true,
        "hp": 999999.0,
        "attack": 10.0,
        "defense": 999999.0,
        "isInvincible": true,
        "isGhostToAllied": true,
        "isGhostToEnemy": true
      },
      "combatLock": {
        "lockShape": "CircleLockEnemy",
        "denyLockOn": true,
        "lockType": "Default"
      }
    },
    "combatTemplate": "",
    "abilities": [
      {
        "abilityID": "Drake_Primo_Rock_ScaleGadget_Electric_Bullet",
        "abilityName": "Drake_Primo_Rock_ScaleGadget_Electric_Bullet",
        "abilityOverride": ""
      }
    ],
    "timer": {
      "lifeTime": 0.5
    },
    "move": {
      "$type": "GONNMCBKAOC",
      "speed": 20.0
    },
    "gadget": {
      "$type": "JENBBNKGGJP",
      "collision": {
        "triggerType": "TriggerNoRepeat",
        "targetType": "Enemy",
        "ignoreScene": true
      },
      "triggerActions": [
        {
          "$type": "AILPBJHDHDG",
          "abilityName": "Drake_Primo_Rock_ScaleGadget_Electric_Bullet"
        }
      ]
    }
  },
  "Drake_Primo_Rock_ScaleGadget_Fire": {
    "$type": "CJKJIENLOHD",
    "common": {},
    "combat": {
      "property": {
        "useCreatorProperty": true,
        "hp": 999999.0,
        "attack": 15.0,
        "defense": 999999.0,
        "isInvincible": true,
        "isGhostToAllied": true,
        "isGhostToEnemy": true
      },
      "beHit": {
        "hitBloodEffect": "",
        "muteAllHit": true,
        "muteAllHitEffect": true,
        "muteAllHitText": true
      },
      "combatLock": {
        "lockShape": "CircleLockEnemy",
        "denyLockOn": true,
        "lockType": "Default"
      }
    },
    "combatTemplate": "",
    "abilities": [
      {
        "abilityID": "Drake_Primo_Rock_ScaleGadget_Fire",
        "abilityName": "Drake_Primo_Rock_ScaleGadget_Fire",
        "abilityOverride": ""
      }
    ],
    "timer": {
      "lifeTime": 15.0
    }
  },
  "Drake_Primo_Rock_ScaleGadget_ActivityCycle_Fire": {
    "$type": "CJKJIENLOHD",
    "common": {},
    "combat": {
      "property": {
        "useCreatorProperty": true,
        "hp": 999999.0,
        "attack": 15.0,
        "defense": 999999.0,
        "isInvincible": true,
        "isGhostToAllied": true,
        "isGhostToEnemy": true
      },
      "beHit": {
        "hitBloodEffect": "",
        "muteAllHit": true,
        "muteAllHitEffect": true,
        "muteAllHitText": true
      },
      "combatLock": {
        "lockShape": "CircleLockEnemy",
        "denyLockOn": true,
        "lockType": "Default"
      }
    },
    "combatTemplate": "",
    "abilities": [
      {
        "abilityID": "Drake_Primo_Rock_ScaleGadget_ActivityCycle_Fire",
        "abilityName": "Drake_Primo_Rock_ScaleGadget_ActivityCycle_Fire",
        "abilityOverride": ""
      }
    ],
    "timer": {
      "lifeInfinite": true
    }
  },
  "Drake_Primo_Rock_ScaleGadget_Ice": {
    "$type": "CJKJIENLOHD",
    "common": {},
    "combat": {
      "property": {
        "useCreatorProperty": true,
        "hp": 999999.0,
        "attack": 15.0,
        "defense": 999999.0,
        "isInvincible": true,
        "isGhostToAllied": true,
        "isGhostToEnemy": true
      },
      "beHit": {
        "hitBloodEffect": "",
        "muteAllHit": true,
        "muteAllHitEffect": true,
        "muteAllHitText": true
      },
      "combatLock": {
        "lockShape": "CircleLockEnemy",
        "denyLockOn": true,
        "lockType": "Default"
      }
    },
    "combatTemplate": "",
    "abilities": [
      {
        "abilityID": "Drake_Primo_Rock_ScaleGadget_Ice",
        "abilityName": "Drake_Primo_Rock_ScaleGadget_Ice",
        "abilityOverride": ""
      }
    ],
    "timer": {
      "lifeTime": 5.0
    }
  },
  "Drake_Primo_Rock_ScaleGadget_ActivityCycle_Ice": {
    "$type": "CJKJIENLOHD",
    "common": {},
    "combat": {
      "property": {
        "useCreatorProperty": true,
        "hp": 999999.0,
        "attack": 15.0,
        "defense": 999999.0,
        "isInvincible": true,
        "isGhostToAllied": true,
        "isGhostToEnemy": true
      },
      "beHit": {
        "hitBloodEffect": "",
        "muteAllHit": true,
        "muteAllHitEffect": true,
        "muteAllHitText": true
      },
      "combatLock": {
        "lockShape": "CircleLockEnemy",
        "denyLockOn": true,
        "lockType": "Default"
      }
    },
    "combatTemplate": "",
    "abilities": [
      {
        "abilityID": "Drake_Primo_Rock_ScaleGadget_ActivityCycle_Ice",
        "abilityName": "Drake_Primo_Rock_ScaleGadget_ActivityCycle_Ice",
        "abilityOverride": ""
      }
    ],
    "timer": {
      "lifeInfinite": true
    }
  },
  "Drake_Primo_Rock_ScaleGadget_Water": {
    "$type": "CJKJIENLOHD",
    "common": {},
    "combat": {
      "property": {
        "useCreatorProperty": true,
        "hp": 999999.0,
        "attack": 15.0,
        "defense": 999999.0,
        "isInvincible": true,
        "isGhostToAllied": true,
        "isGhostToEnemy": true
      },
      "beHit": {
        "hitBloodEffect": "",
        "muteAllHit": true,
        "muteAllHitEffect": true,
        "muteAllHitText": true
      },
      "combatLock": {
        "lockShape": "CircleLockEnemy",
        "denyLockOn": true,
        "lockType": "Default"
      }
    },
    "combatTemplate": "",
    "abilities": [
      {
        "abilityID": "Drake_Primo_Rock_ScaleGadget_Water",
        "abilityName": "Drake_Primo_Rock_ScaleGadget_Water",
        "abilityOverride": ""
      }
    ],
    "timer": {
      "lifeTime": 5.0
    }
  },
  "Drake_Primo_Rock_ScaleGadget_ActivityCycle_Water": {
    "$type": "CJKJIENLOHD",
    "common": {},
    "combat": {
      "property": {
        "useCreatorProperty": true,
        "hp": 999999.0,
        "attack": 15.0,
        "defense": 999999.0,
        "isInvincible": true,
        "isGhostToAllied": true,
        "isGhostToEnemy": true
      },
      "beHit": {
        "hitBloodEffect": "",
        "muteAllHit": true,
        "muteAllHitEffect": true,
        "muteAllHitText": true
      },
      "combatLock": {
        "lockShape": "CircleLockEnemy",
        "denyLockOn": true,
        "lockType": "Default"
      }
    },
    "combatTemplate": "",
    "abilities": [
      {
        "abilityID": "Drake_Primo_Rock_ScaleGadget_ActivityCycle_Water",
        "abilityName": "Drake_Primo_Rock_ScaleGadget_ActivityCycle_Water",
        "abilityOverride": ""
      }
    ],
    "timer": {
      "lifeInfinite": true
    }
  },
  "Drake_Primo_Rock_GlideBullet": {
    "$type": "CJKJIENLOHD",
    "combat": {
      "property": {
        "useCreatorProperty": true,
        "isInvincible": true,
        "canTriggerBullet": false
      },
      "beHit": {
        "hitBloodEffect": "",
        "muteAllHit": true,
        "muteAllHitEffect": true,
        "muteAllHitText": true
      },
      "combatLock": {
        "lockShape": "CircleLockEnemy",
        "denyLockOn": true,
        "lockType": "Default"
      }
    },
    "combatTemplate": "",
    "abilities": [
      {
        "abilityID": "Drake_Primo_Rock_GlideBullet",
        "abilityName": "Drake_Primo_Rock_GlideBullet",
        "abilityOverride": ""
      }
    ],
    "timer": {
      "lifeInfinite": true
    },
    "move": {
      "$type": "MMAPEFIEGAL",
      "target": "TargetEntity",
      "attachPoint": "",
      "followRotation": true,
      "LFOHLEKJFBI": ""
    },
    "gadget": {
      "$type": "JENBBNKGGJP",
      "collision": {
        "triggerType": "TriggerAlways",
        "triggerCD": 0.5,
        "targetType": "Enemy"
      },
      "triggerActions": [
        {
          "$type": "AILPBJHDHDG",
          "abilityName": "Drake_Primo_Rock_GlideBullet"
        }
      ]
    }
  },
  "Drake_Primo_Rock_ElementExplode_Electric": {
    "$type": "CJKJIENLOHD",
    "combat": {
      "property": {
        "useCreatorProperty": true,
        "isInvincible": true,
        "canTriggerBullet": false
      },
      "beHit": {
        "hitBloodEffect": "",
        "muteAllHit": true,
        "muteAllHitEffect": true,
        "muteAllHitText": true
      },
      "combatLock": {
        "lockShape": "CircleLockEnemy",
        "denyLockOn": true,
        "lockType": "Default"
      }
    },
    "combatTemplate": "",
    "abilities": [
      {
        "abilityID": "Drake_Primo_Rock_ElementExplode_Electric",
        "abilityName": "Drake_Primo_Rock_ElementExplode_Electric",
        "abilityOverride": ""
      }
    ],
    "timer": {
      "lifeTime": 3.0
    }
  },
  "Drake_Primo_Rock_ElementExplode_Fire": {
    "$type": "CJKJIENLOHD",
    "combat": {
      "property": {
        "useCreatorProperty": true,
        "isInvincible": true,
        "canTriggerBullet": false
      },
      "beHit": {
        "hitBloodEffect": "",
        "muteAllHit": true,
        "muteAllHitEffect": true,
        "muteAllHitText": true
      },
      "combatLock": {
        "lockShape": "CircleLockEnemy",
        "denyLockOn": true,
        "lockType": "Default"
      }
    },
    "combatTemplate": "",
    "abilities": [
      {
        "abilityID": "Drake_Primo_Rock_ElementExplode_Fire",
        "abilityName": "Drake_Primo_Rock_ElementExplode_Fire",
        "abilityOverride": ""
      }
    ],
    "timer": {
      "lifeTime": 3.0
    }
  },
  "Drake_Primo_Rock_ElementExplode_Ice": {
    "$type": "CJKJIENLOHD",
    "combat": {
      "property": {
        "useCreatorProperty": true,
        "isInvincible": true,
        "canTriggerBullet": false
      },
      "beHit": {
        "hitBloodEffect": "",
        "muteAllHit": true,
        "muteAllHitEffect": true,
        "muteAllHitText": true
      },
      "combatLock": {
        "lockShape": "CircleLockEnemy",
        "denyLockOn": true,
        "lockType": "Default"
      }
    },
    "combatTemplate": "",
    "abilities": [
      {
        "abilityID": "Drake_Primo_Rock_ElementExplode_Ice",
        "abilityName": "Drake_Primo_Rock_ElementExplode_Ice",
        "abilityOverride": ""
      }
    ],
    "timer": {
      "lifeTime": 3.0
    }
  },
  "Drake_Primo_Rock_ElementExplode_Water": {
    "$type": "CJKJIENLOHD",
    "combat": {
      "property": {
        "useCreatorProperty": true,
        "isInvincible": true,
        "canTriggerBullet": false
      },
      "beHit": {
        "hitBloodEffect": "",
        "muteAllHit": true,
        "muteAllHitEffect": true,
        "muteAllHitText": true
      },
      "combatLock": {
        "lockShape": "CircleLockEnemy",
        "denyLockOn": true,
        "lockType": "Default"
      }
    },
    "combatTemplate": "",
    "abilities": [
      {
        "abilityID": "Drake_Primo_Rock_ElementExplode_Water",
        "abilityName": "Drake_Primo_Rock_ElementExplode_Water",
        "abilityOverride": ""
      }
    ],
    "timer": {
      "lifeTime": 3.0
    }
  },
  "Drake_Rock_IceEnhance_ScaleShot_Bullet_SP": {
    "$type": "CJKJIENLOHD",
    "common": {
      "effectAttachShape": {
        "$type": "OMIODKONOMG"
      },
      "viewSize": 0.699999988079071,
      "affectedByWorld": true,
      "checkInSurface": true,
      "scale": 0.5
    },
    "combat": {
      "property": {
        "useCreatorProperty": true,
        "isInvincible": true,
        "canTriggerBullet": false
      },
      "beHit": {
        "hitBloodEffect": "",
        "muteAllHit": true,
        "muteAllHitEffect": true,
        "muteAllHitText": true
      },
      "combatLock": {
        "lockShape": "CircleLockEnemy",
        "denyLockOn": true,
        "lockType": "Default"
      }
    },
    "combatTemplate": "",
    "abilities": [
      {
        "abilityID": "",
        "abilityName": "Monster_Drake_Rock_IceEnhance_ScaleShot_IceSpear_SP",
        "abilityOverride": ""
      }
    ],
    "timer": {
      "lifeTime": 7.0
    },
    "move": {
      "$type": "BFDBCCCADKH",
      "velocityForce": {
        "excludeForces": ["WindZoneType"]
      },
      "speed": 15.0,
      "DPAAFHNMHHN": {
        "$type": "IFAANDLLGLP"
      },
      "syncToRemote": true,
      "angleOffHor": 15.0,
      "gravityOfAcceleration": 25.0,
      "correction": {
        "$type": "FEHDIANJKBF",
        "deviation": 7.0,
        "minSpeed": 10.0
      },
      "GEBCKKDCGDP": "",
      "NKPHOKHJKGC": ""
    },
    "gadget": {
      "$type": "JENBBNKGGJP",
      "collision": {
        "targetType": "Enemy"
      },
      "triggerActions": [
        {
          "$type": "AILPBJHDHDG",
          "abilityName": "Monster_Drake_Rock_IceEnhance_ScaleShot_IceSpear_SP"
        }
      ]
    }
  },
  "Drake_Rock_IceEnhance_Gadget_SP": {
    "$type": "CJKJIENLOHD",
    "common": {
      "effectAttachShape": {
        "$type": "OMIODKONOMG",
        "scaleX": 1.399999976158142,
        "scaleY": 1.399999976158142,
        "scaleZ": 1.399999976158142
      },
      "scale": 0.7099999785423279
    },
    "combat": {
      "property": {
        "useCreatorProperty": true,
        "hp": 999999.0,
        "attack": 10.0,
        "defense": 999999.0,
        "isInvincible": true,
        "isGhostToAllied": true,
        "isGhostToEnemy": true
      },
      "beHit": {
        "hitBloodEffect": "",
        "muteAllHit": true,
        "muteAllHitEffect": true,
        "muteAllHitText": true
      },
      "combatLock": {
        "lockShape": "CircleLockEnemy",
        "denyLockOn": true,
        "lockType": "Default"
      }
    },
    "combatTemplate": "",
    "abilities": [
      {
        "abilityID": "Monster_Drake_Rock_IceEnhance_Gadget_SP",
        "abilityName": "Monster_Drake_Rock_IceEnhance_Gadget_SP",
        "abilityOverride": ""
      },
      {
        "abilityID": "Monster_Drake_Rock_IceEnhance_Gadget_LiveOver_SP",
        "abilityName": "Monster_Drake_Rock_IceEnhance_Gadget_LiveOver_SP",
        "abilityOverride": ""
      }
    ],
    "timer": {
      "lifeTime": 5.0
    },
    "gadget": {
      "$type": "JENBBNKGGJP",
      "collision": {
        "targetType": "Enemy",
        "ignoreScene": true
      },
      "triggerActions": [
        {
          "$type": "AILPBJHDHDG",
          "abilityName": "Monster_Drake_Rock_IceEnhance_Gadget_SP"
        }
      ],
      "triggerLifeOverActions": [
        {
          "$type": "AILPBJHDHDG",
          "abilityName": "Monster_Drake_Rock_IceEnhance_Gadget_LiveOver_SP"
        }
      ]
    }
  },
  "Drake_Rock_IceEnhance_SlapGround_DamageWave_SP": {
    "$type": "CJKJIENLOHD",
    "common": {
      "effectAttachShape": {
        "$type": "OMIODKONOMG"
      }
    },
    "combat": {
      "property": {
        "useCreatorProperty": true,
        "hp": 999999.0,
        "attack": 10.0,
        "defense": 999999.0,
        "isInvincible": true,
        "isGhostToAllied": true,
        "isGhostToEnemy": true
      },
      "beHit": {
        "hitBloodEffect": "",
        "muteAllHit": true,
        "muteAllHitEffect": true,
        "muteAllHitText": true
      },
      "combatLock": {
        "lockShape": "CircleLockEnemy",
        "denyLockOn": true,
        "lockType": "Default"
      }
    },
    "combatTemplate": "",
    "abilities": [
      {
        "abilityID": "Monster_Drake_Rock_IceEnhance_SlapGround_DamageWave_SP",
        "abilityName": "Monster_Drake_Rock_IceEnhance_SlapGround_DamageWave_SP",
        "abilityOverride": ""
      }
    ],
    "timer": {
      "lifeTime": 1.0
    },
    "move": {
      "$type": "GONNMCBKAOC",
      "velocityForce": {
        "excludeForces": ["WindZoneType"]
      },
      "speed": 20.0,
      "stickToGround": {
        "maxStepHeight": 4.0,
        "maxSlopeAngle": 30.0,
        "heightToGround": 0.20000000298023224,
        "flexibleRange": 0.10000000149011612,
        "unstickWhenDownSlide": "Keep",
        "unstickWhenUpSlide": "Keep"
      }
    },
    "gadget": {
      "$type": "JENBBNKGGJP",
      "collision": {
        "triggerType": "TriggerNoRepeat",
        "targetType": "Enemy",
        "ignoreScene": true
      }
    }
  },
  "Drake_Rock_IceEnhance_SlapGroundFinal_DamageWave_SP": {
    "$type": "CJKJIENLOHD",
    "common": {
      "effectAttachShape": {
        "$type": "OMIODKONOMG"
      }
    },
    "combat": {
      "property": {
        "useCreatorProperty": true,
        "hp": 999999.0,
        "attack": 10.0,
        "defense": 999999.0,
        "isInvincible": true,
        "isGhostToAllied": true,
        "isGhostToEnemy": true
      },
      "beHit": {
        "hitBloodEffect": "",
        "muteAllHit": true,
        "muteAllHitEffect": true,
        "muteAllHitText": true
      },
      "combatLock": {
        "lockShape": "CircleLockEnemy",
        "denyLockOn": true,
        "lockType": "Default"
      }
    },
    "combatTemplate": "",
    "abilities": [
      {
        "abilityID": "Monster_Drake_Rock_IceEnhance_SlapGroundFinal_DamageWave_SP",
        "abilityName": "Monster_Drake_Rock_IceEnhance_SlapGroundFinal_DamageWave_SP",
        "abilityOverride": ""
      }
    ],
    "timer": {
      "lifeTime": 1.0
    },
    "move": {
      "$type": "GONNMCBKAOC",
      "velocityForce": {
        "excludeForces": ["WindZoneType"]
      },
      "speed": 22.0,
      "stickToGround": {
        "maxStepHeight": 4.0,
        "maxSlopeAngle": 30.0,
        "heightToGround": 0.20000000298023224,
        "flexibleRange": 0.10000000149011612,
        "unstickWhenDownSlide": "Keep",
        "unstickWhenUpSlide": "Keep"
      }
    },
    "gadget": {
      "$type": "JENBBNKGGJP",
      "collision": {
        "triggerType": "TriggerNoRepeat",
        "targetType": "Enemy",
        "ignoreScene": true
      }
    }
  },
  "Drake_Rock_Gadget_ClearGound_SP": {
    "$type": "CJKJIENLOHD",
    "common": {
      "scale": 1.2000000476837158
    },
    "combat": {
      "property": {
        "hp": 1000000000.0,
        "attack": 1.0,
        "defense": 999999.0,
        "isLockHP": true,
        "isGhostToAllied": true,
        "isGhostToEnemy": true,
        "canTriggerBullet": false
      },
      "beHit": {
        "hitBloodEffect": ""
      },
      "combatLock": {
        "lockShape": "CircleLockEnemy",
        "denyLockOn": true,
        "lockType": "Default"
      }
    },
    "combatTemplate": "",
    "abilities": [
      {
        "abilityID": "Monster_Drake_Rock_Gadget_ClearGound_SP",
        "abilityName": "Monster_Drake_Rock_Gadget_ClearGound_SP",
        "abilityOverride": ""
      }
    ],
    "timer": {
      "lifeTime": 1.0
    },
    "move": {
      "$type": "MMAPEFIEGAL",
      "target": "TargetEntity",
      "attachPoint": "",
      "offset": {
        "z": 0.20000000298023224
      },
      "LFOHLEKJFBI": ""
    },
    "gadget": {
      "$type": "JENBBNKGGJP",
      "collision": {
        "triggerType": "TriggerNoRepeat",
        "targetType": "Enemy",
        "ignoreScene": true,
        "ignoreWater": true
      },
      "triggerActions": [
        {
          "$type": "AILPBJHDHDG",
          "abilityName": "Monster_Drake_Rock_Gadget_ClearGound_SP"
        }
      ]
    }
  },
  "Drake_Rock_Gadget_Field_ListenEnter": {
    "$type": "CJKJIENLOHD",
    "common": {
      "effectAttachShape": {
        "$type": "OMIODKONOMG"
      }
    },
    "combat": {
      "property": {
        "hp": 1000000000.0,
        "defense": 999999.0,
        "weight": 251.0,
        "isLockHP": true,
        "isGhostToAllied": true,
        "isGhostToEnemy": true,
        "canTriggerBullet": false
      },
      "beHit": {
        "hitBloodEffect": "",
        "muteAllHit": true,
        "muteAllHitEffect": true,
        "muteAllHitText": true
      },
      "combatLock": {
        "lockShape": "CircleLockEnemy",
        "denyLockOn": true,
        "lockType": "Default"
      }
    },
    "combatTemplate": "",
    "abilities": [
      {
        "abilityID": "Monster_Drake_Rock_Gadget_ListenField_Enter",
        "abilityName": "Monster_Drake_Rock_Gadget_ListenField_Enter",
        "abilityOverride": ""
      },
      {
        "abilityID": "Monster_Drake_Rock_Gadget_SetPos",
        "abilityName": "Monster_Drake_Rock_Gadget_SetPos",
        "abilityOverride": ""
      }
    ],
    "field": {
      "concernType": "AllAvatars",
      "shape": "CircleR22_5H10",
      "fromShape": "",
      "triggerInfinite": true,
      "lifeInfinite": true,
      "checkInterval": 0.20000000298023224,
      "colliderName": "",
      "fromColliderName": "",
      "colliderCheckOnInit": true
    }
  },
  "Drake_Rock_Gadget_Field_ListenExit": {
    "$type": "CJKJIENLOHD",
    "common": {
      "effectAttachShape": {
        "$type": "OMIODKONOMG"
      }
    },
    "combat": {
      "property": {
        "hp": 1000000000.0,
        "attack": 15.0,
        "defense": 999999.0,
        "weight": 251.0,
        "isLockHP": true,
        "isGhostToAllied": true,
        "isGhostToEnemy": true,
        "canTriggerBullet": false
      },
      "beHit": {
        "hitBloodEffect": "",
        "muteAllHit": true,
        "muteAllHitEffect": true,
        "muteAllHitText": true
      },
      "combatLock": {
        "lockShape": "CircleLockEnemy",
        "denyLockOn": true,
        "lockType": "Default"
      }
    },
    "combatTemplate": "",
    "abilities": [
      {
        "abilityID": "Monster_Drake_Rock_Gadget_ListenField_Exit",
        "abilityName": "Monster_Drake_Rock_Gadget_ListenField_Exit",
        "abilityOverride": ""
      }
    ]
  },
  "Drake_Rock_FollowHitBox_Roll_SP": {
    "$type": "CJKJIENLOHD",
    "common": {
      "effectAttachShape": {
        "$type": "OMIODKONOMG"
      },
      "scale": 1.2000000476837158
    },
    "combat": {
      "property": {
        "useCreatorProperty": true,
        "isInvincible": true,
        "isLockHP": true,
        "isGhostToAllied": true,
        "isGhostToEnemy": true,
        "canTriggerBullet": false
      },
      "beHit": {
        "hitBloodEffect": ""
      },
      "combatLock": {
        "lockShape": "CircleLockEnemy",
        "denyLockOn": true,
        "lockType": "Default"
      }
    },
    "combatTemplate": "",
    "abilities": [
      {
        "abilityID": "Monster_Drake_Rock_FollowHitBox_Roll_SP",
        "abilityName": "Monster_Drake_Rock_FollowHitBox_Roll_SP",
        "abilityOverride": ""
      }
    ],
    "timer": {
      "lifeTime": 8.0
    },
    "move": {
      "$type": "MMAPEFIEGAL",
      "target": "TargetEntity",
      "attachPoint": "",
      "offset": {
        "z": 0.20000000298023224
      },
      "LFOHLEKJFBI": ""
    },
    "gadget": {
      "$type": "JENBBNKGGJP",
      "collision": {
        "triggerType": "TriggerNoRepeat",
        "targetType": "Enemy",
        "ignoreScene": true,
        "ignoreWater": true
      },
      "triggerActions": [
        {
          "$type": "AILPBJHDHDG",
          "abilityName": "Monster_Drake_Rock_FollowHitBox_Roll_SP"
        }
      ],
      "killByOther": true
    }
  },
  "Drake_Primo_Rock_BossEvent_ScaleGadget_Ice": {
    "$type": "CJKJIENLOHD",
    "combat": {
      "property": {
        "useCreatorProperty": true,
        "isInvincible": true,
        "isGhostToEnemy": true
      },
      "combatLock": {
        "lockShape": "CircleLockEnemy",
        "denyLockOn": true,
        "lockType": "Default"
      }
    },
    "combatTemplate": "",
    "abilities": [
      {
        "abilityID": "",
        "abilityName": "Drake_Primo_Rock_BossEvent_ScaleGadget_Ice",
        "abilityOverride": ""
      }
    ],
    "timer": {
      "lifeTime": 31.0
    }
  },
  "Drake_Primo_Rock_BossEvent_ScaleGadget_Water": {
    "$type": "CJKJIENLOHD",
    "combat": {
      "property": {
        "useCreatorProperty": true,
        "isInvincible": true,
        "isGhostToEnemy": true
      },
      "combatLock": {
        "lockShape": "CircleLockEnemy",
        "denyLockOn": true,
        "lockType": "Default"
      }
    },
    "combatTemplate": "",
    "abilities": [
      {
        "abilityID": "",
        "abilityName": "Drake_Primo_Rock_BossEvent_ScaleGadget_Water",
        "abilityOverride": ""
      }
    ],
    "timer": {
      "lifeTime": 31.0
    }
  },
  "Drake_Primo_Rock_BossEvent_ScaleBurst_Bullet_Ice": {
    "$type": "CJKJIENLOHD",
    "combat": {
      "property": {
        "useCreatorProperty": true,
        "isInvincible": true,
        "isGhostToEnemy": true
      },
      "beHit": {
        "hitBloodEffect": "",
        "muteAllHit": true,
        "muteAllHitEffect": true,
        "muteAllHitText": true
      },
      "combatLock": {
        "lockShape": "CircleLockEnemy",
        "denyLockOn": true,
        "lockType": "Default"
      }
    },
    "combatTemplate": "",
    "abilities": [
      {
        "abilityID": "",
        "abilityName": "Drake_Primo_Rock_BossEvent_ScaleBurst_Bullet_Ice",
        "abilityOverride": ""
      }
    ],
    "timer": {
      "lifeTime": 6.0
    },
    "move": {
      "$type": "BFICFPAEFPB",
      "speed": 15.800000190734863,
      "DPAAFHNMHHN": {
        "$type": "IFAANDLLGLP"
      },
      "straightRange": 1.5,
      "gravityOfAcceleration": 30.0
    },
    "gadget": {
      "$type": "JENBBNKGGJP",
      "collision": {},
      "triggerActions": [
        {
          "$type": "AILPBJHDHDG",
          "abilityName": "Drake_Primo_Rock_BossEvent_ScaleBurst_Bullet_Ice"
        }
      ],
      "killByOther": true
    }
  },
  "Drake_Primo_Rock_BossEvent_ScaleBurst_Bullet_Water": {
    "$type": "CJKJIENLOHD",
    "combat": {
      "property": {
        "useCreatorProperty": true,
        "isInvincible": true,
        "isGhostToEnemy": true
      },
      "beHit": {
        "hitBloodEffect": "",
        "muteAllHit": true,
        "muteAllHitEffect": true,
        "muteAllHitText": true
      },
      "combatLock": {
        "lockShape": "CircleLockEnemy",
        "denyLockOn": true,
        "lockType": "Default"
      }
    },
    "combatTemplate": "",
    "abilities": [
      {
        "abilityID": "",
        "abilityName": "Drake_Primo_Rock_BossEvent_ScaleBurst_Bullet_Water",
        "abilityOverride": ""
      }
    ],
    "timer": {
      "lifeTime": 6.0
    },
    "move": {
      "$type": "BFICFPAEFPB",
      "speed": 15.800000190734863,
      "DPAAFHNMHHN": {
        "$type": "IFAANDLLGLP"
      },
      "straightRange": 1.5,
      "gravityOfAcceleration": 30.0
    },
    "gadget": {
      "$type": "JENBBNKGGJP",
      "collision": {},
      "triggerActions": [
        {
          "$type": "AILPBJHDHDG",
          "abilityName": "Drake_Primo_Rock_BossEvent_ScaleBurst_Bullet_Water"
        }
      ],
      "killByOther": true
    }
  },
  "Drake_Primo_Rock_BossEvent_ElementExplode_Gadget": {
    "$type": "CJKJIENLOHD",
    "combat": {
      "property": {
        "useCreatorProperty": true,
        "isInvincible": true,
        "canTriggerBullet": false
      },
      "beHit": {
        "hitBloodEffect": "",
        "muteAllHit": true,
        "muteAllHitEffect": true,
        "muteAllHitText": true
      },
      "combatLock": {
        "lockShape": "CircleLockEnemy",
        "denyLockOn": true,
        "lockType": "Default"
      }
    },
    "combatTemplate": "",
    "abilities": [
      {
        "abilityID": "",
        "abilityName": "Drake_Primo_Rock_BossEvent_ElementExplode_LogicGadget",
        "abilityOverride": ""
      }
    ],
    "timer": {
      "lifeTime": 3.0
    }
  },
  "Drake_Primo_Rock_BossEvent_ScaleGadget_Water_AttackBullet": {
    "$type": "CJKJIENLOHD",
    "combat": {
      "property": {
        "useCreatorProperty": true,
        "isInvincible": true,
        "isGhostToAllied": true,
        "isGhostToEnemy": true
      },
      "beHit": {
        "hitBloodEffect": "",
        "muteAllHit": true,
        "muteAllHitEffect": true,
        "muteAllHitText": true
      },
      "combatLock": {
        "lockShape": "CircleLockEnemy",
        "denyLockOn": true,
        "lockType": "Default"
      }
    },
    "combatTemplate": "",
    "abilities": [
      {
        "abilityID": "",
        "abilityName": "Drake_Primo_Rock_BossEvent_ScaleGadget_Water_Bullet",
        "abilityOverride": ""
      }
    ],
    "timer": {
      "lifeTime": 2.200000047683716
    },
    "move": {
      "$type": "GMOHNHFHLAO",
      "velocityForce": {
        "muteAll": true
      },
      "speed": 6.150000095367432,
      "anglerVelocity": 78.0,
      "stickToGround": {
        "maxStepHeight": 4.0,
        "maxSlopeAngle": 90.0,
        "heightToGround": 0.6000000238418579,
        "flexibleRange": 0.20000000298023224,
        "unstickWhenDownSlide": "Keep",
        "unstickWhenUpSlide": "Keep"
      },
      "syncOptimized": true
    },
    "gadget": {
      "$type": "JENBBNKGGJP",
      "collision": {
        "ignoreScene": true
      }
    }
  }
}
