{
  "SceneObj_Resident_WormHoleGate02": {
    "$type": "OMDJIAKPKMD",
    "model": {
      "bornEffect": "",
      "attachEffect": "Eff_WormHoleGate02"
    },
    "hasModel": true,
    "combat": {
      "property": {
        "hp": 99999.0,
        "weight": 50.0,
        "isInvincible": true,
        "isGhostToAllied": true,
        "isGhostToEnemy": true,
        "canTriggerBullet": false
      },
      "beHit": {
        "hitBloodEffect": "",
        "muteAllHit": true,
        "muteAllHitEffect": true,
        "muteAllHitText": true
      },
      "combatLock": {
        "lockShape": "CircleLockEnemy",
        "denyLockOn": true,
        "lockType": "Gadget_Lv1"
      },
      "die": {
        "dieForceDisappearTime": 3.0,
        "dieDisappearEffect": ""
      }
    },
    "combatTemplate": ""
  },
  "SceneObj_Resident_Goddess": {
    "$type": "OMDJIAKPKMD",
    "common": {
      "forcePauseTickDistance": 100.0
    },
    "model": {
      "bornEffect": "",
      "attachEffect": "Eff_Goddess_Level"
    },
    "hasModel": true,
    "combat": {
      "property": {
        "hp": 99999.0,
        "weight": 50.0,
        "isInvincible": true,
        "isGhostToAllied": true,
        "isGhostToEnemy": true,
        "canTriggerBullet": false
      },
      "beHit": {
        "hitBloodEffect": "",
        "muteAllHit": true,
        "muteAllHitEffect": true,
        "muteAllHitText": true
      },
      "combatLock": {
        "lockShape": "CircleLockEnemy",
        "denyLockOn": true,
        "lockType": "Gadget_Lv1"
      },
      "die": {
        "dieForceDisappearTime": 3.0,
        "dieDisappearEffect": ""
      }
    },
    "combatTemplate": "",
    "abilities": [
      {
        "abilityID": "ability_01",
        "abilityName": "SceneObj_Resident_Goddess",
        "abilityOverride": ""
      },
      {
        "abilityID": "FireEffect_ElementResonance_Wind",
        "abilityName": "FireEffect_ElementResonance_Wind",
        "abilityOverride": ""
      }
    ],
    "stateLayers": {
      "defaultLayer": {
        "$type": "EFHAFOENCNG",
        "layerIndexName": "",
        "AABLFOGKNJH": "",
        "stateIDs": {
          "Red": {
            "$type": "LOBGNBNJANH",
            "animatorStates": {
              "Goddess_Level_0_Idle": [
                "Audio_SceneObj_Gear_Goddess_Locked_Idle"
              ]
            },
            "cullingModelAlwaysAnimate": true
          },
          "White": {
            "$type": "LOBGNBNJANH",
            "animatorStates": {
              "Goddess_Level_1_Active": [
                "Audio_SceneObj_Gear_Goddess_Level_1_Active"
              ]
            },
            "cullingModelAlwaysAnimate": true
          },
          "Blue": {
            "$type": "LOBGNBNJANH",
            "animatorStates": {
              "Goddess_Level_1_Idle": [
                "Audio_SceneObj_Gear_Goddess_Unlocked_Idle"
              ],
              "Goddess_Levelup_To_2": [
                "Audio_SceneObj_Gear_Goddess_Levelup_To_2",
                "Eff_Goddess_Lv1up"
              ],
              "Goddess_Level_2_Idle": [
                "Audio_SceneObj_Gear_Goddess_Unlocked_Idle"
              ],
              "Goddess_Levelup_To_3": [
                "Audio_SceneObj_Gear_Goddess_Levelup_To_3",
                "Eff_Goddess_Lv2up"
              ],
              "Goddess_Level_3_Idle": [
                "Audio_SceneObj_Gear_Goddess_Unlocked_Idle"
              ],
              "Goddess_Levelup_To_4": [
                "Audio_SceneObj_Gear_Goddess_Levelup_To_4"
              ],
              "Goddess_Level_4_Idle": [
                "Audio_SceneObj_Gear_Goddess_Unlocked_Idle"
              ],
              "Goddess_Levelup_Jump_3": [
                "Audio_SceneObj_Gear_Goddess_Levelup_To_3",
                "Eff_Goddess_Lv2up"
              ],
              "Goddess_Level_1_Heal": ["Eff_Goddess_Auto_Heal"],
              "Goddess_Level_2_Heal": ["Eff_Goddess_Auto_Heal"],
              "Goddess_Level_3_Heal": ["Eff_Goddess_Auto_Heal"],
              "Goddess_Level_4_Heal": ["Eff_Goddess_Auto_Heal"],
              "Normal_Levelup_In_2": [
                "Audio_SceneObj_Gear_Goddess_Levelup_Common"
              ],
              "Normal_Levelup_In_3": [
                "Audio_SceneObj_Gear_Goddess_Levelup_Common"
              ]
            },
            "cullingModelAlwaysAnimate": true
          }
        }
      }
    },
    "audio": {
      "$type": "HFGBAIAJOAO",
      "overrideEmitterName": "",
      "animAudio": {}
    }
  },
  "SceneObj_Resident_Goddess_LY": {
    "$type": "OMDJIAKPKMD",
    "common": {
      "forcePauseTickDistance": 100.0
    },
    "model": {
      "bornEffect": "",
      "attachEffect": "Eff_Goddess_Level_LY"
    },
    "hasModel": true,
    "combat": {
      "property": {
        "hp": 99999.0,
        "weight": 50.0,
        "isInvincible": true,
        "isGhostToAllied": true,
        "isGhostToEnemy": true,
        "canTriggerBullet": false
      },
      "beHit": {
        "hitBloodEffect": "",
        "muteAllHit": true,
        "muteAllHitEffect": true,
        "muteAllHitText": true
      },
      "combatLock": {
        "lockShape": "CircleLockEnemy",
        "denyLockOn": true,
        "lockType": "Gadget_Lv1"
      },
      "die": {
        "dieForceDisappearTime": 3.0,
        "dieDisappearEffect": ""
      }
    },
    "combatTemplate": "",
    "abilities": [
      {
        "abilityID": "ability_01",
        "abilityName": "SceneObj_Resident_Goddess_LY",
        "abilityOverride": ""
      },
      {
        "abilityID": "FireEffect_ElementResonance_Rock",
        "abilityName": "FireEffect_ElementResonance_Rock",
        "abilityOverride": ""
      }
    ],
    "stateLayers": {
      "defaultLayer": {
        "$type": "EFHAFOENCNG",
        "layerIndexName": "",
        "AABLFOGKNJH": "",
        "stateIDs": {
          "Red": {
            "$type": "LOBGNBNJANH",
            "animatorStates": {
              "Goddess_Level_0_Idle": [
                "Audio_SceneObj_Gear_Goddess_Locked_Idle"
              ]
            },
            "cullingModelAlwaysAnimate": true
          },
          "White": {
            "$type": "LOBGNBNJANH",
            "animatorStates": {
              "Goddess_Level_1_Active": [
                "Audio_SceneObj_Gear_Goddess_Level_1_Active"
              ]
            },
            "cullingModelAlwaysAnimate": true
          },
          "Blue": {
            "$type": "LOBGNBNJANH",
            "animatorStates": {
              "Goddess_Level_1_Idle": [
                "Audio_SceneObj_Gear_Goddess_Unlocked_Idle"
              ],
              "Goddess_Levelup_To_2": [
                "Audio_SceneObj_Gear_Goddess_Levelup_To_2",
                "Eff_Goddess_Lv1up"
              ],
              "Goddess_Level_2_Idle": [
                "Audio_SceneObj_Gear_Goddess_Unlocked_Idle"
              ],
              "Goddess_Levelup_To_3": [
                "Audio_SceneObj_Gear_Goddess_Levelup_To_3",
                "Eff_Goddess_Lv2up"
              ],
              "Goddess_Level_3_Idle": [
                "Audio_SceneObj_Gear_Goddess_Unlocked_Idle"
              ],
              "Goddess_Levelup_To_4": [
                "Audio_SceneObj_Gear_Goddess_Levelup_To_4"
              ],
              "Goddess_Level_4_Idle": [
                "Audio_SceneObj_Gear_Goddess_Unlocked_Idle"
              ],
              "Goddess_Level_1_Heal": ["Eff_Goddess_Auto_Heal"],
              "Goddess_Level_2_Heal": ["Eff_Goddess_Auto_Heal"],
              "Goddess_Level_3_Heal": ["Eff_Goddess_Auto_Heal"],
              "Goddess_Level_4_Heal": ["Eff_Goddess_Auto_Heal"],
              "Normal_Levelup_In_2": [
                "Audio_SceneObj_Gear_Goddess_Levelup_Common"
              ],
              "Normal_Levelup_In_3": [
                "Audio_SceneObj_Gear_Goddess_Levelup_Common"
              ]
            },
            "cullingModelAlwaysAnimate": true
          }
        }
      }
    }
  },
  "SceneObj_Resident_Goddess_XM": {
    "$type": "OMDJIAKPKMD",
    "common": {
      "forcePauseTickDistance": 100.0
    },
    "model": {
      "bornEffect": "",
      "attachEffect": "Eff_Goddess_Level_XM"
    },
    "hasModel": true,
    "combat": {
      "property": {
        "hp": 99999.0,
        "weight": 50.0,
        "isInvincible": true,
        "isGhostToAllied": true,
        "isGhostToEnemy": true,
        "canTriggerBullet": false
      },
      "beHit": {
        "hitBloodEffect": "",
        "muteAllHit": true,
        "muteAllHitEffect": true,
        "muteAllHitText": true
      },
      "combatLock": {
        "lockShape": "CircleLockEnemy",
        "denyLockOn": true,
        "lockType": "Gadget_Lv1"
      },
      "die": {
        "dieForceDisappearTime": 3.0,
        "dieDisappearEffect": ""
      }
    },
    "combatTemplate": "",
    "abilities": [
      {
        "abilityID": "ability_01",
        "abilityName": "SceneObj_Resident_Goddess_XM",
        "abilityOverride": ""
      },
      {
        "abilityID": "FireEffect_ElementResonance_Grass",
        "abilityName": "FireEffect_ElementResonance_Grass",
        "abilityOverride": ""
      }
    ],
    "stateLayers": {
      "defaultLayer": {
        "$type": "EFHAFOENCNG",
        "layerIndexName": "",
        "AABLFOGKNJH": "",
        "stateIDs": {
          "Red": {
            "$type": "LOBGNBNJANH",
            "animatorStates": {
              "Goddess_Level_0_Idle": [
                "Audio_SceneObj_Gear_Goddess_Locked_Idle"
              ]
            },
            "cullingModelAlwaysAnimate": true
          },
          "White": {
            "$type": "LOBGNBNJANH",
            "animatorStates": {
              "Goddess_Level_1_Active": [
                "Audio_SceneObj_Gear_Goddess_Level_1_Active"
              ]
            },
            "cullingModelAlwaysAnimate": true
          },
          "Blue": {
            "$type": "LOBGNBNJANH",
            "animatorStates": {
              "Goddess_Level_1_Idle": [
                "Audio_SceneObj_Gear_Goddess_Unlocked_Idle"
              ],
              "Goddess_Levelup_To_2": [
                "Audio_SceneObj_Gear_Goddess_Levelup_To_2",
                "Eff_Goddess_Lv1up"
              ],
              "Goddess_Level_2_Idle": [
                "Audio_SceneObj_Gear_Goddess_Unlocked_Idle"
              ],
              "Goddess_Levelup_To_3": [
                "Audio_SceneObj_Gear_Goddess_Levelup_To_3",
                "Eff_Goddess_Lv2up"
              ],
              "Goddess_Level_3_Idle": [
                "Audio_SceneObj_Gear_Goddess_Unlocked_Idle"
              ],
              "Goddess_Levelup_To_4": [
                "Audio_SceneObj_Gear_Goddess_Levelup_To_4"
              ],
              "Goddess_Level_4_Idle": [
                "Audio_SceneObj_Gear_Goddess_Unlocked_Idle"
              ],
              "Goddess_Levelup_Jump_3": [
                "Audio_SceneObj_Gear_Goddess_Levelup_To_3",
                "Eff_Goddess_Lv2up"
              ],
              "Goddess_Level_1_Heal": ["Eff_Goddess_Auto_Heal"],
              "Goddess_Level_2_Heal": ["Eff_Goddess_Auto_Heal"],
              "Goddess_Level_3_Heal": ["Eff_Goddess_Auto_Heal"],
              "Goddess_Level_4_Heal": ["Eff_Goddess_Auto_Heal"],
              "Normal_Levelup_In_2": [
                "Audio_SceneObj_Gear_Goddess_Levelup_Common"
              ],
              "Normal_Levelup_In_3": [
                "Audio_SceneObj_Gear_Goddess_Levelup_Common"
              ]
            },
            "cullingModelAlwaysAnimate": true
          }
        }
      }
    },
    "audio": {
      "$type": "HFGBAIAJOAO",
      "overrideEmitterName": "",
      "animAudio": {}
    }
  },
  "SceneObj_Area_Fd_Property_Ani_Build_FDGoddess_01": {
    "$type": "OMDJIAKPKMD",
    "common": {
      "forcePauseTickDistance": 100.0
    },
    "model": {
      "bornEffect": "",
      "attachEffect": "Eff_Goddess_Level_FD"
    },
    "hasModel": true,
    "combat": {
      "property": {
        "hp": 99999.0,
        "weight": 50.0,
        "isInvincible": true,
        "isGhostToAllied": true,
        "isGhostToEnemy": true,
        "canTriggerBullet": false
      },
      "beHit": {
        "hitBloodEffect": "",
        "muteAllHit": true,
        "muteAllHitEffect": true,
        "muteAllHitText": true
      },
      "combatLock": {
        "lockShape": "CircleLockEnemy",
        "denyLockOn": true,
        "lockType": "Gadget_Lv1"
      },
      "die": {
        "dieForceDisappearTime": 3.0,
        "dieDisappearEffect": ""
      }
    },
    "combatTemplate": "",
    "abilities": [
      {
        "abilityID": "SceneObj_Area_Fd_Property_Ani_Build_FDGoddess_01",
        "abilityName": "SceneObj_Area_Fd_Property_Ani_Build_FDGoddess_01",
        "abilityOverride": ""
      },
      {
        "abilityID": "FireEffect_ElementResonance_Water",
        "abilityName": "FireEffect_ElementResonance_Water",
        "abilityOverride": ""
      }
    ],
    "stateLayers": {
      "defaultLayer": {
        "$type": "EFHAFOENCNG",
        "layerIndexName": "",
        "AABLFOGKNJH": "",
        "stateIDs": {
          "Red": {
            "$type": "LOBGNBNJANH",
            "animatorStates": {
              "Goddess_Level_0_Idle": [
                "Audio_SceneObj_Gear_Goddess_Locked_Idle"
              ]
            },
            "cullingModelAlwaysAnimate": true
          },
          "White": {
            "$type": "LOBGNBNJANH",
            "animatorStates": {
              "Goddess_Level_1_Active": [
                "Audio_SceneObj_Gear_Goddess_Level_1_Active"
              ]
            },
            "cullingModelAlwaysAnimate": true
          },
          "Blue": {
            "$type": "LOBGNBNJANH",
            "animatorStates": {
              "Goddess_Level_1_Idle": [
                "Audio_SceneObj_Gear_Goddess_Unlocked_Idle"
              ],
              "Goddess_Levelup_To_2": [
                "Audio_SceneObj_Gear_Goddess_Levelup_To_2",
                "Eff_Goddess_Lv1up"
              ],
              "Goddess_Level_2_Idle": [
                "Audio_SceneObj_Gear_Goddess_Unlocked_Idle"
              ],
              "Goddess_Levelup_To_3": [
                "Audio_SceneObj_Gear_Goddess_Levelup_To_3",
                "Eff_Goddess_Lv2up"
              ],
              "Goddess_Level_3_Idle": [
                "Audio_SceneObj_Gear_Goddess_Unlocked_Idle"
              ],
              "Goddess_Levelup_To_4": [
                "Audio_SceneObj_Gear_Goddess_Levelup_To_4"
              ],
              "Goddess_Level_4_Idle": [
                "Audio_SceneObj_Gear_Goddess_Unlocked_Idle"
              ],
              "Goddess_Level_1_Heal": ["Eff_Goddess_Auto_Heal"],
              "Goddess_Level_2_Heal": ["Eff_Goddess_Auto_Heal"],
              "Goddess_Level_3_Heal": ["Eff_Goddess_Auto_Heal"],
              "Goddess_Level_4_Heal": ["Eff_Goddess_Auto_Heal"],
              "Normal_Levelup_In_2": [
                "Audio_SceneObj_Gear_Goddess_Levelup_Common"
              ],
              "Normal_Levelup_In_3": [
                "Audio_SceneObj_Gear_Goddess_Levelup_Common"
              ]
            },
            "cullingModelAlwaysAnimate": true
          }
        }
      }
    }
  },
  "SceneObj_Resident_DungeonEntry_Temp": {
    "$type": "ALBBCOHDFGB",
    "combat": {
      "property": {
        "hp": 99999.0,
        "attack": 200.0,
        "weight": 50.0,
        "isInvincible": true,
        "isLockHP": true
      },
      "beHit": {
        "hitBloodEffect": "",
        "hitAutoRedirect": false,
        "muteAllHitText": true
      },
      "combatLock": {
        "lockShape": "CircleLockEnemy",
        "denyLockOn": true,
        "lockType": "Gadget_Lv1"
      }
    },
    "combatTemplate": "",
    "abilities": [
      {
        "abilityID": "ability_01",
        "abilityName": "SceneObj_Resident_DungeonEntry_Temp",
        "abilityOverride": ""
      }
    ],
    "stateLayers": {
      "defaultLayer": {
        "$type": "EFHAFOENCNG",
        "layerIndexName": "",
        "AABLFOGKNJH": "",
        "stateIDs": {
          "All": {
            "$type": "LOBGNBNJANH",
            "animatorStates": {
              "Inactive": []
            },
            "resetAnimatorTriggerOnExit": ["InactiveTrigger"]
          },
          "Appear": {
            "$type": "LOBGNBNJANH",
            "animatorStates": {
              "Active_Buffer": [],
              "Active": []
            }
          }
        }
      }
    }
  },
  "SceneObj_Resident_DungeonEntry_Temp_3d": {
    "$type": "ALBBCOHDFGB",
    "combat": {
      "property": {
        "hp": 99999.0,
        "attack": 200.0,
        "weight": 50.0,
        "isInvincible": true,
        "isLockHP": true
      },
      "beHit": {
        "hitBloodEffect": "",
        "hitAutoRedirect": false,
        "muteAllHitText": true
      },
      "combatLock": {
        "lockShape": "CircleLockEnemy",
        "denyLockOn": true,
        "lockType": "Gadget_Lv1"
      }
    },
    "combatTemplate": "",
    "abilities": [
      {
        "abilityID": "ability_01",
        "abilityName": "SceneObj_Resident_DungeonEntry_Temp_3d",
        "abilityOverride": ""
      }
    ],
    "stateLayers": {
      "defaultLayer": {
        "$type": "EFHAFOENCNG",
        "layerIndexName": "",
        "AABLFOGKNJH": "",
        "stateIDs": {
          "All": {
            "$type": "LOBGNBNJANH",
            "animatorStates": {
              "Inactive": []
            },
            "resetAnimatorTriggerOnExit": ["InactiveTrigger"]
          },
          "Appear": {
            "$type": "LOBGNBNJANH",
            "animatorStates": {
              "Active_Buffer": [],
              "Active": []
            }
          }
        }
      }
    }
  },
  "SceneObj_Resident_DungeonEntry_MengDe01": {
    "$type": "ALBBCOHDFGB",
    "common": {
      "forcePauseTickDistance": 500.0
    },
    "model": {
      "bornEffect": "",
      "attachEffect": "Eff_DungeonEntry_MengDe_Hint03"
    },
    "hasModel": true,
    "combat": {
      "property": {
        "hp": 99999.0,
        "attack": 200.0,
        "weight": 50.0,
        "isInvincible": true,
        "isLockHP": true
      },
      "beHit": {
        "hitBloodEffect": "",
        "hitAutoRedirect": false,
        "muteAllHitText": true
      },
      "combatLock": {
        "lockShape": "CircleLockEnemy",
        "denyLockOn": true,
        "lockType": "Gadget_Lv1"
      }
    },
    "combatTemplate": "",
    "abilities": [
      {
        "abilityID": "ability_01",
        "abilityName": "SceneObj_Resident_DungeonEntry_MengDe01",
        "abilityOverride": ""
      }
    ],
    "stateLayers": {
      "defaultLayer": {
        "$type": "EFHAFOENCNG",
        "layerIndexName": "",
        "AABLFOGKNJH": "",
        "stateIDs": {
          "UnderLevel": {
            "$type": "LOBGNBNJANH",
            "animatorStates": {
              "Gate_UnderLevel": []
            }
          },
          "ReachLevel": {
            "$type": "LOBGNBNJANH",
            "animatorStates": {
              "Gate_ReachLevel": []
            }
          },
          "Inactive": {
            "$type": "LOBGNBNJANH",
            "animatorStates": {
              "Gate_Inactive": []
            }
          },
          "Active": {
            "$type": "LOBGNBNJANH",
            "animatorStates": {
              "Gate_Active": []
            }
          },
          "Lock": {
            "$type": "LOBGNBNJANH",
            "animatorStates": {
              "Gate_Lock": []
            }
          },
          "Open": {
            "$type": "LOBGNBNJANH",
            "animatorStates": {
              "Gate_Unlock": [],
              "Gate_Close": ["Audio_SceneObj_DungeonEntry_MengDe01_Close"]
            }
          },
          "Opening": {
            "$type": "LOBGNBNJANH",
            "animatorStates": {
              "Gate_Open": ["Audio_SceneObj_DungeonEntry_MengDe01_Open"]
            }
          }
        }
      }
    }
  },
  "SceneObj_Resident_DungeonEntry_MengDe01_UW": {
    "$type": "ALBBCOHDFGB",
    "common": {
      "forcePauseTickDistance": 500.0
    },
    "model": {
      "bornEffect": "",
      "attachEffect": "Eff_DungeonEntry_MengDe_Hint03_UW"
    },
    "hasModel": true,
    "combat": {
      "property": {
        "hp": 99999.0,
        "attack": 200.0,
        "weight": 50.0,
        "isInvincible": true,
        "isLockHP": true
      },
      "beHit": {
        "hitBloodEffect": "",
        "hitAutoRedirect": false,
        "muteAllHitText": true
      },
      "combatLock": {
        "lockShape": "CircleLockEnemy",
        "denyLockOn": true,
        "lockType": "Gadget_Lv1"
      }
    },
    "combatTemplate": "",
    "abilities": [
      {
        "abilityID": "ability_01",
        "abilityName": "SceneObj_Resident_DungeonEntry_MengDe01_UW",
        "abilityOverride": ""
      }
    ],
    "stateLayers": {
      "defaultLayer": {
        "$type": "EFHAFOENCNG",
        "layerIndexName": "",
        "AABLFOGKNJH": "",
        "stateIDs": {
          "UnderLevel": {
            "$type": "LOBGNBNJANH",
            "animatorStates": {
              "Gate_UnderLevel": []
            }
          },
          "ReachLevel": {
            "$type": "LOBGNBNJANH",
            "animatorStates": {
              "Gate_ReachLevel": []
            }
          },
          "Inactive": {
            "$type": "LOBGNBNJANH",
            "animatorStates": {
              "Gate_Inactive": []
            }
          },
          "Active": {
            "$type": "LOBGNBNJANH",
            "animatorStates": {
              "Gate_Active": []
            }
          },
          "Lock": {
            "$type": "LOBGNBNJANH",
            "animatorStates": {
              "Gate_Lock": []
            }
          },
          "Open": {
            "$type": "LOBGNBNJANH",
            "animatorStates": {
              "Gate_Unlock": [],
              "Gate_Close": ["Audio_SceneObj_DungeonEntry_MengDe01_Close"]
            }
          },
          "Opening": {
            "$type": "LOBGNBNJANH",
            "animatorStates": {
              "Gate_Open": ["Audio_SceneObj_DungeonEntry_MengDe01_Open"]
            }
          }
        }
      }
    }
  },
  "SceneObj_Resident_DungeonEntry_MengDe02": {
    "$type": "ALBBCOHDFGB",
    "common": {
      "forcePauseTickDistance": 500.0
    },
    "hasModel": true,
    "combat": {
      "property": {
        "hp": 99999.0,
        "attack": 200.0,
        "weight": 50.0,
        "isInvincible": true,
        "isLockHP": true
      },
      "beHit": {
        "hitBloodEffect": "",
        "hitAutoRedirect": false,
        "muteAllHitText": true
      },
      "combatLock": {
        "lockShape": "CircleLockEnemy",
        "denyLockOn": true,
        "lockType": "Gadget_Lv1"
      }
    },
    "combatTemplate": "",
    "abilities": [
      {
        "abilityID": "ability_01",
        "abilityName": "SceneObj_Resident_DungeonEntry_MengDe02",
        "abilityOverride": ""
      }
    ],
    "stateLayers": {
      "defaultLayer": {
        "$type": "EFHAFOENCNG",
        "layerIndexName": "",
        "AABLFOGKNJH": "",
        "stateIDs": {
          "Gate_Close": {
            "$type": "LOBGNBNJANH",
            "animatorStates": {
              "Gate_Buried": []
            }
          },
          "Gate_Broken": {
            "$type": "LOBGNBNJANH",
            "animatorStates": {
              "Gate_Smash": [
                "Audio_SceneObj_DungeonEntry_MengDe02_Smash",
                "DungeonEntry_MengDe_CutScene"
              ]
            }
          },
          "Rise": {
            "$type": "LOBGNBNJANH",
            "animatorStates": {
              "Gate_Rise": ["Audio_SceneObj_DungeonEntry_MengDe02_Rise"]
            }
          },
          "OnGround": {
            "$type": "LOBGNBNJANH",
            "animatorStates": {
              "Gate_OnGround": []
            }
          },
          "UnderLevel": {
            "$type": "LOBGNBNJANH",
            "animatorStates": {
              "Gate_UnderLevel": []
            }
          },
          "ReachLevel": {
            "$type": "LOBGNBNJANH",
            "animatorStates": {
              "Gate_ReachLevel": []
            }
          },
          "Lock": {
            "$type": "LOBGNBNJANH",
            "animatorStates": {
              "Gate_Lock": []
            }
          },
          "Other": {
            "$type": "LOBGNBNJANH",
            "animatorStates": {
              "Gate_Close": ["Audio_SceneObj_DungeonEntry_MengDe01_Close"],
              "Gate_Unlock": []
            }
          },
          "Opening": {
            "$type": "LOBGNBNJANH",
            "animatorStates": {
              "Gate_Open": ["Audio_SceneObj_DungeonEntry_MengDe01_Open"]
            }
          }
        }
      }
    }
  },
  "SceneObj_Resident_DungeonEntry_MengDe02_UW": {
    "$type": "ALBBCOHDFGB",
    "common": {
      "forcePauseTickDistance": 500.0
    },
    "hasModel": true,
    "combat": {
      "property": {
        "hp": 99999.0,
        "attack": 200.0,
        "weight": 50.0,
        "isInvincible": true,
        "isLockHP": true
      },
      "beHit": {
        "hitBloodEffect": "",
        "hitAutoRedirect": false,
        "muteAllHitText": true
      },
      "combatLock": {
        "lockShape": "CircleLockEnemy",
        "denyLockOn": true,
        "lockType": "Gadget_Lv1"
      }
    },
    "combatTemplate": "",
    "abilities": [
      {
        "abilityID": "ability_01",
        "abilityName": "SceneObj_Resident_DungeonEntry_MengDe02_UW",
        "abilityOverride": ""
      }
    ],
    "stateLayers": {
      "defaultLayer": {
        "$type": "EFHAFOENCNG",
        "layerIndexName": "",
        "AABLFOGKNJH": "",
        "stateIDs": {
          "Gate_Close": {
            "$type": "LOBGNBNJANH",
            "animatorStates": {
              "Gate_Buried": []
            }
          },
          "Gate_Broken": {
            "$type": "LOBGNBNJANH",
            "animatorStates": {
              "Gate_Smash": [
                "Audio_SceneObj_DungeonEntry_MengDe02_Smash",
                "DungeonEntry_MengDe_CutScene"
              ]
            }
          },
          "Rise": {
            "$type": "LOBGNBNJANH",
            "animatorStates": {
              "Gate_Rise": ["Audio_SceneObj_DungeonEntry_MengDe02_Rise"]
            }
          },
          "OnGround": {
            "$type": "LOBGNBNJANH",
            "animatorStates": {
              "Gate_OnGround": []
            }
          },
          "UnderLevel": {
            "$type": "LOBGNBNJANH",
            "animatorStates": {
              "Gate_UnderLevel": []
            }
          },
          "ReachLevel": {
            "$type": "LOBGNBNJANH",
            "animatorStates": {
              "Gate_ReachLevel": []
            }
          },
          "Lock": {
            "$type": "LOBGNBNJANH",
            "animatorStates": {
              "Gate_Lock": []
            }
          },
          "Other": {
            "$type": "LOBGNBNJANH",
            "animatorStates": {
              "Gate_Close": ["Audio_SceneObj_DungeonEntry_MengDe01_Close"],
              "Gate_Unlock": []
            }
          },
          "Opening": {
            "$type": "LOBGNBNJANH",
            "animatorStates": {
              "Gate_Open": ["Audio_SceneObj_DungeonEntry_MengDe01_Open"]
            }
          }
        }
      }
    }
  },
  "SceneObj_Resident_DungeonEntry_Desert01": {
    "$type": "ALBBCOHDFGB",
    "common": {
      "forcePauseTickDistance": 500.0
    },
    "hasModel": true,
    "combat": {
      "property": {
        "hp": 99999.0,
        "attack": 200.0,
        "weight": 50.0,
        "isInvincible": true,
        "isLockHP": true
      },
      "beHit": {
        "hitBloodEffect": "",
        "hitAutoRedirect": false,
        "muteAllHitText": true
      },
      "combatLock": {
        "lockShape": "CircleLockEnemy",
        "denyLockOn": true,
        "lockType": "Gadget_Lv1"
      }
    },
    "combatTemplate": "",
    "abilities": [
      {
        "abilityID": "ability_01",
        "abilityName": "SceneObj_Resident_DungeonEntry_MengDe02",
        "abilityOverride": ""
      }
    ],
    "stateLayers": {
      "defaultLayer": {
        "$type": "EFHAFOENCNG",
        "layerIndexName": "",
        "AABLFOGKNJH": "",
        "stateIDs": {
          "Gate_Close": {
            "$type": "LOBGNBNJANH",
            "animatorStates": {
              "Gate_Buried": []
            }
          },
          "Gate_Broken": {
            "$type": "LOBGNBNJANH",
            "animatorStates": {
              "Gate_Smash": [
                "Audio_SceneObj_DungeonEntry_MengDe02_Smash",
                "DungeonEntry_Desert_CutScene_01"
              ]
            }
          },
          "Rise": {
            "$type": "LOBGNBNJANH",
            "animatorStates": {
              "Gate_Rise": ["Audio_SceneObj_DungeonEntry_MengDe02_Rise"]
            }
          },
          "OnGround": {
            "$type": "LOBGNBNJANH",
            "animatorStates": {
              "Gate_OnGround": []
            }
          },
          "UnderLevel": {
            "$type": "LOBGNBNJANH",
            "animatorStates": {
              "Gate_UnderLevel": []
            }
          },
          "ReachLevel": {
            "$type": "LOBGNBNJANH",
            "animatorStates": {
              "Gate_ReachLevel": []
            }
          },
          "Lock": {
            "$type": "LOBGNBNJANH",
            "animatorStates": {
              "Gate_Lock": []
            }
          },
          "Other": {
            "$type": "LOBGNBNJANH",
            "animatorStates": {
              "Gate_Close": ["Audio_SceneObj_DungeonEntry_MengDe01_Close"],
              "Gate_Unlock": []
            }
          },
          "Opening": {
            "$type": "LOBGNBNJANH",
            "animatorStates": {
              "Gate_Open": ["Audio_SceneObj_DungeonEntry_MengDe01_Open"]
            }
          }
        }
      }
    }
  },
  "SceneObj_Resident_DungeonEntry_MengDe03": {
    "$type": "ALBBCOHDFGB",
    "model": {
      "bornEffect": "",
      "attachEffect": ""
    },
    "hasModel": true,
    "combat": {
      "property": {
        "hp": 99999.0,
        "attack": 200.0,
        "weight": 50.0,
        "isInvincible": true,
        "isLockHP": true
      },
      "beHit": {
        "hitBloodEffect": "",
        "hitAutoRedirect": false,
        "muteAllHitText": true
      },
      "combatLock": {
        "lockShape": "CircleLockEnemy",
        "denyLockOn": true,
        "lockType": "Gadget_Lv1"
      }
    },
    "combatTemplate": "",
    "abilities": [
      {
        "abilityID": "ability_01",
        "abilityName": "SceneObj_Resident_DungeonEntry_MengDe03",
        "abilityOverride": ""
      }
    ],
    "stateLayers": {
      "defaultLayer": {
        "$type": "EFHAFOENCNG",
        "layerIndexName": "",
        "AABLFOGKNJH": "",
        "stateIDs": {
          "UnderLevel": {
            "$type": "LOBGNBNJANH",
            "animatorStates": {
              "Gate_UnderLevel": []
            }
          },
          "ReachLevel": {
            "$type": "LOBGNBNJANH",
            "animatorStates": {
              "Gate_ReachLevel": []
            }
          },
          "Inactive": {
            "$type": "LOBGNBNJANH",
            "animatorStates": {
              "Gate_Inactive": []
            }
          },
          "Active": {
            "$type": "LOBGNBNJANH",
            "animatorStates": {
              "Gate_Active": []
            }
          },
          "Lock": {
            "$type": "LOBGNBNJANH",
            "animatorStates": {
              "Gate_Close": []
            }
          },
          "Open": {
            "$type": "LOBGNBNJANH",
            "animatorStates": {
              "Gate_Open": []
            }
          }
        }
      }
    }
  },
  "SceneObj_Resident_CheckPoint": {
    "$type": "ALBBCOHDFGB",
    "hasModel": true,
    "combat": {
      "property": {
        "hp": 99999.0,
        "attack": 200.0,
        "weight": 50.0,
        "isInvincible": true,
        "isLockHP": true,
        "isGhostToAllied": true
      },
      "beHit": {
        "hitBloodEffect": "",
        "hitAutoRedirect": false,
        "muteAllHitText": true
      },
      "combatLock": {
        "lockShape": "CircleLockEnemy",
        "denyLockOn": true,
        "lockType": "Gadget_Lv1"
      }
    },
    "combatTemplate": "",
    "stateLayers": {
      "defaultLayer": {
        "$type": "EFHAFOENCNG",
        "layerIndexName": "",
        "AABLFOGKNJH": "",
        "stateIDs": {
          "CheckPoint_Inactive": {
            "$type": "LOBGNBNJANH",
            "animatorStates": {
              "CheckPoint_Inactive": []
            }
          },
          "CheckPoint_Active": {
            "$type": "LOBGNBNJANH",
            "animatorStates": {
              "CheckPoint_ReOnline": ["Gear_CheckPoint_Active"],
              "CheckPoint_Activiting": ["Gear_CheckPoint_Active"],
              "CheckPoint_Active": []
            }
          }
        }
      }
    }
  },
  "SceneObj_Resident_Teleport": {
    "$type": "ALBBCOHDFGB",
    "common": {
      "viewSize": 10.0,
      "disableTickDistance": 160.0,
      "forcePauseTickDistance": 50.0
    },
    "model": {
      "bornEffect": "",
      "attachEffect": "Eff_SceneObj_Gear_Teleport"
    },
    "hasModel": true,
    "combat": {
      "property": {
        "hp": 99999.0,
        "attack": 200.0,
        "weight": 50.0,
        "isInvincible": true,
        "isLockHP": true,
        "isGhostToAllied": true
      },
      "beHit": {
        "hitBloodEffect": "",
        "hitAutoRedirect": false,
        "muteAllHitText": true
      },
      "combatLock": {
        "lockShape": "CircleLockEnemy",
        "denyLockOn": true,
        "lockType": "Gadget_Lv1"
      }
    },
    "combatTemplate": "",
    "misc": {
      "escapeEffect": "",
      "guidePoint": true,
      "isUIPoint": true,
      "targetIndicatorYOffset": 2.5,
      "guidePointConfig": {
        "uiIndicator": {
          "templateName": "TransPointUnlock_Indicator"
        }
      }
    },
    "stateLayers": {
      "defaultLayer": {
        "$type": "EFHAFOENCNG",
        "layerIndexName": "",
        "AABLFOGKNJH": "",
        "stateIDs": {
          "Default": {
            "$type": "LOBGNBNJANH",
            "animatorStates": {
              "Eff_Ani_Teleport_Idle": ["Audio_SceneObj_Gear_Teleport_Lock"],
              "Eff_Ani_Teleport_Open": [
                "Eff_Teleport_Active",
                "Audio_SceneObj_Gear_Teleport_Active"
              ],
              "Eff_Ani_Teleport_Active": [
                "Eff_Teleport_Unlock",
                "Audio_SceneObj_Gear_Teleport_Unlock"
              ]
            },
            "cullingModelAlwaysAnimate": true
          }
        }
      }
    }
  },
  "SceneObj_Resident_Teleport_02": {
    "$type": "ALBBCOHDFGB",
    "common": {
      "viewSize": 10.0,
      "disableTickDistance": 160.0,
      "forcePauseTickDistance": 50.0
    },
    "model": {
      "bornEffect": "",
      "attachEffect": "Eff_SceneObj_Gear_Teleport"
    },
    "hasModel": true,
    "combat": {
      "property": {
        "hp": 99999.0,
        "attack": 200.0,
        "weight": 50.0,
        "isInvincible": true,
        "isLockHP": true,
        "isGhostToAllied": true
      },
      "beHit": {
        "hitBloodEffect": "",
        "hitAutoRedirect": false,
        "muteAllHitText": true
      },
      "combatLock": {
        "lockShape": "CircleLockEnemy",
        "denyLockOn": true,
        "lockType": "Gadget_Lv1"
      }
    },
    "combatTemplate": "",
    "misc": {
      "escapeEffect": "",
      "guidePoint": true,
      "isUIPoint": true,
      "guidePointConfig": {
        "uiIndicator": {
          "templateName": "TransPointUnlock_Indicator"
        }
      }
    },
    "stateLayers": {
      "defaultLayer": {
        "$type": "EFHAFOENCNG",
        "layerIndexName": "",
        "AABLFOGKNJH": "",
        "stateIDs": {
          "Default": {
            "$type": "LOBGNBNJANH",
            "animatorStates": {
              "Eff_Ani_Teleport_Idle": ["Audio_SceneObj_Gear_Teleport_Lock"],
              "Eff_Ani_Teleport_Open": [
                "Eff_Teleport_Active",
                "Audio_SceneObj_Gear_Teleport_Active"
              ],
              "Eff_Ani_Teleport_Active": [
                "Eff_Teleport_Unlock",
                "Audio_SceneObj_Gear_Teleport_Unlock"
              ]
            },
            "cullingModelAlwaysAnimate": true
          }
        }
      }
    }
  },
  "SceneObj_Resident_Teleport_UW": {
    "$type": "ALBBCOHDFGB",
    "common": {
      "viewSize": 10.0,
      "disableTickDistance": 160.0,
      "forcePauseTickDistance": 50.0
    },
    "model": {
      "bornEffect": "",
      "attachEffect": "Eff_SceneObj_Gear_Teleport_UW"
    },
    "hasModel": true,
    "combat": {
      "property": {
        "hp": 99999.0,
        "attack": 200.0,
        "weight": 50.0,
        "isInvincible": true,
        "isLockHP": true,
        "isGhostToAllied": true
      },
      "beHit": {
        "hitBloodEffect": "",
        "hitAutoRedirect": false,
        "muteAllHitText": true
      },
      "combatLock": {
        "lockShape": "CircleLockEnemy",
        "denyLockOn": true,
        "lockType": "Gadget_Lv1"
      }
    },
    "combatTemplate": "",
    "misc": {
      "escapeEffect": "",
      "guidePoint": true,
      "isUIPoint": true,
      "targetIndicatorYOffset": 2.5,
      "guidePointConfig": {
        "uiIndicator": {
          "templateName": "TransPointUnlock_Indicator"
        }
      }
    },
    "stateLayers": {
      "defaultLayer": {
        "$type": "EFHAFOENCNG",
        "layerIndexName": "",
        "AABLFOGKNJH": "",
        "stateIDs": {
          "Default": {
            "$type": "LOBGNBNJANH",
            "animatorStates": {
              "Eff_Ani_Teleport_Idle": ["Audio_SceneObj_Gear_Teleport_Lock"],
              "Eff_Ani_Teleport_Open": [
                "Eff_Teleport_Active_UW",
                "Audio_SceneObj_Gear_Teleport_Active"
              ],
              "Eff_Ani_Teleport_Active": [
                "Eff_Teleport_Unlock_UW",
                "Audio_SceneObj_Gear_Teleport_Unlock"
              ]
            },
            "cullingModelAlwaysAnimate": true
          }
        }
      }
    }
  },
  "SceneObj_Resident_ElementView": {
    "$type": "ALBBCOHDFGB",
    "hasModel": true,
    "combatTemplate": ""
  },
  "SceneObj_Resident_Fountain": {
    "$type": "ALBBCOHDFGB",
    "combat": {
      "property": {
        "hp": 99999.0,
        "attack": 200.0,
        "weight": 50.0,
        "isInvincible": true,
        "isLockHP": true,
        "isGhostToAllied": true
      },
      "beHit": {
        "hitBloodEffect": "",
        "hitAutoRedirect": false,
        "muteAllHitText": true
      },
      "combatLock": {
        "lockShape": "CircleLockEnemy",
        "denyLockOn": true,
        "lockType": "Gadget_Lv1"
      }
    },
    "combatTemplate": "",
    "abilities": [
      {
        "abilityID": "ability_01",
        "abilityName": "Fountain_Frozen",
        "abilityOverride": ""
      }
    ],
    "stateLayers": {
      "defaultLayer": {
        "$type": "EFHAFOENCNG",
        "layerIndexName": "",
        "AABLFOGKNJH": "",
        "stateIDs": {
          "Default": {
            "$type": "LOBGNBNJANH",
            "animatorStates": {
              "Base_State": ["Seal_Collider_Stop"],
              "Frozen_State": ["Seal_Collider_Start"]
            }
          }
        }
      }
    }
  },
  "SceneObj_Area_Ljxs_Property_Ani_Tree_AncientBloodTree": {
    "$type": "ALBBCOHDFGB",
    "common": {
      "disableTickDistance": 100000.0
    },
    "hasModel": true,
    "combat": {
      "property": {
        "hp": 99999.0,
        "isInvincible": true,
        "isLockHP": true,
        "isGhostToAllied": true,
        "isGhostToEnemy": true
      }
    },
    "combatTemplate": "",
    "abilities": [
      {
        "abilityID": "Ability_01",
        "abilityName": "SceneObj_Area_Ljxs_Property_Ani_Tree_AncientBloodTree_Ability",
        "abilityOverride": ""
      }
    ],
    "uiInteract": {
      "gadgetUIBtnCfgPath": "UI/open_ancient_blood_tree",
      "uiName": "UI_ELDERTREE_TASK",
      "icon": "",
      "groupName": "",
      "confirmDialogTitle": "",
      "confirmDialogContent": ""
    },
    "stateLayers": {
      "defaultLayer": {
        "$type": "EFHAFOENCNG",
        "layerIndexName": "",
        "AABLFOGKNJH": "",
        "stateIDs": {
          "All": {
            "$type": "LOBGNBNJANH",
            "animatorStates": {
              "Start": ["Gadget_AncientBloodTree_Default"]
            },
            "cullingModelAlwaysAnimate": true
          },
          "GadgetLv1_State": {
            "$type": "LOBGNBNJANH",
            "animatorStates": {
              "Lv1": [],
              "Lv1_State": []
            },
            "cullingModelAlwaysAnimate": true
          },
          "GadgetLv2_State": {
            "$type": "LOBGNBNJANH",
            "animatorStates": {
              "Lv2": [],
              "Lv2_State": []
            },
            "cullingModelAlwaysAnimate": true
          },
          "GadgetLv3_State": {
            "$type": "LOBGNBNJANH",
            "animatorStates": {
              "Lv3": [],
              "Lv3_State": []
            },
            "cullingModelAlwaysAnimate": true
          }
        }
      }
    },
    "gadgetAction": {
      "gadgetStateActionList": [
        {
          "$type": "FLKGPPKFABE",
          "intID": "gadgetState",
          "syncState": true
        }
      ]
    },
    "intee": {
      "triggerRadius": 1.25,
      "CIIKNCEDOMA": ""
    }
  },
  "SceneObj_Area_Ljxs_Property_Ani_Prop_AncientBloodTreeIce_01": {
    "$type": "ALBBCOHDFGB",
    "hasModel": true,
    "combat": {
      "property": {
        "hp": 99999.0,
        "isInvincible": true,
        "isLockHP": true,
        "isGhostToAllied": true,
        "isGhostToEnemy": true
      },
      "die": {
        "dieEndTime": 4.0,
        "dieForceDisappearTime": 4.0,
        "dieDisappearEffect": "Eff_SceneObj_CelestiaClusterBase_01",
        "dieShaderData": "GadgetDie",
        "dieShaderEnableDurationTime": 3.0,
        "dieModelFadeDelay": 1.0
      }
    },
    "combatTemplate": ""
  },
  "SceneObj_Area_Common_Property_Ani_Build_ChallengeEntry_01": {
    "$type": "ALBBCOHDFGB",
    "common": {
      "forcePauseTickDistance": 50.0
    },
    "hasModel": true,
    "combat": {
      "property": {
        "hp": 99999.0,
        "attack": 200.0,
        "weight": 50.0,
        "isInvincible": true,
        "isLockHP": true
      },
      "beHit": {
        "hitBloodEffect": "",
        "hitAutoRedirect": false,
        "muteAllHitText": true
      },
      "combatLock": {
        "lockShape": "CircleLockEnemy",
        "denyLockOn": true,
        "lockType": "Gadget_Lv1"
      },
      "die": {
        "dieEndTime": 1.0,
        "dieForceDisappearTime": 1.0,
        "dieDisappearEffect": ""
      }
    },
    "combatTemplate": "",
    "abilities": [
      {
        "abilityID": "SceneObj_Area_Common_Property_Ani_Build_ChallengeEntry_01",
        "abilityName": "SceneObj_Area_Common_Property_Ani_Build_ChallengeEntry_01",
        "abilityOverride": ""
      }
    ],
    "field": {
      "concernType": "AllAvatars",
      "shape": "CircleR7_5",
      "fromShape": "",
      "triggerInfinite": true,
      "lifeInfinite": true,
      "checkInterval": 0.5,
      "overwriteCampType": true,
      "campType": "All",
      "colliderName": "",
      "fromColliderName": ""
    },
    "stateLayers": {
      "Door_Layer": {
        "$type": "EFHAFOENCNG",
        "layerIndexName": "Door_Layer",
        "AABLFOGKNJH": "",
        "stateIDs": {
          "ChallengeEntry_Disappear": {
            "$type": "LOBGNBNJANH",
            "animatorStates": {
              "ChallengeEntry_Disappear": []
            }
          },
          "ChallengeEntry_Appear": {
            "$type": "LOBGNBNJANH",
            "animatorStates": {
              "ChallengeEntry_Appear": []
            }
          },
          "ChallengeEntry_Open": {
            "$type": "LOBGNBNJANH",
            "animatorStates": {
              "ChallengeEntry_Open": ["Audio_SceneObj_ChallengeEntry_Open"]
            }
          },
          "ChallengeEntry_Close": {
            "$type": "LOBGNBNJANH",
            "animatorStates": {
              "ChallengeEntry_Close": []
            }
          }
        }
      },
      "Ladder_Layer": {
        "$type": "EFHAFOENCNG",
        "layerIndex": 1,
        "layerIndexName": "Ladder_Layer",
        "AABLFOGKNJH": "",
        "stateIDs": {
          "LadderNone": {
            "$type": "LOBGNBNJANH",
            "animatorStates": {
              "LadderNone": []
            }
          },
          "LadderAppear": {
            "$type": "LOBGNBNJANH",
            "animatorStates": {
              "LadderAppear": ["Audio_SceneObj_ChallengeEntry_Ladder_Appear"]
            }
          },
          "LadderDisapper": {
            "$type": "LOBGNBNJANH",
            "animatorStates": {
              "LadderDisapper": []
            }
          }
        }
      }
    },
    "gadgetAction": {
      "gadgetStateActionList": [
        {
          "$type": "FLKGPPKFABE",
          "intID": "GadgetState",
          "syncState": true
        }
      ]
    }
  },
  "SceneObj_Area_Dq_Property_Foliage_ThunderSeedOffer_01": {
    "$type": "ALBBCOHDFGB",
    "common": {
      "disableTickDistance": 100000.0
    },
    "hasModel": true,
    "combat": {
      "property": {
        "hp": 99999.0,
        "weight": 50.0,
        "isInvincible": true,
        "isGhostToAllied": true,
        "isGhostToEnemy": true,
        "canTriggerBullet": false
      },
      "beHit": {
        "hitBloodEffect": "",
        "muteAllHit": true,
        "muteAllHitEffect": true,
        "muteAllHitText": true
      },
      "combatLock": {
        "lockShape": "CircleLockEnemy",
        "denyLockOn": true,
        "lockType": "Gadget_Lv1"
      },
      "die": {
        "dieForceDisappearTime": 3.0,
        "dieDisappearEffect": ""
      }
    },
    "combatTemplate": "",
    "uiInteract": {
      "gadgetUIBtnCfgPath": "UI/open_thunder_sakura",
      "uiName": "UI_ORAIONOKAMI_BTN",
      "icon": "",
      "groupName": "",
      "confirmDialogTitle": "",
      "confirmDialogContent": ""
    },
    "gadgetAction": {
      "gadgetStateActionList": [
        {
          "$type": "FLKGPPKFABE",
          "intID": "gadgetState",
          "syncState": true
        }
      ]
    },
    "intee": {
      "triggerRadius": 2.5,
      "CIIKNCEDOMA": ""
    }
  },
  "SceneObj_Area_Dq_Property_Foliage_ThunderSeedOffer_Levelup": {
    "$type": "ALBBCOHDFGB",
    "hasModel": true,
    "combat": {
      "property": {
        "hp": 99999.0,
        "weight": 50.0,
        "isInvincible": true,
        "isGhostToAllied": true,
        "isGhostToEnemy": true,
        "canTriggerBullet": false
      },
      "beHit": {
        "hitBloodEffect": "",
        "muteAllHit": true,
        "muteAllHitEffect": true,
        "muteAllHitText": true
      },
      "combatLock": {
        "lockShape": "CircleLockEnemy",
        "denyLockOn": true,
        "lockType": "Gadget_Lv1"
      },
      "die": {
        "dieForceDisappearTime": 3.0,
        "dieDisappearEffect": ""
      }
    },
    "combatTemplate": "",
    "abilities": [
      {
        "abilityID": "SceneObj_Area_Dq_Property_Foliage_ThunderSeedOffer_Levelup",
        "abilityName": "SceneObj_Area_Dq_Property_Foliage_ThunderSeedOffer_Levelup",
        "abilityOverride": ""
      }
    ],
    "gadgetAction": {
      "gadgetStateActionList": [
        {
          "$type": "FLKGPPKFABE",
          "intID": "gadgetState",
          "syncState": true
        }
      ]
    }
  },
  "SceneObj_Resident_Goddess_DQ": {
    "$type": "OMDJIAKPKMD",
    "common": {
      "forcePauseTickDistance": 100.0
    },
    "model": {
      "bornEffect": "",
      "attachEffect": "Eff_Goddess_Level_DQ"
    },
    "hasModel": true,
    "combat": {
      "property": {
        "hp": 99999.0,
        "weight": 50.0,
        "isInvincible": true,
        "isGhostToAllied": true,
        "isGhostToEnemy": true,
        "canTriggerBullet": false
      },
      "beHit": {
        "hitBloodEffect": "",
        "muteAllHit": true,
        "muteAllHitEffect": true,
        "muteAllHitText": true
      },
      "combatLock": {
        "lockShape": "CircleLockEnemy",
        "denyLockOn": true,
        "lockType": "Gadget_Lv1"
      },
      "die": {
        "dieForceDisappearTime": 3.0,
        "dieDisappearEffect": ""
      }
    },
    "combatTemplate": "",
    "abilities": [
      {
        "abilityID": "ability_01",
        "abilityName": "SceneObj_Resident_Goddess_DQ",
        "abilityOverride": ""
      },
      {
        "abilityID": "FireEffect_ElementResonance_Electric",
        "abilityName": "FireEffect_ElementResonance_Electric",
        "abilityOverride": ""
      }
    ],
    "stateLayers": {
      "defaultLayer": {
        "$type": "EFHAFOENCNG",
        "layerIndexName": "",
        "AABLFOGKNJH": "",
        "stateIDs": {
          "Red": {
            "$type": "LOBGNBNJANH",
            "animatorStates": {
              "Goddess_Level_0_Idle": [
                "Audio_SceneObj_Gear_Goddess_Locked_Idle"
              ]
            },
            "cullingModelAlwaysAnimate": true
          },
          "White": {
            "$type": "LOBGNBNJANH",
            "animatorStates": {
              "Goddess_Level_1_Active": [
                "Audio_SceneObj_Gear_Goddess_Level_1_Active"
              ]
            },
            "cullingModelAlwaysAnimate": true
          },
          "Blue": {
            "$type": "LOBGNBNJANH",
            "animatorStates": {
              "Goddess_Level_1_Idle": [
                "Audio_SceneObj_Gear_Goddess_Unlocked_Idle"
              ],
              "Goddess_Levelup_To_2": [
                "Audio_SceneObj_Gear_Goddess_Levelup_To_2",
                "Eff_Goddess_Lv1up"
              ],
              "Goddess_Level_2_Idle": [
                "Audio_SceneObj_Gear_Goddess_Unlocked_Idle"
              ],
              "Goddess_Levelup_To_3": [
                "Audio_SceneObj_Gear_Goddess_Levelup_To_3",
                "Eff_Goddess_Lv2up"
              ],
              "Goddess_Level_3_Idle": [
                "Audio_SceneObj_Gear_Goddess_Unlocked_Idle"
              ],
              "Goddess_Levelup_To_4": [
                "Audio_SceneObj_Gear_Goddess_Levelup_To_4"
              ],
              "Goddess_Level_4_Idle": [
                "Audio_SceneObj_Gear_Goddess_Unlocked_Idle"
              ],
              "Goddess_Level_1_Heal": ["Eff_Goddess_Auto_Heal"],
              "Goddess_Level_2_Heal": ["Eff_Goddess_Auto_Heal"],
              "Goddess_Level_3_Heal": ["Eff_Goddess_Auto_Heal"],
              "Goddess_Level_4_Heal": ["Eff_Goddess_Auto_Heal"],
              "Normal_Levelup_In_2": [
                "Audio_SceneObj_Gear_Goddess_Levelup_Common"
              ],
              "Normal_Levelup_In_3": [
                "Audio_SceneObj_Gear_Goddess_Levelup_Common"
              ]
            },
            "cullingModelAlwaysAnimate": true
          }
        }
      }
    }
  },
  "SceneObj_Resident_DungeonEntry_MakotoTorii": {
    "$type": "ALBBCOHDFGB",
    "common": {
      "forcePauseTickDistance": 50.0
    },
    "hasModel": true,
    "combat": {
      "property": {
        "hp": 99999.0,
        "attack": 200.0,
        "weight": 50.0,
        "isInvincible": true,
        "isLockHP": true
      },
      "beHit": {
        "hitBloodEffect": "",
        "hitAutoRedirect": false,
        "muteAllHitText": true
      },
      "combatLock": {
        "lockShape": "CircleLockEnemy",
        "denyLockOn": true,
        "lockType": "Gadget_Lv1"
      }
    },
    "combatTemplate": "",
    "abilities": [
      {
        "abilityID": "SceneObj_Resident_DungeonEntry_MakotoTorii",
        "abilityName": "SceneObj_Resident_DungeonEntry_MakotoTorii",
        "abilityOverride": ""
      }
    ],
    "stateLayers": {
      "defaultLayer": {
        "$type": "EFHAFOENCNG",
        "layerIndexName": "",
        "AABLFOGKNJH": "",
        "stateIDs": {
          "UnderLevel": {
            "$type": "LOBGNBNJANH",
            "animatorStates": {
              "Gate_UnderLevel": []
            }
          },
          "ReachLevel": {
            "$type": "LOBGNBNJANH",
            "animatorStates": {
              "Gate_ReachLevel": []
            }
          },
          "Inactive": {
            "$type": "LOBGNBNJANH",
            "animatorStates": {
              "Gate_Inactive": []
            }
          },
          "Active": {
            "$type": "LOBGNBNJANH",
            "animatorStates": {
              "Gate_Active": []
            }
          },
          "Lock": {
            "$type": "LOBGNBNJANH",
            "animatorStates": {
              "Gate_Lock": []
            }
          },
          "Open": {
            "$type": "LOBGNBNJANH",
            "animatorStates": {
              "Gate_Unlock": [],
              "Gate_Close": []
            }
          },
          "Opening": {
            "$type": "LOBGNBNJANH",
            "animatorStates": {
              "Gate_Open": []
            }
          }
        }
      }
    }
  },
  "SceneObj_Resident_DungeonEntry_MakotoTorii_Eff": {
    "$type": "ALBBCOHDFGB",
    "common": {
      "forcePauseTickDistance": 50.0
    },
    "model": {
      "bornEffect": "",
      "attachEffect": "Eff_SceneObj_POI_Dq_MS_BaalEntrance_01"
    },
    "hasModel": true,
    "combatTemplate": ""
  }
}
