{
  "Xinyan_Shield_Bullet": {
    "$type": "CJKJIENLOHD",
    "common": {
      "effectAttachShape": {
        "$type": "OMIODKONOMG"
      }
    },
    "combat": {
      "property": {
        "useCreatorProperty": true,
        "isInvincible": true
      },
      "beHit": {
        "hitBloodEffect": "",
        "muteAllHit": true,
        "muteAllHitEffect": true,
        "muteAllHitText": true
      },
      "combatLock": {
        "lockShape": "CircleLockEnemy",
        "denyLockOn": true,
        "lockType": "Default"
      }
    },
    "combatTemplate": "",
    "abilities": [
      {
        "abilityID": "",
        "abilityName": "",
        "abilityOverride": ""
      }
    ],
    "timer": {
      "lifeTime": 13.0
    },
    "move": {
      "$type": "MMAPEFIEGAL",
      "attachPoint": "",
      "followRotation": true,
      "offset": {
        "y": 0.8999999761581421
      },
      "followOwnerInvisible": true,
      "LFOHLEKJFBI": ""
    },
    "stateLayers": {
      "defaultLayer": {
        "$type": "GBGJJIIEMBD",
        "layerIndexName": "",
        "CPAANEIJCGD": "",
        "stateIDs": {
          "Initiate": {
            "$type": "BEIEGKBABOF",
            "animatorStates": {
              "Initiate": []
            }
          },
          "Loop": {
            "$type": "BEIEGKBABOF",
            "animatorStates": {
              "Loop": ["Xinyan_Shield_Loop"]
            }
          },
          "Hit": {
            "$type": "BEIEGKBABOF",
            "animatorStates": {
              "Hit": []
            }
          }
        }
      }
    }
  }
}
