{
  "SceneObj_Level_Xm_Property_Unique_TwoDObj_01": {
    "$type": "CJKJIENLOHD",
    "hasModel": true,
    "combatTemplate": "default",
    "abilities": [
      {
        "abilityID": "",
        "abilityName": "SceneObj_Level_Xm_Property_Unique_TwoDObj_01_Ability",
        "abilityOverride": ""
      }
    ]
  },
  "SceneObj_Level_Xm_Property_Prop_BubblePlatform_01": {
    "$type": "CJKJIENLOHD",
    "model": {
      "bornEffect": "",
      "attachEffect": "Eff_SceneObj_BubbleShoot_01_Greaten",
      "BKPFGNPLDNJ": ""
    },
    "hasModel": true,
    "combat": {
      "property": {
        "hp": 1000.0,
        "attack": 100.0,
        "weight": 50.0,
        "isLockHP": true,
        "isGhostToAllied": true,
        "isGhostToEnemy": true
      },
      "beHit": {
        "hitBloodEffect": "",
        "hitAutoRedirect": false,
        "muteAllHitEffect": true,
        "muteAllHitText": true
      },
      "combatLock": {
        "lockShape": "CircleLockEnemy",
        "denyLockOn": true,
        "lockType": "Gadget_Lv1"
      },
      "die": {
        "dieEndTime": 0.009999999776482582,
        "dieForceDisappearTime": 0.019999999552965164,
        "dieDisappearEffect": ""
      }
    },
    "combatTemplate": "",
    "abilities": [
      {
        "abilityID": "",
        "abilityName": "SceneObj_Level_Xm_Property_Prop_BubblePlatform_01_Ability",
        "abilityOverride": ""
      },
      {
        "abilityID": "",
        "abilityName": "Scene_RockGadget_Summon_Detect",
        "abilityOverride": ""
      }
    ],
    "field": {
      "concernType": "AllAvatars",
      "shape": "CircleR1.5",
      "fromShape": "",
      "triggerInfinite": true,
      "lifeInfinite": true,
      "checkInterval": 0.5,
      "overwriteCampType": true,
      "campType": "All",
      "colliderName": "",
      "fromColliderName": ""
    },
    "move": {
      "$type": "OEFHHKHPMCJ"
    }
  },
  "SceneObj_Level_Xm_Property_Ani_Prop_DungeonMushroom_01": {
    "$type": "CJKJIENLOHD",
    "hasModel": true,
    "combatTemplate": "default",
    "abilities": [
      {
        "abilityID": "ability_01",
        "abilityName": "SceneObj_Level_Xm_Property_Ani_Prop_DungeonMushroom_01_Ability",
        "abilityOverride": ""
      },
      {
        "abilityID": "ability_02",
        "abilityName": "Scene_RockGadget_Summon_Detect",
        "abilityOverride": ""
      }
    ],
    "move": {
      "$type": "IDIPBKCPBDP",
      "attachPoint": "MoguCollider"
    },
    "misc": {
      "forceField": {
        "$type": "JJKKHJJMEFJ",
        "specialTipsIconPath": "",
        "colliderWhiteList": ["InteeTrigger"],
        "horizonValRatio": 0.10000000149011612,
        "forceDuration": 0.25
      },
      "escapeEffect": "",
      "hasAvatarFallOnGroundRoll": false
    },
    "stateLayers": {
      "defaultLayer": {
        "$type": "GBGJJIIEMBD",
        "layerIndexName": "",
        "CPAANEIJCGD": "",
        "stateIDs": {
          "All": {
            "$type": "BEIEGKBABOF",
            "animatorStates": {
              "Jump": ["TrampolineJump"]
            },
            "cullingModelAlwaysAnimate": true
          }
        }
      }
    },
    "gadgetAction": {
      "gadgetStateActionList": [
        {
          "$type": "FJGKLJLPOGL",
          "intID": "GadgetState",
          "syncState": true
        }
      ]
    }
  },
  "SceneObj_Level_Xm_Property_Ani_Prop_DungeonMushroom_02": {
    "$type": "CJKJIENLOHD",
    "common": {
      "viewSize": 1.2000000476837158
    },
    "hasModel": true,
    "combatTemplate": "default",
    "abilities": [
      {
        "abilityID": "ability_01",
        "abilityName": "SceneObj_Level_Xm_Property_Ani_Prop_DungeonMushroom_02_Ability",
        "abilityOverride": ""
      },
      {
        "abilityID": "ability_02",
        "abilityName": "Scene_RockGadget_Summon_Detect",
        "abilityOverride": ""
      }
    ],
    "move": {
      "$type": "IDIPBKCPBDP",
      "attachPoint": "MoguCollider"
    },
    "misc": {
      "forceField": {
        "$type": "JJKKHJJMEFJ",
        "specialTipsIconPath": "",
        "colliderWhiteList": ["InteeTrigger"],
        "horizonValRatio": 0.10000000149011612,
        "forceDuration": 0.25
      },
      "escapeEffect": "",
      "hasAvatarFallOnGroundRoll": false
    },
    "stateLayers": {
      "defaultLayer": {
        "$type": "GBGJJIIEMBD",
        "layerIndexName": "",
        "CPAANEIJCGD": "",
        "stateIDs": {
          "All": {
            "$type": "BEIEGKBABOF",
            "animatorStates": {
              "Jump": ["TrampolineJump"]
            },
            "cullingModelAlwaysAnimate": true
          }
        }
      }
    },
    "gadgetAction": {
      "gadgetStateActionList": [
        {
          "$type": "FJGKLJLPOGL",
          "intID": "GadgetState",
          "syncState": true
        }
      ]
    }
  },
  "SceneObj_Level_Xm_Property_Prop_SmrEnigmaticSeal_01": {
    "$type": "CJKJIENLOHD",
    "hasModel": true,
    "combatTemplate": "default",
    "abilities": [
      {
        "abilityID": "",
        "abilityName": "SceneObj_Level_Xm_Property_Prop_SmrEnigmaticSeal_01_Ability",
        "abilityOverride": ""
      }
    ]
  },
  "SceneObj_Level_Xm_Property_Prop_Woodenpile_01": {
    "$type": "CJKJIENLOHD",
    "hasModel": true,
    "combatTemplate": "default",
    "abilities": [
      {
        "abilityID": "",
        "abilityName": "SceneObj_Level_Xm_Property_Prop_Woodenpile_01_Ability",
        "abilityOverride": ""
      }
    ]
  },
  "SceneObj_Level_Xm_Property_Ani_Prop_TighnariBlankDoor_01": {
    "$type": "CJKJIENLOHD",
    "hasModel": true,
    "combatTemplate": "default",
    "abilities": [
      {
        "abilityID": "",
        "abilityName": "SceneObj_Level_Xm_Property_Ani_Prop_TighnariBlankDoor_01_Ability",
        "abilityOverride": ""
      }
    ]
  },
  "SceneObj_Area_Xm_Property_Ani_Prop_Flying_Orb_01": {
    "$type": "CJKJIENLOHD",
    "model": {
      "bornEffect": "",
      "attachEffect": "Eff_SceneObj_Flying_Orb",
      "BKPFGNPLDNJ": ""
    },
    "hasModel": true,
    "combatTemplate": "default",
    "abilities": [
      {
        "abilityID": "",
        "abilityName": "SceneObj_Area_Xm_Property_Ani_Prop_Flying_Orb_01_Ability",
        "abilityOverride": ""
      }
    ],
    "field": {
      "shape": "",
      "fromShape": "",
      "triggerInfinite": true,
      "lifeInfinite": true,
      "checkInterval": 0.20000000298023224,
      "campType": "AllExceptSelf",
      "colliderName": "Trigger",
      "fromColliderName": ""
    },
    "move": {
      "$type": "OEFHHKHPMCJ",
      "avatarTriggerEventDistance": 20.0
    }
  },
  "SceneObj_Level_Xm_Property_Prop_PlantOperator_01": {
    "$type": "CJKJIENLOHD",
    "hasModel": true,
    "combatTemplate": "default",
    "abilities": [
      {
        "abilityID": "",
        "abilityName": "SceneObj_Level_Xm_Property_Prop_PlantOperator_01_Ability",
        "abilityOverride": ""
      },
      {
        "abilityID": "",
        "abilityName": "Scene_RockGadget_Summon_Detect",
        "abilityOverride": ""
      }
    ],
    "field": {
      "concernType": "AllAvatars",
      "shape": "CircleR2",
      "fromShape": "",
      "triggerInfinite": true,
      "lifeInfinite": true,
      "overwriteCampType": true,
      "campType": "All",
      "colliderName": "",
      "fromColliderName": ""
    }
  },
  "SceneObj_Level_Xm_Property_Ani_Prop_NutTransformPlatform_01": {
    "$type": "CJKJIENLOHD",
    "hasModel": true,
    "combatTemplate": "default",
    "abilities": [
      {
        "abilityID": "",
        "abilityName": "SceneObj_Level_Xm_Property_Ani_Prop_NutTransformPlatform_01_Ability",
        "abilityOverride": ""
      },
      {
        "abilityID": "",
        "abilityName": "Scene_RockGadget_Summon_Detect",
        "abilityOverride": ""
      }
    ],
    "uiInteract": {
      "gadgetUIBtnCfgPath": "TEST/TEST_Chest_Btn",
      "uiName": "",
      "onTouch": "WidgetMPSupport",
      "touchParams": [
        "SceneObj_Level_Xm_Property_Ani_Prop_NutTransformPlatform_01_Ability"
      ],
      "icon": "",
      "groupName": "",
      "confirmDialogTitle": "",
      "confirmDialogContent": ""
    },
    "intee": {
      "KAMIAMNMFCP": ""
    }
  },
  "SceneObj_Level_Xm_Property_Ani_Prop_NutTransformPlatform_02": {
    "$type": "CJKJIENLOHD",
    "hasModel": true,
    "combatTemplate": "default",
    "abilities": [
      {
        "abilityID": "",
        "abilityName": "SceneObj_Level_Xm_Property_Ani_Prop_NutTransformPlatform_02_Ability",
        "abilityOverride": ""
      }
    ],
    "move": {
      "$type": "OEFHHKHPMCJ"
    }
  },
  "SceneObj_Level_Xm_Property_Prop_ThornsTrap_01": {
    "$type": "CJKJIENLOHD",
    "model": {
      "bornEffect": "",
      "attachEffect": "Eff_SceneObj_ThornsTrap_05",
      "BKPFGNPLDNJ": ""
    },
    "hasModel": true,
    "combatTemplate": "default",
    "abilities": [
      {
        "abilityID": "",
        "abilityName": "SceneObj_Level_Xm_Property_Prop_ThornsTrap_01_Ability",
        "abilityOverride": ""
      }
    ]
  },
  "SceneObj_Level_Xm_Property_Prop_FlowerPortal_01": {
    "$type": "CJKJIENLOHD",
    "model": {
      "bornEffect": "",
      "attachEffect": "Eff_SceneObj_FlowerPortal_01_Channel",
      "BKPFGNPLDNJ": ""
    },
    "hasModel": true,
    "combatTemplate": "default",
    "abilities": [
      {
        "abilityID": "",
        "abilityName": "SceneObj_Level_Xm_Property_Prop_FlowerPortal_01_Ability",
        "abilityOverride": ""
      }
    ],
    "field": {
      "concernType": "AllAvatars",
      "shape": "CircleR5",
      "fromShape": "",
      "triggerInfinite": true,
      "checkInterval": 0.10000000149011612,
      "colliderName": "",
      "fromColliderName": ""
    }
  },
  "SceneObj_Level_Xm_Property_Ani_Prop_VineDoor_01": {
    "$type": "CJKJIENLOHD",
    "model": {
      "bornEffect": "",
      "attachEffect": "Eff_SceneObj_VineDoor_02_Default_Full",
      "BKPFGNPLDNJ": ""
    },
    "hasModel": true,
    "combatTemplate": "default",
    "abilities": [
      {
        "abilityID": "",
        "abilityName": "SceneObj_Level_Xm_Property_Ani_Prop_VineDoor_01_Ability",
        "abilityOverride": ""
      }
    ],
    "gadgetAction": {
      "gadgetStateActionList": [
        {
          "$type": "FJGKLJLPOGL",
          "intID": "gadgetState",
          "syncState": true
        }
      ]
    }
  },
  "SceneObj_Level_Xm_Property_Ani_Prop_VineDoor_02": {
    "$type": "CJKJIENLOHD",
    "model": {
      "bornEffect": "",
      "attachEffect": "Eff_SceneObj_VineDoor_02_Default",
      "BKPFGNPLDNJ": ""
    },
    "hasModel": true,
    "combatTemplate": "default",
    "abilities": [
      {
        "abilityID": "",
        "abilityName": "SceneObj_Level_Xm_Property_Ani_Prop_VineDoor_02_Ability",
        "abilityOverride": ""
      }
    ],
    "gadgetAction": {
      "gadgetStateActionList": [
        {
          "$type": "FJGKLJLPOGL",
          "intID": "gadgetState",
          "syncState": true
        }
      ]
    }
  },
  "SceneObj_Level_Xm_Property_Prop_PlantSeal_01": {
    "$type": "CJKJIENLOHD",
    "hasModel": true,
    "combatTemplate": "default",
    "abilities": [
      {
        "abilityID": "",
        "abilityName": "SceneObj_Level_Xm_Property_Prop_PlantSeal_01_Ability",
        "abilityOverride": ""
      },
      {
        "abilityID": "",
        "abilityName": "Scene_RockGadget_Summon_Detect",
        "abilityOverride": ""
      }
    ]
  },
  "SceneObj_Level_Xm_Property_Prop_PlantSeal_02": {
    "$type": "CJKJIENLOHD",
    "hasModel": true,
    "combatTemplate": "default",
    "abilities": [
      {
        "abilityID": "",
        "abilityName": "SceneObj_Level_Xm_Property_Prop_PlantSeal_02_Ability",
        "abilityOverride": ""
      },
      {
        "abilityID": "",
        "abilityName": "Scene_RockGadget_Summon_Detect",
        "abilityOverride": ""
      }
    ]
  },
  "SceneObj_Level_Xm_Property_Prop_PlantSeal_03": {
    "$type": "CJKJIENLOHD",
    "hasModel": true,
    "combatTemplate": "default",
    "abilities": [
      {
        "abilityID": "",
        "abilityName": "SceneObj_Level_Xm_Property_Prop_PlantSeal_03_Ability",
        "abilityOverride": ""
      },
      {
        "abilityID": "",
        "abilityName": "Scene_RockGadget_Summon_Detect",
        "abilityOverride": ""
      }
    ]
  },
  "SceneObj_Level_Xm_Property_Ani_Prop_DestructibleVine_01": {
    "$type": "CJKJIENLOHD",
    "hasModel": true,
    "combatTemplate": "canBeAttacked",
    "abilities": [
      {
        "abilityID": "",
        "abilityName": "SceneObj_Level_Xm_Property_Ani_Prop_DestructibleVine_01_Ability",
        "abilityOverride": ""
      }
    ]
  },
  "SceneObj_Level_Xm_Property_Ani_Prop_DestructiblePavement_01": {
    "$type": "CJKJIENLOHD",
    "combatTemplate": "default",
    "abilities": [
      {
        "abilityID": "Ability_01",
        "abilityName": "SceneObj_Level_Xm_Property_Ani_Prop_DestructiblePavement_01_Ability",
        "abilityOverride": ""
      },
      {
        "abilityID": "Ability_02",
        "abilityName": "Scene_RockGadget_Summon_Detect",
        "abilityOverride": ""
      }
    ],
    "gadget": {
      "$type": "KKJCBNGMKBL",
      "collision": {
        "triggerType": "TriggerAlways",
        "triggerCD": 0.20000000298023224,
        "targetType": "AllExceptSelf"
      },
      "collisionActions": [
        {
          "$type": "AILPBJHDHDG",
          "abilityName": "SceneObj_Level_Xm_Property_Ani_Prop_DestructiblePavement_01_Ability"
        }
      ],
      "thisColliderName": "Collider",
      "targetColliderName": "InteeTrigger"
    }
  },
  "SceneObj_Level_Xm_Property_Ani_Prop_PlantMovingPlatform_01": {
    "$type": "CJKJIENLOHD",
    "common": {
      "disableTickDistance": 1500.0
    },
    "hasModel": true,
    "combatTemplate": "default",
    "abilities": [
      {
        "abilityID": "",
        "abilityName": "SceneObj_Level_Xm_Property_Ani_Prop_PlantMovingPlatform_01_Ability",
        "abilityOverride": ""
      }
    ],
    "move": {
      "$type": "OEFHHKHPMCJ"
    }
  },
  "SceneObj_Level_Xm_Property_Prop_TransparentBrick_01": {
    "$type": "CJKJIENLOHD",
    "model": {
      "bornEffect": "",
      "attachEffect": "Eff_SceneObj_TransparentBrick_01_01",
      "BKPFGNPLDNJ": ""
    },
    "hasModel": true,
    "combatTemplate": ""
  },
  "SceneObj_Level_Xm_Property_Prop_TransparentBrick_02": {
    "$type": "CJKJIENLOHD",
    "model": {
      "bornEffect": "",
      "attachEffect": "Eff_SceneObj_TransparentBrick_01_02",
      "BKPFGNPLDNJ": ""
    },
    "hasModel": true,
    "combatTemplate": ""
  },
  "SceneObj_Level_Xm_Property_Prop_TransparentBrick_03": {
    "$type": "CJKJIENLOHD",
    "model": {
      "bornEffect": "",
      "attachEffect": "Eff_SceneObj_TransparentBrick_01_03",
      "BKPFGNPLDNJ": ""
    },
    "hasModel": true,
    "combatTemplate": ""
  },
  "SceneObj_Level_Xm_Property_Prop_TransparentBrick_04": {
    "$type": "CJKJIENLOHD",
    "model": {
      "bornEffect": "",
      "attachEffect": "Eff_SceneObj_TransparentBrick_01_04",
      "BKPFGNPLDNJ": ""
    },
    "hasModel": true,
    "combatTemplate": ""
  },
  "SceneObj_Level_Xm_Property_Prop_TransparentBrick_05": {
    "$type": "CJKJIENLOHD",
    "model": {
      "bornEffect": "",
      "attachEffect": "Eff_SceneObj_TransparentBrick_01_05",
      "BKPFGNPLDNJ": ""
    },
    "hasModel": true,
    "combatTemplate": ""
  }
}
