{
  "Chevreuse_ExtraAttack_Bullet": {
    "$type": "CJKJIENLOHD",
    "common": {
      "effectAttachShape": {
        "$type": "OMIODKONOMG"
      }
    },
    "combat": {
      "property": {
        "useCreatorProperty": true,
        "isInvincible": true,
        "canTriggerBullet": false
      },
      "beHit": {
        "hitBloodEffect": "",
        "muteAllHit": true,
        "muteAllHitEffect": true,
        "muteAllHitText": true
      },
      "combatLock": {
        "lockShape": "CircleLockEnemy",
        "denyLockOn": true,
        "lockType": "Gadget_Lv1"
      }
    },
    "combatTemplate": "",
    "abilities": [
      {
        "abilityID": "TriggerDamage",
        "abilityName": "Avatar_Chevreuse_ExtraAttack_Bullet",
        "abilityOverride": ""
      }
    ],
    "timer": {
      "lifeTime": 0.6000000238418579
    },
    "move": {
      "$type": "MMAPEFIEGAL",
      "attachPoint": "",
      "offset": {
        "y": 0.8999999761581421
      },
      "HOMINCCNFHE": {
        "z": 1.0
      },
      "LFOHLEKJFBI": ""
    },
    "gadget": {
      "$type": "JENBBNKGGJP",
      "collision": {
        "ccd": {
          "damageRatio": "Always"
        },
        "triggerType": "TriggerNoRepeat",
        "targetType": "Enemy",
        "ignoreScene": true
      },
      "triggerActions": [
        {
          "$type": "AILPBJHDHDG",
          "abilityName": "Avatar_Chevreuse_ExtraAttack_Bullet"
        }
      ]
    }
  },
  "Chevreuse_ElementalArt_Bullet": {
    "$type": "CJKJIENLOHD",
    "common": {
      "effectAttachShape": {
        "$type": "OMIODKONOMG"
      }
    },
    "combat": {
      "property": {
        "useCreatorProperty": true,
        "isInvincible": true,
        "canTriggerBullet": false
      },
      "beHit": {
        "hitBloodEffect": "",
        "muteAllHit": true,
        "muteAllHitEffect": true,
        "muteAllHitText": true
      },
      "combatLock": {
        "lockShape": "CircleLockEnemy",
        "denyLockOn": true,
        "lockType": "Default"
      }
    },
    "combatTemplate": "",
    "abilities": [
      {
        "abilityID": "",
        "abilityName": "Skillobj_Chevreuse_ElementalArt_Bullet1_Material",
        "abilityOverride": ""
      },
      {
        "abilityID": "",
        "abilityName": "Skillobj_Chevreuse_Pneuma_Check",
        "abilityOverride": ""
      }
    ],
    "timer": {
      "lifeTime": 0.6000000238418579
    },
    "move": {
      "$type": "GONNMCBKAOC",
      "velocityForce": {
        "muteAll": true
      },
      "speed": 70.0
    },
    "gadget": {
      "$type": "JENBBNKGGJP",
      "collision": {
        "ccd": {
          "damageRatio": "Always"
        },
        "targetType": "Enemy"
      },
      "triggerActions": [
        {
          "$type": "AILPBJHDHDG",
          "abilityName": "Skillobj_Chevreuse_ElementalArt_Bullet1_Material"
        },
        {
          "$type": "AILPBJHDHDG",
          "abilityName": "Skillobj_Chevreuse_Pneuma_Check"
        }
      ],
      "fireAISoundEvent": true
    }
  },
  "Chevreuse_ElementalArt_Bullet1": {
    "$type": "CJKJIENLOHD",
    "common": {
      "effectAttachShape": {
        "$type": "OMIODKONOMG"
      }
    },
    "combat": {
      "property": {
        "useCreatorProperty": true,
        "isInvincible": true,
        "canTriggerBullet": false
      },
      "beHit": {
        "hitBloodEffect": "",
        "muteAllHit": true,
        "muteAllHitEffect": true,
        "muteAllHitText": true
      },
      "combatLock": {
        "lockShape": "CircleLockEnemy",
        "denyLockOn": true,
        "lockType": "Default"
      }
    },
    "combatTemplate": "",
    "abilities": [
      {
        "abilityID": "",
        "abilityName": "Skillobj_Chevreuse_ElementalArt_Bullet1_Material",
        "abilityOverride": ""
      },
      {
        "abilityID": "",
        "abilityName": "Skillobj_Chevreuse_Pneuma_Check",
        "abilityOverride": ""
      }
    ],
    "timer": {
      "lifeTime": 0.6000000238418579
    },
    "move": {
      "$type": "GMOHNHFHLAO",
      "velocityForce": {
        "muteAll": true
      },
      "speed": 70.0,
      "DPAAFHNMHHN": {
        "$type": "IFAANDLLGLP",
        "traceLerpCoef": 60.0,
        "isSmoothRotation": true
      },
      "traceOnYAxis": true
    },
    "gadget": {
      "$type": "JENBBNKGGJP",
      "collision": {
        "ccd": {
          "damageRatio": "Always"
        },
        "targetType": "Enemy"
      },
      "triggerActions": [
        {
          "$type": "AILPBJHDHDG",
          "abilityName": "Skillobj_Chevreuse_ElementalArt_Bullet1_Material"
        },
        {
          "$type": "AILPBJHDHDG",
          "abilityName": "Skillobj_Chevreuse_Pneuma_Check"
        }
      ],
      "fireAISoundEvent": true
    }
  },
  "Chevreuse_ElementalArt_Bullet2": {
    "$type": "CJKJIENLOHD",
    "common": {
      "effectAttachShape": {
        "$type": "OMIODKONOMG"
      }
    },
    "combat": {
      "property": {
        "useCreatorProperty": true,
        "isInvincible": true,
        "canTriggerBullet": false
      },
      "beHit": {
        "hitBloodEffect": "",
        "muteAllHit": true,
        "muteAllHitEffect": true,
        "muteAllHitText": true
      },
      "combatLock": {
        "lockShape": "CircleLockEnemy",
        "denyLockOn": true,
        "lockType": "Default"
      }
    },
    "combatTemplate": "",
    "abilities": [
      {
        "abilityID": "",
        "abilityName": "Skillobj_Chevreuse_ElementalArt_Bullet2_Material",
        "abilityOverride": ""
      },
      {
        "abilityID": "",
        "abilityName": "Skillobj_Chevreuse_Pneuma_Check",
        "abilityOverride": ""
      }
    ],
    "timer": {
      "lifeTime": 0.6000000238418579
    },
    "move": {
      "$type": "GONNMCBKAOC",
      "velocityForce": {
        "muteAll": true
      },
      "speed": 70.0
    },
    "gadget": {
      "$type": "JENBBNKGGJP",
      "collision": {
        "ccd": {
          "damageRatio": "Always"
        },
        "targetType": "Enemy"
      },
      "triggerActions": [
        {
          "$type": "AILPBJHDHDG",
          "abilityName": "Skillobj_Chevreuse_ElementalArt_Bullet2_Material"
        },
        {
          "$type": "AILPBJHDHDG",
          "abilityName": "Skillobj_Chevreuse_Pneuma_Check"
        }
      ],
      "fireAISoundEvent": true
    }
  },
  "Chevreuse_ElementalArt_Bullet3": {
    "$type": "CJKJIENLOHD",
    "common": {
      "effectAttachShape": {
        "$type": "OMIODKONOMG"
      }
    },
    "combat": {
      "property": {
        "useCreatorProperty": true,
        "isInvincible": true,
        "canTriggerBullet": false
      },
      "beHit": {
        "hitBloodEffect": "",
        "muteAllHit": true,
        "muteAllHitEffect": true,
        "muteAllHitText": true
      },
      "combatLock": {
        "lockShape": "CircleLockEnemy",
        "denyLockOn": true,
        "lockType": "Default"
      }
    },
    "combatTemplate": "",
    "abilities": [
      {
        "abilityID": "",
        "abilityName": "Skillobj_Chevreuse_ElementalArt_Bullet2_Material",
        "abilityOverride": ""
      },
      {
        "abilityID": "",
        "abilityName": "Skillobj_Chevreuse_Pneuma_Check",
        "abilityOverride": ""
      }
    ],
    "timer": {
      "lifeTime": 0.6000000238418579
    },
    "move": {
      "$type": "GMOHNHFHLAO",
      "velocityForce": {
        "muteAll": true
      },
      "speed": 70.0,
      "DPAAFHNMHHN": {
        "$type": "IFAANDLLGLP",
        "traceLerpCoef": 60.0,
        "isSmoothRotation": true
      },
      "traceOnYAxis": true
    },
    "gadget": {
      "$type": "JENBBNKGGJP",
      "collision": {
        "ccd": {
          "damageRatio": "Always"
        },
        "targetType": "Enemy"
      },
      "triggerActions": [
        {
          "$type": "AILPBJHDHDG",
          "abilityName": "Skillobj_Chevreuse_ElementalArt_Bullet2_Material"
        },
        {
          "$type": "AILPBJHDHDG",
          "abilityName": "Skillobj_Chevreuse_Pneuma_Check"
        }
      ],
      "fireAISoundEvent": true
    }
  },
  "Chevreuse_ElementalArt_Bullet4": {
    "$type": "CJKJIENLOHD",
    "common": {
      "effectAttachShape": {
        "$type": "OMIODKONOMG"
      }
    },
    "combat": {
      "property": {
        "useCreatorProperty": true,
        "isInvincible": true,
        "canTriggerBullet": false
      },
      "beHit": {
        "hitBloodEffect": "",
        "muteAllHit": true,
        "muteAllHitEffect": true,
        "muteAllHitText": true
      },
      "combatLock": {
        "lockShape": "CircleLockEnemy",
        "denyLockOn": true,
        "lockType": "Default"
      }
    },
    "combatTemplate": "",
    "abilities": [
      {
        "abilityID": "",
        "abilityName": "Skillobj_Chevreuse_ElementalArt_Bullet2_Material",
        "abilityOverride": ""
      },
      {
        "abilityID": "",
        "abilityName": "Skillobj_Chevreuse_Pneuma_Check",
        "abilityOverride": ""
      }
    ],
    "timer": {
      "lifeTime": 0.699999988079071
    },
    "move": {
      "$type": "GONNMCBKAOC",
      "velocityForce": {
        "muteAll": true
      },
      "speed": 70.0
    },
    "gadget": {
      "$type": "JENBBNKGGJP",
      "collision": {
        "ccd": {
          "damageRatio": "Always"
        },
        "targetType": "Enemy"
      },
      "triggerActions": [
        {
          "$type": "AILPBJHDHDG",
          "abilityName": "Skillobj_Chevreuse_ElementalArt_Bullet2_Material"
        },
        {
          "$type": "AILPBJHDHDG",
          "abilityName": "Skillobj_Chevreuse_Pneuma_Check"
        }
      ],
      "triggerLifeOverActions": [
        {
          "$type": "AILPBJHDHDG",
          "abilityName": "Skillobj_Chevreuse_ElementalArt_Bullet2_Material"
        },
        {
          "$type": "AILPBJHDHDG",
          "abilityName": "Skillobj_Chevreuse_Pneuma_Check"
        }
      ],
      "fireAISoundEvent": true
    }
  },
  "Chevreuse_ElementalArt_Bullet5": {
    "$type": "CJKJIENLOHD",
    "common": {
      "effectAttachShape": {
        "$type": "OMIODKONOMG"
      }
    },
    "combat": {
      "property": {
        "useCreatorProperty": true,
        "isInvincible": true,
        "canTriggerBullet": false
      },
      "beHit": {
        "hitBloodEffect": "",
        "muteAllHit": true,
        "muteAllHitEffect": true,
        "muteAllHitText": true
      },
      "combatLock": {
        "lockShape": "CircleLockEnemy",
        "denyLockOn": true,
        "lockType": "Default"
      }
    },
    "combatTemplate": "",
    "abilities": [
      {
        "abilityID": "",
        "abilityName": "Skillobj_Chevreuse_ElementalArt_Bullet0_Material",
        "abilityOverride": ""
      },
      {
        "abilityID": "",
        "abilityName": "Skillobj_Chevreuse_Pneuma_Check",
        "abilityOverride": ""
      }
    ],
    "timer": {
      "lifeTime": 0.6000000238418579
    },
    "move": {
      "$type": "GMOHNHFHLAO",
      "velocityForce": {
        "muteAll": true
      },
      "speed": 70.0,
      "DPAAFHNMHHN": {
        "$type": "IFAANDLLGLP",
        "traceLerpCoef": 60.0,
        "isSmoothRotation": true
      },
      "traceOnYAxis": true
    },
    "gadget": {
      "$type": "JENBBNKGGJP",
      "collision": {
        "ccd": {
          "damageRatio": "Always"
        },
        "targetType": "Enemy"
      },
      "triggerActions": [
        {
          "$type": "AILPBJHDHDG",
          "abilityName": "Skillobj_Chevreuse_ElementalArt_Bullet0_Material"
        },
        {
          "$type": "AILPBJHDHDG",
          "abilityName": "Skillobj_Chevreuse_Pneuma_Check"
        }
      ],
      "fireAISoundEvent": true
    }
  },
  "Chevreuse_ElementalArt_Gadget": {
    "$type": "CJKJIENLOHD",
    "common": {
      "effectAttachShape": {
        "$type": "OMIODKONOMG"
      },
      "affectedByWorld": true
    },
    "combat": {
      "property": {
        "useCreatorProperty": true,
        "isInvincible": true,
        "isGhostToAllied": true,
        "isGhostToEnemy": true,
        "denyElementStick": true
      },
      "beHit": {
        "hitBloodEffect": "",
        "muteAllHit": true,
        "muteAllHitEffect": true,
        "muteAllHitText": true
      },
      "combatLock": {
        "lockShape": "CircleLockEnemy",
        "denyLockOn": true,
        "lockType": "Default"
      }
    },
    "combatTemplate": "",
    "abilities": [
      {
        "abilityID": "",
        "abilityName": "Skillobj_Chevreuse_ElementalArt_Pneuma_Gadget",
        "abilityOverride": ""
      }
    ],
    "timer": {
      "lifeTime": 1.2000000476837158
    }
  },
  "Chevreuse_ElementalBurst_Bullet": {
    "$type": "CJKJIENLOHD",
    "common": {
      "effectAttachShape": {
        "$type": "OMIODKONOMG"
      }
    },
    "combat": {
      "property": {
        "useCreatorProperty": true,
        "isInvincible": true,
        "canTriggerBullet": false
      },
      "beHit": {
        "hitBloodEffect": "",
        "muteAllHit": true,
        "muteAllHitEffect": true,
        "muteAllHitText": true
      },
      "combatLock": {
        "lockShape": "CircleLockEnemy",
        "denyLockOn": true,
        "lockType": "Default"
      }
    },
    "combatTemplate": "",
    "abilities": [
      {
        "abilityID": "",
        "abilityName": "Skillobj_Chevreuse_ElementalBurst_Bullet_Material",
        "abilityOverride": ""
      }
    ],
    "timer": {
      "lifeTime": 3.0
    },
    "move": {
      "$type": "BFDBCCCADKH",
      "velocityForce": {
        "muteAll": true
      },
      "speed": 20.0,
      "syncToRemote": true,
      "angleOffHor": 30.0,
      "gravityOfAcceleration": 50.0,
      "correction": {
        "$type": "FEHDIANJKBF",
        "fixAngleOfVer": 45.0,
        "minSpeed": 10.0,
        "maxSpeed": 45.0
      },
      "GEBCKKDCGDP": "",
      "NKPHOKHJKGC": ""
    },
    "gadget": {
      "$type": "JENBBNKGGJP",
      "collision": {
        "targetType": "Enemy"
      },
      "triggerActions": [
        {
          "$type": "AILPBJHDHDG",
          "abilityName": "Skillobj_Chevreuse_ElementalBurst_Bullet_Material"
        }
      ],
      "triggerLifeOverActions": [
        {
          "$type": "AILPBJHDHDG",
          "abilityName": "Skillobj_Chevreuse_ElementalBurst_Bullet_Material"
        }
      ],
      "fireAISoundEvent": true
    }
  },
  "Chevreuse_ElementalBurst_Gadget1": {
    "$type": "CJKJIENLOHD",
    "common": {
      "effectAttachShape": {
        "$type": "OMIODKONOMG"
      }
    },
    "combat": {
      "property": {
        "useCreatorProperty": true,
        "isInvincible": true,
        "isGhostToAllied": true,
        "isGhostToEnemy": true,
        "canTriggerBullet": false
      },
      "beHit": {
        "hitBloodEffect": "",
        "muteAllHit": true,
        "muteAllHitEffect": true,
        "muteAllHitText": true
      },
      "combatLock": {
        "lockShape": "CircleLockEnemy",
        "denyLockOn": true,
        "lockType": "Default"
      }
    },
    "combatTemplate": "",
    "abilities": [
      {
        "abilityID": "",
        "abilityName": "SkillObj_Chevreuse_ElementalBurst_Material",
        "abilityOverride": ""
      },
      {
        "abilityID": "",
        "abilityName": "Chevreuse_ElementalBurst_Gadget_Attack1",
        "abilityOverride": ""
      },
      {
        "abilityID": "",
        "abilityName": "Chevreuse_ElementalBurst_Gadget_Attack2",
        "abilityOverride": ""
      },
      {
        "abilityID": "",
        "abilityName": "Chevreuse_ElementalBurst_Gadget_Attack4",
        "abilityOverride": ""
      },
      {
        "abilityID": "",
        "abilityName": "Chevreuse_ElementalBurst_Gadget_Attack6",
        "abilityOverride": ""
      },
      {
        "abilityID": "",
        "abilityName": "Chevreuse_ElementalBurst_Gadget_Attack8",
        "abilityOverride": ""
      }
    ],
    "timer": {
      "lifeTime": 3.0
    },
    "stateLayers": {
      "defaultLayer": {
        "$type": "GBGJJIIEMBD",
        "layerIndexName": "",
        "CPAANEIJCGD": "",
        "stateIDs": {
          "Chevreuse_Gadget_ElementalBurst": {
            "$type": "BEIEGKBABOF",
            "animatorStates": {
              "Chevreuse_Gadget_ElementalBurst": [
                "Chevreuse_Gadget_ElementalBurst"
              ]
            }
          }
        }
      }
    },
    "useRetreatType": true
  },
  "Chevreuse_ElementalBurst_Gadget2": {
    "$type": "CJKJIENLOHD",
    "common": {
      "effectAttachShape": {
        "$type": "OMIODKONOMG"
      }
    },
    "combat": {
      "property": {
        "useCreatorProperty": true,
        "isInvincible": true,
        "isGhostToAllied": true,
        "isGhostToEnemy": true,
        "canTriggerBullet": false
      },
      "beHit": {
        "hitBloodEffect": "",
        "muteAllHit": true,
        "muteAllHitEffect": true,
        "muteAllHitText": true
      },
      "combatLock": {
        "lockShape": "CircleLockEnemy",
        "denyLockOn": true,
        "lockType": "Default"
      }
    },
    "combatTemplate": "",
    "abilities": [
      {
        "abilityID": "",
        "abilityName": "SkillObj_Chevreuse_ExtraBomb_Material",
        "abilityOverride": ""
      }
    ],
    "timer": {
      "lifeTime": 2.0
    },
    "useRetreatType": true
  }
}
