{
  "Clorinde_DodgeAttack_Small": {
    "$type": "CJKJIENLOHD",
    "common": {
      "effectAttachShape": {
        "$type": "OMIODKONOMG"
      }
    },
    "combat": {
      "property": {
        "useCreatorProperty": true,
        "isInvincible": true,
        "canTriggerBullet": false
      },
      "beHit": {
        "hitBloodEffect": "",
        "muteAllHit": true,
        "muteAllHitEffect": true,
        "muteAllHitText": true
      },
      "combatLock": {
        "lockShape": "CircleLockEnemy",
        "denyLockOn": true,
        "lockType": "Default"
      }
    },
    "combatTemplate": "",
    "abilities": [
      {
        "abilityID": "Avatar_Clorinde_DodgeAttack_Bullet_Small",
        "abilityName": "Avatar_Clorinde_DodgeAttack_Bullet_Small",
        "abilityOverride": ""
      }
    ],
    "timer": {
      "lifeTime": 0.4000000059604645
    },
    "move": {
      "$type": "MMAPEFIEGAL",
      "attachPoint": "",
      "followRotation": true,
      "HOMINCCNFHE": {
        "z": 1.0
      },
      "LFOHLEKJFBI": ""
    },
    "gadget": {
      "$type": "JENBBNKGGJP",
      "collision": {
        "ccd": {
          "damageRatio": "Always",
          "sortedHitResult": true
        },
        "triggerType": "TriggerNoRepeat",
        "targetType": "Enemy",
        "ignoreScene": true,
        "CFOLOKHPLAC": true
      },
      "triggerActions": [
        {
          "$type": "AILPBJHDHDG",
          "abilityName": "Avatar_Clorinde_DodgeAttack_Bullet_Small"
        }
      ]
    }
  },
  "Clorinde_DodgeAttack_Medium": {
    "$type": "CJKJIENLOHD",
    "common": {
      "effectAttachShape": {
        "$type": "OMIODKONOMG"
      }
    },
    "combat": {
      "property": {
        "useCreatorProperty": true,
        "isInvincible": true,
        "isGhostToAllied": true,
        "isGhostToEnemy": true,
        "canTriggerBullet": false
      },
      "beHit": {
        "hitBloodEffect": "",
        "muteAllHit": true,
        "muteAllHitEffect": true,
        "muteAllHitText": true
      },
      "combatLock": {
        "lockShape": "CircleLockEnemy",
        "denyLockOn": true,
        "lockType": "Default"
      }
    },
    "combatTemplate": "",
    "abilities": [
      {
        "abilityID": "Avatar_Clorinde_DodgeAttack_Bullet_Medium",
        "abilityName": "Avatar_Clorinde_DodgeAttack_Bullet_Medium",
        "abilityOverride": ""
      }
    ],
    "timer": {
      "lifeTime": 0.5
    },
    "move": {
      "$type": "MMAPEFIEGAL",
      "attachPoint": "",
      "followRotation": true,
      "HOMINCCNFHE": {
        "z": 1.0
      },
      "LFOHLEKJFBI": ""
    },
    "gadget": {
      "$type": "JENBBNKGGJP",
      "collision": {
        "ccd": {
          "damageRatio": "Always"
        },
        "triggerType": "TriggerNoRepeat",
        "targetType": "Enemy",
        "ignoreScene": true,
        "ignoreWater": true,
        "CFOLOKHPLAC": true
      },
      "triggerActions": [
        {
          "$type": "AILPBJHDHDG",
          "abilityName": "Avatar_Clorinde_DodgeAttack_Bullet_Medium"
        }
      ]
    }
  },
  "Clorinde_DodgeAttack_Large": {
    "$type": "CJKJIENLOHD",
    "common": {
      "effectAttachShape": {
        "$type": "OMIODKONOMG"
      }
    },
    "combat": {
      "property": {
        "useCreatorProperty": true,
        "isInvincible": true,
        "isGhostToAllied": true,
        "isGhostToEnemy": true,
        "canTriggerBullet": false
      },
      "beHit": {
        "hitBloodEffect": "",
        "muteAllHit": true,
        "muteAllHitEffect": true,
        "muteAllHitText": true
      },
      "combatLock": {
        "lockShape": "CircleLockEnemy",
        "denyLockOn": true,
        "lockType": "Default"
      }
    },
    "combatTemplate": "",
    "abilities": [
      {
        "abilityID": "Avatar_Clorinde_DodgeAttack_Bullet_Large",
        "abilityName": "Avatar_Clorinde_DodgeAttack_Bullet_Large",
        "abilityOverride": ""
      }
    ],
    "timer": {
      "lifeTime": 0.5
    },
    "move": {
      "$type": "MMAPEFIEGAL",
      "attachPoint": "",
      "followRotation": true,
      "HOMINCCNFHE": {
        "z": 1.0
      },
      "LFOHLEKJFBI": ""
    },
    "gadget": {
      "$type": "JENBBNKGGJP",
      "collision": {
        "ccd": {
          "damageRatio": "Always"
        },
        "triggerType": "TriggerNoRepeat",
        "targetType": "Enemy",
        "ignoreScene": true,
        "ignoreWater": true,
        "CFOLOKHPLAC": true
      },
      "triggerActions": [
        {
          "$type": "AILPBJHDHDG",
          "abilityName": "Avatar_Clorinde_DodgeAttack_Bullet_Large"
        }
      ]
    }
  },
  "Clorinde_Constellation_1_Gadget": {
    "$type": "CJKJIENLOHD",
    "common": {
      "effectAttachShape": {
        "$type": "OMIODKONOMG"
      }
    },
    "combat": {
      "property": {
        "useCreatorProperty": true,
        "hp": 999999.0,
        "attack": 30.0,
        "defense": 999999.0,
        "isInvincible": true,
        "isGhostToAllied": true,
        "isGhostToEnemy": true,
        "canTriggerBullet": false
      },
      "beHit": {
        "hitBloodEffect": "",
        "muteAllHit": true,
        "muteAllHitEffect": true,
        "muteAllHitText": true
      },
      "combatLock": {
        "lockShape": "CircleLockEnemy",
        "denyLockOn": true,
        "lockType": "Default"
      }
    },
    "combatTemplate": "",
    "abilities": [
      {
        "abilityID": "Avatar_Clorinde_Constellation_1_Gadget",
        "abilityName": "Avatar_Clorinde_Constellation_1_Gadget",
        "abilityOverride": ""
      }
    ],
    "timer": {
      "lifeTime": 3.0
    }
  },
  "Clorinde_ElementArt_Attack_Bullet_Penetrating": {
    "$type": "CJKJIENLOHD",
    "common": {
      "effectAttachShape": {
        "$type": "OMIODKONOMG"
      }
    },
    "combat": {
      "property": {
        "useCreatorProperty": true,
        "isInvincible": true,
        "canTriggerBullet": false
      },
      "beHit": {
        "hitBloodEffect": "",
        "muteAllHit": true,
        "muteAllHitEffect": true,
        "muteAllHitText": true
      },
      "combatLock": {
        "lockShape": "CircleLockEnemy",
        "denyLockOn": true,
        "lockType": "Default"
      }
    },
    "combatTemplate": "",
    "abilities": [
      {
        "abilityID": "Avatar_Clorinde_ElementArt_Attack_Bullet_Penetrating",
        "abilityName": "Avatar_Clorinde_ElementArt_Attack_Bullet_Penetrating",
        "abilityOverride": ""
      }
    ],
    "timer": {
      "lifeTime": 0.25
    },
    "move": {
      "$type": "GMOHNHFHLAO",
      "velocityForce": {
        "muteAll": true
      },
      "speed": 55.0,
      "anglerVelocity": 30.0,
      "DPAAFHNMHHN": {
        "$type": "IFAANDLLGLP",
        "traceLerpCoef": 60.0,
        "isSmoothRotation": true
      }
    },
    "gadget": {
      "$type": "JENBBNKGGJP",
      "collision": {
        "ccd": {
          "damageRatio": "Always"
        },
        "triggerType": "TriggerNoRepeat",
        "targetType": "Enemy",
        "ignoreScene": true,
        "ignoreWater": true,
        "CFOLOKHPLAC": true
      },
      "triggerActions": [
        {
          "$type": "AILPBJHDHDG",
          "abilityName": "Avatar_Clorinde_ElementArt_Attack_Bullet_Penetrating"
        }
      ]
    }
  },
  "Clorinde_ElementArt_Attack_Bullet_Standard": {
    "$type": "CJKJIENLOHD",
    "common": {
      "effectAttachShape": {
        "$type": "OMIODKONOMG"
      }
    },
    "combat": {
      "property": {
        "useCreatorProperty": true,
        "isInvincible": true,
        "canTriggerBullet": false
      },
      "beHit": {
        "hitBloodEffect": "",
        "muteAllHit": true,
        "muteAllHitEffect": true,
        "muteAllHitText": true
      },
      "combatLock": {
        "lockShape": "CircleLockEnemy",
        "denyLockOn": true,
        "lockType": "Default"
      }
    },
    "combatTemplate": "",
    "abilities": [
      {
        "abilityID": "Avatar_Clorinde_ElementArt_Attack_Bullet_Standard",
        "abilityName": "Avatar_Clorinde_ElementArt_Attack_Bullet_Standard",
        "abilityOverride": ""
      }
    ],
    "timer": {
      "lifeTime": 0.25
    },
    "move": {
      "$type": "GMOHNHFHLAO",
      "velocityForce": {
        "muteAll": true
      },
      "speed": 55.0,
      "anglerVelocity": 30.0,
      "DPAAFHNMHHN": {
        "$type": "IFAANDLLGLP",
        "traceLerpCoef": 60.0,
        "isSmoothRotation": true
      }
    },
    "gadget": {
      "$type": "JENBBNKGGJP",
      "collision": {
        "ccd": {
          "damageRatio": "Always"
        },
        "targetType": "Enemy"
      },
      "triggerActions": [
        {
          "$type": "AILPBJHDHDG",
          "abilityName": "Avatar_Clorinde_ElementArt_Attack_Bullet_Standard"
        }
      ]
    }
  },
  "Clorinde_Constellation_6_Gadget": {
    "$type": "CJKJIENLOHD",
    "common": {
      "effectAttachShape": {
        "$type": "OMIODKONOMG",
        "scaleX": 0.5,
        "scaleY": 0.5
      }
    },
    "combat": {
      "property": {
        "useCreatorProperty": true,
        "isInvincible": true,
        "isGhostToAllied": true,
        "isGhostToEnemy": true,
        "canTriggerBullet": false
      },
      "beHit": {
        "hitBloodEffect": "",
        "muteAllHit": true,
        "muteAllHitEffect": true,
        "muteAllHitText": true
      },
      "combatLock": {
        "lockShape": "CircleLockEnemy",
        "denyLockOn": true,
        "lockType": "Default"
      },
      "animEvents": {
        "Clorinde_Constellation_6_Gadget_Atk_01": {
          "attackPattern": {
            "$type": "ConfigAttackBox",
            "triggerType": "TriggerNoRepeat",
            "massiveAttackRatio": 0.4000000059604645,
            "born": {
              "$type": "ConfigBornBySelf",
              "offset": {
                "x": 0.0,
                "y": 1.2999999523162842,
                "z": 0.0
              }
            },
            "size": {
              "x": 8.0,
              "y": 3.0,
              "z": 7.0
            }
          },
          "attackInfo": {
            "attackTag": "NormalAttack_06",
            "attenuationTag": "",
            "attenuationGroup": "default",
            "attackProperty": {
              "actorGrassSubHurtDelta": 0.0,
              "actorWindSubHurtDelta": 0.0,
              "elementType": "Electric",
              "elementDurability": 25.0,
              "strikeType": "Slash",
              "enBreak": 60.0,
              "attackType": "Melee",
              "GLKMCMDJBIK": 0.0
            },
            "hitPattern": {
              "onHitEffectName": "Eff_Avatar_Male_Sword_Ayato_Hit_02",
              "hitImpulseY": "",
              "hitImpulseType": "LV2",
              "retreatType": "ByAttackerForward",
              "hitHaltTime": 0.029999999329447746,
              "hitHaltTimeScale": 0.009999999776482582
            },
            "cameraShake": {
              "shakeType": "CustomVector",
              "shakeRange": 0.10000000149011612,
              "shakeTime": 0.11999999731779099,
              "shakeDistance": 30.0,
              "shakeDir": {
                "x": -1.0,
                "y": -1.0
              }
            },
            "canBeModifiedBy": "OriginOwner"
          }
        },
        "Clorinde_Constellation_6_Gadget_Atk_02": {
          "attackPattern": {
            "$type": "ConfigAttackBox",
            "triggerType": "TriggerNoRepeat",
            "massiveAttackRatio": 0.4000000059604645,
            "born": {
              "$type": "ConfigBornBySelf",
              "offset": {
                "x": 0.0,
                "y": 1.2999999523162842,
                "z": 0.0
              }
            },
            "size": {
              "x": 8.0,
              "y": 3.0,
              "z": 7.0
            }
          },
          "attackInfo": {
            "attackTag": "NormalAttack_06",
            "attenuationTag": "",
            "attenuationGroup": "default",
            "attackProperty": {
              "actorGrassSubHurtDelta": 0.0,
              "actorWindSubHurtDelta": 0.0,
              "elementType": "Electric",
              "elementDurability": 25.0,
              "strikeType": "Slash",
              "enBreak": 60.0,
              "attackType": "Melee",
              "GLKMCMDJBIK": 0.0
            },
            "hitPattern": {
              "onHitEffectName": "Eff_Avatar_Male_Sword_Ayato_Hit_03",
              "hitImpulseY": "",
              "hitImpulseType": "LV2",
              "retreatType": "ByAttackerForward",
              "hitHaltTime": 0.029999999329447746,
              "hitHaltTimeScale": 0.009999999776482582
            },
            "cameraShake": {
              "shakeType": "CustomVector",
              "shakeRange": 0.10000000149011612,
              "shakeTime": 0.11999999731779099,
              "shakeDistance": 30.0,
              "shakeDir": {
                "x": -1.0,
                "y": 1.0
              }
            },
            "canBeModifiedBy": "OriginOwner"
          }
        }
      }
    },
    "combatTemplate": "",
    "abilities": [
      {
        "abilityID": "Avatar_Clorinde_Constellation_6_Gadget",
        "abilityName": "Avatar_Clorinde_Constellation_6_Gadget",
        "abilityOverride": ""
      }
    ],
    "timer": {
      "lifeTime": 3.0
    },
    "stateLayers": {
      "defaultLayer": {
        "$type": "GBGJJIIEMBD",
        "layerIndexName": "",
        "CPAANEIJCGD": "",
        "stateIDs": {
          "Clorinde_Constellation_6_Gadget": {
            "$type": "BEIEGKBABOF",
            "animatorStates": {
              "Clorinde_Constellation_6_Gadget": [
                "Clorinde_Constellation_6_Gadget"
              ]
            }
          }
        }
      }
    }
  }
}
