{
  "Alhatham_ElementalArt_Bullet": {
    "$type": "CJKJIENLOHD",
    "common": {
      "effectAttachShape": {
        "$type": "OMIODKONOMG"
      }
    },
    "combat": {
      "property": {
        "useCreatorProperty": true,
        "isInvincible": true,
        "isGhostToAllied": true,
        "isGhostToEnemy": true,
        "canTriggerBullet": false
      },
      "beHit": {
        "hitBloodEffect": "",
        "muteAllHit": true,
        "muteAllHitEffect": true,
        "muteAllHitText": true
      },
      "combatLock": {
        "lockShape": "CircleLockEnemy",
        "denyLockOn": true,
        "lockType": "Default"
      }
    },
    "combatTemplate": "",
    "abilities": [
      {
        "abilityID": "Bullet_Alhatham_ElementalArt_Bullet",
        "abilityName": "Bullet_Alhatham_ElementalArt_Bullet",
        "abilityOverride": ""
      }
    ],
    "timer": {
      "lifeTime": 0.30000001192092896
    },
    "move": {
      "$type": "MMAPEFIEGAL",
      "attachPoint": "",
      "followRotation": true,
      "offset": {
        "y": 0.8999999761581421
      },
      "HOMINCCNFHE": {
        "z": 1.0
      },
      "LFOHLEKJFBI": ""
    },
    "gadget": {
      "$type": "JENBBNKGGJP",
      "collision": {
        "ccd": {
          "damageRatio": "Always"
        },
        "targetType": "Enemy",
        "ignoreScene": true
      },
      "triggerActions": [
        {
          "$type": "AILPBJHDHDG",
          "abilityName": "Bullet_Alhatham_ElementalArt_Bullet"
        }
      ]
    }
  },
  "Alhatham_ElementalArt_CoAttack01": {
    "$type": "CJKJIENLOHD",
    "common": {
      "effectAttachShape": {
        "$type": "OMIODKONOMG"
      }
    },
    "combat": {
      "property": {
        "useCreatorProperty": true,
        "isInvincible": true,
        "isGhostToAllied": true,
        "isGhostToEnemy": true,
        "canTriggerBullet": false
      },
      "beHit": {
        "hitBloodEffect": "",
        "muteAllHit": true,
        "muteAllHitEffect": true,
        "muteAllHitText": true
      },
      "combatLock": {
        "lockShape": "CircleLockEnemy",
        "denyLockOn": true,
        "lockType": "Default"
      }
    },
    "combatTemplate": "",
    "abilities": [
      {
        "abilityID": "SkillObj_Alhatham_ElementalArt_CoAttack01",
        "abilityName": "SkillObj_Alhatham_ElementalArt_CoAttack01",
        "abilityOverride": ""
      }
    ],
    "timer": {
      "lifeTime": 3.0
    }
  },
  "Alhatham_ElementalArt_CoAttack02": {
    "$type": "CJKJIENLOHD",
    "common": {
      "effectAttachShape": {
        "$type": "OMIODKONOMG"
      }
    },
    "combat": {
      "property": {
        "useCreatorProperty": true,
        "isInvincible": true,
        "isGhostToAllied": true,
        "isGhostToEnemy": true,
        "canTriggerBullet": false
      },
      "beHit": {
        "hitBloodEffect": "",
        "muteAllHit": true,
        "muteAllHitEffect": true,
        "muteAllHitText": true
      },
      "combatLock": {
        "lockShape": "CircleLockEnemy",
        "denyLockOn": true,
        "lockType": "Default"
      }
    },
    "combatTemplate": "",
    "abilities": [
      {
        "abilityID": "SkillObj_Alhatham_ElementalArt_CoAttack02",
        "abilityName": "SkillObj_Alhatham_ElementalArt_CoAttack02",
        "abilityOverride": ""
      }
    ],
    "timer": {
      "lifeTime": 3.0
    }
  },
  "Alhatham_ElementalArt_CoAttack03": {
    "$type": "CJKJIENLOHD",
    "common": {
      "effectAttachShape": {
        "$type": "OMIODKONOMG"
      }
    },
    "combat": {
      "property": {
        "useCreatorProperty": true,
        "isInvincible": true,
        "isGhostToAllied": true,
        "isGhostToEnemy": true,
        "canTriggerBullet": false
      },
      "beHit": {
        "hitBloodEffect": "",
        "muteAllHit": true,
        "muteAllHitEffect": true,
        "muteAllHitText": true
      },
      "combatLock": {
        "lockShape": "CircleLockEnemy",
        "denyLockOn": true,
        "lockType": "Default"
      }
    },
    "combatTemplate": "",
    "abilities": [
      {
        "abilityID": "SkillObj_Alhatham_ElementalArt_CoAttack03",
        "abilityName": "SkillObj_Alhatham_ElementalArt_CoAttack03",
        "abilityOverride": ""
      }
    ],
    "timer": {
      "lifeTime": 3.0
    }
  },
  "Alhatham_ElementalArt_CoAttack01_Constellation_1": {
    "$type": "CJKJIENLOHD",
    "common": {
      "effectAttachShape": {
        "$type": "OMIODKONOMG"
      }
    },
    "combat": {
      "property": {
        "useCreatorProperty": true,
        "isInvincible": true,
        "isGhostToAllied": true,
        "isGhostToEnemy": true,
        "canTriggerBullet": false
      },
      "beHit": {
        "hitBloodEffect": "",
        "muteAllHit": true,
        "muteAllHitEffect": true,
        "muteAllHitText": true
      },
      "combatLock": {
        "lockShape": "CircleLockEnemy",
        "denyLockOn": true,
        "lockType": "Default"
      }
    },
    "combatTemplate": "",
    "timer": {
      "lifeTime": 3.0
    }
  },
  "Alhatham_ElementalArt_CoAttack02_Constellation_1": {
    "$type": "CJKJIENLOHD",
    "common": {
      "effectAttachShape": {
        "$type": "OMIODKONOMG"
      }
    },
    "combat": {
      "property": {
        "useCreatorProperty": true,
        "isInvincible": true,
        "isGhostToAllied": true,
        "isGhostToEnemy": true,
        "canTriggerBullet": false
      },
      "beHit": {
        "hitBloodEffect": "",
        "muteAllHit": true,
        "muteAllHitEffect": true,
        "muteAllHitText": true
      },
      "combatLock": {
        "lockShape": "CircleLockEnemy",
        "denyLockOn": true,
        "lockType": "Default"
      }
    },
    "combatTemplate": "",
    "timer": {
      "lifeTime": 3.0
    }
  },
  "Alhatham_ElementalArt_CoAttack03_Constellation_1": {
    "$type": "CJKJIENLOHD",
    "common": {
      "effectAttachShape": {
        "$type": "OMIODKONOMG"
      }
    },
    "combat": {
      "property": {
        "useCreatorProperty": true,
        "isInvincible": true,
        "isGhostToAllied": true,
        "isGhostToEnemy": true,
        "canTriggerBullet": false
      },
      "beHit": {
        "hitBloodEffect": "",
        "muteAllHit": true,
        "muteAllHitEffect": true,
        "muteAllHitText": true
      },
      "combatLock": {
        "lockShape": "CircleLockEnemy",
        "denyLockOn": true,
        "lockType": "Default"
      }
    },
    "combatTemplate": "",
    "timer": {
      "lifeTime": 3.0
    }
  },
  "Alhatham_ElementalBurst_Dummy": {
    "$type": "CJKJIENLOHD",
    "common": {
      "effectAttachShape": {
        "$type": "OMIODKONOMG"
      }
    },
    "combat": {
      "property": {
        "useCreatorProperty": true,
        "isInvincible": true,
        "isGhostToAllied": true,
        "isGhostToEnemy": true,
        "canTriggerBullet": false
      },
      "beHit": {
        "hitBloodEffect": "",
        "muteAllHit": true,
        "muteAllHitEffect": true,
        "muteAllHitText": true
      },
      "combatLock": {
        "lockShape": "CircleLockEnemy",
        "denyLockOn": true,
        "lockType": "Default"
      }
    },
    "combatTemplate": "",
    "abilities": [
      {
        "abilityID": "SkillObj_Alhatham_ElementalBurst_Dummy",
        "abilityName": "SkillObj_Alhatham_ElementalBurst_Dummy",
        "abilityOverride": ""
      }
    ],
    "timer": {
      "lifeTime": 5.0
    },
    "stateLayers": {
      "defaultLayer": {
        "$type": "GBGJJIIEMBD",
        "layerIndexName": "",
        "CPAANEIJCGD": "",
        "stateIDs": {
          "Idle": {
            "$type": "BEIEGKBABOF",
            "animatorStates": {
              "Idle": ["Alhatham_ElementalBurst_Dummy"]
            }
          }
        }
      }
    }
  },
  "Alhatham_ElementalArt_CoAttack03_Bullet": {
    "$type": "CJKJIENLOHD",
    "common": {
      "effectAttachShape": {
        "$type": "OMIODKONOMG",
        "scaleZ": 0.4000000059604645
      }
    },
    "combat": {
      "property": {
        "useCreatorProperty": true,
        "hp": 999999.0,
        "attack": 10.0,
        "defense": 999999.0,
        "isLockHP": true
      },
      "beHit": {
        "hitBloodEffect": "",
        "muteAllHit": true,
        "muteAllHitEffect": true,
        "muteAllHitText": true
      },
      "combatLock": {
        "lockShape": "CircleLockEnemy",
        "denyLockOn": true,
        "lockType": "Default"
      },
      "simulatePhysics": {
        "enable": true
      }
    },
    "combatTemplate": "",
    "abilities": [
      {
        "abilityID": "Bullet_ElementalArt_CoAttack03_Bullet",
        "abilityName": "Bullet_ElementalArt_CoAttack03_Bullet",
        "abilityOverride": ""
      }
    ],
    "timer": {
      "lifeTime": 5.0
    },
    "move": {
      "$type": "JGEFBHJPMOL"
    },
    "gadget": {
      "$type": "AKGCANNFFGI",
      "collision": {
        "targetType": "Enemy"
      },
      "triggerActions": [
        {
          "$type": "AILPBJHDHDG",
          "abilityName": "Bullet_ElementalArt_CoAttack03_Bullet"
        }
      ],
      "multiBulletConfig": {
        "$type": "OAKJCHGIBPC",
        "rotationDampTime": "Eff_Avatar_Male_Sword_Alhatham_ForlornLotus_Attack_03"
      }
    }
  }
}
