{
  "FreezeBoar": {
    "$type": "CJKJIENLOHD",
    "hasModel": true,
    "combat": {
      "property": {
        "hp": 999999.0,
        "attack": 100.0,
        "defense": 999999.0,
        "isLockHP": true
      },
      "beHit": {
        "hitBloodEffect": "",
        "muteAllHit": true,
        "muteAllHitEffect": true,
        "muteAllHitText": true
      }
    },
    "combatTemplate": "",
    "abilities": [
      {
        "abilityID": "SceneObj_Task_FreezeBoar",
        "abilityName": "SceneObj_Task_FreezeBoar",
        "abilityOverride": ""
      }
    ]
  }
}
