{
  "ArrowRainField": {
    "$type": "CJKJIENLOHD",
    "combat": {
      "property": {
        "useCreatorProperty": true,
        "hp": 100.0,
        "attack": 10.0,
        "isGhostToAllied": true,
        "isGhostToEnemy": true,
        "canTriggerBullet": false
      },
      "beHit": {
        "hitBloodEffect": "",
        "muteAllHit": true,
        "muteAllHitEffect": true,
        "muteAllHitText": true
      },
      "combatLock": {
        "lockShape": "CircleLockEnemy",
        "denyLockOn": true,
        "lockType": "Default"
      }
    },
    "combatTemplate": "",
    "abilities": [
      {
        "abilityID": "ArrowRainField",
        "abilityName": "Avatar_Ambor_ArrowRainField",
        "abilityOverride": ""
      }
    ],
    "field": {
      "shape": "CircleR3",
      "fromShape": "",
      "triggerInfinite": true,
      "checkInterval": 0.5,
      "lifeTime": 5.0,
      "colliderName": "",
      "fromColliderName": ""
    }
  },
  "Dummy": {
    "$type": "CJKJIENLOHD",
    "common": {
      "effectAttachShape": {
        "$type": "OMIODKONOMG",
        "scaleY": 1.2000000476837158
      },
      "affectedByWorld": true,
      "checkInSurface": true
    },
    "specialPoint": {
      "elementAbsorb": "RootNode",
      "elementPendant": "",
      "elementDrop": "RootNode",
      "bulletAim": "RootNode"
    },
    "model": {
      "bornEffect": "",
      "attachEffect": "",
      "hasCharacterRenderering": true,
      "BKPFGNPLDNJ": ""
    },
    "hasModel": true,
    "combat": {
      "property": {
        "useCreatorProperty": true
      },
      "combatLock": {
        "lockShape": "CircleLockEnemy",
        "denyLockOn": true,
        "lockType": "Default"
      },
      "die": {
        "dieDisappearEffect": "Eff_Ambor_Dummy_Explode"
      }
    },
    "combatTemplate": "",
    "abilities": [
      {
        "abilityID": "Material",
        "abilityName": "Avatar_Ambor_DummyMaterial",
        "abilityOverride": ""
      },
      {
        "abilityID": "Avatar_Ambor_BlowUpByTrigger",
        "abilityName": "Avatar_Ambor_BlowUpByTrigger",
        "abilityOverride": ""
      }
    ],
    "timer": {
      "lifeTime": 8.199999809265137
    },
    "move": {
      "$type": "MGENMIHFEJO",
      "velocityForce": {
        "includeForces": ["RetreatType", "RetreatAirType", "WindZoneType"]
      },
      "startCloseToGround": false
    },
    "stateLayers": {
      "defaultLayer": {
        "$type": "GBGJJIIEMBD",
        "layerIndexName": "",
        "CPAANEIJCGD": "",
        "stateIDs": {
          "NormalMove": {
            "$type": "BEIEGKBABOF",
            "animatorStates": {
              "Born": [],
              "Idle": ["Audio_Dummy_Taunt"]
            }
          }
        }
      }
    },
    "audio": {
      "$type": "DEGGADLMEOK",
      "overrideEmitterName": "",
      "animAudio": {
        "onTransitionIn": [
          {
            "currentStateName": "Idle",
            "audioEvent": {
              "text": "Play_sfx_char_ambor_dummy_taunt"
            }
          }
        ],
        "onTransitionOut": [
          {
            "currentStateName": "Idle",
            "audioEvent": {
              "text": "Stop_sfx_char_ambor_dummy_taunt"
            }
          }
        ]
      },
      "disableEvent": {
        "text": "Stop_sfx_char_ambor_dummy_taunt_disableEvent"
      },
      "destroyEvent": {
        "text": "Stop_sfx_char_ambor_dummy_taunt_disableEvent"
      }
    },
    "characterRendering": {
      "overrideTickInterval": 1
    }
  },
  "Ambor_Dummy_BlowUpTrigger": {
    "$type": "CJKJIENLOHD",
    "common": {
      "effectAttachShape": {
        "$type": "OMIODKONOMG",
        "scaleY": 1.2000000476837158
      },
      "affectedByWorld": true,
      "checkInSurface": true
    },
    "combat": {
      "property": {
        "hp": 999999.0,
        "attack": 10.0
      },
      "beHit": {
        "hitBloodEffect": "",
        "muteAllHitText": true
      },
      "combatLock": {
        "lockShape": "CircleLockEnemy",
        "denyLockOn": true,
        "lockType": "Gadget_Lv1"
      }
    },
    "combatTemplate": "",
    "abilities": [
      {
        "abilityID": "Avatar_Ambor_CreateBlowUpTrigger",
        "abilityName": "Avatar_Ambor_CreateBlowUpTrigger",
        "abilityOverride": ""
      },
      {
        "abilityID": "Avatar_Ambor_BlowUpDummy",
        "abilityName": "Avatar_Ambor_BlowUpDummy",
        "abilityOverride": ""
      }
    ],
    "timer": {
      "lifeTime": 99.0
    },
    "move": {
      "$type": "MMAPEFIEGAL",
      "velocityForce": {
        "muteAll": true
      },
      "target": "TargetEntity",
      "attachPoint": "RootNode",
      "LFOHLEKJFBI": ""
    }
  },
  "Dummy_Throw": {
    "$type": "CJKJIENLOHD",
    "common": {
      "effectAttachShape": {
        "$type": "OMIODKONOMG",
        "scaleX": 2.4000000953674316,
        "scaleY": 2.4000000953674316,
        "scaleZ": 2.4000000953674316
      },
      "affectedByWorld": true
    },
    "combat": {
      "property": {
        "useCreatorProperty": true
      },
      "beHit": {
        "hitBloodEffect": "",
        "muteAllHit": true,
        "muteAllHitEffect": true,
        "muteAllHitText": true
      },
      "combatLock": {
        "lockShape": "CircleLockEnemy",
        "denyLockOn": true,
        "lockType": "Default"
      }
    },
    "combatTemplate": "",
    "abilities": [
      {
        "abilityID": "CreateDummy",
        "abilityName": "Avatar_Ambor_CreateDummy",
        "abilityOverride": ""
      },
      {
        "abilityID": "SpeedFix",
        "abilityName": "Avatar_Ambor_Dummy_Speed_Fix",
        "abilityOverride": ""
      }
    ],
    "timer": {
      "lifeTime": 10.0
    },
    "move": {
      "$type": "BFDBCCCADKH",
      "speed": 10.0,
      "syncToRemote": true,
      "angleOffHor": 27.0,
      "gravityOfAcceleration": 30.0,
      "GEBCKKDCGDP": "",
      "NKPHOKHJKGC": ""
    },
    "gadget": {
      "$type": "JENBBNKGGJP",
      "collision": {
        "targetType": "Enemy"
      },
      "triggerActions": [
        {
          "$type": "AILPBJHDHDG",
          "abilityName": "Avatar_Ambor_CreateDummy"
        }
      ]
    },
    "stateLayers": {
      "defaultLayer": {
        "$type": "GBGJJIIEMBD",
        "layerIndexName": "",
        "CPAANEIJCGD": "",
        "stateIDs": {
          "NormalMove": {
            "$type": "BEIEGKBABOF"
          }
        }
      }
    },
    "audio": {
      "$type": "DEGGADLMEOK",
      "overrideEmitterName": "",
      "animAudio": {}
    }
  },
  "Dummy_Throw_7M": {
    "$type": "CJKJIENLOHD",
    "common": {
      "effectAttachShape": {
        "$type": "OMIODKONOMG",
        "scaleX": 2.4000000953674316,
        "scaleY": 2.4000000953674316,
        "scaleZ": 2.4000000953674316
      },
      "affectedByWorld": true
    },
    "combat": {
      "property": {
        "useCreatorProperty": true
      },
      "beHit": {
        "hitBloodEffect": "",
        "muteAllHit": true,
        "muteAllHitEffect": true,
        "muteAllHitText": true
      },
      "combatLock": {
        "lockShape": "CircleLockEnemy",
        "denyLockOn": true,
        "lockType": "Default"
      }
    },
    "combatTemplate": "",
    "abilities": [
      {
        "abilityID": "CreateDummy",
        "abilityName": "Avatar_Ambor_CreateDummy",
        "abilityOverride": ""
      }
    ],
    "timer": {
      "lifeTime": 10.0
    },
    "move": {
      "$type": "BFDBCCCADKH",
      "speed": 16.0,
      "angleOffHor": 15.0,
      "gravityOfAcceleration": 30.0,
      "GEBCKKDCGDP": "",
      "NKPHOKHJKGC": ""
    },
    "gadget": {
      "$type": "JENBBNKGGJP",
      "collision": {
        "targetType": "Enemy"
      },
      "triggerActions": [
        {
          "$type": "AILPBJHDHDG",
          "abilityName": "Avatar_Ambor_CreateDummy"
        }
      ]
    }
  },
  "Dummy_Throw_4M": {
    "$type": "CJKJIENLOHD",
    "common": {
      "effectAttachShape": {
        "$type": "OMIODKONOMG",
        "scaleX": 2.4000000953674316,
        "scaleY": 2.4000000953674316,
        "scaleZ": 2.4000000953674316
      },
      "affectedByWorld": true
    },
    "combat": {
      "property": {
        "useCreatorProperty": true
      },
      "beHit": {
        "hitBloodEffect": "",
        "muteAllHit": true,
        "muteAllHitEffect": true,
        "muteAllHitText": true
      },
      "combatLock": {
        "lockShape": "CircleLockEnemy",
        "denyLockOn": true,
        "lockType": "Default"
      }
    },
    "combatTemplate": "",
    "abilities": [
      {
        "abilityID": "CreateDummy",
        "abilityName": "Avatar_Ambor_CreateDummy",
        "abilityOverride": ""
      }
    ],
    "timer": {
      "lifeTime": 10.0
    },
    "move": {
      "$type": "BFDBCCCADKH",
      "speed": 10.0,
      "angleOffHor": 15.0,
      "gravityOfAcceleration": 30.0,
      "GEBCKKDCGDP": "",
      "NKPHOKHJKGC": ""
    },
    "gadget": {
      "$type": "JENBBNKGGJP",
      "collision": {
        "targetType": "Enemy"
      },
      "triggerActions": [
        {
          "$type": "AILPBJHDHDG",
          "abilityName": "Avatar_Ambor_CreateDummy"
        }
      ]
    }
  },
  "Dummy_Throw_Short": {
    "$type": "CJKJIENLOHD",
    "common": {
      "effectAttachShape": {
        "$type": "OMIODKONOMG",
        "scaleX": 2.4000000953674316,
        "scaleY": 2.4000000953674316,
        "scaleZ": 2.4000000953674316
      },
      "affectedByWorld": true
    },
    "combat": {
      "property": {
        "useCreatorProperty": true
      },
      "beHit": {
        "hitBloodEffect": "",
        "muteAllHit": true,
        "muteAllHitEffect": true,
        "muteAllHitText": true
      },
      "combatLock": {
        "lockShape": "CircleLockEnemy",
        "denyLockOn": true,
        "lockType": "Default"
      }
    },
    "combatTemplate": "",
    "abilities": [
      {
        "abilityID": "CreateDummy",
        "abilityName": "Avatar_Ambor_CreateDummy",
        "abilityOverride": ""
      }
    ],
    "timer": {
      "lifeTime": 10.0
    },
    "move": {
      "$type": "BFDBCCCADKH",
      "speed": 3.5,
      "angleOffHor": 60.0,
      "gravityOfAcceleration": 15.0,
      "GEBCKKDCGDP": "",
      "NKPHOKHJKGC": ""
    },
    "gadget": {
      "$type": "JENBBNKGGJP",
      "collision": {
        "targetType": "Enemy"
      },
      "triggerActions": [
        {
          "$type": "AILPBJHDHDG",
          "abilityName": "Avatar_Ambor_CreateDummy"
        }
      ]
    }
  },
  "Dummy_ElementBall": {
    "$type": "CJKJIENLOHD",
    "combat": {
      "property": {
        "useCreatorProperty": true,
        "hp": 99999.0,
        "attack": 1.0,
        "defense": 99999.0,
        "weight": 50.0,
        "isGhostToAllied": true,
        "isGhostToEnemy": true
      },
      "beHit": {
        "hitBloodEffect": "",
        "muteAllHit": true,
        "muteAllHitEffect": true,
        "muteAllHitText": true
      },
      "combatLock": {
        "lockShape": "CircleLockEnemy",
        "denyLockOn": true,
        "lockType": "Default"
      }
    },
    "combatTemplate": "",
    "abilities": [
      {
        "abilityID": "Dummy_ElementBall",
        "abilityName": "Avatar_Ambor_DummyDropBall",
        "abilityOverride": ""
      }
    ],
    "timer": {
      "lifeTime": 2.0
    }
  },
  "Ambor_Arrow_01": {
    "$type": "CJKJIENLOHD",
    "common": {
      "effectAttachShape": {
        "$type": "OMIODKONOMG",
        "scaleX": 0.5,
        "scaleY": 0.5
      },
      "affectedByWorld": true
    },
    "combat": {
      "property": {
        "useCreatorProperty": true,
        "canTriggerBullet": false
      },
      "beHit": {
        "hitBloodEffect": "",
        "muteAllHit": true,
        "muteAllHitEffect": true,
        "muteAllHitText": true
      },
      "combatLock": {
        "lockShape": "CircleLockEnemy",
        "denyLockOn": true,
        "lockType": "Default"
      },
      "animEvents": {
        "ATK01": {
          "attackPattern": {
            "$type": "ConfigAttackBox",
            "triggerType": "TriggerNoRepeat",
            "checkHitLayerType": "Both",
            "born": {
              "$type": "ConfigBornByCollisionPoint",
              "offset": {
                "x": 0.0,
                "y": 0.0,
                "z": -0.5
              }
            },
            "size": {
              "x": 0.10000000149011612,
              "y": 0.10000000149011612,
              "z": 1.0
            }
          },
          "attackInfo": {
            "attackTag": "NormalAttack_01",
            "attenuationTag": "",
            "attenuationGroup": "default",
            "attackProperty": {
              "actorWindSubHurtDelta": 0.0,
              "elementDurability": 100.0,
              "strikeType": "Pierce",
              "enBreak": 12.899999618530273,
              "GLKMCMDJBIK": 0.0
            },
            "hitPattern": {
              "onHitEffectName": "default",
              "hitImpulseY": "",
              "hitImpulseType": "LV1",
              "hitHaltTimeScale": 0.009999999776482582
            },
            "cameraShake": {
              "shakeRange": 0.019999999552965164,
              "shakeTime": 0.10000000149011612
            },
            "canBeModifiedBy": "OriginOwner"
          }
        }
      }
    },
    "combatTemplate": "",
    "abilities": [
      {
        "abilityID": "Trail_Fx",
        "abilityName": "Test_ShootArrow_Trail_Light_Fx",
        "abilityOverride": ""
      },
      {
        "abilityID": "Hit_Fx",
        "abilityName": "Test_ShootArrow_Hit_Fx",
        "abilityOverride": ""
      }
    ],
    "timer": {
      "lifeTime": 8.0
    },
    "move": {
      "$type": "BFICFPAEFPB",
      "speed": 40.0,
      "DPAAFHNMHHN": {
        "$type": "IFAANDLLGLP"
      },
      "straightRange": 7.0,
      "gravityOfAcceleration": 15.0,
      "airResistance": 0.009999999776482582
    },
    "gadget": {
      "$type": "JENBBNKGGJP",
      "collision": {
        "targetType": "Enemy"
      },
      "triggerActions": [
        {
          "$type": "NMMEILICBAE",
          "attackEvent": "ATK01"
        },
        {
          "$type": "AILPBJHDHDG",
          "abilityName": "Test_ShootArrow_Hit_Fx"
        }
      ],
      "fireAISoundEvent": true
    }
  },
  "Ambor_Arrow_02": {
    "$type": "CJKJIENLOHD",
    "common": {
      "effectAttachShape": {
        "$type": "OMIODKONOMG",
        "scaleX": 0.5,
        "scaleY": 0.5
      },
      "affectedByWorld": true
    },
    "combat": {
      "property": {
        "useCreatorProperty": true,
        "canTriggerBullet": false
      },
      "beHit": {
        "hitBloodEffect": "",
        "muteAllHit": true,
        "muteAllHitEffect": true,
        "muteAllHitText": true
      },
      "combatLock": {
        "lockShape": "CircleLockEnemy",
        "denyLockOn": true,
        "lockType": "Default"
      },
      "animEvents": {
        "ATK01": {
          "attackPattern": {
            "$type": "ConfigAttackBox",
            "triggerType": "TriggerNoRepeat",
            "checkHitLayerType": "Both",
            "born": {
              "$type": "ConfigBornByCollisionPoint",
              "offset": {
                "x": 0.0,
                "y": 0.0,
                "z": -0.5
              }
            },
            "size": {
              "x": 0.10000000149011612,
              "y": 0.10000000149011612,
              "z": 1.0
            }
          },
          "attackInfo": {
            "attackTag": "NormalAttack_02",
            "attenuationTag": "",
            "attenuationGroup": "default",
            "attackProperty": {
              "actorWindSubHurtDelta": 0.0,
              "elementDurability": 100.0,
              "strikeType": "Pierce",
              "enBreak": 13.199999809265137,
              "GLKMCMDJBIK": 0.0
            },
            "hitPattern": {
              "onHitEffectName": "default",
              "hitImpulseY": "",
              "hitImpulseType": "LV1",
              "hitHaltTimeScale": 0.009999999776482582
            },
            "cameraShake": {
              "shakeRange": 0.019999999552965164,
              "shakeTime": 0.10000000149011612
            },
            "canBeModifiedBy": "OriginOwner"
          }
        }
      }
    },
    "combatTemplate": "",
    "abilities": [
      {
        "abilityID": "Trail_Fx",
        "abilityName": "Test_ShootArrow_Trail_Light_Fx",
        "abilityOverride": ""
      },
      {
        "abilityID": "Hit_Fx",
        "abilityName": "Test_ShootArrow_Hit_Fx",
        "abilityOverride": ""
      }
    ],
    "timer": {
      "lifeTime": 8.0
    },
    "move": {
      "$type": "BFICFPAEFPB",
      "speed": 40.0,
      "DPAAFHNMHHN": {
        "$type": "IFAANDLLGLP"
      },
      "straightRange": 7.0,
      "gravityOfAcceleration": 15.0,
      "airResistance": 0.009999999776482582
    },
    "gadget": {
      "$type": "JENBBNKGGJP",
      "collision": {
        "targetType": "Enemy"
      },
      "triggerActions": [
        {
          "$type": "NMMEILICBAE",
          "attackEvent": "ATK01"
        },
        {
          "$type": "AILPBJHDHDG",
          "abilityName": "Test_ShootArrow_Hit_Fx"
        }
      ],
      "fireAISoundEvent": true
    }
  },
  "Ambor_Arrow_03": {
    "$type": "CJKJIENLOHD",
    "common": {
      "effectAttachShape": {
        "$type": "OMIODKONOMG",
        "scaleX": 0.5,
        "scaleY": 0.5
      },
      "affectedByWorld": true
    },
    "combat": {
      "property": {
        "useCreatorProperty": true,
        "canTriggerBullet": false
      },
      "beHit": {
        "hitBloodEffect": "",
        "muteAllHit": true,
        "muteAllHitEffect": true,
        "muteAllHitText": true
      },
      "combatLock": {
        "lockShape": "CircleLockEnemy",
        "denyLockOn": true,
        "lockType": "Default"
      },
      "animEvents": {
        "ATK01": {
          "attackPattern": {
            "$type": "ConfigAttackBox",
            "triggerType": "TriggerNoRepeat",
            "checkHitLayerType": "Both",
            "born": {
              "$type": "ConfigBornByCollisionPoint",
              "offset": {
                "x": 0.0,
                "y": 0.0,
                "z": -0.5
              }
            },
            "size": {
              "x": 0.10000000149011612,
              "y": 0.10000000149011612,
              "z": 1.0
            }
          },
          "attackInfo": {
            "attackTag": "NormalAttack_03",
            "attenuationTag": "",
            "attenuationGroup": "default",
            "attackProperty": {
              "actorWindSubHurtDelta": 0.0,
              "elementDurability": 100.0,
              "strikeType": "Pierce",
              "enBreak": 15.0,
              "GLKMCMDJBIK": 0.0
            },
            "hitPattern": {
              "onHitEffectName": "default",
              "hitImpulseY": "",
              "hitImpulseType": "LV1",
              "hitHaltTimeScale": 0.009999999776482582
            },
            "cameraShake": {
              "shakeRange": 0.019999999552965164,
              "shakeTime": 0.10000000149011612
            },
            "canBeModifiedBy": "OriginOwner"
          }
        }
      }
    },
    "combatTemplate": "",
    "abilities": [
      {
        "abilityID": "Trail_Fx",
        "abilityName": "Test_ShootArrow_Trail_Fx",
        "abilityOverride": ""
      },
      {
        "abilityID": "Hit_Fx",
        "abilityName": "Test_ShootArrow_Hit_Fx",
        "abilityOverride": ""
      }
    ],
    "timer": {
      "lifeTime": 8.0
    },
    "move": {
      "$type": "BFICFPAEFPB",
      "speed": 40.0,
      "DPAAFHNMHHN": {
        "$type": "IFAANDLLGLP"
      },
      "straightRange": 7.0,
      "gravityOfAcceleration": 15.0,
      "airResistance": 0.009999999776482582
    },
    "gadget": {
      "$type": "JENBBNKGGJP",
      "collision": {
        "targetType": "Enemy"
      },
      "triggerActions": [
        {
          "$type": "NMMEILICBAE",
          "attackEvent": "ATK01"
        },
        {
          "$type": "AILPBJHDHDG",
          "abilityName": "Test_ShootArrow_Hit_Fx"
        }
      ],
      "fireAISoundEvent": true
    }
  },
  "Ambor_Arrow_04": {
    "$type": "CJKJIENLOHD",
    "common": {
      "effectAttachShape": {
        "$type": "OMIODKONOMG",
        "scaleX": 0.5,
        "scaleY": 0.5
      },
      "affectedByWorld": true
    },
    "combat": {
      "property": {
        "useCreatorProperty": true,
        "canTriggerBullet": false
      },
      "beHit": {
        "hitBloodEffect": "",
        "muteAllHit": true,
        "muteAllHitEffect": true,
        "muteAllHitText": true
      },
      "combatLock": {
        "lockShape": "CircleLockEnemy",
        "denyLockOn": true,
        "lockType": "Default"
      },
      "animEvents": {
        "ATK01": {
          "attackPattern": {
            "$type": "ConfigAttackBox",
            "triggerType": "TriggerNoRepeat",
            "checkHitLayerType": "Both",
            "born": {
              "$type": "ConfigBornByCollisionPoint",
              "offset": {
                "x": 0.0,
                "y": 0.0,
                "z": -0.5
              }
            },
            "size": {
              "x": 0.10000000149011612,
              "y": 0.10000000149011612,
              "z": 1.0
            }
          },
          "attackInfo": {
            "attackTag": "NormalAttack_04",
            "attenuationTag": "",
            "attenuationGroup": "default",
            "attackProperty": {
              "actorWindSubHurtDelta": 0.0,
              "elementDurability": 100.0,
              "strikeType": "Pierce",
              "enBreak": 14.399999618530273,
              "GLKMCMDJBIK": 0.0
            },
            "hitPattern": {
              "onHitEffectName": "default",
              "hitImpulseY": "",
              "hitImpulseType": "LV1",
              "hitHaltTimeScale": 0.009999999776482582
            },
            "cameraShake": {
              "shakeRange": 0.019999999552965164,
              "shakeTime": 0.10000000149011612
            },
            "canBeModifiedBy": "OriginOwner"
          }
        }
      }
    },
    "combatTemplate": "",
    "abilities": [
      {
        "abilityID": "Trail_Fx",
        "abilityName": "Test_ShootArrow_Trail_Light_Fx",
        "abilityOverride": ""
      },
      {
        "abilityID": "Hit_Fx",
        "abilityName": "Test_ShootArrow_Hit_Fx",
        "abilityOverride": ""
      }
    ],
    "timer": {
      "lifeTime": 8.0
    },
    "move": {
      "$type": "BFICFPAEFPB",
      "speed": 40.0,
      "DPAAFHNMHHN": {
        "$type": "IFAANDLLGLP"
      },
      "straightRange": 7.0,
      "gravityOfAcceleration": 15.0,
      "airResistance": 0.009999999776482582
    },
    "gadget": {
      "$type": "JENBBNKGGJP",
      "collision": {
        "targetType": "Enemy"
      },
      "triggerActions": [
        {
          "$type": "NMMEILICBAE",
          "attackEvent": "ATK01"
        },
        {
          "$type": "AILPBJHDHDG",
          "abilityName": "Test_ShootArrow_Hit_Fx"
        }
      ],
      "fireAISoundEvent": true
    }
  },
  "Ambor_Arrow_05": {
    "$type": "CJKJIENLOHD",
    "common": {
      "effectAttachShape": {
        "$type": "OMIODKONOMG",
        "scaleX": 0.5,
        "scaleY": 0.5
      },
      "affectedByWorld": true
    },
    "combat": {
      "property": {
        "useCreatorProperty": true,
        "canTriggerBullet": false
      },
      "beHit": {
        "hitBloodEffect": "",
        "muteAllHit": true,
        "muteAllHitEffect": true,
        "muteAllHitText": true
      },
      "combatLock": {
        "lockShape": "CircleLockEnemy",
        "denyLockOn": true,
        "lockType": "Default"
      },
      "animEvents": {
        "ATK01": {
          "attackPattern": {
            "$type": "ConfigAttackBox",
            "triggerType": "TriggerNoRepeat",
            "checkHitLayerType": "Both",
            "born": {
              "$type": "ConfigBornByCollisionPoint",
              "offset": {
                "x": 0.0,
                "y": 0.0,
                "z": -0.5
              }
            },
            "size": {
              "x": 0.10000000149011612,
              "y": 0.10000000149011612,
              "z": 1.0
            }
          },
          "attackInfo": {
            "attackTag": "NormalAttack_05",
            "attenuationTag": "",
            "attenuationGroup": "default",
            "attackProperty": {
              "actorWindSubHurtDelta": 0.0,
              "elementDurability": 100.0,
              "strikeType": "Pierce",
              "enBreak": 16.5,
              "GLKMCMDJBIK": 0.0
            },
            "hitPattern": {
              "onHitEffectName": "default",
              "hitImpulseY": "",
              "hitImpulseType": "LV1",
              "hitHaltTimeScale": 0.009999999776482582
            },
            "cameraShake": {
              "shakeRange": 0.019999999552965164,
              "shakeTime": 0.10000000149011612
            },
            "canBeModifiedBy": "OriginOwner"
          }
        }
      }
    },
    "combatTemplate": "",
    "abilities": [
      {
        "abilityID": "Trail_Fx",
        "abilityName": "Test_ShootArrow_Trail_Fx",
        "abilityOverride": ""
      },
      {
        "abilityID": "Hit_Fx",
        "abilityName": "Test_ShootArrow_Hit_Fx",
        "abilityOverride": ""
      }
    ],
    "timer": {
      "lifeTime": 8.0
    },
    "move": {
      "$type": "BFICFPAEFPB",
      "speed": 70.0,
      "DPAAFHNMHHN": {
        "$type": "IFAANDLLGLP"
      },
      "straightRange": 15.0,
      "gravityOfAcceleration": 30.0,
      "airResistance": 0.009999999776482582
    },
    "gadget": {
      "$type": "JENBBNKGGJP",
      "collision": {
        "targetType": "Enemy"
      },
      "triggerActions": [
        {
          "$type": "NMMEILICBAE",
          "attackEvent": "ATK01"
        },
        {
          "$type": "AILPBJHDHDG",
          "abilityName": "Test_ShootArrow_Hit_Fx"
        }
      ],
      "fireAISoundEvent": true
    }
  },
  "AimingArrow_WithoutFire": {
    "$type": "CJKJIENLOHD",
    "common": {
      "effectAttachShape": {
        "$type": "OMIODKONOMG",
        "scaleX": 0.5,
        "scaleY": 0.5
      },
      "affectedByWorld": true
    },
    "combat": {
      "property": {
        "useCreatorProperty": true,
        "canTriggerBullet": false
      },
      "beHit": {
        "hitBloodEffect": "",
        "muteAllHit": true,
        "muteAllHitEffect": true,
        "muteAllHitText": true
      },
      "combatLock": {
        "lockShape": "CircleLockEnemy",
        "denyLockOn": true,
        "lockType": "Default"
      }
    },
    "combatTemplate": "",
    "abilities": [
      {
        "abilityID": "Arrow_Material",
        "abilityName": "Ambor_AimingArrow_WithoutFire_Material",
        "abilityOverride": ""
      }
    ],
    "timer": {
      "lifeTime": 20.0
    },
    "move": {
      "$type": "BFICFPAEFPB",
      "speed": 50.0,
      "DPAAFHNMHHN": {
        "$type": "IFAANDLLGLP"
      },
      "straightRange": 25.0,
      "gravityOfAcceleration": 5.5,
      "airResistance": 0.009999999776482582
    },
    "gadget": {
      "$type": "JENBBNKGGJP",
      "collision": {
        "targetType": "Enemy"
      },
      "triggerActions": [
        {
          "$type": "AILPBJHDHDG",
          "abilityName": "Ambor_AimingArrow_WithoutFire_Material"
        }
      ],
      "fireAISoundEvent": true
    }
  },
  "Double_ArrowAiming_WithoutFire": {
    "$type": "CJKJIENLOHD",
    "common": {
      "effectAttachShape": {
        "$type": "OMIODKONOMG",
        "scaleX": 0.5,
        "scaleY": 0.5
      },
      "affectedByWorld": true
    },
    "hasModel": true,
    "combat": {
      "property": {
        "useCreatorProperty": true,
        "canTriggerBullet": false
      },
      "beHit": {
        "hitBloodEffect": "",
        "muteAllHit": true,
        "muteAllHitEffect": true,
        "muteAllHitText": true
      },
      "combatLock": {
        "lockShape": "CircleLockEnemy",
        "denyLockOn": true,
        "lockType": "Default"
      }
    },
    "combatTemplate": "",
    "abilities": [
      {
        "abilityID": "DoubleArrow_WithoutFire",
        "abilityName": "Ambor_Talent212_DoubleArrow_WithoutFire_Material",
        "abilityOverride": ""
      }
    ],
    "timer": {
      "lifeTime": 20.0
    },
    "move": {
      "$type": "BFICFPAEFPB",
      "speed": 50.0,
      "DPAAFHNMHHN": {
        "$type": "IFAANDLLGLP"
      },
      "delay": 0.15000000596046448,
      "straightRange": 25.0,
      "gravityOfAcceleration": 5.5,
      "airResistance": 0.009999999776482582
    },
    "gadget": {
      "$type": "JENBBNKGGJP",
      "collision": {
        "targetType": "Enemy"
      },
      "triggerActions": [
        {
          "$type": "AILPBJHDHDG",
          "abilityName": "Ambor_Talent212_DoubleArrow_WithoutFire_Material"
        }
      ]
    }
  },
  "Double_ArrowAiming": {
    "$type": "CJKJIENLOHD",
    "common": {
      "effectAttachShape": {
        "$type": "OMIODKONOMG",
        "scaleX": 0.5,
        "scaleY": 0.5
      },
      "affectedByWorld": true
    },
    "hasModel": true,
    "combat": {
      "property": {
        "useCreatorProperty": true,
        "weight": 50.0,
        "canTriggerBullet": false
      },
      "beHit": {
        "hitBloodEffect": "",
        "muteAllHit": true,
        "muteAllHitEffect": true,
        "muteAllHitText": true
      },
      "combatLock": {
        "lockShape": "CircleLockEnemy",
        "denyLockOn": true,
        "lockType": "Default"
      }
    },
    "combatTemplate": "",
    "abilities": [
      {
        "abilityID": "Hit_Fx",
        "abilityName": "Test_ShootAimingArrow_Hit_Fx",
        "abilityOverride": ""
      },
      {
        "abilityID": "DoubleArrow",
        "abilityName": "Ambor_Talent212_DoubleArrow",
        "abilityOverride": ""
      }
    ],
    "timer": {
      "lifeTime": 20.0
    },
    "move": {
      "$type": "BFICFPAEFPB",
      "speed": 50.0,
      "DPAAFHNMHHN": {
        "$type": "IFAANDLLGLP"
      },
      "delay": 0.15000000596046448,
      "straightRange": 25.0,
      "gravityOfAcceleration": 5.5,
      "airResistance": 0.009999999776482582
    },
    "gadget": {
      "$type": "JENBBNKGGJP",
      "collision": {
        "targetType": "Enemy"
      },
      "triggerActions": [
        {
          "$type": "AILPBJHDHDG",
          "abilityName": "Ambor_Talent212_DoubleArrow"
        },
        {
          "$type": "AILPBJHDHDG",
          "abilityName": "Test_ShootAimingArrow_Hit_Fx"
        }
      ]
    }
  },
  "Dummy_Throw_Temp_4M": {
    "$type": "CJKJIENLOHD",
    "common": {
      "effectAttachShape": {
        "$type": "OMIODKONOMG",
        "scaleX": 2.4000000953674316,
        "scaleY": 2.4000000953674316,
        "scaleZ": 2.4000000953674316
      },
      "affectedByWorld": true
    },
    "combat": {
      "property": {
        "useCreatorProperty": true
      },
      "beHit": {
        "hitBloodEffect": "",
        "muteAllHit": true,
        "muteAllHitEffect": true,
        "muteAllHitText": true
      }
    },
    "combatTemplate": "",
    "abilities": [
      {
        "abilityID": "CreateDummy",
        "abilityName": "Avatar_Ambor_CreateDummy",
        "abilityOverride": ""
      },
      {
        "abilityID": "SpeedFix",
        "abilityName": "Avatar_Ambor_Dummy_Speed_Fix",
        "abilityOverride": ""
      }
    ],
    "timer": {
      "lifeTime": 10.0
    },
    "move": {
      "$type": "BFDBCCCADKH",
      "speed": 10.0,
      "syncToRemote": true,
      "angleOffHor": 27.0,
      "gravityOfAcceleration": 30.0,
      "GEBCKKDCGDP": "",
      "NKPHOKHJKGC": ""
    },
    "gadget": {
      "$type": "JENBBNKGGJP",
      "collision": {
        "targetType": "Enemy"
      },
      "triggerActions": [
        {
          "$type": "AILPBJHDHDG",
          "abilityName": "Avatar_Ambor_CreateDummy"
        }
      ]
    },
    "stateLayers": {
      "defaultLayer": {
        "$type": "GBGJJIIEMBD",
        "layerIndexName": "",
        "CPAANEIJCGD": "",
        "stateIDs": {
          "NormalMove": {
            "$type": "BEIEGKBABOF"
          }
        }
      }
    },
    "audio": {
      "$type": "DEGGADLMEOK",
      "overrideEmitterName": "",
      "animAudio": {}
    }
  },
  "Dummy_Throw_Temp_5M": {
    "$type": "CJKJIENLOHD",
    "common": {
      "effectAttachShape": {
        "$type": "OMIODKONOMG",
        "scaleX": 2.4000000953674316,
        "scaleY": 2.4000000953674316,
        "scaleZ": 2.4000000953674316
      },
      "affectedByWorld": true
    },
    "combat": {
      "property": {
        "useCreatorProperty": true
      },
      "beHit": {
        "hitBloodEffect": "",
        "muteAllHit": true,
        "muteAllHitEffect": true,
        "muteAllHitText": true
      }
    },
    "combatTemplate": "",
    "abilities": [
      {
        "abilityID": "CreateDummy",
        "abilityName": "Avatar_Ambor_CreateDummy",
        "abilityOverride": ""
      },
      {
        "abilityID": "SpeedFix",
        "abilityName": "Avatar_Ambor_Dummy_Speed_Fix",
        "abilityOverride": ""
      }
    ],
    "timer": {
      "lifeTime": 10.0
    },
    "move": {
      "$type": "BFDBCCCADKH",
      "speed": 10.0,
      "syncToRemote": true,
      "angleOffHor": 27.0,
      "gravityOfAcceleration": 30.0,
      "GEBCKKDCGDP": "",
      "NKPHOKHJKGC": ""
    },
    "gadget": {
      "$type": "JENBBNKGGJP",
      "collision": {
        "targetType": "Enemy"
      },
      "triggerActions": [
        {
          "$type": "AILPBJHDHDG",
          "abilityName": "Avatar_Ambor_CreateDummy"
        }
      ]
    },
    "stateLayers": {
      "defaultLayer": {
        "$type": "GBGJJIIEMBD",
        "layerIndexName": "",
        "CPAANEIJCGD": "",
        "stateIDs": {
          "NormalMove": {
            "$type": "BEIEGKBABOF"
          }
        }
      }
    },
    "audio": {
      "$type": "DEGGADLMEOK",
      "overrideEmitterName": "",
      "animAudio": {}
    }
  },
  "Dummy_Throw_Temp_6M": {
    "$type": "CJKJIENLOHD",
    "common": {
      "effectAttachShape": {
        "$type": "OMIODKONOMG",
        "scaleX": 2.4000000953674316,
        "scaleY": 2.4000000953674316,
        "scaleZ": 2.4000000953674316
      },
      "affectedByWorld": true
    },
    "combat": {
      "property": {
        "useCreatorProperty": true
      },
      "beHit": {
        "hitBloodEffect": "",
        "muteAllHit": true,
        "muteAllHitEffect": true,
        "muteAllHitText": true
      }
    },
    "combatTemplate": "",
    "abilities": [
      {
        "abilityID": "CreateDummy",
        "abilityName": "Avatar_Ambor_CreateDummy",
        "abilityOverride": ""
      },
      {
        "abilityID": "SpeedFix",
        "abilityName": "Avatar_Ambor_Dummy_Speed_Fix",
        "abilityOverride": ""
      }
    ],
    "timer": {
      "lifeTime": 10.0
    },
    "move": {
      "$type": "BFDBCCCADKH",
      "speed": 12.0,
      "syncToRemote": true,
      "angleOffHor": 27.0,
      "gravityOfAcceleration": 30.0,
      "GEBCKKDCGDP": "",
      "NKPHOKHJKGC": ""
    },
    "gadget": {
      "$type": "JENBBNKGGJP",
      "collision": {
        "targetType": "Enemy"
      },
      "triggerActions": [
        {
          "$type": "AILPBJHDHDG",
          "abilityName": "Avatar_Ambor_CreateDummy"
        }
      ]
    },
    "stateLayers": {
      "defaultLayer": {
        "$type": "GBGJJIIEMBD",
        "layerIndexName": "",
        "CPAANEIJCGD": "",
        "stateIDs": {
          "NormalMove": {
            "$type": "BEIEGKBABOF"
          }
        }
      }
    },
    "audio": {
      "$type": "DEGGADLMEOK",
      "overrideEmitterName": "",
      "animAudio": {}
    }
  },
  "Dummy_Throw_Temp_7M": {
    "$type": "CJKJIENLOHD",
    "common": {
      "effectAttachShape": {
        "$type": "OMIODKONOMG",
        "scaleX": 2.4000000953674316,
        "scaleY": 2.4000000953674316,
        "scaleZ": 2.4000000953674316
      },
      "affectedByWorld": true
    },
    "combat": {
      "property": {
        "useCreatorProperty": true
      },
      "beHit": {
        "hitBloodEffect": "",
        "muteAllHit": true,
        "muteAllHitEffect": true,
        "muteAllHitText": true
      }
    },
    "combatTemplate": "",
    "abilities": [
      {
        "abilityID": "CreateDummy",
        "abilityName": "Avatar_Ambor_CreateDummy",
        "abilityOverride": ""
      },
      {
        "abilityID": "SpeedFix",
        "abilityName": "Avatar_Ambor_Dummy_Speed_Fix",
        "abilityOverride": ""
      }
    ],
    "timer": {
      "lifeTime": 10.0
    },
    "move": {
      "$type": "BFDBCCCADKH",
      "speed": 14.0,
      "syncToRemote": true,
      "angleOffHor": 27.0,
      "gravityOfAcceleration": 30.0,
      "GEBCKKDCGDP": "",
      "NKPHOKHJKGC": ""
    },
    "gadget": {
      "$type": "JENBBNKGGJP",
      "collision": {
        "targetType": "Enemy"
      },
      "triggerActions": [
        {
          "$type": "AILPBJHDHDG",
          "abilityName": "Avatar_Ambor_CreateDummy"
        }
      ]
    },
    "stateLayers": {
      "defaultLayer": {
        "$type": "GBGJJIIEMBD",
        "layerIndexName": "",
        "CPAANEIJCGD": "",
        "stateIDs": {
          "NormalMove": {
            "$type": "BEIEGKBABOF"
          }
        }
      }
    },
    "audio": {
      "$type": "DEGGADLMEOK",
      "overrideEmitterName": "",
      "animAudio": {}
    }
  },
  "Dummy_Throw_Temp_8M": {
    "$type": "CJKJIENLOHD",
    "common": {
      "effectAttachShape": {
        "$type": "OMIODKONOMG",
        "scaleX": 2.4000000953674316,
        "scaleY": 2.4000000953674316,
        "scaleZ": 2.4000000953674316
      },
      "affectedByWorld": true
    },
    "combat": {
      "property": {
        "useCreatorProperty": true
      },
      "beHit": {
        "hitBloodEffect": "",
        "muteAllHit": true,
        "muteAllHitEffect": true,
        "muteAllHitText": true
      }
    },
    "combatTemplate": "",
    "abilities": [
      {
        "abilityID": "CreateDummy",
        "abilityName": "Avatar_Ambor_CreateDummy",
        "abilityOverride": ""
      },
      {
        "abilityID": "SpeedFix",
        "abilityName": "Avatar_Ambor_Dummy_Speed_Fix",
        "abilityOverride": ""
      }
    ],
    "timer": {
      "lifeTime": 10.0
    },
    "move": {
      "$type": "BFDBCCCADKH",
      "speed": 15.0,
      "syncToRemote": true,
      "angleOffHor": 32.0,
      "gravityOfAcceleration": 30.0,
      "GEBCKKDCGDP": "",
      "NKPHOKHJKGC": ""
    },
    "gadget": {
      "$type": "JENBBNKGGJP",
      "collision": {
        "targetType": "Enemy"
      },
      "triggerActions": [
        {
          "$type": "AILPBJHDHDG",
          "abilityName": "Avatar_Ambor_CreateDummy"
        }
      ]
    },
    "stateLayers": {
      "defaultLayer": {
        "$type": "GBGJJIIEMBD",
        "layerIndexName": "",
        "CPAANEIJCGD": "",
        "stateIDs": {
          "NormalMove": {
            "$type": "BEIEGKBABOF"
          }
        }
      }
    },
    "audio": {
      "$type": "DEGGADLMEOK",
      "overrideEmitterName": "",
      "animAudio": {}
    }
  },
  "Dummy_Throw_Temp_9M": {
    "$type": "CJKJIENLOHD",
    "common": {
      "effectAttachShape": {
        "$type": "OMIODKONOMG",
        "scaleX": 2.4000000953674316,
        "scaleY": 2.4000000953674316,
        "scaleZ": 2.4000000953674316
      },
      "affectedByWorld": true
    },
    "combat": {
      "property": {
        "useCreatorProperty": true
      },
      "beHit": {
        "hitBloodEffect": "",
        "muteAllHit": true,
        "muteAllHitEffect": true,
        "muteAllHitText": true
      }
    },
    "combatTemplate": "",
    "abilities": [
      {
        "abilityID": "CreateDummy",
        "abilityName": "Avatar_Ambor_CreateDummy",
        "abilityOverride": ""
      },
      {
        "abilityID": "SpeedFix",
        "abilityName": "Avatar_Ambor_Dummy_Speed_Fix",
        "abilityOverride": ""
      }
    ],
    "timer": {
      "lifeTime": 10.0
    },
    "move": {
      "$type": "BFDBCCCADKH",
      "speed": 16.5,
      "syncToRemote": true,
      "angleOffHor": 36.0,
      "gravityOfAcceleration": 30.0,
      "GEBCKKDCGDP": "",
      "NKPHOKHJKGC": ""
    },
    "gadget": {
      "$type": "JENBBNKGGJP",
      "collision": {
        "targetType": "Enemy"
      },
      "triggerActions": [
        {
          "$type": "AILPBJHDHDG",
          "abilityName": "Avatar_Ambor_CreateDummy"
        }
      ]
    },
    "stateLayers": {
      "defaultLayer": {
        "$type": "GBGJJIIEMBD",
        "layerIndexName": "",
        "CPAANEIJCGD": "",
        "stateIDs": {
          "NormalMove": {
            "$type": "BEIEGKBABOF"
          }
        }
      }
    },
    "audio": {
      "$type": "DEGGADLMEOK",
      "overrideEmitterName": "",
      "animAudio": {}
    }
  },
  "Dummy_Throw_Temp_10M": {
    "$type": "CJKJIENLOHD",
    "common": {
      "effectAttachShape": {
        "$type": "OMIODKONOMG",
        "scaleX": 2.4000000953674316,
        "scaleY": 2.4000000953674316,
        "scaleZ": 2.4000000953674316
      },
      "affectedByWorld": true
    },
    "combat": {
      "property": {
        "useCreatorProperty": true
      },
      "beHit": {
        "hitBloodEffect": "",
        "muteAllHit": true,
        "muteAllHitEffect": true,
        "muteAllHitText": true
      }
    },
    "combatTemplate": "",
    "abilities": [
      {
        "abilityID": "CreateDummy",
        "abilityName": "Avatar_Ambor_CreateDummy",
        "abilityOverride": ""
      },
      {
        "abilityID": "SpeedFix",
        "abilityName": "Avatar_Ambor_Dummy_Speed_Fix",
        "abilityOverride": ""
      }
    ],
    "timer": {
      "lifeTime": 10.0
    },
    "move": {
      "$type": "BFDBCCCADKH",
      "speed": 18.0,
      "syncToRemote": true,
      "angleOffHor": 40.0,
      "gravityOfAcceleration": 30.0,
      "GEBCKKDCGDP": "",
      "NKPHOKHJKGC": ""
    },
    "gadget": {
      "$type": "JENBBNKGGJP",
      "collision": {
        "targetType": "Enemy"
      },
      "triggerActions": [
        {
          "$type": "AILPBJHDHDG",
          "abilityName": "Avatar_Ambor_CreateDummy"
        }
      ]
    },
    "stateLayers": {
      "defaultLayer": {
        "$type": "GBGJJIIEMBD",
        "layerIndexName": "",
        "CPAANEIJCGD": "",
        "stateIDs": {
          "NormalMove": {
            "$type": "BEIEGKBABOF"
          }
        }
      }
    },
    "audio": {
      "$type": "DEGGADLMEOK",
      "overrideEmitterName": "",
      "animAudio": {}
    }
  }
}
