{
  "SceneObj_Area_Xm_Property_Ani_Prop_SporePile_01": {
    "$type": "CJKJIENLOHD",
    "common": {
      "effectAttachShape": {
        "$type": "OMIODKONOMG",
        "scaleX": 1.5,
        "scaleY": 1.5,
        "scaleZ": 0.4000000059604645
      },
      "viewSize": 2.0,
      "affectedByWorld": true
    },
    "hasModel": true,
    "combat": {
      "property": {
        "hp": 99999.0,
        "attack": 20.0,
        "weight": 50.0,
        "isInvincible": true
      },
      "beHit": {
        "hitBloodEffect": "",
        "muteAllHit": true,
        "muteAllHitEffect": true
      },
      "combatLock": {
        "lockShape": "CircleLockEnemy",
        "denyLockOn": true,
        "lockType": "Gadget_Lv1"
      },
      "die": {
        "dieEndTime": 0.30000001192092896,
        "dieForceDisappearTime": 0.4000000059604645,
        "dieDisappearEffect": ""
      }
    },
    "combatTemplate": "",
    "abilities": [
      {
        "abilityID": "",
        "abilityName": "SceneObj_Area_Xm_Property_Ani_Prop_SporePile_01_Ability",
        "abilityOverride": ""
      }
    ]
  },
  "SceneObj_Area_Xm_Property_Ani_Prop_FungusSporePile_01": {
    "$type": "CJKJIENLOHD",
    "hasModel": true,
    "combat": {
      "property": {
        "hp": 99999.0,
        "attack": 20.0,
        "weight": 50.0,
        "isInvincible": true,
        "isGhostToAllied": true,
        "isGhostToEnemy": true
      },
      "beHit": {
        "hitBloodEffect": "",
        "muteAllHit": true,
        "muteAllHitEffect": true
      },
      "combatLock": {
        "lockShape": "CircleLockEnemy",
        "denyLockOn": true,
        "lockType": "Gadget_Lv1"
      },
      "die": {
        "dieEndTime": 2.0,
        "dieForceDisappearTime": 2.4000000953674316,
        "dieDisappearEffect": ""
      }
    },
    "combatTemplate": "",
    "abilities": [
      {
        "abilityID": "",
        "abilityName": "SceneObj_Area_Xm_Property_Ani_Prop_FungusSporePile_01_Ability",
        "abilityOverride": ""
      }
    ],
    "uiInteract": {
      "gadgetUIBtnCfgPath": "TEST/TEST_Chest_Btn",
      "uiName": "",
      "onTouch": "WidgetMPSupport",
      "touchParams": [
        "SceneObj_Area_Xm_Property_Ani_Prop_FungusSporePile_01_Ability"
      ],
      "icon": "",
      "groupName": "",
      "confirmDialogTitle": "",
      "confirmDialogContent": ""
    },
    "intee": {
      "KAMIAMNMFCP": ""
    }
  },
  "SceneObj_Area_Xm_Property_Ani_Prop_AranaraPillarSpore_01": {
    "$type": "CJKJIENLOHD",
    "combatTemplate": "default",
    "abilities": [
      {
        "abilityID": "",
        "abilityName": "SceneObj_Area_Xm_Property_Ani_Prop_AranaraPillarSpore_01_Ability",
        "abilityOverride": ""
      }
    ]
  },
  "SceneObj_Area_Xm_Property_Prop_AranaraStrike_01": {
    "$type": "CJKJIENLOHD",
    "combat": {
      "property": {
        "hp": 99999.0,
        "isInvincible": true,
        "isLockHP": true,
        "isGhostToAllied": true,
        "isGhostToEnemy": true
      },
      "combatLock": {
        "lockShape": "CircleLockEnemy",
        "denyLockOn": true,
        "lockType": "Default"
      }
    },
    "combatTemplate": "",
    "abilities": [
      {
        "abilityID": "",
        "abilityName": "SceneObj_Area_Xm_Property_Prop_AranaraStrike_01_Ability",
        "abilityOverride": ""
      }
    ]
  },
  "SceneObj_Area_Xm_Property_Ani_Prop_VarunaValve_01": {
    "$type": "CJKJIENLOHD",
    "model": {
      "bornEffect": "",
      "attachEffect": "Eff_ScenObj_VarunaValve_Light",
      "BKPFGNPLDNJ": ""
    },
    "hasModel": true,
    "combat": {
      "property": {
        "hp": 99999.0,
        "isInvincible": true,
        "isLockHP": true,
        "isGhostToAllied": true,
        "isGhostToEnemy": true
      },
      "combatLock": {
        "lockShape": "CircleLockEnemy",
        "denyLockOn": true,
        "lockType": "Default"
      }
    },
    "combatTemplate": "",
    "abilities": [
      {
        "abilityID": "",
        "abilityName": "SceneObj_Area_Xm_Property_Ani_Prop_VarunaValve_01_Ability",
        "abilityOverride": ""
      }
    ],
    "uiInteract": {
      "gadgetUIBtnCfgPath": "TEST/TEST_Chest_Btn",
      "uiName": "",
      "onTouch": "WidgetMPSupport",
      "touchParams": [
        "SceneObj_Area_Xm_Property_Ani_Prop_VarunaValve_01_Ability"
      ],
      "showCondTypes": ["HOST"],
      "icon": "",
      "groupName": "",
      "confirmDialogTitle": "",
      "confirmDialogContent": ""
    },
    "stateLayers": {
      "defaultLayer": {
        "$type": "GBGJJIIEMBD",
        "layerIndexName": "",
        "CPAANEIJCGD": "",
        "stateIDs": {
          "All": {
            "$type": "BEIEGKBABOF",
            "animatorStates": {
              "Keep0": [],
              "Keep120": [],
              "Keep240": []
            },
            "cullingModelAlwaysAnimate": true
          },
          "Turn": {
            "$type": "BEIEGKBABOF",
            "animatorStates": {
              "0to120": [],
              "120to240": [],
              "240to0": []
            },
            "cullingModelAlwaysAnimate": true
          }
        }
      }
    },
    "gadgetAction": {
      "gadgetStateActionList": [
        {
          "$type": "FJGKLJLPOGL",
          "intID": "GadgetState",
          "syncState": true
        }
      ]
    },
    "intee": {
      "KAMIAMNMFCP": ""
    }
  },
  "SceneObj_Area_Xm_Property_Ani_Prop_VarunaValve_01_Dream": {
    "$type": "CJKJIENLOHD",
    "hasModel": true,
    "combat": {
      "property": {
        "hp": 99999.0,
        "isInvincible": true,
        "isLockHP": true,
        "isGhostToAllied": true,
        "isGhostToEnemy": true
      },
      "combatLock": {
        "lockShape": "CircleLockEnemy",
        "denyLockOn": true,
        "lockType": "Default"
      }
    },
    "combatTemplate": "",
    "abilities": [
      {
        "abilityID": "",
        "abilityName": "SceneObj_Area_Xm_Property_Ani_Prop_VarunaValve_01_Dream",
        "abilityOverride": ""
      }
    ],
    "uiInteract": {
      "gadgetUIBtnCfgPath": "TEST/TEST_Chest_Btn",
      "uiName": "",
      "onTouch": "WidgetMPSupport",
      "touchParams": [
        "SceneObj_Area_Xm_Property_Ani_Prop_VarunaValve_01_Dream"
      ],
      "showCondTypes": ["HOST"],
      "icon": "",
      "groupName": "",
      "confirmDialogTitle": "",
      "confirmDialogContent": ""
    },
    "stateLayers": {
      "defaultLayer": {
        "$type": "GBGJJIIEMBD",
        "layerIndexName": "",
        "CPAANEIJCGD": "",
        "stateIDs": {
          "All": {
            "$type": "BEIEGKBABOF",
            "animatorStates": {
              "Keep0": [],
              "Keep120": [],
              "Keep240": []
            },
            "cullingModelAlwaysAnimate": true
          },
          "Turn": {
            "$type": "BEIEGKBABOF",
            "animatorStates": {
              "0to120": [],
              "120to240": [],
              "240to0": []
            },
            "cullingModelAlwaysAnimate": true
          }
        }
      }
    },
    "gadgetAction": {
      "gadgetStateActionList": [
        {
          "$type": "FJGKLJLPOGL",
          "intID": "GadgetState",
          "syncState": true
        }
      ]
    },
    "intee": {
      "KAMIAMNMFCP": ""
    }
  },
  "SceneObj_Area_Xm_Property_Ani_Prop_VarunaStone_01": {
    "$type": "CJKJIENLOHD",
    "model": {
      "bornEffect": "",
      "attachEffect": "Eff_ScenObj_VarunaStone_Light",
      "BKPFGNPLDNJ": ""
    },
    "hasModel": true,
    "combat": {
      "property": {
        "hp": 99999.0,
        "isInvincible": true,
        "isLockHP": true,
        "isGhostToAllied": true,
        "isGhostToEnemy": true
      },
      "combatLock": {
        "lockShape": "CircleLockEnemy",
        "denyLockOn": true,
        "lockType": "Default"
      }
    },
    "combatTemplate": "",
    "abilities": [
      {
        "abilityID": "",
        "abilityName": "SceneObj_Area_Xm_Property_Ani_Prop_VarunaStone_01_Ability",
        "abilityOverride": ""
      }
    ]
  },
  "SceneObj_Area_Xm_Property_Water_VarunaMovingWaterPlane_01": {
    "$type": "CJKJIENLOHD",
    "common": {
      "disableTickDistance": 10000.0
    },
    "hasModel": true,
    "combat": {
      "property": {
        "hp": 1000.0,
        "attack": 100.0,
        "weight": 50.0,
        "isLockHP": true
      },
      "beHit": {
        "hitBloodEffect": "",
        "hitAutoRedirect": false,
        "muteAllHitEffect": true,
        "muteAllHitText": true
      },
      "combatLock": {
        "lockShape": "CircleLockEnemy",
        "denyLockOn": true,
        "lockType": "Gadget_Lv1"
      },
      "die": {
        "dieForceDisappearTime": 0.0,
        "dieDisappearEffect": ""
      }
    },
    "combatTemplate": "",
    "move": {
      "$type": "OEFHHKHPMCJ",
      "isMovingWater": true
    }
  },
  "SceneObj_Area_Xm_Property_Water_CaveNoRPR120": {
    "$type": "CJKJIENLOHD",
    "common": {
      "disableTickDistance": 10000.0
    },
    "hasModel": true,
    "combat": {
      "property": {
        "hp": 1000.0,
        "attack": 100.0,
        "weight": 50.0,
        "isLockHP": true
      },
      "beHit": {
        "hitBloodEffect": "",
        "hitAutoRedirect": false,
        "muteAllHitEffect": true,
        "muteAllHitText": true
      },
      "combatLock": {
        "lockShape": "CircleLockEnemy",
        "denyLockOn": true,
        "lockType": "Gadget_Lv1"
      },
      "die": {
        "dieForceDisappearTime": 0.0,
        "dieDisappearEffect": ""
      }
    },
    "combatTemplate": "",
    "move": {
      "$type": "OEFHHKHPMCJ",
      "isMovingWater": true
    }
  },
  "SceneObj_Area_Xm_Property_Prop_VarunaDevice_01": {
    "$type": "CJKJIENLOHD",
    "combat": {
      "property": {
        "hp": 99999.0,
        "isInvincible": true,
        "isLockHP": true,
        "isGhostToAllied": true,
        "isGhostToEnemy": true
      },
      "combatLock": {
        "lockShape": "CircleLockEnemy",
        "denyLockOn": true,
        "lockType": "Default"
      }
    },
    "combatTemplate": "",
    "abilities": [
      {
        "abilityID": "Ability_01",
        "abilityName": "SceneObj_Area_Xm_Property_Prop_VarunaDevice_01_Ability",
        "abilityOverride": ""
      }
    ]
  },
  "SceneObj_Area_Xm_Property_Prop_VarunaDevice_02": {
    "$type": "CJKJIENLOHD",
    "common": {
      "viewSize": 0.800000011920929
    },
    "hasModel": true,
    "combat": {
      "property": {
        "hp": 99999.0,
        "isInvincible": true,
        "isLockHP": true,
        "isGhostToAllied": true,
        "isGhostToEnemy": true
      },
      "combatLock": {
        "lockShape": "CircleLockEnemy",
        "denyLockOn": true,
        "lockType": "Default"
      }
    },
    "combatTemplate": "",
    "abilities": [
      {
        "abilityID": "Ability_01",
        "abilityName": "SceneObj_Area_Xm_Property_Prop_VarunaDevice_02_Ability",
        "abilityOverride": ""
      }
    ]
  },
  "SceneObj_Area_Xm_Property_Ani_Prop_VarunaWaterspout_01": {
    "$type": "CJKJIENLOHD",
    "combat": {
      "property": {
        "hp": 99999.0,
        "isLockHP": true
      },
      "combatLock": {
        "lockShape": "CircleLockEnemy",
        "denyLockOn": true,
        "lockType": "Default"
      }
    },
    "combatTemplate": "",
    "abilities": [
      {
        "abilityID": "ability_01",
        "abilityName": "SceneObj_Area_Xm_Property_Ani_Prop_VarunaWaterspout_01_Ability",
        "abilityOverride": ""
      }
    ]
  },
  "SceneObj_Area_Xm_Property_Ani_Prop_VarunaWaterspout_02": {
    "$type": "CJKJIENLOHD",
    "combat": {
      "property": {
        "hp": 99999.0,
        "isLockHP": true
      },
      "combatLock": {
        "lockShape": "CircleLockEnemy",
        "denyLockOn": true,
        "lockType": "Default"
      }
    },
    "combatTemplate": "",
    "abilities": [
      {
        "abilityID": "ability_01",
        "abilityName": "SceneObj_Area_Xm_Property_Ani_Prop_VarunaWaterspout_02_Ability",
        "abilityOverride": ""
      }
    ]
  },
  "SceneObj_Area_Xm_Property_Ani_Prop_VarunaCover_01": {
    "$type": "CJKJIENLOHD",
    "combat": {
      "property": {
        "hp": 99999.0,
        "isLockHP": true
      },
      "combatLock": {
        "lockShape": "CircleLockEnemy",
        "denyLockOn": true,
        "lockType": "Default"
      }
    },
    "combatTemplate": "",
    "abilities": [
      {
        "abilityID": "ability_01",
        "abilityName": "SceneObj_Area_Xm_Property_Ani_Prop_VarunaCover_01_Ability",
        "abilityOverride": ""
      }
    ]
  },
  "SceneObj_Area_Xm_Property_Ani_Prop_SumeruBubble_01": {
    "$type": "CJKJIENLOHD",
    "combatTemplate": "canBeAttacked",
    "abilities": [
      {
        "abilityID": "Ability_01",
        "abilityName": "SceneObj_Area_Xm_Property_Ani_Prop_SumeruBubble_01_Ability",
        "abilityOverride": ""
      }
    ],
    "field": {
      "concernType": "AllAvatars",
      "shape": "",
      "fromShape": "",
      "triggerInfinite": true,
      "lifeInfinite": true,
      "checkInterval": 0.20000000298023224,
      "overwriteCampType": true,
      "campType": "All",
      "colliderName": "Trigger",
      "fromColliderName": ""
    }
  },
  "SceneObj_Area_Xm_Property_Prop_RootPot_01": {
    "$type": "CJKJIENLOHD",
    "combatTemplate": "default",
    "abilities": [
      {
        "abilityID": "Ability_01",
        "abilityName": "SceneObj_Area_Xm_Property_Prop_RootPot_01_Ability",
        "abilityOverride": ""
      }
    ],
    "stateLayers": {
      "defaultLayer": {
        "$type": "GBGJJIIEMBD",
        "layerIndexName": "",
        "CPAANEIJCGD": "",
        "stateIDs": {
          "All": {
            "$type": "BEIEGKBABOF",
            "animatorStates": {
              "Ani_Prop_RootPot_MoveDown": [],
              "Ani_Prop_RootPot_MoveUp": [],
              "Ani_Prop_RootPot_Down": [],
              "Ani_Prop_RootPot_Up": []
            },
            "cullingModelAlwaysAnimate": true
          }
        }
      }
    },
    "gadgetAction": {
      "gadgetStateActionList": [
        {
          "$type": "FJGKLJLPOGL",
          "intID": "GadgetState",
          "syncState": true
        }
      ]
    }
  }
}
