{
  "SceneObj_Area_Ljxs_Property_Ani_Prop_IceSolidBulk_03": {
    "$type": "CJKJIENLOHD",
    "hasModel": true,
    "combat": {
      "property": {
        "hp": 99999.0,
        "weight": 50.0,
        "isLockHP": true,
        "isGhostToAllied": true
      },
      "beHit": {
        "hitBloodEffect": "",
        "hitAutoRedirect": false,
        "muteAllHitText": true
      },
      "combatLock": {
        "lockShape": "CircleLockEnemy",
        "lockType": "Gadget_Lv1"
      },
      "die": {
        "dieEndTime": 0.10000000149011612,
        "dieForceDisappearTime": 0.10000000149011612,
        "dieDisappearEffect": "Eff_Item_Ore_Destroy"
      }
    },
    "combatTemplate": "",
    "abilities": [
      {
        "abilityID": "SceneObj_Area_Ljxs_Property_Ani_Prop_IceSolidBulk_03",
        "abilityName": "SceneObj_Area_Ljxs_Property_Ani_Prop_IceSolidBulk_03",
        "abilityOverride": ""
      }
    ],
    "billboard": {
      "$type": "DNGNMAJBCNP",
      "attachPoint": "BillboardAttach",
      "offset": {
        "y": 1.5
      },
      "radiusOffset": 1.0,
      "showHPBar": true,
      "shieldBarOnly": true
    }
  },
  "SceneObj_Area_Common_Property_Ani_Prop_IceSolidBulk_01": {
    "$type": "CJKJIENLOHD",
    "hasModel": true,
    "combat": {
      "property": {
        "hp": 99999.0,
        "weight": 50.0,
        "isLockHP": true,
        "isGhostToAllied": true
      },
      "beHit": {
        "hitBloodEffect": "",
        "hitAutoRedirect": false,
        "muteAllHitText": true
      },
      "combatLock": {
        "lockShape": "CircleLockEnemy",
        "lockType": "Gadget_Lv1"
      },
      "die": {
        "dieEndTime": 0.10000000149011612,
        "dieForceDisappearTime": 0.10000000149011612,
        "dieDisappearEffect": "Eff_SceneObj_IceSolidBulk_01_Die"
      }
    },
    "combatTemplate": "",
    "abilities": [
      {
        "abilityID": "SceneObj_Area_Common_Property_Ani_Prop_IceSolidBulk_01",
        "abilityName": "SceneObj_Area_Common_Property_Ani_Prop_IceSolidBulk_01",
        "abilityOverride": ""
      }
    ],
    "billboard": {
      "$type": "DNGNMAJBCNP",
      "attachPoint": "BillboardAttach",
      "offset": {
        "y": 1.5
      },
      "radiusOffset": 1.0,
      "showHPBar": true,
      "shieldBarOnly": true
    }
  },
  "SceneObj_Area_Common_Property_Ani_Prop_IceSolidBulk_02": {
    "$type": "CJKJIENLOHD",
    "hasModel": true,
    "combat": {
      "property": {
        "hp": 99999.0,
        "weight": 50.0,
        "isLockHP": true,
        "isGhostToAllied": true
      },
      "beHit": {
        "hitBloodEffect": "",
        "hitAutoRedirect": false,
        "muteAllHitText": true
      },
      "combatLock": {
        "lockShape": "CircleLockEnemy",
        "lockType": "Gadget_Lv1"
      },
      "die": {
        "dieEndTime": 0.10000000149011612,
        "dieForceDisappearTime": 0.10000000149011612,
        "dieDisappearEffect": "Eff_SceneObj_IceSolidBulk_02_Die"
      }
    },
    "combatTemplate": "",
    "abilities": [
      {
        "abilityID": "SceneObj_Area_Common_Property_Ani_Prop_IceSolidBulk_02",
        "abilityName": "SceneObj_Area_Common_Property_Ani_Prop_IceSolidBulk_02",
        "abilityOverride": ""
      }
    ],
    "billboard": {
      "$type": "DNGNMAJBCNP",
      "attachPoint": "BillboardAttach",
      "offset": {
        "y": 1.5
      },
      "radiusOffset": 1.0,
      "showHPBar": true,
      "shieldBarOnly": true
    }
  },
  "SceneObj_Area_Ljxs_Property_Ani_Prop_CelestiaClusterSmall_01": {
    "$type": "CJKJIENLOHD",
    "model": {
      "bornEffect": "",
      "attachEffect": "Eff_SceneObj_CelestiaClusterSmall_01_Broken",
      "BKPFGNPLDNJ": ""
    },
    "hasModel": true,
    "combat": {
      "property": {
        "hp": 99999.0,
        "weight": 50.0,
        "isLockHP": true,
        "isGhostToAllied": true
      },
      "beHit": {
        "hitBloodEffect": "",
        "hitAutoRedirect": false,
        "muteAllHitText": true
      },
      "combatLock": {
        "lockShape": "CircleLockEnemy",
        "lockType": "Gadget_Lv1"
      },
      "die": {
        "dieEndTime": 0.10000000149011612,
        "dieForceDisappearTime": 0.10000000149011612,
        "dieDisappearEffect": ""
      }
    },
    "combatTemplate": "",
    "abilities": [
      {
        "abilityID": "SceneObj_Area_Ljxs_Property_Ani_Prop_CelestiaClusterSmall_01",
        "abilityName": "SceneObj_Area_Ljxs_Property_Ani_Prop_CelestiaClusterSmall_01",
        "abilityOverride": ""
      }
    ],
    "stateLayers": {
      "defaultLayer": {
        "$type": "GBGJJIIEMBD",
        "layerIndexName": "",
        "CPAANEIJCGD": "",
        "stateIDs": {
          "All": {
            "$type": "BEIEGKBABOF",
            "animatorStates": {
              "Phase1": [
                "CelestiaClusterSmall_p1_Appear",
                "CelestiaClusterSmall_p2_Appear",
                "CelestiaClusterSmall_p3_Appear"
              ],
              "Phase2": [
                "CelestiaClusterSmall_p1_Disappear",
                "CelestiaClusterSmall_p2_Appear",
                "CelestiaClusterSmall_p3_Appear"
              ],
              "Phase3": [
                "CelestiaClusterSmall_p1_Disappear",
                "CelestiaClusterSmall_p2_Disappear",
                "CelestiaClusterSmall_p3_Appear"
              ],
              "Phase4": [
                "CelestiaClusterSmall_p1_Disappear",
                "CelestiaClusterSmall_p2_Disappear",
                "CelestiaClusterSmall_p3_Disappear"
              ]
            }
          }
        }
      }
    },
    "gadgetAction": {
      "gadgetStateActionList": [
        {
          "$type": "FJGKLJLPOGL",
          "intID": "GadgetState",
          "syncState": true
        }
      ]
    },
    "billboard": {
      "$type": "DNGNMAJBCNP",
      "attachPoint": "BillboardAttach",
      "offset": {
        "y": 3.5
      },
      "radiusOffset": 1.0,
      "showHPBar": true,
      "size": "Grand",
      "shieldBarOnly": true
    }
  },
  "SceneObj_Area_Ljxs_Property_Ani_Prop_CelestiaClusterSmallCore_01": {
    "$type": "CJKJIENLOHD",
    "model": {
      "bornEffect": "",
      "attachEffect": "Eff_SceneObj_CelestiaClusterSmall_01_Trail",
      "BKPFGNPLDNJ": ""
    },
    "hasModel": true,
    "combat": {
      "property": {
        "hp": 99999.0,
        "attack": 200.0,
        "weight": 50.0,
        "isInvincible": true,
        "isLockHP": true
      },
      "beHit": {
        "hitBloodEffect": "",
        "hitAutoRedirect": false,
        "muteAllHitText": true
      },
      "combatLock": {
        "lockShape": "CircleLockEnemy",
        "denyLockOn": true,
        "lockType": "Gadget_Lv1"
      },
      "die": {
        "dieForceDisappearTime": 3.0,
        "dieDisappearEffect": ""
      }
    },
    "combatTemplate": "",
    "abilities": [
      {
        "abilityID": "SceneObj_Area_Ljxs_Property_Ani_Prop_CelestiaClusterSmallCore_01",
        "abilityName": "SceneObj_Area_Ljxs_Property_Ani_Prop_CelestiaClusterSmallCore_01",
        "abilityOverride": ""
      }
    ],
    "field": {
      "concernType": "LocalAvatar",
      "shape": "CircleR2",
      "fromShape": "",
      "triggerInfinite": true,
      "lifeInfinite": true,
      "checkInterval": 0.5,
      "overwriteCampType": true,
      "campType": "SelfCamp",
      "colliderName": "",
      "fromColliderName": ""
    },
    "misc": {
      "escapeEffect": "",
      "targetIndicatorYOffset": 1.350000023841858
    }
  },
  "SceneObj_Gear_Platform_FireSeelie": {
    "$type": "CJKJIENLOHD",
    "common": {
      "disableTickDistance": 1500.0
    },
    "combat": {
      "property": {
        "hp": 1000.0,
        "attack": 100.0,
        "weight": 50.0,
        "isLockHP": true
      },
      "beHit": {
        "hitBloodEffect": "",
        "hitAutoRedirect": false,
        "muteAllHitEffect": true,
        "muteAllHitText": true
      },
      "combatLock": {
        "lockShape": "CircleLockEnemy",
        "denyLockOn": true,
        "lockType": "Gadget_Lv1"
      },
      "die": {
        "hasAnimatorDie": true,
        "dieDisappearEffect": ""
      }
    },
    "combatTemplate": "",
    "abilities": [
      {
        "abilityID": "ability_01",
        "abilityName": "SceneObj_Gear_Platform_FireSeelie",
        "abilityOverride": ""
      },
      {
        "abilityID": "Heat_Producer_Buff",
        "abilityName": "Heat_Producer_Buff",
        "abilityOverride": ""
      }
    ],
    "move": {
      "$type": "OEFHHKHPMCJ",
      "avatarTriggerEventDistance": 3.0
    },
    "audio": {
      "$type": "DEGGADLMEOK",
      "overrideEmitterName": "",
      "animAudio": {
        "onTransitionIn": [
          {
            "currentStateName": "Move",
            "audioEvent": {
              "text": "Play_amb_sceneObj_gear_seelie_move"
            }
          }
        ],
        "onTransitionOut": [
          {
            "currentStateName": "Move",
            "audioEvent": {
              "text": "Stop_amb_sceneObj_gear_seelie_move"
            }
          }
        ]
      },
      "disableEvent": {
        "text": ""
      },
      "destroyEvent": {
        "text": ""
      }
    },
    "gadgetAction": {
      "platformActionList": [
        {
          "$type": "FJGKLJLPOGL",
          "predicate": {
            "$type": "MMCKMEIDNBD",
            "isStart": true
          },
          "intID": "IsFlying",
          "value": 1
        },
        {
          "$type": "FJGKLJLPOGL",
          "predicate": {
            "$type": "MMCKMEIDNBD"
          },
          "intID": "IsFlying"
        }
      ]
    }
  },
  "FireElfTrack": {
    "$type": "CJKJIENLOHD",
    "combat": {
      "property": {
        "hp": 1000.0,
        "attack": 100.0,
        "weight": 50.0,
        "isLockHP": true,
        "isGhostToAllied": true,
        "isGhostToEnemy": true
      },
      "beHit": {
        "hitBloodEffect": "",
        "hitAutoRedirect": false,
        "muteAllHitEffect": true,
        "muteAllHitText": true
      },
      "combatLock": {
        "lockShape": "CircleLockEnemy",
        "denyLockOn": true,
        "lockType": "Gadget_Lv1"
      },
      "die": {
        "dieForceDisappearTime": 0.0,
        "dieDisappearEffect": ""
      }
    },
    "combatTemplate": "",
    "abilities": [
      {
        "abilityID": "FireElfTrack",
        "abilityName": "FireElfTrack",
        "abilityOverride": ""
      }
    ]
  },
  "SceneObj_Area_Common_Property_Prop_FireSeeliaLamp_01": {
    "$type": "CJKJIENLOHD",
    "hasModel": true,
    "combat": {
      "property": {
        "hp": 1000.0,
        "attack": 30.0,
        "isLockHP": true,
        "ignorePurgeRate": true
      },
      "beHit": {
        "hitBloodEffect": "",
        "hitAutoRedirect": false,
        "muteAllHitEffect": true
      },
      "combatLock": {
        "lockShape": "CircleLockEnemy",
        "denyLockOn": true,
        "lockType": "Gadget_Lv1"
      },
      "die": {
        "dieForceDisappearTime": 0.30000001192092896,
        "dieDisappearEffect": ""
      }
    },
    "combatTemplate": "",
    "abilities": [
      {
        "abilityID": "Ability_01",
        "abilityName": "SceneObj_Area_Common_Property_Prop_FireSeeliaLamp_01",
        "abilityOverride": ""
      }
    ],
    "field": {
      "concernType": "LocalAvatar",
      "shape": "CircleR2",
      "fromShape": "",
      "triggerInfinite": true,
      "lifeInfinite": true,
      "checkInterval": 0.5,
      "overwriteCampType": true,
      "campType": "SelfCamp",
      "colliderName": "",
      "fromColliderName": ""
    },
    "stateLayers": {
      "defaultLayer": {
        "$type": "GBGJJIIEMBD",
        "layerIndexName": "",
        "CPAANEIJCGD": "",
        "stateIDs": {
          "All": {
            "$type": "BEIEGKBABOF",
            "animatorStates": {
              "DeActive": ["Seelie_Body_Hide", "FireSeelie_Snow_Visible"],
              "Active": ["FireSeelie_Body_Visible", "FireSeelie_Snow_Unvisible"]
            }
          }
        }
      }
    },
    "audio": {
      "$type": "DEGGADLMEOK",
      "overrideEmitterName": "",
      "animAudio": {
        "onTransitionIn": [
          {
            "currentStateName": "GearStart",
            "audioEvent": {
              "text": "Play_amb_sceneObj_gear_seelieLamp_active_idle"
            }
          }
        ],
        "onTransitionOut": [
          {
            "currentStateName": "GearStart",
            "audioEvent": {
              "text": "Stop_amb_sceneObj_gear_seelieLamp_active_idle"
            }
          }
        ]
      },
      "disableEvent": {
        "text": ""
      },
      "destroyEvent": {
        "text": ""
      }
    },
    "gadgetAction": {
      "gadgetStateActionList": [
        {
          "$type": "FJGKLJLPOGL",
          "intID": "State"
        },
        {
          "$type": "FJGKLJLPOGL",
          "triggerID": "GearStart",
          "intID": "State",
          "value": 201
        },
        {
          "$type": "FJGKLJLPOGL",
          "triggerID": "GearAction1",
          "intID": "State",
          "value": 203
        }
      ]
    }
  },
  "SceneObj_Area_Common_Property_Ani_Prop_AncientHeatSource_01": {
    "$type": "CJKJIENLOHD",
    "common": {
      "affectedByWorld": true
    },
    "hasModel": true,
    "combat": {
      "property": {
        "hp": 99999.0,
        "attack": 20.0,
        "weight": 50.0,
        "isLockHP": true,
        "ignoreDamageToSelf": true
      },
      "beHit": {
        "hitBloodEffect": "",
        "hitAutoRedirect": false,
        "muteAllHitText": true
      },
      "combatLock": {
        "lockShape": "CircleLockEnemy",
        "denyLockOn": true,
        "lockType": "Gadget_Lv1"
      }
    },
    "combatTemplate": "",
    "abilities": [
      {
        "abilityID": "SceneObj_Area_Common_Property_Ani_Prop_AncientHeatSource_01",
        "abilityName": "SceneObj_Area_Common_Property_Ani_Prop_AncientHeatSource_01",
        "abilityOverride": ""
      }
    ],
    "stateLayers": {
      "defaultLayer": {
        "$type": "GBGJJIIEMBD",
        "layerIndexName": "",
        "CPAANEIJCGD": "",
        "stateIDs": {
          "IdleEffect": {
            "$type": "BEIEGKBABOF",
            "animatorStates": {
              "ActiveIdle": [],
              "ActiveIdleLimited": []
            }
          },
          "Warm": {
            "$type": "BEIEGKBABOF",
            "animatorStates": {
              "Active": [],
              "Active2Deactive": []
            }
          },
          "Lock": {
            "$type": "BEIEGKBABOF",
            "animatorStates": {
              "Lock": []
            }
          }
        }
      }
    },
    "gadgetAction": {
      "gadgetStateActionList": [
        {
          "$type": "FJGKLJLPOGL",
          "intID": "State",
          "syncState": true
        }
      ]
    }
  },
  "SceneObj_Area_Common_Property_Ani_Prop_AncientHeatSource_02": {
    "$type": "CJKJIENLOHD",
    "specialPoint": {
      "elementAbsorb": "RootNode",
      "elementPendant": "",
      "elementDrop": "RootNode",
      "bulletAim": "bulletAim"
    },
    "combat": {
      "property": {
        "hp": 5000.0,
        "attack": 20.0,
        "weight": 50.0,
        "ignoreDamageToSelf": true
      },
      "beHit": {
        "hitBloodEffect": "",
        "hitAutoRedirect": false
      },
      "combatLock": {
        "lockShape": "CircleLockEnemy",
        "denyLockOn": true,
        "lockType": "Gadget_Lv1"
      }
    },
    "combatTemplate": "",
    "abilities": [
      {
        "abilityID": "SceneObj_Area_Common_Property_Ani_Prop_AncientHeatSource_02",
        "abilityName": "SceneObj_Area_Common_Property_Ani_Prop_AncientHeatSource_02",
        "abilityOverride": ""
      }
    ],
    "billboard": {
      "$type": "DNGNMAJBCNP",
      "attachPoint": "RootNode",
      "offset": {
        "y": 1.5
      },
      "radiusOffset": 1.0,
      "enableSelfAdapt": true,
      "showDistance": 48.0,
      "showHPBar": true,
      "size": "Grand"
    }
  },
  "SceneObj_Area_Common_Property_Ani_Prop_AncientHeatSource_03": {
    "$type": "CJKJIENLOHD",
    "specialPoint": {
      "elementAbsorb": "RootNode",
      "elementPendant": "",
      "elementDrop": "RootNode",
      "bulletAim": "bulletAim"
    },
    "combat": {
      "property": {
        "hp": 5000.0,
        "attack": 20.0,
        "weight": 50.0,
        "ignoreDamageToSelf": true
      },
      "beHit": {
        "hitBloodEffect": "",
        "hitAutoRedirect": false
      },
      "combatLock": {
        "lockShape": "CircleLockEnemy",
        "denyLockOn": true,
        "lockType": "Gadget_Lv1"
      }
    },
    "combatTemplate": "",
    "abilities": [
      {
        "abilityID": "SceneObj_Area_Common_Property_Ani_Prop_AncientHeatSource_03",
        "abilityName": "SceneObj_Area_Common_Property_Ani_Prop_AncientHeatSource_03",
        "abilityOverride": ""
      }
    ],
    "billboard": {
      "$type": "DNGNMAJBCNP",
      "attachPoint": "RootNode",
      "offset": {
        "y": 1.5
      },
      "radiusOffset": 1.0,
      "enableSelfAdapt": true,
      "showDistance": 48.0,
      "showHPBar": true,
      "size": "Grand"
    }
  },
  "SceneObj_Area_Common_Property_Prop_HistoryBoard_01": {
    "$type": "CJKJIENLOHD",
    "common": {
      "affectedByWorld": true
    },
    "hasModel": true,
    "combat": {
      "property": {
        "hp": 99999.0,
        "attack": 20.0,
        "weight": 50.0,
        "isLockHP": true,
        "ignoreDamageToSelf": true
      },
      "beHit": {
        "hitBloodEffect": "",
        "hitAutoRedirect": false,
        "muteAllHitText": true
      },
      "combatLock": {
        "lockShape": "CircleLockEnemy",
        "denyLockOn": true,
        "lockType": "Gadget_Lv1"
      }
    },
    "combatTemplate": "",
    "abilities": [
      {
        "abilityID": "SceneObj_Area_Common_Property_Prop_HistoryBoard_01",
        "abilityName": "SceneObj_Area_Common_Property_Prop_HistoryBoard_01",
        "abilityOverride": ""
      }
    ],
    "gadgetAction": {
      "gadgetStateActionList": [
        {
          "$type": "FJGKLJLPOGL",
          "intID": "State",
          "syncState": true
        }
      ]
    }
  },
  "SceneObj_Area_Common_Property_Prop_HistoryBoard_Test": {
    "$type": "CJKJIENLOHD",
    "common": {
      "affectedByWorld": true
    },
    "hasModel": true,
    "combat": {
      "property": {
        "hp": 99999.0,
        "attack": 20.0,
        "weight": 50.0,
        "isLockHP": true,
        "ignoreDamageToSelf": true
      },
      "beHit": {
        "hitBloodEffect": "",
        "hitAutoRedirect": false,
        "muteAllHitText": true
      },
      "combatLock": {
        "lockShape": "CircleLockEnemy",
        "denyLockOn": true,
        "lockType": "Gadget_Lv1"
      }
    },
    "combatTemplate": "",
    "abilities": [
      {
        "abilityID": "SceneObj_Area_Common_Property_Prop_HistoryBoard_01",
        "abilityName": "SceneObj_Area_Common_Property_Prop_HistoryBoard_01",
        "abilityOverride": ""
      }
    ],
    "uiInteract": {
      "gadgetUIBtnCfgPath": "TEST/TEST_Chest_Btn",
      "uiName": "",
      "icon": "",
      "groupName": "",
      "confirmDialogTitle": "",
      "confirmDialogContent": "",
      "canInteractInCombat": false
    },
    "gadgetAction": {
      "gadgetStateActionList": [
        {
          "$type": "FJGKLJLPOGL",
          "intID": "State",
          "syncState": true
        }
      ]
    }
  },
  "SceneObj_Area_Ljxs_Property_Ani_Prop_SnowWindField_01": {
    "$type": "CJKJIENLOHD",
    "model": {
      "bornEffect": "",
      "attachEffect": "Eff_Item_IceSeed_WindField",
      "BKPFGNPLDNJ": ""
    },
    "hasModel": true,
    "combatTemplate": "",
    "abilities": [
      {
        "abilityID": "Element_IceSeedWind",
        "abilityName": "Element_IceSeedWind",
        "abilityOverride": ""
      }
    ],
    "misc": {
      "forceField": {
        "$type": "NJNBPMFBLMP",
        "specialTipsIconPath": "",
        "velocity": 10.0,
        "stayEffect": "Eff_Windfield_Stay",
        "enterEffect": "Eff_Windfield_Enter"
      },
      "escapeEffect": ""
    }
  },
  "SceneObj_Area_Ljxs_Property_Ani_Prop_SnowWindField_02": {
    "$type": "CJKJIENLOHD",
    "model": {
      "bornEffect": "",
      "attachEffect": "Eff_Item_IceSeed_WindField",
      "BKPFGNPLDNJ": ""
    },
    "hasModel": true,
    "combatTemplate": "",
    "abilities": [
      {
        "abilityID": "Element_IceSeedWind",
        "abilityName": "Element_IceSeedWind",
        "abilityOverride": ""
      }
    ],
    "timer": {
      "lifeTime": 12.0
    },
    "misc": {
      "forceField": {
        "$type": "NJNBPMFBLMP",
        "specialTipsIconPath": "",
        "velocity": 10.0,
        "stayEffect": "Eff_Windfield_Stay",
        "enterEffect": "Eff_Windfield_Enter"
      },
      "escapeEffect": ""
    }
  },
  "SceneObj_Stages_Property_Ani_Prop_IceTotem_01": {
    "$type": "CJKJIENLOHD",
    "hasModel": true,
    "combat": {
      "property": {
        "hp": 10000.0,
        "attack": 30.0,
        "isLockHP": true,
        "isGhostToAllied": true,
        "ignorePurgeRate": true
      },
      "beHit": {
        "hitBloodEffect": "",
        "hitAutoRedirect": false,
        "muteAllHitText": true
      },
      "combatLock": {
        "lockShape": "CircleLockEnemy",
        "denyLockOn": true,
        "lockType": "Gadget_Lv1"
      },
      "die": {
        "dieForceDisappearTime": 0.30000001192092896,
        "dieDisappearEffect": ""
      }
    },
    "combatTemplate": "",
    "abilities": [
      {
        "abilityID": "Ability_01",
        "abilityName": "SceneObj_Stages_Property_Ani_Prop_IceTotem_01",
        "abilityOverride": ""
      },
      {
        "abilityID": "Ability_02",
        "abilityName": "MonsterPowerUp_Amplifier_Ice02",
        "abilityOverride": ""
      }
    ],
    "stateLayers": {
      "defaultLayer": {
        "$type": "GBGJJIIEMBD",
        "layerIndexName": "",
        "CPAANEIJCGD": "",
        "stateIDs": {
          "All": {
            "$type": "BEIEGKBABOF",
            "animatorStates": {
              "HideCollider": ["HideCollider"],
              "Buffer": ["ShowCollider"]
            }
          }
        }
      }
    },
    "gadgetAction": {
      "gadgetStateActionList": [
        {
          "$type": "FJGKLJLPOGL",
          "intID": "gadgetState",
          "syncState": true
        }
      ]
    },
    "billboard": {
      "$type": "DNGNMAJBCNP",
      "attachPoint": "RootNode",
      "offset": {
        "y": 2.5
      },
      "radiusOffset": 3.0,
      "showDistance": 48.0,
      "showHPBar": true,
      "shieldBarOnly": true
    }
  },
  "SceneObj_Area_Ljxs_Property_Prop_CelestiaClusterBig_01": {
    "$type": "CJKJIENLOHD",
    "common": {
      "affectedByWorld": true
    },
    "hasModel": true,
    "combat": {
      "property": {
        "hp": 99999.0,
        "attack": 20.0,
        "weight": 50.0,
        "isLockHP": true,
        "ignoreDamageToSelf": true
      },
      "beHit": {
        "hitBloodEffect": "",
        "hitAutoRedirect": false,
        "muteAllHitText": true
      },
      "combatLock": {
        "lockShape": "CircleLockEnemy",
        "denyLockOn": true,
        "lockType": "Gadget_Lv1"
      }
    },
    "combatTemplate": "",
    "abilities": [
      {
        "abilityID": "SceneObj_Area_Ljxs_Property_Prop_CelestiaClusterBig_01",
        "abilityName": "SceneObj_Area_Ljxs_Property_Prop_CelestiaClusterBig_01",
        "abilityOverride": ""
      }
    ]
  },
  "SceneObj_Area_Common_Property_Prop_FrozenDefender_01": {
    "$type": "CJKJIENLOHD",
    "common": {
      "affectedByWorld": true
    },
    "hasModel": true,
    "combat": {
      "property": {
        "hp": 99999.0,
        "attack": 20.0,
        "weight": 50.0,
        "isLockHP": true,
        "ignoreDamageToSelf": true
      },
      "beHit": {
        "hitBloodEffect": "",
        "hitAutoRedirect": false,
        "muteAllHitText": true
      },
      "combatLock": {
        "lockShape": "CircleLockEnemy",
        "denyLockOn": true,
        "lockType": "Gadget_Lv1"
      }
    },
    "combatTemplate": "",
    "abilities": [
      {
        "abilityID": "SceneObj_Area_Common_Property_Prop_FrozenDefender_01",
        "abilityName": "SceneObj_Area_Common_Property_Prop_FrozenDefender_01",
        "abilityOverride": ""
      }
    ]
  },
  "SceneObj_Stages_Property_Ani_Prop_SnowPile_01": {
    "$type": "CJKJIENLOHD",
    "common": {
      "affectedByWorld": true
    },
    "model": {
      "bornEffect": "",
      "attachEffect": "Eff_SceneObj_Hint_01_Big",
      "BKPFGNPLDNJ": ""
    },
    "hasModel": true,
    "combat": {
      "property": {
        "hp": 99999.0,
        "attack": 20.0,
        "weight": 50.0,
        "isLockHP": true,
        "ignoreDamageToSelf": true
      },
      "beHit": {
        "hitBloodEffect": "",
        "hitAutoRedirect": false,
        "muteAllHitText": true
      },
      "combatLock": {
        "lockShape": "CircleLockEnemy",
        "denyLockOn": true,
        "lockType": "Gadget_Lv1"
      }
    },
    "combatTemplate": "",
    "abilities": [
      {
        "abilityID": "SceneObj_Stages_Property_Ani_Prop_SnowPile_01",
        "abilityName": "SceneObj_Stages_Property_Ani_Prop_SnowPile_01",
        "abilityOverride": ""
      }
    ]
  },
  "SceneObj_Stages_Property_Prop_IceStormR25": {
    "$type": "CJKJIENLOHD",
    "common": {
      "affectedByWorld": true
    },
    "model": {
      "bornEffect": "",
      "attachEffect": "Eff_SceneObj_IceStormR25_01",
      "BKPFGNPLDNJ": ""
    },
    "hasModel": true,
    "combat": {
      "property": {
        "hp": 99999.0,
        "attack": 20.0,
        "weight": 50.0,
        "isLockHP": true,
        "ignoreDamageToSelf": true
      },
      "beHit": {
        "hitBloodEffect": "",
        "hitAutoRedirect": false,
        "muteAllHitText": true
      },
      "combatLock": {
        "lockShape": "CircleLockEnemy",
        "denyLockOn": true,
        "lockType": "Gadget_Lv1"
      }
    },
    "combatTemplate": "",
    "abilities": [
      {
        "abilityID": "SceneObj_Stages_Property_Prop_IceStormR25",
        "abilityName": "SceneObj_Stages_Property_Prop_IceStormR25",
        "abilityOverride": ""
      }
    ],
    "field": {
      "concernType": "AllAvatars",
      "shape": "CircleR25",
      "fromShape": "",
      "triggerInfinite": true,
      "lifeInfinite": true,
      "checkInterval": 0.5,
      "overwriteCampType": true,
      "campType": "All",
      "colliderName": "",
      "fromColliderName": ""
    },
    "gadgetAction": {
      "gadgetStateActionList": [
        {
          "$type": "OLDOOKBEKJI",
          "parameter": "gadgetState",
          "damageRatio": "Int",
          "rotationDampTime": "Eff_SceneObj_IceStormR25_01"
        },
        {
          "$type": "OLDOOKBEKJI",
          "triggerID": "GearStop",
          "parameter": "gadgetState",
          "damageRatio": "Int",
          "value": 202,
          "rotationDampTime": "Eff_SceneObj_IceStormR25_01"
        }
      ]
    }
  },
  "Ice_Boss_Region": {
    "$type": "CJKJIENLOHD",
    "hasModel": true,
    "combat": {
      "property": {
        "hp": 99999.0,
        "attack": 20.0,
        "weight": 50.0,
        "isLockHP": true,
        "ignoreDamageToSelf": true
      },
      "beHit": {
        "hitBloodEffect": "",
        "hitAutoRedirect": false,
        "muteAllHitText": true
      },
      "combatLock": {
        "lockShape": "CircleLockEnemy",
        "denyLockOn": true,
        "lockType": "Gadget_Lv1"
      }
    },
    "combatTemplate": "",
    "abilities": [
      {
        "abilityID": "Ice_Boss_Region",
        "abilityName": "Ice_Boss_Region",
        "abilityOverride": ""
      }
    ],
    "field": {
      "concernType": "AllAvatars",
      "shape": "Ice_Boss_Region",
      "fromShape": "",
      "triggerInfinite": true,
      "lifeInfinite": true,
      "checkInterval": 0.5,
      "overwriteCampType": true,
      "campType": "All",
      "colliderName": "",
      "fromColliderName": ""
    }
  },
  "SceneObj_Stages_Property_Prop_IceStormR60": {
    "$type": "CJKJIENLOHD",
    "common": {
      "affectedByWorld": true
    },
    "model": {
      "bornEffect": "",
      "attachEffect": "Eff_SceneObj_SnowStorm_Peak",
      "BKPFGNPLDNJ": ""
    },
    "hasModel": true,
    "combat": {
      "property": {
        "hp": 99999.0,
        "attack": 20.0,
        "weight": 50.0,
        "isLockHP": true,
        "ignoreDamageToSelf": true
      },
      "beHit": {
        "hitBloodEffect": "",
        "hitAutoRedirect": false,
        "muteAllHitText": true
      },
      "combatLock": {
        "lockShape": "CircleLockEnemy",
        "denyLockOn": true,
        "lockType": "Gadget_Lv1"
      }
    },
    "combatTemplate": "",
    "abilities": [
      {
        "abilityID": "SceneObj_Stages_Property_Prop_IceStormR100",
        "abilityName": "SceneObj_Stages_Property_Prop_IceStormR100",
        "abilityOverride": ""
      }
    ],
    "field": {
      "concernType": "AllAvatars",
      "shape": "Circle_SnowMountain_Peak",
      "fromShape": "",
      "triggerInfinite": true,
      "lifeInfinite": true,
      "checkInterval": 0.5,
      "overwriteCampType": true,
      "campType": "All",
      "colliderName": "",
      "fromColliderName": ""
    },
    "gadgetAction": {
      "gadgetStateActionList": [
        {
          "$type": "OLDOOKBEKJI",
          "parameter": "gadgetState",
          "damageRatio": "Int",
          "rotationDampTime": "Eff_SceneObj_SnowStorm_01"
        },
        {
          "$type": "OLDOOKBEKJI",
          "triggerID": "GearStop",
          "parameter": "gadgetState",
          "damageRatio": "Int",
          "value": 202,
          "rotationDampTime": "Eff_SceneObj_SnowStorm_01"
        }
      ]
    }
  },
  "SceneObj_Stages_Property_Prop_SnowStormArea": {
    "$type": "CJKJIENLOHD",
    "common": {
      "affectedByWorld": true
    },
    "model": {
      "bornEffect": "",
      "attachEffect": "Eff_SceneObj_SnowStorm_01",
      "BKPFGNPLDNJ": ""
    },
    "hasModel": true,
    "combat": {
      "property": {
        "hp": 99999.0,
        "attack": 20.0,
        "weight": 50.0,
        "isLockHP": true,
        "ignoreDamageToSelf": true
      },
      "beHit": {
        "hitBloodEffect": "",
        "hitAutoRedirect": false,
        "muteAllHitText": true
      },
      "combatLock": {
        "lockShape": "CircleLockEnemy",
        "denyLockOn": true,
        "lockType": "Gadget_Lv1"
      }
    },
    "combatTemplate": "",
    "abilities": [
      {
        "abilityID": "SceneObj_Stages_Property_Prop_IceStormR60",
        "abilityName": "SceneObj_Stages_Property_Prop_IceStormR60",
        "abilityOverride": ""
      }
    ],
    "field": {
      "concernType": "AllAvatars",
      "shape": "CircleR60",
      "fromShape": "",
      "triggerInfinite": true,
      "lifeInfinite": true,
      "checkInterval": 0.5,
      "overwriteCampType": true,
      "campType": "All",
      "colliderName": "",
      "fromColliderName": ""
    }
  },
  "SceneObj_Stages_Property_Prop_WhiteIceStormR120": {
    "$type": "CJKJIENLOHD",
    "common": {
      "affectedByWorld": true
    },
    "model": {
      "bornEffect": "",
      "attachEffect": "Eff_SceneObj_SnowStorm_01_R120",
      "BKPFGNPLDNJ": ""
    },
    "hasModel": true,
    "combat": {
      "property": {
        "hp": 99999.0,
        "attack": 20.0,
        "weight": 50.0,
        "isLockHP": true,
        "ignoreDamageToSelf": true
      },
      "beHit": {
        "hitBloodEffect": "",
        "hitAutoRedirect": false,
        "muteAllHitText": true
      },
      "combatLock": {
        "lockShape": "CircleLockEnemy",
        "denyLockOn": true,
        "lockType": "Gadget_Lv1"
      }
    },
    "combatTemplate": "",
    "abilities": [
      {
        "abilityID": "SceneObj_Stages_Property_Prop_WhiteIceStormR120",
        "abilityName": "SceneObj_Stages_Property_Prop_WhiteIceStormR120",
        "abilityOverride": ""
      }
    ],
    "field": {
      "concernType": "AllAvatars",
      "shape": "CircleR120H60",
      "fromShape": "",
      "triggerInfinite": true,
      "lifeInfinite": true,
      "checkInterval": 0.5,
      "overwriteCampType": true,
      "campType": "All",
      "colliderName": "",
      "fromColliderName": ""
    },
    "gadgetAction": {
      "gadgetStateActionList": [
        {
          "$type": "OLDOOKBEKJI",
          "parameter": "gadgetState",
          "damageRatio": "Int",
          "rotationDampTime": "Eff_SceneObj_SnowStorm_01_R120"
        },
        {
          "$type": "OLDOOKBEKJI",
          "triggerID": "GearStop",
          "parameter": "gadgetState",
          "damageRatio": "Int",
          "value": 202,
          "rotationDampTime": "Eff_SceneObj_SnowStorm_01_R120"
        }
      ]
    }
  },
  "SceneObj_Stages_Property_Prop_RegisvineShield": {
    "$type": "CJKJIENLOHD",
    "common": {
      "affectedByWorld": true
    },
    "model": {
      "bornEffect": "",
      "attachEffect": "Eff_SceneObj_RegisvineShield_01",
      "BKPFGNPLDNJ": ""
    },
    "hasModel": true,
    "combat": {
      "property": {
        "hp": 99999.0,
        "attack": 20.0,
        "weight": 50.0,
        "isLockHP": true,
        "ignoreDamageToSelf": true
      },
      "beHit": {
        "hitBloodEffect": "",
        "hitAutoRedirect": false,
        "muteAllHitText": true
      },
      "combatLock": {
        "lockShape": "CircleLockEnemy",
        "denyLockOn": true,
        "lockType": "Gadget_Lv1"
      },
      "die": {
        "dieEndTime": 0.10000000149011612,
        "dieForceDisappearTime": 0.10000000149011612,
        "dieDisappearEffect": "Eff_SceneObj_RegisvineShield_01_Disappear"
      }
    },
    "combatTemplate": "",
    "abilities": [
      {
        "abilityID": "SceneObj_Stages_Property_Prop_RegisvineShield",
        "abilityName": "SceneObj_Stages_Property_Prop_RegisvineShield",
        "abilityOverride": ""
      },
      {
        "abilityID": "Ability_02",
        "abilityName": "Scene_RockGadget_Summon_Detect",
        "abilityOverride": ""
      }
    ]
  },
  "SceneObj_Stages_Property_Prop_IceShieldInactivated": {
    "$type": "CJKJIENLOHD",
    "common": {
      "affectedByWorld": true
    },
    "model": {
      "bornEffect": "Eff_SceneObj_Common_AppearMask_01",
      "attachEffect": "",
      "BKPFGNPLDNJ": ""
    },
    "hasModel": true,
    "combat": {
      "property": {
        "hp": 1000.0,
        "attack": 20.0,
        "weight": 50.0,
        "ignoreDamageToSelf": true
      },
      "beHit": {
        "hitBloodEffect": "Eff_SceneObj_CommonIceObj_01_BeHit",
        "hitAutoRedirect": false,
        "muteAllHitText": true
      },
      "combatLock": {
        "lockShape": "CircleLockEnemy",
        "lockType": "Avatar&Monster_Lv4"
      },
      "die": {
        "dieEndTime": 0.10000000149011612,
        "dieForceDisappearTime": 0.10000000149011612,
        "dieDisappearEffect": ""
      }
    },
    "combatTemplate": "",
    "abilities": [
      {
        "abilityID": "SceneObj_Stages_Property_Prop_IceShieldInactivated",
        "abilityName": "SceneObj_Stages_Property_Prop_IceShieldInactivated",
        "abilityOverride": ""
      }
    ],
    "billboard": {
      "$type": "DNGNMAJBCNP",
      "attachPoint": "RootNode",
      "offset": {
        "y": 2.5
      },
      "radiusOffset": 3.0,
      "showDistance": 48.0,
      "showHPBar": true,
      "size": "Grand"
    }
  },
  "SceneObj_Stages_Property_Prop_IceShieldActivated": {
    "$type": "CJKJIENLOHD",
    "common": {
      "affectedByWorld": true
    },
    "hasModel": true,
    "combat": {
      "property": {
        "hp": 99999.0,
        "attack": 20.0,
        "weight": 50.0,
        "isLockHP": true,
        "ignoreDamageToSelf": true
      },
      "beHit": {
        "hitBloodEffect": "",
        "hitAutoRedirect": false,
        "muteAllHitText": true
      },
      "combatLock": {
        "lockShape": "CircleLockEnemy",
        "denyLockOn": true,
        "lockType": "Gadget_Lv1"
      },
      "die": {
        "dieEndTime": 0.10000000149011612,
        "dieForceDisappearTime": 0.10000000149011612,
        "dieDisappearEffect": ""
      }
    },
    "combatTemplate": "",
    "abilities": [
      {
        "abilityID": "SceneObj_Stages_Property_Prop_IceShieldActivated",
        "abilityName": "SceneObj_Stages_Property_Prop_IceShieldActivated",
        "abilityOverride": ""
      }
    ]
  },
  "SceneObj_Area_Common_Property_Ani_Prop_FloatingIce_01": {
    "$type": "CJKJIENLOHD",
    "common": {
      "affectedByWorld": true
    },
    "hasModel": true,
    "combat": {
      "property": {
        "hp": 99999.0,
        "attack": 20.0,
        "weight": 50.0,
        "isLockHP": true,
        "ignoreDamageToSelf": true
      },
      "beHit": {
        "hitBloodEffect": "",
        "hitAutoRedirect": false,
        "muteAllHitText": true
      },
      "combatLock": {
        "lockShape": "CircleLockEnemy",
        "denyLockOn": true,
        "lockType": "Gadget_Lv1"
      }
    },
    "combatTemplate": "",
    "abilities": [
      {
        "abilityID": "SceneObj_Area_Common_Property_Ani_Prop_FloatingIce_01",
        "abilityName": "SceneObj_Area_Common_Property_Ani_Prop_FloatingIce_01",
        "abilityOverride": ""
      }
    ],
    "stateLayers": {
      "defaultLayer": {
        "$type": "GBGJJIIEMBD",
        "layerIndexName": "",
        "CPAANEIJCGD": "",
        "stateIDs": {
          "All": {
            "$type": "BEIEGKBABOF",
            "animatorStates": {
              "Broked": ["FloatingIce_Disappear"],
              "Recover": ["FloatingIce_Appear"]
            }
          }
        }
      }
    },
    "gadgetAction": {
      "gadgetStateActionList": [
        {
          "$type": "FJGKLJLPOGL",
          "intID": "State",
          "syncState": true
        }
      ]
    }
  },
  "SceneObj_Area_Common_Property_Prop_HumanBeacon_01": {
    "$type": "CJKJIENLOHD",
    "common": {
      "affectedByWorld": true
    },
    "hasModel": true,
    "combat": {
      "property": {
        "hp": 99999.0,
        "attack": 20.0,
        "weight": 50.0,
        "isLockHP": true,
        "ignoreDamageToSelf": true
      },
      "beHit": {
        "hitBloodEffect": "",
        "hitAutoRedirect": false,
        "muteAllHitText": true
      },
      "combatLock": {
        "lockShape": "CircleLockEnemy",
        "denyLockOn": true,
        "lockType": "Gadget_Lv1"
      }
    },
    "combatTemplate": "",
    "abilities": [
      {
        "abilityID": "SceneObj_Area_Common_Property_Prop_HumanBeacon_01",
        "abilityName": "SceneObj_Area_Common_Property_Prop_HumanBeacon_01",
        "abilityOverride": ""
      }
    ]
  },
  "SceneObj_Area_Common_Property_Ani_Prop_SkyShards_12": {
    "$type": "CJKJIENLOHD",
    "common": {
      "affectedByWorld": true,
      "disableTickDistance": 1500.0
    },
    "hasModel": true,
    "combat": {
      "property": {
        "hp": 99999.0,
        "attack": 20.0,
        "weight": 50.0,
        "isLockHP": true,
        "ignoreDamageToSelf": true
      },
      "beHit": {
        "hitBloodEffect": "",
        "hitAutoRedirect": false,
        "muteAllHitText": true
      },
      "combatLock": {
        "lockShape": "CircleLockEnemy",
        "denyLockOn": true,
        "lockType": "Gadget_Lv1"
      }
    },
    "combatTemplate": "",
    "abilities": [
      {
        "abilityID": "SceneObj_Area_Common_Property_Ani_Prop_SkyShards_12",
        "abilityName": "SceneObj_Area_Common_Property_Ani_Prop_SkyShards_12",
        "abilityOverride": ""
      }
    ]
  },
  "Element_IceSeed_Controller": {
    "$type": "CJKJIENLOHD",
    "hasModel": true,
    "combat": {
      "property": {
        "hp": 999999.0,
        "attack": 15.0,
        "defense": 999999.0,
        "weight": 60.0,
        "isGhostToAllied": true,
        "isGhostToEnemy": true
      },
      "beHit": {
        "hitBloodEffect": "",
        "muteAllHit": true,
        "muteAllHitEffect": true,
        "muteAllHitText": true
      },
      "combatLock": {
        "lockShape": "CircleLockEnemy",
        "denyLockOn": true,
        "lockType": "Gadget_Lv1"
      }
    },
    "combatTemplate": "",
    "abilities": [
      {
        "abilityID": "Element_IceSeed_Controller",
        "abilityName": "Element_IceSeed_Controller",
        "abilityOverride": ""
      }
    ],
    "field": {
      "concernType": "AllAvatars",
      "shape": "CircleR2",
      "fromShape": "",
      "triggerInfinite": true,
      "lifeInfinite": true,
      "checkInterval": 0.5,
      "overwriteCampType": true,
      "campType": "All",
      "colliderName": "",
      "fromColliderName": ""
    }
  },
  "SceneObj_CombatInteraction_BombBox02": {
    "$type": "CJKJIENLOHD",
    "common": {
      "mass": 200.0
    },
    "hasModel": true,
    "combat": {
      "property": {
        "hp": 8000.0,
        "attack": 80.0,
        "weight": 80.0
      },
      "beHit": {
        "hitBloodEffect": "",
        "hitAutoRedirect": false
      },
      "combatLock": {
        "lockShape": "CircleLockEnemy",
        "lockType": "Gadget_Lv1"
      },
      "die": {
        "dieEndTime": 0.10000000149011612,
        "dieForceDisappearTime": 0.20000000298023224,
        "dieDisappearEffect": ""
      }
    },
    "combatTemplate": "",
    "abilities": [
      {
        "abilityID": "SceneObj_CombatInteraction_BombBox02",
        "abilityName": "SceneObj_CombatInteraction_BombBox02",
        "abilityOverride": ""
      }
    ],
    "misc": {
      "escapeEffect": "",
      "targetIndicatorYOffset": 1.4500000476837158
    },
    "face": {
      "characterName": "Slime_03",
      "baseFaceAnimation": "Default",
      "intervalFaceAnimation": "Blink",
      "minInterval": 1.5,
      "maxInterval": 5.5
    }
  },
  "SceneObj_CombatInteraction_BombBox03": {
    "$type": "CJKJIENLOHD",
    "common": {
      "mass": 200.0
    },
    "hasModel": true,
    "combat": {
      "property": {
        "hp": 8000.0,
        "attack": 80.0,
        "weight": 80.0
      },
      "beHit": {
        "hitBloodEffect": "",
        "hitAutoRedirect": false
      },
      "combatLock": {
        "lockShape": "CircleLockEnemy",
        "lockType": "Gadget_Lv1"
      },
      "die": {
        "dieEndTime": 0.10000000149011612,
        "dieForceDisappearTime": 0.20000000298023224,
        "dieDisappearEffect": ""
      }
    },
    "combatTemplate": "",
    "abilities": [
      {
        "abilityID": "SceneObj_CombatInteraction_BombBox03",
        "abilityName": "SceneObj_CombatInteraction_BombBox03",
        "abilityOverride": ""
      }
    ],
    "misc": {
      "escapeEffect": "",
      "targetIndicatorYOffset": 1.4500000476837158
    },
    "face": {
      "characterName": "Slime_03",
      "baseFaceAnimation": "Default",
      "intervalFaceAnimation": "Blink",
      "minInterval": 1.5,
      "maxInterval": 5.5
    }
  },
  "SceneObj_CombatInteraction_BombBox02_Smoke": {
    "$type": "CJKJIENLOHD",
    "common": {
      "affectedByWorld": true
    },
    "hasModel": true,
    "combat": {
      "property": {
        "useCreatorProperty": true,
        "hp": 99999.0,
        "attack": 20.0,
        "weight": 50.0,
        "isLockHP": true,
        "ignoreDamageToSelf": true
      },
      "beHit": {
        "hitBloodEffect": "",
        "hitAutoRedirect": false,
        "muteAllHitText": true
      },
      "combatLock": {
        "lockShape": "CircleLockEnemy",
        "denyLockOn": true,
        "lockType": "Gadget_Lv1"
      }
    },
    "combatTemplate": "",
    "abilities": [
      {
        "abilityID": "SceneObj_CombatInteraction_BombBox02_Smoke",
        "abilityName": "SceneObj_CombatInteraction_BombBox02_Smoke",
        "abilityOverride": ""
      }
    ]
  },
  "SceneObj_Area_Ljxs_Property_Prop_InvisibleHeat_01": {
    "$type": "CJKJIENLOHD",
    "common": {
      "affectedByWorld": true
    },
    "hasModel": true,
    "combat": {
      "property": {
        "hp": 99999.0,
        "attack": 20.0,
        "weight": 50.0,
        "isLockHP": true,
        "ignoreDamageToSelf": true
      },
      "beHit": {
        "hitBloodEffect": "",
        "hitAutoRedirect": false,
        "muteAllHitText": true
      },
      "combatLock": {
        "lockShape": "CircleLockEnemy",
        "denyLockOn": true,
        "lockType": "Gadget_Lv1"
      }
    },
    "combatTemplate": "",
    "abilities": [
      {
        "abilityID": "Heat_Producer_Buff",
        "abilityName": "Heat_Producer_Buff",
        "abilityOverride": ""
      }
    ]
  },
  "SceneObj_Area_Ljxs_Property_Prop_InvisibleHeat_03": {
    "$type": "CJKJIENLOHD",
    "common": {
      "affectedByWorld": true
    },
    "hasModel": true,
    "combat": {
      "property": {
        "hp": 99999.0,
        "attack": 20.0,
        "weight": 50.0,
        "isLockHP": true,
        "ignoreDamageToSelf": true
      },
      "beHit": {
        "hitBloodEffect": "",
        "hitAutoRedirect": false,
        "muteAllHitText": true
      },
      "combatLock": {
        "lockShape": "CircleLockEnemy",
        "denyLockOn": true,
        "lockType": "Gadget_Lv1"
      }
    },
    "combatTemplate": "",
    "abilities": [
      {
        "abilityID": "SceneObj_Area_Ljxs_Property_Prop_InvisibleHeat_03",
        "abilityName": "SceneObj_Area_Ljxs_Property_Prop_InvisibleHeat_03",
        "abilityOverride": ""
      }
    ]
  },
  "SceneObj_Area_Ljxs_Property_Prop_InvisibleHeat_02": {
    "$type": "CJKJIENLOHD",
    "common": {
      "affectedByWorld": true
    },
    "hasModel": true,
    "combat": {
      "property": {
        "hp": 99999.0,
        "attack": 20.0,
        "weight": 50.0,
        "isLockHP": true,
        "ignoreDamageToSelf": true
      },
      "beHit": {
        "hitBloodEffect": "",
        "hitAutoRedirect": false,
        "muteAllHitText": true
      },
      "combatLock": {
        "lockShape": "CircleLockEnemy",
        "denyLockOn": true,
        "lockType": "Gadget_Lv1"
      }
    },
    "combatTemplate": "",
    "abilities": [
      {
        "abilityID": "SceneObj_Area_Ljxs_Property_Prop_InvisibleHeat_02",
        "abilityName": "SceneObj_Area_Ljxs_Property_Prop_InvisibleHeat_02",
        "abilityOverride": ""
      }
    ]
  },
  "SceneObj_Area_Common_Property_Decal_RuneMarker": {
    "$type": "CJKJIENLOHD",
    "common": {
      "affectedByWorld": true
    },
    "hasModel": true,
    "combat": {
      "property": {
        "hp": 99999.0,
        "attack": 20.0,
        "weight": 50.0,
        "isLockHP": true,
        "ignoreDamageToSelf": true
      },
      "beHit": {
        "hitBloodEffect": "",
        "hitAutoRedirect": false,
        "muteAllHitText": true
      },
      "combatLock": {
        "lockShape": "CircleLockEnemy",
        "denyLockOn": true,
        "lockType": "Gadget_Lv1"
      }
    },
    "combatTemplate": "",
    "gadgetAction": {
      "gadgetStateActionList": [
        {
          "$type": "FJGKLJLPOGL",
          "intID": "State",
          "syncState": true
        }
      ]
    }
  },
  "SceneObj_Area_Ljxs_Property_Prop_ColdAirSeal": {
    "$type": "CJKJIENLOHD",
    "model": {
      "bornEffect": "",
      "attachEffect": "Eff_SceneObj_ColdAirSeal_01",
      "BKPFGNPLDNJ": ""
    },
    "hasModel": true,
    "combat": {
      "property": {
        "hp": 5000.0,
        "attack": 15.0,
        "weight": 50.0,
        "isLockHP": true
      },
      "beHit": {
        "hitBloodEffect": "",
        "hitAutoRedirect": false,
        "muteAllHit": true,
        "muteAllHitEffect": true,
        "muteAllHitText": true
      },
      "combatLock": {
        "lockShape": "CircleLockEnemy",
        "denyLockOn": true,
        "lockType": "Gadget_Lv1"
      },
      "die": {
        "dieDisappearEffect": "Eff_SceneObj_ColdAirSeal_01_Disappear"
      }
    },
    "combatTemplate": "",
    "abilities": [
      {
        "abilityID": "SceneObj_Area_Ljxs_Property_Prop_ColdAirSeal",
        "abilityName": "SceneObj_Area_Ljxs_Property_Prop_ColdAirSeal",
        "abilityOverride": ""
      }
    ]
  },
  "SceneObj_Area_Ljxs_Property_Prop_IceSeal": {
    "$type": "CJKJIENLOHD",
    "model": {
      "bornEffect": "",
      "attachEffect": "Eff_SceneObj_IceSeal_01",
      "BKPFGNPLDNJ": ""
    },
    "hasModel": true,
    "combat": {
      "property": {
        "hp": 5000.0,
        "attack": 15.0,
        "weight": 50.0,
        "isLockHP": true
      },
      "beHit": {
        "hitBloodEffect": "",
        "hitAutoRedirect": false,
        "muteAllHit": true,
        "muteAllHitEffect": true,
        "muteAllHitText": true
      },
      "combatLock": {
        "lockShape": "CircleLockEnemy",
        "denyLockOn": true,
        "lockType": "Gadget_Lv1"
      },
      "die": {
        "dieDisappearEffect": "Eff_SceneObj_IceSeal_01_Disappear"
      }
    },
    "combatTemplate": "",
    "abilities": [
      {
        "abilityID": "SceneObj_Area_Ljxs_Property_Prop_IceSeal",
        "abilityName": "SceneObj_Area_Ljxs_Property_Prop_IceSeal",
        "abilityOverride": ""
      }
    ],
    "gadget": {
      "$type": "KKJCBNGMKBL",
      "collision": {
        "triggerType": "TriggerAlways",
        "targetType": "All"
      },
      "collisionActions": [
        {
          "$type": "AILPBJHDHDG",
          "abilityName": "SceneObj_Area_Ljxs_Property_Prop_IceSeal"
        }
      ],
      "thisColliderName": "Collider",
      "targetColliderName": "InteeTrigger"
    }
  },
  "SceneObj_Area_Ljxs_Property_Prop_IceSeal_02": {
    "$type": "CJKJIENLOHD",
    "common": {
      "viewSize": 0.6000000238418579
    },
    "model": {
      "bornEffect": "",
      "attachEffect": "Eff_SceneObj_IceSeal_02",
      "BKPFGNPLDNJ": ""
    },
    "hasModel": true,
    "combat": {
      "property": {
        "hp": 5000.0,
        "attack": 15.0,
        "weight": 50.0,
        "isLockHP": true
      },
      "beHit": {
        "hitBloodEffect": "",
        "hitAutoRedirect": false,
        "muteAllHit": true,
        "muteAllHitEffect": true,
        "muteAllHitText": true
      },
      "combatLock": {
        "lockShape": "CircleLockEnemy",
        "denyLockOn": true,
        "lockType": "Gadget_Lv1"
      },
      "die": {
        "dieDisappearEffect": "Eff_SceneObj_IceSeal_02_Disappear"
      }
    },
    "combatTemplate": "",
    "abilities": [
      {
        "abilityID": "SceneObj_Area_Ljxs_Property_Prop_IceSeal",
        "abilityName": "SceneObj_Area_Ljxs_Property_Prop_IceSeal",
        "abilityOverride": ""
      }
    ],
    "gadget": {
      "$type": "KKJCBNGMKBL",
      "collision": {
        "triggerType": "TriggerAlways",
        "targetType": "All"
      },
      "collisionActions": [
        {
          "$type": "AILPBJHDHDG",
          "abilityName": "SceneObj_Area_Ljxs_Property_Prop_IceSeal"
        }
      ],
      "thisColliderName": "Collider",
      "targetColliderName": "InteeTrigger"
    }
  },
  "SceneObj_Area_Ljxs_Property_Ani_Prop_Essence_01": {
    "$type": "CJKJIENLOHD",
    "model": {
      "bornEffect": "",
      "attachEffect": "Eff_SceneObj_Ljxs_Essence_01",
      "BKPFGNPLDNJ": ""
    },
    "hasModel": true,
    "combatTemplate": "",
    "misc": {
      "pickup": {
        "pickType": "AutoSelect",
        "isStatic": true,
        "bornEffect": "",
        "dropEffect": "",
        "attractAudio": ""
      },
      "escapeEffect": ""
    },
    "audio": {
      "$type": "DEGGADLMEOK",
      "overrideEmitterName": "",
      "animAudio": {},
      "initEvent": {
        "text": "Play_amb_sceneObj_item_windCrystal_idle"
      },
      "disableEvent": {
        "text": "Stop_amb_sceneObj_item_windCrystal_idle"
      },
      "destroyEvent": {
        "text": "Stop_amb_sceneObj_item_windCrystal_idle"
      }
    },
    "radarHint": true
  },
  "SceneObj_Gather_Transparent": {
    "$type": "CJKJIENLOHD",
    "hasModel": true,
    "combatTemplate": "",
    "misc": {
      "pickup": {
        "pickType": "AutoSelect",
        "isStatic": true,
        "bornEffect": "",
        "dropEffect": "",
        "attractAudio": ""
      },
      "escapeEffect": ""
    }
  },
  "SceneObj_Gather_Essence_Fly_Gather": {
    "$type": "CJKJIENLOHD",
    "model": {
      "bornEffect": "",
      "attachEffect": "Eff_SceneObj_EssenceTreasure_01_Fly",
      "BKPFGNPLDNJ": ""
    },
    "hasModel": true,
    "combatTemplate": "",
    "abilities": [
      {
        "abilityID": "Ability_01",
        "abilityName": "SceneObj_Gather_Essence_Fly_Gather",
        "abilityOverride": ""
      }
    ]
  },
  "SceneObj_Quest_PetPot_Fox01": {
    "$type": "CJKJIENLOHD",
    "common": {
      "affectedByWorld": true
    },
    "hasModel": true,
    "combat": {
      "property": {
        "hp": 99999.0,
        "attack": 20.0,
        "weight": 50.0,
        "isLockHP": true,
        "ignoreDamageToSelf": true
      },
      "beHit": {
        "hitBloodEffect": "",
        "hitAutoRedirect": false,
        "muteAllHitText": true
      },
      "combatLock": {
        "lockShape": "CircleLockEnemy",
        "denyLockOn": true,
        "lockType": "Gadget_Lv1"
      }
    },
    "combatTemplate": "",
    "abilities": [
      {
        "abilityID": "SceneObj_Quest_PetPot_Fox01",
        "abilityName": "SceneObj_Quest_PetPot_Fox01",
        "abilityOverride": ""
      }
    ],
    "uiInteract": {
      "gadgetUIBtnCfgPath": "TEST/TEST_Chest_Btn",
      "uiName": "UI_FEEDCAT_QTE_TITLE",
      "icon": "",
      "groupName": "",
      "confirmDialogTitle": "",
      "confirmDialogContent": ""
    },
    "gadgetAction": {
      "gadgetStateActionList": [
        {
          "$type": "FJGKLJLPOGL",
          "intID": "State",
          "syncState": true
        }
      ],
      "interactActionList": [
        {
          "$type": "DEMJBAICBKO",
          "predicate": {
            "$type": "JCENKAMEKHF"
          }
        },
        {
          "$type": "DEMJBAICBKO",
          "predicate": {
            "$type": "JCENKAMEKHF",
            "isEnableInteract": true
          },
          "enable": true
        }
      ]
    },
    "intee": {
      "triggerRadius": 1.0,
      "KAMIAMNMFCP": ""
    }
  },
  "SceneObj_Area_Ljxs_Property_Prop_IceBarrier": {
    "$type": "CJKJIENLOHD",
    "common": {
      "affectedByWorld": true
    },
    "hasModel": true,
    "combat": {
      "property": {
        "hp": 99999.0,
        "attack": 20.0,
        "weight": 50.0,
        "isLockHP": true,
        "ignoreDamageToSelf": true
      },
      "beHit": {
        "hitBloodEffect": "",
        "hitAutoRedirect": false,
        "muteAllHitText": true
      },
      "combatLock": {
        "lockShape": "CircleLockEnemy",
        "denyLockOn": true,
        "lockType": "Gadget_Lv1"
      },
      "die": {
        "dieForceDisappearTime": 0.0,
        "dieDisappearEffect": "Eff_SceneObj_IceBarrier_01_Destroy"
      }
    },
    "combatTemplate": ""
  },
  "SceneObj_Area_Ljxs_Property_Prop_IceBarrier_1.3": {
    "$type": "CJKJIENLOHD",
    "common": {
      "affectedByWorld": true
    },
    "hasModel": true,
    "combat": {
      "property": {
        "hp": 99999.0,
        "attack": 20.0,
        "weight": 50.0,
        "isLockHP": true,
        "ignoreDamageToSelf": true
      },
      "beHit": {
        "hitBloodEffect": "",
        "hitAutoRedirect": false,
        "muteAllHitText": true
      },
      "combatLock": {
        "lockShape": "CircleLockEnemy",
        "denyLockOn": true,
        "lockType": "Gadget_Lv1"
      },
      "die": {
        "dieForceDisappearTime": 0.0,
        "dieDisappearEffect": "Eff_SceneObj_IceBarrier_01_L_Destroy"
      }
    },
    "combatTemplate": ""
  },
  "SceneObj_Area_Ljxs_Property_Prop_IceBarrier02": {
    "$type": "CJKJIENLOHD",
    "common": {
      "affectedByWorld": true
    },
    "hasModel": true,
    "combat": {
      "property": {
        "hp": 99999.0,
        "attack": 20.0,
        "weight": 50.0,
        "isLockHP": true,
        "ignoreDamageToSelf": true
      },
      "beHit": {
        "hitBloodEffect": "",
        "hitAutoRedirect": false,
        "muteAllHitText": true
      },
      "combatLock": {
        "lockShape": "CircleLockEnemy",
        "denyLockOn": true,
        "lockType": "Gadget_Lv1"
      },
      "die": {
        "dieEndTime": 0.10000000149011612,
        "dieForceDisappearTime": 0.10000000149011612,
        "dieDisappearEffect": "Eff_SceneObj_IceBarrier_02_Destroy"
      }
    },
    "combatTemplate": ""
  },
  "SceneObj_Area_Ljxs_Property_Prop_RegisvinePillar": {
    "$type": "CJKJIENLOHD",
    "common": {
      "affectedByWorld": true
    },
    "hasModel": true,
    "combat": {
      "property": {
        "hp": 2000.0,
        "attack": 20.0,
        "weight": 50.0,
        "isLockHP": true,
        "ignoreDamageToSelf": true
      },
      "beHit": {
        "hitBloodEffect": "",
        "hitAutoRedirect": false,
        "muteAllHitText": true
      },
      "combatLock": {
        "lockShape": "CircleLockEnemy",
        "lockType": "Avatar&Monster_Lv4"
      },
      "die": {
        "dieEndTime": 0.10000000149011612,
        "dieForceDisappearTime": 0.10000000149011612,
        "dieDisappearEffect": ""
      }
    },
    "combatTemplate": "",
    "abilities": [
      {
        "abilityID": "SceneObj_Area_Ljxs_Property_Prop_RegisvinePillar",
        "abilityName": "SceneObj_Area_Ljxs_Property_Prop_RegisvinePillar",
        "abilityOverride": ""
      }
    ],
    "billboard": {
      "$type": "DNGNMAJBCNP",
      "attachPoint": "RootNode",
      "offset": {
        "y": 2.5
      },
      "radiusOffset": 3.0,
      "showDistance": 48.0,
      "showHPBar": true,
      "size": "Grand",
      "shieldBarOnly": true
    }
  },
  "SceneObj_Area_Common_Property_Prop_HumanJars_01": {
    "$type": "CJKJIENLOHD",
    "common": {
      "affectedByWorld": true
    },
    "hasModel": true,
    "combat": {
      "property": {
        "hp": 2000.0,
        "attack": 20.0,
        "weight": 50.0,
        "ignoreDamageToSelf": true
      },
      "beHit": {
        "hitBloodEffect": "",
        "hitAutoRedirect": false,
        "muteAllHitText": true
      },
      "combatLock": {
        "lockShape": "CircleLockEnemy",
        "lockType": "Gadget_Lv1"
      },
      "die": {
        "dieEndTime": 0.10000000149011612,
        "dieForceDisappearTime": 0.10000000149011612,
        "dieDisappearEffect": ""
      }
    },
    "combatTemplate": "",
    "abilities": [
      {
        "abilityID": "SceneObj_Area_Common_Property_Prop_HumanJars_01",
        "abilityName": "SceneObj_Area_Common_Property_Prop_HumanJars_01",
        "abilityOverride": ""
      }
    ]
  },
  "SceneObj_Area_Common_Property_Prop_HumanJars_02": {
    "$type": "CJKJIENLOHD",
    "common": {
      "affectedByWorld": true
    },
    "hasModel": true,
    "combat": {
      "property": {
        "hp": 2000.0,
        "attack": 20.0,
        "weight": 50.0,
        "ignoreDamageToSelf": true
      },
      "beHit": {
        "hitBloodEffect": "",
        "hitAutoRedirect": false,
        "muteAllHitText": true
      },
      "combatLock": {
        "lockShape": "CircleLockEnemy",
        "lockType": "Gadget_Lv1"
      },
      "die": {
        "dieEndTime": 0.10000000149011612,
        "dieForceDisappearTime": 0.10000000149011612,
        "dieDisappearEffect": ""
      }
    },
    "combatTemplate": "",
    "abilities": [
      {
        "abilityID": "SceneObj_Area_Common_Property_Prop_HumanJars_02",
        "abilityName": "SceneObj_Area_Common_Property_Prop_HumanJars_02",
        "abilityOverride": ""
      }
    ]
  },
  "SceneObj_Area_Common_Property_Prop_HumanJars_03": {
    "$type": "CJKJIENLOHD",
    "common": {
      "affectedByWorld": true
    },
    "hasModel": true,
    "combat": {
      "property": {
        "hp": 2000.0,
        "attack": 20.0,
        "weight": 50.0,
        "ignoreDamageToSelf": true
      },
      "beHit": {
        "hitBloodEffect": "",
        "hitAutoRedirect": false,
        "muteAllHitText": true
      },
      "combatLock": {
        "lockShape": "CircleLockEnemy",
        "lockType": "Gadget_Lv1"
      },
      "die": {
        "dieEndTime": 0.10000000149011612,
        "dieForceDisappearTime": 0.10000000149011612,
        "dieDisappearEffect": ""
      }
    },
    "combatTemplate": "",
    "abilities": [
      {
        "abilityID": "SceneObj_Area_Common_Property_Prop_HumanJars_03",
        "abilityName": "SceneObj_Area_Common_Property_Prop_HumanJars_03",
        "abilityOverride": ""
      }
    ]
  },
  "SceneObj_Area_Common_Property_Prop_WaterBasin_01": {
    "$type": "CJKJIENLOHD",
    "common": {
      "affectedByWorld": true
    },
    "hasModel": true,
    "combat": {
      "property": {
        "hp": 2000.0,
        "attack": 20.0,
        "weight": 50.0,
        "ignoreDamageToSelf": true
      },
      "beHit": {
        "hitBloodEffect": "",
        "hitAutoRedirect": false,
        "muteAllHitText": true
      },
      "combatLock": {
        "lockShape": "CircleLockEnemy",
        "lockType": "Gadget_Lv1"
      },
      "die": {
        "dieEndTime": 0.10000000149011612,
        "dieForceDisappearTime": 0.10000000149011612,
        "dieDisappearEffect": ""
      }
    },
    "combatTemplate": "",
    "abilities": [
      {
        "abilityID": "SceneObj_Area_Common_Property_Prop_WaterBasin_01",
        "abilityName": "SceneObj_Area_Common_Property_Prop_WaterBasin_01",
        "abilityOverride": ""
      }
    ]
  },
  "SceneObj_Area_Ljxs_Property_Ani_Build_CelestiaClusterBase_01": {
    "$type": "CJKJIENLOHD",
    "hasModel": true,
    "combat": {
      "property": {
        "hp": 2000.0,
        "attack": 20.0,
        "weight": 50.0,
        "isLockHP": true,
        "ignoreDamageToSelf": true
      },
      "beHit": {
        "hitBloodEffect": "",
        "hitAutoRedirect": false,
        "muteAllHitText": true
      },
      "combatLock": {
        "lockShape": "CircleLockEnemy",
        "denyLockOn": true,
        "lockType": "Gadget_Lv1"
      },
      "die": {
        "dieEndTime": 4.0,
        "dieForceDisappearTime": 4.0,
        "dieDisappearEffect": "Eff_SceneObj_CelestiaClusterBase_01",
        "dieShaderData": "GadgetDie",
        "dieShaderEnableDurationTime": 3.0,
        "dieModelFadeDelay": 1.0
      }
    },
    "combatTemplate": ""
  },
  "SceneObj_Area_Ljxs_Property_Ani_Build_CelestiaClusterBase_02": {
    "$type": "CJKJIENLOHD",
    "hasModel": true,
    "combat": {
      "property": {
        "hp": 2000.0,
        "attack": 20.0,
        "weight": 50.0,
        "isLockHP": true,
        "ignoreDamageToSelf": true
      },
      "beHit": {
        "hitBloodEffect": "",
        "hitAutoRedirect": false,
        "muteAllHitText": true
      },
      "combatLock": {
        "lockShape": "CircleLockEnemy",
        "denyLockOn": true,
        "lockType": "Gadget_Lv1"
      },
      "die": {
        "dieEndTime": 4.0,
        "dieForceDisappearTime": 4.0,
        "dieDisappearEffect": "Eff_SceneObj_CelestiaClusterBase_01",
        "dieShaderData": "GadgetDie",
        "dieShaderEnableDurationTime": 3.0,
        "dieModelFadeDelay": 1.0
      }
    },
    "combatTemplate": ""
  },
  "SceneObj_Area_Ljxs_Property_Ani_Build_CelestiaClusterBase_03": {
    "$type": "CJKJIENLOHD",
    "hasModel": true,
    "combat": {
      "property": {
        "hp": 2000.0,
        "attack": 20.0,
        "weight": 50.0,
        "isLockHP": true,
        "ignoreDamageToSelf": true
      },
      "beHit": {
        "hitBloodEffect": "",
        "hitAutoRedirect": false,
        "muteAllHitText": true
      },
      "combatLock": {
        "lockShape": "CircleLockEnemy",
        "denyLockOn": true,
        "lockType": "Gadget_Lv1"
      },
      "die": {
        "dieEndTime": 4.0,
        "dieForceDisappearTime": 4.0,
        "dieDisappearEffect": "Eff_SceneObj_CelestiaClusterBase_01",
        "dieShaderData": "GadgetDie",
        "dieShaderEnableDurationTime": 3.0,
        "dieModelFadeDelay": 1.0
      }
    },
    "combatTemplate": ""
  },
  "Bullet_IceSentryTurrets_Ice_Bullet": {
    "$type": "CJKJIENLOHD",
    "common": {
      "effectAttachShape": {
        "$type": "OMIODKONOMG"
      }
    },
    "combat": {
      "property": {
        "useCreatorProperty": true,
        "hp": 999999.0,
        "attack": 30.0,
        "defense": 999999.0,
        "weight": 50.0
      },
      "beHit": {
        "hitBloodEffect": "",
        "muteAllHit": true,
        "muteAllHitEffect": true,
        "muteAllHitText": true
      },
      "combatLock": {
        "lockShape": "CircleLockEnemy",
        "denyLockOn": true,
        "lockType": "Gadget_Lv1"
      }
    },
    "combatTemplate": "",
    "abilities": [
      {
        "abilityID": "Material",
        "abilityName": "Bullet_IceSentryTurrets_Ice_Bullet_Loop",
        "abilityOverride": ""
      },
      {
        "abilityID": "Trigger_FlickerWave_Burst",
        "abilityName": "Bullet_IceSentryTurrets_Ice_Bullet_Burst",
        "abilityOverride": ""
      }
    ],
    "timer": {
      "lifeTime": 3.0
    },
    "move": {
      "$type": "GONNMCBKAOC",
      "speed": 30.0,
      "DPAAFHNMHHN": {
        "$type": "IFAANDLLGLP"
      }
    },
    "gadget": {
      "$type": "JENBBNKGGJP",
      "collision": {
        "targetType": "Enemy"
      },
      "triggerActions": [
        {
          "$type": "AILPBJHDHDG",
          "abilityName": "Bullet_IceSentryTurrets_Ice_Bullet_Burst"
        }
      ],
      "killByOther": true
    }
  },
  "SceneObj_Area_Common_Property_Prop_HumanBox_01": {
    "$type": "CJKJIENLOHD",
    "common": {
      "effectAttachShape": {
        "$type": "OMCHDAEMBOG",
        "mesh": "EffectMesh"
      },
      "viewSize": 2.0,
      "affectedByWorld": true
    },
    "hasModel": true,
    "combat": {
      "property": {
        "hp": 50.0,
        "attack": 50.0,
        "weight": 50.0
      },
      "beHit": {
        "hitBloodEffect": "",
        "hitAutoRedirect": false,
        "muteAllHitText": true
      },
      "combatLock": {
        "lockShape": "CircleLockEnemy",
        "lockType": "Gadget_Lv1"
      },
      "die": {
        "dieEndTime": 0.009999999776482582,
        "dieDisappearEffect": ""
      }
    },
    "combatTemplate": "",
    "abilities": [
      {
        "abilityID": "SceneObj_Area_Common_Property_Prop_HumanBox_01",
        "abilityName": "SceneObj_Area_Common_Property_Prop_HumanBox_01",
        "abilityOverride": ""
      }
    ],
    "misc": {
      "pickup": {
        "dropPointMinSpeed": 5.0,
        "bornEffect": "",
        "dropEffect": "",
        "attractAudio": ""
      },
      "escapeEffect": ""
    }
  },
  "SceneObj_CombatInteraction_PumpkinBomb_Ice": {
    "$type": "CJKJIENLOHD",
    "hasModel": true,
    "combat": {
      "property": {
        "hp": 99999.0,
        "attack": 35.0,
        "weight": 50.0,
        "isLockHP": true,
        "canTriggerBullet": false
      },
      "beHit": {
        "hitBloodEffect": "",
        "hitAutoRedirect": false,
        "muteAllHitText": true
      },
      "combatLock": {
        "lockShape": "CircleLockEnemy",
        "lockType": "Gadget_Lv1"
      },
      "die": {
        "dieEndTime": 0.10000000149011612,
        "dieForceDisappearTime": 0.10000000149011612,
        "dieDisappearEffect": ""
      }
    },
    "combatTemplate": "",
    "abilities": [
      {
        "abilityID": "SceneObj_Area_Common_Property_Ani_Prop_PumpkinBomb_01",
        "abilityName": "SceneObj_Area_Common_Property_Ani_Prop_PumpkinBomb_01",
        "abilityOverride": ""
      }
    ],
    "field": {
      "concernType": "AllAvatars",
      "shape": "CircleR0_5",
      "fromShape": "",
      "triggerInfinite": true,
      "lifeInfinite": true,
      "checkInterval": 0.75,
      "overwriteCampType": true,
      "campType": "All",
      "colliderName": "",
      "fromColliderName": ""
    }
  },
  "SceneObj_Area_Common_Property_Ani_Prop_DunlinsHeart": {
    "$type": "CJKJIENLOHD",
    "common": {
      "affectedByWorld": true
    },
    "hasModel": true,
    "combat": {
      "property": {
        "hp": 2000.0,
        "attack": 20.0,
        "weight": 50.0,
        "isLockHP": true,
        "ignoreDamageToSelf": true
      },
      "beHit": {
        "hitBloodEffect": "",
        "hitAutoRedirect": false,
        "muteAllHitText": true
      },
      "combatLock": {
        "lockShape": "CircleLockEnemy",
        "lockType": "Gadget_Lv1"
      },
      "die": {
        "dieEndTime": 0.10000000149011612,
        "dieForceDisappearTime": 0.10000000149011612,
        "dieDisappearEffect": ""
      }
    },
    "combatTemplate": "",
    "abilities": [
      {
        "abilityID": "SceneObj_Area_Common_Property_Ani_Prop_DunlinsHeart",
        "abilityName": "SceneObj_Area_Common_Property_Ani_Prop_DunlinsHeart",
        "abilityOverride": ""
      }
    ]
  },
  "SceneObj_Event_Kelee_SealR25": {
    "$type": "CJKJIENLOHD",
    "hasModel": true,
    "combat": {
      "property": {
        "hp": 800.0,
        "attack": 15.0,
        "weight": 50.0,
        "isLockHP": true,
        "isGhostToEnemy": true
      },
      "beHit": {
        "hitBloodEffect": "",
        "hitAutoRedirect": false,
        "muteAllHitEffect": true,
        "muteAllHitText": true
      },
      "combatLock": {
        "lockShape": "CircleLockEnemy",
        "denyLockOn": true,
        "lockType": "Gadget_Lv1"
      },
      "die": {
        "dieEndTime": 0.10000000149011612,
        "dieForceDisappearTime": 0.20000000298023224,
        "dieDisappearEffect": ""
      }
    },
    "combatTemplate": "",
    "abilities": [
      {
        "abilityID": "SceneObj_Event_Kelee_SealR25",
        "abilityName": "SceneObj_Event_Kelee_SealR25",
        "abilityOverride": ""
      }
    ]
  },
  "SceneObj_Stages_Property_Ani_Prop_DropIce_02_01": {
    "$type": "CJKJIENLOHD",
    "hasModel": true,
    "combat": {
      "property": {
        "hp": 800.0,
        "attack": 15.0,
        "weight": 50.0,
        "isLockHP": true
      },
      "beHit": {
        "hitBloodEffect": "",
        "hitAutoRedirect": false,
        "muteAllHitEffect": true,
        "muteAllHitText": true
      },
      "combatLock": {
        "lockShape": "CircleLockEnemy",
        "denyLockOn": true,
        "lockType": "Gadget_Lv1"
      },
      "die": {
        "dieEndTime": 0.10000000149011612,
        "dieForceDisappearTime": 0.20000000298023224,
        "dieDisappearEffect": ""
      }
    },
    "combatTemplate": "",
    "abilities": [
      {
        "abilityID": "SceneObj_Stages_Property_Ani_Prop_DropIce_02_01",
        "abilityName": "SceneObj_Stages_Property_Ani_Prop_DropIce_02_01",
        "abilityOverride": ""
      }
    ],
    "stateLayers": {
      "defaultLayer": {
        "$type": "GBGJJIIEMBD",
        "layerIndexName": "",
        "CPAANEIJCGD": "",
        "stateIDs": {
          "All": {
            "$type": "BEIEGKBABOF",
            "animatorStates": {
              "Default": ["DropIce_Appear"],
              "Disappear": ["DropIce_Disappear"]
            }
          }
        }
      }
    },
    "gadgetAction": {
      "gadgetStateActionList": [
        {
          "$type": "FJGKLJLPOGL",
          "intID": "State",
          "syncState": true
        }
      ]
    }
  },
  "SceneObj_Stages_Property_Ani_Prop_DropIce_02_04": {
    "$type": "CJKJIENLOHD",
    "hasModel": true,
    "combat": {
      "property": {
        "hp": 800.0,
        "attack": 15.0,
        "weight": 50.0,
        "isLockHP": true
      },
      "beHit": {
        "hitBloodEffect": "",
        "hitAutoRedirect": false,
        "muteAllHitEffect": true,
        "muteAllHitText": true
      },
      "combatLock": {
        "lockShape": "CircleLockEnemy",
        "denyLockOn": true,
        "lockType": "Gadget_Lv1"
      },
      "die": {
        "dieEndTime": 0.10000000149011612,
        "dieForceDisappearTime": 0.20000000298023224,
        "dieDisappearEffect": ""
      }
    },
    "combatTemplate": "",
    "abilities": [
      {
        "abilityID": "SceneObj_Stages_Property_Ani_Prop_DropIce_02_04",
        "abilityName": "SceneObj_Stages_Property_Ani_Prop_DropIce_02_04",
        "abilityOverride": ""
      }
    ],
    "stateLayers": {
      "defaultLayer": {
        "$type": "GBGJJIIEMBD",
        "layerIndexName": "",
        "CPAANEIJCGD": "",
        "stateIDs": {
          "All": {
            "$type": "BEIEGKBABOF",
            "animatorStates": {
              "Default": ["DropIce_Appear"],
              "Disappear": ["DropIce_Disappear"]
            }
          }
        }
      }
    },
    "gadgetAction": {
      "gadgetStateActionList": [
        {
          "$type": "FJGKLJLPOGL",
          "intID": "State",
          "syncState": true
        }
      ]
    }
  },
  "SceneObj_Stages_Property_Ani_Prop_DropIce_02_02": {
    "$type": "CJKJIENLOHD",
    "common": {
      "effectAttachShape": {
        "$type": "OMIODKONOMG"
      }
    },
    "combat": {
      "property": {
        "useCreatorProperty": true,
        "hp": 999999.0,
        "attack": 30.0,
        "defense": 999999.0,
        "weight": 50.0
      },
      "beHit": {
        "hitBloodEffect": "",
        "muteAllHit": true,
        "muteAllHitEffect": true,
        "muteAllHitText": true
      },
      "combatLock": {
        "lockShape": "CircleLockEnemy",
        "denyLockOn": true,
        "lockType": "Gadget_Lv1"
      }
    },
    "combatTemplate": "",
    "abilities": [
      {
        "abilityID": "SceneObj_Stages_Property_Ani_Prop_DropIce_02_02",
        "abilityName": "SceneObj_Stages_Property_Ani_Prop_DropIce_02_02",
        "abilityOverride": ""
      }
    ],
    "timer": {
      "lifeTime": 3.0
    },
    "move": {
      "$type": "GONNMCBKAOC",
      "speed": 20.0,
      "acceleration": 9.800000190734863,
      "DPAAFHNMHHN": {
        "$type": "IFAANDLLGLP"
      }
    },
    "gadget": {
      "$type": "JENBBNKGGJP",
      "collision": {
        "targetType": "Enemy"
      },
      "triggerActions": [
        {
          "$type": "AILPBJHDHDG",
          "abilityName": "SceneObj_Stages_Property_Ani_Prop_DropIce_02_02"
        }
      ]
    }
  },
  "SceneObj_Stages_Property_Ani_Prop_DropIce_02_05": {
    "$type": "CJKJIENLOHD",
    "common": {
      "effectAttachShape": {
        "$type": "OMIODKONOMG"
      }
    },
    "combat": {
      "property": {
        "useCreatorProperty": true,
        "hp": 999999.0,
        "attack": 30.0,
        "defense": 999999.0,
        "weight": 50.0
      },
      "beHit": {
        "hitBloodEffect": "",
        "muteAllHit": true,
        "muteAllHitEffect": true,
        "muteAllHitText": true
      },
      "combatLock": {
        "lockShape": "CircleLockEnemy",
        "denyLockOn": true,
        "lockType": "Gadget_Lv1"
      }
    },
    "combatTemplate": "",
    "abilities": [
      {
        "abilityID": "SceneObj_Stages_Property_Ani_Prop_DropIce_02_05",
        "abilityName": "SceneObj_Stages_Property_Ani_Prop_DropIce_02_05",
        "abilityOverride": ""
      }
    ],
    "timer": {
      "lifeTime": 3.0
    },
    "move": {
      "$type": "GONNMCBKAOC",
      "speed": 20.0,
      "acceleration": 9.800000190734863,
      "DPAAFHNMHHN": {
        "$type": "IFAANDLLGLP"
      }
    },
    "gadget": {
      "$type": "JENBBNKGGJP",
      "collision": {
        "targetType": "Enemy"
      },
      "triggerActions": [
        {
          "$type": "AILPBJHDHDG",
          "abilityName": "SceneObj_Stages_Property_Ani_Prop_DropIce_02_05"
        }
      ]
    }
  },
  "SceneObj_Stages_Property_Ani_Prop_DropIce_02_03": {
    "$type": "CJKJIENLOHD",
    "hasModel": true,
    "combat": {
      "property": {
        "hp": 800.0,
        "attack": 15.0,
        "weight": 50.0,
        "isLockHP": true
      },
      "beHit": {
        "hitBloodEffect": "",
        "hitAutoRedirect": false,
        "muteAllHitEffect": true,
        "muteAllHitText": true
      },
      "combatLock": {
        "lockShape": "CircleLockEnemy",
        "denyLockOn": true,
        "lockType": "Gadget_Lv1"
      },
      "die": {
        "dieEndTime": 0.10000000149011612,
        "dieForceDisappearTime": 0.20000000298023224,
        "dieDisappearEffect": ""
      }
    },
    "combatTemplate": "",
    "abilities": [
      {
        "abilityID": "SceneObj_Stages_Property_Ani_Prop_DropIce_02_03",
        "abilityName": "SceneObj_Stages_Property_Ani_Prop_DropIce_02_03",
        "abilityOverride": ""
      }
    ],
    "billboard": {
      "$type": "DNGNMAJBCNP",
      "attachPoint": "RootNode",
      "offset": {
        "y": 2.5
      },
      "radiusOffset": 1.0,
      "enableSelfAdapt": true,
      "showDistance": 48.0,
      "showHPBar": true,
      "size": "Big",
      "shieldBarOnly": true
    }
  },
  "SceneObj_Area_Common_Property_Ani_Prop_SnowDungeonPlatform": {
    "$type": "CJKJIENLOHD",
    "common": {
      "affectedByWorld": true
    },
    "hasModel": true,
    "combat": {
      "property": {
        "hp": 99999.0,
        "attack": 20.0,
        "weight": 50.0,
        "isLockHP": true,
        "isGhostToAllied": true,
        "isGhostToEnemy": true,
        "ignoreDamageToSelf": true
      },
      "beHit": {
        "hitBloodEffect": "",
        "hitAutoRedirect": false,
        "muteAllHitText": true
      },
      "combatLock": {
        "lockShape": "CircleLockEnemy",
        "denyLockOn": true,
        "lockType": "Gadget_Lv1"
      }
    },
    "combatTemplate": "",
    "abilities": [
      {
        "abilityID": "SceneObj_Area_Common_Property_Ani_Prop_SnowDungeonPlatform",
        "abilityName": "SceneObj_Area_Common_Property_Ani_Prop_SnowDungeonPlatform",
        "abilityOverride": ""
      }
    ],
    "gadgetAction": {
      "gadgetStateActionList": [
        {
          "$type": "FJGKLJLPOGL",
          "intID": "gadgetState",
          "syncState": true
        }
      ]
    }
  },
  "SceneObj_BulinsBloodOre_Generator": {
    "$type": "CJKJIENLOHD",
    "combat": {
      "property": {
        "hp": 99999.0,
        "attack": 20.0,
        "weight": 50.0,
        "isLockHP": true,
        "isGhostToAllied": true,
        "isGhostToEnemy": true,
        "ignoreDamageToSelf": true
      },
      "beHit": {
        "hitBloodEffect": "",
        "hitAutoRedirect": false,
        "muteAllHitText": true
      },
      "combatLock": {
        "lockShape": "CircleLockEnemy",
        "denyLockOn": true,
        "lockType": "Gadget_Lv1"
      }
    },
    "combatTemplate": "",
    "abilities": [
      {
        "abilityID": "SceneObj_BulinsBloodOre_Generator",
        "abilityName": "SceneObj_BulinsBloodOre_Generator",
        "abilityOverride": ""
      }
    ]
  },
  "SceneObj_Area_Ljxs_Property_Prop_CelestiaClusterSmall_Icicle_04": {
    "$type": "CJKJIENLOHD",
    "hasModel": true,
    "combat": {
      "property": {
        "hp": 99999.0,
        "isInvincible": true,
        "isLockHP": true,
        "isGhostToAllied": true,
        "isGhostToEnemy": true
      },
      "die": {
        "dieEndTime": 4.800000190734863,
        "dieForceDisappearTime": 4.800000190734863,
        "dieDisappearEffect": "",
        "dieShaderData": "GadgetDie",
        "dieModelFadeDelay": 3.0
      }
    },
    "combatTemplate": ""
  },
  "SnowMountain_Cave_Cold_Buff": {
    "$type": "CJKJIENLOHD",
    "combat": {
      "property": {
        "hp": 5000.0,
        "attack": 20.0,
        "weight": 50.0,
        "isLockHP": true,
        "ignoreDamageToSelf": true
      },
      "beHit": {
        "hitBloodEffect": "",
        "hitAutoRedirect": false
      },
      "combatLock": {
        "lockShape": "CircleLockEnemy",
        "denyLockOn": true,
        "lockType": "Gadget_Lv1"
      }
    },
    "combatTemplate": "",
    "abilities": [
      {
        "abilityID": "SnowMountain_Cave_Cold_Buff",
        "abilityName": "SnowMountain_Cave_Cold_Buff",
        "abilityOverride": ""
      }
    ]
  },
  "SnowMountain_Cave_Cold_Buff_02": {
    "$type": "CJKJIENLOHD",
    "combat": {
      "property": {
        "hp": 5000.0,
        "attack": 20.0,
        "weight": 50.0,
        "isLockHP": true,
        "isGhostToAllied": true,
        "isGhostToEnemy": true,
        "ignoreDamageToSelf": true
      },
      "beHit": {
        "hitBloodEffect": "",
        "hitAutoRedirect": false,
        "muteAllHit": true,
        "muteAllHitEffect": true
      },
      "combatLock": {
        "lockShape": "CircleLockEnemy",
        "denyLockOn": true,
        "lockType": "Gadget_Lv1"
      }
    },
    "combatTemplate": "",
    "abilities": [
      {
        "abilityID": "SnowMountain_Cave_Cold_Buff_02",
        "abilityName": "SnowMountain_Cave_Cold_Buff_02",
        "abilityOverride": ""
      }
    ],
    "field": {
      "concernType": "AllAvatars",
      "shape": "",
      "fromShape": "",
      "triggerInfinite": true,
      "lifeInfinite": true,
      "checkInterval": 0.5,
      "overwriteCampType": true,
      "campType": "All",
      "colliderName": "",
      "fromColliderName": ""
    }
  },
  "SceneObj_Area_Common_Property_Prop_SnowDungeonRemainder": {
    "$type": "CJKJIENLOHD",
    "common": {
      "affectedByWorld": true
    },
    "hasModel": true,
    "combat": {
      "property": {
        "hp": 99999.0,
        "attack": 20.0,
        "weight": 50.0,
        "isLockHP": true,
        "isGhostToAllied": true,
        "isGhostToEnemy": true,
        "ignoreDamageToSelf": true
      },
      "beHit": {
        "hitBloodEffect": "",
        "hitAutoRedirect": false,
        "muteAllHitText": true
      },
      "combatLock": {
        "lockShape": "CircleLockEnemy",
        "denyLockOn": true,
        "lockType": "Gadget_Lv1"
      }
    },
    "combatTemplate": "",
    "abilities": [
      {
        "abilityID": "SceneObj_Area_Common_Property_Prop_SnowDungeonRemainder",
        "abilityName": "SceneObj_Area_Common_Property_Prop_SnowDungeonRemainder",
        "abilityOverride": ""
      }
    ]
  },
  "Bullet_CelestiaClusterSmallCore_Bullet": {
    "$type": "CJKJIENLOHD",
    "common": {
      "effectAttachShape": {
        "$type": "OMIODKONOMG",
        "scaleZ": 0.4000000059604645
      }
    },
    "hasModel": true,
    "combat": {
      "property": {
        "useCreatorProperty": true,
        "hp": 999999.0,
        "attack": 50.0,
        "defense": 999999.0,
        "isLockHP": true
      },
      "beHit": {
        "hitBloodEffect": "",
        "muteAllHit": true,
        "muteAllHitEffect": true,
        "muteAllHitText": true
      },
      "combatLock": {
        "lockShape": "CircleLockEnemy",
        "denyLockOn": true,
        "lockType": "Default"
      }
    },
    "combatTemplate": "",
    "abilities": [
      {
        "abilityID": "Bullet_CelestiaClusterSmallCore_Bullet_Loop",
        "abilityName": "Bullet_CelestiaClusterSmallCore_Bullet_Loop",
        "abilityOverride": ""
      },
      {
        "abilityID": "Bullet_CelestiaClusterSmallCore_Bullet_Trigger",
        "abilityName": "Bullet_CelestiaClusterSmallCore_Bullet_Trigger",
        "abilityOverride": ""
      }
    ],
    "timer": {
      "lifeTime": 10.0
    },
    "move": {
      "$type": "GMOHNHFHLAO",
      "speed": 30.0,
      "DPAAFHNMHHN": {
        "$type": "IFAANDLLGLP"
      },
      "traceOnYAxis": true
    },
    "gadget": {
      "$type": "JENBBNKGGJP",
      "collision": {
        "triggerType": "TriggerAlways",
        "targetType": "Alliance",
        "ignoreScene": true
      },
      "triggerActions": [
        {
          "$type": "AILPBJHDHDG",
          "abilityName": "Bullet_CelestiaClusterSmallCore_Bullet_Trigger"
        }
      ],
      "triggerLifeOverActions": [
        {
          "$type": "AILPBJHDHDG",
          "abilityName": "Bullet_CelestiaClusterSmallCore_Bullet_Trigger"
        }
      ]
    }
  },
  "SceneObj_Area_Common_Property_Prop_SnowDungeonAirWall": {
    "$type": "CJKJIENLOHD",
    "common": {
      "disableTickDistance": 100000.0
    },
    "model": {
      "bornEffect": "",
      "attachEffect": "Eff_Stage_SealBorder04",
      "BKPFGNPLDNJ": ""
    },
    "hasModel": true,
    "combatTemplate": ""
  },
  "SceneObj_Area_Ljxs_Property_Prop_CelestiaCluster_Behit": {
    "$type": "CJKJIENLOHD",
    "combat": {
      "property": {
        "hp": 99999.0,
        "attack": 20.0,
        "weight": 50.0,
        "isLockHP": true,
        "ignoreDamageToSelf": true
      },
      "beHit": {
        "hitBloodEffect": "",
        "hitAutoRedirect": false,
        "muteAllHitText": true
      },
      "combatLock": {
        "lockShape": "CircleLockEnemy",
        "denyLockOn": true,
        "lockType": "Gadget_Lv1"
      }
    },
    "combatTemplate": "",
    "abilities": [
      {
        "abilityID": "SceneObj_Area_Ljxs_Property_Prop_CelestiaCluster_Behit",
        "abilityName": "SceneObj_Area_Ljxs_Property_Prop_CelestiaCluster_Behit",
        "abilityOverride": ""
      }
    ]
  },
  "SceneObj_Gear_Other_DriftBottle": {
    "$type": "CJKJIENLOHD",
    "common": {
      "affectedByWorld": true
    },
    "model": {
      "bornEffect": "",
      "attachEffect": "Eff_Item_Hint_Small",
      "BKPFGNPLDNJ": ""
    },
    "hasModel": true,
    "combat": {
      "property": {
        "hp": 99999.0,
        "attack": 20.0,
        "weight": 50.0,
        "isLockHP": true,
        "ignoreDamageToSelf": true
      },
      "beHit": {
        "hitBloodEffect": "",
        "hitAutoRedirect": false,
        "muteAllHitText": true
      },
      "combatLock": {
        "lockShape": "CircleLockEnemy",
        "denyLockOn": true,
        "lockType": "Gadget_Lv1"
      }
    },
    "combatTemplate": ""
  },
  "SceneObj_Environment_GrassMaterial_GrassStacks_SnowMountain": {
    "$type": "CJKJIENLOHD",
    "common": {
      "effectAttachShape": {
        "$type": "OMCHDAEMBOG",
        "mesh": "EffectMesh"
      },
      "viewSize": 2.5,
      "affectedByWorld": true
    },
    "hasModel": true,
    "combat": {
      "property": {
        "hp": 99999.0,
        "attack": 20.0,
        "weight": 50.0,
        "isInvincible": true,
        "canTriggerBullet": false
      },
      "beHit": {
        "hitBloodEffect": "",
        "muteAllHit": true,
        "muteAllHitEffect": true
      },
      "combatLock": {
        "lockShape": "CircleLockEnemy",
        "denyLockOn": true,
        "lockType": "Gadget_Lv1"
      },
      "die": {
        "dieEndTime": 0.30000001192092896,
        "dieForceDisappearTime": 0.3499999940395355,
        "dieDisappearEffect": ""
      }
    },
    "combatTemplate": "",
    "abilities": [
      {
        "abilityID": "SceneObj_Environment_GrassMaterial_GrassStacks_Interact",
        "abilityName": "SceneObj_Environment_GrassMaterial_GrassStacks_Interact",
        "abilityOverride": ""
      },
      {
        "abilityID": "SceneObj_Environment_GrassMaterial_GrassStacks_SnowMountain",
        "abilityName": "SceneObj_Environment_GrassMaterial_GrassStacks_SnowMountain",
        "abilityOverride": ""
      }
    ]
  },
  "SceneObj_Environment_WoodenMaterial_WoodenObject_SnowMountain": {
    "$type": "CJKJIENLOHD",
    "common": {
      "effectAttachShape": {
        "$type": "OMCHDAEMBOG",
        "mesh": "EffectMesh"
      },
      "viewSize": 2.0,
      "affectedByWorld": true
    },
    "hasModel": true,
    "combat": {
      "property": {
        "hp": 50.0,
        "attack": 50.0,
        "weight": 50.0
      },
      "beHit": {
        "hitBloodEffect": "",
        "hitAutoRedirect": false,
        "muteAllHitText": true
      },
      "combatLock": {
        "lockShape": "CircleLockEnemy",
        "lockType": "Gadget_Lv1"
      },
      "die": {
        "dieEndTime": 0.009999999776482582,
        "dieDisappearEffect": ""
      }
    },
    "combatTemplate": "",
    "abilities": [
      {
        "abilityID": "SceneObj_Environment_WoodenMaterial_WoodenObject_Interact",
        "abilityName": "SceneObj_Environment_WoodenMaterial_WoodenObject_Interact",
        "abilityOverride": ""
      },
      {
        "abilityID": "SceneObj_Environment_GrassMaterial_GrassStacks_SnowMountain",
        "abilityName": "SceneObj_Environment_GrassMaterial_GrassStacks_SnowMountain",
        "abilityOverride": ""
      }
    ],
    "misc": {
      "pickup": {
        "dropPointMinSpeed": 5.0,
        "bornEffect": "",
        "dropEffect": "",
        "attractAudio": ""
      },
      "escapeEffect": ""
    }
  },
  "SceneObj_SnowMountain_DorpIceController": {
    "$type": "CJKJIENLOHD",
    "combat": {
      "property": {
        "hp": 99999.0,
        "attack": 50.0,
        "weight": 50.0,
        "isLockHP": true,
        "isGhostToAllied": true,
        "isGhostToEnemy": true
      },
      "beHit": {
        "hitBloodEffect": "",
        "hitAutoRedirect": false,
        "muteAllHitText": true
      },
      "combatLock": {
        "lockShape": "CircleLockEnemy",
        "denyLockOn": true,
        "lockType": "Gadget_Lv1"
      }
    },
    "combatTemplate": "",
    "abilities": [
      {
        "abilityID": "SceneObj_SnowMountain_DorpIceController",
        "abilityName": "SceneObj_SnowMountain_DorpIceController",
        "abilityOverride": ""
      }
    ]
  },
  "SceneObj_SnowMountain_DorpIceBullet": {
    "$type": "CJKJIENLOHD",
    "combat": {
      "property": {
        "useCreatorProperty": true,
        "hp": 99999.0,
        "attack": 20.0,
        "weight": 50.0,
        "isLockHP": true
      },
      "beHit": {
        "hitBloodEffect": "",
        "muteAllHit": true,
        "muteAllHitEffect": true,
        "muteAllHitText": true
      },
      "combatLock": {
        "lockShape": "CircleLockEnemy",
        "denyLockOn": true,
        "lockType": "Gadget_Lv1"
      },
      "die": {
        "dieEndTime": 0.009999999776482582,
        "dieDisappearEffect": ""
      }
    },
    "combatTemplate": "",
    "abilities": [
      {
        "abilityID": "Ability_01",
        "abilityName": "SceneObj_SnowMountain_DorpIceBullet",
        "abilityOverride": ""
      }
    ],
    "timer": {
      "lifeTime": 3.0
    },
    "move": {
      "$type": "GONNMCBKAOC",
      "speed": 5.0,
      "acceleration": 10.0
    },
    "gadget": {
      "$type": "JENBBNKGGJP",
      "collision": {
        "targetType": "Enemy"
      },
      "triggerActions": [
        {
          "$type": "AILPBJHDHDG",
          "abilityName": "SceneObj_SnowMountain_DorpIceBullet"
        }
      ]
    }
  },
  "SceneObj_SnowMountain_DorpIceDamage": {
    "$type": "CJKJIENLOHD",
    "combat": {
      "property": {
        "useCreatorProperty": true,
        "hp": 99999.0,
        "attack": 50.0,
        "weight": 50.0,
        "isLockHP": true,
        "isGhostToAllied": true,
        "isGhostToEnemy": true
      },
      "beHit": {
        "hitBloodEffect": "",
        "hitAutoRedirect": false,
        "muteAllHitText": true
      },
      "combatLock": {
        "lockShape": "CircleLockEnemy",
        "denyLockOn": true,
        "lockType": "Gadget_Lv1"
      }
    },
    "combatTemplate": "",
    "abilities": [
      {
        "abilityID": "SceneObj_SnowMountain_DorpIceDamage",
        "abilityName": "SceneObj_SnowMountain_DorpIceDamage",
        "abilityOverride": ""
      }
    ],
    "timer": {
      "lifeTime": 0.5
    }
  },
  "SnowMountain_Remove_Dulis_Buff": {
    "$type": "CJKJIENLOHD",
    "combat": {
      "property": {
        "hp": 5000.0,
        "attack": 20.0,
        "weight": 50.0,
        "isLockHP": true,
        "isGhostToAllied": true,
        "isGhostToEnemy": true,
        "ignoreDamageToSelf": true
      },
      "beHit": {
        "hitBloodEffect": "",
        "hitAutoRedirect": false,
        "muteAllHit": true,
        "muteAllHitEffect": true
      },
      "combatLock": {
        "lockShape": "CircleLockEnemy",
        "denyLockOn": true,
        "lockType": "Gadget_Lv1"
      }
    },
    "combatTemplate": "",
    "abilities": [
      {
        "abilityID": "SnowMountain_Remove_Dulis_Buff",
        "abilityName": "SnowMountain_Remove_Dulis_Buff",
        "abilityOverride": ""
      }
    ],
    "field": {
      "concernType": "AllAvatars",
      "shape": "CircleR3H5",
      "fromShape": "",
      "triggerInfinite": true,
      "lifeInfinite": true,
      "checkInterval": 0.5,
      "overwriteCampType": true,
      "campType": "All",
      "colliderName": "",
      "fromColliderName": ""
    }
  }
}
