{
  "Yaoyao_ExtraAttack_Bullet": {
    "$type": "CJKJIENLOHD",
    "common": {
      "effectAttachShape": {
        "$type": "OMIODKONOMG"
      }
    },
    "combat": {
      "property": {
        "useCreatorProperty": true,
        "isInvincible": true,
        "isGhostToAllied": true,
        "isGhostToEnemy": true,
        "canTriggerBullet": false
      },
      "beHit": {
        "hitBloodEffect": "",
        "muteAllHit": true,
        "muteAllHitEffect": true,
        "muteAllHitText": true
      },
      "combatLock": {
        "lockShape": "CircleLockEnemy",
        "denyLockOn": true,
        "lockType": "Default"
      }
    },
    "combatTemplate": "",
    "abilities": [
      {
        "abilityID": "",
        "abilityName": "Avatar_Yaoyao_ExtraAttack_Bullet",
        "abilityOverride": ""
      }
    ],
    "timer": {
      "lifeTime": 1.0
    },
    "move": {
      "$type": "MMAPEFIEGAL",
      "attachPoint": "",
      "followRotation": true,
      "offset": {
        "y": 0.8999999761581421
      },
      "HOMINCCNFHE": {
        "z": 1.0
      },
      "LFOHLEKJFBI": ""
    },
    "gadget": {
      "$type": "JENBBNKGGJP",
      "collision": {
        "ccd": {
          "damageRatio": "Always"
        },
        "triggerType": "TriggerNoRepeat",
        "targetType": "Enemy",
        "ignoreScene": true
      },
      "triggerActions": [
        {
          "$type": "AILPBJHDHDG",
          "abilityName": "Avatar_Yaoyao_ExtraAttack_Bullet"
        }
      ]
    }
  },
  "Avatar_Yaoyao_Turnip_Bullet": {
    "$type": "CJKJIENLOHD",
    "common": {
      "effectAttachShape": {
        "$type": "OMIODKONOMG",
        "scaleZ": 0.4000000059604645
      },
      "mass": 5.0,
      "affectedByWorld": true,
      "checkInSurface": true
    },
    "combat": {
      "property": {
        "useCreatorProperty": true,
        "isLockHP": true,
        "isGhostToAllied": true
      },
      "combatLock": {
        "lockShape": "CircleLockEnemy",
        "denyLockOn": true,
        "lockType": "Gadget_Lv1"
      }
    },
    "combatTemplate": "",
    "abilities": [
      {
        "abilityID": "",
        "abilityName": "Avatar_Yaoyao_Turnip_Bullet",
        "abilityOverride": ""
      }
    ],
    "timer": {
      "lifeTime": 5.0
    },
    "move": {
      "$type": "HEADEKDJIPD",
      "velocityForce": {
        "muteAll": true
      },
      "speed": 20.0,
      "acceleration": 5.0,
      "DPAAFHNMHHN": {
        "$type": "IFAANDLLGLP"
      },
      "angleOffHor": 45.0,
      "gravityOfAcceleration": 45.0,
      "delayTime": 0.20000000298023224,
      "trackAngularVelocityLerpTime": 0.30000001192092896,
      "targetDistance": 4.0
    },
    "gadget": {
      "$type": "JENBBNKGGJP",
      "collision": {
        "ccd": {
          "damageRatio": "Always"
        },
        "triggerCD": 0.10000000149011612,
        "targetType": "AllExceptSelf",
        "bornWithTriggerEnabled": false
      },
      "triggerActions": [
        {
          "$type": "AILPBJHDHDG",
          "abilityName": "Avatar_Yaoyao_Turnip_Bullet"
        }
      ],
      "fireAISoundEvent": true,
      "enableCollisionDelay": 0.15000000596046448,
      "resetLastPosOnDelayEnd": true,
      "reTriggerOnDelayEnd": true
    }
  },
  "Avatar_Yaoyao_Turnip_Bullet_Parabola": {
    "$type": "CJKJIENLOHD",
    "common": {
      "effectAttachShape": {
        "$type": "OMIODKONOMG",
        "scaleZ": 0.4000000059604645
      },
      "mass": 5.0,
      "affectedByWorld": true,
      "checkInSurface": true
    },
    "combat": {
      "property": {
        "useCreatorProperty": true,
        "isLockHP": true,
        "isGhostToAllied": true
      },
      "combatLock": {
        "lockShape": "CircleLockEnemy",
        "denyLockOn": true,
        "lockType": "Gadget_Lv1"
      }
    },
    "combatTemplate": "",
    "timer": {
      "lifeTime": 5.0
    },
    "move": {
      "$type": "BFDBCCCADKH",
      "speed": 15.0,
      "acceleration": 5.0,
      "angleOffHor": 55.0,
      "gravityOfAcceleration": 45.0,
      "GEBCKKDCGDP": "",
      "NKPHOKHJKGC": ""
    },
    "gadget": {
      "$type": "JENBBNKGGJP",
      "collision": {
        "ccd": {
          "damageRatio": "Always"
        },
        "triggerCD": 0.10000000149011612,
        "targetType": "AllExceptSelf",
        "bornWithTriggerEnabled": false
      },
      "fireAISoundEvent": true,
      "enableCollisionDelay": 0.20000000298023224,
      "resetLastPosOnDelayEnd": true,
      "reTriggerOnDelayEnd": true
    }
  },
  "Avatar_Yaoyao_Turnip": {
    "$type": "CJKJIENLOHD",
    "common": {
      "effectAttachShape": {
        "$type": "OMIODKONOMG"
      },
      "affectedByWorld": true
    },
    "combat": {
      "property": {
        "useCreatorProperty": true,
        "isLockHP": true
      },
      "beHit": {
        "hitBloodEffect": "",
        "muteAllHitText": true
      },
      "combatLock": {
        "lockShape": "CircleLockEnemy",
        "denyLockOn": true,
        "lockType": "Gadget_Lv1"
      }
    },
    "combatTemplate": "",
    "abilities": [
      {
        "abilityID": "",
        "abilityName": "Avatar_Yaoyao_Turnip",
        "abilityOverride": ""
      }
    ],
    "timer": {
      "lifeTime": 16.0
    },
    "move": {
      "$type": "MGENMIHFEJO",
      "velocityForce": {
        "includeForces": ["WindZoneType", "RetreatType", "RetreatAirType"]
      },
      "startCloseToGround": false
    },
    "gadget": {
      "$type": "JENBBNKGGJP",
      "collision": {
        "targetType": "Enemy",
        "ignoreScene": true
      },
      "triggerActions": [
        {
          "$type": "AILPBJHDHDG",
          "abilityName": "Avatar_Yaoyao_Turnip"
        }
      ]
    }
  },
  "Avatar_Yaoyao_Golden_Turnip_Bullet": {
    "$type": "CJKJIENLOHD",
    "common": {
      "effectAttachShape": {
        "$type": "OMIODKONOMG",
        "scaleZ": 0.4000000059604645
      },
      "mass": 5.0,
      "affectedByWorld": true,
      "checkInSurface": true
    },
    "combat": {
      "property": {
        "useCreatorProperty": true,
        "isLockHP": true,
        "isGhostToAllied": true
      },
      "combatLock": {
        "lockShape": "CircleLockEnemy",
        "denyLockOn": true,
        "lockType": "Gadget_Lv1"
      }
    },
    "combatTemplate": "",
    "abilities": [
      {
        "abilityID": "",
        "abilityName": "Avatar_Yaoyao_Golden_Turnip_Bullet",
        "abilityOverride": ""
      }
    ],
    "timer": {
      "lifeTime": 5.0
    },
    "move": {
      "$type": "HEADEKDJIPD",
      "velocityForce": {
        "muteAll": true
      },
      "speed": 15.0,
      "anglerVelocity": 2900.0,
      "acceleration": 20.0,
      "DPAAFHNMHHN": {
        "$type": "IFAANDLLGLP"
      },
      "delay": 0.10000000149011612,
      "angleOffHor": 55.0,
      "gravityOfAcceleration": 45.0,
      "delayTime": 0.20000000298023224,
      "trackAngularVelocityLerpTime": 0.30000001192092896,
      "targetDistance": 4.0
    },
    "gadget": {
      "$type": "JENBBNKGGJP",
      "collision": {
        "ccd": {
          "damageRatio": "Always"
        },
        "triggerCD": 0.10000000149011612,
        "targetType": "AllExceptSelf",
        "bornWithTriggerEnabled": false
      },
      "triggerActions": [
        {
          "$type": "AILPBJHDHDG",
          "abilityName": "Avatar_Yaoyao_Golden_Turnip_Bullet"
        }
      ],
      "fireAISoundEvent": true,
      "enableCollisionDelay": 0.20000000298023224,
      "resetLastPosOnDelayEnd": true,
      "reTriggerOnDelayEnd": true
    }
  },
  "Avatar_Yaoyao_Golden_Turnip": {
    "$type": "CJKJIENLOHD",
    "common": {
      "effectAttachShape": {
        "$type": "OMIODKONOMG"
      },
      "affectedByWorld": true
    },
    "combat": {
      "property": {
        "useCreatorProperty": true,
        "isLockHP": true
      },
      "beHit": {
        "hitBloodEffect": "",
        "muteAllHitText": true
      },
      "combatLock": {
        "lockShape": "CircleLockEnemy",
        "denyLockOn": true,
        "lockType": "Gadget_Lv1"
      }
    },
    "combatTemplate": "",
    "abilities": [
      {
        "abilityID": "",
        "abilityName": "Avatar_Yaoyao_Golden_Turnip",
        "abilityOverride": ""
      }
    ],
    "timer": {
      "lifeTime": 16.0
    },
    "move": {
      "$type": "MGENMIHFEJO",
      "velocityForce": {
        "includeForces": ["WindZoneType", "RetreatType", "RetreatAirType"]
      },
      "startCloseToGround": false
    },
    "gadget": {
      "$type": "JENBBNKGGJP",
      "collision": {
        "targetType": "AllExceptSelf",
        "ignoreScene": true
      },
      "triggerActions": [
        {
          "$type": "AILPBJHDHDG",
          "abilityName": "Avatar_Yaoyao_Golden_Turnip"
        }
      ]
    }
  },
  "Yaoyao_ElementalArt_Rabbit": {
    "$type": "CJKJIENLOHD",
    "common": {
      "effectAttachShape": {
        "$type": "OMIODKONOMG"
      },
      "checkInSurface": true,
      "enableCrashDamage": false
    },
    "model": {
      "bornEffect": "",
      "attachEffect": "",
      "hasCharacterRenderering": true,
      "BKPFGNPLDNJ": ""
    },
    "hasModel": true,
    "combat": {
      "property": {
        "useCreatorProperty": true,
        "weight": 200.0,
        "isLockHP": true
      },
      "beHit": {
        "hitBloodEffect": "",
        "muteAllHit": true,
        "muteAllHitEffect": true,
        "muteAllHitText": true
      },
      "combatLock": {
        "lockShape": "CircleLockEnemy",
        "denyLockOn": true,
        "lockType": "Gadget_Lv1"
      }
    },
    "combatTemplate": "",
    "abilities": [
      {
        "abilityID": "",
        "abilityName": "Avatar_Yaoyao_ElementalArt_Rabbit",
        "abilityOverride": ""
      }
    ],
    "timer": {
      "lifeTime": 12.0
    },
    "move": {
      "$type": "MGENMIHFEJO",
      "velocityForce": {
        "includeForces": ["RetreatType", "RetreatAirType", "WindZoneType"]
      },
      "startCloseToGround": false
    },
    "stateLayers": {
      "defaultLayer": {
        "$type": "GBGJJIIEMBD",
        "layerIndexName": "",
        "CPAANEIJCGD": "",
        "stateIDs": {
          "Yaoyao_ElementalArt_Rabbit_Born": {
            "$type": "BEIEGKBABOF",
            "animatorStates": {
              "Born": []
            }
          },
          "Yaoyao_ElementalArt_Rabbit_Attack": {
            "$type": "BEIEGKBABOF",
            "animatorStates": {
              "Attack": ["Yaoyao_ElementalArt_Rabbit_Attack"]
            },
            "cullingModelAlwaysAnimate": true,
            "loopClampNormalizeTime": true
          }
        }
      }
    },
    "characterRendering": {
      "overrideTickInterval": 1
    }
  },
  "Yaoyao_ElementalArt_Rabbit_Throw": {
    "$type": "CJKJIENLOHD",
    "common": {
      "effectAttachShape": {
        "$type": "OMIODKONOMG"
      },
      "affectedByWorld": true
    },
    "combat": {
      "property": {
        "useCreatorProperty": true,
        "isLockHP": true,
        "isGhostToEnemy": true
      },
      "beHit": {
        "hitBloodEffect": "",
        "muteAllHit": true,
        "muteAllHitEffect": true,
        "muteAllHitText": true
      },
      "combatLock": {
        "lockShape": "CircleLockEnemy",
        "denyLockOn": true,
        "lockType": "Default"
      }
    },
    "combatTemplate": "",
    "abilities": [
      {
        "abilityID": "",
        "abilityName": "Avatar_Yaoyao_ElementalArt_Rabbit_Throw",
        "abilityOverride": ""
      }
    ],
    "timer": {
      "lifeTime": 10.199999809265137
    },
    "move": {
      "$type": "BFDBCCCADKH",
      "speed": 18.0,
      "syncToRemote": true,
      "gravityOfAcceleration": 30.0,
      "useInitForwardIgnoreAngleOffHor": true,
      "GEBCKKDCGDP": "",
      "NKPHOKHJKGC": ""
    },
    "gadget": {
      "$type": "JENBBNKGGJP",
      "collision": {
        "ccd": {
          "damageRatio": "Always"
        },
        "targetType": "Enemy",
        "ignoreWater": true
      },
      "triggerActions": [
        {
          "$type": "AILPBJHDHDG",
          "abilityName": "Avatar_Yaoyao_ElementalArt_Rabbit_Throw"
        }
      ],
      "enableCollisionDelay": 0.10000000149011612
    }
  },
  "Yaoyao_ElementalArt_Rabbit_Throw_Short": {
    "$type": "CJKJIENLOHD",
    "common": {
      "effectAttachShape": {
        "$type": "OMIODKONOMG"
      },
      "affectedByWorld": true
    },
    "combat": {
      "property": {
        "useCreatorProperty": true,
        "isLockHP": true,
        "isGhostToEnemy": true
      },
      "beHit": {
        "hitBloodEffect": "",
        "muteAllHit": true,
        "muteAllHitEffect": true,
        "muteAllHitText": true
      },
      "combatLock": {
        "lockShape": "CircleLockEnemy",
        "denyLockOn": true,
        "lockType": "Default"
      }
    },
    "combatTemplate": "",
    "abilities": [
      {
        "abilityID": "",
        "abilityName": "Avatar_Yaoyao_ElementalArt_Rabbit_Throw",
        "abilityOverride": ""
      }
    ],
    "timer": {
      "lifeTime": 10.199999809265137
    },
    "move": {
      "$type": "BFDBCCCADKH",
      "speed": 8.5,
      "syncToRemote": true,
      "angleOffHor": 60.0,
      "gravityOfAcceleration": 30.0,
      "GEBCKKDCGDP": "",
      "NKPHOKHJKGC": ""
    },
    "gadget": {
      "$type": "JENBBNKGGJP",
      "collision": {
        "ccd": {
          "damageRatio": "Always"
        },
        "targetType": "Enemy",
        "ignoreWater": true
      },
      "triggerActions": [
        {
          "$type": "AILPBJHDHDG",
          "abilityName": "Avatar_Yaoyao_ElementalArt_Rabbit_Throw"
        }
      ],
      "enableCollisionDelay": 0.10000000149011612
    }
  },
  "Yaoyao_ElementalBurst_Rabbit": {
    "$type": "CJKJIENLOHD",
    "common": {
      "effectAttachShape": {
        "$type": "OMIODKONOMG"
      },
      "checkInSurface": true,
      "enableCrashDamage": false
    },
    "model": {
      "bornEffect": "",
      "attachEffect": "",
      "hasCharacterRenderering": true,
      "BKPFGNPLDNJ": ""
    },
    "hasModel": true,
    "combat": {
      "property": {
        "useCreatorProperty": true,
        "weight": 200.0,
        "isLockHP": true
      },
      "beHit": {
        "hitBloodEffect": "",
        "muteAllHit": true,
        "muteAllHitEffect": true,
        "muteAllHitText": true
      },
      "combatLock": {
        "lockShape": "CircleLockEnemy",
        "denyLockOn": true,
        "lockType": "Gadget_Lv1"
      }
    },
    "combatTemplate": "",
    "abilities": [
      {
        "abilityID": "",
        "abilityName": "Avatar_Yaoyao_ElementalBurst_Rabbit",
        "abilityOverride": ""
      }
    ],
    "timer": {
      "lifeTime": 7.5
    },
    "move": {
      "$type": "MGENMIHFEJO",
      "velocityForce": {
        "includeForces": ["RetreatType", "RetreatAirType", "WindZoneType"]
      }
    },
    "stateLayers": {
      "defaultLayer": {
        "$type": "GBGJJIIEMBD",
        "layerIndexName": "",
        "CPAANEIJCGD": "",
        "stateIDs": {
          "Yaoyao_ElementalArt_Rabbit_Idle": {
            "$type": "BEIEGKBABOF",
            "animatorStates": {
              "Idle": []
            }
          },
          "Yaoyao_ElementalArt_Rabbit_Attack": {
            "$type": "BEIEGKBABOF",
            "animatorStates": {
              "Attack": ["Yaoyao_ElementalBurst_Rabbit_Attack"]
            },
            "loopClampNormalizeTime": true
          }
        }
      }
    },
    "characterRendering": {
      "overrideTickInterval": 1
    }
  },
  "Yaoyao_ElementalBurst_Rabbit_Throw": {
    "$type": "CJKJIENLOHD",
    "common": {
      "effectAttachShape": {
        "$type": "OMIODKONOMG",
        "scaleX": 2.4000000953674316,
        "scaleY": 2.4000000953674316,
        "scaleZ": 2.4000000953674316
      },
      "affectedByWorld": true
    },
    "combat": {
      "property": {
        "useCreatorProperty": true,
        "isLockHP": true,
        "isGhostToEnemy": true
      },
      "beHit": {
        "hitBloodEffect": "",
        "muteAllHit": true,
        "muteAllHitEffect": true,
        "muteAllHitText": true
      },
      "combatLock": {
        "lockShape": "CircleLockEnemy",
        "denyLockOn": true,
        "lockType": "Default"
      }
    },
    "combatTemplate": "",
    "abilities": [
      {
        "abilityID": "",
        "abilityName": "Avatar_Yaoyao_ElementalBurst_Rabbit_Throw",
        "abilityOverride": ""
      }
    ],
    "timer": {
      "lifeTime": 3.0
    },
    "move": {
      "$type": "BFDBCCCADKH",
      "speed": 6.0,
      "acceleration": 1.0,
      "DPAAFHNMHHN": {
        "$type": "IFAANDLLGLP"
      },
      "gravityOfAcceleration": 25.0,
      "GEBCKKDCGDP": "",
      "NKPHOKHJKGC": ""
    },
    "gadget": {
      "$type": "JENBBNKGGJP",
      "collision": {
        "ccd": {
          "damageRatio": "Always"
        },
        "targetType": "Enemy",
        "ignoreWater": true
      },
      "triggerActions": [
        {
          "$type": "AILPBJHDHDG",
          "abilityName": "Avatar_Yaoyao_ElementalBurst_Rabbit_Throw"
        }
      ]
    }
  },
  "Yaoyao_ElementalBurst_Rabbit_Throw_Pre": {
    "$type": "CJKJIENLOHD",
    "common": {
      "effectAttachShape": {
        "$type": "OMIODKONOMG"
      },
      "enableCrashDamage": false
    },
    "model": {
      "bornEffect": "",
      "attachEffect": "",
      "hasCharacterRenderering": true,
      "BKPFGNPLDNJ": ""
    },
    "hasModel": true,
    "combat": {
      "property": {
        "useCreatorProperty": true,
        "isLockHP": true,
        "isGhostToEnemy": true
      },
      "beHit": {
        "hitBloodEffect": "",
        "muteAllHit": true,
        "muteAllHitEffect": true,
        "muteAllHitText": true
      },
      "combatLock": {
        "lockShape": "CircleLockEnemy",
        "denyLockOn": true,
        "lockType": "Default"
      }
    },
    "combatTemplate": "",
    "abilities": [
      {
        "abilityID": "",
        "abilityName": "Avatar_Yaoyao_ElementalBurst_Rabbit_Throw_Pre",
        "abilityOverride": ""
      }
    ],
    "timer": {
      "lifeTime": 1.5
    },
    "move": {
      "$type": "MMAPEFIEGAL",
      "attachPoint": "PRIVATE_Back",
      "followOwnerInvisible": true,
      "followPositionSmoothedDampTimeX": 0.11999999731779099,
      "followPositionSmoothedDampTimeY": 0.18000000715255737,
      "followPositionSmoothedDampTimeZ": 0.11999999731779099,
      "followRotationSmoothedDampTime": 0.5,
      "LFOHLEKJFBI": ""
    },
    "gadget": {
      "$type": "JENBBNKGGJP",
      "collision": {
        "ccd": {
          "damageRatio": "Always"
        },
        "targetType": "Enemy",
        "ignoreWater": true
      },
      "triggerActions": [
        {
          "$type": "AILPBJHDHDG",
          "abilityName": "Avatar_Yaoyao_ElementalBurst_Rabbit_Throw_Pre"
        }
      ],
      "triggerLifeOverActions": [
        {
          "$type": "AILPBJHDHDG",
          "abilityName": "Avatar_Yaoyao_ElementalBurst_Rabbit_Throw_Pre"
        }
      ]
    },
    "characterRendering": {
      "overrideTickInterval": 1
    },
    "canRemoveByClient": true
  },
  "Yaoyao_ElementalBurst_Rabbit_Throw_Pre_BulletTrigger": {
    "$type": "CJKJIENLOHD",
    "common": {
      "effectAttachShape": {
        "$type": "OMIODKONOMG"
      },
      "enableCrashDamage": false
    },
    "combat": {
      "property": {
        "useCreatorProperty": true,
        "isLockHP": true,
        "isGhostToEnemy": true
      },
      "beHit": {
        "hitBloodEffect": "",
        "muteAllHit": true,
        "muteAllHitEffect": true,
        "muteAllHitText": true
      },
      "combatLock": {
        "lockShape": "CircleLockEnemy",
        "denyLockOn": true,
        "lockType": "Default"
      }
    },
    "combatTemplate": "",
    "abilities": [
      {
        "abilityID": "",
        "abilityName": "Avatar_Yaoyao_ElementalBurst_Rabbit_Throw_Pre_BulletTrigger",
        "abilityOverride": ""
      }
    ],
    "timer": {
      "lifeTime": 1.5
    },
    "move": {
      "$type": "MMAPEFIEGAL",
      "target": "TargetEntity",
      "attachPoint": "BulletTrigger",
      "followOwnerInvisible": true,
      "LFOHLEKJFBI": ""
    },
    "gadget": {
      "$type": "JENBBNKGGJP",
      "collision": {
        "ccd": {
          "damageRatio": "Always"
        },
        "targetType": "Enemy",
        "ignoreWater": true
      },
      "triggerActions": [
        {
          "$type": "AILPBJHDHDG",
          "abilityName": "Avatar_Yaoyao_ElementalBurst_Rabbit_Throw_Pre_BulletTrigger"
        }
      ]
    },
    "canRemoveByClient": true
  }
}
