{
  "SceneObj_Area_Common_Property_Prop_EmptyFloraShelve_01": {
    "$type": "CJKJIENLOHD",
    "hasModel": true,
    "combat": {
      "property": {
        "hp": 99999.0,
        "isLockHP": true,
        "ignoreDamageToSelf": true
      }
    },
    "combatTemplate": "",
    "uiInteract": {
      "gadgetUIBtnCfgPath": "UI/open_custom_gadget_page",
      "uiName": "UI_HOMEWORLD_CUSTOM_BUTTON",
      "icon": "",
      "groupName": "",
      "confirmDialogTitle": "",
      "confirmDialogContent": "",
      "canInteractInCombat": false
    },
    "misc": {
      "customGadgetNode": {
        "cameraSettings": {
          "gadgetHeight": 1.7000000476837158
        },
        "slotMap": {
          "FlowerShelf": {
            "namedTransform": "FlowerShelf",
            "slotConfigId": 1000
          }
        }
      },
      "escapeEffect": ""
    },
    "intee": {
      "triggerHeight": 3.0,
      "KAMIAMNMFCP": ""
    }
  },
  "SceneObj_Area_Common_Property_Prop_SnowmanBody_01": {
    "$type": "CJKJIENLOHD",
    "hasModel": true,
    "combat": {
      "property": {
        "hp": 99999.0,
        "isLockHP": true,
        "ignoreDamageToSelf": true
      }
    },
    "combatTemplate": "",
    "uiInteract": {
      "gadgetUIBtnCfgPath": "UI/open_custom_gadget_page",
      "uiName": "UI_HOMEWORLD_CUSTOM_SNOWMANBUTTON",
      "icon": "",
      "groupName": "",
      "confirmDialogTitle": "",
      "confirmDialogContent": "",
      "canInteractInCombat": false
    },
    "misc": {
      "customGadgetNode": {
        "cameraSettings": {
          "gadgetHeight": 1.7000000476837158
        },
        "slotMap": {
          "Head": {
            "namedTransform": "Head",
            "slotConfigId": 11
          },
          "Hand": {
            "namedTransform": "Hand",
            "slotConfigId": 12
          }
        }
      },
      "escapeEffect": ""
    },
    "intee": {
      "triggerHeight": 3.0,
      "KAMIAMNMFCP": ""
    }
  },
  "SceneObj_Area_Dq_Property_Prop_Irodori_Miniascape_01": {
    "$type": "CJKJIENLOHD",
    "hasModel": true,
    "combat": {
      "property": {
        "hp": 99999.0,
        "isLockHP": true,
        "ignoreDamageToSelf": true
      }
    },
    "combatTemplate": "",
    "uiInteract": {
      "gadgetUIBtnCfgPath": "UI/open_custom_gadget_page",
      "uiName": "UI_HOMEWORLD_CUSTOM_MINIASCAPE",
      "icon": "",
      "groupName": "",
      "confirmDialogTitle": "",
      "confirmDialogContent": "",
      "canInteractInCombat": false
    },
    "misc": {
      "customGadgetNode": {
        "cameraSettings": {
          "gadgetHeight": 0.800000011920929
        },
        "slotMap": {
          "FrontScene": {
            "namedTransform": "FrontScene",
            "slotConfigId": 21
          },
          "BehindScene": {
            "namedTransform": "BehindScene",
            "slotConfigId": 22
          }
        }
      },
      "escapeEffect": ""
    },
    "intee": {
      "triggerRadius": 1.2000000476837158,
      "triggerHeight": 3.0,
      "KAMIAMNMFCP": ""
    }
  },
  "SceneObj_Area_Xm_Property_Prop_WoodAranaraStage_Slot_01": {
    "$type": "CJKJIENLOHD",
    "hasModel": true,
    "combat": {
      "property": {
        "hp": 99999.0,
        "isLockHP": true,
        "ignoreDamageToSelf": true
      }
    },
    "combatTemplate": "",
    "abilities": [
      {
        "abilityID": "SceneObj_Area_Xm_Property_Prop_WoodAranaraStage_Slot_01",
        "abilityName": "SceneObj_Area_Xm_Property_Prop_WoodAranaraStage_Slot_01",
        "abilityOverride": ""
      }
    ],
    "uiInteract": {
      "gadgetUIBtnCfgPath": "UI/open_custom_gadget_page",
      "uiName": "",
      "showCondTypes": ["HOST"],
      "icon": "",
      "groupName": "",
      "confirmDialogTitle": "",
      "confirmDialogContent": "",
      "canInteractInCombat": false
    },
    "misc": {
      "customGadgetNode": {
        "cameraSettings": {},
        "slotMap": {
          "Body": {
            "namedTransform": "Body",
            "slotConfigId": 1001
          }
        }
      },
      "escapeEffect": ""
    },
    "intee": {
      "triggerRadius": 1.5,
      "triggerHeight": 3.0,
      "KAMIAMNMFCP": ""
    }
  },
  "SceneObj_Area_Common_Property_Prop_Catcafe_Slot_01": {
    "$type": "CJKJIENLOHD",
    "globalValue": {
      "serverGlobalValues": ["SGV_Catcafe_Level"],
      "initServerGlobalValues": {
        "SGV_Catcafe_Level": 1.0
      }
    },
    "hasModel": true,
    "combat": {
      "property": {
        "hp": 99999.0,
        "isLockHP": true,
        "ignoreDamageToSelf": true
      }
    },
    "combatTemplate": "",
    "abilities": [
      {
        "abilityID": "General_DisableGadgetExtraButton0",
        "abilityName": "General_DisableGadgetExtraButton0",
        "abilityOverride": ""
      },
      {
        "abilityID": "SceneObj_Area_Common_Property_Prop_Catcafe_Slot_Ability",
        "abilityName": "SceneObj_Area_Common_Property_Prop_Catcafe_Slot_Ability",
        "abilityOverride": ""
      }
    ],
    "field": {
      "concernType": "AllAvatars",
      "shape": "CircleR2H2",
      "fromShape": "",
      "triggerInfinite": true,
      "lifeInfinite": true,
      "checkInterval": 0.25,
      "overwriteCampType": true,
      "campType": "SelfCamp",
      "colliderName": "",
      "fromColliderName": ""
    },
    "uiInteract": {
      "gadgetUIBtnCfgPath": "TEST/TEST_Chest_Btn",
      "uiName": "",
      "icon": "",
      "groupName": "",
      "confirmDialogTitle": "",
      "confirmDialogContent": "",
      "gadgetUIExtraItems": [
        {
          "gadgetUIBtnCfgPath": "UI/open_activity_catcafe_custom_gadget",
          "uiName": "UI_ACTIVITY_CATCAFE_DECO_INTERACTNAME",
          "showCombType": "LOGIC_AND",
          "showCondTypes": ["HOST"],
          "icon": "UI_Icon_Intee_Mechanism",
          "groupName": "",
          "confirmDialogTitle": "",
          "confirmDialogContent": ""
        },
        {
          "gadgetUIBtnCfgPath": "UI/open_actvity_CatCafeFeedDialogPage",
          "uiName": "UI_ACTIVITY_CATCAFE_FEED_INTERACTNAME",
          "showCombType": "LOGIC_AND",
          "showCondTypes": ["HOST"],
          "icon": "",
          "groupName": "",
          "confirmDialogTitle": "",
          "confirmDialogContent": "",
          "extraId": 2
        }
      ]
    },
    "misc": {
      "customGadgetNode": {
        "slotMap": {
          "GadgetPoint_1": {
            "namedTransform": "GadgetPoint_1",
            "slotConfigId": 100201
          },
          "GadgetPoint_2": {
            "namedTransform": "GadgetPoint_2",
            "slotConfigId": 100202
          },
          "GadgetPoint_3": {
            "namedTransform": "GadgetPoint_3",
            "slotConfigId": 100203
          },
          "GadgetPoint_4": {
            "namedTransform": "GadgetPoint_4",
            "slotConfigId": 100204
          }
        }
      },
      "escapeEffect": ""
    },
    "intee": {
      "triggerRadius": 2.0,
      "KAMIAMNMFCP": ""
    },
    "uiSetting": {
      "NICINEOCPLL": {
        "GOCGPKIMLPH": {
          "showDistance": 30.0,
          "attachPointName": "BillboardAttach",
          "worldOffset": {
            "y": 1.5
          }
        }
      }
    }
  },
  "SceneObj_Area_Common_Property_Prop_Catcafe_Slot_02": {
    "$type": "CJKJIENLOHD",
    "globalValue": {
      "serverGlobalValues": ["SGV_Catcafe_Level"],
      "initServerGlobalValues": {
        "SGV_Catcafe_Level": 2.0
      }
    },
    "hasModel": true,
    "combat": {
      "property": {
        "hp": 99999.0,
        "isLockHP": true,
        "ignoreDamageToSelf": true
      }
    },
    "combatTemplate": "",
    "abilities": [
      {
        "abilityID": "General_DisableGadgetExtraButton0",
        "abilityName": "General_DisableGadgetExtraButton0",
        "abilityOverride": ""
      },
      {
        "abilityID": "SceneObj_Area_Common_Property_Prop_Catcafe_Slot_Ability",
        "abilityName": "SceneObj_Area_Common_Property_Prop_Catcafe_Slot_Ability",
        "abilityOverride": ""
      }
    ],
    "field": {
      "concernType": "AllAvatars",
      "shape": "CircleR2H2",
      "fromShape": "",
      "triggerInfinite": true,
      "lifeInfinite": true,
      "checkInterval": 0.25,
      "overwriteCampType": true,
      "campType": "SelfCamp",
      "colliderName": "",
      "fromColliderName": ""
    },
    "uiInteract": {
      "gadgetUIBtnCfgPath": "TEST/TEST_Chest_Btn",
      "uiName": "",
      "icon": "",
      "groupName": "",
      "confirmDialogTitle": "",
      "confirmDialogContent": "",
      "gadgetUIExtraItems": [
        {
          "gadgetUIBtnCfgPath": "UI/open_activity_catcafe_custom_gadget",
          "uiName": "UI_ACTIVITY_CATCAFE_DECO_INTERACTNAME",
          "showCombType": "LOGIC_AND",
          "showCondTypes": ["HOST"],
          "icon": "UI_Icon_Intee_Mechanism",
          "groupName": "",
          "confirmDialogTitle": "",
          "confirmDialogContent": ""
        },
        {
          "gadgetUIBtnCfgPath": "UI/open_actvity_CatCafeFeedDialogPage",
          "uiName": "UI_ACTIVITY_CATCAFE_FEED_INTERACTNAME",
          "showCombType": "LOGIC_AND",
          "showCondTypes": ["HOST"],
          "icon": "",
          "groupName": "",
          "confirmDialogTitle": "",
          "confirmDialogContent": "",
          "extraId": 2
        }
      ]
    },
    "misc": {
      "customGadgetNode": {
        "slotMap": {
          "GadgetPoint_1": {
            "namedTransform": "GadgetPoint_1",
            "slotConfigId": 100205
          },
          "GadgetPoint_2": {
            "namedTransform": "GadgetPoint_2",
            "slotConfigId": 100206
          },
          "GadgetPoint_3": {
            "namedTransform": "GadgetPoint_3",
            "slotConfigId": 100207
          },
          "GadgetPoint_4": {
            "namedTransform": "GadgetPoint_4",
            "slotConfigId": 100208
          }
        }
      },
      "escapeEffect": ""
    },
    "intee": {
      "triggerRadius": 2.0,
      "KAMIAMNMFCP": ""
    },
    "uiSetting": {
      "NICINEOCPLL": {
        "GOCGPKIMLPH": {
          "showDistance": 30.0,
          "attachPointName": "BillboardAttach",
          "worldOffset": {
            "y": 1.5
          }
        }
      }
    }
  },
  "SceneObj_Area_Common_Property_Prop_Catcafe_Slot_03": {
    "$type": "CJKJIENLOHD",
    "globalValue": {
      "serverGlobalValues": ["SGV_Catcafe_Level"],
      "initServerGlobalValues": {
        "SGV_Catcafe_Level": 3.0
      }
    },
    "hasModel": true,
    "combat": {
      "property": {
        "hp": 99999.0,
        "isLockHP": true,
        "ignoreDamageToSelf": true
      }
    },
    "combatTemplate": "",
    "abilities": [
      {
        "abilityID": "General_DisableGadgetExtraButton0",
        "abilityName": "General_DisableGadgetExtraButton0",
        "abilityOverride": ""
      },
      {
        "abilityID": "SceneObj_Area_Common_Property_Prop_Catcafe_Slot_Ability",
        "abilityName": "SceneObj_Area_Common_Property_Prop_Catcafe_Slot_Ability",
        "abilityOverride": ""
      }
    ],
    "field": {
      "concernType": "AllAvatars",
      "shape": "CircleR2H2",
      "fromShape": "",
      "triggerInfinite": true,
      "lifeInfinite": true,
      "checkInterval": 0.25,
      "overwriteCampType": true,
      "campType": "SelfCamp",
      "colliderName": "",
      "fromColliderName": ""
    },
    "uiInteract": {
      "gadgetUIBtnCfgPath": "TEST/TEST_Chest_Btn",
      "uiName": "",
      "icon": "",
      "groupName": "",
      "confirmDialogTitle": "",
      "confirmDialogContent": "",
      "gadgetUIExtraItems": [
        {
          "gadgetUIBtnCfgPath": "UI/open_activity_catcafe_custom_gadget",
          "uiName": "UI_ACTIVITY_CATCAFE_DECO_INTERACTNAME",
          "showCombType": "LOGIC_AND",
          "showCondTypes": ["HOST"],
          "icon": "UI_Icon_Intee_Mechanism",
          "groupName": "",
          "confirmDialogTitle": "",
          "confirmDialogContent": ""
        },
        {
          "gadgetUIBtnCfgPath": "UI/open_actvity_CatCafeFeedDialogPage",
          "uiName": "UI_ACTIVITY_CATCAFE_FEED_INTERACTNAME",
          "showCombType": "LOGIC_AND",
          "showCondTypes": ["HOST"],
          "icon": "",
          "groupName": "",
          "confirmDialogTitle": "",
          "confirmDialogContent": "",
          "extraId": 2
        }
      ]
    },
    "misc": {
      "customGadgetNode": {
        "slotMap": {
          "GadgetPoint_1": {
            "namedTransform": "GadgetPoint_1",
            "slotConfigId": 100209
          },
          "GadgetPoint_2": {
            "namedTransform": "GadgetPoint_2",
            "slotConfigId": 100210
          },
          "GadgetPoint_3": {
            "namedTransform": "GadgetPoint_3",
            "slotConfigId": 100211
          },
          "GadgetPoint_4": {
            "namedTransform": "GadgetPoint_4",
            "slotConfigId": 100212
          },
          "GadgetPoint_5": {
            "namedTransform": "GadgetPoint_5",
            "slotConfigId": 100213
          }
        }
      },
      "escapeEffect": ""
    },
    "intee": {
      "triggerRadius": 2.0,
      "KAMIAMNMFCP": ""
    },
    "uiSetting": {
      "NICINEOCPLL": {
        "GOCGPKIMLPH": {
          "showDistance": 30.0,
          "attachPointName": "BillboardAttach",
          "worldOffset": {
            "y": 1.5
          }
        }
      }
    }
  },
  "SceneObj_Area_Common_Property_Prop_Catcafe_Slot_04": {
    "$type": "CJKJIENLOHD",
    "globalValue": {
      "serverGlobalValues": ["SGV_Catcafe_Level"],
      "initServerGlobalValues": {
        "SGV_Catcafe_Level": 4.0
      }
    },
    "hasModel": true,
    "combat": {
      "property": {
        "hp": 99999.0,
        "isLockHP": true,
        "ignoreDamageToSelf": true
      }
    },
    "combatTemplate": "",
    "abilities": [
      {
        "abilityID": "General_DisableGadgetExtraButton0",
        "abilityName": "General_DisableGadgetExtraButton0",
        "abilityOverride": ""
      },
      {
        "abilityID": "SceneObj_Area_Common_Property_Prop_Catcafe_Slot_Ability",
        "abilityName": "SceneObj_Area_Common_Property_Prop_Catcafe_Slot_Ability",
        "abilityOverride": ""
      }
    ],
    "field": {
      "concernType": "AllAvatars",
      "shape": "CircleR2H2",
      "fromShape": "",
      "triggerInfinite": true,
      "lifeInfinite": true,
      "checkInterval": 0.25,
      "overwriteCampType": true,
      "campType": "SelfCamp",
      "colliderName": "",
      "fromColliderName": ""
    },
    "uiInteract": {
      "gadgetUIBtnCfgPath": "TEST/TEST_Chest_Btn",
      "uiName": "",
      "icon": "",
      "groupName": "",
      "confirmDialogTitle": "",
      "confirmDialogContent": "",
      "gadgetUIExtraItems": [
        {
          "gadgetUIBtnCfgPath": "UI/open_activity_catcafe_custom_gadget",
          "uiName": "UI_ACTIVITY_CATCAFE_DECO_INTERACTNAME",
          "showCombType": "LOGIC_AND",
          "showCondTypes": ["HOST"],
          "icon": "UI_Icon_Intee_Mechanism",
          "groupName": "",
          "confirmDialogTitle": "",
          "confirmDialogContent": ""
        },
        {
          "gadgetUIBtnCfgPath": "UI/open_actvity_CatCafeFeedDialogPage",
          "uiName": "UI_ACTIVITY_CATCAFE_FEED_INTERACTNAME",
          "showCombType": "LOGIC_AND",
          "showCondTypes": ["HOST"],
          "icon": "",
          "groupName": "",
          "confirmDialogTitle": "",
          "confirmDialogContent": "",
          "extraId": 2
        }
      ]
    },
    "misc": {
      "customGadgetNode": {
        "slotMap": {
          "GadgetPoint_1": {
            "namedTransform": "GadgetPoint_1",
            "slotConfigId": 100214
          },
          "GadgetPoint_2": {
            "namedTransform": "GadgetPoint_2",
            "slotConfigId": 100215
          },
          "GadgetPoint_3": {
            "namedTransform": "GadgetPoint_3",
            "slotConfigId": 100216
          },
          "GadgetPoint_4": {
            "namedTransform": "GadgetPoint_4",
            "slotConfigId": 100217
          },
          "GadgetPoint_5": {
            "namedTransform": "GadgetPoint_5",
            "slotConfigId": 100218
          }
        }
      },
      "escapeEffect": ""
    },
    "intee": {
      "triggerRadius": 2.0,
      "KAMIAMNMFCP": ""
    },
    "uiSetting": {
      "NICINEOCPLL": {
        "GOCGPKIMLPH": {
          "showDistance": 30.0,
          "attachPointName": "BillboardAttach",
          "worldOffset": {
            "y": 1.5
          }
        }
      }
    }
  },
  "SceneObj_Area_Common_Property_Prop_Catcafe_Slot_05": {
    "$type": "CJKJIENLOHD",
    "globalValue": {
      "serverGlobalValues": ["SGV_Catcafe_Level"],
      "initServerGlobalValues": {
        "SGV_Catcafe_Level": 5.0
      }
    },
    "hasModel": true,
    "combat": {
      "property": {
        "hp": 99999.0,
        "isLockHP": true,
        "ignoreDamageToSelf": true
      }
    },
    "combatTemplate": "",
    "abilities": [
      {
        "abilityID": "General_DisableGadgetExtraButton0",
        "abilityName": "General_DisableGadgetExtraButton0",
        "abilityOverride": ""
      },
      {
        "abilityID": "SceneObj_Area_Common_Property_Prop_Catcafe_Slot_Ability",
        "abilityName": "SceneObj_Area_Common_Property_Prop_Catcafe_Slot_Ability",
        "abilityOverride": ""
      }
    ],
    "field": {
      "concernType": "AllAvatars",
      "shape": "CircleR2H2",
      "fromShape": "",
      "triggerInfinite": true,
      "lifeInfinite": true,
      "checkInterval": 0.25,
      "overwriteCampType": true,
      "campType": "SelfCamp",
      "colliderName": "",
      "fromColliderName": ""
    },
    "uiInteract": {
      "gadgetUIBtnCfgPath": "TEST/TEST_Chest_Btn",
      "uiName": "",
      "icon": "",
      "groupName": "",
      "confirmDialogTitle": "",
      "confirmDialogContent": "",
      "gadgetUIExtraItems": [
        {
          "gadgetUIBtnCfgPath": "UI/open_activity_catcafe_custom_gadget",
          "uiName": "UI_ACTIVITY_CATCAFE_DECO_INTERACTNAME",
          "showCombType": "LOGIC_AND",
          "showCondTypes": ["HOST"],
          "icon": "UI_Icon_Intee_Mechanism",
          "groupName": "",
          "confirmDialogTitle": "",
          "confirmDialogContent": ""
        },
        {
          "gadgetUIBtnCfgPath": "UI/open_actvity_CatCafeFeedDialogPage",
          "uiName": "UI_ACTIVITY_CATCAFE_FEED_INTERACTNAME",
          "showCombType": "LOGIC_AND",
          "showCondTypes": ["HOST"],
          "icon": "",
          "groupName": "",
          "confirmDialogTitle": "",
          "confirmDialogContent": "",
          "extraId": 2
        }
      ]
    },
    "misc": {
      "customGadgetNode": {
        "slotMap": {
          "GadgetPoint_1": {
            "namedTransform": "GadgetPoint_1",
            "slotConfigId": 100219
          },
          "GadgetPoint_3": {
            "namedTransform": "GadgetPoint_3",
            "slotConfigId": 100221
          },
          "GadgetPoint_4": {
            "namedTransform": "GadgetPoint_4",
            "slotConfigId": 100222
          },
          "GadgetPoint_5": {
            "namedTransform": "GadgetPoint_5",
            "slotConfigId": 100223
          },
          "GadgetPoint_6": {
            "namedTransform": "GadgetPoint_6",
            "slotConfigId": 100224
          }
        }
      },
      "escapeEffect": ""
    },
    "intee": {
      "triggerRadius": 2.0,
      "KAMIAMNMFCP": ""
    },
    "uiSetting": {
      "NICINEOCPLL": {
        "GOCGPKIMLPH": {
          "showDistance": 30.0,
          "attachPointName": "BillboardAttach",
          "worldOffset": {
            "y": 1.5
          }
        }
      }
    }
  },
  "SceneObj_Area_Common_Property_Ani_Prop_AlchemySimShelf_01": {
    "$type": "CJKJIENLOHD",
    "globalValue": {
      "serverGlobalValues": ["SGV_AlchemySimShelf_unlock"],
      "initServerGlobalValues": {
        "SGV_AlchemySimShelf_unlock": 0.0
      }
    },
    "hasModel": true,
    "combat": {
      "property": {
        "hp": 99999.0,
        "isInvincible": true,
        "isLockHP": true,
        "isGhostToAllied": true,
        "isGhostToEnemy": true
      },
      "combatLock": {
        "lockShape": "CircleLockEnemy",
        "denyLockOn": true,
        "lockType": "Default"
      }
    },
    "combatTemplate": "",
    "abilities": [
      {
        "abilityID": "General_DisableGadgetExtraButton0",
        "abilityName": "General_DisableGadgetExtraButton0",
        "abilityOverride": ""
      },
      {
        "abilityID": "Scene_RockGadget_Summon_Detect",
        "abilityName": "Scene_RockGadget_Summon_Detect",
        "abilityOverride": ""
      },
      {
        "abilityID": "SceneObj_Area_Common_Property_Ani_Prop_AlchemySimShelf_Ability",
        "abilityName": "SceneObj_Area_Common_Property_Ani_Prop_AlchemySimShelf_Ability",
        "abilityOverride": ""
      }
    ],
    "uiInteract": {
      "gadgetUIBtnCfgPath": "TEST/TEST_Chest_Btn",
      "uiName": "",
      "icon": "",
      "groupName": "",
      "confirmDialogTitle": "",
      "confirmDialogContent": "",
      "gadgetUIExtraItems": [
        {
          "gadgetUIBtnCfgPath": "UI/open_custom_gadget_page",
          "uiName": "UI_ACTIVITY_ALCHEMYSIM_SHELF",
          "showCombType": "LOGIC_AND",
          "icon": "",
          "groupName": "",
          "confirmDialogTitle": "",
          "confirmDialogContent": "",
          "showCondTypesV2": ["SINGLE"]
        }
      ]
    },
    "misc": {
      "customGadgetNode": {
        "cameraSettings": {
          "gadgetHeight": 1.7000000476837158
        },
        "slotMap": {
          "Potion1": {
            "namedTransform": "Potion1",
            "slotConfigId": 100225
          },
          "Potion2": {
            "namedTransform": "Potion2",
            "slotConfigId": 100226
          },
          "Potion3": {
            "namedTransform": "Potion3",
            "slotConfigId": 100227
          },
          "Potion4": {
            "namedTransform": "Potion4",
            "slotConfigId": 100228
          },
          "Potion5": {
            "namedTransform": "Potion5",
            "slotConfigId": 100229
          },
          "Potion6": {
            "namedTransform": "Potion6",
            "slotConfigId": 100230
          }
        }
      },
      "escapeEffect": ""
    }
  },
  "SceneObj_Area_Common_Property_Ani_Prop_AlchemySimBottle_01": {
    "$type": "CJKJIENLOHD",
    "hasModel": true,
    "combat": {
      "property": {
        "hp": 99999.0,
        "isInvincible": true,
        "isLockHP": true,
        "isGhostToAllied": true,
        "isGhostToEnemy": true
      },
      "combatLock": {
        "lockShape": "CircleLockEnemy",
        "denyLockOn": true,
        "lockType": "Default"
      }
    },
    "combatTemplate": "",
    "misc": {
      "customGadgetNode": {
        "slotMap": {
          "Decoration": {
            "namedTransform": "Decoration",
            "slotConfigId": 100231
          }
        }
      },
      "escapeEffect": ""
    }
  }
}
