{
  "Sigewinne_Extra_Bubble_Bullet": {
    "$type": "CJKJIENLOHD",
    "common": {
      "effectAttachShape": {
        "$type": "OMIODKONOMG"
      }
    },
    "combat": {
      "property": {
        "useCreatorProperty": true,
        "isInvincible": true,
        "canTriggerBullet": false
      },
      "beHit": {
        "hitBloodEffect": "",
        "muteAllHit": true,
        "muteAllHitEffect": true,
        "muteAllHitText": true
      },
      "combatLock": {
        "lockShape": "CircleLockEnemy",
        "denyLockOn": true,
        "lockType": "Default"
      }
    },
    "combatTemplate": "",
    "abilities": [
      {
        "abilityID": "Sigewinne_Extra_Bubble_Bullet",
        "abilityName": "Sigewinne_Extra_Bubble_Bullet",
        "abilityOverride": ""
      }
    ],
    "timer": {
      "lifeTime": 3.5
    },
    "move": {
      "$type": "GONNMCBKAOC",
      "velocityForce": {
        "muteAll": true
      },
      "speed": 5.5,
      "maxSpeed": 20.0,
      "DPAAFHNMHHN": {
        "$type": "IFAANDLLGLP"
      }
    },
    "gadget": {
      "$type": "JENBBNKGGJP",
      "collision": {
        "ccd": {
          "damageRatio": "Always"
        },
        "targetType": "Enemy"
      },
      "triggerActions": [
        {
          "$type": "AILPBJHDHDG",
          "abilityName": "Sigewinne_Extra_Bubble_Bullet"
        }
      ],
      "triggerLifeOverActions": [
        {
          "$type": "AILPBJHDHDG",
          "abilityName": "Sigewinne_Extra_Bubble_Bullet"
        }
      ],
      "dieDelayTime": 0.5,
      "fireAISoundEvent": true,
      "resetLastPosOnDelayEnd": true
    }
  },
  "Sigewinne_EArt_Bullet_Normal": {
    "$type": "CJKJIENLOHD",
    "common": {
      "effectAttachShape": {
        "$type": "OMIODKONOMG",
        "scaleZ": 0.4000000059604645
      },
      "mass": 5.0,
      "affectedByWorld": true,
      "checkInSurface": true
    },
    "combat": {
      "property": {
        "useCreatorProperty": true,
        "isLockHP": true,
        "isGhostToAllied": true
      },
      "combatLock": {
        "lockShape": "CircleLockEnemy",
        "denyLockOn": true,
        "lockType": "Gadget_Lv1"
      }
    },
    "combatTemplate": "",
    "abilities": [
      {
        "abilityID": "",
        "abilityName": "Sigewinne_EArt_Bullet_Normal",
        "abilityOverride": ""
      },
      {
        "abilityID": "",
        "abilityName": "Sigewinne_EArt_Bullet_TriggerNext",
        "abilityOverride": ""
      }
    ],
    "timer": {
      "lifeTime": 2.5
    },
    "move": {
      "$type": "HEADEKDJIPD",
      "velocityForce": {
        "muteAll": true
      },
      "speed": 8.0,
      "acceleration": 2.5,
      "DPAAFHNMHHN": {
        "$type": "IFAANDLLGLP"
      },
      "angleOffHor": 65.0,
      "gravityOfAcceleration": 10.0,
      "delayTime": 0.5,
      "trackAngularVelocityLerpTime": 0.550000011920929,
      "targetDistance": 1.0
    },
    "gadget": {
      "$type": "JENBBNKGGJP",
      "collision": {
        "ccd": {
          "damageRatio": "Always"
        },
        "triggerCD": 0.10000000149011612,
        "targetType": "AllExceptSelf",
        "bornWithTriggerEnabled": false
      },
      "triggerActions": [
        {
          "$type": "AILPBJHDHDG",
          "abilityName": "Sigewinne_EArt_Bullet_Normal"
        }
      ],
      "triggerLifeOverActions": [
        {
          "$type": "AILPBJHDHDG",
          "abilityName": "Sigewinne_EArt_Bullet_Normal"
        }
      ],
      "dieDelayTime": 2.0,
      "fireAISoundEvent": true,
      "enableCollisionDelay": 0.4000000059604645,
      "resetLastPosOnDelayEnd": true,
      "reTriggerOnDelayEnd": true
    }
  },
  "Sigewinne_EArt_Bullet_Normal_Shoot_NoTarget": {
    "$type": "CJKJIENLOHD",
    "common": {
      "effectAttachShape": {
        "$type": "OMIODKONOMG",
        "scaleZ": 0.4000000059604645
      },
      "mass": 5.0,
      "affectedByWorld": true,
      "checkInSurface": true
    },
    "combat": {
      "property": {
        "useCreatorProperty": true,
        "isLockHP": true,
        "isGhostToAllied": true
      },
      "combatLock": {
        "lockShape": "CircleLockEnemy",
        "denyLockOn": true,
        "lockType": "Gadget_Lv1"
      }
    },
    "combatTemplate": "",
    "abilities": [
      {
        "abilityID": "",
        "abilityName": "Sigewinne_EArt_Bullet_Normal",
        "abilityOverride": ""
      },
      {
        "abilityID": "",
        "abilityName": "Sigewinne_EArt_Bullet_TriggerNext",
        "abilityOverride": ""
      }
    ],
    "timer": {
      "lifeTime": 2.5
    },
    "move": {
      "$type": "HEADEKDJIPD",
      "velocityForce": {
        "muteAll": true
      },
      "speed": 8.0,
      "acceleration": 2.5,
      "DPAAFHNMHHN": {
        "$type": "IFAANDLLGLP"
      },
      "angleOffHor": 65.0,
      "gravityOfAcceleration": 10.0,
      "delayTime": 0.5,
      "trackAngularVelocityLerpTime": 0.550000011920929,
      "targetDistance": 1.0
    },
    "gadget": {
      "$type": "JENBBNKGGJP",
      "collision": {
        "ccd": {
          "damageRatio": "Always"
        },
        "triggerCD": 0.10000000149011612,
        "targetType": "AllExceptSelf",
        "bornWithTriggerEnabled": false
      },
      "triggerActions": [
        {
          "$type": "AILPBJHDHDG",
          "abilityName": "Sigewinne_EArt_Bullet_Normal"
        }
      ],
      "triggerLifeOverActions": [
        {
          "$type": "AILPBJHDHDG",
          "abilityName": "Sigewinne_EArt_Bullet_Normal"
        }
      ],
      "dieDelayTime": 2.0,
      "fireAISoundEvent": true,
      "enableCollisionDelay": 0.4000000059604645,
      "resetLastPosOnDelayEnd": true,
      "reTriggerOnDelayEnd": true
    }
  },
  "Sigewinne_EArt_Bullet_No_Enemy": {
    "$type": "CJKJIENLOHD",
    "common": {
      "effectAttachShape": {
        "$type": "OMIODKONOMG",
        "scaleZ": 0.4000000059604645
      },
      "mass": 5.0,
      "affectedByWorld": true,
      "checkInSurface": true
    },
    "combat": {
      "property": {
        "useCreatorProperty": true,
        "isLockHP": true,
        "isGhostToAllied": true
      },
      "combatLock": {
        "lockShape": "CircleLockEnemy",
        "denyLockOn": true,
        "lockType": "Gadget_Lv1"
      }
    },
    "combatTemplate": "",
    "abilities": [
      {
        "abilityID": "",
        "abilityName": "Sigewinne_EArt_Bullet_Normal",
        "abilityOverride": ""
      },
      {
        "abilityID": "",
        "abilityName": "Sigewinne_EArt_Bullet_TriggerNext",
        "abilityOverride": ""
      }
    ],
    "timer": {
      "lifeTime": 2.5
    },
    "move": {
      "$type": "BFDBCCCADKH",
      "speed": 8.0,
      "acceleration": 2.5,
      "angleOffHor": 65.0,
      "gravityOfAcceleration": 10.0,
      "GEBCKKDCGDP": "",
      "NKPHOKHJKGC": ""
    },
    "gadget": {
      "$type": "JENBBNKGGJP",
      "collision": {
        "ccd": {
          "damageRatio": "Always"
        },
        "triggerCD": 0.10000000149011612,
        "targetType": "AllExceptSelf",
        "bornWithTriggerEnabled": false
      },
      "triggerActions": [
        {
          "$type": "AILPBJHDHDG",
          "abilityName": "Sigewinne_EArt_Bullet_Normal"
        }
      ],
      "triggerLifeOverActions": [
        {
          "$type": "AILPBJHDHDG",
          "abilityName": "Sigewinne_EArt_Bullet_Normal"
        }
      ],
      "dieDelayTime": 2.0,
      "fireAISoundEvent": true,
      "enableCollisionDelay": 0.20000000298023224,
      "resetLastPosOnDelayEnd": true,
      "reTriggerOnDelayEnd": true
    }
  },
  "Sigewinne_EArt_Bullet_One_Enemy": {
    "$type": "CJKJIENLOHD",
    "common": {
      "effectAttachShape": {
        "$type": "OMIODKONOMG"
      },
      "affectedByWorld": true
    },
    "combat": {
      "property": {
        "useCreatorProperty": true,
        "isInvincible": true,
        "canTriggerBullet": false
      },
      "beHit": {
        "hitBloodEffect": "",
        "muteAllHit": true,
        "muteAllHitEffect": true,
        "muteAllHitText": true
      },
      "combatLock": {
        "lockShape": "CircleLockEnemy",
        "denyLockOn": true,
        "lockType": "Default"
      }
    },
    "combatTemplate": "",
    "abilities": [
      {
        "abilityID": "",
        "abilityName": "Sigewinne_EArt_Bullet_Normal",
        "abilityOverride": ""
      },
      {
        "abilityID": "",
        "abilityName": "Sigewinne_EArt_Bullet_TriggerNext",
        "abilityOverride": ""
      },
      {
        "abilityID": "",
        "abilityName": "Sigewinne_EArt_Bullet_One_Enemy",
        "abilityOverride": ""
      }
    ],
    "timer": {
      "lifeTime": 2.0
    },
    "move": {
      "$type": "HEADEKDJIPD",
      "velocityForce": {
        "muteAll": true
      },
      "speed": 8.0,
      "acceleration": 2.5,
      "DPAAFHNMHHN": {
        "$type": "IFAANDLLGLP"
      },
      "angleOffHor": 90.0,
      "gravityOfAcceleration": 10.0,
      "delayTime": 0.5,
      "trackAngularVelocityLerpTime": 0.550000011920929
    },
    "gadget": {
      "$type": "JENBBNKGGJP",
      "collision": {
        "targetType": "Enemy"
      },
      "triggerActions": [
        {
          "$type": "AILPBJHDHDG",
          "abilityName": "Sigewinne_EArt_Bullet_Normal"
        }
      ],
      "triggerLifeOverActions": [
        {
          "$type": "AILPBJHDHDG",
          "abilityName": "Sigewinne_EArt_Bullet_Normal"
        }
      ],
      "fireAISoundEvent": true,
      "enableCollisionDelay": 0.4000000059604645,
      "resetLastPosOnDelayEnd": true,
      "reTriggerOnDelayEnd": true
    }
  },
  "Sigewinne_EArt_Bullet_Normal_New": {
    "$type": "CJKJIENLOHD",
    "common": {
      "effectAttachShape": {
        "$type": "OMIODKONOMG",
        "scaleZ": 0.4000000059604645
      },
      "mass": 5.0,
      "affectedByWorld": true,
      "checkInSurface": true
    },
    "combat": {
      "property": {
        "useCreatorProperty": true,
        "isLockHP": true,
        "isGhostToAllied": true
      },
      "combatLock": {
        "lockShape": "CircleLockEnemy",
        "denyLockOn": true,
        "lockType": "Gadget_Lv1"
      }
    },
    "combatTemplate": "",
    "abilities": [
      {
        "abilityID": "",
        "abilityName": "Sigewinne_EArt_Bullet_Normal",
        "abilityOverride": ""
      },
      {
        "abilityID": "",
        "abilityName": "Avatar_Sigewinne_ElementalArt_Bubble_Bullet_New",
        "abilityOverride": ""
      }
    ],
    "timer": {
      "lifeTime": 20.0
    },
    "move": {
      "$type": "MGLKBLCHJLH",
      "velocityForce": {
        "muteAll": true
      },
      "speed": 8.0,
      "maxSpeed": 25.0,
      "DPAAFHNMHHN": {
        "$type": "IFAANDLLGLP"
      },
      "syncToRemote": true,
      "LCEHICKABDH": "_ABILITY_Avatar_Sigewinne_EArt_Bullet_RepeatStep",
      "GKMLNHJGHBA": "_ABILITY_Avatar_Sigewinne_EArt_Bullet_TargetGV",
      "JCFGDKFHHFM": "_ABILITY_Avatar_Sigewinne_EArt_Bullet_NoTarget_Pos",
      "ONMHADFJELI": 2.0,
      "IDPDILPHPOF": 8.0,
      "gravity": 10.0,
      "HBMJGGJEIPI": 20.0,
      "JLDDLOPOOGI": 10.0,
      "APBCEOJDCDG": 10.0,
      "DKNEHAGMLJA": 0.5,
      "IDFFABBHBGH": 0.20000000298023224,
      "DPGLCKOJFKK": 0.6000000238418579,
      "IFBIOAMEAJJ": 2.200000047683716,
      "IOAKECNJIIO": [
        {
          "$type": "AILPBJHDHDG",
          "abilityName": "Sigewinne_EArt_Bullet_Normal"
        },
        {
          "$type": "AILPBJHDHDG",
          "abilityName": "Avatar_Sigewinne_ElementalArt_Bubble_Bullet_New"
        }
      ]
    },
    "gadget": {
      "$type": "JENBBNKGGJP",
      "collision": {
        "targetType": "Enemy",
        "bornWithTriggerEnabled": false
      },
      "triggerActions": [
        {
          "$type": "AILPBJHDHDG",
          "abilityName": "Sigewinne_EArt_Bullet_Normal"
        },
        {
          "$type": "AILPBJHDHDG",
          "abilityName": "Avatar_Sigewinne_ElementalArt_Bubble_Bullet_New"
        }
      ],
      "triggerLifeOverActions": [
        {
          "$type": "AILPBJHDHDG",
          "abilityName": "Sigewinne_EArt_Bullet_Normal"
        }
      ],
      "killByOther": true,
      "dieDelayTime": 2.0,
      "fireAISoundEvent": true,
      "resetLastPosOnDelayEnd": true,
      "reTriggerOnDelayEnd": true
    }
  },
  "Sigewinne_ElementalArt_Core": {
    "$type": "CJKJIENLOHD",
    "combat": {
      "property": {
        "useCreatorProperty": true,
        "useCreatorBuffedProperty": false,
        "hp": 99999.0,
        "defense": 99999.0,
        "isLockHP": true,
        "isGhostToEnemy": true
      },
      "combatLock": {
        "lockShape": "CircleLockEnemy",
        "denyLockOn": true,
        "lockType": "Gadget_Lv1"
      }
    },
    "combatTemplate": "",
    "abilities": [
      {
        "abilityID": "Player_Water_ElementalArt_Core",
        "abilityName": "Player_Water_ElementalArt_Core",
        "abilityOverride": ""
      },
      {
        "abilityID": "Avatar_Sigewinne_ElementalArt_Core_Eff",
        "abilityName": "Avatar_Sigewinne_ElementalArt_Core_Eff",
        "abilityOverride": ""
      },
      {
        "abilityID": "Avatar_Neuvillette_Core_Gadget",
        "abilityName": "Avatar_Neuvillette_Core_Gadget",
        "abilityOverride": ""
      },
      {
        "abilityID": "Avatar_Sigewinne_ElementalArt_Core",
        "abilityName": "Avatar_Sigewinne_ElementalArt_Core",
        "abilityOverride": ""
      }
    ],
    "field": {
      "concernType": "AllAvatars",
      "shape": "CircleR1",
      "fromShape": "",
      "triggerInfinite": true,
      "checkInterval": 0.10000000149011612,
      "lifeTime": 16.0,
      "overwriteCampType": true,
      "campType": "All",
      "useCollider": false,
      "colliderName": "",
      "fromColliderName": ""
    },
    "move": {
      "$type": "MGENMIHFEJO",
      "velocityForce": {
        "includeForces": ["WindZoneType"]
      },
      "startCloseToGround": false,
      "enableCloseToGroundWhenTick": false
    }
  },
  "Sigewinne_Arrow_01": {
    "$type": "CJKJIENLOHD",
    "common": {
      "effectAttachShape": {
        "$type": "OMIODKONOMG",
        "scaleX": 0.5,
        "scaleY": 0.5
      },
      "affectedByWorld": true
    },
    "combat": {
      "property": {
        "useCreatorProperty": true,
        "isInvincible": true,
        "canTriggerBullet": false
      },
      "beHit": {
        "hitBloodEffect": "",
        "muteAllHit": true,
        "muteAllHitEffect": true,
        "muteAllHitText": true
      },
      "combatLock": {
        "lockShape": "CircleLockEnemy",
        "denyLockOn": true,
        "lockType": "Gadget_Lv1"
      },
      "animEvents": {
        "ATK01": {
          "attackPattern": {
            "$type": "ConfigAttackBox",
            "triggerType": "TriggerNoRepeat",
            "checkHitLayerType": "Both",
            "born": {
              "$type": "ConfigBornByCollisionPoint",
              "offset": {
                "x": 0.0,
                "y": 0.0,
                "z": -0.5
              }
            },
            "size": {
              "x": 0.10000000149011612,
              "y": 0.10000000149011612,
              "z": 1.0
            }
          },
          "attackInfo": {
            "attackTag": "NormalAttack_01",
            "attenuationTag": "",
            "attenuationGroup": "default",
            "attackProperty": {
              "actorGrassSubHurtDelta": 0.0,
              "actorWindSubHurtDelta": 0.0,
              "elementDurability": 100.0,
              "strikeType": "Pierce",
              "enBreak": 18.354000091552734,
              "GLKMCMDJBIK": 0.0
            },
            "hitPattern": {
              "onHitEffectName": "default",
              "hitImpulseY": "",
              "hitImpulseType": "LV1"
            },
            "cameraShake": {
              "shakeRange": 0.019999999552965164,
              "shakeTime": 0.10000000149011612
            },
            "canBeModifiedBy": "OriginOwner"
          }
        }
      }
    },
    "combatTemplate": "",
    "abilities": [
      {
        "abilityID": "Arrow_Material",
        "abilityName": "Avatar_Sigewinne_ShootArrow_Light_Material",
        "abilityOverride": ""
      },
      {
        "abilityID": "Arrow_Damage",
        "abilityName": "Avatar_Sigewinne_ShootArrow_Damage",
        "abilityOverride": ""
      }
    ],
    "timer": {
      "lifeTime": 8.0
    },
    "move": {
      "$type": "BFICFPAEFPB",
      "speed": 30.0,
      "DPAAFHNMHHN": {
        "$type": "IFAANDLLGLP"
      },
      "straightRange": 7.0,
      "gravityOfAcceleration": 15.0,
      "airResistance": 0.009999999776482582
    },
    "gadget": {
      "$type": "JENBBNKGGJP",
      "collision": {
        "targetType": "Enemy"
      },
      "triggerActions": [
        {
          "$type": "NMMEILICBAE",
          "attackEvent": "ATK01"
        },
        {
          "$type": "AILPBJHDHDG",
          "abilityName": "Avatar_Sigewinne_ShootArrow_Light_Material"
        }
      ],
      "fireAISoundEvent": true
    }
  },
  "Sigewinne_Arrow_02": {
    "$type": "CJKJIENLOHD",
    "common": {
      "effectAttachShape": {
        "$type": "OMIODKONOMG",
        "scaleX": 0.5,
        "scaleY": 0.5
      },
      "affectedByWorld": true
    },
    "combat": {
      "property": {
        "useCreatorProperty": true,
        "isInvincible": true,
        "canTriggerBullet": false
      },
      "beHit": {
        "hitBloodEffect": "",
        "muteAllHit": true,
        "muteAllHitEffect": true,
        "muteAllHitText": true
      },
      "combatLock": {
        "lockShape": "CircleLockEnemy",
        "denyLockOn": true,
        "lockType": "Gadget_Lv1"
      },
      "animEvents": {
        "ATK02": {
          "attackPattern": {
            "$type": "ConfigAttackSphere",
            "triggerType": "TriggerNoRepeat",
            "checkHitLayerType": "Both",
            "born": {
              "$type": "ConfigBornByCollisionPoint",
              "offset": {
                "x": 0.0,
                "y": 0.0,
                "z": 0.0
              }
            },
            "radius": 1.0
          },
          "attackInfo": {
            "attackTag": "NormalAttack_02",
            "attenuationTag": "",
            "attenuationGroup": "default",
            "attackProperty": {
              "actorGrassSubHurtDelta": 0.0,
              "actorWindSubHurtDelta": 0.0,
              "elementDurability": 100.0,
              "strikeType": "Pierce",
              "enBreak": 17.81599998474121,
              "GLKMCMDJBIK": 0.0
            },
            "hitPattern": {
              "onHitEffectName": "default",
              "hitImpulseY": "",
              "hitImpulseType": "LV1"
            },
            "cameraShake": {
              "shakeRange": 0.019999999552965164,
              "shakeTime": 0.10000000149011612
            },
            "canBeModifiedBy": "OriginOwner"
          }
        }
      }
    },
    "combatTemplate": "",
    "abilities": [
      {
        "abilityID": "Arrow_Material",
        "abilityName": "Avatar_Sigewinne_ShootArrow_Capsule_Material",
        "abilityOverride": ""
      },
      {
        "abilityID": "Arrow_Damage",
        "abilityName": "Avatar_Sigewinne_ShootArrow_Damage",
        "abilityOverride": ""
      }
    ],
    "timer": {
      "lifeTime": 8.0
    },
    "move": {
      "$type": "BFICFPAEFPB",
      "speed": 18.0,
      "DPAAFHNMHHN": {
        "$type": "IFAANDLLGLP"
      },
      "straightRange": 7.0,
      "gravityOfAcceleration": 30.0,
      "airResistance": 0.009999999776482582
    },
    "gadget": {
      "$type": "JENBBNKGGJP",
      "collision": {
        "targetType": "Enemy"
      },
      "triggerActions": [
        {
          "$type": "NMMEILICBAE",
          "attackEvent": "ATK02"
        },
        {
          "$type": "AILPBJHDHDG",
          "abilityName": "Avatar_Sigewinne_ShootArrow_Capsule_Material"
        }
      ],
      "fireAISoundEvent": true,
      "enableCollisionDelay": 0.15000000596046448,
      "resetLastPosOnDelayEnd": true,
      "reTriggerOnDelayEnd": true
    }
  },
  "Sigewinne_Arrow_03": {
    "$type": "CJKJIENLOHD",
    "common": {
      "effectAttachShape": {
        "$type": "OMIODKONOMG",
        "scaleX": 0.5,
        "scaleY": 0.5
      },
      "affectedByWorld": true
    },
    "combat": {
      "property": {
        "useCreatorProperty": true,
        "isInvincible": true,
        "canTriggerBullet": false
      },
      "beHit": {
        "hitBloodEffect": "",
        "muteAllHit": true,
        "muteAllHitEffect": true,
        "muteAllHitText": true
      },
      "combatLock": {
        "lockShape": "CircleLockEnemy",
        "denyLockOn": true,
        "lockType": "Gadget_Lv1"
      },
      "animEvents": {
        "ATK03": {
          "attackPattern": {
            "$type": "ConfigAttackSphere",
            "triggerType": "TriggerNoRepeat",
            "checkHitLayerType": "Both",
            "born": {
              "$type": "ConfigBornByCollisionPoint",
              "offset": {
                "x": 0.0,
                "y": 0.0,
                "z": 0.0
              }
            },
            "radius": 1.0
          },
          "attackInfo": {
            "attackTag": "NormalAttack_03",
            "attenuationTag": "",
            "attenuationGroup": "default",
            "attackProperty": {
              "actorGrassSubHurtDelta": 0.0,
              "actorWindSubHurtDelta": 0.0,
              "elementDurability": 100.0,
              "strikeType": "Pierce",
              "enBreak": 27.31100082397461,
              "GLKMCMDJBIK": 0.0
            },
            "hitPattern": {
              "onHitEffectName": "default",
              "hitImpulseY": "",
              "hitImpulseType": "LV1"
            },
            "cameraShake": {
              "shakeRange": 0.019999999552965164,
              "shakeTime": 0.10000000149011612
            },
            "canBeModifiedBy": "OriginOwner"
          }
        }
      }
    },
    "combatTemplate": "",
    "abilities": [
      {
        "abilityID": "Arrow_Material",
        "abilityName": "Avatar_Sigewinne_ShootArrow_Capsule_Material",
        "abilityOverride": ""
      },
      {
        "abilityID": "Arrow_Damage",
        "abilityName": "Avatar_Sigewinne_ShootArrow_Damage",
        "abilityOverride": ""
      }
    ],
    "timer": {
      "lifeTime": 8.0
    },
    "move": {
      "$type": "BFDBCCCADKH",
      "speed": 23.0,
      "acceleration": 2.5,
      "angleOffHor": 25.0,
      "gravityOfAcceleration": 40.0,
      "correction": {
        "$type": "FEHDIANJKBF",
        "fixAngleOfVer": 35.0,
        "minSpeed": 4.0,
        "maxSpeed": 35.0
      },
      "GEBCKKDCGDP": "",
      "NKPHOKHJKGC": ""
    },
    "gadget": {
      "$type": "JENBBNKGGJP",
      "collision": {
        "targetType": "Enemy"
      },
      "triggerActions": [
        {
          "$type": "NMMEILICBAE",
          "attackEvent": "ATK03"
        },
        {
          "$type": "AILPBJHDHDG",
          "abilityName": "Avatar_Sigewinne_ShootArrow_Capsule_Material"
        }
      ],
      "fireAISoundEvent": true,
      "enableCollisionDelay": 0.10000000149011612,
      "resetLastPosOnDelayEnd": true,
      "reTriggerOnDelayEnd": true
    }
  },
  "Sigewinne_AimingArrow_Water": {
    "$type": "CJKJIENLOHD",
    "common": {
      "effectAttachShape": {
        "$type": "OMIODKONOMG",
        "scaleX": 0.5,
        "scaleY": 0.5
      },
      "affectedByWorld": true
    },
    "combat": {
      "property": {
        "useCreatorProperty": true,
        "isInvincible": true,
        "canTriggerBullet": false
      },
      "beHit": {
        "hitBloodEffect": "",
        "muteAllHit": true,
        "muteAllHitEffect": true,
        "muteAllHitText": true
      },
      "combatLock": {
        "lockShape": "CircleLockEnemy",
        "denyLockOn": true,
        "lockType": "Gadget_Lv1"
      }
    },
    "combatTemplate": "",
    "abilities": [
      {
        "abilityID": "Wind_Fx",
        "abilityName": "Bullet_Sigewinne_ShootArrow_WithWater",
        "abilityOverride": ""
      }
    ],
    "timer": {
      "lifeTime": 20.0
    },
    "move": {
      "$type": "BFICFPAEFPB",
      "speed": 50.0,
      "DPAAFHNMHHN": {
        "$type": "IFAANDLLGLP"
      },
      "straightRange": 25.0,
      "gravityOfAcceleration": 5.5,
      "airResistance": 0.009999999776482582
    },
    "gadget": {
      "$type": "JENBBNKGGJP",
      "collision": {
        "targetType": "Enemy"
      },
      "triggerActions": [
        {
          "$type": "AILPBJHDHDG",
          "abilityName": "Bullet_Sigewinne_ShootArrow_WithWater"
        }
      ]
    }
  },
  "Sigewinne_AimingArrow_WithoutWater": {
    "$type": "CJKJIENLOHD",
    "common": {
      "effectAttachShape": {
        "$type": "OMIODKONOMG",
        "scaleX": 0.5,
        "scaleY": 0.5
      },
      "affectedByWorld": true
    },
    "combat": {
      "property": {
        "useCreatorProperty": true,
        "isInvincible": true,
        "canTriggerBullet": false
      },
      "beHit": {
        "hitBloodEffect": "",
        "muteAllHit": true,
        "muteAllHitEffect": true,
        "muteAllHitText": true
      },
      "combatLock": {
        "lockShape": "CircleLockEnemy",
        "denyLockOn": true,
        "lockType": "Gadget_Lv1"
      }
    },
    "combatTemplate": "",
    "abilities": [
      {
        "abilityID": "Arrow_WithoutWind",
        "abilityName": "Avatar_Sigewinne_ShootArrow_Enchanted_WithoutWater",
        "abilityOverride": ""
      }
    ],
    "timer": {
      "lifeTime": 20.0
    },
    "move": {
      "$type": "BFICFPAEFPB",
      "speed": 50.0,
      "DPAAFHNMHHN": {
        "$type": "IFAANDLLGLP"
      },
      "straightRange": 25.0,
      "gravityOfAcceleration": 5.5,
      "airResistance": 0.009999999776482582
    },
    "gadget": {
      "$type": "JENBBNKGGJP",
      "collision": {
        "targetType": "Enemy"
      },
      "triggerActions": [
        {
          "$type": "AILPBJHDHDG",
          "abilityName": "Avatar_Sigewinne_ShootArrow_Enchanted_WithoutWater"
        }
      ],
      "fireAISoundEvent": true
    }
  },
  "Sigewinne_Burst_Attacker": {
    "$type": "CJKJIENLOHD",
    "common": {
      "effectAttachShape": {
        "$type": "OMIODKONOMG"
      }
    },
    "combat": {
      "property": {
        "useCreatorProperty": true,
        "isInvincible": true,
        "isGhostToAllied": true,
        "isGhostToEnemy": true,
        "canTriggerBullet": false
      },
      "beHit": {
        "hitBloodEffect": "",
        "muteAllHit": true,
        "muteAllHitEffect": true,
        "muteAllHitText": true
      },
      "combatLock": {
        "lockShape": "CircleLockEnemy",
        "denyLockOn": true,
        "lockType": "Default"
      }
    },
    "combatTemplate": "",
    "abilities": [
      {
        "abilityID": "Avatar_Sigewinne_ElementalBurst_Attack_Bullet",
        "abilityName": "Avatar_Sigewinne_ElementalBurst_Attack_Bullet",
        "abilityOverride": ""
      }
    ],
    "timer": {
      "lifeTime": 5.599999904632568
    },
    "move": {
      "$type": "MMAPEFIEGAL",
      "attachPoint": "",
      "followRotation": true,
      "offset": {
        "y": 1.0
      },
      "followOwnerInvisible": true,
      "LFOHLEKJFBI": ""
    },
    "gadget": {
      "$type": "JENBBNKGGJP",
      "collision": {
        "ccd": {
          "damageRatio": "Always"
        },
        "triggerType": "TriggerAlways",
        "triggerCD": 0.4000000059604645,
        "targetType": "Enemy",
        "ignoreScene": true,
        "ignoreWater": true,
        "CFOLOKHPLAC": true
      },
      "triggerActions": [
        {
          "$type": "AILPBJHDHDG",
          "abilityName": "Avatar_Sigewinne_ElementalBurst_Attack_Bullet"
        }
      ]
    }
  }
}
