{
  "FauneAbyssale_Aplysia_Mature_EnhancedWaterBullet": {
    "$type": "CJKJIENLOHD",
    "common": {
      "effectAttachShape": {
        "$type": "OMIODKONOMG",
        "scaleX": 0.5,
        "scaleY": 0.5,
        "scaleZ": 0.5
      }
    },
    "combat": {
      "property": {
        "useCreatorProperty": true,
        "hp": 999999.0,
        "attack": 10.0,
        "defense": 999999.0,
        "isInvincible": true,
        "isGhostToAllied": true,
        "isGhostToEnemy": true
      },
      "beHit": {
        "hitBloodEffect": "",
        "muteAllHit": true,
        "muteAllHitEffect": true,
        "muteAllHitText": true
      },
      "combatLock": {
        "lockShape": "CircleLockEnemy",
        "denyLockOn": true,
        "lockType": "Default"
      },
      "simulatePhysics": {
        "enable": true,
        "radius": 0.5,
        "NHHHFPLNPGJ": 0.05000000074505806
      }
    },
    "combatTemplate": "",
    "abilities": [
      {
        "abilityID": "",
        "abilityName": "FauneAbyssale_Aplysia_Mature_EnhancedWaterBullet",
        "abilityOverride": ""
      },
      {
        "abilityID": "",
        "abilityName": "FauneAbyssale_Aplysia_Mature_EnhancedWaterBullet_LifeTimeOverVFX",
        "abilityOverride": ""
      }
    ],
    "timer": {
      "lifeTime": 10.0
    },
    "move": {
      "$type": "JGEFBHJPMOL"
    },
    "gadget": {
      "$type": "AKGCANNFFGI",
      "collision": {
        "targetType": "Enemy",
        "ignoreWater": true
      },
      "triggerActions": [
        {
          "$type": "AILPBJHDHDG",
          "abilityName": "FauneAbyssale_Aplysia_Mature_EnhancedWaterBullet"
        }
      ],
      "triggerLifeOverActions": [
        {
          "$type": "AILPBJHDHDG",
          "abilityName": "FauneAbyssale_Aplysia_Mature_EnhancedWaterBullet_LifeTimeOverVFX"
        }
      ],
      "killByOther": true,
      "multiBulletConfig": {
        "$type": "OAKJCHGIBPC",
        "rotationDampTime": "Eff_Monster_FauneAbyssale_Aplysia_Mature_EnhancedWaterBullet"
      }
    }
  },
  "FauneAbyssale_Aplysia_Mature_SingleWaterBullet": {
    "$type": "CJKJIENLOHD",
    "common": {
      "effectAttachShape": {
        "$type": "OMIODKONOMG",
        "scaleX": 0.5,
        "scaleY": 0.5,
        "scaleZ": 0.5
      }
    },
    "combat": {
      "property": {
        "useCreatorProperty": true,
        "isInvincible": true,
        "isGhostToEnemy": true,
        "canTriggerBullet": false
      },
      "combatLock": {
        "lockShape": "CircleLockEnemy",
        "denyLockOn": true,
        "lockType": "Default"
      }
    },
    "combatTemplate": "",
    "abilities": [
      {
        "abilityID": "",
        "abilityName": "FauneAbyssale_Aplysia_Mature_SingleWaterBullet",
        "abilityOverride": ""
      },
      {
        "abilityID": "",
        "abilityName": "FauneAbyssale_Aplysia_Mature_SingleWaterBullet_LifeTimeOverVFX",
        "abilityOverride": ""
      }
    ],
    "timer": {
      "lifeTime": 5.0
    },
    "move": {
      "$type": "DMLAFKAOGID",
      "speed": 8.0,
      "minSpeed": 3.0,
      "anglerVelocity": 80.0,
      "acceleration": 2.0,
      "accelerationTime": 0.5,
      "DPAAFHNMHHN": {
        "$type": "IFAANDLLGLP"
      },
      "guidanceMinAnglerVelocity": 80.0,
      "guidanceDuration": 2.5
    },
    "gadget": {
      "$type": "JENBBNKGGJP",
      "collision": {
        "targetType": "Enemy",
        "ignoreWater": true
      },
      "triggerActions": [
        {
          "$type": "AILPBJHDHDG",
          "abilityName": "FauneAbyssale_Aplysia_Mature_SingleWaterBullet"
        }
      ],
      "triggerLifeOverActions": [
        {
          "$type": "AILPBJHDHDG",
          "abilityName": "FauneAbyssale_Aplysia_Mature_SingleWaterBullet_LifeTimeOverVFX"
        }
      ]
    }
  }
}
