{
  "Neuvillette_ExtraAttack_Absorb": {
    "$type": "CJKJIENLOHD",
    "common": {
      "effectAttachShape": {
        "$type": "OMIODKONOMG"
      }
    },
    "combat": {
      "property": {
        "useCreatorProperty": true,
        "hp": 99999.0,
        "defense": 99999.0,
        "isInvincible": true,
        "isGhostToAllied": true,
        "isGhostToEnemy": true
      },
      "beHit": {
        "hitBloodEffect": "",
        "muteAllHit": true,
        "muteAllHitEffect": true,
        "muteAllHitText": true
      },
      "combatLock": {
        "lockShape": "CircleLockEnemy",
        "denyLockOn": true,
        "lockType": "Gadget_Lv1"
      }
    },
    "combatTemplate": "",
    "abilities": [
      {
        "abilityID": "Avatar_Neuvillette_ExtraAttack_Absorb_Gadget",
        "abilityName": "Avatar_Neuvillette_ExtraAttack_Absorb_Gadget",
        "abilityOverride": ""
      }
    ],
    "timer": {
      "lifeTime": 8.0
    },
    "move": {
      "$type": "MMAPEFIEGAL",
      "attachPoint": "MoveHead",
      "followRotation": true,
      "followOwnerInvisible": true,
      "syncTransToServer": true,
      "LFOHLEKJFBI": ""
    },
    "gadget": {
      "$type": "JENBBNKGGJP",
      "collision": {
        "ccd": {
          "damageRatio": "Always"
        },
        "triggerType": "TriggerNoRepeat",
        "targetType": "SelfCamp",
        "ignoreScene": true,
        "ignoreWater": true
      },
      "triggerActions": [
        {
          "$type": "AILPBJHDHDG",
          "abilityName": "Avatar_Neuvillette_ExtraAttack_Absorb_Gadget"
        }
      ]
    }
  },
  "Neuvillette_ExtraAttack_Tornado": {
    "$type": "CJKJIENLOHD",
    "common": {
      "effectAttachShape": {
        "$type": "OMIODKONOMG"
      }
    },
    "combat": {
      "property": {
        "useCreatorProperty": true,
        "hp": 99999.0,
        "defense": 99999.0,
        "isInvincible": true,
        "isGhostToAllied": true,
        "isGhostToEnemy": true
      },
      "beHit": {
        "hitBloodEffect": "",
        "muteAllHit": true,
        "muteAllHitEffect": true,
        "muteAllHitText": true
      },
      "combatLock": {
        "lockShape": "CircleLockEnemy",
        "denyLockOn": true,
        "lockType": "Gadget_Lv1"
      },
      "simulatePhysics": {
        "enable": true,
        "radius": 1.100000023841858,
        "OMMNAODFHGH": true,
        "DNFENPNONIC": true,
        "delay": 0.009999999776482582
      }
    },
    "combatTemplate": "",
    "abilities": [
      {
        "abilityID": "Avatar_Neuvillette_ExtraAttack_Attack_Gadget",
        "abilityName": "Avatar_Neuvillette_ExtraAttack_Attack_Gadget",
        "abilityOverride": ""
      }
    ],
    "timer": {
      "lifeTime": 20.0
    },
    "move": {
      "$type": "MMAPEFIEGAL",
      "attachPoint": "FocusAnchor",
      "followRotation": true,
      "LFOHLEKJFBI": ""
    },
    "gadget": {
      "$type": "AKGCANNFFGI",
      "collision": {
        "ccd": {
          "damageRatio": "Always"
        },
        "triggerType": "TriggerAlways",
        "targetType": "Enemy",
        "ignoreWater": true,
        "CFOLOKHPLAC": true
      },
      "triggerActions": [
        {
          "$type": "AILPBJHDHDG",
          "abilityName": "Avatar_Neuvillette_ExtraAttack_Attack_Gadget"
        }
      ],
      "killByOther": true,
      "multiBulletConfig": {
        "$type": "JKIGOIBCBME",
        "rotationDampTime": "Eff_Avatar_Male_Catalyst_Neuvillette_ExtraAttack_WaterTornado",
        "NPJEKAMLKKF": "Eff_Avatar_Male_Catalyst_Neuvillette_ExtraAttack_WaterTornado_ThirdPerson",
        "OIIFCKJNNFP": 0.4000000059604645,
        "GHFCOHLDCFL": true
      }
    }
  },
  "Neuvillette_Core_Gadget": {
    "$type": "CJKJIENLOHD",
    "common": {
      "effectAttachShape": {
        "$type": "OMIODKONOMG"
      }
    },
    "combat": {
      "property": {
        "useCreatorProperty": true,
        "hp": 99999.0,
        "defense": 99999.0,
        "isGhostToEnemy": true
      },
      "beHit": {
        "hitBloodEffect": "",
        "muteAllHitEffect": true,
        "muteAllHitText": true
      },
      "combatLock": {
        "lockShape": "CircleLockEnemy",
        "denyLockOn": true,
        "lockType": "Gadget_Lv1"
      }
    },
    "combatTemplate": "",
    "abilities": [
      {
        "abilityID": "Avatar_Neuvillette_Core_Gadget",
        "abilityName": "Avatar_Neuvillette_Core_Gadget",
        "abilityOverride": ""
      },
      {
        "abilityID": "Avatar_Neuvillette_Core_Gadget_Eff",
        "abilityName": "Avatar_Neuvillette_Core_Gadget_Eff",
        "abilityOverride": ""
      },
      {
        "abilityID": "Player_Water_ElementalArt_Core",
        "abilityName": "Player_Water_ElementalArt_Core",
        "abilityOverride": ""
      },
      {
        "abilityID": "Avatar_Sigewinne_ElementalArt_Core",
        "abilityName": "Avatar_Sigewinne_ElementalArt_Core",
        "abilityOverride": ""
      }
    ],
    "field": {
      "concernType": "LocalAvatar",
      "shape": "CircleR1",
      "fromShape": "",
      "triggerInfinite": true,
      "startCheckTime": 0.800000011920929,
      "checkInterval": 0.10000000149011612,
      "lifeTime": 30.0,
      "overwriteCampType": true,
      "campType": "All",
      "useCollider": false,
      "colliderName": "",
      "fromColliderName": ""
    },
    "timer": {
      "lifeTime": 20.0
    },
    "move": {
      "$type": "MGENMIHFEJO",
      "velocityForce": {
        "includeForces": ["WindZoneType"]
      },
      "startCloseToGround": false,
      "enableCloseToGroundWhenTick": false
    }
  },
  "Neuvillette_Core_Bullet": {
    "$type": "CJKJIENLOHD",
    "common": {
      "effectAttachShape": {
        "$type": "OMIODKONOMG"
      }
    },
    "combat": {
      "property": {
        "useCreatorProperty": true,
        "isGhostToAllied": true,
        "isGhostToEnemy": true,
        "canTriggerBullet": false
      },
      "beHit": {
        "hitBloodEffect": "",
        "muteAllHit": true,
        "muteAllHitEffect": true,
        "muteAllHitText": true
      },
      "combatLock": {
        "lockShape": "CircleLockEnemy",
        "denyLockOn": true,
        "lockType": "Gadget_Lv1"
      }
    },
    "combatTemplate": "",
    "abilities": [
      {
        "abilityID": "Avatar_Neuvillette_Core_Bullet",
        "abilityName": "Avatar_Neuvillette_Core_Bullet",
        "abilityOverride": ""
      }
    ],
    "timer": {
      "lifeTime": 1.0
    },
    "move": {
      "$type": "GMOHNHFHLAO",
      "speed": 15.0,
      "maxSpeed": 40.0,
      "minSpeed": 15.0,
      "anglerVelocity": 240.0,
      "acceleration": 40.0,
      "DPAAFHNMHHN": {
        "$type": "IFAANDLLGLP",
        "traceLerpCoef": 720.0
      },
      "traceOnYAxis": true
    },
    "gadget": {
      "$type": "JENBBNKGGJP",
      "collision": {
        "triggerType": "TriggerAlways",
        "targetType": "SelfCamp",
        "ignoreScene": true,
        "ignoreWater": true
      },
      "triggerActions": [
        {
          "$type": "AILPBJHDHDG",
          "abilityName": "Avatar_Neuvillette_Core_Bullet"
        }
      ]
    }
  },
  "Neuvillette_Constellation_Bullet": {
    "$type": "CJKJIENLOHD",
    "common": {
      "effectAttachShape": {
        "$type": "OMIODKONOMG"
      }
    },
    "combat": {
      "property": {
        "useCreatorProperty": true,
        "isGhostToAllied": true,
        "isGhostToEnemy": true,
        "canTriggerBullet": false
      },
      "beHit": {
        "hitBloodEffect": "",
        "muteAllHit": true,
        "muteAllHitEffect": true,
        "muteAllHitText": true
      },
      "combatLock": {
        "lockShape": "CircleLockEnemy",
        "denyLockOn": true,
        "lockType": "Gadget_Lv1"
      }
    },
    "combatTemplate": "",
    "abilities": [
      {
        "abilityID": "Avatar_Neuvillette_Constellation_6_Bullet",
        "abilityName": "Avatar_Neuvillette_Constellation_6_Bullet",
        "abilityOverride": ""
      }
    ],
    "timer": {
      "lifeTime": 1.0
    },
    "move": {
      "$type": "GMOHNHFHLAO",
      "speed": 60.0,
      "maxSpeed": 60.0,
      "minSpeed": 20.0,
      "anglerVelocity": 7200.0,
      "acceleration": 30.0,
      "DPAAFHNMHHN": {
        "$type": "IFAANDLLGLP",
        "traceLerpCoef": 7200.0
      },
      "delay": 0.30000001192092896,
      "traceOnYAxis": true
    },
    "gadget": {
      "$type": "JENBBNKGGJP",
      "collision": {
        "targetType": "Enemy",
        "ignoreScene": true,
        "ignoreWater": true
      },
      "triggerActions": [
        {
          "$type": "AILPBJHDHDG",
          "abilityName": "Avatar_Neuvillette_Constellation_6_Bullet"
        }
      ],
      "triggerLifeOverActions": [
        {
          "$type": "AILPBJHDHDG",
          "abilityName": "Avatar_Neuvillette_Constellation_6_Bullet"
        }
      ]
    }
  }
}
