{
  "SceneObj_Level_WhiteBox_ShadowPlay_BackGround": {
    "$type": "CJKJIENLOHD",
    "hasModel": true,
    "combat": {
      "property": {
        "hp": 99999.0,
        "isInvincible": true,
        "isLockHP": true,
        "isGhostToAllied": true
      },
      "combatLock": {
        "lockShape": "CircleLockEnemy",
        "denyLockOn": true,
        "lockType": "Default"
      }
    },
    "combatTemplate": "",
    "abilities": [
      {
        "abilityID": "SceneObj_Level_WhiteBox_ShadowPlay_BackGround",
        "abilityName": "SceneObj_Level_WhiteBox_ShadowPlay_BackGround",
        "abilityOverride": ""
      }
    ],
    "uiInteract": {
      "gadgetUIBtnCfgPath": "TEST/TEST_Chest_Btn",
      "uiName": "UI_MAP_TAG_CHANGE_CONFIRM",
      "onTouch": "WidgetMPSupport",
      "touchParams": ["SceneObj_Level_WhiteBox_ShadowPlay_BackGround"],
      "icon": "UI_Icon_Intee_Mechanism",
      "groupName": "",
      "confirmDialogTitle": "",
      "confirmDialogContent": ""
    },
    "gadgetAction": {
      "gadgetStateActionList": [
        {
          "$type": "FJGKLJLPOGL",
          "intID": "State",
          "syncState": true
        }
      ]
    },
    "intee": {
      "triggerRadius": 10.0,
      "KAMIAMNMFCP": ""
    }
  },
  "SceneObj_Level_WhiteBox_ShadowPlay_Decal": {
    "$type": "CJKJIENLOHD",
    "hasModel": true,
    "combatTemplate": "",
    "abilities": [
      {
        "abilityID": "SceneObj_Level_WhiteBox_ShadowPlay_Decal",
        "abilityName": "SceneObj_Level_WhiteBox_ShadowPlay_Decal",
        "abilityOverride": ""
      }
    ],
    "move": {
      "$type": "MMAPEFIEGAL",
      "attachPoint": "",
      "LFOHLEKJFBI": ""
    }
  }
}
