{
  "Player_Electric_ElementalBurst_Bullet_1": {
    "$type": "CJKJIENLOHD",
    "common": {
      "effectAttachShape": {
        "$type": "OMIODKONOMG"
      }
    },
    "combat": {
      "property": {
        "useCreatorProperty": true,
        "isGhostToAllied": true,
        "isGhostToEnemy": true,
        "canTriggerBullet": false
      },
      "beHit": {
        "hitBloodEffect": "",
        "muteAllHit": true,
        "muteAllHitEffect": true,
        "muteAllHitText": true
      },
      "combatLock": {
        "lockShape": "CircleLockEnemy",
        "denyLockOn": true,
        "lockType": "Gadget_Lv1"
      }
    },
    "combatTemplate": "",
    "abilities": [
      {
        "abilityID": "Avatar_Player_Electric_ElementalBurst_Bullet",
        "abilityName": "Avatar_Player_Electric_ElementalBurst_Bullet",
        "abilityOverride": ""
      }
    ],
    "timer": {
      "lifeTime": 11.800000190734863
    },
    "move": {
      "$type": "MMAPEFIEGAL",
      "velocityForce": {
        "muteAll": true
      },
      "attachPoint": "CameraLook",
      "LFOHLEKJFBI": ""
    }
  },
  "Player_Electric_ElementalArt_Bullet_1": {
    "$type": "CJKJIENLOHD",
    "common": {
      "effectAttachShape": {
        "$type": "OMIODKONOMG"
      }
    },
    "combat": {
      "property": {
        "useCreatorProperty": true,
        "isGhostToAllied": true,
        "isGhostToEnemy": true,
        "canTriggerBullet": false
      },
      "beHit": {
        "hitBloodEffect": "",
        "muteAllHit": true,
        "muteAllHitEffect": true,
        "muteAllHitText": true
      },
      "combatLock": {
        "lockShape": "CircleLockEnemy",
        "denyLockOn": true,
        "lockType": "Gadget_Lv1"
      }
    },
    "combatTemplate": "",
    "abilities": [
      {
        "abilityID": "Player_Electric_ElementalArt_Bullet_1",
        "abilityName": "Player_Electric_ElementalArt_Bullet_1",
        "abilityOverride": ""
      }
    ],
    "timer": {
      "lifeTime": 0.4000000059604645
    },
    "move": {
      "$type": "GONNMCBKAOC",
      "speed": 20.0,
      "stickToGround": {
        "maxStepHeight": 1.5,
        "maxSlopeAngle": 40.0,
        "heightToGround": 1.2000000476837158,
        "flexibleRange": 1.2000000476837158,
        "isStickToWater": true,
        "unstickWhenDownSlide": "Keep",
        "unstickWhenUpSlide": "Keep"
      }
    },
    "gadget": {
      "$type": "JENBBNKGGJP",
      "collision": {
        "triggerType": "TriggerAlways",
        "triggerCD": 1.0,
        "targetType": "Enemy",
        "ignoreScene": true
      },
      "triggerActions": [
        {
          "$type": "AILPBJHDHDG",
          "abilityName": "Player_Electric_ElementalArt_Bullet_1"
        }
      ],
      "fireAISoundEvent": true
    }
  },
  "Player_Electric_ElementalArt_Bullet_2": {
    "$type": "CJKJIENLOHD",
    "common": {
      "effectAttachShape": {
        "$type": "OMIODKONOMG"
      }
    },
    "combat": {
      "property": {
        "useCreatorProperty": true,
        "isGhostToAllied": true,
        "isGhostToEnemy": true,
        "canTriggerBullet": false
      },
      "beHit": {
        "hitBloodEffect": "",
        "muteAllHit": true,
        "muteAllHitEffect": true,
        "muteAllHitText": true
      },
      "combatLock": {
        "lockShape": "CircleLockEnemy",
        "denyLockOn": true,
        "lockType": "Gadget_Lv1"
      }
    },
    "combatTemplate": "",
    "abilities": [
      {
        "abilityID": "Player_Electric_ElementalArt_Bullet_2",
        "abilityName": "Player_Electric_ElementalArt_Bullet_2",
        "abilityOverride": ""
      }
    ],
    "timer": {
      "lifeTime": 0.4000000059604645
    },
    "move": {
      "$type": "GONNMCBKAOC",
      "speed": 20.0,
      "stickToGround": {
        "maxStepHeight": 1.5,
        "maxSlopeAngle": 40.0,
        "heightToGround": 1.2000000476837158,
        "flexibleRange": 1.2000000476837158,
        "isStickToWater": true,
        "unstickWhenDownSlide": "Keep",
        "unstickWhenUpSlide": "Keep"
      }
    },
    "gadget": {
      "$type": "JENBBNKGGJP",
      "collision": {
        "triggerType": "TriggerAlways",
        "triggerCD": 1.0,
        "targetType": "Enemy",
        "ignoreScene": true
      },
      "triggerActions": [
        {
          "$type": "AILPBJHDHDG",
          "abilityName": "Player_Electric_ElementalArt_Bullet_2"
        }
      ],
      "fireAISoundEvent": true
    }
  },
  "Player_Electric_ElementalArt_Bullet_3": {
    "$type": "CJKJIENLOHD",
    "common": {
      "effectAttachShape": {
        "$type": "OMIODKONOMG"
      }
    },
    "combat": {
      "property": {
        "useCreatorProperty": true,
        "isGhostToAllied": true,
        "isGhostToEnemy": true,
        "canTriggerBullet": false
      },
      "beHit": {
        "hitBloodEffect": "",
        "muteAllHit": true,
        "muteAllHitEffect": true,
        "muteAllHitText": true
      },
      "combatLock": {
        "lockShape": "CircleLockEnemy",
        "denyLockOn": true,
        "lockType": "Gadget_Lv1"
      }
    },
    "combatTemplate": "",
    "abilities": [
      {
        "abilityID": "Player_Electric_ElementalArt_Bullet_3",
        "abilityName": "Player_Electric_ElementalArt_Bullet_3",
        "abilityOverride": ""
      }
    ],
    "timer": {
      "lifeTime": 0.4000000059604645
    },
    "move": {
      "$type": "GONNMCBKAOC",
      "speed": 20.0,
      "stickToGround": {
        "maxStepHeight": 1.5,
        "maxSlopeAngle": 40.0,
        "heightToGround": 1.2000000476837158,
        "flexibleRange": 1.2000000476837158,
        "isStickToWater": true,
        "unstickWhenDownSlide": "Keep",
        "unstickWhenUpSlide": "Keep"
      }
    },
    "gadget": {
      "$type": "JENBBNKGGJP",
      "collision": {
        "triggerType": "TriggerAlways",
        "triggerCD": 1.0,
        "targetType": "Enemy",
        "ignoreScene": true
      },
      "triggerActions": [
        {
          "$type": "AILPBJHDHDG",
          "abilityName": "Player_Electric_ElementalArt_Bullet_3"
        }
      ],
      "fireAISoundEvent": true
    }
  },
  "Player_Electric_ElementalArt_Magatama_Trigger": {
    "$type": "CJKJIENLOHD",
    "common": {
      "effectAttachShape": {
        "$type": "OMIODKONOMG",
        "scaleZ": 0.4000000059604645
      },
      "mass": 5.0,
      "affectedByWorld": true,
      "checkInSurface": true
    },
    "combat": {
      "property": {
        "useCreatorProperty": true,
        "hp": 99999.0,
        "isLockHP": true,
        "isGhostToAllied": true
      },
      "combatLock": {
        "lockShape": "CircleLockEnemy",
        "denyLockOn": true,
        "lockType": "Gadget_Lv1"
      }
    },
    "combatTemplate": "",
    "abilities": [
      {
        "abilityID": "Player_Electric_ElementalArt_Magatama_Trigger",
        "abilityName": "Player_Electric_ElementalArt_Magatama_Trigger",
        "abilityOverride": ""
      }
    ],
    "timer": {
      "lifeTime": 5.0
    },
    "move": {
      "$type": "BFDBCCCADKH",
      "speed": 12.0,
      "acceleration": -10.0,
      "DPAAFHNMHHN": {
        "$type": "IFAANDLLGLP"
      },
      "angleOffHor": 70.0,
      "gravityOfAcceleration": 70.0,
      "correction": {
        "$type": "FEHDIANJKBF",
        "deviation": 2.0,
        "minSpeed": 4.0,
        "maxSpeed": 12.0
      },
      "GEBCKKDCGDP": "",
      "NKPHOKHJKGC": ""
    },
    "gadget": {
      "$type": "JENBBNKGGJP",
      "collision": {
        "bornWithTriggerEnabled": false
      },
      "triggerActions": [
        {
          "$type": "AILPBJHDHDG",
          "abilityName": "Player_Electric_ElementalArt_Magatama_Trigger"
        }
      ],
      "enableCollisionDelay": 0.10000000149011612
    }
  },
  "Player_Electric_ElementalArt_Magatama_Pickable": {
    "$type": "CJKJIENLOHD",
    "combat": {
      "property": {
        "useCreatorProperty": true,
        "useCreatorBuffedProperty": false,
        "hp": 99999.0,
        "isLockHP": true,
        "isGhostToAllied": true
      },
      "combatLock": {
        "lockShape": "CircleLockEnemy",
        "denyLockOn": true,
        "lockType": "Gadget_Lv1"
      }
    },
    "combatTemplate": "",
    "abilities": [
      {
        "abilityID": "Player_Electric_ElementalArt_Magatama_Pickable",
        "abilityName": "Player_Electric_ElementalArt_Magatama_Pickable",
        "abilityOverride": ""
      }
    ],
    "field": {
      "concernType": "AllAvatars",
      "shape": "CircleR2",
      "fromShape": "",
      "triggerInfinite": true,
      "startCheckTime": 0.800000011920929,
      "checkInterval": 0.10000000149011612,
      "lifeTime": 30.0,
      "overwriteCampType": true,
      "campType": "All",
      "useCollider": false,
      "colliderName": "",
      "fromColliderName": ""
    }
  }
}
