{
  "Xiangling_ExtraAttack_Bullet": {
    "$type": "CJKJIENLOHD",
    "common": {
      "effectAttachShape": {
        "$type": "OMIODKONOMG"
      }
    },
    "combat": {
      "property": {
        "useCreatorProperty": true,
        "isInvincible": true,
        "canTriggerBullet": false
      },
      "beHit": {
        "hitBloodEffect": "",
        "muteAllHit": true,
        "muteAllHitEffect": true,
        "muteAllHitText": true
      },
      "combatLock": {
        "lockShape": "CircleLockEnemy",
        "denyLockOn": true,
        "lockType": "Gadget_Lv1"
      }
    },
    "combatTemplate": "",
    "abilities": [
      {
        "abilityID": "TriggerDamage",
        "abilityName": "Avatar_Xiangling_ExtraAttack_Bullet",
        "abilityOverride": ""
      }
    ],
    "timer": {
      "lifeTime": 0.5
    },
    "move": {
      "$type": "MMAPEFIEGAL",
      "attachPoint": "",
      "offset": {
        "y": 0.8999999761581421
      },
      "HOMINCCNFHE": {
        "z": 1.0
      },
      "LFOHLEKJFBI": ""
    },
    "gadget": {
      "$type": "JENBBNKGGJP",
      "collision": {
        "ccd": {
          "damageRatio": "Always"
        },
        "triggerType": "TriggerNoRepeat",
        "targetType": "Enemy",
        "ignoreScene": true
      },
      "triggerActions": [
        {
          "$type": "AILPBJHDHDG",
          "abilityName": "Avatar_Xiangling_ExtraAttack_Bullet"
        }
      ]
    }
  },
  "Xiangling_Panda": {
    "$type": "CJKJIENLOHD",
    "common": {
      "effectAttachShape": {
        "$type": "OMIODKONOMG"
      },
      "affectedByWorld": true,
      "checkInSurface": true,
      "enableCrashDamage": false
    },
    "model": {
      "bornEffect": "",
      "attachEffect": "",
      "hasCharacterRenderering": true,
      "BKPFGNPLDNJ": ""
    },
    "hasModel": true,
    "combat": {
      "property": {
        "useCreatorProperty": true,
        "weight": 50.0,
        "isInvincible": true,
        "isGhostToEnemy": true
      },
      "beHit": {
        "hitBloodEffect": "",
        "muteAllHit": true,
        "muteAllHitEffect": true,
        "muteAllHitText": true
      },
      "combatLock": {
        "lockShape": "CircleLockEnemy",
        "denyLockOn": true,
        "lockType": "Gadget_Lv1"
      },
      "die": {
        "dieDisappearEffect": "Eff_Avatar_Girl_Pole_Xiangling_Panda_Die"
      }
    },
    "combatTemplate": "",
    "abilities": [
      {
        "abilityID": "Avatar_Xiangling_PandaFire_Effect",
        "abilityName": "Avatar_Xiangling_PandaFire_Effect",
        "abilityOverride": ""
      },
      {
        "abilityID": "Avatar_Xiangling_PandaFire_Attack",
        "abilityName": "Avatar_Xiangling_PandaFire_Attack",
        "abilityOverride": ""
      },
      {
        "abilityID": "Avatar_Xiangling_PandaFireAim",
        "abilityName": "Avatar_Xiangling_PandaFireAim",
        "abilityOverride": ""
      }
    ],
    "timer": {
      "lifeTime": 7.300000190734863
    },
    "move": {
      "$type": "MGENMIHFEJO",
      "velocityForce": {
        "includeForces": ["RetreatType", "RetreatAirType", "WindZoneType"]
      },
      "startCloseToGround": false
    },
    "stateLayers": {
      "defaultLayer": {
        "$type": "GBGJJIIEMBD",
        "layerIndexName": "",
        "CPAANEIJCGD": "",
        "stateIDs": {
          "NormalMove": {
            "$type": "BEIEGKBABOF",
            "animatorStates": {
              "Idle": ["Xiangling_PandaIdle"]
            }
          },
          "Attack": {
            "$type": "BEIEGKBABOF",
            "animatorStates": {
              "Attack": [
                "Xiangling_PandaAttack",
                "Audio_Girl_Pole_Xiangling_PandaFire_Attack"
              ]
            }
          },
          "Born": {
            "$type": "BEIEGKBABOF",
            "animatorStates": {
              "Born": [
                "Xiangling_PandaBorn",
                "Audio_Girl_Pole_Xiangling_PandaFire_Born"
              ]
            }
          }
        }
      }
    },
    "characterRendering": {
      "overrideTickInterval": 1
    }
  },
  "Xiangling_Panda_Pepper": {
    "$type": "CJKJIENLOHD",
    "common": {
      "effectAttachShape": {
        "$type": "OMIODKONOMG"
      },
      "affectedByWorld": true
    },
    "combat": {
      "property": {
        "useCreatorProperty": true,
        "isInvincible": true,
        "isGhostToAllied": true,
        "isGhostToEnemy": true
      },
      "combatLock": {
        "lockShape": "CircleLockEnemy",
        "denyLockOn": true,
        "lockType": "Gadget_Lv1"
      },
      "die": {
        "dieDisappearEffect": "Eff_Avatar_Girl_Pole_Xiangling_Pepper_Die"
      }
    },
    "combatTemplate": "",
    "abilities": [
      {
        "abilityID": "Avatar_Xiangling_PandaPepper",
        "abilityName": "Avatar_Xiangling_PandaPepper",
        "abilityOverride": ""
      }
    ],
    "timer": {
      "lifeTime": 10.0
    }
  },
  "Xiangling_FireCircle": {
    "$type": "CJKJIENLOHD",
    "common": {
      "effectAttachShape": {
        "$type": "OMIODKONOMG"
      }
    },
    "combat": {
      "property": {
        "useCreatorProperty": true,
        "isInvincible": true,
        "isGhostToEnemy": true
      },
      "beHit": {
        "hitBloodEffect": "",
        "muteAllHit": true,
        "muteAllHitEffect": true,
        "muteAllHitText": true
      },
      "combatLock": {
        "lockShape": "CircleLockEnemy",
        "denyLockOn": true,
        "lockType": "Gadget_Lv1"
      },
      "die": {
        "dieDisappearEffect": "Eff_Avatar_Girl_Pole_Xiangling_FireCircle_Die"
      }
    },
    "combatTemplate": "",
    "abilities": [
      {
        "abilityID": "Avatar_Xiangling_FireCircle_Material",
        "abilityName": "Avatar_Xiangling_FireCircle_Material",
        "abilityOverride": ""
      }
    ],
    "timer": {
      "lifeTime": 20.0
    },
    "move": {
      "$type": "HBMEJJEHPCI",
      "speed": 12.0,
      "acceleration": 3.0,
      "accelerationTime": 1.5,
      "DPAAFHNMHHN": {
        "$type": "IFAANDLLGLP",
        "traceLerpCoef": 60.0
      },
      "stickToGround": {
        "maxStepHeight": 1.5,
        "maxSlopeAngle": 40.0,
        "heightToGround": 1.0,
        "flexibleRange": 0.5,
        "isStickToWater": true,
        "unstickWhenDownSlide": "Keep",
        "unstickWhenUpSlide": "Keep"
      },
      "syncToRemote": true,
      "clockwise": true,
      "radius": 1.5,
      "traceOnYAxis": true
    },
    "gadget": {
      "$type": "JENBBNKGGJP",
      "collision": {
        "triggerType": "TriggerAlways",
        "triggerCD": 0.6000000238418579,
        "targetType": "Enemy"
      },
      "triggerActions": [
        {
          "$type": "HILFMFBKIKF",
          "attackInfo": {
            "attackTag": "Elemental_Burst",
            "attenuationTag": "",
            "attenuationGroup": "default",
            "attackProperty": {
              "actorGrassSubHurtDelta": 0.0,
              "actorWindSubHurtDelta": 0.0,
              "elementType": "Fire",
              "elementRank": 3.0,
              "elementDurability": 25.0,
              "strikeType": "Default",
              "GLKMCMDJBIK": 0.0
            },
            "hitPattern": {
              "onHitEffectName": "Eff_Diluc_FireBlade_Hit_01",
              "hitImpulseY": "",
              "hitImpulseType": "LV3",
              "retreatType": "ByOriginOwner",
              "hitHaltTimeScale": 0.009999999776482582
            },
            "cameraShake": {},
            "canBeModifiedBy": "OriginOwner"
          }
        }
      ]
    }
  },
  "TalentBombGadget_EmptyGadget": {
    "$type": "CJKJIENLOHD",
    "common": {
      "effectAttachShape": {
        "$type": "OMIODKONOMG"
      }
    },
    "combat": {
      "property": {
        "useCreatorProperty": true,
        "isInvincible": true,
        "isGhostToAllied": true,
        "isGhostToEnemy": true,
        "canTriggerBullet": false
      },
      "beHit": {
        "hitBloodEffect": "",
        "muteAllHit": true,
        "muteAllHitEffect": true,
        "muteAllHitText": true
      },
      "combatLock": {
        "lockShape": "CircleLockEnemy",
        "denyLockOn": true,
        "lockType": "Gadget_Lv1"
      },
      "die": {
        "dieDisappearEffect": ""
      }
    },
    "combatTemplate": "",
    "abilities": [
      {
        "abilityID": "Avatar_Xiangling_TalentBombGadget",
        "abilityName": "Avatar_Xiangling_TalentBombGadget",
        "abilityOverride": ""
      }
    ],
    "timer": {
      "lifeTime": 2.0
    },
    "move": {
      "$type": "MMAPEFIEGAL",
      "target": "TargetEntity",
      "attachPoint": "RootNode",
      "HOMINCCNFHE": {
        "z": 1.0
      },
      "followOwnerInvisible": true,
      "LFOHLEKJFBI": ""
    },
    "gadget": {
      "$type": "JENBBNKGGJP",
      "collision": {
        "ignoreScene": true
      },
      "triggerLifeOverActions": [
        {
          "$type": "AILPBJHDHDG",
          "abilityName": "Avatar_Xiangling_TalentBombGadget"
        }
      ]
    }
  }
}
