{
  "Drop_HP": {
    "$type": "CJKJIENLOHD",
    "combatTemplate": "",
    "abilities": [
      {
        "abilityID": "HEAL_HP",
        "abilityName": "Test_DropHPHeal",
        "abilityOverride": ""
      }
    ],
    "field": {
      "shape": "CircleR1",
      "fromShape": "",
      "lifeInfinite": true,
      "checkInterval": 0.5,
      "triggerCount": 1,
      "overwriteCampType": true,
      "campType": "SelfCamp",
      "colliderName": "",
      "fromColliderName": ""
    }
  },
  "RockShield": {
    "$type": "CJKJIENLOHD",
    "common": {
      "effectAttachShape": {
        "$type": "OMIODKONOMG",
        "emitFrom": "Shell"
      }
    },
    "combat": {
      "property": {
        "hp": 50.0,
        "attack": 10.0,
        "weight": 75.0,
        "canTriggerBullet": false
      },
      "combatLock": {
        "lockShape": "CircleLockEnemy",
        "denyLockOn": true,
        "lockType": "Gadget_Lv1"
      }
    },
    "combatTemplate": "",
    "abilities": [
      {
        "abilityID": "Defender",
        "abilityName": "R_Slime_01_RockShield_Defender",
        "abilityOverride": ""
      }
    ]
  },
  "PlantGrasping": {
    "$type": "CJKJIENLOHD",
    "common": {
      "effectAttachShape": {
        "$type": "OMIODKONOMG",
        "emitFrom": "Shell"
      }
    },
    "combat": {
      "property": {
        "hp": 20.0,
        "attack": 10.0,
        "weight": 75.0,
        "isInvincible": true,
        "canTriggerBullet": false
      },
      "combatLock": {
        "lockShape": "CircleLockEnemy",
        "denyLockOn": true,
        "lockType": "Gadget_Lv1"
      }
    },
    "combatTemplate": "",
    "abilities": [
      {
        "abilityID": "PlantGrasping_Element",
        "abilityName": "Hili_Grass_PlantGrasping_Element",
        "abilityOverride": ""
      }
    ]
  },
  "HealingSeal": {
    "$type": "CJKJIENLOHD",
    "common": {
      "effectAttachShape": {
        "$type": "OMIODKONOMG",
        "scaleX": 2.0,
        "scaleY": 2.0,
        "scaleZ": 0.20000000298023224
      }
    },
    "combat": {
      "property": {
        "hp": 100.0,
        "attack": 10.0,
        "weight": 75.0,
        "canTriggerBullet": false
      },
      "combatLock": {
        "lockShape": "CircleLockEnemy",
        "denyLockOn": true,
        "lockType": "Gadget_Lv1"
      }
    },
    "combatTemplate": "",
    "abilities": [
      {
        "abilityID": "HealingSealLoop",
        "abilityName": "Test_HealingSealLoop",
        "abilityOverride": ""
      }
    ],
    "field": {
      "shape": "CircleR3",
      "fromShape": "",
      "triggerInfinite": true,
      "checkInterval": 0.5,
      "lifeTime": 10.0,
      "colliderName": "",
      "fromColliderName": ""
    }
  },
  "ThunderFistField": {
    "$type": "CJKJIENLOHD",
    "combatTemplate": "",
    "field": {
      "shape": "CircleR3",
      "fromShape": "",
      "triggerInfinite": true,
      "checkInterval": 0.5,
      "lifeTime": 1.0,
      "colliderName": "",
      "fromColliderName": ""
    }
  },
  "GrassDart": {
    "$type": "CJKJIENLOHD",
    "common": {
      "effectAttachShape": {
        "$type": "OMIODKONOMG",
        "scaleZ": 0.4000000059604645
      }
    },
    "combat": {
      "property": {
        "useCreatorProperty": true,
        "hp": 999999.0,
        "attack": 30.0,
        "defense": 999999.0,
        "weight": 0.10000000149011612
      },
      "beHit": {
        "hitBloodEffect": "",
        "muteAllHit": true,
        "muteAllHitEffect": true,
        "muteAllHitText": true
      },
      "combatLock": {
        "lockShape": "CircleLockEnemy",
        "denyLockOn": true,
        "lockType": "Gadget_Lv1"
      }
    },
    "combatTemplate": "",
    "abilities": [
      {
        "abilityID": "Material",
        "abilityName": "Avatar_Ayaka_FrozenWindmill_Material",
        "abilityOverride": ""
      }
    ],
    "timer": {
      "lifeTime": 4.0
    },
    "move": {
      "$type": "GONNMCBKAOC",
      "speed": 10.0
    },
    "gadget": {
      "$type": "JENBBNKGGJP",
      "collision": {
        "targetType": "Enemy"
      }
    }
  },
  "SharkTorpedo": {
    "$type": "CJKJIENLOHD",
    "common": {
      "effectAttachShape": {
        "$type": "OMIODKONOMG",
        "scaleX": 0.5,
        "scaleY": 0.5
      }
    },
    "combat": {
      "property": {
        "useCreatorProperty": true,
        "hp": 999999.0,
        "attack": 30.0,
        "defense": 999999.0,
        "weight": 50.0
      },
      "beHit": {
        "hitBloodEffect": "",
        "muteAllHit": true,
        "muteAllHitEffect": true,
        "muteAllHitText": true
      },
      "combatLock": {
        "lockShape": "CircleLockEnemy",
        "denyLockOn": true,
        "lockType": "Gadget_Lv1"
      }
    },
    "combatTemplate": "",
    "abilities": [
      {
        "abilityID": "TriggerSpurt",
        "abilityName": "Test_CreateSharkTorpedoSpurt",
        "abilityOverride": ""
      }
    ],
    "timer": {
      "lifeTime": 3.0
    },
    "move": {
      "$type": "GMOHNHFHLAO",
      "speed": 5.0
    },
    "gadget": {
      "$type": "JENBBNKGGJP",
      "collision": {
        "targetType": "Enemy"
      },
      "triggerActions": [
        {
          "$type": "AILPBJHDHDG",
          "abilityName": "Test_CreateSharkTorpedoSpurt"
        }
      ]
    }
  },
  "SharkTorpedo_Spurt": {
    "$type": "CJKJIENLOHD",
    "common": {
      "effectAttachShape": {
        "$type": "OMIODKONOMG",
        "scaleZ": 0.4000000059604645
      }
    },
    "combat": {
      "property": {
        "useCreatorProperty": true,
        "hp": 999999.0,
        "attack": 30.0,
        "defense": 999999.0,
        "weight": 50.0,
        "isGhostToAllied": true,
        "isGhostToEnemy": true,
        "canTriggerBullet": false
      },
      "beHit": {
        "hitBloodEffect": "",
        "muteAllHit": true,
        "muteAllHitEffect": true,
        "muteAllHitText": true
      },
      "combatLock": {
        "lockShape": "CircleLockEnemy",
        "denyLockOn": true,
        "lockType": "Gadget_Lv1"
      }
    },
    "combatTemplate": "",
    "abilities": [
      {
        "abilityID": "DoDamage",
        "abilityName": "Test_SharkTorpedoSpurtDamage",
        "abilityOverride": ""
      }
    ],
    "field": {
      "shape": "CircleR3",
      "fromShape": "",
      "triggerInfinite": true,
      "checkInterval": 0.5,
      "lifeTime": 5.0,
      "colliderName": "",
      "fromColliderName": ""
    }
  },
  "SharkTorpedo_Spurt_2": {
    "$type": "CJKJIENLOHD",
    "common": {
      "effectAttachShape": {
        "$type": "OMIODKONOMG",
        "scaleZ": 0.4000000059604645
      }
    },
    "combat": {
      "property": {
        "useCreatorProperty": true,
        "hp": 999999.0,
        "attack": 30.0,
        "defense": 999999.0,
        "weight": 50.0,
        "isGhostToAllied": true,
        "isGhostToEnemy": true,
        "canTriggerBullet": false
      },
      "beHit": {
        "hitBloodEffect": "",
        "muteAllHit": true,
        "muteAllHitEffect": true,
        "muteAllHitText": true
      },
      "combatLock": {
        "lockShape": "CircleLockEnemy",
        "denyLockOn": true,
        "lockType": "Gadget_Lv1"
      }
    },
    "combatTemplate": "",
    "abilities": [
      {
        "abilityID": "DoDamage",
        "abilityName": "Test_SharkTorpedoSpurtDamage_2",
        "abilityOverride": ""
      }
    ],
    "field": {
      "shape": "CircleR3",
      "fromShape": "",
      "triggerInfinite": true,
      "checkInterval": 0.5,
      "lifeTime": 5.0,
      "colliderName": "",
      "fromColliderName": ""
    }
  },
  "HealingBarrel": {
    "$type": "CJKJIENLOHD",
    "combatTemplate": "",
    "abilities": [
      {
        "abilityID": "Temp_HealingBarrel",
        "abilityName": "Temp_HealingBarrel",
        "abilityOverride": ""
      }
    ]
  },
  "FlyRaceCoin": {
    "$type": "CJKJIENLOHD",
    "combatTemplate": ""
  },
  "ElementTrack": {
    "$type": "CJKJIENLOHD",
    "combatTemplate": "",
    "abilities": [
      {
        "abilityID": "ElementVisualEffect",
        "abilityName": "ElementVisualEffect",
        "abilityOverride": ""
      }
    ]
  },
  "ElementTrackCat": {
    "$type": "CJKJIENLOHD",
    "combatTemplate": "",
    "abilities": [
      {
        "abilityID": "ElementVisualEffectCat",
        "abilityName": "ElementVisualEffectCat",
        "abilityOverride": ""
      }
    ]
  },
  "ElfTrack": {
    "$type": "CJKJIENLOHD",
    "combat": {
      "property": {
        "hp": 1000.0,
        "attack": 100.0,
        "weight": 50.0,
        "isLockHP": true,
        "isGhostToAllied": true,
        "isGhostToEnemy": true
      },
      "beHit": {
        "hitBloodEffect": "",
        "hitAutoRedirect": false,
        "muteAllHitEffect": true,
        "muteAllHitText": true
      },
      "combatLock": {
        "lockShape": "CircleLockEnemy",
        "denyLockOn": true,
        "lockType": "Gadget_Lv1"
      },
      "die": {
        "dieForceDisappearTime": 0.0,
        "dieDisappearEffect": ""
      }
    },
    "combatTemplate": "",
    "abilities": [
      {
        "abilityID": "ElfTrack",
        "abilityName": "ElfTrack",
        "abilityOverride": ""
      }
    ]
  },
  "AmborTaskTrack": {
    "$type": "CJKJIENLOHD",
    "combatTemplate": "",
    "abilities": [
      {
        "abilityID": "AmborTaskEffect",
        "abilityName": "AmborTaskEffect",
        "abilityOverride": ""
      }
    ]
  },
  "LisaCompass": {
    "$type": "CJKJIENLOHD",
    "combatTemplate": "",
    "abilities": [
      {
        "abilityID": "LisaCompassEffect",
        "abilityName": "LisaCompassEffect",
        "abilityOverride": ""
      }
    ]
  },
  "LisaBookGather": {
    "$type": "CJKJIENLOHD",
    "hasModel": true,
    "combatTemplate": "",
    "abilities": [
      {
        "abilityID": "LisaBookEffect",
        "abilityName": "LisaBookEffect",
        "abilityOverride": ""
      }
    ],
    "field": {
      "concernType": "LocalAvatar",
      "shape": "CircleR2",
      "fromShape": "",
      "triggerInfinite": true,
      "lifeInfinite": true,
      "checkInterval": 0.5,
      "overwriteCampType": true,
      "campType": "SelfCamp",
      "colliderName": "",
      "fromColliderName": ""
    },
    "misc": {
      "pickup": {
        "pickType": "Select",
        "isStatic": true,
        "bornEffect": "",
        "dropEffect": "",
        "attractAudio": ""
      },
      "escapeEffect": ""
    }
  },
  "XiangmoyinGuide": {
    "$type": "CJKJIENLOHD",
    "hasModel": true,
    "combatTemplate": "",
    "abilities": [
      {
        "abilityID": "XiangmoyinGuideEffect",
        "abilityName": "XiangmoyinGuideEffect",
        "abilityOverride": ""
      }
    ],
    "field": {
      "concernType": "LocalAvatar",
      "shape": "CircleR8",
      "fromShape": "",
      "triggerInfinite": true,
      "lifeInfinite": true,
      "checkInterval": 0.5,
      "overwriteCampType": true,
      "campType": "SelfCamp",
      "colliderName": "",
      "fromColliderName": ""
    }
  },
  "Bramble_Chest": {
    "$type": "CJKJIENLOHD",
    "common": {
      "effectAttachShape": {
        "$type": "OMCHDAEMBOG",
        "mesh": "EffectMesh"
      }
    },
    "hasModel": true,
    "combat": {
      "property": {
        "hp": 99999.0,
        "weight": 50.0,
        "isLockHP": true
      },
      "beHit": {
        "hitBloodEffect": "",
        "hitAutoRedirect": false,
        "muteAllHitText": true
      },
      "combatLock": {
        "lockShape": "CircleLockEnemy",
        "denyLockOn": true,
        "lockType": "Gadget_Lv1"
      },
      "die": {
        "dieEndTime": 7.800000190734863,
        "dieForceDisappearTime": 7.800000190734863,
        "dieDisappearEffect": "",
        "dieShaderData": "GadgetDie",
        "dieModelFadeDelay": 6.0
      }
    },
    "combatTemplate": "",
    "abilities": [
      {
        "abilityID": "ChestNormal_Interact",
        "abilityName": "Test_BrambleChest_Interact",
        "abilityOverride": ""
      }
    ],
    "uiInteract": {
      "gadgetUIBtnCfgPath": "TEST/TEST_Chest_Btn",
      "uiName": "",
      "icon": "",
      "groupName": "",
      "confirmDialogTitle": "",
      "confirmDialogContent": ""
    },
    "misc": {
      "chest": {
        "bornLockedByAbility": true,
        "openEffect": "Eff_Chest_Open_Continuous"
      },
      "escapeEffect": ""
    }
  },
  "Frozen_Chest": {
    "$type": "CJKJIENLOHD",
    "common": {
      "effectAttachShape": {
        "$type": "OMCHDAEMBOG",
        "mesh": "EffectMesh"
      }
    },
    "hasModel": true,
    "combat": {
      "property": {
        "hp": 99999.0,
        "weight": 50.0,
        "isLockHP": true
      },
      "beHit": {
        "hitBloodEffect": "",
        "hitAutoRedirect": false,
        "muteAllHitText": true
      },
      "combatLock": {
        "lockShape": "CircleLockEnemy",
        "denyLockOn": true,
        "lockType": "Gadget_Lv1"
      },
      "die": {
        "dieEndTime": 7.800000190734863,
        "dieForceDisappearTime": 7.800000190734863,
        "dieDisappearEffect": "",
        "dieShaderData": "GadgetDie",
        "dieModelFadeDelay": 6.0
      }
    },
    "combatTemplate": "",
    "abilities": [
      {
        "abilityID": "ChestNormal_Interact",
        "abilityName": "Test_FrozenChest_Interact",
        "abilityOverride": ""
      }
    ],
    "uiInteract": {
      "gadgetUIBtnCfgPath": "TEST/TEST_Chest_Btn",
      "uiName": "",
      "icon": "",
      "groupName": "",
      "confirmDialogTitle": "",
      "confirmDialogContent": ""
    },
    "misc": {
      "chest": {
        "bornLockedByAbility": true,
        "openEffect": "Eff_Chest_Open_Continuous"
      },
      "escapeEffect": ""
    }
  },
  "Test_Arrow": {
    "$type": "CJKJIENLOHD",
    "common": {
      "effectAttachShape": {
        "$type": "OMIODKONOMG",
        "scaleX": 0.5,
        "scaleY": 0.5
      },
      "affectedByWorld": true
    },
    "combat": {
      "property": {
        "useCreatorProperty": true,
        "weight": 50.0,
        "canTriggerBullet": false
      },
      "beHit": {
        "hitBloodEffect": "",
        "muteAllHit": true,
        "muteAllHitEffect": true,
        "muteAllHitText": true
      },
      "combatLock": {
        "lockShape": "CircleLockEnemy",
        "denyLockOn": true,
        "lockType": "Gadget_Lv1"
      },
      "animEvents": {
        "ATK01": {
          "attackPattern": {
            "$type": "ConfigAttackBox",
            "triggerType": "TriggerNoRepeat",
            "checkHitLayerType": "Both",
            "born": {
              "$type": "ConfigBornByCollisionPoint",
              "offset": {
                "x": 0.0,
                "y": 0.0,
                "z": -0.5
              }
            },
            "size": {
              "x": 0.10000000149011612,
              "y": 0.10000000149011612,
              "z": 1.0
            }
          },
          "attackInfo": {
            "attackTag": "",
            "attenuationTag": "",
            "attenuationGroup": "default",
            "attackProperty": {
              "actorGrassSubHurtDelta": 0.33000001311302185,
              "actorWindSubHurtDelta": 0.0,
              "elementDurability": 100.0,
              "strikeType": "Pierce",
              "GLKMCMDJBIK": 0.0
            },
            "hitPattern": {
              "onHitEffectName": "default",
              "hitImpulseY": "",
              "hitImpulseType": "LV1",
              "hitHaltTime": 0.11999999731779099,
              "hitHaltTimeScale": 0.009999999776482582
            },
            "cameraShake": {
              "shakeRange": 0.019999999552965164,
              "shakeTime": 0.10000000149011612
            }
          }
        }
      }
    },
    "combatTemplate": "",
    "abilities": [
      {
        "abilityID": "Trail_Fx",
        "abilityName": "Test_ShootArrow_Trail_Fx",
        "abilityOverride": ""
      },
      {
        "abilityID": "Hit_Fx",
        "abilityName": "Test_ShootArrow_Hit_Fx",
        "abilityOverride": ""
      }
    ],
    "timer": {
      "lifeTime": 8.0
    },
    "move": {
      "$type": "BFICFPAEFPB",
      "speed": 30.0,
      "DPAAFHNMHHN": {
        "$type": "IFAANDLLGLP"
      },
      "straightRange": 7.0,
      "gravityOfAcceleration": 30.0,
      "airResistance": 0.009999999776482582
    },
    "gadget": {
      "$type": "JENBBNKGGJP",
      "collision": {
        "targetType": "Enemy"
      },
      "triggerActions": [
        {
          "$type": "NMMEILICBAE",
          "attackEvent": "ATK01"
        },
        {
          "$type": "AILPBJHDHDG",
          "abilityName": "Test_ShootArrow_Hit_Fx"
        }
      ],
      "fireAISoundEvent": true
    }
  },
  "Test_ArrowAiming": {
    "$type": "CJKJIENLOHD",
    "common": {
      "effectAttachShape": {
        "$type": "OMIODKONOMG",
        "scaleX": 0.5,
        "scaleY": 0.5
      },
      "affectedByWorld": true
    },
    "combat": {
      "property": {
        "useCreatorProperty": true,
        "weight": 50.0,
        "canTriggerBullet": false
      },
      "beHit": {
        "hitBloodEffect": "",
        "muteAllHit": true,
        "muteAllHitEffect": true,
        "muteAllHitText": true
      },
      "combatLock": {
        "lockShape": "CircleLockEnemy",
        "denyLockOn": true,
        "lockType": "Gadget_Lv1"
      }
    },
    "combatTemplate": "",
    "abilities": [
      {
        "abilityID": "Fire_Fx",
        "abilityName": "Test_ShootAimingArrow_Fire_Fx",
        "abilityOverride": ""
      },
      {
        "abilityID": "Hit_Fx",
        "abilityName": "Test_ShootAimingArrow_Hit_Fx",
        "abilityOverride": ""
      }
    ],
    "timer": {
      "lifeTime": 20.0
    },
    "move": {
      "$type": "BFICFPAEFPB",
      "speed": 50.0,
      "DPAAFHNMHHN": {
        "$type": "IFAANDLLGLP"
      },
      "straightRange": 25.0,
      "gravityOfAcceleration": 5.5,
      "airResistance": 0.009999999776482582
    },
    "gadget": {
      "$type": "JENBBNKGGJP",
      "collision": {
        "targetType": "Enemy"
      },
      "triggerActions": [
        {
          "$type": "AILPBJHDHDG",
          "abilityName": "Test_ShootAimingArrow_Fire_Fx"
        },
        {
          "$type": "AILPBJHDHDG",
          "abilityName": "Test_ShootAimingArrow_Hit_Fx"
        }
      ],
      "fireAISoundEvent": true
    }
  },
  "LightningBolt": {
    "$type": "CJKJIENLOHD",
    "common": {
      "effectAttachShape": {
        "$type": "OMIODKONOMG"
      }
    },
    "combat": {
      "property": {
        "useCreatorProperty": true,
        "hp": 999999.0,
        "attack": 30.0,
        "defense": 999999.0,
        "weight": 50.0
      },
      "beHit": {
        "hitBloodEffect": "",
        "muteAllHit": true,
        "muteAllHitEffect": true,
        "muteAllHitText": true
      },
      "combatLock": {
        "lockShape": "CircleLockEnemy",
        "denyLockOn": true,
        "lockType": "Gadget_Lv1"
      }
    },
    "combatTemplate": "",
    "abilities": [
      {
        "abilityID": "TriggerSpurt",
        "abilityName": "Test_LightningBoltDamage",
        "abilityOverride": ""
      }
    ],
    "timer": {
      "lifeTime": 3.0
    },
    "move": {
      "$type": "GMOHNHFHLAO",
      "speed": 10.0,
      "traceOnYAxis": true
    },
    "gadget": {
      "$type": "JENBBNKGGJP",
      "collision": {
        "targetType": "Enemy"
      },
      "triggerActions": [
        {
          "$type": "AILPBJHDHDG",
          "abilityName": "Test_LightningBoltDamage"
        }
      ],
      "killByOther": true
    }
  },
  "LightningSpear": {
    "$type": "CJKJIENLOHD",
    "common": {
      "effectAttachShape": {
        "$type": "OMIODKONOMG"
      }
    },
    "combat": {
      "property": {
        "useCreatorProperty": true,
        "hp": 999999.0,
        "attack": 30.0,
        "defense": 999999.0,
        "weight": 50.0
      },
      "beHit": {
        "hitBloodEffect": "",
        "muteAllHit": true,
        "muteAllHitEffect": true,
        "muteAllHitText": true
      },
      "combatLock": {
        "lockShape": "CircleLockEnemy",
        "denyLockOn": true,
        "lockType": "Gadget_Lv1"
      }
    },
    "combatTemplate": "",
    "abilities": [
      {
        "abilityID": "TriggerSpurt",
        "abilityName": "Test_LightningSpearDamage",
        "abilityOverride": ""
      }
    ],
    "timer": {
      "lifeTime": 3.0
    },
    "move": {
      "$type": "GMOHNHFHLAO",
      "speed": 10.0,
      "traceOnYAxis": true
    },
    "gadget": {
      "$type": "JENBBNKGGJP",
      "collision": {
        "targetType": "Enemy"
      },
      "triggerActions": [
        {
          "$type": "AILPBJHDHDG",
          "abilityName": "Test_LightningSpearDamage"
        }
      ]
    }
  },
  "LightningSpear_1": {
    "$type": "CJKJIENLOHD",
    "common": {
      "effectAttachShape": {
        "$type": "OMIODKONOMG"
      }
    },
    "combat": {
      "property": {
        "useCreatorProperty": true,
        "hp": 999999.0,
        "attack": 30.0,
        "defense": 999999.0,
        "weight": 50.0
      },
      "beHit": {
        "hitBloodEffect": "",
        "muteAllHit": true,
        "muteAllHitEffect": true,
        "muteAllHitText": true
      },
      "combatLock": {
        "lockShape": "CircleLockEnemy",
        "denyLockOn": true,
        "lockType": "Gadget_Lv1"
      }
    },
    "combatTemplate": "",
    "abilities": [
      {
        "abilityID": "TriggerSpurt",
        "abilityName": "Test_LightningSpearDamage_1",
        "abilityOverride": ""
      }
    ],
    "timer": {
      "lifeTime": 3.0
    },
    "move": {
      "$type": "GMOHNHFHLAO",
      "speed": 5.0,
      "acceleration": 20.0,
      "traceOnYAxis": true
    },
    "gadget": {
      "$type": "JENBBNKGGJP",
      "collision": {
        "targetType": "Enemy"
      },
      "triggerActions": [
        {
          "$type": "AILPBJHDHDG",
          "abilityName": "Test_LightningSpearDamage_1"
        }
      ]
    }
  },
  "LightningSpear_2": {
    "$type": "CJKJIENLOHD",
    "common": {
      "effectAttachShape": {
        "$type": "OMIODKONOMG"
      }
    },
    "combat": {
      "property": {
        "useCreatorProperty": true,
        "hp": 999999.0,
        "attack": 30.0,
        "defense": 999999.0,
        "weight": 50.0
      },
      "beHit": {
        "hitBloodEffect": "",
        "muteAllHit": true,
        "muteAllHitEffect": true,
        "muteAllHitText": true
      },
      "combatLock": {
        "lockShape": "CircleLockEnemy",
        "denyLockOn": true,
        "lockType": "Gadget_Lv1"
      }
    },
    "combatTemplate": "",
    "abilities": [
      {
        "abilityID": "TriggerSpurt",
        "abilityName": "Test_LightningSpearDamage_2",
        "abilityOverride": ""
      }
    ],
    "timer": {
      "lifeTime": 3.0
    },
    "move": {
      "$type": "GMOHNHFHLAO",
      "speed": 5.0,
      "acceleration": 20.0,
      "traceOnYAxis": true
    },
    "gadget": {
      "$type": "JENBBNKGGJP",
      "collision": {
        "targetType": "Enemy"
      },
      "triggerActions": [
        {
          "$type": "AILPBJHDHDG",
          "abilityName": "Test_LightningSpearDamage_2"
        }
      ]
    }
  },
  "FilckerWave": {
    "$type": "CJKJIENLOHD",
    "common": {
      "effectAttachShape": {
        "$type": "OMIODKONOMG"
      }
    },
    "combat": {
      "property": {
        "useCreatorProperty": true,
        "hp": 999999.0,
        "attack": 30.0,
        "defense": 999999.0,
        "weight": 50.0
      },
      "beHit": {
        "hitBloodEffect": "",
        "muteAllHit": true,
        "muteAllHitEffect": true,
        "muteAllHitText": true
      },
      "combatLock": {
        "lockShape": "CircleLockEnemy",
        "denyLockOn": true,
        "lockType": "Gadget_Lv1"
      }
    },
    "combatTemplate": "",
    "abilities": [
      {
        "abilityID": "TriggerSpurt",
        "abilityName": "Test_FlickerWaveDamage",
        "abilityOverride": ""
      }
    ],
    "timer": {
      "lifeTime": 3.0
    },
    "move": {
      "$type": "GMOHNHFHLAO",
      "speed": 5.0,
      "acceleration": 10.0,
      "traceOnYAxis": true
    },
    "gadget": {
      "$type": "JENBBNKGGJP",
      "collision": {
        "targetType": "Enemy"
      },
      "triggerActions": [
        {
          "$type": "AILPBJHDHDG",
          "abilityName": "Test_FlickerWaveDamage"
        }
      ],
      "killByOther": true
    }
  },
  "Test_ThrowClub": {
    "$type": "CJKJIENLOHD",
    "common": {
      "effectAttachShape": {
        "$type": "OMIODKONOMG",
        "scaleZ": 0.4000000059604645
      }
    },
    "combat": {
      "property": {
        "useCreatorProperty": true,
        "hp": 999999.0,
        "attack": 10.0,
        "defense": 999999.0,
        "weight": 50.0
      },
      "beHit": {
        "hitBloodEffect": "",
        "muteAllHit": true,
        "muteAllHitEffect": true,
        "muteAllHitText": true
      },
      "combatLock": {
        "lockShape": "CircleLockEnemy",
        "denyLockOn": true,
        "lockType": "Gadget_Lv1"
      },
      "animEvents": {
        "ATK01": {
          "attackPattern": {
            "$type": "ConfigAttackBox",
            "triggerType": "TriggerNoRepeat",
            "checkHitLayerType": "Both",
            "born": {
              "$type": "ConfigBornByCollisionPoint"
            },
            "size": {
              "x": 0.4000000059604645,
              "y": 0.4000000059604645,
              "z": 1.0
            }
          },
          "attackInfo": {
            "attackTag": "",
            "attenuationTag": "",
            "attenuationGroup": "default",
            "attackProperty": {
              "actorGrassSubHurtDelta": 1.0,
              "actorWindSubHurtDelta": 0.0,
              "elementDurability": 100.0,
              "strikeType": "Default",
              "GLKMCMDJBIK": 0.0
            },
            "hitPattern": {
              "onHitEffectName": "default",
              "hitImpulseY": "",
              "hitImpulseType": "LV2",
              "overrideHitImpulse": {
                "hitLevel": "Light",
                "IMIJMPGJOGG": 420.0,
                "BPCDKKBKOBM": 0.0
              },
              "hitHaltTime": 0.11999999731779099,
              "hitHaltTimeScale": 0.009999999776482582
            }
          }
        }
      }
    },
    "combatTemplate": "",
    "timer": {
      "lifeTime": 3.0
    },
    "move": {
      "$type": "BFICFPAEFPB",
      "speed": 25.0,
      "DPAAFHNMHHN": {
        "$type": "IFAANDLLGLP"
      },
      "straightRange": 15.0,
      "gravityOfAcceleration": 20.0,
      "airResistance": 0.009999999776482582
    },
    "gadget": {
      "$type": "JENBBNKGGJP",
      "collision": {
        "targetType": "Enemy"
      },
      "triggerActions": [
        {
          "$type": "NMMEILICBAE",
          "attackEvent": "ATK01"
        }
      ]
    }
  },
  "Test_ThrowClubFire": {
    "$type": "CJKJIENLOHD",
    "common": {
      "effectAttachShape": {
        "$type": "OMIODKONOMG",
        "scaleZ": 0.4000000059604645
      }
    },
    "combat": {
      "property": {
        "useCreatorProperty": true,
        "hp": 999999.0,
        "attack": 10.0,
        "defense": 999999.0,
        "weight": 50.0
      },
      "beHit": {
        "hitBloodEffect": "",
        "muteAllHit": true,
        "muteAllHitEffect": true,
        "muteAllHitText": true
      },
      "combatLock": {
        "lockShape": "CircleLockEnemy",
        "denyLockOn": true,
        "lockType": "Gadget_Lv1"
      },
      "animEvents": {
        "ATK01": {
          "attackPattern": {
            "$type": "ConfigAttackBox",
            "triggerType": "TriggerNoRepeat",
            "born": {
              "$type": "ConfigBornByCollisionPoint"
            },
            "size": {
              "x": 0.4000000059604645,
              "y": 0.4000000059604645,
              "z": 1.0
            }
          },
          "attackInfo": {
            "attackTag": "",
            "attenuationTag": "",
            "attenuationGroup": "default",
            "attackProperty": {
              "actorGrassSubHurtDelta": 1.0,
              "actorWindSubHurtDelta": 0.0,
              "elementType": "Fire",
              "elementDurability": 50.0,
              "strikeType": "Default",
              "GLKMCMDJBIK": 0.0
            },
            "hitPattern": {
              "onHitEffectName": "default",
              "hitImpulseY": "",
              "hitImpulseType": "LV2",
              "overrideHitImpulse": {
                "hitLevel": "Light",
                "IMIJMPGJOGG": 120.0,
                "BPCDKKBKOBM": 0.0
              },
              "hitHaltTime": 0.11999999731779099,
              "hitHaltTimeScale": 0.009999999776482582
            }
          }
        }
      }
    },
    "combatTemplate": "",
    "timer": {
      "lifeTime": 3.0
    },
    "move": {
      "$type": "BFICFPAEFPB",
      "speed": 15.0,
      "DPAAFHNMHHN": {
        "$type": "IFAANDLLGLP"
      },
      "straightRange": 15.0,
      "gravityOfAcceleration": 20.0,
      "airResistance": 0.009999999776482582
    },
    "gadget": {
      "$type": "JENBBNKGGJP",
      "collision": {
        "targetType": "Enemy"
      },
      "triggerActions": [
        {
          "$type": "NMMEILICBAE",
          "attackEvent": "ATK01"
        }
      ]
    }
  },
  "Test_BombField": {
    "$type": "CJKJIENLOHD",
    "combat": {
      "property": {
        "hp": 100.0,
        "attack": 10.0,
        "weight": 75.0,
        "isGhostToAllied": true,
        "isGhostToEnemy": true,
        "canTriggerBullet": false
      },
      "combatLock": {
        "lockShape": "CircleLockEnemy",
        "denyLockOn": true,
        "lockType": "Gadget_Lv1"
      }
    },
    "combatTemplate": "",
    "abilities": [
      {
        "abilityID": "Bomb_Explode",
        "abilityName": "Test_Bomb_Explode",
        "abilityOverride": ""
      }
    ]
  },
  "MsgBoard": {
    "$type": "CJKJIENLOHD",
    "combatTemplate": ""
  },
  "LocalTrigger": {
    "$type": "CJKJIENLOHD",
    "combatTemplate": ""
  },
  "Test_WindZone": {
    "$type": "CJKJIENLOHD",
    "combat": {
      "property": {
        "hp": 999999.0,
        "defense": 999999.0,
        "weight": 50.0,
        "isGhostToAllied": true,
        "isGhostToEnemy": true,
        "canTriggerBullet": false
      },
      "combatLock": {
        "lockShape": "CircleLockEnemy",
        "denyLockOn": true,
        "lockType": "Gadget_Lv1"
      }
    },
    "combatTemplate": "",
    "abilities": [
      {
        "abilityID": "Wind",
        "abilityName": "Test_WindAbility",
        "abilityOverride": ""
      }
    ]
  },
  "ModifiedTrigger": {
    "$type": "CJKJIENLOHD",
    "combatTemplate": "",
    "field": {
      "concernType": "CombatExcludeGWGO",
      "shape": "RectW2L4",
      "fromShape": "",
      "triggerInfinite": true,
      "lifeInfinite": true,
      "checkInterval": 1.0,
      "overwriteCampType": true,
      "campType": "Enemy",
      "useSurfaceHeight": true,
      "colliderName": "",
      "fromColliderName": ""
    }
  },
  "RoomDoor": {
    "$type": "CJKJIENLOHD",
    "combatTemplate": "",
    "field": {
      "concernType": "LocalAvatar",
      "shape": "",
      "fromShape": "",
      "triggerInfinite": true,
      "lifeInfinite": true,
      "overwriteCampType": true,
      "campType": "Alliance",
      "colliderName": "",
      "fromColliderName": ""
    },
    "stateLayers": {
      "defaultLayer": {
        "$type": "GBGJJIIEMBD",
        "layerIndexName": "",
        "CPAANEIJCGD": "",
        "stateIDs": {
          "Opening": {
            "$type": "BEIEGKBABOF",
            "animatorStates": {
              "OpeningIn": ["Audio_SceneObj_Gear_KnightDoor_Open"],
              "OpeningOut": ["Audio_SceneObj_Gear_KnightDoor_Open"]
            }
          },
          "Open": {
            "$type": "BEIEGKBABOF",
            "animatorStates": {
              "OpenIn": [],
              "OpenOut": []
            }
          },
          "Closing": {
            "$type": "BEIEGKBABOF",
            "animatorStates": {
              "ClosingIn": ["Audio_SceneObj_Gear_KnightDoor_Close"],
              "ClosingOut": ["Audio_SceneObj_Gear_KnightDoor_Close"]
            }
          },
          "Close": {
            "$type": "BEIEGKBABOF",
            "animatorStates": {
              "Close": []
            }
          }
        }
      }
    }
  },
  "Frost_Orb": {
    "$type": "CJKJIENLOHD",
    "common": {
      "effectAttachShape": {
        "$type": "OMIODKONOMG"
      }
    },
    "combat": {
      "property": {
        "useCreatorProperty": true,
        "hp": 999999.0,
        "attack": 30.0,
        "defense": 999999.0,
        "weight": 50.0
      },
      "beHit": {
        "hitBloodEffect": "",
        "muteAllHit": true,
        "muteAllHitEffect": true,
        "muteAllHitText": true
      },
      "combatLock": {
        "lockShape": "CircleLockEnemy",
        "denyLockOn": true,
        "lockType": "Gadget_Lv1"
      }
    },
    "combatTemplate": "",
    "abilities": [
      {
        "abilityID": "Material",
        "abilityName": "Frost_Orb_Material",
        "abilityOverride": ""
      }
    ],
    "timer": {
      "lifeTime": 12.300000190734863
    },
    "move": {
      "$type": "GMOHNHFHLAO",
      "speed": 0.800000011920929
    },
    "gadget": {
      "$type": "JENBBNKGGJP",
      "collision": {
        "triggerType": "TriggerAlways",
        "triggerCD": 0.25,
        "targetType": "Enemy"
      },
      "triggerActions": [
        {
          "$type": "AILPBJHDHDG",
          "abilityName": "IceBall_Test_Material"
        }
      ]
    }
  },
  "Frost_Orb_Bullet": {
    "$type": "CJKJIENLOHD",
    "common": {
      "effectAttachShape": {
        "$type": "OMIODKONOMG"
      },
      "mass": 10.0
    },
    "combat": {
      "property": {
        "useCreatorProperty": true,
        "isGhostToAllied": true,
        "isGhostToEnemy": true
      },
      "beHit": {
        "hitBloodEffect": "",
        "muteAllHit": true,
        "muteAllHitEffect": true,
        "muteAllHitText": true
      },
      "combatLock": {
        "lockShape": "CircleLockEnemy",
        "denyLockOn": true,
        "lockType": "Gadget_Lv1"
      }
    },
    "combatTemplate": "",
    "abilities": [
      {
        "abilityID": "Material",
        "abilityName": "Frost_Orb_Bullet_Material",
        "abilityOverride": ""
      }
    ],
    "timer": {
      "lifeTime": 0.800000011920929
    },
    "move": {
      "$type": "HBMEJJEHPCI",
      "velocityForce": {
        "includeForces": ["RetreatType", "RetreatAirType", "WindZoneType"]
      },
      "speed": 9.0,
      "anglerVelocity": 180.0,
      "stickToGround": {
        "maxStepHeight": 2.0,
        "maxSlopeAngle": 60.0,
        "heightToGround": 1.2000000476837158,
        "flexibleRange": 0.30000001192092896,
        "isStickToWater": true,
        "unstickWhenDownSlide": "Keep",
        "unstickWhenUpSlide": "Keep"
      },
      "radius": 1.5
    },
    "gadget": {
      "$type": "JENBBNKGGJP",
      "collision": {
        "targetType": "Enemy"
      },
      "triggerActions": [
        {
          "$type": "AILPBJHDHDG",
          "abilityName": "Frost_Orb_Bullet_Material"
        }
      ]
    }
  },
  "Guide_Point_UI": {
    "$type": "CJKJIENLOHD",
    "combat": {
      "property": {
        "hp": 999999.0,
        "attack": 30.0,
        "defense": 999999.0,
        "weight": 50.0,
        "isInvincible": true,
        "isGhostToAllied": true,
        "isGhostToEnemy": true
      },
      "combatLock": {
        "lockShape": "CircleLockEnemy",
        "denyLockOn": true,
        "lockType": "Gadget_Lv1"
      }
    },
    "combatTemplate": "",
    "misc": {
      "escapeEffect": "",
      "guidePoint": true,
      "isUIPoint": true
    }
  },
  "Guide_Point_Scene": {
    "$type": "CJKJIENLOHD",
    "combat": {
      "property": {
        "hp": 999999.0,
        "attack": 30.0,
        "defense": 999999.0,
        "weight": 50.0,
        "isInvincible": true,
        "isGhostToAllied": true,
        "isGhostToEnemy": true
      },
      "combatLock": {
        "lockShape": "CircleLockEnemy",
        "denyLockOn": true,
        "lockType": "Gadget_Lv1"
      }
    },
    "combatTemplate": "",
    "misc": {
      "escapeEffect": "",
      "guidePoint": true
    }
  },
  "Guide_Point_Move": {
    "$type": "CJKJIENLOHD",
    "combat": {
      "property": {
        "hp": 999999.0,
        "attack": 30.0,
        "defense": 999999.0,
        "weight": 50.0,
        "isInvincible": true,
        "isGhostToAllied": true,
        "isGhostToEnemy": true
      },
      "combatLock": {
        "lockShape": "CircleLockEnemy",
        "denyLockOn": true,
        "lockType": "Gadget_Lv1"
      }
    },
    "combatTemplate": "",
    "move": {
      "$type": "MMAPEFIEGAL",
      "target": "GroupGadgetEntity",
      "attachPoint": "RootNode",
      "followRotation": true,
      "LFOHLEKJFBI": ""
    },
    "misc": {
      "escapeEffect": "",
      "guidePoint": true,
      "isUIPoint": true
    }
  }
}
