{
  "Tribalwarrior_NoWeapon_SpearThrow_Bullet_Drillhead": {
    "$type": "CJKJIENLOHD",
    "common": {
      "effectAttachShape": {
        "$type": "OMIODKONOMG",
        "scaleX": 0.5,
        "scaleY": 0.5
      },
      "viewSize": 0.5
    },
    "combat": {
      "property": {
        "useCreatorProperty": true,
        "isInvincible": true,
        "isGhostToAllied": true,
        "isGhostToEnemy": true,
        "canTriggerBullet": false
      },
      "beHit": {
        "hitBloodEffect": "",
        "muteAllHit": true,
        "muteAllHitEffect": true,
        "muteAllHitText": true
      },
      "combatLock": {
        "lockShape": "CircleLockEnemy",
        "denyLockOn": true,
        "lockType": "Default"
      }
    },
    "combatTemplate": "",
    "abilities": [
      {
        "abilityID": "",
        "abilityName": "Monster_Tribalwarrior_Spear_Hit_Drillhead",
        "abilityOverride": ""
      }
    ],
    "timer": {
      "lifeTime": 4.0
    },
    "move": {
      "$type": "BFICFPAEFPB",
      "speed": 36.0,
      "DPAAFHNMHHN": {
        "$type": "IFAANDLLGLP"
      },
      "straightRange": 8.5,
      "gravityOfAcceleration": 40.0,
      "airResistance": 0.017999999225139618
    },
    "gadget": {
      "$type": "JENBBNKGGJP",
      "collision": {
        "ccd": {},
        "triggerType": "TriggerNoRepeat",
        "targetType": "Enemy",
        "ignoreWater": true,
        "EPLOHMHAGCJ": true,
        "OBDKEGLCJHP": [
          "Avatar",
          "Bullet",
          "Gadget",
          "Monster",
          "Partner",
          "MonsterEquip",
          "Vehicle"
        ]
      },
      "triggerActions": [
        {
          "$type": "AILPBJHDHDG",
          "abilityName": "Monster_Tribalwarrior_Spear_Hit_Drillhead"
        }
      ]
    }
  },
  "Tribalwarrior_NoWeapon_SpearThrow_Bullet_Mosasaurus": {
    "$type": "CJKJIENLOHD",
    "common": {
      "effectAttachShape": {
        "$type": "OMIODKONOMG",
        "scaleX": 0.5,
        "scaleY": 0.5
      },
      "viewSize": 0.5
    },
    "combat": {
      "property": {
        "useCreatorProperty": true,
        "isInvincible": true,
        "isGhostToAllied": true,
        "isGhostToEnemy": true,
        "canTriggerBullet": false
      },
      "beHit": {
        "hitBloodEffect": "",
        "muteAllHit": true,
        "muteAllHitEffect": true,
        "muteAllHitText": true
      },
      "combatLock": {
        "lockShape": "CircleLockEnemy",
        "denyLockOn": true,
        "lockType": "Default"
      }
    },
    "combatTemplate": "",
    "abilities": [
      {
        "abilityID": "",
        "abilityName": "Monster_Tribalwarrior_Spear_Hit_Mosasaurus",
        "abilityOverride": ""
      }
    ],
    "timer": {
      "lifeTime": 4.0
    },
    "move": {
      "$type": "BFICFPAEFPB",
      "speed": 36.0,
      "DPAAFHNMHHN": {
        "$type": "IFAANDLLGLP"
      },
      "straightRange": 8.5,
      "gravityOfAcceleration": 40.0,
      "airResistance": 0.017999999225139618
    },
    "gadget": {
      "$type": "JENBBNKGGJP",
      "collision": {
        "ccd": {},
        "triggerType": "TriggerNoRepeat",
        "targetType": "Enemy",
        "ignoreWater": true,
        "EPLOHMHAGCJ": true,
        "OBDKEGLCJHP": [
          "Avatar",
          "Bullet",
          "Gadget",
          "Monster",
          "Partner",
          "MonsterEquip",
          "Vehicle"
        ]
      },
      "triggerActions": [
        {
          "$type": "AILPBJHDHDG",
          "abilityName": "Monster_Tribalwarrior_Spear_Hit_Mosasaurus"
        }
      ]
    }
  },
  "Tribalwarrior_Mosasaurus_TribeUlt_FollowBullet": {
    "$type": "CJKJIENLOHD",
    "combat": {
      "property": {
        "useCreatorProperty": true,
        "isInvincible": true,
        "isGhostToEnemy": true,
        "canTriggerBullet": false
      },
      "beHit": {
        "hitBloodEffect": "",
        "muteAllHit": true,
        "muteAllHitEffect": true,
        "muteAllHitText": true
      },
      "combatLock": {
        "lockShape": "CircleLockEnemy",
        "denyLockOn": true,
        "lockType": "Default"
      }
    },
    "combatTemplate": "",
    "abilities": [
      {
        "abilityID": "",
        "abilityName": "Tribalwarrior_Mosasaurus_TribeUlt_FollowBullet_Atk",
        "abilityOverride": ""
      }
    ],
    "timer": {
      "lifeTime": 1.399999976158142
    },
    "move": {
      "$type": "MMAPEFIEGAL",
      "target": "TargetEntity",
      "attachPoint": "RootNode",
      "followRotation": true,
      "LFOHLEKJFBI": ""
    },
    "gadget": {
      "$type": "JENBBNKGGJP",
      "collision": {
        "triggerType": "TriggerNoRepeat",
        "targetType": "Enemy",
        "ignoreScene": true
      },
      "triggerActions": [
        {
          "$type": "AILPBJHDHDG",
          "abilityName": "Tribalwarrior_Mosasaurus_TribeUlt_FollowBullet_Atk"
        }
      ]
    },
    "useRetreatType": true
  },
  "Tribalwarrior_Drillhead_TribeUlt_FollowBullet": {
    "$type": "CJKJIENLOHD",
    "combat": {
      "property": {
        "useCreatorProperty": true,
        "isInvincible": true,
        "isGhostToEnemy": true,
        "canTriggerBullet": false
      },
      "beHit": {
        "hitBloodEffect": "",
        "muteAllHit": true,
        "muteAllHitEffect": true,
        "muteAllHitText": true
      },
      "combatLock": {
        "lockShape": "CircleLockEnemy",
        "denyLockOn": true,
        "lockType": "Default"
      }
    },
    "combatTemplate": "",
    "abilities": [
      {
        "abilityID": "",
        "abilityName": "Tribalwarrior_Drillhead_TribeUlt_FollowBullet_Atk",
        "abilityOverride": ""
      }
    ],
    "timer": {
      "lifeTime": 3.0
    },
    "move": {
      "$type": "MMAPEFIEGAL",
      "target": "TargetEntity",
      "attachPoint": "RootNode",
      "followRotation": true,
      "LFOHLEKJFBI": ""
    },
    "gadget": {
      "$type": "JENBBNKGGJP",
      "collision": {
        "triggerType": "TriggerAlways",
        "triggerCD": 1.0,
        "targetType": "Enemy",
        "ignoreScene": true
      },
      "triggerActions": [
        {
          "$type": "AILPBJHDHDG",
          "abilityName": "Tribalwarrior_Drillhead_TribeUlt_FollowBullet_Atk"
        }
      ]
    }
  },
  "Tribalwarrior_Female_Slim_Slingshot_Mosasaurus_RangedAttack01_Bullet": {
    "$type": "CJKJIENLOHD",
    "common": {
      "effectAttachShape": {
        "$type": "OMIODKONOMG",
        "scaleX": 0.5,
        "scaleY": 0.5
      }
    },
    "combat": {
      "property": {
        "useCreatorProperty": true,
        "isLockHP": true,
        "canTriggerBullet": false
      },
      "beHit": {
        "hitBloodEffect": "",
        "muteAllHit": true,
        "muteAllHitEffect": true,
        "muteAllHitText": true
      },
      "combatLock": {
        "lockShape": "CircleLockEnemy",
        "denyLockOn": true,
        "lockType": "Default"
      }
    },
    "combatTemplate": "",
    "abilities": [
      {
        "abilityID": "",
        "abilityName": "Tribalwarrior_Female_Slim_Slingshot_Mosasaurus_RangedAttack01_Bullet",
        "abilityOverride": ""
      }
    ],
    "timer": {
      "lifeTime": 8.0
    },
    "move": {
      "$type": "BFDBCCCADKH",
      "speed": 20.0,
      "DPAAFHNMHHN": {
        "$type": "IFAANDLLGLP"
      },
      "angleOffHor": 25.0,
      "gravityOfAcceleration": 30.0,
      "correction": {
        "$type": "FEHDIANJKBF",
        "fixAngleOfVer": 15.0,
        "minSpeed": 10.0
      },
      "GEBCKKDCGDP": "",
      "NKPHOKHJKGC": ""
    },
    "gadget": {
      "$type": "JENBBNKGGJP",
      "collision": {
        "targetType": "Enemy"
      },
      "triggerActions": [
        {
          "$type": "AILPBJHDHDG",
          "abilityName": "Tribalwarrior_Female_Slim_Slingshot_Mosasaurus_RangedAttack01_Bullet"
        }
      ]
    }
  },
  "Tribalwarrior_Female_Slim_Slingshot_Mosasaurus_ShrapnelShoot_Bullet": {
    "$type": "CJKJIENLOHD",
    "common": {
      "effectAttachShape": {
        "$type": "OMIODKONOMG",
        "scaleZ": 0.4000000059604645
      }
    },
    "combat": {
      "property": {
        "useCreatorProperty": true,
        "hp": 999999.0,
        "attack": 15.0,
        "defense": 999999.0,
        "isLockHP": true
      },
      "beHit": {
        "hitBloodEffect": "",
        "muteAllHit": true,
        "muteAllHitEffect": true,
        "muteAllHitText": true
      },
      "combatLock": {
        "lockShape": "CircleLockEnemy",
        "denyLockOn": true,
        "lockType": "Default"
      },
      "simulatePhysics": {
        "enable": true,
        "radius": 0.20000000298023224,
        "NHHHFPLNPGJ": 0.05000000074505806
      }
    },
    "combatTemplate": "",
    "abilities": [
      {
        "abilityID": "",
        "abilityName": "Tribalwarrior_Female_Slim_Slingshot_Mosasaurus_ShrapnelShoot_Bullet",
        "abilityOverride": ""
      }
    ],
    "timer": {
      "lifeTime": 3.0
    },
    "move": {
      "$type": "JGEFBHJPMOL"
    },
    "gadget": {
      "$type": "AKGCANNFFGI",
      "collision": {
        "targetType": "Enemy"
      },
      "triggerActions": [
        {
          "$type": "AILPBJHDHDG",
          "abilityName": "Tribalwarrior_Female_Slim_Slingshot_Mosasaurus_ShrapnelShoot_Bullet"
        }
      ],
      "killByOther": true,
      "multiBulletConfig": {
        "$type": "OAKJCHGIBPC",
        "rotationDampTime": "Eff_Monster_Tribalwarrior_Female_Slim_SlingShot_Mosasaurus_ShrapnelShoot_WaterBullet"
      }
    }
  },
  "Tribalwarrior_Female_Slim_Slingshot_Mosasaurus_TribeUlt_FollowBullet": {
    "$type": "CJKJIENLOHD",
    "combat": {
      "property": {
        "useCreatorProperty": true,
        "isInvincible": true,
        "isGhostToEnemy": true,
        "canTriggerBullet": false
      },
      "beHit": {
        "hitBloodEffect": "",
        "muteAllHit": true,
        "muteAllHitEffect": true,
        "muteAllHitText": true
      },
      "combatLock": {
        "lockShape": "CircleLockEnemy",
        "denyLockOn": true,
        "lockType": "Default"
      }
    },
    "combatTemplate": "",
    "abilities": [
      {
        "abilityID": "",
        "abilityName": "Tribalwarrior_Female_Slim_Slingshot_Mosasaurus_TribeUlt_FollowBullet",
        "abilityOverride": ""
      }
    ],
    "timer": {
      "lifeTime": 10.0
    },
    "move": {
      "$type": "MMAPEFIEGAL",
      "target": "TargetEntity",
      "attachPoint": "MotionRoot",
      "followRotation": true,
      "LFOHLEKJFBI": ""
    },
    "gadget": {
      "$type": "JENBBNKGGJP",
      "collision": {
        "triggerType": "TriggerAlways",
        "triggerCD": 1.5,
        "targetType": "Enemy",
        "ignoreScene": true
      },
      "triggerActions": [
        {
          "$type": "AILPBJHDHDG",
          "abilityName": "Tribalwarrior_Female_Slim_Slingshot_Mosasaurus_TribeUlt_FollowBullet"
        }
      ]
    },
    "useRetreatType": true
  },
  "Monster_Tribalwarrior_Male_Standard_Chainsword_HookWalker_ChargeFollowBullet": {
    "$type": "CJKJIENLOHD",
    "combat": {
      "property": {
        "useCreatorProperty": true,
        "isInvincible": true,
        "isGhostToEnemy": true,
        "canTriggerBullet": false
      },
      "beHit": {
        "hitBloodEffect": "",
        "muteAllHit": true,
        "muteAllHitEffect": true,
        "muteAllHitText": true
      },
      "combatLock": {
        "lockShape": "CircleLockEnemy",
        "denyLockOn": true,
        "lockType": "Default"
      },
      "animEvents": {
        "Atk": {
          "attackPattern": {
            "$type": "ConfigAttackSphere",
            "triggerType": "TriggerNoRepeat",
            "born": {
              "$type": "ConfigBornByCollisionPoint"
            },
            "radius": 0.05000000074505806
          },
          "attackInfo": {
            "attackTag": "",
            "attenuationTag": "",
            "attenuationGroup": "default",
            "attackProperty": {
              "actorGrassSubHurtDelta": 0.800000011920929,
              "actorWindSubHurtDelta": 0.0,
              "elementType": "Grass",
              "elementDurability": 25.0,
              "strikeType": "Default",
              "enBreak": 250.0,
              "attackType": "Melee",
              "GLKMCMDJBIK": 0.0
            },
            "hitPattern": {
              "onHitEffectName": "default",
              "hitImpulseY": "",
              "hitImpulseType": "",
              "overrideHitImpulse": {
                "hitLevel": "Air",
                "IMIJMPGJOGG": 600.0,
                "BPCDKKBKOBM": 500.0
              },
              "retreatType": "ByAttackerForward"
            },
            "cameraShake": {
              "shakeRange": 1.600000023841858,
              "shakeTime": 0.25,
              "extension": {
                "baseCycle": 0.25,
                "cycleDamping": 0.25
              }
            },
            "canBeModifiedBy": "Owner"
          }
        }
      }
    },
    "combatTemplate": "",
    "timer": {
      "lifeTime": 3.0
    },
    "move": {
      "$type": "MMAPEFIEGAL",
      "target": "TargetEntity",
      "attachPoint": "MotionRoot",
      "followRotation": true,
      "LFOHLEKJFBI": ""
    },
    "gadget": {
      "$type": "JENBBNKGGJP",
      "collision": {
        "triggerType": "TriggerAlways",
        "triggerCD": 1.5,
        "targetType": "Enemy",
        "ignoreScene": true
      },
      "triggerActions": [
        {
          "$type": "NMMEILICBAE",
          "attackEvent": "Atk"
        }
      ]
    },
    "useRetreatType": true
  },
  "Tribalwarrior_Female_Standard_Launcher_HookWalker_TribalUlt_SingleBullet": {
    "$type": "CJKJIENLOHD",
    "common": {
      "effectAttachShape": {
        "$type": "OMIODKONOMG"
      }
    },
    "combat": {
      "property": {
        "useCreatorProperty": true,
        "hp": 999999.0,
        "attack": 15.0,
        "defense": 999999.0,
        "isLockHP": true,
        "isGhostToAllied": true,
        "isGhostToEnemy": true,
        "canTriggerBullet": false
      },
      "beHit": {
        "hitBloodEffect": "",
        "muteAllHit": true,
        "muteAllHitEffect": true,
        "muteAllHitText": true
      },
      "combatLock": {
        "lockShape": "CircleLockEnemy",
        "denyLockOn": true,
        "lockType": "Default"
      }
    },
    "combatTemplate": "",
    "abilities": [
      {
        "abilityID": "",
        "abilityName": "Tribalwarrior_Female_Standard_Launcher_HookWalker_TribalUlt_SingleBullet",
        "abilityOverride": ""
      }
    ],
    "timer": {
      "lifeTime": 5.0
    },
    "move": {
      "$type": "BFDBCCCADKH",
      "velocityForce": {
        "muteAll": true
      },
      "speed": 30.0,
      "DPAAFHNMHHN": {
        "$type": "IFAANDLLGLP"
      },
      "angleOffHor": 45.0,
      "gravityOfAcceleration": 75.0,
      "correction": {
        "$type": "FEHDIANJKBF",
        "fixAngleOfVer": 360.0,
        "minSpeed": 20.0,
        "maxSpeed": 40.0
      },
      "GEBCKKDCGDP": "",
      "NKPHOKHJKGC": ""
    },
    "gadget": {
      "$type": "JENBBNKGGJP",
      "collision": {
        "targetType": "Enemy"
      },
      "triggerActions": [
        {
          "$type": "AILPBJHDHDG",
          "abilityName": "Tribalwarrior_Female_Standard_Launcher_HookWalker_TribalUlt_SingleBullet"
        }
      ],
      "killByOther": true
    }
  },
  "Monster_Tribalwarrior_Male_Standard_Chainsword_HookWalker_HookFollowBullet": {
    "$type": "CJKJIENLOHD",
    "combat": {
      "property": {
        "useCreatorProperty": true,
        "hp": 999999.0,
        "attack": 15.0,
        "defense": 999999.0,
        "isLockHP": true,
        "isGhostToEnemy": true
      },
      "beHit": {
        "hitBloodEffect": "",
        "muteAllHit": true,
        "muteAllHitEffect": true,
        "muteAllHitText": true
      },
      "combatLock": {
        "lockShape": "CircleLockEnemy",
        "denyLockOn": true,
        "lockType": "Default"
      }
    },
    "combatTemplate": "",
    "abilities": [
      {
        "abilityID": "",
        "abilityName": "Monster_Tribalwarrior_Male_Standard_Chainsword_HookWalker_HookFollowBullet",
        "abilityOverride": ""
      },
      {
        "abilityID": "",
        "abilityName": "Monster_Tribalwarrior_Male_Standard_Chainsword_HookWalker_HookFollowBullet_Stay",
        "abilityOverride": ""
      }
    ],
    "timer": {
      "lifeTime": 15.0
    },
    "move": {
      "$type": "MMMHMBCJANN",
      "speed": 40.0,
      "syncToRemote": true,
      "CBGHFFHBDCC": {
        "$type": "NHKNPIOGEAO",
        "traceOnYAxis": true,
        "ILGDNEKKBCI": "GV_ControlledBullet_TrackPos",
        "JHIMECLCHGI": [
          {
            "$type": "AILPBJHDHDG",
            "abilityName": "Monster_Tribalwarrior_Male_Standard_Chainsword_HookWalker_HookFollowBullet_Stay"
          }
        ]
      }
    },
    "gadget": {
      "$type": "JENBBNKGGJP",
      "collision": {
        "ccd": {
          "damageRatio": "Always",
          "radius": 0.5
        },
        "triggerType": "TriggerNoRepeat",
        "triggerCD": 0.05000000074505806,
        "targetType": "All",
        "EPLOHMHAGCJ": true,
        "JJCMHEHNOAC": ["Level"]
      },
      "triggerActions": [
        {
          "$type": "AILPBJHDHDG",
          "abilityName": "Monster_Tribalwarrior_Male_Standard_Chainsword_HookWalker_HookFollowBullet"
        }
      ],
      "enableCollisionDelay": 0.009999999776482582,
      "resetLastPosOnDelayEnd": true,
      "reTriggerOnDelayEnd": true
    }
  },
  "Tribalwarrior_Female_Standard_Launcher_ShootAttack01_Bullet": {
    "$type": "CJKJIENLOHD",
    "common": {
      "effectAttachShape": {
        "$type": "OMIODKONOMG",
        "scaleX": 0.5,
        "scaleY": 0.5
      }
    },
    "combat": {
      "property": {
        "useCreatorProperty": true,
        "isLockHP": true,
        "canTriggerBullet": false
      },
      "beHit": {
        "hitBloodEffect": "",
        "muteAllHit": true,
        "muteAllHitEffect": true,
        "muteAllHitText": true
      },
      "combatLock": {
        "lockShape": "CircleLockEnemy",
        "denyLockOn": true,
        "lockType": "Default"
      }
    },
    "combatTemplate": "",
    "abilities": [
      {
        "abilityID": "",
        "abilityName": "Tribalwarrior_Female_Standard_Launcher_ShootAttack01_Bullet",
        "abilityOverride": ""
      }
    ],
    "timer": {
      "lifeTime": 8.0
    },
    "move": {
      "$type": "BFDBCCCADKH",
      "speed": 30.0,
      "DPAAFHNMHHN": {
        "$type": "IFAANDLLGLP"
      },
      "angleOffHor": 30.0,
      "gravityOfAcceleration": 15.0,
      "correction": {
        "$type": "FEHDIANJKBF",
        "deviation": 1.5,
        "fixAngleOfVer": 15.0,
        "minSpeed": 4.0,
        "maxSpeed": 24.0
      },
      "GEBCKKDCGDP": "",
      "NKPHOKHJKGC": ""
    },
    "gadget": {
      "$type": "JENBBNKGGJP",
      "collision": {
        "triggerType": "TriggerNoRepeat",
        "targetType": "Enemy"
      },
      "triggerActions": [
        {
          "$type": "AILPBJHDHDG",
          "abilityName": "Tribalwarrior_Female_Standard_Launcher_ShootAttack01_Bullet"
        }
      ]
    }
  },
  "Tribalwarrior_Female_Standard_Launcher_ShootAttack02_Bullet": {
    "$type": "CJKJIENLOHD",
    "common": {
      "effectAttachShape": {
        "$type": "OMIODKONOMG",
        "scaleZ": 0.4000000059604645
      }
    },
    "combat": {
      "property": {
        "useCreatorProperty": true,
        "hp": 999999.0,
        "attack": 15.0,
        "defense": 999999.0,
        "isLockHP": true
      },
      "beHit": {
        "hitBloodEffect": "",
        "muteAllHit": true,
        "muteAllHitEffect": true,
        "muteAllHitText": true
      },
      "combatLock": {
        "lockShape": "CircleLockEnemy",
        "denyLockOn": true,
        "lockType": "Default"
      },
      "simulatePhysics": {
        "enable": true,
        "radius": 0.5,
        "NHHHFPLNPGJ": 0.05000000074505806
      }
    },
    "combatTemplate": "",
    "abilities": [
      {
        "abilityID": "",
        "abilityName": "Tribalwarrior_Female_Standard_Launcher_ShootAttack02_Bullet",
        "abilityOverride": ""
      }
    ],
    "timer": {
      "lifeTime": 3.0
    },
    "move": {
      "$type": "JGEFBHJPMOL"
    },
    "gadget": {
      "$type": "AKGCANNFFGI",
      "collision": {
        "targetType": "Enemy"
      },
      "triggerActions": [
        {
          "$type": "AILPBJHDHDG",
          "abilityName": "Tribalwarrior_Female_Standard_Launcher_ShootAttack02_Bullet"
        }
      ],
      "triggerLifeOverActions": [
        {
          "$type": "AILPBJHDHDG",
          "abilityName": "Tribalwarrior_Female_Standard_Launcher_ShootAttack02_Bullet"
        }
      ],
      "killByOther": true,
      "multiBulletConfig": {
        "$type": "OAKJCHGIBPC",
        "rotationDampTime": "Eff_Monster_TribalWarrior_Female_Standard_Launcher_RangedAttack02_Bullet"
      }
    }
  },
  "Tribalwarrior_Female_Standard_Launcher_Mosasaurus_TribeUlt_FollowBullet": {
    "$type": "CJKJIENLOHD",
    "combat": {
      "property": {
        "useCreatorProperty": true,
        "isInvincible": true,
        "isGhostToEnemy": true,
        "canTriggerBullet": false
      },
      "beHit": {
        "hitBloodEffect": "",
        "muteAllHit": true,
        "muteAllHitEffect": true,
        "muteAllHitText": true
      },
      "combatLock": {
        "lockShape": "CircleLockEnemy",
        "denyLockOn": true,
        "lockType": "Default"
      }
    },
    "combatTemplate": "",
    "abilities": [
      {
        "abilityID": "",
        "abilityName": "Tribalwarrior_Female_Standard_Launcher_Mosasaurus_TribeUlt_FollowBullet",
        "abilityOverride": ""
      }
    ],
    "timer": {
      "lifeTime": 10.0
    },
    "move": {
      "$type": "MMAPEFIEGAL",
      "target": "TargetEntity",
      "attachPoint": "MotionRoot",
      "followRotation": true,
      "LFOHLEKJFBI": ""
    },
    "gadget": {
      "$type": "JENBBNKGGJP",
      "collision": {
        "triggerType": "TriggerAlways",
        "triggerCD": 1.5,
        "targetType": "Enemy",
        "ignoreScene": true
      },
      "triggerActions": [
        {
          "$type": "AILPBJHDHDG",
          "abilityName": "Tribalwarrior_Female_Standard_Launcher_Mosasaurus_TribeUlt_FollowBullet"
        }
      ]
    },
    "useRetreatType": true
  },
  "Tribalwarrior_Female_Standard_Launcher_HookWalker_ShootAttack01_Bullet": {
    "$type": "CJKJIENLOHD",
    "common": {
      "effectAttachShape": {
        "$type": "OMIODKONOMG",
        "scaleX": 0.5,
        "scaleY": 0.5
      }
    },
    "combat": {
      "property": {
        "useCreatorProperty": true,
        "isLockHP": true,
        "canTriggerBullet": false
      },
      "beHit": {
        "hitBloodEffect": "",
        "muteAllHit": true,
        "muteAllHitEffect": true,
        "muteAllHitText": true
      },
      "combatLock": {
        "lockShape": "CircleLockEnemy",
        "denyLockOn": true,
        "lockType": "Default"
      }
    },
    "combatTemplate": "",
    "abilities": [
      {
        "abilityID": "",
        "abilityName": "Tribalwarrior_Female_Standard_Launcher_HookWalker_ShootAttack01_Bullet",
        "abilityOverride": ""
      }
    ],
    "timer": {
      "lifeTime": 8.0
    },
    "move": {
      "$type": "BFDBCCCADKH",
      "speed": 30.0,
      "DPAAFHNMHHN": {
        "$type": "IFAANDLLGLP"
      },
      "angleOffHor": 30.0,
      "gravityOfAcceleration": 15.0,
      "correction": {
        "$type": "FEHDIANJKBF",
        "deviation": 1.5,
        "fixAngleOfVer": 15.0,
        "minSpeed": 4.0,
        "maxSpeed": 24.0
      },
      "GEBCKKDCGDP": "",
      "NKPHOKHJKGC": ""
    },
    "gadget": {
      "$type": "JENBBNKGGJP",
      "collision": {
        "triggerType": "TriggerNoRepeat",
        "targetType": "Enemy"
      },
      "triggerActions": [
        {
          "$type": "AILPBJHDHDG",
          "abilityName": "Tribalwarrior_Female_Standard_Launcher_HookWalker_ShootAttack01_Bullet"
        }
      ]
    }
  },
  "Tribalwarrior_Female_Standard_Launcher_HookWalker_ShootAttack02_Bullet": {
    "$type": "CJKJIENLOHD",
    "common": {
      "effectAttachShape": {
        "$type": "OMIODKONOMG",
        "scaleZ": 0.4000000059604645
      }
    },
    "combat": {
      "property": {
        "useCreatorProperty": true,
        "hp": 999999.0,
        "attack": 15.0,
        "defense": 999999.0,
        "isLockHP": true
      },
      "beHit": {
        "hitBloodEffect": "",
        "muteAllHit": true,
        "muteAllHitEffect": true,
        "muteAllHitText": true
      },
      "combatLock": {
        "lockShape": "CircleLockEnemy",
        "denyLockOn": true,
        "lockType": "Default"
      },
      "simulatePhysics": {
        "enable": true,
        "radius": 0.5,
        "NHHHFPLNPGJ": 0.05000000074505806
      }
    },
    "combatTemplate": "",
    "abilities": [
      {
        "abilityID": "",
        "abilityName": "Tribalwarrior_Female_Standard_Launcher_HookWalker_ShootAttack02_Bullet",
        "abilityOverride": ""
      }
    ],
    "timer": {
      "lifeTime": 3.0
    },
    "move": {
      "$type": "JGEFBHJPMOL"
    },
    "gadget": {
      "$type": "AKGCANNFFGI",
      "collision": {
        "targetType": "Enemy"
      },
      "triggerActions": [
        {
          "$type": "AILPBJHDHDG",
          "abilityName": "Tribalwarrior_Female_Standard_Launcher_HookWalker_ShootAttack02_Bullet"
        }
      ],
      "killByOther": true,
      "multiBulletConfig": {
        "$type": "OAKJCHGIBPC",
        "rotationDampTime": "Eff_Monster_Tribalwarrior_Female_Standard_Launcher_Hookwalker_RangedAttack02_Bullet"
      }
    }
  },
  "Tribalwarrior_Female_Standard_Launcher_HookWalker_TribalUlt_MultiBullet": {
    "$type": "CJKJIENLOHD",
    "common": {
      "effectAttachShape": {
        "$type": "OMIODKONOMG"
      }
    },
    "combat": {
      "property": {
        "useCreatorProperty": true,
        "hp": 999999.0,
        "attack": 10.0,
        "defense": 999999.0,
        "isInvincible": true,
        "isGhostToAllied": true,
        "isGhostToEnemy": true
      },
      "beHit": {
        "hitBloodEffect": "",
        "muteAllHit": true,
        "muteAllHitEffect": true,
        "muteAllHitText": true
      },
      "combatLock": {
        "lockShape": "CircleLockEnemy",
        "denyLockOn": true,
        "lockType": "Default"
      },
      "simulatePhysics": {
        "enable": true,
        "radius": 0.5
      }
    },
    "combatTemplate": "",
    "abilities": [
      {
        "abilityID": "",
        "abilityName": "Tribalwarrior_Female_Standard_Launcher_HookWalker_TribalUlt_MultiBullet",
        "abilityOverride": ""
      }
    ],
    "timer": {
      "lifeTime": 8.0
    },
    "move": {
      "$type": "JGEFBHJPMOL"
    },
    "gadget": {
      "$type": "AKGCANNFFGI",
      "collision": {
        "targetType": "Enemy"
      },
      "triggerActions": [
        {
          "$type": "AILPBJHDHDG",
          "abilityName": "Tribalwarrior_Female_Standard_Launcher_HookWalker_TribalUlt_MultiBullet"
        }
      ],
      "killByOther": true,
      "multiBulletConfig": {
        "$type": "OAKJCHGIBPC",
        "rotationDampTime": "Eff_Monster_Tribalwarrior_Female_Standard_Launcher_Hookwalker_TribalUlt_Doom"
      }
    }
  },
  "Tribalwarrior_FallDownCheck_FollowBullet": {
    "$type": "CJKJIENLOHD",
    "combat": {
      "property": {
        "useCreatorProperty": true,
        "hp": 999999.0,
        "attack": 15.0,
        "defense": 999999.0,
        "isLockHP": true,
        "isGhostToEnemy": true
      },
      "beHit": {
        "hitBloodEffect": "",
        "muteAllHit": true,
        "muteAllHitEffect": true,
        "muteAllHitText": true
      },
      "combatLock": {
        "lockShape": "CircleLockEnemy",
        "denyLockOn": true,
        "lockType": "Default"
      }
    },
    "combatTemplate": "",
    "abilities": [
      {
        "abilityID": "",
        "abilityName": "Monster_Tribalwarrior_FallDownCheck_FollowBullet",
        "abilityOverride": ""
      }
    ],
    "timer": {
      "lifeTime": 10.0
    },
    "move": {
      "$type": "MMAPEFIEGAL",
      "velocityForce": {
        "muteAll": true
      },
      "handleCombatTaskImmediately": true,
      "target": "TargetEntity",
      "attachPoint": "MotionRoot",
      "followRotation": true,
      "syncInterval": 0.05000000074505806,
      "handleInLateTick": true,
      "followInFixedUpdate": true,
      "fixedFollowPosMaxSpeed": 100.0,
      "LFOHLEKJFBI": ""
    },
    "gadget": {
      "$type": "JENBBNKGGJP",
      "collision": {
        "targetType": "Enemy"
      },
      "triggerActions": [
        {
          "$type": "AILPBJHDHDG",
          "abilityName": "Monster_Tribalwarrior_FallDownCheck_FollowBullet"
        }
      ]
    }
  },
  "Tribalwarrior_HookWalker_Sword_TribeUlt_Follow": {
    "$type": "CJKJIENLOHD",
    "combat": {
      "property": {
        "useCreatorProperty": true,
        "isInvincible": true,
        "isGhostToEnemy": true,
        "canTriggerBullet": false
      },
      "beHit": {
        "hitBloodEffect": "",
        "muteAllHit": true,
        "muteAllHitEffect": true,
        "muteAllHitText": true
      },
      "combatLock": {
        "lockShape": "CircleLockEnemy",
        "denyLockOn": true,
        "lockType": "Default"
      }
    },
    "combatTemplate": "",
    "abilities": [
      {
        "abilityID": "",
        "abilityName": "Tribalwarrior_HookWalker_Sword_TribeUlt_Follow",
        "abilityOverride": ""
      }
    ],
    "timer": {
      "lifeTime": 3.0
    },
    "move": {
      "$type": "MMAPEFIEGAL",
      "target": "TargetEntity",
      "attachPoint": "WeaponR",
      "followRotation": true,
      "LFOHLEKJFBI": ""
    },
    "gadget": {
      "$type": "JENBBNKGGJP",
      "collision": {
        "triggerType": "TriggerAlways",
        "triggerCD": 0.5,
        "targetType": "Enemy"
      },
      "triggerActions": [
        {
          "$type": "AILPBJHDHDG",
          "abilityName": "Tribalwarrior_HookWalker_Sword_TribeUlt_Follow"
        }
      ]
    }
  },
  "Tribalwarrior_HookWalker_Sword_TribeUlt_Return": {
    "$type": "CJKJIENLOHD",
    "common": {
      "effectAttachShape": {
        "$type": "OMIODKONOMG",
        "scaleZ": 0.4000000059604645
      }
    },
    "combat": {
      "property": {
        "useCreatorProperty": true,
        "isInvincible": true,
        "isLockHP": true,
        "isGhostToEnemy": true,
        "canTriggerBullet": false
      },
      "beHit": {
        "hitBloodEffect": "",
        "muteAllHit": true,
        "muteAllHitEffect": true,
        "muteAllHitText": true
      },
      "combatLock": {
        "lockShape": "CircleLockEnemy",
        "denyLockOn": true,
        "lockType": "Default"
      }
    },
    "combatTemplate": "",
    "abilities": [
      {
        "abilityID": "",
        "abilityName": "Tribalwarrior_HookWalker_Sword_TribeUlt_Return",
        "abilityOverride": ""
      }
    ],
    "timer": {
      "lifeTime": 3.0
    },
    "move": {
      "$type": "GMOHNHFHLAO",
      "speed": 35.0
    },
    "gadget": {
      "$type": "JENBBNKGGJP",
      "collision": {
        "ccd": {
          "damageRatio": "Always",
          "radius": 0.5
        },
        "triggerType": "TriggerNoRepeat",
        "targetType": "SelfCamp",
        "ignoreScene": true
      },
      "triggerActions": [
        {
          "$type": "AILPBJHDHDG",
          "abilityName": "Tribalwarrior_HookWalker_Sword_TribeUlt_Return"
        }
      ]
    }
  },
  "Tribalwarrior_HookWalker_Claymore_TribeUlt_Follow": {
    "$type": "CJKJIENLOHD",
    "combat": {
      "property": {
        "useCreatorProperty": true,
        "isInvincible": true,
        "isGhostToEnemy": true,
        "canTriggerBullet": false
      },
      "beHit": {
        "hitBloodEffect": "",
        "muteAllHit": true,
        "muteAllHitEffect": true,
        "muteAllHitText": true
      },
      "combatLock": {
        "lockShape": "CircleLockEnemy",
        "denyLockOn": true,
        "lockType": "Default"
      }
    },
    "combatTemplate": "",
    "abilities": [
      {
        "abilityID": "",
        "abilityName": "Tribalwarrior_HookWalker_Claymore_TribeUlt_Follow",
        "abilityOverride": ""
      }
    ],
    "timer": {
      "lifeTime": 3.0
    },
    "move": {
      "$type": "MMAPEFIEGAL",
      "target": "TargetEntity",
      "attachPoint": "WeaponR",
      "followRotation": true,
      "LFOHLEKJFBI": ""
    },
    "gadget": {
      "$type": "JENBBNKGGJP",
      "collision": {
        "triggerType": "TriggerAlways",
        "triggerCD": 0.5,
        "targetType": "Enemy"
      },
      "triggerActions": [
        {
          "$type": "AILPBJHDHDG",
          "abilityName": "Tribalwarrior_HookWalker_Claymore_TribeUlt_Follow"
        }
      ]
    }
  },
  "Tribalwarrior_HookWalker_Claymore_TribeUlt_Return": {
    "$type": "CJKJIENLOHD",
    "common": {
      "effectAttachShape": {
        "$type": "OMIODKONOMG",
        "scaleZ": 0.4000000059604645
      }
    },
    "combat": {
      "property": {
        "useCreatorProperty": true,
        "isInvincible": true,
        "isLockHP": true,
        "isGhostToEnemy": true,
        "canTriggerBullet": false
      },
      "beHit": {
        "hitBloodEffect": "",
        "muteAllHit": true,
        "muteAllHitEffect": true,
        "muteAllHitText": true
      },
      "combatLock": {
        "lockShape": "CircleLockEnemy",
        "denyLockOn": true,
        "lockType": "Default"
      }
    },
    "combatTemplate": "",
    "abilities": [
      {
        "abilityID": "",
        "abilityName": "Tribalwarrior_HookWalker_Claymore_TribeUlt_Return",
        "abilityOverride": ""
      }
    ],
    "timer": {
      "lifeTime": 3.0
    },
    "move": {
      "$type": "GMOHNHFHLAO",
      "speed": 35.0
    },
    "gadget": {
      "$type": "JENBBNKGGJP",
      "collision": {
        "ccd": {
          "damageRatio": "Always",
          "radius": 0.5
        },
        "triggerType": "TriggerNoRepeat",
        "targetType": "SelfCamp",
        "ignoreScene": true
      },
      "triggerActions": [
        {
          "$type": "AILPBJHDHDG",
          "abilityName": "Tribalwarrior_HookWalker_Claymore_TribeUlt_Return"
        }
      ]
    }
  },
  "Tribalwarrior_HookWalker_TribeUlt_LevelCollisionDetection": {
    "$type": "CJKJIENLOHD",
    "combat": {
      "property": {
        "useCreatorProperty": true,
        "isInvincible": true,
        "isGhostToEnemy": true,
        "canTriggerBullet": false
      },
      "beHit": {
        "hitBloodEffect": "",
        "muteAllHit": true,
        "muteAllHitEffect": true,
        "muteAllHitText": true
      },
      "combatLock": {
        "lockShape": "CircleLockEnemy",
        "denyLockOn": true,
        "lockType": "Default"
      }
    },
    "combatTemplate": "",
    "abilities": [
      {
        "abilityID": "",
        "abilityName": "Tribalwarrior_HookWalker_TribeUlt_LevelCollisionDetection",
        "abilityOverride": ""
      }
    ],
    "timer": {
      "lifeTime": 3.0
    },
    "move": {
      "$type": "MMAPEFIEGAL",
      "target": "TargetEntity",
      "attachPoint": "WeaponR",
      "followRotation": true,
      "LFOHLEKJFBI": ""
    },
    "gadget": {
      "$type": "JENBBNKGGJP",
      "collision": {
        "triggerType": "TriggerAlways",
        "targetType": "Enemy"
      },
      "triggerActions": [
        {
          "$type": "AILPBJHDHDG",
          "abilityName": "Tribalwarrior_HookWalker_TribeUlt_LevelCollisionDetection"
        }
      ]
    }
  }
}
