{
  "SceneObj_Level_Activity_Hunting_Trap_01": {
    "$type": "CJKJIENLOHD",
    "hasModel": true,
    "combat": {
      "property": {
        "hp": 99999.0,
        "isInvincible": true,
        "isLockHP": true
      },
      "beHit": {
        "hitBloodEffect": "",
        "hitAutoRedirect": false,
        "muteAllHitText": true
      },
      "combatLock": {
        "lockShape": "CircleLockEnemy",
        "denyLockOn": true,
        "lockType": "Gadget_Lv1"
      }
    },
    "combatTemplate": "",
    "abilities": [
      {
        "abilityID": "SceneObj_Level_Activity_Hunting_Trap_01",
        "abilityName": "SceneObj_Level_Activity_Hunting_Trap_01",
        "abilityOverride": ""
      },
      {
        "abilityID": "SceneObj_Level_Activity_Hunting_Bullet_Attack_Handler",
        "abilityName": "SceneObj_Level_Activity_Hunting_Bullet_Attack_Handler",
        "abilityOverride": ""
      }
    ],
    "field": {
      "shape": "",
      "fromShape": "",
      "triggerInfinite": true,
      "lifeInfinite": true,
      "checkInterval": 0.10000000149011612,
      "campType": "AllExceptSelf",
      "colliderName": "Trigger_Col",
      "fromColliderName": ""
    }
  },
  "SceneObj_Level_Activity_Hunting_Trap_02": {
    "$type": "CJKJIENLOHD",
    "hasModel": true,
    "combat": {
      "property": {
        "hp": 99999.0,
        "isInvincible": true,
        "isLockHP": true
      },
      "beHit": {
        "hitBloodEffect": "",
        "hitAutoRedirect": false,
        "muteAllHitText": true
      },
      "combatLock": {
        "lockShape": "CircleLockEnemy",
        "lockType": "Gadget_Lv1"
      }
    },
    "combatTemplate": "",
    "abilities": [
      {
        "abilityID": "SceneObj_Level_Activity_Hunting_Trap_02",
        "abilityName": "SceneObj_Level_Activity_Hunting_Trap_02",
        "abilityOverride": ""
      },
      {
        "abilityID": "SceneObj_Level_Activity_Hunting_Trap_02_Limit_Handler",
        "abilityName": "SceneObj_Level_Activity_Hunting_Trap_02_Limit_Handler",
        "abilityOverride": ""
      }
    ],
    "field": {
      "shape": "",
      "fromShape": "",
      "triggerInfinite": true,
      "lifeInfinite": true,
      "checkInterval": 0.10000000149011612,
      "campType": "AllExceptSelf",
      "colliderName": "Trigger_Col",
      "fromColliderName": ""
    },
    "move": {
      "$type": "MGENMIHFEJO",
      "velocityForce": {
        "muteAll": true
      },
      "startCloseToGround": false
    }
  },
  "SceneObj_Level_Activity_Hunting_Shield_PickUp": {
    "$type": "CJKJIENLOHD",
    "hasModel": true,
    "combat": {
      "property": {
        "hp": 99999.0,
        "isInvincible": true,
        "isLockHP": true
      },
      "combatLock": {
        "lockShape": "CircleLockEnemy",
        "denyLockOn": true,
        "lockType": "Default"
      }
    },
    "combatTemplate": "",
    "abilities": [
      {
        "abilityID": "SceneObj_Level_Activity_Hunting_Shield_PickUp",
        "abilityName": "SceneObj_Level_Activity_Hunting_Shield_PickUp",
        "abilityOverride": ""
      }
    ],
    "field": {
      "concernType": "AllAvatars",
      "shape": "CircleR0_8",
      "fromShape": "",
      "triggerInfinite": true,
      "startCheckTime": 0.20000000298023224,
      "checkInterval": 0.10000000149011612,
      "lifeTime": 999999.0,
      "overwriteCampType": true,
      "campType": "All",
      "colliderName": "",
      "fromColliderName": ""
    }
  },
  "SceneObj_Level_Activity_Hunting_Shield": {
    "$type": "CJKJIENLOHD",
    "combat": {
      "property": {
        "hp": 99999.0,
        "isInvincible": true,
        "isLockHP": true
      },
      "combatLock": {
        "lockShape": "CircleLockEnemy",
        "denyLockOn": true,
        "lockType": "Default"
      }
    },
    "combatTemplate": "",
    "abilities": [
      {
        "abilityID": "SceneObj_Level_Activity_Hunting_Shield",
        "abilityName": "SceneObj_Level_Activity_Hunting_Shield",
        "abilityOverride": ""
      }
    ],
    "field": {
      "shape": "",
      "fromShape": "",
      "triggerInfinite": true,
      "lifeInfinite": true,
      "checkInterval": 0.20000000298023224,
      "campType": "AllExceptSelf",
      "colliderName": "Trigger_Col",
      "fromColliderName": ""
    },
    "move": {
      "$type": "MMAPEFIEGAL",
      "attachPoint": "",
      "LFOHLEKJFBI": ""
    }
  },
  "SceneObj_Level_Activity_Hunting_Smoke": {
    "$type": "CJKJIENLOHD",
    "hasModel": true,
    "combat": {
      "property": {
        "hp": 99999.0,
        "attack": 200.0,
        "weight": 50.0,
        "isLockHP": true,
        "isGhostToAllied": true
      },
      "beHit": {
        "hitBloodEffect": "",
        "hitAutoRedirect": false,
        "muteAllHitText": true
      },
      "combatLock": {
        "lockShape": "CircleLockEnemy",
        "lockType": "Gadget_Lv1"
      }
    },
    "combatTemplate": "",
    "abilities": [
      {
        "abilityID": "SceneObj_Level_Activity_Hunting_Smoke",
        "abilityName": "SceneObj_Level_Activity_Hunting_Smoke",
        "abilityOverride": ""
      },
      {
        "abilityID": "SceneObj_Level_Activity_Hunting_Bullet_Attack_Handler",
        "abilityName": "SceneObj_Level_Activity_Hunting_Bullet_Attack_Handler",
        "abilityOverride": ""
      }
    ],
    "uiInteract": {
      "gadgetUIBtnCfgPath": "TEST/TEST_Chest_Btn",
      "uiName": "UI_ACTIVITY_VINTAGE_HUNTING_Smoke_Activate",
      "onTouch": "WidgetMPSupport",
      "touchParams": ["SceneObj_Level_Activity_Hunting_Smoke"],
      "icon": "UI_Icon_Intee_Mechanism",
      "groupName": "",
      "confirmDialogTitle": "",
      "confirmDialogContent": ""
    },
    "intee": {
      "triggerRadius": 1.5,
      "KAMIAMNMFCP": ""
    }
  },
  "SceneObj_Level_Activity_Hunting_Jungle": {
    "$type": "CJKJIENLOHD",
    "hasModel": true,
    "combat": {
      "property": {
        "hp": 99999.0,
        "isInvincible": true,
        "isLockHP": true,
        "isGhostToAllied": true,
        "isGhostToEnemy": true
      },
      "combatLock": {
        "lockShape": "CircleLockEnemy",
        "denyLockOn": true,
        "lockType": "Default"
      }
    },
    "combatTemplate": "",
    "abilities": [
      {
        "abilityID": "SceneObj_Level_Activity_Hunting_Jungle",
        "abilityName": "SceneObj_Level_Activity_Hunting_Jungle",
        "abilityOverride": ""
      }
    ]
  },
  "SceneObj_Level_Activity_Hunting_TreeBranch": {
    "$type": "CJKJIENLOHD",
    "hasModel": true,
    "combat": {
      "property": {
        "hp": 99999.0,
        "attack": 200.0,
        "weight": 50.0,
        "isLockHP": true,
        "isGhostToAllied": true
      },
      "beHit": {
        "hitBloodEffect": "",
        "hitAutoRedirect": false,
        "muteAllHitText": true
      },
      "combatLock": {
        "lockShape": "CircleLockEnemy",
        "denyLockOn": true,
        "lockType": "Gadget_Lv1"
      }
    },
    "combatTemplate": "",
    "abilities": [
      {
        "abilityID": "SceneObj_Level_Activity_Hunting_TreeBranch",
        "abilityName": "SceneObj_Level_Activity_Hunting_TreeBranch",
        "abilityOverride": ""
      },
      {
        "abilityID": "SceneObj_Level_Activity_Hunting_Bullet_Attack_Handler",
        "abilityName": "SceneObj_Level_Activity_Hunting_Bullet_Attack_Handler",
        "abilityOverride": ""
      }
    ],
    "field": {
      "concernType": "AllAvatars",
      "shape": "",
      "fromShape": "",
      "triggerInfinite": true,
      "lifeInfinite": true,
      "overwriteCampType": true,
      "campType": "All",
      "colliderName": "",
      "fromColliderName": ""
    }
  },
  "SceneObj_Level_Activity_Hunting_Decoy": {
    "$type": "CJKJIENLOHD",
    "hasModel": true,
    "combat": {
      "property": {
        "hp": 99999.0,
        "attack": 200.0,
        "weight": 50.0,
        "isLockHP": true,
        "isGhostToAllied": true
      },
      "beHit": {
        "hitBloodEffect": "",
        "hitAutoRedirect": false,
        "muteAllHitText": true
      },
      "combatLock": {
        "lockShape": "CircleLockEnemy",
        "lockType": "Gadget_Lv1"
      }
    },
    "combatTemplate": "",
    "abilities": [
      {
        "abilityID": "SceneObj_Level_Activity_Hunting_Decoy",
        "abilityName": "SceneObj_Level_Activity_Hunting_Decoy",
        "abilityOverride": ""
      },
      {
        "abilityID": "SceneObj_Level_Activity_Hunting_Bullet_Attack_Handler",
        "abilityName": "SceneObj_Level_Activity_Hunting_Bullet_Attack_Handler",
        "abilityOverride": ""
      }
    ],
    "uiInteract": {
      "gadgetUIBtnCfgPath": "TEST/TEST_Chest_Btn",
      "uiName": "UI_ACTIVITY_VINTAGE_HUNTING_Bait_Activate",
      "onTouch": "WidgetMPSupport",
      "touchParams": ["SceneObj_Level_Activity_Hunting_Decoy"],
      "icon": "UI_Icon_Intee_Mechanism",
      "groupName": "",
      "confirmDialogTitle": "",
      "confirmDialogContent": ""
    }
  },
  "SceneObj_Level_Activity_Exploration_Detect": {
    "$type": "CJKJIENLOHD",
    "combat": {
      "property": {
        "hp": 99999.0,
        "isInvincible": true,
        "isLockHP": true,
        "isGhostToAllied": true,
        "isGhostToEnemy": true
      },
      "combatLock": {
        "lockShape": "CircleLockEnemy",
        "denyLockOn": true,
        "lockType": "Default"
      }
    },
    "combatTemplate": "",
    "abilities": [
      {
        "abilityID": "SceneObj_Level_Activity_Exploration_Detect",
        "abilityName": "SceneObj_Level_Activity_Exploration_Detect",
        "abilityOverride": ""
      }
    ]
  },
  "SceneObj_Level_Activity_Exploration_Detect_Child": {
    "$type": "CJKJIENLOHD",
    "hasModel": true,
    "combat": {
      "property": {
        "hp": 99999.0,
        "isInvincible": true,
        "isLockHP": true,
        "isGhostToAllied": true,
        "isGhostToEnemy": true
      },
      "combatLock": {
        "lockShape": "CircleLockEnemy",
        "denyLockOn": true,
        "lockType": "Default"
      }
    },
    "combatTemplate": "",
    "abilities": [
      {
        "abilityID": "SceneObj_Level_Activity_Exploration_Detect_Child",
        "abilityName": "SceneObj_Level_Activity_Exploration_Detect_Child",
        "abilityOverride": ""
      }
    ],
    "gadgetAction": {
      "gadgetStateActionList": [
        {
          "$type": "FJGKLJLPOGL",
          "intID": "State",
          "syncState": true
        }
      ]
    }
  },
  "SceneObj_Level_Activity_Exploration_Rune": {
    "$type": "CJKJIENLOHD",
    "hasModel": true,
    "combat": {
      "property": {
        "hp": 99999.0,
        "isInvincible": true,
        "isLockHP": true,
        "isGhostToEnemy": true
      },
      "combatLock": {
        "lockShape": "CircleLockEnemy",
        "denyLockOn": true,
        "lockType": "Default"
      }
    },
    "combatTemplate": "",
    "abilities": [
      {
        "abilityID": "SceneObj_Level_Activity_Exploration_Rune",
        "abilityName": "SceneObj_Level_Activity_Exploration_Rune",
        "abilityOverride": ""
      }
    ],
    "field": {
      "concernType": "AllAvatars",
      "shape": "CircleR1_2",
      "fromShape": "",
      "triggerInfinite": true,
      "lifeInfinite": true,
      "checkInterval": 0.20000000298023224,
      "overwriteCampType": true,
      "campType": "All",
      "colliderName": "",
      "fromColliderName": ""
    }
  },
  "SceneObj_Level_Activity_Exploration_Detect_Target": {
    "$type": "CJKJIENLOHD",
    "combat": {
      "property": {
        "hp": 99999.0,
        "isInvincible": true,
        "isLockHP": true,
        "isGhostToEnemy": true
      },
      "combatLock": {
        "lockShape": "CircleLockEnemy",
        "denyLockOn": true,
        "lockType": "Default"
      }
    },
    "combatTemplate": "",
    "abilities": [
      {
        "abilityID": "SceneObj_Level_Activity_Exploration_Detect_Target",
        "abilityName": "SceneObj_Level_Activity_Exploration_Detect_Target",
        "abilityOverride": ""
      }
    ]
  },
  "SceneObj_Level_Activity_Exploration_StoneBoard": {
    "$type": "CJKJIENLOHD",
    "hasModel": true,
    "combat": {
      "property": {
        "hp": 99999.0,
        "isInvincible": true,
        "isLockHP": true,
        "isGhostToAllied": true,
        "isGhostToEnemy": true
      },
      "combatLock": {
        "lockShape": "CircleLockEnemy",
        "denyLockOn": true,
        "lockType": "Default"
      }
    },
    "combatTemplate": "",
    "abilities": [
      {
        "abilityID": "SceneObj_Level_Activity_Exploration_StoneBoard",
        "abilityName": "SceneObj_Level_Activity_Exploration_StoneBoard",
        "abilityOverride": ""
      }
    ],
    "uiInteract": {
      "gadgetUIBtnCfgPath": "TEST/TEST_Chest_Btn",
      "uiName": "",
      "icon": "",
      "groupName": "",
      "confirmDialogTitle": "",
      "confirmDialogContent": "",
      "PBMCACCMPEJ": true,
      "canInteractInCombat": false
    }
  },
  "SceneObj_Level_Activity_Maze_WindField_H": {
    "$type": "CJKJIENLOHD",
    "common": {
      "disableTickDistance": 100000.0
    },
    "hasModel": true,
    "combat": {
      "property": {
        "hp": 99999.0,
        "isInvincible": true,
        "isLockHP": true
      },
      "combatLock": {
        "lockShape": "CircleLockEnemy",
        "denyLockOn": true,
        "lockType": "Default"
      }
    },
    "combatTemplate": "",
    "abilities": [
      {
        "abilityID": "SceneObj_Level_Activity_Maze_WindField_H",
        "abilityName": "SceneObj_Level_Activity_Maze_WindField_H",
        "abilityOverride": ""
      }
    ],
    "misc": {
      "forceField": {
        "$type": "JJAHBADOICG",
        "specialTipsIconPath": "",
        "velocity": 6.300000190734863
      },
      "escapeEffect": ""
    }
  },
  "SceneObj_Level_Activity_Maze_WindField_V": {
    "$type": "CJKJIENLOHD",
    "common": {
      "disableTickDistance": 100000.0
    },
    "hasModel": true,
    "combat": {
      "property": {
        "hp": 99999.0,
        "isInvincible": true,
        "isLockHP": true
      },
      "combatLock": {
        "lockShape": "CircleLockEnemy",
        "denyLockOn": true,
        "lockType": "Default"
      }
    },
    "combatTemplate": "",
    "abilities": [
      {
        "abilityID": "SceneObj_Level_Activity_Maze_WindField_V",
        "abilityName": "SceneObj_Level_Activity_Maze_WindField_V",
        "abilityOverride": ""
      }
    ],
    "misc": {
      "forceField": {
        "$type": "NJNBPMFBLMP",
        "specialTipsIconPath": "",
        "velocity": 10.0,
        "stayEffect": "",
        "enterEffect": ""
      },
      "escapeEffect": ""
    }
  },
  "SceneObj_Level_Activity_Maze_WindField_H_02": {
    "$type": "CJKJIENLOHD",
    "common": {
      "disableTickDistance": 100000.0
    },
    "globalValue": {
      "serverGlobalValues": ["SGV_State_Wind"]
    },
    "hasModel": true,
    "combat": {
      "property": {
        "hp": 99999.0,
        "isInvincible": true,
        "isLockHP": true
      },
      "combatLock": {
        "lockShape": "CircleLockEnemy",
        "denyLockOn": true,
        "lockType": "Default"
      }
    },
    "combatTemplate": "",
    "abilities": [
      {
        "abilityID": "SceneObj_Level_Activity_Maze_WindField_H_02",
        "abilityName": "SceneObj_Level_Activity_Maze_WindField_H_02",
        "abilityOverride": ""
      }
    ],
    "misc": {
      "forceField": {
        "$type": "JJAHBADOICG",
        "specialTipsIconPath": "",
        "velocity": 6.300000190734863
      },
      "escapeEffect": ""
    }
  },
  "SceneObj_Level_Activity_Maze_WindField_V_02": {
    "$type": "CJKJIENLOHD",
    "common": {
      "disableTickDistance": 100000.0
    },
    "hasModel": true,
    "combat": {
      "property": {
        "hp": 99999.0,
        "isInvincible": true,
        "isLockHP": true
      },
      "combatLock": {
        "lockShape": "CircleLockEnemy",
        "denyLockOn": true,
        "lockType": "Default"
      }
    },
    "combatTemplate": "",
    "abilities": [
      {
        "abilityID": "SceneObj_Level_Activity_Maze_WindField_V_02",
        "abilityName": "SceneObj_Level_Activity_Maze_WindField_V_02",
        "abilityOverride": ""
      }
    ],
    "misc": {
      "forceField": {
        "$type": "NJNBPMFBLMP",
        "specialTipsIconPath": "",
        "velocity": 10.0,
        "stayEffect": "",
        "enterEffect": ""
      },
      "escapeEffect": ""
    }
  },
  "SceneObj_Level_Activity_Maze_WindField_Creater": {
    "$type": "CJKJIENLOHD",
    "common": {
      "disableTickDistance": 100000.0
    },
    "globalValue": {
      "serverGlobalValues": [
        "SGV_Switch_StrongWind",
        "SGV_Switch_UpDown",
        "SGV_Switch_Dir",
        "SGV_Switch_OnOff"
      ],
      "initServerGlobalValues": {
        "SGV_Switch_StrongWind": 0.0,
        "SGV_Switch_UpDown": 0.0,
        "SGV_Switch_Dir": 0.0,
        "SGV_Switch_OnOff": 1.0
      }
    },
    "hasModel": true,
    "combat": {
      "property": {
        "hp": 99999.0,
        "isInvincible": true,
        "isLockHP": true,
        "isGhostToAllied": true,
        "isGhostToEnemy": true
      },
      "combatLock": {
        "lockShape": "CircleLockEnemy",
        "denyLockOn": true,
        "lockType": "Default"
      }
    },
    "combatTemplate": "",
    "abilities": [
      {
        "abilityID": "SceneObj_Level_Activity_Maze_WindField_Creater",
        "abilityName": "SceneObj_Level_Activity_Maze_WindField_Creater",
        "abilityOverride": ""
      },
      {
        "abilityID": "SceneObj_Level_Activity_Maze_WindField_Creater_Interact_Handler",
        "abilityName": "SceneObj_Level_Activity_Maze_WindField_Creater_Interact_Handler",
        "abilityOverride": ""
      },
      {
        "abilityID": "SceneObj_Level_Activity_Maze_WindField_Creater_Clockwise",
        "abilityName": "SceneObj_Level_Activity_Maze_WindField_Creater_Clockwise",
        "abilityOverride": ""
      },
      {
        "abilityID": "SceneObj_Level_Activity_Maze_WindField_Creater_AntiClockwise",
        "abilityName": "SceneObj_Level_Activity_Maze_WindField_Creater_AntiClockwise",
        "abilityOverride": ""
      },
      {
        "abilityID": "SceneObj_Level_Activity_Maze_WindField_Creater_UpDown",
        "abilityName": "SceneObj_Level_Activity_Maze_WindField_Creater_UpDown",
        "abilityOverride": ""
      },
      {
        "abilityID": "SceneObj_Level_Activity_Maze_WindField_Creater_Switch_On",
        "abilityName": "SceneObj_Level_Activity_Maze_WindField_Creater_Switch_On",
        "abilityOverride": ""
      },
      {
        "abilityID": "SceneObj_Level_Activity_Maze_WindField_Creater_Switch_Off",
        "abilityName": "SceneObj_Level_Activity_Maze_WindField_Creater_Switch_Off",
        "abilityOverride": ""
      },
      {
        "abilityID": "Scene_RockGadget_Summon_Detect",
        "abilityName": "Scene_RockGadget_Summon_Detect",
        "abilityOverride": ""
      }
    ],
    "uiInteract": {
      "gadgetUIBtnCfgPath": "TEST/TEST_Chest_Btn",
      "uiName": "UI_ACTIVITY_WindFildDungeon_Blower_UpDown",
      "onTouch": "WidgetMPSupport",
      "touchParams": ["SceneObj_Level_Activity_Maze_WindField_Creater_UpDown"],
      "icon": "UI_Icon_Intee_WindField_HorizontalRotation",
      "groupName": "",
      "confirmDialogTitle": "",
      "confirmDialogContent": "",
      "gadgetUIExtraItems": [
        {
          "gadgetUIBtnCfgPath": "TEST/TEST_Chest_Btn",
          "uiName": "UI_ACTIVITY_WindFildDungeon_Blower_Clockwise",
          "onTouch": "WidgetMPSupport",
          "touchParams": [
            "SceneObj_Level_Activity_Maze_WindField_Creater_Clockwise"
          ],
          "icon": "UI_Icon_Intee_WindField_ClockwiseRotation",
          "groupName": "",
          "confirmDialogTitle": "",
          "confirmDialogContent": "",
          "extraId": 2
        },
        {
          "gadgetUIBtnCfgPath": "TEST/TEST_Chest_Btn",
          "uiName": "UI_ACTIVITY_WindFildDungeon_Blower_Anticlockwise",
          "onTouch": "WidgetMPSupport",
          "touchParams": [
            "SceneObj_Level_Activity_Maze_WindField_Creater_AntiClockwise"
          ],
          "icon": "UI_Icon_Intee_WindField_CounterclockwiseRotation",
          "groupName": "",
          "confirmDialogTitle": "",
          "confirmDialogContent": "",
          "extraId": 3
        },
        {
          "gadgetUIBtnCfgPath": "TEST/TEST_Chest_Btn",
          "uiName": "UI_ACTIVITY_WindFildDungeon_Blower_Open",
          "onTouch": "WidgetMPSupport",
          "touchParams": [
            "SceneObj_Level_Activity_Maze_WindField_Creater_Switch_On"
          ],
          "icon": "UI_Icon_Intee_Mechanism",
          "groupName": "",
          "confirmDialogTitle": "",
          "confirmDialogContent": "",
          "extraId": 4
        },
        {
          "gadgetUIBtnCfgPath": "TEST/TEST_Chest_Btn",
          "uiName": "UI_ACTIVITY_WindFildDungeon_Blower_Shutdown",
          "onTouch": "WidgetMPSupport",
          "touchParams": [
            "SceneObj_Level_Activity_Maze_WindField_Creater_Switch_Off"
          ],
          "icon": "UI_Icon_Intee_WindField_Switch",
          "groupName": "",
          "confirmDialogTitle": "",
          "confirmDialogContent": "",
          "extraId": 5
        }
      ]
    }
  },
  "SceneObj_Level_Activity_Maze_Operator_01": {
    "$type": "CJKJIENLOHD",
    "globalValue": {
      "serverGlobalValues": ["SGV_Disable", "SGV_Color"],
      "initServerGlobalValues": {
        "SGV_Disable": 0.0,
        "SGV_Color": 102.0
      }
    },
    "hasModel": true,
    "combat": {
      "property": {
        "hp": 99999.0,
        "isInvincible": true,
        "isLockHP": true,
        "isGhostToAllied": true,
        "isGhostToEnemy": true
      },
      "combatLock": {
        "lockShape": "CircleLockEnemy",
        "denyLockOn": true,
        "lockType": "Default"
      }
    },
    "combatTemplate": "",
    "abilities": [
      {
        "abilityID": "SceneObj_Level_Activity_Maze_Operator_01",
        "abilityName": "SceneObj_Level_Activity_Maze_Operator_01",
        "abilityOverride": ""
      },
      {
        "abilityID": "Scene_RockGadget_Summon_Detect",
        "abilityName": "Scene_RockGadget_Summon_Detect",
        "abilityOverride": ""
      }
    ],
    "uiInteract": {
      "gadgetUIBtnCfgPath": "TEST/TEST_Chest_Btn",
      "uiName": "UI_ACTIVITY_WindFildDungeon_PowerDownSwitch",
      "onTouch": "WidgetMPSupport",
      "touchParams": ["SceneObj_Level_Activity_Maze_Operator_01"],
      "icon": "UI_Icon_Intee_Mechanism",
      "groupName": "",
      "confirmDialogTitle": "",
      "confirmDialogContent": ""
    }
  },
  "SceneObj_Level_Activity_Maze_Operator_02": {
    "$type": "CJKJIENLOHD",
    "globalValue": {
      "serverGlobalValues": ["SGV_Disable", "SGV_Color"],
      "initServerGlobalValues": {
        "SGV_Disable": 0.0,
        "SGV_Color": 101.0
      }
    },
    "hasModel": true,
    "combat": {
      "property": {
        "hp": 99999.0,
        "isInvincible": true,
        "isLockHP": true,
        "isGhostToAllied": true,
        "isGhostToEnemy": true
      },
      "combatLock": {
        "lockShape": "CircleLockEnemy",
        "denyLockOn": true,
        "lockType": "Default"
      }
    },
    "combatTemplate": "",
    "abilities": [
      {
        "abilityID": "SceneObj_Level_Activity_Maze_Operator_01",
        "abilityName": "SceneObj_Level_Activity_Maze_Operator_01",
        "abilityOverride": ""
      },
      {
        "abilityID": "Scene_RockGadget_Summon_Detect",
        "abilityName": "Scene_RockGadget_Summon_Detect",
        "abilityOverride": ""
      }
    ],
    "uiInteract": {
      "gadgetUIBtnCfgPath": "TEST/TEST_Chest_Btn",
      "uiName": "UI_ACTIVITY_WindFildDungeon_PowerUpSwitch",
      "onTouch": "WidgetMPSupport",
      "touchParams": ["SceneObj_Level_Activity_Maze_Operator_01"],
      "icon": "UI_Icon_Intee_Mechanism",
      "groupName": "",
      "confirmDialogTitle": "",
      "confirmDialogContent": ""
    }
  },
  "SceneObj_Homeworld_Property_Prop_MarkertDeco_02": {
    "$type": "CJKJIENLOHD",
    "hasModel": true,
    "combat": {
      "property": {
        "hp": 99999.0,
        "isInvincible": true,
        "isLockHP": true,
        "isGhostToAllied": true,
        "isGhostToEnemy": true
      },
      "combatLock": {
        "lockShape": "CircleLockEnemy",
        "denyLockOn": true,
        "lockType": "Default"
      }
    },
    "combatTemplate": "",
    "abilities": [
      {
        "abilityID": "SceneObj_Homeworld_Property_Prop_MarkertDeco_02",
        "abilityName": "SceneObj_Homeworld_Property_Prop_MarkertDeco_02",
        "abilityOverride": ""
      }
    ],
    "uiInteract": {
      "gadgetUIBtnCfgPath": "UI/open_custom_gadget_page",
      "uiName": "UI_HOMEWORLD_CUSTOM_STALL_BUTTON",
      "icon": "UI_Icon_Intee_Mechanism",
      "groupName": "",
      "confirmDialogTitle": "",
      "confirmDialogContent": "",
      "canInteractInCombat": false
    },
    "misc": {
      "customGadgetNode": {
        "cameraSettings": {
          "gadgetHeight": 2.799999952316284,
          "fov": 60.0
        },
        "slotMap": {
          "Shed": {
            "namedTransform": "Slot_1",
            "slotConfigId": 41
          }
        }
      },
      "customGadgetDither": {},
      "escapeEffect": ""
    },
    "intee": {
      "triggerRadius": 4.0,
      "KAMIAMNMFCP": ""
    }
  },
  "SceneObj_Level_Activity_Property_Prop_MarkertDeco_03": {
    "$type": "CJKJIENLOHD",
    "hasModel": true,
    "combat": {
      "property": {
        "hp": 99999.0,
        "isInvincible": true,
        "isLockHP": true,
        "isGhostToAllied": true,
        "isGhostToEnemy": true
      },
      "combatLock": {
        "lockShape": "CircleLockEnemy",
        "denyLockOn": true,
        "lockType": "Default"
      }
    },
    "combatTemplate": "",
    "misc": {
      "customGadgetNode": {
        "cameraSettings": {
          "gadgetHeight": 0.800000011920929
        },
        "slotMap": {
          "PendantA": {
            "namedTransform": "Slot_2",
            "slotConfigId": 42
          },
          "PendantB": {
            "namedTransform": "Slot_3",
            "slotConfigId": 43
          },
          "FrontGround": {
            "namedTransform": "Slot_4",
            "slotConfigId": 44
          },
          "SideGround": {
            "namedTransform": "Slot_5",
            "slotConfigId": 45
          }
        }
      },
      "customGadgetDither": {},
      "escapeEffect": ""
    }
  },
  "SceneObj_Level_Activity_Property_Prop_MarkertDeco_03_Other": {
    "$type": "CJKJIENLOHD",
    "hasModel": true,
    "combat": {
      "property": {
        "hp": 99999.0,
        "isInvincible": true,
        "isLockHP": true,
        "isGhostToAllied": true,
        "isGhostToEnemy": true
      },
      "combatLock": {
        "lockShape": "CircleLockEnemy",
        "denyLockOn": true,
        "lockType": "Default"
      }
    },
    "combatTemplate": "",
    "misc": {
      "customGadgetDither": {},
      "escapeEffect": ""
    }
  },
  "SceneObj_Level_Activity_Property_Prop_MarkertDeco_03_03": {
    "$type": "CJKJIENLOHD",
    "hasModel": true,
    "combat": {
      "property": {
        "hp": 99999.0,
        "isInvincible": true,
        "isLockHP": true,
        "isGhostToAllied": true,
        "isGhostToEnemy": true
      },
      "combatLock": {
        "lockShape": "CircleLockEnemy",
        "denyLockOn": true,
        "lockType": "Default"
      }
    },
    "combatTemplate": "",
    "misc": {
      "customGadgetNode": {
        "cameraSettings": {
          "gadgetHeight": 0.800000011920929
        },
        "slotMap": {
          "PendantA": {
            "namedTransform": "Slot_2",
            "slotConfigId": 42
          },
          "PendantB": {
            "namedTransform": "Slot_3",
            "slotConfigId": 43
          },
          "FrontGround": {
            "namedTransform": "Slot_4",
            "slotConfigId": 44
          },
          "SideGround": {
            "namedTransform": "Slot_5",
            "slotConfigId": 45
          }
        }
      },
      "customGadgetDither": {},
      "escapeEffect": ""
    }
  },
  "SceneObj_Level_Activity_WindSeed": {
    "$type": "CJKJIENLOHD",
    "combat": {
      "property": {
        "hp": 99999.0,
        "isInvincible": true,
        "isLockHP": true
      },
      "combatLock": {
        "lockShape": "CircleLockEnemy",
        "denyLockOn": true,
        "lockType": "Default"
      }
    },
    "combatTemplate": "",
    "abilities": [
      {
        "abilityID": "SceneObj_Level_Activity_WindSeed",
        "abilityName": "SceneObj_Level_Activity_WindSeed",
        "abilityOverride": ""
      }
    ],
    "field": {
      "concernType": "AllAvatars",
      "shape": "CircleR2H2",
      "fromShape": "",
      "triggerInfinite": true,
      "startCheckTime": 0.20000000298023224,
      "checkInterval": 0.10000000149011612,
      "lifeTime": 999999.0,
      "overwriteCampType": true,
      "campType": "All",
      "useCollider": false,
      "colliderName": "",
      "fromColliderName": ""
    }
  },
  "SceneObj_Level_Activity_Gift_Chest": {
    "$type": "CJKJIENLOHD",
    "common": {
      "disableTickDistance": 100.0
    },
    "hasModel": true,
    "combat": {
      "property": {
        "hp": 99999.0,
        "isInvincible": true,
        "isLockHP": true
      },
      "combatLock": {
        "lockShape": "CircleLockEnemy",
        "denyLockOn": true,
        "lockType": "Default"
      }
    },
    "combatTemplate": "",
    "abilities": [
      {
        "abilityID": "SceneObj_Level_Activity_Gift_Chest",
        "abilityName": "SceneObj_Level_Activity_Gift_Chest",
        "abilityOverride": ""
      }
    ],
    "uiInteract": {
      "gadgetUIBtnCfgPath": "TEST/TEST_Chest_Btn",
      "uiName": "UI_VINTAGE_OPEN_TREASURE",
      "onTouch": "WidgetMPSupport",
      "touchParams": ["SceneObj_Level_Activity_Gift_Chest"],
      "icon": "",
      "groupName": "",
      "confirmDialogTitle": "",
      "confirmDialogContent": "",
      "canInteractInCombat": false
    },
    "misc": {
      "escapeEffect": "",
      "guidePoint": true,
      "isUIPoint": true,
      "guidePointConfig": {
        "uiIndicator": {
          "templateName": "3_1_Activity_Gift_Chest"
        }
      }
    },
    "radarHint": true,
    "intee": {
      "triggerOffset": {
        "y": -1.5
      },
      "KAMIAMNMFCP": ""
    }
  },
  "SceneObj_Level_Activity_Gift_Radar_Mark": {
    "$type": "CJKJIENLOHD",
    "combat": {
      "property": {
        "hp": 99999.0,
        "isInvincible": true,
        "isLockHP": true,
        "isGhostToAllied": true,
        "isGhostToEnemy": true
      },
      "combatLock": {
        "lockShape": "CircleLockEnemy",
        "denyLockOn": true,
        "lockType": "Default"
      }
    },
    "combatTemplate": "",
    "radarHint": true
  },
  "SceneObj_Level_Pf_Property_Prop_MovingPlatform_01": {
    "$type": "CJKJIENLOHD",
    "common": {
      "disableTickDistance": 100000.0
    },
    "hasModel": true,
    "combat": {
      "property": {
        "hp": 99999.0,
        "isInvincible": true,
        "isLockHP": true
      },
      "combatLock": {
        "lockShape": "CircleLockEnemy",
        "denyLockOn": true,
        "lockType": "Default"
      }
    },
    "combatTemplate": "",
    "abilities": [
      {
        "abilityID": "SceneObj_Level_Pf_Property_Prop_MovingPlatform_01",
        "abilityName": "SceneObj_Level_Pf_Property_Prop_MovingPlatform_01",
        "abilityOverride": ""
      },
      {
        "abilityID": "SceneObj_Level_Pf_Property_Prop_MovingPlatform_Dissolve",
        "abilityName": "SceneObj_Level_Pf_Property_Prop_MovingPlatform_Dissolve",
        "abilityOverride": ""
      }
    ],
    "move": {
      "$type": "OEFHHKHPMCJ"
    }
  },
  "SceneObj_Level_Pf_Property_Prop_MovingPlatform_02": {
    "$type": "CJKJIENLOHD",
    "common": {
      "disableTickDistance": 100000.0
    },
    "hasModel": true,
    "combat": {
      "property": {
        "hp": 99999.0,
        "isInvincible": true,
        "isLockHP": true
      },
      "combatLock": {
        "lockShape": "CircleLockEnemy",
        "denyLockOn": true,
        "lockType": "Default"
      }
    },
    "combatTemplate": "",
    "abilities": [
      {
        "abilityID": "SceneObj_Level_Pf_Property_Prop_MovingPlatform_Dissolve",
        "abilityName": "SceneObj_Level_Pf_Property_Prop_MovingPlatform_Dissolve",
        "abilityOverride": ""
      }
    ],
    "move": {
      "$type": "OEFHHKHPMCJ"
    }
  },
  "SceneObj_Level_Pf_Property_Prop_DropPlatform_01": {
    "$type": "CJKJIENLOHD",
    "common": {
      "disableTickDistance": 100000.0
    },
    "combat": {
      "property": {
        "hp": 99999.0,
        "isInvincible": true,
        "isLockHP": true
      },
      "combatLock": {
        "lockShape": "CircleLockEnemy",
        "denyLockOn": true,
        "lockType": "Default"
      }
    },
    "combatTemplate": "",
    "abilities": [
      {
        "abilityID": "SceneObj_Level_Pf_Property_Prop_DropPlatform_01",
        "abilityName": "SceneObj_Level_Pf_Property_Prop_DropPlatform_01",
        "abilityOverride": ""
      }
    ],
    "field": {
      "shape": "",
      "fromShape": "",
      "triggerInfinite": true,
      "lifeInfinite": true,
      "checkInterval": 0.20000000298023224,
      "campType": "AllExceptSelf",
      "colliderName": "Avatar_Detect_Col",
      "fromColliderName": ""
    },
    "move": {
      "$type": "IDIPBKCPBDP",
      "attachPoint": "Avatar_Detect_Col"
    },
    "gadgetAction": {
      "gadgetStateActionList": [
        {
          "$type": "FJGKLJLPOGL",
          "intID": "State",
          "syncState": true
        }
      ]
    }
  },
  "SceneObj_Level_Pf_Property_Ani_Prop_Tplatform_01": {
    "$type": "CJKJIENLOHD",
    "common": {
      "disableTickDistance": 100000.0
    },
    "specialPoint": {
      "elementAbsorb": "RootNode",
      "elementPendant": "",
      "elementDrop": "RootNode",
      "bulletAim": "Aim_Point"
    },
    "globalValue": {
      "serverGlobalValues": ["SGV_Left_Dir", "SGV_Right_Dir"],
      "initServerGlobalValues": {
        "SGV_Left_Dir": 0.0,
        "SGV_Right_Dir": 0.0
      }
    },
    "hasModel": true,
    "combat": {
      "property": {
        "hp": 99999.0,
        "isInvincible": true,
        "isLockHP": true
      },
      "beHit": {
        "hitBloodEffect": "",
        "hitAutoRedirect": false
      },
      "combatLock": {
        "lockShape": "CircleLockEnemy",
        "lockType": "Gear_Lv3",
        "overrideRange": 5.0
      }
    },
    "combatTemplate": "",
    "abilities": [
      {
        "abilityID": "SceneObj_Level_Pf_Property_Ani_Prop_Tplatform_01",
        "abilityName": "SceneObj_Level_Pf_Property_Ani_Prop_Tplatform_01",
        "abilityOverride": ""
      }
    ],
    "field": {
      "shape": "",
      "fromShape": "",
      "triggerInfinite": true,
      "lifeInfinite": true,
      "checkInterval": 0.20000000298023224,
      "campType": "AllExceptSelf",
      "colliderName": "Wind_Detect_Col",
      "fromColliderName": ""
    },
    "move": {
      "$type": "IDIPBKCPBDP",
      "attachPoint": "ColliderRoot"
    },
    "gadgetAction": {
      "gadgetStateActionList": [
        {
          "$type": "FJGKLJLPOGL",
          "intID": "State",
          "syncState": true
        }
      ]
    }
  },
  "SceneObj_Level_Pf_Property_Ani_Prop_Tplatform_01_01": {
    "$type": "CJKJIENLOHD",
    "hasModel": true,
    "combat": {
      "property": {
        "hp": 99999.0,
        "isInvincible": true,
        "isLockHP": true
      },
      "combatLock": {
        "lockShape": "CircleLockEnemy",
        "denyLockOn": true,
        "lockType": "Default"
      }
    },
    "combatTemplate": "",
    "abilities": [
      {
        "abilityID": "SceneObj_Level_Pf_Property_Ani_Prop_Tplatform_02",
        "abilityName": "SceneObj_Level_Pf_Property_Ani_Prop_Tplatform_02",
        "abilityOverride": ""
      }
    ],
    "field": {
      "shape": "",
      "fromShape": "",
      "triggerInfinite": true,
      "lifeInfinite": true,
      "checkInterval": 0.20000000298023224,
      "campType": "AllExceptSelf",
      "colliderName": "Wind_Detect_Col",
      "fromColliderName": ""
    }
  },
  "SceneObj_Level_Pf_Property_Ani_Prop_Tplatform_01_02": {
    "$type": "CJKJIENLOHD",
    "hasModel": true,
    "combat": {
      "property": {
        "hp": 99999.0,
        "isInvincible": true,
        "isLockHP": true
      },
      "combatLock": {
        "lockShape": "CircleLockEnemy",
        "denyLockOn": true,
        "lockType": "Default"
      }
    },
    "combatTemplate": "",
    "abilities": [
      {
        "abilityID": "SceneObj_Level_Pf_Property_Ani_Prop_Tplatform_03",
        "abilityName": "SceneObj_Level_Pf_Property_Ani_Prop_Tplatform_03",
        "abilityOverride": ""
      }
    ],
    "field": {
      "shape": "",
      "fromShape": "",
      "triggerInfinite": true,
      "lifeInfinite": true,
      "checkInterval": 0.20000000298023224,
      "campType": "AllExceptSelf",
      "colliderName": "Wind_Detect_Col",
      "fromColliderName": ""
    }
  },
  "SceneObj_Level_Pf_Property_Ani_Prop_PowerDownSwitch_01": {
    "$type": "CJKJIENLOHD",
    "combatTemplate": ""
  },
  "SceneObj_Level_Pf_Property_Ani_Prop_PowerUpSwitch_01": {
    "$type": "CJKJIENLOHD",
    "hasModel": true,
    "combat": {
      "property": {
        "hp": 99999.0,
        "isInvincible": true,
        "isLockHP": true
      },
      "combatLock": {
        "lockShape": "CircleLockEnemy",
        "denyLockOn": true,
        "lockType": "Default"
      }
    },
    "combatTemplate": ""
  },
  "SceneObj_Level_Pf_Property_Ani_Prop_BigGlideChampOrb_01": {
    "$type": "CJKJIENLOHD",
    "common": {
      "disableTickDistance": 100000.0
    },
    "hasModel": true,
    "combat": {
      "property": {
        "hp": 99999.0,
        "isInvincible": true,
        "isLockHP": true
      },
      "combatLock": {
        "lockShape": "CircleLockEnemy",
        "denyLockOn": true,
        "lockType": "Default"
      }
    },
    "combatTemplate": "",
    "abilities": [
      {
        "abilityID": "SceneObj_Level_Pf_Property_Ani_Prop_BigGlideChampOrb_01",
        "abilityName": "SceneObj_Level_Pf_Property_Ani_Prop_BigGlideChampOrb_01",
        "abilityOverride": ""
      }
    ],
    "field": {
      "concernType": "AllAvatars",
      "shape": "CircleR1_6H1",
      "fromShape": "",
      "triggerInfinite": true,
      "lifeInfinite": true,
      "startCheckTime": 2.0,
      "checkInterval": 0.20000000298023224,
      "overwriteCampType": true,
      "campType": "All",
      "colliderName": "",
      "fromColliderName": ""
    }
  },
  "SceneObj_Level_Pf_Property_Prop_RisePlatform_01": {
    "$type": "CJKJIENLOHD",
    "common": {
      "disableTickDistance": 100000.0
    },
    "hasModel": true,
    "combat": {
      "property": {
        "hp": 99999.0,
        "isInvincible": true,
        "isLockHP": true
      },
      "combatLock": {
        "lockShape": "CircleLockEnemy",
        "denyLockOn": true,
        "lockType": "Default"
      }
    },
    "combatTemplate": "",
    "abilities": [
      {
        "abilityID": "SceneObj_Level_Pf_Property_Prop_RisePlatform_01",
        "abilityName": "SceneObj_Level_Pf_Property_Prop_RisePlatform_01",
        "abilityOverride": ""
      }
    ],
    "field": {
      "shape": "",
      "fromShape": "",
      "triggerInfinite": true,
      "lifeInfinite": true,
      "checkInterval": 0.20000000298023224,
      "campType": "AllExceptSelf",
      "colliderName": "Wind_Detect_Col",
      "fromColliderName": ""
    },
    "move": {
      "$type": "IDIPBKCPBDP",
      "attachPoint": "Col"
    },
    "gadgetAction": {
      "gadgetStateActionList": [
        {
          "$type": "FJGKLJLPOGL",
          "intID": "State",
          "syncState": true
        }
      ]
    }
  },
  "SceneObj_Level_Pf_Property_Prop_BrokenPlatform_01": {
    "$type": "CJKJIENLOHD",
    "common": {
      "disableTickDistance": 100000.0
    },
    "hasModel": true,
    "combat": {
      "property": {
        "hp": 99999.0,
        "isInvincible": true,
        "isLockHP": true
      },
      "combatLock": {
        "lockShape": "CircleLockEnemy",
        "denyLockOn": true,
        "lockType": "Default"
      }
    },
    "combatTemplate": "",
    "abilities": [
      {
        "abilityID": "SceneObj_Level_Pf_Property_Prop_BrokenPlatform_01",
        "abilityName": "SceneObj_Level_Pf_Property_Prop_BrokenPlatform_01",
        "abilityOverride": ""
      }
    ],
    "field": {
      "shape": "",
      "fromShape": "",
      "triggerInfinite": true,
      "lifeInfinite": true,
      "checkInterval": 0.20000000298023224,
      "campType": "AllExceptSelf",
      "colliderName": "Avatar_Detect_Col",
      "fromColliderName": ""
    },
    "move": {
      "$type": "IDIPBKCPBDP",
      "attachPoint": "Col"
    },
    "gadgetAction": {
      "gadgetStateActionList": [
        {
          "$type": "FJGKLJLPOGL",
          "intID": "State",
          "syncState": true
        }
      ]
    }
  },
  "SceneObj_Level_Activity_Vintage_Board_Operator": {
    "$type": "CJKJIENLOHD",
    "combatTemplate": "",
    "uiInteract": {
      "gadgetUIBtnCfgPath": "UI/open_activity_vintage_present_page",
      "uiName": "UI_VINTAGE_CHECK_MESSAGE_BOARD",
      "icon": "",
      "groupName": "",
      "confirmDialogTitle": "",
      "confirmDialogContent": "",
      "canInteractInCombat": false
    }
  },
  "SceneObj_Level_Activity_Property_Prop_MarkertDeco_Other": {
    "$type": "CJKJIENLOHD",
    "combatTemplate": "",
    "misc": {
      "customGadgetDither": {},
      "escapeEffect": ""
    }
  },
  "SceneObj_Level_Pf_Property_Prop_SpeedPlatform_01": {
    "$type": "CJKJIENLOHD",
    "globalValue": {
      "serverGlobalValues": ["SGV_Switch_OnOff"],
      "initServerGlobalValues": {
        "SGV_Switch_OnOff": 1.0
      }
    },
    "hasModel": true,
    "combat": {
      "property": {
        "hp": 99999.0,
        "isInvincible": true,
        "isLockHP": true,
        "isGhostToEnemy": true
      },
      "combatLock": {
        "lockShape": "CircleLockEnemy",
        "denyLockOn": true,
        "lockType": "Default"
      }
    },
    "combatTemplate": "",
    "abilities": [
      {
        "abilityID": "SceneObj_Level_Pf_Property_Prop_SpeedPlatform_01",
        "abilityName": "SceneObj_Level_Pf_Property_Prop_SpeedPlatform_01",
        "abilityOverride": ""
      }
    ],
    "misc": {
      "forceField": {
        "$type": "JJAHBADOICG",
        "specialTipsIconPath": "",
        "velocity": 6.300000190734863
      },
      "escapeEffect": ""
    },
    "gadgetAction": {
      "gadgetStateActionList": [
        {
          "$type": "FJGKLJLPOGL",
          "intID": "State",
          "syncState": true
        }
      ]
    }
  },
  "SceneObj_Level_Activity_Maze_GuidePoint": {
    "$type": "CJKJIENLOHD",
    "combat": {
      "property": {
        "hp": 99999.0,
        "isInvincible": true,
        "isLockHP": true,
        "isGhostToAllied": true,
        "isGhostToEnemy": true
      },
      "combatLock": {
        "lockShape": "CircleLockEnemy",
        "denyLockOn": true,
        "lockType": "Default"
      }
    },
    "combatTemplate": "",
    "misc": {
      "escapeEffect": "",
      "guidePoint": true,
      "isUIPoint": true,
      "guidePointConfig": {
        "uiIndicator": {
          "templateName": "3_1_Activity_Maze_GuidePoint"
        }
      }
    }
  },
  "SceneObj_Gear_Other_GlideChampOrb_For_Activity_WindField": {
    "$type": "CJKJIENLOHD",
    "common": {
      "disableTickDistance": 100000.0
    },
    "model": {
      "bornEffect": "",
      "attachEffect": "Eff_SceneObj_GlideChampOrb_01",
      "BKPFGNPLDNJ": ""
    },
    "globalValue": {
      "serverGlobalValues": ["SGV_Eff_WindCrystal_Smash"],
      "initServerGlobalValues": {
        "SGV_Eff_WindCrystal_Smash": 1.0
      }
    },
    "hasModel": true,
    "combat": {
      "property": {
        "hp": 99999.0,
        "attack": 50.0,
        "weight": 50.0,
        "isInvincible": true,
        "isLockHP": true
      },
      "beHit": {
        "hitBloodEffect": "",
        "hitAutoRedirect": false,
        "muteAllHitText": true
      },
      "combatLock": {
        "lockShape": "CircleLockEnemy",
        "denyLockOn": true,
        "lockType": "Gadget_Lv1"
      }
    },
    "combatTemplate": "",
    "abilities": [
      {
        "abilityID": "SceneObj_Activity_WindField_Maze_GadgetDetect",
        "abilityName": "SceneObj_Activity_WindField_Maze_GadgetDetect",
        "abilityOverride": ""
      }
    ],
    "field": {
      "concernType": "AllAvatars",
      "shape": "CircleR1.5",
      "fromShape": "",
      "triggerInfinite": true,
      "lifeInfinite": true,
      "checkInterval": 0.20000000298023224,
      "overwriteCampType": true,
      "campType": "All",
      "colliderName": "",
      "fromColliderName": ""
    }
  },
  "SceneObj_Area_Common_Property_Ani_Prop_BoatRaceCoin_01_For_Activity_WindField": {
    "$type": "CJKJIENLOHD",
    "common": {
      "disableTickDistance": 100000.0
    },
    "globalValue": {
      "serverGlobalValues": ["SGV_Eff_SceneObj_GlideChampCoin_Hit"],
      "initServerGlobalValues": {
        "SGV_Eff_SceneObj_GlideChampCoin_Hit": 1.0
      }
    },
    "combat": {
      "property": {
        "hp": 10000.0,
        "attack": 30.0,
        "isLockHP": true,
        "isGhostToAllied": true,
        "ignorePurgeRate": true
      },
      "beHit": {
        "hitBloodEffect": "",
        "hitAutoRedirect": false,
        "muteAllHitEffect": true,
        "muteAllHitText": true
      },
      "combatLock": {
        "lockShape": "CircleLockEnemy",
        "denyLockOn": true,
        "lockType": "Gadget_Lv1"
      },
      "die": {
        "dieForceDisappearTime": 0.30000001192092896,
        "dieDisappearEffect": ""
      }
    },
    "combatTemplate": "",
    "abilities": [
      {
        "abilityID": "SceneObj_Activity_WindField_Maze_GadgetDetect",
        "abilityName": "SceneObj_Activity_WindField_Maze_GadgetDetect",
        "abilityOverride": ""
      }
    ],
    "field": {
      "shape": "CircleR3H3",
      "fromShape": "",
      "triggerInfinite": true,
      "lifeInfinite": true,
      "checkInterval": 0.5,
      "overwriteCampType": true,
      "campType": "All",
      "colliderName": "",
      "fromColliderName": ""
    }
  }
}
