{
  "Collei_Arrow_01": {
    "$type": "CJKJIENLOHD",
    "common": {
      "effectAttachShape": {
        "$type": "OMIODKONOMG",
        "scaleX": 0.5,
        "scaleY": 0.5
      },
      "affectedByWorld": true
    },
    "combat": {
      "property": {
        "useCreatorProperty": true,
        "isInvincible": true,
        "canTriggerBullet": false
      },
      "beHit": {
        "hitBloodEffect": "",
        "muteAllHit": true,
        "muteAllHitEffect": true,
        "muteAllHitText": true
      },
      "combatLock": {
        "lockShape": "CircleLockEnemy",
        "denyLockOn": true,
        "lockType": "Default"
      },
      "animEvents": {
        "Arrow_ATK01": {
          "attackPattern": {
            "$type": "ConfigAttackBox",
            "triggerType": "TriggerNoRepeat",
            "checkHitLayerType": "Both",
            "born": {
              "$type": "ConfigBornByCollisionPoint",
              "offset": {
                "x": 0.0,
                "y": 0.0,
                "z": -0.5
              }
            },
            "size": {
              "x": 0.10000000149011612,
              "y": 0.10000000149011612,
              "z": 1.0
            }
          },
          "attackInfo": {
            "attackTag": "NormalAttack_01",
            "attenuationTag": "",
            "attenuationGroup": "default",
            "attackProperty": {
              "actorGrassSubHurtDelta": 0.0,
              "actorWindSubHurtDelta": 0.0,
              "elementDurability": 100.0,
              "strikeType": "Pierce",
              "enBreak": 15.210000038146973,
              "GLKMCMDJBIK": 0.0
            },
            "hitPattern": {
              "onHitEffectName": "default",
              "hitImpulseY": "",
              "hitImpulseType": "LV1"
            },
            "cameraShake": {
              "shakeRange": 0.019999999552965164,
              "shakeTime": 0.10000000149011612
            },
            "canBeModifiedBy": "OriginOwner"
          }
        }
      }
    },
    "combatTemplate": "",
    "abilities": [
      {
        "abilityID": "Bullet_Collei_ShootArrow",
        "abilityName": "Bullet_Collei_ShootArrow",
        "abilityOverride": ""
      },
      {
        "abilityID": "Bullet_Collei_ShootArrow_LightFX",
        "abilityName": "Bullet_Collei_ShootArrow_LightFX",
        "abilityOverride": ""
      }
    ],
    "timer": {
      "lifeTime": 8.0
    },
    "move": {
      "$type": "BFICFPAEFPB",
      "speed": 40.0,
      "DPAAFHNMHHN": {
        "$type": "IFAANDLLGLP"
      },
      "straightRange": 7.0,
      "gravityOfAcceleration": 15.0,
      "airResistance": 0.009999999776482582
    },
    "gadget": {
      "$type": "JENBBNKGGJP",
      "collision": {
        "targetType": "Enemy"
      },
      "triggerActions": [
        {
          "$type": "NMMEILICBAE",
          "attackEvent": "Arrow_ATK01"
        },
        {
          "$type": "AILPBJHDHDG",
          "abilityName": "Bullet_Collei_ShootArrow"
        }
      ],
      "fireAISoundEvent": true
    }
  },
  "Collei_Arrow_02": {
    "$type": "CJKJIENLOHD",
    "common": {
      "effectAttachShape": {
        "$type": "OMIODKONOMG",
        "scaleX": 0.5,
        "scaleY": 0.5
      },
      "affectedByWorld": true
    },
    "combat": {
      "property": {
        "useCreatorProperty": true,
        "isInvincible": true,
        "canTriggerBullet": false
      },
      "beHit": {
        "hitBloodEffect": "",
        "muteAllHit": true,
        "muteAllHitEffect": true,
        "muteAllHitText": true
      },
      "combatLock": {
        "lockShape": "CircleLockEnemy",
        "denyLockOn": true,
        "lockType": "Default"
      },
      "animEvents": {
        "Arrow_ATK02": {
          "attackPattern": {
            "$type": "ConfigAttackBox",
            "triggerType": "TriggerNoRepeat",
            "checkHitLayerType": "Both",
            "born": {
              "$type": "ConfigBornByCollisionPoint",
              "offset": {
                "x": 0.0,
                "y": 0.0,
                "z": -0.5
              }
            },
            "size": {
              "x": 0.10000000149011612,
              "y": 0.10000000149011612,
              "z": 1.0
            }
          },
          "attackInfo": {
            "attackTag": "NormalAttack_02",
            "attenuationTag": "",
            "attenuationGroup": "default",
            "attackProperty": {
              "actorGrassSubHurtDelta": 0.0,
              "actorWindSubHurtDelta": 0.0,
              "elementDurability": 100.0,
              "strikeType": "Pierce",
              "enBreak": 14.880000114440918,
              "GLKMCMDJBIK": 0.0
            },
            "hitPattern": {
              "onHitEffectName": "default",
              "hitImpulseY": "",
              "hitImpulseType": "LV1"
            },
            "cameraShake": {
              "shakeRange": 0.019999999552965164,
              "shakeTime": 0.10000000149011612
            },
            "canBeModifiedBy": "OriginOwner"
          }
        }
      }
    },
    "combatTemplate": "",
    "abilities": [
      {
        "abilityID": "Bullet_Collei_ShootArrow",
        "abilityName": "Bullet_Collei_ShootArrow",
        "abilityOverride": ""
      },
      {
        "abilityID": "Bullet_Collei_ShootArrow_HeavyFX",
        "abilityName": "Bullet_Collei_ShootArrow_HeavyFX",
        "abilityOverride": ""
      }
    ],
    "timer": {
      "lifeTime": 8.0
    },
    "move": {
      "$type": "BFICFPAEFPB",
      "speed": 40.0,
      "DPAAFHNMHHN": {
        "$type": "IFAANDLLGLP"
      },
      "straightRange": 7.0,
      "gravityOfAcceleration": 15.0,
      "airResistance": 0.009999999776482582
    },
    "gadget": {
      "$type": "JENBBNKGGJP",
      "collision": {
        "targetType": "Enemy"
      },
      "triggerActions": [
        {
          "$type": "NMMEILICBAE",
          "attackEvent": "Arrow_ATK02"
        },
        {
          "$type": "AILPBJHDHDG",
          "abilityName": "Bullet_Collei_ShootArrow"
        }
      ],
      "fireAISoundEvent": true
    }
  },
  "Collei_Arrow_03": {
    "$type": "CJKJIENLOHD",
    "common": {
      "effectAttachShape": {
        "$type": "OMIODKONOMG",
        "scaleX": 0.5,
        "scaleY": 0.5
      },
      "affectedByWorld": true
    },
    "combat": {
      "property": {
        "useCreatorProperty": true,
        "isInvincible": true,
        "canTriggerBullet": false
      },
      "beHit": {
        "hitBloodEffect": "",
        "muteAllHit": true,
        "muteAllHitEffect": true,
        "muteAllHitText": true
      },
      "combatLock": {
        "lockShape": "CircleLockEnemy",
        "denyLockOn": true,
        "lockType": "Default"
      },
      "animEvents": {
        "Arrow_ATK03": {
          "attackPattern": {
            "$type": "ConfigAttackBox",
            "triggerType": "TriggerNoRepeat",
            "checkHitLayerType": "Both",
            "born": {
              "$type": "ConfigBornByCollisionPoint",
              "offset": {
                "x": 0.0,
                "y": 0.0,
                "z": -0.5
              }
            },
            "size": {
              "x": 0.10000000149011612,
              "y": 0.10000000149011612,
              "z": 1.0
            }
          },
          "attackInfo": {
            "attackTag": "NormalAttack_03",
            "attenuationTag": "",
            "attenuationGroup": "default",
            "attackProperty": {
              "actorGrassSubHurtDelta": 0.0,
              "actorWindSubHurtDelta": 0.0,
              "elementDurability": 100.0,
              "strikeType": "Pierce",
              "enBreak": 18.8700008392334,
              "GLKMCMDJBIK": 0.0
            },
            "hitPattern": {
              "onHitEffectName": "default",
              "hitImpulseY": "",
              "hitImpulseType": "LV1"
            },
            "cameraShake": {
              "shakeRange": 0.019999999552965164,
              "shakeTime": 0.10000000149011612
            },
            "canBeModifiedBy": "OriginOwner"
          }
        }
      }
    },
    "combatTemplate": "",
    "abilities": [
      {
        "abilityID": "Bullet_Collei_ShootArrow",
        "abilityName": "Bullet_Collei_ShootArrow",
        "abilityOverride": ""
      },
      {
        "abilityID": "Bullet_Collei_ShootArrow_Boomerang_LightFX",
        "abilityName": "Bullet_Collei_ShootArrow_Boomerang_LightFX",
        "abilityOverride": ""
      }
    ],
    "timer": {
      "lifeTime": 4.0
    },
    "move": {
      "$type": "BFICFPAEFPB",
      "speed": 40.0,
      "DPAAFHNMHHN": {
        "$type": "IFAANDLLGLP"
      },
      "straightRange": 7.0,
      "gravityOfAcceleration": 15.0,
      "airResistance": 0.009999999776482582
    },
    "gadget": {
      "$type": "JENBBNKGGJP",
      "collision": {
        "targetType": "Enemy"
      },
      "triggerActions": [
        {
          "$type": "NMMEILICBAE",
          "attackEvent": "Arrow_ATK03"
        },
        {
          "$type": "AILPBJHDHDG",
          "abilityName": "Bullet_Collei_ShootArrow"
        },
        {
          "$type": "AILPBJHDHDG",
          "abilityName": "Bullet_Collei_ShootArrow_Boomerang_LightFX"
        }
      ],
      "fireAISoundEvent": true
    }
  },
  "Collei_Arrow_04": {
    "$type": "CJKJIENLOHD",
    "common": {
      "effectAttachShape": {
        "$type": "OMIODKONOMG",
        "scaleX": 0.5,
        "scaleY": 0.5
      },
      "affectedByWorld": true
    },
    "combat": {
      "property": {
        "useCreatorProperty": true,
        "isInvincible": true,
        "canTriggerBullet": false
      },
      "beHit": {
        "hitBloodEffect": "",
        "muteAllHit": true,
        "muteAllHitEffect": true,
        "muteAllHitText": true
      },
      "combatLock": {
        "lockShape": "CircleLockEnemy",
        "denyLockOn": true,
        "lockType": "Default"
      },
      "animEvents": {
        "Arrow_ATK04": {
          "attackPattern": {
            "$type": "ConfigAttackBox",
            "triggerType": "TriggerNoRepeat",
            "checkHitLayerType": "Both",
            "born": {
              "$type": "ConfigBornByCollisionPoint",
              "offset": {
                "x": 0.0,
                "y": 0.0,
                "z": -0.5
              }
            },
            "size": {
              "x": 0.10000000149011612,
              "y": 0.10000000149011612,
              "z": 1.0
            }
          },
          "attackInfo": {
            "attackTag": "NormalAttack_04",
            "attenuationTag": "",
            "attenuationGroup": "default",
            "attackProperty": {
              "actorGrassSubHurtDelta": 0.0,
              "actorWindSubHurtDelta": 0.0,
              "elementDurability": 100.0,
              "strikeType": "Pierce",
              "enBreak": 23.729999542236328,
              "GLKMCMDJBIK": 0.0
            },
            "hitPattern": {
              "onHitEffectName": "default",
              "hitImpulseY": "",
              "hitImpulseType": "LV1"
            },
            "cameraShake": {
              "shakeRange": 0.019999999552965164,
              "shakeTime": 0.10000000149011612
            },
            "canBeModifiedBy": "OriginOwner"
          }
        }
      }
    },
    "combatTemplate": "",
    "abilities": [
      {
        "abilityID": "Bullet_Collei_ShootArrow",
        "abilityName": "Bullet_Collei_ShootArrow",
        "abilityOverride": ""
      },
      {
        "abilityID": "Bullet_Collei_ShootArrow_Boomerang_HeavyFX",
        "abilityName": "Bullet_Collei_ShootArrow_Boomerang_HeavyFX",
        "abilityOverride": ""
      }
    ],
    "timer": {
      "lifeTime": 4.0
    },
    "move": {
      "$type": "BFICFPAEFPB",
      "speed": 40.0,
      "DPAAFHNMHHN": {
        "$type": "IFAANDLLGLP"
      },
      "straightRange": 7.0,
      "gravityOfAcceleration": 15.0,
      "airResistance": 0.009999999776482582
    },
    "gadget": {
      "$type": "JENBBNKGGJP",
      "collision": {
        "targetType": "Enemy"
      },
      "triggerActions": [
        {
          "$type": "NMMEILICBAE",
          "attackEvent": "Arrow_ATK04"
        },
        {
          "$type": "AILPBJHDHDG",
          "abilityName": "Bullet_Collei_ShootArrow"
        },
        {
          "$type": "AILPBJHDHDG",
          "abilityName": "Bullet_Collei_ShootArrow_Boomerang_HeavyFX"
        }
      ],
      "fireAISoundEvent": true
    }
  },
  "Collei_AimingArrow_WithoutGrass": {
    "$type": "CJKJIENLOHD",
    "common": {
      "effectAttachShape": {
        "$type": "OMIODKONOMG",
        "scaleX": 0.5,
        "scaleY": 0.5
      },
      "affectedByWorld": true
    },
    "combat": {
      "property": {
        "useCreatorProperty": true,
        "isInvincible": true,
        "canTriggerBullet": false
      },
      "beHit": {
        "hitBloodEffect": "",
        "muteAllHit": true,
        "muteAllHitEffect": true,
        "muteAllHitText": true
      },
      "combatLock": {
        "lockShape": "CircleLockEnemy",
        "denyLockOn": true,
        "lockType": "Default"
      }
    },
    "combatTemplate": "",
    "abilities": [
      {
        "abilityID": "Arrow_WithoutGrass",
        "abilityName": "Bullet_Collei_ShootArrow_WithoutGrass",
        "abilityOverride": ""
      }
    ],
    "timer": {
      "lifeTime": 20.0
    },
    "move": {
      "$type": "BFICFPAEFPB",
      "speed": 50.0,
      "DPAAFHNMHHN": {
        "$type": "IFAANDLLGLP"
      },
      "straightRange": 25.0,
      "gravityOfAcceleration": 5.5,
      "airResistance": 0.009999999776482582
    },
    "gadget": {
      "$type": "JENBBNKGGJP",
      "collision": {
        "targetType": "Enemy"
      },
      "triggerActions": [
        {
          "$type": "AILPBJHDHDG",
          "abilityName": "Bullet_Collei_ShootArrow_WithoutGrass"
        }
      ],
      "fireAISoundEvent": true
    }
  },
  "Collei_AimingArrow_WithGrass": {
    "$type": "CJKJIENLOHD",
    "common": {
      "effectAttachShape": {
        "$type": "OMIODKONOMG",
        "scaleX": 0.5,
        "scaleY": 0.5
      },
      "affectedByWorld": true
    },
    "combat": {
      "property": {
        "useCreatorProperty": true,
        "isInvincible": true,
        "canTriggerBullet": false
      },
      "beHit": {
        "hitBloodEffect": "",
        "muteAllHit": true,
        "muteAllHitEffect": true,
        "muteAllHitText": true
      },
      "combatLock": {
        "lockShape": "CircleLockEnemy",
        "denyLockOn": true,
        "lockType": "Default"
      }
    },
    "combatTemplate": "",
    "abilities": [
      {
        "abilityID": "Bullet_Collei_ShootArrow_WithGrass",
        "abilityName": "Bullet_Collei_ShootArrow_WithGrass",
        "abilityOverride": ""
      }
    ],
    "timer": {
      "lifeTime": 20.0
    },
    "move": {
      "$type": "BFICFPAEFPB",
      "speed": 50.0,
      "DPAAFHNMHHN": {
        "$type": "IFAANDLLGLP"
      },
      "straightRange": 25.0,
      "gravityOfAcceleration": 5.5,
      "airResistance": 0.009999999776482582
    },
    "gadget": {
      "$type": "JENBBNKGGJP",
      "collision": {
        "targetType": "Enemy"
      },
      "triggerActions": [
        {
          "$type": "AILPBJHDHDG",
          "abilityName": "Bullet_Collei_ShootArrow_WithGrass"
        }
      ],
      "fireAISoundEvent": true
    }
  },
  "Collei_ElementalArt_Bullet": {
    "$type": "CJKJIENLOHD",
    "common": {
      "effectAttachShape": {
        "$type": "OMIODKONOMG",
        "scaleX": 0.5,
        "scaleY": 0.5
      },
      "affectedByWorld": true
    },
    "combat": {
      "property": {
        "useCreatorProperty": true,
        "isInvincible": true,
        "isGhostToEnemy": true,
        "canTriggerBullet": false
      },
      "beHit": {
        "hitBloodEffect": "",
        "muteAllHit": true,
        "muteAllHitEffect": true,
        "muteAllHitText": true
      },
      "combatLock": {
        "lockShape": "CircleLockEnemy",
        "denyLockOn": true,
        "lockType": "Default"
      }
    },
    "combatTemplate": "",
    "abilities": [
      {
        "abilityID": "Bullet_Collei_ElementalArt_Bullet",
        "abilityName": "Bullet_Collei_ElementalArt_Bullet",
        "abilityOverride": ""
      }
    ],
    "timer": {
      "lifeTime": 8.0
    },
    "move": {
      "$type": "HACHDMPNMBE",
      "speed": 10.0,
      "anglerVelocity": 15.0,
      "DPAAFHNMHHN": {
        "$type": "IFAANDLLGLP",
        "traceLerpCoef": 360.0
      },
      "stickToGround": {
        "maxStepHeight": 1.5,
        "maxSlopeAngle": 40.0,
        "heightToGround": 1.0,
        "flexibleRange": 0.5,
        "isStickToWater": true,
        "unstickWhenDownSlide": "Keep",
        "unstickWhenUpSlide": "Keep"
      },
      "syncToRemote": true,
      "traceOnYAxis": true,
      "stickToGroundDuration": 1.5
    },
    "gadget": {
      "$type": "JENBBNKGGJP",
      "collision": {
        "triggerType": "TriggerAlways",
        "triggerCD": 0.5,
        "targetType": "Enemy"
      },
      "triggerActions": [
        {
          "$type": "AILPBJHDHDG",
          "abilityName": "Bullet_Collei_ElementalArt_Bullet"
        }
      ],
      "fireAISoundEvent": true
    }
  },
  "Collei_ElementalArt_Dummy": {
    "$type": "CJKJIENLOHD",
    "common": {
      "effectAttachShape": {
        "$type": "OMIODKONOMG",
        "scaleX": 0.5,
        "scaleY": 0.5
      },
      "affectedByWorld": true
    },
    "combat": {
      "property": {
        "useCreatorProperty": true,
        "isInvincible": true,
        "isGhostToAllied": true,
        "isGhostToEnemy": true,
        "canTriggerBullet": false
      },
      "beHit": {
        "hitBloodEffect": "",
        "muteAllHit": true,
        "muteAllHitEffect": true,
        "muteAllHitText": true
      },
      "combatLock": {
        "lockShape": "CircleLockEnemy",
        "denyLockOn": true,
        "lockType": "Default"
      }
    },
    "combatTemplate": "",
    "abilities": [
      {
        "abilityID": "SkillObj_Collei_ElementalArt_Dummy",
        "abilityName": "SkillObj_Collei_ElementalArt_Dummy",
        "abilityOverride": ""
      }
    ],
    "timer": {
      "lifeTime": 8.0
    },
    "move": {
      "$type": "MMAPEFIEGAL",
      "attachPoint": "RootNode",
      "HOMINCCNFHE": {
        "z": 1.0
      },
      "LFOHLEKJFBI": ""
    }
  },
  "Collei_ElementalBurst_Dummy_Throw": {
    "$type": "CJKJIENLOHD",
    "common": {
      "effectAttachShape": {
        "$type": "OMIODKONOMG"
      },
      "mass": 5.0,
      "affectedByWorld": true
    },
    "combat": {
      "property": {
        "useCreatorProperty": true,
        "weight": 50.0,
        "isInvincible": true,
        "isGhostToAllied": true,
        "isGhostToEnemy": true,
        "canTriggerBullet": false,
        "denyElementStick": true
      },
      "combatLock": {
        "lockShape": "CircleLockEnemy",
        "denyLockOn": true,
        "lockType": "Default"
      }
    },
    "combatTemplate": "",
    "abilities": [
      {
        "abilityID": "Bullet_Collei_ElementalBurst_Dummy_Throw",
        "abilityName": "Bullet_Collei_ElementalBurst_Dummy_Throw",
        "abilityOverride": ""
      }
    ],
    "timer": {
      "lifeTime": 5.0
    },
    "move": {
      "$type": "BFDBCCCADKH",
      "velocityForce": {
        "muteAll": true
      },
      "speed": 14.0,
      "syncToRemote": true,
      "angleOffHor": 40.0,
      "gravityOfAcceleration": 35.0,
      "correction": {
        "$type": "FEHDIANJKBF",
        "fixAngleOfVer": 15.0,
        "minSpeed": 7.0,
        "maxSpeed": 20.0
      },
      "GEBCKKDCGDP": "",
      "NKPHOKHJKGC": ""
    },
    "gadget": {
      "$type": "JENBBNKGGJP",
      "collision": {
        "targetType": "Enemy"
      },
      "triggerActions": [
        {
          "$type": "AILPBJHDHDG",
          "abilityName": "Bullet_Collei_ElementalBurst_Dummy_Throw"
        }
      ]
    }
  },
  "Collei_ElementalBurst_Dummy": {
    "$type": "CJKJIENLOHD",
    "common": {
      "effectAttachShape": {
        "$type": "OMIODKONOMG"
      },
      "affectedByWorld": true
    },
    "specialPoint": {
      "elementAbsorb": "RootNode",
      "elementPendant": "",
      "elementDrop": "RootNode",
      "bulletAim": "RootNode"
    },
    "combat": {
      "property": {
        "useCreatorProperty": true,
        "isInvincible": true,
        "isGhostToAllied": true,
        "isGhostToEnemy": true,
        "canTriggerBullet": false,
        "denyElementStick": true
      },
      "combatLock": {
        "lockShape": "CircleLockEnemy",
        "denyLockOn": true,
        "lockType": "Default"
      }
    },
    "combatTemplate": "",
    "abilities": [
      {
        "abilityID": "SkillObj_Collei_ElementalBurst_Dummy",
        "abilityName": "SkillObj_Collei_ElementalBurst_Dummy",
        "abilityOverride": ""
      }
    ],
    "timer": {
      "lifeTime": 10.0
    }
  },
  "Collei_ElementalBurst_Dummy_Cat": {
    "$type": "CJKJIENLOHD",
    "common": {
      "effectAttachShape": {
        "$type": "OMIODKONOMG"
      },
      "affectedByWorld": true
    },
    "specialPoint": {
      "elementAbsorb": "RootNode",
      "elementPendant": "",
      "elementDrop": "RootNode",
      "bulletAim": "RootNode"
    },
    "combat": {
      "property": {
        "useCreatorProperty": true,
        "isInvincible": true,
        "isGhostToAllied": true,
        "isGhostToEnemy": true,
        "canTriggerBullet": false,
        "denyElementStick": true
      },
      "combatLock": {
        "lockShape": "CircleLockEnemy",
        "denyLockOn": true,
        "lockType": "Default"
      }
    },
    "combatTemplate": "",
    "abilities": [
      {
        "abilityID": "SkillObj_Collei_ElementalBurst_Dummy_Cat",
        "abilityName": "SkillObj_Collei_ElementalBurst_Dummy_Cat",
        "abilityOverride": ""
      }
    ],
    "timer": {
      "lifeTime": 2.0
    }
  },
  "Collei_ElementalBurst_Dummy_Cat_Talent": {
    "$type": "CJKJIENLOHD",
    "common": {
      "effectAttachShape": {
        "$type": "OMIODKONOMG"
      },
      "affectedByWorld": true
    },
    "specialPoint": {
      "elementAbsorb": "RootNode",
      "elementPendant": "",
      "elementDrop": "RootNode",
      "bulletAim": "RootNode"
    },
    "combat": {
      "property": {
        "useCreatorProperty": true,
        "isInvincible": true,
        "isGhostToAllied": true,
        "isGhostToEnemy": true,
        "canTriggerBullet": false,
        "denyElementStick": true
      },
      "combatLock": {
        "lockShape": "CircleLockEnemy",
        "denyLockOn": true,
        "lockType": "Default"
      }
    },
    "combatTemplate": "",
    "abilities": [
      {
        "abilityID": "SkillObj_Collei_ElementalBurst_Dummy_Cat_Talent",
        "abilityName": "SkillObj_Collei_ElementalBurst_Dummy_Cat_Talent",
        "abilityOverride": ""
      }
    ],
    "timer": {
      "lifeTime": 2.0
    }
  }
}
