{
  "SceneObj_Area_Common_Property_Prop_LoopFarView_01": {
    "$type": "CJKJIENLOHD",
    "common": {
      "disableTickDistance": 150000.0
    },
    "combat": {
      "property": {
        "hp": 99999.0,
        "isInvincible": true,
        "isLockHP": true,
        "isGhostToAllied": true,
        "isGhostToEnemy": true
      }
    },
    "combatTemplate": "",
    "abilities": [
      {
        "abilityID": "SceneObj_Area_Common_Property_Prop_LoopFarView_01",
        "abilityName": "SceneObj_Area_Common_Property_Prop_LoopFarView_01",
        "abilityOverride": ""
      }
    ],
    "gadgetAction": {
      "gadgetStateActionList": [
        {
          "$type": "FJGKLJLPOGL",
          "intID": "GadgetState",
          "syncState": true
        }
      ]
    }
  },
  "SceneObj_Level_Xm_Property_Ani_Prop_RainFlower_01": {
    "$type": "CJKJIENLOHD",
    "hasModel": true,
    "combat": {
      "property": {
        "hp": 99999.0,
        "isInvincible": true,
        "isLockHP": true,
        "isGhostToAllied": true,
        "isGhostToEnemy": true
      }
    },
    "combatTemplate": "",
    "abilities": [
      {
        "abilityID": "SceneObj_Level_Xm_Property_Ani_Prop_RainFlower_01",
        "abilityName": "SceneObj_Level_Xm_Property_Ani_Prop_RainFlower_01",
        "abilityOverride": ""
      }
    ]
  },
  "SceneObj_Level_Common_Property_Prop_DreamPortal_01": {
    "$type": "CJKJIENLOHD",
    "globalValue": {
      "serverGlobalValues": ["SGV_DreamPortal_KillAmberBuff"],
      "initServerGlobalValues": {
        "SGV_DreamPortal_KillAmberBuff": 0.0
      }
    },
    "hasModel": true,
    "combat": {
      "property": {
        "hp": 10000.0,
        "isLockHP": true,
        "isGhostToAllied": true,
        "isGhostToEnemy": true,
        "ignorePurgeRate": true
      },
      "beHit": {
        "hitBloodEffect": "",
        "hitAutoRedirect": false,
        "muteAllHitText": true
      },
      "combatLock": {
        "lockShape": "CircleLockEnemy",
        "denyLockOn": true,
        "lockType": "Gadget_Lv1"
      }
    },
    "combatTemplate": "",
    "abilities": [
      {
        "abilityID": "Scene_RockGadget_Summon_Detect",
        "abilityName": "Scene_RockGadget_Summon_Detect",
        "abilityOverride": ""
      },
      {
        "abilityID": "SceneObj_Level_Common_Property_Prop_DreamPortal_01",
        "abilityName": "SceneObj_Level_Common_Property_Prop_DreamPortal_01",
        "abilityOverride": ""
      }
    ],
    "field": {
      "concernType": "AllAvatars",
      "shape": "",
      "fromShape": "",
      "triggerInfinite": true,
      "lifeInfinite": true,
      "checkInterval": 0.5,
      "overwriteCampType": true,
      "campType": "All",
      "colliderName": "",
      "fromColliderName": "",
      "useLevelOverride": true,
      "useLocalTriggerLogic": true
    }
  },
  "SceneObj_Level_Common_Property_Ani_Build_Elevator_Disc_01": {
    "$type": "CJKJIENLOHD",
    "common": {
      "disableTickDistance": 150000.0
    },
    "combat": {
      "property": {
        "hp": 99999.0,
        "isInvincible": true,
        "isLockHP": true,
        "isGhostToAllied": true,
        "isGhostToEnemy": true
      }
    },
    "combatTemplate": "",
    "abilities": [
      {
        "abilityID": "Scene_RockGadget_Summon_Detect",
        "abilityName": "Scene_RockGadget_Summon_Detect",
        "abilityOverride": ""
      },
      {
        "abilityID": "SceneObj_Level_Common_Property_Ani_Build_Elevator_Disc_01",
        "abilityName": "SceneObj_Level_Common_Property_Ani_Build_Elevator_Disc_01",
        "abilityOverride": ""
      }
    ],
    "move": {
      "$type": "OEFHHKHPMCJ"
    },
    "gadgetAction": {
      "gadgetStateActionList": [
        {
          "$type": "FJGKLJLPOGL",
          "intID": "GadgetState",
          "syncState": true
        }
      ]
    }
  },
  "SceneObj_Level_Xm_Property_Prop_AmberKeyGear_01": {
    "$type": "CJKJIENLOHD",
    "hasModel": true,
    "combatTemplate": "default",
    "abilities": [
      {
        "abilityID": "SceneObj_Level_Xm_Property_Prop_AmberKeyGear_01",
        "abilityName": "SceneObj_Level_Xm_Property_Prop_AmberKeyGear_01",
        "abilityOverride": ""
      }
    ],
    "gadgetAction": {
      "gadgetStateActionList": [
        {
          "$type": "FJGKLJLPOGL",
          "intID": "GadgetState",
          "syncState": true
        }
      ]
    }
  },
  "SceneObj_Level_Common_Property_Ani_Build_Elevator_Disc_03": {
    "$type": "CJKJIENLOHD",
    "hasModel": true,
    "combat": {
      "property": {
        "hp": 99999.0,
        "isInvincible": true,
        "isLockHP": true,
        "isGhostToAllied": true,
        "isGhostToEnemy": true
      }
    },
    "combatTemplate": "",
    "abilities": [
      {
        "abilityID": "SceneObj_Level_Common_Property_Ani_Build_Elevator_Disc_03",
        "abilityName": "SceneObj_Level_Common_Property_Ani_Build_Elevator_Disc_03",
        "abilityOverride": ""
      }
    ]
  },
  "SceneObj_Level_Common_Property_Ani_Build_Elevator_Disc_02": {
    "$type": "CJKJIENLOHD",
    "KJGJCNANPJP": true,
    "hasModel": true,
    "combat": {
      "property": {
        "hp": 99999.0,
        "isInvincible": true,
        "isLockHP": true,
        "isGhostToAllied": true,
        "isGhostToEnemy": true
      }
    },
    "combatTemplate": "",
    "abilities": [
      {
        "abilityID": "SceneObj_Level_Common_Property_Ani_Build_Elevator_Disc_02",
        "abilityName": "SceneObj_Level_Common_Property_Ani_Build_Elevator_Disc_02",
        "abilityOverride": ""
      }
    ],
    "move": {
      "$type": "OEFHHKHPMCJ"
    },
    "gadgetTurn": {
      "$type": "CNBENOJGNMD",
      "movePartAroundX": "",
      "anchorPartAroundX": "",
      "movePartAroundY": "TurnNode",
      "anchorPartAroundY": "TurnNode",
      "movePartAroundZ": "",
      "anchorPartAroundZ": "",
      "audioBeginTurningEventAroundX": {
        "text": ""
      },
      "audioBeginTurningEventAroundY": {
        "text": "Play_amb_sceneObj_gear_elevator_move_03"
      },
      "audioBeginTurningEventAroundZ": {
        "text": ""
      },
      "turnStateMap": {
        "0": {
          "lerpTime": 1.0
        },
        "101": {
          "angleAroundY": 15.0,
          "lerpTime": 1.0
        },
        "102": {
          "angleAroundY": 30.0,
          "lerpTime": 1.0
        },
        "103": {
          "angleAroundY": 45.0,
          "lerpTime": 1.0
        },
        "104": {
          "angleAroundY": 60.0,
          "lerpTime": 1.0
        },
        "105": {
          "angleAroundY": 75.0,
          "lerpTime": 1.0
        },
        "106": {
          "angleAroundY": 90.0,
          "lerpTime": 1.0
        },
        "107": {
          "angleAroundY": 105.0,
          "lerpTime": 1.0
        },
        "108": {
          "angleAroundY": 120.0,
          "lerpTime": 1.0
        },
        "109": {
          "angleAroundY": 135.0,
          "lerpTime": 1.0
        },
        "110": {
          "angleAroundY": 150.0,
          "lerpTime": 1.0
        },
        "111": {
          "angleAroundY": 165.0,
          "lerpTime": 1.0
        },
        "112": {
          "angleAroundY": 180.0,
          "lerpTime": 1.0
        },
        "113": {
          "angleAroundY": 195.0,
          "lerpTime": 1.0
        },
        "114": {
          "angleAroundY": 210.0,
          "lerpTime": 1.0
        },
        "115": {
          "angleAroundY": 225.0,
          "lerpTime": 1.0
        },
        "116": {
          "angleAroundY": 240.0,
          "lerpTime": 1.0
        },
        "117": {
          "angleAroundY": 255.0,
          "lerpTime": 1.0
        },
        "118": {
          "angleAroundY": 270.0,
          "lerpTime": 1.0
        },
        "119": {
          "angleAroundY": 285.0,
          "lerpTime": 1.0
        },
        "120": {
          "angleAroundY": 300.0,
          "lerpTime": 1.0
        },
        "121": {
          "angleAroundY": 315.0,
          "lerpTime": 1.0
        },
        "122": {
          "angleAroundY": 330.0,
          "lerpTime": 1.0
        },
        "123": {
          "angleAroundY": 345.0,
          "lerpTime": 1.0
        },
        "124": {
          "angleAroundY": 360.0,
          "lerpTime": 1.0
        }
      }
    }
  },
  "SceneObj_Level_Common_Property_Ani_Build_Elevator_Disc_04": {
    "$type": "CJKJIENLOHD",
    "KJGJCNANPJP": true,
    "hasModel": true,
    "combat": {
      "property": {
        "hp": 99999.0,
        "isInvincible": true,
        "isLockHP": true,
        "isGhostToAllied": true,
        "isGhostToEnemy": true
      }
    },
    "combatTemplate": "",
    "abilities": [
      {
        "abilityID": "SceneObj_Level_Common_Property_Ani_Build_Elevator_Disc_02",
        "abilityName": "SceneObj_Level_Common_Property_Ani_Build_Elevator_Disc_02",
        "abilityOverride": ""
      }
    ],
    "move": {
      "$type": "OEFHHKHPMCJ"
    },
    "gadgetTurn": {
      "$type": "CNBENOJGNMD",
      "movePartAroundX": "",
      "anchorPartAroundX": "",
      "movePartAroundY": "TurnNode",
      "anchorPartAroundY": "TurnNode",
      "movePartAroundZ": "",
      "anchorPartAroundZ": "",
      "audioBeginTurningEventAroundX": {
        "text": ""
      },
      "audioBeginTurningEventAroundY": {
        "text": "Play_amb_sceneObj_gear_elevator_move_02"
      },
      "audioBeginTurningEventAroundZ": {
        "text": ""
      },
      "turnStateMap": {
        "0": {
          "lerpTime": 1.0
        },
        "101": {
          "angleAroundY": 15.0,
          "lerpTime": 1.0
        },
        "102": {
          "angleAroundY": 30.0,
          "lerpTime": 1.0
        },
        "103": {
          "angleAroundY": 45.0,
          "lerpTime": 1.0
        },
        "104": {
          "angleAroundY": 60.0,
          "lerpTime": 1.0
        },
        "105": {
          "angleAroundY": 75.0,
          "lerpTime": 1.0
        },
        "106": {
          "angleAroundY": 90.0,
          "lerpTime": 1.0
        },
        "107": {
          "angleAroundY": 105.0,
          "lerpTime": 1.0
        },
        "108": {
          "angleAroundY": 120.0,
          "lerpTime": 1.0
        },
        "109": {
          "angleAroundY": 135.0,
          "lerpTime": 1.0
        },
        "110": {
          "angleAroundY": 150.0,
          "lerpTime": 1.0
        },
        "111": {
          "angleAroundY": 165.0,
          "lerpTime": 1.0
        },
        "112": {
          "angleAroundY": 180.0,
          "lerpTime": 1.0
        },
        "113": {
          "angleAroundY": 195.0,
          "lerpTime": 1.0
        },
        "114": {
          "angleAroundY": 210.0,
          "lerpTime": 1.0
        },
        "115": {
          "angleAroundY": 225.0,
          "lerpTime": 1.0
        },
        "116": {
          "angleAroundY": 240.0,
          "lerpTime": 1.0
        },
        "117": {
          "angleAroundY": 255.0,
          "lerpTime": 1.0
        },
        "118": {
          "angleAroundY": 270.0,
          "lerpTime": 1.0
        },
        "119": {
          "angleAroundY": 285.0,
          "lerpTime": 1.0
        },
        "120": {
          "angleAroundY": 300.0,
          "lerpTime": 1.0
        },
        "121": {
          "angleAroundY": 315.0,
          "lerpTime": 1.0
        },
        "122": {
          "angleAroundY": 330.0,
          "lerpTime": 1.0
        },
        "123": {
          "angleAroundY": 345.0,
          "lerpTime": 1.0
        },
        "124": {
          "angleAroundY": 360.0,
          "lerpTime": 1.0
        }
      }
    }
  },
  "SceneObj_Level_Common_Property_Prop_RailwayIntersection_01": {
    "$type": "CJKJIENLOHD",
    "combat": {
      "property": {
        "hp": 99999.0,
        "isInvincible": true,
        "isLockHP": true,
        "isGhostToAllied": true,
        "isGhostToEnemy": true
      }
    },
    "combatTemplate": "",
    "gadgetTurn": {
      "$type": "CNBENOJGNMD",
      "movePartAroundX": "TurnNode",
      "anchorPartAroundX": "TurnNode",
      "movePartAroundY": "TurnNode",
      "anchorPartAroundY": "TurnNode",
      "movePartAroundZ": "",
      "anchorPartAroundZ": "",
      "audioBeginTurningEventAroundX": {
        "text": ""
      },
      "audioBeginTurningEventAroundY": {
        "text": "Play_amb_sceneObj_gear_railwayIntersection_01"
      },
      "audioBeginTurningEventAroundZ": {
        "text": ""
      },
      "turnStateMap": {
        "0": {
          "lerpTime": 1.0
        },
        "201": {
          "angleAroundY": 90.0,
          "lerpTime": 1.0
        },
        "202": {
          "angleAroundY": 180.0,
          "lerpTime": 1.0
        },
        "203": {
          "angleAroundY": -90.0,
          "lerpTime": 1.0
        }
      }
    }
  },
  "SceneObj_Area_Xm_Property_Ani_Prop_Paddle_01": {
    "$type": "CJKJIENLOHD",
    "common": {
      "disableTickDistance": 150000.0
    },
    "combat": {
      "property": {
        "hp": 99999.0,
        "isInvincible": true,
        "isLockHP": true,
        "isGhostToAllied": true,
        "isGhostToEnemy": true
      }
    },
    "combatTemplate": "",
    "stateLayers": {
      "defaultLayer": {
        "$type": "GBGJJIIEMBD",
        "layerIndexName": "",
        "CPAANEIJCGD": "",
        "stateIDs": {
          "Active": {
            "$type": "BEIEGKBABOF",
            "animatorStates": {
              "Active": []
            },
            "cullingModelAlwaysAnimate": true
          }
        }
      }
    },
    "gadgetAction": {
      "gadgetStateActionList": [
        {
          "$type": "FJGKLJLPOGL",
          "intID": "GadgetState",
          "syncState": true
        }
      ]
    }
  },
  "SceneObj_Level_Xm_Property_Ani_Prop_Rudder_01": {
    "$type": "CJKJIENLOHD",
    "combat": {
      "property": {
        "hp": 99999.0,
        "isInvincible": true,
        "isLockHP": true,
        "isGhostToAllied": true,
        "isGhostToEnemy": true
      }
    },
    "combatTemplate": "",
    "abilities": [
      {
        "abilityID": "Scene_RockGadget_Summon_Detect",
        "abilityName": "Scene_RockGadget_Summon_Detect",
        "abilityOverride": ""
      },
      {
        "abilityID": "SceneObj_Level_Xm_Property_Ani_Prop_Rudder_01",
        "abilityName": "SceneObj_Level_Xm_Property_Ani_Prop_Rudder_01",
        "abilityOverride": ""
      }
    ],
    "stateLayers": {
      "defaultLayer": {
        "$type": "GBGJJIIEMBD",
        "layerIndexName": "",
        "CPAANEIJCGD": "",
        "stateIDs": {
          "All": {
            "$type": "BEIEGKBABOF",
            "animatorStates": {
              "Idle": [],
              "Active": []
            }
          }
        }
      }
    },
    "gadgetAction": {
      "gadgetStateActionList": [
        {
          "$type": "FJGKLJLPOGL",
          "intID": "GadgetState",
          "syncState": true
        }
      ]
    }
  },
  "SceneObj_Level_Common_Property_Water_DreamMoveWaterPanel_01": {
    "$type": "CJKJIENLOHD",
    "common": {
      "disableTickDistance": 150000.0
    },
    "model": {
      "bornEffect": "",
      "attachEffect": "Eff_SceneObj_DreamMoveWaterPanel_02",
      "BKPFGNPLDNJ": ""
    },
    "hasModel": true,
    "combat": {
      "property": {
        "hp": 99999.0,
        "isInvincible": true,
        "isLockHP": true,
        "isGhostToAllied": true,
        "isGhostToEnemy": true
      }
    },
    "combatTemplate": "",
    "move": {
      "$type": "OEFHHKHPMCJ",
      "isMovingWater": true
    }
  },
  "SceneObj_Level_Common_Property_Water_DreamMoveWaterPanel_02": {
    "$type": "CJKJIENLOHD",
    "common": {
      "disableTickDistance": 150000.0
    },
    "model": {
      "bornEffect": "",
      "attachEffect": "Eff_SceneObj_DreamMoveWaterPanel_01",
      "BKPFGNPLDNJ": ""
    },
    "hasModel": true,
    "combat": {
      "property": {
        "hp": 99999.0,
        "isInvincible": true,
        "isLockHP": true,
        "isGhostToAllied": true,
        "isGhostToEnemy": true
      }
    },
    "combatTemplate": "",
    "move": {
      "$type": "OEFHHKHPMCJ",
      "isMovingWater": true
    }
  },
  "SceneObj_Other_Property_Prop_BigTreeDungeonEff_01": {
    "$type": "CJKJIENLOHD",
    "hasModel": true,
    "combat": {
      "property": {
        "hp": 99999.0,
        "isInvincible": true,
        "isLockHP": true,
        "isGhostToAllied": true,
        "isGhostToEnemy": true
      }
    },
    "combatTemplate": "",
    "abilities": [
      {
        "abilityID": "SceneObj_Other_Property_Prop_BigTreeDungeonEff_01",
        "abilityName": "SceneObj_Other_Property_Prop_BigTreeDungeonEff_01",
        "abilityOverride": ""
      }
    ]
  },
  "SceneObj_Level_Common_Property_Water_Waterfall_01": {
    "$type": "CJKJIENLOHD",
    "hasModel": true,
    "combat": {
      "property": {
        "hp": 99999.0,
        "isInvincible": true,
        "isLockHP": true,
        "isGhostToAllied": true,
        "isGhostToEnemy": true
      }
    },
    "combatTemplate": "",
    "abilities": [
      {
        "abilityID": "SceneObj_Level_Common_Property_Water_Waterfall_01",
        "abilityName": "SceneObj_Level_Common_Property_Water_Waterfall_01",
        "abilityOverride": ""
      }
    ]
  },
  "SceneObj_Level_Common_Property_Water_Waterfall_02": {
    "$type": "CJKJIENLOHD",
    "hasModel": true,
    "combat": {
      "property": {
        "hp": 99999.0,
        "isInvincible": true,
        "isLockHP": true,
        "isGhostToAllied": true,
        "isGhostToEnemy": true
      }
    },
    "combatTemplate": "",
    "abilities": [
      {
        "abilityID": "SceneObj_Level_Common_Property_Water_Waterfall_02",
        "abilityName": "SceneObj_Level_Common_Property_Water_Waterfall_02",
        "abilityOverride": ""
      }
    ]
  },
  "SceneObj_Gear_Operator_Invisible_LuaTriggerOperator_01": {
    "$type": "CJKJIENLOHD",
    "hasModel": true,
    "combat": {
      "property": {
        "hp": 99999.0,
        "isInvincible": true,
        "isLockHP": true,
        "isGhostToAllied": true,
        "isGhostToEnemy": true
      },
      "combatLock": {
        "lockShape": "CircleLockEnemy",
        "denyLockOn": true,
        "lockType": "Default"
      }
    },
    "combatTemplate": "",
    "abilities": [
      {
        "abilityID": "SceneObj_Gear_Operator_Invisible_LuaTriggerOperator_01",
        "abilityName": "SceneObj_Gear_Operator_Invisible_LuaTriggerOperator_01",
        "abilityOverride": ""
      }
    ],
    "uiInteract": {
      "gadgetUIBtnCfgPath": "TEST/TEST_Chest_Btn",
      "uiName": "",
      "onTouch": "WidgetMPSupport",
      "touchParams": ["SceneObj_Gear_Operator_Invisible_LuaTriggerOperator_01"],
      "showCondTypes": ["HOST"],
      "icon": "",
      "groupName": "",
      "confirmDialogTitle": "",
      "confirmDialogContent": "",
      "canInteractInCombat": false
    },
    "gadgetAction": {
      "gadgetStateActionList": [
        {
          "$type": "DEMJBAICBKO",
          "triggerID": "GearStop"
        },
        {
          "$type": "DEMJBAICBKO",
          "enable": true
        },
        {
          "$type": "DEMJBAICBKO",
          "triggerID": "GearStart",
          "enable": true
        }
      ]
    },
    "intee": {
      "useHeadControlTrigger": false,
      "triggerHeight": 3.0,
      "headCtrlRadius": 0.0,
      "KAMIAMNMFCP": ""
    }
  },
  "SceneObj_Level_Common_Property_Water_Waterfall_03": {
    "$type": "CJKJIENLOHD",
    "hasModel": true,
    "combat": {
      "property": {
        "hp": 99999.0,
        "isInvincible": true,
        "isLockHP": true,
        "isGhostToAllied": true,
        "isGhostToEnemy": true
      }
    },
    "combatTemplate": "",
    "abilities": [
      {
        "abilityID": "SceneObj_Level_Common_Property_Water_Waterfall_03",
        "abilityName": "SceneObj_Level_Common_Property_Water_Waterfall_03",
        "abilityOverride": ""
      }
    ]
  },
  "SceneObj_Other_Property_Prop_FactoryCamera_01": {
    "$type": "CJKJIENLOHD",
    "hasModel": true,
    "combat": {
      "property": {
        "hp": 99999.0,
        "attack": 20.0,
        "weight": 50.0,
        "isLockHP": true,
        "ignoreDamageToSelf": true
      },
      "beHit": {
        "hitBloodEffect": "",
        "hitAutoRedirect": false,
        "muteAllHitText": true
      },
      "combatLock": {
        "lockShape": "CircleLockEnemy",
        "denyLockOn": true,
        "lockType": "Gadget_Lv1"
      }
    },
    "combatTemplate": "",
    "vodPlayer": {
      "configName": "Ca_Dungeon_ScaramoucheFactory_Topdown_01",
      "enterRadius": 100.0,
      "exitRadius": 150.0
    }
  },
  "SceneObj_Level_Common_Property_Ani_Prop_MachineCarrier_01": {
    "$type": "CJKJIENLOHD",
    "common": {
      "disableTickDistance": 150000.0
    },
    "globalValue": {
      "serverGlobalValues": ["SGV_MachineCarrier_State"],
      "initServerGlobalValues": {
        "SGV_MachineCarrier_State": 0.0
      }
    },
    "combat": {
      "property": {
        "hp": 99999.0,
        "isInvincible": true,
        "isLockHP": true,
        "isGhostToAllied": true,
        "isGhostToEnemy": true
      }
    },
    "combatTemplate": "",
    "abilities": [
      {
        "abilityID": "SceneObj_Level_Common_Property_Ani_Prop_MachineCarrier_01",
        "abilityName": "SceneObj_Level_Common_Property_Ani_Prop_MachineCarrier_01",
        "abilityOverride": ""
      }
    ],
    "field": {
      "concernType": "LocalAvatar",
      "shape": "",
      "fromShape": "",
      "triggerInfinite": true,
      "lifeInfinite": true,
      "checkInterval": 0.5,
      "overwriteCampType": true,
      "campType": "Enemy",
      "colliderName": "",
      "fromColliderName": ""
    },
    "move": {
      "$type": "OEFHHKHPMCJ"
    }
  },
  "SceneObj_Gear_FungusEventDungeon_Operator": {
    "$type": "CJKJIENLOHD",
    "model": {
      "bornEffect": "",
      "attachEffect": "Eff_Gear_ElementDungeon_Operator",
      "BKPFGNPLDNJ": ""
    },
    "hasModel": true,
    "combat": {
      "property": {
        "hp": 99999.0,
        "attack": 200.0,
        "weight": 50.0,
        "isLockHP": true,
        "isGhostToAllied": true,
        "isGhostToEnemy": true
      },
      "beHit": {
        "hitBloodEffect": "",
        "hitAutoRedirect": false,
        "muteAllHitText": true
      },
      "combatLock": {
        "lockShape": "CircleLockEnemy",
        "denyLockOn": true,
        "lockType": "Gadget_Lv1"
      }
    },
    "combatTemplate": "",
    "field": {
      "concernType": "LocalAvatar",
      "shape": "CircleR2H2",
      "fromShape": "",
      "triggerInfinite": true,
      "lifeInfinite": true,
      "checkInterval": 0.5,
      "overwriteCampType": true,
      "campType": "SelfCamp",
      "colliderName": "",
      "fromColliderName": ""
    },
    "gadgetAction": {
      "gadgetStateActionList": [
        {
          "$type": "OLDOOKBEKJI",
          "parameter": "gadgetState",
          "damageRatio": "Int",
          "rotationDampTime": "Eff_Gear_ElementDungeon_Operator"
        },
        {
          "$type": "OLDOOKBEKJI",
          "triggerID": "GearStop",
          "parameter": "gadgetState",
          "damageRatio": "Int",
          "value": 202,
          "rotationDampTime": "Eff_Gear_ElementDungeon_Operator"
        }
      ]
    }
  }
}
