{
  "Partner_Natsaurus_Drillhead_Small_OrderController": {
    "$type": "CJKJIENLOHD",
    "common": {
      "effectAttachShape": {
        "$type": "OMIODKONOMG"
      }
    },
    "combat": {
      "property": {
        "useCreatorProperty": true,
        "isInvincible": true,
        "isGhostToAllied": true,
        "canTriggerBullet": false
      },
      "beHit": {
        "hitBloodEffect": "",
        "muteAllHit": true,
        "muteAllHitEffect": true,
        "muteAllHitText": true
      },
      "combatLock": {
        "lockShape": "CircleLockEnemy",
        "lockType": "Default"
      }
    },
    "combatTemplate": "",
    "abilities": [
      {
        "abilityID": "",
        "abilityName": "Partner_Natsaurus_Drillhead_Small_OrderController",
        "abilityOverride": ""
      }
    ],
    "timer": {
      "lifeInfinite": true
    },
    "move": {
      "$type": "MMAPEFIEGAL",
      "velocityForce": {
        "muteAll": true
      },
      "attachPoint": "",
      "followRotation": true,
      "syncTransToServer": true,
      "LFOHLEKJFBI": ""
    },
    "aibeta": {
      "enable": true,
      "aiCombat": {
        "broadcastFearOnDeath": false
      },
      "sensing": {
        "enable": false,
        "settings": {
          "DefaultSetting": {
            "viewRange": 0.0,
            "feelRange": 0.0
          }
        }
      },
      "order": {
        "master": {
          "enable": true,
          "servantSlotAmount": 1
        }
      },
      "defendArea": {
        "enable": false
      },
      "profiling": {}
    }
  },
  "SceneObj_Area_Nt_Property_Ani_Prop_Natsaurus_Drillhead_Small_01": {
    "$type": "CJKJIENLOHD",
    "common": {
      "effectAttachShape": {
        "$type": "FJNPJANPGGC",
        "mesh": "EffectMesh"
      },
      "mass": 30.0,
      "disableTickDistance": 100000.0,
      "enableCrashDamage": false,
      "reconnectSupport": true,
      "recoverByInitPose": true
    },
    "model": {
      "bornEffect": "",
      "attachEffect": "",
      "hasCharacterRenderering": true,
      "BKPFGNPLDNJ": ""
    },
    "KJGJCNANPJP": true,
    "hasModel": true,
    "moveRefreshGroundForceUp": false,
    "combat": {
      "property": {
        "endureType": "Monster_Slime",
        "useCreatorProperty": true,
        "levelOption": "Creator",
        "weight": 200.0,
        "isLockHP": true
      },
      "beHit": {
        "hitBloodEffect": "",
        "muteAllHitText": true
      },
      "combatLock": {
        "lockShape": "CircleLockEnemy",
        "lockType": "Default"
      },
      "die": {
        "hasAnimatorDie": true,
        "dieEndTime": 1.2999999523162842,
        "dieDisappearEffect": "",
        "dieModelFadeDelay": 1.2000000476837158
      },
      "animEvents": {
        "AE_DigAtk": {
          "attackPattern": {
            "$type": "ConfigAttackCircle",
            "triggerType": "TriggerNoRepeat",
            "born": {
              "$type": "ConfigBornBySelf",
              "offset": {
                "x": 0.0,
                "y": 0.0,
                "z": 0.0
              }
            },
            "height": 1.25,
            "fanAngle": 60.0,
            "radius": 2.299999952316284
          },
          "attackInfo": {
            "attackTag": "",
            "attenuationTag": "",
            "attenuationGroup": "default",
            "attackProperty": {
              "actorGrassSubHurtDelta": 0.5,
              "actorWindSubHurtDelta": 0.0,
              "elementDurability": 100.0,
              "strikeType": "Blunt",
              "GLKMCMDJBIK": 0.0
            },
            "hitPattern": {
              "onHitEffectName": "default",
              "hitImpulseY": "",
              "hitImpulseType": "LV3"
            },
            "cameraShake": {
              "shakeRange": 0.4000000059604645,
              "shakeTime": 0.15000000596046448,
              "shakeDistance": 30.0
            }
          }
        },
        "AE_MeleeAtk": {
          "attackPattern": {
            "$type": "ConfigAttackBox",
            "triggerType": "TriggerNoRepeat",
            "born": {
              "$type": "ConfigBornBySelf",
              "offset": {
                "x": 0.0,
                "y": 1.0,
                "z": 0.75
              }
            },
            "size": {
              "x": 1.2999999523162842,
              "y": 1.2999999523162842,
              "z": 2.5
            }
          },
          "attackInfo": {
            "attackTag": "",
            "attenuationTag": "",
            "attenuationGroup": "default",
            "attackProperty": {
              "actorGrassSubHurtDelta": 1.0,
              "actorWindSubHurtDelta": 0.0,
              "elementDurability": 100.0,
              "strikeType": "Blunt",
              "GLKMCMDJBIK": 0.0
            },
            "hitPattern": {
              "onHitEffectName": "default",
              "hitImpulseY": "",
              "hitImpulseType": "LV3"
            },
            "cameraShake": {
              "shakeRange": 0.4000000059604645,
              "shakeTime": 0.15000000596046448,
              "shakeDistance": 30.0
            }
          }
        }
      }
    },
    "combatTemplate": "",
    "abilities": [
      {
        "abilityID": "",
        "abilityName": "Monster_Natsaurus_Drillhead_Small_SteerManager",
        "abilityOverride": ""
      },
      {
        "abilityID": "",
        "abilityName": "Partner_Natsaurus_Drillhead_Small_StateManager",
        "abilityOverride": ""
      },
      {
        "abilityID": "",
        "abilityName": "Partner_Natsaurus_Drillhead_Small_OutRangeManager",
        "abilityOverride": ""
      },
      {
        "abilityID": "",
        "abilityName": "Partner_Natsaurus_Drillhead_Small_Response",
        "abilityOverride": ""
      }
    ],
    "timer": {
      "lifeInfinite": true
    },
    "move": {
      "$type": "IPNMJMHDMPF",
      "handleCombatTaskImmediately": true,
      "yawSpeedRatio": 2.0,
      "PKHOMJHFAEE": "RootNode"
    },
    "stateLayers": {
      "defaultLayer": {
        "$type": "GBGJJIIEMBD",
        "layerIndexName": "",
        "CPAANEIJCGD": "",
        "stateIDs": {
          "Born": {
            "$type": "NEDIFAKEGCO",
            "animatorStates": {
              "Born": [],
              "Born_AS": [
                "Monster_Natsaurus_Drillhead_Small_Born",
                "Audio_Natsaurus_Vehicle_DrillHead_Normal_DrillingIdle_Exit_From_Ground"
              ]
            }
          },
          "NormalIdle": {
            "$type": "NEDIFAKEGCO",
            "animatorStates": {
              "Standby": []
            },
            "canDoSkill": true,
            "canSyncMove": true,
            "resetAnimatorTriggerOnExit": ["DoSkill"],
            "canSteer": true
          },
          "NormalMove": {
            "$type": "NEDIFAKEGCO",
            "animatorStates": {
              "Run": ["Audio_Monster_Natsaurus_Drillhead_Small_Walk"],
              "WalkForward": ["Audio_Monster_Natsaurus_Drillhead_Small_Walk"],
              "WalkBack": ["Audio_Monster_Natsaurus_Drillhead_Small_Walk"]
            },
            "canDoSkill": true,
            "canSyncMove": true,
            "resetAnimatorTriggerOnExit": ["DoSkill"],
            "canSteer": true
          },
          "TurnLeft": {
            "$type": "NEDIFAKEGCO",
            "animatorStates": {
              "TurnLeft": []
            },
            "canDoSkill": true,
            "canSyncMove": true,
            "resetAnimatorTriggerOnExit": ["DoSkill"],
            "canSteer": true
          },
          "TurnLeft_AS": {
            "$type": "NEDIFAKEGCO",
            "animatorStates": {
              "TurnLeft_AS": []
            },
            "canDoSkill": true,
            "canSyncMove": true,
            "resetAnimatorTriggerOnExit": ["DoSkill"],
            "canSteer": true
          },
          "TurnRight": {
            "$type": "NEDIFAKEGCO",
            "animatorStates": {
              "TurnRight": []
            },
            "canDoSkill": true,
            "canSyncMove": true,
            "resetAnimatorTriggerOnExit": ["DoSkill"],
            "canSteer": true
          },
          "TurnRight_AS": {
            "$type": "NEDIFAKEGCO",
            "animatorStates": {
              "TurnRight_AS": []
            },
            "canDoSkill": true,
            "canSyncMove": true,
            "resetAnimatorTriggerOnExit": ["DoSkill"],
            "canSteer": true
          },
          "BeHit": {
            "$type": "NEDIFAKEGCO",
            "animatorStates": {
              "Hit_H": ["Audio_Monster_Natsaurus_Drillhead_Small_Hit_H"],
              "Hit_L": []
            },
            "resetAnimatorTriggerOnEnter": ["BeHit"],
            "resetAnimatorTriggerOnExit": ["DoSkill"],
            "airMoveFollowAnimation": true
          },
          "BeHitThrow": {
            "$type": "NEDIFAKEGCO",
            "animatorStates": {
              "HitThrow": [],
              "HitThrowDrop": []
            },
            "resetAnimatorTriggerOnEnter": ["BeHit", "HitAir2HitDrop"],
            "resetAnimatorTriggerOnExit": ["DoSkill", "BeHit"],
            "setAnimatorBoolean": [
              {
                "name": "AirDie"
              }
            ]
          },
          "BeHitThrowToStandby": {
            "$type": "NEDIFAKEGCO",
            "animatorStates": {
              "HitThrowToGround": [
                "Audio_Monster_Natsaurus_Drillhead_Small_HitThrowGround"
              ]
            },
            "resetAnimatorTriggerOnEnter": ["BeHit", "HitAir2HitDrop"],
            "resetAnimatorTriggerOnExit": ["DoSkill", "BeHit"],
            "setAnimatorBoolean": [
              {
                "name": "AirDie",
                "normalizeEnd": 0.4000000059604645
              }
            ]
          },
          "Struggle": {
            "$type": "NEDIFAKEGCO",
            "animatorStates": {
              "Struggle": []
            },
            "resetAnimatorTriggerOnEnter": ["BeHit", "HitAir2HitDrop"],
            "resetAnimatorTriggerOnExit": ["DoSkill"]
          },
          "Die": {
            "$type": "NEDIFAKEGCO",
            "animatorStates": {
              "Die": [
                "Monster_Natsaurus_Drillhead_Small_Dig_BS",
                "Audio_Monster_Natsaurus_Drillhead_Small_Die"
              ],
              "Die_Loop": ["Monster_Natsaurus_Drillhead_Small_Die"],
              "SwimDie_BS": [],
              "SwimDie": ["Monster_Natsaurus_Drillhead_Small_Die"],
              "SwimDie_AS": [],
              "AirDie": ["Monster_Natsaurus_Drillhead_Small_Dig_BS"]
            },
            "resetAnimatorTriggerOnEnter": ["BeHit", "DoSkill", "BeHit"]
          },
          "Alert": {
            "$type": "NEDIFAKEGCO",
            "animatorStates": {
              "Alert": [
                "Monster_Natsaurus_Drillhead_Small_Alert",
                "Audio_Monster_Natsaurus_Drillhead_Small_Alert"
              ]
            },
            "resetAnimatorTriggerOnExit": ["BeHit", "DoSkill"],
            "canSteer": true
          },
          "Tease": {
            "$type": "NEDIFAKEGCO",
            "animatorStates": {
              "Tease": [
                "Partner_Natsaurus_Mosasaurus_Small_Response",
                "Audio_Monster_Natsaurus_Drillhead_Small_Tease"
              ]
            },
            "canDoSkill": true,
            "resetAnimatorTriggerOnEnter": ["DoSkill"],
            "resetAnimatorTriggerOnExit": ["DoSkill"]
          },
          "DigForward": {
            "$type": "NEDIFAKEGCO",
            "animatorStates": {
              "DigForward_BS": [
                "Audio_Monster_Natsaurus_Drillhead_Small_DigForward_BS"
              ],
              "DigForward_AS02": [
                "Monster_Natsaurus_Drillhead_Small_DigForward_AS",
                "Partner_Natsaurus_Mosasaurus_Small_Response"
              ]
            },
            "canDoSkill": true,
            "resetAnimatorTriggerOnEnter": ["DoSkill"],
            "resetAnimatorTriggerOnExit": ["DoSkill"]
          },
          "DigForward_Loop": {
            "$type": "NEDIFAKEGCO",
            "animatorStates": {
              "DigForward_BS02": [
                "Monster_Natsaurus_Drillhead_Small_DigForward_Loop"
              ],
              "DigForward_Loop": [],
              "DigForward_AS": [
                "Audio_Monster_Natsaurus_Drillhead_Small_DigForward_AS"
              ]
            },
            "canDoSkill": true,
            "resetAnimatorTriggerOnEnter": ["DoSkill"],
            "resetAnimatorTriggerOnExit": ["DoSkill"]
          },
          "Play": {
            "$type": "NEDIFAKEGCO",
            "animatorStates": {
              "Play": [
                "Partner_Natsaurus_Mosasaurus_Small_Response",
                "Audio_Monster_Natsaurus_Drillhead_Small_Play"
              ]
            },
            "canDoSkill": true,
            "resetAnimatorTriggerOnEnter": ["DoSkill"],
            "resetAnimatorTriggerOnExit": ["DoSkill"]
          },
          "Search": {
            "$type": "NEDIFAKEGCO",
            "animatorStates": {
              "Search_BS": [
                "Audio_Monster_Natsaurus_Drillhead_Small_Search_BS"
              ],
              "Search_Success02": [
                "Monster_Natsaurus_Drillhead_Small_Search_Success"
              ],
              "Search_AS": ["Audio_Monster_Natsaurus_Drillhead_Small_Search_AS"]
            },
            "canDoSkill": true,
            "resetAnimatorTriggerOnEnter": ["DoSkill"],
            "resetAnimatorTriggerOnExit": ["DoSkill"]
          },
          "Search_Loop": {
            "$type": "NEDIFAKEGCO",
            "animatorStates": {
              "Search_BS02": ["Monster_Natsaurus_Drillhead_Small_Search_Loop"],
              "Search_Loop": [],
              "Search_Success": [
                "Partner_Natsaurus_Mosasaurus_Small_Response",
                "Audio_Monster_Natsaurus_Drillhead_Small_Search_Success"
              ]
            },
            "canDoSkill": true,
            "resetAnimatorTriggerOnEnter": ["DoSkill"],
            "resetAnimatorTriggerOnExit": ["DoSkill"]
          },
          "Taunt": {
            "$type": "NEDIFAKEGCO",
            "animatorStates": {
              "Taunt": ["Audio_Monster_Natsaurus_Drillhead_Small_Taunt"]
            },
            "canDoSkill": true,
            "resetAnimatorTriggerOnEnter": ["DoSkill"],
            "resetAnimatorTriggerOnExit": ["DoSkill"]
          },
          "Rest": {
            "$type": "NEDIFAKEGCO",
            "animatorStates": {
              "Rest_AS": ["Audio_Monster_Natsaurus_Drillhead_Small_Rest_AS"],
              "Rest_BS": ["Audio_Monster_Natsaurus_Drillhead_Small_Rest_BS"]
            },
            "canDoSkill": true,
            "resetAnimatorTriggerOnEnter": ["DoSkill"],
            "resetAnimatorTriggerOnExit": ["DoSkill"]
          },
          "Aware": {
            "$type": "NEDIFAKEGCO",
            "animatorStates": {
              "Aware01_BS": [
                "Monster_Natsaurus_Mosasaurus_Normal_AwareIcon",
                "Audio_Monster_Natsaurus_Drillhead_Small_Aware01_BS"
              ],
              "Aware01_AS": [],
              "Aware02_BS": ["Monster_Natsaurus_Mosasaurus_Normal_AwareIcon"],
              "Aware02": [],
              "Aware03": [
                "Monster_Natsaurus_Mosasaurus_Normal_AwareIcon",
                "Audio_Monster_Natsaurus_Drillhead_Small_Aware03"
              ]
            },
            "canDoSkill": true,
            "resetAnimatorTriggerOnEnter": ["DoSkill"],
            "resetAnimatorTriggerOnExit": ["DoSkill"]
          },
          "TauntAware01": {
            "$type": "NEDIFAKEGCO",
            "animatorStates": {
              "TauntAware01_BS": [],
              "TauntAware01_Loop": [],
              "TauntAware01_Taunt": [],
              "TauntAware01_AS": []
            },
            "canDoSkill": true,
            "resetAnimatorTriggerOnEnter": ["DoSkill"],
            "resetAnimatorTriggerOnExit": ["DoSkill"]
          },
          "TauntAware02": {
            "$type": "NEDIFAKEGCO",
            "animatorStates": {
              "TauntAware02_BS": [],
              "TauntAware02": [],
              "TauntAware02_AS": []
            },
            "canDoSkill": true,
            "resetAnimatorTriggerOnEnter": ["DoSkill"],
            "resetAnimatorTriggerOnExit": ["DoSkill"]
          },
          "TauntAware03": {
            "$type": "NEDIFAKEGCO",
            "animatorStates": {
              "TauntAware03_BS": [],
              "TauntAware03": [],
              "TauntAware03_AS": []
            },
            "canDoSkill": true,
            "resetAnimatorTriggerOnEnter": ["DoSkill"],
            "resetAnimatorTriggerOnExit": ["DoSkill"]
          },
          "TauntAware04": {
            "$type": "NEDIFAKEGCO",
            "animatorStates": {
              "TauntAware04": [
                "Audio_Monster_Natsaurus_Drillhead_Small_TauntAware04"
              ],
              "TauntAware04_AS": []
            },
            "canDoSkill": true,
            "resetAnimatorTriggerOnEnter": ["DoSkill"],
            "resetAnimatorTriggerOnExit": ["DoSkill"],
            "canSteer": true,
            "followAnimRotation": true
          },
          "TauntAware05": {
            "$type": "NEDIFAKEGCO",
            "animatorStates": {
              "TauntAware05_BS": [],
              "TauntAware05": [],
              "TauntAware05_AS": []
            },
            "canDoSkill": true,
            "resetAnimatorTriggerOnEnter": ["DoSkill"],
            "resetAnimatorTriggerOnExit": ["DoSkill"]
          },
          "TauntAware06": {
            "$type": "NEDIFAKEGCO",
            "animatorStates": {
              "TauntAware06_BS": [],
              "TauntAware06": [],
              "TauntAware06_AS": []
            },
            "canDoSkill": true,
            "resetAnimatorTriggerOnEnter": ["DoSkill"],
            "resetAnimatorTriggerOnExit": ["DoSkill"]
          },
          "TauntAware07": {
            "$type": "NEDIFAKEGCO",
            "animatorStates": {
              "TauntAware07_BS": [],
              "TauntAware07": [],
              "TauntAware07_AS": []
            },
            "canDoSkill": true,
            "resetAnimatorTriggerOnEnter": ["DoSkill"],
            "resetAnimatorTriggerOnExit": ["DoSkill"]
          },
          "AwareEnd": {
            "$type": "NEDIFAKEGCO",
            "animatorStates": {
              "AwareEnd": []
            },
            "resetAnimatorTriggerOnEnter": ["DoSkill"],
            "resetAnimatorTriggerOnExit": ["DoSkill"]
          },
          "MeleeAttack01": {
            "$type": "NEDIFAKEGCO",
            "animatorStates": {
              "MeleeAttack01": [
                "Monster_Natsaurus_Drillhead_Small_MeleeAttack01",
                "Audio_Monster_Natsaurus_Drillhead_Small_Alert"
              ]
            },
            "resetAnimatorTriggerOnExit": ["BeHit", "DoSkill"],
            "canSteer": true
          },
          "Dig_BS": {
            "$type": "NEDIFAKEGCO",
            "animatorStates": {
              "Dig_BS": [
                "Monster_Natsaurus_Drillhead_Small_Dig_BS",
                "Audio_Monster_Natsaurus_Drillhead_Small_Dig_BS"
              ]
            },
            "resetAnimatorTriggerOnExit": ["BeHit", "DoSkill"],
            "canSteer": true
          },
          "Dig_Loop": {
            "$type": "NEDIFAKEGCO",
            "animatorStates": {
              "Dig_Loop": []
            },
            "resetAnimatorTriggerOnExit": ["BeHit", "DoSkill"],
            "canSteer": true
          },
          "Dig_AS": {
            "$type": "NEDIFAKEGCO",
            "animatorStates": {
              "Dig_AS": []
            },
            "resetAnimatorTriggerOnExit": ["BeHit", "DoSkill"],
            "canSteer": true
          },
          "Dig_Attack": {
            "$type": "NEDIFAKEGCO",
            "animatorStates": {
              "Dig_Attack": [
                "Monster_Natsaurus_Drillhead_Small_Dig_Attack01",
                "Audio_Monster_Natsaurus_Drillhead_Small_Dig_Attack"
              ]
            },
            "resetAnimatorTriggerOnExit": ["BeHit", "DoSkill"],
            "canSteer": true
          }
        }
      }
    },
    "audio": {
      "$type": "DEGGADLMEOK",
      "overrideEmitterName": "",
      "animAudio": {
        "onTransitionIn": [
          {
            "currentStateName": "DigForward_Loop",
            "audioEvent": {
              "text": "Play_Sfx_Monster_Natsaurus_Drillhead_Small_DigForward_Loop_LP"
            },
            "otherStateNames": ["DigForward_Loop"],
            "usage": "Except"
          },
          {
            "currentStateName": "Search_Loop",
            "audioEvent": {
              "text": "Play_Sfx_Monster_Natsaurus_Drillhead_Small_Search_Loop_LP"
            },
            "otherStateNames": ["Search_Loop"],
            "usage": "Except"
          }
        ],
        "onTransitionOut": [
          {
            "currentStateName": "DigForward_Loop",
            "audioEvent": {
              "text": "Stop_Sfx_Monster_Natsaurus_Drillhead_Small_DigForward_Loop_LP"
            },
            "otherStateNames": ["DigForward_Loop"],
            "usage": "Except"
          },
          {
            "currentStateName": "Search_Loop",
            "audioEvent": {
              "text": "Stop_Sfx_Monster_Natsaurus_Drillhead_Small_Search_Loop_LP"
            },
            "otherStateNames": ["Search_Loop"],
            "usage": "Except"
          }
        ]
      }
    },
    "aibeta": {
      "enable": true,
      "decisionArchetype": "Drillhead_Partner",
      "moveSetting": {
        "navMeshAgentName": "Undead01"
      },
      "aiCombat": {
        "broadcastFearOnDeath": false
      },
      "sensing": {
        "settings": {
          "DefaultSetting": {
            "viewRange": 20.0,
            "viewPanoramic": true,
            "feelRange": 7.0
          }
        }
      },
      "neurons": {
        "DefaultSetting": ["SEARCH"]
      },
      "threat": {
        "GHIJMOKOLMB": "",
        "clearThreatTargetDistance": 60.0,
        "clearThreatEdgeDistance": 0.5,
        "clearThreatByTargetOutOfZone": true,
        "FKEIHAPEHCC": false,
        "clearThreatTimerByDistance": 0.5,
        "clearThreatTimerByTargetOutOfZone": 0.5,
        "LHDJAIFLCOE": true,
        "threatDecreaseSpeed": 33.0,
        "viewAttenuation": [
          {
            "x": 7.0,
            "y": 10.0
          },
          {
            "x": 15.0,
            "y": 0.032999999821186066
          },
          {
            "x": 30.0,
            "y": 0.009999999776482582
          }
        ],
        "OIMBHHFADNC": [
          {
            "distance": 15.0,
            "ICJJNKNKCFB": [10.0]
          },
          {
            "distance": 30.0,
            "ICJJNKNKCFB": [7.0]
          }
        ],
        "IIOLFCGEIHN": true,
        "APJJOOLHDAA": [
          "SGV_Partner_Drillhead_Small_ValidTarget",
          "GV_Partner_Drillhead_Small_ValidTarget"
        ],
        "BJPDACBHNHL": 1.0
      },
      "defendArea": {
        "damageRatio": "Cylinder",
        "defendRange": 30.0,
        "height": 13.0
      },
      "profiling": {
        "lodStrategy": "Furina"
      },
      "skills": {
        "1": {
          "name": "OnAlert",
          "skillType": "OnAlert",
          "faceTarget": true,
          "publicCDGroup": "",
          "triggerGCD": false,
          "HHAGODJIAPE": "",
          "stateIDs": ["Alert"],
          "skillQueryingTime": 3.0,
          "flagTargetReachable": "10",
          "flagSelfOnTemplateCollider": "01",
          "flagSelfInZone": "10",
          "flagTargetInZone": "11"
        },
        "11": {
          "name": "OnAware",
          "skillType": "OnAware",
          "faceTarget": true,
          "publicCDGroup": "",
          "ignoreGCD": true,
          "triggerGCD": false,
          "HHAGODJIAPE": "",
          "stateIDs": ["Aware"],
          "skillQueryingTime": 3.0,
          "flagTargetReachable": "10",
          "flagSelfOnTemplateCollider": "01",
          "flagSelfInZone": "10",
          "flagTargetInZone": "11"
        },
        "12": {
          "name": "TauntAware01",
          "skillType": "Aware",
          "cd": 3.0,
          "cdUpperRange": 3.0,
          "initialCD": 1.0,
          "initialCDUpperRange": 6.0,
          "publicCDGroup": "",
          "HHAGODJIAPE": "",
          "stateIDs": ["TauntAware01"],
          "skillQueryingTime": 3.0,
          "flagTargetReachable": "11",
          "flagSelfOnTemplateCollider": "11",
          "flagSelfInZone": "11",
          "flagTargetInZone": "11"
        },
        "13": {
          "name": "TauntAware02",
          "skillType": "Aware",
          "cd": 3.0,
          "cdUpperRange": 3.0,
          "initialCD": 1.0,
          "initialCDUpperRange": 2.0,
          "publicCDGroup": "",
          "ignoreGCD": true,
          "triggerGCD": false,
          "HHAGODJIAPE": "",
          "stateIDs": ["TauntAware02"],
          "skillQueryingTime": 3.0,
          "flagTargetReachable": "11",
          "flagSelfOnTemplateCollider": "11",
          "flagSelfInZone": "11",
          "flagTargetInZone": "11"
        },
        "14": {
          "name": "TauntAware03",
          "skillType": "Aware",
          "cd": 3.0,
          "cdUpperRange": 3.0,
          "initialCD": 1.0,
          "initialCDUpperRange": 2.0,
          "publicCDGroup": "",
          "ignoreGCD": true,
          "triggerGCD": false,
          "HHAGODJIAPE": "",
          "stateIDs": ["TauntAware03"],
          "skillQueryingTime": 3.0,
          "flagTargetReachable": "11",
          "flagSelfOnTemplateCollider": "11",
          "flagSelfInZone": "11",
          "flagTargetInZone": "11"
        },
        "15": {
          "name": "TauntAware04",
          "skillType": "Aware",
          "cd": 6.0,
          "cdUpperRange": 12.0,
          "initialCD": 1.0,
          "initialCDUpperRange": 10.0,
          "publicCDGroup": "",
          "OHCPFFIDLGO": ["Golem_Legion_MeleeAtk"],
          "HHAGODJIAPE": "Natsaurus_Aware",
          "stateIDs": ["TauntAware04"],
          "skillQueryingTime": 3.0,
          "flagTargetReachable": "11",
          "flagSelfOnTemplateCollider": "11",
          "flagSelfInZone": "11",
          "flagTargetInZone": "11"
        },
        "16": {
          "name": "TauntAware05",
          "skillType": "Aware",
          "cd": 3.0,
          "cdUpperRange": 3.0,
          "initialCD": 1.0,
          "initialCDUpperRange": 6.0,
          "publicCDGroup": "",
          "HHAGODJIAPE": "",
          "stateIDs": ["TauntAware05"],
          "skillQueryingTime": 3.0,
          "flagTargetReachable": "11",
          "flagSelfOnTemplateCollider": "11",
          "flagSelfInZone": "11",
          "flagTargetInZone": "11"
        },
        "17": {
          "name": "TauntAware06",
          "skillType": "Aware",
          "cd": 3.0,
          "cdUpperRange": 3.0,
          "initialCD": 1.0,
          "initialCDUpperRange": 2.0,
          "publicCDGroup": "",
          "ignoreGCD": true,
          "triggerGCD": false,
          "HHAGODJIAPE": "",
          "stateIDs": ["TauntAware06"],
          "skillQueryingTime": 3.0,
          "flagTargetReachable": "11",
          "flagSelfOnTemplateCollider": "11",
          "flagSelfInZone": "11",
          "flagTargetInZone": "11"
        },
        "18": {
          "name": "TauntAware07",
          "skillType": "Aware",
          "cd": 3.0,
          "cdUpperRange": 3.0,
          "initialCD": 1.0,
          "initialCDUpperRange": 6.0,
          "publicCDGroup": "",
          "HHAGODJIAPE": "",
          "stateIDs": ["TauntAware07"],
          "skillQueryingTime": 3.0,
          "flagTargetReachable": "11",
          "flagSelfOnTemplateCollider": "11",
          "flagSelfInZone": "11",
          "flagTargetInZone": "11"
        },
        "101": {
          "name": "MeleeAttack01",
          "combatSkillType": "MeleeAttack",
          "priority": 3,
          "enableSkillPrepare": true,
          "castCondition": {
            "pose": [1],
            "BNLDGHLANLI": [0],
            "pickRangeMax": 8.0,
            "castRangeMax": 3.0
          },
          "cd": 5.0,
          "cdUpperRange": 1.0,
          "publicCDGroup": "",
          "HHAGODJIAPE": "",
          "stateIDs": ["MeleeAttack01"],
          "flagTargetReachable": "11",
          "flagSelfOnTemplateCollider": "11",
          "flagSelfInZone": "11",
          "flagTargetInZone": "11"
        },
        "201": {
          "name": "DigAttack",
          "combatSkillType": "MeleeAttack",
          "priority": 3,
          "castCondition": {
            "pose": [1],
            "BNLDGHLANLI": [0],
            "pickRangeMin": 10.0,
            "pickRangeMax": 15.0
          },
          "cd": 8.0,
          "cdUpperRange": 8.0,
          "initialCD": 1.0,
          "initialCDUpperRange": 3.0,
          "publicCDGroup": "",
          "HHAGODJIAPE": "",
          "stateIDs": ["Dig_BS", "Dig_Loop", "Dig_Attack", "Dig_AS"],
          "flagTargetReachable": "11",
          "flagSelfOnTemplateCollider": "11",
          "flagSelfInZone": "11",
          "flagTargetInZone": "11"
        },
        "10041": {
          "name": "ActionPoint_Search",
          "skillType": "ActionPoint",
          "priority": 3,
          "publicCDGroup": "",
          "ignoreGCD": true,
          "triggerGCD": false,
          "HHAGODJIAPE": "",
          "stateIDs": ["Search", "Search_Loop"],
          "skillQueryingTime": 3.0,
          "flagTargetReachable": "10",
          "flagSelfOnTemplateCollider": "01",
          "flagSelfInZone": "10",
          "flagTargetInZone": "11"
        },
        "10042": {
          "name": "ActionPoint_DigForward",
          "skillType": "ActionPoint",
          "priority": 3,
          "publicCDGroup": "",
          "ignoreGCD": true,
          "triggerGCD": false,
          "HHAGODJIAPE": "",
          "stateIDs": ["DigForward", "DigForward_Loop"],
          "skillQueryingTime": 3.0,
          "flagTargetReachable": "10",
          "flagSelfOnTemplateCollider": "01",
          "flagSelfInZone": "10",
          "flagTargetInZone": "11"
        },
        "10043": {
          "name": "ActionPoint_Play",
          "skillType": "ActionPoint",
          "priority": 3,
          "publicCDGroup": "",
          "ignoreGCD": true,
          "triggerGCD": false,
          "HHAGODJIAPE": "",
          "stateIDs": ["Play"],
          "skillQueryingTime": 3.0,
          "flagTargetReachable": "10",
          "flagSelfOnTemplateCollider": "01",
          "flagSelfInZone": "10",
          "flagTargetInZone": "11"
        },
        "10044": {
          "name": "ActionPoint_Investigate",
          "skillType": "ActionPoint",
          "priority": 3,
          "publicCDGroup": "",
          "ignoreGCD": true,
          "triggerGCD": false,
          "HHAGODJIAPE": "",
          "stateIDs": ["Tease"],
          "skillQueryingTime": 3.0,
          "flagTargetReachable": "10",
          "flagSelfOnTemplateCollider": "01",
          "flagSelfInZone": "10",
          "flagTargetInZone": "11"
        }
      },
      "skillGCD": 0.5,
      "target": {
        "defaultTargetPrioritys": [
          "COMMAND",
          "THREAT",
          "MASTER_SLOT_POS",
          "OWNER"
        ],
        "CONKAMLGKMK": true
      },
      "birdCirclingTactic": [
        {
          "$type": "NNJKLGNPMNN",
          "enable": true,
          "JMCOBEPDIGM": {
            "NBENNEKDIIA": 5.0,
            "ACOBCFCMBOC": "Auto",
            "MNPDDAKDHGK": "",
            "GJDMDHIBCME": "",
            "IAJDAHDAEFP": true
          }
        },
        {
          "$type": "EPHBMLFODKF",
          "enable": true,
          "condition": {
            "pose": [1]
          },
          "JMCOBEPDIGM": {
            "rangeMax": 5.0,
            "BFJBDDIIFOI": {
              "LLICGJHIGME": 0.5,
              "AEBLMKFNCDG": 0.0,
              "IGLIBIOEGBB": 0.0
            },
            "NAOBMNGDKHL": "1111",
            "JCNIJOAIGII": "1111",
            "IAGJBJHKMBF": true,
            "MNPDDAKDHGK": ""
          }
        },
        {
          "$type": "KACCHOLJDNK",
          "enable": true,
          "condition": {
            "pose": [1]
          },
          "JMCOBEPDIGM": {
            "KHDFDAAAPEI": 12.0,
            "HKJODDGJPHA": 25.0,
            "GGEBMFHFBPO": 6.0,
            "KFFGCIMPNMJ": 9.0,
            "MNPDDAKDHGK": ""
          },
          "PIOCBHLFLJP": {
            "2201": {
              "KHDFDAAAPEI": 9.0,
              "HKJODDGJPHA": 25.0,
              "GGEBMFHFBPO": 9.0,
              "KFFGCIMPNMJ": 10.0,
              "MNPDDAKDHGK": ""
            }
          }
        },
        {
          "$type": "FPELBIJFGCE",
          "enable": true,
          "condition": {
            "pose": [1001]
          },
          "JMCOBEPDIGM": {
            "NBENNEKDIIA": 2.0,
            "KPNDPKIOPJM": 3.0,
            "PINAFKEDDLL": 1.5,
            "ANMPOPEBDIA": 10.0,
            "GMJFIMFFOEL": 2.75,
            "CHCPFDMADEI": 4.5,
            "MNPDDAKDHGK": ""
          }
        },
        {
          "$type": "MCDGOJLCMBM",
          "condition": {
            "pose": [1002]
          },
          "JMCOBEPDIGM": {
            "DMGAHPPFMPK": 2.0,
            "FLENLLDBFGP": 2.0,
            "ACOBCFCMBOC": "Auto",
            "MNPDDAKDHGK": "",
            "GJDMDHIBCME": ""
          }
        },
        {
          "$type": "COLLJLNKMLC",
          "condition": {
            "pose": [1002]
          },
          "JMCOBEPDIGM": {
            "ANLAAGAMIKF": 1,
            "MNPDDAKDHGK": "",
            "GJDMDHIBCME": "",
            "ACOBCFCMBOC": "Auto",
            "PLLHMGHOAPB": "",
            "KPIJNGFNAEF": "",
            "GDPHPLKJGAJ": "",
            "KKKOAABEHEP": ""
          }
        },
        {
          "$type": "AOMGMAHGNIO",
          "enable": true,
          "condition": {
            "pose": [1003, 1040, 1041]
          },
          "JMCOBEPDIGM": {
            "LEGOOCKKGNE": 99.0,
            "GGEBMFHFBPO": 3.5,
            "BCFEBFGGNKC": 10.0,
            "KFFGCIMPNMJ": 6.0,
            "PKNJDNAGLNM": 1,
            "DCGOANLCMOC": 60.0,
            "NBENNEKDIIA": 0.75,
            "CNOEOAJEBOK": 0.8999999761581421,
            "FLPMDIAJDKL": false,
            "MNPDDAKDHGK": ""
          }
        },
        {
          "$type": "HGJGHLOFFHM",
          "enable": true,
          "condition": {
            "pose": [1040, 1041]
          },
          "JMCOBEPDIGM": {
            "INNFLICONNE": [
              {
                "pointType": "MiningPoint",
                "detectDistance": 10.0,
                "pose": [1040, 1041],
                "nerveTrigger": ["SEARCH"],
                "skillID": 10041
              },
              {
                "pointType": "PreachPoint",
                "detectDistance": 10.0,
                "pose": [1040, 1041],
                "nerveTrigger": ["SEARCH"],
                "skillID": 10042
              },
              {
                "pointType": "KidPlayPoint",
                "detectDistance": 10.0,
                "pose": [1040, 1041],
                "nerveTrigger": ["SEARCH"],
                "skillID": 10043
              },
              {
                "pointType": "InvestigatePoint",
                "detectDistance": 10.0,
                "pose": [1040, 1041],
                "nerveTrigger": ["SEARCH"],
                "skillID": 10044
              }
            ]
          }
        }
      ]
    },
    "HMPFHELDFKO": true
  },
  "SceneObj_Area_Nt_Property_Ani_Prop_Natsaurus_Drillhead_Small_02": {
    "$type": "CJKJIENLOHD",
    "common": {
      "effectAttachShape": {
        "$type": "FJNPJANPGGC",
        "mesh": "EffectMesh"
      },
      "mass": 30.0,
      "disableTickDistance": 100000.0,
      "enableCrashDamage": false,
      "reconnectSupport": true,
      "recoverByInitPose": true
    },
    "model": {
      "bornEffect": "",
      "attachEffect": "",
      "hasCharacterRenderering": true,
      "BKPFGNPLDNJ": ""
    },
    "KJGJCNANPJP": true,
    "hasModel": true,
    "moveRefreshGroundForceUp": false,
    "combat": {
      "property": {
        "endureType": "Monster_Slime",
        "useCreatorProperty": true,
        "levelOption": "Creator",
        "weight": 200.0,
        "isLockHP": true
      },
      "beHit": {
        "hitBloodEffect": "",
        "muteAllHitText": true
      },
      "combatLock": {
        "lockShape": "CircleLockEnemy",
        "denyLockOn": true,
        "lockType": "Default"
      },
      "die": {
        "dieDisappearEffect": "Eff_Death_Common"
      },
      "animEvents": {
        "AE_DigAtk": {
          "attackPattern": {
            "$type": "ConfigAttackCircle",
            "triggerType": "TriggerNoRepeat",
            "born": {
              "$type": "ConfigBornBySelf",
              "offset": {
                "x": 0.0,
                "y": 0.0,
                "z": 0.0
              }
            },
            "height": 1.25,
            "fanAngle": 60.0,
            "radius": 2.299999952316284
          },
          "attackInfo": {
            "attackTag": "",
            "attenuationTag": "",
            "attenuationGroup": "default",
            "attackProperty": {
              "actorGrassSubHurtDelta": 1.0,
              "actorWindSubHurtDelta": 0.0,
              "elementDurability": 100.0,
              "strikeType": "Blunt",
              "GLKMCMDJBIK": 0.0
            },
            "hitPattern": {
              "onHitEffectName": "default",
              "hitImpulseY": "",
              "hitImpulseType": "LV3"
            },
            "cameraShake": {
              "shakeRange": 0.4000000059604645,
              "shakeTime": 0.15000000596046448,
              "shakeDistance": 30.0
            }
          }
        },
        "AE_MeleeAtk": {
          "attackPattern": {
            "$type": "ConfigAttackBox",
            "triggerType": "TriggerNoRepeat",
            "born": {
              "$type": "ConfigBornBySelf",
              "offset": {
                "x": 0.0,
                "y": 1.0,
                "z": 0.75
              }
            },
            "size": {
              "x": 1.2999999523162842,
              "y": 1.2999999523162842,
              "z": 2.5
            }
          },
          "attackInfo": {
            "attackTag": "",
            "attenuationTag": "",
            "attenuationGroup": "default",
            "attackProperty": {
              "actorGrassSubHurtDelta": 1.0,
              "actorWindSubHurtDelta": 0.0,
              "elementDurability": 100.0,
              "strikeType": "Blunt",
              "GLKMCMDJBIK": 0.0
            },
            "hitPattern": {
              "onHitEffectName": "default",
              "hitImpulseY": "",
              "hitImpulseType": "LV3"
            },
            "cameraShake": {
              "shakeRange": 0.4000000059604645,
              "shakeTime": 0.15000000596046448,
              "shakeDistance": 30.0
            }
          }
        },
        "AE_DigAtk_WQ": {
          "attackPattern": {
            "$type": "ConfigAttackCircle",
            "triggerType": "TriggerNoRepeat",
            "born": {
              "$type": "ConfigBornBySelf",
              "offset": {
                "x": 0.0,
                "y": 0.0,
                "z": 0.0
              }
            },
            "height": 1.25,
            "fanAngle": 60.0,
            "radius": 2.299999952316284
          },
          "attackInfo": {
            "attackTag": "DrillheadSpecialAttack",
            "attenuationTag": "",
            "attenuationGroup": "default",
            "attackProperty": {
              "actorGrassSubHurtDelta": 40.0,
              "actorWindSubHurtDelta": 0.0,
              "elementType": "Rock",
              "elementDurability": 50.0,
              "strikeType": "Blunt",
              "GLKMCMDJBIK": 0.0
            },
            "hitPattern": {
              "onHitEffectName": "Eff_Monster_Natsaurus_Drillhead_Small_WQ_SP_Attack_Hit",
              "hitImpulseY": "",
              "hitImpulseType": "LV3"
            },
            "cameraShake": {
              "shakeRange": 0.4000000059604645,
              "shakeTime": 0.15000000596046448,
              "shakeDistance": 30.0
            }
          }
        },
        "AE_MeleeAtk_WQ": {
          "attackPattern": {
            "$type": "ConfigAttackBox",
            "triggerType": "TriggerNoRepeat",
            "born": {
              "$type": "ConfigBornBySelf",
              "offset": {
                "x": 0.0,
                "y": 1.0,
                "z": 0.75
              }
            },
            "size": {
              "x": 1.2999999523162842,
              "y": 1.2999999523162842,
              "z": 2.5
            }
          },
          "attackInfo": {
            "attackTag": "DrillheadSpecialAttack",
            "attenuationTag": "",
            "attenuationGroup": "default",
            "attackProperty": {
              "actorGrassSubHurtDelta": 40.0,
              "actorWindSubHurtDelta": 0.0,
              "elementType": "Rock",
              "elementDurability": 50.0,
              "strikeType": "Blunt",
              "GLKMCMDJBIK": 0.0
            },
            "hitPattern": {
              "onHitEffectName": "Eff_Monster_Natsaurus_Drillhead_Small_WQ_SP_Attack_Hit",
              "hitImpulseY": "",
              "hitImpulseType": "LV3"
            },
            "cameraShake": {
              "shakeRange": 0.4000000059604645,
              "shakeTime": 0.15000000596046448,
              "shakeDistance": 30.0
            }
          }
        }
      }
    },
    "combatTemplate": "",
    "abilities": [
      {
        "abilityID": "",
        "abilityName": "Partner_Natsaurus_Drillhead_Small_WQ_SteerManager",
        "abilityOverride": ""
      },
      {
        "abilityID": "",
        "abilityName": "Partner_Natsaurus_Drillhead_Small_WQ_StateManager",
        "abilityOverride": ""
      },
      {
        "abilityID": "",
        "abilityName": "Partner_Natsaurus_Drillhead_Small_WQ_Transform",
        "abilityOverride": ""
      },
      {
        "abilityID": "",
        "abilityName": "Partner_Natsaurus_Drillhead_Small_WQ_Heal",
        "abilityOverride": ""
      },
      {
        "abilityID": "",
        "abilityName": "Monster_Natsaurus_Drillhead_Small_WQ_DigManager",
        "abilityOverride": ""
      }
    ],
    "timer": {
      "lifeInfinite": true
    },
    "move": {
      "$type": "IPNMJMHDMPF",
      "handleCombatTaskImmediately": true,
      "yawSpeedRatio": 2.0,
      "PKHOMJHFAEE": "RootNode"
    },
    "stateLayers": {
      "defaultLayer": {
        "$type": "GBGJJIIEMBD",
        "layerIndexName": "",
        "CPAANEIJCGD": "",
        "stateIDs": {
          "Born": {
            "$type": "NEDIFAKEGCO",
            "animatorStates": {
              "Born": [],
              "Born_AS": [
                "Monster_Natsaurus_Drillhead_Small_Born",
                "Audio_Natsaurus_Vehicle_DrillHead_Normal_DrillingIdle_Exit_From_Ground"
              ]
            }
          },
          "NormalIdle": {
            "$type": "NEDIFAKEGCO",
            "animatorStates": {
              "Standby": []
            },
            "canDoSkill": true,
            "canSyncMove": true,
            "resetAnimatorTriggerOnExit": ["DoSkill"],
            "canSteer": true
          },
          "NormalMove": {
            "$type": "NEDIFAKEGCO",
            "animatorStates": {
              "Run": ["Audio_Monster_Natsaurus_Drillhead_Small_Walk"],
              "WalkForward": ["Audio_Monster_Natsaurus_Drillhead_Small_Walk"],
              "WalkBack": ["Audio_Monster_Natsaurus_Drillhead_Small_Walk"]
            },
            "canDoSkill": true,
            "canSyncMove": true,
            "resetAnimatorTriggerOnExit": ["DoSkill"],
            "canSteer": true
          },
          "TurnLeft": {
            "$type": "NEDIFAKEGCO",
            "animatorStates": {
              "TurnLeft": []
            },
            "canDoSkill": true,
            "canSyncMove": true,
            "resetAnimatorTriggerOnExit": ["DoSkill"],
            "canSteer": true
          },
          "TurnLeft_AS": {
            "$type": "NEDIFAKEGCO",
            "animatorStates": {
              "TurnLeft_AS": []
            },
            "canDoSkill": true,
            "canSyncMove": true,
            "resetAnimatorTriggerOnExit": ["DoSkill"],
            "canSteer": true
          },
          "TurnRight": {
            "$type": "NEDIFAKEGCO",
            "animatorStates": {
              "TurnRight": []
            },
            "canDoSkill": true,
            "canSyncMove": true,
            "resetAnimatorTriggerOnExit": ["DoSkill"],
            "canSteer": true
          },
          "TurnRight_AS": {
            "$type": "NEDIFAKEGCO",
            "animatorStates": {
              "TurnRight_AS": []
            },
            "canDoSkill": true,
            "canSyncMove": true,
            "resetAnimatorTriggerOnExit": ["DoSkill"],
            "canSteer": true
          },
          "BeHit": {
            "$type": "NEDIFAKEGCO",
            "animatorStates": {
              "Hit_H": ["Audio_Monster_Natsaurus_Drillhead_Small_Hit_H"],
              "Hit_L": []
            },
            "resetAnimatorTriggerOnEnter": ["BeHit"],
            "resetAnimatorTriggerOnExit": ["DoSkill"],
            "airMoveFollowAnimation": true
          },
          "BeHitThrow": {
            "$type": "NEDIFAKEGCO",
            "animatorStates": {
              "HitThrow": [],
              "HitThrowDrop": []
            },
            "resetAnimatorTriggerOnEnter": ["BeHit", "HitAir2HitDrop"],
            "resetAnimatorTriggerOnExit": ["DoSkill", "BeHit"],
            "setAnimatorBoolean": [
              {
                "name": "AirDie"
              }
            ]
          },
          "BeHitThrowToStandby": {
            "$type": "NEDIFAKEGCO",
            "animatorStates": {
              "HitThrowToGround": [
                "Audio_Monster_Natsaurus_Drillhead_Small_HitThrowGround"
              ]
            },
            "resetAnimatorTriggerOnEnter": ["BeHit", "HitAir2HitDrop"],
            "resetAnimatorTriggerOnExit": ["DoSkill", "BeHit"],
            "setAnimatorBoolean": [
              {
                "name": "AirDie",
                "normalizeEnd": 0.4000000059604645
              }
            ]
          },
          "Struggle": {
            "$type": "NEDIFAKEGCO",
            "animatorStates": {
              "Struggle": []
            },
            "resetAnimatorTriggerOnEnter": ["BeHit", "HitAir2HitDrop"],
            "resetAnimatorTriggerOnExit": ["DoSkill"]
          },
          "Die": {
            "$type": "NEDIFAKEGCO",
            "animatorStates": {
              "Die": ["Audio_Monster_Natsaurus_Drillhead_Small_Die"],
              "SwimDie_BS": [],
              "SwimDie": [],
              "SwimDie_AS": [],
              "AirDie": []
            },
            "resetAnimatorTriggerOnEnter": ["BeHit", "DoSkill", "BeHit"]
          },
          "Alert": {
            "$type": "NEDIFAKEGCO",
            "animatorStates": {
              "Alert": [
                "Monster_Natsaurus_Drillhead_Small_Alert",
                "Audio_Monster_Natsaurus_Drillhead_Small_Alert"
              ]
            },
            "resetAnimatorTriggerOnExit": ["BeHit", "DoSkill"],
            "canSteer": true
          },
          "MeleeAttack01": {
            "$type": "NEDIFAKEGCO",
            "animatorStates": {
              "MeleeAttack01": [
                "Monster_Natsaurus_Drillhead_Small_MeleeAttack01",
                "Audio_Monster_Natsaurus_Drillhead_Small_MeleeAttack"
              ]
            },
            "resetAnimatorTriggerOnExit": ["BeHit", "DoSkill"],
            "canSteer": true
          },
          "Dig_BS": {
            "$type": "NEDIFAKEGCO",
            "animatorStates": {
              "Dig_BS": [
                "Monster_Natsaurus_Drillhead_Small_Dig_BS",
                "Audio_Monster_Natsaurus_Drillhead_Small_Dig_BS"
              ]
            },
            "resetAnimatorTriggerOnExit": ["BeHit", "DoSkill"],
            "canSteer": true
          },
          "Dig_Loop": {
            "$type": "NEDIFAKEGCO",
            "animatorStates": {
              "Dig_Loop": []
            },
            "resetAnimatorTriggerOnExit": ["BeHit", "DoSkill"],
            "canSteer": true
          },
          "Dig_AS": {
            "$type": "NEDIFAKEGCO",
            "animatorStates": {
              "Dig_AS": []
            },
            "resetAnimatorTriggerOnExit": ["BeHit", "DoSkill"],
            "canSteer": true
          },
          "Dig_Attack": {
            "$type": "NEDIFAKEGCO",
            "animatorStates": {
              "Dig_Attack": [
                "Monster_Natsaurus_Drillhead_Small_Dig_Attack01",
                "Audio_Monster_Natsaurus_Drillhead_Small_Dig_Attack"
              ]
            },
            "resetAnimatorTriggerOnExit": ["BeHit", "DoSkill"],
            "canSteer": true
          },
          "Transform": {
            "$type": "NEDIFAKEGCO",
            "animatorStates": {
              "Transform_BS": [],
              "Transform_Loop": []
            },
            "resetAnimatorTriggerOnExit": ["BeHit", "DoSkill"],
            "canSteer": true
          },
          "Transform_AS": {
            "$type": "NEDIFAKEGCO",
            "animatorStates": {
              "Transform_Over": [
                "Partner_Natsaurus_Drillhead_Small_WQ_Transform_Over"
              ],
              "Transform_Fall": [
                "Partner_Natsaurus_Drillhead_Small_WQ_Transform_Fall"
              ],
              "Transform_AS": []
            },
            "resetAnimatorTriggerOnExit": ["BeHit", "DoSkill"],
            "canSteer": true
          }
        }
      }
    },
    "audio": {
      "$type": "DEGGADLMEOK",
      "overrideEmitterName": "",
      "animAudio": {
        "onTransitionIn": [
          {
            "currentStateName": "DigForward_Loop",
            "audioEvent": {
              "text": "Play_Sfx_Monster_Natsaurus_Drillhead_Small_DigForward_Loop_LP"
            },
            "otherStateNames": ["DigForward_Loop"],
            "usage": "Except"
          },
          {
            "currentStateName": "Search_Loop",
            "audioEvent": {
              "text": "Play_Sfx_Monster_Natsaurus_Drillhead_Small_Search_Loop_LP"
            },
            "otherStateNames": ["Search_Loop"],
            "usage": "Except"
          }
        ],
        "onTransitionOut": [
          {
            "currentStateName": "DigForward_Loop",
            "audioEvent": {
              "text": "Stop_Sfx_Monster_Natsaurus_Drillhead_Small_DigForward_Loop_LP"
            },
            "otherStateNames": ["DigForward_Loop"],
            "usage": "Except"
          },
          {
            "currentStateName": "Search_Loop",
            "audioEvent": {
              "text": "Stop_Sfx_Monster_Natsaurus_Drillhead_Small_Search_Loop_LP"
            },
            "otherStateNames": ["Search_Loop"],
            "usage": "Except"
          }
        ]
      }
    },
    "aibeta": {
      "enable": true,
      "decisionArchetype": "Drillhead_Partner",
      "moveSetting": {
        "navMeshAgentName": "Undead01"
      },
      "aiCombat": {
        "broadcastFearOnDeath": false
      },
      "sensing": {
        "settings": {
          "DefaultSetting": {
            "enableVision": false,
            "feelRange": 500.0
          }
        }
      },
      "threat": {
        "GHIJMOKOLMB": "",
        "clearThreatTargetDistance": 200.0,
        "clearThreatEdgeDistance": 0.5,
        "FKEIHAPEHCC": false,
        "clearThreatTimerByDistance": 0.5,
        "LHDJAIFLCOE": true,
        "threatDecreaseSpeed": 33.0,
        "viewAttenuation": [
          {
            "x": 7.0,
            "y": 10.0
          },
          {
            "x": 15.0,
            "y": 0.032999999821186066
          },
          {
            "x": 30.0,
            "y": 0.009999999776482582
          }
        ]
      },
      "defendArea": {
        "damageRatio": "Cylinder",
        "defendRange": 200.0,
        "height": 30.0
      },
      "profiling": {
        "lodStrategy": "Furina"
      },
      "skills": {
        "1": {
          "name": "OnAlert",
          "skillType": "OnAlert",
          "faceTarget": true,
          "publicCDGroup": "",
          "triggerGCD": false,
          "HHAGODJIAPE": "",
          "stateIDs": ["Alert"],
          "skillQueryingTime": 3.0,
          "flagTargetReachable": "10",
          "flagSelfOnTemplateCollider": "01",
          "flagSelfInZone": "10",
          "flagTargetInZone": "11"
        },
        "101": {
          "name": "MeleeAttack01",
          "combatSkillType": "MeleeAttack",
          "priority": 3,
          "enableSkillPrepare": true,
          "castCondition": {
            "pose": [1],
            "BNLDGHLANLI": [0],
            "pickRangeMax": 8.0,
            "pickRangeYMax": 1.0,
            "targetSkillAnchorRangeMax": 40.0,
            "castRangeMax": 3.0
          },
          "cd": 5.0,
          "cdUpperRange": 1.0,
          "publicCDGroup": "",
          "HHAGODJIAPE": "",
          "stateIDs": ["MeleeAttack01"],
          "flagTargetReachable": "11",
          "flagSelfOnTemplateCollider": "11",
          "flagSelfInZone": "11",
          "flagTargetInZone": "11"
        },
        "102": {
          "name": "MeleeAttack01",
          "combatSkillType": "MeleeAttack",
          "priority": 3,
          "enableSkillPrepare": true,
          "castCondition": {
            "pose": [2],
            "BNLDGHLANLI": [0],
            "pickRangeMax": 16.0,
            "pickRangeYMax": 10.0,
            "targetSkillAnchorRangeMax": 40.0,
            "castRangeMax": 11.0
          },
          "cd": 1.0,
          "publicCDGroup": "",
          "HHAGODJIAPE": "",
          "stateIDs": ["MeleeAttack01"],
          "flagTargetReachable": "11",
          "flagSelfOnTemplateCollider": "11",
          "flagSelfInZone": "11",
          "flagTargetInZone": "11"
        },
        "103": {
          "name": "MeleeAttack01",
          "combatSkillType": "MeleeAttack",
          "priority": 3,
          "enableSkillPrepare": true,
          "castCondition": {
            "pose": [3],
            "BNLDGHLANLI": [0],
            "pickRangeMax": 9.0,
            "pickRangeYMax": 10.0,
            "targetSkillAnchorRangeMax": 40.0,
            "castRangeMax": 4.0
          },
          "cd": 1.0,
          "publicCDGroup": "",
          "HHAGODJIAPE": "",
          "stateIDs": ["MeleeAttack01"],
          "flagTargetReachable": "11",
          "flagSelfOnTemplateCollider": "11",
          "flagSelfInZone": "11",
          "flagTargetInZone": "11"
        },
        "201": {
          "name": "DigAttack",
          "combatSkillType": "MeleeAttack",
          "priority": 3,
          "castCondition": {
            "pose": [1],
            "BNLDGHLANLI": [0],
            "pickRangeMin": 8.0,
            "pickRangeMax": 15.0,
            "pickRangeYMax": 10.0,
            "targetSkillAnchorRangeMax": 40.0
          },
          "cd": 8.0,
          "cdUpperRange": 8.0,
          "initialCD": 1.0,
          "initialCDUpperRange": 3.0,
          "publicCDGroup": "",
          "HHAGODJIAPE": "",
          "stateIDs": ["Dig_BS", "Dig_Loop", "Dig_Attack", "Dig_AS"],
          "flagTargetReachable": "11",
          "flagSelfOnTemplateCollider": "11",
          "flagSelfInZone": "11",
          "flagTargetInZone": "11"
        },
        "202": {
          "name": "DigAttack",
          "combatSkillType": "MeleeAttack",
          "castCondition": {
            "pose": [2],
            "BNLDGHLANLI": [0],
            "pickRangeMin": 16.0,
            "pickRangeMax": 45.0,
            "pickRangeYMax": 10.0,
            "targetSkillAnchorRangeMax": 40.0
          },
          "publicCDGroup": "",
          "HHAGODJIAPE": "",
          "stateIDs": ["Dig_BS", "Dig_Loop", "Dig_Attack", "Dig_AS"],
          "flagTargetReachable": "11",
          "flagSelfOnTemplateCollider": "11",
          "flagSelfInZone": "11",
          "flagTargetInZone": "11"
        },
        "203": {
          "name": "DigAttack",
          "combatSkillType": "MeleeAttack",
          "castCondition": {
            "pose": [3],
            "BNLDGHLANLI": [0],
            "pickRangeMin": 9.0,
            "pickRangeMax": 45.0,
            "pickRangeYMax": 10.0,
            "targetSkillAnchorRangeMax": 40.0
          },
          "cd": 1.0,
          "publicCDGroup": "",
          "HHAGODJIAPE": "",
          "stateIDs": ["Dig_BS", "Dig_Loop", "Dig_Attack", "Dig_AS"],
          "flagTargetReachable": "11",
          "flagSelfOnTemplateCollider": "11",
          "flagSelfInZone": "11",
          "flagTargetInZone": "11"
        },
        "301": {
          "name": "Transform",
          "priority": 1,
          "castCondition": {
            "pose": [2],
            "BNLDGHLANLI": [0]
          },
          "cd": 999999.0,
          "publicCDGroup": "",
          "HHAGODJIAPE": "",
          "stateIDs": ["Transform", "Transform_AS"],
          "flagTargetReachable": "11",
          "flagSelfOnTemplateCollider": "11",
          "flagSelfInZone": "11",
          "flagTargetInZone": "11"
        }
      },
      "skillGCD": 0.5,
      "target": {
        "defaultTargetPrioritys": ["THREAT", "MASTER_SLOT_POS", "OWNER"],
        "CONKAMLGKMK": true
      },
      "birdCirclingTactic": [
        {
          "$type": "NNJKLGNPMNN",
          "enable": true,
          "JMCOBEPDIGM": {
            "NBENNEKDIIA": 5.0,
            "ACOBCFCMBOC": "Auto",
            "MNPDDAKDHGK": "",
            "GJDMDHIBCME": "",
            "EPBDDFIMPLG": true,
            "ACDLKLIABAA": 50.0,
            "IAJDAHDAEFP": true
          }
        },
        {
          "$type": "EPHBMLFODKF",
          "enable": true,
          "condition": {
            "pose": [1, 2, 3]
          },
          "JMCOBEPDIGM": {
            "rangeMax": 5.0,
            "BFJBDDIIFOI": {
              "LLICGJHIGME": 0.5,
              "AEBLMKFNCDG": 0.0,
              "IGLIBIOEGBB": 0.0
            },
            "NAOBMNGDKHL": "1111",
            "JCNIJOAIGII": "1111",
            "IAGJBJHKMBF": true,
            "MNPDDAKDHGK": ""
          },
          "PIOCBHLFLJP": {
            "2": {
              "rangeMin": 12.0,
              "rangeMax": 15.0,
              "BFJBDDIIFOI": {
                "LLICGJHIGME": 0.5,
                "IDEFILBHNAP": 0.0,
                "AEBLMKFNCDG": 0.0,
                "IGLIBIOEGBB": 0.0
              },
              "NAOBMNGDKHL": "1111",
              "JCNIJOAIGII": "1111",
              "IAGJBJHKMBF": true,
              "MNPDDAKDHGK": ""
            },
            "3": {
              "rangeMin": 5.0,
              "rangeMax": 8.0,
              "BFJBDDIIFOI": {
                "LLICGJHIGME": 0.5,
                "IDEFILBHNAP": 0.0,
                "AEBLMKFNCDG": 0.0,
                "IGLIBIOEGBB": 0.0
              },
              "NAOBMNGDKHL": "1111",
              "JCNIJOAIGII": "1111",
              "IAGJBJHKMBF": true,
              "MNPDDAKDHGK": ""
            }
          }
        },
        {
          "$type": "KACCHOLJDNK",
          "enable": true,
          "condition": {
            "pose": [1, 2, 3]
          },
          "JMCOBEPDIGM": {
            "KHDFDAAAPEI": 12.0,
            "HKJODDGJPHA": 99.0,
            "GGEBMFHFBPO": 6.0,
            "KFFGCIMPNMJ": 9.0,
            "MNPDDAKDHGK": ""
          },
          "PIOCBHLFLJP": {
            "2": {
              "KHDFDAAAPEI": 18.0,
              "HKJODDGJPHA": 99.0,
              "GGEBMFHFBPO": 10.0,
              "KFFGCIMPNMJ": 14.0,
              "MNPDDAKDHGK": ""
            }
          }
        },
        {
          "$type": "FPELBIJFGCE",
          "enable": true,
          "condition": {
            "pose": [1001]
          },
          "JMCOBEPDIGM": {
            "NBENNEKDIIA": 2.0,
            "KPNDPKIOPJM": 3.0,
            "PINAFKEDDLL": 1.5,
            "ANMPOPEBDIA": 10.0,
            "GMJFIMFFOEL": 2.75,
            "CHCPFDMADEI": 4.5,
            "MNPDDAKDHGK": ""
          }
        },
        {
          "$type": "AOMGMAHGNIO",
          "enable": true,
          "condition": {
            "pose": [1003]
          },
          "JMCOBEPDIGM": {
            "LEGOOCKKGNE": 99.0,
            "GGEBMFHFBPO": 3.5,
            "BCFEBFGGNKC": 10.0,
            "KFFGCIMPNMJ": 6.0,
            "JMFANEAJLCH": 5,
            "NFFBMIAKAJO": 1,
            "PKNJDNAGLNM": 1,
            "DCGOANLCMOC": 60.0,
            "NBENNEKDIIA": 0.75,
            "CNOEOAJEBOK": 0.8999999761581421,
            "FLPMDIAJDKL": false,
            "MNPDDAKDHGK": ""
          }
        }
      ]
    },
    "HMPFHELDFKO": true
  }
}
