{
  "WaterAmber_Mist": {
    "$type": "CJKJIENLOHD",
    "combat": {
      "property": {
        "hp": 100.0,
        "attack": 10.0,
        "isLockHP": true,
        "isGhostToAllied": true,
        "isGhostToEnemy": true,
        "canTriggerBullet": false
      }
    },
    "combatTemplate": "",
    "abilities": [
      {
        "abilityID": "Mist",
        "abilityName": "WaterAmber_Mist",
        "abilityOverride": ""
      }
    ],
    "field": {
      "shape": "CircleR3",
      "fromShape": "",
      "triggerInfinite": true,
      "checkInterval": 0.5,
      "lifeTime": 25.0,
      "colliderName": "",
      "fromColliderName": ""
    }
  },
  "SteamBangField": {
    "$type": "CJKJIENLOHD",
    "common": {
      "effectAttachShape": {
        "$type": "OMIODKONOMG",
        "scaleX": 3.0,
        "scaleZ": 3.0
      }
    },
    "combat": {
      "property": {
        "hp": 100.0,
        "attack": 10.0,
        "isLockHP": true,
        "canTriggerBullet": false
      }
    },
    "combatTemplate": "",
    "abilities": [
      {
        "abilityID": "SteamBangLoop",
        "abilityName": "Test_SteamBangLoop",
        "abilityOverride": ""
      }
    ],
    "field": {
      "shape": "CircleR3",
      "fromShape": "",
      "triggerInfinite": true,
      "checkInterval": 0.5,
      "lifeTime": 60.0,
      "colliderName": "",
      "fromColliderName": ""
    }
  },
  "RainyCloud": {
    "$type": "CJKJIENLOHD",
    "combat": {
      "property": {
        "hp": 9999.0,
        "isInvincible": true,
        "isGhostToEnemy": true,
        "canTriggerBullet": false
      },
      "beHit": {
        "hitBloodEffect": "",
        "hitAutoRedirect": false,
        "muteAllHit": true,
        "muteAllHitEffect": true,
        "muteAllHitText": true
      },
      "die": {
        "dieForceDisappearTime": 8.0,
        "dieDisappearEffect": ""
      }
    },
    "combatTemplate": "",
    "abilities": [
      {
        "abilityID": "Rain",
        "abilityName": "Raining",
        "abilityOverride": ""
      }
    ]
  },
  "WindAmberField": {
    "$type": "CJKJIENLOHD",
    "combatTemplate": "",
    "abilities": [
      {
        "abilityID": "WindAmberField",
        "abilityName": "WindAmberField",
        "abilityOverride": ""
      }
    ],
    "timer": {
      "lifeTime": 20.0
    },
    "misc": {
      "forceField": {
        "$type": "NJNBPMFBLMP",
        "specialTipsIconPath": "",
        "velocity": 10.0,
        "scale": 1.5,
        "stayEffect": "Eff_Windfield_Stay",
        "enterEffect": "Eff_Windfield_Enter"
      },
      "escapeEffect": ""
    }
  },
  "WindAmberField_02": {
    "$type": "CJKJIENLOHD",
    "combatTemplate": "",
    "abilities": [
      {
        "abilityID": "WindAmberField_02",
        "abilityName": "WindAmberField_02",
        "abilityOverride": ""
      }
    ],
    "timer": {
      "lifeTime": 4.0
    },
    "misc": {
      "forceField": {
        "$type": "NJNBPMFBLMP",
        "specialTipsIconPath": "",
        "velocity": 10.0,
        "scale": 1.5,
        "stayEffect": "Eff_Windfield_Stay",
        "enterEffect": "Eff_Windfield_Enter"
      },
      "escapeEffect": ""
    }
  }
}
