{
  "SceneObj_Level_Common_Property_Ani_Prop_MuqadasPotionV2_01": {
    "$type": "CJKJIENLOHD",
    "model": {
      "bornEffect": "",
      "attachEffect": "Eff_Gear_ElementDungeon_Operator",
      "BKPFGNPLDNJ": ""
    },
    "hasModel": true,
    "combat": {
      "property": {
        "hp": 99999.0,
        "attack": 200.0,
        "weight": 50.0,
        "isLockHP": true,
        "isGhostToAllied": true,
        "isGhostToEnemy": true
      },
      "beHit": {
        "hitBloodEffect": "",
        "hitAutoRedirect": false,
        "muteAllHitText": true
      },
      "combatLock": {
        "lockShape": "CircleLockEnemy",
        "denyLockOn": true,
        "lockType": "Gadget_Lv1"
      }
    },
    "combatTemplate": "",
    "abilities": [
      {
        "abilityID": "SceneObj_Level_Common_Property_Ani_Prop_MuqadasPotionV2_TeamChange_01",
        "abilityName": "SceneObj_Level_Common_Property_Ani_Prop_MuqadasPotionV2_TeamChange_01",
        "abilityOverride": ""
      },
      {
        "abilityID": "SceneObj_Level_Common_Property_Ani_Prop_MuqadasPotionV2_01_Intee",
        "abilityName": "SceneObj_Level_Common_Property_Ani_Prop_MuqadasPotionV2_01_Intee",
        "abilityOverride": ""
      }
    ],
    "uiInteract": {
      "gadgetUIBtnCfgPath": "TEST/TEST_Chest_Btn",
      "uiName": "UI_ACTIVITY_MUQADAS_DUNGEON_START_PLAY_BUTTON",
      "onTouch": "WidgetMPSupport",
      "touchParams": [
        "SceneObj_Level_Common_Property_Ani_Prop_MuqadasPotionV2_01_Intee"
      ],
      "showCondTypes": ["HOST"],
      "icon": "UI_Icon_Intee_Mechanism",
      "groupName": "",
      "confirmDialogTitle": "",
      "confirmDialogContent": "",
      "canInteractInCombat": false,
      "gadgetUIExtraItems": [
        {
          "gadgetUIBtnCfgPath": "UI/open_MuqadasPotionV2_team_page",
          "uiName": "UI_ACTIVITY_MUQADAS_DUNGEON_TEAM_CHANGE_BUTTON",
          "showCondTypes": ["HOST"],
          "icon": "UI_Icon_Intee_Mechanism",
          "groupName": "",
          "confirmDialogTitle": "",
          "confirmDialogContent": "",
          "extraId": 2
        }
      ]
    },
    "gadgetAction": {
      "gadgetStateActionList": [
        {
          "$type": "FJGKLJLPOGL",
          "intID": "gadgetState",
          "syncState": true
        },
        {
          "$type": "OLDOOKBEKJI",
          "parameter": "gadgetState",
          "damageRatio": "Int",
          "rotationDampTime": "Eff_Gear_ElementDungeon_Operator"
        },
        {
          "$type": "OLDOOKBEKJI",
          "triggerID": "GearStop",
          "parameter": "gadgetState",
          "damageRatio": "Int",
          "value": 202,
          "rotationDampTime": "Eff_Gear_ElementDungeon_Operator"
        },
        {
          "$type": "DEMJBAICBKO",
          "enable": true
        },
        {
          "$type": "DEMJBAICBKO",
          "triggerID": "GearStop"
        }
      ]
    }
  }
}
