{
  "SceneObj_Activity_Common_Property_Ani_Prop_CodeMachine_01": {
    "$type": "CJKJIENLOHD",
    "common": {
      "disableTickDistance": 100000.0
    },
    "globalValue": {
      "serverGlobalValues": [
        "SGV_Increase_Val",
        "SGV_Fixing",
        "SGV_Notify_Val"
      ],
      "initServerGlobalValues": {
        "SGV_Increase_Val": 0.0,
        "SGV_Fixing": 0.0,
        "SGV_Notify_Val": 0.0
      }
    },
    "hasModel": true,
    "combat": {
      "property": {
        "hp": 99999.0,
        "weight": 50.0,
        "isLockHP": true,
        "isGhostToAllied": true,
        "isGhostToEnemy": true
      },
      "beHit": {
        "hitBloodEffect": "",
        "hitAutoRedirect": false,
        "muteAllHitText": true
      },
      "combatLock": {
        "lockShape": "CircleLockEnemy",
        "denyLockOn": true,
        "lockType": "Gadget_Lv1"
      }
    },
    "combatTemplate": "",
    "abilities": [
      {
        "abilityID": "SceneObj_Activity_Common_Property_Ani_Prop_CodeMachine_01",
        "abilityName": "SceneObj_Activity_Common_Property_Ani_Prop_CodeMachine_01",
        "abilityOverride": ""
      }
    ],
    "field": {
      "concernType": "AllAvatars",
      "shape": "CircleR1.5H3",
      "fromShape": "",
      "triggerInfinite": true,
      "lifeInfinite": true,
      "checkInterval": 0.20000000298023224,
      "overwriteCampType": true,
      "campType": "All",
      "colliderName": "",
      "fromColliderName": ""
    },
    "radarHint": true,
    "billboard": {
      "$type": "DNGNMAJBCNP",
      "attachPoint": "RootNode",
      "offset": {
        "y": 2.0
      },
      "radiusOffset": 1.0,
      "showDistance": 99.0,
      "showHPBar": true,
      "size": "Grand"
    },
    "forceSetEntityType": "Gadget"
  },
  "SceneObj_Activity_Common_Property_Ani_Prop_Prison_01": {
    "$type": "CJKJIENLOHD",
    "common": {
      "disableTickDistance": 1000000.0
    },
    "hasModel": true,
    "combat": {
      "property": {
        "hp": 1000.0,
        "attack": 100.0,
        "weight": 50.0,
        "isLockHP": true,
        "isGhostToAllied": true,
        "isGhostToEnemy": true
      },
      "beHit": {
        "hitBloodEffect": "",
        "hitAutoRedirect": false,
        "muteAllHitEffect": true,
        "muteAllHitText": true
      },
      "combatLock": {
        "lockShape": "CircleLockEnemy",
        "denyLockOn": true,
        "lockType": "Gadget_Lv1"
      },
      "die": {
        "dieForceDisappearTime": 0.0,
        "dieDisappearEffect": ""
      }
    },
    "combatTemplate": "",
    "abilities": [
      {
        "abilityID": "SceneObj_Activity_Common_Property_Ani_Prop_Prison_01",
        "abilityName": "SceneObj_Activity_Common_Property_Ani_Prop_Prison_01",
        "abilityOverride": ""
      }
    ],
    "field": {
      "concernType": "AllAvatars",
      "shape": "CircleR1.5H3",
      "fromShape": "",
      "triggerInfinite": true,
      "lifeInfinite": true,
      "checkInterval": 0.20000000298023224,
      "overwriteCampType": true,
      "campType": "All",
      "colliderName": "",
      "fromColliderName": ""
    },
    "move": {
      "$type": "OEFHHKHPMCJ",
      "avatarTriggerEventDistance": 3.200000047683716
    },
    "forceSetEntityType": "Gadget"
  }
}
