{
  "SceneObj_Area_Common_Property_Prop_BrickWall_01": {
    "$type": "CJKJIENLOHD",
    "globalValue": {
      "serverGlobalValues": ["SGV_BrickWall_Report"],
      "initServerGlobalValues": {
        "SGV_BrickWall_Report": 0.0
      }
    },
    "hasModel": true,
    "hasConnectTrigger": true,
    "combat": {
      "property": {
        "hp": 9999999.0,
        "isGhostToAllied": true
      },
      "beHit": {
        "hitBloodEffect": "",
        "hitAutoRedirect": false,
        "muteAllHitText": true
      },
      "combatLock": {
        "lockShape": "CircleLockEnemy",
        "denyLockOn": true,
        "lockType": "Gadget_Lv1"
      }
    },
    "combatTemplate": "",
    "abilities": [
      {
        "abilityID": "SceneObj_Area_Common_Property_Prop_BrickWall_01",
        "abilityName": "SceneObj_Area_Common_Property_Prop_BrickWall_01",
        "abilityOverride": ""
      }
    ]
  },
  "SceneObj_Gear_Platform_GlideDirtyBalloon_02": {
    "$type": "CJKJIENLOHD",
    "hasModel": true,
    "combat": {
      "property": {
        "hp": 10.0,
        "attack": 80.0,
        "weight": 80.0,
        "isLockHP": true
      },
      "beHit": {
        "hitBloodEffect": "",
        "hitAutoRedirect": false,
        "muteAllHitText": true
      },
      "combatLock": {
        "lockShape": "CircleLockEnemy",
        "denyLockOn": true,
        "lockType": "Gadget_Lv1"
      },
      "die": {
        "hasAnimatorDie": true,
        "dieEndTime": 0.10000000149011612,
        "dieForceDisappearTime": 0.10000000149011612,
        "dieDisappearEffect": "Eff_SceneObj_GlideChampBalloon_03_01"
      }
    },
    "combatTemplate": "",
    "abilities": [
      {
        "abilityID": "SceneObj_Gear_Platform_GlideDirtyBalloon_02",
        "abilityName": "SceneObj_Gear_Platform_GlideDirtyBalloon_02",
        "abilityOverride": ""
      }
    ],
    "field": {
      "concernType": "AllAvatars",
      "shape": "CircleR1.5",
      "fromShape": "",
      "triggerInfinite": true,
      "lifeInfinite": true,
      "checkInterval": 0.5,
      "overwriteCampType": true,
      "campType": "All",
      "colliderName": "",
      "fromColliderName": ""
    }
  },
  "SceneObj_Gear_Platform_GlideDirtyBalloon_03": {
    "$type": "CJKJIENLOHD",
    "hasModel": true,
    "combat": {
      "property": {
        "hp": 10.0,
        "attack": 80.0,
        "weight": 80.0,
        "isLockHP": true
      },
      "beHit": {
        "hitBloodEffect": "",
        "hitAutoRedirect": false,
        "muteAllHitText": true
      },
      "combatLock": {
        "lockShape": "CircleLockEnemy",
        "denyLockOn": true,
        "lockType": "Gadget_Lv1"
      },
      "die": {
        "hasAnimatorDie": true,
        "dieEndTime": 0.10000000149011612,
        "dieForceDisappearTime": 0.10000000149011612,
        "dieDisappearEffect": "Eff_SceneObj_GlideChampBalloon_03_01"
      }
    },
    "combatTemplate": "",
    "abilities": [
      {
        "abilityID": "SceneObj_Gear_Platform_GlideDirtyBalloon_03",
        "abilityName": "SceneObj_Gear_Platform_GlideDirtyBalloon_03",
        "abilityOverride": ""
      }
    ],
    "field": {
      "concernType": "AllAvatars",
      "shape": "CircleR1.5",
      "fromShape": "",
      "triggerInfinite": true,
      "lifeInfinite": true,
      "checkInterval": 0.5,
      "overwriteCampType": true,
      "campType": "All",
      "colliderName": "",
      "fromColliderName": ""
    }
  },
  "SceneObj_Area_Common_Property_Prop_CharAmusementCoin_02": {
    "$type": "CJKJIENLOHD",
    "model": {
      "bornEffect": "",
      "attachEffect": "Eff_SceneObj_GlideChampCoin_Super_01",
      "BKPFGNPLDNJ": ""
    },
    "hasModel": true,
    "combat": {
      "property": {
        "hp": 10000.0,
        "attack": 30.0,
        "isLockHP": true,
        "isGhostToAllied": true,
        "canTriggerBullet": false,
        "ignorePurgeRate": true
      },
      "beHit": {
        "hitBloodEffect": "",
        "hitAutoRedirect": false,
        "muteAllHitEffect": true,
        "muteAllHitText": true
      },
      "combatLock": {
        "lockShape": "CircleLockEnemy",
        "denyLockOn": true,
        "lockType": "Gadget_Lv1"
      }
    },
    "combatTemplate": "",
    "abilities": [
      {
        "abilityID": "SceneObj_Area_Common_Property_Prop_CharAmusementCoin_02",
        "abilityName": "SceneObj_Area_Common_Property_Prop_CharAmusementCoin_02",
        "abilityOverride": ""
      }
    ]
  },
  "SceneObj_Area_Common_Property_Prop_CharAmusementCoin_01": {
    "$type": "CJKJIENLOHD",
    "model": {
      "bornEffect": "",
      "attachEffect": "Eff_SceneObj_UGCCoin_01",
      "BKPFGNPLDNJ": ""
    },
    "hasModel": true,
    "combat": {
      "property": {
        "hp": 10000.0,
        "attack": 30.0,
        "isLockHP": true,
        "isGhostToAllied": true,
        "canTriggerBullet": false,
        "ignorePurgeRate": true
      },
      "beHit": {
        "hitBloodEffect": "",
        "hitAutoRedirect": false,
        "muteAllHitEffect": true,
        "muteAllHitText": true
      },
      "combatLock": {
        "lockShape": "CircleLockEnemy",
        "denyLockOn": true,
        "lockType": "Gadget_Lv1"
      }
    },
    "combatTemplate": "",
    "abilities": [
      {
        "abilityID": "SceneObj_Area_Common_Property_Prop_CharAmusementCoin_01",
        "abilityName": "SceneObj_Area_Common_Property_Prop_CharAmusementCoin_01",
        "abilityOverride": ""
      }
    ]
  },
  "SceneObj_Level_Common_Property_Ani_Prop_Undying_Torch_01": {
    "$type": "CJKJIENLOHD",
    "common": {},
    "hasModel": true,
    "combat": {
      "property": {
        "hp": 99999.0,
        "attack": 20.0,
        "weight": 50.0,
        "isLockHP": true,
        "ignoreDamageToSelf": true
      },
      "beHit": {
        "hitBloodEffect": "",
        "hitAutoRedirect": false,
        "muteAllHitText": true
      },
      "combatLock": {
        "lockShape": "CircleLockEnemy",
        "denyLockOn": true,
        "lockType": "Gadget_Lv1"
      }
    },
    "combatTemplate": "",
    "abilities": [
      {
        "abilityID": "SceneObj_Level_Common_Property_Ani_Prop_Undying_Torch_01",
        "abilityName": "SceneObj_Level_Common_Property_Ani_Prop_Undying_Torch_01",
        "abilityOverride": ""
      }
    ]
  },
  "SceneObj_Area_Common_Property_Prop_BrickWall_02": {
    "$type": "CJKJIENLOHD",
    "hasModel": true,
    "combat": {
      "property": {
        "hp": 9999999.0,
        "isGhostToAllied": true
      },
      "beHit": {
        "hitBloodEffect": "",
        "hitAutoRedirect": false,
        "muteAllHitText": true
      },
      "combatLock": {
        "lockShape": "CircleLockEnemy",
        "denyLockOn": true,
        "lockType": "Gadget_Lv1"
      }
    },
    "combatTemplate": "",
    "abilities": [
      {
        "abilityID": "SceneObj_Area_Common_Property_Prop_BrickWall_02",
        "abilityName": "SceneObj_Area_Common_Property_Prop_BrickWall_02",
        "abilityOverride": ""
      }
    ]
  },
  "SceneObj_Area_Common_Property_Prop_BrickWall_03": {
    "$type": "CJKJIENLOHD",
    "hasModel": true,
    "combat": {
      "property": {
        "hp": 9999999.0,
        "isGhostToAllied": true
      },
      "beHit": {
        "hitBloodEffect": "",
        "hitAutoRedirect": false,
        "muteAllHitText": true
      },
      "combatLock": {
        "lockShape": "CircleLockEnemy",
        "denyLockOn": true,
        "lockType": "Gadget_Lv1"
      }
    },
    "combatTemplate": "",
    "abilities": [
      {
        "abilityID": "SceneObj_Area_Common_Property_Prop_BrickWall_03",
        "abilityName": "SceneObj_Area_Common_Property_Prop_BrickWall_03",
        "abilityOverride": ""
      }
    ]
  },
  "SceneObj_Area_Common_Property_Prop_BrickWall_04": {
    "$type": "CJKJIENLOHD",
    "hasModel": true,
    "combat": {
      "property": {
        "hp": 9999999.0,
        "isGhostToAllied": true
      },
      "beHit": {
        "hitBloodEffect": "",
        "hitAutoRedirect": false,
        "muteAllHitText": true
      },
      "combatLock": {
        "lockShape": "CircleLockEnemy",
        "denyLockOn": true,
        "lockType": "Gadget_Lv1"
      }
    },
    "combatTemplate": "",
    "abilities": [
      {
        "abilityID": "SceneObj_Area_Common_Property_Prop_BrickWall_04",
        "abilityName": "SceneObj_Area_Common_Property_Prop_BrickWall_04",
        "abilityOverride": ""
      }
    ]
  },
  "SceneObj_Area_Common_Property_Prop_BrickWall_05": {
    "$type": "CJKJIENLOHD",
    "hasModel": true,
    "combat": {
      "property": {
        "hp": 9999999.0,
        "isGhostToAllied": true
      },
      "beHit": {
        "hitBloodEffect": "",
        "hitAutoRedirect": false,
        "muteAllHitText": true
      },
      "combatLock": {
        "lockShape": "CircleLockEnemy",
        "denyLockOn": true,
        "lockType": "Gadget_Lv1"
      }
    },
    "combatTemplate": "",
    "abilities": [
      {
        "abilityID": "SceneObj_Area_Common_Property_Prop_BrickWall_05",
        "abilityName": "SceneObj_Area_Common_Property_Prop_BrickWall_05",
        "abilityOverride": ""
      }
    ]
  },
  "SceneObj_Area_Common_Property_Prop_BrickWall_06": {
    "$type": "CJKJIENLOHD",
    "hasModel": true,
    "combat": {
      "property": {
        "hp": 9999999.0,
        "isGhostToAllied": true
      },
      "beHit": {
        "hitBloodEffect": "",
        "hitAutoRedirect": false,
        "muteAllHitText": true
      },
      "combatLock": {
        "lockShape": "CircleLockEnemy",
        "denyLockOn": true,
        "lockType": "Gadget_Lv1"
      }
    },
    "combatTemplate": "",
    "abilities": [
      {
        "abilityID": "SceneObj_Area_Common_Property_Prop_BrickWall_06",
        "abilityName": "SceneObj_Area_Common_Property_Prop_BrickWall_06",
        "abilityOverride": ""
      }
    ]
  },
  "SceneObj_Area_Common_Property_Prop_BrickWall_07": {
    "$type": "CJKJIENLOHD",
    "hasModel": true,
    "combat": {
      "property": {
        "hp": 9999999.0,
        "isGhostToAllied": true
      },
      "beHit": {
        "hitBloodEffect": "",
        "hitAutoRedirect": false,
        "muteAllHitText": true
      },
      "combatLock": {
        "lockShape": "CircleLockEnemy",
        "denyLockOn": true,
        "lockType": "Gadget_Lv1"
      }
    },
    "combatTemplate": "",
    "abilities": [
      {
        "abilityID": "SceneObj_Area_Common_Property_Prop_BrickWall_07",
        "abilityName": "SceneObj_Area_Common_Property_Prop_BrickWall_07",
        "abilityOverride": ""
      }
    ]
  },
  "SceneObj_Area_Common_Property_Prop_SlimeMovingWall_01": {
    "$type": "CJKJIENLOHD",
    "common": {
      "disableTickDistance": 150000.0
    },
    "hasModel": true,
    "combat": {
      "property": {
        "hp": 9999999.0,
        "isLockHP": true,
        "canTriggerBullet": false
      },
      "beHit": {
        "hitBloodEffect": "",
        "hitAutoRedirect": false,
        "muteAllHitEffect": true,
        "muteAllHitText": true
      },
      "combatLock": {
        "lockShape": "CircleLockEnemy",
        "denyLockOn": true,
        "lockType": "Gadget_Lv1"
      },
      "die": {
        "dieEndTime": 1.0,
        "dieDisappearEffect": ""
      }
    },
    "combatTemplate": "",
    "abilities": [
      {
        "abilityID": "SceneObj_Area_Common_Property_Prop_SlimeMovingWall_01",
        "abilityName": "SceneObj_Area_Common_Property_Prop_SlimeMovingWall_01",
        "abilityOverride": ""
      }
    ],
    "move": {
      "$type": "OEFHHKHPMCJ"
    },
    "gadgetAction": {
      "gadgetStateActionList": [
        {
          "$type": "FJGKLJLPOGL",
          "intID": "GadgetState",
          "syncState": true
        }
      ]
    }
  },
  "SceneObj_Gear_Common_Property_Prop_CharAmusementStamina_01": {
    "$type": "CJKJIENLOHD",
    "hasModel": true,
    "combat": {
      "property": {
        "hp": 99999.0,
        "attack": 50.0,
        "weight": 50.0,
        "isLockHP": true
      },
      "beHit": {
        "hitBloodEffect": "",
        "hitAutoRedirect": false,
        "muteAllHitText": true
      },
      "combatLock": {
        "lockShape": "CircleLockEnemy",
        "denyLockOn": true,
        "lockType": "Gadget_Lv1"
      }
    },
    "combatTemplate": "",
    "abilities": [
      {
        "abilityID": "SceneObj_Gear_Common_Property_Prop_CharAmusementStamina_01",
        "abilityName": "SceneObj_Gear_Common_Property_Prop_CharAmusementStamina_01",
        "abilityOverride": ""
      }
    ],
    "field": {
      "concernType": "AllAvatars",
      "shape": "CircleR1.5",
      "fromShape": "",
      "triggerInfinite": true,
      "lifeInfinite": true,
      "checkInterval": 0.20000000298023224,
      "overwriteCampType": true,
      "campType": "All",
      "colliderName": "",
      "fromColliderName": ""
    }
  },
  "SceneObj_Area_Common_Property_Prop_CharAmusementCam_01": {
    "$type": "CJKJIENLOHD",
    "hasModel": true,
    "combat": {
      "property": {
        "hp": 9999999.0,
        "isInvincible": true,
        "isLockHP": true,
        "isGhostToAllied": true,
        "isGhostToEnemy": true,
        "canTriggerBullet": false
      },
      "beHit": {
        "hitBloodEffect": "",
        "hitAutoRedirect": false,
        "muteAllHitText": true
      },
      "combatLock": {
        "lockShape": "CircleLockEnemy",
        "denyLockOn": true,
        "lockType": "Gadget_Lv1"
      }
    },
    "combatTemplate": "",
    "abilities": [
      {
        "abilityID": "SceneObj_Area_Common_Property_Prop_CharAmusementCam_01",
        "abilityName": "SceneObj_Area_Common_Property_Prop_CharAmusementCam_01",
        "abilityOverride": ""
      }
    ],
    "cameraAdjust": {
      "priority": 1.0,
      "enterRadius": 30.0,
      "exitRadius": 30.0,
      "heightAdjust": 1.2999999523162842,
      "fov": 60.0,
      "zoom": 9.0,
      "sphericalY": -10.0,
      "lockSphericalY": false,
      "sphericalYUp": 30.0,
      "sphericalYDown": 20.0,
      "autoTurnStartMin": 0.0,
      "autoTurnStartMax": 0.0,
      "autoTurnEndMin": 55.0,
      "autoTurnEndMax": 60.0,
      "enterShape": "CircleR30",
      "exitShape": "CircleR40",
      "enterAngle": 360.0,
      "exitAngle": 999.0,
      "OEAICACKIFD": 1.0
    }
  },
  "SceneObj_Area_Common_Property_Prop_CharAmusementCam_02": {
    "$type": "CJKJIENLOHD",
    "hasModel": true,
    "combat": {
      "property": {
        "hp": 9999999.0,
        "isInvincible": true,
        "isLockHP": true,
        "isGhostToAllied": true,
        "isGhostToEnemy": true,
        "canTriggerBullet": false
      },
      "beHit": {
        "hitBloodEffect": "",
        "hitAutoRedirect": false,
        "muteAllHitText": true
      },
      "combatLock": {
        "lockShape": "CircleLockEnemy",
        "denyLockOn": true,
        "lockType": "Gadget_Lv1"
      }
    },
    "combatTemplate": "",
    "abilities": [
      {
        "abilityID": "SceneObj_Area_Common_Property_Prop_CharAmusementCam_01",
        "abilityName": "SceneObj_Area_Common_Property_Prop_CharAmusementCam_01",
        "abilityOverride": ""
      }
    ],
    "cameraAdjust": {
      "priority": 1.0,
      "enterRadius": 30.0,
      "exitRadius": 30.0,
      "heightAdjust": 0.5,
      "fov": 52.5,
      "zoom": 11.0,
      "sphericalY": -10.0,
      "lockSphericalY": false,
      "sphericalYUp": 30.0,
      "sphericalYDown": 20.0,
      "autoTurnStartMin": 0.0,
      "autoTurnStartMax": 0.0,
      "autoTurnEndMin": 55.0,
      "autoTurnEndMax": 60.0,
      "enterShape": "CircleR30",
      "exitShape": "CircleR40",
      "enterAngle": 360.0,
      "exitAngle": 999.0
    }
  },
  "SceneObj_Area_Common_Property_Prop_CharAmusementCam_03": {
    "$type": "CJKJIENLOHD",
    "hasModel": true,
    "combat": {
      "property": {
        "hp": 9999999.0,
        "isInvincible": true,
        "isLockHP": true,
        "isGhostToAllied": true,
        "isGhostToEnemy": true,
        "canTriggerBullet": false
      },
      "beHit": {
        "hitBloodEffect": "",
        "hitAutoRedirect": false,
        "muteAllHitText": true
      },
      "combatLock": {
        "lockShape": "CircleLockEnemy",
        "denyLockOn": true,
        "lockType": "Gadget_Lv1"
      }
    },
    "combatTemplate": "",
    "abilities": [
      {
        "abilityID": "SceneObj_Area_Common_Property_Prop_CharAmusementCam_01",
        "abilityName": "SceneObj_Area_Common_Property_Prop_CharAmusementCam_01",
        "abilityOverride": ""
      }
    ],
    "cameraAdjust": {
      "priority": 1.0,
      "enterRadius": 100.0,
      "exitRadius": 100.0,
      "heightAdjust": 2.0,
      "fov": 52.5,
      "zoom": 9.0,
      "sphericalY": 25.0,
      "lockSphericalY": false,
      "sphericalYUp": 30.0,
      "sphericalYDown": 40.0,
      "autoTurnStartMin": 0.0,
      "autoTurnStartMax": 0.0,
      "autoTurnEndMin": 55.0,
      "autoTurnEndMax": 60.0,
      "enterShape": "CircleR30",
      "exitShape": "CircleR40",
      "enterAngle": 360.0,
      "exitAngle": 999.0
    }
  },
  "SceneObj_Area_Common_Property_Prop_CharAmusementCam_04": {
    "$type": "CJKJIENLOHD",
    "hasModel": true,
    "combat": {
      "property": {
        "hp": 9999999.0,
        "isInvincible": true,
        "isLockHP": true,
        "isGhostToAllied": true,
        "isGhostToEnemy": true,
        "canTriggerBullet": false
      },
      "beHit": {
        "hitBloodEffect": "",
        "hitAutoRedirect": false,
        "muteAllHitText": true
      },
      "combatLock": {
        "lockShape": "CircleLockEnemy",
        "denyLockOn": true,
        "lockType": "Gadget_Lv1"
      }
    },
    "combatTemplate": "",
    "abilities": [
      {
        "abilityID": "SceneObj_Area_Common_Property_Prop_CharAmusementCam_02",
        "abilityName": "SceneObj_Area_Common_Property_Prop_CharAmusementCam_02",
        "abilityOverride": ""
      }
    ],
    "cameraAdjust": {
      "priority": 1.0,
      "enterRadius": 30.0,
      "exitRadius": 30.0,
      "heightAdjust": 1.0,
      "fov": 60.0,
      "zoom": 11.5,
      "sphericalY": 20.0,
      "sphericalYUp": 60.0,
      "sphericalYDown": 20.0,
      "autoTurnStartMin": 0.0,
      "autoTurnStartMax": 0.0,
      "autoTurnEndMin": 55.0,
      "autoTurnEndMax": 60.0,
      "enterShape": "CircleR30",
      "exitShape": "CircleR40",
      "enterAngle": 360.0,
      "exitAngle": 999.0
    }
  },
  "SceneObj_Area_Common_Property_Prop_CharAmusementCam_05": {
    "$type": "CJKJIENLOHD",
    "hasModel": true,
    "combat": {
      "property": {
        "hp": 9999999.0,
        "isInvincible": true,
        "isLockHP": true,
        "isGhostToAllied": true,
        "isGhostToEnemy": true,
        "canTriggerBullet": false
      },
      "beHit": {
        "hitBloodEffect": "",
        "hitAutoRedirect": false,
        "muteAllHitText": true
      },
      "combatLock": {
        "lockShape": "CircleLockEnemy",
        "denyLockOn": true,
        "lockType": "Gadget_Lv1"
      }
    },
    "combatTemplate": "",
    "abilities": [
      {
        "abilityID": "SceneObj_Area_Common_Property_Prop_CharAmusementCam_01",
        "abilityName": "SceneObj_Area_Common_Property_Prop_CharAmusementCam_01",
        "abilityOverride": ""
      }
    ],
    "cameraAdjust": {
      "priority": 1.0,
      "enterRadius": 50.0,
      "exitRadius": 50.0,
      "heightAdjust": -0.5,
      "fov": 60.0,
      "zoom": 11.0,
      "sphericalY": 35.0,
      "lockSphericalY": false,
      "sphericalYUp": 20.0,
      "sphericalYDown": 30.0,
      "autoTurnStartMin": 0.0,
      "autoTurnStartMax": 0.0,
      "autoTurnEndMin": 55.0,
      "autoTurnEndMax": 60.0,
      "enterShape": "CircleR30",
      "exitShape": "CircleR40",
      "enterAngle": 360.0,
      "exitAngle": 999.0,
      "OEAICACKIFD": 1.0
    }
  },
  "SceneObj_Area_Common_Property_Prop_CharAmusementCam_06": {
    "$type": "CJKJIENLOHD",
    "hasModel": true,
    "combat": {
      "property": {
        "hp": 9999999.0,
        "isInvincible": true,
        "isLockHP": true,
        "isGhostToAllied": true,
        "isGhostToEnemy": true,
        "canTriggerBullet": false
      },
      "beHit": {
        "hitBloodEffect": "",
        "hitAutoRedirect": false,
        "muteAllHitText": true
      },
      "combatLock": {
        "lockShape": "CircleLockEnemy",
        "denyLockOn": true,
        "lockType": "Gadget_Lv1"
      }
    },
    "combatTemplate": "",
    "abilities": [
      {
        "abilityID": "SceneObj_Area_Common_Property_Prop_CharAmusementCam_01",
        "abilityName": "SceneObj_Area_Common_Property_Prop_CharAmusementCam_01",
        "abilityOverride": ""
      }
    ],
    "cameraAdjust": {
      "priority": 1.0,
      "enterRadius": 30.0,
      "exitRadius": 30.0,
      "heightAdjust": 1.0,
      "fov": 53.0,
      "zoom": 7.0,
      "sphericalY": 20.0,
      "lockSphericalY": false,
      "sphericalYUp": 30.0,
      "sphericalYDown": 25.0,
      "autoTurnStartMin": 0.0,
      "autoTurnStartMax": 0.0,
      "autoTurnEndMin": 55.0,
      "autoTurnEndMax": 60.0,
      "enterShape": "CircleR30",
      "exitShape": "CircleR40",
      "enterAngle": 360.0,
      "exitAngle": 999.0,
      "OEAICACKIFD": 1.0
    }
  },
  "SceneObj_Area_Common_Property_Prop_BaseballShooter_01": {
    "$type": "CJKJIENLOHD",
    "hasModel": true,
    "combat": {
      "property": {
        "hp": 8000.0,
        "attack": 80.0,
        "weight": 80.0,
        "isLockHP": true
      },
      "beHit": {
        "hitBloodEffect": "",
        "hitAutoRedirect": false
      },
      "combatLock": {
        "lockShape": "CircleLockEnemy",
        "denyLockOn": true,
        "lockType": "Gadget_Lv1"
      },
      "die": {
        "dieEndTime": 0.10000000149011612,
        "dieForceDisappearTime": 0.20000000298023224,
        "dieDisappearEffect": ""
      }
    },
    "combatTemplate": "",
    "abilities": [
      {
        "abilityID": "SceneObj_Area_Common_Property_Prop_BaseballShooter_01",
        "abilityName": "SceneObj_Area_Common_Property_Prop_BaseballShooter_01",
        "abilityOverride": ""
      }
    ]
  },
  "SceneObj_Area_Common_Property_Prop_FallAttackPillar_01": {
    "$type": "CJKJIENLOHD",
    "hasModel": true,
    "combat": {
      "property": {
        "hp": 99999.0,
        "isLockHP": true,
        "isGhostToAllied": true
      },
      "beHit": {
        "hitBloodEffect": "",
        "hitAutoRedirect": false,
        "muteAllHitText": true
      },
      "combatLock": {
        "lockShape": "CircleLockEnemy",
        "denyLockOn": true,
        "lockType": "Gadget_Lv1"
      }
    },
    "combatTemplate": "",
    "abilities": [
      {
        "abilityID": "SceneObj_Area_Common_Property_Prop_FallAttackPillar_01",
        "abilityName": "SceneObj_Area_Common_Property_Prop_FallAttackPillar_01",
        "abilityOverride": ""
      }
    ],
    "move": {
      "$type": "IDIPBKCPBDP",
      "attachPoint": "ColliderRoot"
    },
    "stateLayers": {
      "defaultLayer": {
        "$type": "GBGJJIIEMBD",
        "layerIndexName": "",
        "CPAANEIJCGD": "",
        "stateIDs": {
          "All": {
            "$type": "BEIEGKBABOF",
            "animatorStates": {
              "Default": [],
              "NormalRise": [],
              "GoldRise": [],
              "KeepRiseGold": [],
              "KeepRiseNormal": []
            }
          }
        }
      }
    },
    "gadgetAction": {
      "gadgetStateActionList": [
        {
          "$type": "FJGKLJLPOGL",
          "intID": "GadgetState",
          "syncState": true
        }
      ]
    }
  },
  "SceneObj_Area_Common_Property_Prop_FallAttackPillar_02": {
    "$type": "CJKJIENLOHD",
    "hasModel": true,
    "combat": {
      "property": {
        "hp": 99999.0,
        "isLockHP": true,
        "isGhostToAllied": true
      },
      "beHit": {
        "hitBloodEffect": "",
        "hitAutoRedirect": false,
        "muteAllHitText": true
      },
      "combatLock": {
        "lockShape": "CircleLockEnemy",
        "denyLockOn": true,
        "lockType": "Gadget_Lv1"
      }
    },
    "combatTemplate": "",
    "abilities": [
      {
        "abilityID": "SceneObj_Area_Common_Property_Prop_FallAttackPillar_01",
        "abilityName": "SceneObj_Area_Common_Property_Prop_FallAttackPillar_01",
        "abilityOverride": ""
      }
    ],
    "move": {
      "$type": "IDIPBKCPBDP",
      "attachPoint": "ColliderRoot"
    },
    "gadgetAction": {
      "gadgetStateActionList": [
        {
          "$type": "FJGKLJLPOGL",
          "intID": "GadgetState",
          "syncState": true
        }
      ]
    }
  },
  "SceneObj_Area_Common_Property_Prop_SlimeGate_01": {
    "$type": "CJKJIENLOHD",
    "globalValue": {
      "serverGlobalValues": ["SGV_CharAmuse_SlimeGateEff"],
      "initServerGlobalValues": {
        "SGV_CharAmuse_SlimeGateEff": 0.0
      }
    },
    "hasModel": true,
    "combat": {
      "property": {
        "hp": 99999.0,
        "isInvincible": true,
        "isLockHP": true,
        "isGhostToAllied": true,
        "isGhostToEnemy": true
      },
      "beHit": {
        "hitBloodEffect": "",
        "hitAutoRedirect": false,
        "muteAllHitText": true
      },
      "combatLock": {
        "lockShape": "CircleLockEnemy",
        "denyLockOn": true,
        "lockType": "Gadget_Lv1"
      }
    },
    "combatTemplate": "",
    "abilities": [
      {
        "abilityID": "SceneObj_Area_Common_Property_Prop_SlimeGate_01",
        "abilityName": "SceneObj_Area_Common_Property_Prop_SlimeGate_01",
        "abilityOverride": ""
      }
    ],
    "field": {
      "concernType": "CombatExcludeGWGO",
      "shape": "",
      "fromShape": "",
      "triggerInfinite": true,
      "lifeInfinite": true,
      "checkInterval": 0.20000000298023224,
      "overwriteCampType": true,
      "campType": "Enemy",
      "colliderName": "",
      "fromColliderName": ""
    }
  },
  "SceneObj_Area_Common_Property_Prop_SlimeGate_02": {
    "$type": "CJKJIENLOHD",
    "hasModel": true,
    "combat": {
      "property": {
        "hp": 99999.0,
        "isInvincible": true,
        "isLockHP": true,
        "isGhostToAllied": true,
        "isGhostToEnemy": true
      },
      "beHit": {
        "hitBloodEffect": "",
        "hitAutoRedirect": false,
        "muteAllHitText": true
      },
      "combatLock": {
        "lockShape": "CircleLockEnemy",
        "denyLockOn": true,
        "lockType": "Gadget_Lv1"
      }
    },
    "combatTemplate": "",
    "abilities": [
      {
        "abilityID": "SceneObj_Area_Common_Property_Prop_SlimeGate_01",
        "abilityName": "SceneObj_Area_Common_Property_Prop_SlimeGate_01",
        "abilityOverride": ""
      }
    ],
    "field": {
      "concernType": "CombatExcludeGWGO",
      "shape": "",
      "fromShape": "",
      "triggerInfinite": true,
      "lifeInfinite": true,
      "checkInterval": 0.20000000298023224,
      "overwriteCampType": true,
      "campType": "Enemy",
      "colliderName": "",
      "fromColliderName": ""
    }
  },
  "SceneObj_Area_Common_Property_Prop_SlimeGate_03": {
    "$type": "CJKJIENLOHD",
    "hasModel": true,
    "combat": {
      "property": {
        "hp": 99999.0,
        "isInvincible": true,
        "isLockHP": true,
        "isGhostToAllied": true,
        "isGhostToEnemy": true
      },
      "beHit": {
        "hitBloodEffect": "",
        "hitAutoRedirect": false,
        "muteAllHitText": true
      },
      "combatLock": {
        "lockShape": "CircleLockEnemy",
        "denyLockOn": true,
        "lockType": "Gadget_Lv1"
      }
    },
    "combatTemplate": "",
    "abilities": [
      {
        "abilityID": "SceneObj_Area_Common_Property_Prop_SlimeGate_01",
        "abilityName": "SceneObj_Area_Common_Property_Prop_SlimeGate_01",
        "abilityOverride": ""
      }
    ],
    "field": {
      "concernType": "CombatExcludeGWGO",
      "shape": "",
      "fromShape": "",
      "triggerInfinite": true,
      "lifeInfinite": true,
      "checkInterval": 0.20000000298023224,
      "overwriteCampType": true,
      "campType": "Enemy",
      "colliderName": "",
      "fromColliderName": ""
    }
  },
  "SceneObj_Area_Common_Property_Prop_SlimeGate_04": {
    "$type": "CJKJIENLOHD",
    "hasModel": true,
    "combat": {
      "property": {
        "hp": 99999.0,
        "isInvincible": true,
        "isLockHP": true,
        "isGhostToAllied": true,
        "isGhostToEnemy": true
      },
      "beHit": {
        "hitBloodEffect": "",
        "hitAutoRedirect": false,
        "muteAllHitText": true
      },
      "combatLock": {
        "lockShape": "CircleLockEnemy",
        "denyLockOn": true,
        "lockType": "Gadget_Lv1"
      }
    },
    "combatTemplate": "",
    "abilities": [
      {
        "abilityID": "SceneObj_Area_Common_Property_Prop_SlimeGate_01",
        "abilityName": "SceneObj_Area_Common_Property_Prop_SlimeGate_01",
        "abilityOverride": ""
      }
    ],
    "field": {
      "concernType": "CombatExcludeGWGO",
      "shape": "",
      "fromShape": "",
      "triggerInfinite": true,
      "lifeInfinite": true,
      "checkInterval": 0.20000000298023224,
      "overwriteCampType": true,
      "campType": "Enemy",
      "colliderName": "",
      "fromColliderName": ""
    }
  },
  "SceneObj_Area_Common_Property_Prop_SpiningBall_01": {
    "$type": "CJKJIENLOHD",
    "common": {
      "disableTickDistance": 150000.0
    },
    "combat": {
      "property": {
        "hp": 99999.0,
        "attack": 20.0,
        "weight": 50.0,
        "isLockHP": true
      },
      "beHit": {
        "hitBloodEffect": "",
        "muteAllHit": true,
        "muteAllHitEffect": true,
        "muteAllHitText": true
      },
      "combatLock": {
        "lockShape": "CircleLockEnemy",
        "denyLockOn": true,
        "lockType": "Gadget_Lv1"
      },
      "die": {
        "dieEndTime": 0.4000000059604645,
        "dieForceDisappearTime": 0.4000000059604645,
        "dieDisappearEffect": ""
      }
    },
    "combatTemplate": "",
    "abilities": [
      {
        "abilityID": "SceneObj_Area_Common_Property_Prop_SpiningBall_01",
        "abilityName": "SceneObj_Area_Common_Property_Prop_SpiningBall_01",
        "abilityOverride": ""
      }
    ],
    "move": {
      "$type": "OEFHHKHPMCJ"
    },
    "gadget": {
      "$type": "KKJCBNGMKBL",
      "collision": {
        "triggerType": "TriggerAlways",
        "triggerCD": 0.20000000298023224,
        "targetType": "All"
      },
      "collisionActions": [
        {
          "$type": "AILPBJHDHDG",
          "abilityName": "SceneObj_Area_Common_Property_Prop_SpiningBall_01"
        }
      ],
      "thisColliderName": "Collider",
      "targetColliderName": "InteeTrigger"
    }
  },
  "SceneObj_Area_Common_Property_Prop_CharAmusementAirWall_01": {
    "$type": "CJKJIENLOHD",
    "model": {
      "bornEffect": "",
      "attachEffect": "Eff_SceneObj_Airwall_Dodgeball_01",
      "BKPFGNPLDNJ": ""
    },
    "hasModel": true,
    "combat": {
      "property": {
        "hp": 99999.0,
        "isInvincible": true,
        "isLockHP": true,
        "isGhostToAllied": true,
        "isGhostToEnemy": true
      }
    },
    "combatTemplate": ""
  },
  "SceneObj_Area_Common_Property_Prop_CharAmusementAirWall_02": {
    "$type": "CJKJIENLOHD",
    "model": {
      "bornEffect": "",
      "attachEffect": "Eff_SceneObj_Airwall_Football_01",
      "BKPFGNPLDNJ": ""
    },
    "hasModel": true,
    "combat": {
      "property": {
        "hp": 99999.0,
        "isInvincible": true,
        "isLockHP": true,
        "isGhostToAllied": true,
        "isGhostToEnemy": true
      }
    },
    "combatTemplate": ""
  },
  "SceneObj_Area_Common_Property_Prop_CharAmusementAirWall_03": {
    "$type": "CJKJIENLOHD",
    "model": {
      "bornEffect": "",
      "attachEffect": "Eff_SceneObj_Airwall_Baseball_01",
      "BKPFGNPLDNJ": ""
    },
    "hasModel": true,
    "combat": {
      "property": {
        "hp": 99999.0,
        "isInvincible": true,
        "isLockHP": true,
        "isGhostToAllied": true,
        "isGhostToEnemy": true
      }
    },
    "combatTemplate": ""
  },
  "SceneObj_Area_Common_Property_Prop_CharAmusementAirWall_04": {
    "$type": "CJKJIENLOHD",
    "model": {
      "bornEffect": "",
      "attachEffect": "Eff_SceneObj_Airwall_MistCity_01",
      "BKPFGNPLDNJ": ""
    },
    "hasModel": true,
    "combat": {
      "property": {
        "hp": 99999.0,
        "isInvincible": true,
        "isLockHP": true,
        "isGhostToAllied": true,
        "isGhostToEnemy": true
      }
    },
    "combatTemplate": ""
  },
  "SceneObj_Area_Common_Property_Prop_CharAmusementAirWall_05": {
    "$type": "CJKJIENLOHD",
    "model": {
      "bornEffect": "",
      "attachEffect": "Eff_SceneObj_Airwall_MistCity_02",
      "BKPFGNPLDNJ": ""
    },
    "hasModel": true,
    "combat": {
      "property": {
        "hp": 99999.0,
        "isInvincible": true,
        "isLockHP": true,
        "isGhostToAllied": true,
        "isGhostToEnemy": true
      }
    },
    "combatTemplate": ""
  },
  "SceneObj_Area_Common_Property_Prop_CharAmusementAirWall_08": {
    "$type": "CJKJIENLOHD",
    "model": {
      "bornEffect": "",
      "attachEffect": "Eff_SceneObj_Airwall_MistCity_03",
      "BKPFGNPLDNJ": ""
    },
    "hasModel": true,
    "combat": {
      "property": {
        "hp": 99999.0,
        "isInvincible": true,
        "isLockHP": true,
        "isGhostToAllied": true,
        "isGhostToEnemy": true
      }
    },
    "combatTemplate": ""
  },
  "SceneObj_Area_Common_Property_Prop_CharAmusementAirWall_09": {
    "$type": "CJKJIENLOHD",
    "model": {
      "bornEffect": "",
      "attachEffect": "Eff_SceneObj_Airwall_MistCity_04",
      "BKPFGNPLDNJ": ""
    },
    "hasModel": true,
    "combat": {
      "property": {
        "hp": 99999.0,
        "isInvincible": true,
        "isLockHP": true,
        "isGhostToAllied": true,
        "isGhostToEnemy": true
      }
    },
    "combatTemplate": ""
  },
  "SceneObj_Area_XM_Property_Prop_SilenceTempleAirWall_01": {
    "$type": "CJKJIENLOHD",
    "model": {
      "bornEffect": "",
      "attachEffect": "Eff_SceneObj_Airwall_SilenceTempleAirWall_01",
      "BKPFGNPLDNJ": ""
    },
    "hasModel": true,
    "combat": {
      "property": {
        "hp": 99999.0,
        "isInvincible": true,
        "isLockHP": true,
        "isGhostToAllied": true,
        "isGhostToEnemy": true
      }
    },
    "combatTemplate": ""
  },
  "SceneObj_Area_Common_Property_Prop_CharAmusementAirWall_06": {
    "$type": "CJKJIENLOHD",
    "model": {
      "bornEffect": "",
      "attachEffect": "Eff_SceneObj_Airwall_CharAmusementAirWall_06",
      "BKPFGNPLDNJ": ""
    },
    "hasModel": true,
    "combat": {
      "property": {
        "hp": 99999.0,
        "isInvincible": true,
        "isLockHP": true,
        "isGhostToAllied": true,
        "isGhostToEnemy": true
      }
    },
    "combatTemplate": ""
  },
  "SceneObj_Area_Common_Property_Prop_CharAmusementAirWall_07": {
    "$type": "CJKJIENLOHD",
    "model": {
      "bornEffect": "",
      "attachEffect": "Eff_SceneObj_Airwall_Dodgeball_01",
      "BKPFGNPLDNJ": ""
    },
    "hasModel": true,
    "combat": {
      "property": {
        "hp": 99999.0,
        "isInvincible": true,
        "isLockHP": true,
        "isGhostToAllied": true,
        "isGhostToEnemy": true
      }
    },
    "combatTemplate": ""
  },
  "SceneObj_Area_Common_Property_Prop_Baseball_01": {
    "$type": "CJKJIENLOHD",
    "globalValue": {
      "serverGlobalValues": ["SGV_Is_BaseBall", "SGV_BaseBall_State"],
      "initServerGlobalValues": {
        "SGV_Is_BaseBall": 1.0,
        "SGV_BaseBall_State": 0.0
      }
    },
    "hasModel": true,
    "combat": {
      "property": {
        "useCreatorProperty": true,
        "hp": 99999.0,
        "attack": 20.0,
        "weight": 50.0,
        "isLockHP": true
      },
      "beHit": {
        "hitBloodEffect": "",
        "muteAllHit": true,
        "muteAllHitEffect": true,
        "muteAllHitText": true
      },
      "combatLock": {
        "lockShape": "CircleLockEnemy",
        "denyLockOn": true,
        "lockType": "Gadget_Lv1"
      },
      "die": {
        "dieEndTime": 0.009999999776482582,
        "dieDisappearEffect": ""
      }
    },
    "combatTemplate": "",
    "abilities": [
      {
        "abilityID": "SceneObj_Area_Common_Property_Prop_Baseball_01",
        "abilityName": "SceneObj_Area_Common_Property_Prop_Baseball_01",
        "abilityOverride": ""
      }
    ],
    "move": {
      "$type": "GONNMCBKAOC",
      "velocityForce": {
        "muteAll": true
      },
      "speed": 10.0
    },
    "gadget": {
      "$type": "JENBBNKGGJP",
      "collision": {
        "ignoreScene": true
      },
      "killByOther": true,
      "enableCollisionDelay": 1.0
    }
  },
  "SceneObj_Area_Common_Property_Prop_Baseball_02": {
    "$type": "CJKJIENLOHD",
    "globalValue": {
      "serverGlobalValues": ["SGV_Is_BaseBall", "SGV_BaseBall_State"],
      "initServerGlobalValues": {
        "SGV_Is_BaseBall": 1.0,
        "SGV_BaseBall_State": 0.0
      }
    },
    "hasModel": true,
    "combat": {
      "property": {
        "useCreatorProperty": true,
        "hp": 99999.0,
        "attack": 20.0,
        "weight": 50.0,
        "isLockHP": true
      },
      "beHit": {
        "hitBloodEffect": "",
        "muteAllHit": true,
        "muteAllHitEffect": true,
        "muteAllHitText": true
      },
      "combatLock": {
        "lockShape": "CircleLockEnemy",
        "denyLockOn": true,
        "lockType": "Gadget_Lv1"
      },
      "die": {
        "dieEndTime": 0.009999999776482582,
        "dieDisappearEffect": ""
      }
    },
    "combatTemplate": "",
    "abilities": [
      {
        "abilityID": "SceneObj_Area_Common_Property_Prop_Baseball_02",
        "abilityName": "SceneObj_Area_Common_Property_Prop_Baseball_02",
        "abilityOverride": ""
      }
    ],
    "move": {
      "$type": "GONNMCBKAOC",
      "velocityForce": {
        "muteAll": true
      },
      "speed": 16.0
    },
    "gadget": {
      "$type": "JENBBNKGGJP",
      "collision": {
        "ignoreScene": true
      },
      "killByOther": true,
      "enableCollisionDelay": 1.0
    }
  },
  "SceneObj_Area_Common_Property_Prop_Baseball_03": {
    "$type": "CJKJIENLOHD",
    "globalValue": {
      "serverGlobalValues": ["SGV_Is_BaseBall", "SGV_BaseBall_State"],
      "initServerGlobalValues": {
        "SGV_Is_BaseBall": 1.0,
        "SGV_BaseBall_State": 0.0
      }
    },
    "hasModel": true,
    "combat": {
      "property": {
        "useCreatorProperty": true,
        "hp": 99999.0,
        "attack": 20.0,
        "weight": 50.0,
        "isLockHP": true
      },
      "beHit": {
        "hitBloodEffect": "",
        "muteAllHit": true,
        "muteAllHitEffect": true,
        "muteAllHitText": true
      },
      "combatLock": {
        "lockShape": "CircleLockEnemy",
        "denyLockOn": true,
        "lockType": "Gadget_Lv1"
      },
      "die": {
        "dieEndTime": 0.009999999776482582,
        "dieDisappearEffect": ""
      }
    },
    "combatTemplate": "",
    "abilities": [
      {
        "abilityID": "SceneObj_Area_Common_Property_Prop_Baseball_02",
        "abilityName": "SceneObj_Area_Common_Property_Prop_Baseball_02",
        "abilityOverride": ""
      }
    ],
    "move": {
      "$type": "GMOHNHFHLAO",
      "velocityForce": {
        "muteAll": true
      },
      "speed": 14.0,
      "anglerVelocity": 35.0,
      "acceleration": 4.0,
      "traceOnYAxis": true,
      "whenNoTarget": {
        "$type": "KHJKFPPGDDP",
        "defaultTarget": {
          "$type": "ConfigBornBySelf",
          "offset": {
            "x": 10.0,
            "y": 0.0,
            "z": -40.0
          },
          "useRotation": true
        },
        "radius": 0.5
      }
    },
    "gadget": {
      "$type": "JENBBNKGGJP",
      "collision": {
        "ignoreScene": true
      },
      "killByOther": true,
      "enableCollisionDelay": 1.0
    }
  },
  "SceneObj_Area_Common_Property_Prop_Baseball_04": {
    "$type": "CJKJIENLOHD",
    "globalValue": {
      "serverGlobalValues": ["SGV_Is_BaseBall", "SGV_BaseBall_State"],
      "initServerGlobalValues": {
        "SGV_Is_BaseBall": 1.0,
        "SGV_BaseBall_State": 0.0
      }
    },
    "hasModel": true,
    "combat": {
      "property": {
        "useCreatorProperty": true,
        "hp": 99999.0,
        "attack": 20.0,
        "weight": 50.0,
        "isLockHP": true
      },
      "beHit": {
        "hitBloodEffect": "",
        "muteAllHit": true,
        "muteAllHitEffect": true,
        "muteAllHitText": true
      },
      "combatLock": {
        "lockShape": "CircleLockEnemy",
        "denyLockOn": true,
        "lockType": "Gadget_Lv1"
      },
      "die": {
        "dieEndTime": 0.009999999776482582,
        "dieDisappearEffect": ""
      }
    },
    "combatTemplate": "",
    "abilities": [
      {
        "abilityID": "SceneObj_Area_Common_Property_Prop_Baseball_02",
        "abilityName": "SceneObj_Area_Common_Property_Prop_Baseball_02",
        "abilityOverride": ""
      }
    ],
    "move": {
      "$type": "GMOHNHFHLAO",
      "velocityForce": {
        "muteAll": true
      },
      "speed": 14.0,
      "anglerVelocity": 35.0,
      "acceleration": 4.0,
      "traceOnYAxis": true,
      "whenNoTarget": {
        "$type": "KHJKFPPGDDP",
        "defaultTarget": {
          "$type": "ConfigBornBySelf",
          "offset": {
            "x": -10.0,
            "y": 0.0,
            "z": -40.0
          },
          "useRotation": true
        },
        "radius": 0.5
      }
    },
    "gadget": {
      "$type": "JENBBNKGGJP",
      "collision": {
        "ignoreScene": true
      },
      "killByOther": true,
      "enableCollisionDelay": 1.0
    }
  },
  "SceneObj_Gear_Common_Property_Prop_CharAmusementExpandAccess_01": {
    "$type": "CJKJIENLOHD",
    "combat": {
      "property": {
        "hp": 10000.0,
        "attack": 30.0,
        "isLockHP": true,
        "isGhostToAllied": true,
        "isGhostToEnemy": true,
        "ignorePurgeRate": true
      },
      "beHit": {
        "hitBloodEffect": "",
        "hitAutoRedirect": false,
        "muteAllHitText": true
      },
      "combatLock": {
        "lockShape": "CircleLockEnemy",
        "denyLockOn": true,
        "lockType": "Gadget_Lv1"
      }
    },
    "combatTemplate": "",
    "abilities": [
      {
        "abilityID": "SceneObj_Gear_Common_Property_Prop_CharAmusementExpandAccess_01",
        "abilityName": "SceneObj_Gear_Common_Property_Prop_CharAmusementExpandAccess_01",
        "abilityOverride": ""
      }
    ],
    "field": {
      "concernType": "AllAvatars",
      "shape": "CircleR1",
      "fromShape": "",
      "triggerInfinite": true,
      "lifeInfinite": true,
      "checkInterval": 0.5,
      "overwriteCampType": true,
      "campType": "All",
      "colliderName": "",
      "fromColliderName": ""
    }
  },
  "SceneObj_Gear_Common_Property_Prop_JumpUp_02": {
    "$type": "CJKJIENLOHD",
    "combat": {
      "property": {
        "hp": 10000.0,
        "attack": 30.0,
        "isLockHP": true,
        "isGhostToAllied": true,
        "isGhostToEnemy": true,
        "ignorePurgeRate": true
      },
      "beHit": {
        "hitBloodEffect": "",
        "hitAutoRedirect": false,
        "muteAllHitText": true
      },
      "combatLock": {
        "lockShape": "CircleLockEnemy",
        "denyLockOn": true,
        "lockType": "Gadget_Lv1"
      }
    },
    "combatTemplate": "",
    "abilities": [
      {
        "abilityID": "SceneObj_Gear_Common_Property_Prop_JumpUp_02",
        "abilityName": "SceneObj_Gear_Common_Property_Prop_JumpUp_02",
        "abilityOverride": ""
      }
    ],
    "field": {
      "concernType": "AllAvatars",
      "shape": "CircleR1",
      "fromShape": "",
      "triggerInfinite": true,
      "lifeInfinite": true,
      "checkInterval": 0.5,
      "overwriteCampType": true,
      "campType": "All",
      "colliderName": "",
      "fromColliderName": ""
    }
  },
  "SceneObj_MonsterObj_Level_IceSlime_01": {
    "$type": "CJKJIENLOHD",
    "common": {},
    "hasModel": true,
    "combat": {
      "property": {
        "hp": 99999.0,
        "isLockHP": true,
        "ignoreDamageToSelf": true
      },
      "beHit": {
        "hitBloodEffect": "",
        "hitAutoRedirect": false,
        "muteAllHitText": true
      },
      "combatLock": {
        "lockShape": "CircleLockEnemy",
        "lockType": "Avatar&Monster_Lv4"
      }
    },
    "combatTemplate": "",
    "abilities": [
      {
        "abilityID": "AbilityResistFrozen",
        "abilityName": "AbilityResistFrozen",
        "abilityOverride": ""
      },
      {
        "abilityID": "IceState",
        "abilityName": "Slime_Ice_02_IceState",
        "abilityOverride": ""
      }
    ],
    "stateLayers": {
      "defaultLayer": {
        "$type": "GBGJJIIEMBD",
        "layerIndexName": "",
        "CPAANEIJCGD": "",
        "stateIDs": {
          "Born": {
            "$type": "NEDIFAKEGCO",
            "animatorStates": {
              "Born": ["Monster_Slime_Born_03", "Audio_Slime_03_Born_H"]
            },
            "canSyncMove": true,
            "resetAnimatorTriggerOnExit": ["DoSkill"]
          },
          "NormalIdle": {
            "$type": "NEDIFAKEGCO",
            "animatorStates": {
              "Standby": []
            },
            "canDoSkill": true,
            "canSyncMove": true,
            "resetAnimatorTriggerOnExit": ["DoSkill"]
          },
          "Turn": {
            "$type": "NEDIFAKEGCO",
            "animatorStates": {
              "Turn": ["Audio_Slime_03_Run_H"]
            },
            "canDoSkill": true,
            "canSyncMove": true,
            "resetAnimatorTriggerOnExit": ["DoSkill"]
          },
          "NormalMove": {
            "$type": "NEDIFAKEGCO",
            "animatorStates": {
              "Walk": ["Audio_Slime_03_Walk_H"],
              "Run": ["Audio_Slime_03_Run_H"]
            },
            "canDoSkill": true,
            "canSyncMove": true,
            "resetAnimatorTriggerOnExit": ["DoSkill"],
            "canSteer": true
          },
          "BeHit": {
            "$type": "NEDIFAKEGCO",
            "animatorStates": {
              "Hit_L": ["Monster_Slime_BeHit", "Audio_Slime_03_Hit_L"],
              "Hit_H": ["Monster_Slime_BeHit", "Audio_Slime_03_Hit_H"]
            },
            "resetAnimatorTriggerOnEnter": ["BeHit"],
            "resetAnimatorTriggerOnExit": ["DoSkill"]
          },
          "BeHitThrow": {
            "$type": "NEDIFAKEGCO",
            "animatorStates": {
              "HitThrow": ["Monster_Slime_BeHit", "Audio_Slime_03_HitThrow_H"],
              "HitThrowDrop": [],
              "HitThrowToGround": [
                "Monster_Slime_ThrowToGround_03",
                "Audio_Slime_03_HitThrowToGround_H"
              ]
            },
            "resetAnimatorTriggerOnEnter": ["BeHit", "HitAir2HitDrop"],
            "resetAnimatorTriggerOnExit": ["DoSkill"]
          },
          "Struggle": {
            "$type": "NEDIFAKEGCO",
            "animatorStates": {
              "Struggle": []
            },
            "resetAnimatorTriggerOnEnter": ["BeHit", "HitAir2HitDrop"],
            "resetAnimatorTriggerOnExit": ["DoSkill"]
          },
          "Die": {
            "$type": "NEDIFAKEGCO",
            "animatorStates": {
              "Die": [
                "Monster_Slime_Die",
                "Monster_Slime_Ice_03_Die",
                "Audio_Slime_Ice_03_Die"
              ],
              "SwimDie": [
                "Monster_Slime_Die",
                "Monster_Slime_Ice_03_Die",
                "Audio_Slime_Ice_03_Die"
              ]
            }
          },
          "Warning": {
            "$type": "NEDIFAKEGCO",
            "animatorStates": {
              "Warning": ["Monster_Slime_Warning"]
            },
            "resetAnimatorTriggerOnExit": ["BeHit", "DoSkill"]
          },
          "JumpAttack": {
            "$type": "NEDIFAKEGCO",
            "animatorStates": {
              "JumpAttack": [
                "Monster_Slime_Ice_JumpAttack",
                "Audio_Slime_03_JumpAtk_H"
              ]
            },
            "cullingModelAlwaysAnimate": true,
            "addEndure": 0.6000000238418579,
            "massRatio": 20.0,
            "resetAnimatorTriggerOnExit": ["BeHit", "DoSkill"]
          },
          "ThrowAttack": {
            "$type": "NEDIFAKEGCO",
            "animatorStates": {
              "ThrowAttack_BS": [],
              "ThrowAttack_BS_01": [],
              "ThrowAttack_BS_02": [],
              "ThrowAttack_BS_03": [],
              "ThrowAttack_AS": [
                "Monster_Slime_Ice_ThrowAttack",
                "Audio_Slime_Ice_03_IceThrow"
              ]
            },
            "resetAnimatorTriggerOnExit": ["BeHit", "DoSkill"]
          },
          "BlowAttack": {
            "$type": "NEDIFAKEGCO",
            "animatorStates": {
              "BlowAttack": [
                "Monster_Slime_Ice_BlowAttack",
                "Audio_Slime_Ice_03_BlowAtk"
              ]
            },
            "addEndure": 0.0,
            "massRatio": 20.0,
            "resetAnimatorTriggerOnExit": ["BeHit", "DoSkill"]
          },
          "BlowAttack_Jump": {
            "$type": "NEDIFAKEGCO",
            "animatorStates": {
              "BlowAttack_Jump": ["Audio_Slime_03_Run_H"]
            },
            "resetAnimatorTriggerOnExit": ["BeHit", "DoSkill"]
          },
          "ShieldBorn": {
            "$type": "NEDIFAKEGCO",
            "animatorStates": {
              "ShieldBorn": ["Monster_Slime_Ice_03_ShieldBorn"]
            },
            "addEndure": 0.6000000238418579,
            "massRatio": 20.0,
            "resetAnimatorTriggerOnExit": ["BeHit", "DoSkill"]
          },
          "ShieldDestroy": {
            "$type": "NEDIFAKEGCO",
            "animatorStates": {
              "ShieldDestroy": ["Monster_Slime_Ice_ShieldDestroy"]
            },
            "resetAnimatorTriggerOnExit": ["BeHit", "DoSkill"]
          }
        }
      }
    }
  }
}
