{
  "Dvalin_Trigger01": {
    "$type": "CJKJIENLOHD",
    "combatTemplate": "",
    "field": {
      "concernType": "AllAvatars",
      "shape": "CircleR10",
      "fromShape": "",
      "lifeInfinite": true,
      "checkInterval": 0.10000000149011612,
      "triggerCount": 1,
      "colliderName": "",
      "fromColliderName": ""
    },
    "move": {
      "$type": "MMAPEFIEGAL",
      "target": "TargetEntity",
      "attachPoint": "",
      "followRotation": true,
      "offset": {
        "y": 50.0,
        "z": -60.0
      },
      "HOMINCCNFHE": {
        "z": 1.0
      },
      "LFOHLEKJFBI": ""
    }
  },
  "Dvalin_AirFlowGlobal01": {
    "$type": "CJKJIENLOHD",
    "combatTemplate": "",
    "move": {
      "$type": "MMAPEFIEGAL",
      "target": "TargetEntity",
      "attachPoint": "",
      "followRotation": true,
      "HOMINCCNFHE": {
        "z": 1.0
      },
      "LFOHLEKJFBI": ""
    },
    "misc": {
      "forceField": {
        "$type": "NJNBPMFBLMP",
        "specialTipsIconPath": "",
        "stayEffect": "Eff_Windfield_Stay",
        "enterEffect": "Eff_Windfield_Enter"
      },
      "escapeEffect": ""
    }
  },
  "Dvalin_S01_ElementBall_Wind": {
    "$type": "CJKJIENLOHD",
    "combat": {
      "property": {
        "useCreatorProperty": true,
        "hp": 999999.0,
        "attack": 15.0,
        "defense": 999999.0,
        "isGhostToAllied": true,
        "isGhostToEnemy": true,
        "canTriggerBullet": false
      },
      "beHit": {
        "hitBloodEffect": "",
        "muteAllHit": true,
        "muteAllHitEffect": true,
        "muteAllHitText": true
      },
      "combatLock": {
        "lockShape": "CircleLockEnemy",
        "denyLockOn": true,
        "lockType": "Default"
      }
    },
    "combatTemplate": "",
    "abilities": [
      {
        "abilityID": "Dvalin_S01_ElementBall_Wind",
        "abilityName": "Dvalin_S01_ElementBall_Wind",
        "abilityOverride": ""
      }
    ],
    "timer": {
      "lifeTime": 20.0
    },
    "move": {
      "$type": "DMLAFKAOGID",
      "speed": 10.0,
      "maxSpeed": 6.0,
      "minSpeed": 6.0,
      "anglerVelocity": 360.0,
      "itanoCircusStartAngler": 180.0,
      "guidanceDelay": 0.5,
      "guidanceDuration": 20.0
    },
    "gadget": {
      "$type": "JENBBNKGGJP",
      "collision": {
        "targetType": "Enemy",
        "ignoreScene": true
      },
      "triggerActions": [
        {
          "$type": "AILPBJHDHDG",
          "abilityName": "Dvalin_S01_ElementBall_Wind"
        }
      ]
    }
  },
  "Dvalin_WindRing01": {
    "$type": "CJKJIENLOHD",
    "combat": {
      "property": {
        "hp": 9999.0,
        "attack": 15.0,
        "defense": 999999.0,
        "isLockHP": true,
        "isGhostToAllied": true,
        "canTriggerBullet": false
      },
      "beHit": {
        "hitBloodEffect": "",
        "muteAllHit": true,
        "muteAllHitEffect": true,
        "muteAllHitText": true
      },
      "combatLock": {
        "lockShape": "CircleLockEnemy",
        "lockType": "Boss_Lv5"
      }
    },
    "combatTemplate": "",
    "timer": {
      "lifeTime": 10.0
    },
    "move": {
      "$type": "GONNMCBKAOC",
      "speed": 3.5
    }
  },
  "Dvalin_S01_WindSlime": {
    "$type": "CJKJIENLOHD",
    "combat": {
      "property": {
        "hp": 20.0,
        "attack": 15.0,
        "weight": 100.0,
        "isGhostToAllied": true,
        "isGhostToEnemy": true,
        "canTriggerBullet": false
      },
      "beHit": {
        "hitBloodEffect": "",
        "muteAllHit": true,
        "muteAllHitEffect": true
      },
      "combatLock": {
        "lockShape": "CircleLockEnemy",
        "denyLockOn": true,
        "lockType": "Default"
      }
    },
    "combatTemplate": "",
    "timer": {
      "lifeTime": 10.0
    }
  },
  "Dvalin_S01_FireAbyss": {
    "$type": "CJKJIENLOHD",
    "combat": {
      "property": {
        "hp": 10.0,
        "attack": 100.0,
        "weight": 75.0,
        "isGhostToAllied": true
      },
      "beHit": {
        "hitBloodEffect": "",
        "muteAllHit": true,
        "muteAllHitEffect": true,
        "muteAllHitText": true
      },
      "combatLock": {
        "lockShape": "CircleLockEnemy",
        "denyLockOn": true,
        "lockType": "Default"
      }
    },
    "combatTemplate": "",
    "timer": {
      "lifeInfinite": true
    },
    "stateLayers": {
      "defaultLayer": {
        "$type": "GBGJJIIEMBD",
        "layerIndexName": "",
        "CPAANEIJCGD": "",
        "stateIDs": {
          "Born": {
            "$type": "BEIEGKBABOF",
            "animatorStates": {
              "Born": ["Audio_Abyss_Dvalin_Born"]
            }
          },
          "NormalIdle": {
            "$type": "BEIEGKBABOF",
            "animatorStates": {
              "Standby": []
            }
          },
          "Skill01": {
            "$type": "NEDIFAKEGCO",
            "animatorStates": {
              "Skill01": [
                "Monster_Dvalin_FireAbyss_Skill01",
                "Audio_Abyss_Dvalin_Skill01"
              ]
            }
          }
        }
      }
    },
    "billboard": {
      "$type": "DNGNMAJBCNP",
      "attachPoint": "Shoot",
      "offset": {
        "y": 2.4000000953674316
      },
      "radiusOffset": 3.0,
      "showDistance": 48.0,
      "showHPBar": true,
      "size": "Grand"
    }
  },
  "Dvalin_S01_FireAbyss_Cyclone": {
    "$type": "CJKJIENLOHD",
    "common": {
      "effectAttachShape": {
        "$type": "OMIODKONOMG",
        "scaleZ": 0.4000000059604645
      }
    },
    "combat": {
      "property": {
        "useCreatorProperty": true,
        "hp": 999999.0,
        "attack": 15.0,
        "defense": 999999.0,
        "isLockHP": true,
        "canTriggerBullet": false
      },
      "beHit": {
        "hitBloodEffect": "",
        "muteAllHit": true,
        "muteAllHitEffect": true,
        "muteAllHitText": true
      },
      "combatLock": {
        "lockShape": "CircleLockEnemy",
        "denyLockOn": true,
        "lockType": "Default"
      }
    },
    "combatTemplate": "",
    "timer": {
      "lifeTime": 5.0
    },
    "move": {
      "$type": "GONNMCBKAOC",
      "speed": 25.0
    }
  },
  "Dvalin_S01_FireAbyss_Totem": {
    "$type": "CJKJIENLOHD",
    "combat": {
      "property": {
        "useCreatorProperty": true,
        "hp": 1.0,
        "attack": 15.0,
        "defense": 999999.0,
        "isGhostToAllied": true
      },
      "beHit": {
        "hitBloodEffect": "",
        "muteAllHit": true,
        "muteAllHitEffect": true,
        "muteAllHitText": true
      },
      "combatLock": {
        "lockShape": "CircleLockEnemy",
        "denyLockOn": true,
        "lockType": "Default"
      }
    },
    "combatTemplate": "",
    "timer": {
      "lifeTime": 10.0
    },
    "move": {
      "$type": "MMAPEFIEGAL",
      "target": "TargetEntity",
      "attachPoint": "",
      "offset": {
        "z": 25.0
      },
      "HOMINCCNFHE": {
        "z": -1.0
      },
      "LFOHLEKJFBI": ""
    },
    "partControl": {
      "parts": [
        {
          "$type": "INCPGKCDCIO",
          "angularSpeed": 999999.0,
          "partRootName": "Shoot",
          "forwardByTransName": "",
          "limitHorizontal": 180.0,
          "limitVertical": 180.0
        }
      ]
    }
  },
  "Dvalin_S01_FireAbyss_TotemLaser": {
    "$type": "CJKJIENLOHD",
    "common": {
      "effectAttachShape": {
        "$type": "OMIODKONOMG"
      }
    },
    "combat": {
      "property": {
        "useCreatorProperty": true,
        "hp": 999999.0,
        "attack": 10.0,
        "defense": 999999.0,
        "isInvincible": true,
        "isGhostToAllied": true,
        "isGhostToEnemy": true,
        "canTriggerBullet": false
      },
      "beHit": {
        "hitBloodEffect": "",
        "muteAllHit": true,
        "muteAllHitEffect": true,
        "muteAllHitText": true
      },
      "combatLock": {
        "lockShape": "CircleLockEnemy",
        "denyLockOn": true,
        "lockType": "Default"
      }
    },
    "combatTemplate": "",
    "timer": {
      "lifeTime": 1.0
    },
    "move": {
      "$type": "GONNMCBKAOC",
      "speed": 120.0,
      "DPAAFHNMHHN": {
        "$type": "IFAANDLLGLP",
        "traceLerpCoef": 60.0
      }
    }
  },
  "Dvalin_S01_FireAbyss_Fan": {
    "$type": "CJKJIENLOHD",
    "combat": {
      "property": {
        "useCreatorProperty": true,
        "hp": 999999.0,
        "attack": 15.0,
        "defense": 999999.0,
        "isGhostToAllied": true,
        "isGhostToEnemy": true,
        "canTriggerBullet": false
      },
      "beHit": {
        "hitBloodEffect": "",
        "muteAllHit": true,
        "muteAllHitEffect": true,
        "muteAllHitText": true
      },
      "combatLock": {
        "lockShape": "CircleLockEnemy",
        "denyLockOn": true,
        "lockType": "Default"
      }
    },
    "combatTemplate": "",
    "timer": {
      "lifeTime": 20.0
    },
    "move": {
      "$type": "MMAPEFIEGAL",
      "target": "TargetEntity",
      "attachPoint": "",
      "offset": {
        "z": 1.0
      },
      "HOMINCCNFHE": {
        "z": -1.0
      },
      "LFOHLEKJFBI": ""
    }
  },
  "Dvalin_S01_Bullet01_Launcher": {
    "$type": "CJKJIENLOHD",
    "combat": {
      "property": {
        "useCreatorProperty": true,
        "hp": 999999.0,
        "attack": 15.0,
        "defense": 999999.0,
        "isGhostToAllied": true,
        "isGhostToEnemy": true,
        "canTriggerBullet": false
      },
      "beHit": {
        "hitBloodEffect": "",
        "muteAllHit": true,
        "muteAllHitEffect": true,
        "muteAllHitText": true
      },
      "combatLock": {
        "lockShape": "CircleLockEnemy",
        "denyLockOn": true,
        "lockType": "Default"
      }
    },
    "combatTemplate": "",
    "timer": {
      "lifeTime": 10.0
    },
    "move": {
      "$type": "MMAPEFIEGAL",
      "target": "TargetEntity",
      "attachPoint": "",
      "offset": {
        "z": 30.0
      },
      "HOMINCCNFHE": {
        "z": -1.0
      },
      "LFOHLEKJFBI": ""
    }
  },
  "Dvalin_S01_Bullet02_Launcher": {
    "$type": "CJKJIENLOHD",
    "combat": {
      "property": {
        "useCreatorProperty": true,
        "hp": 999999.0,
        "attack": 15.0,
        "defense": 999999.0,
        "isGhostToAllied": true,
        "isGhostToEnemy": true,
        "canTriggerBullet": false
      },
      "beHit": {
        "hitBloodEffect": "",
        "muteAllHit": true,
        "muteAllHitEffect": true,
        "muteAllHitText": true
      },
      "combatLock": {
        "lockShape": "CircleLockEnemy",
        "denyLockOn": true,
        "lockType": "Default"
      }
    },
    "combatTemplate": "",
    "timer": {
      "lifeTime": 10.0
    },
    "move": {
      "$type": "MMAPEFIEGAL",
      "target": "TargetEntity",
      "attachPoint": "",
      "offset": {
        "z": 30.0
      },
      "HOMINCCNFHE": {
        "z": -1.0
      },
      "LFOHLEKJFBI": ""
    }
  },
  "Dvalin_S01_Bullet01": {
    "$type": "CJKJIENLOHD",
    "combat": {
      "property": {
        "useCreatorProperty": true,
        "hp": 999999.0,
        "attack": 15.0,
        "defense": 999999.0,
        "isGhostToAllied": true,
        "isGhostToEnemy": true,
        "canTriggerBullet": false
      },
      "beHit": {
        "hitBloodEffect": "",
        "muteAllHit": true,
        "muteAllHitEffect": true,
        "muteAllHitText": true
      },
      "combatLock": {
        "lockShape": "CircleLockEnemy",
        "denyLockOn": true,
        "lockType": "Default"
      }
    },
    "combatTemplate": "",
    "timer": {
      "lifeTime": 2.0
    },
    "move": {
      "$type": "GONNMCBKAOC",
      "speed": 50.0
    }
  },
  "Dvalin_S01_Moving_Center": {
    "$type": "CJKJIENLOHD",
    "common": {
      "disableTickDistance": 100000.0
    },
    "combat": {
      "property": {
        "useCreatorProperty": true,
        "hp": 999999.0,
        "attack": 15.0,
        "defense": 999999.0,
        "isGhostToAllied": true,
        "isGhostToEnemy": true,
        "canTriggerBullet": false
      },
      "beHit": {
        "hitBloodEffect": "",
        "muteAllHit": true,
        "muteAllHitEffect": true,
        "muteAllHitText": true
      },
      "combatLock": {
        "lockShape": "CircleLockEnemy",
        "denyLockOn": true,
        "lockType": "Default"
      }
    },
    "combatTemplate": "",
    "abilities": [
      {
        "abilityID": "Dvalin_S01_Update_Moving_Center",
        "abilityName": "Dvalin_S01_Update_Moving_Center",
        "abilityOverride": ""
      }
    ]
  },
  "Dvalin_S01_TrackBarrageLauncher": {
    "$type": "CJKJIENLOHD",
    "common": {
      "disableTickDistance": 10000.0
    },
    "combat": {
      "property": {
        "useCreatorProperty": true,
        "hp": 999999.0,
        "attack": 15.0,
        "defense": 999999.0,
        "isGhostToAllied": true,
        "isGhostToEnemy": true,
        "canTriggerBullet": false
      },
      "beHit": {
        "hitBloodEffect": "",
        "muteAllHit": true,
        "muteAllHitEffect": true,
        "muteAllHitText": true
      },
      "combatLock": {
        "lockShape": "CircleLockEnemy",
        "denyLockOn": true,
        "lockType": "Default"
      }
    },
    "combatTemplate": "",
    "abilities": [
      {
        "abilityID": "Dvalin_S01_TrackBarrageLauncher_TriggerBullet",
        "abilityName": "Dvalin_S01_TrackBarrageLauncher_TriggerBullet",
        "abilityOverride": ""
      }
    ],
    "timer": {
      "lifeTime": 1.0
    }
  },
  "Dvalin_S01_TrackBarrageLauncher_Process": {
    "$type": "CJKJIENLOHD",
    "common": {
      "disableTickDistance": 10000.0
    },
    "combat": {
      "property": {
        "useCreatorProperty": true,
        "hp": 999999.0,
        "attack": 15.0,
        "defense": 999999.0,
        "isGhostToAllied": true,
        "isGhostToEnemy": true,
        "canTriggerBullet": false
      },
      "beHit": {
        "hitBloodEffect": "",
        "muteAllHit": true,
        "muteAllHitEffect": true,
        "muteAllHitText": true
      },
      "combatLock": {
        "lockShape": "CircleLockEnemy",
        "denyLockOn": true,
        "lockType": "Default"
      }
    },
    "combatTemplate": "",
    "abilities": [
      {
        "abilityID": "Dvalin_S01_TrackBarrageLauncher_TriggerBullet_Process",
        "abilityName": "Dvalin_S01_TrackBarrageLauncher_TriggerBullet_Process",
        "abilityOverride": ""
      }
    ],
    "timer": {
      "lifeTime": 1.0
    }
  },
  "Dvalin_S01_WindRingLauncher": {
    "$type": "CJKJIENLOHD",
    "common": {
      "disableTickDistance": 10000.0
    },
    "combat": {
      "property": {
        "useCreatorProperty": true,
        "hp": 999999.0,
        "attack": 15.0,
        "defense": 999999.0,
        "isGhostToAllied": true,
        "isGhostToEnemy": true,
        "canTriggerBullet": false
      },
      "beHit": {
        "hitBloodEffect": "",
        "muteAllHit": true,
        "muteAllHitEffect": true,
        "muteAllHitText": true
      },
      "combatLock": {
        "lockShape": "CircleLockEnemy",
        "denyLockOn": true,
        "lockType": "Default"
      }
    },
    "combatTemplate": "",
    "abilities": [
      {
        "abilityID": "Dvalin_S01_WindRingLauncher_CreateWindRingEmitter",
        "abilityName": "Dvalin_S01_WindRingLauncher_CreateWindRingEmitter",
        "abilityOverride": ""
      }
    ],
    "timer": {
      "lifeTime": 1.0
    }
  },
  "Dvalin_S01_EnergyBarrageLauncher": {
    "$type": "CJKJIENLOHD",
    "common": {
      "disableTickDistance": 10000.0
    },
    "combat": {
      "property": {
        "useCreatorProperty": true,
        "hp": 999999.0,
        "attack": 15.0,
        "defense": 999999.0,
        "isGhostToAllied": true,
        "isGhostToEnemy": true,
        "canTriggerBullet": false
      },
      "beHit": {
        "hitBloodEffect": "",
        "muteAllHit": true,
        "muteAllHitEffect": true,
        "muteAllHitText": true
      },
      "combatLock": {
        "lockShape": "CircleLockEnemy",
        "denyLockOn": true,
        "lockType": "Default"
      }
    },
    "combatTemplate": "",
    "abilities": [
      {
        "abilityID": "Dvalin_S01_EnergyBarrageLauncher_TriggerEmitter",
        "abilityName": "Dvalin_S01_EnergyBarrageLauncher_TriggerEmitter",
        "abilityOverride": ""
      }
    ],
    "timer": {
      "lifeTime": 1.0
    }
  },
  "Dvalin_S01_EnergyBarrageLauncher_Process": {
    "$type": "CJKJIENLOHD",
    "common": {
      "disableTickDistance": 10000.0
    },
    "combat": {
      "property": {
        "useCreatorProperty": true,
        "hp": 999999.0,
        "attack": 15.0,
        "defense": 999999.0,
        "isGhostToAllied": true,
        "isGhostToEnemy": true,
        "canTriggerBullet": false
      },
      "beHit": {
        "hitBloodEffect": "",
        "muteAllHit": true,
        "muteAllHitEffect": true,
        "muteAllHitText": true
      },
      "combatLock": {
        "lockShape": "CircleLockEnemy",
        "denyLockOn": true,
        "lockType": "Default"
      }
    },
    "combatTemplate": "",
    "abilities": [
      {
        "abilityID": "Dvalin_S01_EnergyBarrageLauncher_TriggerEmitter_Process",
        "abilityName": "Dvalin_S01_EnergyBarrageLauncher_TriggerEmitter_Process",
        "abilityOverride": ""
      }
    ],
    "timer": {
      "lifeTime": 1.0
    }
  },
  "Dvalin_S01_BulletEmitter": {
    "$type": "CJKJIENLOHD",
    "common": {
      "disableTickDistance": 10000.0
    },
    "combat": {
      "property": {
        "useCreatorProperty": true,
        "hp": 999999.0,
        "attack": 15.0,
        "defense": 999999.0,
        "isGhostToAllied": true,
        "isGhostToEnemy": true,
        "canTriggerBullet": false
      },
      "beHit": {
        "hitBloodEffect": "",
        "muteAllHit": true,
        "muteAllHitEffect": true,
        "muteAllHitText": true
      },
      "combatLock": {
        "lockShape": "CircleLockEnemy",
        "denyLockOn": true,
        "lockType": "Default"
      }
    },
    "combatTemplate": "",
    "abilities": [
      {
        "abilityID": "Dvalin_S01_BulletEmitter_TriggerBullet",
        "abilityName": "Dvalin_S01_BulletEmitter_TriggerBullet",
        "abilityOverride": ""
      }
    ],
    "timer": {
      "lifeTime": 5.0
    }
  },
  "Dvalin_S01_BulletEmitter_Process": {
    "$type": "CJKJIENLOHD",
    "common": {
      "disableTickDistance": 10000.0
    },
    "combat": {
      "property": {
        "useCreatorProperty": true,
        "hp": 999999.0,
        "attack": 15.0,
        "defense": 999999.0,
        "isGhostToAllied": true,
        "isGhostToEnemy": true,
        "canTriggerBullet": false
      },
      "beHit": {
        "hitBloodEffect": "",
        "muteAllHit": true,
        "muteAllHitEffect": true,
        "muteAllHitText": true
      },
      "combatLock": {
        "lockShape": "CircleLockEnemy",
        "denyLockOn": true,
        "lockType": "Default"
      }
    },
    "combatTemplate": "",
    "abilities": [
      {
        "abilityID": "Dvalin_S01_BulletEmitter_Process_TriggerBullet",
        "abilityName": "Dvalin_S01_BulletEmitter_Process_TriggerBullet",
        "abilityOverride": ""
      }
    ],
    "timer": {
      "lifeTime": 5.0
    }
  },
  "Dvalin_S02_AirGun": {
    "$type": "CJKJIENLOHD",
    "common": {
      "effectAttachShape": {
        "$type": "OMIODKONOMG"
      }
    },
    "combat": {
      "property": {
        "useCreatorProperty": true,
        "hp": 999999.0,
        "attack": 10.0,
        "defense": 999999.0,
        "canTriggerBullet": false
      },
      "beHit": {
        "hitBloodEffect": "",
        "muteAllHit": true,
        "muteAllHitEffect": true,
        "muteAllHitText": true
      },
      "combatLock": {
        "lockShape": "CircleLockEnemy",
        "denyLockOn": true,
        "lockType": "Default"
      }
    },
    "combatTemplate": "",
    "abilities": [
      {
        "abilityID": "Dvalin_S02_AirGun_Bullet",
        "abilityName": "Dvalin_S02_AirGun_Bullet",
        "abilityOverride": ""
      },
      {
        "abilityID": "Dvalin_S02_AirGun_Explode",
        "abilityName": "Dvalin_S02_AirGun_Explode",
        "abilityOverride": ""
      }
    ],
    "timer": {
      "lifeTime": 0.4000000059604645
    },
    "move": {
      "$type": "GONNMCBKAOC",
      "speed": 500.0,
      "DPAAFHNMHHN": {
        "$type": "IFAANDLLGLP"
      }
    },
    "gadget": {
      "$type": "JENBBNKGGJP",
      "collision": {
        "targetType": "Enemy"
      },
      "triggerActions": [
        {
          "$type": "AILPBJHDHDG",
          "abilityName": "Dvalin_S02_AirGun_Explode"
        }
      ]
    }
  },
  "Dvalin_S01_ChargeDummy": {
    "$type": "CJKJIENLOHD",
    "combat": {
      "property": {
        "useCreatorProperty": true,
        "hp": 999999.0,
        "attack": 15.0,
        "defense": 999999.0,
        "isGhostToAllied": true,
        "isGhostToEnemy": true,
        "canTriggerBullet": false
      },
      "beHit": {
        "hitBloodEffect": "",
        "muteAllHit": true,
        "muteAllHitEffect": true,
        "muteAllHitText": true
      },
      "combatLock": {
        "lockShape": "CircleLockEnemy",
        "denyLockOn": true,
        "lockType": "Default"
      }
    },
    "combatTemplate": "",
    "abilities": [
      {
        "abilityID": "Dvalin_S01_ChargeDummy",
        "abilityName": "Dvalin_S01_ChargeDummy",
        "abilityOverride": ""
      },
      {
        "abilityID": "Dvalin_S01_ChargeDummy_StartCharge",
        "abilityName": "Dvalin_S01_ChargeDummy_StartCharge",
        "abilityOverride": ""
      }
    ],
    "move": {
      "$type": "MMAPEFIEGAL",
      "attachPoint": "Neck",
      "LFOHLEKJFBI": ""
    },
    "billboard": {
      "$type": "DNGNMAJBCNP",
      "attachPoint": "BillboardAttach",
      "offset": {
        "y": 0.4000000059604645
      },
      "radiusOffset": 0.5,
      "showDistance": 48.0,
      "showHPBar": true,
      "size": "Big",
      "shieldBarOnly": true
    }
  },
  "Dvalin_S01_Missile_01": {
    "$type": "CJKJIENLOHD",
    "common": {
      "effectAttachShape": {
        "$type": "OMIODKONOMG",
        "scaleZ": 0.4000000059604645
      }
    },
    "combat": {
      "property": {
        "useCreatorProperty": true,
        "hp": 999999.0,
        "attack": 15.0,
        "defense": 999999.0,
        "isLockHP": true,
        "canTriggerBullet": false
      },
      "beHit": {
        "hitBloodEffect": "",
        "muteAllHit": true,
        "muteAllHitEffect": true,
        "muteAllHitText": true
      },
      "combatLock": {
        "lockShape": "CircleLockEnemy",
        "denyLockOn": true,
        "lockType": "Default"
      }
    },
    "combatTemplate": "",
    "timer": {
      "lifeTime": 8.0
    },
    "move": {
      "$type": "DMLAFKAOGID",
      "speed": 50.0,
      "maxSpeed": 18.0,
      "minSpeed": 48.0,
      "anglerVelocity": 540.0,
      "acceleration": 8.0,
      "guidanceDelay": 0.5,
      "guidanceDuration": 1.0
    }
  },
  "Dvalin_S01_Missile_02": {
    "$type": "CJKJIENLOHD",
    "common": {
      "effectAttachShape": {
        "$type": "OMIODKONOMG",
        "scaleZ": 0.4000000059604645
      }
    },
    "combat": {
      "property": {
        "useCreatorProperty": true,
        "hp": 999999.0,
        "attack": 15.0,
        "defense": 999999.0,
        "isLockHP": true,
        "canTriggerBullet": false
      },
      "beHit": {
        "hitBloodEffect": "",
        "muteAllHit": true,
        "muteAllHitEffect": true,
        "muteAllHitText": true
      },
      "combatLock": {
        "lockShape": "CircleLockEnemy",
        "denyLockOn": true,
        "lockType": "Default"
      }
    },
    "combatTemplate": "",
    "timer": {
      "lifeTime": 10.0
    },
    "move": {
      "$type": "DMLAFKAOGID",
      "speed": 70.0,
      "maxSpeed": 300.0,
      "minSpeed": 30.0,
      "anglerVelocity": 540.0,
      "acceleration": 50.0,
      "itanoCircusStartAngler": 270.0,
      "guidanceDelay": 0.699999988079071,
      "guidanceMinAnglerVelocity": 3.0
    }
  },
  "Dvalin_S01_EnergyBullet": {
    "$type": "CJKJIENLOHD",
    "common": {
      "disableTickDistance": 10000.0
    },
    "combat": {
      "property": {
        "useCreatorProperty": true,
        "hp": 10.0,
        "attack": 15.0,
        "defense": 999999.0,
        "isLockHP": true,
        "isGhostToAllied": true,
        "isGhostToEnemy": true,
        "canTriggerBullet": false
      },
      "beHit": {
        "hitBloodEffect": "",
        "muteAllHit": true,
        "muteAllHitEffect": true,
        "muteAllHitText": true
      },
      "combatLock": {
        "lockShape": "CircleLockEnemy",
        "denyLockOn": true,
        "lockType": "Default"
      }
    },
    "combatTemplate": "",
    "abilities": [
      {
        "abilityID": "Dvalin_S01_EnergyBullet_Damage",
        "abilityName": "Dvalin_S01_EnergyBullet_Damage",
        "abilityOverride": ""
      }
    ],
    "timer": {
      "lifeTime": 3.799999952316284
    },
    "move": {
      "$type": "GONNMCBKAOC",
      "speed": 15.0,
      "acceleration": 25.0
    },
    "gadget": {
      "$type": "JENBBNKGGJP",
      "collision": {
        "targetType": "Enemy"
      },
      "triggerActions": [
        {
          "$type": "AILPBJHDHDG",
          "abilityName": "Dvalin_S01_EnergyBullet_Damage"
        }
      ]
    }
  },
  "Dvalin_S01_EnergyBullet_Process": {
    "$type": "CJKJIENLOHD",
    "common": {
      "disableTickDistance": 10000.0
    },
    "combat": {
      "property": {
        "useCreatorProperty": true,
        "hp": 10.0,
        "attack": 15.0,
        "defense": 999999.0,
        "isLockHP": true,
        "isGhostToAllied": true,
        "isGhostToEnemy": true,
        "canTriggerBullet": false
      },
      "beHit": {
        "hitBloodEffect": "",
        "muteAllHit": true,
        "muteAllHitEffect": true,
        "muteAllHitText": true
      },
      "combatLock": {
        "lockShape": "CircleLockEnemy",
        "denyLockOn": true,
        "lockType": "Default"
      }
    },
    "combatTemplate": "",
    "abilities": [
      {
        "abilityID": "Dvalin_S01_EnergyBullet_Damage",
        "abilityName": "Dvalin_S01_EnergyBullet_Damage",
        "abilityOverride": ""
      }
    ],
    "timer": {
      "lifeTime": 3.799999952316284
    },
    "move": {
      "$type": "GONNMCBKAOC",
      "speed": 27.5,
      "acceleration": 30.0
    },
    "gadget": {
      "$type": "JENBBNKGGJP",
      "collision": {
        "targetType": "Enemy"
      },
      "triggerActions": [
        {
          "$type": "AILPBJHDHDG",
          "abilityName": "Dvalin_S01_EnergyBullet_Damage"
        }
      ]
    }
  },
  "Dvalin_S01_TrackBullet": {
    "$type": "CJKJIENLOHD",
    "common": {
      "disableTickDistance": 10000.0
    },
    "combat": {
      "property": {
        "useCreatorProperty": true,
        "hp": 10.0,
        "attack": 15.0,
        "defense": 999999.0,
        "isLockHP": true,
        "isGhostToAllied": true,
        "isGhostToEnemy": true,
        "canTriggerBullet": false
      },
      "beHit": {
        "hitBloodEffect": "",
        "muteAllHit": true,
        "muteAllHitEffect": true,
        "muteAllHitText": true
      },
      "combatLock": {
        "lockShape": "CircleLockEnemy",
        "denyLockOn": true,
        "lockType": "Default"
      }
    },
    "combatTemplate": "",
    "abilities": [
      {
        "abilityID": "Dvalin_S01_TrackBullet_Damage",
        "abilityName": "Dvalin_S01_TrackBullet_Damage",
        "abilityOverride": ""
      }
    ],
    "timer": {
      "lifeTime": 4.0
    },
    "move": {
      "$type": "DMLAFKAOGID",
      "speed": 20.0,
      "maxSpeed": 60.0,
      "minSpeed": 20.0,
      "anglerVelocity": 720.0,
      "acceleration": 20.0,
      "DPAAFHNMHHN": {
        "$type": "IFAANDLLGLP"
      },
      "itanoCircusStartAngler": 240.0,
      "guidanceDelay": 0.15000000596046448,
      "guidanceDuration": 0.3499999940395355
    },
    "gadget": {
      "$type": "JENBBNKGGJP",
      "collision": {
        "targetType": "Enemy"
      },
      "triggerActions": [
        {
          "$type": "AILPBJHDHDG",
          "abilityName": "Dvalin_S01_TrackBullet_Damage"
        }
      ]
    }
  },
  "Dvalin_S01_TrackBullet_Process": {
    "$type": "CJKJIENLOHD",
    "common": {
      "disableTickDistance": 10000.0
    },
    "combat": {
      "property": {
        "useCreatorProperty": true,
        "hp": 10.0,
        "attack": 15.0,
        "defense": 999999.0,
        "isLockHP": true,
        "isGhostToAllied": true,
        "isGhostToEnemy": true,
        "canTriggerBullet": false
      },
      "beHit": {
        "hitBloodEffect": "",
        "muteAllHit": true,
        "muteAllHitEffect": true,
        "muteAllHitText": true
      },
      "combatLock": {
        "lockShape": "CircleLockEnemy",
        "denyLockOn": true,
        "lockType": "Default"
      }
    },
    "combatTemplate": "",
    "abilities": [
      {
        "abilityID": "Dvalin_S01_TrackBullet_Damage",
        "abilityName": "Dvalin_S01_TrackBullet_Damage",
        "abilityOverride": ""
      }
    ],
    "timer": {
      "lifeTime": 4.0
    },
    "move": {
      "$type": "DMLAFKAOGID",
      "speed": 25.0,
      "maxSpeed": 60.0,
      "minSpeed": 25.0,
      "anglerVelocity": 720.0,
      "acceleration": 25.0,
      "DPAAFHNMHHN": {
        "$type": "IFAANDLLGLP"
      },
      "itanoCircusStartAngler": 240.0,
      "guidanceDelay": 0.10000000149011612,
      "guidanceDuration": 0.75
    },
    "gadget": {
      "$type": "JENBBNKGGJP",
      "collision": {
        "targetType": "Enemy"
      },
      "triggerActions": [
        {
          "$type": "AILPBJHDHDG",
          "abilityName": "Dvalin_S01_TrackBullet_Damage"
        }
      ]
    }
  },
  "Dvalin_S01_WindRingEmitter": {
    "$type": "CJKJIENLOHD",
    "combat": {
      "property": {
        "hp": 10.0,
        "attack": 15.0,
        "defense": 999999.0,
        "isLockHP": true,
        "isGhostToAllied": true
      },
      "beHit": {
        "hitBloodEffect": "",
        "muteAllHit": true,
        "muteAllHitEffect": true,
        "muteAllHitText": true
      },
      "combatLock": {
        "lockShape": "CircleLockEnemy",
        "denyLockOn": true,
        "lockType": "Default"
      }
    },
    "combatTemplate": "",
    "abilities": [
      {
        "abilityID": "Dvalin_S01_WindRingEmitter_CreateWindRing",
        "abilityName": "Dvalin_S01_WindRingEmitter_CreateWindRing",
        "abilityOverride": ""
      }
    ],
    "timer": {
      "lifeTime": 12.0
    },
    "move": {
      "$type": "GONNMCBKAOC",
      "speed": 7.5,
      "delay": 1.2000000476837158
    },
    "billboard": {
      "$type": "DNGNMAJBCNP",
      "attachPoint": "RootNode",
      "offset": {
        "y": 3.0
      },
      "radiusOffset": 2.5999999046325684,
      "showDistance": 60.0,
      "showHPBar": true,
      "forceShowDistance": 60.0,
      "size": "Big",
      "shieldBarOnly": true
    }
  },
  "Dvalin_S01_WindRing": {
    "$type": "CJKJIENLOHD",
    "combat": {
      "property": {
        "hp": 9999.0,
        "attack": 15.0,
        "defense": 999999.0,
        "isLockHP": true,
        "isGhostToAllied": true,
        "isGhostToEnemy": true,
        "canTriggerBullet": false
      },
      "beHit": {
        "hitBloodEffect": "",
        "muteAllHit": true,
        "muteAllHitEffect": true,
        "muteAllHitText": true
      },
      "combatLock": {
        "lockShape": "CircleLockEnemy",
        "denyLockOn": true,
        "lockType": "Default"
      }
    },
    "combatTemplate": "",
    "abilities": [
      {
        "abilityID": "Dvalin_S01_WindRing_Push",
        "abilityName": "Dvalin_S01_WindRing_Push",
        "abilityOverride": ""
      }
    ],
    "timer": {
      "lifeTime": 12.0
    },
    "move": {
      "$type": "GONNMCBKAOC",
      "speed": 7.5
    },
    "gadget": {
      "$type": "JENBBNKGGJP",
      "collision": {
        "triggerType": "TriggerNoRepeat",
        "targetType": "Enemy",
        "ignoreScene": true
      },
      "triggerActions": [
        {
          "$type": "AILPBJHDHDG",
          "abilityName": "Dvalin_S01_WindRing_Push"
        }
      ]
    }
  }
}
