{
  "SceneObj_Area_Common_Property_Ani_Prop_NoticeBoard_05": {
    "$type": "CJKJIENLOHD",
    "hasModel": true,
    "combat": {
      "property": {
        "hp": 99999.0,
        "attack": 50.0,
        "weight": 50.0,
        "isLockHP": true
      },
      "beHit": {
        "hitBloodEffect": "",
        "hitAutoRedirect": false,
        "muteAllHitText": true
      },
      "combatLock": {
        "lockShape": "CircleLockEnemy",
        "denyLockOn": true,
        "lockType": "Gadget_Lv1"
      }
    },
    "combatTemplate": "",
    "abilities": [
      {
        "abilityID": "SceneObj_Area_Common_Property_Ani_Prop_NoticeBoard_05",
        "abilityName": "SceneObj_Area_Common_Property_Ani_Prop_NoticeBoard_05",
        "abilityOverride": ""
      }
    ],
    "uiInteract": {
      "gadgetUIBtnCfgPath": "UI/open_AdvAnimalViewGalleryStart",
      "uiName": "UI_ACTIVITY_ANIMALVIEW_GALLERY_START",
      "icon": "",
      "groupName": "",
      "confirmDialogTitle": "",
      "confirmDialogContent": "",
      "showCondTypesV2": ["HOST"],
      "canInteractInCombat": false
    },
    "gadgetAction": {
      "gadgetStateActionList": [
        {
          "$type": "DEMJBAICBKO",
          "enable": true
        },
        {
          "$type": "DEMJBAICBKO",
          "triggerID": "GearStart"
        }
      ]
    },
    "billboard": {
      "$type": "AKPHLFJFMBD",
      "attachPoint": "BillboardAttach",
      "offset": {
        "y": 2.5
      },
      "markShowDistance": 40.0,
      "iconName": "UI_NPCTopIcon_Activity_AnimalView",
      "title": ""
    }
  },
  "SceneObj_Area_Common_Property_Ani_Prop_AnimalViewOperation_01": {
    "$type": "CJKJIENLOHD",
    "combat": {
      "property": {
        "hp": 99999.0,
        "attack": 50.0,
        "weight": 50.0,
        "isLockHP": true
      },
      "beHit": {
        "hitBloodEffect": "",
        "hitAutoRedirect": false,
        "muteAllHitText": true
      },
      "combatLock": {
        "lockShape": "CircleLockEnemy",
        "denyLockOn": true,
        "lockType": "Gadget_Lv1"
      }
    },
    "combatTemplate": "",
    "abilities": [
      {
        "abilityID": "Scene_RockGadget_Summon_Detect",
        "abilityName": "Scene_RockGadget_Summon_Detect",
        "abilityOverride": ""
      }
    ],
    "field": {
      "concernType": "AllAvatars",
      "shape": "CircleR2",
      "fromShape": "",
      "triggerInfinite": true,
      "lifeInfinite": true,
      "checkInterval": 0.10000000149011612,
      "overwriteCampType": true,
      "campType": "All",
      "colliderName": "",
      "fromColliderName": ""
    },
    "misc": {
      "escapeEffect": "",
      "guidePoint": true,
      "isUIPoint": true,
      "targetIndicatorYOffset": 0.5,
      "guidePointConfig": {
        "uiIndicator": {
          "templateName": "ActivityAnimalView_CatchOperator_Indicator"
        }
      }
    }
  },
  "SceneObj_Area_Property_Ani_Prop_ActivityAnimalViewAirWall_01": {
    "$type": "CJKJIENLOHD",
    "combatTemplate": "",
    "abilities": [
      {
        "abilityID": "SceneObj_Area_Property_Ani_Prop_ActivityAnimalViewAirWall_01",
        "abilityName": "SceneObj_Area_Property_Ani_Prop_ActivityAnimalViewAirWall_01",
        "abilityOverride": ""
      }
    ]
  },
  "SceneObj_Area_Property_Ani_Prop_ActivityAnimalViewAirWall_02": {
    "$type": "CJKJIENLOHD",
    "combatTemplate": "",
    "abilities": [
      {
        "abilityID": "SceneObj_Area_Property_Ani_Prop_ActivityAnimalViewAirWall_02",
        "abilityName": "SceneObj_Area_Property_Ani_Prop_ActivityAnimalViewAirWall_02",
        "abilityOverride": ""
      }
    ]
  },
  "SceneObj_Area_Property_Ani_Prop_ActivityAnimalViewAirWall_03": {
    "$type": "CJKJIENLOHD",
    "combatTemplate": "",
    "abilities": [
      {
        "abilityID": "SceneObj_Area_Property_Ani_Prop_ActivityAnimalViewAirWall_03",
        "abilityName": "SceneObj_Area_Property_Ani_Prop_ActivityAnimalViewAirWall_03",
        "abilityOverride": ""
      }
    ]
  },
  "SceneObj_Area_Property_Ani_Prop_ActivityAnimalViewAirWall_04": {
    "$type": "CJKJIENLOHD",
    "combatTemplate": "",
    "abilities": [
      {
        "abilityID": "SceneObj_Area_Property_Ani_Prop_ActivityAnimalViewAirWall_04",
        "abilityName": "SceneObj_Area_Property_Ani_Prop_ActivityAnimalViewAirWall_04",
        "abilityOverride": ""
      }
    ]
  },
  "SceneObj_Area_Property_Ani_Prop_ActivityAnimalViewAirWall_05": {
    "$type": "CJKJIENLOHD",
    "combatTemplate": "",
    "abilities": [
      {
        "abilityID": "SceneObj_Area_Property_Ani_Prop_ActivityAnimalViewAirWall_05",
        "abilityName": "SceneObj_Area_Property_Ani_Prop_ActivityAnimalViewAirWall_05",
        "abilityOverride": ""
      }
    ]
  },
  "SceneObj_Area_Property_Ani_Prop_ActivityAnimalViewAirWall_06": {
    "$type": "CJKJIENLOHD",
    "combatTemplate": "",
    "abilities": [
      {
        "abilityID": "SceneObj_Area_Property_Ani_Prop_ActivityAnimalViewAirWall_06",
        "abilityName": "SceneObj_Area_Property_Ani_Prop_ActivityAnimalViewAirWall_06",
        "abilityOverride": ""
      }
    ]
  }
}
