{
  "Test_Monster_Arrow": {
    "$type": "CJKJIENLOHD",
    "common": {
      "effectAttachShape": {
        "$type": "OMIODKONOMG",
        "scaleX": 0.5,
        "scaleY": 0.5
      }
    },
    "combat": {
      "property": {
        "useCreatorProperty": true,
        "isLockHP": true,
        "canTriggerBullet": false
      },
      "beHit": {
        "hitBloodEffect": "",
        "muteAllHit": true,
        "muteAllHitEffect": true,
        "muteAllHitText": true
      },
      "combatLock": {
        "lockShape": "CircleLockEnemy",
        "denyLockOn": true,
        "lockType": "Default"
      }
    },
    "combatTemplate": "",
    "abilities": [
      {
        "abilityID": "Hili_None_Arrow_Damage",
        "abilityName": "Hili_None_Arrow_Damage",
        "abilityOverride": ""
      }
    ],
    "timer": {
      "lifeTime": 8.0
    },
    "move": {
      "$type": "BFICFPAEFPB",
      "speed": 30.0,
      "DPAAFHNMHHN": {
        "$type": "IFAANDLLGLP"
      },
      "straightRange": 40.0,
      "gravityOfAcceleration": 10.0,
      "airResistance": 0.009999999776482582
    },
    "gadget": {
      "$type": "JENBBNKGGJP",
      "collision": {
        "targetType": "Enemy"
      },
      "triggerActions": [
        {
          "$type": "AILPBJHDHDG",
          "abilityName": "Hili_None_Arrow_Damage"
        }
      ]
    }
  },
  "Hili_PebbleBullet": {
    "$type": "CJKJIENLOHD",
    "common": {
      "effectAttachShape": {
        "$type": "OMIODKONOMG",
        "scaleX": 0.5,
        "scaleY": 0.5
      }
    },
    "combat": {
      "property": {
        "useCreatorProperty": true,
        "isLockHP": true,
        "canTriggerBullet": false
      },
      "beHit": {
        "hitBloodEffect": "",
        "muteAllHit": true,
        "muteAllHitEffect": true,
        "muteAllHitText": true
      },
      "combatLock": {
        "lockShape": "CircleLockEnemy",
        "denyLockOn": true,
        "lockType": "Default"
      }
    },
    "combatTemplate": "",
    "abilities": [
      {
        "abilityID": "ThrowPebble_Loop",
        "abilityName": "Hili_None_ThrowPebble_Loop",
        "abilityOverride": ""
      }
    ],
    "timer": {
      "lifeTime": 8.0
    },
    "move": {
      "$type": "BFDBCCCADKH",
      "speed": 20.0,
      "DPAAFHNMHHN": {
        "$type": "IFAANDLLGLP"
      },
      "angleOffHor": 15.0,
      "gravityOfAcceleration": 15.0,
      "correction": {
        "$type": "FEHDIANJKBF",
        "fixAngleOfVer": 15.0,
        "minSpeed": 4.0,
        "maxSpeed": 24.0
      },
      "GEBCKKDCGDP": "",
      "NKPHOKHJKGC": ""
    },
    "gadget": {
      "$type": "JENBBNKGGJP",
      "collision": {
        "targetType": "Enemy"
      },
      "triggerActions": [
        {
          "$type": "AILPBJHDHDG",
          "abilityName": "Hili_None_ThrowPebble_Loop"
        }
      ]
    }
  },
  "PlantThorns": {
    "$type": "CJKJIENLOHD",
    "common": {
      "effectAttachShape": {
        "$type": "OMIODKONOMG",
        "scaleZ": 0.4000000059604645
      },
      "affectedByWorld": true,
      "checkInSurface": true
    },
    "combat": {
      "property": {
        "useCreatorProperty": true,
        "hp": 999999.0,
        "attack": 10.0,
        "defense": 999999.0
      },
      "beHit": {
        "hitBloodEffect": "",
        "muteAllHit": true,
        "muteAllHitEffect": true,
        "muteAllHitText": true
      },
      "combatLock": {
        "lockShape": "CircleLockEnemy",
        "denyLockOn": true,
        "lockType": "Default"
      },
      "animEvents": {
        "ATK01": {
          "attackPattern": {
            "$type": "ConfigAttackBox",
            "triggerType": "TriggerNoRepeat",
            "born": {
              "$type": "ConfigBornByCollisionPoint"
            },
            "size": {
              "x": 0.4000000059604645,
              "y": 0.4000000059604645,
              "z": 1.0
            }
          },
          "attackInfo": {
            "attackTag": "",
            "attenuationTag": "",
            "attenuationGroup": "default",
            "attackProperty": {
              "actorGrassSubHurtDelta": 1.0,
              "actorWindSubHurtDelta": 0.0,
              "elementType": "Grass",
              "elementDurability": 100.0,
              "GLKMCMDJBIK": 0.0
            },
            "hitPattern": {
              "onHitEffectName": "default",
              "hitImpulseY": "",
              "hitLevel": "Light",
              "IMIJMPGJOGG": 120.0,
              "BPCDKKBKOBM": 0.0,
              "hitImpulseType": "",
              "hitHaltTime": 0.11999999731779099,
              "hitHaltTimeScale": 0.009999999776482582
            }
          }
        }
      }
    },
    "combatTemplate": "",
    "abilities": [
      {
        "abilityID": "PlantGrasping",
        "abilityName": "Hili_Grass_PlantGrasping",
        "abilityOverride": ""
      },
      {
        "abilityID": "PlantThorns_Loop",
        "abilityName": "Hili_Grass_PlantThorns_Loop",
        "abilityOverride": ""
      }
    ],
    "timer": {
      "lifeTime": 1.5
    },
    "move": {
      "$type": "GONNMCBKAOC",
      "speed": 15.0,
      "DPAAFHNMHHN": {
        "$type": "IFAANDLLGLP"
      },
      "stickToGround": {
        "maxStepHeight": 0.6000000238418579,
        "maxSlopeAngle": 70.0,
        "heightToGround": 0.30000001192092896,
        "flexibleRange": 0.05000000074505806
      }
    },
    "gadget": {
      "$type": "JENBBNKGGJP",
      "collision": {
        "targetType": "Enemy"
      },
      "triggerActions": [
        {
          "$type": "NMMEILICBAE",
          "attackEvent": "ATK01"
        },
        {
          "$type": "AILPBJHDHDG",
          "abilityName": "Hili_Grass_PlantGrasping"
        }
      ]
    }
  },
  "PlantGrasping_Field": {
    "$type": "CJKJIENLOHD",
    "common": {
      "effectAttachShape": {
        "$type": "OMCHDAEMBOG",
        "mesh": "EffectMesh"
      },
      "affectedByWorld": true,
      "checkInSurface": true
    },
    "combat": {
      "property": {
        "hp": 20.0,
        "attack": 10.0,
        "isInvincible": true,
        "canTriggerBullet": false
      },
      "combatLock": {
        "lockShape": "CircleLockEnemy",
        "denyLockOn": true,
        "lockType": "Default"
      }
    },
    "combatTemplate": "",
    "abilities": [
      {
        "abilityID": "PlantGrasping_Element",
        "abilityName": "Hili_Grass_PlantGrasping_Element",
        "abilityOverride": ""
      }
    ]
  },
  "Hili_Fire_Arrow": {
    "$type": "CJKJIENLOHD",
    "common": {
      "effectAttachShape": {
        "$type": "OMIODKONOMG",
        "scaleX": 0.5,
        "scaleY": 0.5
      }
    },
    "combat": {
      "property": {
        "useCreatorProperty": true,
        "isLockHP": true,
        "canTriggerBullet": false
      },
      "beHit": {
        "hitBloodEffect": "",
        "muteAllHit": true,
        "muteAllHitEffect": true,
        "muteAllHitText": true
      },
      "combatLock": {
        "lockShape": "CircleLockEnemy",
        "denyLockOn": true,
        "lockType": "Default"
      }
    },
    "combatTemplate": "",
    "abilities": [
      {
        "abilityID": "Damage",
        "abilityName": "Hili_Fire_Arrow_Damage",
        "abilityOverride": ""
      }
    ],
    "timer": {
      "lifeTime": 8.0
    },
    "move": {
      "$type": "BFICFPAEFPB",
      "speed": 30.0,
      "DPAAFHNMHHN": {
        "$type": "IFAANDLLGLP"
      },
      "straightRange": 40.0,
      "gravityOfAcceleration": 10.0,
      "airResistance": 0.009999999776482582
    },
    "gadget": {
      "$type": "JENBBNKGGJP",
      "collision": {
        "targetType": "Enemy"
      },
      "triggerActions": [
        {
          "$type": "AILPBJHDHDG",
          "abilityName": "Hili_Fire_Arrow_Damage"
        }
      ]
    }
  },
  "Hili_Ice_Arrow": {
    "$type": "CJKJIENLOHD",
    "common": {
      "effectAttachShape": {
        "$type": "OMIODKONOMG",
        "scaleX": 0.5,
        "scaleY": 0.5
      }
    },
    "combat": {
      "property": {
        "useCreatorProperty": true,
        "isLockHP": true,
        "canTriggerBullet": false
      },
      "beHit": {
        "hitBloodEffect": "",
        "muteAllHit": true,
        "muteAllHitEffect": true,
        "muteAllHitText": true
      },
      "combatLock": {
        "lockShape": "CircleLockEnemy",
        "denyLockOn": true,
        "lockType": "Default"
      }
    },
    "combatTemplate": "",
    "abilities": [
      {
        "abilityID": "Damage",
        "abilityName": "Hili_Ice_Arrow_Damage",
        "abilityOverride": ""
      }
    ],
    "timer": {
      "lifeTime": 8.0
    },
    "move": {
      "$type": "BFICFPAEFPB",
      "speed": 30.0,
      "DPAAFHNMHHN": {
        "$type": "IFAANDLLGLP"
      },
      "straightRange": 40.0,
      "gravityOfAcceleration": 10.0,
      "airResistance": 0.009999999776482582
    },
    "gadget": {
      "$type": "JENBBNKGGJP",
      "collision": {
        "targetType": "Enemy"
      },
      "triggerActions": [
        {
          "$type": "AILPBJHDHDG",
          "abilityName": "Hili_Ice_Arrow_Damage"
        }
      ]
    }
  },
  "Hili_Electric_Arrow": {
    "$type": "CJKJIENLOHD",
    "common": {
      "effectAttachShape": {
        "$type": "OMIODKONOMG",
        "scaleX": 0.5,
        "scaleY": 0.5
      }
    },
    "combat": {
      "property": {
        "useCreatorProperty": true,
        "isLockHP": true,
        "canTriggerBullet": false
      },
      "beHit": {
        "hitBloodEffect": "",
        "muteAllHit": true,
        "muteAllHitEffect": true,
        "muteAllHitText": true
      },
      "combatLock": {
        "lockShape": "CircleLockEnemy",
        "denyLockOn": true,
        "lockType": "Default"
      }
    },
    "combatTemplate": "",
    "abilities": [
      {
        "abilityID": "Damage",
        "abilityName": "Hili_Electric_Arrow_Damage",
        "abilityOverride": ""
      }
    ],
    "timer": {
      "lifeTime": 8.0
    },
    "move": {
      "$type": "BFICFPAEFPB",
      "speed": 30.0,
      "DPAAFHNMHHN": {
        "$type": "IFAANDLLGLP"
      },
      "straightRange": 40.0,
      "gravityOfAcceleration": 10.0,
      "airResistance": 0.009999999776482582
    },
    "gadget": {
      "$type": "JENBBNKGGJP",
      "collision": {
        "targetType": "Enemy"
      },
      "triggerActions": [
        {
          "$type": "AILPBJHDHDG",
          "abilityName": "Hili_Electric_Arrow_Damage"
        }
      ]
    }
  },
  "Hili_Fire_SlimeThrow": {
    "$type": "CJKJIENLOHD",
    "common": {
      "effectAttachShape": {
        "$type": "OMIODKONOMG"
      },
      "mass": 5.0,
      "affectedByWorld": true,
      "checkInSurface": true,
      "scale": 1.149999976158142
    },
    "combat": {
      "property": {
        "useCreatorProperty": true,
        "hp": 99999.0,
        "weight": 50.0,
        "isLockHP": true,
        "isGhostToAllied": true
      },
      "combatLock": {
        "lockShape": "CircleLockEnemy",
        "denyLockOn": true,
        "lockType": "Default"
      }
    },
    "combatTemplate": "",
    "abilities": [
      {
        "abilityID": "Bomb_Explode",
        "abilityName": "Hili_Fire_SlimeThrow_Explode",
        "abilityOverride": ""
      },
      {
        "abilityID": "Bomb_Element",
        "abilityName": "Hili_Fire_SlimeThrow_Element",
        "abilityOverride": ""
      },
      {
        "abilityID": "Bomb_HitScene",
        "abilityName": "Hili_Fire_SlimeThrow_HitScene",
        "abilityOverride": ""
      },
      {
        "abilityID": "LightUpShader",
        "abilityName": "Hili_Fire_SlimeThrow_LightUpShader",
        "abilityOverride": ""
      },
      {
        "abilityID": "BulletTriggerClose",
        "abilityName": "Hili_Fire_SlimeThrow_BulletTriggerClose",
        "abilityOverride": ""
      },
      {
        "abilityID": "BulletTriggerOpen",
        "abilityName": "Hili_Fire_SlimeThrow_BulletTriggerOpen",
        "abilityOverride": ""
      }
    ],
    "timer": {
      "lifeTime": 13.5
    },
    "move": {
      "$type": "BFDBCCCADKH",
      "velocityForce": {
        "includeForces": ["RetreatType", "RetreatAirType", "WindZoneType"]
      },
      "speed": 15.0,
      "DPAAFHNMHHN": {
        "$type": "GNJNGGEPACE",
        "angularVelocity": {
          "x": -900.0
        }
      },
      "angleOffHor": 45.0,
      "gravityOfAcceleration": 10.0,
      "correction": {
        "$type": "FEHDIANJKBF",
        "deviation": 1.0,
        "fixAngleOfVer": 15.0,
        "minSpeed": 5.0,
        "maxSpeed": 20.0
      },
      "GEBCKKDCGDP": "",
      "NKPHOKHJKGC": ""
    },
    "gadget": {
      "$type": "JENBBNKGGJP",
      "collision": {
        "targetType": "Enemy",
        "bornWithTriggerEnabled": false
      },
      "triggerActions": [
        {
          "$type": "AILPBJHDHDG",
          "abilityName": "Hili_Fire_SlimeThrow_Explode"
        },
        {
          "$type": "AILPBJHDHDG",
          "abilityName": "Hili_Fire_SlimeThrow_HitScene"
        }
      ],
      "killByOther": true
    },
    "equipment": {
      "attachTo": "equip03",
      "subAttachTo": "",
      "auxToTrans": "",
      "equipEntityType": "Spear"
    }
  },
  "Hili_Ice_SlimeThrow": {
    "$type": "CJKJIENLOHD",
    "common": {
      "effectAttachShape": {
        "$type": "OMIODKONOMG"
      },
      "mass": 5.0,
      "affectedByWorld": true,
      "checkInSurface": true,
      "scale": 1.149999976158142
    },
    "combat": {
      "property": {
        "useCreatorProperty": true,
        "hp": 99999.0,
        "weight": 50.0,
        "isLockHP": true,
        "isGhostToAllied": true
      }
    },
    "combatTemplate": "",
    "abilities": [
      {
        "abilityID": "Bomb_Element",
        "abilityName": "Monster_Hili_Ice_SlimeThrow_AddElement",
        "abilityOverride": ""
      },
      {
        "abilityID": "Bomb_Life",
        "abilityName": "Monster_Hili_Ice_SlimeThrow_LifeOver",
        "abilityOverride": ""
      },
      {
        "abilityID": "Bomb_Explode",
        "abilityName": "Monster_Hili_Ice_SlimeThrow_Explode",
        "abilityOverride": ""
      },
      {
        "abilityID": "BulletTriggerOpen",
        "abilityName": "Monster_Hili_SlimeThrow_OpenTrigger",
        "abilityOverride": ""
      }
    ],
    "timer": {
      "lifeTime": 9.0
    },
    "move": {
      "$type": "BFDBCCCADKH",
      "velocityForce": {
        "includeForces": ["RetreatType", "RetreatAirType", "WindZoneType"]
      },
      "speed": 15.0,
      "DPAAFHNMHHN": {
        "$type": "GNJNGGEPACE",
        "angularVelocity": {
          "x": -900.0
        }
      },
      "angleOffHor": 45.0,
      "gravityOfAcceleration": 10.0,
      "correction": {
        "$type": "FEHDIANJKBF",
        "deviation": 1.0,
        "fixAngleOfVer": 15.0,
        "minSpeed": 5.0,
        "maxSpeed": 20.0
      },
      "GEBCKKDCGDP": "",
      "NKPHOKHJKGC": ""
    },
    "gadget": {
      "$type": "JENBBNKGGJP",
      "collision": {
        "targetType": "Enemy",
        "bornWithTriggerEnabled": false
      },
      "triggerActions": [
        {
          "$type": "AILPBJHDHDG",
          "abilityName": "Monster_Hili_Ice_SlimeThrow_Explode"
        }
      ],
      "killByOther": true
    },
    "equipment": {
      "attachTo": "equip03",
      "subAttachTo": "",
      "auxToTrans": "",
      "equipEntityType": "Spear"
    }
  },
  "Hili_Wei_NoWeapon_ThrowAttack_Bullet01": {
    "$type": "CJKJIENLOHD",
    "common": {
      "effectAttachShape": {
        "$type": "OMIODKONOMG",
        "scaleX": 0.5,
        "scaleY": 0.5
      }
    },
    "combat": {
      "property": {
        "useCreatorProperty": true,
        "isLockHP": true,
        "canTriggerBullet": false
      },
      "beHit": {
        "hitBloodEffect": "",
        "muteAllHit": true,
        "muteAllHitEffect": true,
        "muteAllHitText": true
      },
      "combatLock": {
        "lockShape": "CircleLockEnemy",
        "denyLockOn": true,
        "lockType": "Default"
      }
    },
    "combatTemplate": "",
    "abilities": [
      {
        "abilityID": "Bullet01_Loop",
        "abilityName": "Hili_Wei_NoWeapon_ThrowAttack_Bullet01_Loop",
        "abilityOverride": ""
      }
    ],
    "timer": {
      "lifeTime": 8.0
    },
    "move": {
      "$type": "BFDBCCCADKH",
      "speed": 20.0,
      "DPAAFHNMHHN": {
        "$type": "IFAANDLLGLP"
      },
      "angleOffHor": 15.0,
      "gravityOfAcceleration": 15.0,
      "correction": {
        "$type": "FEHDIANJKBF",
        "fixAngleOfVer": 15.0,
        "minSpeed": 4.0,
        "maxSpeed": 24.0
      },
      "GEBCKKDCGDP": "",
      "NKPHOKHJKGC": ""
    },
    "gadget": {
      "$type": "JENBBNKGGJP",
      "collision": {
        "targetType": "Enemy"
      },
      "triggerActions": [
        {
          "$type": "AILPBJHDHDG",
          "abilityName": "Hili_Wei_NoWeapon_ThrowAttack_Bullet01_Loop"
        }
      ]
    }
  },
  "Hili_Wei_NoWeapon_ThrowAttack_Bullet02": {
    "$type": "CJKJIENLOHD",
    "common": {
      "effectAttachShape": {
        "$type": "OMIODKONOMG",
        "scaleX": 0.5,
        "scaleY": 0.5
      }
    },
    "combat": {
      "property": {
        "useCreatorProperty": true,
        "isLockHP": true,
        "canTriggerBullet": false
      },
      "beHit": {
        "hitBloodEffect": "",
        "muteAllHit": true,
        "muteAllHitEffect": true,
        "muteAllHitText": true
      },
      "combatLock": {
        "lockShape": "CircleLockEnemy",
        "denyLockOn": true,
        "lockType": "Default"
      }
    },
    "combatTemplate": "",
    "abilities": [
      {
        "abilityID": "Bullet02_Loop",
        "abilityName": "Hili_Wei_NoWeapon_ThrowAttack_Bullet02_Loop",
        "abilityOverride": ""
      }
    ],
    "timer": {
      "lifeTime": 8.0
    },
    "move": {
      "$type": "BFDBCCCADKH",
      "speed": 20.0,
      "DPAAFHNMHHN": {
        "$type": "IFAANDLLGLP"
      },
      "angleOffHor": 15.0,
      "gravityOfAcceleration": 15.0,
      "correction": {
        "$type": "FEHDIANJKBF",
        "fixAngleOfVer": 15.0,
        "minSpeed": 4.0,
        "maxSpeed": 24.0
      },
      "GEBCKKDCGDP": "",
      "NKPHOKHJKGC": ""
    },
    "gadget": {
      "$type": "JENBBNKGGJP",
      "collision": {
        "targetType": "Enemy"
      },
      "triggerActions": [
        {
          "$type": "AILPBJHDHDG",
          "abilityName": "Hili_Wei_NoWeapon_ThrowAttack_Bullet02_Loop"
        }
      ]
    }
  },
  "Hili_Wei_NoWeapon_ThrowAttack_Bullet03": {
    "$type": "CJKJIENLOHD",
    "common": {
      "effectAttachShape": {
        "$type": "OMIODKONOMG",
        "scaleX": 0.5,
        "scaleY": 0.5
      }
    },
    "combat": {
      "property": {
        "useCreatorProperty": true,
        "isLockHP": true,
        "canTriggerBullet": false
      },
      "beHit": {
        "hitBloodEffect": "",
        "muteAllHit": true,
        "muteAllHitEffect": true,
        "muteAllHitText": true
      },
      "combatLock": {
        "lockShape": "CircleLockEnemy",
        "denyLockOn": true,
        "lockType": "Default"
      }
    },
    "combatTemplate": "",
    "abilities": [
      {
        "abilityID": "Bullet03_Loop",
        "abilityName": "Hili_Wei_NoWeapon_ThrowAttack_Bullet03_Loop",
        "abilityOverride": ""
      }
    ],
    "timer": {
      "lifeTime": 8.0
    },
    "move": {
      "$type": "BFDBCCCADKH",
      "speed": 20.0,
      "DPAAFHNMHHN": {
        "$type": "IFAANDLLGLP"
      },
      "angleOffHor": 15.0,
      "gravityOfAcceleration": 15.0,
      "correction": {
        "$type": "FEHDIANJKBF",
        "fixAngleOfVer": 15.0,
        "minSpeed": 4.0,
        "maxSpeed": 24.0
      },
      "GEBCKKDCGDP": "",
      "NKPHOKHJKGC": ""
    },
    "gadget": {
      "$type": "JENBBNKGGJP",
      "collision": {
        "targetType": "Enemy"
      },
      "triggerActions": [
        {
          "$type": "AILPBJHDHDG",
          "abilityName": "Hili_Wei_NoWeapon_ThrowAttack_Bullet03_Loop"
        }
      ]
    }
  },
  "Hili_Wei_NoWeapon_ThrowBomb_Bullet01": {
    "$type": "CJKJIENLOHD",
    "common": {
      "effectAttachShape": {
        "$type": "OMIODKONOMG"
      },
      "mass": 5.0,
      "affectedByWorld": true,
      "checkInSurface": true
    },
    "combat": {
      "property": {
        "useCreatorProperty": true,
        "hp": 99999.0,
        "weight": 50.0,
        "isLockHP": true,
        "isGhostToAllied": true
      },
      "combatLock": {
        "lockShape": "CircleLockEnemy",
        "denyLockOn": true,
        "lockType": "Default"
      }
    },
    "combatTemplate": "",
    "abilities": [
      {
        "abilityID": "Bomb_Explode",
        "abilityName": "Hili_Wei_ThrowAttack_Bullet01_Explode",
        "abilityOverride": ""
      },
      {
        "abilityID": "Bomb_BombState",
        "abilityName": "Hili_Wei_ThrowAttack_Bullet01_BombState",
        "abilityOverride": ""
      },
      {
        "abilityID": "CollisionTrigger",
        "abilityName": "Hili_Wei_ThrowAttack_Bullet_CollisionTrigger",
        "abilityOverride": ""
      },
      {
        "abilityID": "NextStateTrigger",
        "abilityName": "Hili_Wei_ThrowAttack_Bullet_NextStateTrigger",
        "abilityOverride": ""
      },
      {
        "abilityID": "FlyTrigger",
        "abilityName": "Hili_Wei_ThrowAttack_Bullet_FlyTrigger",
        "abilityOverride": ""
      }
    ],
    "timer": {
      "lifeTime": 11.0
    },
    "move": {
      "$type": "BFDBCCCADKH",
      "velocityForce": {
        "includeForces": ["RetreatType", "RetreatAirType", "WindZoneType"]
      },
      "speed": 15.0,
      "angleOffHor": 45.0,
      "gravityOfAcceleration": 10.0,
      "correction": {
        "$type": "FEHDIANJKBF",
        "deviation": 1.0,
        "fixAngleOfVer": 15.0,
        "minSpeed": 5.0,
        "maxSpeed": 20.0
      },
      "GEBCKKDCGDP": "",
      "NKPHOKHJKGC": ""
    },
    "gadget": {
      "$type": "JENBBNKGGJP",
      "collision": {
        "targetType": "Enemy",
        "bornWithTriggerEnabled": false
      },
      "triggerActions": [
        {
          "$type": "AILPBJHDHDG",
          "abilityName": "Hili_Wei_ThrowAttack_Bullet01_Explode"
        }
      ],
      "triggerLifeOverActions": [
        {
          "$type": "AILPBJHDHDG",
          "abilityName": "Hili_Wei_ThrowAttack_Bullet01_Explode"
        }
      ],
      "killByOther": true
    },
    "equipment": {
      "attachTo": "equip03",
      "subAttachTo": "",
      "auxToTrans": "",
      "equipEntityType": "Spear"
    }
  },
  "Hili_Wei_NoWeapon_ThrowBomb_Bullet02": {
    "$type": "CJKJIENLOHD",
    "common": {
      "effectAttachShape": {
        "$type": "OMIODKONOMG"
      },
      "mass": 5.0,
      "affectedByWorld": true,
      "checkInSurface": true
    },
    "combat": {
      "property": {
        "useCreatorProperty": true,
        "hp": 99999.0,
        "weight": 50.0,
        "isLockHP": true,
        "isGhostToAllied": true
      },
      "combatLock": {
        "lockShape": "CircleLockEnemy",
        "denyLockOn": true,
        "lockType": "Default"
      }
    },
    "combatTemplate": "",
    "abilities": [
      {
        "abilityID": "Bomb_Explode",
        "abilityName": "Hili_Wei_ThrowAttack_Bullet01_Explode",
        "abilityOverride": ""
      },
      {
        "abilityID": "Bomb_BombState",
        "abilityName": "Hili_Wei_ThrowAttack_Bullet01_BombState",
        "abilityOverride": ""
      },
      {
        "abilityID": "CollisionTrigger",
        "abilityName": "Hili_Wei_ThrowAttack_Bullet_CollisionTrigger",
        "abilityOverride": ""
      }
    ],
    "timer": {
      "lifeTime": 12.5
    },
    "move": {
      "$type": "BFDBCCCADKH",
      "velocityForce": {
        "includeForces": ["RetreatType", "RetreatAirType", "WindZoneType"]
      },
      "speed": 15.0,
      "DPAAFHNMHHN": {
        "$type": "GNJNGGEPACE",
        "angularVelocity": {
          "x": -900.0
        }
      },
      "angleOffHor": 45.0,
      "gravityOfAcceleration": 10.0,
      "correction": {
        "$type": "FEHDIANJKBF",
        "deviation": 1.0,
        "fixAngleOfVer": 15.0,
        "minSpeed": 5.0,
        "maxSpeed": 20.0
      },
      "GEBCKKDCGDP": "",
      "NKPHOKHJKGC": ""
    },
    "gadget": {
      "$type": "JENBBNKGGJP",
      "collision": {
        "targetType": "Enemy",
        "bornWithTriggerEnabled": false
      },
      "triggerActions": [
        {
          "$type": "AILPBJHDHDG",
          "abilityName": "Hili_Wei_ThrowAttack_Bullet01_Explode"
        }
      ],
      "triggerLifeOverActions": [
        {
          "$type": "AILPBJHDHDG",
          "abilityName": "Hili_Wei_ThrowAttack_Bullet01_Explode"
        }
      ],
      "killByOther": true
    },
    "equipment": {
      "attachTo": "equip03",
      "subAttachTo": "",
      "auxToTrans": "",
      "equipEntityType": "Spear"
    }
  },
  "Hili_Wei_NoWeapon_ThrowBomb_Bullet03": {
    "$type": "CJKJIENLOHD",
    "common": {
      "effectAttachShape": {
        "$type": "OMIODKONOMG"
      },
      "mass": 5.0,
      "affectedByWorld": true,
      "checkInSurface": true
    },
    "combat": {
      "property": {
        "useCreatorProperty": true,
        "hp": 99999.0,
        "weight": 50.0,
        "isLockHP": true,
        "isGhostToAllied": true
      },
      "combatLock": {
        "lockShape": "CircleLockEnemy",
        "denyLockOn": true,
        "lockType": "Default"
      }
    },
    "combatTemplate": "",
    "abilities": [
      {
        "abilityID": "Bomb_Explode",
        "abilityName": "Hili_Wei_ThrowAttack_Bullet01_Explode",
        "abilityOverride": ""
      },
      {
        "abilityID": "Bomb_BombState",
        "abilityName": "Hili_Wei_ThrowAttack_Bullet01_BombState",
        "abilityOverride": ""
      },
      {
        "abilityID": "CollisionTrigger",
        "abilityName": "Hili_Wei_ThrowAttack_Bullet_CollisionTrigger",
        "abilityOverride": ""
      }
    ],
    "timer": {
      "lifeTime": 12.5
    },
    "move": {
      "$type": "BFDBCCCADKH",
      "velocityForce": {
        "includeForces": ["RetreatType", "RetreatAirType", "WindZoneType"]
      },
      "speed": 15.0,
      "DPAAFHNMHHN": {
        "$type": "GNJNGGEPACE",
        "angularVelocity": {
          "x": -900.0
        }
      },
      "angleOffHor": 45.0,
      "gravityOfAcceleration": 10.0,
      "correction": {
        "$type": "FEHDIANJKBF",
        "deviation": 1.0,
        "fixAngleOfVer": 15.0,
        "minSpeed": 5.0,
        "maxSpeed": 20.0
      },
      "GEBCKKDCGDP": "",
      "NKPHOKHJKGC": ""
    },
    "gadget": {
      "$type": "JENBBNKGGJP",
      "collision": {
        "targetType": "Enemy",
        "bornWithTriggerEnabled": false
      },
      "triggerActions": [
        {
          "$type": "AILPBJHDHDG",
          "abilityName": "Hili_Wei_ThrowAttack_Bullet01_Explode"
        }
      ],
      "triggerLifeOverActions": [
        {
          "$type": "AILPBJHDHDG",
          "abilityName": "Hili_Wei_ThrowAttack_Bullet01_Explode"
        }
      ],
      "killByOther": true
    },
    "equipment": {
      "attachTo": "equip03",
      "subAttachTo": "",
      "auxToTrans": "",
      "equipEntityType": "Spear"
    }
  },
  "Hili_Electric_SlimeThrow": {
    "$type": "CJKJIENLOHD",
    "common": {
      "effectAttachShape": {
        "$type": "OMIODKONOMG"
      },
      "mass": 5.0,
      "affectedByWorld": true,
      "checkInSurface": true,
      "scale": 1.149999976158142
    },
    "combat": {
      "property": {
        "useCreatorProperty": true,
        "hp": 99999.0,
        "weight": 50.0,
        "isLockHP": true,
        "isGhostToAllied": true
      }
    },
    "combatTemplate": "",
    "abilities": [
      {
        "abilityID": "Hili_Electric_SlimeThrow_Handler",
        "abilityName": "Hili_Electric_SlimeThrow_Handler",
        "abilityOverride": ""
      },
      {
        "abilityID": "Hili_Electric_SlimeThrow_Explode",
        "abilityName": "Hili_Electric_SlimeThrow_Explode",
        "abilityOverride": ""
      }
    ],
    "timer": {
      "lifeTime": 9.5
    },
    "move": {
      "$type": "BFDBCCCADKH",
      "velocityForce": {
        "includeForces": ["RetreatType", "RetreatAirType", "WindZoneType"]
      },
      "speed": 15.0,
      "DPAAFHNMHHN": {
        "$type": "GNJNGGEPACE",
        "angularVelocity": {
          "x": -900.0
        }
      },
      "angleOffHor": 45.0,
      "gravityOfAcceleration": 10.0,
      "correction": {
        "$type": "FEHDIANJKBF",
        "deviation": 1.0,
        "fixAngleOfVer": 15.0,
        "minSpeed": 5.0,
        "maxSpeed": 20.0
      },
      "GEBCKKDCGDP": "",
      "NKPHOKHJKGC": ""
    },
    "gadget": {
      "$type": "JENBBNKGGJP",
      "collision": {
        "targetType": "Enemy",
        "bornWithTriggerEnabled": false
      },
      "triggerActions": [
        {
          "$type": "AILPBJHDHDG",
          "abilityName": "Hili_Electric_SlimeThrow_Explode"
        }
      ],
      "killByOther": true
    },
    "equipment": {
      "attachTo": "equip01",
      "subAttachTo": "",
      "auxToTrans": "",
      "equipEntityType": "Spear"
    }
  },
  "Monster_Arrow_ShootingActivity": {
    "$type": "CJKJIENLOHD",
    "common": {
      "effectAttachShape": {
        "$type": "OMIODKONOMG"
      },
      "disableTickDistance": 10000.0
    },
    "combat": {
      "property": {
        "useCreatorProperty": true,
        "isLockHP": true,
        "canTriggerBullet": false
      },
      "beHit": {
        "hitBloodEffect": "",
        "muteAllHit": true,
        "muteAllHitEffect": true,
        "muteAllHitText": true
      },
      "combatLock": {
        "lockShape": "CircleLockEnemy",
        "denyLockOn": true,
        "lockType": "Default"
      }
    },
    "combatTemplate": "",
    "abilities": [
      {
        "abilityID": "Hili_None_Arrow_Damage",
        "abilityName": "Hili_None_Arrow_Damage",
        "abilityOverride": ""
      }
    ],
    "timer": {
      "lifeTime": 8.0
    },
    "move": {
      "$type": "BFICFPAEFPB",
      "speed": 30.0,
      "DPAAFHNMHHN": {
        "$type": "IFAANDLLGLP"
      },
      "straightRange": 40.0,
      "gravityOfAcceleration": 10.0,
      "airResistance": 0.009999999776482582
    },
    "gadget": {
      "$type": "JENBBNKGGJP",
      "collision": {
        "targetType": "Enemy"
      },
      "triggerActions": [
        {
          "$type": "AILPBJHDHDG",
          "abilityName": "Hili_None_Arrow_Damage"
        }
      ]
    }
  }
}
