{
  "SceneObj_Area_Common_Property_Ani_Prop_ArenaChallenge_01": {
    "$type": "CJKJIENLOHD",
    "globalValue": {
      "serverGlobalValues": ["SGV_UnlockedMark"],
      "initServerGlobalValues": {
        "SGV_UnlockedMark": 0.0
      }
    },
    "combatTemplate": "",
    "abilities": [
      {
        "abilityID": "SceneObj_Area_Common_Property_Ani_Prop_ArenaChallenge_01",
        "abilityName": "SceneObj_Area_Common_Property_Ani_Prop_ArenaChallenge_01",
        "abilityOverride": ""
      }
    ],
    "uiInteract": {
      "gadgetUIBtnCfgPath": "TEST/TEST_Chest_Btn",
      "uiName": "UI_ACTIVITY_ARENACHALLENGE4_INTERACT",
      "onTouch": "WidgetMPSupport",
      "touchParams": [
        "SceneObj_Area_Common_Property_Ani_Prop_ArenaChallenge_01"
      ],
      "icon": "UI_NPCTopIcon_ArenaChallenge",
      "groupName": "",
      "confirmDialogTitle": "",
      "confirmDialogContent": "",
      "showCondTypesV2": ["HOST"]
    },
    "intee": {
      "triggerRadius": 2.0,
      "triggerHeight": 4.0,
      "KAMIAMNMFCP": ""
    }
  }
}
