{
  "Diona_Arrow_01": {
    "$type": "CJKJIENLOHD",
    "common": {
      "effectAttachShape": {
        "$type": "OMIODKONOMG",
        "scaleX": 0.5,
        "scaleY": 0.5
      },
      "affectedByWorld": true
    },
    "combat": {
      "property": {
        "useCreatorProperty": true,
        "isInvincible": true,
        "canTriggerBullet": false
      },
      "beHit": {
        "hitBloodEffect": "",
        "muteAllHit": true,
        "muteAllHitEffect": true,
        "muteAllHitText": true
      },
      "combatLock": {
        "lockShape": "CircleLockEnemy",
        "denyLockOn": true,
        "lockType": "Gadget_Lv1"
      },
      "animEvents": {
        "ATK01": {
          "attackPattern": {
            "$type": "ConfigAttackBox",
            "triggerType": "TriggerNoRepeat",
            "checkHitLayerType": "Both",
            "born": {
              "$type": "ConfigBornByCollisionPoint",
              "offset": {
                "x": 0.0,
                "y": 0.0,
                "z": -0.5
              }
            },
            "size": {
              "x": 0.10000000149011612,
              "y": 0.10000000149011612,
              "z": 1.0
            }
          },
          "attackInfo": {
            "attackTag": "NormalAttack_01",
            "attenuationTag": "",
            "attenuationGroup": "default",
            "attackProperty": {
              "actorGrassSubHurtDelta": 0.0,
              "actorWindSubHurtDelta": 0.0,
              "elementDurability": 100.0,
              "strikeType": "Pierce",
              "enBreak": 12.600000381469727,
              "GLKMCMDJBIK": 0.0
            },
            "hitPattern": {
              "onHitEffectName": "default",
              "hitImpulseY": "",
              "hitImpulseType": "LV1"
            },
            "cameraShake": {
              "shakeRange": 0.019999999552965164,
              "shakeTime": 0.10000000149011612
            },
            "canBeModifiedBy": "OriginOwner"
          }
        }
      }
    },
    "combatTemplate": "",
    "abilities": [
      {
        "abilityID": "Arrow_Material",
        "abilityName": "Avatar_Diona_ShootArrow_Light_Material",
        "abilityOverride": ""
      },
      {
        "abilityID": "Arrow_Damage",
        "abilityName": "Avatar_Diona_ShootArrow_Damage",
        "abilityOverride": ""
      }
    ],
    "timer": {
      "lifeTime": 8.0
    },
    "move": {
      "$type": "BFICFPAEFPB",
      "speed": 40.0,
      "DPAAFHNMHHN": {
        "$type": "IFAANDLLGLP"
      },
      "straightRange": 7.0,
      "gravityOfAcceleration": 15.0,
      "airResistance": 0.009999999776482582
    },
    "gadget": {
      "$type": "JENBBNKGGJP",
      "collision": {
        "targetType": "Enemy"
      },
      "triggerActions": [
        {
          "$type": "NMMEILICBAE",
          "attackEvent": "ATK01"
        },
        {
          "$type": "AILPBJHDHDG",
          "abilityName": "Avatar_Diona_ShootArrow_Light_Material"
        }
      ],
      "fireAISoundEvent": true
    }
  },
  "Diona_Arrow_02": {
    "$type": "CJKJIENLOHD",
    "common": {
      "effectAttachShape": {
        "$type": "OMIODKONOMG",
        "scaleX": 0.5,
        "scaleY": 0.5
      },
      "affectedByWorld": true
    },
    "combat": {
      "property": {
        "useCreatorProperty": true,
        "isInvincible": true,
        "canTriggerBullet": false
      },
      "beHit": {
        "hitBloodEffect": "",
        "muteAllHit": true,
        "muteAllHitEffect": true,
        "muteAllHitText": true
      },
      "combatLock": {
        "lockShape": "CircleLockEnemy",
        "denyLockOn": true,
        "lockType": "Gadget_Lv1"
      },
      "animEvents": {
        "ATK02": {
          "attackPattern": {
            "$type": "ConfigAttackBox",
            "triggerType": "TriggerNoRepeat",
            "checkHitLayerType": "Both",
            "born": {
              "$type": "ConfigBornByCollisionPoint",
              "offset": {
                "x": 0.0,
                "y": 0.0,
                "z": -0.5
              }
            },
            "size": {
              "x": 0.10000000149011612,
              "y": 0.10000000149011612,
              "z": 1.0
            }
          },
          "attackInfo": {
            "attackTag": "NormalAttack_02",
            "attenuationTag": "",
            "attenuationGroup": "default",
            "attackProperty": {
              "actorGrassSubHurtDelta": 0.0,
              "actorWindSubHurtDelta": 0.0,
              "elementDurability": 100.0,
              "strikeType": "Pierce",
              "enBreak": 11.699999809265137,
              "GLKMCMDJBIK": 0.0
            },
            "hitPattern": {
              "onHitEffectName": "default",
              "hitImpulseY": "",
              "hitImpulseType": "LV1"
            },
            "cameraShake": {
              "shakeRange": 0.019999999552965164,
              "shakeTime": 0.10000000149011612
            },
            "canBeModifiedBy": "OriginOwner"
          }
        }
      }
    },
    "combatTemplate": "",
    "abilities": [
      {
        "abilityID": "Arrow_Material",
        "abilityName": "Avatar_Diona_ShootArrow_Heavy_Material",
        "abilityOverride": ""
      },
      {
        "abilityID": "Arrow_Damage",
        "abilityName": "Avatar_Diona_ShootArrow_Damage",
        "abilityOverride": ""
      }
    ],
    "timer": {
      "lifeTime": 8.0
    },
    "move": {
      "$type": "BFICFPAEFPB",
      "speed": 40.0,
      "DPAAFHNMHHN": {
        "$type": "IFAANDLLGLP"
      },
      "straightRange": 7.0,
      "gravityOfAcceleration": 15.0,
      "airResistance": 0.009999999776482582
    },
    "gadget": {
      "$type": "JENBBNKGGJP",
      "collision": {
        "targetType": "Enemy"
      },
      "triggerActions": [
        {
          "$type": "NMMEILICBAE",
          "attackEvent": "ATK02"
        },
        {
          "$type": "AILPBJHDHDG",
          "abilityName": "Avatar_Diona_ShootArrow_Heavy_Material"
        }
      ],
      "fireAISoundEvent": true
    }
  },
  "Diona_Arrow_03": {
    "$type": "CJKJIENLOHD",
    "common": {
      "effectAttachShape": {
        "$type": "OMIODKONOMG",
        "scaleX": 0.5,
        "scaleY": 0.5
      },
      "affectedByWorld": true
    },
    "combat": {
      "property": {
        "useCreatorProperty": true,
        "isInvincible": true,
        "canTriggerBullet": false
      },
      "beHit": {
        "hitBloodEffect": "",
        "muteAllHit": true,
        "muteAllHitEffect": true,
        "muteAllHitText": true
      },
      "combatLock": {
        "lockShape": "CircleLockEnemy",
        "denyLockOn": true,
        "lockType": "Gadget_Lv1"
      },
      "animEvents": {
        "ATK03": {
          "attackPattern": {
            "$type": "ConfigAttackBox",
            "triggerType": "TriggerNoRepeat",
            "checkHitLayerType": "Both",
            "born": {
              "$type": "ConfigBornByCollisionPoint",
              "offset": {
                "x": 0.0,
                "y": 0.0,
                "z": -0.5
              }
            },
            "size": {
              "x": 0.10000000149011612,
              "y": 0.10000000149011612,
              "z": 1.0
            }
          },
          "attackInfo": {
            "attackTag": "NormalAttack_03",
            "attenuationTag": "",
            "attenuationGroup": "default",
            "attackProperty": {
              "actorGrassSubHurtDelta": 0.0,
              "actorWindSubHurtDelta": 0.0,
              "elementDurability": 100.0,
              "strikeType": "Pierce",
              "enBreak": 15.899999618530273,
              "GLKMCMDJBIK": 0.0
            },
            "hitPattern": {
              "onHitEffectName": "default",
              "hitImpulseY": "",
              "hitImpulseType": "LV1"
            },
            "cameraShake": {
              "shakeRange": 0.019999999552965164,
              "shakeTime": 0.10000000149011612
            },
            "canBeModifiedBy": "OriginOwner"
          }
        }
      }
    },
    "combatTemplate": "",
    "abilities": [
      {
        "abilityID": "Arrow_Material",
        "abilityName": "Avatar_Diona_ShootArrow_Heavy_Material",
        "abilityOverride": ""
      },
      {
        "abilityID": "Arrow_Damage",
        "abilityName": "Avatar_Diona_ShootArrow_Damage",
        "abilityOverride": ""
      }
    ],
    "timer": {
      "lifeTime": 8.0
    },
    "move": {
      "$type": "BFICFPAEFPB",
      "speed": 40.0,
      "DPAAFHNMHHN": {
        "$type": "IFAANDLLGLP"
      },
      "straightRange": 7.0,
      "gravityOfAcceleration": 15.0,
      "airResistance": 0.009999999776482582
    },
    "gadget": {
      "$type": "JENBBNKGGJP",
      "collision": {
        "targetType": "Enemy"
      },
      "triggerActions": [
        {
          "$type": "NMMEILICBAE",
          "attackEvent": "ATK03"
        },
        {
          "$type": "AILPBJHDHDG",
          "abilityName": "Avatar_Diona_ShootArrow_Heavy_Material"
        }
      ],
      "fireAISoundEvent": true
    }
  },
  "Diona_Arrow_04": {
    "$type": "CJKJIENLOHD",
    "common": {
      "effectAttachShape": {
        "$type": "OMIODKONOMG",
        "scaleX": 0.5,
        "scaleY": 0.5
      },
      "affectedByWorld": true
    },
    "combat": {
      "property": {
        "useCreatorProperty": true,
        "isInvincible": true,
        "canTriggerBullet": false
      },
      "beHit": {
        "hitBloodEffect": "",
        "muteAllHit": true,
        "muteAllHitEffect": true,
        "muteAllHitText": true
      },
      "combatLock": {
        "lockShape": "CircleLockEnemy",
        "denyLockOn": true,
        "lockType": "Gadget_Lv1"
      },
      "animEvents": {
        "ATK04": {
          "attackPattern": {
            "$type": "ConfigAttackBox",
            "triggerType": "TriggerNoRepeat",
            "checkHitLayerType": "Both",
            "born": {
              "$type": "ConfigBornByCollisionPoint",
              "offset": {
                "x": 0.0,
                "y": 0.0,
                "z": -0.5
              }
            },
            "size": {
              "x": 0.10000000149011612,
              "y": 0.10000000149011612,
              "z": 1.0
            }
          },
          "attackInfo": {
            "attackTag": "NormalAttack_04",
            "attenuationTag": "",
            "attenuationGroup": "default",
            "attackProperty": {
              "actorGrassSubHurtDelta": 0.0,
              "actorWindSubHurtDelta": 0.0,
              "elementDurability": 100.0,
              "strikeType": "Pierce",
              "enBreak": 15.0,
              "GLKMCMDJBIK": 0.0
            },
            "hitPattern": {
              "onHitEffectName": "default",
              "hitImpulseY": "",
              "hitImpulseType": "LV1"
            },
            "cameraShake": {
              "shakeRange": 0.019999999552965164,
              "shakeTime": 0.10000000149011612
            },
            "canBeModifiedBy": "OriginOwner"
          }
        }
      }
    },
    "combatTemplate": "",
    "abilities": [
      {
        "abilityID": "Arrow_Material",
        "abilityName": "Avatar_Diona_ShootArrow_Light_Material",
        "abilityOverride": ""
      },
      {
        "abilityID": "Arrow_Damage",
        "abilityName": "Avatar_Diona_ShootArrow_Damage",
        "abilityOverride": ""
      }
    ],
    "timer": {
      "lifeTime": 8.0
    },
    "move": {
      "$type": "BFICFPAEFPB",
      "speed": 40.0,
      "DPAAFHNMHHN": {
        "$type": "IFAANDLLGLP"
      },
      "straightRange": 7.0,
      "gravityOfAcceleration": 15.0,
      "airResistance": 0.009999999776482582
    },
    "gadget": {
      "$type": "JENBBNKGGJP",
      "collision": {
        "targetType": "Enemy"
      },
      "triggerActions": [
        {
          "$type": "NMMEILICBAE",
          "attackEvent": "ATK04"
        },
        {
          "$type": "AILPBJHDHDG",
          "abilityName": "Avatar_Diona_ShootArrow_Light_Material"
        }
      ],
      "fireAISoundEvent": true
    }
  },
  "Diona_Arrow_05": {
    "$type": "CJKJIENLOHD",
    "common": {
      "effectAttachShape": {
        "$type": "OMIODKONOMG",
        "scaleX": 0.5,
        "scaleY": 0.5
      },
      "affectedByWorld": true
    },
    "combat": {
      "property": {
        "useCreatorProperty": true,
        "isInvincible": true,
        "canTriggerBullet": false
      },
      "beHit": {
        "hitBloodEffect": "",
        "muteAllHit": true,
        "muteAllHitEffect": true,
        "muteAllHitText": true
      },
      "combatLock": {
        "lockShape": "CircleLockEnemy",
        "denyLockOn": true,
        "lockType": "Gadget_Lv1"
      },
      "animEvents": {
        "ATK05": {
          "attackPattern": {
            "$type": "ConfigAttackBox",
            "triggerType": "TriggerNoRepeat",
            "checkHitLayerType": "Both",
            "born": {
              "$type": "ConfigBornByCollisionPoint",
              "offset": {
                "x": 0.0,
                "y": 0.0,
                "z": -0.5
              }
            },
            "size": {
              "x": 0.10000000149011612,
              "y": 0.10000000149011612,
              "z": 1.0
            }
          },
          "attackInfo": {
            "attackTag": "NormalAttack_05",
            "attenuationTag": "",
            "attenuationGroup": "default",
            "attackProperty": {
              "actorGrassSubHurtDelta": 0.0,
              "actorWindSubHurtDelta": 0.0,
              "elementDurability": 100.0,
              "strikeType": "Pierce",
              "enBreak": 18.75,
              "GLKMCMDJBIK": 0.0
            },
            "hitPattern": {
              "onHitEffectName": "default",
              "hitImpulseY": "",
              "hitImpulseType": "LV1"
            },
            "cameraShake": {
              "shakeRange": 0.019999999552965164,
              "shakeTime": 0.10000000149011612
            },
            "canBeModifiedBy": "OriginOwner"
          }
        }
      }
    },
    "combatTemplate": "",
    "abilities": [
      {
        "abilityID": "Arrow_Material",
        "abilityName": "Avatar_Diona_ShootArrow_Heavy_Material",
        "abilityOverride": ""
      },
      {
        "abilityID": "Arrow_Damage",
        "abilityName": "Avatar_Diona_ShootArrow_Damage",
        "abilityOverride": ""
      }
    ],
    "timer": {
      "lifeTime": 8.0
    },
    "move": {
      "$type": "BFICFPAEFPB",
      "speed": 40.0,
      "DPAAFHNMHHN": {
        "$type": "IFAANDLLGLP"
      },
      "straightRange": 7.0,
      "gravityOfAcceleration": 15.0,
      "airResistance": 0.009999999776482582
    },
    "gadget": {
      "$type": "JENBBNKGGJP",
      "collision": {
        "targetType": "Enemy"
      },
      "triggerActions": [
        {
          "$type": "NMMEILICBAE",
          "attackEvent": "ATK05"
        },
        {
          "$type": "AILPBJHDHDG",
          "abilityName": "Avatar_Diona_ShootArrow_Heavy_Material"
        }
      ],
      "fireAISoundEvent": true
    }
  },
  "Diona_NekoShoot_01": {
    "$type": "CJKJIENLOHD",
    "common": {
      "effectAttachShape": {
        "$type": "OMIODKONOMG",
        "scaleX": 0.5,
        "scaleY": 0.5
      },
      "affectedByWorld": true
    },
    "combat": {
      "property": {
        "useCreatorProperty": true,
        "isInvincible": true,
        "canTriggerBullet": false
      },
      "beHit": {
        "hitBloodEffect": "",
        "muteAllHit": true,
        "muteAllHitEffect": true,
        "muteAllHitText": true
      },
      "combatLock": {
        "lockShape": "CircleLockEnemy",
        "denyLockOn": true,
        "lockType": "Gadget_Lv1"
      }
    },
    "combatTemplate": "",
    "abilities": [
      {
        "abilityID": "Arrow_Material",
        "abilityName": "Avatar_Diona_ElementalArt_Bullet_Material",
        "abilityOverride": ""
      },
      {
        "abilityID": "Arrow_Trail",
        "abilityName": "Avatar_Diona_ElementalArt_Bullet_Trail_01",
        "abilityOverride": ""
      }
    ],
    "timer": {
      "lifeTime": 2.0
    },
    "move": {
      "$type": "GMOHNHFHLAO",
      "speed": 10.0,
      "maxSpeed": 20.0,
      "minSpeed": 10.0,
      "anglerVelocity": 360.0,
      "acceleration": 50.0,
      "DPAAFHNMHHN": {
        "$type": "IFAANDLLGLP",
        "traceLerpCoef": 360.0
      },
      "traceOnYAxis": true,
      "whenNoTarget": {
        "$type": "KHJKFPPGDDP",
        "defaultTarget": {
          "$type": "ConfigBornBySelfOwner",
          "offset": {
            "x": 0.0,
            "y": 0.0,
            "z": 7.0
          },
          "onGround": true
        },
        "radius": 0.5
      }
    },
    "gadget": {
      "$type": "JENBBNKGGJP",
      "collision": {
        "targetType": "Enemy"
      },
      "triggerActions": [
        {
          "$type": "AILPBJHDHDG",
          "abilityName": "Avatar_Diona_ElementalArt_Bullet_Material"
        }
      ],
      "fireAISoundEvent": true
    }
  },
  "Diona_NekoShoot_02": {
    "$type": "CJKJIENLOHD",
    "common": {
      "effectAttachShape": {
        "$type": "OMIODKONOMG",
        "scaleX": 0.5,
        "scaleY": 0.5
      },
      "affectedByWorld": true
    },
    "combat": {
      "property": {
        "useCreatorProperty": true,
        "isInvincible": true,
        "canTriggerBullet": false
      },
      "beHit": {
        "hitBloodEffect": "",
        "muteAllHit": true,
        "muteAllHitEffect": true,
        "muteAllHitText": true
      },
      "combatLock": {
        "lockShape": "CircleLockEnemy",
        "denyLockOn": true,
        "lockType": "Gadget_Lv1"
      }
    },
    "combatTemplate": "",
    "abilities": [
      {
        "abilityID": "Arrow_Material",
        "abilityName": "Avatar_Diona_ElementalArt_Bullet_Material",
        "abilityOverride": ""
      },
      {
        "abilityID": "Arrow_Trail",
        "abilityName": "Avatar_Diona_ElementalArt_Bullet_Trail_02",
        "abilityOverride": ""
      }
    ],
    "timer": {
      "lifeTime": 2.0
    },
    "move": {
      "$type": "GMOHNHFHLAO",
      "speed": 10.0,
      "maxSpeed": 20.0,
      "minSpeed": 10.0,
      "anglerVelocity": 360.0,
      "acceleration": 50.0,
      "DPAAFHNMHHN": {
        "$type": "IFAANDLLGLP",
        "traceLerpCoef": 360.0
      },
      "delay": 0.05000000074505806,
      "traceOnYAxis": true,
      "whenNoTarget": {
        "$type": "KHJKFPPGDDP",
        "defaultTarget": {
          "$type": "ConfigBornBySelfOwner",
          "offset": {
            "x": 0.0,
            "y": 0.0,
            "z": 7.0
          },
          "onGround": true
        },
        "radius": 0.5
      }
    },
    "gadget": {
      "$type": "JENBBNKGGJP",
      "collision": {
        "targetType": "Enemy"
      },
      "triggerActions": [
        {
          "$type": "AILPBJHDHDG",
          "abilityName": "Avatar_Diona_ElementalArt_Bullet_Material"
        }
      ],
      "fireAISoundEvent": true
    }
  },
  "Diona_NekoShoot_03": {
    "$type": "CJKJIENLOHD",
    "common": {
      "effectAttachShape": {
        "$type": "OMIODKONOMG",
        "scaleX": 0.5,
        "scaleY": 0.5
      },
      "affectedByWorld": true
    },
    "combat": {
      "property": {
        "useCreatorProperty": true,
        "isInvincible": true,
        "canTriggerBullet": false
      },
      "beHit": {
        "hitBloodEffect": "",
        "muteAllHit": true,
        "muteAllHitEffect": true,
        "muteAllHitText": true
      },
      "combatLock": {
        "lockShape": "CircleLockEnemy",
        "denyLockOn": true,
        "lockType": "Gadget_Lv1"
      }
    },
    "combatTemplate": "",
    "abilities": [
      {
        "abilityID": "Arrow_Material",
        "abilityName": "Avatar_Venti_ShootArrow_Heavy_Material",
        "abilityOverride": ""
      }
    ],
    "timer": {
      "lifeTime": 2.0
    },
    "move": {
      "$type": "BFICFPAEFPB",
      "speed": 40.0,
      "DPAAFHNMHHN": {
        "$type": "IFAANDLLGLP",
        "traceLerpCoef": 360.0
      },
      "straightRange": 7.0,
      "gravityOfAcceleration": 15.0,
      "airResistance": 0.009999999776482582
    },
    "gadget": {
      "$type": "JENBBNKGGJP",
      "collision": {
        "targetType": "Enemy"
      },
      "triggerActions": [
        {
          "$type": "AILPBJHDHDG",
          "abilityName": "Avatar_Venti_ShootArrow_Heavy_Material"
        }
      ],
      "fireAISoundEvent": true
    }
  },
  "Diona_NekoShoot_04": {
    "$type": "CJKJIENLOHD",
    "common": {
      "effectAttachShape": {
        "$type": "OMIODKONOMG",
        "scaleX": 0.5,
        "scaleY": 0.5
      },
      "affectedByWorld": true
    },
    "combat": {
      "property": {
        "useCreatorProperty": true,
        "isInvincible": true,
        "canTriggerBullet": false
      },
      "beHit": {
        "hitBloodEffect": "",
        "muteAllHit": true,
        "muteAllHitEffect": true,
        "muteAllHitText": true
      },
      "combatLock": {
        "lockShape": "CircleLockEnemy",
        "denyLockOn": true,
        "lockType": "Gadget_Lv1"
      }
    },
    "combatTemplate": "",
    "abilities": [
      {
        "abilityID": "Arrow_Material",
        "abilityName": "Avatar_Venti_ShootArrow_Heavy_Material",
        "abilityOverride": ""
      }
    ],
    "timer": {
      "lifeTime": 2.0
    },
    "move": {
      "$type": "BFICFPAEFPB",
      "speed": 40.0,
      "DPAAFHNMHHN": {
        "$type": "IFAANDLLGLP"
      },
      "straightRange": 7.0,
      "gravityOfAcceleration": 15.0,
      "airResistance": 0.009999999776482582
    },
    "gadget": {
      "$type": "JENBBNKGGJP",
      "collision": {
        "targetType": "Enemy"
      },
      "triggerActions": [
        {
          "$type": "AILPBJHDHDG",
          "abilityName": "Avatar_Venti_ShootArrow_Heavy_Material"
        }
      ],
      "fireAISoundEvent": true
    }
  },
  "Diona_NekoShoot_05": {
    "$type": "CJKJIENLOHD",
    "common": {
      "effectAttachShape": {
        "$type": "OMIODKONOMG",
        "scaleX": 0.5,
        "scaleY": 0.5
      },
      "affectedByWorld": true
    },
    "combat": {
      "property": {
        "useCreatorProperty": true,
        "isInvincible": true,
        "canTriggerBullet": false
      },
      "beHit": {
        "hitBloodEffect": "",
        "muteAllHit": true,
        "muteAllHitEffect": true,
        "muteAllHitText": true
      },
      "combatLock": {
        "lockShape": "CircleLockEnemy",
        "denyLockOn": true,
        "lockType": "Gadget_Lv1"
      }
    },
    "combatTemplate": "",
    "abilities": [
      {
        "abilityID": "Arrow_Material",
        "abilityName": "Avatar_Venti_ShootArrow_Heavy_Material",
        "abilityOverride": ""
      }
    ],
    "timer": {
      "lifeTime": 2.0
    },
    "move": {
      "$type": "BFICFPAEFPB",
      "speed": 40.0,
      "DPAAFHNMHHN": {
        "$type": "IFAANDLLGLP"
      },
      "straightRange": 7.0,
      "gravityOfAcceleration": 15.0,
      "airResistance": 0.009999999776482582
    },
    "gadget": {
      "$type": "JENBBNKGGJP",
      "collision": {
        "targetType": "Enemy"
      },
      "triggerActions": [
        {
          "$type": "AILPBJHDHDG",
          "abilityName": "Avatar_Venti_ShootArrow_Heavy_Material"
        }
      ],
      "fireAISoundEvent": true
    }
  },
  "Diona_AimingArrow_Wind": {
    "$type": "CJKJIENLOHD",
    "common": {
      "effectAttachShape": {
        "$type": "OMIODKONOMG",
        "scaleX": 0.5,
        "scaleY": 0.5
      },
      "affectedByWorld": true
    },
    "combat": {
      "property": {
        "useCreatorProperty": true,
        "isInvincible": true,
        "canTriggerBullet": false
      },
      "beHit": {
        "hitBloodEffect": "",
        "muteAllHit": true,
        "muteAllHitEffect": true,
        "muteAllHitText": true
      },
      "combatLock": {
        "lockShape": "CircleLockEnemy",
        "denyLockOn": true,
        "lockType": "Gadget_Lv1"
      }
    },
    "combatTemplate": "",
    "abilities": [
      {
        "abilityID": "Wind_Fx",
        "abilityName": "Bullet_Diona_ShootArrow_WithIce",
        "abilityOverride": ""
      }
    ],
    "timer": {
      "lifeTime": 20.0
    },
    "move": {
      "$type": "BFICFPAEFPB",
      "speed": 50.0,
      "DPAAFHNMHHN": {
        "$type": "IFAANDLLGLP"
      },
      "straightRange": 25.0,
      "gravityOfAcceleration": 5.5,
      "airResistance": 0.009999999776482582
    },
    "gadget": {
      "$type": "JENBBNKGGJP",
      "collision": {
        "targetType": "Enemy"
      },
      "triggerActions": [
        {
          "$type": "AILPBJHDHDG",
          "abilityName": "Bullet_Diona_ShootArrow_WithIce"
        }
      ]
    }
  },
  "Diona_AimingArrow_WithoutWind": {
    "$type": "CJKJIENLOHD",
    "common": {
      "effectAttachShape": {
        "$type": "OMIODKONOMG",
        "scaleX": 0.5,
        "scaleY": 0.5
      },
      "affectedByWorld": true
    },
    "combat": {
      "property": {
        "useCreatorProperty": true,
        "isInvincible": true,
        "canTriggerBullet": false
      },
      "beHit": {
        "hitBloodEffect": "",
        "muteAllHit": true,
        "muteAllHitEffect": true,
        "muteAllHitText": true
      },
      "combatLock": {
        "lockShape": "CircleLockEnemy",
        "denyLockOn": true,
        "lockType": "Gadget_Lv1"
      }
    },
    "combatTemplate": "",
    "abilities": [
      {
        "abilityID": "Arrow_WithoutWind",
        "abilityName": "Avatar_Diona_ShootArrow_Enchanted_WithoutIce",
        "abilityOverride": ""
      }
    ],
    "timer": {
      "lifeTime": 20.0
    },
    "move": {
      "$type": "BFICFPAEFPB",
      "speed": 50.0,
      "DPAAFHNMHHN": {
        "$type": "IFAANDLLGLP"
      },
      "straightRange": 25.0,
      "gravityOfAcceleration": 5.5,
      "airResistance": 0.009999999776482582
    },
    "gadget": {
      "$type": "JENBBNKGGJP",
      "collision": {
        "targetType": "Enemy"
      },
      "triggerActions": [
        {
          "$type": "AILPBJHDHDG",
          "abilityName": "Avatar_Diona_ShootArrow_Enchanted_WithoutIce"
        }
      ],
      "fireAISoundEvent": true
    }
  },
  "Diona_Elemental_Art_Flask": {
    "$type": "CJKJIENLOHD",
    "common": {
      "effectAttachShape": {
        "$type": "OMIODKONOMG"
      },
      "mass": 5.0,
      "affectedByWorld": true,
      "checkInSurface": true
    },
    "combat": {
      "property": {
        "useCreatorProperty": true,
        "weight": 50.0,
        "isInvincible": true,
        "isLockHP": true,
        "isGhostToAllied": true
      }
    },
    "combatTemplate": "",
    "abilities": [
      {
        "abilityID": "Diona_Flusk",
        "abilityName": "Avatar_Diona_Elemental_Art_Flask",
        "abilityOverride": ""
      }
    ],
    "timer": {
      "lifeTime": 5.0
    },
    "move": {
      "$type": "BFDBCCCADKH",
      "velocityForce": {
        "muteAll": true
      },
      "speed": 10.0,
      "syncToRemote": true,
      "angleOffHor": 45.0,
      "gravityOfAcceleration": 30.0,
      "correction": {
        "$type": "FEHDIANJKBF",
        "fixAngleOfVer": 15.0,
        "minSpeed": 4.0,
        "maxSpeed": 10.0
      },
      "GEBCKKDCGDP": "",
      "NKPHOKHJKGC": ""
    },
    "gadget": {
      "$type": "JENBBNKGGJP",
      "collision": {},
      "triggerActions": [
        {
          "$type": "AILPBJHDHDG",
          "abilityName": "Avatar_Diona_Elemental_Art_Flask"
        }
      ],
      "triggerLifeOverActions": [
        {
          "$type": "AILPBJHDHDG",
          "abilityName": "Avatar_Diona_Elemental_Art_Flask"
        }
      ],
      "killByOther": true
    }
  },
  "Diona_Elemental_Art_Flask_Throw": {
    "$type": "CJKJIENLOHD",
    "common": {
      "effectAttachShape": {
        "$type": "OMIODKONOMG"
      },
      "mass": 5.0,
      "affectedByWorld": true,
      "checkInSurface": true
    },
    "combat": {
      "property": {
        "useCreatorProperty": true,
        "weight": 50.0,
        "isInvincible": true,
        "isLockHP": true,
        "isGhostToAllied": true
      }
    },
    "combatTemplate": "",
    "abilities": [
      {
        "abilityID": "Diona_Flusk_Throw",
        "abilityName": "Avatar_Diona_Elemental_Art_Flask",
        "abilityOverride": ""
      }
    ],
    "timer": {
      "lifeTime": 5.0
    },
    "move": {
      "$type": "BFDBCCCADKH",
      "velocityForce": {
        "muteAll": true
      },
      "speed": 10.0,
      "syncToRemote": true,
      "angleOffHor": 45.0,
      "gravityOfAcceleration": 20.0,
      "correction": {
        "$type": "FEHDIANJKBF",
        "fixAngleOfVer": 15.0,
        "minSpeed": 4.0,
        "maxSpeed": 18.0
      },
      "GEBCKKDCGDP": "",
      "NKPHOKHJKGC": ""
    },
    "gadget": {
      "$type": "JENBBNKGGJP",
      "collision": {
        "targetType": "Enemy"
      },
      "triggerActions": [
        {
          "$type": "AILPBJHDHDG",
          "abilityName": "Avatar_Diona_Elemental_Art_Flask"
        }
      ],
      "triggerLifeOverActions": [
        {
          "$type": "AILPBJHDHDG",
          "abilityName": "Avatar_Diona_Elemental_Art_Flask"
        }
      ],
      "killByOther": true
    }
  },
  "Diona_Elemental_Art_Seed": {
    "$type": "CJKJIENLOHD",
    "combatTemplate": "",
    "field": {
      "concernType": "AllAvatars",
      "shape": "CircleR2",
      "fromShape": "",
      "triggerInfinite": true,
      "checkInterval": 0.10000000149011612,
      "lifeTime": 30.0,
      "overwriteCampType": true,
      "campType": "All",
      "useCollider": false,
      "colliderName": "",
      "fromColliderName": ""
    }
  },
  "Diona_Elemental_Burst_IceWine_Fog": {
    "$type": "CJKJIENLOHD",
    "common": {
      "effectAttachShape": {
        "$type": "OMIODKONOMG",
        "scaleZ": 0.4000000059604645
      }
    },
    "combat": {
      "property": {
        "useCreatorProperty": true,
        "hp": 999999.0,
        "attack": 10.0,
        "defense": 999999.0,
        "isInvincible": true
      },
      "combatLock": {
        "lockShape": "CircleLockEnemy",
        "denyLockOn": true,
        "lockType": "Default"
      }
    },
    "combatTemplate": "",
    "abilities": [
      {
        "abilityID": "IceWine_Fog",
        "abilityName": "Avatar_Diona_IceWine_Fog",
        "abilityOverride": ""
      }
    ],
    "field": {
      "concernType": "AllAvatars",
      "shape": "CircleR7",
      "fromShape": "",
      "triggerInfinite": true,
      "checkInterval": 0.10000000149011612,
      "lifeTime": 13.5,
      "overwriteCampType": true,
      "campType": "All",
      "useCollider": false,
      "colliderName": "",
      "fromColliderName": ""
    }
  },
  "Diona_Attack_Dummy": {
    "$type": "CJKJIENLOHD",
    "common": {
      "effectAttachShape": {
        "$type": "OMIODKONOMG"
      }
    },
    "combat": {
      "property": {
        "useCreatorProperty": true,
        "hp": 999999.0,
        "attack": 30.0,
        "defense": 999999.0,
        "isGhostToAllied": true
      },
      "beHit": {
        "hitBloodEffect": "",
        "muteAllHitEffect": true,
        "muteAllHitText": true
      },
      "combatLock": {
        "lockShape": "CircleLockEnemy",
        "lockType": "Gadget_Lv1"
      }
    },
    "combatTemplate": "",
    "timer": {
      "lifeTime": 0.4000000059604645
    }
  }
}
