{
  "SceneObj_Level_Common_Property_Prop_UGCBase_01": {
    "$type": "CJKJIENLOHD",
    "common": {
      "disableTickDistance": 1500.0
    },
    "hasModel": true,
    "combat": {
      "property": {
        "hp": 1000.0,
        "attack": 100.0,
        "weight": 50.0,
        "isLockHP": true
      },
      "beHit": {
        "hitBloodEffect": "",
        "hitAutoRedirect": false,
        "muteAllHitEffect": true,
        "muteAllHitText": true
      },
      "combatLock": {
        "lockShape": "CircleLockEnemy",
        "denyLockOn": true,
        "lockType": "Gadget_Lv1"
      }
    },
    "combatTemplate": ""
  },
  "SceneObj_Level_Common_Property_Prop_UGCBaseBlock_01": {
    "$type": "CJKJIENLOHD",
    "common": {
      "disableTickDistance": 1500.0
    },
    "hasModel": true,
    "combat": {
      "property": {
        "hp": 1000.0,
        "attack": 100.0,
        "weight": 50.0,
        "isLockHP": true
      },
      "beHit": {
        "hitBloodEffect": "",
        "hitAutoRedirect": false,
        "muteAllHitEffect": true,
        "muteAllHitText": true
      },
      "combatLock": {
        "lockShape": "CircleLockEnemy",
        "denyLockOn": true,
        "lockType": "Gadget_Lv1"
      }
    },
    "combatTemplate": ""
  },
  "SceneObj_Level_Common_Property_Prop_UGCSlopeBlock_01": {
    "$type": "CJKJIENLOHD",
    "common": {
      "disableTickDistance": 1500.0
    },
    "hasModel": true,
    "combat": {
      "property": {
        "hp": 1000.0,
        "attack": 100.0,
        "weight": 50.0,
        "isLockHP": true
      },
      "beHit": {
        "hitBloodEffect": "",
        "hitAutoRedirect": false,
        "muteAllHitEffect": true,
        "muteAllHitText": true
      },
      "combatLock": {
        "lockShape": "CircleLockEnemy",
        "denyLockOn": true,
        "lockType": "Gadget_Lv1"
      }
    },
    "combatTemplate": ""
  },
  "SceneObj_Level_Common_Property_Prop_UGCSpikeBlock_01": {
    "$type": "CJKJIENLOHD",
    "common": {
      "disableTickDistance": 1500.0
    },
    "hasModel": true,
    "combat": {
      "property": {
        "hp": 1000.0,
        "attack": 100.0,
        "weight": 50.0,
        "isLockHP": true
      },
      "beHit": {
        "hitBloodEffect": "",
        "hitAutoRedirect": false,
        "muteAllHitEffect": true,
        "muteAllHitText": true
      },
      "combatLock": {
        "lockShape": "CircleLockEnemy",
        "denyLockOn": true,
        "lockType": "Gadget_Lv1"
      }
    },
    "combatTemplate": "",
    "abilities": [
      {
        "abilityID": "SceneObj_UGC_Spike_Attack",
        "abilityName": "SceneObj_UGC_Spike_Attack",
        "abilityOverride": ""
      },
      {
        "abilityID": "SceneObj_UGC_CreateBase_01",
        "abilityName": "SceneObj_UGC_CreateBase_01",
        "abilityOverride": ""
      },
      {
        "abilityID": "Scene_RockGadget_Summon_Detect",
        "abilityName": "Scene_RockGadget_Summon_Detect",
        "abilityOverride": ""
      }
    ],
    "field": {
      "concernType": "AllAvatars",
      "shape": "",
      "fromShape": "",
      "triggerInfinite": true,
      "lifeInfinite": true,
      "checkInterval": 0.30000001192092896,
      "overwriteCampType": true,
      "campType": "All",
      "colliderName": "",
      "fromColliderName": ""
    },
    "move": {
      "$type": "IECCLJGFEMK",
      "timeControl": "Default",
      "offTime": [2.0, 2.0],
      "period": [2.0, 2.0],
      "route": [
        {},
        {
          "y": -1.0
        }
      ]
    }
  },
  "SceneObj_Level_Common_Property_Prop_UGCSpikeBlock_02": {
    "$type": "CJKJIENLOHD",
    "common": {
      "disableTickDistance": 1500.0
    },
    "hasModel": true,
    "combat": {
      "property": {
        "hp": 1000.0,
        "attack": 100.0,
        "weight": 50.0,
        "isLockHP": true
      },
      "beHit": {
        "hitBloodEffect": "",
        "hitAutoRedirect": false,
        "muteAllHitEffect": true,
        "muteAllHitText": true
      },
      "combatLock": {
        "lockShape": "CircleLockEnemy",
        "denyLockOn": true,
        "lockType": "Gadget_Lv1"
      }
    },
    "combatTemplate": "",
    "abilities": [
      {
        "abilityID": "SceneObj_UGC_Spike_Attack",
        "abilityName": "SceneObj_UGC_Spike_Attack",
        "abilityOverride": ""
      },
      {
        "abilityID": "SceneObj_UGC_CreateBase_02",
        "abilityName": "SceneObj_UGC_CreateBase_02",
        "abilityOverride": ""
      },
      {
        "abilityID": "Scene_RockGadget_Summon_Detect",
        "abilityName": "Scene_RockGadget_Summon_Detect",
        "abilityOverride": ""
      }
    ],
    "field": {
      "concernType": "AllAvatars",
      "shape": "",
      "fromShape": "",
      "triggerInfinite": true,
      "lifeInfinite": true,
      "checkInterval": 0.30000001192092896,
      "overwriteCampType": true,
      "campType": "All",
      "colliderName": "",
      "fromColliderName": ""
    },
    "move": {
      "$type": "IECCLJGFEMK",
      "timeControl": "Default",
      "offTime": [2.0, 2.0],
      "period": [2.0, 2.0],
      "route": [
        {},
        {
          "y": -1.0
        }
      ]
    },
    "gadget": {
      "$type": "KKJCBNGMKBL",
      "collision": {
        "triggerType": "TriggerAlways",
        "targetType": "All"
      },
      "collisionActions": [
        {
          "$type": "AILPBJHDHDG",
          "abilityName": "SceneObj_UGC_Spike_Attack"
        }
      ],
      "thisColliderName": "Collider",
      "targetColliderName": "InteeTrigger"
    }
  },
  "SceneObj_Level_Common_Property_Prop_UGCSpikeBase_01": {
    "$type": "CJKJIENLOHD",
    "common": {
      "disableTickDistance": 1500.0
    },
    "hasModel": true,
    "combat": {
      "property": {
        "hp": 1000.0,
        "attack": 100.0,
        "weight": 50.0,
        "isLockHP": true
      },
      "beHit": {
        "hitBloodEffect": "",
        "hitAutoRedirect": false,
        "muteAllHitEffect": true,
        "muteAllHitText": true
      },
      "combatLock": {
        "lockShape": "CircleLockEnemy",
        "denyLockOn": true,
        "lockType": "Gadget_Lv1"
      }
    },
    "combatTemplate": "",
    "abilities": [
      {
        "abilityID": "Scene_RockGadget_Summon_Detect",
        "abilityName": "Scene_RockGadget_Summon_Detect",
        "abilityOverride": ""
      }
    ]
  },
  "SceneObj_UGC_RotatePlatform01_Run": {
    "$type": "CJKJIENLOHD",
    "common": {
      "disableTickDistance": 1500.0
    },
    "hasModel": true,
    "combat": {
      "property": {
        "hp": 1000.0,
        "attack": 100.0,
        "weight": 50.0,
        "isLockHP": true
      },
      "beHit": {
        "hitBloodEffect": "",
        "hitAutoRedirect": false,
        "muteAllHitEffect": true,
        "muteAllHitText": true
      },
      "combatLock": {
        "lockShape": "CircleLockEnemy",
        "denyLockOn": true,
        "lockType": "Gadget_Lv1"
      }
    },
    "combatTemplate": "",
    "move": {
      "$type": "IECCLJGFEMK",
      "timeControl": "Default",
      "formulaType": "Axial",
      "angleSpeed": 30.0
    }
  },
  "SceneObj_UGC_Coin_Display": {
    "$type": "CJKJIENLOHD",
    "combat": {
      "property": {
        "hp": 10000.0,
        "attack": 30.0,
        "isLockHP": true,
        "isGhostToAllied": true,
        "isGhostToEnemy": true,
        "ignorePurgeRate": true
      },
      "beHit": {
        "hitBloodEffect": "",
        "hitAutoRedirect": false,
        "muteAllHitEffect": true,
        "muteAllHitText": true
      },
      "combatLock": {
        "lockShape": "CircleLockEnemy",
        "denyLockOn": true,
        "lockType": "Gadget_Lv1"
      },
      "die": {
        "dieForceDisappearTime": 0.30000001192092896,
        "dieDisappearEffect": ""
      }
    },
    "combatTemplate": "",
    "abilities": [
      {
        "abilityID": "SceneObj_UGC_Coin_Display",
        "abilityName": "SceneObj_UGC_Coin_Display",
        "abilityOverride": ""
      }
    ]
  },
  "SceneObj_UGC_Coin_Run": {
    "$type": "CJKJIENLOHD",
    "model": {
      "bornEffect": "",
      "attachEffect": "Eff_SceneObj_BoatRaceCoin",
      "BKPFGNPLDNJ": ""
    },
    "combat": {
      "property": {
        "hp": 10000.0,
        "attack": 30.0,
        "isLockHP": true,
        "isGhostToAllied": true,
        "isGhostToEnemy": true,
        "ignorePurgeRate": true
      },
      "beHit": {
        "hitBloodEffect": "",
        "hitAutoRedirect": false,
        "muteAllHitEffect": true,
        "muteAllHitText": true
      },
      "combatLock": {
        "lockShape": "CircleLockEnemy",
        "denyLockOn": true,
        "lockType": "Gadget_Lv1"
      },
      "die": {
        "dieForceDisappearTime": 0.30000001192092896,
        "dieDisappearEffect": ""
      }
    },
    "combatTemplate": "",
    "abilities": [
      {
        "abilityID": "SceneObj_UGC_Coin_Run",
        "abilityName": "SceneObj_UGC_Coin_Run",
        "abilityOverride": ""
      }
    ],
    "field": {
      "concernType": "AllAvatars",
      "shape": "",
      "fromShape": "",
      "triggerInfinite": true,
      "lifeInfinite": true,
      "checkInterval": 0.5,
      "overwriteCampType": true,
      "campType": "All",
      "colliderName": "",
      "fromColliderName": ""
    }
  },
  "SceneObj_UGC_StaminaBall_Display": {
    "$type": "CJKJIENLOHD",
    "hasModel": true,
    "combat": {
      "property": {
        "hp": 10000.0,
        "attack": 30.0,
        "isLockHP": true,
        "isGhostToAllied": true,
        "isGhostToEnemy": true,
        "ignorePurgeRate": true
      },
      "beHit": {
        "hitBloodEffect": "",
        "hitAutoRedirect": false,
        "muteAllHitEffect": true
      },
      "combatLock": {
        "lockShape": "CircleLockEnemy",
        "denyLockOn": true,
        "lockType": "Gadget_Lv1"
      },
      "die": {
        "dieForceDisappearTime": 0.30000001192092896,
        "dieDisappearEffect": ""
      }
    },
    "combatTemplate": "",
    "abilities": [
      {
        "abilityID": "SceneObj_UGC_StaminaBall_Display",
        "abilityName": "SceneObj_UGC_StaminaBall_Display",
        "abilityOverride": ""
      }
    ]
  },
  "SceneObj_UGC_StaminaBall_Run": {
    "$type": "CJKJIENLOHD",
    "hasModel": true,
    "combat": {
      "property": {
        "hp": 10000.0,
        "attack": 30.0,
        "isLockHP": true,
        "isGhostToAllied": true,
        "isGhostToEnemy": true,
        "ignorePurgeRate": true
      },
      "beHit": {
        "hitBloodEffect": "",
        "hitAutoRedirect": false,
        "muteAllHitEffect": true
      },
      "combatLock": {
        "lockShape": "CircleLockEnemy",
        "denyLockOn": true,
        "lockType": "Gadget_Lv1"
      },
      "die": {
        "dieForceDisappearTime": 0.30000001192092896,
        "dieDisappearEffect": ""
      }
    },
    "combatTemplate": "",
    "abilities": [
      {
        "abilityID": "SceneObj_UGC_StaminaBall_Run",
        "abilityName": "SceneObj_UGC_StaminaBall_Run",
        "abilityOverride": ""
      }
    ]
  },
  "SceneObj_UGC_SpeedBall_Display": {
    "$type": "CJKJIENLOHD",
    "hasModel": true,
    "combat": {
      "property": {
        "hp": 10000.0,
        "attack": 30.0,
        "isLockHP": true,
        "isGhostToAllied": true,
        "isGhostToEnemy": true,
        "ignorePurgeRate": true
      },
      "beHit": {
        "hitBloodEffect": "",
        "hitAutoRedirect": false,
        "muteAllHitEffect": true
      },
      "combatLock": {
        "lockShape": "CircleLockEnemy",
        "denyLockOn": true,
        "lockType": "Gadget_Lv1"
      },
      "die": {
        "dieForceDisappearTime": 0.30000001192092896,
        "dieDisappearEffect": ""
      }
    },
    "combatTemplate": "",
    "abilities": [
      {
        "abilityID": "SceneObj_UGC_SpeedBall_Display",
        "abilityName": "SceneObj_UGC_SpeedBall_Display",
        "abilityOverride": ""
      }
    ]
  },
  "SceneObj_UGC_SpeedBall_Run": {
    "$type": "CJKJIENLOHD",
    "hasModel": true,
    "combat": {
      "property": {
        "hp": 10000.0,
        "attack": 30.0,
        "isLockHP": true,
        "isGhostToAllied": true,
        "isGhostToEnemy": true,
        "ignorePurgeRate": true
      },
      "beHit": {
        "hitBloodEffect": "",
        "hitAutoRedirect": false,
        "muteAllHitEffect": true
      },
      "combatLock": {
        "lockShape": "CircleLockEnemy",
        "denyLockOn": true,
        "lockType": "Gadget_Lv1"
      },
      "die": {
        "dieForceDisappearTime": 0.30000001192092896,
        "dieDisappearEffect": ""
      }
    },
    "combatTemplate": "",
    "abilities": [
      {
        "abilityID": "SceneObj_UGC_SpeedBall_Run",
        "abilityName": "SceneObj_UGC_SpeedBall_Run",
        "abilityOverride": ""
      }
    ]
  },
  "SceneObj_UGC_JumpBall_Display": {
    "$type": "CJKJIENLOHD",
    "hasModel": true,
    "combat": {
      "property": {
        "hp": 10000.0,
        "attack": 30.0,
        "isLockHP": true,
        "isGhostToAllied": true,
        "isGhostToEnemy": true,
        "ignorePurgeRate": true
      },
      "beHit": {
        "hitBloodEffect": "",
        "hitAutoRedirect": false,
        "muteAllHitEffect": true
      },
      "combatLock": {
        "lockShape": "CircleLockEnemy",
        "denyLockOn": true,
        "lockType": "Gadget_Lv1"
      },
      "die": {
        "dieForceDisappearTime": 0.30000001192092896,
        "dieDisappearEffect": ""
      }
    },
    "combatTemplate": "",
    "abilities": [
      {
        "abilityID": "SceneObj_UGC_JumpBall_Display",
        "abilityName": "SceneObj_UGC_JumpBall_Display",
        "abilityOverride": ""
      }
    ]
  },
  "SceneObj_UGC_JumpBall_Run": {
    "$type": "CJKJIENLOHD",
    "hasModel": true,
    "combat": {
      "property": {
        "hp": 10000.0,
        "attack": 30.0,
        "isLockHP": true,
        "isGhostToAllied": true,
        "isGhostToEnemy": true,
        "ignorePurgeRate": true
      },
      "beHit": {
        "hitBloodEffect": "",
        "hitAutoRedirect": false,
        "muteAllHitEffect": true
      },
      "combatLock": {
        "lockShape": "CircleLockEnemy",
        "denyLockOn": true,
        "lockType": "Gadget_Lv1"
      },
      "die": {
        "dieForceDisappearTime": 0.30000001192092896,
        "dieDisappearEffect": ""
      }
    },
    "combatTemplate": "",
    "abilities": [
      {
        "abilityID": "SceneObj_UGC_JumpBall_Run",
        "abilityName": "SceneObj_UGC_JumpBall_Run",
        "abilityOverride": ""
      }
    ]
  },
  "SceneObj_UGC_Windcircle_Display": {
    "$type": "CJKJIENLOHD",
    "combat": {
      "property": {
        "hp": 99999.0,
        "attack": 50.0,
        "weight": 0.0,
        "isLockHP": true
      },
      "beHit": {
        "hitBloodEffect": "",
        "hitAutoRedirect": false,
        "muteAllHitText": true
      },
      "combatLock": {
        "lockShape": "CircleLockEnemy",
        "denyLockOn": true,
        "lockType": "Gadget_Lv1"
      }
    },
    "combatTemplate": "",
    "abilities": [
      {
        "abilityID": "SceneObj_UGC_Windcircle_Effect",
        "abilityName": "SceneObj_UGC_Windcircle_Effect",
        "abilityOverride": ""
      }
    ]
  },
  "SceneObj_UGC_Windcircle_Run": {
    "$type": "CJKJIENLOHD",
    "combat": {
      "property": {
        "hp": 99999.0,
        "attack": 50.0,
        "weight": 0.0,
        "isLockHP": true
      },
      "beHit": {
        "hitBloodEffect": "",
        "hitAutoRedirect": false,
        "muteAllHitText": true
      },
      "combatLock": {
        "lockShape": "CircleLockEnemy",
        "denyLockOn": true,
        "lockType": "Gadget_Lv1"
      }
    },
    "combatTemplate": "",
    "abilities": [
      {
        "abilityID": "SceneObj_UGC_Windcircle_Effect",
        "abilityName": "SceneObj_UGC_Windcircle_Effect",
        "abilityOverride": ""
      }
    ],
    "misc": {
      "forceField": {
        "$type": "ENNDLGKNGPC",
        "specialTipsIconPath": "",
        "velocity": 19.0,
        "attenuation": 2.299999952316284
      },
      "escapeEffect": ""
    }
  },
  "SceneObj_UGC_StartPoint": {
    "$type": "CJKJIENLOHD",
    "hasModel": true,
    "combat": {
      "property": {
        "hp": 99999.0,
        "attack": 50.0,
        "weight": 50.0,
        "isLockHP": true
      },
      "beHit": {
        "hitBloodEffect": "",
        "hitAutoRedirect": false,
        "muteAllHitText": true
      },
      "combatLock": {
        "lockShape": "CircleLockEnemy",
        "denyLockOn": true,
        "lockType": "Gadget_Lv1"
      }
    },
    "combatTemplate": "",
    "abilities": [
      {
        "abilityID": "SceneObj_UGC_StartPoint",
        "abilityName": "SceneObj_UGC_StartPoint",
        "abilityOverride": ""
      },
      {
        "abilityID": "Scene_RockGadget_Summon_Detect",
        "abilityName": "Scene_RockGadget_Summon_Detect",
        "abilityOverride": ""
      }
    ],
    "field": {
      "concernType": "LocalAvatar",
      "shape": "CircleR2H2",
      "fromShape": "",
      "triggerInfinite": true,
      "lifeInfinite": true,
      "checkInterval": 0.5,
      "overwriteCampType": true,
      "campType": "SelfCamp",
      "colliderName": "",
      "fromColliderName": ""
    }
  },
  "SceneObj_UGC_EndPoint": {
    "$type": "CJKJIENLOHD",
    "hasModel": true,
    "combat": {
      "property": {
        "hp": 99999.0,
        "attack": 50.0,
        "weight": 50.0,
        "isLockHP": true
      },
      "beHit": {
        "hitBloodEffect": "",
        "hitAutoRedirect": false,
        "muteAllHitText": true
      },
      "combatLock": {
        "lockShape": "CircleLockEnemy",
        "denyLockOn": true,
        "lockType": "Gadget_Lv1"
      }
    },
    "combatTemplate": "",
    "abilities": [
      {
        "abilityID": "SceneObj_UGC_EndPoint",
        "abilityName": "SceneObj_UGC_EndPoint",
        "abilityOverride": ""
      },
      {
        "abilityID": "Scene_RockGadget_Summon_Detect",
        "abilityName": "Scene_RockGadget_Summon_Detect",
        "abilityOverride": ""
      }
    ],
    "field": {
      "concernType": "AllAvatars",
      "shape": "",
      "fromShape": "",
      "triggerInfinite": true,
      "lifeInfinite": true,
      "checkInterval": 0.5,
      "overwriteCampType": true,
      "campType": "All",
      "colliderName": "",
      "fromColliderName": ""
    }
  },
  "SceneObj_Level_Common_Property_Ani_Prop_UGCVanishPlatform_01": {
    "$type": "CJKJIENLOHD",
    "combat": {
      "property": {
        "hp": 10000.0,
        "attack": 30.0,
        "isLockHP": true,
        "isGhostToAllied": true,
        "isGhostToEnemy": true,
        "ignorePurgeRate": true
      },
      "beHit": {
        "hitBloodEffect": "",
        "hitAutoRedirect": false,
        "muteAllHitEffect": true,
        "muteAllHitText": true
      },
      "combatLock": {
        "lockShape": "CircleLockEnemy",
        "denyLockOn": true,
        "lockType": "Gadget_Lv1"
      },
      "die": {
        "dieForceDisappearTime": 0.30000001192092896,
        "dieDisappearEffect": ""
      }
    },
    "combatTemplate": "",
    "abilities": [
      {
        "abilityID": "SceneObj_Level_Common_Property_Ani_Prop_UGCVanishPlatform_01",
        "abilityName": "SceneObj_Level_Common_Property_Ani_Prop_UGCVanishPlatform_01",
        "abilityOverride": ""
      },
      {
        "abilityID": "Scene_RockGadget_Summon_Detect",
        "abilityName": "Scene_RockGadget_Summon_Detect",
        "abilityOverride": ""
      }
    ],
    "move": {
      "$type": "IECCLJGFEMK",
      "timeControl": "Default"
    }
  },
  "SceneObj_Level_Common_Property_Ani_Prop_UGCVanishPlatform_02": {
    "$type": "CJKJIENLOHD",
    "combat": {
      "property": {
        "hp": 10000.0,
        "attack": 30.0,
        "isLockHP": true,
        "isGhostToAllied": true,
        "isGhostToEnemy": true,
        "ignorePurgeRate": true
      },
      "beHit": {
        "hitBloodEffect": "",
        "hitAutoRedirect": false,
        "muteAllHitEffect": true,
        "muteAllHitText": true
      },
      "combatLock": {
        "lockShape": "CircleLockEnemy",
        "denyLockOn": true,
        "lockType": "Gadget_Lv1"
      },
      "die": {
        "dieForceDisappearTime": 0.30000001192092896,
        "dieDisappearEffect": ""
      }
    },
    "combatTemplate": "",
    "abilities": [
      {
        "abilityID": "SceneObj_Level_Common_Property_Ani_Prop_UGCVanishPlatform_02",
        "abilityName": "SceneObj_Level_Common_Property_Ani_Prop_UGCVanishPlatform_02",
        "abilityOverride": ""
      },
      {
        "abilityID": "Scene_RockGadget_Summon_Detect",
        "abilityName": "Scene_RockGadget_Summon_Detect",
        "abilityOverride": ""
      }
    ],
    "canBeTriggeredByAvatarRay": true
  },
  "SceneObj_UGC_UGCBarrageCreator_01": {
    "$type": "CJKJIENLOHD",
    "combat": {
      "property": {
        "hp": 99999.0,
        "isInvincible": true,
        "isLockHP": true,
        "isGhostToAllied": true,
        "isGhostToEnemy": true
      },
      "combatLock": {
        "lockShape": "CircleLockEnemy",
        "denyLockOn": true,
        "lockType": "Gadget_Lv1"
      }
    },
    "combatTemplate": "",
    "abilities": [
      {
        "abilityID": "SceneObj_UGC_UGCBarrageCreator_01",
        "abilityName": "SceneObj_UGC_UGCBarrageCreator_01",
        "abilityOverride": ""
      },
      {
        "abilityID": "Scene_RockGadget_Summon_Detect",
        "abilityName": "Scene_RockGadget_Summon_Detect",
        "abilityOverride": ""
      }
    ],
    "stateLayers": {
      "defaultLayer": {
        "$type": "GBGJJIIEMBD",
        "layerIndexName": "",
        "CPAANEIJCGD": "",
        "stateIDs": {
          "All": {
            "$type": "BEIEGKBABOF",
            "animatorStates": {
              "Open": ["Audio_SceneObj_Gear_UGCBarrage_Opening"],
              "Closing": ["Audio_SceneObj_Gear_UGCBarrage_Closing"]
            },
            "cullingModelAlwaysAnimate": true
          }
        }
      }
    },
    "gadgetAction": {
      "gadgetStateActionList": [
        {
          "$type": "FJGKLJLPOGL",
          "intID": "State",
          "syncState": true
        }
      ]
    }
  },
  "SceneObj_UGC_HorizontalBullet_Grow": {
    "$type": "CJKJIENLOHD",
    "hasModel": true,
    "combat": {
      "property": {
        "useCreatorProperty": true,
        "hp": 99999.0,
        "weight": 50.0,
        "isLockHP": true
      },
      "beHit": {
        "hitBloodEffect": "",
        "muteAllHit": true,
        "muteAllHitEffect": true,
        "muteAllHitText": true
      },
      "combatLock": {
        "lockShape": "CircleLockEnemy",
        "denyLockOn": true,
        "lockType": "Gadget_Lv1"
      },
      "die": {
        "dieEndTime": 0.009999999776482582,
        "dieDisappearEffect": ""
      }
    },
    "combatTemplate": "",
    "abilities": [
      {
        "abilityID": "SceneObj_UGC_HorizontalBullet_Grow",
        "abilityName": "SceneObj_UGC_HorizontalBullet_Grow",
        "abilityOverride": ""
      }
    ],
    "timer": {
      "lifeTime": 4.0
    },
    "gadget": {
      "$type": "JENBBNKGGJP",
      "collision": {
        "triggerType": "TriggerNoRepeat",
        "targetType": "Enemy",
        "ignoreScene": true
      },
      "triggerActions": [
        {
          "$type": "AILPBJHDHDG",
          "abilityName": "SceneObj_UGC_HorizontalBullet_Grow"
        }
      ]
    }
  },
  "SceneObj_UGC_HorizontalBullet_Grow_Ele": {
    "$type": "CJKJIENLOHD",
    "hasModel": true,
    "combat": {
      "property": {
        "useCreatorProperty": true,
        "hp": 99999.0,
        "weight": 50.0,
        "isLockHP": true
      },
      "beHit": {
        "hitBloodEffect": "",
        "muteAllHit": true,
        "muteAllHitEffect": true,
        "muteAllHitText": true
      },
      "combatLock": {
        "lockShape": "CircleLockEnemy",
        "denyLockOn": true,
        "lockType": "Gadget_Lv1"
      },
      "die": {
        "dieEndTime": 0.009999999776482582,
        "dieDisappearEffect": ""
      }
    },
    "combatTemplate": "",
    "abilities": [
      {
        "abilityID": "SceneObj_UGC_HorizontalBullet_Grow_Ele",
        "abilityName": "SceneObj_UGC_HorizontalBullet_Grow_Ele",
        "abilityOverride": ""
      }
    ],
    "timer": {
      "lifeTime": 4.0
    },
    "gadget": {
      "$type": "JENBBNKGGJP",
      "collision": {
        "triggerType": "TriggerNoRepeat",
        "targetType": "Enemy",
        "ignoreScene": true
      },
      "triggerActions": [
        {
          "$type": "AILPBJHDHDG",
          "abilityName": "SceneObj_UGC_HorizontalBullet_Grow_Ele"
        }
      ]
    }
  },
  "SceneObj_UGC_HorizontalBullet_Grow_Ice": {
    "$type": "CJKJIENLOHD",
    "hasModel": true,
    "combat": {
      "property": {
        "useCreatorProperty": true,
        "hp": 99999.0,
        "weight": 50.0,
        "isLockHP": true
      },
      "beHit": {
        "hitBloodEffect": "",
        "muteAllHit": true,
        "muteAllHitEffect": true,
        "muteAllHitText": true
      },
      "combatLock": {
        "lockShape": "CircleLockEnemy",
        "denyLockOn": true,
        "lockType": "Gadget_Lv1"
      },
      "die": {
        "dieEndTime": 0.009999999776482582,
        "dieDisappearEffect": ""
      }
    },
    "combatTemplate": "",
    "abilities": [
      {
        "abilityID": "SceneObj_UGC_HorizontalBullet_Grow_Ice",
        "abilityName": "SceneObj_UGC_HorizontalBullet_Grow_Ice",
        "abilityOverride": ""
      }
    ],
    "timer": {
      "lifeTime": 4.0
    },
    "gadget": {
      "$type": "JENBBNKGGJP",
      "collision": {
        "triggerType": "TriggerNoRepeat",
        "targetType": "Enemy",
        "ignoreScene": true
      },
      "triggerActions": [
        {
          "$type": "AILPBJHDHDG",
          "abilityName": "SceneObj_UGC_HorizontalBullet_Grow_Ice"
        }
      ]
    }
  },
  "SceneObj_UGC_HorizontalBullet_Grow_Fire": {
    "$type": "CJKJIENLOHD",
    "hasModel": true,
    "combat": {
      "property": {
        "useCreatorProperty": true,
        "hp": 99999.0,
        "weight": 50.0,
        "isLockHP": true
      },
      "beHit": {
        "hitBloodEffect": "",
        "muteAllHit": true,
        "muteAllHitEffect": true,
        "muteAllHitText": true
      },
      "combatLock": {
        "lockShape": "CircleLockEnemy",
        "denyLockOn": true,
        "lockType": "Gadget_Lv1"
      },
      "die": {
        "dieEndTime": 0.009999999776482582,
        "dieDisappearEffect": ""
      }
    },
    "combatTemplate": "",
    "abilities": [
      {
        "abilityID": "SceneObj_UGC_HorizontalBullet_Grow_Fire",
        "abilityName": "SceneObj_UGC_HorizontalBullet_Grow_Fire",
        "abilityOverride": ""
      }
    ],
    "timer": {
      "lifeTime": 4.0
    },
    "gadget": {
      "$type": "JENBBNKGGJP",
      "collision": {
        "triggerType": "TriggerNoRepeat",
        "targetType": "Enemy",
        "ignoreScene": true
      },
      "triggerActions": [
        {
          "$type": "AILPBJHDHDG",
          "abilityName": "SceneObj_UGC_HorizontalBullet_Grow_Fire"
        }
      ]
    }
  },
  "SceneObj_UGC_HorizontalBullet_Grow_Water": {
    "$type": "CJKJIENLOHD",
    "hasModel": true,
    "combat": {
      "property": {
        "useCreatorProperty": true,
        "hp": 99999.0,
        "weight": 50.0,
        "isLockHP": true
      },
      "beHit": {
        "hitBloodEffect": "",
        "muteAllHit": true,
        "muteAllHitEffect": true,
        "muteAllHitText": true
      },
      "combatLock": {
        "lockShape": "CircleLockEnemy",
        "denyLockOn": true,
        "lockType": "Gadget_Lv1"
      },
      "die": {
        "dieEndTime": 0.009999999776482582,
        "dieDisappearEffect": ""
      }
    },
    "combatTemplate": "",
    "abilities": [
      {
        "abilityID": "SceneObj_UGC_HorizontalBullet_Grow_Water",
        "abilityName": "SceneObj_UGC_HorizontalBullet_Grow_Water",
        "abilityOverride": ""
      }
    ],
    "timer": {
      "lifeTime": 4.0
    },
    "gadget": {
      "$type": "JENBBNKGGJP",
      "collision": {
        "triggerType": "TriggerNoRepeat",
        "targetType": "Enemy",
        "ignoreScene": true
      },
      "triggerActions": [
        {
          "$type": "AILPBJHDHDG",
          "abilityName": "SceneObj_UGC_HorizontalBullet_Grow_Water"
        }
      ]
    }
  },
  "SceneObj_UGC_UGCBarrageCreatorSquare_01": {
    "$type": "CJKJIENLOHD",
    "combat": {
      "property": {
        "hp": 99999.0,
        "isInvincible": true,
        "isLockHP": true,
        "isGhostToAllied": true,
        "isGhostToEnemy": true
      },
      "combatLock": {
        "lockShape": "CircleLockEnemy",
        "denyLockOn": true,
        "lockType": "Gadget_Lv1"
      }
    },
    "combatTemplate": "",
    "abilities": [
      {
        "abilityID": "SceneObj_UGC_UGCBarrageCreatorSquare_01",
        "abilityName": "SceneObj_UGC_UGCBarrageCreatorSquare_01",
        "abilityOverride": ""
      },
      {
        "abilityID": "Scene_RockGadget_Summon_Detect",
        "abilityName": "Scene_RockGadget_Summon_Detect",
        "abilityOverride": ""
      }
    ],
    "stateLayers": {
      "defaultLayer": {
        "$type": "GBGJJIIEMBD",
        "layerIndexName": "",
        "CPAANEIJCGD": "",
        "stateIDs": {
          "All": {
            "$type": "BEIEGKBABOF",
            "animatorStates": {
              "Open": ["Audio_SceneObj_Gear_UGCBarrage_Opening"],
              "Closing": ["Audio_SceneObj_Gear_UGCBarrage_Closing"]
            },
            "cullingModelAlwaysAnimate": true
          }
        }
      }
    },
    "gadgetAction": {
      "gadgetStateActionList": [
        {
          "$type": "FJGKLJLPOGL",
          "intID": "State",
          "syncState": true
        }
      ]
    }
  },
  "SceneObj_UGC_HorizontalBulletSquare_Grow": {
    "$type": "CJKJIENLOHD",
    "hasModel": true,
    "combat": {
      "property": {
        "useCreatorProperty": true,
        "hp": 99999.0,
        "weight": 50.0,
        "isLockHP": true
      },
      "beHit": {
        "hitBloodEffect": "",
        "muteAllHit": true,
        "muteAllHitEffect": true,
        "muteAllHitText": true
      },
      "combatLock": {
        "lockShape": "CircleLockEnemy",
        "denyLockOn": true,
        "lockType": "Gadget_Lv1"
      },
      "die": {
        "dieEndTime": 0.009999999776482582,
        "dieDisappearEffect": ""
      }
    },
    "combatTemplate": "",
    "abilities": [
      {
        "abilityID": "SceneObj_UGC_HorizontalBulletSquare_Grow",
        "abilityName": "SceneObj_UGC_HorizontalBulletSquare_Grow",
        "abilityOverride": ""
      }
    ],
    "timer": {
      "lifeTime": 3.0
    },
    "gadget": {
      "$type": "JENBBNKGGJP",
      "collision": {
        "triggerType": "TriggerNoRepeat",
        "targetType": "Enemy",
        "ignoreScene": true
      },
      "triggerActions": [
        {
          "$type": "AILPBJHDHDG",
          "abilityName": "SceneObj_UGC_HorizontalBulletSquare_Grow"
        }
      ]
    }
  },
  "SceneObj_UGC_HorizontalBullet_GrowSquare_Ele": {
    "$type": "CJKJIENLOHD",
    "hasModel": true,
    "combat": {
      "property": {
        "useCreatorProperty": true,
        "hp": 99999.0,
        "weight": 50.0,
        "isLockHP": true
      },
      "beHit": {
        "hitBloodEffect": "",
        "muteAllHit": true,
        "muteAllHitEffect": true,
        "muteAllHitText": true
      },
      "combatLock": {
        "lockShape": "CircleLockEnemy",
        "denyLockOn": true,
        "lockType": "Gadget_Lv1"
      },
      "die": {
        "dieEndTime": 0.009999999776482582,
        "dieDisappearEffect": ""
      }
    },
    "combatTemplate": "",
    "abilities": [
      {
        "abilityID": "SceneObj_UGC_HorizontalBullet_GrowSquare_Ele",
        "abilityName": "SceneObj_UGC_HorizontalBullet_GrowSquare_Ele",
        "abilityOverride": ""
      }
    ],
    "timer": {
      "lifeTime": 4.0
    },
    "gadget": {
      "$type": "JENBBNKGGJP",
      "collision": {
        "triggerType": "TriggerNoRepeat",
        "targetType": "Enemy",
        "ignoreScene": true
      },
      "triggerActions": [
        {
          "$type": "AILPBJHDHDG",
          "abilityName": "SceneObj_UGC_HorizontalBullet_GrowSquare_Ele"
        }
      ]
    }
  },
  "SceneObj_UGC_HorizontalBullet_GrowSquare_Ice": {
    "$type": "CJKJIENLOHD",
    "hasModel": true,
    "combat": {
      "property": {
        "useCreatorProperty": true,
        "hp": 99999.0,
        "weight": 50.0,
        "isLockHP": true
      },
      "beHit": {
        "hitBloodEffect": "",
        "muteAllHit": true,
        "muteAllHitEffect": true,
        "muteAllHitText": true
      },
      "combatLock": {
        "lockShape": "CircleLockEnemy",
        "denyLockOn": true,
        "lockType": "Gadget_Lv1"
      },
      "die": {
        "dieEndTime": 0.009999999776482582,
        "dieDisappearEffect": ""
      }
    },
    "combatTemplate": "",
    "abilities": [
      {
        "abilityID": "SceneObj_UGC_HorizontalBullet_GrowSquare_Ice",
        "abilityName": "SceneObj_UGC_HorizontalBullet_GrowSquare_Ice",
        "abilityOverride": ""
      }
    ],
    "timer": {
      "lifeTime": 4.0
    },
    "gadget": {
      "$type": "JENBBNKGGJP",
      "collision": {
        "triggerType": "TriggerNoRepeat",
        "targetType": "Enemy",
        "ignoreScene": true
      },
      "triggerActions": [
        {
          "$type": "AILPBJHDHDG",
          "abilityName": "SceneObj_UGC_HorizontalBullet_GrowSquare_Ice"
        }
      ]
    }
  },
  "SceneObj_UGC_HorizontalBullet_GrowSquare_Fire": {
    "$type": "CJKJIENLOHD",
    "hasModel": true,
    "combat": {
      "property": {
        "useCreatorProperty": true,
        "hp": 99999.0,
        "weight": 50.0,
        "isLockHP": true
      },
      "beHit": {
        "hitBloodEffect": "",
        "muteAllHit": true,
        "muteAllHitEffect": true,
        "muteAllHitText": true
      },
      "combatLock": {
        "lockShape": "CircleLockEnemy",
        "denyLockOn": true,
        "lockType": "Gadget_Lv1"
      },
      "die": {
        "dieEndTime": 0.009999999776482582,
        "dieDisappearEffect": ""
      }
    },
    "combatTemplate": "",
    "abilities": [
      {
        "abilityID": "SceneObj_UGC_HorizontalBullet_GrowSquare_Fire",
        "abilityName": "SceneObj_UGC_HorizontalBullet_GrowSquare_Fire",
        "abilityOverride": ""
      }
    ],
    "timer": {
      "lifeTime": 4.0
    },
    "gadget": {
      "$type": "JENBBNKGGJP",
      "collision": {
        "triggerType": "TriggerNoRepeat",
        "targetType": "Enemy",
        "ignoreScene": true
      },
      "triggerActions": [
        {
          "$type": "AILPBJHDHDG",
          "abilityName": "SceneObj_UGC_HorizontalBullet_GrowSquare_Fire"
        }
      ]
    }
  },
  "SceneObj_UGC_HorizontalBullet_GrowSquare_Water": {
    "$type": "CJKJIENLOHD",
    "hasModel": true,
    "combat": {
      "property": {
        "useCreatorProperty": true,
        "hp": 99999.0,
        "weight": 50.0,
        "isLockHP": true
      },
      "beHit": {
        "hitBloodEffect": "",
        "muteAllHit": true,
        "muteAllHitEffect": true,
        "muteAllHitText": true
      },
      "combatLock": {
        "lockShape": "CircleLockEnemy",
        "denyLockOn": true,
        "lockType": "Gadget_Lv1"
      },
      "die": {
        "dieEndTime": 0.009999999776482582,
        "dieDisappearEffect": ""
      }
    },
    "combatTemplate": "",
    "abilities": [
      {
        "abilityID": "SceneObj_UGC_HorizontalBullet_GrowSquare_Water",
        "abilityName": "SceneObj_UGC_HorizontalBullet_GrowSquare_Water",
        "abilityOverride": ""
      }
    ],
    "timer": {
      "lifeTime": 4.0
    },
    "gadget": {
      "$type": "JENBBNKGGJP",
      "collision": {
        "triggerType": "TriggerNoRepeat",
        "targetType": "Enemy",
        "ignoreScene": true
      },
      "triggerActions": [
        {
          "$type": "AILPBJHDHDG",
          "abilityName": "SceneObj_UGC_HorizontalBullet_GrowSquare_Water"
        }
      ]
    }
  },
  "SceneObj_UGC_Cube_Fire_Display": {
    "$type": "CJKJIENLOHD",
    "common": {
      "disableTickDistance": 1500.0
    },
    "model": {
      "bornEffect": "",
      "attachEffect": "",
      "BKPFGNPLDNJ": ""
    },
    "hasModel": true,
    "combat": {
      "property": {
        "hp": 1000.0,
        "attack": 100.0,
        "weight": 50.0,
        "isLockHP": true
      },
      "beHit": {
        "hitBloodEffect": "",
        "hitAutoRedirect": false,
        "muteAllHitEffect": true,
        "muteAllHitText": true
      },
      "combatLock": {
        "lockShape": "CircleLockEnemy",
        "denyLockOn": true,
        "lockType": "Gadget_Lv1"
      }
    },
    "combatTemplate": ""
  },
  "SceneObj_UGC_Cube_Fire_Run": {
    "$type": "CJKJIENLOHD",
    "common": {
      "disableTickDistance": 1500.0
    },
    "hasModel": true,
    "combat": {
      "property": {
        "hp": 1000.0,
        "attack": 100.0,
        "weight": 50.0,
        "isLockHP": true
      },
      "beHit": {
        "hitBloodEffect": "",
        "hitAutoRedirect": false,
        "muteAllHitEffect": true,
        "muteAllHitText": true
      },
      "combatLock": {
        "lockShape": "CircleLockEnemy",
        "denyLockOn": true,
        "lockType": "Gadget_Lv1"
      }
    },
    "combatTemplate": "",
    "abilities": [
      {
        "abilityID": "SceneObj_UGC_Cube_Fire_Run",
        "abilityName": "SceneObj_UGC_Cube_Fire_Run",
        "abilityOverride": ""
      }
    ],
    "move": {
      "$type": "IECCLJGFEMK",
      "timeControl": "Default"
    },
    "hasRayTag": true
  },
  "SceneObj_UGC_Cube_Water_Display": {
    "$type": "CJKJIENLOHD",
    "common": {
      "disableTickDistance": 1500.0
    },
    "model": {
      "bornEffect": "",
      "attachEffect": "",
      "BKPFGNPLDNJ": ""
    },
    "hasModel": true,
    "combat": {
      "property": {
        "hp": 1000.0,
        "attack": 100.0,
        "weight": 50.0,
        "isLockHP": true
      },
      "beHit": {
        "hitBloodEffect": "",
        "hitAutoRedirect": false,
        "muteAllHitEffect": true,
        "muteAllHitText": true
      },
      "combatLock": {
        "lockShape": "CircleLockEnemy",
        "denyLockOn": true,
        "lockType": "Gadget_Lv1"
      }
    },
    "combatTemplate": ""
  },
  "SceneObj_UGC_Cube_Water_Run": {
    "$type": "CJKJIENLOHD",
    "common": {
      "disableTickDistance": 1500.0
    },
    "hasModel": true,
    "combat": {
      "property": {
        "hp": 1000.0,
        "attack": 100.0,
        "weight": 50.0,
        "isLockHP": true
      },
      "beHit": {
        "hitBloodEffect": "",
        "hitAutoRedirect": false,
        "muteAllHitEffect": true,
        "muteAllHitText": true
      },
      "combatLock": {
        "lockShape": "CircleLockEnemy",
        "denyLockOn": true,
        "lockType": "Gadget_Lv1"
      }
    },
    "combatTemplate": "",
    "abilities": [
      {
        "abilityID": "SceneObj_UGC_Cube_Water_Run",
        "abilityName": "SceneObj_UGC_Cube_Water_Run",
        "abilityOverride": ""
      }
    ],
    "move": {
      "$type": "IECCLJGFEMK",
      "timeControl": "Default"
    },
    "hasRayTag": true
  },
  "SceneObj_UGC_Cube_Ice_Display": {
    "$type": "CJKJIENLOHD",
    "common": {
      "disableTickDistance": 1500.0
    },
    "model": {
      "bornEffect": "",
      "attachEffect": "",
      "BKPFGNPLDNJ": ""
    },
    "hasModel": true,
    "combat": {
      "property": {
        "hp": 1000.0,
        "attack": 100.0,
        "weight": 50.0,
        "isLockHP": true
      },
      "beHit": {
        "hitBloodEffect": "",
        "hitAutoRedirect": false,
        "muteAllHitEffect": true,
        "muteAllHitText": true
      },
      "combatLock": {
        "lockShape": "CircleLockEnemy",
        "denyLockOn": true,
        "lockType": "Gadget_Lv1"
      }
    },
    "combatTemplate": ""
  },
  "SceneObj_UGC_Cube_Ice_Run": {
    "$type": "CJKJIENLOHD",
    "common": {
      "disableTickDistance": 1500.0
    },
    "hasModel": true,
    "combat": {
      "property": {
        "hp": 1000.0,
        "attack": 100.0,
        "weight": 50.0,
        "isLockHP": true
      },
      "beHit": {
        "hitBloodEffect": "",
        "hitAutoRedirect": false,
        "muteAllHitEffect": true,
        "muteAllHitText": true
      },
      "combatLock": {
        "lockShape": "CircleLockEnemy",
        "denyLockOn": true,
        "lockType": "Gadget_Lv1"
      }
    },
    "combatTemplate": "",
    "abilities": [
      {
        "abilityID": "SceneObj_UGC_Cube_Ice_Run",
        "abilityName": "SceneObj_UGC_Cube_Ice_Run",
        "abilityOverride": ""
      }
    ],
    "move": {
      "$type": "IECCLJGFEMK",
      "timeControl": "Default"
    },
    "hasRayTag": true
  },
  "SceneObj_UGC_Cube_Elec_Display": {
    "$type": "CJKJIENLOHD",
    "common": {
      "disableTickDistance": 1500.0
    },
    "model": {
      "bornEffect": "",
      "attachEffect": "",
      "BKPFGNPLDNJ": ""
    },
    "hasModel": true,
    "combat": {
      "property": {
        "hp": 1000.0,
        "attack": 100.0,
        "weight": 50.0,
        "isLockHP": true
      },
      "beHit": {
        "hitBloodEffect": "",
        "hitAutoRedirect": false,
        "muteAllHitEffect": true,
        "muteAllHitText": true
      },
      "combatLock": {
        "lockShape": "CircleLockEnemy",
        "denyLockOn": true,
        "lockType": "Gadget_Lv1"
      }
    },
    "combatTemplate": ""
  },
  "SceneObj_UGC_Cube_Elec_Run": {
    "$type": "CJKJIENLOHD",
    "common": {
      "disableTickDistance": 1500.0
    },
    "hasModel": true,
    "combat": {
      "property": {
        "hp": 1000.0,
        "attack": 100.0,
        "weight": 50.0,
        "isLockHP": true
      },
      "beHit": {
        "hitBloodEffect": "",
        "hitAutoRedirect": false,
        "muteAllHitEffect": true,
        "muteAllHitText": true
      },
      "combatLock": {
        "lockShape": "CircleLockEnemy",
        "denyLockOn": true,
        "lockType": "Gadget_Lv1"
      }
    },
    "combatTemplate": "",
    "abilities": [
      {
        "abilityID": "SceneObj_UGC_Cube_Elec_Run",
        "abilityName": "SceneObj_UGC_Cube_Elec_Run",
        "abilityOverride": ""
      }
    ],
    "move": {
      "$type": "IECCLJGFEMK",
      "timeControl": "Default"
    },
    "hasRayTag": true
  },
  "SceneObj_UGC_SpeedPlatform_Display": {
    "$type": "CJKJIENLOHD",
    "common": {
      "disableTickDistance": 1500.0
    },
    "hasModel": true,
    "combat": {
      "property": {
        "hp": 1000.0,
        "attack": 100.0,
        "weight": 50.0,
        "isLockHP": true
      },
      "beHit": {
        "hitBloodEffect": "",
        "hitAutoRedirect": false,
        "muteAllHitEffect": true,
        "muteAllHitText": true
      },
      "combatLock": {
        "lockShape": "CircleLockEnemy",
        "denyLockOn": true,
        "lockType": "Gadget_Lv1"
      }
    },
    "combatTemplate": "",
    "abilities": [
      {
        "abilityID": "SceneObj_UGC_SpeedPlatform_Display",
        "abilityName": "SceneObj_UGC_SpeedPlatform_Display",
        "abilityOverride": ""
      }
    ]
  },
  "SceneObj_UGC_SpeedPlatform_Run": {
    "$type": "CJKJIENLOHD",
    "common": {
      "disableTickDistance": 1500.0
    },
    "hasModel": true,
    "combat": {
      "property": {
        "hp": 1000.0,
        "attack": 100.0,
        "weight": 50.0,
        "isLockHP": true
      },
      "beHit": {
        "hitBloodEffect": "",
        "hitAutoRedirect": false,
        "muteAllHitEffect": true,
        "muteAllHitText": true
      },
      "combatLock": {
        "lockShape": "CircleLockEnemy",
        "denyLockOn": true,
        "lockType": "Gadget_Lv1"
      }
    },
    "combatTemplate": "",
    "abilities": [
      {
        "abilityID": "SceneObj_UGC_SpeedPlatform_Run",
        "abilityName": "SceneObj_UGC_SpeedPlatform_Run",
        "abilityOverride": ""
      }
    ],
    "misc": {
      "forceField": {
        "$type": "JJAHBADOICG",
        "specialTipsIconPath": "",
        "velocity": 4.0
      },
      "escapeEffect": ""
    }
  },
  "SceneObj_UGC_JumpPlatform_Display": {
    "$type": "CJKJIENLOHD",
    "common": {
      "disableTickDistance": 1500.0
    },
    "hasModel": true,
    "combat": {
      "property": {
        "hp": 1000.0,
        "attack": 100.0,
        "weight": 50.0,
        "isLockHP": true
      },
      "beHit": {
        "hitBloodEffect": "",
        "hitAutoRedirect": false,
        "muteAllHitEffect": true,
        "muteAllHitText": true
      },
      "combatLock": {
        "lockShape": "CircleLockEnemy",
        "denyLockOn": true,
        "lockType": "Gadget_Lv1"
      }
    },
    "combatTemplate": "",
    "abilities": [
      {
        "abilityID": "SceneObj_UGC_JumpPlatform_Run",
        "abilityName": "SceneObj_UGC_JumpPlatform_Run",
        "abilityOverride": ""
      }
    ]
  },
  "SceneObj_UGC_JumpPlatform_Run": {
    "$type": "CJKJIENLOHD",
    "common": {
      "disableTickDistance": 1500.0
    },
    "hasModel": true,
    "combat": {
      "property": {
        "hp": 1000.0,
        "attack": 100.0,
        "weight": 50.0,
        "isLockHP": true
      },
      "beHit": {
        "hitBloodEffect": "",
        "hitAutoRedirect": false,
        "muteAllHitEffect": true,
        "muteAllHitText": true
      },
      "combatLock": {
        "lockShape": "CircleLockEnemy",
        "denyLockOn": true,
        "lockType": "Gadget_Lv1"
      }
    },
    "combatTemplate": "",
    "abilities": [
      {
        "abilityID": "SceneObj_UGC_JumpPlatform_Run",
        "abilityName": "SceneObj_UGC_JumpPlatform_Run",
        "abilityOverride": ""
      },
      {
        "abilityID": "Scene_RockGadget_Summon_Detect",
        "abilityName": "Scene_RockGadget_Summon_Detect",
        "abilityOverride": ""
      }
    ],
    "rayTag": 5,
    "hasRayTag": true
  },
  "SceneObj_UGC_ThunderSeedCreate_01": {
    "$type": "CJKJIENLOHD",
    "hasModel": true,
    "combat": {
      "property": {
        "hp": 99999.0,
        "attack": 20.0,
        "weight": 50.0,
        "isLockHP": true,
        "isGhostToAllied": true,
        "isGhostToEnemy": true,
        "ignoreDamageToSelf": true
      },
      "beHit": {
        "hitBloodEffect": "",
        "hitAutoRedirect": false,
        "muteAllHitText": true
      },
      "combatLock": {
        "lockShape": "CircleLockEnemy",
        "denyLockOn": true,
        "lockType": "Gadget_Lv1"
      }
    },
    "combatTemplate": "",
    "abilities": [
      {
        "abilityID": "SceneObj_UGC_ThunderSeedCreate_01",
        "abilityName": "SceneObj_UGC_ThunderSeedCreate_01",
        "abilityOverride": ""
      },
      {
        "abilityID": "SceneObj_UGC_ThunderSeedCreate_Interact",
        "abilityName": "SceneObj_UGC_ThunderSeedCreate_Interact",
        "abilityOverride": ""
      },
      {
        "abilityID": "Scene_RockGadget_Summon_Detect",
        "abilityName": "Scene_RockGadget_Summon_Detect",
        "abilityOverride": ""
      }
    ],
    "uiInteract": {
      "gadgetUIBtnCfgPath": "TEST/TEST_Chest_Btn",
      "uiName": "",
      "onTouch": "WidgetMPSupport",
      "touchParams": ["SceneObj_UGC_ThunderSeedCreate_Interact"],
      "icon": "",
      "groupName": "",
      "confirmDialogTitle": "",
      "confirmDialogContent": ""
    },
    "gadgetAction": {
      "gadgetStateActionList": [
        {
          "$type": "DEMJBAICBKO",
          "enable": true
        },
        {
          "$type": "DEMJBAICBKO",
          "triggerID": "GearStart"
        },
        {
          "$type": "DEMJBAICBKO",
          "triggerID": "GearStop"
        },
        {
          "$type": "DEMJBAICBKO",
          "triggerID": "GearAction1"
        },
        {
          "$type": "FJGKLJLPOGL",
          "intID": "GadgetState",
          "syncState": true
        }
      ]
    }
  },
  "SceneObj_UGC_LightCore": {
    "$type": "CJKJIENLOHD",
    "hasModel": true,
    "combat": {
      "property": {
        "hp": 99999.0,
        "attack": 200.0,
        "weight": 50.0,
        "isLockHP": true
      },
      "beHit": {
        "hitBloodEffect": "",
        "hitAutoRedirect": false,
        "muteAllHitText": true
      },
      "combatLock": {
        "lockShape": "CircleLockEnemy",
        "denyLockOn": true,
        "lockType": "Gadget_Lv1"
      }
    },
    "combatTemplate": "",
    "abilities": [
      {
        "abilityID": "SceneObj_UGC_LightCore",
        "abilityName": "SceneObj_UGC_LightCore",
        "abilityOverride": ""
      }
    ],
    "stateLayers": {
      "defaultLayer": {
        "$type": "GBGJJIIEMBD",
        "layerIndexName": "",
        "CPAANEIJCGD": "",
        "stateIDs": {
          "PhaseDefault": {
            "$type": "BEIEGKBABOF",
            "animatorStates": {
              "Default": []
            }
          },
          "PhaseEnd": {
            "$type": "BEIEGKBABOF",
            "animatorStates": {
              "End": []
            }
          },
          "PhaseRecover": {
            "$type": "BEIEGKBABOF",
            "animatorStates": {
              "Recover": []
            }
          }
        }
      }
    },
    "gadgetAction": {
      "gadgetStateActionList": [
        {
          "$type": "FJGKLJLPOGL",
          "intID": "GadgetState",
          "syncState": true
        }
      ]
    }
  },
  "SceneObj_UGC_Bubble_Display": {
    "$type": "CJKJIENLOHD",
    "common": {
      "disableTickDistance": 1500.0
    },
    "hasModel": true,
    "combat": {
      "property": {
        "hp": 1000.0,
        "attack": 100.0,
        "weight": 50.0,
        "isLockHP": true
      },
      "beHit": {
        "hitBloodEffect": "",
        "hitAutoRedirect": false,
        "muteAllHitEffect": true,
        "muteAllHitText": true
      },
      "combatLock": {
        "lockShape": "CircleLockEnemy",
        "denyLockOn": true,
        "lockType": "Gadget_Lv1"
      }
    },
    "combatTemplate": "",
    "abilities": [
      {
        "abilityID": "SceneObj_UGC_Bubble_Display",
        "abilityName": "SceneObj_UGC_Bubble_Display",
        "abilityOverride": ""
      }
    ]
  },
  "SceneObj_UGC_Bubble_Run": {
    "$type": "CJKJIENLOHD",
    "common": {
      "disableTickDistance": 100000.0
    },
    "hasModel": true,
    "combat": {
      "property": {
        "hp": 1000.0,
        "attack": 100.0,
        "level": 90,
        "weight": 50.0,
        "isLockHP": true
      },
      "beHit": {
        "hitBloodEffect": "",
        "hitAutoRedirect": false,
        "muteAllHitEffect": true,
        "muteAllHitText": true
      },
      "combatLock": {
        "lockShape": "CircleLockEnemy",
        "denyLockOn": true,
        "lockType": "Gadget_Lv1"
      }
    },
    "combatTemplate": "",
    "abilities": [
      {
        "abilityID": "SceneObj_UGC_Bubble_Run",
        "abilityName": "SceneObj_UGC_Bubble_Run",
        "abilityOverride": ""
      }
    ],
    "field": {
      "concernType": "AllAvatars",
      "shape": "",
      "fromShape": "",
      "triggerInfinite": true,
      "lifeInfinite": true,
      "checkInterval": 0.5,
      "overwriteCampType": true,
      "campType": "All",
      "colliderName": "",
      "fromColliderName": ""
    },
    "move": {
      "$type": "IECCLJGFEMK",
      "timeControl": "Default",
      "offTime": [1.0, 1.0],
      "period": [2.0, 2.0],
      "route": [
        {},
        {
          "z": -8.0
        }
      ]
    }
  },
  "SceneObj_UGC_BubbleSlow_Display": {
    "$type": "CJKJIENLOHD",
    "common": {
      "disableTickDistance": 1500.0
    },
    "hasModel": true,
    "combat": {
      "property": {
        "hp": 1000.0,
        "attack": 100.0,
        "weight": 50.0,
        "isLockHP": true
      },
      "beHit": {
        "hitBloodEffect": "",
        "hitAutoRedirect": false,
        "muteAllHitEffect": true,
        "muteAllHitText": true
      },
      "combatLock": {
        "lockShape": "CircleLockEnemy",
        "denyLockOn": true,
        "lockType": "Gadget_Lv1"
      }
    },
    "combatTemplate": "",
    "abilities": [
      {
        "abilityID": "SceneObj_UGC_Bubble_Display",
        "abilityName": "SceneObj_UGC_Bubble_Display",
        "abilityOverride": ""
      }
    ]
  },
  "SceneObj_UGC_BubbleSlow_Run": {
    "$type": "CJKJIENLOHD",
    "common": {
      "disableTickDistance": 100000.0
    },
    "hasModel": true,
    "combat": {
      "property": {
        "hp": 1000.0,
        "attack": 100.0,
        "level": 90,
        "weight": 50.0,
        "isLockHP": true
      },
      "beHit": {
        "hitBloodEffect": "",
        "hitAutoRedirect": false,
        "muteAllHitEffect": true,
        "muteAllHitText": true
      },
      "combatLock": {
        "lockShape": "CircleLockEnemy",
        "denyLockOn": true,
        "lockType": "Gadget_Lv1"
      }
    },
    "combatTemplate": "",
    "abilities": [
      {
        "abilityID": "SceneObj_UGC_Bubble_Run",
        "abilityName": "SceneObj_UGC_Bubble_Run",
        "abilityOverride": ""
      }
    ],
    "field": {
      "concernType": "AllAvatars",
      "shape": "",
      "fromShape": "",
      "triggerInfinite": true,
      "lifeInfinite": true,
      "checkInterval": 0.5,
      "overwriteCampType": true,
      "campType": "All",
      "colliderName": "",
      "fromColliderName": ""
    },
    "move": {
      "$type": "IECCLJGFEMK",
      "timeControl": "Default",
      "offTime": [2.0, 2.0],
      "period": [4.0, 4.0],
      "route": [
        {},
        {
          "z": -8.0
        }
      ]
    }
  },
  "SceneObj_UGC_AirflowFieldH10_Display": {
    "$type": "CJKJIENLOHD",
    "common": {
      "disableTickDistance": 100000.0
    },
    "model": {
      "bornEffect": "",
      "attachEffect": "Eff_Stage_PeriodVerticalWindField_H10_Continue_UGC",
      "BKPFGNPLDNJ": ""
    },
    "hasModel": true,
    "combat": {
      "property": {
        "hp": 5000.0,
        "attack": 10.0,
        "weight": 0.0,
        "isLockHP": true
      },
      "beHit": {
        "hitBloodEffect": "",
        "muteAllHit": true,
        "muteAllHitEffect": true,
        "muteAllHitText": true
      },
      "combatLock": {
        "lockShape": "CircleLockEnemy",
        "denyLockOn": true,
        "lockType": "Gadget_Lv1"
      },
      "die": {
        "hasAnimatorDie": true,
        "dieEndTime": 2.0,
        "dieForceDisappearTime": 2.0,
        "dieDisappearEffect": ""
      }
    },
    "combatTemplate": "",
    "keepModifierOutSight": false
  },
  "SceneObj_UGC_AirflowFieldH10_Run": {
    "$type": "CJKJIENLOHD",
    "common": {
      "disableTickDistance": 100000.0
    },
    "model": {
      "bornEffect": "",
      "attachEffect": "Eff_Stage_PeriodVerticalWindField_H10_Continue_UGC",
      "BKPFGNPLDNJ": ""
    },
    "hasModel": true,
    "combat": {
      "property": {
        "hp": 5000.0,
        "attack": 10.0,
        "weight": 0.0,
        "isLockHP": true
      },
      "beHit": {
        "hitBloodEffect": "",
        "muteAllHit": true,
        "muteAllHitEffect": true,
        "muteAllHitText": true
      },
      "combatLock": {
        "lockShape": "CircleLockEnemy",
        "denyLockOn": true,
        "lockType": "Gadget_Lv1"
      },
      "die": {
        "hasAnimatorDie": true,
        "dieEndTime": 2.0,
        "dieForceDisappearTime": 2.0,
        "dieDisappearEffect": ""
      }
    },
    "combatTemplate": "",
    "misc": {
      "forceField": {
        "$type": "NJNBPMFBLMP",
        "specialTipsIconPath": "",
        "velocity": 10.0,
        "stayEffect": "Eff_Windfield_Stay",
        "enterEffect": "Eff_Windfield_Enter"
      },
      "escapeEffect": ""
    },
    "keepModifierOutSight": false
  },
  "SceneObj_UGC_ThunderArrow_Display": {
    "$type": "CJKJIENLOHD",
    "combat": {
      "property": {
        "hp": 10000.0,
        "attack": 30.0,
        "isLockHP": true,
        "isGhostToAllied": true,
        "isGhostToEnemy": true,
        "ignorePurgeRate": true
      },
      "beHit": {
        "hitBloodEffect": "",
        "hitAutoRedirect": false,
        "muteAllHitEffect": true
      },
      "combatLock": {
        "lockShape": "CircleLockEnemy",
        "denyLockOn": true,
        "lockType": "Gadget_Lv1"
      },
      "die": {
        "dieForceDisappearTime": 0.0,
        "dieDisappearEffect": ""
      }
    },
    "combatTemplate": ""
  },
  "SceneObj_UGC_ThunderArrow_Run": {
    "$type": "CJKJIENLOHD",
    "combat": {
      "property": {
        "hp": 10000.0,
        "attack": 30.0,
        "isLockHP": true,
        "isGhostToAllied": true,
        "isGhostToEnemy": true,
        "ignorePurgeRate": true
      },
      "beHit": {
        "hitBloodEffect": "",
        "hitAutoRedirect": false,
        "muteAllHitEffect": true
      },
      "combatLock": {
        "lockShape": "CircleLockEnemy",
        "denyLockOn": true,
        "lockType": "Gadget_Lv1"
      },
      "die": {
        "dieForceDisappearTime": 0.0,
        "dieDisappearEffect": ""
      }
    },
    "combatTemplate": "",
    "abilities": [
      {
        "abilityID": "SceneObj_UGC_ThunderArrow_Run",
        "abilityName": "SceneObj_UGC_ThunderArrow_Run",
        "abilityOverride": ""
      }
    ],
    "move": {
      "$type": "IECCLJGFEMK",
      "timeControl": "Default"
    }
  },
  "SceneObj_UGC_ThunderArrowBullet": {
    "$type": "CJKJIENLOHD",
    "combat": {
      "property": {
        "useCreatorProperty": true,
        "hp": 99999.0,
        "attack": 20.0,
        "weight": 50.0,
        "isLockHP": true
      },
      "beHit": {
        "hitBloodEffect": "",
        "muteAllHit": true,
        "muteAllHitEffect": true,
        "muteAllHitText": true
      },
      "combatLock": {
        "lockShape": "CircleLockEnemy",
        "denyLockOn": true,
        "lockType": "Gadget_Lv1"
      },
      "die": {
        "dieEndTime": 0.009999999776482582,
        "dieDisappearEffect": ""
      }
    },
    "combatTemplate": "",
    "abilities": [
      {
        "abilityID": "SceneObj_UGC_ThunderArrowBullet",
        "abilityName": "SceneObj_UGC_ThunderArrowBullet",
        "abilityOverride": ""
      }
    ],
    "timer": {
      "lifeTime": 4.0
    },
    "move": {
      "$type": "GONNMCBKAOC",
      "velocityForce": {
        "muteAll": true
      },
      "speed": 12.0
    },
    "gadget": {
      "$type": "JENBBNKGGJP",
      "collision": {
        "triggerType": "TriggerNoRepeat",
        "targetType": "Enemy"
      },
      "triggerActions": [
        {
          "$type": "AILPBJHDHDG",
          "abilityName": "SceneObj_UGC_ThunderArrowBullet"
        }
      ]
    }
  },
  "SceneObj_UGC_Flamethrower_Display": {
    "$type": "CJKJIENLOHD",
    "combat": {
      "property": {
        "hp": 99999.0,
        "isInvincible": true,
        "isLockHP": true,
        "isGhostToAllied": true,
        "isGhostToEnemy": true
      },
      "combatLock": {
        "lockShape": "CircleLockEnemy",
        "denyLockOn": true,
        "lockType": "Gadget_Lv1"
      }
    },
    "combatTemplate": ""
  },
  "SceneObj_UGC_Flamethrower_Run": {
    "$type": "CJKJIENLOHD",
    "combat": {
      "property": {
        "hp": 99999.0,
        "isInvincible": true,
        "isLockHP": true,
        "isGhostToAllied": true,
        "isGhostToEnemy": true
      },
      "combatLock": {
        "lockShape": "CircleLockEnemy",
        "denyLockOn": true,
        "lockType": "Gadget_Lv1"
      }
    },
    "combatTemplate": "",
    "abilities": [
      {
        "abilityID": "SceneObj_UGC_Flamethrower_Run",
        "abilityName": "SceneObj_UGC_Flamethrower_Run",
        "abilityOverride": ""
      },
      {
        "abilityID": "Scene_RockGadget_Summon_Detect",
        "abilityName": "Scene_RockGadget_Summon_Detect",
        "abilityOverride": ""
      }
    ],
    "stateLayers": {
      "defaultLayer": {
        "$type": "GBGJJIIEMBD",
        "layerIndexName": "",
        "CPAANEIJCGD": "",
        "stateIDs": {
          "All": {
            "$type": "BEIEGKBABOF",
            "animatorStates": {
              "Open": ["Audio_SceneObj_Gear_UGCBarrage_Opening"],
              "Closing": ["Audio_SceneObj_Gear_UGCBarrage_Closing"]
            },
            "cullingModelAlwaysAnimate": true
          }
        }
      }
    },
    "gadgetAction": {
      "gadgetStateActionList": [
        {
          "$type": "FJGKLJLPOGL",
          "intID": "State",
          "syncState": true
        }
      ]
    }
  },
  "SceneObj_UGC_Synchronizer": {
    "$type": "CJKJIENLOHD",
    "combat": {
      "property": {
        "hp": 99999.0,
        "isInvincible": true,
        "isLockHP": true,
        "isGhostToAllied": true,
        "isGhostToEnemy": true
      },
      "combatLock": {
        "lockShape": "CircleLockEnemy",
        "denyLockOn": true,
        "lockType": "Gadget_Lv1"
      }
    },
    "combatTemplate": "",
    "abilities": [
      {
        "abilityID": "SceneObj_UGC_Synchronizer",
        "abilityName": "SceneObj_UGC_Synchronizer",
        "abilityOverride": ""
      }
    ],
    "gadgetAction": {
      "gadgetStateActionList": [
        {
          "$type": "FJGKLJLPOGL",
          "intID": "State",
          "syncState": true
        }
      ]
    }
  },
  "SceneObj_UGC_SealBorder_01": {
    "$type": "CJKJIENLOHD",
    "common": {
      "disableTickDistance": 100001.0
    },
    "combat": {
      "property": {
        "hp": 99999.0,
        "attack": 200.0,
        "weight": 50.0,
        "isLockHP": true,
        "isGhostToAllied": true,
        "isGhostToEnemy": true
      },
      "beHit": {
        "hitBloodEffect": "",
        "hitAutoRedirect": false,
        "muteAllHitText": true
      },
      "combatLock": {
        "lockShape": "CircleLockEnemy",
        "denyLockOn": true,
        "lockType": "Gadget_Lv1"
      }
    },
    "combatTemplate": "",
    "gadgetAction": {
      "gadgetStateActionList": [
        {
          "$type": "FJGKLJLPOGL",
          "intID": "gadgetState",
          "syncState": true
        }
      ]
    }
  }
}
