[
  {
    "furnitureID": 369101,
    "monsterID": 28220502,
    "isRebirth": 1,
    "rebirthCD": 5,
    "KOLKDBGBDPA": "CAT_ENTITY_TOUCH",
    "PKPFPEPLCHC": [
      "28220521",
      "SmallCat",
      ""
    ]
  },
  {
    "furnitureID": 369102,
    "monsterID": 28220401,
    "isRebirth": 1,
    "rebirthCD": 5,
    "PKPFPEPLCHC": [
      "",
      "",
      ""
    ]
  },
  {
    "furnitureID": 369103,
    "monsterID": 28220301,
    "isRebirth": 1,
    "rebirthCD": 5,
    "PKPFPEPLCHC": [
      "",
      "",
      ""
    ]
  },
  {
    "furnitureID": 369104,
    "monsterID": 28230101,
    "isRebirth": 1,
    "rebirthCD": 5,
    "PKPFPEPLCHC": [
      "",
      "",
      ""
    ]
  },
  {
    "furnitureID": 369105,
    "monsterID": 28220402,
    "isRebirth": 1,
    "rebirthCD": 5,
    "PKPFPEPLCHC": [
      "",
      "",
      ""
    ]
  },
  {
    "furnitureID": 369106,
    "monsterID": 28220403,
    "isRebirth": 1,
    "rebirthCD": 5,
    "PKPFPEPLCHC": [
      "",
      "",
      ""
    ]
  },
  {
    "furnitureID": 369107,
    "monsterID": 28220404,
    "isRebirth": 1,
    "rebirthCD": 5,
    "PKPFPEPLCHC": [
      "",
      "",
      ""
    ]
  },
  {
    "furnitureID": 369108,
    "monsterID": 28220504,
    "isRebirth": 1,
    "rebirthCD": 5,
    "KOLKDBGBDPA": "CAT_ENTITY_TOUCH",
    "PKPFPEPLCHC": [
      "28220522",
      "SmallCat",
      ""
    ]
  },
  {
    "furnitureID": 369109,
    "monsterID": 28220505,
    "isRebirth": 1,
    "rebirthCD": 5,
    "KOLKDBGBDPA": "CAT_ENTITY_TOUCH",
    "PKPFPEPLCHC": [
      "28220523",
      "SmallCat",
      ""
    ]
  },
  {
    "furnitureID": 369110,
    "monsterID": 28220506,
    "isRebirth": 1,
    "rebirthCD": 5,
    "KOLKDBGBDPA": "CAT_ENTITY_TOUCH",
    "PKPFPEPLCHC": [
      "28220524",
      "SmallCat",
      ""
    ]
  },
  {
    "furnitureID": 379001,
    "monsterID": 28240201,
    "isRebirth": 1,
    "rebirthCD": 5,
    "PKPFPEPLCHC": [
      "",
      "",
      ""
    ]
  },
  {
    "furnitureID": 379002,
    "monsterID": 28240202,
    "isRebirth": 1,
    "rebirthCD": 5,
    "PKPFPEPLCHC": [
      "",
      "",
      ""
    ]
  },
  {
    "furnitureID": 379003,
    "monsterID": 28240203,
    "isRebirth": 1,
    "rebirthCD": 5,
    "PKPFPEPLCHC": [
      "",
      "",
      ""
    ]
  },
  {
    "furnitureID": 379004,
    "monsterID": 28240204,
    "isRebirth": 1,
    "rebirthCD": 5,
    "PKPFPEPLCHC": [
      "",
      "",
      ""
    ]
  },
  {
    "furnitureID": 379005,
    "monsterID": 28240205,
    "isRebirth": 1,
    "rebirthCD": 5,
    "PKPFPEPLCHC": [
      "",
      "",
      ""
    ]
  },
  {
    "furnitureID": 379006,
    "monsterID": 28240206,
    "isRebirth": 1,
    "rebirthCD": 5,
    "PKPFPEPLCHC": [
      "",
      "",
      ""
    ]
  },
  {
    "furnitureID": 379007,
    "monsterID": 28240301,
    "isRebirth": 1,
    "rebirthCD": 5,
    "PKPFPEPLCHC": [
      "",
      "",
      ""
    ]
  },
  {
    "furnitureID": 379008,
    "monsterID": 28240302,
    "isRebirth": 1,
    "rebirthCD": 5,
    "PKPFPEPLCHC": [
      "",
      "",
      ""
    ]
  },
  {
    "furnitureID": 379009,
    "monsterID": 28240303,
    "isRebirth": 1,
    "rebirthCD": 5,
    "PKPFPEPLCHC": [
      "",
      "",
      ""
    ]
  },
  {
    "furnitureID": 379010,
    "monsterID": 28240304,
    "isRebirth": 1,
    "rebirthCD": 5,
    "PKPFPEPLCHC": [
      "",
      "",
      ""
    ]
  },
  {
    "furnitureID": 379011,
    "monsterID": 28240305,
    "isRebirth": 1,
    "rebirthCD": 5,
    "PKPFPEPLCHC": [
      "",
      "",
      ""
    ]
  },
  {
    "furnitureID": 379012,
    "monsterID": 28240401,
    "isRebirth": 1,
    "rebirthCD": 5,
    "PKPFPEPLCHC": [
      "",
      "",
      ""
    ]
  },
  {
    "furnitureID": 379013,
    "monsterID": 28240402,
    "isRebirth": 1,
    "rebirthCD": 5,
    "PKPFPEPLCHC": [
      "",
      "",
      ""
    ]
  },
  {
    "furnitureID": 379014,
    "monsterID": 28240501,
    "isRebirth": 1,
    "rebirthCD": 5,
    "PKPFPEPLCHC": [
      "",
      "",
      ""
    ]
  },
  {
    "furnitureID": 379015,
    "monsterID": 28240502,
    "isRebirth": 1,
    "rebirthCD": 5,
    "PKPFPEPLCHC": [
      "",
      "",
      ""
    ]
  },
  {
    "furnitureID": 379016,
    "monsterID": 28240503,
    "isRebirth": 1,
    "rebirthCD": 5,
    "PKPFPEPLCHC": [
      "",
      "",
      ""
    ]
  },
  {
    "furnitureID": 379017,
    "monsterID": 28240504,
    "isRebirth": 1,
    "rebirthCD": 5,
    "PKPFPEPLCHC": [
      "",
      "",
      ""
    ]
  },
  {
    "furnitureID": 379018,
    "monsterID": 28240505,
    "isRebirth": 1,
    "rebirthCD": 5,
    "PKPFPEPLCHC": [
      "",
      "",
      ""
    ]
  },
  {
    "furnitureID": 379019,
    "monsterID": 28240506,
    "isRebirth": 1,
    "rebirthCD": 5,
    "PKPFPEPLCHC": [
      "",
      "",
      ""
    ]
  },
  {
    "furnitureID": 379020,
    "monsterID": 28240601,
    "isRebirth": 1,
    "rebirthCD": 5,
    "PKPFPEPLCHC": [
      "",
      "",
      ""
    ]
  },
  {
    "furnitureID": 379021,
    "monsterID": 28240602,
    "isRebirth": 1,
    "rebirthCD": 5,
    "PKPFPEPLCHC": [
      "",
      "",
      ""
    ]
  },
  {
    "furnitureID": 379022,
    "monsterID": 28240701,
    "isRebirth": 1,
    "rebirthCD": 5,
    "PKPFPEPLCHC": [
      "",
      "",
      ""
    ]
  },
  {
    "furnitureID": 379023,
    "monsterID": 28240702,
    "isRebirth": 1,
    "rebirthCD": 5,
    "PKPFPEPLCHC": [
      "",
      "",
      ""
    ]
  },
  {
    "furnitureID": 379024,
    "monsterID": 28240801,
    "isRebirth": 1,
    "rebirthCD": 5,
    "PKPFPEPLCHC": [
      "",
      "",
      ""
    ]
  },
  {
    "furnitureID": 379025,
    "monsterID": 28240802,
    "isRebirth": 1,
    "rebirthCD": 5,
    "PKPFPEPLCHC": [
      "",
      "",
      ""
    ]
  },
  {
    "furnitureID": 379026,
    "monsterID": 28240803,
    "isRebirth": 1,
    "rebirthCD": 5,
    "PKPFPEPLCHC": [
      "",
      "",
      ""
    ]
  },
  {
    "furnitureID": 379027,
    "monsterID": 28240804,
    "isRebirth": 1,
    "rebirthCD": 5,
    "PKPFPEPLCHC": [
      "",
      "",
      ""
    ]
  },
  {
    "furnitureID": 379028,
    "monsterID": 28240901,
    "isRebirth": 1,
    "rebirthCD": 5,
    "PKPFPEPLCHC": [
      "",
      "",
      ""
    ]
  },
  {
    "furnitureID": 379029,
    "monsterID": 28240902,
    "isRebirth": 1,
    "rebirthCD": 5,
    "PKPFPEPLCHC": [
      "",
      "",
      ""
    ]
  },
  {
    "furnitureID": 379030,
    "monsterID": 28240903,
    "isRebirth": 1,
    "rebirthCD": 5,
    "PKPFPEPLCHC": [
      "",
      "",
      ""
    ]
  },
  {
    "furnitureID": 379031,
    "monsterID": 28241001,
    "isRebirth": 1,
    "rebirthCD": 5,
    "PKPFPEPLCHC": [
      "",
      "",
      ""
    ]
  },
  {
    "furnitureID": 379032,
    "monsterID": 28241002,
    "isRebirth": 1,
    "rebirthCD": 5,
    "PKPFPEPLCHC": [
      "",
      "",
      ""
    ]
  },
  {
    "furnitureID": 379033,
    "monsterID": 28241101,
    "isRebirth": 1,
    "rebirthCD": 5,
    "PKPFPEPLCHC": [
      "",
      "",
      ""
    ]
  },
  {
    "furnitureID": 379034,
    "monsterID": 28241102,
    "isRebirth": 1,
    "rebirthCD": 5,
    "PKPFPEPLCHC": [
      "",
      "",
      ""
    ]
  },
  {
    "furnitureID": 379035,
    "monsterID": 28241103,
    "isRebirth": 1,
    "rebirthCD": 5,
    "PKPFPEPLCHC": [
      "",
      "",
      ""
    ]
  },
  {
    "furnitureID": 379036,
    "monsterID": 28241104,
    "isRebirth": 1,
    "rebirthCD": 5,
    "PKPFPEPLCHC": [
      "",
      "",
      ""
    ]
  },
  {
    "furnitureID": 379037,
    "monsterID": 28241105,
    "isRebirth": 1,
    "rebirthCD": 5,
    "PKPFPEPLCHC": [
      "",
      "",
      ""
    ]
  },
  {
    "furnitureID": 379038,
    "monsterID": 28241003,
    "isRebirth": 1,
    "rebirthCD": 5,
    "PKPFPEPLCHC": [
      "",
      "",
      ""
    ]
  },
  {
    "furnitureID": 369111,
    "monsterID": 28220901,
    "isRebirth": 1,
    "rebirthCD": 5,
    "PKPFPEPLCHC": [
      "",
      "",
      ""
    ]
  },
  {
    "furnitureID": 369112,
    "monsterID": 28220303,
    "isRebirth": 1,
    "rebirthCD": 5,
    "PKPFPEPLCHC": [
      "",
      "",
      ""
    ]
  },
  {
    "furnitureID": 369113,
    "monsterID": 28210101,
    "isRebirth": 1,
    "rebirthCD": 5,
    "PKPFPEPLCHC": [
      "",
      "",
      ""
    ]
  },
  {
    "furnitureID": 369114,
    "monsterID": 28210102,
    "isRebirth": 1,
    "rebirthCD": 5,
    "PKPFPEPLCHC": [
      "",
      "",
      ""
    ]
  },
  {
    "furnitureID": 369115,
    "monsterID": 28210103,
    "isRebirth": 1,
    "rebirthCD": 5,
    "PKPFPEPLCHC": [
      "",
      "",
      ""
    ]
  },
  {
    "furnitureID": 369116,
    "monsterID": 28210104,
    "isRebirth": 1,
    "rebirthCD": 5,
    "PKPFPEPLCHC": [
      "",
      "",
      ""
    ]
  },
  {
    "furnitureID": 369117,
    "monsterID": 28210105,
    "isRebirth": 1,
    "rebirthCD": 5,
    "PKPFPEPLCHC": [
      "",
      "",
      ""
    ]
  },
  {
    "furnitureID": 369118,
    "monsterID": 28220101,
    "isRebirth": 1,
    "rebirthCD": 5,
    "PKPFPEPLCHC": [
      "",
      "",
      ""
    ]
  },
  {
    "furnitureID": 369119,
    "monsterID": 28220102,
    "isRebirth": 1,
    "rebirthCD": 5,
    "PKPFPEPLCHC": [
      "",
      "",
      ""
    ]
  },
  {
    "furnitureID": 369120,
    "monsterID": 28220201,
    "isRebirth": 1,
    "rebirthCD": 5,
    "PKPFPEPLCHC": [
      "",
      "",
      ""
    ]
  },
  {
    "furnitureID": 369121,
    "monsterID": 28220501,
    "isRebirth": 1,
    "rebirthCD": 5,
    "KOLKDBGBDPA": "CAT_ENTITY_TOUCH",
    "PKPFPEPLCHC": [
      "28220525",
      "SmallCat",
      ""
    ]
  },
  {
    "furnitureID": 369122,
    "monsterID": 28220503,
    "isRebirth": 1,
    "rebirthCD": 5,
    "KOLKDBGBDPA": "CAT_ENTITY_TOUCH",
    "PKPFPEPLCHC": [
      "28220526",
      "SmallCat",
      ""
    ]
  },
  {
    "furnitureID": 369123,
    "monsterID": 28220601,
    "isRebirth": 1,
    "rebirthCD": 5,
    "PKPFPEPLCHC": [
      "",
      "",
      ""
    ]
  },
  {
    "furnitureID": 369124,
    "monsterID": 28220602,
    "isRebirth": 1,
    "rebirthCD": 5,
    "PKPFPEPLCHC": [
      "",
      "",
      ""
    ]
  },
  {
    "furnitureID": 369125,
    "monsterID": 28220603,
    "isRebirth": 1,
    "rebirthCD": 5,
    "PKPFPEPLCHC": [
      "",
      "",
      ""
    ]
  },
  {
    "furnitureID": 369126,
    "monsterID": 28220701,
    "isRebirth": 1,
    "rebirthCD": 5,
    "PKPFPEPLCHC": [
      "",
      "",
      ""
    ]
  },
  {
    "furnitureID": 369127,
    "monsterID": 28230102,
    "isRebirth": 1,
    "rebirthCD": 5,
    "PKPFPEPLCHC": [
      "",
      "",
      ""
    ]
  },
  {
    "furnitureID": 369128,
    "monsterID": 28250101,
    "isRebirth": 1,
    "rebirthCD": 5,
    "PKPFPEPLCHC": [
      "",
      "",
      ""
    ]
  },
  {
    "furnitureID": 369129,
    "monsterID": 28250102,
    "isRebirth": 1,
    "rebirthCD": 5,
    "PKPFPEPLCHC": [
      "",
      "",
      ""
    ]
  },
  {
    "furnitureID": 369130,
    "monsterID": 28250103,
    "isRebirth": 1,
    "rebirthCD": 5,
    "PKPFPEPLCHC": [
      "",
      "",
      ""
    ]
  },
  {
    "furnitureID": 369131,
    "monsterID": 28250104,
    "isRebirth": 1,
    "rebirthCD": 5,
    "PKPFPEPLCHC": [
      "",
      "",
      ""
    ]
  },
  {
    "furnitureID": 369132,
    "monsterID": 28210201,
    "isRebirth": 1,
    "rebirthCD": 5,
    "PKPFPEPLCHC": [
      "",
      "",
      ""
    ]
  },
  {
    "furnitureID": 369133,
    "monsterID": 28210202,
    "isRebirth": 1,
    "rebirthCD": 5,
    "PKPFPEPLCHC": [
      "",
      "",
      ""
    ]
  },
  {
    "furnitureID": 369134,
    "monsterID": 28210203,
    "isRebirth": 1,
    "rebirthCD": 5,
    "PKPFPEPLCHC": [
      "",
      "",
      ""
    ]
  },
  {
    "furnitureID": 369135,
    "monsterID": 28210204,
    "isRebirth": 1,
    "rebirthCD": 5,
    "PKPFPEPLCHC": [
      "",
      "",
      ""
    ]
  },
  {
    "furnitureID": 369136,
    "monsterID": 28210205,
    "isRebirth": 1,
    "rebirthCD": 5,
    "PKPFPEPLCHC": [
      "",
      "",
      ""
    ]
  },
  {
    "furnitureID": 369137,
    "monsterID": 28210206,
    "isRebirth": 1,
    "rebirthCD": 5,
    "PKPFPEPLCHC": [
      "",
      "",
      ""
    ]
  },
  {
    "furnitureID": 369138,
    "monsterID": 28210207,
    "isRebirth": 1,
    "rebirthCD": 5,
    "PKPFPEPLCHC": [
      "",
      "",
      ""
    ]
  },
  {
    "furnitureID": 369139,
    "monsterID": 28210301,
    "isRebirth": 1,
    "rebirthCD": 5,
    "PKPFPEPLCHC": [
      "",
      "",
      ""
    ]
  },
  {
    "furnitureID": 369140,
    "monsterID": 28210302,
    "isRebirth": 1,
    "rebirthCD": 5,
    "PKPFPEPLCHC": [
      "",
      "",
      ""
    ]
  },
  {
    "furnitureID": 369141,
    "monsterID": 28210303,
    "isRebirth": 1,
    "rebirthCD": 5,
    "PKPFPEPLCHC": [
      "",
      "",
      ""
    ]
  },
  {
    "furnitureID": 369142,
    "monsterID": 28210401,
    "isRebirth": 1,
    "rebirthCD": 5,
    "PKPFPEPLCHC": [
      "",
      "",
      ""
    ]
  },
  {
    "furnitureID": 369143,
    "monsterID": 28210403,
    "isRebirth": 1,
    "rebirthCD": 5,
    "PKPFPEPLCHC": [
      "",
      "",
      ""
    ]
  },
  {
    "furnitureID": 369144,
    "monsterID": 28230301,
    "isRebirth": 1,
    "rebirthCD": 5,
    "PKPFPEPLCHC": [
      "",
      "",
      ""
    ]
  },
  {
    "furnitureID": 369145,
    "monsterID": 28230302,
    "isRebirth": 1,
    "rebirthCD": 5,
    "PKPFPEPLCHC": [
      "",
      "",
      ""
    ]
  },
  {
    "furnitureID": 369146,
    "monsterID": 28230303,
    "isRebirth": 1,
    "rebirthCD": 5,
    "PKPFPEPLCHC": [
      "",
      "",
      ""
    ]
  },
  {
    "furnitureID": 369147,
    "monsterID": 28230304,
    "isRebirth": 1,
    "rebirthCD": 5,
    "PKPFPEPLCHC": [
      "",
      "",
      ""
    ]
  },
  {
    "furnitureID": 369148,
    "monsterID": 28230305,
    "isRebirth": 1,
    "rebirthCD": 5,
    "PKPFPEPLCHC": [
      "",
      "",
      ""
    ]
  },
  {
    "furnitureID": 369149,
    "monsterID": 28230306,
    "isRebirth": 1,
    "rebirthCD": 5,
    "PKPFPEPLCHC": [
      "",
      "",
      ""
    ]
  },
  {
    "furnitureID": 369150,
    "monsterID": 28230401,
    "isRebirth": 1,
    "rebirthCD": 5,
    "PKPFPEPLCHC": [
      "",
      "",
      ""
    ]
  },
  {
    "furnitureID": 369151,
    "monsterID": 28230402,
    "isRebirth": 1,
    "rebirthCD": 5,
    "PKPFPEPLCHC": [
      "",
      "",
      ""
    ]
  },
  {
    "furnitureID": 369152,
    "monsterID": 28230403,
    "isRebirth": 1,
    "rebirthCD": 5,
    "PKPFPEPLCHC": [
      "",
      "",
      ""
    ]
  },
  {
    "furnitureID": 369153,
    "monsterID": 28230404,
    "isRebirth": 1,
    "rebirthCD": 5,
    "PKPFPEPLCHC": [
      "",
      "",
      ""
    ]
  },
  {
    "furnitureID": 369154,
    "monsterID": 28210402,
    "isRebirth": 1,
    "rebirthCD": 5,
    "PKPFPEPLCHC": [
      "",
      "",
      ""
    ]
  },
  {
    "furnitureID": 369155,
    "monsterID": 28250105,
    "isRebirth": 1,
    "rebirthCD": 5,
    "PKPFPEPLCHC": [
      "",
      "",
      ""
    ]
  },
  {
    "furnitureID": 369156,
    "monsterID": 28250301,
    "isRebirth": 1,
    "rebirthCD": 5,
    "PKPFPEPLCHC": [
      "",
      "",
      ""
    ]
  },
  {
    "furnitureID": 369157,
    "monsterID": 28220605,
    "isRebirth": 1,
    "rebirthCD": 5,
    "PKPFPEPLCHC": [
      "",
      "",
      ""
    ]
  },
  {
    "furnitureID": 369158,
    "monsterID": 28250106,
    "isRebirth": 1,
    "rebirthCD": 5,
    "PKPFPEPLCHC": [
      "",
      "",
      ""
    ]
  },
  {
    "furnitureID": 369159,
    "monsterID": 28210304,
    "isRebirth": 1,
    "rebirthCD": 5,
    "PKPFPEPLCHC": [
      "",
      "",
      ""
    ]
  },
  {
    "furnitureID": 369160,
    "monsterID": 28210208,
    "isRebirth": 1,
    "rebirthCD": 5,
    "PKPFPEPLCHC": [
      "",
      "",
      ""
    ]
  },
  {
    "furnitureID": 369161,
    "monsterID": 28220314,
    "isRebirth": 1,
    "rebirthCD": 5,
    "PKPFPEPLCHC": [
      "",
      "",
      ""
    ]
  },
  {
    "furnitureID": 369162,
    "monsterID": 28220313,
    "isRebirth": 1,
    "rebirthCD": 5,
    "PKPFPEPLCHC": [
      "",
      "",
      ""
    ]
  },
  {
    "furnitureID": 369163,
    "monsterID": 28230313,
    "isRebirth": 1,
    "rebirthCD": 5,
    "PKPFPEPLCHC": [
      "",
      "",
      ""
    ]
  },
  {
    "furnitureID": 369164,
    "monsterID": 28230104,
    "isRebirth": 1,
    "rebirthCD": 5,
    "PKPFPEPLCHC": [
      "",
      "",
      ""
    ]
  },
  {
    "furnitureID": 369165,
    "monsterID": 28220604,
    "isRebirth": 1,
    "rebirthCD": 5,
    "PKPFPEPLCHC": [
      "",
      "",
      ""
    ]
  },
  {
    "furnitureID": 369166,
    "monsterID": 28250401,
    "isRebirth": 1,
    "rebirthCD": 5,
    "PKPFPEPLCHC": [
      "",
      "",
      ""
    ]
  },
  {
    "furnitureID": 369167,
    "monsterID": 28210404,
    "isRebirth": 1,
    "rebirthCD": 5,
    "PKPFPEPLCHC": [
      "",
      "",
      ""
    ]
  },
  {
    "furnitureID": 369168,
    "monsterID": 28220108,
    "isRebirth": 1,
    "rebirthCD": 5,
    "PKPFPEPLCHC": [
      "",
      "",
      ""
    ]
  },
  {
    "furnitureID": 369169,
    "monsterID": 28220405,
    "isRebirth": 1,
    "rebirthCD": 5,
    "PKPFPEPLCHC": [
      "",
      "",
      ""
    ]
  },
  {
    "furnitureID": 369170,
    "monsterID": 28220406,
    "isRebirth": 1,
    "rebirthCD": 5,
    "PKPFPEPLCHC": [
      "",
      "",
      ""
    ]
  },
  {
    "furnitureID": 369171,
    "monsterID": 28220407,
    "isRebirth": 1,
    "rebirthCD": 5,
    "PKPFPEPLCHC": [
      "",
      "",
      ""
    ]
  },
  {
    "furnitureID": 369172,
    "monsterID": 28250107,
    "isRebirth": 1,
    "rebirthCD": 5,
    "PKPFPEPLCHC": [
      "",
      "",
      ""
    ]
  },
  {
    "furnitureID": 369173,
    "monsterID": 28230701,
    "isRebirth": 1,
    "rebirthCD": 5,
    "PKPFPEPLCHC": [
      "",
      "",
      ""
    ]
  },
  {
    "furnitureID": 369174,
    "monsterID": 28230702,
    "isRebirth": 1,
    "rebirthCD": 5,
    "PKPFPEPLCHC": [
      "",
      "",
      ""
    ]
  },
  {
    "furnitureID": 369175,
    "monsterID": 28230703,
    "isRebirth": 1,
    "rebirthCD": 5,
    "PKPFPEPLCHC": [
      "",
      "",
      ""
    ]
  },
  {
    "furnitureID": 369176,
    "monsterID": 28230704,
    "isRebirth": 1,
    "rebirthCD": 5,
    "PKPFPEPLCHC": [
      "",
      "",
      ""
    ]
  },
  {
    "furnitureID": 369177,
    "monsterID": 28230705,
    "isRebirth": 1,
    "rebirthCD": 5,
    "PKPFPEPLCHC": [
      "",
      "",
      ""
    ]
  },
  {
    "furnitureID": 369178,
    "monsterID": 28230706,
    "isRebirth": 1,
    "rebirthCD": 5,
    "PKPFPEPLCHC": [
      "",
      "",
      ""
    ]
  },
  {
    "furnitureID": 369179,
    "monsterID": 28230707,
    "isRebirth": 1,
    "rebirthCD": 5,
    "PKPFPEPLCHC": [
      "",
      "",
      ""
    ]
  },
  {
    "furnitureID": 369180,
    "monsterID": 28230708,
    "isRebirth": 1,
    "rebirthCD": 5,
    "PKPFPEPLCHC": [
      "",
      "",
      ""
    ]
  },
  {
    "furnitureID": 369181,
    "monsterID": 28230601,
    "isRebirth": 1,
    "rebirthCD": 5,
    "PKPFPEPLCHC": [
      "",
      "",
      ""
    ]
  },
  {
    "furnitureID": 369182,
    "monsterID": 28230602,
    "isRebirth": 1,
    "rebirthCD": 5,
    "PKPFPEPLCHC": [
      "",
      "",
      ""
    ]
  },
  {
    "furnitureID": 369183,
    "monsterID": 28250701,
    "isRebirth": 1,
    "rebirthCD": 5,
    "PKPFPEPLCHC": [
      "",
      "",
      ""
    ]
  },
  {
    "furnitureID": 369184,
    "monsterID": 28230603,
    "isRebirth": 1,
    "rebirthCD": 5,
    "PKPFPEPLCHC": [
      "",
      "",
      ""
    ]
  },
  {
    "furnitureID": 369185,
    "monsterID": 28250302,
    "isRebirth": 1,
    "rebirthCD": 5,
    "PKPFPEPLCHC": [
      "",
      "",
      ""
    ]
  },
  {
    "furnitureID": 369186,
    "monsterID": 28222101,
    "isRebirth": 1,
    "rebirthCD": 5,
    "PKPFPEPLCHC": [
      "",
      "",
      ""
    ]
  },
  {
    "furnitureID": 369187,
    "monsterID": 28220507,
    "isRebirth": 1,
    "rebirthCD": 5,
    "KOLKDBGBDPA": "CAT_ENTITY_TOUCH",
    "PKPFPEPLCHC": [
      "28220527",
      "BigCat",
      ""
    ]
  },
  {
    "furnitureID": 369188,
    "monsterID": 28250109,
    "isRebirth": 1,
    "rebirthCD": 5,
    "PKPFPEPLCHC": [
      "",
      "",
      ""
    ]
  },
  {
    "furnitureID": 369189,
    "monsterID": 28230801,
    "isRebirth": 1,
    "rebirthCD": 5,
    "PKPFPEPLCHC": [
      "",
      "",
      ""
    ]
  },
  {
    "furnitureID": 369190,
    "monsterID": 28230709,
    "isRebirth": 1,
    "rebirthCD": 5,
    "PKPFPEPLCHC": [
      "",
      "",
      ""
    ]
  },
  {
    "furnitureID": 369191,
    "monsterID": 28230107,
    "isRebirth": 1,
    "rebirthCD": 5,
    "PKPFPEPLCHC": [
      "",
      "",
      ""
    ]
  },
  {
    "furnitureID": 369192,
    "monsterID": 28222301,
    "isRebirth": 1,
    "rebirthCD": 5,
    "PKPFPEPLCHC": [
      "",
      "",
      ""
    ]
  },
  {
    "furnitureID": 369193,
    "monsterID": 28222302,
    "isRebirth": 1,
    "rebirthCD": 5,
    "PKPFPEPLCHC": [
      "",
      "",
      ""
    ]
  },
  {
    "furnitureID": 369194,
    "monsterID": 28222303,
    "isRebirth": 1,
    "rebirthCD": 5,
    "PKPFPEPLCHC": [
      "",
      "",
      ""
    ]
  },
  {
    "furnitureID": 369195,
    "monsterID": 28222304,
    "isRebirth": 1,
    "rebirthCD": 5,
    "PKPFPEPLCHC": [
      "",
      "",
      ""
    ]
  },
  {
    "furnitureID": 369196,
    "monsterID": 28222305,
    "isRebirth": 1,
    "rebirthCD": 5,
    "PKPFPEPLCHC": [
      "",
      "",
      ""
    ]
  },
  {
    "furnitureID": 369197,
    "monsterID": 28222306,
    "isRebirth": 1,
    "rebirthCD": 5,
    "PKPFPEPLCHC": [
      "",
      "",
      ""
    ]
  },
  {
    "furnitureID": 369198,
    "monsterID": 28222201,
    "isRebirth": 1,
    "rebirthCD": 5,
    "PKPFPEPLCHC": [
      "",
      "",
      ""
    ]
  },
  {
    "furnitureID": 369199,
    "monsterID": 28222202,
    "isRebirth": 1,
    "rebirthCD": 5,
    "PKPFPEPLCHC": [
      "",
      "",
      ""
    ]
  },
  {
    "furnitureID": 369200,
    "monsterID": 28230901,
    "isRebirth": 1,
    "rebirthCD": 5,
    "PKPFPEPLCHC": [
      "",
      "",
      ""
    ]
  },
  {
    "furnitureID": 369201,
    "monsterID": 28222501,
    "isRebirth": 1,
    "rebirthCD": 5,
    "PKPFPEPLCHC": [
      "",
      "",
      ""
    ]
  },
  {
    "furnitureID": 369202,
    "monsterID": 28222401,
    "isRebirth": 1,
    "rebirthCD": 5,
    "PKPFPEPLCHC": [
      "",
      "",
      ""
    ]
  }
]