[
  {
    "id": 3110101,
    "idk1": 3110101,
    "level": 2
  },
  {
    "id": 3110102,
    "idk1": 3110102,
    "level": 2
  },
  {
    "id": 3110103,
    "idk1": 3110102,
    "level": 2
  },
  {
    "id": 3180101,
    "idk1": 3180101,
    "level": 2
  },
  {
    "id": 3180102,
    "idk1": 3180102,
    "level": 2
  },
  {
    "id": 3200101,
    "idk1": 3200101,
    "level": 2
  },
  {
    "id": 3200201,
    "idk1": 3200201,
    "level": 2
  },
  {
    "id": 3200301,
    "idk1": 3200301,
    "level": 2
  },
  {
    "id": 3200401,
    "idk1": 3200401,
    "level": 2
  },
  {
    "id": 3200501,
    "idk1": 3200501,
    "level": 2
  },
  {
    "id": 3210101,
    "idk1": 3210101,
    "level": 2
  },
  {
    "id": 3210102,
    "idk1": 3210102,
    "level": 2
  },
  {
    "id": 3210201,
    "idk1": 3210201,
    "level": 2
  },
  {
    "id": 3210301,
    "idk1": 3210301,
    "level": 2
  },
  {
    "id": 3210401,
    "idk1": 3210401,
    "level": 2
  },
  {
    "id": 3220101,
    "idk1": 3220101,
    "level": 2
  },
  {
    "id": 3220102,
    "idk1": 3220102,
    "level": 2
  },
  {
    "id": 3220103,
    "idk1": 3220103,
    "level": 2
  },
  {
    "id": 3220104,
    "idk1": 3220104,
    "level": 2
  },
  {
    "id": 3220201,
    "idk1": 3220201,
    "level": 2
  },
  {
    "id": 3220301,
    "idk1": 3220301,
    "level": 2
  },
  {
    "id": 3230101,
    "idk1": 3230101,
    "level": 2
  },
  {
    "id": 3230201,
    "idk1": 3230201,
    "level": 2
  },
  {
    "id": 3230301,
    "idk1": 3230301,
    "level": 2
  },
  {
    "id": 3240101,
    "idk1": 3240101,
    "level": 2
  },
  {
    "id": 3240201,
    "idk1": 3240201,
    "level": 2
  },
  {
    "id": 3250101,
    "idk1": 3250101,
    "level": 2
  },
  {
    "id": 3250102,
    "idk1": 3250102,
    "level": 2
  },
  {
    "id": 3260101,
    "idk1": 3260101,
    "level": 2
  },
  {
    "id": 3260102,
    "idk1": 3260102,
    "level": 2
  },
  {
    "id": 3260201,
    "idk1": 3260201,
    "level": 2
  },
  {
    "id": 3260301,
    "idk1": 3260301,
    "level": 2
  },
  {
    "id": 3270101,
    "idk1": 3270101,
    "level": 2
  },
  {
    "id": 3270102,
    "idk1": 3270102,
    "level": 2
  },
  {
    "id": 3270103,
    "idk1": 3270103,
    "level": 2
  },
  {
    "id": 3270104,
    "idk1": 3270104,
    "level": 2
  },
  {
    "id": 3270201,
    "idk1": 3270201,
    "level": 2
  },
  {
    "id": 3270202,
    "idk1": 3270202,
    "level": 2
  },
  {
    "id": 3270203,
    "idk1": 3270203,
    "level": 2
  },
  {
    "id": 3270301,
    "idk1": 3270301,
    "level": 2
  },
  {
    "id": 3270302,
    "idk1": 3270302,
    "level": 2
  },
  {
    "id": 3270303,
    "idk1": 3270303,
    "level": 2
  },
  {
    "id": 3270401,
    "idk1": 3270401,
    "level": 2
  },
  {
    "id": 3270402,
    "idk1": 3270401,
    "level": 2
  },
  {
    "id": 3270403,
    "idk1": 3270402,
    "level": 2
  },
  {
    "id": 3270404,
    "idk1": 3270403,
    "level": 2
  },
  {
    "id": 3270501,
    "idk1": 3270501,
    "level": 2
  },
  {
    "id": 3270502,
    "idk1": 3270502,
    "level": 2
  },
  {
    "id": 3270601,
    "idk1": 3270601,
    "level": 2
  },
  {
    "id": 3270701,
    "idk1": 3270701,
    "level": 2
  },
  {
    "id": 3280101,
    "idk1": 3280102,
    "level": 2
  },
  {
    "id": 3280102,
    "idk1": 3280102,
    "level": 2
  },
  {
    "id": 3280103,
    "idk1": 3280102,
    "level": 2
  },
  {
    "id": 3280104,
    "idk1": 3280102,
    "level": 2
  },
  {
    "id": 3280105,
    "idk1": 3280101,
    "level": 2
  },
  {
    "id": 3280201,
    "idk1": 3280201,
    "level": 2
  },
  {
    "id": 3300101,
    "idk1": 3300101,
    "level": 2
  },
  {
    "id": 3300102,
    "idk1": 3300102,
    "level": 2
  },
  {
    "id": 3300201,
    "idk1": 3300201,
    "level": 2
  },
  {
    "id": 3300202,
    "idk1": 3300201,
    "level": 2
  },
  {
    "id": 3310101,
    "idk1": 3310101,
    "level": 2
  },
  {
    "id": 3310102,
    "idk1": 3310102,
    "level": 2
  },
  {
    "id": 3310201,
    "idk1": 3310201,
    "level": 2
  },
  {
    "id": 3310301,
    "idk1": 3310301,
    "level": 2
  },
  {
    "id": 3310401,
    "idk1": 3310401,
    "level": 2
  },
  {
    "id": 3320101,
    "idk1": 3320101,
    "level": 2
  },
  {
    "id": 3320102,
    "idk1": 3320101,
    "level": 2
  },
  {
    "id": 3320103,
    "idk1": 3320102,
    "level": 2
  },
  {
    "id": 3320104,
    "idk1": 3320101,
    "level": 2
  },
  {
    "id": 3320105,
    "idk1": 3320102,
    "level": 2
  },
  {
    "id": 3320106,
    "idk1": 3320101,
    "level": 2
  },
  {
    "id": 3320201,
    "idk1": 3320201,
    "level": 2
  },
  {
    "id": 3320301,
    "idk1": 3320301,
    "level": 2
  },
  {
    "id": 3320302,
    "idk1": 3320301,
    "level": 2
  },
  {
    "id": 3320401,
    "idk1": 3320401,
    "level": 2
  },
  {
    "id": 3320501,
    "idk1": 3320502,
    "level": 2
  },
  {
    "id": 3320502,
    "idk1": 3320501,
    "level": 2
  },
  {
    "id": 3320503,
    "idk1": 3320502,
    "level": 2
  },
  {
    "id": 3320504,
    "idk1": 3320501,
    "level": 2
  },
  {
    "id": 3320505,
    "idk1": 3320502,
    "level": 2
  },
  {
    "id": 3320506,
    "idk1": 3320502,
    "level": 2
  },
  {
    "id": 3320601,
    "idk1": 3320601,
    "level": 2
  },
  {
    "id": 3320602,
    "idk1": 3320602,
    "level": 2
  },
  {
    "id": 3320603,
    "idk1": 3320603,
    "level": 2
  },
  {
    "id": 3320604,
    "idk1": 3320604,
    "level": 2
  },
  {
    "id": 3330201,
    "idk1": 3330201,
    "level": 2
  },
  {
    "id": 3330301,
    "idk1": 3330301,
    "level": 2
  },
  {
    "id": 3340101,
    "idk1": 3340101,
    "level": 1
  },
  {
    "id": 3340102,
    "idk1": 3340101,
    "level": 1
  },
  {
    "id": 3340103,
    "idk1": 3340101,
    "level": 1
  },
  {
    "id": 3340104,
    "idk1": 3340101,
    "level": 1
  },
  {
    "id": 3340105,
    "idk1": 3340101,
    "level": 1
  },
  {
    "id": 3340106,
    "idk1": 3340101,
    "level": 1
  },
  {
    "id": 3340108,
    "idk1": 3340101,
    "level": 1
  },
  {
    "id": 3340109,
    "idk1": 3340101,
    "level": 1
  },
  {
    "id": 3340301,
    "idk1": 3340301,
    "level": 2
  },
  {
    "id": 3340302,
    "idk1": 3340301,
    "level": 2
  },
  {
    "id": 3340303,
    "idk1": 3340301,
    "level": 2
  },
  {
    "id": 3340304,
    "idk1": 3340302,
    "level": 2
  },
  {
    "id": 3340305,
    "idk1": 3340302,
    "level": 2
  },
  {
    "id": 3340306,
    "idk1": 3340302,
    "level": 2
  },
  {
    "id": 3340401,
    "idk1": 3340401,
    "level": 2
  },
  {
    "id": 3340402,
    "idk1": 3340402,
    "level": 2
  },
  {
    "id": 3350101,
    "idk1": 3350101,
    "level": 2
  },
  {
    "id": 3350102,
    "idk1": 3350101,
    "level": 2
  },
  {
    "id": 3350103,
    "idk1": 3350102,
    "level": 1
  },
  {
    "id": 3350104,
    "idk1": 3350103,
    "level": 2
  },
  {
    "id": 3350105,
    "idk1": 3350103,
    "level": 2
  },
  {
    "id": 3350106,
    "idk1": 3350103,
    "level": 2
  },
  {
    "id": 3350201,
    "idk1": 3350201,
    "level": 2
  },
  {
    "id": 3350301,
    "idk1": 3350301,
    "level": 2
  },
  {
    "id": 3350302,
    "idk1": 3350302,
    "level": 2
  },
  {
    "id": 3350303,
    "idk1": 3350303,
    "level": 2
  },
  {
    "id": 3340501,
    "idk1": 3340501,
    "level": 2
  },
  {
    "id": 3360101,
    "idk1": 3360101,
    "level": 2
  },
  {
    "id": 3360102,
    "idk1": 3360102,
    "level": 2
  },
  {
    "id": 3360103,
    "idk1": 3360102,
    "level": 2
  },
  {
    "id": 3360104,
    "idk1": 3360103,
    "level": 2
  },
  {
    "id": 3360701,
    "idk1": 3360104,
    "level": 2
  },
  {
    "id": 3360702,
    "idk1": 3360105,
    "level": 2
  },
  {
    "id": 3360703,
    "idk1": 3360106,
    "level": 2
  },
  {
    "id": 3360704,
    "idk1": 3360106,
    "level": 2
  },
  {
    "id": 3360201,
    "idk1": 3360201,
    "level": 2
  },
  {
    "id": 3360301,
    "idk1": 3360301,
    "level": 2
  },
  {
    "id": 3360302,
    "idk1": 3360301,
    "level": 2
  },
  {
    "id": 3360501,
    "idk1": 3360501,
    "level": 2
  },
  {
    "id": 3360502,
    "idk1": 3360502,
    "level": 2
  },
  {
    "id": 3360503,
    "idk1": 3360502,
    "level": 2
  },
  {
    "id": 3360504,
    "idk1": 3360502,
    "level": 2
  },
  {
    "id": 3360505,
    "idk1": 3360502,
    "level": 2
  },
  {
    "id": 3360506,
    "idk1": 3360503,
    "level": 2
  },
  {
    "id": 3360507,
    "idk1": 3360503,
    "level": 2
  },
  {
    "id": 3360508,
    "idk1": 3360503,
    "level": 2
  },
  {
    "id": 3360601,
    "idk1": 3360601,
    "level": 2
  },
  {
    "id": 3370101,
    "idk1": 3370101,
    "level": 2
  },
  {
    "id": 3370102,
    "idk1": 3370102,
    "level": 2
  },
  {
    "id": 3370103,
    "idk1": 3370102,
    "level": 2
  },
  {
    "id": 3370104,
    "idk1": 3370103,
    "level": 2
  },
  {
    "id": 3370201,
    "idk1": 3370201,
    "level": 2
  },
  {
    "id": 3370301,
    "idk1": 3370301,
    "level": 2
  },
  {
    "id": 3350401,
    "idk1": 3350401,
    "level": 2
  },
  {
    "id": 3380101,
    "idk1": 3380102,
    "level": 2
  },
  {
    "id": 3380102,
    "idk1": 3380102,
    "level": 2
  },
  {
    "id": 3380103,
    "idk1": 3380102,
    "level": 2
  },
  {
    "id": 3380104,
    "idk1": 3380101,
    "level": 2
  },
  {
    "id": 3380105,
    "idk1": 3380102,
    "level": 2
  },
  {
    "id": 3380106,
    "idk1": 3380102,
    "level": 2
  },
  {
    "id": 3380107,
    "idk1": 3380101,
    "level": 2
  },
  {
    "id": 3380108,
    "idk1": 3380103,
    "level": 2
  },
  {
    "id": 3380201,
    "idk1": 3380201,
    "level": 2
  },
  {
    "id": 3380202,
    "idk1": 3380202,
    "level": 2
  },
  {
    "id": 3380203,
    "idk1": 3380203,
    "level": 2
  },
  {
    "id": 3380301,
    "idk1": 3380301,
    "level": 2
  },
  {
    "id": 3380401,
    "idk1": 3380401,
    "level": 2
  },
  {
    "id": 3390101,
    "idk1": 3390101,
    "level": 2
  },
  {
    "id": 3390102,
    "idk1": 3390102,
    "level": 2
  },
  {
    "id": 3390103,
    "idk1": 3390103,
    "level": 2
  },
  {
    "id": 3390104,
    "idk1": 3390104,
    "level": 2
  },
  {
    "id": 3390201,
    "idk1": 3390201,
    "level": 2
  },
  {
    "id": 3390202,
    "idk1": 3390202,
    "level": 2
  },
  {
    "id": 3390301,
    "idk1": 3390301,
    "level": 2
  },
  {
    "id": 3390302,
    "idk1": 3390302,
    "level": 2
  },
  {
    "id": 3390401,
    "idk1": 3390401,
    "level": 2
  },
  {
    "id": 3390402,
    "idk1": 3390402,
    "level": 2
  },
  {
    "id": 3340601,
    "idk1": 3340601,
    "level": 2
  },
  {
    "id": 3390501,
    "idk1": 3390501,
    "level": 2
  },
  {
    "id": 3410101,
    "idk1": 3410101,
    "level": 2
  },
  {
    "id": 3410102,
    "idk1": 3410101,
    "level": 2
  },
  {
    "id": 3410103,
    "idk1": 3410101,
    "level": 2
  },
  {
    "id": 3410401,
    "idk1": 3410401,
    "level": 2
  },
  {
    "id": 3410501,
    "idk1": 3410501,
    "level": 2
  },
  {
    "id": 3410701,
    "idk1": 3410701,
    "level": 2
  },
  {
    "id": 3410702,
    "idk1": 3410702,
    "level": 2
  },
  {
    "id": 3410801,
    "idk1": 3410801,
    "level": 2
  },
  {
    "id": 3410301,
    "idk1": 3410301,
    "level": 2
  },
  {
    "id": 3410601,
    "idk1": 3410601,
    "level": 2
  },
  {
    "id": 116000001,
    "idk1": 116000001,
    "level": 1
  },
  {
    "id": 116000101,
    "idk1": 116000101,
    "level": 2
  },
  {
    "id": 116000201,
    "idk1": 116000201,
    "level": 2
  },
  {
    "id": 116000202,
    "idk1": 116000201,
    "level": 2
  },
  {
    "id": 116000301,
    "idk1": 116000301,
    "level": 2
  },
  {
    "id": 116000302,
    "idk1": 116000302,
    "level": 2
  },
  {
    "id": 116000401,
    "idk1": 116000401,
    "level": 1
  },
  {
    "id": 116000402,
    "idk1": 116000402,
    "level": 1
  },
  {
    "id": 116000403,
    "idk1": 116000402,
    "level": 1
  },
  {
    "id": 116000404,
    "idk1": 116000402,
    "level": 1
  },
  {
    "id": 3420102,
    "idk1": 3420102,
    "level": 2
  },
  {
    "id": 3420103,
    "idk1": 3420102,
    "level": 2
  },
  {
    "id": 3420104,
    "idk1": 3420102,
    "level": 2
  },
  {
    "id": 3420105,
    "idk1": 3420102,
    "level": 2
  },
  {
    "id": 3420106,
    "idk1": 3420102,
    "level": 2
  },
  {
    "id": 3420101,
    "idk1": 3420101,
    "level": 2
  },
  {
    "id": 3420107,
    "idk1": 3420107,
    "level": 2
  },
  {
    "id": 3420108,
    "idk1": 3420107,
    "level": 2
  },
  {
    "id": 3420109,
    "idk1": 3420109,
    "level": 2
  },
  {
    "id": 116000501,
    "idk1": 116000501,
    "level": 2
  },
  {
    "id": 116000601,
    "idk1": 116000601,
    "level": 2
  },
  {
    "id": 116000701,
    "idk1": 116000701,
    "level": 2
  },
  {
    "id": 116000702,
    "idk1": 116000702,
    "level": 2
  },
  {
    "id": 1007010101,
    "idk1": 1007010101,
    "level": 2
  },
  {
    "id": 1007010102,
    "idk1": 1007010102,
    "level": 2
  },
  {
    "id": 1007010103,
    "idk1": 1007010103,
    "level": 2
  },
  {
    "id": 3430101,
    "idk1": 3430101,
    "level": 1
  },
  {
    "id": 3430201,
    "idk1": 3430201,
    "level": 2
  },
  {
    "id": 3430202,
    "idk1": 3430202,
    "level": 2
  },
  {
    "id": 3430203,
    "idk1": 3430202,
    "level": 2
  },
  {
    "id": 3430204,
    "idk1": 3430202,
    "level": 2
  },
  {
    "id": 3430301,
    "idk1": 3430301,
    "level": 2
  },
  {
    "id": 3430501,
    "idk1": 3430501,
    "level": 3
  },
  {
    "id": 3440101,
    "idk1": 3440101,
    "level": 3
  },
  {
    "id": 3440102,
    "idk1": 3440102,
    "level": 3
  },
  {
    "id": 3450101,
    "idk1": 3450101,
    "level": 2
  },
  {
    "id": 3460101,
    "idk1": 3460101,
    "level": 2
  },
  {
    "id": 3460201,
    "idk1": 3460201,
    "level": 2
  },
  {
    "id": 3460301,
    "idk1": 3460301,
    "level": 2
  },
  {
    "id": 3430401,
    "idk1": 3430401,
    "level": 1
  },
  {
    "id": 3430402,
    "idk1": 3430401,
    "level": 2
  },
  {
    "id": 3430403,
    "idk1": 3430402,
    "level": 2
  },
  {
    "id": 3430404,
    "idk1": 3430401,
    "level": 2
  },
  {
    "id": 3430405,
    "idk1": 3430401,
    "level": 2
  },
  {
    "id": 3430601,
    "idk1": 3430601,
    "level": 2
  },
  {
    "id": 3430602,
    "idk1": 3430602,
    "level": 2
  },
  {
    "id": 3430701,
    "idk1": 3430701,
    "level": 2
  },
  {
    "id": 3430702,
    "idk1": 3430701,
    "level": 2
  },
  {
    "id": 3460401,
    "idk1": 3460401,
    "level": 2
  },
  {
    "id": 3460402,
    "idk1": 3460401,
    "level": 2
  },
  {
    "id": 3460403,
    "idk1": 3460401,
    "level": 2
  },
  {
    "id": 3460404,
    "idk1": 3460401,
    "level": 2
  },
  {
    "id": 3460405,
    "idk1": 3460402,
    "level": 2
  },
  {
    "id": 3460406,
    "idk1": 3460402,
    "level": 2
  },
  {
    "id": 3460407,
    "idk1": 3460401,
    "level": 2
  },
  {
    "id": 3460408,
    "idk1": 3460402,
    "level": 2
  },
  {
    "id": 3460501,
    "idk1": 3460501,
    "level": 2
  },
  {
    "id": 3460502,
    "idk1": 3460502,
    "level": 2
  },
  {
    "id": 3460503,
    "idk1": 3460502,
    "level": 2
  },
  {
    "id": 3460504,
    "idk1": 3460502,
    "level": 2
  },
  {
    "id": 3440201,
    "idk1": 3440201,
    "level": 2
  },
  {
    "id": 3460601,
    "idk1": 3460601,
    "level": 2
  }
]