[
  {
    "id": 3110101,
    "LPIMPCMGMDN": 31101,
    "KJFAMLELDEG": -1,
    "floorNameTextMapHash": 282262735,
    "PBIJNOLABBN": {
      "paramList": []
    },
    "AHNFIMKPNNK": 417561169
  },
  {
    "id": 3110102,
    "LPIMPCMGMDN": 31101,
    "KJFAMLELDEG": -2,
    "floorNameTextMapHash": 1899167247,
    "PBIJNOLABBN": {
      "paramList": []
    },
    "AHNFIMKPNNK": 1809358985
  },
  {
    "id": 3180101,
    "LPIMPCMGMDN": 31801,
    "KJFAMLELDEG": -1,
    "floorNameTextMapHash": 3008415679,
    "PBIJNOLABBN": {
      "paramList": []
    },
    "AHNFIMKPNNK": 1133537457
  },
  {
    "id": 3180102,
    "LPIMPCMGMDN": 31801,
    "KJFAMLELDEG": -2,
    "floorNameTextMapHash": 1987227367,
    "PBIJNOLABBN": {
      "paramList": []
    },
    "AHNFIMKPNNK": 137623697
  },
  {
    "id": 3200101,
    "LPIMPCMGMDN": 32001,
    "KJFAMLELDEG": -1,
    "floorNameTextMapHash": 3674153447,
    "PBIJNOLABBN": {
      "paramList": []
    },
    "AHNFIMKPNNK": 3527524185
  },
  {
    "id": 3200201,
    "LPIMPCMGMDN": 32002,
    "KJFAMLELDEG": -1,
    "floorNameTextMapHash": 2000478111,
    "PBIJNOLABBN": {
      "paramList": []
    },
    "AHNFIMKPNNK": 542152265
  },
  {
    "id": 3200301,
    "LPIMPCMGMDN": 32003,
    "KJFAMLELDEG": -1,
    "floorNameTextMapHash": 30625991,
    "PBIJNOLABBN": {
      "paramList": []
    },
    "AHNFIMKPNNK": 2699202177
  },
  {
    "id": 3200401,
    "LPIMPCMGMDN": 32004,
    "KJFAMLELDEG": -1,
    "floorNameTextMapHash": 3957636303,
    "PBIJNOLABBN": {
      "paramList": []
    },
    "AHNFIMKPNNK": 555231217
  },
  {
    "id": 3200501,
    "LPIMPCMGMDN": 32005,
    "KJFAMLELDEG": -1,
    "floorNameTextMapHash": 573230127,
    "PBIJNOLABBN": {
      "type": "MAP_FLOOR_NAME_CHANGE_QUEST",
      "paramList": [
        7306622
      ]
    },
    "AHNFIMKPNNK": 3837892241
  },
  {
    "id": 3210101,
    "LPIMPCMGMDN": 32101,
    "KJFAMLELDEG": -1,
    "floorNameTextMapHash": 278993855,
    "PBIJNOLABBN": {
      "type": "MAP_FLOOR_NAME_CHANGE_QUEST",
      "paramList": [
        7302702
      ]
    },
    "AHNFIMKPNNK": 2701348865
  },
  {
    "id": 3210102,
    "LPIMPCMGMDN": 32101,
    "KJFAMLELDEG": -2,
    "floorNameTextMapHash": 648881623,
    "PBIJNOLABBN": {
      "type": "MAP_FLOOR_NAME_CHANGE_QUEST",
      "paramList": [
        7302705
      ]
    },
    "AHNFIMKPNNK": 1391613849
  },
  {
    "id": 3210201,
    "LPIMPCMGMDN": 32102,
    "KJFAMLELDEG": -1,
    "floorNameTextMapHash": 2861786471,
    "PBIJNOLABBN": {
      "paramList": []
    },
    "AHNFIMKPNNK": 3567217729
  },
  {
    "id": 3210301,
    "LPIMPCMGMDN": 32103,
    "KJFAMLELDEG": -1,
    "floorNameTextMapHash": 2769497455,
    "PBIJNOLABBN": {
      "paramList": []
    },
    "AHNFIMKPNNK": 2319089361
  },
  {
    "id": 3210401,
    "LPIMPCMGMDN": 32104,
    "KJFAMLELDEG": -1,
    "floorNameTextMapHash": 1254843607,
    "PBIJNOLABBN": {
      "paramList": []
    },
    "AHNFIMKPNNK": 1262110593
  },
  {
    "id": 3220101,
    "LPIMPCMGMDN": 32201,
    "KJFAMLELDEG": -1,
    "floorNameTextMapHash": 2906278879,
    "PBIJNOLABBN": {
      "paramList": []
    },
    "AHNFIMKPNNK": 3078635633
  },
  {
    "id": 3220102,
    "LPIMPCMGMDN": 32201,
    "KJFAMLELDEG": -2,
    "floorNameTextMapHash": 2988778903,
    "PBIJNOLABBN": {
      "paramList": []
    },
    "AHNFIMKPNNK": 1945009649
  },
  {
    "id": 3220103,
    "LPIMPCMGMDN": 32201,
    "KJFAMLELDEG": -3,
    "floorNameTextMapHash": 3999047687,
    "PBIJNOLABBN": {
      "paramList": []
    },
    "AHNFIMKPNNK": 1953333129
  },
  {
    "id": 3220104,
    "LPIMPCMGMDN": 32201,
    "KJFAMLELDEG": -4,
    "floorNameTextMapHash": 131671703,
    "PBIJNOLABBN": {
      "paramList": []
    },
    "AHNFIMKPNNK": 2025394177
  },
  {
    "id": 3220201,
    "LPIMPCMGMDN": 32202,
    "KJFAMLELDEG": -1,
    "floorNameTextMapHash": 886631407,
    "PBIJNOLABBN": {
      "paramList": []
    },
    "AHNFIMKPNNK": 773050113
  },
  {
    "id": 3220301,
    "LPIMPCMGMDN": 32203,
    "KJFAMLELDEG": -1,
    "floorNameTextMapHash": 108352167,
    "PBIJNOLABBN": {
      "paramList": []
    },
    "AHNFIMKPNNK": 4140872385
  },
  {
    "id": 3230101,
    "LPIMPCMGMDN": 32301,
    "KJFAMLELDEG": -1,
    "floorNameTextMapHash": 2810274031,
    "PBIJNOLABBN": {
      "paramList": []
    },
    "AHNFIMKPNNK": 3991646777
  },
  {
    "id": 3230201,
    "LPIMPCMGMDN": 32302,
    "KJFAMLELDEG": -1,
    "floorNameTextMapHash": 4235473311,
    "PBIJNOLABBN": {
      "type": "MAP_FLOOR_NAME_CHANGE_QUEST",
      "paramList": [
        7301823
      ]
    },
    "AHNFIMKPNNK": 3739484097
  },
  {
    "id": 3230301,
    "LPIMPCMGMDN": 32303,
    "KJFAMLELDEG": -1,
    "floorNameTextMapHash": 2746926383,
    "PBIJNOLABBN": {
      "type": "MAP_FLOOR_NAME_CHANGE_QUEST",
      "paramList": [
        7307010
      ]
    },
    "AHNFIMKPNNK": 2207745985
  },
  {
    "id": 3240101,
    "LPIMPCMGMDN": 32401,
    "KJFAMLELDEG": -1,
    "floorNameTextMapHash": 3664436927,
    "PBIJNOLABBN": {
      "type": "MAP_FLOOR_NAME_CHANGE_QUEST",
      "paramList": [
        7306108
      ]
    },
    "AHNFIMKPNNK": 2173354065
  },
  {
    "id": 3240201,
    "LPIMPCMGMDN": 32402,
    "KJFAMLELDEG": -1,
    "floorNameTextMapHash": 1946743471,
    "PBIJNOLABBN": {
      "type": "MAP_FLOOR_NAME_CHANGE_QUEST",
      "paramList": [
        7306114
      ]
    },
    "AHNFIMKPNNK": 278019689
  },
  {
    "id": 3250101,
    "LPIMPCMGMDN": 32501,
    "KJFAMLELDEG": -1,
    "floorNameTextMapHash": 3605825047,
    "PBIJNOLABBN": {
      "type": "MAP_FLOOR_NAME_CHANGE_QUEST",
      "paramList": [
        7303610
      ]
    },
    "AHNFIMKPNNK": 1002887409
  },
  {
    "id": 3250102,
    "LPIMPCMGMDN": 32501,
    "KJFAMLELDEG": -2,
    "floorNameTextMapHash": 390572935,
    "PBIJNOLABBN": {
      "type": "MAP_FLOOR_NAME_CHANGE_QUEST",
      "paramList": [
        7303638
      ]
    },
    "AHNFIMKPNNK": 1891522913
  },
  {
    "id": 3260101,
    "LPIMPCMGMDN": 32601,
    "KJFAMLELDEG": -1,
    "floorNameTextMapHash": 762793631,
    "PBIJNOLABBN": {
      "paramList": []
    },
    "AHNFIMKPNNK": 507025321
  },
  {
    "id": 3260102,
    "LPIMPCMGMDN": 32601,
    "KJFAMLELDEG": -2,
    "floorNameTextMapHash": 4038947359,
    "PBIJNOLABBN": {
      "paramList": []
    },
    "AHNFIMKPNNK": 2886628041
  },
  {
    "id": 3260201,
    "LPIMPCMGMDN": 32602,
    "KJFAMLELDEG": -1,
    "floorNameTextMapHash": 1252410303,
    "PBIJNOLABBN": {
      "type": "MAP_FLOOR_NAME_CHANGE_QUEST",
      "paramList": [
        7321101
      ]
    },
    "AHNFIMKPNNK": 3536133129
  },
  {
    "id": 3260301,
    "LPIMPCMGMDN": 32603,
    "KJFAMLELDEG": -1,
    "floorNameTextMapHash": 4247847807,
    "PBIJNOLABBN": {
      "paramList": []
    },
    "AHNFIMKPNNK": 976674201
  },
  {
    "id": 3270101,
    "LPIMPCMGMDN": 32701,
    "KJFAMLELDEG": -1,
    "floorNameTextMapHash": 1774959151,
    "PBIJNOLABBN": {
      "type": "MAP_FLOOR_NAME_CHANGE_QUEST",
      "paramList": [
        7305311
      ]
    },
    "AHNFIMKPNNK": 481680145
  },
  {
    "id": 3270102,
    "LPIMPCMGMDN": 32701,
    "KJFAMLELDEG": -2,
    "floorNameTextMapHash": 1438541839,
    "PBIJNOLABBN": {
      "type": "MAP_FLOOR_NAME_CHANGE_QUEST",
      "paramList": [
        7305325
      ]
    },
    "AHNFIMKPNNK": 3279402409
  },
  {
    "id": 3270103,
    "LPIMPCMGMDN": 32701,
    "KJFAMLELDEG": -3,
    "floorNameTextMapHash": 2065747335,
    "PBIJNOLABBN": {
      "type": "MAP_FLOOR_NAME_CHANGE_QUEST",
      "paramList": [
        7305325
      ]
    },
    "AHNFIMKPNNK": 2028793073
  },
  {
    "id": 3270104,
    "LPIMPCMGMDN": 32701,
    "KJFAMLELDEG": -4,
    "floorNameTextMapHash": 2483624455,
    "PBIJNOLABBN": {
      "type": "MAP_FLOOR_NAME_CHANGE_QUEST",
      "paramList": [
        7305329
      ]
    },
    "AHNFIMKPNNK": 919548433
  },
  {
    "id": 3270201,
    "LPIMPCMGMDN": 32702,
    "KJFAMLELDEG": -1,
    "floorNameTextMapHash": 3856451207,
    "PBIJNOLABBN": {
      "type": "MAP_FLOOR_NAME_CHANGE_QUEST",
      "paramList": [
        7305446
      ]
    },
    "AHNFIMKPNNK": 1974787433
  },
  {
    "id": 3270202,
    "LPIMPCMGMDN": 32702,
    "KJFAMLELDEG": -2,
    "floorNameTextMapHash": 280415935,
    "PBIJNOLABBN": {
      "type": "MAP_FLOOR_NAME_CHANGE_QUEST",
      "paramList": [
        7305405
      ]
    },
    "AHNFIMKPNNK": 3306021073
  },
  {
    "id": 3270203,
    "LPIMPCMGMDN": 32702,
    "KJFAMLELDEG": -3,
    "floorNameTextMapHash": 1311124999,
    "PBIJNOLABBN": {
      "type": "MAP_FLOOR_NAME_CHANGE_QUEST",
      "paramList": [
        7308310
      ]
    },
    "AHNFIMKPNNK": 336663761
  },
  {
    "id": 3270301,
    "LPIMPCMGMDN": 32703,
    "KJFAMLELDEG": -1,
    "floorNameTextMapHash": 1082420607,
    "PBIJNOLABBN": {
      "type": "MAP_FLOOR_NAME_CHANGE_QUEST",
      "paramList": [
        7305442
      ]
    },
    "AHNFIMKPNNK": 3259575625
  },
  {
    "id": 3270302,
    "LPIMPCMGMDN": 32703,
    "KJFAMLELDEG": -2,
    "floorNameTextMapHash": 1600926967,
    "PBIJNOLABBN": {
      "type": "MAP_FLOOR_NAME_CHANGE_QUEST",
      "paramList": [
        7305442
      ]
    },
    "AHNFIMKPNNK": 2761296289
  },
  {
    "id": 3270303,
    "LPIMPCMGMDN": 32703,
    "KJFAMLELDEG": -3,
    "floorNameTextMapHash": 1143194855,
    "PBIJNOLABBN": {
      "type": "MAP_FLOOR_NAME_CHANGE_QUEST",
      "paramList": [
        7305442
      ]
    },
    "AHNFIMKPNNK": 1323968489
  },
  {
    "id": 3270401,
    "LPIMPCMGMDN": 32704,
    "KJFAMLELDEG": -1,
    "floorNameTextMapHash": 2492159927,
    "PBIJNOLABBN": {
      "type": "MAP_FLOOR_NAME_CHANGE_QUEST",
      "paramList": [
        7305442
      ]
    },
    "AHNFIMKPNNK": 3598732633
  },
  {
    "id": 3270402,
    "LPIMPCMGMDN": 32704,
    "KJFAMLELDEG": -2,
    "floorNameTextMapHash": 4189967255,
    "PBIJNOLABBN": {
      "type": "MAP_FLOOR_NAME_CHANGE_QUEST",
      "paramList": [
        7305442
      ]
    },
    "AHNFIMKPNNK": 433250953
  },
  {
    "id": 3270403,
    "LPIMPCMGMDN": 32704,
    "KJFAMLELDEG": -3,
    "floorNameTextMapHash": 3639509519,
    "PBIJNOLABBN": {
      "type": "MAP_FLOOR_NAME_CHANGE_QUEST",
      "paramList": [
        7308303
      ]
    },
    "AHNFIMKPNNK": 963439153
  },
  {
    "id": 3270501,
    "LPIMPCMGMDN": 32705,
    "KJFAMLELDEG": -1,
    "floorNameTextMapHash": 3098965087,
    "PBIJNOLABBN": {
      "type": "MAP_FLOOR_NAME_CHANGE_QUEST",
      "paramList": [
        7305442
      ]
    },
    "AHNFIMKPNNK": 1404347993
  },
  {
    "id": 3270502,
    "LPIMPCMGMDN": 32705,
    "KJFAMLELDEG": -2,
    "floorNameTextMapHash": 1735534487,
    "PBIJNOLABBN": {
      "type": "MAP_FLOOR_NAME_CHANGE_QUEST",
      "paramList": [
        7305442
      ]
    },
    "AHNFIMKPNNK": 2390840817
  },
  {
    "id": 3270601,
    "LPIMPCMGMDN": 32706,
    "KJFAMLELDEG": -1,
    "floorNameTextMapHash": 3365272935,
    "PBIJNOLABBN": {
      "paramList": []
    },
    "AHNFIMKPNNK": 1516172537
  },
  {
    "id": 3270701,
    "LPIMPCMGMDN": 32707,
    "KJFAMLELDEG": -1,
    "floorNameTextMapHash": 3341605199,
    "PBIJNOLABBN": {
      "paramList": []
    },
    "AHNFIMKPNNK": 739677937
  },
  {
    "id": 3280101,
    "LPIMPCMGMDN": 32801,
    "KJFAMLELDEG": -1,
    "floorNameTextMapHash": 2847789919,
    "PBIJNOLABBN": {
      "paramList": []
    },
    "AHNFIMKPNNK": 1907542921
  },
  {
    "id": 3280102,
    "LPIMPCMGMDN": 32801,
    "KJFAMLELDEG": -2,
    "floorNameTextMapHash": 2436714911,
    "PBIJNOLABBN": {
      "paramList": []
    },
    "AHNFIMKPNNK": 1213845993
  },
  {
    "id": 3280201,
    "LPIMPCMGMDN": 32802,
    "KJFAMLELDEG": -1,
    "floorNameTextMapHash": 2331478863,
    "PBIJNOLABBN": {
      "type": "MAP_FLOOR_NAME_CHANGE_QUEST",
      "paramList": [
        7311004
      ]
    },
    "AHNFIMKPNNK": 3069428369
  },
  {
    "id": 3300101,
    "LPIMPCMGMDN": 33001,
    "KJFAMLELDEG": -1,
    "floorNameTextMapHash": 422621823,
    "PBIJNOLABBN": {
      "type": "MAP_FLOOR_NAME_CHANGE_QUEST",
      "paramList": [
        7325115
      ]
    },
    "AHNFIMKPNNK": 3870821129
  },
  {
    "id": 3300102,
    "LPIMPCMGMDN": 33001,
    "KJFAMLELDEG": -2,
    "floorNameTextMapHash": 2739413975,
    "PBIJNOLABBN": {
      "type": "MAP_FLOOR_NAME_CHANGE_QUEST",
      "paramList": [
        7325115
      ]
    },
    "AHNFIMKPNNK": 326084161
  },
  {
    "id": 3300201,
    "LPIMPCMGMDN": 33002,
    "KJFAMLELDEG": -1,
    "floorNameTextMapHash": 213024159,
    "PBIJNOLABBN": {
      "paramList": []
    },
    "AHNFIMKPNNK": 1084335025
  },
  {
    "id": 3310101,
    "LPIMPCMGMDN": 33101,
    "KJFAMLELDEG": -1,
    "floorNameTextMapHash": 353441679,
    "PBIJNOLABBN": {
      "type": "MAP_FLOOR_NAME_CHANGE_QUEST",
      "paramList": [
        7325602
      ]
    },
    "AHNFIMKPNNK": 3923730185
  },
  {
    "id": 3310102,
    "LPIMPCMGMDN": 33101,
    "KJFAMLELDEG": -2,
    "floorNameTextMapHash": 3346149111,
    "PBIJNOLABBN": {
      "type": "MAP_FLOOR_NAME_CHANGE_QUEST",
      "paramList": [
        7325602
      ]
    },
    "AHNFIMKPNNK": 2870048721
  },
  {
    "id": 3310201,
    "LPIMPCMGMDN": 33102,
    "KJFAMLELDEG": -1,
    "floorNameTextMapHash": 3581425119,
    "PBIJNOLABBN": {
      "paramList": []
    },
    "AHNFIMKPNNK": 200946841
  },
  {
    "id": 3310301,
    "LPIMPCMGMDN": 33103,
    "KJFAMLELDEG": -1,
    "floorNameTextMapHash": 4003846223,
    "PBIJNOLABBN": {
      "paramList": []
    },
    "AHNFIMKPNNK": 727089105
  },
  {
    "id": 3310401,
    "LPIMPCMGMDN": 33104,
    "KJFAMLELDEG": -1,
    "floorNameTextMapHash": 2532622423,
    "PBIJNOLABBN": {
      "type": "MAP_FLOOR_NAME_CHANGE_QUEST",
      "paramList": [
        7323205
      ]
    },
    "AHNFIMKPNNK": 1546079993
  },
  {
    "id": 3320101,
    "LPIMPCMGMDN": 33201,
    "KJFAMLELDEG": -1,
    "floorNameTextMapHash": 37115079,
    "PBIJNOLABBN": {
      "type": "MAP_FLOOR_NAME_CHANGE_QUEST",
      "paramList": [
        7321966
      ]
    },
    "AHNFIMKPNNK": 579550529
  },
  {
    "id": 3320102,
    "LPIMPCMGMDN": 33201,
    "KJFAMLELDEG": -2,
    "floorNameTextMapHash": 3478501255,
    "PBIJNOLABBN": {
      "type": "MAP_FLOOR_NAME_CHANGE_QUEST",
      "paramList": [
        7321966
      ]
    },
    "AHNFIMKPNNK": 3567056673
  },
  {
    "id": 3320201,
    "LPIMPCMGMDN": 33202,
    "KJFAMLELDEG": -1,
    "floorNameTextMapHash": 3643542495,
    "PBIJNOLABBN": {
      "paramList": []
    },
    "AHNFIMKPNNK": 3608914825
  },
  {
    "id": 3320301,
    "LPIMPCMGMDN": 33203,
    "KJFAMLELDEG": -1,
    "floorNameTextMapHash": 2515073271,
    "PBIJNOLABBN": {
      "type": "MAP_FLOOR_NAME_CHANGE_QUEST",
      "paramList": [
        7321964
      ]
    },
    "AHNFIMKPNNK": 4096247745
  },
  {
    "id": 3320401,
    "LPIMPCMGMDN": 33204,
    "KJFAMLELDEG": -1,
    "floorNameTextMapHash": 2918693447,
    "PBIJNOLABBN": {
      "type": "MAP_FLOOR_NAME_CHANGE_QUEST",
      "paramList": [
        7310338
      ]
    },
    "AHNFIMKPNNK": 165068089
  },
  {
    "id": 3320501,
    "LPIMPCMGMDN": 33205,
    "KJFAMLELDEG": -1,
    "floorNameTextMapHash": 4088021815,
    "PBIJNOLABBN": {
      "paramList": []
    },
    "AHNFIMKPNNK": 3881345721
  },
  {
    "id": 3320502,
    "LPIMPCMGMDN": 33205,
    "KJFAMLELDEG": -2,
    "floorNameTextMapHash": 3542935959,
    "PBIJNOLABBN": {
      "paramList": []
    },
    "AHNFIMKPNNK": 2971969185
  },
  {
    "id": 3320601,
    "LPIMPCMGMDN": 33206,
    "KJFAMLELDEG": -1,
    "floorNameTextMapHash": 694644087,
    "PBIJNOLABBN": {
      "paramList": []
    },
    "AHNFIMKPNNK": 976529169
  },
  {
    "id": 3320602,
    "LPIMPCMGMDN": 33206,
    "KJFAMLELDEG": -2,
    "floorNameTextMapHash": 3397118263,
    "PBIJNOLABBN": {
      "paramList": []
    },
    "AHNFIMKPNNK": 3376899657
  },
  {
    "id": 3320603,
    "LPIMPCMGMDN": 33206,
    "KJFAMLELDEG": -3,
    "floorNameTextMapHash": 2099981279,
    "PBIJNOLABBN": {
      "paramList": []
    },
    "AHNFIMKPNNK": 2863251105
  },
  {
    "id": 3320604,
    "LPIMPCMGMDN": 33206,
    "KJFAMLELDEG": -4,
    "floorNameTextMapHash": 3576280223,
    "PBIJNOLABBN": {
      "paramList": []
    },
    "AHNFIMKPNNK": 3211990161
  },
  {
    "id": 3330201,
    "LPIMPCMGMDN": 33302,
    "KJFAMLELDEG": -1,
    "floorNameTextMapHash": 788865695,
    "PBIJNOLABBN": {
      "paramList": []
    },
    "AHNFIMKPNNK": 3509493681
  },
  {
    "id": 3330301,
    "LPIMPCMGMDN": 33303,
    "KJFAMLELDEG": -1,
    "floorNameTextMapHash": 2050577663,
    "PBIJNOLABBN": {
      "paramList": []
    },
    "AHNFIMKPNNK": 314280977
  },
  {
    "id": 3340101,
    "LPIMPCMGMDN": 33401,
    "KJFAMLELDEG": -1,
    "floorNameTextMapHash": 4072607535,
    "PBIJNOLABBN": {
      "paramList": []
    },
    "AHNFIMKPNNK": 2298628241
  },
  {
    "id": 3340301,
    "LPIMPCMGMDN": 33403,
    "KJFAMLELDEG": -1,
    "floorNameTextMapHash": 2937555911,
    "PBIJNOLABBN": {
      "type": "MAP_FLOOR_NAME_CHANGE_QUEST",
      "paramList": [
        7400605
      ]
    },
    "AHNFIMKPNNK": 2057056977
  },
  {
    "id": 3340302,
    "LPIMPCMGMDN": 33403,
    "KJFAMLELDEG": -2,
    "floorNameTextMapHash": 646950047,
    "PBIJNOLABBN": {
      "type": "MAP_FLOOR_NAME_CHANGE_QUEST",
      "paramList": [
        7400605
      ]
    },
    "AHNFIMKPNNK": 1072439193
  },
  {
    "id": 3340401,
    "LPIMPCMGMDN": 33404,
    "KJFAMLELDEG": -2,
    "floorNameTextMapHash": 2108814671,
    "PBIJNOLABBN": {
      "paramList": []
    },
    "AHNFIMKPNNK": 2825932137
  },
  {
    "id": 3340402,
    "LPIMPCMGMDN": 33404,
    "KJFAMLELDEG": -1,
    "floorNameTextMapHash": 3247766671,
    "PBIJNOLABBN": {
      "paramList": []
    },
    "AHNFIMKPNNK": 2637815265
  },
  {
    "id": 3350101,
    "LPIMPCMGMDN": 33501,
    "KJFAMLELDEG": -1,
    "floorNameTextMapHash": 1603192359,
    "PBIJNOLABBN": {
      "type": "MAP_FLOOR_NAME_CHANGE_QUEST",
      "paramList": [
        7400145
      ]
    },
    "AHNFIMKPNNK": 2923225481
  },
  {
    "id": 3350102,
    "LPIMPCMGMDN": 33501,
    "KJFAMLELDEG": -2,
    "floorNameTextMapHash": 1814257455,
    "PBIJNOLABBN": {
      "type": "MAP_FLOOR_NAME_CHANGE_QUEST",
      "paramList": [
        7400309
      ]
    },
    "AHNFIMKPNNK": 416931089
  },
  {
    "id": 3350103,
    "LPIMPCMGMDN": 33501,
    "KJFAMLELDEG": -3,
    "floorNameTextMapHash": 2499913255,
    "PBIJNOLABBN": {
      "type": "MAP_FLOOR_NAME_CHANGE_QUEST",
      "paramList": [
        7400314
      ]
    },
    "AHNFIMKPNNK": 983239137
  },
  {
    "id": 3350201,
    "LPIMPCMGMDN": 33502,
    "KJFAMLELDEG": -1,
    "floorNameTextMapHash": 331031607,
    "PBIJNOLABBN": {
      "paramList": []
    },
    "AHNFIMKPNNK": 3265425849
  },
  {
    "id": 3350301,
    "LPIMPCMGMDN": 33503,
    "KJFAMLELDEG": -1,
    "floorNameTextMapHash": 457113215,
    "PBIJNOLABBN": {
      "paramList": []
    },
    "AHNFIMKPNNK": 970353745
  },
  {
    "id": 3350302,
    "LPIMPCMGMDN": 33503,
    "KJFAMLELDEG": -2,
    "floorNameTextMapHash": 916801991,
    "PBIJNOLABBN": {
      "type": "MAP_FLOOR_NAME_CHANGE_QUEST",
      "paramList": [
        7400808
      ]
    },
    "AHNFIMKPNNK": 586793833
  },
  {
    "id": 3350303,
    "LPIMPCMGMDN": 33503,
    "KJFAMLELDEG": -3,
    "floorNameTextMapHash": 2246506007,
    "PBIJNOLABBN": {
      "type": "MAP_FLOOR_NAME_CHANGE_QUEST",
      "paramList": [
        7400829
      ]
    },
    "AHNFIMKPNNK": 2112150385
  },
  {
    "id": 3340501,
    "LPIMPCMGMDN": 33405,
    "KJFAMLELDEG": -1,
    "floorNameTextMapHash": 811488335,
    "PBIJNOLABBN": {
      "paramList": []
    },
    "AHNFIMKPNNK": 3896808617
  },
  {
    "id": 3360101,
    "LPIMPCMGMDN": 33601,
    "KJFAMLELDEG": -1,
    "floorNameTextMapHash": 2541538623,
    "PBIJNOLABBN": {
      "paramList": []
    },
    "AHNFIMKPNNK": 2640671337
  },
  {
    "id": 3360102,
    "LPIMPCMGMDN": 33601,
    "KJFAMLELDEG": -2,
    "floorNameTextMapHash": 3025592639,
    "PBIJNOLABBN": {
      "paramList": []
    },
    "AHNFIMKPNNK": 3676184761
  },
  {
    "id": 3360103,
    "LPIMPCMGMDN": 33601,
    "KJFAMLELDEG": -3,
    "floorNameTextMapHash": 1402437535,
    "PBIJNOLABBN": {
      "paramList": []
    },
    "AHNFIMKPNNK": 3682413945
  },
  {
    "id": 3360104,
    "LPIMPCMGMDN": 33601,
    "KJFAMLELDEG": -4,
    "floorNameTextMapHash": 1382584079,
    "PBIJNOLABBN": {
      "paramList": []
    },
    "AHNFIMKPNNK": 190387881
  },
  {
    "id": 3360105,
    "LPIMPCMGMDN": 33601,
    "KJFAMLELDEG": -5,
    "floorNameTextMapHash": 3508781015,
    "PBIJNOLABBN": {
      "paramList": []
    },
    "AHNFIMKPNNK": 2925764425
  },
  {
    "id": 3360106,
    "LPIMPCMGMDN": 33601,
    "KJFAMLELDEG": -6,
    "floorNameTextMapHash": 4006643983,
    "PBIJNOLABBN": {
      "paramList": []
    },
    "AHNFIMKPNNK": 4236472417
  },
  {
    "id": 3360201,
    "LPIMPCMGMDN": 33602,
    "KJFAMLELDEG": -1,
    "floorNameTextMapHash": 1711511615,
    "PBIJNOLABBN": {
      "paramList": []
    },
    "AHNFIMKPNNK": 2657551513
  },
  {
    "id": 3360301,
    "LPIMPCMGMDN": 33603,
    "KJFAMLELDEG": -1,
    "floorNameTextMapHash": 80131047,
    "PBIJNOLABBN": {
      "paramList": []
    },
    "AHNFIMKPNNK": 1813159105
  },
  {
    "id": 3360501,
    "LPIMPCMGMDN": 33605,
    "KJFAMLELDEG": -1,
    "floorNameTextMapHash": 2912254327,
    "PBIJNOLABBN": {
      "paramList": []
    },
    "AHNFIMKPNNK": 3774444521
  },
  {
    "id": 3360502,
    "LPIMPCMGMDN": 33605,
    "KJFAMLELDEG": -2,
    "floorNameTextMapHash": 22729431,
    "PBIJNOLABBN": {
      "paramList": []
    },
    "AHNFIMKPNNK": 1578666753
  },
  {
    "id": 3360503,
    "LPIMPCMGMDN": 33605,
    "KJFAMLELDEG": -3,
    "floorNameTextMapHash": 2506930271,
    "PBIJNOLABBN": {
      "paramList": []
    },
    "AHNFIMKPNNK": 137773417
  },
  {
    "id": 3360601,
    "LPIMPCMGMDN": 33606,
    "KJFAMLELDEG": -1,
    "floorNameTextMapHash": 3415845191,
    "PBIJNOLABBN": {
      "paramList": []
    },
    "AHNFIMKPNNK": 1275510321
  },
  {
    "id": 3370101,
    "LPIMPCMGMDN": 33701,
    "KJFAMLELDEG": -1,
    "floorNameTextMapHash": 8041415,
    "PBIJNOLABBN": {
      "paramList": []
    },
    "AHNFIMKPNNK": 3182695065
  },
  {
    "id": 3370102,
    "LPIMPCMGMDN": 33701,
    "KJFAMLELDEG": -2,
    "floorNameTextMapHash": 4214904143,
    "PBIJNOLABBN": {
      "type": "MAP_FLOOR_NAME_CHANGE_QUEST",
      "paramList": [
        7408103
      ]
    },
    "AHNFIMKPNNK": 741590265
  },
  {
    "id": 3370103,
    "LPIMPCMGMDN": 33701,
    "KJFAMLELDEG": -3,
    "floorNameTextMapHash": 4207369143,
    "PBIJNOLABBN": {
      "paramList": []
    },
    "AHNFIMKPNNK": 2367694073
  },
  {
    "id": 3370201,
    "LPIMPCMGMDN": 33702,
    "KJFAMLELDEG": -1,
    "floorNameTextMapHash": 1245607487,
    "PBIJNOLABBN": {
      "paramList": []
    },
    "AHNFIMKPNNK": 4089418897
  },
  {
    "id": 3370301,
    "LPIMPCMGMDN": 33703,
    "KJFAMLELDEG": -1,
    "floorNameTextMapHash": 2676112303,
    "PBIJNOLABBN": {
      "paramList": []
    },
    "AHNFIMKPNNK": 730654809
  },
  {
    "id": 3350401,
    "LPIMPCMGMDN": 33504,
    "KJFAMLELDEG": -1,
    "floorNameTextMapHash": 2831975535,
    "PBIJNOLABBN": {
      "paramList": []
    },
    "AHNFIMKPNNK": 1032023737
  },
  {
    "id": 3380101,
    "LPIMPCMGMDN": 33801,
    "KJFAMLELDEG": -1,
    "floorNameTextMapHash": 2906558823,
    "PBIJNOLABBN": {
      "paramList": []
    },
    "AHNFIMKPNNK": 4010539617
  },
  {
    "id": 3380102,
    "LPIMPCMGMDN": 33801,
    "KJFAMLELDEG": -2,
    "floorNameTextMapHash": 3264768095,
    "PBIJNOLABBN": {
      "paramList": []
    },
    "AHNFIMKPNNK": 1644163665
  },
  {
    "id": 3380103,
    "LPIMPCMGMDN": 33801,
    "KJFAMLELDEG": -3,
    "floorNameTextMapHash": 1354599367,
    "PBIJNOLABBN": {
      "paramList": []
    },
    "AHNFIMKPNNK": 3057636801
  },
  {
    "id": 3380201,
    "LPIMPCMGMDN": 33802,
    "KJFAMLELDEG": -1,
    "floorNameTextMapHash": 1862430087,
    "PBIJNOLABBN": {
      "paramList": []
    },
    "AHNFIMKPNNK": 825722105
  },
  {
    "id": 3380202,
    "LPIMPCMGMDN": 33802,
    "KJFAMLELDEG": -2,
    "floorNameTextMapHash": 1925179623,
    "PBIJNOLABBN": {
      "paramList": []
    },
    "AHNFIMKPNNK": 1846181545
  },
  {
    "id": 3380203,
    "LPIMPCMGMDN": 33802,
    "KJFAMLELDEG": -3,
    "floorNameTextMapHash": 3058277831,
    "PBIJNOLABBN": {
      "paramList": []
    },
    "AHNFIMKPNNK": 2091493313
  },
  {
    "id": 3380301,
    "LPIMPCMGMDN": 33803,
    "KJFAMLELDEG": -1,
    "floorNameTextMapHash": 456930991,
    "PBIJNOLABBN": {
      "paramList": []
    },
    "AHNFIMKPNNK": 4073971841
  },
  {
    "id": 3380401,
    "LPIMPCMGMDN": 33804,
    "KJFAMLELDEG": -1,
    "floorNameTextMapHash": 3912183031,
    "PBIJNOLABBN": {
      "paramList": []
    },
    "AHNFIMKPNNK": 2876659145
  },
  {
    "id": 3390101,
    "LPIMPCMGMDN": 33901,
    "KJFAMLELDEG": -1,
    "floorNameTextMapHash": 1356222591,
    "PBIJNOLABBN": {
      "paramList": []
    },
    "AHNFIMKPNNK": 3200105881
  },
  {
    "id": 3390102,
    "LPIMPCMGMDN": 33901,
    "KJFAMLELDEG": -2,
    "floorNameTextMapHash": 4237537799,
    "PBIJNOLABBN": {
      "paramList": []
    },
    "AHNFIMKPNNK": 3575279641
  },
  {
    "id": 3390103,
    "LPIMPCMGMDN": 33901,
    "KJFAMLELDEG": -3,
    "floorNameTextMapHash": 3676265351,
    "PBIJNOLABBN": {
      "type": "MAP_FLOOR_NAME_CHANGE_QUEST",
      "paramList": [
        7407606
      ]
    },
    "AHNFIMKPNNK": 4015537905
  },
  {
    "id": 3390104,
    "LPIMPCMGMDN": 33901,
    "KJFAMLELDEG": -4,
    "floorNameTextMapHash": 1305364887,
    "PBIJNOLABBN": {
      "paramList": []
    },
    "AHNFIMKPNNK": 3379846201
  },
  {
    "id": 3390201,
    "LPIMPCMGMDN": 33902,
    "KJFAMLELDEG": -1,
    "floorNameTextMapHash": 414137015,
    "PBIJNOLABBN": {
      "paramList": []
    },
    "AHNFIMKPNNK": 265663345
  },
  {
    "id": 3390202,
    "LPIMPCMGMDN": 33902,
    "KJFAMLELDEG": -2,
    "floorNameTextMapHash": 2006493447,
    "PBIJNOLABBN": {
      "type": "MAP_FLOOR_NAME_CHANGE_QUEST",
      "paramList": [
        7407606
      ]
    },
    "AHNFIMKPNNK": 2056267953
  },
  {
    "id": 3390301,
    "LPIMPCMGMDN": 33903,
    "KJFAMLELDEG": -1,
    "floorNameTextMapHash": 1954660879,
    "PBIJNOLABBN": {
      "paramList": []
    },
    "AHNFIMKPNNK": 220580193
  },
  {
    "id": 3390302,
    "LPIMPCMGMDN": 33903,
    "KJFAMLELDEG": -2,
    "floorNameTextMapHash": 3580540647,
    "PBIJNOLABBN": {
      "type": "MAP_FLOOR_NAME_CHANGE_QUEST",
      "paramList": [
        7407606
      ]
    },
    "AHNFIMKPNNK": 1360292033
  },
  {
    "id": 3390401,
    "LPIMPCMGMDN": 33904,
    "KJFAMLELDEG": -1,
    "floorNameTextMapHash": 1820772951,
    "PBIJNOLABBN": {
      "paramList": []
    },
    "AHNFIMKPNNK": 4063929785
  },
  {
    "id": 3390402,
    "LPIMPCMGMDN": 33904,
    "KJFAMLELDEG": -2,
    "floorNameTextMapHash": 2565945751,
    "PBIJNOLABBN": {
      "type": "MAP_FLOOR_NAME_CHANGE_QUEST",
      "paramList": [
        7407606
      ]
    },
    "AHNFIMKPNNK": 1571154225
  },
  {
    "id": 3340601,
    "LPIMPCMGMDN": 33406,
    "KJFAMLELDEG": -1,
    "floorNameTextMapHash": 1865320711,
    "PBIJNOLABBN": {
      "paramList": []
    },
    "AHNFIMKPNNK": 2774314641
  },
  {
    "id": 3390501,
    "LPIMPCMGMDN": 33905,
    "KJFAMLELDEG": -1,
    "floorNameTextMapHash": 2740514215,
    "PBIJNOLABBN": {
      "paramList": []
    },
    "AHNFIMKPNNK": 3732482945
  },
  {
    "id": 3410101,
    "LPIMPCMGMDN": 34101,
    "KJFAMLELDEG": -1,
    "floorNameTextMapHash": 3586268719,
    "PBIJNOLABBN": {
      "paramList": []
    },
    "AHNFIMKPNNK": 3288998873
  },
  {
    "id": 3410401,
    "LPIMPCMGMDN": 34104,
    "KJFAMLELDEG": -1,
    "floorNameTextMapHash": 1473730135,
    "PBIJNOLABBN": {
      "paramList": []
    },
    "AHNFIMKPNNK": 1486398561
  },
  {
    "id": 3410501,
    "LPIMPCMGMDN": 34105,
    "KJFAMLELDEG": -1,
    "floorNameTextMapHash": 1130028639,
    "PBIJNOLABBN": {
      "paramList": []
    },
    "AHNFIMKPNNK": 4113015385
  },
  {
    "id": 3410701,
    "LPIMPCMGMDN": 34107,
    "KJFAMLELDEG": -1,
    "floorNameTextMapHash": 1150477967,
    "PBIJNOLABBN": {
      "paramList": []
    },
    "AHNFIMKPNNK": 2337690433
  },
  {
    "id": 3410702,
    "LPIMPCMGMDN": 34107,
    "KJFAMLELDEG": -2,
    "floorNameTextMapHash": 1687091855,
    "PBIJNOLABBN": {
      "paramList": []
    },
    "AHNFIMKPNNK": 3601863273
  },
  {
    "id": 3410801,
    "LPIMPCMGMDN": 34108,
    "KJFAMLELDEG": -1,
    "floorNameTextMapHash": 687648623,
    "PBIJNOLABBN": {
      "paramList": []
    },
    "AHNFIMKPNNK": 1177848425
  },
  {
    "id": 3410301,
    "LPIMPCMGMDN": 34103,
    "KJFAMLELDEG": -1,
    "floorNameTextMapHash": 1154546791,
    "PBIJNOLABBN": {
      "paramList": []
    },
    "AHNFIMKPNNK": 317149289
  },
  {
    "id": 3410601,
    "LPIMPCMGMDN": 34106,
    "KJFAMLELDEG": -1,
    "floorNameTextMapHash": 942877391,
    "PBIJNOLABBN": {
      "paramList": []
    },
    "AHNFIMKPNNK": 452473713
  },
  {
    "id": 116000001,
    "LPIMPCMGMDN": 1160000,
    "floorNameTextMapHash": 1202668199,
    "PBIJNOLABBN": {
      "paramList": []
    },
    "AHNFIMKPNNK": 307341161
  },
  {
    "id": 116000101,
    "LPIMPCMGMDN": 1160001,
    "KJFAMLELDEG": -1,
    "floorNameTextMapHash": 3797930887,
    "PBIJNOLABBN": {
      "paramList": []
    },
    "AHNFIMKPNNK": 3231328305
  },
  {
    "id": 116000201,
    "LPIMPCMGMDN": 1160002,
    "KJFAMLELDEG": -1,
    "floorNameTextMapHash": 2399613191,
    "PBIJNOLABBN": {
      "paramList": []
    },
    "AHNFIMKPNNK": 3936732217
  },
  {
    "id": 116000301,
    "LPIMPCMGMDN": 1160003,
    "KJFAMLELDEG": -1,
    "floorNameTextMapHash": 3096990863,
    "PBIJNOLABBN": {
      "paramList": []
    },
    "AHNFIMKPNNK": 2613473465
  },
  {
    "id": 116000302,
    "LPIMPCMGMDN": 1160003,
    "KJFAMLELDEG": -2,
    "floorNameTextMapHash": 3934659479,
    "PBIJNOLABBN": {
      "paramList": []
    },
    "AHNFIMKPNNK": 3925640577
  },
  {
    "id": 116000402,
    "LPIMPCMGMDN": 1160004,
    "KJFAMLELDEG": -1,
    "floorNameTextMapHash": 1482191543,
    "PBIJNOLABBN": {
      "paramList": []
    },
    "AHNFIMKPNNK": 1224077337
  },
  {
    "id": 116000401,
    "LPIMPCMGMDN": 1160004,
    "KJFAMLELDEG": -2,
    "floorNameTextMapHash": 2848810199,
    "PBIJNOLABBN": {
      "paramList": []
    },
    "AHNFIMKPNNK": 3248798945
  },
  {
    "id": 3420101,
    "LPIMPCMGMDN": 34201,
    "KJFAMLELDEG": -1,
    "floorNameTextMapHash": 1048486031,
    "PBIJNOLABBN": {
      "paramList": []
    },
    "AHNFIMKPNNK": 15099993
  },
  {
    "id": 3420102,
    "LPIMPCMGMDN": 34201,
    "KJFAMLELDEG": -2,
    "floorNameTextMapHash": 2209375855,
    "PBIJNOLABBN": {
      "paramList": []
    },
    "AHNFIMKPNNK": 3467312473
  },
  {
    "id": 3420107,
    "LPIMPCMGMDN": 34201,
    "KJFAMLELDEG": -3,
    "floorNameTextMapHash": 961195463,
    "PBIJNOLABBN": {
      "paramList": []
    },
    "AHNFIMKPNNK": 1846683041
  },
  {
    "id": 3420109,
    "LPIMPCMGMDN": 34201,
    "KJFAMLELDEG": -4,
    "floorNameTextMapHash": 2914875951,
    "PBIJNOLABBN": {
      "paramList": []
    },
    "AHNFIMKPNNK": 1946722465
  },
  {
    "id": 116000501,
    "LPIMPCMGMDN": 1160005,
    "KJFAMLELDEG": -1,
    "floorNameTextMapHash": 526676751,
    "PBIJNOLABBN": {
      "paramList": []
    },
    "AHNFIMKPNNK": 218123033
  },
  {
    "id": 116000601,
    "LPIMPCMGMDN": 1160006,
    "KJFAMLELDEG": -1,
    "floorNameTextMapHash": 2482672167,
    "PBIJNOLABBN": {
      "paramList": []
    },
    "AHNFIMKPNNK": 408234777
  },
  {
    "id": 116000701,
    "LPIMPCMGMDN": 1160007,
    "KJFAMLELDEG": -1,
    "floorNameTextMapHash": 11831287,
    "PBIJNOLABBN": {
      "paramList": []
    },
    "AHNFIMKPNNK": 2351735641
  },
  {
    "id": 116000702,
    "LPIMPCMGMDN": 1160007,
    "KJFAMLELDEG": -2,
    "floorNameTextMapHash": 4151497087,
    "PBIJNOLABBN": {
      "paramList": []
    },
    "AHNFIMKPNNK": 233218729
  },
  {
    "id": 1007010101,
    "LPIMPCMGMDN": 10070101,
    "KJFAMLELDEG": 1,
    "floorNameTextMapHash": 1786702207,
    "PBIJNOLABBN": {
      "paramList": []
    },
    "AHNFIMKPNNK": 2761649393
  },
  {
    "id": 1007010102,
    "LPIMPCMGMDN": 10070101,
    "KJFAMLELDEG": 2,
    "floorNameTextMapHash": 3079691855,
    "PBIJNOLABBN": {
      "paramList": []
    },
    "AHNFIMKPNNK": 4215262001
  },
  {
    "id": 1007010103,
    "LPIMPCMGMDN": 10070101,
    "KJFAMLELDEG": 3,
    "floorNameTextMapHash": 738025295,
    "PBIJNOLABBN": {
      "paramList": []
    },
    "AHNFIMKPNNK": 2774098673
  },
  {
    "id": 3430101,
    "LPIMPCMGMDN": 34301,
    "KJFAMLELDEG": -1,
    "floorNameTextMapHash": 1922016199,
    "PBIJNOLABBN": {
      "type": "MAP_FLOOR_NAME_CHANGE_QUEST",
      "paramList": [
        7500403
      ]
    },
    "AHNFIMKPNNK": 630670545
  },
  {
    "id": 3430201,
    "LPIMPCMGMDN": 34302,
    "KJFAMLELDEG": -1,
    "floorNameTextMapHash": 3017995511,
    "PBIJNOLABBN": {
      "type": "MAP_FLOOR_NAME_CHANGE_QUEST",
      "paramList": [
        7500212
      ]
    },
    "AHNFIMKPNNK": 4129300121
  },
  {
    "id": 3430202,
    "LPIMPCMGMDN": 34302,
    "KJFAMLELDEG": -2,
    "floorNameTextMapHash": 1736531575,
    "PBIJNOLABBN": {
      "type": "MAP_FLOOR_NAME_CHANGE_QUEST",
      "paramList": [
        7500212
      ]
    },
    "AHNFIMKPNNK": 158298921
  },
  {
    "id": 3430301,
    "LPIMPCMGMDN": 34303,
    "KJFAMLELDEG": -1,
    "floorNameTextMapHash": 3517470263,
    "PBIJNOLABBN": {
      "paramList": []
    },
    "AHNFIMKPNNK": 2300693145
  },
  {
    "id": 3430501,
    "LPIMPCMGMDN": 34305,
    "KJFAMLELDEG": -1,
    "floorNameTextMapHash": 197182359,
    "PBIJNOLABBN": {
      "paramList": []
    },
    "AHNFIMKPNNK": 3945093841
  },
  {
    "id": 3440101,
    "LPIMPCMGMDN": 34401,
    "KJFAMLELDEG": -1,
    "floorNameTextMapHash": 726258255,
    "PBIJNOLABBN": {
      "paramList": []
    },
    "AHNFIMKPNNK": 992381473
  },
  {
    "id": 3440102,
    "LPIMPCMGMDN": 34401,
    "KJFAMLELDEG": -2,
    "floorNameTextMapHash": 2194909551,
    "PBIJNOLABBN": {
      "paramList": []
    },
    "AHNFIMKPNNK": 4165297433
  },
  {
    "id": 3450101,
    "LPIMPCMGMDN": 34501,
    "KJFAMLELDEG": -1,
    "floorNameTextMapHash": 2056321375,
    "PBIJNOLABBN": {
      "paramList": []
    },
    "AHNFIMKPNNK": 3631202273
  },
  {
    "id": 3460101,
    "LPIMPCMGMDN": 34601,
    "KJFAMLELDEG": -1,
    "floorNameTextMapHash": 1915919871,
    "PBIJNOLABBN": {
      "paramList": []
    },
    "AHNFIMKPNNK": 340719289
  },
  {
    "id": 3460201,
    "LPIMPCMGMDN": 34602,
    "KJFAMLELDEG": -1,
    "floorNameTextMapHash": 2053805415,
    "PBIJNOLABBN": {
      "paramList": []
    },
    "AHNFIMKPNNK": 2315490401
  },
  {
    "id": 3460301,
    "LPIMPCMGMDN": 34603,
    "KJFAMLELDEG": -1,
    "floorNameTextMapHash": 750825183,
    "PBIJNOLABBN": {
      "paramList": []
    },
    "AHNFIMKPNNK": 3195542705
  },
  {
    "id": 3430401,
    "LPIMPCMGMDN": 34304,
    "KJFAMLELDEG": -1,
    "floorNameTextMapHash": 1611677823,
    "PBIJNOLABBN": {
      "paramList": []
    },
    "AHNFIMKPNNK": 3289401553
  },
  {
    "id": 3430402,
    "LPIMPCMGMDN": 34304,
    "KJFAMLELDEG": -2,
    "floorNameTextMapHash": 1961410511,
    "PBIJNOLABBN": {
      "paramList": []
    },
    "AHNFIMKPNNK": 1274074777
  },
  {
    "id": 3430601,
    "LPIMPCMGMDN": 34306,
    "KJFAMLELDEG": -1,
    "floorNameTextMapHash": 3433983767,
    "PBIJNOLABBN": {
      "paramList": []
    },
    "AHNFIMKPNNK": 3647176073
  },
  {
    "id": 3430602,
    "LPIMPCMGMDN": 34306,
    "KJFAMLELDEG": -2,
    "floorNameTextMapHash": 2932663199,
    "PBIJNOLABBN": {
      "paramList": []
    },
    "AHNFIMKPNNK": 3134582393
  },
  {
    "id": 3430701,
    "LPIMPCMGMDN": 34307,
    "KJFAMLELDEG": 1,
    "floorNameTextMapHash": 807122279,
    "PBIJNOLABBN": {
      "paramList": []
    },
    "AHNFIMKPNNK": 1986572993
  },
  {
    "id": 3460401,
    "LPIMPCMGMDN": 34604,
    "KJFAMLELDEG": -1,
    "floorNameTextMapHash": 371092359,
    "PBIJNOLABBN": {
      "type": "MAP_FLOOR_NAME_CHANGE_QUEST",
      "paramList": [
        7502012
      ]
    },
    "AHNFIMKPNNK": 3267608881
  },
  {
    "id": 3460402,
    "LPIMPCMGMDN": 34604,
    "KJFAMLELDEG": -2,
    "floorNameTextMapHash": 2394878215,
    "PBIJNOLABBN": {
      "paramList": []
    },
    "AHNFIMKPNNK": 2626891225
  },
  {
    "id": 3460501,
    "LPIMPCMGMDN": 34605,
    "KJFAMLELDEG": -1,
    "floorNameTextMapHash": 3866062207,
    "PBIJNOLABBN": {
      "paramList": []
    },
    "AHNFIMKPNNK": 3459828457
  },
  {
    "id": 3460502,
    "LPIMPCMGMDN": 34605,
    "KJFAMLELDEG": -2,
    "floorNameTextMapHash": 2370540463,
    "PBIJNOLABBN": {
      "paramList": []
    },
    "AHNFIMKPNNK": 845184873
  },
  {
    "id": 3440201,
    "LPIMPCMGMDN": 34402,
    "KJFAMLELDEG": -1,
    "floorNameTextMapHash": 4006230047,
    "PBIJNOLABBN": {
      "paramList": []
    },
    "AHNFIMKPNNK": 1251139313
  },
  {
    "id": 3460601,
    "LPIMPCMGMDN": 34606,
    "KJFAMLELDEG": -1,
    "floorNameTextMapHash": 2998828567,
    "PBIJNOLABBN": {
      "paramList": []
    },
    "AHNFIMKPNNK": 284116633
  }
]