[
  {
    "id": 10001,
    "grup": 1000,
    "name": "Vida (+4780 > R5LV21)"
  },
  {
    "id": 10002,
    "grup": 1000,
    "name": "Vida (46.60% > R5LV21)"
  },
  {
    "id": 10003,
    "grup": 1000,
    "name": "ATQ (+311 > R5LV21)"
  },
  {
    "id": 10004,
    "grup": 1000,
    "name": "ATQ (46.60% > R5LV21)"
  },
  {
    "id": 10005,
    "grup": 1000,
    "name": "DEF (+741 > R5LV21)"
  },
  {
    "id": 10006,
    "grup": 1000,
    "name": "DEF (58.30% > R5LV21)"
  },
  {
    "id": 10007,
    "grup": 1000,
    "name": "Recarga de Energía (51.80% > R5LV21)"
  },
  {
    "id": 10008,
    "grup": 1000,
    "name": "Maestría Elemental (+186 > R5LV21)"
  },
  {
    "id": 10009,
    "grup": 1000,
    "name": "RES Pyro (50.00% > R5LV21)"
  },
  {
    "id": 12001,
    "grup": 2000,
    "name": "ATQ (+311 > R5LV21)"
  },
  {
    "id": 13001,
    "grup": 3000,
    "name": "Vida (+4780 > R5LV21)"
  },
  {
    "id": 13002,
    "grup": 3000,
    "name": "Vida (46.60% > R5LV21)"
  },
  {
    "id": 13003,
    "grup": 3000,
    "name": "ATQ (+311 > R5LV21)"
  },
  {
    "id": 13004,
    "grup": 3000,
    "name": "ATQ (46.60% > R5LV21)"
  },
  {
    "id": 13005,
    "grup": 3000,
    "name": "DEF (+741 > R5LV21)"
  },
  {
    "id": 13006,
    "grup": 3000,
    "name": "DEF (58.30% > R5LV21)"
  },
  {
    "id": 13007,
    "grup": 3000,
    "name": "Prob. CRIT (31.10% > R5LV21)"
  },
  {
    "id": 13008,
    "grup": 3000,
    "name": "Daño CRIT (62.20% > R5LV21)"
  },
  {
    "id": 13009,
    "grup": 3000,
    "name": "Bono de Curación (35.90% > R5LV21)"
  },
  {
    "id": 13010,
    "grup": 3000,
    "name": "Maestría Elemental (+186 > R5LV21)"
  },
  {
    "id": 14001,
    "grup": 4000,
    "name": "Vida (+4780 > R5LV21)"
  },
  {
    "id": 15001,
    "grup": 5000,
    "name": "Vida (+4780 > R5LV21)"
  },
  {
    "id": 15002,
    "grup": 5000,
    "name": "Vida (46.60% > R5LV21)"
  },
  {
    "id": 15003,
    "grup": 5000,
    "name": "ATQ (+311 > R5LV21)"
  },
  {
    "id": 15004,
    "grup": 5000,
    "name": "ATQ (46.60% > R5LV21)"
  },
  {
    "id": 15005,
    "grup": 5000,
    "name": "DEF (+741 > R5LV21)"
  },
  {
    "id": 15006,
    "grup": 5000,
    "name": "DEF (58.30% > R5LV21)"
  },
  {
    "id": 15007,
    "grup": 5000,
    "name": "Maestría Elemental (+186 > R5LV21)"
  },
  {
    "id": 15008,
    "grup": 5000,
    "name": "Bono de Daño Pyro (46.60% > R5LV21)"
  },
  {
    "id": 15009,
    "grup": 5000,
    "name": "Bono de Daño Electro (46.60% > R5LV21)"
  },
  {
    "id": 15010,
    "grup": 5000,
    "name": "Bono de Daño Cryo (46.60% > R5LV21)"
  },
  {
    "id": 15011,
    "grup": 5000,
    "name": "Bono de Daño Hydro (46.60% > R5LV21)"
  },
  {
    "id": 15012,
    "grup": 5000,
    "name": "Bono de Daño Anemo (46.60% > R5LV21)"
  },
  {
    "id": 15013,
    "grup": 5000,
    "name": "Bono de Daño Geo (46.60% > R5LV21)"
  },
  {
    "id": 15014,
    "grup": 5000,
    "name": "Bono de Daño Dendro (46.60% > R5LV21)"
  },
  {
    "id": 15015,
    "grup": 5000,
    "name": "Bono de Daño Físico (58.30% > R5LV21)"
  },
  {
    "id": 10990,
    "grup": 1099,
    "name": "ATQ (46.60% > R5LV21)"
  },
  {
    "id": 10980,
    "grup": 1098,
    "name": "Vida (46.60% > R5LV21)"
  },
  {
    "id": 10970,
    "grup": 1097,
    "name": "DEF (58.30% > R5LV21)"
  },
  {
    "id": 10960,
    "grup": 1096,
    "name": "Recarga de Energía (51.80% > R5LV21)"
  },
  {
    "id": 10950,
    "grup": 1095,
    "name": "Maestría Elemental (+186 > R5LV21)"
  },
  {
    "id": 30990,
    "grup": 3099,
    "name": "ATQ (46.60% > R5LV21)"
  },
  {
    "id": 30980,
    "grup": 3098,
    "name": "Vida (46.60% > R5LV21)"
  },
  {
    "id": 30970,
    "grup": 3097,
    "name": "DEF (58.30% > R5LV21)"
  },
  {
    "id": 30960,
    "grup": 3096,
    "name": "Prob. CRIT (31.10% > R5LV21)"
  },
  {
    "id": 30950,
    "grup": 3095,
    "name": "Daño CRIT (62.20% > R5LV21)"
  },
  {
    "id": 30940,
    "grup": 3094,
    "name": "Bono de Curación (35.90% > R5LV21)"
  },
  {
    "id": 30930,
    "grup": 3093,
    "name": "Maestría Elemental (+186 > R5LV21)"
  },
  {
    "id": 50990,
    "grup": 5099,
    "name": "ATQ (46.60% > R5LV21)"
  },
  {
    "id": 50980,
    "grup": 5098,
    "name": "Vida (46.60% > R5LV21)"
  },
  {
    "id": 50970,
    "grup": 5097,
    "name": "DEF (58.30% > R5LV21)"
  },
  {
    "id": 50960,
    "grup": 5096,
    "name": "Bono de Daño Pyro (46.60% > R5LV21)"
  },
  {
    "id": 50950,
    "grup": 5095,
    "name": "Bono de Daño Electro (46.60% > R5LV21)"
  },
  {
    "id": 50940,
    "grup": 5094,
    "name": "Bono de Daño Cryo (46.60% > R5LV21)"
  },
  {
    "id": 50930,
    "grup": 5093,
    "name": "Bono de Daño Hydro (46.60% > R5LV21)"
  },
  {
    "id": 50920,
    "grup": 5092,
    "name": "Bono de Daño Anemo (46.60% > R5LV21)"
  },
  {
    "id": 50910,
    "grup": 5091,
    "name": "Bono de Daño Geo (46.60% > R5LV21)"
  },
  {
    "id": 50900,
    "grup": 5090,
    "name": "Bono de Daño Dendro (46.60% > R5LV21)"
  },
  {
    "id": 50890,
    "grup": 5089,
    "name": "Bono de Daño Físico (58.30% > R5LV21)"
  },
  {
    "id": 50880,
    "grup": 5088,
    "name": "Maestría Elemental (+186 > R5LV21)"
  }
]