{
  "common": {
    "effectAttachShape": {
      "$type": "FJNPJANPGGC",
      "mesh": "EffectMesh"
    },
    "mass": 10.0,
    "height": 1.7453399896621704,
    "modelHeight": 1.7300000190734863,
    "affectedByWorld": true,
    "checkInSurface": true
  },
  "headControl": {
    "$type": "KPIPDEBDPIH",
    "useHeadControl": true,
    "animStates": [
      "NormalStandby",
      "NormalMove/WalkToRun",
      "NormalMove/Walk",
      "NormalMove/RunToWalk",
      "NormalMove/Run",
      "NormalMove/RunToIdle",
      "NormalMove/WalkToIdle",
      "NormalMove/RunningTurn",
      "NormalMove/SprintToRun",
      "NormalMove/SprintToIdle",
      "Sprint",
      "Climb/ClimbIdle",
      "Ladder/LadderIdle",
      "Swim/SwimIdle",
      "NormalStandbyWeapon",
      "NormalMoveWeapon/WalkToRunWeapon",
      "NormalMoveWeapon/WalkWeapon",
      "NormalMoveWeapon/RunToWalkWeapon",
      "NormalMoveWeapon/RunWeapon",
      "NormalMoveWeapon/RunToIdleWeapon",
      "NormalMoveWeapon/WalkToIdleWeapon",
      "NormalMoveWeapon/RunningTurnWeapon"
    ]
  },
  "specialPoint": {
    "elementAbsorb": "PRIVATE_Pendant",
    "elementPendant": "PRIVATE_Pendant",
    "elementDrop": "RootNode",
    "bulletAim": "RootNode"
  },
  "combat": {
    "property": {
      "endureType": "Avatar_Claymore",
      "weight": 75.0
    },
    "beHit": {
      "hitBloodEffect": ""
    },
    "combatLock": {
      "lockShape": "CircleLockEnemyClose",
      "lockWeightYaxisParam": 0.20000000298023224,
      "lockWeightYaxisThreshold": 2.0,
      "lockType": "Avatar&Monster_Lv4"
    },
    "die": {
      "hasAnimatorDie": true,
      "dieEndTime": 1.5,
      "dieForceDisappearTime": 2.5,
      "dieDisappearEffect": "Eff_Death_Avatar_Common",
      "dieShaderData": "AvatarDie",
      "useRagDoll": true,
      "ragDollDieEndTimeDelay": 0.4000000059604645
    },
    "animEvents": {
      "ATK01": {
        "attackPattern": {
          "$type": "ConfigAttackCircle",
          "triggerType": "TriggerNoRepeat",
          "born": {
            "$type": "ConfigBornBySelf",
            "offset": {
              "x": 0.0,
              "y": 0.0,
              "z": 0.5
            }
          },
          "height": 1.7999999523162842,
          "fanAngle": 270.0,
          "radius": 2.0,
          "detectDirection": "Clockwise"
        },
        "attackInfo": {
          "attackTag": "NormalAttack_01",
          "attenuationTag": "NormalAttack",
          "attenuationGroup": "default",
          "attackProperty": {
            "actorGrassSubHurtDelta": 0.6499999761581421,
            "actorWindSubHurtDelta": 0.0,
            "elementDurability": 25.0,
            "overrideByWeapon": true,
            "strikeType": "Blunt",
            "enBreak": 101.19999694824219,
            "attackType": "Melee",
            "GLKMCMDJBIK": 0.0
          },
          "hitPattern": {
            "onHitEffectName": "default",
            "hitImpulseY": "",
            "hitImpulseType": "LV3",
            "hitHaltTime": 0.09000000357627869,
            "hitHaltTimeScale": 0.009999999776482582,
            "canBeDefenceHalt": true
          },
          "cameraShake": {
            "shakeType": "CustomVector",
            "shakeRange": 0.23999999463558197,
            "shakeTime": 0.11999999731779099,
            "shakeDistance": 30.0,
            "shakeDir": {
              "x": 1.0,
              "y": -0.30000001192092896
            }
          }
        }
      },
      "ATK02": {
        "attackPattern": {
          "$type": "ConfigAttackCircle",
          "triggerType": "TriggerNoRepeat",
          "born": {
            "$type": "ConfigBornBySelf",
            "offset": {
              "x": 0.0,
              "y": 0.0,
              "z": 0.5
            }
          },
          "height": 1.7999999523162842,
          "fanAngle": 270.0,
          "radius": 2.0,
          "detectDirection": "Clockwise"
        },
        "attackInfo": {
          "attackTag": "NormalAttack_02",
          "attenuationTag": "NormalAttack",
          "attenuationGroup": "default",
          "attackProperty": {
            "actorGrassSubHurtDelta": 0.6499999761581421,
            "actorWindSubHurtDelta": 0.0,
            "elementDurability": 25.0,
            "overrideByWeapon": true,
            "strikeType": "Blunt",
            "enBreak": 105.80000305175781,
            "attackType": "Melee",
            "GLKMCMDJBIK": 0.0
          },
          "hitPattern": {
            "onHitEffectName": "default",
            "hitImpulseY": "",
            "hitImpulseType": "LV3",
            "hitHaltTime": 0.11999999731779099,
            "hitHaltTimeScale": 0.009999999776482582,
            "canBeDefenceHalt": true
          },
          "cameraShake": {
            "shakeType": "CustomVector",
            "shakeRange": 0.36000001430511475,
            "shakeTime": 0.11999999731779099,
            "shakeDistance": 30.0,
            "shakeDir": {
              "x": 1.0
            }
          }
        }
      },
      "ATK03_1": {
        "attackPattern": {
          "$type": "ConfigAttackCircle",
          "triggerType": "TriggerNoRepeat",
          "born": {
            "$type": "ConfigBornBySelf",
            "offset": {
              "x": 0.0,
              "y": 0.0,
              "z": 0.5
            }
          },
          "height": 1.5,
          "radius": 2.0,
          "detectDirection": "Counterclockwise"
        },
        "attackInfo": {
          "attackTag": "NormalAttack_03",
          "attenuationTag": "NormalAttack",
          "attenuationGroup": "default",
          "attackProperty": {
            "actorGrassSubHurtDelta": 0.7300000190734863,
            "actorWindSubHurtDelta": 0.0,
            "elementDurability": 25.0,
            "overrideByWeapon": true,
            "strikeType": "Blunt",
            "enBreak": 65.55000305175781,
            "attackType": "Melee",
            "GLKMCMDJBIK": 0.0
          },
          "hitPattern": {
            "onHitEffectName": "default",
            "hitImpulseY": "",
            "hitImpulseType": "LV3",
            "hitHaltTimeScale": 0.009999999776482582
          },
          "cameraShake": {
            "shakeType": "CustomVector",
            "shakeRange": 0.23999999463558197,
            "shakeTime": 0.11999999731779099,
            "shakeDistance": 30.0,
            "shakeDir": {
              "x": 0.20000000298023224,
              "y": 1.0
            }
          }
        }
      },
      "ATK03_2": {
        "attackPattern": {
          "$type": "ConfigAttackCircle",
          "triggerType": "TriggerNoRepeat",
          "born": {
            "$type": "ConfigBornBySelf",
            "offset": {
              "x": 0.0,
              "y": 0.0,
              "z": 0.5
            }
          },
          "height": 1.5,
          "radius": 2.0,
          "detectDirection": "Counterclockwise"
        },
        "attackInfo": {
          "attackTag": "NormalAttack_03",
          "attenuationTag": "NormalAttack",
          "attenuationGroup": "default",
          "attackProperty": {
            "actorGrassSubHurtDelta": 0.7300000190734863,
            "actorWindSubHurtDelta": 0.0,
            "elementDurability": 25.0,
            "overrideByWeapon": true,
            "strikeType": "Blunt",
            "enBreak": 65.55000305175781,
            "attackType": "Melee",
            "GLKMCMDJBIK": 0.0
          },
          "hitPattern": {
            "onHitEffectName": "default",
            "hitImpulseY": "",
            "hitImpulseType": "LV3",
            "hitHaltTime": 0.09000000357627869,
            "hitHaltTimeScale": 0.009999999776482582,
            "canBeDefenceHalt": true
          },
          "cameraShake": {
            "shakeType": "CustomVector",
            "shakeRange": 0.23999999463558197,
            "shakeTime": 0.11999999731779099,
            "shakeDistance": 30.0,
            "shakeDir": {
              "x": 1.0,
              "y": 0.20000000298023224
            }
          }
        }
      },
      "ATK04": {
        "attackPattern": {
          "$type": "ConfigAttackCircle",
          "triggerType": "TriggerNoRepeat",
          "born": {
            "$type": "ConfigBornBySelf",
            "offset": {
              "x": 0.0,
              "y": 0.0,
              "z": 0.0
            }
          },
          "height": 1.5,
          "fanAngle": 270.0,
          "radius": 2.0,
          "detectDirection": "Counterclockwise"
        },
        "attackInfo": {
          "attackTag": "NormalAttack_04",
          "attenuationTag": "NormalAttack",
          "attenuationGroup": "default",
          "attackProperty": {
            "actorGrassSubHurtDelta": 0.7300000190734863,
            "actorWindSubHurtDelta": 0.0,
            "elementDurability": 25.0,
            "overrideByWeapon": true,
            "strikeType": "Blunt",
            "enBreak": 129.9499969482422,
            "attackType": "Melee",
            "GLKMCMDJBIK": 0.0
          },
          "hitPattern": {
            "onHitEffectName": "default",
            "hitImpulseY": "",
            "hitImpulseType": "LV3",
            "hitHaltTime": 0.09000000357627869,
            "hitHaltTimeScale": 0.009999999776482582,
            "canBeDefenceHalt": true
          },
          "cameraShake": {
            "shakeType": "CustomVector",
            "shakeRange": 0.23999999463558197,
            "shakeTime": 0.11999999731779099,
            "shakeDistance": 30.0,
            "shakeDir": {
              "x": 0.20000000298023224,
              "y": -1.0
            }
          }
        }
      },
      "ATK05_1": {
        "attackPattern": {
          "$type": "ConfigAttackBox",
          "triggerType": "TriggerNoRepeat",
          "born": {
            "$type": "ConfigBornByTarget",
            "offset": {
              "x": 0.0,
              "y": 1.0,
              "z": 0.0
            }
          },
          "size": {
            "x": 2.0,
            "y": 2.0,
            "z": 3.0
          }
        },
        "attackInfo": {
          "attackTag": "NormalAttack_05",
          "attenuationTag": "NormalAttack",
          "attenuationGroup": "default",
          "attackProperty": {
            "actorGrassSubHurtDelta": 0.9300000071525574,
            "actorWindSubHurtDelta": 0.0,
            "elementDurability": 25.0,
            "overrideByWeapon": true,
            "strikeType": "Blunt",
            "enBreak": 68.20999908447266,
            "attackType": "Melee",
            "GLKMCMDJBIK": 0.0
          },
          "hitPattern": {
            "onHitEffectName": "default",
            "hitImpulseY": "",
            "hitImpulseType": "LV3",
            "hitHaltTimeScale": 0.009999999776482582
          },
          "cameraShake": {
            "shakeType": "CustomVector",
            "shakeRange": 0.47999998927116394,
            "shakeTime": 0.11999999731779099,
            "shakeDistance": 30.0,
            "shakeDir": {
              "y": 1.0
            }
          }
        }
      },
      "ATK05_2": {
        "attackPattern": {
          "$type": "ConfigAttackBox",
          "triggerType": "TriggerNoRepeat",
          "born": {
            "$type": "ConfigBornByTarget",
            "offset": {
              "x": 0.0,
              "y": 1.0,
              "z": 0.0
            }
          },
          "size": {
            "x": 2.0,
            "y": 2.0,
            "z": 3.0
          }
        },
        "attackInfo": {
          "attackTag": "NormalAttack_05",
          "attenuationTag": "NormalAttack",
          "attenuationGroup": "default",
          "attackProperty": {
            "actorGrassSubHurtDelta": 0.9300000071525574,
            "actorWindSubHurtDelta": 0.0,
            "elementDurability": 25.0,
            "overrideByWeapon": true,
            "strikeType": "Blunt",
            "enBreak": 68.20999908447266,
            "attackType": "Melee",
            "GLKMCMDJBIK": 0.0
          },
          "hitPattern": {
            "onHitEffectName": "default",
            "hitImpulseY": "",
            "hitImpulseType": "LV6",
            "overrideHitImpulse": {
              "hitLevel": "Air",
              "IMIJMPGJOGG": 200.0,
              "BPCDKKBKOBM": 800.0
            },
            "hitHaltTime": 0.11999999731779099,
            "hitHaltTimeScale": 0.009999999776482582,
            "canBeDefenceHalt": true
          },
          "forceCameraShake": true,
          "cameraShake": {
            "shakeType": "CustomVector",
            "shakeRange": 0.47999998927116394,
            "shakeTime": 0.11999999731779099,
            "shakeDistance": 30.0,
            "shakeDir": {
              "y": 1.0
            }
          }
        }
      },
      "ExtraAttack1": {
        "attackPattern": {
          "$type": "ConfigAttackCircle",
          "triggerType": "TriggerNoRepeat",
          "born": {
            "$type": "ConfigBornBySelf",
            "offset": {
              "x": 0.0,
              "y": 0.0,
              "z": 0.30000001192092896
            }
          },
          "height": 1.5,
          "radius": 3.0
        },
        "attackInfo": {
          "attackTag": "ExtraAttack",
          "attenuationTag": "NormalAttack",
          "attenuationGroup": "default",
          "attackProperty": {
            "actorGrassSubHurtDelta": 0.800000011920929,
            "actorWindSubHurtDelta": 0.0,
            "elementDurability": 25.0,
            "overrideByWeapon": true,
            "strikeType": "Blunt",
            "enBreak": 60.0,
            "attackType": "Melee",
            "GLKMCMDJBIK": 0.0
          },
          "hitPattern": {
            "onHitEffectName": "default",
            "hitImpulseY": "",
            "hitImpulseType": "LV3",
            "hitHaltTime": 0.029999999329447746,
            "hitHaltTimeScale": 0.009999999776482582,
            "canBeDefenceHalt": true
          },
          "cameraShake": {
            "shakeRange": 0.11999999731779099,
            "shakeTime": 0.09000000357627869
          }
        }
      },
      "ExtraAttack2": {
        "attackPattern": {
          "$type": "ConfigAttackCircle",
          "triggerType": "TriggerNoRepeat",
          "born": {
            "$type": "ConfigBornBySelf",
            "offset": {
              "x": 0.0,
              "y": 0.0,
              "z": 0.0
            }
          },
          "height": 1.5,
          "radius": 3.5,
          "detectDirection": "Clockwise"
        },
        "attackInfo": {
          "attackTag": "ExtraAttack",
          "attenuationTag": "NormalAttack",
          "attenuationGroup": "default",
          "attackProperty": {
            "actorGrassSubHurtDelta": 1.7999999523162842,
            "actorWindSubHurtDelta": 0.0,
            "elementDurability": 25.0,
            "overrideByWeapon": true,
            "strikeType": "Blunt",
            "enBreak": 120.0,
            "attackType": "Melee",
            "GLKMCMDJBIK": 0.0
          },
          "hitPattern": {
            "onHitEffectName": "default",
            "hitImpulseY": "",
            "hitImpulseType": "LV6",
            "hitHaltTime": 0.15000000596046448,
            "hitHaltTimeScale": 0.009999999776482582,
            "canBeDefenceHalt": true
          },
          "cameraShake": {
            "shakeRange": 0.23999999463558197,
            "shakeTime": 0.2800000011920929
          }
        }
      }
    }
  },
  "equipController": {
    "sheathPoint": "WeaponBackPut",
    "dissolveSheathFadeDelay": 0.07500000298023224,
    "dissolveSheathFadeTime": 2.0999999046325684,
    "attachPoints": {
      "equip01": "WeaponR",
      "equip02": "WeaponL",
      "equip03": "WeaponL"
    }
  },
  "abilities": [
    {
      "abilityID": "",
      "abilityName": "Avatar_Eula_ExtraAttack",
      "abilityOverride": ""
    },
    {
      "abilityID": "",
      "abilityName": "Avatar_Eula_ElementalArt",
      "abilityOverride": ""
    },
    {
      "abilityID": "",
      "abilityName": "Avatar_Eula_ElementalArt_Click",
      "abilityOverride": ""
    },
    {
      "abilityID": "",
      "abilityName": "Avatar_Eula_ElementalArt_Burst",
      "abilityOverride": ""
    },
    {
      "abilityID": "",
      "abilityName": "Avatar_Eula_ElementalArt_SetMark",
      "abilityOverride": ""
    },
    {
      "abilityID": "",
      "abilityName": "Avatar_Eula_ElementalBurst",
      "abilityOverride": ""
    },
    {
      "abilityID": "",
      "abilityName": "Avatar_Eula_ElementalBurst_Attack",
      "abilityOverride": ""
    },
    {
      "abilityID": "",
      "abilityName": "Avatar_Eula_FallingAnthem",
      "abilityOverride": ""
    },
    {
      "abilityID": "",
      "abilityName": "Avatar_Eula_ElementalBurst_PostEffect",
      "abilityOverride": ""
    },
    {
      "abilityID": "",
      "abilityName": "Avatar_Eula_NormalAttackDamage_Handler",
      "abilityOverride": ""
    }
  ],
  "stateLayers": {
    "defaultLayer": {
      "$type": "GBGJJIIEMBD",
      "layerIndexName": "",
      "CPAANEIJCGD": "",
      "stateIDs": {
        "NormalStandby": {
          "$type": "KBOPIKLCBOA",
          "animatorStates": {
            "Standby": []
          },
          "canDoSkill": true,
          "massRatio": 100.0,
          "setAnimatorBoolean": [
            {
              "name": "&CanUseSkill"
            }
          ],
          "canChangeAvatar": [{}],
          "animatorTriggerOnLanded": "",
          "sheatheOnStart": true
        },
        "NormalMove": {
          "$type": "KBOPIKLCBOA",
          "animatorStates": {
            "ShowUp": ["Audio_Lady_Showup"],
            "WalkToRun": [
              "Audio_Lady_WalkToRun",
              "Audio_Lady_Eula_Foley_Twice"
            ],
            "Walk": [
              "Ani_WalkSprint01",
              "Audio_Lady_Walk",
              "WalkStepOnWater",
              "Audio_Lady_Eula_Foley_Walk"
            ],
            "RunToWalk": [
              "Audio_Lady_RunToWalk",
              "Audio_Lady_Eula_Foley_Twice"
            ],
            "Run": ["Ani_Run01", "Audio_Lady_Run", "Audio_Lady_Eula_Foley_Run"],
            "RunToIdle": [
              "Audio_Lady_RunToIdle",
              "Audio_Lady_Eula_Foley_RunToIdle"
            ],
            "WalkToIdle": ["Audio_Lady_WalkToIdle"],
            "RunningTurn": [],
            "SprintToRun": [
              "Audio_Lady_SprintToRun",
              "Audio_Lady_Eula_Foley_Once"
            ],
            "SprintToIdle": [
              "Audio_Lady_SprintToIdle",
              "Emo_Lady_Sprint_AS",
              "Audio_Lady_Eula_Foley_SprintToIdle"
            ],
            "FallOnGround": [
              "Audio_Lady_FallOnGround",
              "Audio_Lady_Eula_Foley_Twice"
            ],
            "FallOnGroundLit": [
              "Audio_Lady_FallOnGroundLit",
              "Audio_Lady_Eula_Foley_Once"
            ],
            "FallToGroundRun": [
              "Audio_Lady_FallToGroundRun",
              "Audio_Lady_Eula_Foley_Twice"
            ],
            "FallToGroundRunHard": [
              "Audio_Lady_FallToGroundRunHard",
              "Audio_Lady_Eula_Foley_Twice"
            ],
            "FallToGroundSprint": [
              "Audio_Lady_FallToGroundSprint",
              "Audio_Lady_Eula_Foley_Twice"
            ]
          },
          "canDoSkill": true,
          "massRatio": 1.0,
          "setAnimatorBoolean": [
            {
              "name": "&CanUseSkill"
            }
          ],
          "canChangeAvatar": [{}],
          "animatorTriggerOnLanded": "",
          "sheatheOnStart": true
        },
        "SprintBS": {
          "$type": "KBOPIKLCBOA",
          "animatorStates": {
            "SprintBS": [
              "Audio_Lady_RunToSprint",
              "SprintBS_Invincible",
              "Emo_Lady_Sprint_BS",
              "Audio_Lady_Eula_Foley_SprintBS"
            ]
          },
          "canDoSkill": true,
          "resetAnimatorTriggerOnEnter": ["DoSkill", "AimEnd"],
          "setAnimatorBoolean": [
            {
              "name": "&CanUseSkill",
              "normalizeStart": 0.25999999046325684
            }
          ],
          "canChangeAvatar": [
            {
              "normalizeStart": 0.25999999046325684
            }
          ],
          "animatorTriggerOnLanded": "",
          "sheatheOnStart": true
        },
        "Sprint": {
          "$type": "KBOPIKLCBOA",
          "animatorStates": {
            "Sprint": [
              "Ani_WalkSprint01",
              "Audio_Lady_Sprint",
              "Emo_Lady_Sprint_Loop",
              "Audio_Lady_Eula_Foley_Twice"
            ]
          },
          "canDoSkill": true,
          "massRatio": 1.0,
          "setAnimatorBoolean": [
            {
              "name": "&CanUseSkill"
            }
          ],
          "canChangeAvatar": [{}],
          "animatorTriggerOnLanded": "",
          "sheatheOnStart": true
        },
        "SkiffNormal": {
          "$type": "KBOPIKLCBOA",
          "animatorStates": {
            "SkiffNormal": []
          },
          "massRatio": 100.0,
          "resetAnimatorTriggerOnExit": ["BeHit", "DoSkill", "Jump"],
          "animatorTriggerOnLanded": "",
          "sheatheOnStart": true
        },
        "Climb": {
          "$type": "KBOPIKLCBOA",
          "animatorStates": {
            "ClimbMove0": [
              "ClimbStep",
              "Audio_Lady_Climb",
              "Audio_Lady_Foley_ClimbMove_Eula"
            ],
            "ClimbMove1": [
              "ClimbStep",
              "Audio_Lady_Climb",
              "Audio_Lady_Eula_Foley_Twice"
            ],
            "ClimbIdle": [],
            "ClimbJump": ["Audio_Lady_ClimbDash", "Audio_Lady_Eula_Foley_Once"],
            "JumpUpWallForStandby": [
              "Audio_Lady_JumpUpWallStandby",
              "Audio_Lady_Eula_Foley_Once"
            ],
            "Standby2ClimbB": [
              "Audio_Lady_Standby2ClimbB",
              "Audio_Lady_Eula_Foley_Once"
            ]
          },
          "resetAnimatorTriggerOnEnter": ["DoSkill"],
          "actionPanelState": "Climb",
          "animatorTriggerOnLanded": "",
          "sheatheOnStart": true
        },
        "ClimbTransient": {
          "$type": "KBOPIKLCBOA",
          "animatorStates": {
            "JumpWallReady": ["Audio_Lady_JumpUpWallReady"],
            "Standby2ClimbA": [
              "Audio_Lady_Standby2ClimbA",
              "Audio_Lady_Eula_Foley_Once"
            ]
          },
          "resetAnimatorTriggerOnEnter": ["DoSkill"],
          "animatorTriggerOnLanded": "",
          "sheatheOnStart": true
        },
        "Upstairs": {
          "$type": "KBOPIKLCBOA",
          "animatorStates": {
            "Upstairs": ["Audio_Lady_Upstairs", "Audio_Lady_Eula_Foley_Once"]
          },
          "resetAnimatorTriggerOnEnter": ["DoSkill"],
          "setAnimatorBoolean": [
            {
              "name": "&CanUseSkill"
            }
          ],
          "animatorTriggerOnLanded": "",
          "sheatheOnStart": true
        },
        "Slip": {
          "$type": "KBOPIKLCBOA",
          "animatorStates": {
            "SlipFaceWall": ["Audio_Lady_Eula_Foley_SlipFaceWall"],
            "SlipBackWall": ["Audio_Lady_Eula_Foley_SlipFaceWall"]
          },
          "resetAnimatorTriggerOnEnter": ["DoSkill"],
          "animatorTriggerOnLanded": "",
          "sheatheOnStart": true
        },
        "Swim": {
          "$type": "KBOPIKLCBOA",
          "animatorStates": {
            "SwimIdle": ["Audio_Lady_SwimIdle"],
            "SwimMove": ["SwimStep", "Audio_Lady_SwimMove"],
            "SwimDash": [
              "Audio_Lady_SwimDash",
              "Avatar_Lady_SwimDash_Hand_Effect"
            ],
            "SwimJumpToWater": ["Audio_Lady_SwimJumpToWater"]
          },
          "resetAnimatorTriggerOnEnter": ["DoSkill"],
          "actionPanelState": "Swim",
          "animatorTriggerOnLanded": "",
          "sheatheOnStart": true
        },
        "Fly": {
          "$type": "KBOPIKLCBOA",
          "animatorStates": {
            "Fly": ["Audio_Lady_Eula_Foley_Once"],
            "FlyStart": [
              "Audio_Lady_FlyStart",
              "FlyStart_Weapon",
              "Audio_Lady_Eula_Foley_FlyStart"
            ]
          },
          "canDoSkill": true,
          "resetAnimatorTriggerOnEnter": ["DoSkill"],
          "setAnimatorBoolean": [
            {
              "name": "&CanUseAirSkill"
            }
          ],
          "actionPanelState": "Fly",
          "animatorTriggerOnLanded": "",
          "sheatheOnStart": true
        },
        "Jump": {
          "$type": "KBOPIKLCBOA",
          "animatorStates": {
            "Jump": ["Audio_Lady_Jump", "Audio_Lady_Eula_Foley_Once"],
            "JumpForRun": ["Audio_Lady_Jump", "Audio_Lady_Eula_Foley_Once"],
            "JumpForWalk": ["Audio_Lady_Jump", "Audio_Lady_Eula_Foley_Once"],
            "JumpForSprint": ["Audio_Lady_Jump", "Audio_Lady_Eula_Foley_Once"]
          },
          "canDoSkill": true,
          "resetAnimatorTriggerOnEnter": ["DoSkill", "AimEnd"],
          "setAnimatorBoolean": [
            {
              "name": "&CanUseAirSkill"
            }
          ],
          "actionPanelState": "Jump",
          "animatorTriggerOnLanded": "",
          "sheatheOnStart": true
        },
        "Fall": {
          "$type": "KBOPIKLCBOA",
          "animatorStates": {
            "JumpOffWall": ["Audio_Lady_Jump", "Audio_Lady_Eula_Foley_Once"],
            "SwimJump": ["Audio_Lady_SwimJump", "Audio_Lady_Eula_Foley_Once"],
            "SwimJumpDrop": ["Audio_Lady_Eula_Foley_ThreeTimes"],
            "DropDown": [
              "Audio_Lady_DropDown",
              "Audio_Lady_Eula_Foley_ThreeTimes"
            ],
            "DropDownLit": [],
            "WalkDropDownLit": []
          },
          "canDoSkill": true,
          "resetAnimatorTriggerOnEnter": ["DoSkill"],
          "setAnimatorBoolean": [
            {
              "name": "&CanUseAirSkill"
            }
          ],
          "animatorTriggerOnLanded": "",
          "sheatheOnStart": true
        },
        "NormalStandbyWeapon": {
          "$type": "KBOPIKLCBOA",
          "animatorStates": {
            "StandbyWeapon": []
          },
          "canDoSkill": true,
          "massRatio": 100.0,
          "setAnimatorBoolean": [
            {
              "name": "&CanUseSkill"
            }
          ],
          "canChangeAvatar": [{}],
          "animatorTriggerOnLanded": "",
          "battouOnStart": true
        },
        "NormalMoveWeapon": {
          "$type": "KBOPIKLCBOA",
          "animatorStates": {
            "WalkToRunWeapon": ["Audio_Lady_WalkToRun"],
            "WalkWeapon": ["Audio_Lady_Walk", "Audio_Lady_Eula_Foley_Twice"],
            "RunToWalkWeapon": ["Audio_Lady_RunToWalk"],
            "RunWeapon": ["Audio_Lady_Run", "Audio_Lady_Eula_Foley_Twice"],
            "RunToIdleWeapon": [
              "Audio_Lady_RunToIdle",
              "Audio_Lady_Eula_Foley_Twice"
            ],
            "WalkToIdleWeapon": [
              "Audio_Lady_WalkToIdle",
              "Audio_Lady_Eula_Foley_Twice"
            ],
            "RunningTurnWeapon": [],
            "FallOnGroundWeapon": ["Audio_Lady_FallToGround"],
            "FallOnGroundLitWeapon": ["Audio_Lady_FallToGround"],
            "FallOnGroundMiddleWeapon": ["Audio_Lady_FallToGround"],
            "FallToGroundRunWeapon": ["Audio_Lady_FallToGroundRun"],
            "FallToGroundRunHardWeapon": ["Audio_Lady_FallToGroundRunHard"]
          },
          "canDoSkill": true,
          "massRatio": 2.0,
          "setAnimatorBoolean": [
            {
              "name": "&CanUseSkill"
            }
          ],
          "canChangeAvatar": [{}],
          "animatorTriggerOnLanded": "",
          "battouOnStart": true
        },
        "NormalMoveWeaponPutaway": {
          "$type": "KBOPIKLCBOA",
          "animatorStates": {
            "WalkPutaway": [
              "Lady_Claymore_Putaway_Walk",
              "Audio_Lady_Sword_WalkPutAway",
              "Audio_Lady_Eula_Foley_Twice"
            ],
            "RunPutaway": [
              "Lady_Claymore_Putaway_Run",
              "Audio_Lady_Sword_RunPutAway",
              "Audio_Lady_Eula_Foley_Twice"
            ],
            "RunToSprintWeapon": [
              "Lady_Claymore_Putaway_Sprint",
              "Audio_Lady_Sword_RunToSprintWeapon"
            ]
          },
          "canDoSkill": true,
          "massRatio": 2.0,
          "setAnimatorBoolean": [
            {
              "name": "&CanUseSkill"
            }
          ],
          "canChangeAvatar": [{}],
          "animatorTriggerOnLanded": "",
          "battouOnStart": true
        },
        "NormalMoveWeaponStandByPutaway": {
          "$type": "KBOPIKLCBOA",
          "animatorStates": {
            "StandbyPutaway": [
              "Lady_Claymore_Putaway_Standby",
              "Audio_Lady_Claymore_StandbyPutAway",
              "Audio_Lady_Eula_Foley_Once"
            ]
          },
          "canDoSkill": true,
          "massRatio": 2.0,
          "setAnimatorBoolean": [
            {
              "name": "&CanUseSkill"
            }
          ],
          "canChangeAvatar": [{}],
          "equipReattach": [
            {
              "equip": "equip01",
              "targetPoint": "WeaponR2"
            }
          ],
          "animatorTriggerOnLanded": "",
          "battouOnStart": true
        },
        "NormalMoveWeaponOver": {
          "$type": "KBOPIKLCBOA",
          "animatorStates": {
            "StandbyPutawayOver": [],
            "WalkPutawayOver": ["Audio_Lady_Sword_WalkPutAwayOver"],
            "RunPutawayOver": ["Audio_Lady_Sword_RunPutAwayOver"],
            "RunToSprintWeaponOver": ["Audio_Lady_Sword_RunToSprintWeaponOver"]
          },
          "canDoSkill": true,
          "massRatio": 2.0,
          "setAnimatorBoolean": [
            {
              "name": "&CanUseSkill"
            }
          ],
          "canChangeAvatar": [{}],
          "animatorTriggerOnLanded": "",
          "sheatheOnStart": true
        },
        "JumpWeapon": {
          "$type": "KBOPIKLCBOA",
          "animatorStates": {
            "JumpWeapon": ["Audio_Lady_Jump", "Audio_Lady_Eula_Foley_Once"],
            "JumpForRunWeapon": [
              "Audio_Lady_Jump",
              "Audio_Lady_Eula_Foley_Once"
            ],
            "JumpForWalkWeapon": [
              "Audio_Lady_Jump",
              "Audio_Lady_Eula_Foley_Once"
            ]
          },
          "canDoSkill": true,
          "resetAnimatorTriggerOnEnter": ["DoSkill"],
          "setAnimatorBoolean": [
            {
              "name": "&CanUseAirSkill"
            }
          ],
          "canChangeAvatar": [{}],
          "actionPanelState": "Jump",
          "animatorTriggerOnLanded": "",
          "battouOnStart": true
        },
        "FallWeapon": {
          "$type": "KBOPIKLCBOA",
          "animatorStates": {
            "DropDownWeapon": [
              "Audio_Lady_DropDown",
              "Audio_Lady_Eula_Foley_ThreeTimes"
            ],
            "DropDownLitWeapon": [],
            "WalkDropDownLitWeapon": []
          },
          "canDoSkill": true,
          "resetAnimatorTriggerOnEnter": ["DoSkill"],
          "setAnimatorBoolean": [
            {
              "name": "&CanUseAirSkill"
            }
          ],
          "animatorTriggerOnLanded": "",
          "battouOnStart": true
        },
        "BeHit": {
          "$type": "KBOPIKLCBOA",
          "animatorStates": {
            "Hit_L": ["Audio_Lady_Hit_L", "Audio_Lady_Eula_Foley_Once"],
            "Hit_H": ["Audio_Lady_Hit_H", "Audio_Lady_Eula_Foley_Once"]
          },
          "MOKBIKEEHMJ": "combatMove",
          "resetAnimatorTriggerOnEnter": ["BeHit", "HitAir2HitDrop"],
          "resetAnimatorTriggerOnExit": ["DoSkill"],
          "cameraType": "combatBeHit",
          "jumpCancelEnd": 0.0,
          "animatorTriggerOnLanded": "",
          "battouOnStart": true
        },
        "HitThrow": {
          "$type": "KBOPIKLCBOA",
          "animatorStates": {
            "Hit_Throw_Ground": [
              "BeHitAir_Weapon",
              "Audio_Lady_HitThrowGround",
              "Audio_Lady_Eula_Foley_Twice"
            ]
          },
          "MOKBIKEEHMJ": "combatMove",
          "resetAnimatorTriggerOnEnter": ["BeHit", "HitAir2HitDrop"],
          "resetAnimatorTriggerOnExit": ["DoSkill"],
          "cameraType": "combatBeHit",
          "jumpCancelEnd": 0.0,
          "animatorTriggerOnLanded": "",
          "sheatheOnStart": true
        },
        "BeHitAir": {
          "$type": "KBOPIKLCBOA",
          "animatorStates": {
            "Hit_Throw": [
              "Audio_Lady_Hit_Throw",
              "BeHitAir_Weapon",
              "Audio_Lady_Eula_Foley_HitThrowGround"
            ],
            "Hit_ThrowAir": ["Audio_Lady_DropDown", "BeHitAir_Weapon"],
            "Struggle": ["BeHitAir_Weapon", "Audio_Lady_Eula_Foley_ThreeTimes"]
          },
          "MOKBIKEEHMJ": "combatAir",
          "resetAnimatorTriggerOnEnter": ["BeHit"],
          "resetAnimatorTriggerOnExit": ["DoSkill"],
          "cameraType": "combatBeHit",
          "actionPanelState": "CombatAir",
          "jumpCancelEnd": 0.0,
          "animatorTriggerOnLanded": "",
          "sheatheOnStart": true
        },
        "Die": {
          "$type": "KBOPIKLCBOA",
          "animatorStates": {
            "DiveDie": ["Die", "Audio_Lady_Dive_Die"],
            "FallDie": ["Audio_Lady_NormalDie"],
            "NormalDie": [
              "Die",
              "Audio_Lady_NormalDie",
              "Audio_Lady_Eula_Foley_Once"
            ],
            "SwimDie": ["Swim_Die", "Audio_Lady_SwimDie"],
            "HitGroundDie": ["Die", "Audio_Lady_Death"]
          },
          "animatorTriggerOnLanded": ""
        },
        "Die_RagDoll": {
          "$type": "KBOPIKLCBOA",
          "animatorStates": {
            "FallDie_AS": []
          },
          "enableRagDoll": true,
          "animatorTriggerOnLanded": ""
        },
        "Attack01": {
          "$type": "KBOPIKLCBOA",
          "animatorStates": {
            "Attack01": [
              "Eula_Attack01",
              "SetComboCount1",
              "Interaction_Bad",
              "Audio_Lady_Claymore_Eula_Attack01",
              "Emo_Lady_Claymore_Eula_NormalAttack01"
            ]
          },
          "MOKBIKEEHMJ": "combatMove",
          "canDoSkill": true,
          "resetAnimatorTriggerOnExit": ["BeHit"],
          "setAnimatorBoolean": [
            {
              "name": "&CanCancelSkill"
            }
          ],
          "cameraType": "combatNormal",
          "canChangeAvatar": [{}],
          "animatorTriggerOnLanded": "",
          "battouOnStart": true
        },
        "Attack02": {
          "$type": "KBOPIKLCBOA",
          "animatorStates": {
            "Attack02": [
              "Eula_Attack02",
              "SetComboCount2",
              "Interaction_Bad",
              "Audio_Lady_Claymore_Eula_Attack02",
              "Emo_Lady_Claymore_Eula_NormalAttack02"
            ]
          },
          "MOKBIKEEHMJ": "combatMove",
          "canDoSkill": true,
          "resetAnimatorTriggerOnExit": ["BeHit"],
          "setAnimatorBoolean": [
            {
              "name": "&CanCancelSkill"
            }
          ],
          "cameraType": "combatNormal",
          "canChangeAvatar": [{}],
          "animatorTriggerOnLanded": "",
          "battouOnStart": true
        },
        "Attack03": {
          "$type": "KBOPIKLCBOA",
          "animatorStates": {
            "Attack03": [
              "Eula_Attack03",
              "SetComboCount3",
              "Interaction_Bad",
              "Audio_Lady_Claymore_Eula_Attack03",
              "Emo_Lady_Claymore_Eula_NormalAttack03"
            ]
          },
          "MOKBIKEEHMJ": "combatMove",
          "canDoSkill": true,
          "resetAnimatorTriggerOnExit": ["BeHit"],
          "setAnimatorBoolean": [
            {
              "name": "&CanCancelSkill"
            }
          ],
          "cameraType": "combatNormal",
          "canChangeAvatar": [{}],
          "equipReattach": [
            {
              "equip": "equip01",
              "targetPoint": "WeaponL",
              "normalizeStart": 0.17499999701976776,
              "normalizeEnd": 0.6069999933242798
            }
          ],
          "animatorTriggerOnLanded": "",
          "battouOnStart": true
        },
        "Attack04": {
          "$type": "KBOPIKLCBOA",
          "animatorStates": {
            "Attack04": [
              "Eula_Attack04",
              "SetComboCount4",
              "Interaction_Bad",
              "Audio_Lady_Claymore_Eula_Attack04",
              "Emo_Lady_Claymore_Eula_NormalAttack04"
            ]
          },
          "MOKBIKEEHMJ": "combatMove",
          "canDoSkill": true,
          "resetAnimatorTriggerOnExit": ["BeHit"],
          "setAnimatorBoolean": [
            {
              "name": "&CanCancelSkill"
            }
          ],
          "cameraType": "combatNormal",
          "canChangeAvatar": [{}],
          "equipReattach": [
            {
              "equip": "equip01",
              "targetPoint": "WeaponL",
              "normalizeEnd": 0.4580000042915344
            }
          ],
          "animatorTriggerOnLanded": "",
          "battouOnStart": true
        },
        "Attack05": {
          "$type": "KBOPIKLCBOA",
          "animatorStates": {
            "Attack05": [
              "Eula_Attack05",
              "SetComboCount5",
              "Interaction_Bad",
              "Audio_Lady_Claymore_Eula_Attack05",
              "Emo_Lady_Claymore_Eula_NormalAttack05"
            ]
          },
          "MOKBIKEEHMJ": "combatMove",
          "canDoSkill": true,
          "resetAnimatorTriggerOnExit": ["BeHit"],
          "setAnimatorBoolean": [
            {
              "name": "&CanCancelSkill"
            }
          ],
          "cameraType": "combatNormal",
          "canChangeAvatar": [{}],
          "equipReattach": [
            {
              "equip": "equip01",
              "targetPoint": "WeaponL"
            }
          ],
          "animatorTriggerOnLanded": "",
          "battouOnStart": true,
          "sheatheOnEnd": true
        },
        "Attack01_BS": {
          "$type": "KBOPIKLCBOA",
          "animatorStates": {
            "Attack01_BS": [
              "Eula_Attack01_BS",
              "Interaction_Bad",
              "Audio_Lady_Claymore_Eula_Attack01_BS",
              "Emo_Lady_Claymore_Eula_NormalAttack01_BS"
            ]
          },
          "MOKBIKEEHMJ": "combatMove",
          "canDoSkill": true,
          "resetAnimatorTriggerOnExit": ["BeHit"],
          "setAnimatorBoolean": [
            {
              "name": "&CanCancelSkill"
            }
          ],
          "canChangeAvatar": [{}],
          "animatorTriggerOnLanded": "",
          "battouOnStart": true
        },
        "ExtraAttack": {
          "$type": "KBOPIKLCBOA",
          "animatorStates": {
            "ExtraAttack": [
              "Interaction_Bad",
              "Eula_ExtraAttack",
              "Audio_Lady_Claymore_Eula_ExtraAttack",
              "Emo_Lady_Claymore_Eula_ExtraAttack_BS"
            ]
          },
          "MOKBIKEEHMJ": "combatMove",
          "resetAnimatorTriggerOnExit": ["BeHit"],
          "canChangeAvatar": [{}],
          "animatorTriggerOnLanded": "",
          "battouOnStart": true
        },
        "ExtraAttack1": {
          "$type": "KBOPIKLCBOA",
          "animatorStates": {
            "ExtraAttack1": [
              "Eula_ExtraAttack1",
              "Interaction_Bad",
              "Emo_Lady_Claymore_Eula_ExtraAttack_01"
            ]
          },
          "MOKBIKEEHMJ": "combatMove",
          "resetAnimatorTriggerOnExit": ["BeHit"],
          "canChangeAvatar": [{}],
          "equipReattach": [
            {
              "equip": "equip01",
              "targetPoint": "WeaponL",
              "normalizeStart": 0.75,
              "normalizeEnd": 0.9990000128746033
            }
          ],
          "animatorTriggerOnLanded": "",
          "battouOnStart": true
        },
        "ExtraAttack2": {
          "$type": "KBOPIKLCBOA",
          "animatorStates": {
            "ExtraAttack2": [
              "Eula_ExtraAttack2",
              "Interaction_Bad",
              "Audio_Lady_Claymore_Eula_ExtraAttack2",
              "Emo_Lady_Claymore_Eula_ExtraAttack_02"
            ]
          },
          "MOKBIKEEHMJ": "combatMove",
          "resetAnimatorTriggerOnExit": ["BeHit"],
          "canChangeAvatar": [{}],
          "animatorTriggerOnLanded": "",
          "battouOnStart": true
        },
        "ExtraAttack3": {
          "$type": "KBOPIKLCBOA",
          "animatorStates": {
            "ExtraAttack3": [
              "Audio_Lady_Claymore_Eula_ExtraAttack3",
              "Interaction_Bad",
              "Emo_Lady_Claymore_Eula_ExtraAttack_03"
            ]
          },
          "MOKBIKEEHMJ": "combatMove",
          "canDoSkill": true,
          "resetAnimatorTriggerOnExit": ["BeHit"],
          "setAnimatorBoolean": [
            {
              "name": "&CanCancelSkill"
            }
          ],
          "canChangeAvatar": [{}],
          "animatorTriggerOnLanded": "",
          "battouOnStart": true
        },
        "Eula_ElementalArt_BS": {
          "$type": "KBOPIKLCBOA",
          "animatorStates": {
            "Eula_ElementalArt_BS": [
              "Eula_ElementalArt_BS",
              "Audio_Lady_Claymore_Eula_ElementalArt_BS",
              "Emo_Avatar_Eula_ElementalArt_BS",
              "Interaction_Bad"
            ]
          },
          "MOKBIKEEHMJ": "combatMove",
          "addEndure": 0.6000000238418579,
          "resetAnimatorTriggerOnEnter": ["BeHit"],
          "resetAnimatorTriggerOnExit": ["BeHit"],
          "jumpCancelEnd": -1.0,
          "sprintCancelEnd": -1.0,
          "animatorTriggerOnLanded": "",
          "battouOnStart": true
        },
        "Eula_ElementalArt_Click": {
          "$type": "KBOPIKLCBOA",
          "animatorStates": {
            "Eula_ElementalArt_Click": [
              "Eula_ElementalArt_Click",
              "Interaction_Bad",
              "Audio_Lady_Claymore_Eula_ElementalArt_Click",
              "Emo_Avatar_Eula_ElementalArt_Click"
            ]
          },
          "MOKBIKEEHMJ": "combatMove",
          "addEndure": 0.6000000238418579,
          "resetAnimatorTriggerOnExit": ["BeHit"],
          "jumpCancelEnd": -1.0,
          "sprintCancelEnd": -1.0,
          "animatorTriggerOnLanded": "",
          "battouOnStart": true
        },
        "Eula_ElementalArt_Click_AS": {
          "$type": "KBOPIKLCBOA",
          "animatorStates": {
            "Eula_ElementalArt_Click_AS": [
              "Audio_Lady_Claymore_Eula_ElementalArt_Click_AS",
              "Interaction_Bad",
              "Emo_Avatar_Eula_ElementalArt_Click_AS"
            ]
          },
          "MOKBIKEEHMJ": "combatMove",
          "canDoSkill": true,
          "resetAnimatorTriggerOnExit": ["BeHit", "Jump", "DoSkill"],
          "setAnimatorBoolean": [
            {
              "name": "&CanUseSkill"
            },
            {
              "name": "&CanCancelSkill"
            }
          ],
          "canChangeAvatar": [{}],
          "animatorTriggerOnLanded": "",
          "battouOnStart": true
        },
        "Eula_ElementalArt_Charge": {
          "$type": "KBOPIKLCBOA",
          "animatorStates": {
            "Eula_ElementalArt_Charge": [
              "Eula_ElementalArt_Charge",
              "Interaction_Bad"
            ]
          },
          "MOKBIKEEHMJ": "combatMove",
          "addEndure": 0.20000000298023224,
          "resetAnimatorTriggerOnExit": ["BeHit"],
          "jumpCancelEnd": -1.0,
          "sprintCancelEnd": -1.0,
          "animatorTriggerOnLanded": "",
          "battouOnStart": true,
          "sheatheOnStart": true
        },
        "Eula_ElementalArt_Burst": {
          "$type": "KBOPIKLCBOA",
          "animatorStates": {
            "Eula_ElementalArt_Burst": [
              "Eula_ElementalArt_Burst",
              "Interaction_Bad",
              "Audio_Lady_Claymore_Eula_ElementalArt_Burst",
              "Emo_Avatar_Eula_ElementalArt_Charge"
            ]
          },
          "MOKBIKEEHMJ": "combatMove",
          "canDoSkill": true,
          "canDoSkillStart": 0.8999999761581421,
          "addEndure": 0.6000000238418579,
          "resetAnimatorTriggerOnExit": ["BeHit"],
          "jumpCancelEnd": -1.0,
          "sprintCancelEnd": -1.0,
          "animatorTriggerOnLanded": "",
          "battouOnStart": true
        },
        "Eula_ElementalArt_Burst_AS": {
          "$type": "KBOPIKLCBOA",
          "animatorStates": {
            "Eula_ElementalArt_Burst_AS": [
              "Audio_Lady_Claymore_Eula_ElementalArt_Burst_AS",
              "Interaction_Bad",
              "Emo_Avatar_Eula_ElementalArt_Charge_AS"
            ]
          },
          "MOKBIKEEHMJ": "combatMove",
          "canDoSkill": true,
          "resetAnimatorTriggerOnExit": ["BeHit", "DoSkill", "Jump"],
          "setAnimatorBoolean": [
            {
              "name": "&CanUseSkill"
            }
          ],
          "cameraType": "combatNormal",
          "canChangeAvatar": [
            {
              "normalizeStart": 0.10000000149011612
            }
          ],
          "animatorTriggerOnLanded": "",
          "battouOnStart": true
        },
        "Eula_ElementalBurst": {
          "$type": "KBOPIKLCBOA",
          "animatorStates": {
            "Eula_ElementalBurst": [
              "Eula_ElementalBurst",
              "Audio_Lady_Claymore_Eula_ElementalBurst"
            ]
          },
          "MOKBIKEEHMJ": "combatMove",
          "addEndure": 0.0,
          "resetAnimatorTriggerOnExit": ["BeHit"],
          "jumpCancelEnd": -1.0,
          "sprintCancelEnd": -1.0,
          "animatorTriggerOnLanded": "",
          "battouOnStart": true
        },
        "Eula_ElementalBurst_AS": {
          "$type": "KBOPIKLCBOA",
          "animatorStates": {
            "Eula_ElementalBurst_AS": [
              "Audio_Lady_Claymore_Eula_ElementalBurst_AS"
            ]
          },
          "MOKBIKEEHMJ": "combatMove",
          "canDoSkill": true,
          "resetAnimatorTriggerOnExit": ["BeHit", "Jump", "DoSkill"],
          "setAnimatorBoolean": [
            {
              "name": "&CanUseSkill"
            },
            {
              "name": "&CanCancelSkill"
            }
          ],
          "canChangeAvatar": [{}],
          "animatorTriggerOnLanded": "",
          "sheatheOnEnd": true
        },
        "FallingAnthem_BS": {
          "$type": "KBOPIKLCBOA",
          "animatorStates": {
            "FallingAnthem_BS_1": [
              "Audio_Lady_Claymore_Eula_FallingAnthem_BS_1",
              "Emo_Lady_Claymore_FallingAttack_BS_01"
            ],
            "FallingAnthem_BS_2": ["Emo_Lady_Claymore_FallingAttack_BS_02"]
          },
          "MOKBIKEEHMJ": "combatAir",
          "addEndure": 0.0,
          "resetAnimatorTriggerOnExit": ["BeHit", "DoSkill", "Jump"],
          "cameraType": "combatNormal",
          "actionPanelState": "Fly",
          "equipReattach": [
            {
              "equip": "equip01",
              "targetPoint": "WeaponR"
            }
          ],
          "jumpCancelEnd": -1.0,
          "animatorTriggerOnLanded": "HitAir2HitDrop",
          "battouOnStart": true
        },
        "FallingAnthem_Loop": {
          "$type": "KBOPIKLCBOA",
          "animatorStates": {
            "FallingAnthem_Loop": [],
            "FallingAnthem_Loop_Low": []
          },
          "MOKBIKEEHMJ": "combatAir",
          "addEndure": 0.0,
          "resetAnimatorTriggerOnExit": ["BeHit", "DoSkill", "Jump"],
          "actionPanelState": "Fly",
          "equipReattach": [
            {
              "equip": "equip01",
              "targetPoint": "WeaponR"
            }
          ],
          "animatorTriggerOnLanded": "HitAir2HitDrop",
          "battouOnStart": true
        },
        "FallingAnthem_AS_1": {
          "$type": "KBOPIKLCBOA",
          "animatorStates": {
            "FallingAnthem_AS_1": [
              "Eula_FallingAnthem_Strike",
              "Interaction_Bad",
              "Audio_Lady_Claymore_Eula_FallingAnthem_AS_1",
              "Emo_Lady_Claymore_FallingAttack_AS_01"
            ]
          },
          "MOKBIKEEHMJ": "combatMove",
          "canDoSkill": true,
          "resetAnimatorTriggerOnExit": ["BeHit", "DoSkill", "Jump"],
          "setAnimatorBoolean": [
            {
              "name": "&CanUseSkill",
              "normalizeStart": 0.550000011920929
            }
          ],
          "equipReattach": [
            {
              "equip": "equip01",
              "targetPoint": "WeaponR"
            }
          ],
          "jumpCancelEnd": -1.0,
          "animatorTriggerOnLanded": "",
          "battouOnStart": true
        },
        "FallingAnthem_AS_2": {
          "$type": "KBOPIKLCBOA",
          "animatorStates": {
            "FallingAnthem_AS_2": [
              "Audio_Lady_Claymore_Eula_FallingAnthem_AS_2",
              "Emo_Lady_Claymore_FallingAttack_AS_02"
            ]
          },
          "MOKBIKEEHMJ": "combatMove",
          "canDoSkill": true,
          "resetAnimatorTriggerOnExit": ["BeHit", "DoSkill", "Jump"],
          "setAnimatorBoolean": [
            {
              "name": "&CanUseSkill"
            }
          ],
          "canChangeAvatar": [{}],
          "equipReattach": [
            {
              "equip": "equip01",
              "targetPoint": "WeaponR"
            }
          ],
          "jumpCancelStart": 0.10000000149011612,
          "animatorTriggerOnLanded": "",
          "battouOnStart": true
        },
        "Sit": {
          "$type": "KBOPIKLCBOA",
          "animatorStates": {
            "SitDown": ["Audio_Girl_SitDown", "Audio_Lady_Eula_Sit"],
            "SitLoop": [],
            "SitUp": ["Audio_Girl_SitDown", "Audio_Lady_Eula_Sit"]
          },
          "MOKBIKEEHMJ": "performMove",
          "massRatio": 100.0,
          "actionPanelState": "Perform",
          "animatorTriggerOnLanded": "",
          "sheatheOnStart": true
        },
        "SitB": {
          "$type": "KBOPIKLCBOA",
          "animatorStates": {
            "SitBDown": ["Audio_Girl_SitDown", "Audio_Lady_Eula_Sit"],
            "SitBLoop": [],
            "SitBUp": ["Audio_Girl_SitDown", "Audio_Lady_Eula_Sit"]
          },
          "MOKBIKEEHMJ": "performMove",
          "massRatio": 100.0,
          "actionPanelState": "Perform",
          "animatorTriggerOnLanded": "",
          "sheatheOnStart": true
        },
        "StandbyShow": {
          "$type": "KBOPIKLCBOA",
          "animatorStates": {
            "StandbyVoice": ["Audio_Lady_StandbyVoice"],
            "StandbyShow_01": [
              "Manekin_Eula_Show01",
              "Audio_Lady_Claymore_Eula_StandbyShow01_SFX"
            ],
            "StandbyShow_02": [
              "Manekin_Eula_Show02",
              "Audio_Lady_Claymore_Eula_StandbyShow02_SFX"
            ]
          },
          "MOKBIKEEHMJ": "performMove",
          "canDoSkill": true,
          "massRatio": 100.0,
          "setAnimatorBoolean": [
            {
              "name": "&CanUseSkill"
            }
          ],
          "canChangeAvatar": [{}],
          "animatorTriggerOnLanded": "",
          "sheatheOnStart": true
        },
        "TakePhotos": {
          "$type": "KBOPIKLCBOA",
          "animatorStates": {
            "Think01BS": [],
            "Akimbo02BS": [],
            "Think01Loop": [],
            "Akimbo02Loop": [],
            "Think01AS": [],
            "Akimbo02AS": []
          },
          "animatorTriggerOnLanded": ""
        },
        "Channel_BS": {
          "$type": "KBOPIKLCBOA",
          "animatorStates": {
            "ChannelBS": ["Emo_Avatar_Common_Manekin_Default"]
          },
          "MOKBIKEEHMJ": "combatMove",
          "canDoSkill": true,
          "massRatio": 100.0,
          "resetAnimatorTriggerOnExit": ["BeHit", "DoSkill", "Jump"],
          "setAnimatorBoolean": [
            {
              "name": "&CanUseSkill"
            }
          ],
          "canChangeAvatar": [{}],
          "animatorTriggerOnLanded": "",
          "sheatheOnStart": true
        },
        "Channel_Loop": {
          "$type": "KBOPIKLCBOA",
          "animatorStates": {
            "ChannelLoop": []
          },
          "MOKBIKEEHMJ": "combatMove",
          "canDoSkill": true,
          "massRatio": 100.0,
          "resetAnimatorTriggerOnExit": ["BeHit", "DoSkill", "Jump"],
          "setAnimatorBoolean": [
            {
              "name": "&CanUseSkill"
            }
          ],
          "canChangeAvatar": [{}],
          "animatorTriggerOnLanded": "",
          "sheatheOnStart": true
        },
        "Channel_AS": {
          "$type": "KBOPIKLCBOA",
          "animatorStates": {
            "ChannelAS": []
          },
          "MOKBIKEEHMJ": "combatMove",
          "canDoSkill": true,
          "massRatio": 100.0,
          "resetAnimatorTriggerOnExit": ["BeHit", "DoSkill", "Jump"],
          "setAnimatorBoolean": [
            {
              "name": "&CanUseSkill"
            }
          ],
          "canChangeAvatar": [{}],
          "animatorTriggerOnLanded": "",
          "sheatheOnStart": true
        },
        "PlayMusic_Lyre": {
          "$type": "KBOPIKLCBOA",
          "animatorStates": {
            "PlayMusic_Lyre_BS": [
              "PlayMusic_Lyre_Lady",
              "Audio_Char_Common_PlayMusic_Lyrc_BS"
            ],
            "PlayMusic_Lyre_Loop": ["PlayMusic_Lyre_Lady_Loop"]
          },
          "MOKBIKEEHMJ": "combatMove",
          "massRatio": 100.0,
          "resetAnimatorTriggerOnExit": ["BeHit", "DoSkill", "Jump"],
          "animatorTriggerOnLanded": "",
          "sheatheOnStart": true
        },
        "PlayMusic_Lyre_AS": {
          "$type": "KBOPIKLCBOA",
          "animatorStates": {
            "PlayMusic_Lyre_AS": [
              "PlayMusic_Lyre_Lady_AS",
              "Audio_Char_Common_PlayMusic_Lyrc_AS"
            ]
          },
          "MOKBIKEEHMJ": "combatMove",
          "canDoSkill": true,
          "massRatio": 100.0,
          "resetAnimatorTriggerOnExit": ["BeHit", "DoSkill", "Jump"],
          "setAnimatorBoolean": [
            {
              "name": "&CanUseSkill"
            }
          ],
          "canChangeAvatar": [{}],
          "animatorTriggerOnLanded": "",
          "sheatheOnStart": true
        },
        "PlayMusic_Qin": {
          "$type": "KBOPIKLCBOA",
          "animatorStates": {
            "PlayMusic_Qin_BS": ["PlayMusic_Qin_Lady"],
            "PlayMusic_Qin_Loop": ["PlayMusic_Qin_Lady_Loop"]
          },
          "MOKBIKEEHMJ": "combatMove",
          "massRatio": 100.0,
          "resetAnimatorTriggerOnExit": ["BeHit", "DoSkill", "Jump"],
          "animatorTriggerOnLanded": "",
          "sheatheOnStart": true
        },
        "PlayMusic_Qin_AS": {
          "$type": "KBOPIKLCBOA",
          "animatorStates": {
            "PlayMusic_Qin_AS": ["PlayMusic_Qin_Lady_AS"]
          },
          "MOKBIKEEHMJ": "combatMove",
          "canDoSkill": true,
          "massRatio": 100.0,
          "resetAnimatorTriggerOnExit": ["BeHit", "DoSkill", "Jump"],
          "setAnimatorBoolean": [
            {
              "name": "&CanUseSkill"
            }
          ],
          "canChangeAvatar": [{}],
          "animatorTriggerOnLanded": "",
          "sheatheOnStart": true
        },
        "PlayMusic_Drum": {
          "$type": "KBOPIKLCBOA",
          "animatorStates": {
            "PlayMusic_Drum_BS": ["PlayMusic_Drum_Lady"],
            "PlayMusic_Drum_Loop": ["PlayMusic_Drum_Lady_Loop"]
          },
          "MOKBIKEEHMJ": "combatMove",
          "massRatio": 100.0,
          "resetAnimatorTriggerOnExit": ["BeHit", "DoSkill", "Jump"],
          "animatorTriggerOnLanded": "",
          "sheatheOnStart": true
        },
        "PlayMusic_Drum_AS": {
          "$type": "KBOPIKLCBOA",
          "animatorStates": {
            "PlayMusic_Drum_AS": ["PlayMusic_Drum_Lady_AS"]
          },
          "MOKBIKEEHMJ": "combatMove",
          "canDoSkill": true,
          "massRatio": 100.0,
          "resetAnimatorTriggerOnExit": ["BeHit", "DoSkill", "Jump"],
          "setAnimatorBoolean": [
            {
              "name": "&CanUseSkill"
            }
          ],
          "canChangeAvatar": [{}],
          "animatorTriggerOnLanded": "",
          "sheatheOnStart": true
        },
        "PlayMusic_FrenchHorn": {
          "$type": "KBOPIKLCBOA",
          "animatorStates": {
            "PlayMusic_FrenchHorn_BS": ["PlayMusic_Frenchhorn_Lady"],
            "PlayMusic_FrenchHorn_Loop": ["PlayMusic_Frenchhorn_Lady_Loop"]
          },
          "MOKBIKEEHMJ": "combatMove",
          "massRatio": 100.0,
          "resetAnimatorTriggerOnExit": ["BeHit", "DoSkill", "Jump"],
          "animatorTriggerOnLanded": "",
          "sheatheOnStart": true
        },
        "PlayMusic_FrenchHorn_AS": {
          "$type": "KBOPIKLCBOA",
          "animatorStates": {
            "PlayMusic_FrenchHorn_AS": ["PlayMusic_Frenchhorn_Lady_AS"]
          },
          "MOKBIKEEHMJ": "combatMove",
          "canDoSkill": true,
          "massRatio": 100.0,
          "resetAnimatorTriggerOnExit": ["BeHit", "DoSkill", "Jump"],
          "setAnimatorBoolean": [
            {
              "name": "&CanUseSkill"
            }
          ],
          "canChangeAvatar": [{}],
          "animatorTriggerOnLanded": "",
          "sheatheOnStart": true
        },
        "ActivitySkill_ElectricCoreFly": {
          "$type": "KBOPIKLCBOA",
          "animatorStates": {
            "ActivitySkill_ElectricCoreFly": []
          },
          "MOKBIKEEHMJ": "combatAir",
          "massRatio": 100.0,
          "resetAnimatorTriggerOnEnter": ["ElectricCoreFly_End"],
          "resetAnimatorTriggerOnExit": [
            "BeHit",
            "DoSkill",
            "Jump",
            "ElectricCoreFly_End"
          ],
          "animatorTriggerOnLanded": "",
          "sheatheOnStart": true
        },
        "ActivitySkill_GrapplingHook": {
          "$type": "KBOPIKLCBOA",
          "animatorStates": {
            "ActivitySkill_GrapplingHook": []
          },
          "MOKBIKEEHMJ": "combatAir",
          "massRatio": 100.0,
          "resetAnimatorTriggerOnEnter": ["GrapplingHook_Drop"],
          "resetAnimatorTriggerOnExit": [
            "BeHit",
            "DoSkill",
            "Jump",
            "GrapplingHook_Drop"
          ],
          "animatorTriggerOnLanded": "",
          "sheatheOnStart": true
        },
        "ActivitySkill_CustomSkill01": {
          "$type": "KBOPIKLCBOA",
          "animatorStates": {
            "ActivitySkill_CustomSkill01": []
          },
          "MOKBIKEEHMJ": "combatAir",
          "canDoSkill": true,
          "massRatio": 100.0,
          "resetAnimatorTriggerOnEnter": [
            "CustomSkill_End_Fly",
            "CustomSkill_End_Drop"
          ],
          "resetAnimatorTriggerOnExit": [
            "BeHit",
            "DoSkill",
            "Jump",
            "CustomSkill_End_Fly",
            "CustomSkill_End_Drop"
          ],
          "animatorTriggerOnLanded": "",
          "sheatheOnStart": true
        },
        "ActivitySkill_CustomSkill02": {
          "$type": "KBOPIKLCBOA",
          "animatorStates": {
            "ActivitySkill_CustomSkill02": []
          },
          "MOKBIKEEHMJ": "combatAir",
          "canDoSkill": true,
          "massRatio": 100.0,
          "resetAnimatorTriggerOnEnter": [
            "CustomSkill_End_Fly",
            "CustomSkill_End_Drop"
          ],
          "resetAnimatorTriggerOnExit": [
            "BeHit",
            "DoSkill",
            "Jump",
            "CustomSkill_End_Fly",
            "CustomSkill_End_Drop"
          ],
          "animatorTriggerOnLanded": "",
          "sheatheOnStart": true
        },
        "ActivitySkill_CommonMove": {
          "$type": "KBOPIKLCBOA",
          "animatorStates": {
            "ActivitySkill_CommonMove": []
          },
          "addEndure": 0.0,
          "massRatio": 100.0,
          "resetAnimatorTriggerOnExit": ["BeHit", "DoSkill", "Jump"],
          "enableBoneFollowMove": true,
          "jumpCancelStart": -1.0,
          "sprintCancelStart": -1.0,
          "animatorTriggerOnLanded": "",
          "sheatheOnStart": true
        },
        "DiveChannel_BS": {
          "$type": "KBOPIKLCBOA",
          "animatorStates": {
            "DiveChannelBS": [
              "Emo_Avatar_Common_Manekin_Default",
              "Audio_Lady_DiveChannel_BS"
            ]
          },
          "MOKBIKEEHMJ": "combatDive",
          "massRatio": 100.0,
          "resetAnimatorTriggerOnExit": ["BeHit", "DoSkill", "Jump"],
          "setAnimatorBoolean": [
            {
              "name": "&CanUseSkill"
            }
          ],
          "canChangeAvatar": [{}],
          "actionPanelState": "Dive",
          "sprintCancelEnd": -1.0,
          "animatorTriggerOnLanded": "",
          "sheatheOnStart": true
        },
        "DiveChannel_Loop": {
          "$type": "KBOPIKLCBOA",
          "animatorStates": {
            "DiveChannelLoop": []
          },
          "MOKBIKEEHMJ": "combatDive",
          "massRatio": 100.0,
          "resetAnimatorTriggerOnExit": ["BeHit", "DoSkill", "Jump"],
          "setAnimatorBoolean": [
            {
              "name": "&CanUseSkill"
            }
          ],
          "canChangeAvatar": [{}],
          "actionPanelState": "Dive",
          "sprintCancelEnd": -1.0,
          "animatorTriggerOnLanded": "",
          "sheatheOnStart": true
        },
        "DiveChannel_AS": {
          "$type": "KBOPIKLCBOA",
          "animatorStates": {
            "DiveChannelAS": ["Audio_Lady_DiveChannel_AS"]
          },
          "MOKBIKEEHMJ": "combatDive",
          "canDoSkill": true,
          "canDoSkillStart": 0.30000001192092896,
          "massRatio": 100.0,
          "resetAnimatorTriggerOnExit": ["BeHit", "DoSkill", "Jump"],
          "setAnimatorBoolean": [
            {
              "name": "&CanUseSkill"
            }
          ],
          "canChangeAvatar": [{}],
          "actionPanelState": "Dive",
          "sprintCancelStart": 0.11999999731779099,
          "animatorTriggerOnLanded": "",
          "sheatheOnStart": true
        },
        "DiveCast_BS": {
          "$type": "KBOPIKLCBOA",
          "animatorStates": {
            "DiveCast_BS": [
              "Emo_Avatar_Common_Manekin_Default",
              "Audio_Lady_DiveCast_BS"
            ]
          },
          "MOKBIKEEHMJ": "combatDive",
          "massRatio": 100.0,
          "resetAnimatorTriggerOnExit": ["BeHit", "DoSkill", "Jump"],
          "setAnimatorBoolean": [
            {
              "name": "&CanUseSkill"
            }
          ],
          "canChangeAvatar": [{}],
          "actionPanelState": "Dive",
          "sprintCancelEnd": -1.0,
          "animatorTriggerOnLanded": "",
          "sheatheOnStart": true
        },
        "DiveCast_Loop": {
          "$type": "KBOPIKLCBOA",
          "animatorStates": {
            "DiveCast_Loop": []
          },
          "MOKBIKEEHMJ": "combatDive",
          "massRatio": 100.0,
          "resetAnimatorTriggerOnExit": ["BeHit", "DoSkill", "Jump"],
          "setAnimatorBoolean": [
            {
              "name": "&CanUseSkill"
            }
          ],
          "canChangeAvatar": [{}],
          "actionPanelState": "Dive",
          "sprintCancelEnd": -1.0,
          "animatorTriggerOnLanded": "",
          "sheatheOnStart": true
        },
        "DiveCast_AS": {
          "$type": "KBOPIKLCBOA",
          "animatorStates": {
            "DiveCast_AS": ["Audio_Lady_DiveCast_AS"]
          },
          "MOKBIKEEHMJ": "combatDive",
          "canDoSkill": true,
          "canDoSkillStart": 0.10000000149011612,
          "massRatio": 100.0,
          "resetAnimatorTriggerOnExit": ["BeHit", "DoSkill", "Jump"],
          "setAnimatorBoolean": [
            {
              "name": "&CanUseSkill"
            }
          ],
          "canChangeAvatar": [{}],
          "actionPanelState": "Dive",
          "sprintCancelStart": 0.09000000357627869,
          "animatorTriggerOnLanded": "",
          "sheatheOnStart": true
        },
        "Dive": {
          "$type": "KBOPIKLCBOA",
          "animatorStates": {
            "DiveIdle": [],
            "DiveMoveBS": ["Audio_Lady_Dive_MoveBS"],
            "DiveMoveAS": ["Audio_Lady_Dive_MoveAS"],
            "DiveMoveU_A": ["Audio_Lady_Dive_MoveU_A"],
            "DiveMoveU_B": ["Audio_Lady_Dive_MoveU_B"],
            "DiveMoveF_A": [],
            "DiveMoveF_B": ["Audio_Lady_Dive_MoveF_B"],
            "DiveMoveD_A": ["Audio_Lady_Dive_MoveD_A"],
            "DiveMoveD_B": ["Audio_Lady_Dive_MoveD_B"],
            "DiveTurn": ["Audio_Lady_Dive_Turn"],
            "DiveTurnAS": ["Audio_Lady_Dive_Turn_AS"],
            "DiveTurn2": ["Audio_Lady_Dive_Turn"],
            "DiveTurnAS2": ["Audio_Lady_Dive_Turn_AS"],
            "DiveDashBS": ["Audio_Lady_Dive_Dash_BS"],
            "DiveDashAS": ["Audio_Lady_Dive_Dash_AS"],
            "DiveDash": [],
            "DiveDashB": ["Audio_Lady_Dive_Out_DashB"],
            "DiveSuperDash": ["Audio_Lady_Dive_SuperDash"],
            "DiveSuperDash2": ["Audio_Lady_Dive_SuperDash2"]
          },
          "canDoSkill": true,
          "resetAnimatorTriggerOnEnter": ["DoSkill"],
          "setAnimatorBoolean": [
            {
              "name": "&CanUseSkill"
            }
          ],
          "canChangeAvatar": [{}],
          "actionPanelState": "Dive",
          "animatorTriggerOnLanded": "",
          "sheatheOnStart": true
        },
        "Dive_In_Out": {
          "$type": "KBOPIKLCBOA",
          "animatorStates": {
            "Dive_In_Up": ["Audio_Lady_Dive_In_Up"],
            "Dive_In_Side": ["Audio_Lady_Dive_In_Side"],
            "Dive_In_Bottom": ["Audio_Lady_Dive_In_Bottom"],
            "Dive_Out_Side": ["Audio_Lady_Dive_Out_Side"],
            "Dive_Out_Bottom": ["Audio_Lady_Dive_Out_Bottom"],
            "Dive_Out_Up": ["Audio_Lady_Dive_Out_Up"]
          },
          "resetAnimatorTriggerOnEnter": ["DoSkill"],
          "setAnimatorBoolean": [
            {
              "name": "&CanUseSkill"
            }
          ],
          "actionPanelState": "Dive",
          "animatorTriggerOnLanded": "",
          "sheatheOnStart": true
        },
        "DiveStream": {
          "$type": "KBOPIKLCBOA",
          "animatorStates": {
            "DiveStreamIn": ["Audio_Lady_Dive_Stream_In"],
            "DiveStreamOut": ["Audio_Lady_Dive_Stream_Out"],
            "DiveStream": [],
            "DiveStreamRoll_L": ["Audio_Lady_Dive_Stream_Roll_L"],
            "DiveStreamRoll_R": ["Audio_Lady_Dive_Stream_Roll_R"]
          },
          "canDoSkill": true,
          "resetAnimatorTriggerOnEnter": ["DoSkill"],
          "setAnimatorBoolean": [
            {
              "name": "&CanUseSkill"
            }
          ],
          "actionPanelState": "Dive",
          "animatorTriggerOnLanded": "",
          "sheatheOnStart": true
        },
        "DiveJump": {
          "$type": "KBOPIKLCBOA",
          "animatorStates": {
            "Dive_Out_DashU": ["Audio_Lady_Dive_Out_DashU"],
            "Dive_Out_DashD": ["Audio_Lady_Dive_Out_DashD"],
            "Dive_Out_DashFBS": ["Audio_Lady_Dive_Out_DashFBS"],
            "Dive_Out_DashFAS": ["Audio_Lady_Dive_Out_DashFAS"],
            "Dive_Out_DashFLoop": []
          },
          "canDoSkill": true,
          "resetAnimatorTriggerOnEnter": ["DoSkill", "AimEnd"],
          "setAnimatorBoolean": [
            {
              "name": "&CanUseAirSkill"
            }
          ],
          "actionPanelState": "Jump",
          "animatorTriggerOnLanded": "",
          "sheatheOnStart": true
        },
        "BeHitDive": {
          "$type": "KBOPIKLCBOA",
          "animatorStates": {
            "BeHitDive": ["Audio_Lady_Dive_beHit"],
            "DiveStruggle": []
          },
          "MOKBIKEEHMJ": "combatDive",
          "resetAnimatorTriggerOnEnter": ["BeHit"],
          "resetAnimatorTriggerOnExit": ["DoSkill"],
          "cameraType": "combatBeHit",
          "actionPanelState": "Dive",
          "jumpCancelEnd": 0.0,
          "animatorTriggerOnLanded": "",
          "sheatheOnStart": true
        },
        "MultiOverride_01": {
          "$type": "KBOPIKLCBOA",
          "animatorStates": {
            "MultiOverrideBS_01": [],
            "MultiOverrideLoop_01": [],
            "MultiOverrideAS_01": []
          },
          "animatorTriggerOnLanded": ""
        },
        "MultiOverride2": {
          "$type": "KBOPIKLCBOA",
          "animatorStates": {
            "MultiOverrideBS_02": [],
            "MultiOverrideLoop_02": [],
            "MultiOverrideAS_02": []
          },
          "animatorTriggerOnLanded": ""
        },
        "MultiOverride3": {
          "$type": "KBOPIKLCBOA",
          "animatorStates": {
            "MultiOverrideBS_03": [],
            "MultiOverrideLoop_03": [],
            "MultiOverrideAS_03": []
          },
          "animatorTriggerOnLanded": ""
        },
        "MultiOverride": {
          "$type": "KBOPIKLCBOA",
          "INKINKDHODO": {
            "Ani_Avatar_Lady_Claymore_Eula_Photo01BS": [],
            "Ani_Avatar_Lady_Claymore_Eula_Photo01Loop": [],
            "Ani_Avatar_Lady_Claymore_Eula_Photo01AS": [],
            "Ani_Avatar_Lady_Claymore_Eula_Photo02BS": [],
            "Ani_Avatar_Lady_Claymore_Eula_Photo02Loop": [],
            "Ani_Avatar_Lady_Claymore_Eula_Photo02AS": []
          },
          "animatorTriggerOnLanded": ""
        }
      }
    },
    "diveLayer": {
      "$type": "GBGJJIIEMBD",
      "layerIndex": 6,
      "layerIndexName": "DiveLayer",
      "CPAANEIJCGD": ""
    }
  },
  "DADEGCDMOBD": false,
  "audio": {
    "overrideEmitterName": "",
    "animAudio": {
      "onTransitionIn": [
        {
          "currentStateName": "ExtraAttack1",
          "audioEvent": {
            "text": "Play_sfx_char_eula_claymore_extraAttack1"
          }
        },
        {
          "currentStateName": "NormalDie",
          "audioEvent": {
            "text": "Play_sfx_char_land"
          },
          "otherStateNames": ["FallOnGround"],
          "usage": "InSet"
        },
        {
          "currentStateName": "SlipFaceWall",
          "audioEvent": {
            "text": "Play_sfx_char_slipWall"
          }
        },
        {
          "currentStateName": "SlipBackWall",
          "audioEvent": {
            "text": "Play_sfx_char_slipWall"
          }
        },
        {
          "currentStateName": "SwimJumpToWater",
          "audioEvent": {
            "text": "Stop_sfx_char_swim_dive"
          }
        },
        {
          "currentStateName": "SwimDash",
          "audioEvent": {
            "text": "Play_sfx_char_swim_dash"
          }
        },
        {
          "currentStateName": "Standby",
          "audioEvent": {
            "text": "Stop_sfx_char_fly"
          }
        },
        {
          "currentStateName": "SprintBS",
          "audioEvent": {
            "text": "Play_sfx_char_foley_flutter_heavy"
          }
        },
        {
          "currentStateName": "CrouchIdle",
          "audioEvent": {
            "text": "Play_sfx_char_foley_cloth_middle"
          }
        },
        {
          "currentStateName": "DiveDash",
          "audioEvent": {
            "text": "Play_sfx_char_dive_dash_lp"
          },
          "otherStateNames": ["DiveDashBS"],
          "usage": "InSet"
        },
        {
          "currentStateName": "DiveStream",
          "audioEvent": {
            "text": "Play_sfx_char_dive_stream_lp"
          }
        },
        {
          "currentStateName": "Dive_Out_DashFLoop",
          "audioEvent": {
            "text": "Play_sfx_char_dive_out_dashFLoop"
          }
        },
        {
          "currentStateName": "DiveMoveF_A",
          "audioEvent": {
            "text": "Play_sfx_char_dive_moveF_A"
          }
        },
        {
          "currentStateName": "DiveChannel_Loop",
          "audioEvent": {
            "text": "Play_vfx_Avatar_Diving_Channel_LP"
          }
        }
      ],
      "onTransitionOut": [
        {
          "currentStateName": "Attack1",
          "audioEvent": {
            "text": "Stop_sfx_char_eula_claymore_attack"
          }
        },
        {
          "currentStateName": "Attack2",
          "audioEvent": {
            "text": "Stop_sfx_char_eula_claymore_attack"
          }
        },
        {
          "currentStateName": "Attack3",
          "audioEvent": {
            "text": "Stop_sfx_char_eula_claymore_attack"
          }
        },
        {
          "currentStateName": "Attack4",
          "audioEvent": {
            "text": "Stop_sfx_char_eula_claymore_attack"
          }
        },
        {
          "currentStateName": "Attack5",
          "audioEvent": {
            "text": "Stop_sfx_char_eula_claymore_attack"
          }
        },
        {
          "currentStateName": "ExtraAttack",
          "audioEvent": {
            "text": "Stop_sfx_char_eula_claymore_extraAttack"
          }
        },
        {
          "currentStateName": "ExtraAttack1",
          "audioEvent": {
            "text": "Stop_sfx_char_eula_claymore_extraAttack1"
          }
        },
        {
          "currentStateName": "ExtraAttack2",
          "audioEvent": {
            "text": "Stop_sfx_char_eula_claymore_extraAttack2"
          }
        },
        {
          "currentStateName": "ExtraAttack3",
          "audioEvent": {
            "text": "Stop_sfx_char_eula_claymore_extraAttack3"
          }
        },
        {
          "currentStateName": "FallingAnthem_AS_2",
          "audioEvent": {
            "text": "Stop_sfx_char_claymore_fallingAnthem_AS"
          }
        },
        {
          "currentStateName": "StandbyShow_02",
          "audioEvent": {
            "text": "Stop_sfx_standbyShow_eula_crystal"
          }
        },
        {
          "currentStateName": "StandbyPutaway",
          "audioEvent": {
            "text": "Stop_sfx_char_beidou_claymore_Putaway"
          }
        },
        {
          "currentStateName": "WalkPutaway",
          "audioEvent": {
            "text": "Stop_sfx_weapon_1HSword_lady_putAwayStandby"
          }
        },
        {
          "currentStateName": "RunPutaway",
          "audioEvent": {
            "text": "Stop_sfx_weapon_1HSword_lady_putAwayStandby"
          }
        },
        {
          "currentStateName": "SwimJumpDrop",
          "audioEvent": {
            "text": "Stop_sfx_char_swim_drop"
          }
        },
        {
          "currentStateName": "SwimJump",
          "audioEvent": {
            "text": "Stop_sfx_char_swim_drop"
          },
          "otherStateNames": ["SwimJumpDrop"],
          "usage": "Except"
        },
        {
          "currentStateName": "Fly",
          "audioEvent": {
            "text": "Play_sfx_char_land_climb"
          },
          "otherStateNames": [
            "ClimbIdle",
            "ClimbMove0",
            "ClimbMove1",
            "ClimbJump"
          ],
          "usage": "InSet"
        },
        {
          "currentStateName": "FlyStart",
          "audioEvent": {
            "text": "Play_sfx_char_land_climb"
          },
          "otherStateNames": [
            "ClimbIdle",
            "ClimbMove0",
            "ClimbMove1",
            "ClimbJump"
          ],
          "usage": "InSet"
        },
        {
          "currentStateName": "DropDownLit",
          "audioEvent": {
            "text": "Play_sfx_char_land_climb"
          },
          "otherStateNames": [
            "ClimbIdle",
            "ClimbMove0",
            "ClimbMove1",
            "ClimbJump"
          ],
          "usage": "InSet"
        },
        {
          "currentStateName": "DropDown",
          "audioEvent": {
            "text": "Play_sfx_char_land_climb"
          },
          "otherStateNames": [
            "ClimbIdle",
            "ClimbMove0",
            "ClimbMove1",
            "ClimbJump"
          ],
          "usage": "InSet"
        },
        {
          "currentStateName": "WalkDropDownLit",
          "audioEvent": {
            "text": "Play_sfx_char_land_climb"
          },
          "otherStateNames": [
            "ClimbIdle",
            "ClimbMove0",
            "ClimbMove1",
            "ClimbJump"
          ],
          "usage": "InSet"
        },
        {
          "currentStateName": "Jump",
          "audioEvent": {
            "text": "Play_sfx_char_land_climb"
          },
          "otherStateNames": [
            "ClimbIdle",
            "ClimbMove0",
            "ClimbMove1",
            "ClimbJump"
          ],
          "usage": "InSet"
        },
        {
          "currentStateName": "JumpForWalk",
          "audioEvent": {
            "text": "Play_sfx_char_land_climb"
          },
          "otherStateNames": [
            "ClimbIdle",
            "ClimbMove0",
            "ClimbMove1",
            "ClimbJump"
          ],
          "usage": "InSet"
        },
        {
          "currentStateName": "JumpForRun",
          "audioEvent": {
            "text": "Play_sfx_char_land_climb"
          },
          "otherStateNames": [
            "ClimbIdle",
            "ClimbMove0",
            "ClimbMove1",
            "ClimbJump"
          ],
          "usage": "InSet"
        },
        {
          "currentStateName": "JumpForSprint",
          "audioEvent": {
            "text": "Play_sfx_char_land_climb"
          },
          "otherStateNames": [
            "ClimbIdle",
            "ClimbMove0",
            "ClimbMove1",
            "ClimbJump"
          ],
          "usage": "InSet"
        },
        {
          "currentStateName": "JumpWeapon",
          "audioEvent": {
            "text": "Play_sfx_char_land_climb"
          },
          "otherStateNames": [
            "ClimbIdle",
            "ClimbMove0",
            "ClimbMove1",
            "ClimbJump"
          ],
          "usage": "InSet"
        },
        {
          "currentStateName": "JumpForWalkWeapon",
          "audioEvent": {
            "text": "Play_sfx_char_land_climb"
          },
          "otherStateNames": [
            "ClimbIdle",
            "ClimbMove0",
            "ClimbMove1",
            "ClimbJump"
          ],
          "usage": "InSet"
        },
        {
          "currentStateName": "JumpForRunWeapon",
          "audioEvent": {
            "text": "Play_sfx_char_land_climb"
          },
          "otherStateNames": [
            "ClimbIdle",
            "ClimbMove0",
            "ClimbMove1",
            "ClimbJump"
          ],
          "usage": "InSet"
        },
        {
          "currentStateName": "DropDownWeapon",
          "audioEvent": {
            "text": "Play_sfx_char_land_climb"
          },
          "otherStateNames": [
            "ClimbIdle",
            "ClimbMove0",
            "ClimbMove1",
            "ClimbJump"
          ],
          "usage": "InSet"
        },
        {
          "currentStateName": "DropDownLitWeapon",
          "audioEvent": {
            "text": "Play_sfx_char_land_climb"
          },
          "otherStateNames": [
            "ClimbIdle",
            "ClimbMove0",
            "ClimbMove1",
            "ClimbJump"
          ],
          "usage": "InSet"
        },
        {
          "currentStateName": "SwimMove",
          "audioEvent": {
            "text": "Stop_sfx_char_swim"
          }
        },
        {
          "currentStateName": "SlipFaceWall",
          "audioEvent": {
            "text": "Stop_sfx_char_drop"
          }
        },
        {
          "currentStateName": "SlipFaceWall",
          "audioEvent": {
            "text": "Stop_sfx_char_slipWall"
          }
        },
        {
          "currentStateName": "SlipBackWall",
          "audioEvent": {
            "text": "Stop_sfx_char_drop"
          }
        },
        {
          "currentStateName": "SlipBackWall",
          "audioEvent": {
            "text": "Stop_sfx_char_slipWall"
          }
        },
        {
          "currentStateName": "Fly",
          "audioEvent": {
            "text": "Stop_sfx_char_fly"
          }
        },
        {
          "currentStateName": "DiveDash",
          "audioEvent": {
            "text": "Stop_sfx_char_dive_dash_lp"
          },
          "otherStateNames": ["DiveDashB", "DiveTurn", "DiveTurn2"],
          "usage": "Except"
        },
        {
          "currentStateName": "DiveStream",
          "audioEvent": {
            "text": "Stop_sfx_char_dive_stream_lp"
          },
          "otherStateNames": ["DiveStreamRoll_L", "DiveStreamRoll_R"],
          "usage": "Except"
        },
        {
          "currentStateName": "DiveMoveAS",
          "audioEvent": {
            "text": "Stop_sfx_char_dive_move_AS"
          }
        },
        {
          "currentStateName": "Dive_Out_DashFLoop",
          "audioEvent": {
            "text": "Stop_sfx_char_dive_out_dashFLoop"
          }
        },
        {
          "currentStateName": "DiveIdle",
          "audioEvent": {
            "text": "Stop_sfx_char_dive_dash_lp"
          }
        },
        {
          "currentStateName": "Dive_Out_Up",
          "audioEvent": {
            "text": "Stop_sfx_char_dive_moveF_A"
          }
        },
        {
          "currentStateName": "DiveChannel_Loop",
          "audioEvent": {
            "text": "Stop_vfx_Avatar_Diving_Channel_LP"
          }
        },
        {
          "currentStateName": "DiveMoveU_A",
          "audioEvent": {
            "text": "Stop_sfx_char_dive_moveU_A"
          }
        },
        {
          "currentStateName": "DiveMoveF_A",
          "audioEvent": {
            "text": "Stop_sfx_char_dive_moveF_A"
          },
          "otherStateNames": ["DiveMoveF_B"],
          "usage": "Except"
        }
      ],
      "recurrentSpeeches": {
        "Standby": {
          "start": {
            "upper": 28.0,
            "lower": 23.0
          },
          "interval": {
            "upper": 40.0,
            "lower": 34.0
          },
          "eventName": {
            "text": ""
          }
        },
        "Walk": {
          "start": {
            "upper": 16.0,
            "lower": 13.0
          },
          "interval": {
            "upper": 14.0,
            "lower": 10.0
          },
          "eventName": {
            "text": ""
          }
        },
        "Run": {
          "start": {
            "upper": 13.0,
            "lower": 9.0
          },
          "interval": {
            "upper": 11.0,
            "lower": 8.0
          },
          "eventName": {
            "text": ""
          }
        },
        "Sprint": {
          "start": {
            "upper": 12.0,
            "lower": 7.0
          },
          "interval": {
            "upper": 9.0,
            "lower": 6.0
          },
          "eventName": {
            "text": ""
          }
        }
      }
    },
    "moveStateAudio": {
      "onStateBegin": [
        {
          "currentStateName": "Fly",
          "audioEvent": {
            "text": "Play_sfx_char_fly"
          }
        },
        {
          "currentStateName": "Air",
          "audioEvent": {
            "text": "Play_sfx_char_drop"
          },
          "otherStateNames": ["Fly"],
          "usage": "InSet"
        },
        {
          "currentStateName": "CombatDive",
          "audioEvent": {
            "text": "Play_sfx_char_dive_move_swim_idle"
          },
          "otherStateNames": ["Dive"],
          "usage": "Except"
        },
        {
          "currentStateName": "Dive",
          "audioEvent": {
            "text": "Play_sfx_char_dive_move_swim_idle"
          },
          "otherStateNames": ["CombatDive"],
          "usage": "Except"
        }
      ],
      "onStateEnd": [
        {
          "currentStateName": "Fly",
          "audioEvent": {
            "text": "Stop_sfx_char_fly"
          }
        },
        {
          "currentStateName": "Air",
          "audioEvent": {
            "text": "Stop_sfx_char_drop"
          }
        },
        {
          "currentStateName": "Dive",
          "audioEvent": {
            "text": "Stop_sfx_char_dive_move_swim_idle"
          },
          "otherStateNames": ["CombatDive"],
          "usage": "Except"
        },
        {
          "currentStateName": "CombatDive",
          "audioEvent": {
            "text": "Stop_sfx_char_dive_move_swim_idle"
          },
          "otherStateNames": ["Dive"],
          "usage": "Except"
        }
      ]
    },
    "voiceSwitch": {
      "text": "Switch_Eula"
    },
    "bodyTypeSwitch": {
      "text": "Switch_Lady"
    },
    "listenerLiftup": 1.5,
    "surfaceProberLiftup": 1.5
  },
  "ONIAJBGGJHD": "AvatarLady",
  "perform": {
    "standby": {
      "minTime": 10.0,
      "maxTime": 20.0,
      "performIDs": [201, 202, 200, 200]
    }
  }
}
