{
  "common": {
    "effectAttachShape": {
      "$type": "FJNPJANPGGC",
      "mesh": "EffectMesh"
    },
    "mass": 10.0,
    "height": 1.8700400590896606,
    "modelHeight": 1.8600000143051147,
    "affectedByWorld": true,
    "checkInSurface": true
  },
  "headControl": {
    "$type": "KPIPDEBDPIH",
    "useHeadControl": true,
    "animStates": [
      "NormalStandby",
      "NormalMove/WalkToRun",
      "NormalMove/Walk",
      "NormalMove/RunToWalk",
      "NormalMove/Run",
      "NormalMove/RunToIdle",
      "NormalMove/WalkToIdle",
      "NormalMove/RunningTurn",
      "NormalMove/SprintToRun",
      "NormalMove/SprintToIdle",
      "Sprint",
      "Climb/ClimbIdle",
      "Ladder/LadderIdle",
      "Swim/SwimIdle",
      "NormalStandbyWeapon",
      "NormalMoveWeapon/WalkToRunWeapon",
      "NormalMoveWeapon/WalkWeapon",
      "NormalMoveWeapon/RunToWalkWeapon",
      "NormalMoveWeapon/RunWeapon",
      "NormalMoveWeapon/RunToIdleWeapon",
      "NormalMoveWeapon/WalkToIdleWeapon",
      "NormalMoveWeapon/RunningTurnWeapon"
    ]
  },
  "specialPoint": {
    "elementAbsorb": "PRIVATE_Pendant",
    "elementPendant": "PRIVATE_Pendant",
    "elementDrop": "RootNode",
    "bulletAim": "RootNode"
  },
  "combat": {
    "property": {
      "endureType": "Avatar_Bow",
      "weight": 75.0
    },
    "beHit": {
      "hitBloodEffect": ""
    },
    "combatLock": {
      "lockShape": "CircleLockEnemyClose",
      "lockWeightYaxisParam": 0.20000000298023224,
      "lockWeightYaxisThreshold": 4.0,
      "lockType": "Avatar&Monster_Lv4"
    },
    "die": {
      "hasAnimatorDie": true,
      "dieEndTime": 1.5,
      "dieForceDisappearTime": 2.5,
      "dieDisappearEffect": "Eff_Death_Avatar_Common",
      "dieShaderData": "AvatarDie",
      "useRagDoll": true,
      "ragDollDieEndTimeDelay": 0.4000000059604645
    },
    "animEvents": {
      "Gandalfr_ATK01": {
        "attackPattern": {
          "$type": "ConfigAttackCircle",
          "triggerType": "TriggerNoRepeat",
          "born": {
            "$type": "ConfigBornBySelf",
            "offset": {
              "x": 0.0,
              "y": 0.0,
              "z": 0.800000011920929
            }
          },
          "fanAngle": 300.0,
          "radius": 1.7999999523162842
        },
        "attackInfo": {
          "attackTag": "NormalAttack_02",
          "attenuationTag": "Gandalfr_Attack",
          "attenuationGroup": "default",
          "attackProperty": {
            "actorGrassSubHurtDelta": 0.0,
            "actorWindSubHurtDelta": 0.0,
            "elementType": "Water",
            "elementDurability": 25.0,
            "strikeType": "Slash",
            "enBreak": 40.68000030517578,
            "attackType": "Melee",
            "AIGBINPINKE": 0.0,
            "actorElementReactionCriticalHurtDelta": 0.0,
            "GLKMCMDJBIK": 0.0
          },
          "hitPattern": {
            "onHitEffectName": "default",
            "hitImpulseY": "",
            "hitImpulseType": "LV3",
            "hitHaltTime": 0.029999999329447746,
            "hitHaltTimeScale": 0.009999999776482582,
            "canBeDefenceHalt": true
          },
          "cameraShake": {
            "shakeType": "CustomVector",
            "shakeRange": 0.11999999731779099,
            "shakeTime": 0.11999999731779099,
            "shakeDistance": 30.0,
            "shakeDir": {
              "x": -1.0
            }
          }
        }
      },
      "Gandalfr_ATK02": {
        "attackPattern": {
          "$type": "ConfigAttackCircle",
          "triggerType": "TriggerNoRepeat",
          "born": {
            "$type": "ConfigBornBySelf",
            "offset": {
              "x": 0.0,
              "y": 0.0,
              "z": 0.800000011920929
            }
          },
          "fanAngle": 270.0,
          "radius": 1.7999999523162842
        },
        "attackInfo": {
          "attackTag": "NormalAttack_02",
          "attenuationTag": "Gandalfr_Attack",
          "attenuationGroup": "default",
          "attackProperty": {
            "actorGrassSubHurtDelta": 0.0,
            "actorWindSubHurtDelta": 0.0,
            "elementType": "Water",
            "elementDurability": 25.0,
            "strikeType": "Slash",
            "enBreak": 43.560001373291016,
            "attackType": "Melee",
            "AIGBINPINKE": 0.0,
            "actorElementReactionCriticalHurtDelta": 0.0,
            "GLKMCMDJBIK": 0.0
          },
          "hitPattern": {
            "onHitEffectName": "default",
            "hitImpulseY": "",
            "hitImpulseType": "LV3",
            "hitHaltTime": 0.029999999329447746,
            "hitHaltTimeScale": 0.009999999776482582,
            "canBeDefenceHalt": true
          },
          "cameraShake": {
            "shakeType": "CustomVector",
            "shakeRange": 0.11999999731779099,
            "shakeTime": 0.11999999731779099,
            "shakeDistance": 30.0,
            "shakeDir": {
              "x": -1.0,
              "y": -1.0
            }
          }
        }
      },
      "Gandalfr_ATK03": {
        "attackPattern": {
          "$type": "ConfigAttackCircle",
          "triggerType": "TriggerNoRepeat",
          "born": {
            "$type": "ConfigBornBySelf",
            "offset": {
              "x": 0.0,
              "y": 0.0,
              "z": 0.6000000238418579
            }
          },
          "fanAngle": 300.0,
          "radius": 2.0
        },
        "attackInfo": {
          "attackTag": "NormalAttack_02",
          "attenuationTag": "Gandalfr_Attack",
          "attenuationGroup": "default",
          "attackProperty": {
            "actorGrassSubHurtDelta": 0.0,
            "actorWindSubHurtDelta": 0.0,
            "elementType": "Water",
            "elementDurability": 25.0,
            "strikeType": "Slash",
            "enBreak": 58.95000076293945,
            "attackType": "Melee",
            "AIGBINPINKE": 0.0,
            "actorElementReactionCriticalHurtDelta": 0.0,
            "GLKMCMDJBIK": 0.0
          },
          "hitPattern": {
            "onHitEffectName": "default",
            "hitImpulseY": "",
            "hitImpulseType": "LV3",
            "hitHaltTime": 0.05999999865889549,
            "hitHaltTimeScale": 0.009999999776482582,
            "canBeDefenceHalt": true
          },
          "cameraShake": {
            "shakeType": "CustomVector",
            "shakeRange": 0.23999999463558197,
            "shakeTime": 0.11999999731779099,
            "shakeDistance": 30.0,
            "shakeDir": {
              "x": -1.0
            }
          }
        }
      },
      "Gandalfr_ATK04": {
        "attackPattern": {
          "$type": "ConfigAttackCircle",
          "triggerType": "TriggerNoRepeat",
          "born": {
            "$type": "ConfigBornBySelf",
            "offset": {
              "x": 0.0,
              "y": 0.0,
              "z": 0.8999999761581421
            }
          },
          "fanAngle": 300.0,
          "radius": 2.0
        },
        "attackInfo": {
          "attackTag": "NormalAttack_02",
          "attenuationTag": "Gandalfr_Attack",
          "attenuationGroup": "default",
          "attackProperty": {
            "actorGrassSubHurtDelta": 0.0,
            "actorWindSubHurtDelta": 0.0,
            "elementType": "Water",
            "elementDurability": 25.0,
            "strikeType": "Slash",
            "enBreak": 62.72999954223633,
            "attackType": "Melee",
            "AIGBINPINKE": 0.0,
            "actorElementReactionCriticalHurtDelta": 0.0,
            "GLKMCMDJBIK": 0.0
          },
          "hitPattern": {
            "onHitEffectName": "default",
            "hitImpulseY": "",
            "hitImpulseType": "LV3",
            "hitHaltTime": 0.05999999865889549,
            "hitHaltTimeScale": 0.009999999776482582,
            "canBeDefenceHalt": true
          },
          "cameraShake": {
            "shakeType": "CustomVector",
            "shakeRange": 0.11999999731779099,
            "shakeTime": 0.11999999731779099,
            "shakeDistance": 30.0,
            "shakeDir": {
              "x": -1.0
            }
          }
        }
      },
      "Gandalfr_ATK05": {
        "attackPattern": {
          "$type": "ConfigAttackCircle",
          "triggerType": "TriggerNoRepeat",
          "born": {
            "$type": "ConfigBornBySelf",
            "offset": {
              "x": 0.0,
              "y": 0.0,
              "z": 0.6000000238418579
            }
          },
          "radius": 2.200000047683716
        },
        "attackInfo": {
          "attackTag": "NormalAttack_02",
          "attenuationTag": "Gandalfr_Attack",
          "attenuationGroup": "default",
          "attackProperty": {
            "actorGrassSubHurtDelta": 0.0,
            "actorWindSubHurtDelta": 0.0,
            "elementType": "Water",
            "elementDurability": 25.0,
            "strikeType": "Slash",
            "enBreak": 57.869998931884766,
            "attackType": "Melee",
            "AIGBINPINKE": 0.0,
            "actorElementReactionCriticalHurtDelta": 0.0,
            "GLKMCMDJBIK": 0.0
          },
          "hitPattern": {
            "onHitEffectName": "default",
            "hitImpulseY": "",
            "hitImpulseType": "LV3",
            "hitHaltTime": 0.05999999865889549,
            "hitHaltTimeScale": 0.009999999776482582,
            "canBeDefenceHalt": true
          },
          "cameraShake": {
            "shakeType": "CustomVector",
            "shakeRange": 0.36000001430511475,
            "shakeTime": 0.11999999731779099,
            "shakeDistance": 30.0,
            "shakeDir": {
              "x": -1.0,
              "y": -0.20000000298023224
            }
          }
        }
      },
      "Gandalfr_ATK06_1": {
        "attackPattern": {
          "$type": "ConfigAttackBox",
          "triggerType": "TriggerNoRepeat",
          "born": {
            "$type": "ConfigBornBySelf",
            "offset": {
              "x": 0.0,
              "y": 0.0,
              "z": 0.30000001192092896
            }
          },
          "size": {
            "x": 2.0,
            "y": 2.5,
            "z": 3.200000047683716
          }
        },
        "attackInfo": {
          "attackTag": "NormalAttack_02",
          "attenuationTag": "Gandalfr_Attack",
          "attenuationGroup": "default",
          "attackProperty": {
            "actorGrassSubHurtDelta": 0.0,
            "actorWindSubHurtDelta": 0.0,
            "elementType": "Water",
            "elementDurability": 25.0,
            "strikeType": "Spear",
            "enBreak": 37.08000183105469,
            "attackType": "Melee",
            "AIGBINPINKE": 0.0,
            "actorElementReactionCriticalHurtDelta": 0.0,
            "GLKMCMDJBIK": 0.0
          },
          "hitPattern": {
            "onHitEffectName": "default",
            "hitImpulseY": "",
            "hitImpulseType": "LV3",
            "hitHaltTime": 0.029999999329447746,
            "hitHaltTimeScale": 0.009999999776482582,
            "canBeDefenceHalt": true
          }
        }
      },
      "Gandalfr_ATK06_2": {
        "attackPattern": {
          "$type": "ConfigAttackCircle",
          "triggerType": "TriggerNoRepeat",
          "born": {
            "$type": "ConfigBornBySelf",
            "offset": {
              "x": 0.0,
              "y": 0.0,
              "z": 1.5
            }
          },
          "radius": 2.200000047683716
        },
        "attackInfo": {
          "attackTag": "NormalAttack_02",
          "attenuationTag": "Gandalfr_Attack",
          "attenuationGroup": "default",
          "attackProperty": {
            "actorGrassSubHurtDelta": 0.0,
            "actorWindSubHurtDelta": 0.0,
            "elementType": "Water",
            "elementDurability": 25.0,
            "strikeType": "Slash",
            "enBreak": 39.41999816894531,
            "attackType": "Melee",
            "AIGBINPINKE": 0.0,
            "actorElementReactionCriticalHurtDelta": 0.0,
            "GLKMCMDJBIK": 0.0
          },
          "hitPattern": {
            "onHitEffectName": "default",
            "hitImpulseY": "",
            "hitImpulseType": "LV6",
            "hitHaltTime": 0.11999999731779099,
            "hitHaltTimeScale": 0.009999999776482582,
            "canBeDefenceHalt": true
          },
          "cameraShake": {
            "shakeType": "CustomVector",
            "shakeRange": 0.36000001430511475,
            "shakeTime": 0.11999999731779099,
            "shakeDistance": 30.0,
            "shakeDir": {
              "x": -1.0
            }
          }
        }
      },
      "Gandalfr_ExtraAttack_1": {
        "attackPattern": {
          "$type": "ConfigAttackCircle",
          "triggerType": "TriggerNoRepeat",
          "born": {
            "$type": "ConfigBornBySelf",
            "offset": {
              "x": 0.0,
              "y": 0.0,
              "z": 0.0
            }
          },
          "radius": 2.200000047683716
        },
        "attackInfo": {
          "attackTag": "ExtraAttack",
          "attenuationTag": "ExtraAttack",
          "attenuationGroup": "default",
          "attackProperty": {
            "actorGrassSubHurtDelta": 0.0,
            "actorWindSubHurtDelta": 0.0,
            "elementType": "Water",
            "elementDurability": 25.0,
            "strikeType": "Slash",
            "enBreak": 63.0,
            "attackType": "Melee",
            "AIGBINPINKE": 0.0,
            "actorElementReactionCriticalHurtDelta": 0.0,
            "GLKMCMDJBIK": 0.0
          },
          "hitPattern": {
            "onHitEffectName": "default",
            "hitImpulseY": "",
            "hitImpulseType": "LV2",
            "hitHaltTimeScale": 0.009999999776482582
          }
        }
      },
      "Gandalfr_ExtraAttack_2": {
        "attackPattern": {
          "$type": "ConfigAttackCircle",
          "triggerType": "TriggerNoRepeat",
          "born": {
            "$type": "ConfigBornBySelf",
            "offset": {
              "x": 0.0,
              "y": 0.0,
              "z": 0.0
            }
          },
          "height": 1.5,
          "radius": 2.200000047683716
        },
        "attackInfo": {
          "attackTag": "ExtraAttack",
          "attenuationTag": "ExtraAttack",
          "attenuationGroup": "default",
          "attackProperty": {
            "actorGrassSubHurtDelta": 0.0,
            "actorWindSubHurtDelta": 0.0,
            "elementType": "Water",
            "elementDurability": 25.0,
            "strikeType": "Slash",
            "enBreak": 75.33000183105469,
            "attackType": "Melee",
            "AIGBINPINKE": 0.0,
            "actorElementReactionCriticalHurtDelta": 0.0,
            "GLKMCMDJBIK": 0.0
          },
          "hitPattern": {
            "onHitEffectName": "default",
            "hitImpulseY": "",
            "hitImpulseType": "LV6",
            "hitHaltTimeScale": 0.009999999776482582
          },
          "cameraShake": {
            "shakeType": "CustomVector",
            "shakeRange": 0.36000001430511475,
            "shakeTime": 0.15000000596046448,
            "shakeDistance": 30.0,
            "shakeDir": {
              "x": -1.0
            }
          }
        }
      }
    }
  },
  "equipController": {
    "sheathPoint": "WeaponBackPut",
    "dissolveSheathFadeDelay": 0.07500000298023224,
    "dissolveSheathFadeTime": 2.0999999046325684,
    "triggerToStates": [
      {
        "trigger": "Attack",
        "playTime": 0.15000000596046448,
        "states": ["Shoot/Tartaglia_Attack01"],
        "bowDrawTimes": [
          {
            "bowDrawStartNormTime": 0.029999999329447746,
            "bowDrawEndNormTime": 0.10999999940395355,
            "bowStringOverridePoint": ""
          }
        ],
        "floatID": ""
      },
      {
        "trigger": "Attack",
        "playTime": 0.17299999296665192,
        "states": ["Shoot/Tartaglia_Attack02"],
        "bowDrawTimes": [
          {
            "bowDrawStartNormTime": 0.029999999329447746,
            "bowDrawEndNormTime": 0.10999999940395355,
            "bowStringOverridePoint": ""
          }
        ],
        "floatID": ""
      },
      {
        "trigger": "Attack",
        "playTime": 0.1776999980211258,
        "states": ["Shoot/Tartaglia_Attack03"],
        "bowDrawTimes": [
          {
            "bowDrawStartNormTime": 0.029999999329447746,
            "bowDrawEndNormTime": 0.1120000034570694,
            "bowStringOverridePoint": ""
          }
        ],
        "floatID": ""
      },
      {
        "trigger": "Attack",
        "states": ["Shoot/Tartaglia_Attack04"],
        "bowDrawTimes": [
          {
            "bowDrawStartNormTime": 0.2280000001192093,
            "bowDrawEndNormTime": 0.23000000417232513,
            "bowStringOverridePoint": ""
          }
        ],
        "floatID": ""
      },
      {
        "trigger": "Attack",
        "playTime": 0.17599999904632568,
        "states": ["Shoot/Tartaglia_Attack05"],
        "bowDrawTimes": [
          {
            "bowDrawStartNormTime": 0.050999999046325684,
            "bowDrawEndNormTime": 0.11500000208616257,
            "bowStringOverridePoint": ""
          }
        ],
        "floatID": ""
      },
      {
        "trigger": "Attack",
        "states": ["Shoot/Tartaglia_Attack06"],
        "bowDrawTimes": [
          {
            "bowDrawStartNormTime": 0.08299999684095383,
            "bowDrawEndNormTime": 0.20800000429153442,
            "bowStringOverridePoint": ""
          }
        ],
        "floatID": ""
      },
      {
        "trigger": "AimAttack",
        "playTime": 0.017000000923871994,
        "states": ["AimShoot", "FastAimShoot"],
        "bowDrawTimes": [
          {
            "bowDrawStartNormTime": 0.5199999809265137,
            "bowStringOverridePoint": ""
          }
        ],
        "floatID": ""
      },
      {
        "trigger": "AimLoop",
        "states": ["Aim", "FastAim"],
        "bowDrawTimes": [
          {
            "bowStringOverridePoint": ""
          }
        ],
        "floatID": ""
      },
      {
        "trigger": "Attack",
        "playTime": 0.6000000238418579,
        "states": ["AquariaBlade_Range/AquariaBlade_Range"],
        "bowDrawTimes": [
          {
            "bowDrawStartNormTime": 0.019999999552965164,
            "bowStringOverridePoint": ""
          }
        ],
        "floatID": ""
      },
      {
        "trigger": "Idle",
        "floatID": ""
      }
    ],
    "attachPoints": {
      "equip01": "WeaponR",
      "equip02": "WeaponL",
      "equip03": "WeaponL"
    }
  },
  "abilities": [
    {
      "abilityID": "Arrow_FX",
      "abilityName": "Avatar_Tartaglia_Arrow_FX",
      "abilityOverride": ""
    },
    {
      "abilityID": "PressShoot",
      "abilityName": "Avatar_Tartaglia_PressShoot",
      "abilityOverride": ""
    },
    {
      "abilityID": "AimPressShoot",
      "abilityName": "Avatar_Tartaglia_AimPressShoot",
      "abilityOverride": ""
    },
    {
      "abilityID": "ShootArrow_01",
      "abilityName": "Avatar_Tartaglia_ShootArrow_01",
      "abilityOverride": ""
    },
    {
      "abilityID": "ShootArrow_02",
      "abilityName": "Avatar_Tartaglia_ShootArrow_02",
      "abilityOverride": ""
    },
    {
      "abilityID": "ShootArrow_03",
      "abilityName": "Avatar_Tartaglia_ShootArrow_03",
      "abilityOverride": ""
    },
    {
      "abilityID": "ShootArrow_04",
      "abilityName": "Avatar_Tartaglia_ShootArrow_04",
      "abilityOverride": ""
    },
    {
      "abilityID": "ShootArrow_05",
      "abilityName": "Avatar_Tartaglia_ShootArrow_05",
      "abilityOverride": ""
    },
    {
      "abilityID": "ShootArrow_06",
      "abilityName": "Avatar_Tartaglia_ShootArrow_06",
      "abilityOverride": ""
    },
    {
      "abilityID": "ShootArrow_Aiming",
      "abilityName": "Avatar_Tartaglia_ShootArrow_Aiming",
      "abilityOverride": ""
    },
    {
      "abilityID": "ShootAimingArrow_Charge",
      "abilityName": "Avatar_Tartaglia_ShootAimingArrow_Charge",
      "abilityOverride": ""
    },
    {
      "abilityID": "ChangeMainSkill",
      "abilityName": "Avatar_Tartaglia_ChangeMainSkill",
      "abilityOverride": ""
    },
    {
      "abilityID": "WaterFlower_Handler",
      "abilityName": "Avatar_Tartaglia_WaterFlower_Handler",
      "abilityOverride": ""
    },
    {
      "abilityID": "Gandalfr",
      "abilityName": "Avatar_Tartaglia_Gandalfr",
      "abilityOverride": ""
    },
    {
      "abilityID": "Gandalfr_Remover",
      "abilityName": "Avatar_Tartaglia_Gandalfr_Remover",
      "abilityOverride": ""
    },
    {
      "abilityID": "Blade_Manager",
      "abilityName": "Avatar_Tartaglia_Blade_Manager",
      "abilityOverride": ""
    },
    {
      "abilityID": "Gandalfr_Attack05",
      "abilityName": "Avatar_Tartaglia_Gandalfr_Attack05",
      "abilityOverride": ""
    },
    {
      "abilityID": "Gandalfr_Trigger",
      "abilityName": "Avatar_Tartaglia_Gandalfr_Trigger",
      "abilityOverride": ""
    },
    {
      "abilityID": "Gandalfr_TriggerOff",
      "abilityName": "Avatar_Tartaglia_Gandalfr_TriggerOff",
      "abilityOverride": ""
    },
    {
      "abilityID": "AquariaBlade_Range",
      "abilityName": "Avatar_Tartaglia_AquariaBlade_Range",
      "abilityOverride": ""
    },
    {
      "abilityID": "AquariaBlade_Melee",
      "abilityName": "Avatar_Tartaglia_AquariaBlade_Melee",
      "abilityOverride": ""
    },
    {
      "abilityID": "AquariaBlade_CameraController",
      "abilityName": "Avatar_Tartaglia_AquariaBlade_CameraController",
      "abilityOverride": ""
    },
    {
      "abilityID": "Avatar_Tartaglia_ShowWeaponOn",
      "abilityName": "Avatar_Tartaglia_ShowWeaponOn",
      "abilityOverride": ""
    },
    {
      "abilityID": "Avatar_Tartaglia_ShowWeaponOff",
      "abilityName": "Avatar_Tartaglia_ShowWeaponOff",
      "abilityOverride": ""
    },
    {
      "abilityID": "Avatar_Tartaglia_FallingAnthem",
      "abilityName": "Avatar_Tartaglia_FallingAnthem",
      "abilityOverride": ""
    }
  ],
  "stateLayers": {
    "defaultLayer": {
      "$type": "GBGJJIIEMBD",
      "layerIndexName": "",
      "CPAANEIJCGD": "",
      "stateIDs": {
        "NormalStandby": {
          "$type": "KBOPIKLCBOA",
          "animatorStates": {
            "Standby": []
          },
          "canDoSkill": true,
          "massRatio": 100.0,
          "setAnimatorBoolean": [
            {
              "name": "&CanUseSkill"
            }
          ],
          "canChangeAvatar": [{}],
          "animatorTriggerOnLanded": "",
          "sheatheOnStart": true
        },
        "NormalMove": {
          "$type": "KBOPIKLCBOA",
          "animatorStates": {
            "ShowUp": ["Audio_Male_Showup"],
            "WalkToRun": [
              "Audio_Male_WalkToRun",
              "Audio_Male_Foley_Twice_Tartaglia"
            ],
            "Walk": [
              "Ani_WalkSprint01",
              "Audio_Male_Walk",
              "WalkStepOnWater",
              "Audio_Male_Foley_Twice_Tartaglia"
            ],
            "RunToWalk": [
              "Audio_Male_RunToWalk",
              "Audio_Male_Foley_Twice_Tartaglia"
            ],
            "Run": [
              "Ani_Run01",
              "Audio_Male_Run",
              "Audio_Male_Foley_Twice_Tartaglia"
            ],
            "RunToIdle": [
              "Audio_Male_RunToIdle",
              "Audio_Male_Foley_Twice_Tartaglia"
            ],
            "WalkToIdle": ["Audio_Male_WalkToIdle"],
            "RunningTurn": [],
            "SprintToRun": [
              "Audio_Male_SprintToRun",
              "Audio_Male_Foley_Once_Tartaglia"
            ],
            "SprintToIdle": [
              "Audio_Male_SprintToIdle",
              "Emo_Male_Sprint_AS",
              "Audio_Male_Foley_Twice_Tartaglia"
            ],
            "FallOnGround": [
              "Audio_Male_FallOnGround",
              "Audio_Male_Foley_Twice_Tartaglia"
            ],
            "FallOnGroundLit": [
              "Audio_Male_FallOnGroundLit",
              "Audio_Male_Foley_Once_Tartaglia"
            ],
            "FallToGroundRun": [
              "Audio_Male_FallToGroundRun",
              "Audio_Male_Foley_Twice_Tartaglia"
            ],
            "FallToGroundRunHard": [
              "Audio_Male_FallToGroundRunHard",
              "Audio_Male_Foley_Twice_Tartaglia"
            ],
            "FallToGroundSprint": [
              "Audio_Male_FallToGroundSprint",
              "Audio_Male_Foley_Twice_Tartaglia"
            ]
          },
          "canDoSkill": true,
          "massRatio": 1.0,
          "setAnimatorBoolean": [
            {
              "name": "&CanUseSkill"
            }
          ],
          "canChangeAvatar": [{}],
          "animatorTriggerOnLanded": "",
          "sheatheOnStart": true
        },
        "SprintBS": {
          "$type": "KBOPIKLCBOA",
          "animatorStates": {
            "SprintBS": [
              "Audio_Male_RunToSprint",
              "SprintBS_Invincible",
              "Emo_Male_Sprint_BS",
              "Audio_Male_Foley_ThreeTimes_Tartaglia"
            ]
          },
          "canDoSkill": true,
          "resetAnimatorTriggerOnEnter": ["DoSkill", "AimEnd"],
          "setAnimatorBoolean": [
            {
              "name": "&CanUseSkill",
              "normalizeStart": 0.25999999046325684
            }
          ],
          "canChangeAvatar": [
            {
              "normalizeStart": 0.25999999046325684
            }
          ],
          "animatorTriggerOnLanded": "",
          "sheatheOnStart": true
        },
        "Sprint": {
          "$type": "KBOPIKLCBOA",
          "animatorStates": {
            "Sprint": [
              "Ani_WalkSprint01",
              "Audio_Male_Sprint",
              "Emo_Male_Sprint_Loop",
              "Audio_Male_Foley_Twice_Tartaglia"
            ]
          },
          "canDoSkill": true,
          "massRatio": 1.0,
          "setAnimatorBoolean": [
            {
              "name": "&CanUseSkill"
            }
          ],
          "canChangeAvatar": [{}],
          "animatorTriggerOnLanded": "",
          "sheatheOnStart": true
        },
        "SkiffNormal": {
          "$type": "KBOPIKLCBOA",
          "animatorStates": {
            "SkiffNormal": []
          },
          "massRatio": 100.0,
          "resetAnimatorTriggerOnExit": ["BeHit", "DoSkill", "Jump"],
          "animatorTriggerOnLanded": "",
          "sheatheOnStart": true
        },
        "Climb": {
          "$type": "KBOPIKLCBOA",
          "animatorStates": {
            "ClimbMove0": [
              "ClimbStep",
              "Audio_Male_Climb",
              "Audio_Male_Foley_Twice_Tartaglia"
            ],
            "ClimbMove1": [
              "ClimbStep",
              "Audio_Male_Climb",
              "Audio_Male_Foley_Twice_Tartaglia"
            ],
            "ClimbIdle": [],
            "ClimbJump": [
              "Audio_Male_ClimbDash",
              "Audio_Male_Foley_Once_Tartaglia"
            ],
            "JumpUpWallForStandby": [
              "Audio_Male_JumpUpWallStandby",
              "Audio_Male_Foley_Once_Tartaglia"
            ],
            "Standby2ClimbB": [
              "Audio_Male_Standby2ClimbB",
              "Audio_Male_Foley_Once_Tartaglia"
            ]
          },
          "resetAnimatorTriggerOnEnter": ["DoSkill"],
          "actionPanelState": "Climb",
          "animatorTriggerOnLanded": "",
          "sheatheOnStart": true
        },
        "ClimbTransient": {
          "$type": "KBOPIKLCBOA",
          "animatorStates": {
            "JumpWallReady": [],
            "Standby2ClimbA": [
              "Audio_Male_Standby2ClimbA",
              "Audio_Male_Foley_Once_Tartaglia"
            ]
          },
          "resetAnimatorTriggerOnEnter": ["DoSkill"],
          "animatorTriggerOnLanded": "",
          "sheatheOnStart": true
        },
        "Upstairs": {
          "$type": "KBOPIKLCBOA",
          "animatorStates": {
            "Upstairs": [
              "Audio_Male_Upstairs",
              "Audio_Male_Foley_Once_Tartaglia"
            ]
          },
          "resetAnimatorTriggerOnEnter": ["DoSkill"],
          "setAnimatorBoolean": [
            {
              "name": "&CanUseSkill"
            }
          ],
          "animatorTriggerOnLanded": "",
          "sheatheOnStart": true
        },
        "Slip": {
          "$type": "KBOPIKLCBOA",
          "animatorStates": {
            "SlipFaceWall": ["Audio_Male_Foley_ThreeTimes_Tartaglia"],
            "SlipBackWall": ["Audio_Male_Foley_ThreeTimes_Tartaglia"]
          },
          "resetAnimatorTriggerOnEnter": ["DoSkill"],
          "animatorTriggerOnLanded": "",
          "sheatheOnStart": true
        },
        "Swim": {
          "$type": "KBOPIKLCBOA",
          "animatorStates": {
            "SwimIdle": ["Audio_Male_SwimIdle"],
            "SwimMove": ["SwimStep", "Audio_Male_SwimMove"],
            "SwimDash": [
              "Audio_Male_SwimDash",
              "Avatar_Male_SwimDash_Hand_Effect"
            ],
            "SwimJumpToWater": ["Audio_Male_SwimJumpToWater"]
          },
          "resetAnimatorTriggerOnEnter": ["DoSkill"],
          "actionPanelState": "Swim",
          "animatorTriggerOnLanded": "",
          "sheatheOnStart": true
        },
        "Fly": {
          "$type": "KBOPIKLCBOA",
          "animatorStates": {
            "Fly": ["Audio_Male_Foley_Once_Tartaglia"],
            "FlyStart": [
              "Audio_Male_FlyStart",
              "FlyStart_Weapon",
              "Audio_Male_Foley_Once_Tartaglia"
            ]
          },
          "canDoSkill": true,
          "resetAnimatorTriggerOnEnter": ["DoSkill"],
          "setAnimatorBoolean": [
            {
              "name": "&CanUseAirSkill"
            }
          ],
          "actionPanelState": "Fly",
          "animatorTriggerOnLanded": "",
          "sheatheOnStart": true
        },
        "Jump": {
          "$type": "KBOPIKLCBOA",
          "animatorStates": {
            "Jump": ["Audio_Male_Jump", "Audio_Male_Foley_Once_Tartaglia"],
            "JumpForRun": [
              "Audio_Male_Jump",
              "Audio_Male_Foley_Once_Tartaglia"
            ],
            "JumpForWalk": [
              "Audio_Male_Jump",
              "Audio_Male_Foley_Once_Tartaglia"
            ],
            "JumpForSprint": [
              "Audio_Male_Jump",
              "Audio_Male_Foley_Once_Tartaglia"
            ]
          },
          "canDoSkill": true,
          "resetAnimatorTriggerOnEnter": ["DoSkill", "AimEnd"],
          "setAnimatorBoolean": [
            {
              "name": "&CanUseAirSkill"
            }
          ],
          "actionPanelState": "Jump",
          "animatorTriggerOnLanded": "",
          "sheatheOnStart": true
        },
        "Fall": {
          "$type": "KBOPIKLCBOA",
          "animatorStates": {
            "JumpOffWall": [
              "Audio_Male_Jump",
              "Audio_Male_Foley_Once_Tartaglia"
            ],
            "SwimJump": [
              "Audio_Male_SwimJump",
              "Audio_Male_Foley_Once_Tartaglia"
            ],
            "SwimJumpDrop": ["Audio_Male_Foley_ThreeTimes_Tartaglia"],
            "DropDown": [
              "Audio_Male_DropDown",
              "Audio_Male_Foley_ThreeTimes_Tartaglia"
            ],
            "DropDownLit": [],
            "WalkDropDownLit": []
          },
          "canDoSkill": true,
          "resetAnimatorTriggerOnEnter": ["DoSkill"],
          "setAnimatorBoolean": [
            {
              "name": "&CanUseAirSkill"
            }
          ],
          "animatorTriggerOnLanded": "",
          "sheatheOnStart": true
        },
        "NormalStandbyWeapon": {
          "$type": "KBOPIKLCBOA",
          "animatorStates": {
            "StandbyWeapon": []
          },
          "canDoSkill": true,
          "massRatio": 100.0,
          "setAnimatorBoolean": [
            {
              "name": "&CanUseSkill"
            }
          ],
          "canChangeAvatar": [{}],
          "animatorTriggerOnLanded": "",
          "battouOnStart": true
        },
        "NormalMoveWeapon": {
          "$type": "KBOPIKLCBOA",
          "animatorStates": {
            "WalkToRunWeapon": [
              "Male_Sword_Putaway_RunBS",
              "Audio_Male_WalkToRun"
            ],
            "WalkWeapon": [
              "Audio_Male_Walk",
              "Audio_Male_Foley_Twice_Tartaglia"
            ],
            "RunToWalkWeapon": ["Audio_Male_RunToWalk"],
            "RunWeapon": ["Audio_Male_Run", "Audio_Male_Foley_Twice_Tartaglia"],
            "RunToIdleWeapon": ["Audio_Male_Foley_Twice_Tartaglia"],
            "WalkToIdleWeapon": ["Audio_Male_Foley_Twice_Tartaglia"],
            "RunningTurnWeapon": [],
            "FallOnGroundWeapon": ["Audio_Male_FallOnGround"],
            "FallOnGroundLitWeapon": ["Audio_Male_FallOnGroundLit"],
            "FallOnGroundMiddleWeapon": ["Audio_Male_FallOnGroundMiddle"],
            "FallToGroundRunWeapon": ["Audio_Male_FallToGroundRun"],
            "FallToGroundRunHardWeapon": ["Audio_Male_FallToGroundRunHard"]
          },
          "canDoSkill": true,
          "massRatio": 2.0,
          "setAnimatorBoolean": [
            {
              "name": "&CanUseSkill"
            }
          ],
          "canChangeAvatar": [{}],
          "animatorTriggerOnLanded": "",
          "battouOnStart": true
        },
        "NormalMoveWeaponPutaway": {
          "$type": "KBOPIKLCBOA",
          "animatorStates": {
            "StandbyPutaway": [
              "Male_Bow_Putaway_Standby",
              "Audio_Male_Sword_StandbyPutAway",
              "Audio_Male_Foley_Once_Tartaglia"
            ],
            "WalkPutaway": [
              "Male_Sword_Putaway_Walk",
              "Audio_Male_Sword_WalkPutAway",
              "Audio_Male_Foley_Twice_Tartaglia"
            ],
            "RunPutaway": [
              "Male_Sword_Putaway_Run",
              "Audio_Male_Sword_RunPutAway",
              "Audio_Male_Foley_Twice_Tartaglia"
            ],
            "RunToSprintWeapon": [
              "Male_Sword_Putaway_Sprint",
              "Audio_Male_Sword_RunToSprintWeapon"
            ]
          },
          "canDoSkill": true,
          "massRatio": 2.0,
          "setAnimatorBoolean": [
            {
              "name": "&CanUseSkill"
            }
          ],
          "canChangeAvatar": [{}],
          "animatorTriggerOnLanded": "",
          "battouOnStart": true
        },
        "NormalMoveWeaponOver": {
          "$type": "KBOPIKLCBOA",
          "animatorStates": {
            "StandbyPutawayOver": [],
            "WalkPutawayOver": ["Audio_Male_Sword_WalkPutAwayOver"],
            "RunPutawayOver": ["Audio_Male_Sword_RunPutAwayOver"],
            "RunToSprintWeaponOver": ["Audio_Male_Sword_RunToSprintWeaponOver"]
          },
          "canDoSkill": true,
          "massRatio": 2.0,
          "setAnimatorBoolean": [
            {
              "name": "&CanUseSkill"
            }
          ],
          "canChangeAvatar": [{}],
          "animatorTriggerOnLanded": "",
          "sheatheOnStart": true
        },
        "JumpWeapon": {
          "$type": "KBOPIKLCBOA",
          "animatorStates": {
            "JumpWeapon": [
              "Audio_Male_Jump",
              "Audio_Male_Foley_Once_Tartaglia"
            ],
            "JumpForRunWeapon": [
              "Audio_Male_Jump",
              "Audio_Male_Foley_Once_Tartaglia"
            ],
            "JumpForWalkWeapon": [
              "Audio_Male_Jump",
              "Audio_Male_Foley_Once_Tartaglia"
            ]
          },
          "canDoSkill": true,
          "resetAnimatorTriggerOnEnter": ["DoSkill"],
          "setAnimatorBoolean": [
            {
              "name": "&CanUseAirSkill"
            }
          ],
          "canChangeAvatar": [{}],
          "actionPanelState": "Jump",
          "animatorTriggerOnLanded": "",
          "battouOnStart": true
        },
        "FallWeapon": {
          "$type": "KBOPIKLCBOA",
          "animatorStates": {
            "DropDownWeapon": [
              "Audio_Male_DropDown",
              "Audio_Male_Foley_ThreeTimes_Tartaglia"
            ],
            "DropDownLitWeapon": [],
            "WalkDropDownLitWeapon": []
          },
          "canDoSkill": true,
          "resetAnimatorTriggerOnEnter": ["DoSkill"],
          "setAnimatorBoolean": [
            {
              "name": "&CanUseAirSkill"
            }
          ],
          "animatorTriggerOnLanded": "",
          "battouOnStart": true
        },
        "BeHit": {
          "$type": "KBOPIKLCBOA",
          "animatorStates": {
            "Hit_L": ["Audio_Male_Hit_L", "Audio_Male_Foley_Once_Tartaglia"],
            "Hit_H": ["Audio_Male_Hit_H", "Audio_Male_Foley_Once_Tartaglia"]
          },
          "MOKBIKEEHMJ": "combatMove",
          "resetAnimatorTriggerOnEnter": ["BeHit", "HitAir2HitDrop"],
          "resetAnimatorTriggerOnExit": ["DoSkill"],
          "cameraType": "combatBeHit",
          "jumpCancelEnd": 0.0,
          "animatorTriggerOnLanded": "",
          "battouOnStart": true
        },
        "HitThrow": {
          "$type": "KBOPIKLCBOA",
          "animatorStates": {
            "Hit_Throw_Ground": [
              "BeHitAir_Weapon",
              "Audio_Male_HitThrowGround",
              "Audio_Male_Foley_Twice_Tartaglia"
            ]
          },
          "MOKBIKEEHMJ": "combatMove",
          "resetAnimatorTriggerOnEnter": ["BeHit", "HitAir2HitDrop"],
          "resetAnimatorTriggerOnExit": ["DoSkill"],
          "cameraType": "combatBeHit",
          "jumpCancelEnd": 0.0,
          "animatorTriggerOnLanded": "",
          "sheatheOnStart": true
        },
        "BeHitAir": {
          "$type": "KBOPIKLCBOA",
          "animatorStates": {
            "Hit_Throw": [
              "Audio_Male_Hit_Throw",
              "BeHitAir_Weapon",
              "Audio_Male_Foley_Once_Tartaglia"
            ],
            "Hit_ThrowAir": ["Audio_Male_DropDown", "BeHitAir_Weapon"],
            "Struggle": [
              "BeHitAir_Weapon",
              "Audio_Male_Foley_ThreeTimes_Tartaglia"
            ]
          },
          "MOKBIKEEHMJ": "combatAir",
          "resetAnimatorTriggerOnEnter": ["BeHit"],
          "resetAnimatorTriggerOnExit": ["DoSkill"],
          "cameraType": "combatBeHit",
          "actionPanelState": "CombatAir",
          "jumpCancelEnd": 0.0,
          "animatorTriggerOnLanded": "",
          "sheatheOnStart": true
        },
        "Die": {
          "$type": "KBOPIKLCBOA",
          "animatorStates": {
            "DiveDie": ["Die", "Audio_Male_Dive_Die"],
            "FallDie": ["Audio_Male_Death"],
            "NormalDie": [
              "Die",
              "Audio_Male_Death",
              "Audio_Male_Foley_Once_Tartaglia"
            ],
            "SwimDie": ["Swim_Die", "Audio_Male_SwimDie"],
            "HitGroundDie": ["Die", "Audio_Male_Death"]
          },
          "animatorTriggerOnLanded": ""
        },
        "Die_RagDoll": {
          "$type": "KBOPIKLCBOA",
          "animatorStates": {
            "NormalDie_AS": [],
            "FallDie_AS": []
          },
          "enableRagDoll": true,
          "animatorTriggerOnLanded": ""
        },
        "ShootBS": {
          "$type": "KBOPIKLCBOA",
          "animatorStates": {
            "ShootStandbyBS": [
              "Audio_Male_Bow_Tartaglia_ShootStandbyBS",
              "Emo_Avatar_Tartaglia_Fight_AimBS"
            ],
            "ShootRunBS": ["Emo_Avatar_Tartaglia_Fight_AimBS"]
          },
          "MOKBIKEEHMJ": "combatMove",
          "canDoSkill": true,
          "resetAnimatorTriggerOnExit": ["BeHit", "DoSkill", "Jump", "AimEnd"],
          "canChangeAvatar": [{}],
          "animatorTriggerOnLanded": "",
          "battouOnStart": true
        },
        "Shoot": {
          "$type": "KBOPIKLCBOA",
          "animatorStates": {
            "Tartaglia_Attack01": [
              "Tartaglia_Attack01",
              "Emo_Male_Bow_Tartaglia_NormalAttack01",
              "SetComboCount1",
              "Interaction_Bad",
              "Audio_Male_Bow_Tartaglia_Attack01"
            ],
            "Tartaglia_Attack02": [
              "Tartaglia_Attack02",
              "Emo_Male_Bow_Tartaglia_NormalAttack02",
              "SetComboCount2",
              "Interaction_Bad",
              "Audio_Male_Bow_Tartaglia_Attack02"
            ],
            "Tartaglia_Attack03": [
              "Tartaglia_Attack03",
              "Emo_Male_Bow_Tartaglia_NormalAttack03",
              "SetComboCount3",
              "Interaction_Bad",
              "Audio_Male_Bow_Tartaglia_Attack03"
            ],
            "Tartaglia_Attack04": [
              "Tartaglia_Attack04",
              "Emo_Male_Bow_Tartaglia_NormalAttack04",
              "SetComboCount4",
              "Interaction_Bad",
              "Audio_Male_Bow_Tartaglia_Attack04"
            ],
            "Tartaglia_Attack05": [
              "Tartaglia_Attack05",
              "Emo_Male_Bow_Tartaglia_NormalAttack05",
              "SetComboCount5",
              "Interaction_Bad",
              "Audio_Male_Bow_Tartaglia_Attack05"
            ],
            "Tartaglia_Attack06": [
              "Tartaglia_Attack06",
              "Emo_Male_Bow_Tartaglia_NormalAttack06",
              "SetComboCount6",
              "Interaction_Bad",
              "Audio_Male_Bow_Tartaglia_Attack06"
            ]
          },
          "MOKBIKEEHMJ": "combatMove",
          "canDoSkill": true,
          "resetAnimatorTriggerOnExit": ["BeHit", "DoSkill", "Jump"],
          "setAnimatorBoolean": [
            {
              "name": "&CanCancelSkill"
            }
          ],
          "cameraType": "combatNormal",
          "cameraParam": {
            "radiusSpringRatio": 2.0
          },
          "canChangeAvatar": [{}],
          "animatorTriggerOnLanded": "",
          "battouOnStart": true
        },
        "Aim": {
          "$type": "KBOPIKLCBOA",
          "priority": -2,
          "animatorStates": {
            "AimLoop": [
              "Audio_Male_Bow_Tartaglia_AimLoop",
              "Emo_Avatar_Tartaglia_Fight_Aim"
            ]
          },
          "MOKBIKEEHMJ": "combatMove",
          "canDoSkill": true,
          "resetAnimatorTriggerOnExit": ["BeHit", "DoSkill", "Jump"],
          "needFaceToAnimParam": true,
          "actionPanelState": "Aim",
          "animatorTriggerOnLanded": "",
          "battouOnStart": true
        },
        "FastAim": {
          "$type": "KBOPIKLCBOA",
          "priority": -2,
          "animatorStates": {
            "FastAimLoop": [
              "Audio_Male_Bow_Tartaglia_FastAimLoop",
              "Emo_Avatar_Tartaglia_Fight_Aim"
            ]
          },
          "MOKBIKEEHMJ": "combatMove",
          "canDoSkill": true,
          "resetAnimatorTriggerOnExit": ["BeHit", "DoSkill", "Jump"],
          "needFaceToAnimParam": true,
          "actionPanelState": "FastAim",
          "animatorTriggerOnLanded": "",
          "battouOnStart": true
        },
        "Gandalfr_Start": {
          "$type": "KBOPIKLCBOA",
          "animatorStates": {
            "Gandalfr_Start": [
              "Tartaglia_Gandalfr_Start",
              "Interaction_Bad",
              "Emo_Avatar_Tartaglia_Fight_Skill_Gandalfr_Start",
              "Audio_Male_Bow_Tartaglia_Gandalfr_Start"
            ]
          },
          "MOKBIKEEHMJ": "combatMove",
          "addEndure": 0.6000000238418579,
          "resetAnimatorTriggerOnExit": ["BeHit", "DoSkill", "Jump"],
          "jumpCancelEnd": -1.0,
          "sprintCancelEnd": -1.0,
          "animatorTriggerOnLanded": "",
          "sheatheOnStart": true
        },
        "Gandalfr_Start_AS": {
          "$type": "KBOPIKLCBOA",
          "animatorStates": {
            "Gandalfr_Start_AS": [
              "Audio_Male_Bow_Tartaglia_Gandalfr_Start_AS",
              "Emo_Avatar_Tartaglia_Fight_Skill_Gandalfr_Start_AS"
            ]
          },
          "MOKBIKEEHMJ": "combatMove",
          "canDoSkill": true,
          "resetAnimatorTriggerOnExit": ["BeHit", "DoSkill", "Jump"],
          "setAnimatorBoolean": [
            {
              "name": "&CanUseSkill"
            }
          ],
          "canChangeAvatar": [
            {
              "normalizeStart": 0.10000000149011612
            }
          ],
          "animatorTriggerOnLanded": ""
        },
        "Gandalfr_End": {
          "$type": "KBOPIKLCBOA",
          "animatorStates": {
            "Gandalfr_End": [
              "Tartaglia_Gandalfr_End",
              "Audio_Male_Bow_Tartaglia_Gandalfr_End",
              "Emo_Avatar_Tartaglia_Fight_Skill_Gandalfr_End"
            ]
          },
          "MOKBIKEEHMJ": "combatMove",
          "addEndure": 0.6000000238418579,
          "resetAnimatorTriggerOnExit": ["BeHit", "DoSkill", "Jump"],
          "jumpCancelEnd": -1.0,
          "sprintCancelEnd": -1.0,
          "animatorTriggerOnLanded": "",
          "battouOnStart": true
        },
        "Gandalfr_End_AS": {
          "$type": "KBOPIKLCBOA",
          "animatorStates": {
            "Gandalfr_End_AS": [
              "Emo_Avatar_Tartaglia_Fight_Skill_Gandalfr_End_AS"
            ]
          },
          "MOKBIKEEHMJ": "combatMove",
          "canDoSkill": true,
          "resetAnimatorTriggerOnExit": ["BeHit", "DoSkill", "Jump"],
          "setAnimatorBoolean": [
            {
              "name": "&CanUseSkill"
            }
          ],
          "canChangeAvatar": [{}],
          "animatorTriggerOnLanded": ""
        },
        "Gandalfr_Attack01": {
          "$type": "KBOPIKLCBOA",
          "animatorStates": {
            "Gandalfr_Attack01": [
              "Tartaglia_Gandalfr_Attack01",
              "SetComboCount1",
              "Emo_Male_Bow_Tartaglia_Fight_Skill_Gandalfr_Attack_01",
              "Interaction_Bad",
              "Audio_Male_Bow_Tartaglia_Gandalfr_Attack01"
            ]
          },
          "MOKBIKEEHMJ": "combatMove",
          "canDoSkill": true,
          "resetAnimatorTriggerOnExit": ["BeHit"],
          "setAnimatorBoolean": [
            {
              "name": "&CanCancelSkill"
            },
            {
              "name": "&CanUseExtra",
              "normalizeStart": 0.05999999865889549,
              "normalizeEnd": 0.699999988079071
            },
            {
              "name": "&CanShoot",
              "normalizeStart": 0.03500000014901161
            }
          ],
          "cameraType": "combatNormal",
          "canChangeAvatar": [{}],
          "animatorTriggerOnLanded": "",
          "sheatheOnStart": true
        },
        "Gandalfr_Attack02": {
          "$type": "KBOPIKLCBOA",
          "animatorStates": {
            "Gandalfr_Attack02": [
              "Tartaglia_Gandalfr_Attack02",
              "SetComboCount2",
              "Emo_Male_Bow_Tartaglia_Fight_Skill_Gandalfr_Attack_02",
              "Interaction_Bad",
              "Audio_Male_Bow_Tartaglia_Gandalfr_Attack02"
            ]
          },
          "MOKBIKEEHMJ": "combatMove",
          "canDoSkill": true,
          "resetAnimatorTriggerOnExit": ["BeHit"],
          "setAnimatorBoolean": [
            {
              "name": "&CanCancelSkill"
            },
            {
              "name": "&CanUseExtra",
              "normalizeStart": 0.10000000149011612,
              "normalizeEnd": 0.800000011920929
            },
            {
              "name": "&CanShoot",
              "normalizeStart": 0.06499999761581421
            }
          ],
          "cameraType": "combatNormal",
          "canChangeAvatar": [{}],
          "animatorTriggerOnLanded": "",
          "sheatheOnStart": true
        },
        "Gandalfr_Attack03": {
          "$type": "KBOPIKLCBOA",
          "animatorStates": {
            "Gandalfr_Attack03": [
              "Tartaglia_Gandalfr_Attack03",
              "SetComboCount3",
              "Emo_Male_Bow_Tartaglia_Fight_Skill_Gandalfr_Attack_03",
              "Interaction_Bad",
              "Audio_Male_Bow_Tartaglia_Gandalfr_Attack03"
            ]
          },
          "MOKBIKEEHMJ": "combatMove",
          "canDoSkill": true,
          "resetAnimatorTriggerOnExit": ["BeHit"],
          "setAnimatorBoolean": [
            {
              "name": "&CanCancelSkill"
            },
            {
              "name": "&CanUseExtra",
              "normalizeStart": 0.20000000298023224,
              "normalizeEnd": 0.800000011920929
            },
            {
              "name": "&CanShoot",
              "normalizeStart": 0.17499999701976776
            }
          ],
          "cameraType": "combatNormal",
          "canChangeAvatar": [{}],
          "animatorTriggerOnLanded": "",
          "sheatheOnStart": true
        },
        "Gandalfr_Attack04": {
          "$type": "KBOPIKLCBOA",
          "animatorStates": {
            "Gandalfr_Attack04": [
              "Tartaglia_Gandalfr_Attack04",
              "SetComboCount4",
              "Emo_Male_Bow_Tartaglia_Fight_Skill_Gandalfr_Attack_04",
              "Interaction_Bad",
              "Audio_Male_Bow_Tartaglia_Gandalfr_Attack04"
            ]
          },
          "MOKBIKEEHMJ": "combatMove",
          "canDoSkill": true,
          "resetAnimatorTriggerOnExit": ["BeHit"],
          "setAnimatorBoolean": [
            {
              "name": "&CanCancelSkill"
            },
            {
              "name": "&CanUseExtra",
              "normalizeStart": 0.20000000298023224,
              "normalizeEnd": 0.800000011920929
            },
            {
              "name": "&CanShoot",
              "normalizeStart": 0.17299999296665192
            }
          ],
          "enableCCD": true,
          "cameraType": "combatNormal",
          "canChangeAvatar": [{}],
          "animatorTriggerOnLanded": "",
          "sheatheOnStart": true
        },
        "Gandalfr_Attack05": {
          "$type": "KBOPIKLCBOA",
          "animatorStates": {
            "Gandalfr_Attack05": [
              "Tartaglia_Gandalfr_Attack05",
              "SetComboCount5",
              "Emo_Male_Bow_Tartaglia_Fight_Skill_Gandalfr_Attack_05",
              "Interaction_Bad",
              "Audio_Male_Bow_Tartaglia_Gandalfr_Attack05"
            ]
          },
          "MOKBIKEEHMJ": "combatMove",
          "canDoSkill": true,
          "resetAnimatorTriggerOnExit": ["BeHit"],
          "setAnimatorBoolean": [
            {
              "name": "&CanCancelSkill"
            },
            {
              "name": "&CanUseExtra"
            },
            {
              "name": "&CanShoot",
              "normalizeStart": 0.10000000149011612
            }
          ],
          "enableCCD": true,
          "cameraType": "combatNormal",
          "canChangeAvatar": [{}],
          "animatorTriggerOnLanded": "",
          "sheatheOnStart": true
        },
        "Gandalfr_Attack06": {
          "$type": "KBOPIKLCBOA",
          "animatorStates": {
            "Gandalfr_Attack06": [
              "Tartaglia_Gandalfr_Attack06",
              "SetComboCount6",
              "Emo_Male_Bow_Tartaglia_Fight_Skill_Gandalfr_Attack_06",
              "Interaction_Bad",
              "Audio_Male_Bow_Tartaglia_Gandalfr_Attack06"
            ]
          },
          "MOKBIKEEHMJ": "combatMove",
          "canDoSkill": true,
          "resetAnimatorTriggerOnExit": ["BeHit"],
          "setAnimatorBoolean": [
            {
              "name": "&CanCancelSkill"
            },
            {
              "name": "&CanShoot",
              "normalizeStart": 0.4000000059604645
            }
          ],
          "enableCCD": true,
          "cameraType": "combatNormal",
          "canChangeAvatar": [{}],
          "animatorTriggerOnLanded": "",
          "sheatheOnStart": true
        },
        "Gandalfr_ExtraAttack": {
          "$type": "KBOPIKLCBOA",
          "animatorStates": {
            "Gandalfr_ExtraAttack": [
              "Tartaglia_Gandalfr_ExtraAttack",
              "Interaction_Bad",
              "Emo_Male_Bow_Tartaglia_Fight_Skill_Gandalfr_ExtraAttack",
              "Audio_Male_Bow_Tartaglia_Gandalfr_ExtraAttack"
            ]
          },
          "MOKBIKEEHMJ": "combatMove",
          "resetAnimatorTriggerOnExit": ["BeHit"],
          "cameraType": "combatNormal",
          "animatorTriggerOnLanded": "",
          "sheatheOnStart": true
        },
        "Gandalfr_ExtraAttack_AS": {
          "$type": "KBOPIKLCBOA",
          "animatorStates": {
            "Gandalfr_ExtraAttack_AS": [
              "Emo_Male_Bow_Tartaglia_Fight_Skill_Gandalfr_ExtraAttack_AS",
              "Audio_Male_Bow_Tartaglia_Gandalfr_ExtraAttack_AS"
            ]
          },
          "MOKBIKEEHMJ": "combatMove",
          "canDoSkill": true,
          "resetAnimatorTriggerOnExit": ["BeHit", "DoSkill", "Jump"],
          "setAnimatorBoolean": [
            {
              "name": "&CanCancelSkill"
            },
            {
              "name": "&CanShoot",
              "normalizeStart": 0.05999999865889549
            }
          ],
          "cameraType": "combatNormal",
          "canChangeAvatar": [
            {
              "normalizeStart": 0.10000000149011612
            }
          ],
          "animatorTriggerOnLanded": "",
          "sheatheOnStart": true
        },
        "AquariaBlade_Melee": {
          "$type": "KBOPIKLCBOA",
          "animatorStates": {
            "AquariaBlade_Melee": [
              "Tartaglia_AquariaBlade_Melee",
              "Interaction_Bad",
              "Audio_Male_Bow_Tartaglia_AquariaBlade_Melee"
            ]
          },
          "MOKBIKEEHMJ": "combatMove",
          "addEndure": 0.0,
          "resetAnimatorTriggerOnExit": ["BeHit"],
          "cameraType": "combatNormal",
          "jumpCancelEnd": -1.0,
          "sprintCancelEnd": -1.0,
          "animatorTriggerOnLanded": "",
          "sheatheOnStart": true
        },
        "AquariaBlade_Melee_AS": {
          "$type": "KBOPIKLCBOA",
          "animatorStates": {
            "AquariaBlade_Melee_AS": [
              "Audio_Male_Bow_Tartaglia_AquariaBlade_Melee_AS"
            ]
          },
          "MOKBIKEEHMJ": "combatMove",
          "canDoSkill": true,
          "resetAnimatorTriggerOnExit": ["BeHit", "DoSkill", "Jump"],
          "setAnimatorBoolean": [
            {
              "name": "&CanCancelSkill"
            },
            {
              "name": "&CanUseSkill"
            }
          ],
          "cameraType": "combatNormal",
          "canChangeAvatar": [{}],
          "animatorTriggerOnLanded": "",
          "sheatheOnStart": true
        },
        "AquariaBlade_Range": {
          "$type": "KBOPIKLCBOA",
          "animatorStates": {
            "AquariaBlade_Range": [
              "Emo_Male_Bow_Tartaglia_Aquablade_Range",
              "Tartaglia_AquariaBlade_Range",
              "Interaction_Bad",
              "Audio_Male_Bow_Tartaglia_AquariaBlade_Range"
            ]
          },
          "MOKBIKEEHMJ": "combatMove",
          "addEndure": 0.0,
          "resetAnimatorTriggerOnExit": ["BeHit"],
          "cameraType": "combatNormal",
          "jumpCancelEnd": -1.0,
          "sprintCancelEnd": -1.0,
          "animatorTriggerOnLanded": "",
          "battouOnStart": true
        },
        "AquariaBlade_Range_AS": {
          "$type": "KBOPIKLCBOA",
          "animatorStates": {
            "AquariaBlade_Range_AS": [
              "Emo_Male_Bow_Tartaglia_Aquablade_Range_AS",
              "Audio_Male_Bow_Tartaglia_AquariaBlade_Range_AS"
            ]
          },
          "MOKBIKEEHMJ": "combatMove",
          "canDoSkill": true,
          "resetAnimatorTriggerOnExit": ["BeHit", "DoSkill", "Jump"],
          "setAnimatorBoolean": [
            {
              "name": "&CanCancelSkill"
            },
            {
              "name": "&CanUseSkill"
            }
          ],
          "cameraType": "combatNormal",
          "canChangeAvatar": [{}],
          "animatorTriggerOnLanded": ""
        },
        "FallingAnthem_BS": {
          "$type": "KBOPIKLCBOA",
          "animatorStates": {
            "FallingAnthem_BS_1": [
              "Audio_Girl_Bow_Ambor_FallingAnthem_BS_1",
              "Emo_Male_Bow_FallingAttack_BS_01"
            ],
            "FallingAnthem_BS_2": ["Emo_Male_Bow_FallingAttack_BS_02"]
          },
          "MOKBIKEEHMJ": "combatAir",
          "addEndure": 0.0,
          "resetAnimatorTriggerOnExit": ["BeHit", "DoSkill", "Jump"],
          "cameraType": "combatNormal",
          "actionPanelState": "Fly",
          "equipReattach": [
            {
              "equip": "equip01",
              "targetPoint": "WeaponR2"
            }
          ],
          "jumpCancelEnd": -1.0,
          "animatorTriggerOnLanded": "HitAir2HitDrop",
          "battouOnStart": true
        },
        "FallingAnthem_Loop": {
          "$type": "KBOPIKLCBOA",
          "animatorStates": {
            "FallingAnthem_Loop": [],
            "FallingAnthem_Loop_Low": []
          },
          "MOKBIKEEHMJ": "combatAir",
          "addEndure": 0.0,
          "resetAnimatorTriggerOnExit": ["BeHit", "DoSkill", "Jump"],
          "actionPanelState": "Fly",
          "equipReattach": [
            {
              "equip": "equip01",
              "targetPoint": "WeaponR2"
            }
          ],
          "animatorTriggerOnLanded": "HitAir2HitDrop",
          "battouOnStart": true
        },
        "FallingAnthem_AS_1": {
          "$type": "KBOPIKLCBOA",
          "animatorStates": {
            "FallingAnthem_AS_1": [
              "Tartaglia_FallingAnthem_Strike",
              "Interaction_Bad",
              "Audio_Girl_Bow_Ambor_FallingAnthem_AS_1",
              "Emo_Male_Bow_FallingAttack_AS_01"
            ]
          },
          "MOKBIKEEHMJ": "combatMove",
          "canDoSkill": true,
          "resetAnimatorTriggerOnExit": ["BeHit", "DoSkill", "Jump"],
          "setAnimatorBoolean": [
            {
              "name": "&CanUseSkill",
              "normalizeStart": 0.8999999761581421
            }
          ],
          "equipReattach": [
            {
              "equip": "equip01",
              "targetPoint": "WeaponR2"
            }
          ],
          "jumpCancelEnd": -1.0,
          "animatorTriggerOnLanded": "",
          "battouOnStart": true
        },
        "FallingAnthem_AS_2": {
          "$type": "KBOPIKLCBOA",
          "animatorStates": {
            "FallingAnthem_AS_2": [
              "Audio_Girl_Bow_Ambor_FallingAnthem_AS_2",
              "Emo_Male_Bow_FallingAttack_AS_02"
            ]
          },
          "MOKBIKEEHMJ": "combatMove",
          "canDoSkill": true,
          "resetAnimatorTriggerOnExit": ["BeHit", "DoSkill", "Jump"],
          "setAnimatorBoolean": [
            {
              "name": "&CanUseSkill"
            }
          ],
          "canChangeAvatar": [{}],
          "equipReattach": [
            {
              "equip": "equip01",
              "targetPoint": "WeaponR2"
            }
          ],
          "jumpCancelStart": 0.10000000149011612,
          "animatorTriggerOnLanded": "",
          "battouOnStart": true
        },
        "Sit": {
          "$type": "KBOPIKLCBOA",
          "animatorStates": {
            "SitDown": ["Audio_Girl_SitDown", "Audio_Male_Sit_Tartaglia"],
            "SitLoop": [],
            "SitUp": ["Audio_Girl_SitDown", "Audio_Male_Sit_Tartaglia"]
          },
          "MOKBIKEEHMJ": "performMove",
          "massRatio": 100.0,
          "actionPanelState": "Perform",
          "animatorTriggerOnLanded": "",
          "sheatheOnStart": true
        },
        "SitB": {
          "$type": "KBOPIKLCBOA",
          "animatorStates": {
            "SitBDown": ["Audio_Girl_SitDown", "Audio_Male_Sit_Tartaglia"],
            "SitBLoop": [],
            "SitBUp": ["Audio_Girl_SitDown", "Audio_Male_Sit_Tartaglia"]
          },
          "MOKBIKEEHMJ": "performMove",
          "massRatio": 100.0,
          "actionPanelState": "Perform",
          "animatorTriggerOnLanded": "",
          "sheatheOnStart": true
        },
        "StandbyShow": {
          "$type": "KBOPIKLCBOA",
          "animatorStates": {
            "StandbyVoice": ["Audio_Male_StandbyVoice"],
            "StandbyShow_01": [
              "Manekin_Tartaglia_Show01",
              "Audio_Boy_StandbyShow_01_Tartaglia_SFX"
            ],
            "StandbyShow_02": [
              "Manekin_Tartaglia_Show02",
              "Audio_Boy_StandbyShow_02_Tartaglia_SFX"
            ]
          },
          "MOKBIKEEHMJ": "performMove",
          "canDoSkill": true,
          "massRatio": 100.0,
          "setAnimatorBoolean": [
            {
              "name": "&CanUseSkill"
            }
          ],
          "canChangeAvatar": [{}],
          "equipReattach": [
            {
              "equip": "equip02",
              "targetPoint": "CatalystR"
            }
          ],
          "animatorTriggerOnLanded": "",
          "sheatheOnStart": true
        },
        "TakePhotos": {
          "$type": "KBOPIKLCBOA",
          "animatorStates": {
            "Think01BS": [],
            "Akimbo02BS": [],
            "Think01Loop": [],
            "Akimbo02Loop": [],
            "Think01AS": [],
            "Akimbo02AS": []
          },
          "animatorTriggerOnLanded": ""
        },
        "Channel_BS": {
          "$type": "KBOPIKLCBOA",
          "animatorStates": {
            "ChannelBS": ["Emo_Avatar_Common_Manekin_Default"]
          },
          "MOKBIKEEHMJ": "combatMove",
          "canDoSkill": true,
          "massRatio": 100.0,
          "resetAnimatorTriggerOnExit": ["BeHit", "DoSkill", "Jump"],
          "setAnimatorBoolean": [
            {
              "name": "&CanUseSkill"
            }
          ],
          "canChangeAvatar": [{}],
          "animatorTriggerOnLanded": "",
          "sheatheOnStart": true
        },
        "Channel_Loop": {
          "$type": "KBOPIKLCBOA",
          "animatorStates": {
            "ChannelLoop": []
          },
          "MOKBIKEEHMJ": "combatMove",
          "canDoSkill": true,
          "massRatio": 100.0,
          "resetAnimatorTriggerOnExit": ["BeHit", "DoSkill", "Jump"],
          "setAnimatorBoolean": [
            {
              "name": "&CanUseSkill"
            }
          ],
          "canChangeAvatar": [{}],
          "animatorTriggerOnLanded": "",
          "sheatheOnStart": true
        },
        "Channel_AS": {
          "$type": "KBOPIKLCBOA",
          "animatorStates": {
            "ChannelAS": []
          },
          "MOKBIKEEHMJ": "combatMove",
          "canDoSkill": true,
          "massRatio": 100.0,
          "resetAnimatorTriggerOnExit": ["BeHit", "DoSkill", "Jump"],
          "setAnimatorBoolean": [
            {
              "name": "&CanUseSkill"
            }
          ],
          "canChangeAvatar": [{}],
          "animatorTriggerOnLanded": "",
          "sheatheOnStart": true
        },
        "PlayMusic_Lyre": {
          "$type": "KBOPIKLCBOA",
          "animatorStates": {
            "PlayMusic_Lyre_BS": ["PlayMusic_Lyre_Male"],
            "PlayMusic_Lyre_Loop": ["PlayMusic_Lyre_Male_Loop"]
          },
          "MOKBIKEEHMJ": "combatMove",
          "massRatio": 100.0,
          "resetAnimatorTriggerOnExit": ["BeHit", "DoSkill", "Jump"],
          "animatorTriggerOnLanded": "",
          "sheatheOnStart": true
        },
        "PlayMusic_Lyre_AS": {
          "$type": "KBOPIKLCBOA",
          "animatorStates": {
            "PlayMusic_Lyre_AS": ["PlayMusic_Lyre_Male_AS"]
          },
          "MOKBIKEEHMJ": "combatMove",
          "canDoSkill": true,
          "massRatio": 100.0,
          "resetAnimatorTriggerOnExit": ["BeHit", "DoSkill", "Jump"],
          "setAnimatorBoolean": [
            {
              "name": "&CanUseSkill"
            }
          ],
          "canChangeAvatar": [{}],
          "animatorTriggerOnLanded": "",
          "sheatheOnStart": true
        },
        "PlayMusic_Qin": {
          "$type": "KBOPIKLCBOA",
          "animatorStates": {
            "PlayMusic_Qin_BS": ["PlayMusic_Qin_Male"],
            "PlayMusic_Qin_Loop": ["PlayMusic_Qin_Male_Loop"]
          },
          "MOKBIKEEHMJ": "combatMove",
          "massRatio": 100.0,
          "resetAnimatorTriggerOnExit": ["BeHit", "DoSkill", "Jump"],
          "animatorTriggerOnLanded": "",
          "sheatheOnStart": true
        },
        "PlayMusic_Qin_AS": {
          "$type": "KBOPIKLCBOA",
          "animatorStates": {
            "PlayMusic_Qin_AS": ["PlayMusic_Qin_Male_AS"]
          },
          "MOKBIKEEHMJ": "combatMove",
          "canDoSkill": true,
          "massRatio": 100.0,
          "resetAnimatorTriggerOnExit": ["BeHit", "DoSkill", "Jump"],
          "setAnimatorBoolean": [
            {
              "name": "&CanUseSkill"
            }
          ],
          "canChangeAvatar": [{}],
          "animatorTriggerOnLanded": "",
          "sheatheOnStart": true
        },
        "PlayMusic_Drum": {
          "$type": "KBOPIKLCBOA",
          "animatorStates": {
            "PlayMusic_Drum_BS": ["PlayMusic_Drum_Male"],
            "PlayMusic_Drum_Loop": ["PlayMusic_Drum_Male_Loop"]
          },
          "MOKBIKEEHMJ": "combatMove",
          "massRatio": 100.0,
          "resetAnimatorTriggerOnExit": ["BeHit", "DoSkill", "Jump"],
          "animatorTriggerOnLanded": "",
          "sheatheOnStart": true
        },
        "PlayMusic_Drum_AS": {
          "$type": "KBOPIKLCBOA",
          "animatorStates": {
            "PlayMusic_Drum_AS": ["PlayMusic_Drum_Male_AS"]
          },
          "MOKBIKEEHMJ": "combatMove",
          "canDoSkill": true,
          "massRatio": 100.0,
          "resetAnimatorTriggerOnExit": ["BeHit", "DoSkill", "Jump"],
          "setAnimatorBoolean": [
            {
              "name": "&CanUseSkill"
            }
          ],
          "canChangeAvatar": [{}],
          "animatorTriggerOnLanded": "",
          "sheatheOnStart": true
        },
        "PlayMusic_FrenchHorn": {
          "$type": "KBOPIKLCBOA",
          "animatorStates": {
            "PlayMusic_FrenchHorn_BS": ["PlayMusic_Frenchhorn_Male"],
            "PlayMusic_FrenchHorn_Loop": ["PlayMusic_Frenchhorn_Male_Loop"]
          },
          "MOKBIKEEHMJ": "combatMove",
          "massRatio": 100.0,
          "resetAnimatorTriggerOnExit": ["BeHit", "DoSkill", "Jump"],
          "animatorTriggerOnLanded": "",
          "sheatheOnStart": true
        },
        "PlayMusic_FrenchHorn_AS": {
          "$type": "KBOPIKLCBOA",
          "animatorStates": {
            "PlayMusic_FrenchHorn_AS": ["PlayMusic_Frenchhorn_Male_AS"]
          },
          "MOKBIKEEHMJ": "combatMove",
          "canDoSkill": true,
          "massRatio": 100.0,
          "resetAnimatorTriggerOnExit": ["BeHit", "DoSkill", "Jump"],
          "setAnimatorBoolean": [
            {
              "name": "&CanUseSkill"
            }
          ],
          "canChangeAvatar": [{}],
          "animatorTriggerOnLanded": "",
          "sheatheOnStart": true
        },
        "ActivitySkill_ElectricCoreFly": {
          "$type": "KBOPIKLCBOA",
          "animatorStates": {
            "ActivitySkill_ElectricCoreFly": []
          },
          "MOKBIKEEHMJ": "combatAir",
          "massRatio": 100.0,
          "resetAnimatorTriggerOnEnter": ["ElectricCoreFly_End"],
          "resetAnimatorTriggerOnExit": [
            "BeHit",
            "DoSkill",
            "Jump",
            "ElectricCoreFly_End"
          ],
          "animatorTriggerOnLanded": "",
          "sheatheOnStart": true
        },
        "ActivitySkill_GrapplingHook": {
          "$type": "KBOPIKLCBOA",
          "animatorStates": {
            "ActivitySkill_GrapplingHook": []
          },
          "MOKBIKEEHMJ": "combatAir",
          "massRatio": 100.0,
          "resetAnimatorTriggerOnEnter": ["GrapplingHook_Drop"],
          "resetAnimatorTriggerOnExit": [
            "BeHit",
            "DoSkill",
            "Jump",
            "GrapplingHook_Drop"
          ],
          "animatorTriggerOnLanded": "",
          "sheatheOnStart": true
        },
        "ActivitySkill_CustomSkill01": {
          "$type": "KBOPIKLCBOA",
          "animatorStates": {
            "ActivitySkill_CustomSkill01": []
          },
          "MOKBIKEEHMJ": "combatAir",
          "canDoSkill": true,
          "massRatio": 100.0,
          "resetAnimatorTriggerOnEnter": [
            "CustomSkill_End_Fly",
            "CustomSkill_End_Drop"
          ],
          "resetAnimatorTriggerOnExit": [
            "BeHit",
            "DoSkill",
            "Jump",
            "CustomSkill_End_Fly",
            "CustomSkill_End_Drop"
          ],
          "animatorTriggerOnLanded": "",
          "sheatheOnStart": true
        },
        "ActivitySkill_CustomSkill02": {
          "$type": "KBOPIKLCBOA",
          "animatorStates": {
            "ActivitySkill_CustomSkill02": []
          },
          "MOKBIKEEHMJ": "combatAir",
          "canDoSkill": true,
          "massRatio": 100.0,
          "resetAnimatorTriggerOnEnter": [
            "CustomSkill_End_Fly",
            "CustomSkill_End_Drop"
          ],
          "resetAnimatorTriggerOnExit": [
            "BeHit",
            "DoSkill",
            "Jump",
            "CustomSkill_End_Fly",
            "CustomSkill_End_Drop"
          ],
          "animatorTriggerOnLanded": "",
          "sheatheOnStart": true
        },
        "ActivitySkill_CommonMove": {
          "$type": "KBOPIKLCBOA",
          "animatorStates": {
            "ActivitySkill_CommonMove": []
          },
          "addEndure": 0.0,
          "massRatio": 100.0,
          "resetAnimatorTriggerOnExit": ["BeHit", "DoSkill", "Jump"],
          "enableBoneFollowMove": true,
          "jumpCancelStart": -1.0,
          "sprintCancelStart": -1.0,
          "animatorTriggerOnLanded": "",
          "sheatheOnStart": true
        },
        "DiveChannel_BS": {
          "$type": "KBOPIKLCBOA",
          "animatorStates": {
            "DiveChannelBS": [
              "Emo_Avatar_Common_Manekin_Default",
              "Audio_Male_DiveChannel_BS"
            ]
          },
          "MOKBIKEEHMJ": "combatDive",
          "massRatio": 100.0,
          "resetAnimatorTriggerOnExit": ["BeHit", "DoSkill", "Jump"],
          "setAnimatorBoolean": [
            {
              "name": "&CanUseSkill"
            }
          ],
          "canChangeAvatar": [{}],
          "actionPanelState": "Dive",
          "sprintCancelEnd": -1.0,
          "animatorTriggerOnLanded": "",
          "sheatheOnStart": true
        },
        "DiveChannel_Loop": {
          "$type": "KBOPIKLCBOA",
          "animatorStates": {
            "DiveChannelLoop": []
          },
          "MOKBIKEEHMJ": "combatDive",
          "massRatio": 100.0,
          "resetAnimatorTriggerOnExit": ["BeHit", "DoSkill", "Jump"],
          "setAnimatorBoolean": [
            {
              "name": "&CanUseSkill"
            }
          ],
          "canChangeAvatar": [{}],
          "actionPanelState": "Dive",
          "sprintCancelEnd": -1.0,
          "animatorTriggerOnLanded": "",
          "sheatheOnStart": true
        },
        "DiveChannel_AS": {
          "$type": "KBOPIKLCBOA",
          "animatorStates": {
            "DiveChannelAS": ["Audio_Male_DiveChannel_AS"]
          },
          "MOKBIKEEHMJ": "combatDive",
          "canDoSkill": true,
          "canDoSkillStart": 0.30000001192092896,
          "massRatio": 100.0,
          "resetAnimatorTriggerOnExit": ["BeHit", "DoSkill", "Jump"],
          "setAnimatorBoolean": [
            {
              "name": "&CanUseSkill"
            }
          ],
          "canChangeAvatar": [{}],
          "actionPanelState": "Dive",
          "sprintCancelStart": 0.11999999731779099,
          "animatorTriggerOnLanded": "",
          "sheatheOnStart": true
        },
        "DiveCast_BS": {
          "$type": "KBOPIKLCBOA",
          "animatorStates": {
            "DiveCast_BS": [
              "Emo_Avatar_Common_Manekin_Default",
              "Audio_Male_DiveCast_BS"
            ]
          },
          "MOKBIKEEHMJ": "combatDive",
          "massRatio": 100.0,
          "resetAnimatorTriggerOnExit": ["BeHit", "DoSkill", "Jump"],
          "setAnimatorBoolean": [
            {
              "name": "&CanUseSkill"
            }
          ],
          "canChangeAvatar": [{}],
          "actionPanelState": "Dive",
          "sprintCancelEnd": -1.0,
          "animatorTriggerOnLanded": "",
          "sheatheOnStart": true
        },
        "DiveCast_Loop": {
          "$type": "KBOPIKLCBOA",
          "animatorStates": {
            "DiveCast_Loop": []
          },
          "MOKBIKEEHMJ": "combatDive",
          "massRatio": 100.0,
          "resetAnimatorTriggerOnExit": ["BeHit", "DoSkill", "Jump"],
          "setAnimatorBoolean": [
            {
              "name": "&CanUseSkill"
            }
          ],
          "canChangeAvatar": [{}],
          "actionPanelState": "Dive",
          "sprintCancelEnd": -1.0,
          "animatorTriggerOnLanded": "",
          "sheatheOnStart": true
        },
        "DiveCast_AS": {
          "$type": "KBOPIKLCBOA",
          "animatorStates": {
            "DiveCast_AS": ["Audio_Male_DiveCast_AS"]
          },
          "MOKBIKEEHMJ": "combatDive",
          "canDoSkill": true,
          "canDoSkillStart": 0.10000000149011612,
          "massRatio": 100.0,
          "resetAnimatorTriggerOnExit": ["BeHit", "DoSkill", "Jump"],
          "setAnimatorBoolean": [
            {
              "name": "&CanUseSkill"
            }
          ],
          "canChangeAvatar": [{}],
          "actionPanelState": "Dive",
          "sprintCancelStart": 0.09000000357627869,
          "animatorTriggerOnLanded": "",
          "sheatheOnStart": true
        },
        "Dive": {
          "$type": "KBOPIKLCBOA",
          "animatorStates": {
            "DiveIdle": [],
            "DiveMoveBS": ["Audio_Male_Dive_MoveBS"],
            "DiveMoveAS": ["Audio_Male_Dive_MoveAS"],
            "DiveMoveU_A": ["Audio_Male_Dive_MoveU_A"],
            "DiveMoveU_B": ["Audio_Male_Dive_MoveU_B"],
            "DiveMoveF_A": [],
            "DiveMoveF_B": ["Audio_Male_Dive_MoveF_B"],
            "DiveMoveD_A": ["Audio_Male_Dive_MoveD_A"],
            "DiveMoveD_B": ["Audio_Male_Dive_MoveD_B"],
            "DiveTurn": ["Audio_Male_Dive_Turn"],
            "DiveTurnAS": ["Audio_Male_Dive_Turn_AS"],
            "DiveTurn2": ["Audio_Male_Dive_Turn"],
            "DiveTurnAS2": ["Audio_Male_Dive_Turn_AS"],
            "DiveDashBS": ["Audio_Male_Dive_Dash_BS"],
            "DiveDashAS": ["Audio_Male_Dive_Dash_AS"],
            "DiveDash": [],
            "DiveDashB": ["Audio_Male_Dive_Out_DashB"],
            "DiveSuperDash": ["Audio_Male_Dive_SuperDash"],
            "DiveSuperDash2": ["Audio_Male_Dive_SuperDash2"]
          },
          "canDoSkill": true,
          "resetAnimatorTriggerOnEnter": ["DoSkill"],
          "setAnimatorBoolean": [
            {
              "name": "&CanUseSkill"
            }
          ],
          "canChangeAvatar": [{}],
          "actionPanelState": "Dive",
          "animatorTriggerOnLanded": "",
          "sheatheOnStart": true
        },
        "Dive_In_Out": {
          "$type": "KBOPIKLCBOA",
          "animatorStates": {
            "Dive_In_Up": ["Audio_Male_Dive_In_Up"],
            "Dive_In_Side": ["Audio_Male_Dive_In_Side"],
            "Dive_In_Bottom": ["Audio_Male_Dive_In_Bottom"],
            "Dive_Out_Side": ["Audio_Male_Dive_Out_Side"],
            "Dive_Out_Bottom": ["Audio_Male_Dive_Out_Bottom"],
            "Dive_Out_Up": ["Audio_Male_Dive_Out_Up"]
          },
          "resetAnimatorTriggerOnEnter": ["DoSkill"],
          "setAnimatorBoolean": [
            {
              "name": "&CanUseSkill"
            }
          ],
          "actionPanelState": "Dive",
          "animatorTriggerOnLanded": "",
          "sheatheOnStart": true
        },
        "DiveStream": {
          "$type": "KBOPIKLCBOA",
          "animatorStates": {
            "DiveStreamIn": ["Audio_Male_Dive_Stream_In"],
            "DiveStreamOut": ["Audio_Male_Dive_Stream_Out"],
            "DiveStream": [],
            "DiveStreamRoll_L": ["Audio_Male_Dive_Stream_Roll_L"],
            "DiveStreamRoll_R": ["Audio_Male_Dive_Stream_Roll_R"]
          },
          "canDoSkill": true,
          "resetAnimatorTriggerOnEnter": ["DoSkill"],
          "setAnimatorBoolean": [
            {
              "name": "&CanUseSkill"
            }
          ],
          "actionPanelState": "Dive",
          "animatorTriggerOnLanded": "",
          "sheatheOnStart": true
        },
        "DiveJump": {
          "$type": "KBOPIKLCBOA",
          "animatorStates": {
            "Dive_Out_DashU": ["Audio_Male_Dive_Out_DashU"],
            "Dive_Out_DashD": ["Audio_Male_Dive_Out_DashD"],
            "Dive_Out_DashFBS": ["Audio_Male_Dive_Out_DashFBS"],
            "Dive_Out_DashFAS": ["Audio_Male_Dive_Out_DashFAS"],
            "Dive_Out_DashFLoop": []
          },
          "canDoSkill": true,
          "resetAnimatorTriggerOnEnter": ["DoSkill", "AimEnd"],
          "setAnimatorBoolean": [
            {
              "name": "&CanUseAirSkill"
            }
          ],
          "actionPanelState": "Jump",
          "animatorTriggerOnLanded": "",
          "sheatheOnStart": true
        },
        "BeHitDive": {
          "$type": "KBOPIKLCBOA",
          "animatorStates": {
            "BeHitDive": ["Audio_Male_Dive_beHit"],
            "DiveStruggle": []
          },
          "MOKBIKEEHMJ": "combatDive",
          "resetAnimatorTriggerOnEnter": ["BeHit"],
          "resetAnimatorTriggerOnExit": ["DoSkill"],
          "cameraType": "combatBeHit",
          "actionPanelState": "Dive",
          "jumpCancelEnd": 0.0,
          "animatorTriggerOnLanded": "",
          "sheatheOnStart": true
        },
        "MultiOverride_01": {
          "$type": "KBOPIKLCBOA",
          "animatorStates": {
            "MultiOverrideBS_01": [],
            "MultiOverrideLoop_01": [],
            "MultiOverrideAS_01": []
          },
          "animatorTriggerOnLanded": ""
        },
        "MultiOverride2": {
          "$type": "KBOPIKLCBOA",
          "animatorStates": {
            "MultiOverrideBS_02": [],
            "MultiOverrideLoop_02": [],
            "MultiOverrideAS_02": []
          },
          "animatorTriggerOnLanded": ""
        },
        "MultiOverride3": {
          "$type": "KBOPIKLCBOA",
          "animatorStates": {
            "MultiOverrideBS_03": [],
            "MultiOverrideLoop_03": [],
            "MultiOverrideAS_03": []
          },
          "animatorTriggerOnLanded": ""
        },
        "MultiOverride": {
          "$type": "KBOPIKLCBOA",
          "INKINKDHODO": {
            "Ani_Avatar_Male_Bow_Tartaglia_Photo01BS": [],
            "Ani_Avatar_Male_Bow_Tartaglia_Photo01Loop": [],
            "Ani_Avatar_Male_Bow_Tartaglia_Photo01AS": [],
            "Ani_Avatar_Male_Bow_Tartaglia_Photo02BS": [],
            "Ani_Avatar_Male_Bow_Tartaglia_Photo02Loop": [],
            "Ani_Avatar_Male_Bow_Tartaglia_Photo02AS": []
          },
          "animatorTriggerOnLanded": ""
        }
      }
    },
    "aimShootLayer": {
      "$type": "GBGJJIIEMBD",
      "layerIndex": 6,
      "layerIndexName": "AimShootLayer",
      "CPAANEIJCGD": "",
      "stateIDs": {
        "AimShoot": {
          "$type": "KBOPIKLCBOA",
          "priority": -1,
          "animatorStates": {
            "AimShoot": [
              "Tartaglia_AimShoot",
              "Emo_Avatar_Tartaglia_Fight_AimAttack",
              "Audio_Male_Bow_Tartaglia_AimShoot"
            ]
          },
          "MOKBIKEEHMJ": "combatMove",
          "canDoSkill": true,
          "resetAnimatorTriggerOnExit": ["BeHit", "DoSkill", "Jump"],
          "needFaceToAnimParam": true,
          "actionPanelState": "Aim",
          "animatorTriggerOnLanded": "",
          "battouOnStart": true
        },
        "FastAimShoot": {
          "$type": "KBOPIKLCBOA",
          "priority": -1,
          "animatorStates": {
            "FastAimShoot": [
              "Tartaglia_AimShoot",
              "Emo_Avatar_Tartaglia_Fight_AimAttack",
              "Audio_Male_Bow_Tartaglia_FastAimShoot"
            ]
          },
          "MOKBIKEEHMJ": "combatMove",
          "canDoSkill": true,
          "resetAnimatorTriggerOnExit": ["BeHit", "DoSkill", "Jump"],
          "needFaceToAnimParam": true,
          "actionPanelState": "FastAim",
          "animatorTriggerOnLanded": "",
          "battouOnStart": true
        }
      }
    },
    "diveLayer": {
      "$type": "GBGJJIIEMBD",
      "layerIndex": 7,
      "layerIndexName": "DiveLayer",
      "CPAANEIJCGD": ""
    }
  },
  "DADEGCDMOBD": false,
  "shootConfig": {
    "normalShoot": {
      "bulletBornAttachPoint": "WeaponL",
      "detectRangeFromViewport": 100.0,
      "autoFocusMinRange": 2.0,
      "autoFocusMaxRange": 7.0
    },
    "aimingShoot": {
      "bulletBornAttachPoint": "FocusAnchor",
      "detectRangeFromViewport": 100.0,
      "detectRadiusFromViewport": 0.15000000596046448,
      "autoFocusMinRange": 2.0,
      "autoFocusMaxRange": 25.0
    }
  },
  "audio": {
    "overrideEmitterName": "",
    "animAudio": {
      "onTransitionIn": [
        {
          "currentStateName": "AimLoop",
          "audioEvent": {
            "text": "Play_sfx_weapon_bow_aimFocus"
          }
        },
        {
          "currentStateName": "FastAimLoop",
          "audioEvent": {
            "text": "Play_sfx_weapon_bow_aimFocus"
          }
        },
        {
          "currentStateName": "SlipBackWall",
          "audioEvent": {
            "text": "Play_sfx_char_slipWall"
          }
        },
        {
          "currentStateName": "SlipFaceWall",
          "audioEvent": {
            "text": "Play_sfx_char_slipWall"
          }
        },
        {
          "currentStateName": "NormalDie",
          "audioEvent": {
            "text": "Play_sfx_char_land"
          },
          "otherStateNames": ["FallOnGround"],
          "usage": "InSet"
        },
        {
          "currentStateName": "SwimJumpToWater",
          "audioEvent": {
            "text": "Stop_sfx_char_swim_dive"
          }
        },
        {
          "currentStateName": "SwimDash",
          "audioEvent": {
            "text": "Play_sfx_char_swim_dash"
          }
        },
        {
          "currentStateName": "Standby",
          "audioEvent": {
            "text": "Stop_sfx_char_fly"
          }
        },
        {
          "currentStateName": "DiveDash",
          "audioEvent": {
            "text": "Play_sfx_char_dive_dash_lp"
          },
          "otherStateNames": ["DiveDashBS"],
          "usage": "InSet"
        },
        {
          "currentStateName": "DiveStream",
          "audioEvent": {
            "text": "Play_sfx_char_dive_stream_lp"
          }
        },
        {
          "currentStateName": "Dive_Out_DashFLoop",
          "audioEvent": {
            "text": "Play_sfx_char_dive_out_dashFLoop"
          }
        },
        {
          "currentStateName": "DiveMoveF_A",
          "audioEvent": {
            "text": "Play_sfx_char_dive_moveF_A"
          }
        },
        {
          "currentStateName": "DiveChannel_Loop",
          "audioEvent": {
            "text": "Play_vfx_Avatar_Diving_Channel_LP"
          }
        }
      ],
      "onTransitionOut": [
        {
          "currentStateName": "Gandalfr_Start_AS",
          "audioEvent": {
            "text": "Stop_sfx_char_tartaglia_bow_gandalfr_start_AS"
          }
        },
        {
          "currentStateName": "Gandalfr_End",
          "audioEvent": {
            "text": "Stop_sfx_char_tartaglia_bow_gandalfr_end"
          }
        },
        {
          "currentStateName": "FastAimLoop",
          "audioEvent": {
            "text": "Stop_sfx_char_tartaglia_bow_fastAim_lp"
          }
        },
        {
          "currentStateName": "FastAimLoop",
          "audioEvent": {
            "text": "Play_sfx_weapon_bow_girl_aimNormal"
          },
          "otherStateNames": ["FastAimShoot"],
          "usage": "Except"
        },
        {
          "currentStateName": "AimLoop",
          "audioEvent": {
            "text": "Play_sfx_weapon_bow_girl_aimNormal"
          },
          "otherStateNames": ["AimShoot"],
          "usage": "Except"
        },
        {
          "currentStateName": "AimLoop",
          "audioEvent": {
            "text": "Stop_sfx_char_tartaglia_bow_fastAim_lp"
          }
        },
        {
          "currentStateName": "ShootStandbyBS",
          "audioEvent": {
            "text": "Stop_sfx_char_tartaglia_bow_shootStandbyBS"
          }
        },
        {
          "currentStateName": "Tartaglia_Attack06_AS",
          "audioEvent": {
            "text": "Stop_sfx_char_tartaglia_bow_attack06_AS"
          }
        },
        {
          "currentStateName": "AquariaBlade_Range_AS",
          "audioEvent": {
            "text": "Stop_sfx_char_tartaglia_bow_aquariaBlade_range_AS"
          }
        },
        {
          "currentStateName": "Gandalfr_Start",
          "audioEvent": {
            "text": "Stop_sfx_char_tartaglia_bow_gandalfr_start"
          }
        },
        {
          "currentStateName": "Gandalfr_End",
          "audioEvent": {
            "text": "Stop_sfx_char_tartaglia_bow_gandalfr_end"
          }
        },
        {
          "currentStateName": "Gandalfr_ExtraAttack",
          "audioEvent": {
            "text": "Stop_sfx_char_tartaglia_bow_gandalfr_exAttack"
          },
          "otherStateNames": ["Gandalfr_ExtraAttack_AS"],
          "usage": "Except"
        },
        {
          "currentStateName": "Gandalfr_ExtraAttack_AS",
          "audioEvent": {
            "text": "Stop_sfx_char_tartaglia_bow_gandalfr_exAttack_AS"
          }
        },
        {
          "currentStateName": "AquariaBlade_Melee_AS",
          "audioEvent": {
            "text": "Stop_sfx_char_tartaglia_bow_aquariaBlade_melee_range_AS"
          }
        },
        {
          "currentStateName": "StandbyPutaway",
          "audioEvent": {
            "text": "Stop_sfx_weapon_1HSword_lady_putAwayStandby"
          }
        },
        {
          "currentStateName": "StandbyShow_02",
          "audioEvent": {
            "text": "Stop_sfx_standbyShow_tartaglia_callup"
          }
        },
        {
          "currentStateName": "StandbyShow_02",
          "audioEvent": {
            "text": "Stop_sfx_standbyShow_tartaglia_bow"
          }
        },
        {
          "currentStateName": "StandbyShow_02",
          "audioEvent": {
            "text": "Stop_sfx_standbyShow_tartaglia_disappear"
          }
        },
        {
          "currentStateName": "StandbyShow_01",
          "audioEvent": {
            "text": "Stop_sfx_standbyShow_tartaglia_flap"
          }
        },
        {
          "currentStateName": "WalkPutaway",
          "audioEvent": {
            "text": "Stop_sfx_weapon_1HSword_lady_putAwayStandby"
          }
        },
        {
          "currentStateName": "RunPutaway",
          "audioEvent": {
            "text": "Stop_sfx_weapon_1HSword_lady_putAwayStandby"
          }
        },
        {
          "currentStateName": "SwimJumpDrop",
          "audioEvent": {
            "text": "Stop_sfx_char_swim_drop"
          }
        },
        {
          "currentStateName": "SwimJump",
          "audioEvent": {
            "text": "Stop_sfx_char_swim_drop"
          },
          "otherStateNames": ["SwimJumpDrop"],
          "usage": "Except"
        },
        {
          "currentStateName": "Fly",
          "audioEvent": {
            "text": "Play_sfx_char_land_climb"
          },
          "otherStateNames": [
            "ClimbIdle",
            "ClimbMove0",
            "ClimbMove1",
            "ClimbJump"
          ],
          "usage": "InSet"
        },
        {
          "currentStateName": "FlyStart",
          "audioEvent": {
            "text": "Play_sfx_char_land_climb"
          },
          "otherStateNames": [
            "ClimbIdle",
            "ClimbMove0",
            "ClimbMove1",
            "ClimbJump"
          ],
          "usage": "InSet"
        },
        {
          "currentStateName": "Fly",
          "audioEvent": {
            "text": "Stop_sfx_char_fly"
          }
        },
        {
          "currentStateName": "SlipFaceWall",
          "audioEvent": {
            "text": "Stop_sfx_char_slipWall"
          }
        },
        {
          "currentStateName": "SlipBackWall",
          "audioEvent": {
            "text": "Stop_sfx_char_slipWall"
          }
        },
        {
          "currentStateName": "SlipFaceWall",
          "audioEvent": {
            "text": "Stop_sfx_char_drop"
          }
        },
        {
          "currentStateName": "SlipBackWall",
          "audioEvent": {
            "text": "Stop_sfx_char_drop"
          }
        },
        {
          "currentStateName": "DropDownLit",
          "audioEvent": {
            "text": "Play_sfx_char_land_climb"
          },
          "otherStateNames": [
            "ClimbIdle",
            "ClimbMove0",
            "ClimbMove1",
            "ClimbJump"
          ],
          "usage": "InSet"
        },
        {
          "currentStateName": "DropDown",
          "audioEvent": {
            "text": "Play_sfx_char_land_climb"
          },
          "otherStateNames": [
            "ClimbIdle",
            "ClimbMove0",
            "ClimbMove1",
            "ClimbJump"
          ],
          "usage": "InSet"
        },
        {
          "currentStateName": "WalkDropDownLit",
          "audioEvent": {
            "text": "Play_sfx_char_land_climb"
          },
          "otherStateNames": [
            "ClimbIdle",
            "ClimbMove0",
            "ClimbMove1",
            "ClimbJump"
          ],
          "usage": "InSet"
        },
        {
          "currentStateName": "Jump",
          "audioEvent": {
            "text": "Play_sfx_char_land_climb"
          },
          "otherStateNames": [
            "ClimbIdle",
            "ClimbMove0",
            "ClimbMove1",
            "ClimbJump"
          ],
          "usage": "InSet"
        },
        {
          "currentStateName": "JumpForWalk",
          "audioEvent": {
            "text": "Play_sfx_char_land_climb"
          },
          "otherStateNames": [
            "ClimbIdle",
            "ClimbMove0",
            "ClimbMove1",
            "ClimbJump"
          ],
          "usage": "InSet"
        },
        {
          "currentStateName": "JumpForRun",
          "audioEvent": {
            "text": "Play_sfx_char_land_climb"
          },
          "otherStateNames": [
            "ClimbIdle",
            "ClimbMove0",
            "ClimbMove1",
            "ClimbJump"
          ],
          "usage": "InSet"
        },
        {
          "currentStateName": "JumpForSprint",
          "audioEvent": {
            "text": "Play_sfx_char_land_climb"
          },
          "otherStateNames": [
            "ClimbIdle",
            "ClimbMove0",
            "ClimbMove1",
            "ClimbJump"
          ],
          "usage": "InSet"
        },
        {
          "currentStateName": "JumpWeapon",
          "audioEvent": {
            "text": "Play_sfx_char_land_climb"
          },
          "otherStateNames": [
            "ClimbIdle",
            "ClimbMove0",
            "ClimbMove1",
            "ClimbJump"
          ],
          "usage": "InSet"
        },
        {
          "currentStateName": "JumpForWalkWeapon",
          "audioEvent": {
            "text": "Play_sfx_char_land_climb"
          },
          "otherStateNames": [
            "ClimbIdle",
            "ClimbMove0",
            "ClimbMove1",
            "ClimbJump"
          ],
          "usage": "InSet"
        },
        {
          "currentStateName": "JumpForRunWeapon",
          "audioEvent": {
            "text": "Play_sfx_char_land_climb"
          },
          "otherStateNames": [
            "ClimbIdle",
            "ClimbMove0",
            "ClimbMove1",
            "ClimbJump"
          ],
          "usage": "InSet"
        },
        {
          "currentStateName": "DropDownWeapon",
          "audioEvent": {
            "text": "Play_sfx_char_land_climb"
          },
          "otherStateNames": [
            "ClimbIdle",
            "ClimbMove0",
            "ClimbMove1",
            "ClimbJump"
          ],
          "usage": "InSet"
        },
        {
          "currentStateName": "DropDownLitWeapon",
          "audioEvent": {
            "text": "Play_sfx_char_land_climb"
          },
          "otherStateNames": [
            "ClimbIdle",
            "ClimbMove0",
            "ClimbMove1",
            "ClimbJump"
          ],
          "usage": "InSet"
        },
        {
          "currentStateName": "SwimMove",
          "audioEvent": {
            "text": "Stop_sfx_char_swim"
          }
        },
        {
          "currentStateName": "DiveDash",
          "audioEvent": {
            "text": "Stop_sfx_char_dive_dash_lp"
          },
          "otherStateNames": ["DiveDashB", "DiveTurn", "DiveTurn2"],
          "usage": "Except"
        },
        {
          "currentStateName": "DiveStream",
          "audioEvent": {
            "text": "Stop_sfx_char_dive_stream_lp"
          },
          "otherStateNames": ["DiveStreamRoll_L", "DiveStreamRoll_R"],
          "usage": "Except"
        },
        {
          "currentStateName": "DiveMoveAS",
          "audioEvent": {
            "text": "Stop_sfx_char_dive_move_AS"
          }
        },
        {
          "currentStateName": "Dive_Out_DashFLoop",
          "audioEvent": {
            "text": "Stop_sfx_char_dive_out_dashFLoop"
          }
        },
        {
          "currentStateName": "DiveIdle",
          "audioEvent": {
            "text": "Stop_sfx_char_dive_dash_lp"
          }
        },
        {
          "currentStateName": "Dive_Out_Up",
          "audioEvent": {
            "text": "Stop_sfx_char_dive_moveF_A"
          }
        },
        {
          "currentStateName": "DiveChannel_Loop",
          "audioEvent": {
            "text": "Stop_vfx_Avatar_Diving_Channel_LP"
          }
        },
        {
          "currentStateName": "DiveMoveU_A",
          "audioEvent": {
            "text": "Stop_sfx_char_dive_moveU_A"
          }
        },
        {
          "currentStateName": "DiveMoveF_A",
          "audioEvent": {
            "text": "Stop_sfx_char_dive_moveF_A"
          },
          "otherStateNames": ["DiveMoveF_B"],
          "usage": "Except"
        }
      ],
      "recurrentSpeeches": {
        "Standby": {
          "start": {
            "upper": 28.0,
            "lower": 23.0
          },
          "interval": {
            "upper": 40.0,
            "lower": 34.0
          },
          "eventName": {
            "text": ""
          }
        },
        "Walk": {
          "start": {
            "upper": 16.0,
            "lower": 13.0
          },
          "interval": {
            "upper": 14.0,
            "lower": 10.0
          },
          "eventName": {
            "text": ""
          }
        },
        "Run": {
          "start": {
            "upper": 13.0,
            "lower": 9.0
          },
          "interval": {
            "upper": 11.0,
            "lower": 8.0
          },
          "eventName": {
            "text": ""
          }
        },
        "Sprint": {
          "start": {
            "upper": 12.0,
            "lower": 7.0
          },
          "interval": {
            "upper": 9.0,
            "lower": 6.0
          },
          "eventName": {
            "text": ""
          }
        }
      }
    },
    "moveStateAudio": {
      "onStateBegin": [
        {
          "currentStateName": "Fly",
          "audioEvent": {
            "text": "Play_sfx_char_fly"
          }
        },
        {
          "currentStateName": "Air",
          "audioEvent": {
            "text": "Play_sfx_char_drop"
          },
          "otherStateNames": ["Fly"],
          "usage": "InSet"
        },
        {
          "currentStateName": "CombatDive",
          "audioEvent": {
            "text": "Play_sfx_char_dive_move_swim_idle"
          },
          "otherStateNames": ["Dive"],
          "usage": "Except"
        },
        {
          "currentStateName": "Dive",
          "audioEvent": {
            "text": "Play_sfx_char_dive_move_swim_idle"
          },
          "otherStateNames": ["CombatDive"],
          "usage": "Except"
        }
      ],
      "onStateEnd": [
        {
          "currentStateName": "Fly",
          "audioEvent": {
            "text": "Stop_sfx_char_fly"
          }
        },
        {
          "currentStateName": "Air",
          "audioEvent": {
            "text": "Stop_sfx_char_drop"
          }
        },
        {
          "currentStateName": "Dive",
          "audioEvent": {
            "text": "Stop_sfx_char_dive_move_swim_idle"
          },
          "otherStateNames": ["CombatDive"],
          "usage": "Except"
        },
        {
          "currentStateName": "CombatDive",
          "audioEvent": {
            "text": "Stop_sfx_char_dive_move_swim_idle"
          },
          "otherStateNames": ["Dive"],
          "usage": "Except"
        }
      ]
    },
    "voiceSwitch": {
      "text": "Switch_Tartaglia"
    },
    "bodyTypeSwitch": {
      "text": "Switch_Male"
    },
    "listenerLiftup": 1.5,
    "surfaceProberLiftup": 1.5
  },
  "ONIAJBGGJHD": "AvatarMale",
  "perform": {
    "standby": {
      "minTime": 10.0,
      "maxTime": 20.0,
      "performIDs": [201, 202, 200, 200]
    }
  }
}
