{
  "common": {
    "effectAttachShape": {
      "$type": "FJNPJANPGGC",
      "mesh": "EffectMesh"
    },
    "mass": 10.0,
    "height": 1.639699935913086,
    "modelHeight": 1.6138999462127686,
    "affectedByWorld": true,
    "checkInSurface": true
  },
  "headControl": {
    "$type": "KPIPDEBDPIH",
    "useHeadControl": true,
    "animStates": [
      "NormalStandby",
      "NormalMove/WalkToRun",
      "NormalMove/Walk",
      "NormalMove/RunToWalk",
      "NormalMove/Run",
      "NormalMove/RunToIdle",
      "NormalMove/WalkToIdle",
      "NormalMove/RunningTurn",
      "NormalMove/SprintToRun",
      "NormalMove/SprintToIdle",
      "Sprint",
      "Climb/ClimbIdle",
      "Ladder/LadderIdle",
      "Swim/SwimIdle",
      "NormalStandbyWeapon",
      "NormalMoveWeapon/WalkToRunWeapon",
      "NormalMoveWeapon/WalkWeapon",
      "NormalMoveWeapon/RunToWalkWeapon",
      "NormalMoveWeapon/RunWeapon",
      "NormalMoveWeapon/RunToIdleWeapon",
      "NormalMoveWeapon/WalkToIdleWeapon",
      "NormalMoveWeapon/RunningTurnWeapon"
    ]
  },
  "specialPoint": {
    "elementAbsorb": "PRIVATE_Pendant",
    "elementPendant": "PRIVATE_Pendant",
    "elementDrop": "RootNode",
    "bulletAim": "RootNode"
  },
  "model": {
    "bornEffect": "",
    "attachEffect": "",
    "JKLKJPMFNGD": true,
    "BKPFGNPLDNJ": ""
  },
  "hasAudio": true,
  "combat": {
    "property": {
      "endureType": "Avatar_Claymore",
      "weight": 75.0
    },
    "beHit": {
      "hitBloodEffect": ""
    },
    "combatLock": {
      "lockShape": "CircleLockEnemyClose",
      "lockWeightYaxisParam": 0.20000000298023224,
      "lockWeightYaxisThreshold": 2.0,
      "lockType": "Avatar&Monster_Lv4"
    },
    "die": {
      "hasAnimatorDie": true,
      "dieEndTime": 1.5,
      "dieForceDisappearTime": 2.5,
      "dieDisappearEffect": "Eff_Death_Avatar_Common",
      "dieShaderData": "AvatarDie",
      "useRagDoll": true,
      "ragDollDieEndTimeDelay": 0.4000000059604645
    },
    "animEvents": {
      "ATK01": {
        "attackPattern": {
          "$type": "ConfigAttackCircle",
          "triggerType": "TriggerNoRepeat",
          "born": {
            "$type": "ConfigBornBySelf",
            "offset": {
              "x": 0.0,
              "y": -0.20000000298023224,
              "z": 1.0
            }
          },
          "height": 1.600000023841858,
          "radius": 2.0,
          "detectDirection": "Counterclockwise"
        },
        "attackInfo": {
          "attackTag": "NormalAttack_01",
          "attenuationTag": "NormalAttack",
          "attenuationGroup": "default",
          "attackProperty": {
            "actorWindSubHurtDelta": 0.0,
            "elementDurability": 25.0,
            "overrideByWeapon": true,
            "strikeType": "Blunt",
            "enBreak": 112.13300323486328,
            "attackType": "Melee",
            "GLKMCMDJBIK": 0.0
          },
          "hitPattern": {
            "onHitEffectName": "default",
            "hitImpulseY": "",
            "hitImpulseType": "LV3",
            "hitHaltTime": 0.10000000149011612,
            "hitHaltTimeScale": 0.009999999776482582,
            "canBeDefenceHalt": true
          },
          "cameraShake": {
            "shakeType": "CustomVector",
            "shakeRange": 0.23999999463558197,
            "shakeTime": 0.11999999731779099,
            "shakeDistance": 30.0,
            "shakeDir": {
              "x": 1.0,
              "y": 0.30000001192092896
            }
          }
        }
      },
      "ATK02": {
        "attackPattern": {
          "$type": "ConfigAttackCircle",
          "triggerType": "TriggerNoRepeat",
          "born": {
            "$type": "ConfigBornBySelf",
            "offset": {
              "x": 0.0,
              "y": -0.20000000298023224,
              "z": 1.0
            },
            "direction": {
              "$type": "ConfigDirectionByEntity",
              "angleOffset": {
                "x": 0.0,
                "y": 30.0,
                "z": 0.0
              }
            }
          },
          "height": 1.600000023841858,
          "fanAngle": 270.0,
          "radius": 2.0,
          "detectDirection": "Counterclockwise"
        },
        "attackInfo": {
          "attackTag": "NormalAttack_02",
          "attenuationTag": "NormalAttack",
          "attenuationGroup": "default",
          "attackProperty": {
            "actorWindSubHurtDelta": 0.0,
            "elementDurability": 25.0,
            "overrideByWeapon": true,
            "strikeType": "Blunt",
            "enBreak": 105.6989974975586,
            "attackType": "Melee",
            "GLKMCMDJBIK": 0.0
          },
          "hitPattern": {
            "onHitEffectName": "default",
            "hitImpulseY": "",
            "hitImpulseType": "LV3",
            "overrideHitImpulse": {
              "hitLevel": "Heavy",
              "IMIJMPGJOGG": 400.0,
              "BPCDKKBKOBM": 0.0
            },
            "hitHaltTime": 0.09000000357627869,
            "hitHaltTimeScale": 0.009999999776482582,
            "canBeDefenceHalt": true
          },
          "cameraShake": {
            "shakeType": "CustomVector",
            "shakeRange": 0.23999999463558197,
            "shakeTime": 0.11999999731779099,
            "shakeDistance": 30.0,
            "shakeDir": {
              "x": -1.0,
              "y": 0.20000000298023224
            }
          }
        }
      },
      "ATK03": {
        "attackPattern": {
          "$type": "ConfigAttackBox",
          "triggerType": "TriggerNoRepeat",
          "born": {
            "$type": "ConfigBornByTarget",
            "offset": {
              "x": 0.0,
              "y": 1.0,
              "z": -1.7000000476837158
            }
          },
          "size": {
            "x": 2.5,
            "y": 3.0,
            "z": 4.0
          }
        },
        "attackInfo": {
          "attackTag": "NormalAttack_03",
          "attenuationTag": "NormalAttack",
          "attenuationGroup": "default",
          "attackProperty": {
            "actorWindSubHurtDelta": 0.0,
            "elementDurability": 25.0,
            "overrideByWeapon": true,
            "strikeType": "Blunt",
            "enBreak": 142.60800170898438,
            "attackType": "Melee",
            "GLKMCMDJBIK": 0.0
          },
          "hitPattern": {
            "onHitEffectName": "default",
            "hitImpulseY": "",
            "hitImpulseType": "LV3",
            "overrideHitImpulse": {
              "hitLevel": "Heavy",
              "IMIJMPGJOGG": 400.0,
              "BPCDKKBKOBM": 0.0
            },
            "hitHaltTime": 0.11999999731779099,
            "hitHaltTimeScale": 0.009999999776482582,
            "canBeDefenceHalt": true
          },
          "cameraShake": {
            "shakeType": "CustomVector",
            "shakeRange": 0.47999998927116394,
            "shakeTime": 0.11999999731779099,
            "shakeDistance": 30.0,
            "shakeDir": {
              "x": 1.0,
              "y": 0.20000000298023224
            }
          }
        }
      },
      "ATK04": {
        "attackPattern": {
          "$type": "ConfigAttackCircle",
          "triggerType": "TriggerNoRepeat",
          "born": {
            "$type": "ConfigBornBySelf",
            "offset": {
              "x": 0.0,
              "y": -0.20000000298023224,
              "z": 2.0
            }
          },
          "height": 2.5999999046325684,
          "radius": 2.0,
          "detectDirection": "Counterclockwise"
        },
        "attackInfo": {
          "attackTag": "NormalAttack_04",
          "attenuationTag": "NormalAttack",
          "attenuationGroup": "default",
          "attackProperty": {
            "actorWindSubHurtDelta": 0.0,
            "elementDurability": 25.0,
            "overrideByWeapon": true,
            "strikeType": "Blunt",
            "enBreak": 171.09500122070312,
            "attackType": "Melee",
            "GLKMCMDJBIK": 0.0
          },
          "hitPattern": {
            "onHitEffectName": "default",
            "hitImpulseY": "",
            "hitImpulseType": "LV5",
            "hitHaltTime": 0.11999999731779099,
            "hitHaltTimeScale": 0.009999999776482582,
            "canBeDefenceHalt": true
          },
          "forceCameraShake": true,
          "cameraShake": {
            "shakeType": "CustomVector",
            "shakeRange": 0.47999998927116394,
            "shakeTime": 0.11999999731779099,
            "shakeDistance": 30.0,
            "shakeDir": {
              "y": 1.0
            }
          }
        }
      },
      "ExtraAttack1": {
        "attackPattern": {
          "$type": "ConfigAttackCircle",
          "triggerType": "TriggerNoRepeat",
          "born": {
            "$type": "ConfigBornBySelf",
            "offset": {
              "x": 0.0,
              "y": 0.0,
              "z": 0.30000001192092896
            }
          },
          "height": 1.5,
          "radius": 3.0
        },
        "attackInfo": {
          "attackTag": "ExtraAttack",
          "attenuationTag": "NormalAttack",
          "attenuationGroup": "default",
          "attackProperty": {
            "actorWindSubHurtDelta": 0.0,
            "elementDurability": 25.0,
            "overrideByWeapon": true,
            "strikeType": "Blunt",
            "enBreak": 60.0,
            "attackType": "Melee",
            "GLKMCMDJBIK": 0.0
          },
          "hitPattern": {
            "onHitEffectName": "default",
            "hitImpulseY": "",
            "hitImpulseType": "LV3",
            "hitHaltTime": 0.029999999329447746,
            "hitHaltTimeScale": 0.009999999776482582,
            "canBeDefenceHalt": true
          },
          "cameraShake": {
            "shakeRange": 0.11999999731779099,
            "shakeTime": 0.09000000357627869
          }
        }
      },
      "ExtraAttack2": {
        "attackPattern": {
          "$type": "ConfigAttackCircle",
          "triggerType": "TriggerNoRepeat",
          "born": {
            "$type": "ConfigBornBySelf",
            "offset": {
              "x": 0.0,
              "y": 0.0,
              "z": 0.0
            }
          },
          "height": 1.5,
          "radius": 3.5,
          "detectDirection": "Clockwise"
        },
        "attackInfo": {
          "attackTag": "ExtraAttack",
          "attenuationTag": "NormalAttack",
          "attenuationGroup": "default",
          "attackProperty": {
            "actorWindSubHurtDelta": 0.0,
            "elementDurability": 25.0,
            "overrideByWeapon": true,
            "strikeType": "Blunt",
            "enBreak": 120.0,
            "attackType": "Melee",
            "GLKMCMDJBIK": 0.0
          },
          "hitPattern": {
            "onHitEffectName": "default",
            "hitImpulseY": "",
            "hitImpulseType": "LV5",
            "hitHaltTime": 0.15000000596046448,
            "hitHaltTimeScale": 0.009999999776482582,
            "canBeDefenceHalt": true
          },
          "cameraShake": {
            "shakeRange": 0.23999999463558197,
            "shakeTime": 0.2800000011920929
          }
        }
      }
    }
  },
  "equipController": {
    "sheathPoint": "WeaponBackPut",
    "dissolveSheathFadeDelay": 0.07500000298023224,
    "dissolveSheathFadeTime": 2.0999999046325684,
    "attachPoints": {
      "equip01": "WeaponR",
      "equip02": "WeaponL",
      "equip03": "WeaponL"
    }
  },
  "abilities": [
    {
      "abilityID": "",
      "abilityName": "Avatar_Gaming_ExtraAttack",
      "abilityOverride": ""
    },
    {
      "abilityID": "",
      "abilityName": "Avatar_Gaming_ElementalArt",
      "abilityOverride": ""
    },
    {
      "abilityID": "",
      "abilityName": "Avatar_Gaming_ElementalArt_Jump",
      "abilityOverride": ""
    },
    {
      "abilityID": "",
      "abilityName": "Avatar_Gaming_LionHead",
      "abilityOverride": ""
    },
    {
      "abilityID": "",
      "abilityName": "Avatar_Gaming_LionPet",
      "abilityOverride": ""
    },
    {
      "abilityID": "",
      "abilityName": "Avatar_Gaming_OutFit",
      "abilityOverride": ""
    },
    {
      "abilityID": "",
      "abilityName": "Avatar_Gaming_FallingAnthem",
      "abilityOverride": ""
    },
    {
      "abilityID": "",
      "abilityName": "Avatar_Gaming_ElementalBurst_Cast",
      "abilityOverride": ""
    },
    {
      "abilityID": "",
      "abilityName": "Avatar_Gaming_NormalAttack_Damage_Handler",
      "abilityOverride": ""
    }
  ],
  "stateLayers": {
    "defaultLayer": {
      "$type": "GBGJJIIEMBD",
      "layerIndexName": "",
      "CPAANEIJCGD": "",
      "stateIDs": {
        "NormalStandby": {
          "$type": "KBOPIKLCBOA",
          "animatorStates": {
            "Standby": ["Avatar_ResetFreeStyle"]
          },
          "canDoSkill": true,
          "massRatio": 100.0,
          "setAnimatorBoolean": [
            {
              "name": "&CanUseSkill"
            }
          ],
          "canChangeAvatar": [{}],
          "animatorTriggerOnLanded": "",
          "sheatheOnStart": true
        },
        "NormalMove": {
          "$type": "KBOPIKLCBOA",
          "animatorStates": {
            "ShowUp": ["Audio_Boy_Showup"],
            "WalkToRun": ["Audio_Boy_WalkToRun"],
            "Walk": ["Ani_WalkSprint01", "Audio_Boy_Walk", "WalkStepOnWater"],
            "RunToWalk": ["Audio_Boy_RunToWalk"],
            "Run": ["Ani_Run01", "Audio_Boy_Run"],
            "RunToIdle": ["Audio_Boy_RunToIdle"],
            "WalkToIdle": ["Audio_Boy_WalkToIdle"],
            "RunningTurn": [],
            "SprintToRun": [
              "Audio_Boy_SprintToRun",
              "Audio_Boy_Foley_Once_Gaming"
            ],
            "SprintToIdle": [
              "Audio_Boy_SprintToIdle",
              "Emo_Boy_Sprint_AS",
              "Audio_Boy_Foley_SprintToIdle_Gaming"
            ],
            "FallOnGround": ["Audio_Boy_FallToGround"],
            "FallOnGroundLit": ["Audio_Boy_FallToGround"],
            "FallToGroundRun": ["Audio_Boy_FallToGroundRun"],
            "FallToGroundRunHard": ["Audio_Boy_FallToGroundRunHard"],
            "FallToGroundSprint": ["Audio_Boy_FallToGroundSprint"]
          },
          "canDoSkill": true,
          "massRatio": 1.0,
          "setAnimatorBoolean": [
            {
              "name": "&CanUseSkill"
            }
          ],
          "canChangeAvatar": [{}],
          "animatorTriggerOnLanded": "",
          "sheatheOnStart": true
        },
        "Sprint": {
          "$type": "KBOPIKLCBOA",
          "animatorStates": {
            "Sprint": [
              "Ani_WalkSprint01",
              "Audio_Boy_Sprint",
              "Emo_Boy_Sprint_Loop"
            ]
          },
          "canDoSkill": true,
          "massRatio": 1.0,
          "setAnimatorBoolean": [
            {
              "name": "&CanUseSkill"
            }
          ],
          "canChangeAvatar": [{}],
          "animatorTriggerOnLanded": "",
          "sheatheOnStart": true
        },
        "SprintBS": {
          "$type": "KBOPIKLCBOA",
          "animatorStates": {
            "SprintBS": [
              "Audio_Boy_RunToSprint",
              "SprintBS_Invincible",
              "Emo_Boy_Sprint_BS",
              "Audio_Boy_Foley_SprintBS_Gaming"
            ]
          },
          "canDoSkill": true,
          "resetAnimatorTriggerOnEnter": ["DoSkill", "AimEnd"],
          "setAnimatorBoolean": [
            {
              "name": "&CanUseSkill",
              "normalizeStart": 0.25999999046325684
            }
          ],
          "canChangeAvatar": [
            {
              "normalizeStart": 0.25999999046325684
            }
          ],
          "animatorTriggerOnLanded": "",
          "sheatheOnStart": true
        },
        "Crouch": {
          "$type": "KBOPIKLCBOA",
          "animatorStates": {
            "CrouchIdle": [],
            "CrouchMove": ["Audio_Boy_CrouchMove"],
            "CrouchRoll": ["Audio_Boy_CrouchRoll"]
          },
          "canDoSkill": true,
          "massRatio": 1.0,
          "setAnimatorBoolean": [
            {
              "name": "&CanUseSkill"
            }
          ],
          "canChangeAvatar": [{}],
          "actionPanelState": "Squat",
          "animatorTriggerOnLanded": "",
          "sheatheOnStart": true
        },
        "CrouchToStandby": {
          "$type": "KBOPIKLCBOA",
          "animatorStates": {
            "CrouchToStandby": ["Audio_Boy_CrouchToStandby"]
          },
          "resetAnimatorTriggerOnEnter": ["DoSkill"],
          "animatorTriggerOnLanded": "",
          "sheatheOnStart": true
        },
        "SkiffNormal": {
          "$type": "KBOPIKLCBOA",
          "animatorStates": {
            "SkiffNormal": []
          },
          "massRatio": 100.0,
          "resetAnimatorTriggerOnExit": ["BeHit", "DoSkill", "Jump"],
          "animatorTriggerOnLanded": "",
          "sheatheOnStart": true
        },
        "Climb": {
          "$type": "KBOPIKLCBOA",
          "animatorStates": {
            "ClimbMove0": [
              "ClimbStep",
              "Audio_Boy_Climb",
              "Audio_Boy_Foley_ClimbMove_Gaming"
            ],
            "ClimbMove1": ["ClimbStep", "Audio_Boy_Climb_1"],
            "ClimbIdle": [],
            "ClimbJump": ["Audio_Boy_ClimbDash", "Audio_Boy_Foley_Once_Gaming"],
            "JumpUpWallForStandby": ["Audio_Boy_JumpUpWallStandby"],
            "Standby2ClimbB": ["Audio_Boy_Standby2ClimbB"]
          },
          "resetAnimatorTriggerOnEnter": ["DoSkill"],
          "actionPanelState": "Climb",
          "animatorTriggerOnLanded": "",
          "sheatheOnStart": true
        },
        "ClimbTransient": {
          "$type": "KBOPIKLCBOA",
          "animatorStates": {
            "JumpWallReady": [],
            "Standby2ClimbA": ["Audio_Boy_Standby2ClimbA"]
          },
          "resetAnimatorTriggerOnEnter": ["DoSkill"],
          "animatorTriggerOnLanded": "",
          "sheatheOnStart": true
        },
        "Upstairs": {
          "$type": "KBOPIKLCBOA",
          "animatorStates": {
            "Upstairs": ["Audio_Boy_Upstairs", "Audio_Boy_Foley_Once_Gaming"]
          },
          "resetAnimatorTriggerOnEnter": ["DoSkill"],
          "setAnimatorBoolean": [
            {
              "name": "&CanUseSkill"
            }
          ],
          "animatorTriggerOnLanded": "",
          "sheatheOnStart": true
        },
        "Slip": {
          "$type": "KBOPIKLCBOA",
          "animatorStates": {
            "SlipFaceWall": ["Audio_Boy_Foley_ThreeTimes_Gaming"],
            "SlipBackWall": ["Audio_Boy_Foley_ThreeTimes_Gaming"]
          },
          "resetAnimatorTriggerOnEnter": ["DoSkill"],
          "animatorTriggerOnLanded": "",
          "sheatheOnStart": true
        },
        "Swim": {
          "$type": "KBOPIKLCBOA",
          "animatorStates": {
            "SwimIdle": ["Audio_Boy_SwimIdle"],
            "SwimMove": ["SwimStep", "Audio_Boy_SwimMove"],
            "SwimDash": [
              "Audio_Boy_SwimDash",
              "Avatar_Boy_SwimDash_Hand_Effect"
            ],
            "SwimJumpToWater": ["Audio_Boy_SwimJumpToWater"]
          },
          "resetAnimatorTriggerOnEnter": ["DoSkill"],
          "actionPanelState": "Swim",
          "animatorTriggerOnLanded": "",
          "sheatheOnStart": true
        },
        "Fly": {
          "$type": "KBOPIKLCBOA",
          "animatorStates": {
            "Fly": [],
            "FlyStart": [
              "Audio_Boy_FlyStart",
              "FlyStart_Weapon",
              "Audio_Boy_Foley_FlyStart_Gaming"
            ]
          },
          "canDoSkill": true,
          "resetAnimatorTriggerOnEnter": ["DoSkill"],
          "setAnimatorBoolean": [
            {
              "name": "&CanUseAirSkill"
            }
          ],
          "actionPanelState": "Fly",
          "animatorTriggerOnLanded": "",
          "sheatheOnStart": true
        },
        "Jump": {
          "$type": "KBOPIKLCBOA",
          "animatorStates": {
            "Jump": ["Audio_Boy_Jump", "Audio_Boy_Foley_Jump_Gaming"],
            "JumpForRun": ["Audio_Boy_Jump", "Audio_Boy_Foley_Once_Gaming"],
            "JumpForWalk": ["Audio_Boy_Jump", "Audio_Boy_Foley_Once_Gaming"],
            "JumpForSprint": ["Audio_Boy_Jump", "Audio_Boy_Foley_Once_Gaming"]
          },
          "canDoSkill": true,
          "resetAnimatorTriggerOnEnter": ["DoSkill", "AimEnd"],
          "setAnimatorBoolean": [
            {
              "name": "&CanUseAirSkill"
            }
          ],
          "actionPanelState": "Jump",
          "animatorTriggerOnLanded": "",
          "sheatheOnStart": true
        },
        "Fall": {
          "$type": "KBOPIKLCBOA",
          "animatorStates": {
            "JumpOffWall": ["Audio_Boy_Jump", "Audio_Boy_Foley_Once_Gaming"],
            "SwimJump": ["Audio_Boy_SwimJump", "Audio_Boy_Foley_Once_Gaming"],
            "SwimJumpDrop": ["Audio_Boy_Foley_ThreeTimes_Gaming"],
            "DropDown": ["Audio_Boy_DropDown"],
            "DropDownLit": [],
            "WalkDropDownLit": []
          },
          "canDoSkill": true,
          "resetAnimatorTriggerOnEnter": ["DoSkill"],
          "setAnimatorBoolean": [
            {
              "name": "&CanUseAirSkill"
            }
          ],
          "animatorTriggerOnLanded": "",
          "sheatheOnStart": true
        },
        "NormalStandbyWeapon": {
          "$type": "KBOPIKLCBOA",
          "animatorStates": {
            "StandbyWeapon": []
          },
          "canDoSkill": true,
          "massRatio": 100.0,
          "setAnimatorBoolean": [
            {
              "name": "&CanUseSkill"
            }
          ],
          "canChangeAvatar": [{}],
          "animatorTriggerOnLanded": "",
          "battouOnStart": true
        },
        "NormalMoveWeapon": {
          "$type": "KBOPIKLCBOA",
          "animatorStates": {
            "WalkToRunWeapon": ["Audio_Boy_WalkToRun"],
            "WalkWeapon": ["Audio_Boy_Walk"],
            "RunToWalkWeapon": ["Audio_Boy_RunToWalk"],
            "RunWeapon": ["Audio_Boy_Run"],
            "RunToIdleWeapon": [],
            "WalkToIdleWeapon": [],
            "RunningTurnWeapon": [],
            "FallOnGroundWeapon": ["Audio_Boy_FallToGround"],
            "FallOnGroundLitWeapon": ["Audio_Boy_FallToGround"],
            "FallOnGroundMiddleWeapon": ["Audio_Boy_FallToGround"],
            "FallToGroundRunWeapon": ["Audio_Boy_FallToGroundRun"],
            "FallToGroundRunHardWeapon": ["Audio_Boy_FallToGroundRunHard"]
          },
          "canDoSkill": true,
          "massRatio": 2.0,
          "setAnimatorBoolean": [
            {
              "name": "&CanUseSkill"
            }
          ],
          "canChangeAvatar": [{}],
          "animatorTriggerOnLanded": "",
          "battouOnStart": true
        },
        "NormalMoveWeaponPutaway": {
          "$type": "KBOPIKLCBOA",
          "animatorStates": {
            "StandbyPutaway": [
              "Boy_Claymore_Putaway_Standby",
              "Audio_Boy_Claymore_StandbyPutAway"
            ],
            "WalkPutaway": [
              "Boy_Sword_Putaway_Walk",
              "Audio_Boy_Sword_WalkPutAway"
            ],
            "RunPutaway": [
              "Boy_Sword_Putaway_Run",
              "Audio_Boy_Sword_RunPutAway"
            ],
            "RunToSprintWeapon": [
              "Boy_Sword_Putaway_Sprint",
              "Audio_Boy_Sword_RunToSprintWeapon"
            ]
          },
          "canDoSkill": true,
          "massRatio": 2.0,
          "setAnimatorBoolean": [
            {
              "name": "&CanUseSkill"
            }
          ],
          "canChangeAvatar": [{}],
          "equipReattach": [
            {
              "equip": "equip01",
              "targetPoint": "CatalystL"
            }
          ],
          "animatorTriggerOnLanded": "",
          "battouOnStart": true
        },
        "NormalMoveWeaponOver": {
          "$type": "KBOPIKLCBOA",
          "animatorStates": {
            "WalkPutawayOver": ["Audio_Boy_Sword_WalkPutAwayOver"],
            "RunPutawayOver": ["Audio_Boy_Sword_RunPutAwayOver"],
            "RunToSprintWeaponOver": ["Audio_Boy_Sword_RunToSprintWeaponOver"]
          },
          "canDoSkill": true,
          "massRatio": 2.0,
          "setAnimatorBoolean": [
            {
              "name": "&CanUseSkill"
            }
          ],
          "canChangeAvatar": [{}],
          "animatorTriggerOnLanded": "",
          "sheatheOnStart": true
        },
        "JumpWeapon": {
          "$type": "KBOPIKLCBOA",
          "animatorStates": {
            "JumpWeapon": ["Audio_Boy_Jump"],
            "JumpForRunWeapon": ["Audio_Boy_Jump"],
            "JumpForWalkWeapon": ["Audio_Boy_Jump"]
          },
          "canDoSkill": true,
          "resetAnimatorTriggerOnEnter": ["DoSkill"],
          "setAnimatorBoolean": [
            {
              "name": "&CanUseAirSkill"
            }
          ],
          "canChangeAvatar": [{}],
          "actionPanelState": "Jump",
          "animatorTriggerOnLanded": "",
          "battouOnStart": true
        },
        "FallWeapon": {
          "$type": "KBOPIKLCBOA",
          "animatorStates": {
            "DropDownWeapon": [],
            "DropDownLitWeapon": [],
            "WalkDropDownLitWeapon": []
          },
          "canDoSkill": true,
          "resetAnimatorTriggerOnEnter": ["DoSkill"],
          "setAnimatorBoolean": [
            {
              "name": "&CanUseAirSkill"
            }
          ],
          "animatorTriggerOnLanded": "",
          "battouOnStart": true
        },
        "BeHit": {
          "$type": "KBOPIKLCBOA",
          "animatorStates": {
            "Hit_L": ["Audio_Boy_Hit_L"],
            "Hit_H": ["Audio_Boy_Hit_H"]
          },
          "MOKBIKEEHMJ": "combatMove",
          "resetAnimatorTriggerOnEnter": ["BeHit", "HitAir2HitDrop"],
          "resetAnimatorTriggerOnExit": ["DoSkill"],
          "cameraType": "combatBeHit",
          "jumpCancelEnd": 0.0,
          "animatorTriggerOnLanded": "",
          "battouOnStart": true
        },
        "HitThrow": {
          "$type": "KBOPIKLCBOA",
          "animatorStates": {
            "Hit_Throw_Ground": [
              "BeHitAir_Weapon",
              "Audio_Boy_Hit_Throw_Ground_PlayerBoy"
            ]
          },
          "MOKBIKEEHMJ": "combatMove",
          "resetAnimatorTriggerOnEnter": ["BeHit", "HitAir2HitDrop"],
          "resetAnimatorTriggerOnExit": ["DoSkill"],
          "cameraType": "combatBeHit",
          "jumpCancelEnd": 0.0,
          "animatorTriggerOnLanded": "",
          "sheatheOnStart": true
        },
        "BeHitAir": {
          "$type": "KBOPIKLCBOA",
          "animatorStates": {
            "Hit_Throw": [
              "Audio_Boy_Hit_Throw",
              "BeHitAir_Weapon",
              "Audio_Boy_Foley_Once_Gaming"
            ],
            "Hit_ThrowAir": ["Audio_Boy_DropDown", "BeHitAir_Weapon"],
            "Struggle": ["BeHitAir_Weapon", "Audio_Boy_Foley_ThreeTimes_Gaming"]
          },
          "MOKBIKEEHMJ": "combatAir",
          "resetAnimatorTriggerOnEnter": ["BeHit"],
          "resetAnimatorTriggerOnExit": ["DoSkill"],
          "cameraType": "combatBeHit",
          "actionPanelState": "CombatAir",
          "jumpCancelEnd": 0.0,
          "animatorTriggerOnLanded": "",
          "sheatheOnStart": true
        },
        "Die": {
          "$type": "KBOPIKLCBOA",
          "animatorStates": {
            "DiveDie": ["Die", "Audio_Boy_Dive_Die"],
            "FallDie": ["Audio_Boy_Death"],
            "NormalDie": ["Die", "Audio_Boy_Death"],
            "SwimDie": ["Swim_Die", "Audio_Boy_SwimDie"],
            "HitGroundDie": ["Die", "Audio_Boy_Death"]
          },
          "animatorTriggerOnLanded": ""
        },
        "Die_RagDoll": {
          "$type": "KBOPIKLCBOA",
          "animatorStates": {
            "NormalDie_AS": [],
            "FallDie_AS": []
          },
          "enableRagDoll": true,
          "animatorTriggerOnLanded": ""
        },
        "Attack01": {
          "$type": "KBOPIKLCBOA",
          "animatorStates": {
            "Attack01": [
              "Gaming_Attack01",
              "SetComboCount1",
              "Interaction_Bad",
              "Audio_Boy_Claymore_Gaming_Attack01",
              "Emo_Boy_Claymore_Chongyun_NormalAttack01"
            ]
          },
          "MOKBIKEEHMJ": "combatMove",
          "canDoSkill": true,
          "resetAnimatorTriggerOnExit": ["BeHit"],
          "setAnimatorBoolean": [
            {
              "name": "&CanCancelSkill"
            },
            {
              "name": "&CanUseExtra"
            }
          ],
          "cameraType": "combatNormal",
          "canChangeAvatar": [{}],
          "animatorTriggerOnLanded": "",
          "battouOnStart": true
        },
        "Attack02": {
          "$type": "KBOPIKLCBOA",
          "animatorStates": {
            "Attack02": [
              "Gaming_Attack02",
              "SetComboCount2",
              "Interaction_Bad",
              "Audio_Boy_Claymore_Gaming_Attack02",
              "Emo_Boy_Claymore_Chongyun_NormalAttack02"
            ]
          },
          "MOKBIKEEHMJ": "combatMove",
          "canDoSkill": true,
          "resetAnimatorTriggerOnExit": ["BeHit"],
          "setAnimatorBoolean": [
            {
              "name": "&CanCancelSkill"
            }
          ],
          "cameraType": "combatNormal",
          "canChangeAvatar": [{}],
          "animatorTriggerOnLanded": "",
          "battouOnStart": true
        },
        "Attack03": {
          "$type": "KBOPIKLCBOA",
          "animatorStates": {
            "Attack03": [
              "Gaming_Attack03",
              "SetComboCount3",
              "Interaction_Bad",
              "Audio_Boy_Claymore_Gaming_Attack03",
              "Emo_Boy_Claymore_Chongyun_NormalAttack03"
            ]
          },
          "MOKBIKEEHMJ": "combatMove",
          "canDoSkill": true,
          "resetAnimatorTriggerOnExit": ["BeHit"],
          "setAnimatorBoolean": [
            {
              "name": "&CanCancelSkill"
            }
          ],
          "cameraType": "combatNormal",
          "canChangeAvatar": [{}],
          "animatorTriggerOnLanded": "",
          "battouOnStart": true,
          "sheatheOnEnd": true
        },
        "Attack04": {
          "$type": "KBOPIKLCBOA",
          "animatorStates": {
            "Attack04": [
              "Gaming_Attack04",
              "SetComboCount4",
              "Interaction_Bad",
              "Audio_Boy_Claymore_Gaming_Attack04",
              "Emo_Boy_Claymore_Chongyun_NormalAttack04"
            ]
          },
          "MOKBIKEEHMJ": "combatMove",
          "canDoSkill": true,
          "resetAnimatorTriggerOnExit": ["BeHit"],
          "setAnimatorBoolean": [
            {
              "name": "&CanCancelSkill"
            }
          ],
          "cameraType": "combatNormal",
          "canChangeAvatar": [{}],
          "animatorTriggerOnLanded": "",
          "battouOnStart": true,
          "sheatheOnEnd": true
        },
        "Attack01_BS": {
          "$type": "KBOPIKLCBOA",
          "animatorStates": {
            "Attack01_BS": [
              "Gaming_Attack01_BS",
              "Audio_Boy_Claymore_Gaming_Attack_BS"
            ]
          },
          "MOKBIKEEHMJ": "combatMove",
          "canDoSkill": true,
          "resetAnimatorTriggerOnExit": ["BeHit"],
          "setAnimatorBoolean": [
            {
              "name": "&CanCancelSkill"
            },
            {
              "name": "&CanUseExtra"
            }
          ],
          "cameraType": "combatNormal",
          "canChangeAvatar": [{}],
          "animatorTriggerOnLanded": "",
          "battouOnStart": true
        },
        "ExtraAttack": {
          "$type": "KBOPIKLCBOA",
          "animatorStates": {
            "ExtraAttack": [
              "Gaming_ExtraAttack",
              "Audio_Boy_Claymore_Gaming_ExtraAttack",
              "Emo_Boy_Claymore_Chongyun_ExtraAttack_BS"
            ]
          },
          "MOKBIKEEHMJ": "combatMove",
          "resetAnimatorTriggerOnExit": ["BeHit"],
          "canChangeAvatar": [{}],
          "animatorTriggerOnLanded": "",
          "battouOnStart": true
        },
        "ExtraAttack1": {
          "$type": "KBOPIKLCBOA",
          "animatorStates": {
            "ExtraAttack1": [
              "Gaming_ExtraAttack1",
              "Emo_Boy_Claymore_Chongyun_ExtraAttack_1"
            ]
          },
          "MOKBIKEEHMJ": "combatMove",
          "resetAnimatorTriggerOnExit": ["BeHit"],
          "canChangeAvatar": [{}],
          "animatorTriggerOnLanded": "",
          "battouOnStart": true
        },
        "ExtraAttack2": {
          "$type": "KBOPIKLCBOA",
          "animatorStates": {
            "ExtraAttack2": [
              "Gaming_ExtraAttack2",
              "Audio_Boy_Claymore_Gaming_ExtraAttack2",
              "Emo_Boy_Claymore_Chongyun_ExtraAttack_2"
            ]
          },
          "MOKBIKEEHMJ": "combatMove",
          "resetAnimatorTriggerOnExit": ["BeHit"],
          "canChangeAvatar": [{}],
          "animatorTriggerOnLanded": "",
          "battouOnStart": true
        },
        "ExtraAttack3": {
          "$type": "KBOPIKLCBOA",
          "animatorStates": {
            "ExtraAttack3": [
              "Gaming_ExtraAttack3",
              "Audio_Boy_Claymore_Chongyun_ExtraAttack3",
              "Emo_Boy_Claymore_Chongyun_ExtraAttack_AS"
            ]
          },
          "MOKBIKEEHMJ": "combatMove",
          "canDoSkill": true,
          "resetAnimatorTriggerOnExit": ["BeHit"],
          "setAnimatorBoolean": [
            {
              "name": "&CanCancelSkill"
            }
          ],
          "canChangeAvatar": [{}],
          "animatorTriggerOnLanded": "",
          "battouOnStart": true
        },
        "Gaming_ElementalArt_Leap": {
          "$type": "KBOPIKLCBOA",
          "animatorStates": {
            "Gaming_ElementalArt_Leap": [
              "Gaming_ElementalArt_Leap",
              "Interaction_Good",
              "Audio_Boy_Claymore_Gaming_ElementalArt_Leap"
            ]
          },
          "MOKBIKEEHMJ": "combatAir",
          "addEndure": 0.6000000238418579,
          "resetAnimatorTriggerOnExit": ["BeHit"],
          "cameraType": "combatNormal",
          "actionPanelState": "Jump",
          "animatorTriggerOnLanded": "HitAir2HitDrop",
          "battouOnStart": true
        },
        "Gaming_ElementalArt_Jump": {
          "$type": "KBOPIKLCBOA",
          "animatorStates": {
            "Gaming_ElementalArt_Jump": [
              "Gaming_ElementalArt_Jump",
              "Interaction_Good",
              "Audio_Boy_Claymore_Gaming_ElementalArt_Jump"
            ]
          },
          "MOKBIKEEHMJ": "combatAir",
          "canDoSkill": true,
          "addEndure": 0.6000000238418579,
          "resetAnimatorTriggerOnExit": ["BeHit"],
          "setAnimatorBoolean": [
            {
              "name": "&CanUseAirSkill",
              "normalizeStart": 0.20000000298023224
            }
          ],
          "cameraType": "combatNormal",
          "jumpCancelStart": 0.6700000166893005,
          "sprintCancelStart": 0.6700000166893005,
          "flyCancelStart": 0.30000001192092896,
          "flyCancelEnd": 1.0,
          "animatorTriggerOnLanded": "HitAir2HitDrop",
          "battouOnStart": true,
          "MGJAKDIDKJD": 0.30000001192092896,
          "ADBFAABIDME": 1.0
        },
        "Gaming_ElementalArt_AS": {
          "$type": "KBOPIKLCBOA",
          "animatorStates": {
            "Gaming_ElementalArt_AS": [
              "Interaction_Good",
              "Audio_Boy_Claymore_Gaming_ElementalArt_AS"
            ]
          },
          "MOKBIKEEHMJ": "combatMove",
          "canDoSkill": true,
          "canDoSkillStart": 0.029999999329447746,
          "resetAnimatorTriggerOnExit": ["BeHit", "DoSkill", "Jump"],
          "setAnimatorBoolean": [
            {
              "name": "&CanUseSkill",
              "normalizeStart": 0.029999999329447746
            }
          ],
          "cameraType": "combatNormal",
          "canChangeAvatar": [{}],
          "animatorTriggerOnLanded": "",
          "sheatheOnEnd": true
        },
        "Gaming_ElementalBurst": {
          "$type": "KBOPIKLCBOA",
          "animatorStates": {
            "Gaming_ElementalBurst": [
              "Gaming_ElementalBurst_Cast",
              "Audio_Boy_Claymore_Gaming_ElementalBurst",
              "Emo_Boy_Claymore_Chongyun_ElementalBurst"
            ]
          },
          "MOKBIKEEHMJ": "combatMove",
          "canDoSkill": true,
          "canDoSkillStart": 0.949999988079071,
          "addEndure": 0.0,
          "resetAnimatorTriggerOnExit": ["BeHit", "DoSkill", "Jump"],
          "setAnimatorBoolean": [
            {
              "name": "&CanUseSkill",
              "normalizeStart": 0.949999988079071
            },
            {
              "name": "&CanCancelSkill",
              "normalizeStart": 0.949999988079071
            }
          ],
          "cameraType": "combatNormal",
          "jumpCancelEnd": -1.0,
          "sprintCancelEnd": -1.0,
          "animatorTriggerOnLanded": "",
          "sheatheOnStart": true
        },
        "Gaming_ElementalBurst_AS": {
          "$type": "KBOPIKLCBOA",
          "animatorStates": {
            "Gaming_ElementalBurst_AS": [
              "Audio_Boy_Claymore_Gaming_ElementalBurst_AS",
              "Emo_Boy_Claymore_Chongyun_ElementalBurst_AS"
            ]
          },
          "MOKBIKEEHMJ": "combatMove",
          "canDoSkill": true,
          "resetAnimatorTriggerOnExit": ["BeHit", "DoSkill", "Jump"],
          "setAnimatorBoolean": [
            {
              "name": "&CanUseSkill"
            }
          ],
          "cameraType": "combatNormal",
          "canChangeAvatar": [
            {
              "normalizeStart": 0.10000000149011612
            }
          ],
          "animatorTriggerOnLanded": "",
          "sheatheOnStart": true
        },
        "FallingAnthem_BS_Special": {
          "$type": "KBOPIKLCBOA",
          "animatorStates": {
            "FallingAnthem_BS_1_Special": [
              "Emo_Boy_Claymore_FallingAttack_BS_01",
              "Audio_Boy_Claymore_Gaming_FallingAnthem_BS_1_Special"
            ],
            "FallingAnthem_BS_2_Special": [
              "Emo_Boy_Claymore_FallingAttack_BS_02",
              "Audio_Boy_Claymore_Gaming_FallingAnthem_BS_2_Special"
            ]
          },
          "MOKBIKEEHMJ": "combatAir",
          "addEndure": 0.0,
          "resetAnimatorTriggerOnExit": ["BeHit", "DoSkill", "Jump"],
          "cameraType": "combatNormal",
          "actionPanelState": "Fly",
          "jumpCancelEnd": -1.0,
          "animatorTriggerOnLanded": "HitAir2HitDrop",
          "battouOnStart": true
        },
        "FallingAnthem_Loop_Special": {
          "$type": "KBOPIKLCBOA",
          "animatorStates": {
            "FallingAnthem_Loop_Special": [],
            "FallingAnthem_Loop_Low_Special": []
          },
          "MOKBIKEEHMJ": "combatAir",
          "addEndure": 0.0,
          "resetAnimatorTriggerOnExit": ["BeHit", "DoSkill", "Jump"],
          "actionPanelState": "Fly",
          "animatorTriggerOnLanded": "HitAir2HitDrop",
          "battouOnStart": true
        },
        "FallingAnthem_AS_1_Special": {
          "$type": "KBOPIKLCBOA",
          "animatorStates": {
            "FallingAnthem_AS_1_Special": [
              "Gaming_FallingAnthem_Strike",
              "Interaction_Good",
              "Emo_Boy_Claymore_FallingAttack_AS_01",
              "Audio_Boy_Claymore_Gaming_FallingAnthem_AS_1_Special"
            ]
          },
          "MOKBIKEEHMJ": "combatMove",
          "canDoSkill": true,
          "resetAnimatorTriggerOnExit": ["BeHit", "DoSkill", "Jump"],
          "setAnimatorBoolean": [
            {
              "name": "&CanUseSkill",
              "normalizeStart": 0.550000011920929
            }
          ],
          "jumpCancelEnd": -1.0,
          "animatorTriggerOnLanded": "",
          "battouOnStart": true
        },
        "FallingAnthem_AS_2_Special": {
          "$type": "KBOPIKLCBOA",
          "animatorStates": {
            "FallingAnthem_AS_2_Special": [
              "Emo_Boy_Claymore_FallingAttack_AS_02",
              "Interaction_Good",
              "Audio_Boy_Claymore_Gaming_FallingAnthem_AS_2_Special"
            ]
          },
          "MOKBIKEEHMJ": "combatMove",
          "canDoSkill": true,
          "resetAnimatorTriggerOnExit": ["BeHit", "DoSkill", "Jump"],
          "setAnimatorBoolean": [
            {
              "name": "&CanUseSkill"
            }
          ],
          "canChangeAvatar": [{}],
          "jumpCancelStart": 0.10000000149011612,
          "animatorTriggerOnLanded": "",
          "sheatheOnEnd": true
        },
        "FallingAnthem_BS": {
          "$type": "KBOPIKLCBOA",
          "animatorStates": {
            "FallingAnthem_BS_1": [
              "Emo_Boy_Claymore_FallingAttack_BS_01",
              "Audio_Boy_Claymore_Freminet_FallingAnthem_BS_1"
            ],
            "FallingAnthem_BS_2": ["Emo_Boy_Claymore_FallingAttack_BS_02"]
          },
          "MOKBIKEEHMJ": "combatAir",
          "addEndure": 0.0,
          "resetAnimatorTriggerOnExit": ["BeHit", "DoSkill", "Jump"],
          "cameraType": "combatNormal",
          "actionPanelState": "Fly",
          "equipReattach": [
            {
              "equip": "equip01",
              "targetPoint": "WeaponR"
            }
          ],
          "jumpCancelEnd": -1.0,
          "animatorTriggerOnLanded": "HitAir2HitDrop",
          "battouOnStart": true
        },
        "FallingAnthem_Loop": {
          "$type": "KBOPIKLCBOA",
          "animatorStates": {
            "FallingAnthem_Loop": [],
            "FallingAnthem_Loop_Low": []
          },
          "MOKBIKEEHMJ": "combatAir",
          "addEndure": 0.0,
          "resetAnimatorTriggerOnExit": ["BeHit", "DoSkill", "Jump"],
          "actionPanelState": "Fly",
          "equipReattach": [
            {
              "equip": "equip01",
              "targetPoint": "WeaponR"
            }
          ],
          "animatorTriggerOnLanded": "HitAir2HitDrop",
          "battouOnStart": true
        },
        "FallingAnthem_AS_1": {
          "$type": "KBOPIKLCBOA",
          "animatorStates": {
            "FallingAnthem_AS_1": [
              "Gaming_FallingAnthem_Strike",
              "Interaction_Bad",
              "Emo_Boy_Claymore_FallingAttack_AS_01",
              "Audio_Boy_Claymore_Freminet_FallingAnthem_AS_1"
            ]
          },
          "MOKBIKEEHMJ": "combatMove",
          "canDoSkill": true,
          "resetAnimatorTriggerOnExit": ["BeHit", "DoSkill", "Jump"],
          "setAnimatorBoolean": [
            {
              "name": "&CanUseSkill",
              "normalizeStart": 0.550000011920929
            }
          ],
          "equipReattach": [
            {
              "equip": "equip01",
              "targetPoint": "WeaponR"
            }
          ],
          "jumpCancelEnd": -1.0,
          "animatorTriggerOnLanded": "",
          "battouOnStart": true
        },
        "FallingAnthem_AS_2": {
          "$type": "KBOPIKLCBOA",
          "animatorStates": {
            "FallingAnthem_AS_2": [
              "Emo_Boy_Claymore_FallingAttack_AS_02",
              "Audio_Boy_Claymore_Freminet_FallingAnthem_AS_2"
            ]
          },
          "MOKBIKEEHMJ": "combatMove",
          "canDoSkill": true,
          "resetAnimatorTriggerOnExit": ["BeHit", "DoSkill", "Jump"],
          "setAnimatorBoolean": [
            {
              "name": "&CanUseSkill"
            }
          ],
          "canChangeAvatar": [{}],
          "equipReattach": [
            {
              "equip": "equip01",
              "targetPoint": "WeaponR"
            }
          ],
          "jumpCancelStart": 0.10000000149011612,
          "animatorTriggerOnLanded": "",
          "battouOnStart": true
        },
        "Sit": {
          "$type": "KBOPIKLCBOA",
          "animatorStates": {
            "SitDown": ["Audio_Girl_SitDown", "Audio_Boy_Foley_Sit_Gaming"],
            "SitLoop": [],
            "SitUp": ["Audio_Girl_SitDown", "Audio_Boy_Foley_Sit_Gaming"]
          },
          "MOKBIKEEHMJ": "performMove",
          "massRatio": 100.0,
          "actionPanelState": "Perform",
          "animatorTriggerOnLanded": "",
          "sheatheOnStart": true
        },
        "SitB": {
          "$type": "KBOPIKLCBOA",
          "animatorStates": {
            "SitBDown": ["Audio_Girl_SitDown", "Audio_Boy_Foley_Sit_Gaming"],
            "SitBLoop": [],
            "SitBUp": ["Audio_Girl_SitDown", "Audio_Boy_Foley_Sit_Gaming"]
          },
          "MOKBIKEEHMJ": "performMove",
          "massRatio": 100.0,
          "actionPanelState": "Perform",
          "animatorTriggerOnLanded": "",
          "sheatheOnStart": true
        },
        "StandbyShow": {
          "$type": "KBOPIKLCBOA",
          "animatorStates": {
            "StandbyVoice": ["Audio_Boy_StandbyVoice"],
            "StandbyShow_01": [
              "Emo_Gaming_Show01",
              "Interaction_Good",
              "Audio_Boy_Claymore_Gaming_StandbyShow_01"
            ],
            "StandbyShow_02": [
              "Emo_Gaming_Show02",
              "Audio_Boy_Claymore_Gaming_StandbyShow_02"
            ]
          },
          "MOKBIKEEHMJ": "performMove",
          "canDoSkill": true,
          "massRatio": 100.0,
          "setAnimatorBoolean": [
            {
              "name": "&CanUseSkill"
            }
          ],
          "canChangeAvatar": [{}],
          "animatorTriggerOnLanded": "",
          "sheatheOnStart": true
        },
        "TakePhotos": {
          "$type": "KBOPIKLCBOA",
          "animatorStates": {
            "Think01BS": [],
            "Akimbo02BS": [],
            "Think01Loop": [],
            "Akimbo02Loop": [],
            "Think01AS": [],
            "Akimbo02AS": []
          },
          "animatorTriggerOnLanded": ""
        },
        "Channel_BS": {
          "$type": "KBOPIKLCBOA",
          "animatorStates": {
            "ChannelBS": ["Emo_Avatar_Common_Manekin_Default"]
          },
          "MOKBIKEEHMJ": "combatMove",
          "canDoSkill": true,
          "massRatio": 100.0,
          "resetAnimatorTriggerOnExit": ["BeHit", "DoSkill", "Jump"],
          "setAnimatorBoolean": [
            {
              "name": "&CanUseSkill"
            }
          ],
          "canChangeAvatar": [{}],
          "animatorTriggerOnLanded": "",
          "sheatheOnStart": true
        },
        "Channel_Loop": {
          "$type": "KBOPIKLCBOA",
          "animatorStates": {
            "ChannelLoop": []
          },
          "MOKBIKEEHMJ": "combatMove",
          "canDoSkill": true,
          "massRatio": 100.0,
          "resetAnimatorTriggerOnExit": ["BeHit", "DoSkill", "Jump"],
          "setAnimatorBoolean": [
            {
              "name": "&CanUseSkill"
            }
          ],
          "canChangeAvatar": [{}],
          "animatorTriggerOnLanded": "",
          "sheatheOnStart": true
        },
        "Channel_AS": {
          "$type": "KBOPIKLCBOA",
          "animatorStates": {
            "ChannelAS": []
          },
          "MOKBIKEEHMJ": "combatMove",
          "canDoSkill": true,
          "massRatio": 100.0,
          "resetAnimatorTriggerOnExit": ["BeHit", "DoSkill", "Jump"],
          "setAnimatorBoolean": [
            {
              "name": "&CanUseSkill"
            }
          ],
          "canChangeAvatar": [{}],
          "animatorTriggerOnLanded": "",
          "sheatheOnStart": true
        },
        "PlayMusic_Lyre": {
          "$type": "KBOPIKLCBOA",
          "animatorStates": {
            "PlayMusic_Lyre_BS": ["PlayMusic_Lyre_Boy"],
            "PlayMusic_Lyre_Loop": ["PlayMusic_Lyre_Boy_Loop"]
          },
          "MOKBIKEEHMJ": "combatMove",
          "massRatio": 100.0,
          "resetAnimatorTriggerOnExit": ["BeHit", "DoSkill", "Jump"],
          "animatorTriggerOnLanded": "",
          "sheatheOnStart": true
        },
        "PlayMusic_Lyre_AS": {
          "$type": "KBOPIKLCBOA",
          "animatorStates": {
            "PlayMusic_Lyre_AS": ["PlayMusic_Lyre_Boy_AS"]
          },
          "MOKBIKEEHMJ": "combatMove",
          "canDoSkill": true,
          "massRatio": 100.0,
          "resetAnimatorTriggerOnExit": ["BeHit", "DoSkill", "Jump"],
          "setAnimatorBoolean": [
            {
              "name": "&CanUseSkill"
            }
          ],
          "canChangeAvatar": [{}],
          "animatorTriggerOnLanded": "",
          "sheatheOnStart": true
        },
        "PlayMusic_Qin": {
          "$type": "KBOPIKLCBOA",
          "animatorStates": {
            "PlayMusic_Qin_BS": ["PlayMusic_Qin_Boy"],
            "PlayMusic_Qin_Loop": ["PlayMusic_Qin_Boy_Loop"]
          },
          "MOKBIKEEHMJ": "combatMove",
          "massRatio": 100.0,
          "resetAnimatorTriggerOnExit": ["BeHit", "DoSkill", "Jump"],
          "animatorTriggerOnLanded": "",
          "sheatheOnStart": true
        },
        "PlayMusic_Qin_AS": {
          "$type": "KBOPIKLCBOA",
          "animatorStates": {
            "PlayMusic_Qin_AS": ["PlayMusic_Qin_Boy_AS"]
          },
          "MOKBIKEEHMJ": "combatMove",
          "canDoSkill": true,
          "massRatio": 100.0,
          "resetAnimatorTriggerOnExit": ["BeHit", "DoSkill", "Jump"],
          "setAnimatorBoolean": [
            {
              "name": "&CanUseSkill"
            }
          ],
          "canChangeAvatar": [{}],
          "animatorTriggerOnLanded": "",
          "sheatheOnStart": true
        },
        "PlayMusic_Drum": {
          "$type": "KBOPIKLCBOA",
          "animatorStates": {
            "PlayMusic_Drum_BS": ["PlayMusic_Drum_Boy"],
            "PlayMusic_Drum_Loop": ["PlayMusic_Drum_Boy_Loop"]
          },
          "MOKBIKEEHMJ": "combatMove",
          "massRatio": 100.0,
          "resetAnimatorTriggerOnExit": ["BeHit", "DoSkill", "Jump"],
          "animatorTriggerOnLanded": "",
          "sheatheOnStart": true
        },
        "PlayMusic_Drum_AS": {
          "$type": "KBOPIKLCBOA",
          "animatorStates": {
            "PlayMusic_Drum_AS": ["PlayMusic_Drum_Boy_AS"]
          },
          "MOKBIKEEHMJ": "combatMove",
          "canDoSkill": true,
          "massRatio": 100.0,
          "resetAnimatorTriggerOnExit": ["BeHit", "DoSkill", "Jump"],
          "setAnimatorBoolean": [
            {
              "name": "&CanUseSkill"
            }
          ],
          "canChangeAvatar": [{}],
          "animatorTriggerOnLanded": "",
          "sheatheOnStart": true
        },
        "PlayMusic_FrenchHorn": {
          "$type": "KBOPIKLCBOA",
          "animatorStates": {
            "PlayMusic_FrenchHorn_BS": ["PlayMusic_Frenchhorn_Boy"],
            "PlayMusic_FrenchHorn_Loop": ["PlayMusic_Frenchhorn_Boy_Loop"]
          },
          "MOKBIKEEHMJ": "combatMove",
          "massRatio": 100.0,
          "resetAnimatorTriggerOnExit": ["BeHit", "DoSkill", "Jump"],
          "animatorTriggerOnLanded": "",
          "sheatheOnStart": true
        },
        "PlayMusic_FrenchHorn_AS": {
          "$type": "KBOPIKLCBOA",
          "animatorStates": {
            "PlayMusic_FrenchHorn_AS": ["PlayMusic_Frenchhorn_Boy_AS"]
          },
          "MOKBIKEEHMJ": "combatMove",
          "canDoSkill": true,
          "massRatio": 100.0,
          "resetAnimatorTriggerOnExit": ["BeHit", "DoSkill", "Jump"],
          "setAnimatorBoolean": [
            {
              "name": "&CanUseSkill"
            }
          ],
          "canChangeAvatar": [{}],
          "animatorTriggerOnLanded": "",
          "sheatheOnStart": true
        },
        "ActivitySkill_ElectricCoreFly": {
          "$type": "KBOPIKLCBOA",
          "animatorStates": {
            "ActivitySkill_ElectricCoreFly": []
          },
          "MOKBIKEEHMJ": "combatAir",
          "massRatio": 100.0,
          "resetAnimatorTriggerOnEnter": ["ElectricCoreFly_End"],
          "resetAnimatorTriggerOnExit": [
            "BeHit",
            "DoSkill",
            "Jump",
            "ElectricCoreFly_End"
          ],
          "animatorTriggerOnLanded": "",
          "sheatheOnStart": true
        },
        "ActivitySkill_GrapplingHook": {
          "$type": "KBOPIKLCBOA",
          "animatorStates": {
            "ActivitySkill_GrapplingHook": []
          },
          "MOKBIKEEHMJ": "combatAir",
          "massRatio": 100.0,
          "resetAnimatorTriggerOnEnter": ["GrapplingHook_Drop"],
          "resetAnimatorTriggerOnExit": [
            "BeHit",
            "DoSkill",
            "Jump",
            "GrapplingHook_Drop"
          ],
          "animatorTriggerOnLanded": "",
          "sheatheOnStart": true
        },
        "ActivitySkill_CustomSkill01": {
          "$type": "KBOPIKLCBOA",
          "animatorStates": {
            "ActivitySkill_CustomSkill01": []
          },
          "MOKBIKEEHMJ": "combatAir",
          "canDoSkill": true,
          "massRatio": 100.0,
          "resetAnimatorTriggerOnEnter": [
            "CustomSkill_End_Fly",
            "CustomSkill_End_Drop"
          ],
          "resetAnimatorTriggerOnExit": [
            "BeHit",
            "DoSkill",
            "Jump",
            "CustomSkill_End_Fly",
            "CustomSkill_End_Drop"
          ],
          "animatorTriggerOnLanded": "",
          "sheatheOnStart": true
        },
        "ActivitySkill_CustomSkill02": {
          "$type": "KBOPIKLCBOA",
          "animatorStates": {
            "ActivitySkill_CustomSkill02": []
          },
          "MOKBIKEEHMJ": "combatAir",
          "canDoSkill": true,
          "massRatio": 100.0,
          "resetAnimatorTriggerOnEnter": [
            "CustomSkill_End_Fly",
            "CustomSkill_End_Drop"
          ],
          "resetAnimatorTriggerOnExit": [
            "BeHit",
            "DoSkill",
            "Jump",
            "CustomSkill_End_Fly",
            "CustomSkill_End_Drop"
          ],
          "animatorTriggerOnLanded": "",
          "sheatheOnStart": true
        },
        "ActivitySkill_CommonMove": {
          "$type": "KBOPIKLCBOA",
          "animatorStates": {
            "ActivitySkill_CommonMove": []
          },
          "addEndure": 0.0,
          "massRatio": 100.0,
          "resetAnimatorTriggerOnExit": ["BeHit", "DoSkill", "Jump"],
          "enableBoneFollowMove": true,
          "jumpCancelStart": -1.0,
          "sprintCancelStart": -1.0,
          "animatorTriggerOnLanded": "",
          "sheatheOnStart": true
        },
        "DiveChannel_BS": {
          "$type": "KBOPIKLCBOA",
          "animatorStates": {
            "DiveChannelBS": [
              "Emo_Avatar_Common_Manekin_Default",
              "Audio_Boy_DiveChannel_BS"
            ]
          },
          "MOKBIKEEHMJ": "combatDive",
          "massRatio": 100.0,
          "resetAnimatorTriggerOnExit": ["BeHit", "DoSkill", "Jump"],
          "setAnimatorBoolean": [
            {
              "name": "&CanUseSkill"
            }
          ],
          "canChangeAvatar": [{}],
          "actionPanelState": "Dive",
          "sprintCancelEnd": -1.0,
          "animatorTriggerOnLanded": "",
          "sheatheOnStart": true
        },
        "DiveChannel_Loop": {
          "$type": "KBOPIKLCBOA",
          "animatorStates": {
            "DiveChannelLoop": []
          },
          "MOKBIKEEHMJ": "combatDive",
          "massRatio": 100.0,
          "resetAnimatorTriggerOnExit": ["BeHit", "DoSkill", "Jump"],
          "setAnimatorBoolean": [
            {
              "name": "&CanUseSkill"
            }
          ],
          "canChangeAvatar": [{}],
          "actionPanelState": "Dive",
          "sprintCancelEnd": -1.0,
          "animatorTriggerOnLanded": "",
          "sheatheOnStart": true
        },
        "DiveChannel_AS": {
          "$type": "KBOPIKLCBOA",
          "animatorStates": {
            "DiveChannelAS": ["Audio_Boy_DiveChannel_AS"]
          },
          "MOKBIKEEHMJ": "combatDive",
          "canDoSkill": true,
          "canDoSkillStart": 0.30000001192092896,
          "massRatio": 100.0,
          "resetAnimatorTriggerOnExit": ["BeHit", "DoSkill", "Jump"],
          "setAnimatorBoolean": [
            {
              "name": "&CanUseSkill"
            }
          ],
          "canChangeAvatar": [{}],
          "actionPanelState": "Dive",
          "sprintCancelStart": 0.11999999731779099,
          "animatorTriggerOnLanded": "",
          "sheatheOnStart": true
        },
        "DiveCast_BS": {
          "$type": "KBOPIKLCBOA",
          "animatorStates": {
            "DiveCast_BS": [
              "Emo_Avatar_Common_Manekin_Default",
              "Audio_Boy_DiveCast_BS"
            ]
          },
          "MOKBIKEEHMJ": "combatDive",
          "massRatio": 100.0,
          "resetAnimatorTriggerOnExit": ["BeHit", "DoSkill", "Jump"],
          "setAnimatorBoolean": [
            {
              "name": "&CanUseSkill"
            }
          ],
          "canChangeAvatar": [{}],
          "actionPanelState": "Dive",
          "sprintCancelEnd": -1.0,
          "animatorTriggerOnLanded": "",
          "sheatheOnStart": true
        },
        "DiveCast_Loop": {
          "$type": "KBOPIKLCBOA",
          "animatorStates": {
            "DiveCast_Loop": []
          },
          "MOKBIKEEHMJ": "combatDive",
          "massRatio": 100.0,
          "resetAnimatorTriggerOnExit": ["BeHit", "DoSkill", "Jump"],
          "setAnimatorBoolean": [
            {
              "name": "&CanUseSkill"
            }
          ],
          "canChangeAvatar": [{}],
          "actionPanelState": "Dive",
          "sprintCancelEnd": -1.0,
          "animatorTriggerOnLanded": "",
          "sheatheOnStart": true
        },
        "DiveCast_AS": {
          "$type": "KBOPIKLCBOA",
          "animatorStates": {
            "DiveCast_AS": ["Audio_Boy_DiveCast_AS"]
          },
          "MOKBIKEEHMJ": "combatDive",
          "canDoSkill": true,
          "canDoSkillStart": 0.10000000149011612,
          "massRatio": 100.0,
          "resetAnimatorTriggerOnExit": ["BeHit", "DoSkill", "Jump"],
          "setAnimatorBoolean": [
            {
              "name": "&CanUseSkill"
            }
          ],
          "canChangeAvatar": [{}],
          "actionPanelState": "Dive",
          "sprintCancelStart": 0.09000000357627869,
          "animatorTriggerOnLanded": "",
          "sheatheOnStart": true
        },
        "Dive": {
          "$type": "KBOPIKLCBOA",
          "animatorStates": {
            "DiveIdle": [],
            "DiveMoveBS": ["Audio_Boy_Dive_MoveBS"],
            "DiveMoveAS": ["Audio_Boy_Dive_MoveAS"],
            "DiveMoveU_A": ["Audio_Boy_Dive_MoveU_A"],
            "DiveMoveU_B": ["Audio_Boy_Dive_MoveU_B"],
            "DiveMoveF_A": [],
            "DiveMoveF_B": ["Audio_Boy_Dive_MoveF_B"],
            "DiveMoveD_A": ["Audio_Boy_Dive_MoveD_A"],
            "DiveMoveD_B": ["Audio_Boy_Dive_MoveD_B"],
            "DiveTurn": ["Audio_Boy_Dive_Turn"],
            "DiveTurnAS": ["Audio_Boy_Dive_Turn_AS"],
            "DiveTurn2": ["Audio_Boy_Dive_Turn"],
            "DiveTurnAS2": ["Audio_Boy_Dive_Turn_AS"],
            "DiveDashBS": ["Audio_Boy_Dive_Dash_BS"],
            "DiveDashAS": ["Audio_Boy_Dive_Dash_AS"],
            "DiveDash": [],
            "DiveDashB": ["Audio_Boy_Dive_Out_DashB"],
            "DiveSuperDash": ["Audio_Boy_Dive_SuperDash"],
            "DiveSuperDash2": ["Audio_Boy_Dive_SuperDash2"]
          },
          "canDoSkill": true,
          "resetAnimatorTriggerOnEnter": ["DoSkill"],
          "setAnimatorBoolean": [
            {
              "name": "&CanUseSkill"
            }
          ],
          "canChangeAvatar": [{}],
          "actionPanelState": "Dive",
          "animatorTriggerOnLanded": "",
          "sheatheOnStart": true
        },
        "Dive_In_Out": {
          "$type": "KBOPIKLCBOA",
          "animatorStates": {
            "Dive_In_Up": ["Audio_Boy_Dive_In_Up"],
            "Dive_In_Side": ["Audio_Boy_Dive_In_Side"],
            "Dive_In_Bottom": ["Audio_Boy_Dive_In_Bottom"],
            "Dive_Out_Side": ["Audio_Boy_Dive_Out_Side"],
            "Dive_Out_Bottom": ["Audio_Boy_Dive_Out_Bottom"],
            "Dive_Out_Up": ["Audio_Boy_Dive_Out_Up"]
          },
          "resetAnimatorTriggerOnEnter": ["DoSkill"],
          "setAnimatorBoolean": [
            {
              "name": "&CanUseSkill"
            }
          ],
          "actionPanelState": "Dive",
          "animatorTriggerOnLanded": "",
          "sheatheOnStart": true
        },
        "DiveStream": {
          "$type": "KBOPIKLCBOA",
          "animatorStates": {
            "DiveStreamIn": ["Audio_Boy_Dive_Stream_In"],
            "DiveStreamOut": ["Audio_Boy_Dive_Stream_Out"],
            "DiveStream": [],
            "DiveStreamRoll_L": ["Audio_Boy_Dive_Stream_Roll_L"],
            "DiveStreamRoll_R": ["Audio_Boy_Dive_Stream_Roll_R"]
          },
          "canDoSkill": true,
          "resetAnimatorTriggerOnEnter": ["DoSkill"],
          "setAnimatorBoolean": [
            {
              "name": "&CanUseSkill"
            }
          ],
          "actionPanelState": "Dive",
          "animatorTriggerOnLanded": "",
          "sheatheOnStart": true
        },
        "DiveJump": {
          "$type": "KBOPIKLCBOA",
          "animatorStates": {
            "Dive_Out_DashU": ["Audio_Boy_Dive_Out_DashU"],
            "Dive_Out_DashD": ["Audio_Boy_Dive_Out_DashD"],
            "Dive_Out_DashFBS": ["Audio_Boy_Dive_Out_DashFBS"],
            "Dive_Out_DashFAS": ["Audio_Boy_Dive_Out_DashFAS"],
            "Dive_Out_DashFLoop": []
          },
          "canDoSkill": true,
          "resetAnimatorTriggerOnEnter": ["DoSkill", "AimEnd"],
          "setAnimatorBoolean": [
            {
              "name": "&CanUseAirSkill"
            }
          ],
          "actionPanelState": "Jump",
          "animatorTriggerOnLanded": "",
          "sheatheOnStart": true
        },
        "BeHitDive": {
          "$type": "KBOPIKLCBOA",
          "animatorStates": {
            "BeHitDive": ["Audio_Boy_Dive_beHit"],
            "DiveStruggle": []
          },
          "MOKBIKEEHMJ": "combatDive",
          "resetAnimatorTriggerOnEnter": ["BeHit"],
          "resetAnimatorTriggerOnExit": ["DoSkill"],
          "cameraType": "combatBeHit",
          "actionPanelState": "Dive",
          "jumpCancelEnd": 0.0,
          "animatorTriggerOnLanded": "",
          "sheatheOnStart": true
        },
        "MultiOverride_01": {
          "$type": "KBOPIKLCBOA",
          "animatorStates": {
            "MultiOverrideBS_01": [],
            "MultiOverrideLoop_01": [],
            "MultiOverrideAS_01": []
          },
          "animatorTriggerOnLanded": ""
        },
        "MultiOverride2": {
          "$type": "KBOPIKLCBOA",
          "animatorStates": {
            "MultiOverrideBS_02": [],
            "MultiOverrideLoop_02": [],
            "MultiOverrideAS_02": []
          },
          "animatorTriggerOnLanded": ""
        },
        "MultiOverride3": {
          "$type": "KBOPIKLCBOA",
          "animatorStates": {
            "MultiOverrideBS_03": [],
            "MultiOverrideLoop_03": [],
            "MultiOverrideAS_03": []
          },
          "animatorTriggerOnLanded": ""
        },
        "MultiOverride": {
          "$type": "KBOPIKLCBOA",
          "INKINKDHODO": {
            "Ani_Avatar_Boy_Claymore_Gaming_Photo01BS": [],
            "Ani_Avatar_Boy_Claymore_Gaming_Photo01Loop": [],
            "Ani_Avatar_Boy_Claymore_Gaming_Photo01AS": [],
            "Ani_Avatar_Boy_Claymore_Gaming_Photo02BS": [],
            "Ani_Avatar_Boy_Claymore_Gaming_Photo02Loop": [],
            "Ani_Avatar_Boy_Claymore_Gaming_Photo02AS": []
          },
          "animatorTriggerOnLanded": ""
        }
      }
    },
    "skinLayer": {
      "$type": "GBGJJIIEMBD",
      "layerIndex": 6,
      "layerIndexName": "SkinLayer",
      "CPAANEIJCGD": ""
    },
    "diveLayer": {
      "$type": "GBGJJIIEMBD",
      "layerIndex": 7,
      "layerIndexName": "DiveLayer",
      "CPAANEIJCGD": ""
    }
  },
  "DADEGCDMOBD": false,
  "audio": {
    "overrideEmitterName": "",
    "animAudio": {
      "onTransitionIn": [
        {
          "currentStateName": "ExtraAttack1",
          "audioEvent": {
            "text": "Play_Sfx_Char_Gaming_Claymore_ExtraAttack1"
          }
        },
        {
          "currentStateName": "FallingAnthem_Loop_Special",
          "audioEvent": {
            "text": "Play_sfx_char_catalyst_fallingAnthem_fire_self_01"
          }
        },
        {
          "currentStateName": "FallingAnthem_Loop_Low_Special",
          "audioEvent": {
            "text": "Play_sfx_char_catalyst_fallingAnthem_fire_self_01"
          }
        },
        {
          "currentStateName": "SlipBackWall",
          "audioEvent": {
            "text": "Play_sfx_char_slipWall"
          }
        },
        {
          "currentStateName": "SlipFaceWall",
          "audioEvent": {
            "text": "Play_sfx_char_slipWall"
          }
        },
        {
          "currentStateName": "NormalDie",
          "audioEvent": {
            "text": "Play_sfx_char_land"
          },
          "otherStateNames": ["FallOnGround"],
          "usage": "InSet"
        },
        {
          "currentStateName": "SprintBS",
          "audioEvent": {
            "text": "Play_sfx_char_diluc_coat_heavy"
          }
        },
        {
          "currentStateName": "SprintBS",
          "audioEvent": {
            "text": "Play_sfx_char_foley_flutter_heavy"
          }
        },
        {
          "currentStateName": "SwimJumpToWater",
          "audioEvent": {
            "text": "Stop_sfx_char_swim_dive"
          }
        },
        {
          "currentStateName": "SwimDash",
          "audioEvent": {
            "text": "Play_sfx_char_swim_dash"
          }
        },
        {
          "currentStateName": "Standby",
          "audioEvent": {
            "text": "Stop_sfx_char_fly"
          }
        },
        {
          "currentStateName": "DiveDash",
          "audioEvent": {
            "text": "Play_sfx_char_dive_dash_lp"
          },
          "otherStateNames": ["DiveDashBS", "Dive_Out_DashFBS"],
          "usage": "InSet"
        },
        {
          "currentStateName": "DiveStream",
          "audioEvent": {
            "text": "Play_sfx_char_dive_stream_lp"
          }
        },
        {
          "currentStateName": "Dive_Out_DashFLoop",
          "audioEvent": {
            "text": "Play_sfx_char_dive_out_dashFLoop"
          }
        },
        {
          "currentStateName": "DiveMoveF_A",
          "audioEvent": {
            "text": "Play_sfx_char_dive_moveF_A"
          }
        },
        {
          "currentStateName": "DiveChannel_Loop",
          "audioEvent": {
            "text": "Play_vfx_Avatar_Diving_Channel_LP"
          }
        }
      ],
      "onTransitionOut": [
        {
          "currentStateName": "Attack01",
          "audioEvent": {
            "text": "Stop_Sfx_Char_Gaming_Claymore_Attack"
          },
          "otherStateNames": ["Attack02"],
          "usage": "Except"
        },
        {
          "currentStateName": "Attack02",
          "audioEvent": {
            "text": "Stop_Sfx_Char_Gaming_Claymore_Attack"
          },
          "otherStateNames": ["Attack03"],
          "usage": "Except"
        },
        {
          "currentStateName": "Attack03",
          "audioEvent": {
            "text": "Stop_Sfx_Char_Gaming_Claymore_Attack"
          },
          "otherStateNames": ["Attack04"],
          "usage": "Except"
        },
        {
          "currentStateName": "Attack04",
          "audioEvent": {
            "text": "Stop_Sfx_Char_Gaming_Claymore_Attack"
          },
          "otherStateNames": ["ExtraAttack"],
          "usage": "Except"
        },
        {
          "currentStateName": "ExtraAttack1",
          "audioEvent": {
            "text": "Stop_Sfx_Char_Gaming_Claymore_ExtraAttack1"
          }
        },
        {
          "currentStateName": "ExtraAttack2",
          "audioEvent": {
            "text": "Stop_Sfx_Char_Gaming_Claymore_ExtraAttack2"
          }
        },
        {
          "currentStateName": "Gaming_ElementalArt_Leap",
          "audioEvent": {
            "text": "Stop_Sfx_Char_Gaming_ElementalArt_Leap"
          }
        },
        {
          "currentStateName": "Gaming_ElementalArt_Jump",
          "audioEvent": {
            "text": "Stop_Sfx_Char_Gaming_ElementalArt_Jump"
          }
        },
        {
          "currentStateName": "Gaming_ElementalArt_AS",
          "audioEvent": {
            "text": "Stop_Sfx_Char_Gaming_ElementalArt_AS"
          }
        },
        {
          "currentStateName": "Gaming_ElementalBurst_AS",
          "audioEvent": {
            "text": "Stop_Sfx_Char_Gaming_ElementalBurst_AS"
          }
        },
        {
          "currentStateName": "StandbyShow_02",
          "audioEvent": {
            "text": "Stop_sfx_standbyShow_gaming_02"
          }
        },
        {
          "currentStateName": "StandbyShow_01",
          "audioEvent": {
            "text": "Stop_sfx_standbyShow_gaming_01"
          }
        },
        {
          "currentStateName": "FallingAnthem_AS_2",
          "audioEvent": {
            "text": "Stop_sfx_char_claymore_fallingAnthem_AS"
          }
        },
        {
          "currentStateName": "FallingAnthem_AS_1_Special",
          "audioEvent": {
            "text": "Stop_Sfx_Char_Gaming_FallingAnthem_AS_1_Special"
          }
        },
        {
          "currentStateName": "FallingAnthem_AS_2_Special",
          "audioEvent": {
            "text": "Stop_Sfx_Char_Gaming_FallingAnthem_AS_2_Special"
          }
        },
        {
          "currentStateName": "FallingAnthem_Loop_Special",
          "audioEvent": {
            "text": "Stop_sfx_char_catalyst_fallingAnthem_fire_self_01"
          }
        },
        {
          "currentStateName": "FallingAnthem_Loop_Low_Special",
          "audioEvent": {
            "text": "Stop_sfx_char_catalyst_fallingAnthem_fire_self_01"
          }
        },
        {
          "currentStateName": "StandbyPutaway",
          "audioEvent": {
            "text": "Stop_sfx_char_razor_claymore_putAway"
          }
        },
        {
          "currentStateName": "WalkPutaway",
          "audioEvent": {
            "text": "Stop_sfx_weapon_1HSword_lady_putAwayStandby"
          }
        },
        {
          "currentStateName": "RunPutaway",
          "audioEvent": {
            "text": "Stop_sfx_weapon_1HSword_lady_putAwayStandby"
          }
        },
        {
          "currentStateName": "SwimJumpDrop",
          "audioEvent": {
            "text": "Stop_sfx_char_swim_drop"
          }
        },
        {
          "currentStateName": "SwimJump",
          "audioEvent": {
            "text": "Stop_sfx_char_swim_drop"
          },
          "otherStateNames": ["SwimJumpDrop"],
          "usage": "Except"
        },
        {
          "currentStateName": "Fly",
          "audioEvent": {
            "text": "Play_sfx_char_land_climb"
          },
          "otherStateNames": [
            "ClimbIdle",
            "ClimbMove0",
            "ClimbMove1",
            "ClimbJump"
          ],
          "usage": "InSet"
        },
        {
          "currentStateName": "FlyStart",
          "audioEvent": {
            "text": "Play_sfx_char_land_climb"
          },
          "otherStateNames": [
            "ClimbIdle",
            "ClimbMove0",
            "ClimbMove1",
            "ClimbJump"
          ],
          "usage": "InSet"
        },
        {
          "currentStateName": "Fly",
          "audioEvent": {
            "text": "Stop_sfx_char_fly"
          }
        },
        {
          "currentStateName": "SlipFaceWall",
          "audioEvent": {
            "text": "Stop_sfx_char_slipWall"
          }
        },
        {
          "currentStateName": "SlipBackWall",
          "audioEvent": {
            "text": "Stop_sfx_char_slipWall"
          }
        },
        {
          "currentStateName": "SlipFaceWall",
          "audioEvent": {
            "text": "Stop_sfx_char_drop"
          }
        },
        {
          "currentStateName": "SlipBackWall",
          "audioEvent": {
            "text": "Stop_sfx_char_drop"
          }
        },
        {
          "currentStateName": "DropDownLit",
          "audioEvent": {
            "text": "Play_sfx_char_land_climb"
          },
          "otherStateNames": [
            "ClimbIdle",
            "ClimbMove0",
            "ClimbMove1",
            "ClimbJump"
          ],
          "usage": "InSet"
        },
        {
          "currentStateName": "DropDown",
          "audioEvent": {
            "text": "Play_sfx_char_land_climb"
          },
          "otherStateNames": [
            "ClimbIdle",
            "ClimbMove0",
            "ClimbMove1",
            "ClimbJump"
          ],
          "usage": "InSet"
        },
        {
          "currentStateName": "WalkDropDownLit",
          "audioEvent": {
            "text": "Play_sfx_char_land_climb"
          },
          "otherStateNames": [
            "ClimbIdle",
            "ClimbMove0",
            "ClimbMove1",
            "ClimbJump"
          ],
          "usage": "InSet"
        },
        {
          "currentStateName": "Jump",
          "audioEvent": {
            "text": "Play_sfx_char_land_climb"
          },
          "otherStateNames": [
            "ClimbIdle",
            "ClimbMove0",
            "ClimbMove1",
            "ClimbJump"
          ],
          "usage": "InSet"
        },
        {
          "currentStateName": "JumpForWalk",
          "audioEvent": {
            "text": "Play_sfx_char_land_climb"
          },
          "otherStateNames": [
            "ClimbIdle",
            "ClimbMove0",
            "ClimbMove1",
            "ClimbJump"
          ],
          "usage": "InSet"
        },
        {
          "currentStateName": "JumpForRun",
          "audioEvent": {
            "text": "Play_sfx_char_land_climb"
          },
          "otherStateNames": [
            "ClimbIdle",
            "ClimbMove0",
            "ClimbMove1",
            "ClimbJump"
          ],
          "usage": "InSet"
        },
        {
          "currentStateName": "JumpForSprint",
          "audioEvent": {
            "text": "Play_sfx_char_land_climb"
          },
          "otherStateNames": [
            "ClimbIdle",
            "ClimbMove0",
            "ClimbMove1",
            "ClimbJump"
          ],
          "usage": "InSet"
        },
        {
          "currentStateName": "JumpWeapon",
          "audioEvent": {
            "text": "Play_sfx_char_land_climb"
          },
          "otherStateNames": [
            "ClimbIdle",
            "ClimbMove0",
            "ClimbMove1",
            "ClimbJump"
          ],
          "usage": "InSet"
        },
        {
          "currentStateName": "JumpForWalkWeapon",
          "audioEvent": {
            "text": "Play_sfx_char_land_climb"
          },
          "otherStateNames": [
            "ClimbIdle",
            "ClimbMove0",
            "ClimbMove1",
            "ClimbJump"
          ],
          "usage": "InSet"
        },
        {
          "currentStateName": "JumpForRunWeapon",
          "audioEvent": {
            "text": "Play_sfx_char_land_climb"
          },
          "otherStateNames": [
            "ClimbIdle",
            "ClimbMove0",
            "ClimbMove1",
            "ClimbJump"
          ],
          "usage": "InSet"
        },
        {
          "currentStateName": "DropDownWeapon",
          "audioEvent": {
            "text": "Play_sfx_char_land_climb"
          },
          "otherStateNames": [
            "ClimbIdle",
            "ClimbMove0",
            "ClimbMove1",
            "ClimbJump"
          ],
          "usage": "InSet"
        },
        {
          "currentStateName": "DropDownLitWeapon",
          "audioEvent": {
            "text": "Play_sfx_char_land_climb"
          },
          "otherStateNames": [
            "ClimbIdle",
            "ClimbMove0",
            "ClimbMove1",
            "ClimbJump"
          ],
          "usage": "InSet"
        },
        {
          "currentStateName": "SwimMove",
          "audioEvent": {
            "text": "Stop_sfx_char_swim"
          }
        },
        {
          "currentStateName": "DiveDash",
          "audioEvent": {
            "text": "Stop_sfx_char_dive_dash_lp"
          },
          "otherStateNames": ["DiveDashB", "DiveTurn", "DiveTurn2"],
          "usage": "Except"
        },
        {
          "currentStateName": "DiveStream",
          "audioEvent": {
            "text": "Stop_sfx_char_dive_stream_lp"
          },
          "otherStateNames": ["DiveStreamRoll_L", "DiveStreamRoll_R"],
          "usage": "Except"
        },
        {
          "currentStateName": "DiveMoveAS",
          "audioEvent": {
            "text": "Stop_sfx_char_dive_move_AS"
          }
        },
        {
          "currentStateName": "Dive_Out_DashFLoop",
          "audioEvent": {
            "text": "Stop_sfx_char_dive_out_dashFLoop"
          }
        },
        {
          "currentStateName": "DiveIdle",
          "audioEvent": {
            "text": "Stop_sfx_char_dive_dash_lp"
          }
        },
        {
          "currentStateName": "Dive_Out_Up",
          "audioEvent": {
            "text": "Stop_sfx_char_dive_moveF_A"
          }
        },
        {
          "currentStateName": "DiveChannel_Loop",
          "audioEvent": {
            "text": "Stop_vfx_Avatar_Diving_Channel_LP"
          }
        },
        {
          "currentStateName": "DiveMoveU_A",
          "audioEvent": {
            "text": "Stop_sfx_char_dive_moveU_A"
          }
        },
        {
          "currentStateName": "DiveMoveF_A",
          "audioEvent": {
            "text": "Stop_sfx_char_dive_moveF_A"
          }
        }
      ],
      "recurrentSpeeches": {
        "Standby": {
          "start": {
            "upper": 28.0,
            "lower": 23.0
          },
          "interval": {
            "upper": 40.0,
            "lower": 34.0
          },
          "eventName": {
            "text": "Play_vo_char_explore_idle"
          }
        },
        "Walk": {
          "start": {
            "upper": 16.0,
            "lower": 13.0
          },
          "interval": {
            "upper": 14.0,
            "lower": 10.0
          },
          "eventName": {
            "text": ""
          }
        },
        "Run": {
          "start": {
            "upper": 13.0,
            "lower": 9.0
          },
          "interval": {
            "upper": 11.0,
            "lower": 8.0
          },
          "eventName": {
            "text": ""
          }
        },
        "Sprint": {
          "start": {
            "upper": 12.0,
            "lower": 7.0
          },
          "interval": {
            "upper": 9.0,
            "lower": 6.0
          },
          "eventName": {
            "text": ""
          }
        }
      }
    },
    "moveStateAudio": {
      "onStateBegin": [
        {
          "currentStateName": "Fly",
          "audioEvent": {
            "text": "Play_sfx_char_fly"
          }
        },
        {
          "currentStateName": "Air",
          "audioEvent": {
            "text": "Play_sfx_char_drop"
          },
          "otherStateNames": ["Fly"],
          "usage": "InSet"
        },
        {
          "currentStateName": "CombatDive",
          "audioEvent": {
            "text": "Play_sfx_char_dive_move_swim_idle"
          },
          "otherStateNames": ["Dive"],
          "usage": "Except"
        },
        {
          "currentStateName": "Dive",
          "audioEvent": {
            "text": "Play_sfx_char_dive_move_swim_idle"
          },
          "otherStateNames": ["CombatDive"],
          "usage": "Except"
        }
      ],
      "onStateEnd": [
        {
          "currentStateName": "Fly",
          "audioEvent": {
            "text": "Stop_sfx_char_fly"
          }
        },
        {
          "currentStateName": "Air",
          "audioEvent": {
            "text": "Stop_sfx_char_drop"
          }
        },
        {
          "currentStateName": "Dive",
          "audioEvent": {
            "text": "Stop_sfx_char_dive_move_swim_idle"
          },
          "otherStateNames": ["CombatDive"],
          "usage": "Except"
        },
        {
          "currentStateName": "CombatDive",
          "audioEvent": {
            "text": "Stop_sfx_char_dive_move_swim_idle"
          },
          "otherStateNames": ["Dive"],
          "usage": "Except"
        }
      ]
    },
    "voiceSwitch": {
      "text": "Switch_Gaming"
    },
    "bodyTypeSwitch": {
      "text": "Switch_Boy"
    },
    "listenerLiftup": 1.5,
    "surfaceProberLiftup": 1.5
  },
  "ONIAJBGGJHD": "AvatarBoy",
  "perform": {
    "standby": {
      "minTime": 10.0,
      "maxTime": 20.0,
      "performIDs": [201, 202, 200, 200]
    }
  }
}
