{
  "common": {
    "effectAttachShape": {
      "$type": "FJNPJANPGGC",
      "mesh": "EffectMesh"
    },
    "mass": 10.0,
    "height": 1.8600000143051147,
    "modelHeight": 1.8600000143051147,
    "affectedByWorld": true,
    "checkInSurface": true
  },
  "headControl": {
    "$type": "KPIPDEBDPIH",
    "useHeadControl": true,
    "animStates": [
      "NormalStandby",
      "NormalMove/WalkToRun",
      "NormalMove/Walk",
      "NormalMove/RunToWalk",
      "NormalMove/Run",
      "NormalMove/RunToIdle",
      "NormalMove/WalkToIdle",
      "NormalMove/RunningTurn",
      "NormalMove/SprintToRun",
      "NormalMove/SprintToIdle",
      "Sprint",
      "Climb/ClimbIdle",
      "Ladder/LadderIdle",
      "Swim/SwimIdle",
      "NormalStandbyWeapon",
      "NormalMoveWeapon/WalkToRunWeapon",
      "NormalMoveWeapon/WalkWeapon",
      "NormalMoveWeapon/RunToWalkWeapon",
      "NormalMoveWeapon/RunWeapon",
      "NormalMoveWeapon/RunToIdleWeapon",
      "NormalMoveWeapon/WalkToIdleWeapon",
      "NormalMoveWeapon/RunningTurnWeapon"
    ]
  },
  "specialPoint": {
    "elementAbsorb": "PRIVATE_Pendant",
    "elementPendant": "PRIVATE_Pendant",
    "elementDrop": "RootNode",
    "bulletAim": "RootNode"
  },
  "combat": {
    "property": {
      "endureType": "Avatar_Sword",
      "weight": 75.0
    },
    "beHit": {
      "hitBloodEffect": ""
    },
    "combatLock": {
      "lockShape": "CircleLockEnemyClose",
      "lockWeightYaxisParam": 0.20000000298023224,
      "lockWeightYaxisThreshold": 2.0,
      "lockType": "Avatar&Monster_Lv4"
    },
    "die": {
      "hasAnimatorDie": true,
      "dieEndTime": 1.5,
      "dieForceDisappearTime": 2.5,
      "dieDisappearEffect": "Eff_Death_Avatar_Common",
      "dieShaderData": "AvatarDie",
      "useRagDoll": true,
      "ragDollDieEndTimeDelay": 0.4000000059604645
    },
    "animEvents": {
      "ATK01": {
        "attackPattern": {
          "$type": "ConfigAttackCircle",
          "triggerType": "TriggerNoRepeat",
          "born": {
            "$type": "ConfigBornBySelf",
            "offset": {
              "x": 0.0,
              "y": 0.0,
              "z": 0.800000011920929
            }
          },
          "radius": 1.7000000476837158
        },
        "attackInfo": {
          "attackTag": "NormalAttack_01",
          "attenuationTag": "NormalAttack",
          "attenuationGroup": "default",
          "attackProperty": {
            "actorGrassSubHurtDelta": 0.3100000023841858,
            "actorWindSubHurtDelta": 0.0,
            "elementDurability": 25.0,
            "overrideByWeapon": true,
            "strikeType": "Slash",
            "enBreak": 27.299999237060547,
            "attackType": "Melee",
            "AIGBINPINKE": 0.0,
            "actorElementReactionCriticalHurtDelta": 0.0,
            "GLKMCMDJBIK": 0.0
          },
          "hitPattern": {
            "onHitEffectName": "default",
            "hitImpulseY": "",
            "hitImpulseType": "LV3",
            "hitHaltTime": 0.029999999329447746,
            "hitHaltTimeScale": 0.009999999776482582,
            "canBeDefenceHalt": true
          },
          "cameraShake": {
            "shakeType": "CustomVector",
            "shakeRange": 0.11999999731779099,
            "shakeTime": 0.11999999731779099,
            "shakeDistance": 30.0,
            "shakeDir": {
              "x": -1.0,
              "y": 1.0
            }
          }
        }
      },
      "ATK02": {
        "attackPattern": {
          "$type": "ConfigAttackCircle",
          "triggerType": "TriggerNoRepeat",
          "born": {
            "$type": "ConfigBornBySelf",
            "offset": {
              "x": 0.0,
              "y": 0.0,
              "z": 1.2000000476837158
            }
          },
          "radius": 1.5
        },
        "attackInfo": {
          "attackTag": "NormalAttack_02",
          "attenuationTag": "NormalAttack",
          "attenuationGroup": "default",
          "attackProperty": {
            "actorGrassSubHurtDelta": 0.25999999046325684,
            "actorWindSubHurtDelta": 0.0,
            "elementDurability": 25.0,
            "overrideByWeapon": true,
            "strikeType": "Slash",
            "enBreak": 23.399999618530273,
            "attackType": "Melee",
            "AIGBINPINKE": 0.0,
            "actorElementReactionCriticalHurtDelta": 0.0,
            "GLKMCMDJBIK": 0.0
          },
          "hitPattern": {
            "onHitEffectName": "default",
            "hitImpulseY": "",
            "hitImpulseType": "LV3",
            "hitHaltTime": 0.029999999329447746,
            "hitHaltTimeScale": 0.009999999776482582,
            "canBeDefenceHalt": true
          },
          "cameraShake": {
            "shakeType": "CustomVector",
            "shakeRange": 0.11999999731779099,
            "shakeTime": 0.11999999731779099,
            "shakeDistance": 30.0,
            "shakeDir": {
              "x": 1.0,
              "y": 1.0
            }
          }
        }
      },
      "ATK03": {
        "attackPattern": {
          "$type": "ConfigAttackBox",
          "triggerType": "TriggerNoRepeat",
          "born": {
            "$type": "ConfigBornBySelf",
            "offset": {
              "x": 0.0,
              "y": 1.2000000476837158,
              "z": -0.20000000298023224
            }
          },
          "size": {
            "x": 1.0,
            "y": 2.5,
            "z": 2.5999999046325684
          }
        },
        "attackInfo": {
          "attackTag": "NormalAttack_03",
          "attenuationTag": "NormalAttack",
          "attenuationGroup": "default",
          "attackProperty": {
            "actorGrassSubHurtDelta": 0.49000000953674316,
            "actorWindSubHurtDelta": 0.0,
            "elementDurability": 25.0,
            "overrideByWeapon": true,
            "strikeType": "Slash",
            "enBreak": 44.099998474121094,
            "attackType": "Melee",
            "AIGBINPINKE": 0.0,
            "actorElementReactionCriticalHurtDelta": 0.0,
            "GLKMCMDJBIK": 0.0
          },
          "hitPattern": {
            "onHitEffectName": "default",
            "hitImpulseY": "",
            "hitImpulseType": "LV3",
            "hitHaltTime": 0.05999999865889549,
            "hitHaltTimeScale": 0.009999999776482582,
            "canBeDefenceHalt": true
          },
          "cameraShake": {
            "shakeType": "CustomVector",
            "shakeRange": 0.23999999463558197,
            "shakeTime": 0.11999999731779099,
            "shakeDistance": 30.0,
            "shakeDir": {
              "y": -1.0
            }
          }
        }
      },
      "ATK04": {
        "attackPattern": {
          "$type": "ConfigAttackBox",
          "triggerType": "TriggerNoRepeat",
          "born": {
            "$type": "ConfigBornBySelf",
            "offset": {
              "x": 0.0,
              "y": 0.800000011920929,
              "z": 0.30000001192092896
            }
          },
          "size": {
            "x": 1.0,
            "y": 1.7000000476837158,
            "z": 3.5
          }
        },
        "attackInfo": {
          "attackTag": "NormalAttack_04",
          "attenuationTag": "NormalAttack",
          "attenuationGroup": "default",
          "attackProperty": {
            "actorGrassSubHurtDelta": 0.6299999952316284,
            "actorWindSubHurtDelta": 0.0,
            "elementDurability": 25.0,
            "overrideByWeapon": true,
            "strikeType": "Slash",
            "enBreak": 56.70000076293945,
            "attackType": "Melee",
            "AIGBINPINKE": 0.0,
            "actorElementReactionCriticalHurtDelta": 0.0,
            "GLKMCMDJBIK": 0.0
          },
          "hitPattern": {
            "onHitEffectName": "default",
            "hitImpulseY": "",
            "hitImpulseType": "LV3",
            "hitHaltTime": 0.05999999865889549,
            "hitHaltTimeScale": 0.009999999776482582,
            "canBeDefenceHalt": true
          },
          "cameraShake": {
            "shakeType": "CustomVector",
            "shakeRange": 0.11999999731779099,
            "shakeTime": 0.11999999731779099,
            "shakeDistance": 30.0,
            "shakeDir": {
              "x": -1.0
            }
          }
        }
      },
      "ATK05": {
        "attackPattern": {
          "$type": "ConfigAttackCircle",
          "triggerType": "TriggerNoRepeat",
          "born": {
            "$type": "ConfigBornBySelf",
            "offset": {
              "x": 0.0,
              "y": 0.0,
              "z": 0.5
            }
          },
          "radius": 1.7999999523162842
        },
        "attackInfo": {
          "attackTag": "NormalAttack_05",
          "attenuationTag": "NormalAttack",
          "attenuationGroup": "default",
          "attackProperty": {
            "actorGrassSubHurtDelta": 0.7900000214576721,
            "actorWindSubHurtDelta": 0.0,
            "elementDurability": 25.0,
            "overrideByWeapon": true,
            "strikeType": "Slash",
            "enBreak": 110.5999984741211,
            "attackType": "Melee",
            "AIGBINPINKE": 0.0,
            "actorElementReactionCriticalHurtDelta": 0.0,
            "GLKMCMDJBIK": 0.0
          },
          "hitPattern": {
            "onHitEffectName": "default",
            "hitImpulseY": "",
            "hitImpulseType": "LV6",
            "hitHaltTime": 0.10000000149011612,
            "hitHaltTimeScale": 0.009999999776482582,
            "canBeDefenceHalt": true
          },
          "cameraShake": {
            "shakeType": "CustomVector",
            "shakeRange": 0.36000001430511475,
            "shakeTime": 0.11999999731779099,
            "shakeDistance": 30.0,
            "shakeDir": {
              "y": -1.0,
              "z": -1.0
            }
          }
        }
      },
      "ExtraAttack_1": {
        "attackPattern": {
          "$type": "ConfigAttackCircle",
          "triggerType": "TriggerNoRepeat",
          "born": {
            "$type": "ConfigBornBySelf",
            "offset": {
              "x": 0.0,
              "y": 0.0,
              "z": 1.0
            }
          },
          "radius": 2.200000047683716
        },
        "attackInfo": {
          "attackTag": "ExtraAttack",
          "attenuationTag": "NormalAttack",
          "attenuationGroup": "default",
          "attackProperty": {
            "actorGrassSubHurtDelta": 0.5,
            "actorWindSubHurtDelta": 0.0,
            "elementDurability": 25.0,
            "overrideByWeapon": true,
            "strikeType": "Slash",
            "enBreak": 45.0,
            "attackType": "Melee",
            "AIGBINPINKE": 0.0,
            "actorElementReactionCriticalHurtDelta": 0.0,
            "GLKMCMDJBIK": 0.0
          },
          "hitPattern": {
            "onHitEffectName": "default",
            "hitImpulseY": "",
            "hitImpulseType": "LV2",
            "hitHaltTimeScale": 0.009999999776482582
          }
        }
      },
      "ExtraAttack_2": {
        "attackPattern": {
          "$type": "ConfigAttackCircle",
          "triggerType": "TriggerNoRepeat",
          "born": {
            "$type": "ConfigBornBySelf",
            "offset": {
              "x": 0.0,
              "y": 0.0,
              "z": 1.2999999523162842
            }
          },
          "height": 1.5,
          "radius": 2.200000047683716
        },
        "attackInfo": {
          "attackTag": "ExtraAttack",
          "attenuationTag": "NormalAttack",
          "attenuationGroup": "default",
          "attackProperty": {
            "actorGrassSubHurtDelta": 0.5,
            "actorWindSubHurtDelta": 0.0,
            "elementDurability": 25.0,
            "overrideByWeapon": true,
            "strikeType": "Slash",
            "enBreak": 45.0,
            "attackType": "Melee",
            "AIGBINPINKE": 0.0,
            "actorElementReactionCriticalHurtDelta": 0.0,
            "GLKMCMDJBIK": 0.0
          },
          "hitPattern": {
            "onHitEffectName": "default",
            "hitImpulseY": "",
            "hitImpulseType": "LV6",
            "hitHaltTimeScale": 0.009999999776482582
          },
          "cameraShake": {
            "shakeType": "CustomVector",
            "shakeRange": 0.36000001430511475,
            "shakeTime": 0.15000000596046448,
            "shakeDistance": 30.0,
            "shakeDir": {
              "x": -1.0
            }
          }
        }
      }
    }
  },
  "equipController": {
    "sheathPoint": "WeaponBackPut",
    "dissolveSheathFadeDelay": 0.07500000298023224,
    "dissolveSheathFadeTime": 2.0999999046325684,
    "attachPoints": {
      "equip01": "WeaponR",
      "equip02": "WeaponL"
    },
    "weaponAwayFromHandStates": [
      {
        "state": "NormalMoveWeaponPutaway/StandbyPutaway",
        "startNormTime": 0.18000000715255737,
        "delayAppearTime": 0.20000000298023224,
        "dissolveShowTime": 0.5
      }
    ]
  },
  "abilities": [
    {
      "abilityID": "Avatar_Kaeya_DamageHandler",
      "abilityName": "Avatar_Kaeya_DamageHandler",
      "abilityOverride": ""
    },
    {
      "abilityID": "Avatar_Keaya_FrozenTrap_BS",
      "abilityName": "Avatar_Keaya_FrozenTrap_BS",
      "abilityOverride": ""
    },
    {
      "abilityID": "Avatar_Keaya_IceShield_Impact",
      "abilityName": "Avatar_Keaya_IceShield_Impact",
      "abilityOverride": ""
    },
    {
      "abilityID": "Avatar_Keaya_IceShield",
      "abilityName": "Avatar_Keaya_IceShield",
      "abilityOverride": ""
    },
    {
      "abilityID": "Avatar_Kaeya_ExtraAttack",
      "abilityName": "Avatar_Kaeya_ExtraAttack",
      "abilityOverride": ""
    },
    {
      "abilityID": "Avatar_KeayaAttack_Blink",
      "abilityName": "Avatar_KeayaAttack_Blink",
      "abilityOverride": ""
    },
    {
      "abilityID": "Avatar_Keaya_FrozenTrap_Clear",
      "abilityName": "Avatar_Keaya_FrozenTrap_Clear",
      "abilityOverride": ""
    },
    {
      "abilityID": "Avatar_Kaeya_FallingAnthem",
      "abilityName": "Avatar_Kaeya_FallingAnthem",
      "abilityOverride": ""
    }
  ],
  "stateLayers": {
    "defaultLayer": {
      "$type": "GBGJJIIEMBD",
      "layerIndexName": "",
      "CPAANEIJCGD": "",
      "stateIDs": {
        "NormalStandby": {
          "$type": "KBOPIKLCBOA",
          "animatorStates": {
            "Standby": []
          },
          "canDoSkill": true,
          "massRatio": 100.0,
          "setAnimatorBoolean": [
            {
              "name": "&CanUseSkill"
            }
          ],
          "canChangeAvatar": [{}],
          "animatorTriggerOnLanded": "",
          "sheatheOnStart": true
        },
        "NormalMove": {
          "$type": "KBOPIKLCBOA",
          "animatorStates": {
            "ShowUp": ["Audio_Male_Showup"],
            "WalkToRun": ["Audio_Male_WalkToRun", "Audio_Male_WalkToRun_Kaeya"],
            "Walk": [
              "Ani_WalkSprint01",
              "Audio_Male_Walk",
              "WalkStepOnWater",
              "Audio_Male_Walk_Kaeya"
            ],
            "RunToWalk": ["Audio_Male_RunToWalk", "Audio_Male_RunToWalk_Kaeya"],
            "Run": ["Ani_Run01", "Audio_Male_Run", "Audio_Male_Run_Kaeya"],
            "RunToIdle": ["Audio_Male_RunToIdle", "Audio_Male_RunToIdle_Kaeya"],
            "WalkToIdle": [
              "Audio_Male_WalkToIdle",
              "Audio_Male_WalkToIdle_Kaeya"
            ],
            "RunningTurn": [],
            "SprintToRun": [
              "Audio_Male_SprintToRun",
              "Audio_Male_SprintToRun_Kaeya"
            ],
            "SprintToIdle": [
              "Audio_Male_SprintToIdle",
              "Emo_Male_Sprint_AS",
              "Audio_Male_SprintToIdle_Kaeya"
            ],
            "FallOnGround": [
              "Audio_Male_FallOnGround",
              "Audio_Male_FallOnGround_Kaeya"
            ],
            "FallOnGroundLit": [
              "Audio_Male_FallOnGroundLit",
              "Audio_Male_FallOnGroundLit_Kaeya"
            ],
            "FallToGroundRun": [
              "Audio_Male_FallToGroundRun",
              "Audio_Male_FallToGroundRun_Kaeya"
            ],
            "FallToGroundRunHard": [
              "Audio_Male_FallToGroundRunHard",
              "Audio_Male_FallToGroundRunHard_Kaeya"
            ],
            "FallToGroundSprint": [
              "Audio_Male_FallToGroundSprint",
              "Audio_Male_FallToGroundSprint_Kaeya"
            ]
          },
          "canDoSkill": true,
          "massRatio": 1.0,
          "setAnimatorBoolean": [
            {
              "name": "&CanUseSkill"
            }
          ],
          "canChangeAvatar": [{}],
          "animatorTriggerOnLanded": "",
          "sheatheOnStart": true
        },
        "SprintBS": {
          "$type": "KBOPIKLCBOA",
          "animatorStates": {
            "SprintBS": [
              "Audio_Male_RunToSprint",
              "SprintBS_Invincible",
              "Emo_Male_Sprint_BS",
              "Audio_Male_SprintBS_Kaeya"
            ]
          },
          "canDoSkill": true,
          "resetAnimatorTriggerOnEnter": ["DoSkill", "AimEnd"],
          "setAnimatorBoolean": [
            {
              "name": "&CanUseSkill",
              "normalizeStart": 0.25999999046325684
            }
          ],
          "canChangeAvatar": [
            {
              "normalizeStart": 0.25999999046325684
            }
          ],
          "animatorTriggerOnLanded": "",
          "sheatheOnStart": true
        },
        "Sprint": {
          "$type": "KBOPIKLCBOA",
          "animatorStates": {
            "Sprint": [
              "Ani_WalkSprint01",
              "Audio_Male_Sprint",
              "Emo_Male_Sprint_Loop",
              "Audio_Male_Sprint_Kaeya"
            ]
          },
          "canDoSkill": true,
          "massRatio": 1.0,
          "setAnimatorBoolean": [
            {
              "name": "&CanUseSkill"
            }
          ],
          "canChangeAvatar": [{}],
          "animatorTriggerOnLanded": "",
          "sheatheOnStart": true
        },
        "SkiffNormal": {
          "$type": "KBOPIKLCBOA",
          "animatorStates": {
            "SkiffNormal": []
          },
          "massRatio": 100.0,
          "resetAnimatorTriggerOnExit": ["BeHit", "DoSkill", "Jump"],
          "animatorTriggerOnLanded": "",
          "sheatheOnStart": true
        },
        "Climb": {
          "$type": "KBOPIKLCBOA",
          "animatorStates": {
            "ClimbMove0": [
              "ClimbStep",
              "Audio_Male_Climb",
              "Audio_Male_ClimbMove0_Kaeya"
            ],
            "ClimbMove1": [
              "ClimbStep",
              "Audio_Male_Climb",
              "Audio_Male_ClimbMove1_Kaeya"
            ],
            "ClimbIdle": [],
            "ClimbJump": ["Audio_Male_ClimbDash", "Audio_Male_ClimbJump_Kaeya"],
            "JumpUpWallForStandby": [
              "Audio_Male_JumpUpWallStandby",
              "Audio_Male_JumpUpWallForStandby_Kaeya"
            ],
            "Standby2ClimbB": [
              "Audio_Male_Standby2ClimbB",
              "Audio_Male_Standby2ClimbB_Kaeya"
            ]
          },
          "resetAnimatorTriggerOnEnter": ["DoSkill"],
          "actionPanelState": "Climb",
          "animatorTriggerOnLanded": "",
          "sheatheOnStart": true
        },
        "ClimbTransient": {
          "$type": "KBOPIKLCBOA",
          "animatorStates": {
            "JumpWallReady": [],
            "Standby2ClimbA": [
              "Audio_Male_Standby2ClimbA",
              "Audio_Male_Standby2ClimbA_Kaeya"
            ]
          },
          "resetAnimatorTriggerOnEnter": ["DoSkill"],
          "animatorTriggerOnLanded": "",
          "sheatheOnStart": true
        },
        "Upstairs": {
          "$type": "KBOPIKLCBOA",
          "animatorStates": {
            "Upstairs": ["Audio_Male_Upstairs", "Audio_Male_Upstairs_Kaeya"]
          },
          "resetAnimatorTriggerOnEnter": ["DoSkill"],
          "setAnimatorBoolean": [
            {
              "name": "&CanUseSkill"
            }
          ],
          "animatorTriggerOnLanded": "",
          "sheatheOnStart": true
        },
        "Slip": {
          "$type": "KBOPIKLCBOA",
          "animatorStates": {
            "SlipFaceWall": ["Audio_Male_SlipBackWall_Kaeya"],
            "SlipBackWall": ["Audio_Male_SlipBackWall_Kaeya"]
          },
          "resetAnimatorTriggerOnEnter": ["DoSkill"],
          "animatorTriggerOnLanded": "",
          "sheatheOnStart": true
        },
        "Swim": {
          "$type": "KBOPIKLCBOA",
          "animatorStates": {
            "SwimIdle": ["Audio_Male_SwimIdle"],
            "SwimMove": ["SwimStep", "Audio_Male_SwimMove"],
            "SwimDash": [
              "Audio_Male_SwimDash",
              "Avatar_Male_SwimDash_Hand_Effect"
            ],
            "SwimJumpToWater": [
              "Audio_Male_SwimJumpToWater",
              "Audio_Male_SwimJumpToWater_Kaeya"
            ]
          },
          "resetAnimatorTriggerOnEnter": ["DoSkill"],
          "actionPanelState": "Swim",
          "animatorTriggerOnLanded": "",
          "sheatheOnStart": true
        },
        "Fly": {
          "$type": "KBOPIKLCBOA",
          "animatorStates": {
            "Fly": ["Audio_Male_Fly_Kaeya"],
            "FlyStart": [
              "Audio_Male_FlyStart",
              "FlyStart_Weapon",
              "Audio_Male_FlyStart_Kaeya"
            ]
          },
          "canDoSkill": true,
          "resetAnimatorTriggerOnEnter": ["DoSkill"],
          "setAnimatorBoolean": [
            {
              "name": "&CanUseAirSkill"
            }
          ],
          "actionPanelState": "Fly",
          "animatorTriggerOnLanded": "",
          "sheatheOnStart": true
        },
        "Jump": {
          "$type": "KBOPIKLCBOA",
          "animatorStates": {
            "Jump": ["Audio_Male_Jump", "Audio_Male_Jump_Kaeya"],
            "JumpForRun": ["Audio_Male_Jump", "Audio_Male_Jump_Kaeya"],
            "JumpForWalk": ["Audio_Male_Jump", "Audio_Male_Jump_Kaeya"],
            "JumpForSprint": ["Audio_Male_Jump", "Audio_Male_Jump_Kaeya"]
          },
          "canDoSkill": true,
          "resetAnimatorTriggerOnEnter": ["DoSkill", "AimEnd"],
          "setAnimatorBoolean": [
            {
              "name": "&CanUseAirSkill"
            }
          ],
          "actionPanelState": "Jump",
          "animatorTriggerOnLanded": "",
          "sheatheOnStart": true
        },
        "Fall": {
          "$type": "KBOPIKLCBOA",
          "animatorStates": {
            "JumpOffWall": ["Audio_Male_Jump", "Audio_Male_JumpOffWall_Kaeya"],
            "SwimJump": ["Audio_Male_SwimJump", "Audio_Male_SwimJump_Kaeya"],
            "SwimJumpDrop": ["Audio_Male_SwimJumpDrop_Kaeya"],
            "DropDown": ["Audio_Male_DropDown", "Audio_Male_DropDown_Kaeya"],
            "DropDownLit": [],
            "WalkDropDownLit": []
          },
          "canDoSkill": true,
          "resetAnimatorTriggerOnEnter": ["DoSkill"],
          "setAnimatorBoolean": [
            {
              "name": "&CanUseAirSkill"
            }
          ],
          "animatorTriggerOnLanded": "",
          "sheatheOnStart": true
        },
        "NormalStandbyWeapon": {
          "$type": "KBOPIKLCBOA",
          "animatorStates": {
            "StandbyWeapon": []
          },
          "canDoSkill": true,
          "massRatio": 100.0,
          "setAnimatorBoolean": [
            {
              "name": "&CanUseSkill"
            }
          ],
          "canChangeAvatar": [{}],
          "animatorTriggerOnLanded": "",
          "battouOnStart": true
        },
        "NormalMoveWeapon": {
          "$type": "KBOPIKLCBOA",
          "animatorStates": {
            "WalkToRunWeapon": [
              "Audio_Male_WalkToRun",
              "Audio_Male_WalkToRun_Kaeya"
            ],
            "WalkWeapon": ["Audio_Male_Walk", "Audio_Male_Walk_Kaeya"],
            "RunToWalkWeapon": [
              "Audio_Male_RunToWalk",
              "Audio_Male_RunToWalk_Kaeya"
            ],
            "RunWeapon": ["Audio_Male_Run", "Audio_Male_Run_Kaeya"],
            "RunToIdleWeapon": ["Audio_Male_RunToIdleWeapon_Kaeya"],
            "WalkToIdleWeapon": ["Audio_Male_WalkToIdleWeapon_Kaeya"],
            "RunningTurnWeapon": [],
            "FallOnGroundWeapon": [
              "Audio_Male_FallOnGround",
              "Audio_Male_FallOnGround_Kaeya"
            ],
            "FallOnGroundLitWeapon": [
              "Audio_Male_FallOnGroundLit",
              "Audio_Male_FallOnGroundLit_Kaeya"
            ],
            "FallOnGroundMiddleWeapon": [
              "Audio_Male_FallOnGroundMiddle",
              "Audio_Male_FallOnGroundMiddle_Kaeya"
            ],
            "FallToGroundRunWeapon": [
              "Audio_Male_FallToGroundRun",
              "Audio_Male_FallToGroundRun_Kaeya"
            ],
            "FallToGroundRunHardWeapon": [
              "Audio_Male_FallToGroundRunHard",
              "Audio_Male_FallToGroundRunHard_Kaeya"
            ]
          },
          "canDoSkill": true,
          "massRatio": 2.0,
          "setAnimatorBoolean": [
            {
              "name": "&CanUseSkill"
            }
          ],
          "canChangeAvatar": [{}],
          "animatorTriggerOnLanded": "",
          "battouOnStart": true
        },
        "NormalMoveWeaponPutaway": {
          "$type": "KBOPIKLCBOA",
          "animatorStates": {
            "StandbyPutaway": [
              "Male_Sword_Putaway_Standby",
              "Audio_Male_Sword_StandbyPutAway",
              "Audio_Male_StandbyPutaway_Kaeya"
            ],
            "WalkPutaway": [
              "Male_Sword_Putaway_Walk",
              "Audio_Male_Sword_WalkPutAway",
              "Audio_Male_WalkPutaway_Kaeya"
            ],
            "RunPutaway": [
              "Male_Sword_Putaway_Run",
              "Audio_Male_Sword_RunPutAway",
              "Audio_Male_RunPutaway_Kaeya"
            ],
            "RunToSprintWeapon": [
              "Male_Sword_Putaway_Sprint",
              "Audio_Male_Sword_RunToSprintWeapon"
            ]
          },
          "canDoSkill": true,
          "massRatio": 2.0,
          "setAnimatorBoolean": [
            {
              "name": "&CanUseSkill"
            }
          ],
          "canChangeAvatar": [{}],
          "animatorTriggerOnLanded": "",
          "battouOnStart": true
        },
        "NormalMoveWeaponOver": {
          "$type": "KBOPIKLCBOA",
          "animatorStates": {
            "StandbyPutawayOver": ["Audio_Male_StandbyPutawayOver_Kaeya"],
            "WalkPutawayOver": [
              "Audio_Male_Sword_WalkPutAwayOver",
              "Audio_Male_WalkPutawayOver_Kaeya"
            ],
            "RunPutawayOver": [
              "Audio_Male_Sword_RunPutAwayOver",
              "Audio_Male_RunPutawayOver_Kaeya"
            ],
            "RunToSprintWeaponOver": ["Audio_Male_Sword_RunToSprintWeaponOver"]
          },
          "canDoSkill": true,
          "massRatio": 2.0,
          "setAnimatorBoolean": [
            {
              "name": "&CanUseSkill"
            }
          ],
          "canChangeAvatar": [{}],
          "animatorTriggerOnLanded": "",
          "sheatheOnStart": true
        },
        "JumpWeapon": {
          "$type": "KBOPIKLCBOA",
          "animatorStates": {
            "JumpWeapon": ["Audio_Male_Jump", "Audio_Male_Jump_Kaeya"],
            "JumpForRunWeapon": ["Audio_Male_Jump", "Audio_Male_Jump_Kaeya"],
            "JumpForWalkWeapon": ["Audio_Male_Jump", "Audio_Male_Jump_Kaeya"]
          },
          "canDoSkill": true,
          "resetAnimatorTriggerOnEnter": ["DoSkill"],
          "setAnimatorBoolean": [
            {
              "name": "&CanUseAirSkill"
            }
          ],
          "canChangeAvatar": [{}],
          "actionPanelState": "Jump",
          "animatorTriggerOnLanded": "",
          "battouOnStart": true
        },
        "FallWeapon": {
          "$type": "KBOPIKLCBOA",
          "animatorStates": {
            "DropDownWeapon": [
              "Audio_Male_DropDown",
              "Audio_Male_DropDown_Kaeya"
            ],
            "DropDownLitWeapon": [],
            "WalkDropDownLitWeapon": []
          },
          "canDoSkill": true,
          "resetAnimatorTriggerOnEnter": ["DoSkill"],
          "setAnimatorBoolean": [
            {
              "name": "&CanUseAirSkill"
            }
          ],
          "animatorTriggerOnLanded": "",
          "battouOnStart": true
        },
        "BeHit": {
          "$type": "KBOPIKLCBOA",
          "animatorStates": {
            "Hit_L": ["Audio_Male_Hit_L", "Audio_Male_Hit_L_Kaeya"],
            "Hit_H": ["Audio_Male_Hit_H", "Audio_Male_Hit_H_Kaeya"]
          },
          "MOKBIKEEHMJ": "combatMove",
          "resetAnimatorTriggerOnEnter": ["BeHit", "HitAir2HitDrop"],
          "resetAnimatorTriggerOnExit": ["DoSkill"],
          "cameraType": "combatBeHit",
          "jumpCancelEnd": 0.0,
          "animatorTriggerOnLanded": "",
          "battouOnStart": true
        },
        "HitThrow": {
          "$type": "KBOPIKLCBOA",
          "animatorStates": {
            "Hit_Throw_Ground": [
              "BeHitAir_Weapon",
              "Audio_Male_HitThrowGround",
              "Audio_Male_Hit_Throw_Ground_Kaeya"
            ]
          },
          "MOKBIKEEHMJ": "combatMove",
          "resetAnimatorTriggerOnEnter": ["BeHit", "HitAir2HitDrop"],
          "resetAnimatorTriggerOnExit": ["DoSkill"],
          "cameraType": "combatBeHit",
          "jumpCancelEnd": 0.0,
          "animatorTriggerOnLanded": "",
          "sheatheOnStart": true
        },
        "BeHitAir": {
          "$type": "KBOPIKLCBOA",
          "animatorStates": {
            "Hit_Throw": [
              "Audio_Male_Hit_Throw",
              "BeHitAir_Weapon",
              "Audio_Male_Hit_Throw_Kaeya"
            ],
            "Hit_ThrowAir": ["Audio_Male_DropDown", "BeHitAir_Weapon"],
            "Struggle": ["BeHitAir_Weapon", "Audio_Male_DropDown_Kaeya"]
          },
          "MOKBIKEEHMJ": "combatAir",
          "resetAnimatorTriggerOnEnter": ["BeHit"],
          "resetAnimatorTriggerOnExit": ["DoSkill"],
          "cameraType": "combatBeHit",
          "actionPanelState": "CombatAir",
          "jumpCancelEnd": 0.0,
          "animatorTriggerOnLanded": "",
          "sheatheOnStart": true
        },
        "Die": {
          "$type": "KBOPIKLCBOA",
          "animatorStates": {
            "DiveDie": ["Die", "Audio_Male_Dive_Die"],
            "FallDie": ["Audio_Male_Death"],
            "NormalDie": [
              "Die",
              "Audio_Male_Death",
              "Audio_Male_NormalDie_Kaeya"
            ],
            "SwimDie": ["Swim_Die", "Audio_Male_SwimDie"],
            "HitGroundDie": ["Die", "Audio_Male_Death"]
          },
          "animatorTriggerOnLanded": ""
        },
        "Die_RagDoll": {
          "$type": "KBOPIKLCBOA",
          "animatorStates": {
            "NormalDie_AS": [],
            "FallDie_AS": []
          },
          "enableRagDoll": true,
          "animatorTriggerOnLanded": ""
        },
        "Attack01": {
          "$type": "KBOPIKLCBOA",
          "animatorStates": {
            "Attack01": [
              "Attack01",
              "SetComboCount1",
              "Audio_Male_Kaeya_Attack01",
              "Emo_Male_Sword_Kaeya_NormalAttack01",
              "Interaction_Bad"
            ]
          },
          "MOKBIKEEHMJ": "combatMove",
          "canDoSkill": true,
          "resetAnimatorTriggerOnExit": ["BeHit"],
          "setAnimatorBoolean": [
            {
              "name": "&CanCancelSkill"
            },
            {
              "name": "&CanUseExtra",
              "normalizeStart": 0.30000001192092896,
              "normalizeEnd": 0.5
            }
          ],
          "cameraType": "combatNormal",
          "canChangeAvatar": [{}],
          "animatorTriggerOnLanded": "",
          "battouOnStart": true
        },
        "Attack02": {
          "$type": "KBOPIKLCBOA",
          "animatorStates": {
            "Attack02": [
              "Attack02",
              "SetComboCount2",
              "Audio_Male_Kaeya_Attack02",
              "Emo_Male_Sword_Kaeya_NormalAttack02",
              "Interaction_Bad"
            ]
          },
          "MOKBIKEEHMJ": "combatMove",
          "canDoSkill": true,
          "resetAnimatorTriggerOnExit": ["BeHit"],
          "setAnimatorBoolean": [
            {
              "name": "&CanCancelSkill"
            },
            {
              "name": "&CanUseExtra",
              "normalizeStart": 0.25,
              "normalizeEnd": 0.6000000238418579
            }
          ],
          "cameraType": "combatNormal",
          "canChangeAvatar": [{}],
          "animatorTriggerOnLanded": "",
          "battouOnStart": true
        },
        "Attack03": {
          "$type": "KBOPIKLCBOA",
          "animatorStates": {
            "Attack03": [
              "Attack03",
              "SetComboCount3",
              "Audio_Male_Kaeya_Attack03",
              "Emo_Male_Sword_Kaeya_NormalAttack03",
              "Interaction_Bad"
            ]
          },
          "MOKBIKEEHMJ": "combatMove",
          "canDoSkill": true,
          "resetAnimatorTriggerOnExit": ["BeHit"],
          "setAnimatorBoolean": [
            {
              "name": "&CanCancelSkill"
            },
            {
              "name": "&CanUseExtra",
              "normalizeStart": 0.3199999928474426,
              "normalizeEnd": 0.699999988079071
            }
          ],
          "cameraType": "combatNormal",
          "canChangeAvatar": [{}],
          "animatorTriggerOnLanded": "",
          "battouOnStart": true
        },
        "Attack04": {
          "$type": "KBOPIKLCBOA",
          "animatorStates": {
            "Attack04": [
              "Attack04",
              "SetComboCount4",
              "Audio_Male_Kaeya_Attack04",
              "Emo_Male_Sword_Kaeya_NormalAttack04",
              "Interaction_Bad"
            ]
          },
          "MOKBIKEEHMJ": "combatMove",
          "canDoSkill": true,
          "resetAnimatorTriggerOnExit": ["BeHit"],
          "setAnimatorBoolean": [
            {
              "name": "&CanCancelSkill"
            },
            {
              "name": "&CanUseExtra",
              "normalizeStart": 0.3400000035762787,
              "normalizeEnd": 0.6000000238418579
            }
          ],
          "cameraType": "combatNormal",
          "canChangeAvatar": [{}],
          "animatorTriggerOnLanded": "",
          "battouOnStart": true
        },
        "Attack05": {
          "$type": "KBOPIKLCBOA",
          "animatorStates": {
            "Attack05": [
              "Attack05",
              "SetComboCount5",
              "Audio_Male_Kaeya_Attack05",
              "Emo_Male_Sword_Kaeya_NormalAttack05",
              "Interaction_Bad"
            ]
          },
          "MOKBIKEEHMJ": "combatMove",
          "canDoSkill": true,
          "resetAnimatorTriggerOnExit": ["BeHit"],
          "setAnimatorBoolean": [
            {
              "name": "&CanCancelSkill"
            },
            {
              "name": "&CanUseExtra"
            }
          ],
          "enableCCD": true,
          "cameraType": "combatNormal",
          "canChangeAvatar": [{}],
          "animatorTriggerOnLanded": "",
          "battouOnStart": true
        },
        "ExtraAttack": {
          "$type": "KBOPIKLCBOA",
          "animatorStates": {
            "ExtraAttack": [
              "ExtraAttack",
              "Audio_Male_Kaeya_exAttack",
              "Emo_Male_Sword_Kaeya_ExtraAttack",
              "Interaction_Bad"
            ]
          },
          "MOKBIKEEHMJ": "combatMove",
          "resetAnimatorTriggerOnExit": ["BeHit"],
          "cameraType": "combatNormal",
          "animatorTriggerOnLanded": "",
          "battouOnStart": true
        },
        "ExtraAttack_AS": {
          "$type": "KBOPIKLCBOA",
          "animatorStates": {
            "ExtraAttack_AS": [
              "Audio_Male_Kaeya_exAttack_AS",
              "Emo_Male_Sword_Kaeya_ExtraAttack_AS"
            ]
          },
          "MOKBIKEEHMJ": "combatMove",
          "canDoSkill": true,
          "resetAnimatorTriggerOnExit": ["BeHit"],
          "setAnimatorBoolean": [
            {
              "name": "&CanCancelSkill"
            }
          ],
          "cameraType": "combatNormal",
          "canChangeAvatar": [{}],
          "animatorTriggerOnLanded": "",
          "battouOnStart": true
        },
        "IceShield": {
          "$type": "KBOPIKLCBOA",
          "animatorStates": {
            "IceShield": [
              "Keaya_IceShield",
              "Audio_Male_Kaeya_IceShield",
              "Emo_Male_Sword_Kaeya_IceShield",
              "Interaction_Bad"
            ]
          },
          "MOKBIKEEHMJ": "combatMove",
          "addEndure": 0.6000000238418579,
          "resetAnimatorTriggerOnExit": ["BeHit"],
          "cameraType": "combatNormal",
          "jumpCancelStart": 0.5,
          "sprintCancelStart": 0.5,
          "animatorTriggerOnLanded": "",
          "battouOnStart": true
        },
        "IceShield_AS": {
          "$type": "KBOPIKLCBOA",
          "animatorStates": {
            "IceShield_AS": [
              "Audio_Male_Kaeya_IceShield_AS",
              "Emo_Male_Sword_Kaeya_IceShield_AS",
              "Audio_Male_Kaeya_IceShield_AS"
            ]
          },
          "MOKBIKEEHMJ": "combatMove",
          "canDoSkill": true,
          "resetAnimatorTriggerOnExit": ["BeHit"],
          "setAnimatorBoolean": [
            {
              "name": "&CanUseSkill"
            }
          ],
          "canChangeAvatar": [{}],
          "animatorTriggerOnLanded": ""
        },
        "FrozenTrap": {
          "$type": "KBOPIKLCBOA",
          "animatorStates": {
            "FrozenTrap": [
              "Keaya_FrozenTrap",
              "Emo_Male_Sword_Kaeya_FrozenTrap",
              "Audio_Male_Kaeya_FrozenTrap",
              "Interaction_Bad"
            ]
          },
          "MOKBIKEEHMJ": "combatMove",
          "addEndure": 0.0,
          "resetAnimatorTriggerOnExit": ["BeHit", "DoSkill", "Jump"],
          "jumpCancelEnd": -1.0,
          "sprintCancelEnd": -1.0,
          "animatorTriggerOnLanded": "",
          "sheatheOnStart": true
        },
        "FrozenTrap_AS": {
          "$type": "KBOPIKLCBOA",
          "animatorStates": {
            "FrozenTrap_AS": [
              "Emo_Male_Sword_Kaeya_FrozenTrap_AS",
              "Audio_Male_Kaeya_FrozenTrap_AS"
            ]
          },
          "MOKBIKEEHMJ": "combatMove",
          "canDoSkill": true,
          "resetAnimatorTriggerOnExit": ["BeHit"],
          "setAnimatorBoolean": [
            {
              "name": "&CanUseSkill",
              "normalizeStart": 0.20000000298023224
            }
          ],
          "canChangeAvatar": [
            {
              "normalizeStart": 0.20000000298023224
            }
          ],
          "animatorTriggerOnLanded": "",
          "sheatheOnStart": true
        },
        "FallingAnthem_BS": {
          "$type": "KBOPIKLCBOA",
          "animatorStates": {
            "FallingAnthem_BS_1": [
              "Audio_Male_Kaeya_Sword_FallingAnthem_BS_1",
              "Emo_Male_Sword_FallingAttack_BS_01"
            ],
            "FallingAnthem_BS_2": ["Emo_Male_Sword_FallingAttack_BS_02"]
          },
          "MOKBIKEEHMJ": "combatAir",
          "addEndure": 0.0,
          "resetAnimatorTriggerOnExit": ["BeHit", "DoSkill", "Jump"],
          "cameraType": "combatNormal",
          "actionPanelState": "Fly",
          "equipReattach": [
            {
              "equip": "equip01",
              "targetPoint": "WeaponR"
            }
          ],
          "jumpCancelEnd": -1.0,
          "animatorTriggerOnLanded": "HitAir2HitDrop",
          "battouOnStart": true
        },
        "FallingAnthem_Loop": {
          "$type": "KBOPIKLCBOA",
          "animatorStates": {
            "FallingAnthem_Loop": [],
            "FallingAnthem_Loop_Low": []
          },
          "MOKBIKEEHMJ": "combatAir",
          "addEndure": 0.0,
          "resetAnimatorTriggerOnExit": ["BeHit", "DoSkill", "Jump"],
          "actionPanelState": "Fly",
          "equipReattach": [
            {
              "equip": "equip01",
              "targetPoint": "WeaponR"
            }
          ],
          "animatorTriggerOnLanded": "HitAir2HitDrop",
          "battouOnStart": true
        },
        "FallingAnthem_AS_1": {
          "$type": "KBOPIKLCBOA",
          "animatorStates": {
            "FallingAnthem_AS_1": [
              "Kaeya_FallingAnthem_Strike",
              "Interaction_Bad",
              "Audio_Male_Kaeya_Sword_FallingAnthem_AS_1",
              "Emo_Male_Sword_FallingAttack_AS_01"
            ]
          },
          "MOKBIKEEHMJ": "combatMove",
          "canDoSkill": true,
          "resetAnimatorTriggerOnExit": ["BeHit", "DoSkill", "Jump"],
          "setAnimatorBoolean": [
            {
              "name": "&CanUseSkill",
              "normalizeStart": 0.6000000238418579
            }
          ],
          "equipReattach": [
            {
              "equip": "equip01",
              "targetPoint": "WeaponR"
            }
          ],
          "jumpCancelEnd": -1.0,
          "animatorTriggerOnLanded": "",
          "battouOnStart": true
        },
        "FallingAnthem_AS_2": {
          "$type": "KBOPIKLCBOA",
          "animatorStates": {
            "FallingAnthem_AS_2": [
              "Audio_Male_Kaeya_Sword_FallingAnthem_AS_2",
              "Emo_Male_Sword_FallingAttack_AS_02"
            ]
          },
          "MOKBIKEEHMJ": "combatMove",
          "canDoSkill": true,
          "resetAnimatorTriggerOnExit": ["BeHit", "DoSkill", "Jump"],
          "setAnimatorBoolean": [
            {
              "name": "&CanUseSkill"
            }
          ],
          "canChangeAvatar": [{}],
          "equipReattach": [
            {
              "equip": "equip01",
              "targetPoint": "WeaponR"
            }
          ],
          "jumpCancelStart": 0.10000000149011612,
          "animatorTriggerOnLanded": "",
          "battouOnStart": true
        },
        "Sit": {
          "$type": "KBOPIKLCBOA",
          "animatorStates": {
            "SitDown": ["Audio_Girl_SitDown", "Audio_Male_Sit_Kaeya"],
            "SitLoop": [],
            "SitUp": ["Audio_Girl_SitDown", "Audio_Male_Sit_Kaeya"]
          },
          "MOKBIKEEHMJ": "performMove",
          "massRatio": 100.0,
          "actionPanelState": "Perform",
          "animatorTriggerOnLanded": "",
          "sheatheOnStart": true
        },
        "SitB": {
          "$type": "KBOPIKLCBOA",
          "animatorStates": {
            "SitBDown": ["Audio_Girl_SitDown", "Audio_Male_Sit_Kaeya"],
            "SitBLoop": [],
            "SitBUp": ["Audio_Girl_SitDown", "Audio_Male_Sit_Kaeya"]
          },
          "MOKBIKEEHMJ": "performMove",
          "massRatio": 100.0,
          "actionPanelState": "Perform",
          "animatorTriggerOnLanded": "",
          "sheatheOnStart": true
        },
        "StandbyShow": {
          "$type": "KBOPIKLCBOA",
          "animatorStates": {
            "StandbyVoice": ["Audio_Male_StandbyVoice"],
            "StandbyShow_01": [
              "Manekin_Kaeya_Show01",
              "Emo_Avatar_Kaeya_Show_01",
              "Audio_Male_StandbyShow_Kaeya"
            ],
            "StandbyShow_02": [
              "Manekin_Kaeya_Show02",
              "Audio_Male_StandbyShow_Kaeya_02"
            ]
          },
          "MOKBIKEEHMJ": "performMove",
          "canDoSkill": true,
          "massRatio": 100.0,
          "setAnimatorBoolean": [
            {
              "name": "&CanUseSkill"
            }
          ],
          "canChangeAvatar": [{}],
          "animatorTriggerOnLanded": "",
          "sheatheOnStart": true
        },
        "TakePhotos": {
          "$type": "KBOPIKLCBOA",
          "animatorStates": {
            "Think01BS": [],
            "Akimbo02BS": [],
            "Think01Loop": [],
            "Akimbo02Loop": [],
            "Think01AS": [],
            "Akimbo02AS": []
          },
          "animatorTriggerOnLanded": ""
        },
        "Channel_BS": {
          "$type": "KBOPIKLCBOA",
          "animatorStates": {
            "ChannelBS": ["Emo_Avatar_Common_Manekin_Default"]
          },
          "MOKBIKEEHMJ": "combatMove",
          "canDoSkill": true,
          "massRatio": 100.0,
          "resetAnimatorTriggerOnExit": ["BeHit", "DoSkill", "Jump"],
          "setAnimatorBoolean": [
            {
              "name": "&CanUseSkill"
            }
          ],
          "canChangeAvatar": [{}],
          "animatorTriggerOnLanded": "",
          "sheatheOnStart": true
        },
        "Channel_Loop": {
          "$type": "KBOPIKLCBOA",
          "animatorStates": {
            "ChannelLoop": []
          },
          "MOKBIKEEHMJ": "combatMove",
          "canDoSkill": true,
          "massRatio": 100.0,
          "resetAnimatorTriggerOnExit": ["BeHit", "DoSkill", "Jump"],
          "setAnimatorBoolean": [
            {
              "name": "&CanUseSkill"
            }
          ],
          "canChangeAvatar": [{}],
          "animatorTriggerOnLanded": "",
          "sheatheOnStart": true
        },
        "Channel_AS": {
          "$type": "KBOPIKLCBOA",
          "animatorStates": {
            "ChannelAS": []
          },
          "MOKBIKEEHMJ": "combatMove",
          "canDoSkill": true,
          "massRatio": 100.0,
          "resetAnimatorTriggerOnExit": ["BeHit", "DoSkill", "Jump"],
          "setAnimatorBoolean": [
            {
              "name": "&CanUseSkill"
            }
          ],
          "canChangeAvatar": [{}],
          "animatorTriggerOnLanded": "",
          "sheatheOnStart": true
        },
        "PlayMusic_Lyre": {
          "$type": "KBOPIKLCBOA",
          "animatorStates": {
            "PlayMusic_Lyre_BS": ["PlayMusic_Lyre_Male"],
            "PlayMusic_Lyre_Loop": ["PlayMusic_Lyre_Male_Loop"]
          },
          "MOKBIKEEHMJ": "combatMove",
          "massRatio": 100.0,
          "resetAnimatorTriggerOnExit": ["BeHit", "DoSkill", "Jump"],
          "animatorTriggerOnLanded": "",
          "sheatheOnStart": true
        },
        "PlayMusic_Lyre_AS": {
          "$type": "KBOPIKLCBOA",
          "animatorStates": {
            "PlayMusic_Lyre_AS": ["PlayMusic_Lyre_Male_AS"]
          },
          "MOKBIKEEHMJ": "combatMove",
          "canDoSkill": true,
          "massRatio": 100.0,
          "resetAnimatorTriggerOnExit": ["BeHit", "DoSkill", "Jump"],
          "setAnimatorBoolean": [
            {
              "name": "&CanUseSkill"
            }
          ],
          "canChangeAvatar": [{}],
          "animatorTriggerOnLanded": "",
          "sheatheOnStart": true
        },
        "PlayMusic_Qin": {
          "$type": "KBOPIKLCBOA",
          "animatorStates": {
            "PlayMusic_Qin_BS": ["PlayMusic_Qin_Male"],
            "PlayMusic_Qin_Loop": ["PlayMusic_Qin_Male_Loop"]
          },
          "MOKBIKEEHMJ": "combatMove",
          "massRatio": 100.0,
          "resetAnimatorTriggerOnExit": ["BeHit", "DoSkill", "Jump"],
          "animatorTriggerOnLanded": "",
          "sheatheOnStart": true
        },
        "PlayMusic_Qin_AS": {
          "$type": "KBOPIKLCBOA",
          "animatorStates": {
            "PlayMusic_Qin_AS": ["PlayMusic_Qin_Male_AS"]
          },
          "MOKBIKEEHMJ": "combatMove",
          "canDoSkill": true,
          "massRatio": 100.0,
          "resetAnimatorTriggerOnExit": ["BeHit", "DoSkill", "Jump"],
          "setAnimatorBoolean": [
            {
              "name": "&CanUseSkill"
            }
          ],
          "canChangeAvatar": [{}],
          "animatorTriggerOnLanded": "",
          "sheatheOnStart": true
        },
        "PlayMusic_Drum": {
          "$type": "KBOPIKLCBOA",
          "animatorStates": {
            "PlayMusic_Drum_BS": ["PlayMusic_Drum_Male"],
            "PlayMusic_Drum_Loop": ["PlayMusic_Drum_Male_Loop"]
          },
          "MOKBIKEEHMJ": "combatMove",
          "massRatio": 100.0,
          "resetAnimatorTriggerOnExit": ["BeHit", "DoSkill", "Jump"],
          "animatorTriggerOnLanded": "",
          "sheatheOnStart": true
        },
        "PlayMusic_Drum_AS": {
          "$type": "KBOPIKLCBOA",
          "animatorStates": {
            "PlayMusic_Drum_AS": ["PlayMusic_Drum_Male_AS"]
          },
          "MOKBIKEEHMJ": "combatMove",
          "canDoSkill": true,
          "massRatio": 100.0,
          "resetAnimatorTriggerOnExit": ["BeHit", "DoSkill", "Jump"],
          "setAnimatorBoolean": [
            {
              "name": "&CanUseSkill"
            }
          ],
          "canChangeAvatar": [{}],
          "animatorTriggerOnLanded": "",
          "sheatheOnStart": true
        },
        "PlayMusic_FrenchHorn": {
          "$type": "KBOPIKLCBOA",
          "animatorStates": {
            "PlayMusic_FrenchHorn_BS": ["PlayMusic_Frenchhorn_Male"],
            "PlayMusic_FrenchHorn_Loop": ["PlayMusic_Frenchhorn_Male_Loop"]
          },
          "MOKBIKEEHMJ": "combatMove",
          "massRatio": 100.0,
          "resetAnimatorTriggerOnExit": ["BeHit", "DoSkill", "Jump"],
          "animatorTriggerOnLanded": "",
          "sheatheOnStart": true
        },
        "PlayMusic_FrenchHorn_AS": {
          "$type": "KBOPIKLCBOA",
          "animatorStates": {
            "PlayMusic_FrenchHorn_AS": ["PlayMusic_Frenchhorn_Male_AS"]
          },
          "MOKBIKEEHMJ": "combatMove",
          "canDoSkill": true,
          "massRatio": 100.0,
          "resetAnimatorTriggerOnExit": ["BeHit", "DoSkill", "Jump"],
          "setAnimatorBoolean": [
            {
              "name": "&CanUseSkill"
            }
          ],
          "canChangeAvatar": [{}],
          "animatorTriggerOnLanded": "",
          "sheatheOnStart": true
        },
        "ActivitySkill_ElectricCoreFly": {
          "$type": "KBOPIKLCBOA",
          "animatorStates": {
            "ActivitySkill_ElectricCoreFly": []
          },
          "MOKBIKEEHMJ": "combatAir",
          "massRatio": 100.0,
          "resetAnimatorTriggerOnEnter": ["ElectricCoreFly_End"],
          "resetAnimatorTriggerOnExit": [
            "BeHit",
            "DoSkill",
            "Jump",
            "ElectricCoreFly_End"
          ],
          "animatorTriggerOnLanded": "",
          "sheatheOnStart": true
        },
        "ActivitySkill_GrapplingHook": {
          "$type": "KBOPIKLCBOA",
          "animatorStates": {
            "ActivitySkill_GrapplingHook": []
          },
          "MOKBIKEEHMJ": "combatAir",
          "massRatio": 100.0,
          "resetAnimatorTriggerOnEnter": ["GrapplingHook_Drop"],
          "resetAnimatorTriggerOnExit": [
            "BeHit",
            "DoSkill",
            "Jump",
            "GrapplingHook_Drop"
          ],
          "animatorTriggerOnLanded": "",
          "sheatheOnStart": true
        },
        "ActivitySkill_CustomSkill01": {
          "$type": "KBOPIKLCBOA",
          "animatorStates": {
            "ActivitySkill_CustomSkill01": []
          },
          "MOKBIKEEHMJ": "combatAir",
          "canDoSkill": true,
          "massRatio": 100.0,
          "resetAnimatorTriggerOnEnter": [
            "CustomSkill_End_Fly",
            "CustomSkill_End_Drop"
          ],
          "resetAnimatorTriggerOnExit": [
            "BeHit",
            "DoSkill",
            "Jump",
            "CustomSkill_End_Fly",
            "CustomSkill_End_Drop"
          ],
          "animatorTriggerOnLanded": "",
          "sheatheOnStart": true
        },
        "ActivitySkill_CustomSkill02": {
          "$type": "KBOPIKLCBOA",
          "animatorStates": {
            "ActivitySkill_CustomSkill02": []
          },
          "MOKBIKEEHMJ": "combatAir",
          "canDoSkill": true,
          "massRatio": 100.0,
          "resetAnimatorTriggerOnEnter": [
            "CustomSkill_End_Fly",
            "CustomSkill_End_Drop"
          ],
          "resetAnimatorTriggerOnExit": [
            "BeHit",
            "DoSkill",
            "Jump",
            "CustomSkill_End_Fly",
            "CustomSkill_End_Drop"
          ],
          "animatorTriggerOnLanded": "",
          "sheatheOnStart": true
        },
        "ActivitySkill_CommonMove": {
          "$type": "KBOPIKLCBOA",
          "animatorStates": {
            "ActivitySkill_CommonMove": []
          },
          "addEndure": 0.0,
          "massRatio": 100.0,
          "resetAnimatorTriggerOnExit": ["BeHit", "DoSkill", "Jump"],
          "enableBoneFollowMove": true,
          "jumpCancelStart": -1.0,
          "sprintCancelStart": -1.0,
          "animatorTriggerOnLanded": "",
          "sheatheOnStart": true
        },
        "DiveChannel_BS": {
          "$type": "KBOPIKLCBOA",
          "animatorStates": {
            "DiveChannelBS": [
              "Emo_Avatar_Common_Manekin_Default",
              "Audio_Male_DiveChannel_BS"
            ]
          },
          "MOKBIKEEHMJ": "combatDive",
          "massRatio": 100.0,
          "resetAnimatorTriggerOnExit": ["BeHit", "DoSkill", "Jump"],
          "setAnimatorBoolean": [
            {
              "name": "&CanUseSkill"
            }
          ],
          "canChangeAvatar": [{}],
          "actionPanelState": "Dive",
          "sprintCancelEnd": -1.0,
          "animatorTriggerOnLanded": "",
          "sheatheOnStart": true
        },
        "DiveChannel_Loop": {
          "$type": "KBOPIKLCBOA",
          "animatorStates": {
            "DiveChannelLoop": []
          },
          "MOKBIKEEHMJ": "combatDive",
          "massRatio": 100.0,
          "resetAnimatorTriggerOnExit": ["BeHit", "DoSkill", "Jump"],
          "setAnimatorBoolean": [
            {
              "name": "&CanUseSkill"
            }
          ],
          "canChangeAvatar": [{}],
          "actionPanelState": "Dive",
          "sprintCancelEnd": -1.0,
          "animatorTriggerOnLanded": "",
          "sheatheOnStart": true
        },
        "DiveChannel_AS": {
          "$type": "KBOPIKLCBOA",
          "animatorStates": {
            "DiveChannelAS": ["Audio_Male_DiveChannel_AS"]
          },
          "MOKBIKEEHMJ": "combatDive",
          "canDoSkill": true,
          "canDoSkillStart": 0.30000001192092896,
          "massRatio": 100.0,
          "resetAnimatorTriggerOnExit": ["BeHit", "DoSkill", "Jump"],
          "setAnimatorBoolean": [
            {
              "name": "&CanUseSkill"
            }
          ],
          "canChangeAvatar": [{}],
          "actionPanelState": "Dive",
          "sprintCancelStart": 0.11999999731779099,
          "animatorTriggerOnLanded": "",
          "sheatheOnStart": true
        },
        "DiveCast_BS": {
          "$type": "KBOPIKLCBOA",
          "animatorStates": {
            "DiveCast_BS": [
              "Emo_Avatar_Common_Manekin_Default",
              "Audio_Male_DiveCast_BS"
            ]
          },
          "MOKBIKEEHMJ": "combatDive",
          "massRatio": 100.0,
          "resetAnimatorTriggerOnExit": ["BeHit", "DoSkill", "Jump"],
          "setAnimatorBoolean": [
            {
              "name": "&CanUseSkill"
            }
          ],
          "canChangeAvatar": [{}],
          "actionPanelState": "Dive",
          "sprintCancelEnd": -1.0,
          "animatorTriggerOnLanded": "",
          "sheatheOnStart": true
        },
        "DiveCast_Loop": {
          "$type": "KBOPIKLCBOA",
          "animatorStates": {
            "DiveCast_Loop": []
          },
          "MOKBIKEEHMJ": "combatDive",
          "massRatio": 100.0,
          "resetAnimatorTriggerOnExit": ["BeHit", "DoSkill", "Jump"],
          "setAnimatorBoolean": [
            {
              "name": "&CanUseSkill"
            }
          ],
          "canChangeAvatar": [{}],
          "actionPanelState": "Dive",
          "sprintCancelEnd": -1.0,
          "animatorTriggerOnLanded": "",
          "sheatheOnStart": true
        },
        "DiveCast_AS": {
          "$type": "KBOPIKLCBOA",
          "animatorStates": {
            "DiveCast_AS": ["Audio_Male_DiveCast_AS"]
          },
          "MOKBIKEEHMJ": "combatDive",
          "canDoSkill": true,
          "canDoSkillStart": 0.10000000149011612,
          "massRatio": 100.0,
          "resetAnimatorTriggerOnExit": ["BeHit", "DoSkill", "Jump"],
          "setAnimatorBoolean": [
            {
              "name": "&CanUseSkill"
            }
          ],
          "canChangeAvatar": [{}],
          "actionPanelState": "Dive",
          "sprintCancelStart": 0.09000000357627869,
          "animatorTriggerOnLanded": "",
          "sheatheOnStart": true
        },
        "Dive": {
          "$type": "KBOPIKLCBOA",
          "animatorStates": {
            "DiveIdle": [],
            "DiveMoveBS": ["Audio_Male_Dive_MoveBS"],
            "DiveMoveAS": ["Audio_Male_Dive_MoveAS"],
            "DiveMoveU_A": ["Audio_Male_Dive_MoveU_A"],
            "DiveMoveU_B": ["Audio_Male_Dive_MoveU_B"],
            "DiveMoveF_A": [],
            "DiveMoveF_B": ["Audio_Male_Dive_MoveF_B"],
            "DiveMoveD_A": ["Audio_Male_Dive_MoveD_A"],
            "DiveMoveD_B": ["Audio_Male_Dive_MoveD_B"],
            "DiveTurn": ["Audio_Male_Dive_Turn"],
            "DiveTurnAS": ["Audio_Male_Dive_Turn_AS"],
            "DiveTurn2": ["Audio_Male_Dive_Turn"],
            "DiveTurnAS2": ["Audio_Male_Dive_Turn_AS"],
            "DiveDashBS": ["Audio_Male_Dive_Dash_BS"],
            "DiveDashAS": ["Audio_Male_Dive_Dash_AS"],
            "DiveDash": [],
            "DiveDashB": ["Audio_Male_Dive_Out_DashB"],
            "DiveSuperDash": ["Audio_Male_Dive_SuperDash"],
            "DiveSuperDash2": ["Audio_Male_Dive_SuperDash2"]
          },
          "canDoSkill": true,
          "resetAnimatorTriggerOnEnter": ["DoSkill"],
          "setAnimatorBoolean": [
            {
              "name": "&CanUseSkill"
            }
          ],
          "canChangeAvatar": [{}],
          "actionPanelState": "Dive",
          "animatorTriggerOnLanded": "",
          "sheatheOnStart": true
        },
        "Dive_In_Out": {
          "$type": "KBOPIKLCBOA",
          "animatorStates": {
            "Dive_In_Up": ["Audio_Male_Dive_In_Up"],
            "Dive_In_Side": ["Audio_Male_Dive_In_Side"],
            "Dive_In_Bottom": ["Audio_Male_Dive_In_Bottom"],
            "Dive_Out_Side": ["Audio_Male_Dive_Out_Side"],
            "Dive_Out_Bottom": ["Audio_Male_Dive_Out_Bottom"],
            "Dive_Out_Up": ["Audio_Male_Dive_Out_Up"]
          },
          "resetAnimatorTriggerOnEnter": ["DoSkill"],
          "setAnimatorBoolean": [
            {
              "name": "&CanUseSkill"
            }
          ],
          "actionPanelState": "Dive",
          "animatorTriggerOnLanded": "",
          "sheatheOnStart": true
        },
        "DiveStream": {
          "$type": "KBOPIKLCBOA",
          "animatorStates": {
            "DiveStreamIn": ["Audio_Male_Dive_Stream_In"],
            "DiveStreamOut": ["Audio_Male_Dive_Stream_Out"],
            "DiveStream": [],
            "DiveStreamRoll_L": ["Audio_Male_Dive_Stream_Roll_L"],
            "DiveStreamRoll_R": ["Audio_Male_Dive_Stream_Roll_R"]
          },
          "canDoSkill": true,
          "resetAnimatorTriggerOnEnter": ["DoSkill"],
          "setAnimatorBoolean": [
            {
              "name": "&CanUseSkill"
            }
          ],
          "actionPanelState": "Dive",
          "animatorTriggerOnLanded": "",
          "sheatheOnStart": true
        },
        "DiveJump": {
          "$type": "KBOPIKLCBOA",
          "animatorStates": {
            "Dive_Out_DashU": ["Audio_Male_Dive_Out_DashU"],
            "Dive_Out_DashD": ["Audio_Male_Dive_Out_DashD"],
            "Dive_Out_DashFBS": ["Audio_Male_Dive_Out_DashFBS"],
            "Dive_Out_DashFAS": ["Audio_Male_Dive_Out_DashFAS"],
            "Dive_Out_DashFLoop": []
          },
          "canDoSkill": true,
          "resetAnimatorTriggerOnEnter": ["DoSkill", "AimEnd"],
          "setAnimatorBoolean": [
            {
              "name": "&CanUseAirSkill"
            }
          ],
          "actionPanelState": "Jump",
          "animatorTriggerOnLanded": "",
          "sheatheOnStart": true
        },
        "BeHitDive": {
          "$type": "KBOPIKLCBOA",
          "animatorStates": {
            "BeHitDive": ["Audio_Male_Dive_beHit"],
            "DiveStruggle": []
          },
          "MOKBIKEEHMJ": "combatDive",
          "resetAnimatorTriggerOnEnter": ["BeHit"],
          "resetAnimatorTriggerOnExit": ["DoSkill"],
          "cameraType": "combatBeHit",
          "actionPanelState": "Dive",
          "jumpCancelEnd": 0.0,
          "animatorTriggerOnLanded": "",
          "sheatheOnStart": true
        },
        "MultiOverride_01": {
          "$type": "KBOPIKLCBOA",
          "animatorStates": {
            "MultiOverrideBS_01": [],
            "MultiOverrideLoop_01": [],
            "MultiOverrideAS_01": []
          },
          "animatorTriggerOnLanded": ""
        },
        "MultiOverride2": {
          "$type": "KBOPIKLCBOA",
          "animatorStates": {
            "MultiOverrideBS_02": [],
            "MultiOverrideLoop_02": [],
            "MultiOverrideAS_02": []
          },
          "animatorTriggerOnLanded": ""
        },
        "MultiOverride3": {
          "$type": "KBOPIKLCBOA",
          "animatorStates": {
            "MultiOverrideBS_03": [],
            "MultiOverrideLoop_03": [],
            "MultiOverrideAS_03": []
          },
          "animatorTriggerOnLanded": ""
        },
        "MultiOverride": {
          "$type": "KBOPIKLCBOA",
          "INKINKDHODO": {
            "Ani_Avatar_Male_Sword_Kaeya_Photo01BS": [
              "PhotographPose_Photo01BS_Male_Sword_Kaeya"
            ],
            "Ani_Avatar_Male_Sword_Kaeya_Photo01Loop": [
              "PhotographPose_Photo01Loop_Male_Sword_Kaeya"
            ],
            "Ani_Avatar_Male_Sword_Kaeya_Photo01AS": [
              "PhotographPose_Photo01AS_Male_Sword_Kaeya"
            ],
            "Ani_Avatar_Male_Sword_Kaeya_Photo02BS": [],
            "Ani_Avatar_Male_Sword_Kaeya_Photo02Loop": [],
            "Ani_Avatar_Male_Sword_Kaeya_Photo02AS": []
          },
          "animatorTriggerOnLanded": ""
        }
      }
    },
    "diveLayer": {
      "$type": "GBGJJIIEMBD",
      "layerIndex": 5,
      "layerIndexName": "DiveLayer",
      "CPAANEIJCGD": ""
    }
  },
  "DADEGCDMOBD": false,
  "audio": {
    "overrideEmitterName": "",
    "animAudio": {
      "onTransitionIn": [
        {
          "currentStateName": "SlipFaceWall",
          "audioEvent": {
            "text": "Play_sfx_char_slipWall"
          }
        },
        {
          "currentStateName": "SlipBackWall",
          "audioEvent": {
            "text": "Play_sfx_char_slipWall"
          }
        },
        {
          "currentStateName": "NormalDie",
          "audioEvent": {
            "text": "Play_sfx_char_land"
          },
          "otherStateNames": ["FallOnGround"],
          "usage": "InSet"
        },
        {
          "currentStateName": "SprintBS",
          "audioEvent": {
            "text": "Play_sfx_char_kaeya_silk_middle"
          }
        },
        {
          "currentStateName": "SprintBS",
          "audioEvent": {
            "text": "Play_sfx_char_foley_flutter_heavy"
          }
        },
        {
          "currentStateName": "SwimJumpToWater",
          "audioEvent": {
            "text": "Stop_sfx_char_swim_dive"
          }
        },
        {
          "currentStateName": "SwimDash",
          "audioEvent": {
            "text": "Play_sfx_char_swim_dash"
          }
        },
        {
          "currentStateName": "Standby",
          "audioEvent": {
            "text": "Stop_sfx_char_fly"
          }
        },
        {
          "currentStateName": "DiveDash",
          "audioEvent": {
            "text": "Play_sfx_char_dive_dash_lp"
          }
        },
        {
          "currentStateName": "DiveStream",
          "audioEvent": {
            "text": "Play_sfx_char_dive_stream_lp"
          }
        },
        {
          "currentStateName": "Dive_Out_DashFLoop",
          "audioEvent": {
            "text": "Play_sfx_char_dive_out_dashFLoop"
          }
        },
        {
          "currentStateName": "DiveMoveF_A",
          "audioEvent": {
            "text": "Play_sfx_char_dive_moveF_A"
          }
        },
        {
          "currentStateName": "DiveChannel_Loop",
          "audioEvent": {
            "text": "Play_vfx_Avatar_Diving_Channel_LP"
          }
        }
      ],
      "onTransitionOut": [
        {
          "currentStateName": "StandbyShow_02",
          "audioEvent": {
            "text": "Stop_sfx_standbyShow_kaeya_sword"
          }
        },
        {
          "currentStateName": "StandbyPutaway",
          "audioEvent": {
            "text": "Stop_sfx_weapon_1HSword_lady_putAwayStandby"
          }
        },
        {
          "currentStateName": "WalkPutaway",
          "audioEvent": {
            "text": "Stop_sfx_weapon_1HSword_lady_putAwayStandby"
          }
        },
        {
          "currentStateName": "RunPutaway",
          "audioEvent": {
            "text": "Stop_sfx_weapon_1HSword_lady_putAwayStandby"
          }
        },
        {
          "currentStateName": "SwimJumpDrop",
          "audioEvent": {
            "text": "Stop_sfx_char_swim_drop"
          }
        },
        {
          "currentStateName": "SwimJump",
          "audioEvent": {
            "text": "Stop_sfx_char_swim_drop"
          },
          "otherStateNames": ["SwimJumpDrop"],
          "usage": "Except"
        },
        {
          "currentStateName": "SwimJump",
          "audioEvent": {
            "text": "Stop_sfx_char_swim_dive"
          }
        },
        {
          "currentStateName": "Fly",
          "audioEvent": {
            "text": "Play_sfx_char_land_climb"
          },
          "otherStateNames": [
            "ClimbIdle",
            "ClimbMove0",
            "ClimbMove1",
            "ClimbJump"
          ],
          "usage": "InSet"
        },
        {
          "currentStateName": "FlyStart",
          "audioEvent": {
            "text": "Play_sfx_char_land_climb"
          },
          "otherStateNames": [
            "ClimbIdle",
            "ClimbMove0",
            "ClimbMove1",
            "ClimbJump"
          ],
          "usage": "InSet"
        },
        {
          "currentStateName": "DropDownLit",
          "audioEvent": {
            "text": "Play_sfx_char_land_climb"
          },
          "otherStateNames": [
            "ClimbIdle",
            "ClimbMove0",
            "ClimbMove1",
            "ClimbJump"
          ],
          "usage": "InSet"
        },
        {
          "currentStateName": "DropDown",
          "audioEvent": {
            "text": "Play_sfx_char_land_climb"
          },
          "otherStateNames": [
            "ClimbIdle",
            "ClimbMove0",
            "ClimbMove1",
            "ClimbJump"
          ],
          "usage": "InSet"
        },
        {
          "currentStateName": "WalkDropDownLit",
          "audioEvent": {
            "text": "Play_sfx_char_land_climb"
          },
          "otherStateNames": [
            "ClimbIdle",
            "ClimbMove0",
            "ClimbMove1",
            "ClimbJump"
          ],
          "usage": "InSet"
        },
        {
          "currentStateName": "Jump",
          "audioEvent": {
            "text": "Play_sfx_char_land_climb"
          },
          "otherStateNames": [
            "ClimbIdle",
            "ClimbMove0",
            "ClimbMove1",
            "ClimbJump"
          ],
          "usage": "InSet"
        },
        {
          "currentStateName": "JumpForWalk",
          "audioEvent": {
            "text": "Play_sfx_char_land_climb"
          },
          "otherStateNames": [
            "ClimbIdle",
            "ClimbMove0",
            "ClimbMove1",
            "ClimbJump"
          ],
          "usage": "InSet"
        },
        {
          "currentStateName": "JumpForRun",
          "audioEvent": {
            "text": "Play_sfx_char_land_climb"
          },
          "otherStateNames": [
            "ClimbIdle",
            "ClimbMove0",
            "ClimbMove1",
            "ClimbJump"
          ],
          "usage": "InSet"
        },
        {
          "currentStateName": "JumpForSprint",
          "audioEvent": {
            "text": "Play_sfx_char_land_climb"
          },
          "otherStateNames": [
            "ClimbIdle",
            "ClimbMove0",
            "ClimbMove1",
            "ClimbJump"
          ],
          "usage": "InSet"
        },
        {
          "currentStateName": "JumpWeapon",
          "audioEvent": {
            "text": "Play_sfx_char_land_climb"
          },
          "otherStateNames": [
            "ClimbIdle",
            "ClimbMove0",
            "ClimbMove1",
            "ClimbJump"
          ],
          "usage": "InSet"
        },
        {
          "currentStateName": "JumpForWalkWeapon",
          "audioEvent": {
            "text": "Play_sfx_char_land_climb"
          },
          "otherStateNames": [
            "ClimbIdle",
            "ClimbMove0",
            "ClimbMove1",
            "ClimbJump"
          ],
          "usage": "InSet"
        },
        {
          "currentStateName": "JumpForRunWeapon",
          "audioEvent": {
            "text": "Play_sfx_char_land_climb"
          },
          "otherStateNames": [
            "ClimbIdle",
            "ClimbMove0",
            "ClimbMove1",
            "ClimbJump"
          ],
          "usage": "InSet"
        },
        {
          "currentStateName": "DropDownWeapon",
          "audioEvent": {
            "text": "Play_sfx_char_land_climb"
          },
          "otherStateNames": [
            "ClimbIdle",
            "ClimbMove0",
            "ClimbMove1",
            "ClimbJump"
          ],
          "usage": "InSet"
        },
        {
          "currentStateName": "DropDownLitWeapon",
          "audioEvent": {
            "text": "Play_sfx_char_land_climb"
          },
          "otherStateNames": [
            "ClimbIdle",
            "ClimbMove0",
            "ClimbMove1",
            "ClimbJump"
          ],
          "usage": "InSet"
        },
        {
          "currentStateName": "SwimMove",
          "audioEvent": {
            "text": "Stop_sfx_char_swim"
          }
        },
        {
          "currentStateName": "Attack05",
          "audioEvent": {
            "text": "Stop_sfx_char_kaeya_1HSword_attack05_end"
          }
        },
        {
          "currentStateName": "IceShield",
          "audioEvent": {
            "text": "Stop_sfx_char_kaeya_iceShield_cast_01"
          },
          "otherStateNames": ["IceShield_AS", "IceShield_AS_2"],
          "usage": "Except"
        },
        {
          "currentStateName": "IceShield_AS_2",
          "audioEvent": {
            "text": "Stop_sfx_char_kaeya_iceShield_cast_02"
          }
        },
        {
          "currentStateName": "Standby",
          "audioEvent": {
            "text": "Play_sfx_char_kaeya_silk_light"
          },
          "otherStateNames": ["Walk", "Run"],
          "usage": "InSet"
        },
        {
          "currentStateName": "Standby",
          "audioEvent": {
            "text": "Play_sfx_char_foley_flutter_light"
          },
          "otherStateNames": ["Walk", "Run"],
          "usage": "InSet"
        },
        {
          "currentStateName": "StandbyWeapon",
          "audioEvent": {
            "text": "Play_sfx_char_kaeya_silk_light"
          },
          "otherStateNames": ["WalkWeapon", "RunWeapon"],
          "usage": "InSet"
        },
        {
          "currentStateName": "StandbyWeapon",
          "audioEvent": {
            "text": "Play_sfx_char_foley_flutter_light"
          },
          "otherStateNames": ["WalkWeapon", "RunWeapon"],
          "usage": "InSet"
        },
        {
          "currentStateName": "SlipFaceWall",
          "audioEvent": {
            "text": "Stop_sfx_char_drop"
          }
        },
        {
          "currentStateName": "SlipFaceWall",
          "audioEvent": {
            "text": "Stop_sfx_char_slipWall"
          }
        },
        {
          "currentStateName": "SlipBackWall",
          "audioEvent": {
            "text": "Stop_sfx_char_drop"
          }
        },
        {
          "currentStateName": "SlipBackWall",
          "audioEvent": {
            "text": "Stop_sfx_char_slipWall"
          }
        },
        {
          "currentStateName": "ExtraAttack",
          "audioEvent": {
            "text": "Stop_sfx_char_kaeya_1HSword_exAttack_end"
          },
          "otherStateNames": ["ExtraAttack_AS"],
          "usage": "Except"
        },
        {
          "currentStateName": "Fly",
          "audioEvent": {
            "text": "Stop_sfx_char_fly"
          }
        },
        {
          "currentStateName": "DiveDash",
          "audioEvent": {
            "text": "Stop_sfx_char_dive_dash_lp"
          },
          "otherStateNames": ["DiveDashB", "DiveTurn", "DiveTurn2"],
          "usage": "Except"
        },
        {
          "currentStateName": "DiveStream",
          "audioEvent": {
            "text": "Stop_sfx_char_dive_stream_lp"
          },
          "otherStateNames": ["DiveStreamRoll_L", "DiveStreamRoll_R"],
          "usage": "Except"
        },
        {
          "currentStateName": "DiveMoveAS",
          "audioEvent": {
            "text": "Stop_sfx_char_dive_move_AS"
          }
        },
        {
          "currentStateName": "Dive_Out_DashFLoop",
          "audioEvent": {
            "text": "Stop_sfx_char_dive_out_dashFLoop"
          }
        },
        {
          "currentStateName": "DiveIdle",
          "audioEvent": {
            "text": "Stop_sfx_char_dive_dash_lp"
          },
          "otherStateNames": ["SwimMove", "Dive_Out_Up"],
          "usage": "InSet"
        },
        {
          "currentStateName": "Dive_Out_Up",
          "audioEvent": {
            "text": "Stop_sfx_char_dive_moveF_A"
          },
          "otherStateNames": ["SwimMove"],
          "usage": "InSet"
        },
        {
          "currentStateName": "DiveChannel_Loop",
          "audioEvent": {
            "text": "Stop_vfx_Avatar_Diving_Channel_LP"
          }
        },
        {
          "currentStateName": "DiveMoveU_A",
          "audioEvent": {
            "text": "Stop_sfx_char_dive_moveU_A"
          }
        },
        {
          "currentStateName": "DiveMoveF_A",
          "audioEvent": {
            "text": "Stop_sfx_char_dive_moveF_A"
          }
        }
      ],
      "recurrentSpeeches": {
        "Standby": {
          "start": {
            "upper": 60.0,
            "lower": 50.0
          },
          "interval": {
            "upper": 30.0,
            "lower": 40.0
          },
          "eventName": {
            "text": ""
          }
        },
        "Walk": {
          "start": {
            "upper": 16.0,
            "lower": 13.0
          },
          "interval": {
            "upper": 14.0,
            "lower": 10.0
          },
          "eventName": {
            "text": ""
          }
        },
        "Run": {
          "start": {
            "upper": 13.0,
            "lower": 9.0
          },
          "interval": {
            "upper": 11.0,
            "lower": 8.0
          },
          "eventName": {
            "text": ""
          }
        },
        "Sprint": {
          "start": {
            "upper": 12.0,
            "lower": 7.0
          },
          "interval": {
            "upper": 9.0,
            "lower": 6.0
          },
          "eventName": {
            "text": ""
          }
        }
      }
    },
    "moveStateAudio": {
      "onStateBegin": [
        {
          "currentStateName": "Fly",
          "audioEvent": {
            "text": "Play_sfx_char_fly"
          }
        },
        {
          "currentStateName": "Air",
          "audioEvent": {
            "text": "Play_sfx_char_drop"
          },
          "otherStateNames": ["Fly"],
          "usage": "InSet"
        },
        {
          "currentStateName": "CombatDive",
          "audioEvent": {
            "text": "Play_sfx_char_dive_move_swim_idle"
          },
          "otherStateNames": ["Dive"],
          "usage": "Except"
        },
        {
          "currentStateName": "Dive",
          "audioEvent": {
            "text": "Play_sfx_char_dive_move_swim_idle"
          },
          "otherStateNames": ["CombatDive"],
          "usage": "Except"
        }
      ],
      "onStateEnd": [
        {
          "currentStateName": "Fly",
          "audioEvent": {
            "text": "Stop_sfx_char_fly"
          }
        },
        {
          "currentStateName": "Air",
          "audioEvent": {
            "text": "Stop_sfx_char_drop"
          }
        },
        {
          "currentStateName": "Dive",
          "audioEvent": {
            "text": "Stop_sfx_char_dive_move_swim_idle"
          },
          "otherStateNames": ["CombatDive"],
          "usage": "Except"
        },
        {
          "currentStateName": "CombatDive",
          "audioEvent": {
            "text": "Stop_sfx_char_dive_move_swim_idle"
          },
          "otherStateNames": ["Dive"],
          "usage": "Except"
        }
      ]
    },
    "voiceSwitch": {
      "text": "Switch_Kaeya"
    },
    "bodyTypeSwitch": {
      "text": "Switch_Male"
    },
    "listenerLiftup": 1.5,
    "surfaceProberLiftup": 1.5
  },
  "ONIAJBGGJHD": "AvatarMale",
  "perform": {
    "standby": {
      "minTime": 10.0,
      "maxTime": 20.0,
      "performIDs": [201, 202, 200, 200]
    }
  }
}
