{
  "common": {
    "effectAttachShape": {
      "$type": "FJNPJANPGGC",
      "mesh": "EffectMesh"
    },
    "mass": 10.0,
    "height": 1.5689998865127563,
    "modelHeight": 1.559999942779541,
    "affectedByWorld": true,
    "checkInSurface": true
  },
  "headControl": {
    "$type": "KPIPDEBDPIH",
    "useHeadControl": true,
    "animStates": [
      "NormalStandby",
      "NormalMove/WalkToRun",
      "NormalMove/Walk",
      "NormalMove/RunToWalk",
      "NormalMove/Run",
      "NormalMove/RunToIdle",
      "NormalMove/WalkToIdle",
      "NormalMove/RunningTurn",
      "NormalMove/SprintToRun",
      "NormalMove/SprintToIdle",
      "Sprint",
      "Climb/ClimbIdle",
      "Ladder/LadderIdle",
      "Swim/SwimIdle",
      "NormalStandbyWeapon",
      "NormalMoveWeapon/WalkToRunWeapon",
      "NormalMoveWeapon/WalkWeapon",
      "NormalMoveWeapon/RunToWalkWeapon",
      "NormalMoveWeapon/RunWeapon",
      "NormalMoveWeapon/RunToIdleWeapon",
      "NormalMoveWeapon/WalkToIdleWeapon",
      "NormalMoveWeapon/RunningTurnWeapon"
    ]
  },
  "specialPoint": {
    "elementAbsorb": "PRIVATE_Pendant",
    "elementPendant": "PRIVATE_Pendant",
    "elementDrop": "RootNode",
    "bulletAim": "RootNode"
  },
  "hasAudio": true,
  "combat": {
    "property": {
      "endureType": "Avatar_Pole",
      "weight": 75.0
    },
    "beHit": {
      "hitBloodEffect": ""
    },
    "combatLock": {
      "lockShape": "CircleLockEnemyClose",
      "lockWeightYaxisParam": 0.20000000298023224,
      "lockWeightYaxisThreshold": 2.0,
      "lockType": "Avatar&Monster_Lv4"
    },
    "die": {
      "hasAnimatorDie": true,
      "dieEndTime": 1.5,
      "dieForceDisappearTime": 2.5,
      "dieDisappearEffect": "Eff_Death_Avatar_Common",
      "dieShaderData": "AvatarDie",
      "useRagDoll": true,
      "ragDollDieEndTimeDelay": 0.4000000059604645
    },
    "animEvents": {
      "ATK01": {
        "attackPattern": {
          "$type": "ConfigAttackBox",
          "triggerType": "TriggerNoRepeat",
          "born": {
            "$type": "ConfigBornBySelf",
            "offset": {
              "x": 0.0,
              "y": 0.699999988079071,
              "z": 0.0
            }
          },
          "size": {
            "x": 1.2000000476837158,
            "y": 1.0,
            "z": 3.0
          }
        },
        "attackInfo": {
          "attackTag": "NormalAttack_01",
          "attenuationTag": "NormalAttack",
          "attenuationGroup": "default",
          "attackProperty": {
            "actorGrassSubHurtDelta": 0.20000000298023224,
            "actorWindSubHurtDelta": 0.0,
            "elementDurability": 25.0,
            "overrideByWeapon": true,
            "strikeType": "Spear",
            "enBreak": 16.0,
            "attackType": "Melee",
            "GLKMCMDJBIK": 0.0
          },
          "hitPattern": {
            "onHitEffectName": "default",
            "hitImpulseY": "",
            "hitImpulseType": "LV3",
            "hitHaltTime": 0.029999999329447746,
            "hitHaltTimeScale": 0.009999999776482582,
            "canBeDefenceHalt": true
          },
          "cameraShake": {
            "shakeType": "CustomVector",
            "shakeRange": 0.11999999731779099,
            "shakeTime": 0.11999999731779099,
            "shakeDistance": 30.0,
            "shakeDir": {
              "y": -1.0
            }
          }
        }
      },
      "ATK02": {
        "attackPattern": {
          "$type": "ConfigAttackBox",
          "triggerType": "TriggerNoRepeat",
          "born": {
            "$type": "ConfigBornBySelf",
            "offset": {
              "x": 0.0,
              "y": 0.699999988079071,
              "z": 0.0
            }
          },
          "size": {
            "x": 1.600000023841858,
            "y": 1.0,
            "z": 3.299999952316284
          }
        },
        "attackInfo": {
          "attackTag": "NormalAttack_02",
          "attenuationTag": "NormalAttack",
          "attenuationGroup": "default",
          "attackProperty": {
            "actorGrassSubHurtDelta": 0.23999999463558197,
            "actorWindSubHurtDelta": 0.0,
            "elementDurability": 25.0,
            "overrideByWeapon": true,
            "strikeType": "Spear",
            "enBreak": 19.200000762939453,
            "attackType": "Melee",
            "GLKMCMDJBIK": 0.0
          },
          "hitPattern": {
            "onHitEffectName": "default",
            "hitImpulseY": "",
            "hitImpulseType": "LV3",
            "hitHaltTime": 0.029999999329447746,
            "hitHaltTimeScale": 0.009999999776482582,
            "canBeDefenceHalt": true
          },
          "cameraShake": {
            "shakeType": "CustomVector",
            "shakeRange": 0.11999999731779099,
            "shakeTime": 0.11999999731779099,
            "shakeDistance": 30.0,
            "shakeDir": {
              "x": -1.0
            }
          }
        }
      },
      "ATK03": {
        "attackPattern": {
          "$type": "ConfigAttackBox",
          "triggerType": "TriggerNoRepeat",
          "born": {
            "$type": "ConfigBornBySelf",
            "offset": {
              "x": 0.0,
              "y": 0.699999988079071,
              "z": 0.0
            }
          },
          "size": {
            "x": 1.600000023841858,
            "y": 1.0,
            "z": 3.299999952316284
          }
        },
        "attackInfo": {
          "attackTag": "NormalAttack_03",
          "attenuationTag": "NormalAttack",
          "attenuationGroup": "default",
          "attackProperty": {
            "actorGrassSubHurtDelta": 0.23999999463558197,
            "actorWindSubHurtDelta": 0.0,
            "elementDurability": 25.0,
            "overrideByWeapon": true,
            "strikeType": "Spear",
            "enBreak": 19.200000762939453,
            "attackType": "Melee",
            "GLKMCMDJBIK": 0.0
          },
          "hitPattern": {
            "onHitEffectName": "default",
            "hitImpulseY": "",
            "hitImpulseType": "LV2",
            "hitHaltTime": 0.029999999329447746,
            "hitHaltTimeScale": 0.009999999776482582,
            "canBeDefenceHalt": true
          }
        }
      },
      "ATK03B": {
        "attackPattern": {
          "$type": "ConfigAttackBox",
          "triggerType": "TriggerNoRepeat",
          "born": {
            "$type": "ConfigBornBySelf",
            "offset": {
              "x": 0.0,
              "y": 0.699999988079071,
              "z": 0.0
            }
          },
          "size": {
            "x": 1.2000000476837158,
            "y": 1.0,
            "z": 3.299999952316284
          }
        },
        "attackInfo": {
          "attackTag": "NormalAttack_03",
          "attenuationTag": "NormalAttack",
          "attenuationGroup": "default",
          "attackProperty": {
            "actorGrassSubHurtDelta": 0.25,
            "actorWindSubHurtDelta": 0.0,
            "elementDurability": 25.0,
            "overrideByWeapon": true,
            "strikeType": "Spear",
            "enBreak": 20.0,
            "attackType": "Melee",
            "GLKMCMDJBIK": 0.0
          },
          "hitPattern": {
            "onHitEffectName": "default",
            "hitImpulseY": "",
            "hitImpulseType": "LV3",
            "hitHaltTimeScale": 0.009999999776482582,
            "canBeDefenceHalt": true
          },
          "cameraShake": {
            "shakeType": "CustomVector",
            "shakeRange": 0.11999999731779099,
            "shakeTime": 0.11999999731779099,
            "shakeDistance": 30.0,
            "shakeDir": {
              "y": -1.0
            }
          }
        }
      },
      "ATK04A": {
        "attackPattern": {
          "$type": "ConfigAttackBox",
          "triggerType": "TriggerNoRepeat",
          "born": {
            "$type": "ConfigBornBySelf",
            "offset": {
              "x": 0.0,
              "y": 0.699999988079071,
              "z": 0.0
            }
          },
          "size": {
            "x": 1.2000000476837158,
            "y": 1.0,
            "z": 3.299999952316284
          }
        },
        "attackInfo": {
          "attackTag": "NormalAttack_04",
          "attenuationTag": "NormalAttack",
          "attenuationGroup": "default",
          "attackProperty": {
            "actorGrassSubHurtDelta": 0.14000000059604645,
            "actorWindSubHurtDelta": 0.0,
            "elementDurability": 25.0,
            "overrideByWeapon": true,
            "strikeType": "Spear",
            "enBreak": 19.200000762939453,
            "attackType": "Melee",
            "GLKMCMDJBIK": 0.0
          },
          "hitPattern": {
            "onHitEffectName": "default",
            "hitImpulseY": "",
            "hitImpulseType": "LV2",
            "hitHaltTimeScale": 0.009999999776482582,
            "canBeDefenceHalt": true
          }
        }
      },
      "ATK04B": {
        "attackPattern": {
          "$type": "ConfigAttackBox",
          "triggerType": "TriggerNoRepeat",
          "born": {
            "$type": "ConfigBornBySelf",
            "offset": {
              "x": 0.0,
              "y": 0.699999988079071,
              "z": 0.0
            }
          },
          "size": {
            "x": 1.2000000476837158,
            "y": 1.0,
            "z": 3.299999952316284
          }
        },
        "attackInfo": {
          "attackTag": "NormalAttack_04",
          "attenuationTag": "NormalAttack",
          "attenuationGroup": "default",
          "attackProperty": {
            "actorGrassSubHurtDelta": 0.14000000059604645,
            "actorWindSubHurtDelta": 0.0,
            "elementDurability": 25.0,
            "overrideByWeapon": true,
            "strikeType": "Spear",
            "enBreak": 19.200000762939453,
            "attackType": "Melee",
            "GLKMCMDJBIK": 0.0
          },
          "hitPattern": {
            "onHitEffectName": "default",
            "hitImpulseY": "",
            "hitImpulseType": "LV2",
            "hitHaltTimeScale": 0.009999999776482582,
            "canBeDefenceHalt": true
          },
          "cameraShake": {
            "shakeType": "CustomVector",
            "shakeRange": 0.23999999463558197,
            "shakeTime": 0.07999999821186066,
            "shakeDistance": 30.0,
            "shakeDir": {
              "x": -1.0,
              "y": -0.20000000298023224
            }
          }
        }
      },
      "ATK04C": {
        "attackPattern": {
          "$type": "ConfigAttackBox",
          "triggerType": "TriggerNoRepeat",
          "born": {
            "$type": "ConfigBornBySelf",
            "offset": {
              "x": 0.0,
              "y": 0.699999988079071,
              "z": 0.0
            }
          },
          "size": {
            "x": 1.2000000476837158,
            "y": 1.0,
            "z": 3.299999952316284
          }
        },
        "attackInfo": {
          "attackTag": "NormalAttack_04",
          "attenuationTag": "NormalAttack",
          "attenuationGroup": "default",
          "attackProperty": {
            "actorGrassSubHurtDelta": 0.1599999964237213,
            "actorWindSubHurtDelta": 0.0,
            "elementDurability": 25.0,
            "overrideByWeapon": true,
            "strikeType": "Spear",
            "enBreak": 12.800000190734863,
            "attackType": "Melee",
            "GLKMCMDJBIK": 0.0
          },
          "hitPattern": {
            "onHitEffectName": "default",
            "hitImpulseY": "",
            "hitImpulseType": "LV3",
            "hitHaltTime": 0.029999999329447746,
            "hitHaltTimeScale": 0.009999999776482582,
            "canBeDefenceHalt": true
          },
          "cameraShake": {
            "shakeType": "CustomVector",
            "shakeRange": 0.23999999463558197,
            "shakeTime": 0.07999999821186066,
            "shakeDistance": 30.0,
            "shakeDir": {
              "x": -1.0,
              "y": -0.20000000298023224
            }
          }
        }
      },
      "ATK05": {
        "attackPattern": {
          "$type": "ConfigAttackBox",
          "triggerType": "TriggerNoRepeat",
          "born": {
            "$type": "ConfigBornBySelf",
            "offset": {
              "x": 0.0,
              "y": 0.699999988079071,
              "z": 0.0
            }
          },
          "size": {
            "x": 1.600000023841858,
            "y": 1.0,
            "z": 3.299999952316284
          }
        },
        "attackInfo": {
          "attackTag": "NormalAttack_05",
          "attenuationTag": "NormalAttack",
          "attenuationGroup": "default",
          "attackProperty": {
            "actorGrassSubHurtDelta": 0.8899999856948853,
            "actorWindSubHurtDelta": 0.0,
            "elementDurability": 25.0,
            "overrideByWeapon": true,
            "strikeType": "Spear",
            "enBreak": 71.19999694824219,
            "attackType": "Melee",
            "GLKMCMDJBIK": 0.0
          },
          "hitPattern": {
            "onHitEffectName": "default",
            "hitImpulseY": "",
            "hitImpulseType": "LV6",
            "hitHaltTime": 0.09000000357627869,
            "hitHaltTimeScale": 0.009999999776482582,
            "canBeDefenceHalt": true
          },
          "cameraShake": {
            "shakeType": "CustomVector",
            "shakeRange": 0.36000001430511475,
            "shakeTime": 0.11999999731779099,
            "shakeDistance": 30.0,
            "shakeDir": {
              "y": -1.0
            }
          }
        }
      }
    }
  },
  "equipController": {
    "sheathPoint": "WeaponBackPut",
    "dissolveSheathFadeDelay": 0.07500000298023224,
    "dissolveSheathFadeTime": 2.0999999046325684,
    "attachPoints": {
      "equip01": "WeaponR",
      "equip02": "WeaponL",
      "equip03": "WeaponL"
    }
  },
  "abilities": [
    {
      "abilityID": "Avatar_Xiangling_Eff_Attack_04",
      "abilityName": "Avatar_Xiangling_Eff_Attack_04",
      "abilityOverride": ""
    },
    {
      "abilityID": "ExtraAttack",
      "abilityName": "Avatar_Xiangling_ExtraAttack",
      "abilityOverride": ""
    },
    {
      "abilityID": "ExtraAttack_Bullet",
      "abilityName": "Avatar_Xiangling_ExtraAttack_CreateBullet",
      "abilityOverride": ""
    },
    {
      "abilityID": "Avatar_Xiangling_PandaFire",
      "abilityName": "Avatar_Xiangling_PandaFire",
      "abilityOverride": ""
    },
    {
      "abilityID": "Avatar_Xiangling_PandaFire_Run",
      "abilityName": "Avatar_Xiangling_PandaFire_Run",
      "abilityOverride": ""
    },
    {
      "abilityID": "Avatar_Xiangling_PandaBornEffect",
      "abilityName": "Avatar_Xiangling_PandaBornEffect",
      "abilityOverride": ""
    },
    {
      "abilityID": "Avatar_Xiangling_PandaBornEffect_Run",
      "abilityName": "Avatar_Xiangling_PandaBornEffect_Run",
      "abilityOverride": ""
    },
    {
      "abilityID": "Avatar_Xiangling_FireCircleSkillStart",
      "abilityName": "Avatar_Xiangling_FireCircleSkillStart",
      "abilityOverride": ""
    },
    {
      "abilityID": "Avatar_Xiangling_FireCircle01",
      "abilityName": "Avatar_Xiangling_FireCircle01",
      "abilityOverride": ""
    },
    {
      "abilityID": "Avatar_Xiangling_FireCircle02",
      "abilityName": "Avatar_Xiangling_FireCircle02",
      "abilityOverride": ""
    },
    {
      "abilityID": "Avatar_Xiangling_FireCircle03",
      "abilityName": "Avatar_Xiangling_FireCircle03",
      "abilityOverride": ""
    },
    {
      "abilityID": "Avatar_Xiangling_FireCircle",
      "abilityName": "Avatar_Xiangling_FireCircle",
      "abilityOverride": ""
    },
    {
      "abilityID": "Avatar_Xiangling_NormalAttackDamage",
      "abilityName": "Avatar_Xiangling_NormalAttackDamage",
      "abilityOverride": ""
    },
    {
      "abilityID": "Avatar_Xiangling_FallingAnthem",
      "abilityName": "Avatar_Xiangling_FallingAnthem",
      "abilityOverride": ""
    }
  ],
  "stateLayers": {
    "defaultLayer": {
      "$type": "GBGJJIIEMBD",
      "layerIndexName": "",
      "CPAANEIJCGD": "",
      "stateIDs": {
        "NormalStandby": {
          "$type": "KBOPIKLCBOA",
          "animatorStates": {
            "Standby": ["Avatar_ResetFreeStyle"]
          },
          "canDoSkill": true,
          "massRatio": 100.0,
          "setAnimatorBoolean": [
            {
              "name": "&CanUseSkill"
            }
          ],
          "canChangeAvatar": [{}],
          "animatorTriggerOnLanded": "",
          "sheatheOnStart": true
        },
        "NormalMove": {
          "$type": "KBOPIKLCBOA",
          "animatorStates": {
            "ShowUp": ["Audio_Girl_Showup"],
            "WalkToRun": [
              "Audio_Girl_WalkToRun",
              "Audio_Girl_Pole_Xiangling_Walk"
            ],
            "Walk": [
              "Ani_WalkSprint01",
              "Audio_Girl_Walk",
              "WalkStepOnWater",
              "Audio_Girl_Pole_Xiangling_Walk"
            ],
            "RunToWalk": [
              "Audio_Girl_RunToWalk",
              "Audio_Girl_Pole_Xiangling_Walk"
            ],
            "Run": [
              "Ani_Run01",
              "Audio_Girl_Run",
              "Audio_Girl_Pole_Xiangling_Walk"
            ],
            "RunToIdle": [
              "Audio_Girl_RunToIdle",
              "Audio_Girl_Pole_Xiangling_Walk"
            ],
            "WalkToIdle": ["Audio_Girl_WalkToIdle"],
            "RunningTurn": [],
            "SprintToRun": [
              "Audio_Girl_SprintToRun",
              "Audio_Girl_Pole_Xiangling_Common"
            ],
            "SprintToIdle": [
              "Audio_Girl_SprintToIdle",
              "Emo_Girl_Sprint_AS",
              "Audio_Girl_Pole_Xiangling_Walk"
            ],
            "FallOnGround": [
              "Audio_Girl_FallOnGround",
              "Audio_Girl_Pole_Xiangling_Walk"
            ],
            "FallOnGroundLit": [
              "Audio_Girl_FallOnGroundLit",
              "Audio_Girl_Pole_Xiangling_Common"
            ],
            "FallToGroundRun": [
              "Audio_Girl_FallToGroundRun",
              "Audio_Girl_Pole_Xiangling_Walk"
            ],
            "FallToGroundRunHard": [
              "Audio_Girl_FallToGroundRunHard",
              "Audio_Girl_Pole_Xiangling_Walk"
            ],
            "FallToGroundSprint": [
              "Audio_Girl_FallToGroundSprint",
              "Audio_Girl_Pole_Xiangling_Walk"
            ]
          },
          "canDoSkill": true,
          "massRatio": 1.0,
          "setAnimatorBoolean": [
            {
              "name": "&CanUseSkill"
            }
          ],
          "canChangeAvatar": [{}],
          "animatorTriggerOnLanded": "",
          "sheatheOnStart": true
        },
        "SprintBS": {
          "$type": "KBOPIKLCBOA",
          "animatorStates": {
            "SprintBS": [
              "Audio_Girl_RunToSprint",
              "SprintBS_Invincible",
              "Emo_Girl_Sprint_BS",
              "Audio_Girl_Pole_Xiangling_SprintBS"
            ]
          },
          "canDoSkill": true,
          "resetAnimatorTriggerOnEnter": ["DoSkill", "AimEnd"],
          "setAnimatorBoolean": [
            {
              "name": "&CanUseSkill",
              "normalizeStart": 0.25999999046325684
            }
          ],
          "canChangeAvatar": [
            {
              "normalizeStart": 0.25999999046325684
            }
          ],
          "animatorTriggerOnLanded": "",
          "sheatheOnStart": true
        },
        "Sprint": {
          "$type": "KBOPIKLCBOA",
          "animatorStates": {
            "Sprint": [
              "Ani_WalkSprint01",
              "Audio_Girl_Sprint",
              "Emo_Girl_Sprint_Loop",
              "Audio_Girl_Pole_Xiangling_Walk"
            ]
          },
          "canDoSkill": true,
          "massRatio": 1.0,
          "setAnimatorBoolean": [
            {
              "name": "&CanUseSkill"
            }
          ],
          "canChangeAvatar": [{}],
          "animatorTriggerOnLanded": "",
          "sheatheOnStart": true
        },
        "Crouch": {
          "$type": "KBOPIKLCBOA",
          "animatorStates": {
            "CrouchIdle": [],
            "CrouchMove": ["Audio_Girl_CrouchMove"],
            "CrouchRoll": [
              "Audio_Girl_CrouchRoll",
              "Audio_Girl_Pole_Xiangling_Common"
            ]
          },
          "canDoSkill": true,
          "massRatio": 1.0,
          "setAnimatorBoolean": [
            {
              "name": "&CanUseSkill"
            }
          ],
          "canChangeAvatar": [{}],
          "actionPanelState": "Squat",
          "animatorTriggerOnLanded": "",
          "sheatheOnStart": true
        },
        "CrouchToStandby": {
          "$type": "KBOPIKLCBOA",
          "animatorStates": {
            "CrouchToStandby": [
              "Audio_Girl_CrouchToStandby",
              "Audio_Girl_Pole_Xiangling_Common"
            ]
          },
          "resetAnimatorTriggerOnEnter": ["DoSkill"],
          "animatorTriggerOnLanded": "",
          "sheatheOnStart": true
        },
        "SkiffNormal": {
          "$type": "KBOPIKLCBOA",
          "animatorStates": {
            "SkiffNormal": []
          },
          "massRatio": 100.0,
          "resetAnimatorTriggerOnExit": ["BeHit", "DoSkill", "Jump"],
          "animatorTriggerOnLanded": "",
          "sheatheOnStart": true
        },
        "Climb": {
          "$type": "KBOPIKLCBOA",
          "animatorStates": {
            "ClimbMove0": [
              "ClimbStep",
              "Audio_Girl_Climb",
              "Audio_Girl_Pole_Xiangling_ClimbMove"
            ],
            "ClimbMove1": [
              "ClimbStep",
              "Audio_Girl_Climb",
              "Audio_Girl_Pole_Xiangling_Walk"
            ],
            "ClimbIdle": [],
            "ClimbJump": [
              "Audio_Girl_ClimbDash",
              "Audio_Girl_Pole_Xiangling_Common"
            ],
            "JumpUpWallForStandby": [
              "Audio_Girl_JumpUpWallStandby",
              "Audio_Girl_Pole_Xiangling_Common"
            ],
            "Standby2ClimbB": [
              "Audio_Girl_Standby2ClimbB",
              "Audio_Girl_Pole_Xiangling_Common"
            ]
          },
          "resetAnimatorTriggerOnEnter": ["DoSkill"],
          "actionPanelState": "Climb",
          "animatorTriggerOnLanded": "",
          "sheatheOnStart": true
        },
        "ClimbTransient": {
          "$type": "KBOPIKLCBOA",
          "animatorStates": {
            "JumpWallReady": [],
            "Standby2ClimbA": [
              "Audio_Girl_Standby2ClimbA",
              "Audio_Girl_Pole_Xiangling_Common"
            ]
          },
          "resetAnimatorTriggerOnEnter": ["DoSkill"],
          "animatorTriggerOnLanded": "",
          "sheatheOnStart": true
        },
        "Upstairs": {
          "$type": "KBOPIKLCBOA",
          "animatorStates": {
            "Upstairs": [
              "Audio_Girl_Upstairs",
              "Audio_Girl_Pole_Xiangling_Common"
            ]
          },
          "resetAnimatorTriggerOnEnter": ["DoSkill"],
          "setAnimatorBoolean": [
            {
              "name": "&CanUseSkill"
            }
          ],
          "animatorTriggerOnLanded": "",
          "sheatheOnStart": true
        },
        "Slip": {
          "$type": "KBOPIKLCBOA",
          "animatorStates": {
            "SlipFaceWall": ["Audio_Girl_Pole_Xiangling_SlipFaceWall"],
            "SlipBackWall": ["Audio_Girl_Pole_Xiangling_SlipFaceWall"]
          },
          "resetAnimatorTriggerOnEnter": ["DoSkill"],
          "animatorTriggerOnLanded": "",
          "sheatheOnStart": true
        },
        "Swim": {
          "$type": "KBOPIKLCBOA",
          "animatorStates": {
            "SwimIdle": ["Audio_Girl_SwimIdle"],
            "SwimMove": ["SwimStep", "Audio_Girl_SwimMove"],
            "SwimDash": [
              "Audio_Girl_SwimDash",
              "Avatar_Girl_SwimDash_Hand_Effect"
            ],
            "SwimJumpToWater": ["Audio_Girl_SwimJumpToWater"]
          },
          "resetAnimatorTriggerOnEnter": ["DoSkill"],
          "actionPanelState": "Swim",
          "animatorTriggerOnLanded": "",
          "sheatheOnStart": true
        },
        "Fly": {
          "$type": "KBOPIKLCBOA",
          "animatorStates": {
            "Fly": ["Audio_Girl_Fly", "Audio_Girl_Pole_Xiangling_Common"],
            "FlyStart": [
              "Audio_Girl_FlyStart",
              "FlyStart_Weapon",
              "Audio_Girl_Pole_Xiangling_Common"
            ]
          },
          "canDoSkill": true,
          "resetAnimatorTriggerOnEnter": ["DoSkill"],
          "setAnimatorBoolean": [
            {
              "name": "&CanUseAirSkill"
            }
          ],
          "actionPanelState": "Fly",
          "animatorTriggerOnLanded": "",
          "sheatheOnStart": true
        },
        "Jump": {
          "$type": "KBOPIKLCBOA",
          "animatorStates": {
            "Jump": ["Audio_Girl_Jump", "Audio_Girl_Pole_Xiangling_Common"],
            "JumpForRun": [
              "Audio_Girl_Jump",
              "Audio_Girl_Pole_Xiangling_Common"
            ],
            "JumpForWalk": [
              "Audio_Girl_Jump",
              "Audio_Girl_Pole_Xiangling_Common"
            ],
            "JumpForSprint": [
              "Audio_Girl_Jump",
              "Audio_Girl_Pole_Xiangling_Common"
            ]
          },
          "canDoSkill": true,
          "resetAnimatorTriggerOnEnter": ["DoSkill", "AimEnd"],
          "setAnimatorBoolean": [
            {
              "name": "&CanUseAirSkill"
            }
          ],
          "actionPanelState": "Jump",
          "animatorTriggerOnLanded": "",
          "sheatheOnStart": true
        },
        "Fall": {
          "$type": "KBOPIKLCBOA",
          "animatorStates": {
            "JumpOffWall": [
              "Audio_Girl_Jump",
              "Audio_Girl_Pole_Xiangling_Common"
            ],
            "SwimJump": [
              "Audio_Girl_SwimJump",
              "Audio_Girl_Pole_Xiangling_Common"
            ],
            "SwimJumpDrop": ["Audio_Girl_Pole_Xiangling_DropDown"],
            "DropDown": [
              "Audio_Girl_DropDown",
              "Audio_Girl_Pole_Xiangling_DropDown"
            ],
            "DropDownLit": [],
            "WalkDropDownLit": []
          },
          "canDoSkill": true,
          "resetAnimatorTriggerOnEnter": ["DoSkill"],
          "setAnimatorBoolean": [
            {
              "name": "&CanUseAirSkill"
            }
          ],
          "animatorTriggerOnLanded": "",
          "sheatheOnStart": true
        },
        "NormalStandbyWeapon": {
          "$type": "KBOPIKLCBOA",
          "animatorStates": {
            "StandbyWeapon": []
          },
          "canDoSkill": true,
          "massRatio": 100.0,
          "setAnimatorBoolean": [
            {
              "name": "&CanUseSkill"
            }
          ],
          "canChangeAvatar": [{}],
          "animatorTriggerOnLanded": "",
          "battouOnStart": true
        },
        "NormalMoveWeapon": {
          "$type": "KBOPIKLCBOA",
          "animatorStates": {
            "WalkToRunWeapon": ["Audio_Girl_WalkToRun"],
            "WalkWeapon": ["Audio_Girl_Walk", "Audio_Girl_Pole_Xiangling_Walk"],
            "RunToWalkWeapon": ["Audio_Girl_RunToWalk"],
            "RunWeapon": ["Audio_Girl_Run", "Audio_Girl_Pole_Xiangling_Walk"],
            "RunToIdleWeapon": [
              "Audio_Girl_RunToIdle",
              "Audio_Girl_Pole_Xiangling_Walk"
            ],
            "WalkToIdleWeapon": [
              "Audio_Girl_WalkToIdle",
              "Audio_Girl_Pole_Xiangling_Walk"
            ],
            "RunningTurnWeapon": [],
            "FallOnGroundWeapon": ["Audio_Girl_FallOnGround"],
            "FallOnGroundLitWeapon": ["Audio_Girl_FallOnGroundLit"],
            "FallOnGroundMiddleWeapon": ["Audio_Girl_FallOnGroundMiddle"],
            "FallToGroundRunWeapon": ["Audio_Girl_FallToGroundRun"],
            "FallToGroundRunHardWeapon": ["Audio_Girl_FallToGroundRunHard"]
          },
          "canDoSkill": true,
          "massRatio": 2.0,
          "setAnimatorBoolean": [
            {
              "name": "&CanUseSkill"
            }
          ],
          "canChangeAvatar": [{}],
          "animatorTriggerOnLanded": "",
          "battouOnStart": true
        },
        "NormalMoveWeaponPutaway": {
          "$type": "KBOPIKLCBOA",
          "animatorStates": {
            "StandbyPutaway": [
              "Girl_Pole_Putaway_Standby",
              "Audio_Girl_Sword_StandbyPutAway",
              "Audio_Girl_Pole_Xiangling_Common"
            ],
            "WalkPutaway": [
              "Girl_Pole_Putaway_Walk",
              "Audio_Girl_Sword_WalkPutAway",
              "Audio_Girl_Pole_Xiangling_Walk"
            ],
            "RunPutaway": [
              "Girl_Pole_Putaway_Run",
              "Audio_Girl_Sword_RunPutAway",
              "Audio_Girl_Pole_Xiangling_Walk"
            ],
            "RunToSprintWeapon": [
              "Girl_Pole_Putaway_Sprint",
              "Audio_Girl_Sword_RunToSprintWeapon"
            ]
          },
          "canDoSkill": true,
          "massRatio": 2.0,
          "setAnimatorBoolean": [
            {
              "name": "&CanUseSkill"
            }
          ],
          "canChangeAvatar": [{}],
          "animatorTriggerOnLanded": "",
          "battouOnStart": true
        },
        "NormalMoveWeaponOver": {
          "$type": "KBOPIKLCBOA",
          "animatorStates": {
            "StandbyPutawayOver": [],
            "WalkPutawayOver": ["Audio_Girl_Sword_WalkPutAwayOver"],
            "RunPutawayOver": ["Audio_Girl_Sword_RunPutAwayOver"],
            "RunToSprintWeaponOver": ["Audio_Girl_Sword_RunToSprintWeaponOver"]
          },
          "canDoSkill": true,
          "massRatio": 2.0,
          "setAnimatorBoolean": [
            {
              "name": "&CanUseSkill"
            }
          ],
          "canChangeAvatar": [{}],
          "animatorTriggerOnLanded": "",
          "sheatheOnStart": true
        },
        "JumpWeapon": {
          "$type": "KBOPIKLCBOA",
          "animatorStates": {
            "JumpWeapon": [
              "Audio_Girl_Jump",
              "Audio_Girl_Pole_Xiangling_Common"
            ],
            "JumpForRunWeapon": [
              "Audio_Girl_Jump",
              "Audio_Girl_Pole_Xiangling_Common"
            ],
            "JumpForWalkWeapon": [
              "Audio_Girl_Jump",
              "Audio_Girl_Pole_Xiangling_Common"
            ]
          },
          "canDoSkill": true,
          "resetAnimatorTriggerOnEnter": ["DoSkill"],
          "setAnimatorBoolean": [
            {
              "name": "&CanUseAirSkill"
            }
          ],
          "canChangeAvatar": [{}],
          "actionPanelState": "Jump",
          "animatorTriggerOnLanded": "",
          "battouOnStart": true
        },
        "FallWeapon": {
          "$type": "KBOPIKLCBOA",
          "animatorStates": {
            "DropDownWeapon": ["Audio_Girl_Pole_Xiangling_DropDown"],
            "DropDownLitWeapon": [],
            "WalkDropDownLitWeapon": []
          },
          "canDoSkill": true,
          "resetAnimatorTriggerOnEnter": ["DoSkill"],
          "setAnimatorBoolean": [
            {
              "name": "&CanUseAirSkill"
            }
          ],
          "animatorTriggerOnLanded": "",
          "battouOnStart": true
        },
        "BeHit": {
          "$type": "KBOPIKLCBOA",
          "animatorStates": {
            "Hit_L": ["Audio_Girl_Hit_L", "Audio_Girl_Pole_Xiangling_Common"],
            "Hit_H": ["Audio_Girl_Hit_H", "Audio_Girl_Pole_Xiangling_Common"]
          },
          "MOKBIKEEHMJ": "combatMove",
          "resetAnimatorTriggerOnEnter": ["BeHit", "HitAir2HitDrop"],
          "resetAnimatorTriggerOnExit": ["DoSkill"],
          "cameraType": "combatBeHit",
          "jumpCancelEnd": 0.0,
          "animatorTriggerOnLanded": "",
          "battouOnStart": true
        },
        "HitThrow": {
          "$type": "KBOPIKLCBOA",
          "animatorStates": {
            "Hit_Throw_Ground": [
              "BeHitAir_Weapon",
              "Audio_Girl_Pole_Xiangling_Hit_Throw_Ground"
            ]
          },
          "MOKBIKEEHMJ": "combatMove",
          "resetAnimatorTriggerOnEnter": ["BeHit", "HitAir2HitDrop"],
          "resetAnimatorTriggerOnExit": ["DoSkill"],
          "setAnimatorBoolean": [
            {
              "name": "&CanUseLiquid"
            }
          ],
          "cameraType": "combatBeHit",
          "jumpCancelEnd": 0.0,
          "animatorTriggerOnLanded": "",
          "sheatheOnStart": true
        },
        "BeHitAir": {
          "$type": "KBOPIKLCBOA",
          "animatorStates": {
            "Hit_Throw": [
              "Audio_Girl_Hit_Throw",
              "BeHitAir_Weapon",
              "Audio_Girl_Pole_Xiangling_Common"
            ],
            "Hit_ThrowAir": ["Audio_Girl_Hit_ThrowAir", "BeHitAir_Weapon"],
            "Struggle": [
              "BeHitAir_Weapon",
              "Audio_Girl_Pole_Xiangling_DropDown"
            ]
          },
          "MOKBIKEEHMJ": "combatAir",
          "resetAnimatorTriggerOnEnter": ["BeHit"],
          "resetAnimatorTriggerOnExit": ["DoSkill"],
          "cameraType": "combatBeHit",
          "actionPanelState": "CombatAir",
          "jumpCancelEnd": 0.0,
          "animatorTriggerOnLanded": "",
          "sheatheOnStart": true
        },
        "Die": {
          "$type": "KBOPIKLCBOA",
          "animatorStates": {
            "DiveDie": ["Die", "Audio_Girl_Dive_Die"],
            "FallDie": ["Audio_Girl_Death"],
            "NormalDie": [
              "Die",
              "Audio_Girl_Death",
              "Audio_Girl_Pole_Xiangling_Common"
            ],
            "SwimDie": ["Swim_Die", "Audio_Girl_SwimDie"],
            "HitGroundDie": ["Die", "Audio_Girl_Death"]
          },
          "animatorTriggerOnLanded": ""
        },
        "Die_RagDoll": {
          "$type": "KBOPIKLCBOA",
          "animatorStates": {
            "FallDie_AS": []
          },
          "enableRagDoll": true,
          "animatorTriggerOnLanded": ""
        },
        "Attack01": {
          "$type": "KBOPIKLCBOA",
          "animatorStates": {
            "Attack01": [
              "Xiangling_Attack01",
              "Audio_Girl_Pole_Xiangling_NormalAtk01",
              "Emo_Girl_Pole_Xiangling_NormalAttack01",
              "Interaction_Bad"
            ]
          },
          "MOKBIKEEHMJ": "combatMove",
          "canDoSkill": true,
          "resetAnimatorTriggerOnExit": ["BeHit", "DoSkill", "Jump"],
          "setAnimatorBoolean": [
            {
              "name": "&CanCancelSkill"
            },
            {
              "name": "&CanUseExtra"
            }
          ],
          "cameraType": "combatNormal",
          "canChangeAvatar": [{}],
          "equipReattach": [
            {
              "equip": "equip01",
              "targetPoint": "WeaponL",
              "normalizeStart": 0.029999999329447746,
              "normalizeEnd": 0.5400000214576721
            }
          ],
          "animatorTriggerOnLanded": "",
          "battouOnStart": true
        },
        "Attack02": {
          "$type": "KBOPIKLCBOA",
          "animatorStates": {
            "Attack02": [
              "Xiangling_Attack02",
              "Audio_Girl_Pole_Xiangling_NormalAtk02",
              "Emo_Girl_Pole_Xiangling_NormalAttack02",
              "Interaction_Bad"
            ]
          },
          "MOKBIKEEHMJ": "combatMove",
          "canDoSkill": true,
          "resetAnimatorTriggerOnExit": ["BeHit", "DoSkill", "Jump"],
          "setAnimatorBoolean": [
            {
              "name": "&CanCancelSkill"
            },
            {
              "name": "&CanUseExtra"
            }
          ],
          "cameraType": "combatNormal",
          "canChangeAvatar": [{}],
          "animatorTriggerOnLanded": "",
          "battouOnStart": true
        },
        "Attack03": {
          "$type": "KBOPIKLCBOA",
          "animatorStates": {
            "Attack03": [
              "Xiangling_Attack03",
              "Audio_Girl_Pole_Xiangling_NormalAtk03",
              "Emo_Girl_Pole_Xiangling_NormalAttack03",
              "Interaction_Bad"
            ]
          },
          "MOKBIKEEHMJ": "combatMove",
          "canDoSkill": true,
          "resetAnimatorTriggerOnExit": ["BeHit", "DoSkill", "Jump"],
          "setAnimatorBoolean": [
            {
              "name": "&CanCancelSkill"
            },
            {
              "name": "&CanUseExtra"
            }
          ],
          "cameraType": "combatNormal",
          "canChangeAvatar": [{}],
          "animatorTriggerOnLanded": "",
          "battouOnStart": true
        },
        "Attack04": {
          "$type": "KBOPIKLCBOA",
          "animatorStates": {
            "Attack04": [
              "Xiangling_Attack04",
              "Audio_Girl_Pole_Xiangling_NormalAtk04",
              "Emo_Girl_Pole_Xiangling_NormalAttack04",
              "Interaction_Bad"
            ]
          },
          "MOKBIKEEHMJ": "combatMove",
          "canDoSkill": true,
          "resetAnimatorTriggerOnExit": ["BeHit", "DoSkill", "Jump"],
          "setAnimatorBoolean": [
            {
              "name": "&CanCancelSkill"
            },
            {
              "name": "&CanUseExtra"
            }
          ],
          "cameraType": "combatNormal",
          "canChangeAvatar": [{}],
          "animatorTriggerOnLanded": "",
          "battouOnStart": true
        },
        "Attack05": {
          "$type": "KBOPIKLCBOA",
          "animatorStates": {
            "Attack05": [
              "Xiangling_Attack05",
              "Audio_Girl_Pole_Xiangling_NormalAtk05",
              "Emo_Girl_Pole_Xiangling_NormalAttack05",
              "Interaction_Bad"
            ]
          },
          "MOKBIKEEHMJ": "combatMove",
          "canDoSkill": true,
          "resetAnimatorTriggerOnExit": ["BeHit", "DoSkill", "Jump"],
          "setAnimatorBoolean": [
            {
              "name": "&CanCancelSkill"
            },
            {
              "name": "&CanUseExtra"
            }
          ],
          "cameraType": "combatNormal",
          "canChangeAvatar": [{}],
          "animatorTriggerOnLanded": "",
          "battouOnStart": true
        },
        "ExtraAttack_BS": {
          "$type": "KBOPIKLCBOA",
          "animatorStates": {
            "ExtraAttack_BS": [
              "Xiangling_ExtraAttack_BS",
              "Audio_Girl_Pole_Xiangling_ExtraAttack_BS",
              "Emo_Girl_Pole_Xiangling_ExtraAttack_BS"
            ]
          },
          "MOKBIKEEHMJ": "combatMove",
          "resetAnimatorTriggerOnExit": ["BeHit", "Blink"],
          "setAnimatorBoolean": [
            {
              "name": "&CanCancelSkill"
            }
          ],
          "cameraType": "combatNormal",
          "cameraParam": {
            "radiusSpringRatio": 2.0
          },
          "animatorTriggerOnLanded": ""
        },
        "ExtraAttack": {
          "$type": "KBOPIKLCBOA",
          "animatorStates": {
            "ExtraAttack": [
              "Xiangling_ExtraAttack",
              "Audio_Girl_Pole_Xiangling_ExtraAttack",
              "Emo_Girl_Pole_Xiangling_ExtraAttack",
              "Interaction_Bad"
            ]
          },
          "MOKBIKEEHMJ": "combatMove",
          "resetAnimatorTriggerOnExit": ["BeHit", "Blink"],
          "setAnimatorBoolean": [
            {
              "name": "&CanCancelSkill",
              "normalizeStart": 0.6800000071525574
            }
          ],
          "enableCCD": true,
          "cameraType": "combatNormal",
          "animatorTriggerOnLanded": ""
        },
        "ExtraAttack_AS": {
          "$type": "KBOPIKLCBOA",
          "animatorStates": {
            "ExtraAttack_AS": [
              "Xiangling_ExtraAttack_AS",
              "Audio_Girl_Pole_Xiangling_ExtraAttack_AS",
              "Emo_Girl_Pole_Xiangling_ExtraAttack_AS"
            ]
          },
          "MOKBIKEEHMJ": "combatMove",
          "canDoSkill": true,
          "resetAnimatorTriggerOnExit": ["BeHit"],
          "setAnimatorBoolean": [
            {
              "name": "&CanCancelSkill"
            }
          ],
          "enableCCD": true,
          "cameraType": "combatNormal",
          "canChangeAvatar": [{}],
          "animatorTriggerOnLanded": "",
          "battouOnStart": true
        },
        "Xiangling_PandaFire_Stand": {
          "$type": "KBOPIKLCBOA",
          "animatorStates": {
            "PandaFire_Stand": [
              "Xiangling_PandaFire_Stand",
              "Audio_Girl_Pole_Xiangling_PandaFire_Stand",
              "Emo_Girl_Pole_Xiangling_PandaFire",
              "Interaction_Good"
            ]
          },
          "MOKBIKEEHMJ": "combatMove",
          "addEndure": 0.6000000238418579,
          "resetAnimatorTriggerOnExit": ["BeHit"],
          "jumpCancelStart": 0.33000001311302185,
          "sprintCancelStart": 0.33000001311302185,
          "animatorTriggerOnLanded": "",
          "sheatheOnStart": true
        },
        "Xiangling_PandaFire_Run": {
          "$type": "KBOPIKLCBOA",
          "animatorStates": {
            "PandaFire_Run": [
              "Xiangling_PandaFire_Run",
              "Audio_Girl_Pole_Xiangling_PandaFire_Stand",
              "Emo_Girl_Pole_Xiangling_PandaFire",
              "Interaction_Good"
            ],
            "PandaFire_FallOver": []
          },
          "MOKBIKEEHMJ": "combatMove",
          "addEndure": 0.6000000238418579,
          "resetAnimatorTriggerOnExit": ["BeHit"],
          "jumpCancelStart": 0.33000001311302185,
          "sprintCancelStart": 0.33000001311302185,
          "animatorTriggerOnLanded": "",
          "sheatheOnStart": true
        },
        "Xiangling_PandaFire_AS": {
          "$type": "KBOPIKLCBOA",
          "animatorStates": {
            "PandaFire_AS": [
              "Xiangling_PandaFire_AS",
              "Audio_Girl_Pole_Xiangling_PandaFire_AS",
              "Emo_Girl_Pole_Xiangling_PandaFire_AS"
            ]
          },
          "MOKBIKEEHMJ": "combatMove",
          "canDoSkill": true,
          "resetAnimatorTriggerOnExit": ["BeHit", "DoSkill", "Jump"],
          "setAnimatorBoolean": [
            {
              "name": "&CanCancelSkill"
            },
            {
              "name": "&CanUseSkill"
            }
          ],
          "canChangeAvatar": [{}],
          "animatorTriggerOnLanded": ""
        },
        "Xiangling_FireCircle": {
          "$type": "KBOPIKLCBOA",
          "animatorStates": {
            "FireCircle": [
              "Xiangling_FireCircle",
              "Emo_Girl_Pole_Xiangling_FireCircle",
              "Audio_Girl_Pole_Xiangling_FireCircle",
              "Interaction_Bad"
            ]
          },
          "MOKBIKEEHMJ": "combatMove",
          "addEndure": 0.0,
          "resetAnimatorTriggerOnExit": ["BeHit"],
          "cameraType": "combatNormal",
          "jumpCancelEnd": -1.0,
          "sprintCancelEnd": -1.0,
          "animatorTriggerOnLanded": "",
          "battouOnStart": true
        },
        "Xiangling_FireCircle_AS": {
          "$type": "KBOPIKLCBOA",
          "animatorStates": {
            "FireCircle_AS": [
              "Xiangling_FireCircle_AS",
              "Emo_Girl_Pole_Xiangling_FireCircle_AS",
              "Audio_Girl_Pole_Xiangling_FireCircle_AS"
            ]
          },
          "MOKBIKEEHMJ": "combatMove",
          "canDoSkill": true,
          "resetAnimatorTriggerOnExit": ["BeHit", "DoSkill", "Jump"],
          "setAnimatorBoolean": [
            {
              "name": "&CanCancelSkill"
            },
            {
              "name": "&CanUseSkill"
            }
          ],
          "cameraType": "combatNormal",
          "canChangeAvatar": [{}],
          "animatorTriggerOnLanded": ""
        },
        "FallingAnthem_BS": {
          "$type": "KBOPIKLCBOA",
          "animatorStates": {
            "FallingAnthem_BS_1": [
              "Audio_Girl_FallingAnthem_BS_1_Xiangling",
              "Emo_Girl_Pole_FallingAttack_BS_01"
            ],
            "FallingAnthem_BS_2": ["Emo_Girl_Pole_FallingAttack_BS_02"]
          },
          "MOKBIKEEHMJ": "combatAir",
          "addEndure": 0.0,
          "resetAnimatorTriggerOnExit": ["BeHit", "DoSkill", "Jump"],
          "cameraType": "combatNormal",
          "actionPanelState": "Fly",
          "equipReattach": [
            {
              "equip": "equip01",
              "targetPoint": "WeaponR"
            }
          ],
          "jumpCancelEnd": -1.0,
          "animatorTriggerOnLanded": "HitAir2HitDrop",
          "battouOnStart": true
        },
        "FallingAnthem_Loop": {
          "$type": "KBOPIKLCBOA",
          "animatorStates": {
            "FallingAnthem_Loop": [],
            "FallingAnthem_Loop_Low": []
          },
          "MOKBIKEEHMJ": "combatAir",
          "addEndure": 0.0,
          "resetAnimatorTriggerOnExit": ["BeHit", "DoSkill", "Jump"],
          "actionPanelState": "Fly",
          "equipReattach": [
            {
              "equip": "equip01",
              "targetPoint": "WeaponR"
            }
          ],
          "animatorTriggerOnLanded": "HitAir2HitDrop",
          "battouOnStart": true
        },
        "FallingAnthem_AS_1": {
          "$type": "KBOPIKLCBOA",
          "animatorStates": {
            "FallingAnthem_AS_1": [
              "Xiangling_FallingAnthem_Strike",
              "Interaction_Bad",
              "Audio_Girl_FallingAnthem_AS_1_Xiangling",
              "Emo_Girl_Pole_FallingAttack_AS_01"
            ]
          },
          "MOKBIKEEHMJ": "combatMove",
          "canDoSkill": true,
          "resetAnimatorTriggerOnExit": ["BeHit", "DoSkill", "Jump"],
          "setAnimatorBoolean": [
            {
              "name": "&CanUseSkill",
              "normalizeStart": 0.800000011920929
            }
          ],
          "equipReattach": [
            {
              "equip": "equip01",
              "targetPoint": "WeaponR"
            }
          ],
          "jumpCancelEnd": -1.0,
          "sprintCancelEnd": -1.0,
          "animatorTriggerOnLanded": "",
          "battouOnStart": true
        },
        "FallingAnthem_AS_2": {
          "$type": "KBOPIKLCBOA",
          "animatorStates": {
            "FallingAnthem_AS_2": [
              "Audio_Girl_FallingAnthem_AS_2_Xiangling",
              "Emo_Girl_Pole_FallingAttack_AS_02"
            ]
          },
          "MOKBIKEEHMJ": "combatMove",
          "canDoSkill": true,
          "resetAnimatorTriggerOnExit": ["BeHit", "DoSkill", "Jump"],
          "setAnimatorBoolean": [
            {
              "name": "&CanUseSkill"
            }
          ],
          "canChangeAvatar": [{}],
          "equipReattach": [
            {
              "equip": "equip01",
              "targetPoint": "WeaponR"
            }
          ],
          "jumpCancelStart": 0.10000000149011612,
          "sprintCancelStart": 0.10000000149011612,
          "animatorTriggerOnLanded": "",
          "battouOnStart": true,
          "sheatheOnEnd": true
        },
        "Sit": {
          "$type": "KBOPIKLCBOA",
          "animatorStates": {
            "SitDown": ["Audio_Girl_SitDown", "Audio_Girl_Sit_Xiangling"],
            "SitLoop": [],
            "SitUp": ["Audio_Girl_SitDown", "Audio_Girl_Sit_Xiangling"]
          },
          "MOKBIKEEHMJ": "performMove",
          "massRatio": 100.0,
          "actionPanelState": "Perform",
          "animatorTriggerOnLanded": "",
          "sheatheOnStart": true
        },
        "SitB": {
          "$type": "KBOPIKLCBOA",
          "animatorStates": {
            "SitBDown": ["Audio_Girl_SitDown", "Audio_Girl_Sit_Xiangling"],
            "SitBLoop": [],
            "SitBUp": ["Audio_Girl_SitDown", "Audio_Girl_Sit_Xiangling"]
          },
          "MOKBIKEEHMJ": "performMove",
          "massRatio": 100.0,
          "actionPanelState": "Perform",
          "animatorTriggerOnLanded": "",
          "sheatheOnStart": true
        },
        "StandbyShow": {
          "$type": "KBOPIKLCBOA",
          "animatorStates": {
            "StandbyVoice": ["Audio_Girl_StandbyVoice"],
            "StandbyShow_01": [
              "Manekin_Xiangling_Show01_00",
              "Audio_Girl_StandbyShow_01_Xiangling"
            ],
            "StandbyShow_02": [
              "Manekin_Xiangling_Show02",
              "Audio_Girl_StandbyShow_02_Xiangling"
            ]
          },
          "MOKBIKEEHMJ": "performMove",
          "canDoSkill": true,
          "massRatio": 100.0,
          "setAnimatorBoolean": [
            {
              "name": "&CanUseSkill"
            }
          ],
          "canChangeAvatar": [{}],
          "animatorTriggerOnLanded": "",
          "sheatheOnStart": true
        },
        "TakePhotos": {
          "$type": "KBOPIKLCBOA",
          "animatorStates": {
            "Think01BS": [],
            "Akimbo02BS": [],
            "Think01Loop": [],
            "Akimbo02Loop": [],
            "Think01AS": [],
            "Akimbo02AS": []
          },
          "animatorTriggerOnLanded": ""
        },
        "Channel_BS": {
          "$type": "KBOPIKLCBOA",
          "animatorStates": {
            "ChannelBS": ["Emo_Avatar_Common_Manekin_Default"]
          },
          "MOKBIKEEHMJ": "combatMove",
          "canDoSkill": true,
          "massRatio": 100.0,
          "resetAnimatorTriggerOnExit": ["BeHit", "DoSkill", "Jump"],
          "setAnimatorBoolean": [
            {
              "name": "&CanUseSkill"
            }
          ],
          "canChangeAvatar": [{}],
          "animatorTriggerOnLanded": "",
          "sheatheOnStart": true
        },
        "Channel_Loop": {
          "$type": "KBOPIKLCBOA",
          "animatorStates": {
            "ChannelLoop": []
          },
          "MOKBIKEEHMJ": "combatMove",
          "canDoSkill": true,
          "massRatio": 100.0,
          "resetAnimatorTriggerOnExit": ["BeHit", "DoSkill", "Jump"],
          "setAnimatorBoolean": [
            {
              "name": "&CanUseSkill"
            }
          ],
          "canChangeAvatar": [{}],
          "animatorTriggerOnLanded": "",
          "sheatheOnStart": true
        },
        "Channel_AS": {
          "$type": "KBOPIKLCBOA",
          "animatorStates": {
            "ChannelAS": []
          },
          "MOKBIKEEHMJ": "combatMove",
          "canDoSkill": true,
          "massRatio": 100.0,
          "resetAnimatorTriggerOnExit": ["BeHit", "DoSkill", "Jump"],
          "setAnimatorBoolean": [
            {
              "name": "&CanUseSkill"
            }
          ],
          "canChangeAvatar": [{}],
          "animatorTriggerOnLanded": "",
          "sheatheOnStart": true
        },
        "PlayMusic_Lyre": {
          "$type": "KBOPIKLCBOA",
          "animatorStates": {
            "PlayMusic_Lyre_BS": ["PlayMusic_Lyre_Girl"],
            "PlayMusic_Lyre_Loop": ["PlayMusic_Lyre_Girl_Loop"]
          },
          "MOKBIKEEHMJ": "combatMove",
          "massRatio": 100.0,
          "resetAnimatorTriggerOnExit": ["BeHit", "DoSkill", "Jump"],
          "animatorTriggerOnLanded": "",
          "sheatheOnStart": true
        },
        "PlayMusic_Lyre_AS": {
          "$type": "KBOPIKLCBOA",
          "animatorStates": {
            "PlayMusic_Lyre_AS": ["PlayMusic_Lyre_Girl_AS"]
          },
          "MOKBIKEEHMJ": "combatMove",
          "canDoSkill": true,
          "massRatio": 100.0,
          "resetAnimatorTriggerOnExit": ["BeHit", "DoSkill", "Jump"],
          "setAnimatorBoolean": [
            {
              "name": "&CanUseSkill"
            }
          ],
          "canChangeAvatar": [{}],
          "animatorTriggerOnLanded": "",
          "sheatheOnStart": true
        },
        "PlayMusic_Qin": {
          "$type": "KBOPIKLCBOA",
          "animatorStates": {
            "PlayMusic_Qin_BS": ["PlayMusic_Qin_Girl"],
            "PlayMusic_Qin_Loop": ["PlayMusic_Qin_Girl_Loop"]
          },
          "MOKBIKEEHMJ": "combatMove",
          "massRatio": 100.0,
          "resetAnimatorTriggerOnExit": ["BeHit", "DoSkill", "Jump"],
          "animatorTriggerOnLanded": "",
          "sheatheOnStart": true
        },
        "PlayMusic_Qin_AS": {
          "$type": "KBOPIKLCBOA",
          "animatorStates": {
            "PlayMusic_Qin_AS": ["PlayMusic_Qin_Girl_AS"]
          },
          "MOKBIKEEHMJ": "combatMove",
          "canDoSkill": true,
          "massRatio": 100.0,
          "resetAnimatorTriggerOnExit": ["BeHit", "DoSkill", "Jump"],
          "setAnimatorBoolean": [
            {
              "name": "&CanUseSkill"
            }
          ],
          "canChangeAvatar": [{}],
          "animatorTriggerOnLanded": "",
          "sheatheOnStart": true
        },
        "PlayMusic_Drum": {
          "$type": "KBOPIKLCBOA",
          "animatorStates": {
            "PlayMusic_Drum_BS": ["PlayMusic_Drum_Girl"],
            "PlayMusic_Drum_Loop": ["PlayMusic_Drum_Girl_Loop"]
          },
          "MOKBIKEEHMJ": "combatMove",
          "massRatio": 100.0,
          "resetAnimatorTriggerOnExit": ["BeHit", "DoSkill", "Jump"],
          "animatorTriggerOnLanded": "",
          "sheatheOnStart": true
        },
        "PlayMusic_Drum_AS": {
          "$type": "KBOPIKLCBOA",
          "animatorStates": {
            "PlayMusic_Drum_AS": ["PlayMusic_Drum_Girl_AS"]
          },
          "MOKBIKEEHMJ": "combatMove",
          "canDoSkill": true,
          "massRatio": 100.0,
          "resetAnimatorTriggerOnExit": ["BeHit", "DoSkill", "Jump"],
          "setAnimatorBoolean": [
            {
              "name": "&CanUseSkill"
            }
          ],
          "canChangeAvatar": [{}],
          "animatorTriggerOnLanded": "",
          "sheatheOnStart": true
        },
        "PlayMusic_FrenchHorn": {
          "$type": "KBOPIKLCBOA",
          "animatorStates": {
            "PlayMusic_FrenchHorn_BS": ["PlayMusic_Frenchhorn_Girl"],
            "PlayMusic_FrenchHorn_Loop": ["PlayMusic_Frenchhorn_Girl_Loop"]
          },
          "MOKBIKEEHMJ": "combatMove",
          "massRatio": 100.0,
          "resetAnimatorTriggerOnExit": ["BeHit", "DoSkill", "Jump"],
          "animatorTriggerOnLanded": "",
          "sheatheOnStart": true
        },
        "PlayMusic_FrenchHorn_AS": {
          "$type": "KBOPIKLCBOA",
          "animatorStates": {
            "PlayMusic_FrenchHorn_AS": ["PlayMusic_Frenchhorn_Girl_AS"]
          },
          "MOKBIKEEHMJ": "combatMove",
          "canDoSkill": true,
          "massRatio": 100.0,
          "resetAnimatorTriggerOnExit": ["BeHit", "DoSkill", "Jump"],
          "setAnimatorBoolean": [
            {
              "name": "&CanUseSkill"
            }
          ],
          "canChangeAvatar": [{}],
          "animatorTriggerOnLanded": "",
          "sheatheOnStart": true
        },
        "ActivitySkill_ElectricCoreFly": {
          "$type": "KBOPIKLCBOA",
          "animatorStates": {
            "ActivitySkill_ElectricCoreFly": []
          },
          "MOKBIKEEHMJ": "combatAir",
          "massRatio": 100.0,
          "resetAnimatorTriggerOnEnter": ["ElectricCoreFly_End"],
          "resetAnimatorTriggerOnExit": [
            "BeHit",
            "DoSkill",
            "Jump",
            "ElectricCoreFly_End"
          ],
          "animatorTriggerOnLanded": "",
          "sheatheOnStart": true
        },
        "ActivitySkill_GrapplingHook": {
          "$type": "KBOPIKLCBOA",
          "animatorStates": {
            "ActivitySkill_GrapplingHook": []
          },
          "MOKBIKEEHMJ": "combatAir",
          "massRatio": 100.0,
          "resetAnimatorTriggerOnEnter": ["GrapplingHook_Drop"],
          "resetAnimatorTriggerOnExit": [
            "BeHit",
            "DoSkill",
            "Jump",
            "GrapplingHook_Drop"
          ],
          "animatorTriggerOnLanded": "",
          "sheatheOnStart": true
        },
        "ActivitySkill_CustomSkill01": {
          "$type": "KBOPIKLCBOA",
          "animatorStates": {
            "ActivitySkill_CustomSkill01": []
          },
          "MOKBIKEEHMJ": "combatAir",
          "canDoSkill": true,
          "massRatio": 100.0,
          "resetAnimatorTriggerOnEnter": [
            "CustomSkill_End_Fly",
            "CustomSkill_End_Drop"
          ],
          "resetAnimatorTriggerOnExit": [
            "BeHit",
            "DoSkill",
            "Jump",
            "CustomSkill_End_Fly",
            "CustomSkill_End_Drop"
          ],
          "animatorTriggerOnLanded": "",
          "sheatheOnStart": true
        },
        "ActivitySkill_CustomSkill02": {
          "$type": "KBOPIKLCBOA",
          "animatorStates": {
            "ActivitySkill_CustomSkill02": []
          },
          "MOKBIKEEHMJ": "combatAir",
          "canDoSkill": true,
          "massRatio": 100.0,
          "resetAnimatorTriggerOnEnter": [
            "CustomSkill_End_Fly",
            "CustomSkill_End_Drop"
          ],
          "resetAnimatorTriggerOnExit": [
            "BeHit",
            "DoSkill",
            "Jump",
            "CustomSkill_End_Fly",
            "CustomSkill_End_Drop"
          ],
          "animatorTriggerOnLanded": "",
          "sheatheOnStart": true
        },
        "ActivitySkill_CommonMove": {
          "$type": "KBOPIKLCBOA",
          "animatorStates": {
            "ActivitySkill_CommonMove": []
          },
          "addEndure": 0.0,
          "massRatio": 100.0,
          "resetAnimatorTriggerOnExit": ["BeHit", "DoSkill", "Jump"],
          "enableBoneFollowMove": true,
          "jumpCancelStart": -1.0,
          "sprintCancelStart": -1.0,
          "animatorTriggerOnLanded": "",
          "sheatheOnStart": true
        },
        "DiveChannel_BS": {
          "$type": "KBOPIKLCBOA",
          "animatorStates": {
            "DiveChannelBS": [
              "Emo_Avatar_Common_Manekin_Default",
              "Audio_Girl_DiveChannel_BS"
            ]
          },
          "MOKBIKEEHMJ": "combatDive",
          "massRatio": 100.0,
          "resetAnimatorTriggerOnExit": ["BeHit", "DoSkill", "Jump"],
          "setAnimatorBoolean": [
            {
              "name": "&CanUseSkill"
            }
          ],
          "canChangeAvatar": [{}],
          "actionPanelState": "Dive",
          "sprintCancelEnd": -1.0,
          "animatorTriggerOnLanded": "",
          "sheatheOnStart": true
        },
        "DiveChannel_Loop": {
          "$type": "KBOPIKLCBOA",
          "animatorStates": {
            "DiveChannelLoop": []
          },
          "MOKBIKEEHMJ": "combatDive",
          "massRatio": 100.0,
          "resetAnimatorTriggerOnExit": ["BeHit", "DoSkill", "Jump"],
          "setAnimatorBoolean": [
            {
              "name": "&CanUseSkill"
            }
          ],
          "canChangeAvatar": [{}],
          "actionPanelState": "Dive",
          "sprintCancelEnd": -1.0,
          "animatorTriggerOnLanded": "",
          "sheatheOnStart": true
        },
        "DiveChannel_AS": {
          "$type": "KBOPIKLCBOA",
          "animatorStates": {
            "DiveChannelAS": ["Audio_Girl_DiveChannel_AS"]
          },
          "MOKBIKEEHMJ": "combatDive",
          "canDoSkill": true,
          "canDoSkillStart": 0.30000001192092896,
          "massRatio": 100.0,
          "resetAnimatorTriggerOnExit": ["BeHit", "DoSkill", "Jump"],
          "setAnimatorBoolean": [
            {
              "name": "&CanUseSkill"
            }
          ],
          "canChangeAvatar": [{}],
          "actionPanelState": "Dive",
          "sprintCancelStart": 0.11999999731779099,
          "animatorTriggerOnLanded": "",
          "sheatheOnStart": true
        },
        "DiveCast_BS": {
          "$type": "KBOPIKLCBOA",
          "animatorStates": {
            "DiveCast_BS": [
              "Emo_Avatar_Common_Manekin_Default",
              "Audio_Girl_DiveCast_BS"
            ]
          },
          "MOKBIKEEHMJ": "combatDive",
          "massRatio": 100.0,
          "resetAnimatorTriggerOnExit": ["BeHit", "DoSkill", "Jump"],
          "setAnimatorBoolean": [
            {
              "name": "&CanUseSkill"
            }
          ],
          "canChangeAvatar": [{}],
          "actionPanelState": "Dive",
          "sprintCancelEnd": -1.0,
          "animatorTriggerOnLanded": "",
          "sheatheOnStart": true
        },
        "DiveCast_Loop": {
          "$type": "KBOPIKLCBOA",
          "animatorStates": {
            "DiveCast_Loop": []
          },
          "MOKBIKEEHMJ": "combatDive",
          "massRatio": 100.0,
          "resetAnimatorTriggerOnExit": ["BeHit", "DoSkill", "Jump"],
          "setAnimatorBoolean": [
            {
              "name": "&CanUseSkill"
            }
          ],
          "canChangeAvatar": [{}],
          "actionPanelState": "Dive",
          "sprintCancelEnd": -1.0,
          "animatorTriggerOnLanded": "",
          "sheatheOnStart": true
        },
        "DiveCast_AS": {
          "$type": "KBOPIKLCBOA",
          "animatorStates": {
            "DiveCast_AS": ["Audio_Girl_DiveCast_AS"]
          },
          "MOKBIKEEHMJ": "combatDive",
          "canDoSkill": true,
          "canDoSkillStart": 0.10000000149011612,
          "massRatio": 100.0,
          "resetAnimatorTriggerOnExit": ["BeHit", "DoSkill", "Jump"],
          "setAnimatorBoolean": [
            {
              "name": "&CanUseSkill"
            }
          ],
          "canChangeAvatar": [{}],
          "actionPanelState": "Dive",
          "sprintCancelStart": 0.09000000357627869,
          "animatorTriggerOnLanded": "",
          "sheatheOnStart": true
        },
        "Dive": {
          "$type": "KBOPIKLCBOA",
          "animatorStates": {
            "DiveIdle": [],
            "DiveMoveBS": ["Audio_Girl_Dive_MoveBS"],
            "DiveMoveAS": ["Audio_Girl_Dive_MoveAS"],
            "DiveMoveU_A": ["Audio_Girl_Dive_MoveU_A"],
            "DiveMoveU_B": ["Audio_Girl_Dive_MoveU_B"],
            "DiveMoveF_A": [],
            "DiveMoveF_B": ["Audio_Girl_Dive_MoveF_B"],
            "DiveMoveD_A": ["Audio_Girl_Dive_MoveD_A"],
            "DiveMoveD_B": ["Audio_Girl_Dive_MoveD_B"],
            "DiveTurn": ["Audio_Girl_Dive_Turn"],
            "DiveTurnAS": ["Audio_Girl_Dive_Turn_AS"],
            "DiveTurn2": ["Audio_Girl_Dive_Turn"],
            "DiveTurnAS2": ["Audio_Girl_Dive_Turn_AS"],
            "DiveDashBS": ["Audio_Girl_Dive_Dash_BS"],
            "DiveDashAS": ["Audio_Girl_Dive_Dash_AS"],
            "DiveDash": [],
            "DiveDashB": ["Audio_Girl_Dive_Out_DashB"],
            "DiveSuperDash": ["Audio_Girl_Dive_SuperDash"],
            "DiveSuperDash2": ["Audio_Girl_Dive_SuperDash2"]
          },
          "canDoSkill": true,
          "resetAnimatorTriggerOnEnter": ["DoSkill"],
          "setAnimatorBoolean": [
            {
              "name": "&CanUseSkill"
            }
          ],
          "canChangeAvatar": [{}],
          "actionPanelState": "Dive",
          "animatorTriggerOnLanded": "",
          "sheatheOnStart": true
        },
        "Dive_In_Out": {
          "$type": "KBOPIKLCBOA",
          "animatorStates": {
            "Dive_In_Up": ["Audio_Girl_Dive_In_Up"],
            "Dive_In_Side": ["Audio_Girl_Dive_In_Side"],
            "Dive_In_Bottom": ["Audio_Girl_Dive_In_Bottom"],
            "Dive_Out_Side": ["Audio_Girl_Dive_Out_Side"],
            "Dive_Out_Bottom": ["Audio_Girl_Dive_Out_Bottom"],
            "Dive_Out_Up": ["Audio_Girl_Dive_Out_Up"]
          },
          "resetAnimatorTriggerOnEnter": ["DoSkill"],
          "setAnimatorBoolean": [
            {
              "name": "&CanUseSkill"
            }
          ],
          "actionPanelState": "Dive",
          "animatorTriggerOnLanded": "",
          "sheatheOnStart": true
        },
        "DiveStream": {
          "$type": "KBOPIKLCBOA",
          "animatorStates": {
            "DiveStreamIn": ["Audio_Girl_Dive_Stream_In"],
            "DiveStreamOut": ["Audio_Girl_Dive_Stream_Out"],
            "DiveStream": [],
            "DiveStreamRoll_L": ["Audio_Girl_Dive_Stream_Roll_L"],
            "DiveStreamRoll_R": ["Audio_Girl_Dive_Stream_Roll_R"]
          },
          "canDoSkill": true,
          "resetAnimatorTriggerOnEnter": ["DoSkill"],
          "setAnimatorBoolean": [
            {
              "name": "&CanUseSkill"
            }
          ],
          "actionPanelState": "Dive",
          "animatorTriggerOnLanded": "",
          "sheatheOnStart": true
        },
        "DiveJump": {
          "$type": "KBOPIKLCBOA",
          "animatorStates": {
            "Dive_Out_DashU": ["Audio_Girl_Dive_Out_DashU"],
            "Dive_Out_DashD": ["Audio_Girl_Dive_Out_DashD"],
            "Dive_Out_DashFBS": ["Audio_Girl_Dive_Out_DashFBS"],
            "Dive_Out_DashFAS": ["Audio_Girl_Dive_Out_DashFAS"],
            "Dive_Out_DashFLoop": []
          },
          "canDoSkill": true,
          "resetAnimatorTriggerOnEnter": ["DoSkill", "AimEnd"],
          "setAnimatorBoolean": [
            {
              "name": "&CanUseAirSkill"
            }
          ],
          "actionPanelState": "Jump",
          "animatorTriggerOnLanded": "",
          "sheatheOnStart": true
        },
        "BeHitDive": {
          "$type": "KBOPIKLCBOA",
          "animatorStates": {
            "BeHitDive": ["Audio_Girl_Dive_beHit"],
            "DiveStruggle": []
          },
          "MOKBIKEEHMJ": "combatDive",
          "resetAnimatorTriggerOnEnter": ["BeHit"],
          "resetAnimatorTriggerOnExit": ["DoSkill"],
          "cameraType": "combatBeHit",
          "actionPanelState": "Dive",
          "jumpCancelEnd": 0.0,
          "animatorTriggerOnLanded": "",
          "sheatheOnStart": true
        },
        "MultiOverride_01": {
          "$type": "KBOPIKLCBOA",
          "animatorStates": {
            "MultiOverrideBS_01": [],
            "MultiOverrideLoop_01": [],
            "MultiOverrideAS_01": []
          },
          "animatorTriggerOnLanded": ""
        },
        "MultiOverride2": {
          "$type": "KBOPIKLCBOA",
          "animatorStates": {
            "MultiOverrideBS_02": [],
            "MultiOverrideLoop_02": [],
            "MultiOverrideAS_02": []
          },
          "animatorTriggerOnLanded": ""
        },
        "MultiOverride3": {
          "$type": "KBOPIKLCBOA",
          "animatorStates": {
            "MultiOverrideBS_03": [],
            "MultiOverrideLoop_03": [],
            "MultiOverrideAS_03": []
          },
          "animatorTriggerOnLanded": ""
        },
        "MultiOverride": {
          "$type": "KBOPIKLCBOA",
          "INKINKDHODO": {
            "Ani_Avatar_Girl_Pole_Xiangling_Photo02BS": [],
            "Ani_Avatar_Girl_Pole_Xiangling_Photo02Loop": [],
            "Ani_Avatar_Girl_Pole_Xiangling_Photo02AS": []
          },
          "animatorTriggerOnLanded": ""
        }
      }
    },
    "diveLayer": {
      "$type": "GBGJJIIEMBD",
      "layerIndex": 5,
      "layerIndexName": "DiveLayer",
      "CPAANEIJCGD": ""
    }
  },
  "DADEGCDMOBD": false,
  "audio": {
    "overrideEmitterName": "",
    "animAudio": {
      "onTransitionIn": [
        {
          "currentStateName": "ExtraAttack_BS",
          "audioEvent": {
            "text": "Play_sfx_weapon_pole_girl_extraAtk"
          }
        },
        {
          "currentStateName": "SprintBS",
          "audioEvent": {
            "text": "Play_sfx_char_foley_flutter_heavy"
          }
        },
        {
          "currentStateName": "SwimJumpToWater",
          "audioEvent": {
            "text": "Stop_sfx_char_swim_dive"
          }
        },
        {
          "currentStateName": "SwimDash",
          "audioEvent": {
            "text": "Play_sfx_char_swim_dash"
          }
        },
        {
          "currentStateName": "Standby",
          "audioEvent": {
            "text": "Stop_sfx_char_fly"
          }
        },
        {
          "currentStateName": "DiveDash",
          "audioEvent": {
            "text": "Play_sfx_char_dive_dash_lp"
          },
          "otherStateNames": ["DiveDashBS"],
          "usage": "InSet"
        },
        {
          "currentStateName": "DiveStream",
          "audioEvent": {
            "text": "Play_sfx_char_dive_stream_lp"
          }
        },
        {
          "currentStateName": "Dive_Out_DashFLoop",
          "audioEvent": {
            "text": "Play_sfx_char_dive_out_dashFLoop"
          }
        },
        {
          "currentStateName": "DiveMoveF_A",
          "audioEvent": {
            "text": "Play_sfx_char_dive_moveF_A"
          }
        },
        {
          "currentStateName": "DiveChannel_Loop",
          "audioEvent": {
            "text": "Play_vfx_Avatar_Diving_Channel_LP"
          }
        }
      ],
      "onTransitionOut": [
        {
          "currentStateName": "Xiangling_Attack04",
          "audioEvent": {
            "text": "Stop_sfx_char_xiangling_pole_attack04"
          }
        },
        {
          "currentStateName": "Xiangling_Attack05",
          "audioEvent": {
            "text": "Stop_sfx_char_xiangling_pole_attack05"
          }
        },
        {
          "currentStateName": "StandbyShow_02",
          "audioEvent": {
            "text": "Stop_sfx_standbyShow_xiangling_swing"
          }
        },
        {
          "currentStateName": "StandbyPutaway",
          "audioEvent": {
            "text": "Stop_sfx_weapon_1HSword_boy_putAway"
          }
        },
        {
          "currentStateName": "WalkPutaway",
          "audioEvent": {
            "text": "Stop_sfx_weapon_1HSword_boy_putAway"
          }
        },
        {
          "currentStateName": "RunPutaway",
          "audioEvent": {
            "text": "Stop_sfx_weapon_1HSword_boy_putAway"
          }
        },
        {
          "currentStateName": "SwimJumpDrop",
          "audioEvent": {
            "text": "Stop_sfx_char_swim_drop"
          }
        },
        {
          "currentStateName": "SwimJump",
          "audioEvent": {
            "text": "Stop_sfx_char_swim_drop"
          },
          "otherStateNames": ["SwimJumpDrop"],
          "usage": "Except"
        },
        {
          "currentStateName": "SwimJump",
          "audioEvent": {
            "text": "Stop_sfx_char_swim_dive"
          }
        },
        {
          "currentStateName": "Fly",
          "audioEvent": {
            "text": "Play_sfx_char_land_climb"
          },
          "otherStateNames": [
            "ClimbIdle",
            "ClimbMove0",
            "ClimbMove1",
            "ClimbJump"
          ],
          "usage": "InSet"
        },
        {
          "currentStateName": "FlyStart",
          "audioEvent": {
            "text": "Play_sfx_char_land_climb"
          },
          "otherStateNames": [
            "ClimbIdle",
            "ClimbMove0",
            "ClimbMove1",
            "ClimbJump"
          ],
          "usage": "InSet"
        },
        {
          "currentStateName": "DropDownLit",
          "audioEvent": {
            "text": "Play_sfx_char_land_climb"
          },
          "otherStateNames": [
            "ClimbIdle",
            "ClimbMove0",
            "ClimbMove1",
            "ClimbJump"
          ],
          "usage": "InSet"
        },
        {
          "currentStateName": "DropDown",
          "audioEvent": {
            "text": "Play_sfx_char_land_climb"
          },
          "otherStateNames": [
            "ClimbIdle",
            "ClimbMove0",
            "ClimbMove1",
            "ClimbJump"
          ],
          "usage": "InSet"
        },
        {
          "currentStateName": "WalkDropDownLit",
          "audioEvent": {
            "text": "Play_sfx_char_land_climb"
          },
          "otherStateNames": [
            "ClimbIdle",
            "ClimbMove0",
            "ClimbMove1",
            "ClimbJump"
          ],
          "usage": "InSet"
        },
        {
          "currentStateName": "Jump",
          "audioEvent": {
            "text": "Play_sfx_char_land_climb"
          },
          "otherStateNames": [
            "ClimbIdle",
            "ClimbMove0",
            "ClimbMove1",
            "ClimbJump"
          ],
          "usage": "InSet"
        },
        {
          "currentStateName": "JumpForWalk",
          "audioEvent": {
            "text": "Play_sfx_char_land_climb"
          },
          "otherStateNames": [
            "ClimbIdle",
            "ClimbMove0",
            "ClimbMove1",
            "ClimbJump"
          ],
          "usage": "InSet"
        },
        {
          "currentStateName": "JumpForRun",
          "audioEvent": {
            "text": "Play_sfx_char_land_climb"
          },
          "otherStateNames": [
            "ClimbIdle",
            "ClimbMove0",
            "ClimbMove1",
            "ClimbJump"
          ],
          "usage": "InSet"
        },
        {
          "currentStateName": "JumpForSprint",
          "audioEvent": {
            "text": "Play_sfx_char_land_climb"
          },
          "otherStateNames": [
            "ClimbIdle",
            "ClimbMove0",
            "ClimbMove1",
            "ClimbJump"
          ],
          "usage": "InSet"
        },
        {
          "currentStateName": "JumpWeapon",
          "audioEvent": {
            "text": "Play_sfx_char_land_climb"
          },
          "otherStateNames": [
            "ClimbIdle",
            "ClimbMove0",
            "ClimbMove1",
            "ClimbJump"
          ],
          "usage": "InSet"
        },
        {
          "currentStateName": "JumpForWalkWeapon",
          "audioEvent": {
            "text": "Play_sfx_char_land_climb"
          },
          "otherStateNames": [
            "ClimbIdle",
            "ClimbMove0",
            "ClimbMove1",
            "ClimbJump"
          ],
          "usage": "InSet"
        },
        {
          "currentStateName": "JumpForRunWeapon",
          "audioEvent": {
            "text": "Play_sfx_char_land_climb"
          },
          "otherStateNames": [
            "ClimbIdle",
            "ClimbMove0",
            "ClimbMove1",
            "ClimbJump"
          ],
          "usage": "InSet"
        },
        {
          "currentStateName": "DropDownWeapon",
          "audioEvent": {
            "text": "Play_sfx_char_land_climb"
          },
          "otherStateNames": [
            "ClimbIdle",
            "ClimbMove0",
            "ClimbMove1",
            "ClimbJump"
          ],
          "usage": "InSet"
        },
        {
          "currentStateName": "DropDownLitWeapon",
          "audioEvent": {
            "text": "Play_sfx_char_land_climb"
          },
          "otherStateNames": [
            "ClimbIdle",
            "ClimbMove0",
            "ClimbMove1",
            "ClimbJump"
          ],
          "usage": "InSet"
        },
        {
          "currentStateName": "SwimMove",
          "audioEvent": {
            "text": "Stop_sfx_char_swim"
          }
        },
        {
          "currentStateName": "Attack01",
          "audioEvent": {
            "text": "Stop_sfx_char_xiangling_pole_attack_end"
          }
        },
        {
          "currentStateName": "Attack02",
          "audioEvent": {
            "text": "Stop_sfx_char_xiangling_pole_attack_end"
          }
        },
        {
          "currentStateName": "Attack03",
          "audioEvent": {
            "text": "Stop_sfx_char_xiangling_pole_attack_end"
          }
        },
        {
          "currentStateName": "Attack04",
          "audioEvent": {
            "text": "Stop_sfx_char_xiangling_pole_attack_end"
          }
        },
        {
          "currentStateName": "Attack05",
          "audioEvent": {
            "text": "Stop_sfx_char_xiangling_pole_attack_end"
          }
        },
        {
          "currentStateName": "FireCircle",
          "audioEvent": {
            "text": "Stop_sfx_char_xiangling_fireCircle_cast"
          }
        },
        {
          "currentStateName": "Standby",
          "audioEvent": {
            "text": "Play_sfx_char_foley_flutter_light"
          },
          "otherStateNames": ["Walk", "Run"],
          "usage": "InSet"
        },
        {
          "currentStateName": "StandbyWeapon",
          "audioEvent": {
            "text": "Play_sfx_char_foley_flutter_light"
          },
          "otherStateNames": ["WalkWeapon", "RunWeapon"],
          "usage": "InSet"
        },
        {
          "currentStateName": "ExtraAttack_BS",
          "audioEvent": {
            "text": "Stop_sfx_weapon_pole_girl_extraAtk"
          },
          "otherStateNames": ["ExtraAttack", "ExtraAttack_AS"],
          "usage": "Except"
        },
        {
          "currentStateName": "ExtraAttack",
          "audioEvent": {
            "text": "Stop_sfx_weapon_pole_girl_extraAtk"
          },
          "otherStateNames": ["ExtraAttack_AS"],
          "usage": "Except"
        },
        {
          "currentStateName": "ExtraAttack_AS",
          "audioEvent": {
            "text": "Stop_sfx_char_xiangling_pole_attack_end"
          }
        },
        {
          "currentStateName": "StandbyShow_01",
          "audioEvent": {
            "text": "Stop_sfx_standbyShow_xiangling_fruitsCall"
          }
        },
        {
          "currentStateName": "StandbyShow_01",
          "audioEvent": {
            "text": "Stop_sfx_standbyShow_xiangling_eat"
          }
        },
        {
          "currentStateName": "StandbyShow_02",
          "audioEvent": {
            "text": "Stop_sfx_standbyShow_xiangling_fruitsCall"
          }
        },
        {
          "currentStateName": "StandbyShow_02",
          "audioEvent": {
            "text": "Stop_sfx_standbyShow_xiangling_eat_tomatoes"
          }
        },
        {
          "currentStateName": "SlipFaceWall",
          "audioEvent": {
            "text": "Stop_sfx_char_slipWall"
          }
        },
        {
          "currentStateName": "SlipBackWall",
          "audioEvent": {
            "text": "Stop_sfx_char_slipWall"
          }
        },
        {
          "currentStateName": "Fly",
          "audioEvent": {
            "text": "Stop_sfx_char_fly"
          }
        },
        {
          "currentStateName": "ClimbMove0",
          "audioEvent": {
            "text": "Stop_vo_external_1P_3D"
          },
          "otherStateNames": ["ClimbIdle", "ClimbMove1"],
          "usage": "Except"
        },
        {
          "currentStateName": "DiveDash",
          "audioEvent": {
            "text": "Stop_sfx_char_dive_dash_lp"
          },
          "otherStateNames": ["DiveDashB", "DiveTurn", "DiveTurn2"],
          "usage": "Except"
        },
        {
          "currentStateName": "DiveStream",
          "audioEvent": {
            "text": "Stop_sfx_char_dive_stream_lp"
          },
          "otherStateNames": ["DiveStreamRoll_L", "DiveStreamRoll_R"],
          "usage": "Except"
        },
        {
          "currentStateName": "DiveMoveAS",
          "audioEvent": {
            "text": "Stop_sfx_char_dive_move_AS"
          }
        },
        {
          "currentStateName": "Dive_Out_DashFLoop",
          "audioEvent": {
            "text": "Stop_sfx_char_dive_out_dashFLoop"
          }
        },
        {
          "currentStateName": "DiveIdle",
          "audioEvent": {
            "text": "Stop_sfx_char_dive_dash_lp"
          }
        },
        {
          "currentStateName": "Dive_Out_Up",
          "audioEvent": {
            "text": "Stop_sfx_char_dive_moveF_A"
          }
        },
        {
          "currentStateName": "DiveChannel_Loop",
          "audioEvent": {
            "text": "Stop_vfx_Avatar_Diving_Channel_LP"
          }
        },
        {
          "currentStateName": "DiveMoveU_A",
          "audioEvent": {
            "text": "Stop_sfx_char_dive_moveU_A"
          }
        },
        {
          "currentStateName": "DiveMoveF_A",
          "audioEvent": {
            "text": "Stop_sfx_char_dive_moveF_A"
          },
          "otherStateNames": ["DiveMoveF_B"],
          "usage": "Except"
        }
      ],
      "recurrentSpeeches": {
        "Standby": {
          "start": {
            "upper": 60.0,
            "lower": 50.0
          },
          "interval": {
            "upper": 30.0,
            "lower": 40.0
          },
          "eventName": {
            "text": ""
          }
        },
        "Walk": {
          "start": {
            "upper": 16.0,
            "lower": 13.0
          },
          "interval": {
            "upper": 14.0,
            "lower": 10.0
          },
          "eventName": {
            "text": ""
          }
        },
        "Run": {
          "start": {
            "upper": 13.0,
            "lower": 9.0
          },
          "interval": {
            "upper": 11.0,
            "lower": 8.0
          },
          "eventName": {
            "text": ""
          }
        },
        "Sprint": {
          "start": {
            "upper": 12.0,
            "lower": 7.0
          },
          "interval": {
            "upper": 9.0,
            "lower": 6.0
          },
          "eventName": {
            "text": ""
          }
        }
      }
    },
    "moveStateAudio": {
      "onStateBegin": [
        {
          "currentStateName": "Fly",
          "audioEvent": {
            "text": "Play_sfx_char_fly"
          }
        },
        {
          "currentStateName": "Air",
          "audioEvent": {
            "text": "Play_sfx_char_drop"
          },
          "otherStateNames": ["Fly"],
          "usage": "InSet"
        },
        {
          "currentStateName": "CombatDive",
          "audioEvent": {
            "text": "Play_sfx_char_dive_move_swim_idle"
          },
          "otherStateNames": ["Dive"],
          "usage": "Except"
        },
        {
          "currentStateName": "Dive",
          "audioEvent": {
            "text": "Play_sfx_char_dive_move_swim_idle"
          },
          "otherStateNames": ["CombatDive"],
          "usage": "Except"
        }
      ],
      "onStateEnd": [
        {
          "currentStateName": "Fly",
          "audioEvent": {
            "text": "Stop_sfx_char_fly"
          }
        },
        {
          "currentStateName": "Air",
          "audioEvent": {
            "text": "Stop_sfx_char_drop"
          }
        },
        {
          "currentStateName": "Dive",
          "audioEvent": {
            "text": "Stop_sfx_char_dive_move_swim_idle"
          },
          "otherStateNames": ["CombatDive"],
          "usage": "Except"
        },
        {
          "currentStateName": "CombatDive",
          "audioEvent": {
            "text": "Stop_sfx_char_dive_move_swim_idle"
          },
          "otherStateNames": ["Dive"],
          "usage": "Except"
        }
      ]
    },
    "voiceSwitch": {
      "text": "Switch_Xiangling"
    },
    "bodyTypeSwitch": {
      "text": "Switch_Girl"
    },
    "listenerLiftup": 1.5,
    "surfaceProberLiftup": 1.5
  },
  "ONIAJBGGJHD": "AvatarGirl",
  "perform": {
    "standby": {
      "minTime": 10.0,
      "maxTime": 20.0,
      "performIDs": [201, 202, 200, 200]
    }
  }
}
