[
  {
    "Default": {
      "$type": "ConfigAbility",
      "abilityName": "Human_Male_Pole_ResetBackSprintCD",
      "abilityMixins": [
        {
          "$type": "APJKOLPHCGH",
          "stateIDs": ["GroupAttack01", "GroupAttack02"],
          "exitActions": [
            {
              "$type": "DOANGHCALGB",
              "skillIDs": [401]
            }
          ],
          "DGFCLAIDIFI": ""
        }
      ]
    }
  },
  {
    "Default": {
      "$type": "ConfigAbility",
      "abilityName": "TestFixedCombatMove",
      "onAbilityStart": [
        {
          "$type": "SetGlobalPos",
          "target": "SelfAttackTarget",
          "shieldHP": true,
          "key": "_ABILITY_Millelith_Target_Pos",
          "born": {
            "$type": "ConfigBornByTarget"
          },
          "setTarget": false
        },
        {
          "$type": "JNOAKAHBIGM",
          "toPos": {
            "$type": "ConfigBornByGlobalValue",
            "offset": {
              "x": 0.0,
              "y": 0.0,
              "z": 4.0
            },
            "direction": {
              "$type": "ConfigDirectionByEntity",
              "angleOffset": {
                "x": 0.0,
                "y": 30.0,
                "z": 0.0
              }
            },
            "positionKey": "_ABILITY_Millelith_Target_Pos",
            "directionKey": ""
          }
        },
        {
          "$type": "IDNGFEEBPAM",
          "boolID": "Surround",
          "value": true
        }
      ]
    }
  },
  {
    "Default": {
      "$type": "ConfigAbility",
      "abilityName": "Human_Male_Pole_ResetSurroundPosition",
      "onAdded": [
        {
          "$type": "AddGlobalValue",
          "value": -10.0,
          "key": "_ABILITY_Millelith_SorroundPositionID",
          "useLimitRange": true,
          "maxValue": 0.0,
          "minValue": 0.0
        }
      ],
      "onAbilityStart": [
        {
          "$type": "AddGlobalValue",
          "value": -10.0,
          "key": "_ABILITY_Millelith_SorroundPositionID",
          "useLimitRange": true,
          "maxValue": 0.0,
          "minValue": 0.0
        }
      ]
    }
  },
  {
    "Default": {
      "$type": "ConfigAbility",
      "abilityName": "Human_Male_Pole_TurnToSurround",
      "abilityMixins": [
        {
          "$type": "APJKOLPHCGH",
          "stateIDs": ["TurnToSurround"],
          "enterActions": [
            {
              "$type": "IDNGFEEBPAM",
              "boolID": "Surround",
              "value": true
            }
          ],
          "DGFCLAIDIFI": ""
        }
      ]
    }
  },
  {
    "Default": {
      "$type": "ConfigAbility",
      "abilityName": "Human_Male_Pole_WaitState",
      "abilityMixins": [
        {
          "$type": "APJKOLPHCGH",
          "stateIDs": ["Wait"],
          "enterActions": [
            {
              "$type": "TriggerAbility",
              "abilityName": "Human_Male_Pole_ResetSurroundPosition"
            },
            {
              "$type": "IDNGFEEBPAM",
              "boolID": "Wait",
              "value": true
            },
            {
              "$type": "IDNGFEEBPAM",
              "boolID": "Surround"
            },
            {
              "$type": "ApplyModifier",
              "modifierName": "WaitTimer"
            },
            {
              "$type": "AddGlobalValue",
              "otherTargets": {
                "$type": "SelectTargetsByShape",
                "shapeName": "CircleR25",
                "campTargetType": "AllExceptSelf",
                "doOffStage": 1.0
              },
              "value": 1.0,
              "key": "_ABILITY_Count_WaitingSoldiers",
              "useLimitRange": true,
              "maxValue": 4.0,
              "minValue": 0.0
            }
          ],
          "DGFCLAIDIFI": ""
        }
      ],
      "modifiers": {
        "WaitTimer": {
          "modifierName": "",
          "duration": 5.0,
          "elementDurability": 100.0,
          "onRemoved": [
            {
              "$type": "IDNGFEEBPAM",
              "boolID": "Wait"
            }
          ]
        }
      }
    }
  },
  {
    "Default": {
      "$type": "ConfigAbility",
      "abilityName": "Human_Male_Pole_SetSurroundPosition",
      "abilityMixins": [
        {
          "$type": "AttachModifierToSelfGlobalValueMixin",
          "globalValueKey": "_ABILITY_Millelith_SorroundPositionID",
          "gvInTalk": 0.0,
          "valueSteps": [-0.5, 0.5, 1.5, 2.5, 3.5],
          "modifierNameSteps": ["T", "T", "T", "T"],
          "actionQueues": [
            [
              {
                "$type": "JNOAKAHBIGM",
                "setPoint": false
              }
            ],
            [
              {
                "$type": "SetGlobalPos",
                "target": "SelfAttackTarget",
                "shieldHP": true,
                "key": "_ABILITY_Millelith_Target_Pos",
                "born": {
                  "$type": "ConfigBornByTarget",
                  "offset": {
                    "x": 2.4000000953674316,
                    "y": 0.0,
                    "z": 1.5
                  }
                },
                "setTarget": false
              },
              {
                "$type": "JNOAKAHBIGM",
                "toPos": {
                  "$type": "ConfigBornByGlobalValue",
                  "positionKey": "_ABILITY_Millelith_Target_Pos",
                  "directionKey": ""
                }
              }
            ],
            [
              {
                "$type": "SetGlobalPos",
                "target": "SelfAttackTarget",
                "shieldHP": true,
                "key": "_ABILITY_Millelith_Target_Pos",
                "born": {
                  "$type": "ConfigBornByTarget",
                  "offset": {
                    "x": -2.4000000953674316,
                    "y": 0.0,
                    "z": 1.5
                  }
                },
                "setTarget": false
              },
              {
                "$type": "JNOAKAHBIGM",
                "toPos": {
                  "$type": "ConfigBornByGlobalValue",
                  "positionKey": "_ABILITY_Millelith_Target_Pos",
                  "directionKey": ""
                }
              }
            ],
            [
              {
                "$type": "SetGlobalPos",
                "target": "SelfAttackTarget",
                "shieldHP": true,
                "key": "_ABILITY_Millelith_Target_Pos",
                "born": {
                  "$type": "ConfigBornByTarget",
                  "offset": {
                    "x": 0.0,
                    "y": 0.0,
                    "z": -3.0
                  }
                },
                "setTarget": false
              },
              {
                "$type": "JNOAKAHBIGM",
                "toPos": {
                  "$type": "ConfigBornByGlobalValue",
                  "positionKey": "_ABILITY_Millelith_Target_Pos",
                  "directionKey": ""
                }
              }
            ]
          ],
          "removeAppliedModifier": false
        }
      ],
      "modifiers": {
        "T": {
          "modifierName": "",
          "elementDurability": 100.0
        }
      }
    }
  },
  {
    "Default": {
      "$type": "ConfigAbility",
      "abilityName": "Monster_Millelith_TurnToOrdered",
      "abilityMixins": [
        {
          "$type": "APJKOLPHCGH",
          "stateIDs": ["TurnToOrdered"],
          "enterActions": [
            {
              "$type": "ApplyModifier",
              "modifierName": "UNIQUE_OrderedState"
            }
          ],
          "DGFCLAIDIFI": ""
        }
      ],
      "modifiers": {
        "UNIQUE_OrderedState": {
          "modifierName": "",
          "forceTriggerWhenChangeAuthority": true,
          "duration": 5.0,
          "elementDurability": 100.0,
          "onAdded": [
            {
              "$type": "IDNGFEEBPAM",
              "boolID": "Ordered",
              "value": true
            }
          ],
          "onRemoved": [
            {
              "$type": "IDNGFEEBPAM",
              "boolID": "Ordered"
            },
            {
              "$type": "DOANGHCALGB",
              "skillIDs": [201, 202]
            }
          ]
        }
      }
    }
  },
  {
    "Default": {
      "$type": "ConfigAbility",
      "abilityName": "Monster_Millelith_OutOfOrdered",
      "onAbilityStart": [
        {
          "$type": "RemoveUniqueModifier",
          "modifierName": "UNIQUE_OrderedState"
        }
      ]
    }
  }
]
