[
  {
    "Default": {
      "$type": "ConfigAbility",
      "abilityName": "Monster_Brute_Electric_Axe_State",
      "abilityMixins": [
        {
          "$type": "LEOGLBFIELL",
          "poseIDs": [212, 222],
          "modifierName": "ElectricState"
        }
      ],
      "modifiers": {
        "ElectricAxeState": {
          "modifierName": "",
          "elementType": "Electric",
          "elementDurability": 75.0,
          "overrideWeaponElement": true,
          "onAdded": [
            {
              "$type": "IDNGFEEBPAM",
              "target": "Owner",
              "boolID": "ElectricAxe",
              "value": true
            },
            {
              "$type": "SetAnimatorBool",
              "target": "Owner",
              "boolID": "ElectricAxeTag",
              "value": true
            },
            {
              "$type": "AttachEffect",
              "rotationDampTime": "Eff_Monster_Brute_Electric_Axe_ElectricAxe",
              "PPPDJGDDOGD": 1.0,
              "AJDILHJFNKE": -1.0
            }
          ],
          "onRemoved": [
            {
              "$type": "IDNGFEEBPAM",
              "target": "Owner",
              "boolID": "ElectricAxe"
            },
            {
              "$type": "SetAnimatorBool",
              "target": "Owner",
              "boolID": "ElectricAxeTag"
            },
            {
              "$type": "DOANGHCALGB",
              "skillIDs": [602]
            }
          ],
          "onKill": [
            {
              "$type": "RemoveModifier",
              "modifierName": "ElectricAxeState"
            }
          ]
        },
        "ElectricState": {
          "modifierName": "",
          "elementDurability": 100.0,
          "modifierMixins": [
            {
              "$type": "ReplaceEventPatternMixin",
              "oldPatterns": [
                "Monster_Brute_Axe_Attack01",
                "Monster_Brute_Axe_Attack02",
                "Monster_Brute_Axe_Attack03",
                "Monster_Brute_Axe_Attack04",
                "Monster_Brute_Axe_Whirl_Loop",
                "Monster_Brute_Axe_Whirl_AS",
                "Monster_Brute_Axe_JumpAttack"
              ],
              "newPatterns": [
                "Monster_Brute_Electric_Axe_Attack01",
                "Monster_Brute_Electric_Axe_Attack02",
                "Monster_Brute_Electric_Axe_Attack03",
                "Monster_Brute_Electric_Axe_Attack04",
                "Monster_Brute_Electric_Axe_Whirl_Loop",
                "Monster_Brute_Electric_Axe_Whirl_AS",
                "Monster_Brute_Electric_Axe_JumpAttack"
              ]
            }
          ],
          "properties": {
            "Actor_EndureDelta": 0.800000011920929
          },
          "onAdded": [
            {
              "$type": "OHPMBBJIJFG",
              "value": 1.0
            }
          ],
          "onRemoved": [
            {
              "$type": "OHPMBBJIJFG",
              "value": 5.0
            }
          ]
        }
      },
      "onAbilityStart": [
        {
          "$type": "ApplyModifier",
          "otherTargets": {
            "$type": "SelectTargetsByEquipParts",
            "equipPartNames": ["equip01"]
          },
          "modifierName": "ElectricAxeState"
        },
        {
          "$type": "FireEffect",
          "otherTargets": {
            "$type": "SelectTargetsByEquipParts",
            "equipPartNames": ["equip01"]
          },
          "rotationDampTime": "Eff_Monster_Brute_Electric_Axe_OnElectric",
          "born": {
            "$type": "ConfigBornByAttachPoint",
            "attachPointName": "Blade"
          },
          "PPPDJGDDOGD": 1.0,
          "AJDILHJFNKE": -1.0
        }
      ]
    }
  },
  {
    "Default": {
      "$type": "ConfigAbility",
      "abilityName": "Monster_Brute_Electric_Axe_WeatherState",
      "abilityMixins": [
        {
          "$type": "NLDMJPKPBLJ",
          "neuronNameList": ["WEATHER_STORM"],
          "modifierName": "Weather_Storm"
        }
      ],
      "modifiers": {
        "Weather_Storm": {
          "modifierName": "",
          "elementDurability": 100.0,
          "onAdded": [
            {
              "$type": "IDNGFEEBPAM",
              "boolID": "WeatherStorm",
              "value": true
            }
          ],
          "onRemoved": [
            {
              "$type": "IDNGFEEBPAM",
              "boolID": "WeatherStorm"
            }
          ]
        }
      }
    }
  },
  {
    "Default": {
      "$type": "ConfigAbility",
      "abilityName": "Monster_Brute_Electric_Axe_Steer",
      "abilityMixins": [
        {
          "$type": "IILHMBGONGM",
          "steerStateIDs": ["Attack01"],
          "startNormalizedTime": 0.11999999731779099,
          "endNormalizedTime": 0.20000000298023224,
          "angularSpeed": 180.0,
          "attackTrigger": "",
          "attackDistance": 2.0,
          "DGFCLAIDIFI": ""
        },
        {
          "$type": "IILHMBGONGM",
          "steerStateIDs": ["Attack02"],
          "startNormalizedTime": 0.1599999964237213,
          "endNormalizedTime": 0.41999998688697815,
          "angularSpeed": 180.0,
          "attackTrigger": "",
          "attackDistance": 2.0,
          "DGFCLAIDIFI": ""
        },
        {
          "$type": "IILHMBGONGM",
          "steerStateIDs": ["Attack03"],
          "startNormalizedTime": 0.18000000715255737,
          "endNormalizedTime": 0.27000001072883606,
          "angularSpeed": 180.0,
          "attackTrigger": "",
          "attackDistance": 2.0,
          "DGFCLAIDIFI": ""
        },
        {
          "$type": "IILHMBGONGM",
          "steerStateIDs": ["Attack04"],
          "startNormalizedTime": 0.25,
          "endNormalizedTime": 0.5,
          "angularSpeed": 180.0,
          "attackTrigger": "",
          "attackDistance": 2.0,
          "DGFCLAIDIFI": ""
        },
        {
          "$type": "IILHMBGONGM",
          "steerStateIDs": ["Whirl_BS", "Whirl_Loop"],
          "startNormalizedTime": 0.6000000238418579,
          "endNormalizedTime": 10.0,
          "angularSpeed": 60.0,
          "attackTrigger": "",
          "attackDistance": 2.0,
          "DGFCLAIDIFI": ""
        },
        {
          "$type": "IILHMBGONGM",
          "steerStateIDs": ["CrashAttack"],
          "startNormalizedTime": 0.10000000149011612,
          "endNormalizedTime": 0.23000000417232513,
          "angularSpeed": 180.0,
          "attackTrigger": "",
          "attackDistance": 3.0,
          "DGFCLAIDIFI": ""
        },
        {
          "$type": "IILHMBGONGM",
          "steerStateIDs": ["CrashAttack"],
          "startNormalizedTime": 0.33000001311302185,
          "endNormalizedTime": 0.41999998688697815,
          "angularSpeed": 120.0,
          "attackTrigger": "",
          "attackDistance": 3.0,
          "DGFCLAIDIFI": ""
        },
        {
          "$type": "IILHMBGONGM",
          "steerStateIDs": ["PickUp01", "PickUp02"],
          "endNormalizedTime": 0.10999999940395355,
          "angularSpeed": 360.0,
          "attackTrigger": "",
          "attackDistance": 2.0,
          "DGFCLAIDIFI": ""
        },
        {
          "$type": "IILHMBGONGM",
          "steerStateIDs": ["PickUp01", "PickUp02"],
          "startNormalizedTime": 0.800000011920929,
          "endNormalizedTime": 0.8999999761581421,
          "angularSpeed": 360.0,
          "attackTrigger": "",
          "attackDistance": 2.0,
          "DGFCLAIDIFI": ""
        },
        {
          "$type": "IILHMBGONGM",
          "steerStateIDs": ["Throw"],
          "startNormalizedTime": 0.25,
          "endNormalizedTime": 0.44999998807907104,
          "angularSpeed": 360.0,
          "attackTrigger": "",
          "attackDistance": 2.0,
          "DGFCLAIDIFI": ""
        },
        {
          "$type": "IILHMBGONGM",
          "steerStateIDs": ["CastAndThrow"],
          "startNormalizedTime": 0.5799999833106995,
          "endNormalizedTime": 0.699999988079071,
          "angularSpeed": 360.0,
          "attackTrigger": "",
          "attackDistance": 2.0,
          "DGFCLAIDIFI": ""
        }
      ]
    }
  },
  {
    "Default": {
      "$type": "ConfigAbility",
      "abilityName": "Monster_Brute_Electric_Axe_Whirl",
      "abilityMixins": [
        {
          "$type": "AttachToStateIDMixin",
          "stateIDs": ["Whirl_Loop"],
          "modifierName": "WhirlLoop",
          "DGFCLAIDIFI": ""
        }
      ],
      "modifiers": {
        "WhirlEffect": {
          "modifierName": "",
          "elementDurability": 100.0,
          "onAdded": [
            {
              "$type": "AttachEffect",
              "predicates": [
                {
                  "$type": "ByAnimatorFloat",
                  "logic": "Lesser",
                  "value": 212.0,
                  "parameter": "PoseID"
                }
              ],
              "rotationDampTime": "Eff_Monster_Brute_None_Axe_Whirl_Loop",
              "PPPDJGDDOGD": 1.0,
              "AJDILHJFNKE": -1.0
            },
            {
              "$type": "AttachEffect",
              "predicates": [
                {
                  "$type": "ByAnimatorFloat",
                  "logic": "GreaterOrEqual",
                  "value": 212.0,
                  "parameter": "PoseID"
                }
              ],
              "rotationDampTime": "Eff_Monster_Brute_Electric_Axe_Whirl_Loop_Big",
              "PPPDJGDDOGD": 1.0,
              "AJDILHJFNKE": -1.0
            },
            {
              "$type": "EnablePushColliderName",
              "pushColliderNames": ["PushCollider_Whirl"],
              "setEnable": true
            }
          ],
          "onRemoved": [
            {
              "$type": "EnablePushColliderName",
              "pushColliderNames": ["PushCollider_Whirl"]
            }
          ]
        },
        "WhirlLoop": {
          "modifierName": "",
          "elementDurability": 100.0,
          "modifierMixins": [
            {
              "$type": "JJIHJPCPPGO",
              "abilityStates": ["ElementFrozen", "ElementPetrifaction"],
              "reject": true,
              "modifierName": "WhirlEffect"
            }
          ],
          "onRemoved": [
            {
              "$type": "FireEffect",
              "predicates": [
                {
                  "$type": "ByAnimatorFloat",
                  "logic": "GreaterOrEqual",
                  "value": 212.0,
                  "parameter": "PoseID"
                }
              ],
              "rotationDampTime": "Eff_Monster_Brute_Electric_Axe_Whirl_Loop_Big_Last",
              "PPPDJGDDOGD": 1.0,
              "AJDILHJFNKE": -1.0
            },
            {
              "$type": "FireEffect",
              "predicates": [
                {
                  "$type": "ByAnimatorFloat",
                  "logic": "Lesser",
                  "value": 212.0,
                  "parameter": "PoseID"
                }
              ],
              "rotationDampTime": "Eff_Monster_Brute_None_Axe_Whirl_Loop_Last",
              "PPPDJGDDOGD": 1.0,
              "AJDILHJFNKE": -1.0
            },
            {
              "$type": "TriggerAttackEvent",
              "predicates": [
                {
                  "$type": "ByAnimatorFloat",
                  "logic": "GreaterOrEqual",
                  "value": 212.0,
                  "parameter": "PoseID"
                }
              ],
              "attackEvent": {
                "attackPattern": {
                  "$type": "ConfigAttackCircle",
                  "triggerType": "TriggerNoRepeat",
                  "born": {
                    "$type": "ConfigBornBySelf",
                    "offset": {
                      "x": 0.0,
                      "y": 0.0,
                      "z": 1.5
                    }
                  },
                  "radius": 5.0
                },
                "attackInfo": {
                  "attackTag": "",
                  "attenuationTag": "",
                  "attenuationGroup": "default",
                  "attackProperty": {
                    "actorGrassSubHurtDelta": 0.5,
                    "actorWindSubHurtDelta": 0.0,
                    "elementType": "Electric",
                    "elementDurability": 100.0,
                    "strikeType": "Blunt",
                    "enBreak": 200.0,
                    "attackType": "Melee",
                    "GLKMCMDJBIK": 0.0
                  },
                  "hitPattern": {
                    "onHitEffectName": "default",
                    "hitImpulseY": "",
                    "hitImpulseType": "LV6"
                  },
                  "forceCameraShake": true,
                  "cameraShake": {
                    "shakeRange": 0.1599999964237213,
                    "shakeTime": 0.11999999731779099,
                    "shakeDistance": 25.0
                  }
                }
              },
              "targetType": "Enemy"
            },
            {
              "$type": "TriggerAttackEvent",
              "predicates": [
                {
                  "$type": "ByAnimatorFloat",
                  "logic": "Lesser",
                  "value": 212.0,
                  "parameter": "PoseID"
                }
              ],
              "attackEvent": {
                "attackPattern": {
                  "$type": "ConfigAttackCircle",
                  "triggerType": "TriggerNoRepeat",
                  "born": {
                    "$type": "ConfigBornBySelf",
                    "offset": {
                      "x": 0.0,
                      "y": 0.0,
                      "z": 1.5
                    }
                  },
                  "radius": 4.5
                },
                "attackInfo": {
                  "attackTag": "",
                  "attenuationTag": "",
                  "attenuationGroup": "default",
                  "attackProperty": {
                    "actorGrassSubHurtDelta": 0.5,
                    "actorWindSubHurtDelta": 0.0,
                    "elementDurability": 100.0,
                    "strikeType": "Blunt",
                    "enBreak": 200.0,
                    "attackType": "Melee",
                    "GLKMCMDJBIK": 0.0
                  },
                  "hitPattern": {
                    "onHitEffectName": "default",
                    "hitImpulseY": "",
                    "hitImpulseType": "LV6"
                  },
                  "forceCameraShake": true,
                  "cameraShake": {
                    "shakeRange": 0.05999999865889549,
                    "shakeTime": 0.11999999731779099
                  }
                }
              },
              "targetType": "Enemy"
            }
          ],
          "onAttackLanded": [
            {
              "$type": "SetAnimatorTrigger",
              "predicates": [
                {
                  "$type": "ByEntityTypes",
                  "entityTypes": ["Avatar", "Partner", "Vehicle"],
                  "useEventSource": true
                }
              ],
              "triggerID": "NextSkillTrigger"
            }
          ]
        }
      }
    }
  },
  {
    "Default": {
      "$type": "ConfigAbility",
      "abilityName": "Monster_Brute_Electric_Axe_PickUp01",
      "abilityMixins": [
        {
          "$type": "AttachToStateIDMixin",
          "stateIDs": ["PickUp01", "PickUp02", "CastAndThrow", "Throw"],
          "modifierName": "HoldSlime",
          "DGFCLAIDIFI": ""
        }
      ],
      "modifiers": {
        "PickUp01_Manager": {
          "modifierName": "",
          "duration": 0.9599999785423279,
          "elementDurability": 100.0,
          "onAdded": [
            {
              "$type": "ActCameraShake",
              "cameraShake": {
                "shakeType": "CustomVector",
                "shakeRange": 0.03999999910593033,
                "shakeTime": 0.09000000357627869,
                "shakeDir": {
                  "y": -1.0
                }
              }
            }
          ],
          "onRemoved": [
            {
              "$type": "ActCameraShake",
              "cameraShake": {
                "shakeType": "CustomVector",
                "shakeRange": 0.03999999910593033,
                "shakeTime": 0.09000000357627869,
                "shakeDir": {
                  "y": 1.0
                }
              }
            },
            {
              "$type": "TriggerAbility",
              "abilityName": "Monster_Brute_Electric_Axe_ElectricSlimeInHand"
            }
          ]
        },
        "HoldSlime": {
          "modifierName": "",
          "elementDurability": 100.0,
          "onRemoved": [
            {
              "$type": "RemoveUniqueModifier",
              "modifierName": "UNIQUE_Brute_Axe_ElectricSlimeInHand"
            },
            {
              "$type": "RemoveUniqueModifier",
              "modifierName": "UNIQUE_Brute_Axe_ElectricSlimeInHand_Positive"
            },
            {
              "$type": "SetGlobalValue",
              "value": 0.0,
              "key": "_SLIMETYPE_",
              "maxValue": 0.0,
              "minValue": 0.0
            }
          ]
        }
      },
      "onAbilityStart": [
        {
          "$type": "ApplyModifier",
          "modifierName": "PickUp01_Manager"
        }
      ]
    }
  },
  {
    "Default": {
      "$type": "ConfigAbility",
      "abilityName": "Monster_Brute_Electric_Axe_PickUp02",
      "abilityMixins": [
        {
          "$type": "LEOGLBFIELL",
          "poseIDs": [212, 222],
          "modifierName": "ResetSlimeType"
        }
      ],
      "modifiers": {
        "PickUp02_Manager": {
          "modifierName": "",
          "duration": 0.9599999785423279,
          "elementDurability": 100.0,
          "onAdded": [
            {
              "$type": "ActCameraShake",
              "cameraShake": {
                "shakeType": "CustomVector",
                "shakeRange": 0.03999999910593033,
                "shakeTime": 0.09000000357627869,
                "shakeDir": {
                  "y": -1.0
                }
              }
            },
            {
              "$type": "Randomed",
              "chance": 0.5,
              "successActions": [
                {
                  "$type": "SetGlobalValue",
                  "value": 1.0,
                  "key": "_SLIMETYPE_",
                  "maxValue": 0.0,
                  "minValue": 0.0
                }
              ]
            }
          ],
          "onRemoved": [
            {
              "$type": "ActCameraShake",
              "cameraShake": {
                "shakeType": "CustomVector",
                "shakeRange": 0.03999999910593033,
                "shakeTime": 0.09000000357627869,
                "shakeDir": {
                  "y": 1.0
                }
              }
            },
            {
              "$type": "TriggerAbility",
              "predicates": [
                {
                  "$type": "ByTargetGlobalValue",
                  "key": "_SLIMETYPE_",
                  "value": 0.0
                }
              ],
              "abilityName": "Monster_Brute_Electric_Axe_ElectricSlimeInHand"
            },
            {
              "$type": "TriggerAbility",
              "predicates": [
                {
                  "$type": "ByTargetGlobalValue",
                  "key": "_SLIMETYPE_",
                  "value": 1.0
                }
              ],
              "abilityName": "Monster_Brute_Electric_Axe_ElectricSlimeInHand_Positive"
            }
          ]
        },
        "ResetSlimeType": {
          "modifierName": "",
          "elementDurability": 100.0,
          "onRemoved": [
            {
              "$type": "SetGlobalValue",
              "value": 0.0,
              "key": "_SLIMETYPE_",
              "maxValue": 0.0,
              "minValue": 0.0
            }
          ]
        }
      },
      "onAdded": [
        {
          "$type": "SetGlobalValue",
          "value": 0.0,
          "key": "_SLIMETYPE_",
          "maxValue": 0.0,
          "minValue": 0.0
        }
      ],
      "onAbilityStart": [
        {
          "$type": "ApplyModifier",
          "modifierName": "PickUp02_Manager"
        }
      ]
    }
  },
  {
    "Default": {
      "$type": "ConfigAbility",
      "abilityName": "Monster_Brute_Electric_Axe_ElectricSlimeInHand",
      "modifiers": {
        "UNIQUE_Brute_Axe_ElectricSlimeInHand": {
          "stacking": "Unique",
          "modifierName": "",
          "forceTriggerWhenChangeAuthority": true,
          "elementDurability": 100.0,
          "onAdded": [
            {
              "$type": "AttachEffect",
              "rotationDampTime": "Eff_Monster_Brute_Electric_SlimeThrow_ElectricSlime",
              "PPPDJGDDOGD": 1.0,
              "AJDILHJFNKE": -1.0
            }
          ]
        }
      },
      "onAbilityStart": [
        {
          "$type": "ApplyModifier",
          "modifierName": "UNIQUE_Brute_Axe_ElectricSlimeInHand"
        }
      ]
    }
  },
  {
    "Default": {
      "$type": "ConfigAbility",
      "abilityName": "Monster_Brute_Electric_Axe_ElectricSlimeInHand_Positive",
      "modifiers": {
        "UNIQUE_Brute_Axe_ElectricSlimeInHand_Positive": {
          "stacking": "Unique",
          "modifierName": "",
          "forceTriggerWhenChangeAuthority": true,
          "elementDurability": 100.0,
          "onAdded": [
            {
              "$type": "AttachEffect",
              "rotationDampTime": "Eff_Monster_Brute_Electric_SlimeThrow_ElectricSlime_Positive",
              "PPPDJGDDOGD": 1.0,
              "AJDILHJFNKE": -1.0
            }
          ]
        }
      },
      "onAbilityStart": [
        {
          "$type": "ApplyModifier",
          "modifierName": "UNIQUE_Brute_Axe_ElectricSlimeInHand_Positive"
        }
      ]
    }
  },
  {
    "Default": {
      "$type": "ConfigAbility",
      "abilityName": "Monster_Brute_Electric_Axe_ThrowSlime",
      "onAbilityStart": [
        {
          "$type": "RemoveUniqueModifier",
          "modifierName": "UNIQUE_Brute_Axe_ElectricSlimeInHand"
        },
        {
          "$type": "RemoveUniqueModifier",
          "modifierName": "UNIQUE_Brute_Axe_ElectricSlimeInHand_Positive"
        },
        {
          "$type": "TriggerBullet",
          "predicates": [
            {
              "$type": "ByTargetGlobalValue",
              "key": "_SLIMETYPE_",
              "value": 0.0
            }
          ],
          "bulletID": 42102017,
          "born": {
            "$type": "ConfigBornByTarget",
            "offset": {
              "x": 0.0,
              "y": 2.0,
              "z": 2.0
            }
          }
        },
        {
          "$type": "TriggerBullet",
          "predicates": [
            {
              "$type": "ByTargetGlobalValue",
              "key": "_SLIMETYPE_",
              "value": 1.0
            }
          ],
          "bulletID": 42102018,
          "born": {
            "$type": "ConfigBornByTarget",
            "offset": {
              "x": 0.0,
              "y": 2.0,
              "z": 2.0
            }
          }
        }
      ]
    }
  },
  {
    "Default": {
      "$type": "ConfigAbility",
      "abilityName": "Monster_Brute_Electric_Axe_CastAndThrowSlime",
      "onAbilityStart": [
        {
          "$type": "RemoveUniqueModifier",
          "modifierName": "UNIQUE_Brute_Axe_ElectricSlimeInHand"
        },
        {
          "$type": "TriggerBullet",
          "bulletID": 42102016,
          "born": {
            "$type": "ConfigBornByTarget",
            "offset": {
              "x": 0.0,
              "y": 2.0,
              "z": 2.0
            }
          }
        }
      ]
    }
  },
  {
    "Default": {
      "$type": "ConfigAbility",
      "abilityName": "Brute_Electric_Axe_ElectricSlime_Explode_Small",
      "modifiers": {
        "ElectricSlime_Trail": {
          "modifierName": "",
          "elementType": "Electric",
          "elementDurability": 20.0,
          "onAdded": [
            {
              "$type": "AttachEffect",
              "rotationDampTime": "Eff_Monster_Brute_Electric_SlimeThrow_Trail",
              "PPPDJGDDOGD": 1.0,
              "AJDILHJFNKE": -1.0
            }
          ]
        }
      },
      "onAdded": [
        {
          "$type": "AttachModifier",
          "modifierName": "ElectricSlime_Trail"
        }
      ],
      "onAbilityStart": [
        {
          "$type": "RemoveModifier",
          "modifierName": "ElectricSlime_Trail"
        },
        {
          "$type": "TriggerAttackEvent",
          "attackEvent": {
            "attackPattern": {
              "$type": "ConfigAttackSphere",
              "triggerType": "TriggerNoRepeat",
              "born": {
                "$type": "ConfigBornByCollisionPoint"
              },
              "radius": 1.0
            },
            "attackInfo": {
              "attackTag": "",
              "attenuationTag": "",
              "attenuationGroup": "default",
              "attackProperty": {
                "actorGrassSubHurtDelta": 0.375,
                "actorWindSubHurtDelta": 0.0,
                "elementType": "Electric",
                "elementDurability": 25.0,
                "strikeType": "Blunt",
                "enBreak": 50.0,
                "GLKMCMDJBIK": 0.0
              },
              "hitPattern": {
                "onHitEffectName": "default",
                "hitImpulseY": "",
                "hitImpulseType": "LV5",
                "hitHaltTimeScale": 0.05000000074505806
              },
              "cameraShake": {
                "shakeRange": 0.05999999865889549,
                "shakeTime": 0.30000001192092896,
                "extension": {
                  "baseCycle": 0.07999999821186066,
                  "cycleDamping": 0.03999999910593033,
                  "rangeAttenuation": 0.8999999761581421
                }
              },
              "canBeModifiedBy": "OriginOwner"
            }
          },
          "targetType": "Enemy"
        },
        {
          "$type": "FireEffect",
          "rotationDampTime": "Eff_Monster_Brute_Electric_SlimeThrow_ExplodeSmall",
          "born": {
            "$type": "ConfigBornByCollisionPoint"
          },
          "PPPDJGDDOGD": 1.0,
          "AJDILHJFNKE": -1.0
        }
      ]
    }
  },
  {
    "Default": {
      "$type": "ConfigAbility",
      "abilityName": "Brute_Electric_Axe_ElectricSlime_Explode",
      "modifiers": {
        "ElectricSlime_Trail": {
          "modifierName": "",
          "elementType": "Electric",
          "elementDurability": 50.0,
          "onAdded": [
            {
              "$type": "AttachEffect",
              "rotationDampTime": "Eff_Monster_Brute_Electric_SlimeThrow_Trail",
              "PPPDJGDDOGD": 1.0,
              "AJDILHJFNKE": -1.0
            }
          ]
        }
      },
      "onAdded": [
        {
          "$type": "AttachModifier",
          "modifierName": "ElectricSlime_Trail"
        }
      ],
      "onAbilityStart": [
        {
          "$type": "RemoveModifier",
          "modifierName": "ElectricSlime_Trail"
        },
        {
          "$type": "TriggerAttackEvent",
          "attackEvent": {
            "attackPattern": {
              "$type": "ConfigAttackSphere",
              "triggerType": "TriggerNoRepeat",
              "born": {
                "$type": "ConfigBornByCollisionPoint"
              },
              "radius": 2.5
            },
            "attackInfo": {
              "attackTag": "",
              "attenuationTag": "",
              "attenuationGroup": "default",
              "attackProperty": {
                "actorGrassSubHurtDelta": 0.625,
                "actorWindSubHurtDelta": 0.0,
                "elementType": "Electric",
                "elementDurability": 50.0,
                "strikeType": "Blunt",
                "enBreak": 100.0,
                "GLKMCMDJBIK": 0.0
              },
              "hitPattern": {
                "onHitEffectName": "default",
                "hitImpulseY": "",
                "hitImpulseType": "LV5",
                "hitHaltTimeScale": 0.05000000074505806
              },
              "forceCameraShake": true,
              "cameraShake": {
                "shakeRange": 0.20000000298023224,
                "shakeTime": 0.30000001192092896,
                "shakeDistance": 25.0,
                "extension": {
                  "baseCycle": 0.07999999821186066,
                  "cycleDamping": 0.03999999910593033,
                  "rangeAttenuation": 0.8999999761581421
                }
              },
              "canBeModifiedBy": "OriginOwner"
            }
          },
          "targetType": "Enemy"
        },
        {
          "$type": "FireEffect",
          "rotationDampTime": "Eff_Monster_Brute_Electric_SlimeThrow_Explode",
          "born": {
            "$type": "ConfigBornByCollisionPoint"
          },
          "PPPDJGDDOGD": 1.0,
          "AJDILHJFNKE": -1.0
        }
      ]
    }
  },
  {
    "Default": {
      "$type": "ConfigAbility",
      "abilityName": "Brute_Electric_Axe_ElectricSlime_Explode_Positive",
      "modifiers": {
        "ElectricSlime_Trail": {
          "modifierName": "",
          "elementType": "Electric",
          "elementDurability": 50.0,
          "onAdded": [
            {
              "$type": "AttachEffect",
              "rotationDampTime": "Eff_Monster_Brute_Electric_SlimeThrow_Trail_Positive",
              "PPPDJGDDOGD": 1.0,
              "AJDILHJFNKE": -1.0
            }
          ]
        }
      },
      "onAdded": [
        {
          "$type": "AttachModifier",
          "modifierName": "ElectricSlime_Trail"
        }
      ],
      "onAbilityStart": [
        {
          "$type": "RemoveModifier",
          "modifierName": "ElectricSlime_Trail"
        },
        {
          "$type": "TriggerAttackEvent",
          "attackEvent": {
            "attackPattern": {
              "$type": "ConfigAttackSphere",
              "triggerType": "TriggerNoRepeat",
              "born": {
                "$type": "ConfigBornByCollisionPoint"
              },
              "radius": 2.5
            },
            "attackInfo": {
              "attackTag": "",
              "attenuationTag": "",
              "attenuationGroup": "default",
              "attackProperty": {
                "actorGrassSubHurtDelta": 0.75,
                "actorWindSubHurtDelta": 0.0,
                "elementType": "Electric",
                "elementDurability": 75.0,
                "strikeType": "Blunt",
                "enBreak": 100.0,
                "GLKMCMDJBIK": 0.0
              },
              "hitPattern": {
                "onHitEffectName": "default",
                "hitImpulseY": "",
                "hitImpulseType": "LV5",
                "hitHaltTimeScale": 0.05000000074505806
              },
              "forceCameraShake": true,
              "cameraShake": {
                "shakeRange": 0.20000000298023224,
                "shakeTime": 0.30000001192092896,
                "shakeDistance": 25.0,
                "extension": {
                  "baseCycle": 0.07999999821186066,
                  "cycleDamping": 0.03999999910593033,
                  "rangeAttenuation": 0.8999999761581421
                }
              },
              "canBeModifiedBy": "OriginOwner"
            }
          },
          "targetType": "Enemy"
        },
        {
          "$type": "FireEffect",
          "rotationDampTime": "Eff_Monster_Brute_Electric_SlimeThrow_Explode_Positive",
          "born": {
            "$type": "ConfigBornByCollisionPoint",
            "alongGround": true
          },
          "PPPDJGDDOGD": 1.0,
          "AJDILHJFNKE": -1.0
        }
      ]
    }
  },
  {
    "Default": {
      "$type": "ConfigAbility",
      "abilityName": "Monster_Brute_Electric_Axe_LightningRod",
      "abilityMixins": [
        {
          "$type": "AttachToStateIDMixin",
          "stateIDs": ["LightningRod_Loop_01"],
          "modifierName": "LightningRodLoop01_Handler",
          "DGFCLAIDIFI": ""
        },
        {
          "$type": "AttachToStateIDMixin",
          "stateIDs": ["LightningRod_Loop_02"],
          "modifierName": "LightningRodLoop02_Handler",
          "DGFCLAIDIFI": ""
        },
        {
          "$type": "AttachToStateIDMixin",
          "stateIDs": ["LightningRod_Loop_03"],
          "modifierName": "LightningRodLoop03_Handler",
          "DGFCLAIDIFI": ""
        },
        {
          "$type": "AttachToStateIDMixin",
          "stateIDs": [
            "LightningRod_BS",
            "LightningRod_Loop_01",
            "LightningRod_Loop_02",
            "LightningRod_Loop_03"
          ],
          "modifierName": "Brute_Electric_Axe_LightningRod",
          "DGFCLAIDIFI": ""
        }
      ],
      "modifiers": {
        "LightningRodLoop01_Handler": {
          "modifierName": "",
          "elementDurability": 100.0,
          "onAdded": [
            {
              "$type": "AttachEffect",
              "rotationDampTime": "Eff_Monster_Brute_Electric_Axe_LightningRod_Lightning",
              "PPPDJGDDOGD": 1.0,
              "AJDILHJFNKE": -1.0
            },
            {
              "$type": "ApplyModifier",
              "modifierName": "LightningRod01_Damage"
            }
          ]
        },
        "LightningRodLoop02_Handler": {
          "modifierName": "",
          "elementDurability": 100.0,
          "onAdded": [
            {
              "$type": "AttachEffect",
              "rotationDampTime": "Eff_Monster_Brute_Electric_Axe_LightningRod_Lightning",
              "PPPDJGDDOGD": 1.0,
              "AJDILHJFNKE": -1.0
            },
            {
              "$type": "ApplyModifier",
              "modifierName": "LightningRod02_Damage"
            }
          ]
        },
        "LightningRodLoop03_Handler": {
          "modifierName": "",
          "elementDurability": 100.0,
          "onAdded": [
            {
              "$type": "AttachEffect",
              "rotationDampTime": "Eff_Monster_Brute_Electric_Axe_LightningRod_Lightning",
              "PPPDJGDDOGD": 1.0,
              "AJDILHJFNKE": -1.0
            },
            {
              "$type": "ApplyModifier",
              "modifierName": "LightningRod03_Damage"
            }
          ]
        },
        "LightningRod01_Damage": {
          "modifierName": "",
          "duration": 0.10000000149011612,
          "elementDurability": 100.0,
          "onRemoved": [
            {
              "$type": "TriggerAbility",
              "abilityName": "Monster_Brute_Electric_Axe_LightningRod_Damage"
            }
          ]
        },
        "LightningRod02_Damage": {
          "modifierName": "",
          "duration": 0.10000000149011612,
          "elementDurability": 100.0,
          "onRemoved": [
            {
              "$type": "TriggerAbility",
              "abilityName": "Monster_Brute_Electric_Axe_LightningRod_Damage"
            }
          ]
        },
        "LightningRod03_Damage": {
          "modifierName": "",
          "duration": 0.10000000149011612,
          "elementDurability": 100.0,
          "onRemoved": [
            {
              "$type": "TriggerAbility",
              "abilityName": "Monster_Brute_Electric_Axe_LightningRod_Damage"
            }
          ]
        },
        "Brute_Electric_Axe_LightningRod": {
          "modifierName": "",
          "elementDurability": 100.0,
          "onAdded": [
            {
              "$type": "SetGlobalValue",
              "target": "CurTeamAvatars",
              "value": 1.0,
              "key": "_WATCHER_82108_",
              "maxValue": 0.0,
              "minValue": 0.0
            }
          ],
          "onRemoved": [
            {
              "$type": "SetGlobalValue",
              "target": "CurTeamAvatars",
              "value": 0.0,
              "key": "_WATCHER_82108_",
              "maxValue": 0.0,
              "minValue": 0.0
            }
          ],
          "onAttackLanded": [
            {
              "$type": "Predicated",
              "target": "Target",
              "targetPredicates": [
                {
                  "$type": "ByAttackTags",
                  "attackTags": ["Brute_Electric_Axe_LightningRod"]
                },
                {
                  "$type": "ByEntityTypes",
                  "entityTypes": ["Avatar", "Partner"]
                },
                {
                  "$type": "ByTargetGlobalValue",
                  "key": "_WATCHER_82108_",
                  "value": 1.0
                }
              ],
              "successActions": [
                {
                  "$type": "HCLAKBJKPLE",
                  "watcherId": 82108,
                  "authorityOnly": true
                }
              ]
            }
          ]
        }
      }
    }
  },
  {
    "Default": {
      "$type": "ConfigAbility",
      "abilityName": "Monster_Brute_Electric_Axe_LightningRod_Damage",
      "onAbilityStart": [
        {
          "$type": "TriggerAttackEvent",
          "attackEvent": {
            "attackPattern": {
              "$type": "ConfigAttackCircle",
              "triggerType": "TriggerNoRepeat",
              "born": {
                "$type": "ConfigBornBySelf",
                "offset": {
                  "x": 0.0,
                  "y": 0.0,
                  "z": 0.0
                }
              },
              "radius": 4.0
            },
            "attackInfo": {
              "attackTag": "Brute_Electric_Axe_LightningRod",
              "attenuationTag": "",
              "attenuationGroup": "default",
              "attackProperty": {
                "actorGrassSubHurtDelta": 0.5,
                "actorWindSubHurtDelta": 0.0,
                "elementType": "Electric",
                "elementDurability": 100.0,
                "strikeType": "Blunt",
                "enBreak": 100.0,
                "attackType": "Range",
                "GLKMCMDJBIK": 0.0
              },
              "hitPattern": {
                "onHitEffectName": "default",
                "hitImpulseY": "",
                "hitImpulseType": "LV5"
              }
            }
          },
          "targetType": "Enemy"
        },
        {
          "$type": "FireEffect",
          "rotationDampTime": "Eff_Monster_Brute_Electric_Axe_LightningRod_Damage",
          "PPPDJGDDOGD": 1.0,
          "AJDILHJFNKE": -1.0
        }
      ]
    }
  },
  {
    "Default": {
      "$type": "ConfigAbility",
      "abilityName": "Monster_Brute_Electric_Axe_JumpAttack_Alert",
      "abilityMixins": [
        {
          "$type": "AttachToNormalizedTimeMixin",
          "stateID": "JumpAttack",
          "modifierName": "JumpAttack_Collider",
          "normalizeStart": 0.2199999988079071,
          "normalizeEnd": 0.3799999952316284,
          "DGFCLAIDIFI": ""
        },
        {
          "$type": "IILHMBGONGM",
          "steerStateIDs": ["JumpAttack"],
          "startNormalizedTime": 0.07999999821186066,
          "endNormalizedTime": 0.12999999523162842,
          "angularSpeed": 360.0,
          "attackTrigger": "",
          "attackDistance": 2.0,
          "DGFCLAIDIFI": ""
        }
      ],
      "modifiers": {
        "JumpAttack_Collider": {
          "modifierName": "",
          "elementDurability": 100.0,
          "onAdded": [
            {
              "$type": "EnablePushColliderName",
              "pushColliderNames": ["PushCollider"]
            }
          ],
          "onRemoved": [
            {
              "$type": "EnablePushColliderName",
              "pushColliderNames": ["PushCollider"],
              "setEnable": true
            }
          ]
        }
      },
      "onAdded": [
        {
          "$type": "SetAnimatorBool",
          "predicates": [
            {
              "$type": "ByTargetGlobalValue",
              "key": "_ELITEAFFIX_ATTACK_ENHANCE",
              "value": 1.0
            }
          ],
          "boolID": "EliteTag",
          "value": true
        },
        {
          "$type": "SetAnimatorBool",
          "predicates": [
            {
              "$type": "ByTargetGlobalValue",
              "key": "_ELITEAFFIX_ATTACK_ENHANCE",
              "value": 0.0,
              "compareType": "NoneOrEqual"
            }
          ],
          "boolID": "EliteTag"
        }
      ],
      "onAbilityStart": [
        {
          "$type": "FireEffect",
          "rotationDampTime": "Eff_Monster_Brute_None_Axe_JumpAttack_Alert",
          "born": {
            "$type": "HCHAOBKOELI",
            "offset": {
              "x": 0.0,
              "y": 0.0,
              "z": 3.25
            }
          },
          "PPPDJGDDOGD": 1.0,
          "AJDILHJFNKE": -1.0
        },
        {
          "$type": "ActCameraShake",
          "cameraShake": {
            "shakeType": "CustomVector",
            "shakeRange": 0.05999999865889549,
            "shakeTime": 0.15000000596046448,
            "shakeDir": {
              "y": 1.0
            }
          }
        }
      ]
    }
  },
  {
    "Default": {
      "$type": "ConfigAbility",
      "abilityName": "Monster_Brute_Electric_Axe_JumpAttack_Lightning",
      "modifiers": {
        "JumpAttack_CreateLightningArea": {
          "modifierName": "",
          "duration": 0.20000000298023224,
          "elementDurability": 100.0,
          "onAdded": [
            {
              "$type": "CreateGadget",
              "born": {
                "$type": "ConfigBornBySelf",
                "offset": {
                  "x": 6.0,
                  "y": 0.0,
                  "z": 6.0
                },
                "onGround": true,
                "onGroundIgnoreWater": true
              },
              "gadgetID": 42102027,
              "campID": 4001
            },
            {
              "$type": "CreateGadget",
              "born": {
                "$type": "ConfigBornBySelf",
                "offset": {
                  "x": 6.0,
                  "y": 0.0,
                  "z": -6.0
                },
                "onGround": true,
                "onGroundIgnoreWater": true
              },
              "gadgetID": 42102027,
              "campID": 4001
            },
            {
              "$type": "CreateGadget",
              "born": {
                "$type": "ConfigBornBySelf",
                "offset": {
                  "x": -6.0,
                  "y": 0.0,
                  "z": 6.0
                },
                "onGround": true,
                "onGroundIgnoreWater": true
              },
              "gadgetID": 42102027,
              "campID": 4001
            },
            {
              "$type": "CreateGadget",
              "born": {
                "$type": "ConfigBornBySelf",
                "offset": {
                  "x": -6.0,
                  "y": 0.0,
                  "z": -6.0
                },
                "onGround": true,
                "onGroundIgnoreWater": true
              },
              "gadgetID": 42102027,
              "campID": 4001
            }
          ]
        }
      },
      "onAbilityStart": [
        {
          "$type": "ApplyModifier",
          "predicates": [
            {
              "$type": "ByAny",
              "predicates": [
                {
                  "$type": "ByAnimatorFloat",
                  "logic": "Equal",
                  "value": 212.0,
                  "parameter": "PoseID"
                },
                {
                  "$type": "ByAnimatorFloat",
                  "logic": "Equal",
                  "value": 222.0,
                  "parameter": "PoseID"
                }
              ]
            }
          ],
          "modifierName": "JumpAttack_CreateLightningArea"
        }
      ]
    }
  },
  {
    "Default": {
      "$type": "ConfigAbility",
      "abilityName": "Brute_Electric_Axe_LightningArea",
      "modifiers": {
        "LightningArea_Actions": {
          "modifierName": "",
          "duration": 1.0,
          "elementDurability": 100.0,
          "onAdded": [
            {
              "$type": "FireEffect",
              "rotationDampTime": "Eff_Monster_Brute_Electric_None_JumpAttack_LightningAlert",
              "born": {
                "$type": "ConfigBornBySelf",
                "offset": {
                  "x": 0.0,
                  "y": 0.0,
                  "z": 0.0
                },
                "onGround": true,
                "alongGround": true
              },
              "PPPDJGDDOGD": 1.0,
              "AJDILHJFNKE": -1.0
            }
          ],
          "onRemoved": [
            {
              "$type": "TriggerAttackEvent",
              "attackEvent": {
                "attackPattern": {
                  "$type": "ConfigAttackCircle",
                  "triggerType": "TriggerNoRepeat",
                  "ignoreMassive": true,
                  "born": {
                    "$type": "ConfigBornBySelf",
                    "offset": {
                      "x": 0.0,
                      "y": 0.0,
                      "z": 0.0
                    }
                  },
                  "height": 6.0,
                  "radius": 1.75
                },
                "attackInfo": {
                  "attackTag": "",
                  "attenuationTag": "",
                  "attenuationGroup": "default",
                  "attackProperty": {
                    "actorGrassSubHurtDelta": 0.5,
                    "actorWindSubHurtDelta": 0.0,
                    "elementType": "Electric",
                    "elementDurability": 25.0,
                    "strikeType": "Blunt",
                    "enBreak": 1.0,
                    "GLKMCMDJBIK": 0.0
                  },
                  "hitPattern": {
                    "onHitEffectName": "default",
                    "hitImpulseY": "",
                    "hitImpulseType": "LV3",
                    "hitHaltTimeScale": 0.009999999776482582
                  },
                  "canBeModifiedBy": "OriginOwner"
                }
              },
              "targetType": "Enemy"
            },
            {
              "$type": "FireEffect",
              "rotationDampTime": "Eff_Monster_Brute_Electric_None_JumpAttack_Lightning",
              "born": {
                "$type": "ConfigBornBySelf",
                "offset": {
                  "x": 0.0,
                  "y": 0.0,
                  "z": 0.0
                }
              },
              "PPPDJGDDOGD": 1.0,
              "AJDILHJFNKE": -1.0
            }
          ]
        }
      },
      "onAdded": [
        {
          "$type": "ApplyModifier",
          "modifierName": "LightningArea_Actions"
        }
      ]
    }
  },
  {
    "Default": {
      "$type": "ConfigAbility",
      "abilityName": "Monster_Brute_Electric_Axe_CrashAttack_Lightning",
      "modifiers": {
        "CrashAttack_CreateLightningArea": {
          "modifierName": "",
          "duration": 0.20000000298023224,
          "elementDurability": 100.0,
          "onAdded": [
            {
              "$type": "CreateGadget",
              "born": {
                "$type": "ConfigBornBySelf",
                "offset": {
                  "x": 0.0,
                  "y": 0.0,
                  "z": 8.5
                },
                "onGround": true,
                "onGroundIgnoreWater": true
              },
              "gadgetID": 42102027,
              "campID": 4001
            },
            {
              "$type": "CreateGadget",
              "born": {
                "$type": "ConfigBornBySelf",
                "offset": {
                  "x": 6.0,
                  "y": 0.0,
                  "z": -3.0
                },
                "onGround": true,
                "onGroundIgnoreWater": true
              },
              "gadgetID": 42102027,
              "campID": 4001
            },
            {
              "$type": "CreateGadget",
              "born": {
                "$type": "ConfigBornBySelf",
                "offset": {
                  "x": -6.5,
                  "y": 0.0,
                  "z": -3.5
                },
                "onGround": true,
                "onGroundIgnoreWater": true
              },
              "gadgetID": 42102027,
              "campID": 4001
            }
          ]
        }
      },
      "onAbilityStart": [
        {
          "$type": "ApplyModifier",
          "predicates": [
            {
              "$type": "ByAny",
              "predicates": [
                {
                  "$type": "ByAnimatorFloat",
                  "logic": "Equal",
                  "value": 212.0,
                  "parameter": "PoseID"
                },
                {
                  "$type": "ByAnimatorFloat",
                  "logic": "Equal",
                  "value": 222.0,
                  "parameter": "PoseID"
                }
              ]
            },
            {
              "$type": "ByTargetGlobalValue",
              "key": "_ELITEAFFIX_ATTACK_ENHANCE",
              "value": 1.0
            }
          ],
          "modifierName": "CrashAttack_CreateLightningArea"
        }
      ]
    }
  },
  {
    "Default": {
      "$type": "ConfigAbility",
      "abilityName": "Monster_Brute_Electric_Axe_Attack02_Lightning",
      "modifiers": {
        "Attack02_CreateLightningArea_01": {
          "modifierName": "",
          "duration": 0.5,
          "elementDurability": 100.0,
          "onAdded": [
            {
              "$type": "CreateGadget",
              "born": {
                "$type": "ConfigBornBySelf",
                "offset": {
                  "x": 0.0,
                  "y": 0.0,
                  "z": 5.5
                },
                "onGround": true,
                "onGroundIgnoreWater": true
              },
              "gadgetID": 42102027,
              "campID": 4001
            }
          ],
          "onRemoved": [
            {
              "$type": "ApplyModifier",
              "modifierName": "Attack02_CreateLightningArea_02"
            }
          ]
        },
        "Attack02_CreateLightningArea_02": {
          "modifierName": "",
          "duration": 0.5,
          "elementDurability": 100.0,
          "onAdded": [
            {
              "$type": "CreateGadget",
              "born": {
                "$type": "ConfigBornBySelf",
                "offset": {
                  "x": 0.0,
                  "y": 0.0,
                  "z": 9.0
                },
                "onGround": true,
                "onGroundIgnoreWater": true
              },
              "gadgetID": 42102027,
              "campID": 4001
            }
          ],
          "onRemoved": [
            {
              "$type": "ApplyModifier",
              "modifierName": "Attack02_CreateLightningArea_03"
            }
          ]
        },
        "Attack02_CreateLightningArea_03": {
          "modifierName": "",
          "duration": 0.5,
          "elementDurability": 100.0,
          "onAdded": [
            {
              "$type": "CreateGadget",
              "born": {
                "$type": "ConfigBornBySelf",
                "offset": {
                  "x": 0.0,
                  "y": 0.0,
                  "z": 14.5
                },
                "onGround": true,
                "onGroundIgnoreWater": true
              },
              "gadgetID": 42102027,
              "campID": 4001
            }
          ]
        }
      },
      "onAbilityStart": [
        {
          "$type": "ApplyModifier",
          "predicates": [
            {
              "$type": "ByAny",
              "predicates": [
                {
                  "$type": "ByAnimatorFloat",
                  "logic": "Equal",
                  "value": 212.0,
                  "parameter": "PoseID"
                },
                {
                  "$type": "ByAnimatorFloat",
                  "logic": "Equal",
                  "value": 222.0,
                  "parameter": "PoseID"
                }
              ]
            },
            {
              "$type": "ByTargetGlobalValue",
              "key": "_ELITEAFFIX_ATTACK_ENHANCE",
              "value": 1.0
            }
          ],
          "modifierName": "Attack02_CreateLightningArea_01"
        }
      ]
    }
  },
  {
    "Default": {
      "$type": "ConfigAbility",
      "abilityName": "Monster_Brute_Electric_Axe_HideHitbox",
      "onAdded": [
        {
          "$type": "EnableHitBoxByName",
          "hitBoxNames": ["HitBox"]
        }
      ]
    }
  }
]
