[
  {
    "Default": {
      "$type": "ConfigAbility",
      "abilityName": "Monster_Human_DieSteer",
      "abilityMixins": [
        {
          "$type": "IILHMBGONGM",
          "steerStateIDs": ["Die"],
          "startNormalizedTime": 0.44999998807907104,
          "angularSpeed": 180.0,
          "attackTrigger": "",
          "DGFCLAIDIFI": ""
        }
      ]
    }
  },
  {
    "Default": {
      "$type": "ConfigAbility",
      "abilityName": "Monster_Human_ReturnToBorn",
      "abilityMixins": [
        {
          "$type": "LEOGLBFIELL",
          "poseIDs": [1901],
          "modifierName": "ReturnToBorn_Start"
        }
      ],
      "modifiers": {
        "ReturnToBorn_Start": {
          "modifierName": "",
          "elementDurability": 100.0,
          "onAdded": [
            {
              "$type": "SetAnimatorTrigger",
              "predicates": [
                {
                  "$type": "ByTargetGlobalValue",
                  "key": "_WEAPON_SHEATHED",
                  "value": 0.0
                }
              ],
              "triggerID": "SheathWeaponTrigger"
            }
          ]
        }
      }
    }
  },
  {
    "Default": {
      "$type": "ConfigAbility",
      "abilityName": "Monster_Human_Equip_Display_Manager",
      "abilityMixins": [
        {
          "$type": "AttachModifierToSelfGlobalValueMixin",
          "globalValueKey": "_WEAPON_SHEATHED",
          "gvInTalk": 1.0,
          "valueSteps": [-0.5, 0.5, 1.5],
          "modifierNameSteps": ["State_ShowWeapon", "State_SheathWeapon"]
        },
        {
          "$type": "DoActionOnGlobalValueChangeMixin",
          "globalValueKey": "_WEAPON_HIDE",
          "actions": [
            {
              "$type": "FireEffect",
              "otherTargets": {
                "$type": "SelectTargetsByEquipParts",
                "equipPartNames": ["equip01"]
              },
              "rotationDampTime": "Eff_Monster_Eremite_Weapon_Disappear",
              "PPPDJGDDOGD": 1.0,
              "AJDILHJFNKE": -1.0
            }
          ]
        },
        {
          "$type": "AttachToStateIDMixin",
          "stateIDs": ["Struggle"],
          "modifierName": "Weapon_Hide",
          "DGFCLAIDIFI": ""
        },
        {
          "$type": "EAKJOFAIAPH",
          "poseIDs": [1001],
          "enterActions": [
            {
              "$type": "SetGlobalValue",
              "value": 1.0,
              "key": "_WEAPON_SHEATHED",
              "maxValue": 0.0,
              "minValue": 0.0
            }
          ]
        },
        {
          "$type": "APJKOLPHCGH",
          "stateIDs": ["Alert"],
          "enterActions": [
            {
              "$type": "Predicated",
              "predicates": [
                {
                  "$type": "ByTargetGlobalValue",
                  "key": "_WEAPON_HIDE",
                  "value": 1.0
                }
              ],
              "successActions": [
                {
                  "$type": "SetGlobalValue",
                  "value": 0.0,
                  "key": "_WEAPON_HIDE",
                  "maxValue": 0.0,
                  "minValue": 0.0
                }
              ]
            }
          ],
          "DGFCLAIDIFI": ""
        }
      ],
      "modifiers": {
        "State_SheathWeapon": {
          "modifierName": "",
          "elementDurability": 100.0,
          "modifierMixins": [
            {
              "$type": "APJKOLPHCGH",
              "stateIDs": ["BeHit", "BeHitThrow", "Struggle"],
              "enterActions": [
                {
                  "$type": "SetGlobalValue",
                  "value": 0.0,
                  "key": "_WEAPON_SHEATHED",
                  "maxValue": 0.0,
                  "minValue": 0.0
                }
              ],
              "DGFCLAIDIFI": ""
            }
          ],
          "onAdded": [
            {
              "$type": "JLJCNEBNINA",
              "canBeHandledOnRecover": true,
              "partName": "equip01",
              "realName": "WeaponSheathPoint"
            },
            {
              "$type": "IDNGFEEBPAM",
              "canBeHandledOnRecover": true,
              "boolID": "WeaponInHand"
            }
          ],
          "onReconnect": [
            {
              "$type": "JLJCNEBNINA",
              "partName": "equip01",
              "realName": "WeaponSheathPoint"
            },
            {
              "$type": "IDNGFEEBPAM",
              "boolID": "WeaponInHand"
            }
          ],
          "onChangeAuthority": [
            {
              "$type": "JLJCNEBNINA",
              "partName": "equip01",
              "realName": "WeaponSheathPoint"
            },
            {
              "$type": "IDNGFEEBPAM",
              "boolID": "WeaponInHand"
            }
          ]
        },
        "State_ShowWeapon": {
          "modifierName": "",
          "elementDurability": 100.0,
          "onAdded": [
            {
              "$type": "JLJCNEBNINA",
              "partName": "equip01",
              "realName": ""
            },
            {
              "$type": "IDNGFEEBPAM",
              "boolID": "WeaponInHand",
              "value": true
            }
          ]
        },
        "Weapon_Hide": {
          "modifierName": "",
          "elementDurability": 100.0,
          "onAdded": [
            {
              "$type": "TriggerAbility",
              "abilityName": "Monster_Human_Equip_HideWeapon"
            }
          ],
          "onRemoved": [
            {
              "$type": "SetGlobalValue",
              "value": 0.0,
              "key": "_WEAPON_HIDE",
              "maxValue": 0.0,
              "minValue": 0.0
            }
          ]
        }
      },
      "onAdded": [
        {
          "$type": "SetGlobalValue",
          "value": 0.0,
          "key": "_WEAPON_HIDE",
          "maxValue": 0.0,
          "minValue": 0.0
        }
      ],
      "onAbilityStart": [
        {
          "$type": "SetGlobalValue",
          "value": 0.0,
          "key": "_WEAPON_SHEATHED",
          "maxValue": 0.0,
          "minValue": 0.0
        }
      ]
    }
  },
  {
    "Default": {
      "$type": "ConfigAbility",
      "abilityName": "Monster_Human_Equip_SheathWeapon",
      "onAbilityStart": [
        {
          "$type": "SetGlobalValue",
          "value": 1.0,
          "key": "_WEAPON_SHEATHED",
          "maxValue": 0.0,
          "minValue": 0.0
        }
      ]
    }
  },
  {
    "Default": {
      "$type": "ConfigAbility",
      "abilityName": "Monster_Human_Equip_HideWeapon",
      "onAbilityStart": [
        {
          "$type": "SetGlobalValue",
          "value": 1.0,
          "key": "_WEAPON_HIDE",
          "maxValue": 0.0,
          "minValue": 0.0
        }
      ]
    }
  },
  {
    "Default": {
      "$type": "ConfigAbility",
      "abilityName": "Monster_Human_Equip_VisibleControl",
      "abilityMixins": [
        {
          "$type": "AttachModifierToGlobalValueMixin",
          "globalValueTarget": "Owner",
          "globalValueKey": "_WEAPON_HIDE",
          "valueSteps": [-0.5, 0.5, 1.5],
          "modifierNameSteps": ["WeaponShow", "WeaponHide"]
        }
      ],
      "modifiers": {
        "WeaponDisappear": {
          "modifierName": "",
          "elementDurability": 100.0,
          "onAdded": [
            {
              "$type": "KillSelf",
              "target": "Caster"
            },
            {
              "$type": "HBNEMPLJCMB",
              "hide": true
            }
          ]
        },
        "WeaponShow": {
          "modifierName": "",
          "elementDurability": 100.0,
          "onAdded": [
            {
              "$type": "TriggerSetVisible",
              "KGGEDGKGLDD": true
            }
          ]
        },
        "WeaponHide": {
          "modifierName": "",
          "elementDurability": 100.0,
          "onAdded": [
            {
              "$type": "TriggerSetVisible",
              "canBeHandledOnRecover": true
            }
          ],
          "onReconnect": [
            {
              "$type": "TriggerSetVisible"
            }
          ],
          "onChangeAuthority": [
            {
              "$type": "TriggerSetVisible"
            }
          ]
        }
      },
      "onDetach": [
        {
          "$type": "ApplyModifier",
          "modifierName": "WeaponDisappear"
        }
      ]
    }
  },
  {
    "Default": {
      "$type": "ConfigAbility",
      "abilityName": "Monster_Human_ComboByDistance",
      "onAbilityStart": [
        {
          "$type": "Predicated",
          "target": "SelfAttackActiveTarget",
          "targetPredicates": [
            {
              "$type": "ByTargetPositionToSelfPosition",
              "target": "SelfAttackActiveTarget",
              "logic": "Lesser",
              "value": 5.199999809265137,
              "DDALGNLEHOD": ""
            }
          ],
          "successActions": [
            {
              "$type": "SetAnimatorBool",
              "boolID": "TargetClose",
              "value": true
            }
          ],
          "failActions": [
            {
              "$type": "SetAnimatorBool",
              "boolID": "TargetClose"
            }
          ]
        }
      ]
    }
  },
  {
    "Default": {
      "$type": "ConfigAbility",
      "abilityName": "Monster_Human_Claymore_AttackSteer",
      "abilityMixins": [
        {
          "$type": "IILHMBGONGM",
          "steerStateIDs": ["Alert"],
          "endNormalizedTime": 0.2800000011920929,
          "angularSpeed": 600.0,
          "attackTrigger": "",
          "DGFCLAIDIFI": ""
        },
        {
          "$type": "IILHMBGONGM",
          "steerStateIDs": ["CrossSlash01"],
          "endNormalizedTime": 0.05999999865889549,
          "angularSpeed": 360.0,
          "attackTrigger": "",
          "DGFCLAIDIFI": ""
        },
        {
          "$type": "IILHMBGONGM",
          "steerStateIDs": ["CrossSlash01"],
          "startNormalizedTime": 0.23000000417232513,
          "endNormalizedTime": 0.29499998688697815,
          "angularSpeed": 240.0,
          "attackTrigger": "",
          "ONLGEKDCBLK": "Left",
          "DGFCLAIDIFI": ""
        },
        {
          "$type": "IILHMBGONGM",
          "steerStateIDs": ["ComboAttack01"],
          "endNormalizedTime": 0.10000000149011612,
          "angularSpeed": 240.0,
          "attackTrigger": "",
          "DGFCLAIDIFI": ""
        },
        {
          "$type": "IILHMBGONGM",
          "steerStateIDs": ["ComboAttack01"],
          "startNormalizedTime": 0.10000000149011612,
          "endNormalizedTime": 0.18000000715255737,
          "angularSpeed": 150.0,
          "attackTrigger": "",
          "DGFCLAIDIFI": ""
        },
        {
          "$type": "IILHMBGONGM",
          "steerStateIDs": ["ComboAttack02"],
          "startNormalizedTime": 0.05000000074505806,
          "endNormalizedTime": 0.15000000596046448,
          "angularSpeed": 120.0,
          "attackTrigger": "",
          "DGFCLAIDIFI": ""
        }
      ]
    }
  },
  {
    "Default": {
      "$type": "ConfigAbility",
      "abilityName": "Monster_Human_Sword_AttackSteer",
      "abilityMixins": [
        {
          "$type": "IILHMBGONGM",
          "steerStateIDs": ["Alert"],
          "endNormalizedTime": 0.2800000011920929,
          "angularSpeed": 600.0,
          "attackTrigger": "",
          "DGFCLAIDIFI": ""
        },
        {
          "$type": "IILHMBGONGM",
          "steerStateIDs": ["NormalAttack01"],
          "endNormalizedTime": 0.15000000596046448,
          "angularSpeed": 360.0,
          "attackTrigger": "",
          "DGFCLAIDIFI": ""
        },
        {
          "$type": "IILHMBGONGM",
          "steerStateIDs": ["NormalAttack02"],
          "startNormalizedTime": 0.03999999910593033,
          "endNormalizedTime": 0.164000004529953,
          "angularSpeed": 240.0,
          "attackTrigger": "",
          "DGFCLAIDIFI": ""
        },
        {
          "$type": "IILHMBGONGM",
          "steerStateIDs": ["PierceAttack01"],
          "endNormalizedTime": 0.20000000298023224,
          "angularSpeed": 240.0,
          "attackTrigger": "",
          "DGFCLAIDIFI": ""
        },
        {
          "$type": "IILHMBGONGM",
          "steerStateIDs": ["PierceAttack01"],
          "startNormalizedTime": 0.5920000076293945,
          "endNormalizedTime": 0.800000011920929,
          "angularSpeed": 190.0,
          "attackTrigger": "",
          "ONLGEKDCBLK": "Right",
          "MMGANNBOGKD": 135.0,
          "DGFCLAIDIFI": ""
        }
      ]
    }
  },
  {
    "Default": {
      "$type": "ConfigAbility",
      "abilityName": "Monster_Human_Sword_SteerTest",
      "abilityMixins": [
        {
          "$type": "IILHMBGONGM",
          "steerStateIDs": ["Mosasaurus_TribeUlt"],
          "angularSpeed": 180.0,
          "attackTrigger": "",
          "DGFCLAIDIFI": ""
        },
        {
          "$type": "IILHMBGONGM",
          "steerStateIDs": ["Drillhead_TribeUlt"],
          "angularSpeed": 60.0,
          "attackTrigger": "",
          "DGFCLAIDIFI": ""
        },
        {
          "$type": "IILHMBGONGM",
          "steerStateIDs": ["Hookwalker_TribeUlt"],
          "angularSpeed": 90.0,
          "attackTrigger": "",
          "DGFCLAIDIFI": ""
        }
      ]
    }
  },
  {
    "Default": {
      "$type": "ConfigAbility",
      "abilityName": "Monster_Human_Male_Fat_NoWeapon_AttackSteer",
      "abilityMixins": [
        {
          "$type": "IILHMBGONGM",
          "steerStateIDs": ["Alert"],
          "endNormalizedTime": 0.2800000011920929,
          "angularSpeed": 600.0,
          "attackTrigger": "",
          "DGFCLAIDIFI": ""
        },
        {
          "$type": "IILHMBGONGM",
          "steerStateIDs": ["KickAttack"],
          "endNormalizedTime": 0.1599999964237213,
          "angularSpeed": 480.0,
          "attackTrigger": "",
          "DGFCLAIDIFI": ""
        },
        {
          "$type": "IILHMBGONGM",
          "steerStateIDs": ["PunchAttack01"],
          "endNormalizedTime": 0.2329999953508377,
          "angularSpeed": 600.0,
          "attackTrigger": "",
          "DGFCLAIDIFI": ""
        },
        {
          "$type": "IILHMBGONGM",
          "steerStateIDs": ["PunchAttack01_AS"],
          "endNormalizedTime": 0.6000000238418579,
          "angularSpeed": 180.0,
          "attackTrigger": "",
          "ONLGEKDCBLK": "Right",
          "MMGANNBOGKD": 135.0,
          "DGFCLAIDIFI": ""
        },
        {
          "$type": "IILHMBGONGM",
          "steerStateIDs": ["PunchAttack02"],
          "endNormalizedTime": 0.15000000596046448,
          "angularSpeed": 480.0,
          "attackTrigger": "",
          "DGFCLAIDIFI": ""
        }
      ]
    }
  },
  {
    "Default": {
      "$type": "ConfigAbility",
      "abilityName": "Monster_Human_Female_NoWeapon_AttackSteer",
      "abilityMixins": [
        {
          "$type": "IILHMBGONGM",
          "steerStateIDs": ["Alert"],
          "endNormalizedTime": 0.2800000011920929,
          "angularSpeed": 600.0,
          "attackTrigger": "",
          "DGFCLAIDIFI": ""
        },
        {
          "$type": "IILHMBGONGM",
          "steerStateIDs": ["KickAttack"],
          "endNormalizedTime": 0.07999999821186066,
          "angularSpeed": 600.0,
          "attackTrigger": "",
          "DGFCLAIDIFI": ""
        },
        {
          "$type": "IILHMBGONGM",
          "steerStateIDs": ["KickAttack"],
          "startNormalizedTime": 0.07999999821186066,
          "endNormalizedTime": 0.3100000023841858,
          "angularSpeed": 160.0,
          "attackTrigger": "",
          "DGFCLAIDIFI": ""
        },
        {
          "$type": "IILHMBGONGM",
          "steerStateIDs": ["PunchAttack01"],
          "startNormalizedTime": 0.2639999985694885,
          "endNormalizedTime": 0.4399999976158142,
          "angularSpeed": 360.0,
          "attackTrigger": "",
          "DGFCLAIDIFI": ""
        },
        {
          "$type": "IILHMBGONGM",
          "steerStateIDs": ["PunchAttack02"],
          "endNormalizedTime": 0.15000000596046448,
          "angularSpeed": 480.0,
          "attackTrigger": "",
          "DGFCLAIDIFI": ""
        }
      ]
    }
  },
  {
    "Default": {
      "$type": "ConfigAbility",
      "abilityName": "Monster_Human_Male_Fat_ThrowKnife",
      "abilityMixins": [
        {
          "$type": "IILHMBGONGM",
          "steerStateIDs": ["KnifeThrow"],
          "startNormalizedTime": 0.4000000059604645,
          "endNormalizedTime": 0.44999998807907104,
          "angularSpeed": 540.0,
          "attackTrigger": "",
          "DGFCLAIDIFI": ""
        },
        {
          "$type": "DIDNLIKKLLF",
          "stateIDs": ["KnifeThrow"],
          "enterActions": [
            {
              "$type": "TriggerBullet",
              "bulletID": 42501001,
              "born": {
                "$type": "ConfigBornByAttachPoint",
                "offset": {
                  "x": -0.2849999964237213,
                  "y": 0.20000000298023224,
                  "z": -0.4000000059604645
                },
                "direction": {
                  "$type": "ConfigDirectionByAttackTarget",
                  "randomAngleHor": 0.30000001192092896,
                  "randomAngleVer": 0.5,
                  "maxAngle": 60.0,
                  "startPoint": ""
                },
                "useRotation": true,
                "attachPointName": "WeaponR"
              }
            }
          ],
          "DGFCLAIDIFI": ""
        }
      ]
    }
  },
  {
    "Default": {
      "$type": "ConfigAbility",
      "abilityName": "Monster_Human_FreePoseManager",
      "abilityMixins": [
        {
          "$type": "EAKJOFAIAPH",
          "poseIDs": [1, 1000, 1101],
          "enterActions": [
            {
              "$type": "GFFKENEJFFB",
              "intID": "FreePoseMark",
              "value": 1001
            }
          ]
        },
        {
          "$type": "LEOGLBFIELL",
          "poseIDs": [9009],
          "modifierName": "SetWeapon"
        },
        {
          "$type": "LEOGLBFIELL",
          "poseIDs": [9011, 9012, 9013, 9005, 9021],
          "modifierName": "HideWeapon"
        },
        {
          "$type": "IILHMBGONGM",
          "steerStateIDs": ["Investigate_AS", "Squat01_AS", "Squat02_AS"],
          "angularSpeed": 180.0,
          "attackTrigger": "",
          "DGFCLAIDIFI": ""
        },
        {
          "$type": "AttachToAnimatorStateIDMixin",
          "stateIDs": ["Mining_Idle", "Mining"],
          "modifierName": "ItemEff_Pickaxe",
          "DGFCLAIDIFI": ""
        },
        {
          "$type": "AttachToAnimatorStateIDMixin",
          "stateIDs": ["Fishing_Idle"],
          "modifierName": "ItemEff_FishingRod",
          "DGFCLAIDIFI": ""
        },
        {
          "$type": "AttachToMultiNormalizedTimeMixin",
          "normalizedStateIDList": [
            {
              "stateID": "Juggling_BS",
              "normalizeStart": 0.12999999523162842
            },
            {
              "stateID": "Juggling_Loop",
              "normalizeEnd": 99.0
            },
            {
              "stateID": "Juggling_AS",
              "normalizeEnd": 0.7799999713897705
            }
          ],
          "modifierName": "ItemEff_LetterBag",
          "DGFCLAIDIFI": ""
        }
      ],
      "modifiers": {
        "SetWeapon": {
          "modifierName": "",
          "elementDurability": 100.0,
          "onAdded": [
            {
              "$type": "SetGlobalValue",
              "value": 0.0,
              "key": "_WEAPON_SHEATHED",
              "maxValue": 0.0,
              "minValue": 0.0
            }
          ]
        },
        "HideWeapon": {
          "modifierName": "",
          "elementDurability": 100.0,
          "onAdded": [
            {
              "$type": "SetGlobalValue",
              "value": 1.0,
              "key": "_WEAPON_HIDE",
              "maxValue": 0.0,
              "minValue": 0.0
            }
          ],
          "onRemoved": [
            {
              "$type": "SetGlobalValue",
              "value": 0.0,
              "key": "_WEAPON_HIDE",
              "maxValue": 0.0,
              "minValue": 0.0
            }
          ]
        },
        "ItemEff_Pickaxe": {
          "modifierName": "",
          "elementDurability": 100.0,
          "onAdded": [
            {
              "$type": "AttachEffect",
              "rotationDampTime": "Eff_Monster_Human_Drillhead_PickAxe",
              "PPPDJGDDOGD": 1.0,
              "AJDILHJFNKE": -1.0
            }
          ]
        },
        "ItemEff_FishingRod": {
          "modifierName": "",
          "elementDurability": 100.0,
          "onAdded": [
            {
              "$type": "AttachEffect",
              "rotationDampTime": "Eff_Monster_Human_Item_FishingRod",
              "PPPDJGDDOGD": 1.0,
              "AJDILHJFNKE": -1.0
            }
          ]
        },
        "ItemEff_LetterBag": {
          "modifierName": "",
          "elementDurability": 100.0,
          "onAdded": [
            {
              "$type": "AttachEffect",
              "rotationDampTime": "Eff_Monster_Human_Item_LetterBag",
              "PPPDJGDDOGD": 1.0,
              "AJDILHJFNKE": -1.0
            },
            {
              "$type": "AttachModifier",
              "modifierName": "HideWeapon"
            }
          ]
        }
      }
    }
  },
  {
    "Default": {
      "$type": "ConfigAbility",
      "abilityName": "Monster_Human_FreePoseManager_HideSword",
      "abilityMixins": [
        {
          "$type": "LEOGLBFIELL",
          "poseIDs": [1003, 9004, 9007, 9008, 9019, 9015, 9003],
          "modifierName": "HideSword"
        }
      ],
      "modifiers": {
        "HideSword": {
          "modifierName": "",
          "elementDurability": 100.0,
          "onAdded": [
            {
              "$type": "SetGlobalValue",
              "value": 1.0,
              "key": "_WEAPON_HIDE",
              "maxValue": 0.0,
              "minValue": 0.0
            }
          ],
          "onRemoved": [
            {
              "$type": "SetGlobalValue",
              "value": 0.0,
              "key": "_WEAPON_HIDE",
              "maxValue": 0.0,
              "minValue": 0.0
            }
          ]
        }
      }
    }
  },
  {
    "Default": {
      "$type": "ConfigAbility",
      "abilityName": "Monster_Human_Female_AwareSteer",
      "abilityMixins": [
        {
          "$type": "IILHMBGONGM",
          "steerStateIDs": ["TauntAware01"],
          "endNormalizedTime": 0.75,
          "angularSpeed": 90.0,
          "attackTrigger": "",
          "DGFCLAIDIFI": ""
        },
        {
          "$type": "IILHMBGONGM",
          "steerStateIDs": ["TauntAware03_Action"],
          "angularSpeed": 90.0,
          "attackTrigger": "",
          "DGFCLAIDIFI": ""
        },
        {
          "$type": "IILHMBGONGM",
          "steerStateIDs": [
            "TauntAware_AS",
            "TauntAware_BS",
            "AwareAS",
            "Aware"
          ],
          "endNormalizedTime": 0.6499999761581421,
          "angularSpeed": 120.0,
          "attackTrigger": "",
          "DGFCLAIDIFI": ""
        }
      ]
    }
  },
  {
    "Default": {
      "$type": "ConfigAbility",
      "abilityName": "Monster_Human_Male_Standard_AwareSteer",
      "abilityMixins": [
        {
          "$type": "IILHMBGONGM",
          "steerStateIDs": ["TauntAware01"],
          "endNormalizedTime": 0.75,
          "angularSpeed": 90.0,
          "attackTrigger": "",
          "DGFCLAIDIFI": ""
        },
        {
          "$type": "IILHMBGONGM",
          "steerStateIDs": ["TauntAware03_Action"],
          "angularSpeed": 90.0,
          "attackTrigger": "",
          "DGFCLAIDIFI": ""
        },
        {
          "$type": "IILHMBGONGM",
          "steerStateIDs": [
            "TauntAware_AS",
            "TauntAware_BS",
            "AwareAS",
            "Aware"
          ],
          "startNormalizedTime": 0.20000000298023224,
          "endNormalizedTime": 0.699999988079071,
          "angularSpeed": 120.0,
          "attackTrigger": "",
          "DGFCLAIDIFI": ""
        }
      ]
    }
  },
  {
    "Default": {
      "$type": "ConfigAbility",
      "abilityName": "Monster_Human_MuscleMan_AwareSteer",
      "abilityMixins": [
        {
          "$type": "IILHMBGONGM",
          "steerStateIDs": ["TauntAware01"],
          "endNormalizedTime": 0.30000001192092896,
          "angularSpeed": 120.0,
          "attackTrigger": "",
          "DGFCLAIDIFI": ""
        },
        {
          "$type": "IILHMBGONGM",
          "steerStateIDs": ["TauntAware01"],
          "startNormalizedTime": 0.5799999833106995,
          "endNormalizedTime": 0.8999999761581421,
          "angularSpeed": 120.0,
          "attackTrigger": "",
          "DGFCLAIDIFI": ""
        },
        {
          "$type": "IILHMBGONGM",
          "steerStateIDs": ["TauntAware03_Action"],
          "endNormalizedTime": 0.36000001430511475,
          "angularSpeed": 60.0,
          "attackTrigger": "",
          "DGFCLAIDIFI": ""
        },
        {
          "$type": "IILHMBGONGM",
          "steerStateIDs": ["TauntAware03_Action"],
          "startNormalizedTime": 0.800000011920929,
          "angularSpeed": 60.0,
          "attackTrigger": "",
          "DGFCLAIDIFI": ""
        },
        {
          "$type": "IILHMBGONGM",
          "steerStateIDs": [
            "TauntAware_AS",
            "TauntAware_BS",
            "AwareAS",
            "Aware"
          ],
          "startNormalizedTime": 0.20000000298023224,
          "endNormalizedTime": 0.699999988079071,
          "angularSpeed": 120.0,
          "attackTrigger": "",
          "DGFCLAIDIFI": ""
        }
      ]
    }
  },
  {
    "Default": {
      "$type": "ConfigAbility",
      "abilityName": "Monster_Human_Male_Fat_AwareSteer",
      "abilityMixins": [
        {
          "$type": "IILHMBGONGM",
          "steerStateIDs": ["TauntAware01"],
          "endNormalizedTime": 0.9200000166893005,
          "angularSpeed": 90.0,
          "attackTrigger": "",
          "DGFCLAIDIFI": ""
        },
        {
          "$type": "IILHMBGONGM",
          "steerStateIDs": [
            "TauntAware_AS",
            "TauntAware_BS",
            "AwareAS",
            "Aware"
          ],
          "startNormalizedTime": 0.30000001192092896,
          "endNormalizedTime": 0.699999988079071,
          "angularSpeed": 120.0,
          "attackTrigger": "",
          "DGFCLAIDIFI": ""
        }
      ]
    }
  },
  {
    "Default": {
      "$type": "ConfigAbility",
      "abilityName": "Monster_Human_FreePoseManager_SprayCan_Warm",
      "abilityMixins": [
        {
          "$type": "AttachToAnimatorStateIDMixin",
          "stateIDs": ["Graffiti_Idle"],
          "modifierName": "ItemEff_SprayCan",
          "DGFCLAIDIFI": ""
        }
      ],
      "modifiers": {
        "ItemEff_SprayCan": {
          "modifierName": "",
          "elementDurability": 100.0,
          "onAdded": [
            {
              "$type": "AttachEffect",
              "rotationDampTime": "Eff_Monster_Human_Item_SprayCan_02",
              "PPPDJGDDOGD": 1.0,
              "AJDILHJFNKE": -1.0
            }
          ]
        }
      },
      "isDynamicAbility": true
    }
  },
  {
    "Default": {
      "$type": "ConfigAbility",
      "abilityName": "Monster_Human_FreePoseManager_SprayCan_Cool",
      "abilityMixins": [
        {
          "$type": "AttachToAnimatorStateIDMixin",
          "stateIDs": ["Graffiti_Idle"],
          "modifierName": "ItemEff_SprayCan",
          "DGFCLAIDIFI": ""
        }
      ],
      "modifiers": {
        "ItemEff_SprayCan": {
          "modifierName": "",
          "elementDurability": 100.0,
          "onAdded": [
            {
              "$type": "AttachEffect",
              "rotationDampTime": "Eff_Monster_Human_Item_SprayCan_01",
              "PPPDJGDDOGD": 1.0,
              "AJDILHJFNKE": -1.0
            }
          ]
        }
      },
      "isDynamicAbility": true
    }
  }
]
