[
  {
    "Default": {
      "$type": "ConfigAbility",
      "abilityName": "Monster_Sylph_Ice_PoseHandler",
      "abilityMixins": [
        {
          "$type": "AttachModifierToSelfGlobalValueMixin",
          "globalValueKey": "_SYLPH_POSE_TAG_",
          "gvInTalk": 0.0,
          "valueSteps": [-0.5, 0.5, 1.5],
          "modifierNameSteps": ["Pose_None", "Pose_Activated"]
        },
        {
          "$type": "PDIMAGBFBIE",
          "valueSteps": [0.019999999552965164],
          "modifierNameSteps": ["Sylph_Empty", "Sylph_DyingPoseState"]
        }
      ],
      "modifiers": {
        "UNIQUE_Sylph_Limbo": {
          "modifierName": "",
          "forceTriggerWhenChangeAuthority": true,
          "elementDurability": 100.0,
          "properties": {
            "Actor_HpThresholdRatio": 0.0
          },
          "state": "Limbo"
        },
        "Empty": {
          "modifierName": "",
          "elementDurability": 100.0
        },
        "Achieve_Moniter": {
          "modifierName": "",
          "elementDurability": 100.0,
          "onKill": [
            {
              "$type": "HCLAKBJKPLE",
              "watcherId": 82125,
              "inThreatListOnly": true
            }
          ]
        },
        "UNIQUE_Sylph_ChargeBar": {
          "modifierName": "",
          "forceTriggerWhenChangeAuthority": true,
          "elementDurability": 100.0,
          "modifierMixins": [
            {
              "$type": "HBPDEMIJCDL",
              "chargeBarIconID": 2,
              "initialValue": 0.0,
              "maxValue": 100.0
            },
            {
              "$type": "AttachModifierToSelfGlobalValueMixin",
              "globalValueKey": "_CHARGEBAR_VALUE",
              "gvInTalk": 0.0,
              "valueSteps": [-0.5, 0.5, 99.5, 100.5],
              "modifierNameSteps": [
                "Achieve_Moniter",
                "Empty",
                "ChargeActivated"
              ]
            },
            {
              "$type": "OPOICDPJIPL",
              "valueMin": 0.1875,
              "valueMax": 0.3125,
              "actionQueue": [
                {
                  "$type": "PMJJNECJCLE",
                  "value": 20.0,
                  "maxValue": 0.0,
                  "minValue": 0.0
                }
              ]
            },
            {
              "$type": "OPOICDPJIPL",
              "valueMin": 0.3125,
              "valueMax": 0.4375,
              "actionQueue": [
                {
                  "$type": "PMJJNECJCLE",
                  "value": 40.0,
                  "maxValue": 0.0,
                  "minValue": 0.0
                }
              ]
            },
            {
              "$type": "OPOICDPJIPL",
              "valueMin": 0.4375,
              "valueMax": 0.5625,
              "actionQueue": [
                {
                  "$type": "PMJJNECJCLE",
                  "value": 70.0,
                  "maxValue": 0.0,
                  "minValue": 0.0
                }
              ]
            },
            {
              "$type": "OPOICDPJIPL",
              "valueMin": 0.5625,
              "valueMax": 3.4028234663852886e38,
              "actionQueue": [
                {
                  "$type": "PMJJNECJCLE",
                  "value": 100.0,
                  "maxValue": 0.0,
                  "minValue": 0.0
                }
              ]
            }
          ],
          "onAdded": [
            {
              "$type": "FEJJABGNGHA",
              "value": 0.0
            }
          ]
        },
        "ChargeActivated": {
          "modifierName": "",
          "elementDurability": 100.0,
          "onAdded": [
            {
              "$type": "SetGlobalValue",
              "value": 1.0,
              "key": "_SYLPH_POSE_TAG_",
              "maxValue": 0.0,
              "minValue": 0.0
            },
            {
              "$type": "SetAnimatorTrigger",
              "triggerID": "NormalToActivated"
            }
          ],
          "onRemoved": [
            {
              "$type": "SetGlobalValue",
              "value": 0.0,
              "key": "_SYLPH_POSE_TAG_",
              "maxValue": 0.0,
              "minValue": 0.0
            },
            {
              "$type": "ResetAnimatorTrigger",
              "triggerID": "NormalToActivated"
            }
          ]
        },
        "Pose_None": {
          "modifierName": "",
          "elementDurability": 100.0,
          "onAdded": [
            {
              "$type": "IDNGFEEBPAM",
              "boolID": "ActivatedTag"
            },
            {
              "$type": "SetAnimatorBool",
              "boolID": "ActivatedTag"
            }
          ]
        },
        "Pose_Activated": {
          "modifierName": "",
          "elementDurability": 100.0,
          "modifierMixins": [
            {
              "$type": "CIBMLJJLANN",
              "excludeForces": ["WindZoneType", "AirflowType", "RetreatAirType"]
            }
          ],
          "properties": {
            "Entity_WeightRatio": 2.0
          },
          "onAdded": [
            {
              "$type": "IDNGFEEBPAM",
              "boolID": "ActivatedTag",
              "value": true
            },
            {
              "$type": "SetAnimatorBool",
              "boolID": "ActivatedTag",
              "value": true
            },
            {
              "$type": "IPMMJGMONCI",
              "skillIDs": [601]
            },
            {
              "$type": "DOANGHCALGB",
              "skillIDs": [601]
            },
            {
              "$type": "EnableHitBoxByName",
              "hitBoxNames": ["HitBoxBody"]
            },
            {
              "$type": "EnableHitBoxByName",
              "hitBoxNames": ["HitBoxBody_Activated"],
              "setEnable": true
            },
            {
              "$type": "EnablePushColliderName",
              "pushColliderNames": ["PushCollider"]
            },
            {
              "$type": "EnablePushColliderName",
              "pushColliderNames": ["PushCollider_Activated"],
              "setEnable": true
            }
          ]
        },
        "Sylph_DyingPoseState": {
          "modifierName": "",
          "elementDurability": 100.0,
          "properties": {
            "Actor_EndureDelta": 0.0,
            "Actor_SubHurtDelta": 1.0
          },
          "state": "DenyLockOn",
          "onAdded": [
            {
              "$type": "IDNGFEEBPAM",
              "boolID": "DyingState",
              "value": true
            },
            {
              "$type": "EnableHitBoxByName",
              "hitBoxNames": ["HitBoxBody"]
            },
            {
              "$type": "EnableHitBoxByName",
              "hitBoxNames": ["HitBoxBody_Activated"]
            },
            {
              "$type": "SetGlobalValue",
              "value": 1.0,
              "key": "_SYLPH_DEATH_TAG_",
              "maxValue": 0.0,
              "minValue": 0.0
            },
            {
              "$type": "AttachModifier",
              "modifierName": "Dying_IsGhostToAllied"
            },
            {
              "$type": "AttachModifier",
              "modifierName": "Dying_IsGhostToEnemy"
            },
            {
              "$type": "AttachModifier",
              "modifierName": "Dying_LockHP"
            },
            {
              "$type": "AttachModifier",
              "modifierName": "Dying_NoHeal"
            }
          ],
          "onRemoved": [
            {
              "$type": "IDNGFEEBPAM",
              "boolID": "DyingState"
            },
            {
              "$type": "EnableHitBoxByName",
              "predicates": [
                {
                  "$type": "ByTargetGlobalValue",
                  "key": "_SYLPH_POSE_TAG_",
                  "value": 0.0,
                  "compareType": "NoneOrEqual"
                }
              ],
              "hitBoxNames": ["HitBoxBody"],
              "setEnable": true
            },
            {
              "$type": "EnableHitBoxByName",
              "predicates": [
                {
                  "$type": "ByTargetGlobalValue",
                  "key": "_SYLPH_POSE_TAG_",
                  "value": 1.0
                }
              ],
              "hitBoxNames": ["HitBoxBody_Activated"],
              "setEnable": true
            },
            {
              "$type": "SetGlobalValue",
              "value": 0.0,
              "key": "_SYLPH_DEATH_TAG_",
              "maxValue": 0.0,
              "minValue": 0.0
            }
          ]
        },
        "Dying_IsGhostToAllied": {
          "modifierName": "",
          "elementDurability": 100.0,
          "state": "IsGhostToAllied"
        },
        "Dying_IsGhostToEnemy": {
          "modifierName": "",
          "elementDurability": 100.0,
          "state": "IsGhostToEnemy"
        },
        "Dying_LockHP": {
          "modifierName": "",
          "elementDurability": 100.0,
          "state": "LockHP"
        },
        "Dying_NoHeal": {
          "modifierName": "",
          "elementDurability": 100.0,
          "state": "NoHeal"
        },
        "Sylph_Empty": {
          "modifierName": "",
          "elementDurability": 100.0,
          "onKill": [
            {
              "$type": "AHPEKICBIIL",
              "shieldHP": true,
              "predicates": [
                {
                  "$type": "ByTargetGlobalValue",
                  "key": "_MONSTER_RoleCombat_MonsterTag",
                  "value": 1.0
                }
              ],
              "luaCallType": "CurGalleryControlGroup",
              "funcName": "SLC_RoleCombatET_PROCESS_Sylph_Die_Peacefuly",
              "param1": 0.0,
              "MGAMDEHMCOL": 0.0,
              "MMHOHAOGPLP": 0.0
            }
          ]
        }
      },
      "onAdded": [
        {
          "$type": "ApplyModifier",
          "modifierName": "UNIQUE_Sylph_Limbo"
        },
        {
          "$type": "ApplyModifier",
          "modifierName": "UNIQUE_Sylph_ChargeBar"
        },
        {
          "$type": "SetGlobalValue",
          "value": 0.0,
          "key": "_SYLPH_DEATH_TAG_",
          "maxValue": 0.0,
          "minValue": 0.0
        }
      ]
    }
  },
  {
    "Default": {
      "$type": "ConfigAbility",
      "abilityName": "Monster_Sylph_Ice_PoseAction",
      "abilityMixins": [
        {
          "$type": "LEOGLBFIELL",
          "poseIDs": [211, 311],
          "modifierName": "Sylph_DyingAnimState"
        }
      ],
      "modifiers": {
        "Sylph_DyingAnimState": {
          "modifierName": "",
          "elementDurability": 100.0,
          "thinkInterval": 0.20000000298023224,
          "onAdded": [
            {
              "$type": "SetAnimatorBool",
              "predicates": [
                {
                  "$type": "ByTargetGlobalValue",
                  "key": "_SYLPH_POSE_TAG_",
                  "value": 0.0,
                  "compareType": "NoneOrEqual"
                }
              ],
              "boolID": "DeathTag",
              "value": true
            },
            {
              "$type": "SetAnimatorBool",
              "predicates": [
                {
                  "$type": "ByTargetGlobalValue",
                  "key": "_SYLPH_POSE_TAG_",
                  "value": 1.0
                }
              ],
              "boolID": "ActivatedDeathTag",
              "value": true
            },
            {
              "$type": "GOKILMDLLJD",
              "resistanceListID": 13002
            }
          ],
          "onRemoved": [
            {
              "$type": "SetAnimatorBool",
              "predicates": [
                {
                  "$type": "ByTargetGlobalValue",
                  "key": "_SYLPH_POSE_TAG_",
                  "value": 0.0,
                  "compareType": "NoneOrEqual"
                }
              ],
              "boolID": "DeathTag"
            },
            {
              "$type": "SetAnimatorBool",
              "predicates": [
                {
                  "$type": "ByTargetGlobalValue",
                  "key": "_SYLPH_POSE_TAG_",
                  "value": 1.0
                }
              ],
              "boolID": "ActivatedDeathTag"
            }
          ],
          "onThinkInterval": [
            {
              "$type": "GOKILMDLLJD",
              "resistanceListID": 13002
            }
          ]
        }
      }
    }
  },
  {
    "Default": {
      "$type": "ConfigAbility",
      "abilityName": "Monster_Sylph_Ice_Steer",
      "abilityMixins": [
        {
          "$type": "IILHMBGONGM",
          "steerStateIDs": ["Activated_Standby"],
          "angularSpeed": 240.0,
          "attackTrigger": "",
          "DGFCLAIDIFI": ""
        },
        {
          "$type": "IILHMBGONGM",
          "steerStateIDs": ["Warning"],
          "angularSpeed": 150.0,
          "attackTrigger": "",
          "DGFCLAIDIFI": ""
        },
        {
          "$type": "IILHMBGONGM",
          "steerStateIDs": ["IceBullet"],
          "endNormalizedTime": 0.4399999976158142,
          "angularSpeed": 270.0,
          "attackTrigger": "",
          "DGFCLAIDIFI": ""
        },
        {
          "$type": "IILHMBGONGM",
          "steerStateIDs": ["IceBullet"],
          "startNormalizedTime": 0.8999999761581421,
          "angularSpeed": 240.0,
          "attackTrigger": "",
          "DGFCLAIDIFI": ""
        },
        {
          "$type": "IILHMBGONGM",
          "steerStateIDs": ["FlyHigh"],
          "endNormalizedTime": 0.30000001192092896,
          "angularSpeed": 120.0,
          "attackTrigger": "",
          "DGFCLAIDIFI": ""
        },
        {
          "$type": "IILHMBGONGM",
          "steerStateIDs": ["FlyBackHit"],
          "startNormalizedTime": 0.6000000238418579,
          "endNormalizedTime": 0.8999999761581421,
          "angularSpeed": 180.0,
          "attackTrigger": "",
          "DGFCLAIDIFI": ""
        },
        {
          "$type": "IILHMBGONGM",
          "steerStateIDs": ["FlyBackHit"],
          "endNormalizedTime": 0.4000000059604645,
          "angularSpeed": 180.0,
          "attackTrigger": "",
          "DGFCLAIDIFI": ""
        },
        {
          "$type": "IILHMBGONGM",
          "steerStateIDs": ["FlyHigh"],
          "startNormalizedTime": 0.8999999761581421,
          "angularSpeed": 240.0,
          "attackTrigger": "",
          "DGFCLAIDIFI": ""
        },
        {
          "$type": "IILHMBGONGM",
          "steerStateIDs": [
            "Activated_AirGun_BS",
            "Activated_AirGun_Loop",
            "Activated_AirGun_AS"
          ],
          "endNormalizedTime": 0.30000001192092896,
          "angularSpeed": 120.0,
          "attackTrigger": "",
          "DGFCLAIDIFI": ""
        }
      ]
    }
  },
  {
    "Default": {
      "$type": "ConfigAbility",
      "abilityName": "Monster_Sylph_Ice_ExitBattle",
      "abilityMixins": [
        {
          "$type": "LEOGLBFIELL",
          "poseIDs": [901],
          "modifierName": "ExitBattle"
        }
      ],
      "modifiers": {
        "ExitBattle": {
          "modifierName": "",
          "elementDurability": 100.0,
          "onAdded": [
            {
              "$type": "SetAnimatorTrigger",
              "predicates": [
                {
                  "$type": "ByTargetGlobalValue",
                  "key": "_SYLPH_POSE_TAG_",
                  "value": 1.0
                }
              ],
              "triggerID": "ActivatedToNormal"
            }
          ],
          "onRemoved": [
            {
              "$type": "SetGlobalValue",
              "value": 0.0,
              "key": "_SYLPH_POSE_TAG_",
              "maxValue": 0.0,
              "minValue": 0.0
            },
            {
              "$type": "IDNGFEEBPAM",
              "boolID": "DyingState"
            },
            {
              "$type": "IDNGFEEBPAM",
              "boolID": "ActivatedTag"
            },
            {
              "$type": "SetAnimatorBool",
              "boolID": "ActivatedTag"
            },
            {
              "$type": "FEJJABGNGHA",
              "value": 0.0
            },
            {
              "$type": "RemoveUniqueModifier",
              "modifierName": "UNIQUE_Sylph_Face"
            }
          ]
        }
      }
    }
  },
  {
    "Default": {
      "$type": "ConfigAbility",
      "abilityName": "Monster_Sylph_Ice_Bullet",
      "onAbilityStart": [
        {
          "$type": "TriggerBullet",
          "target": "SelfAttackTarget",
          "bulletID": 42006401,
          "born": {
            "$type": "ConfigBornByAttachPoint",
            "attachPointName": "BulletAttachPoint1",
            "attachPointTargetType": "Caster"
          }
        }
      ]
    }
  },
  {
    "Default": {
      "$type": "ConfigAbility",
      "abilityName": "Sylph_Ice_IceBullet_Hit",
      "onAdded": [
        {
          "$type": "AttachEffect",
          "rotationDampTime": "Eff_Monster_Sylph_Ice_IceBullet_Loop",
          "PPPDJGDDOGD": 1.0,
          "AJDILHJFNKE": -1.0
        }
      ],
      "onAbilityStart": [
        {
          "$type": "TriggerAttackEvent",
          "attackEvent": {
            "attackPattern": {
              "$type": "ConfigAttackSphere",
              "triggerType": "TriggerNoRepeat",
              "born": {
                "$type": "ConfigBornByCollisionPoint"
              },
              "radius": 0.5
            },
            "attackInfo": {
              "attackTag": "",
              "attenuationTag": "",
              "attenuationGroup": "default",
              "attackProperty": {
                "actorGrassSubHurtDelta": 0.800000011920929,
                "actorWindSubHurtDelta": 0.0,
                "elementType": "Ice",
                "elementDurability": 30.0,
                "strikeType": "Blunt",
                "enBreak": 10.0,
                "GLKMCMDJBIK": 0.0
              },
              "hitPattern": {
                "onHitEffectName": "none",
                "hitImpulseY": "",
                "hitImpulseType": "LV2",
                "hitHaltTimeScale": 0.009999999776482582
              },
              "canBeModifiedBy": "OriginOwner"
            }
          },
          "targetType": "Enemy"
        },
        {
          "$type": "KillSelf"
        }
      ],
      "onKill": [
        {
          "$type": "FireEffect",
          "rotationDampTime": "Eff_Monster_Sylph_Ice_IceBullet_AS",
          "PPPDJGDDOGD": 1.0,
          "AJDILHJFNKE": -1.0
        }
      ]
    }
  },
  {
    "Default": {
      "$type": "ConfigAbility",
      "abilityName": "Monster_Sylph_Ice_FlyHor",
      "abilityMixins": [
        {
          "$type": "AttachToNormalizedTimeMixin",
          "stateID": "FlyBackHit",
          "modifierName": "IceRotation",
          "normalizeStart": 0.14000000059604645,
          "normalizeEnd": 0.7200000286102295,
          "DGFCLAIDIFI": ""
        }
      ],
      "modifiers": {
        "IceRotation": {
          "modifierName": "",
          "elementDurability": 100.0,
          "onAdded": [
            {
              "$type": "AttachEffect",
              "rotationDampTime": "Eff_Monster_Sylph_Ice_Fly_Loop",
              "PPPDJGDDOGD": 1.0,
              "AJDILHJFNKE": -1.0
            }
          ]
        }
      },
      "onAbilityStart": [
        {
          "$type": "TriggerBullet",
          "bulletID": 42006402,
          "born": {
            "$type": "ConfigBornByAttachPoint",
            "offset": {
              "x": 0.0,
              "y": 0.0,
              "z": 0.0
            },
            "attachPointName": "RootNode"
          }
        }
      ]
    }
  },
  {
    "Default": {
      "$type": "ConfigAbility",
      "abilityName": "Sylph_Ice_ElementBullet_Hit",
      "onAdded": [
        {
          "$type": "AttachEffect",
          "rotationDampTime": "Eff_Monster_Sylph_Ice_ElementBullet",
          "PPPDJGDDOGD": 1.0,
          "AJDILHJFNKE": -1.0
        }
      ],
      "onAbilityStart": [
        {
          "$type": "TriggerAttackEvent",
          "attackEvent": {
            "attackPattern": {
              "$type": "ConfigAttackSphere",
              "triggerType": "TriggerNoRepeat",
              "born": {
                "$type": "ConfigBornBySelf"
              },
              "radius": 2.5
            },
            "attackInfo": {
              "attackTag": "",
              "attenuationTag": "",
              "attenuationGroup": "default",
              "attackProperty": {
                "actorGrassSubHurtDelta": 0.800000011920929,
                "actorWindSubHurtDelta": 0.0,
                "elementType": "Ice",
                "elementDurability": 30.0,
                "enBreak": 10.0,
                "GLKMCMDJBIK": 0.0
              },
              "hitPattern": {
                "onHitEffectName": "",
                "hitImpulseY": "",
                "hitImpulseType": "LV3",
                "retreatType": "ByHitDirection"
              },
              "canBeModifiedBy": "OriginOwner"
            }
          },
          "targetType": "Enemy"
        },
        {
          "$type": "FireEffect",
          "rotationDampTime": "Eff_Monster_Sylph_Ice_ElementBullet_AS",
          "PPPDJGDDOGD": 2.0,
          "AJDILHJFNKE": -1.0
        },
        {
          "$type": "KillSelf"
        }
      ]
    }
  },
  {
    "Default": {
      "$type": "ConfigAbility",
      "abilityName": "Monster_Sylph_Ice_Deathrattle",
      "abilityMixins": [
        {
          "$type": "AttachToStateIDMixin",
          "stateIDs": ["Deathrattle"],
          "modifierName": "Deathrattle_Pos",
          "DGFCLAIDIFI": ""
        }
      ],
      "modifiers": {
        "Deathrattle_Pos": {
          "modifierName": "",
          "elementDurability": 100.0,
          "onAdded": [
            {
              "$type": "CreateGadget",
              "born": {
                "$type": "ConfigBornByAttachPoint",
                "offset": {
                  "x": 0.0,
                  "y": 0.0,
                  "z": 0.0
                },
                "attachPointName": "RootNode"
              },
              "gadgetID": 42006406,
              "campID": 4001,
              "byServer": true
            }
          ],
          "onRemoved": [
            {
              "$type": "RemoveUniqueModifier",
              "modifierName": "UNIQUE_Sylph_Limbo"
            },
            {
              "$type": "KillSelf"
            }
          ]
        }
      }
    }
  },
  {
    "Default": {
      "$type": "ConfigAbility",
      "abilityName": "Sylph_Ice_DeathPosAction",
      "modifiers": {
        "Deathrattle_Timer": {
          "modifierName": "",
          "duration": 1.2000000476837158,
          "elementDurability": 100.0,
          "onAdded": [
            {
              "$type": "FireEffect",
              "rotationDampTime": "Eff_Monster_Sylph_Ice_Deathrattle",
              "PPPDJGDDOGD": 1.0,
              "AJDILHJFNKE": -1.0
            }
          ],
          "onRemoved": [
            {
              "$type": "ApplyModifier",
              "modifierName": "Deathrattle_Actions"
            }
          ]
        },
        "Deathrattle_Actions": {
          "modifierName": "",
          "duration": 0.20000000298023224,
          "elementDurability": 100.0,
          "onAdded": [
            {
              "$type": "TriggerAttackEvent",
              "attackEvent": {
                "attackPattern": {
                  "$type": "ConfigAttackSphere",
                  "triggerType": "TriggerNoRepeat",
                  "born": {
                    "$type": "ConfigBornByAttachPoint",
                    "offset": {
                      "x": 0.0,
                      "y": 0.0,
                      "z": 0.0
                    },
                    "attachPointName": "RootNode"
                  },
                  "radius": 2.5
                },
                "attackInfo": {
                  "attackTag": "",
                  "attenuationTag": "",
                  "attenuationGroup": "default",
                  "attackProperty": {
                    "actorGrassSubHurtDelta": 1.0,
                    "actorWindSubHurtDelta": 0.0,
                    "elementType": "Ice",
                    "elementDurability": 30.0,
                    "strikeType": "Blunt",
                    "enBreak": 10.0,
                    "GLKMCMDJBIK": 0.0
                  },
                  "hitPattern": {
                    "onHitEffectName": "default",
                    "hitImpulseY": "",
                    "hitImpulseType": "LV4",
                    "hitHaltTimeScale": 0.009999999776482582
                  }
                }
              },
              "targetType": "Enemy"
            }
          ]
        },
        "Deathrattle_LifeHandler": {
          "modifierName": "",
          "duration": 5.0,
          "elementDurability": 100.0,
          "onRemoved": [
            {
              "$type": "KillSelf"
            }
          ]
        }
      },
      "onAdded": [
        {
          "$type": "ApplyModifier",
          "modifierName": "Deathrattle_Timer"
        },
        {
          "$type": "ApplyModifier",
          "modifierName": "Deathrattle_LifeHandler"
        }
      ]
    }
  },
  {
    "Default": {
      "$type": "ConfigAbility",
      "abilityName": "Monster_Sylph_Ice_Activated_AirGun",
      "abilityMixins": [
        {
          "$type": "APJKOLPHCGH",
          "stateIDs": ["Activated_AirGun_BS"],
          "exitActions": [
            {
              "$type": "ApplyModifier",
              "modifierName": "Activated_AirGun_CountDown"
            }
          ],
          "DGFCLAIDIFI": ""
        }
      ],
      "modifiers": {
        "Activated_AirGun_CountDown": {
          "modifierName": "",
          "duration": 10.699999809265137,
          "elementDurability": 100.0,
          "thinkInterval": 0.10000000149011612,
          "onAdded": [
            {
              "$type": "SetAnimatorBool",
              "boolID": "ActiveAirGunEnd"
            }
          ],
          "onRemoved": [
            {
              "$type": "SetAnimatorBool",
              "boolID": "ActiveAirGunEnd",
              "value": true
            }
          ],
          "onThinkInterval": [
            {
              "$type": "Predicated",
              "target": "SelfAttackTarget",
              "targetPredicates": [
                {
                  "$type": "ByTargetPositionToSelfPosition",
                  "logic": "GreaterOrEqual",
                  "value": 20.0,
                  "DDALGNLEHOD": ""
                }
              ],
              "successActions": [
                {
                  "$type": "RemoveModifier",
                  "modifierName": "Activated_AirGun_CountDown"
                }
              ]
            }
          ]
        },
        "Activated_AirGun": {
          "modifierName": "",
          "duration": 0.10000000149011612,
          "elementDurability": 100.0,
          "onAdded": [
            {
              "$type": "TriggerBullet",
              "bulletID": 42006403,
              "born": {
                "$type": "ConfigBornByAttachPoint",
                "attachPointName": "BulletAttachPoint2",
                "attachPointTargetType": "Caster"
              }
            }
          ]
        }
      },
      "onAbilityStart": [
        {
          "$type": "ApplyModifier",
          "modifierName": "Activated_AirGun"
        }
      ]
    }
  },
  {
    "Default": {
      "$type": "ConfigAbility",
      "abilityName": "Sylph_Ice_Activated_AirGun_Hit",
      "onAdded": [
        {
          "$type": "AttachEffect",
          "rotationDampTime": "Eff_Monster_Sylph_Ice_Activated_IceBall_Bullet",
          "PPPDJGDDOGD": 1.0,
          "AJDILHJFNKE": -1.0
        }
      ],
      "onAbilityStart": [
        {
          "$type": "TriggerAttackEvent",
          "attackEvent": {
            "attackPattern": {
              "$type": "ConfigAttackSphere",
              "triggerType": "TriggerNoRepeat",
              "born": {
                "$type": "ConfigBornByCollisionPoint"
              },
              "radius": 1.7999999523162842
            },
            "attackInfo": {
              "attackTag": "",
              "attenuationTag": "",
              "attenuationGroup": "default",
              "attackProperty": {
                "actorGrassSubHurtDelta": 1.0,
                "actorWindSubHurtDelta": 0.0,
                "elementType": "Ice",
                "elementDurability": 50.0,
                "strikeType": "Blunt",
                "enBreak": 100.0,
                "GLKMCMDJBIK": 0.0
              },
              "hitPattern": {
                "onHitEffectName": "none",
                "hitImpulseY": "",
                "hitImpulseType": "LV4",
                "hitHaltTimeScale": 0.009999999776482582
              },
              "canBeModifiedBy": "OriginOwner"
            }
          },
          "targetType": "Enemy"
        },
        {
          "$type": "KillSelf"
        }
      ],
      "onKill": [
        {
          "$type": "FireEffect",
          "rotationDampTime": "Eff_Monster_Sylph_Ice_Activated_IceBall_BulletExplode",
          "PPPDJGDDOGD": 1.0,
          "AJDILHJFNKE": -1.0
        }
      ]
    }
  },
  {
    "Default": {
      "$type": "ConfigAbility",
      "abilityName": "Monster_Sylph_Ice_Activated_Deathrattle",
      "abilityMixins": [
        {
          "$type": "AttachToStateIDMixin",
          "stateIDs": ["Activated_Deathrattle"],
          "modifierName": "Activated_Deathrattle_Pos",
          "DGFCLAIDIFI": ""
        }
      ],
      "modifiers": {
        "Activated_Deathrattle_Pos": {
          "modifierName": "",
          "elementDurability": 100.0,
          "onAdded": [
            {
              "$type": "CreateGadget",
              "born": {
                "$type": "ConfigBornByAttachPoint",
                "offset": {
                  "x": 0.0,
                  "y": 0.0,
                  "z": 0.0
                },
                "attachPointName": "RootNode"
              },
              "gadgetID": 42006405,
              "campID": 4001,
              "byServer": true
            }
          ],
          "onRemoved": [
            {
              "$type": "RemoveUniqueModifier",
              "modifierName": "UNIQUE_Sylph_Limbo"
            },
            {
              "$type": "KillSelf"
            }
          ]
        }
      }
    }
  },
  {
    "Default": {
      "$type": "ConfigAbility",
      "abilityName": "Sylph_Ice_Activated_DeathPosAction",
      "modifiers": {
        "Activated_Deathrattle_Timer": {
          "modifierName": "",
          "duration": 1.8700000047683716,
          "elementDurability": 100.0,
          "onAdded": [
            {
              "$type": "FireEffect",
              "rotationDampTime": "Eff_Monster_Sylph_Ice_Activated_Deathrattle",
              "PPPDJGDDOGD": 1.0,
              "AJDILHJFNKE": -1.0
            }
          ],
          "onRemoved": [
            {
              "$type": "ApplyModifier",
              "modifierName": "Activated_Deathrattle_Actions"
            }
          ]
        },
        "Activated_Deathrattle_Actions": {
          "modifierName": "",
          "duration": 0.20000000298023224,
          "elementDurability": 100.0,
          "onAdded": [
            {
              "$type": "TriggerAttackEvent",
              "attackEvent": {
                "attackPattern": {
                  "$type": "ConfigAttackSphere",
                  "triggerType": "TriggerNoRepeat",
                  "born": {
                    "$type": "ConfigBornByAttachPoint",
                    "offset": {
                      "x": 0.0,
                      "y": 0.0,
                      "z": 0.0
                    },
                    "attachPointName": "RootNode"
                  },
                  "radius": 5.0
                },
                "attackInfo": {
                  "attackTag": "",
                  "attenuationTag": "",
                  "attenuationGroup": "default",
                  "attackProperty": {
                    "actorGrassSubHurtDelta": 1.2000000476837158,
                    "actorWindSubHurtDelta": 0.0,
                    "elementType": "Ice",
                    "elementDurability": 25.0,
                    "strikeType": "Blunt",
                    "enBreak": 100.0,
                    "GLKMCMDJBIK": 0.0
                  },
                  "hitPattern": {
                    "onHitEffectName": "default",
                    "hitImpulseY": "",
                    "hitImpulseType": "LV0",
                    "hitHaltTimeScale": 0.009999999776482582
                  }
                }
              },
              "targetType": "Enemy"
            },
            {
              "$type": "CreateGadget",
              "born": {
                "$type": "ConfigBornByAttachPoint",
                "offset": {
                  "x": 0.0,
                  "y": 0.0,
                  "z": 0.0
                },
                "onGround": true,
                "attachPointName": "RootNode"
              },
              "gadgetID": 42006404,
              "campID": 4001,
              "byServer": true
            }
          ]
        },
        "Activated_Deathrattle_LifeHandler": {
          "modifierName": "",
          "duration": 5.0,
          "elementDurability": 100.0,
          "onRemoved": [
            {
              "$type": "KillSelf"
            }
          ]
        }
      },
      "onAdded": [
        {
          "$type": "ApplyModifier",
          "modifierName": "Activated_Deathrattle_Timer"
        },
        {
          "$type": "ApplyModifier",
          "modifierName": "Activated_Deathrattle_LifeHandler"
        }
      ]
    }
  },
  {
    "Default": {
      "$type": "ConfigAbility",
      "abilityName": "Sylph_Ice_Activated_Zone",
      "modifiers": {
        "Zone_Handler": {
          "modifierName": "",
          "duration": 5.0,
          "elementDurability": 100.0,
          "thinkInterval": 0.5,
          "onAdded": [
            {
              "$type": "AttachEffect",
              "rotationDampTime": "Eff_Monster_Sylph_Ice_Activated_Deathrattle_Area",
              "born": {
                "$type": "ConfigBornBySelf",
                "onGround": true
              },
              "PPPDJGDDOGD": 1.0,
              "AJDILHJFNKE": -1.0
            }
          ],
          "onRemoved": [
            {
              "$type": "KillSelf"
            }
          ],
          "onThinkInterval": [
            {
              "$type": "TriggerAttackEvent",
              "attackEvent": {
                "attackPattern": {
                  "$type": "ConfigAttackCircle",
                  "triggerType": "TriggerNoRepeat",
                  "born": {
                    "$type": "ConfigBornBySelf",
                    "offset": {
                      "x": 0.0,
                      "y": 0.0,
                      "z": 0.0
                    }
                  },
                  "height": 0.20000000298023224,
                  "radius": 2.5
                },
                "attackInfo": {
                  "attackTag": "",
                  "attenuationTag": "",
                  "attenuationGroup": "default",
                  "attackProperty": {
                    "actorGrassSubHurtDelta": 0.4000000059604645,
                    "actorWindSubHurtDelta": 0.0,
                    "elementType": "Ice",
                    "elementDurability": 25.0,
                    "strikeType": "Default",
                    "enBreak": 0.0,
                    "GLKMCMDJBIK": 0.0
                  },
                  "hitPattern": {
                    "onHitEffectName": "default",
                    "hitImpulseY": "",
                    "hitImpulseType": "LV0",
                    "retreatType": "ByHitDirection",
                    "hitHaltTimeScale": 0.05000000074505806
                  },
                  "canBeModifiedBy": "OriginOwner"
                }
              },
              "targetType": "Enemy"
            }
          ]
        }
      },
      "onAdded": [
        {
          "$type": "AttachModifier",
          "modifierName": "Zone_Handler"
        }
      ]
    }
  }
]
