[
  {
    "Default": {
      "$type": "ConfigAbility",
      "abilityName": "Thoarder_Female_Hatchet_SteerAttack",
      "abilityMixins": [
        {
          "$type": "IILHMBGONGM",
          "steerStateIDs": ["NormalAtk"],
          "endNormalizedTime": 0.019999999552965164,
          "angularSpeed": 480.0,
          "attackTrigger": "",
          "attackDistance": 3.75,
          "DGFCLAIDIFI": ""
        },
        {
          "$type": "IILHMBGONGM",
          "steerStateIDs": ["NormalAtk"],
          "startNormalizedTime": 0.23800000548362732,
          "endNormalizedTime": 0.257999986410141,
          "angularSpeed": 480.0,
          "attackTrigger": "",
          "attackDistance": 3.75,
          "DGFCLAIDIFI": ""
        },
        {
          "$type": "IILHMBGONGM",
          "steerStateIDs": ["JumpAttack"],
          "startNormalizedTime": 0.23999999463558197,
          "endNormalizedTime": 0.30000001192092896,
          "angularSpeed": 480.0,
          "attackTrigger": "",
          "attackDistance": 3.75,
          "DGFCLAIDIFI": ""
        },
        {
          "$type": "IILHMBGONGM",
          "steerStateIDs": ["TripleAttack"],
          "endNormalizedTime": 0.009999999776482582,
          "angularSpeed": 540.0,
          "attackTrigger": "",
          "attackDistance": 3.75,
          "DGFCLAIDIFI": ""
        },
        {
          "$type": "IILHMBGONGM",
          "steerStateIDs": ["TripleAttack"],
          "startNormalizedTime": 0.20000000298023224,
          "endNormalizedTime": 0.2199999988079071,
          "angularSpeed": 480.0,
          "attackTrigger": "",
          "attackDistance": 3.75,
          "DGFCLAIDIFI": ""
        },
        {
          "$type": "IILHMBGONGM",
          "steerStateIDs": ["TripleAttack"],
          "startNormalizedTime": 0.46000000834465027,
          "endNormalizedTime": 0.47999998927116394,
          "angularSpeed": 480.0,
          "attackTrigger": "",
          "attackDistance": 3.75,
          "DGFCLAIDIFI": ""
        }
      ]
    }
  },
  {
    "Default": {
      "$type": "ConfigAbility",
      "abilityName": "Thoarder_Female_Hatchet_NormalAtk_RushMove01",
      "onAbilityStart": [
        {
          "$type": "POLLHJCDPMK",
          "toPos": {
            "$type": "ConfigBornBySelf",
            "offset": {
              "x": 0.0,
              "y": 0.0,
              "z": 2.0
            }
          },
          "minRange": 0.30000001192092896,
          "maxRange": 0.30000001192092896,
          "timeRange": 0.10000000149011612
        }
      ]
    }
  },
  {
    "Default": {
      "$type": "ConfigAbility",
      "abilityName": "Thoarder_Female_Hatchet_JumpAttack_RushMove01"
    }
  },
  {
    "Default": {
      "$type": "ConfigAbility",
      "abilityName": "Thoarder_Female_Hatchet_JumpAttack_RushMove02",
      "onAbilityStart": [
        {
          "$type": "POLLHJCDPMK",
          "toPos": {
            "$type": "ConfigBornBySelf",
            "offset": {
              "x": 0.0,
              "y": 0.0,
              "z": 4.0
            }
          },
          "minRange": 1.2000000476837158,
          "maxRange": 1.2000000476837158,
          "timeRange": 0.2549999952316284
        }
      ]
    }
  },
  {
    "Default": {
      "$type": "ConfigAbility",
      "abilityName": "Thoarder_Female_Hatchet_Throw_Effect"
    }
  },
  {
    "Default": {
      "$type": "ConfigAbility",
      "abilityName": "Thoarder_Female_Hatchet_Throw",
      "abilityMixins": [
        {
          "$type": "IILHMBGONGM",
          "steerStateIDs": ["Throw"],
          "startNormalizedTime": 0.550000011920929,
          "endNormalizedTime": 0.6000000238418579,
          "angularSpeed": 320.0,
          "attackTrigger": "",
          "attackDistance": 3.75,
          "DGFCLAIDIFI": ""
        }
      ],
      "onAbilityStart": [
        {
          "$type": "TriggerBullet",
          "bulletID": 42504001,
          "born": {
            "$type": "ConfigBornByAttachPoint",
            "offset": {
              "x": 0.0,
              "y": 0.0,
              "z": 0.0
            },
            "direction": {
              "$type": "ConfigDirectionByAttackTarget",
              "maxAngleType": "Horizontal",
              "maxAngle": 15.0,
              "startPoint": ""
            },
            "attachPointName": "WeaponL"
          }
        }
      ]
    }
  }
]
