[
  {
    "Default": {
      "$type": "ConfigAbility",
      "abilityName": "Monster_Apep_Underling_SeedOfShiva_ExplodeTrigger",
      "abilityMixins": [
        {
          "$type": "DIDNLIKKLLF",
          "stateIDs": ["Explode"],
          "enterActions": [
            {
              "$type": "SetAnimatorBool",
              "boolID": "Charging",
              "value": true
            }
          ],
          "DGFCLAIDIFI": ""
        },
        {
          "$type": "IILHMBGONGM",
          "steerStateIDs": ["NormalMove"],
          "endNormalizedTime": 99.0,
          "angularSpeed": 90.0,
          "attackTrigger": "",
          "DGFCLAIDIFI": ""
        },
        {
          "$type": "IILHMBGONGM",
          "steerStateIDs": ["Explode"],
          "endNormalizedTime": 99.0,
          "angularSpeed": 90.0,
          "attackTrigger": "",
          "DGFCLAIDIFI": ""
        },
        {
          "$type": "AttachModifierToSelfGlobalValueMixin",
          "globalValueKey": "_MONSTER_Apep_Underling_SeedOfShiva_ExplodeTrigger",
          "gvInTalk": 0.0,
          "valueSteps": [-0.5, 0.5, 1.5],
          "modifierNameSteps": ["SeedOfShiva_Die", "SeedOfShiva_Explode"]
        }
      ],
      "modifiers": {
        "Monster_Apep_Underling_SeedOfShiva_ExplodeTrigger": {
          "modifierName": "",
          "elementDurability": 100.0,
          "thinkInterval": 0.20000000298023224,
          "onAdded": [
            {
              "$type": "Predicated",
              "target": "SelfAttackTarget",
              "targetPredicates": [
                {
                  "$type": "ByTargetGlobalValue",
                  "key": "_MONSTER_Apep_Stage2_DefendTarget",
                  "value": 1.0
                },
                {
                  "$type": "ByTargetPositionToSelfPosition",
                  "logic": "LesserOrEqual",
                  "value": 3.0,
                  "DDALGNLEHOD": ""
                }
              ],
              "successActions": [
                {
                  "$type": "IDNGFEEBPAM",
                  "boolID": "Explode",
                  "value": true
                }
              ]
            }
          ],
          "onThinkInterval": [
            {
              "$type": "Predicated",
              "target": "SelfAttackTarget",
              "targetPredicates": [
                {
                  "$type": "ByTargetGlobalValue",
                  "key": "_MONSTER_Apep_Stage2_DefendTarget",
                  "value": 1.0
                },
                {
                  "$type": "ByTargetPositionToSelfPosition",
                  "logic": "LesserOrEqual",
                  "value": 3.5,
                  "DDALGNLEHOD": ""
                }
              ],
              "successActions": [
                {
                  "$type": "IDNGFEEBPAM",
                  "boolID": "Explode",
                  "value": true
                }
              ]
            }
          ]
        },
        "SeedOfShiva_Die": {
          "modifierName": "",
          "elementDurability": 100.0,
          "modifierMixins": [
            {
              "$type": "IBPGGPHEDLF",
              "gadgetIDList": [42908209],
              "campID": 1001,
              "campTargetType": "Enemy"
            }
          ]
        },
        "SeedOfShiva_Explode": {
          "modifierName": "",
          "elementDurability": 100.0,
          "modifierMixins": [
            {
              "$type": "NAOEBBPINOO",
              "dieForceDisappearTime": 0.0,
              "dieDisappearEffect": "",
              "muteHitBox": true,
              "dieDenyLockOn": true,
              "dieIsGhostToEnemy": true,
              "dieIgnoreTriggerBullet": true,
              "muteBillboard": true,
              "mutePushCollider": true
            },
            {
              "$type": "IBPGGPHEDLF",
              "gadgetIDList": [42908207],
              "campID": 4001,
              "campTargetType": "Enemy"
            }
          ],
          "onAdded": [
            {
              "$type": "SetAnimatorBool",
              "boolID": "ExplodeDie",
              "value": true
            },
            {
              "$type": "DLEIPBPNAIM",
              "paramList": [1, 1]
            },
            {
              "$type": "KillSelf"
            }
          ]
        }
      },
      "onAdded": [
        {
          "$type": "AttachModifier",
          "modifierName": "Monster_Apep_Underling_SeedOfShiva_ExplodeTrigger"
        },
        {
          "$type": "SetGlobalValue",
          "value": 1.0,
          "key": "_MONSTER_Apep_Underling_SeedOfShiva_Tag",
          "maxValue": 0.0,
          "minValue": 0.0
        },
        {
          "$type": "BAKEBEKLLAC",
          "id": 201790203
        },
        {
          "$type": "DLEIPBPNAIM",
          "paramList": [1, 0]
        }
      ],
      "onAbilityStart": [
        {
          "$type": "SetGlobalValue",
          "value": 1.0,
          "key": "_MONSTER_Apep_Underling_SeedOfShiva_ExplodeTrigger",
          "maxValue": 0.0,
          "minValue": 0.0
        }
      ]
    }
  },
  {
    "Default": {
      "$type": "ConfigAbility",
      "abilityName": "Apep_Underling_SeedOfShiva_Die",
      "onAdded": [
        {
          "$type": "SetGlobalValue",
          "value": 1.0,
          "key": "_MONSTER_Apep_Underling_SpecialGadget",
          "maxValue": 0.0,
          "minValue": 0.0
        },
        {
          "$type": "AHPEKICBIIL",
          "otherTargets": {
            "$type": "SelectTargetsByShape",
            "topLimit": 1,
            "sortType": "Nearest",
            "shapeName": "CircleR50",
            "campTargetType": "SelfCamp",
            "doOffStage": 1.0
          },
          "predicates": [
            {
              "$type": "ByTargetGlobalValue",
              "key": "SGV_Show_Bar",
              "value": 1.0
            }
          ],
          "luaCallType": "FromGroup",
          "isTarget": true,
          "funcName": "SLC_UpdateProtectScore",
          "paramNum": 1,
          "param1": 220.0,
          "MGAMDEHMCOL": 0.0,
          "MMHOHAOGPLP": 0.0
        },
        {
          "$type": "ReviveElemEnergy",
          "target": "AllPlayerAvatars",
          "shieldHP": true,
          "value": 20.0
        },
        {
          "$type": "KillSelf",
          "duration": 2.0
        }
      ]
    }
  },
  {
    "Default": {
      "$type": "ConfigAbility",
      "abilityName": "Apep_Underling_SeedOfShiva_SelfExplosion",
      "modifiers": {
        "SelfExplosion": {
          "modifierName": "",
          "elementDurability": 100.0,
          "onAdded": [
            {
              "$type": "FireEffect",
              "rotationDampTime": "Eff_Monster_Apep_Underling_SeedOfShiva_Explode",
              "PPPDJGDDOGD": 1.0,
              "AJDILHJFNKE": -1.0
            },
            {
              "$type": "TriggerAttackEvent",
              "attackEvent": {
                "attackPattern": {
                  "$type": "ConfigAttackSphere",
                  "triggerType": "TriggerNoRepeat",
                  "born": {
                    "$type": "ConfigBornBySelf",
                    "offset": {
                      "x": 0.0,
                      "y": 0.0,
                      "z": 0.0
                    },
                    "useRotation": true
                  },
                  "radius": 3.5
                },
                "attackInfo": {
                  "attackTag": "Apep_UnderlingAttack_Type3",
                  "attenuationTag": "",
                  "attenuationGroup": "default",
                  "attackProperty": {
                    "actorGrassSubHurtDelta": 1.0,
                    "actorWindSubHurtDelta": 0.0,
                    "elementType": "Grass",
                    "elementDurability": 25.0,
                    "strikeType": "Slash",
                    "enBreak": 100.0,
                    "attackType": "Melee",
                    "GLKMCMDJBIK": 0.0
                  },
                  "hitPattern": {
                    "onHitEffectName": "default",
                    "hitImpulseY": "",
                    "hitImpulseType": "LV4"
                  },
                  "forceCameraShake": true,
                  "cameraShake": {
                    "shakeRange": 0.03999999910593033,
                    "shakeTime": 0.30000001192092896,
                    "extension": {
                      "baseCycle": 0.07999999821186066,
                      "cycleDamping": 0.03999999910593033,
                      "rangeAttenuation": 0.8999999761581421
                    }
                  }
                }
              },
              "targetType": "Enemy"
            },
            {
              "$type": "KillSelf",
              "duration": 3.0
            }
          ]
        }
      },
      "onAdded": [
        {
          "$type": "AttachModifier",
          "modifierName": "SelfExplosion"
        }
      ]
    }
  }
]
