[
  {
    "Default": {
      "$type": "ConfigAbility",
      "abilityName": "Monster_Apep_Underling_SeedOfAshura_ChaseAttack",
      "abilityMixins": [
        {
          "$type": "IILHMBGONGM",
          "steerStateIDs": ["Standby"],
          "endNormalizedTime": 99.0,
          "angularSpeed": 45.0,
          "attackTrigger": "",
          "DGFCLAIDIFI": ""
        },
        {
          "$type": "IILHMBGONGM",
          "steerStateIDs": ["ChaseAttack"],
          "endNormalizedTime": 2.0,
          "angularSpeed": 180.0,
          "attackTrigger": "",
          "DGFCLAIDIFI": ""
        },
        {
          "$type": "IILHMBGONGM",
          "steerStateIDs": ["MeleeAttack"],
          "endNormalizedTime": 0.30000001192092896,
          "angularSpeed": 90.0,
          "attackTrigger": "",
          "DGFCLAIDIFI": ""
        }
      ]
    }
  },
  {
    "Default": {
      "$type": "ConfigAbility",
      "abilityName": "Monster_Apep_Underling_SeedOfAshura_Swallow_ChoseTarget",
      "abilityMixins": [
        {
          "$type": "LEOGLBFIELL",
          "poseIDs": [101],
          "modifierName": "Swallow_ChoseTarget_Manager"
        }
      ],
      "modifiers": {
        "Swallow_ChoseTarget_Manager": {
          "modifierName": "",
          "elementDurability": 100.0,
          "modifierMixins": [
            {
              "$type": "AttachModifierToGlobalValueMixin",
              "globalValueKey": "_MONSTER_Apep_Underling_SeedOfAshura_Swallow_HasTarget",
              "valueSteps": [-0.5, 0.5],
              "modifierNameSteps": ["ChosingTarget"]
            }
          ],
          "onAdded": [
            {
              "$type": "SetGlobalValue",
              "value": 0.0,
              "key": "_MONSTER_Apep_Underling_SeedOfAshura_Swallow_HasTarget",
              "maxValue": 0.0,
              "minValue": 0.0
            },
            {
              "$type": "RemoveUniqueModifier",
              "otherTargets": {
                "$type": "SelectTargetsByShape",
                "shapeName": "CircleR50",
                "campTargetType": "SelfCamp",
                "doOffStage": 1.0
              },
              "modifierName": "UNIQUE_Swallow_Target_TriggerTaunt"
            }
          ],
          "onRemoved": [
            {
              "$type": "RemoveUniqueModifier",
              "otherTargets": {
                "$type": "SelectTargetsByShape",
                "shapeName": "CircleR50",
                "campTargetType": "SelfCamp",
                "doOffStage": 1.0
              },
              "modifierName": "UNIQUE_Swallow_Target_TriggerTaunt"
            }
          ]
        },
        "ChosingTarget": {
          "modifierName": "",
          "elementDurability": 100.0,
          "thinkInterval": 0.20000000298023224,
          "onThinkInterval": [
            {
              "$type": "Predicated",
              "otherTargets": {
                "$type": "SelectTargetsByShape",
                "topLimit": 1,
                "sortType": "Nearest",
                "shapeName": "CircleR50",
                "campTargetType": "SelfCamp",
                "doOffStage": 1.0
              },
              "predicates": [
                {
                  "$type": "ByTargetGlobalValue",
                  "key": "_MONSTER_Apep_Underling_SeedOfKarna_Tag",
                  "value": 1.0
                }
              ],
              "successActions": [
                {
                  "$type": "ApplyModifier",
                  "target": "Target",
                  "modifierName": "UNIQUE_Swallow_Target_TriggerTaunt"
                },
                {
                  "$type": "SetGlobalValue",
                  "value": 1.0,
                  "key": "_MONSTER_Apep_Underling_SeedOfAshura_Swallow_HasTarget",
                  "maxValue": 0.0,
                  "minValue": 0.0
                }
              ]
            }
          ]
        },
        "UNIQUE_Swallow_Target_TriggerTaunt": {
          "modifierName": "",
          "forceTriggerWhenChangeAuthority": true,
          "elementDurability": 100.0,
          "onAdded": [
            {
              "$type": "SetGlobalValue",
              "value": 1.0,
              "key": "_MONSTER_Apep_Underling_SeedOfAshura_TriggerTaunt",
              "maxValue": 0.0,
              "minValue": 0.0
            }
          ],
          "onRemoved": [
            {
              "$type": "SetGlobalValue",
              "value": 0.0,
              "key": "_MONSTER_Apep_Underling_SeedOfAshura_TriggerTaunt",
              "maxValue": 0.0,
              "minValue": 0.0
            },
            {
              "$type": "ApplyModifier",
              "target": "Caster",
              "modifierName": "Target_Die"
            }
          ],
          "onKill": [
            {
              "$type": "ApplyModifier",
              "target": "Caster",
              "modifierName": "Target_Die"
            }
          ]
        },
        "Target_Die": {
          "modifierName": "",
          "duration": 0.5,
          "elementDurability": 100.0,
          "onAdded": [
            {
              "$type": "SetGlobalValue",
              "value": 0.0,
              "key": "_MONSTER_Apep_Underling_SeedOfAshura_Swallow_HasTarget",
              "maxValue": 0.0,
              "minValue": 0.0
            }
          ]
        }
      }
    }
  },
  {
    "Default": {
      "$type": "ConfigAbility",
      "abilityName": "Monster_Apep_Underling_SeedOfAshura_Swallow",
      "abilityMixins": [
        {
          "$type": "AttachToAnimatorStateIDMixin",
          "stateIDs": ["Swallow"],
          "modifierName": "Monster_Apep_Underling_SeedOfAshura_Swallow",
          "DGFCLAIDIFI": ""
        },
        {
          "$type": "AttachModifierToSelfGlobalValueMixin",
          "globalValueKey": "_MONSTER_Apep_Underling_SeedOfAshura_RageMode",
          "gvInTalk": 0.0,
          "valueSteps": [-0.5, 0.5, 1.5],
          "modifierNameSteps": ["NormalMode", "RageMode"]
        },
        {
          "$type": "AttachToAnimatorStateIDMixin",
          "stateIDs": ["ChaseAttack"],
          "modifierName": "RageMode_Monitor",
          "DGFCLAIDIFI": ""
        }
      ],
      "modifiers": {
        "NormalMode": {
          "modifierName": "",
          "elementDurability": 100.0,
          "onReconnect": [
            {
              "$type": "SetGlobalValue",
              "value": 0.0,
              "key": "_MONSTER_Apep_Underling_SeedOfAshura_ScaleUp",
              "maxValue": 0.0,
              "minValue": 0.0
            }
          ]
        },
        "RageMode": {
          "modifierName": "",
          "elementDurability": 100.0,
          "onAdded": [
            {
              "$type": "IDNGFEEBPAM",
              "boolID": "RageMode",
              "value": true
            },
            {
              "$type": "AttachModifier",
              "modifierName": "RageMode_Timer"
            },
            {
              "$type": "AttachModifier",
              "modifierName": "Monster_Apep_Underling_SeedOfAshura_Swallow_Properties"
            }
          ],
          "onRemoved": [
            {
              "$type": "IDNGFEEBPAM",
              "boolID": "RageMode"
            },
            {
              "$type": "SetAnimatorBool",
              "boolID": "RageMode"
            }
          ],
          "onReconnect": [
            {
              "$type": "SetGlobalValue",
              "value": 1.0,
              "key": "_MONSTER_Apep_Underling_SeedOfAshura_ScaleUp",
              "maxValue": 0.0,
              "minValue": 0.0
            },
            {
              "$type": "SetAnimatorBool",
              "boolID": "RageMode",
              "value": true
            }
          ]
        },
        "RageMode_Timer": {
          "modifierName": "",
          "duration": 20.0,
          "elementDurability": 100.0
        },
        "RageMode_Monitor": {
          "modifierName": "",
          "elementDurability": 100.0,
          "thinkInterval": 3.5,
          "onRemoved": [
            {
              "$type": "SetGlobalValue",
              "predicates": [
                {
                  "$type": "ByNot",
                  "predicates": [
                    {
                      "$type": "BHFFBBOLCCP",
                      "modifierName": "RageMode"
                    }
                  ]
                }
              ],
              "value": 0.0,
              "key": "_MONSTER_Apep_Underling_SeedOfAshura_ScaleUp",
              "maxValue": 0.0,
              "minValue": 0.0
            }
          ],
          "onThinkInterval": [
            {
              "$type": "SetGlobalValue",
              "predicates": [
                {
                  "$type": "ByNot",
                  "predicates": [
                    {
                      "$type": "BHFFBBOLCCP",
                      "modifierName": "RageMode_Timer"
                    }
                  ]
                }
              ],
              "value": 0.0,
              "key": "_MONSTER_Apep_Underling_SeedOfAshura_RageMode",
              "maxValue": 0.0,
              "minValue": 0.0
            }
          ]
        },
        "Monster_Apep_Underling_SeedOfAshura_Swallow_Properties": {
          "stacking": "Unique",
          "modifierName": "",
          "elementDurability": 100.0,
          "properties": {
            "Actor_EndureDelta": 0.009999999776482582
          },
          "onAdded": [
            {
              "$type": "AttachAbilityStateResistance",
              "resistanceListID": 14002,
              "durationRatio": 0.800000011920929
            }
          ]
        },
        "Monster_Apep_Underling_SeedOfAshura_Swallow": {
          "modifierName": "",
          "elementDurability": 100.0,
          "onAdded": [
            {
              "$type": "AttachEffect",
              "rotationDampTime": "Eff_Monster_Apep_Underling_SeedOfAshura_Swallow_Range",
              "PPPDJGDDOGD": 1.0,
              "AJDILHJFNKE": -1.0
            }
          ]
        },
        "UNIQUE_Monster_Apep_Underling_SeedOfAshura_ChosenOne": {
          "stacking": "Unique",
          "modifierName": "",
          "forceTriggerWhenChangeAuthority": true,
          "duration": 0.5,
          "elementDurability": 100.0,
          "modifierMixins": [
            {
              "$type": "NAOEBBPINOO",
              "dieForceDisappearTime": 0.0,
              "dieDisappearEffect": "Eff_Monster_Apep_Underling_SeedOfAshura_Swallow_Target",
              "muteHitBox": true,
              "dieDenyLockOn": true,
              "dieIsGhostToEnemy": true,
              "dieIgnoreTriggerBullet": true,
              "muteBillboard": true,
              "mutePushCollider": true
            }
          ],
          "onAdded": [
            {
              "$type": "SetGlobalValue",
              "value": 1.0,
              "key": "_MONSTER_Apep_Underling_SeedOfAshura_SwallowTarget",
              "maxValue": 0.0,
              "minValue": 0.0
            },
            {
              "$type": "KillSelf",
              "duration": 0.10000000149011612,
              "configIdArray": [29080201, 29080202]
            }
          ]
        }
      },
      "onAdded": [
        {
          "$type": "SetGlobalValue",
          "value": 1.0,
          "key": "_MONSTER_Apep_Underling_SeedOfAshura_Tag",
          "maxValue": 0.0,
          "minValue": 0.0
        },
        {
          "$type": "DLEIPBPNAIM",
          "paramList": [1, 0]
        }
      ],
      "onAbilityStart": [
        {
          "$type": "SetGlobalValue",
          "value": 0.0,
          "key": "_MONSTER_Apep_Underling_SeedOfAshura_SwallowCount_Once",
          "maxValue": 0.0,
          "minValue": 0.0
        },
        {
          "$type": "Predicated",
          "targetPredicates": [
            {
              "$type": "ByTargetGlobalValue",
              "key": "_MONSTER_Apep_Underling_SeedOfAshura_Swallow_HasTarget",
              "value": 1.0
            }
          ],
          "successActions": [
            {
              "$type": "Predicated",
              "otherTargets": {
                "$type": "SelectTargetsByShape",
                "shapeName": "CircleR6",
                "campTargetType": "SelfCamp",
                "doOffStage": 1.0
              },
              "targetPredicates": [
                {
                  "$type": "ByTargetGlobalValue",
                  "key": "_MONSTER_Apep_Underling_SeedOfKarna_Tag",
                  "value": 1.0
                },
                {
                  "$type": "ByTargetGlobalValue",
                  "key": "_MONSTER_Apep_Underling_SeedOfAshura_TriggerTaunt",
                  "value": 1.0
                }
              ],
              "successActions": [
                {
                  "$type": "AddGlobalValue",
                  "value": 1.0,
                  "key": "_MONSTER_Apep_Underling_SeedOfAshura_SwallowCount_Once",
                  "maxValue": 0.0,
                  "minValue": 0.0
                },
                {
                  "$type": "ApplyModifier",
                  "target": "Target",
                  "modifierName": "UNIQUE_Monster_Apep_Underling_SeedOfAshura_ChosenOne"
                },
                {
                  "$type": "TriggerBullet",
                  "target": "Target",
                  "bulletID": 42908205,
                  "born": {
                    "$type": "ConfigBornByTarget",
                    "offset": {
                      "x": 0.0,
                      "y": 0.0,
                      "z": 0.0
                    }
                  },
                  "lifeByOwnerIsAlive": true,
                  "trackTarget": "Caster"
                }
              ]
            }
          ],
          "failActions": [
            {
              "$type": "Predicated",
              "otherTargets": {
                "$type": "SelectTargetsByShape",
                "topLimit": 1,
                "sortType": "Nearest",
                "shapeName": "CircleR6",
                "campTargetType": "SelfCamp",
                "doOffStage": 1.0
              },
              "predicates": [
                {
                  "$type": "ByTargetGlobalValue",
                  "key": "_MONSTER_Apep_Underling_SeedOfKarna_Tag",
                  "value": 1.0
                }
              ],
              "successActions": [
                {
                  "$type": "AddGlobalValue",
                  "value": 1.0,
                  "key": "_MONSTER_Apep_Underling_SeedOfAshura_SwallowCount_Once",
                  "maxValue": 0.0,
                  "minValue": 0.0
                },
                {
                  "$type": "ApplyModifier",
                  "target": "Target",
                  "modifierName": "UNIQUE_Monster_Apep_Underling_SeedOfAshura_ChosenOne"
                },
                {
                  "$type": "TriggerBullet",
                  "target": "Target",
                  "bulletID": 42908205,
                  "born": {
                    "$type": "ConfigBornByTarget",
                    "offset": {
                      "x": 0.0,
                      "y": 0.0,
                      "z": 0.0
                    }
                  },
                  "lifeByOwnerIsAlive": true,
                  "trackTarget": "Caster"
                }
              ]
            }
          ]
        },
        {
          "$type": "Predicated",
          "targetPredicates": [
            {
              "$type": "ByTargetGlobalValue",
              "key": "_MONSTER_Apep_Underling_SeedOfAshura_SwallowCount_Once",
              "value": 1.0,
              "compareType": "MoreThanAndEqual"
            }
          ],
          "successActions": [
            {
              "$type": "FireEffect",
              "rotationDampTime": "Eff_Monster_Apep_Underling_SeedOfAshura_Swallow_Success_Mouth",
              "PPPDJGDDOGD": 1.0,
              "AJDILHJFNKE": -1.0
            },
            {
              "$type": "SetGlobalValue",
              "value": 1.0,
              "key": "_MONSTER_Apep_Underling_SeedOfAshura_RageMode",
              "maxValue": 0.0,
              "minValue": 0.0
            },
            {
              "$type": "DLEIPBPNAIM",
              "paramList": [1, 1]
            }
          ]
        }
      ]
    }
  },
  {
    "Default": {
      "$type": "ConfigAbility",
      "abilityName": "Monster_Apep_Underling_SeedOfAshura_Swallow_ScaleUp_Start",
      "onAbilityStart": [
        {
          "$type": "Predicated",
          "targetPredicates": [
            {
              "$type": "ByTargetGlobalValue",
              "key": "_MONSTER_Apep_Underling_SeedOfAshura_SwallowCount_Once",
              "value": 1.0,
              "compareType": "MoreThanAndEqual"
            }
          ],
          "successActions": [
            {
              "$type": "FireEffect",
              "rotationDampTime": "Eff_Monster_Apep_Underling_SeedOfAshura_Swallow_Success_02",
              "PPPDJGDDOGD": 1.0,
              "AJDILHJFNKE": -1.0
            },
            {
              "$type": "SetAnimatorBool",
              "boolID": "RageMode",
              "value": true
            }
          ]
        }
      ]
    }
  },
  {
    "Default": {
      "$type": "ConfigAbility",
      "abilityName": "Monster_Apep_Underling_SeedOfAshura_Swallow_ScaleUp",
      "abilityMixins": [
        {
          "$type": "AttachModifierToSelfGlobalValueMixin",
          "globalValueKey": "_MONSTER_Apep_Underling_SeedOfAshura_ScaleUp",
          "gvInTalk": 0.0,
          "valueSteps": [0.5, 1.5],
          "modifierNameSteps": [
            "UNIQUE_Monster_Apep_Underling_SeedOfAshura_ScaleUp"
          ]
        }
      ],
      "modifiers": {
        "UNIQUE_Monster_Apep_Underling_SeedOfAshura_ScaleUp": {
          "stacking": "Unique",
          "modifierName": "",
          "forceTriggerWhenChangeAuthority": true,
          "elementDurability": 100.0,
          "onAdded": [
            {
              "$type": "ELKFEEMFJFI",
              "canBeHandledOnRecover": true,
              "scale": 1.2999999523162842
            }
          ],
          "onRemoved": [
            {
              "$type": "ELKFEEMFJFI",
              "canBeHandledOnRecover": true,
              "scale": 0.800000011920929
            }
          ]
        }
      },
      "onAbilityStart": [
        {
          "$type": "Predicated",
          "targetPredicates": [
            {
              "$type": "ByTargetGlobalValue",
              "key": "_MONSTER_Apep_Underling_SeedOfAshura_SwallowCount_Once",
              "value": 1.0,
              "compareType": "MoreThanAndEqual"
            }
          ],
          "successActions": [
            {
              "$type": "SetGlobalValue",
              "value": 1.0,
              "key": "_MONSTER_Apep_Underling_SeedOfAshura_ScaleUp",
              "maxValue": 0.0,
              "minValue": 0.0
            }
          ]
        }
      ]
    }
  },
  {
    "Default": {
      "$type": "ConfigAbility",
      "abilityName": "Apep_Underling_SeedOfAshura_SwallowTarget",
      "onAbilityStart": [
        {
          "$type": "KillSelf",
          "predicates": [
            {
              "$type": "ByTargetGlobalValue",
              "key": "_MONSTER_Apep_Underling_SeedOfKarna_Tag",
              "value": 1.0
            }
          ]
        }
      ]
    }
  }
]
