[
  {
    "Default": {
      "$type": "ConfigAbility",
      "abilityName": "Monster_MachinaIustitia_Ruggiero01_Pose",
      "abilityMixins": [
        {
          "$type": "AttachModifierToSelfGlobalValueMixin",
          "globalValueKey": "_MACHINAIUSTITIA_STATIC_STATE_",
          "gvInTalk": 0.0,
          "valueSteps": [-1.5, -0.5, 0.5, 1.5],
          "modifierNameSteps": [
            "Pose_Init_Pneuma",
            "Pose_Init_Normal",
            "Pose_Init_Ousia"
          ]
        },
        {
          "$type": "AttachModifierToSelfGlobalValueMixin",
          "globalValueKey": "arkheGradeKey",
          "gvInTalk": 0.0,
          "valueSteps": [-2.5, -1.5, -0.5, 0.5, 1.5, 2.5],
          "modifierNameSteps": [
            "Pose_Pneuma_2",
            "Pose_Pneuma_1",
            "Pose_Normal",
            "Pose_Ousia_1",
            "Pose_Ousia_2"
          ]
        },
        {
          "$type": "CADNOOEAFHD",
          "actionQueue": [
            {
              "$type": "SetAnimatorTrigger",
              "predicates": [
                {
                  "$type": "ByEntityIsAlive",
                  "target": "Self"
                },
                {
                  "$type": "ByTargetGlobalValue",
                  "key": "arkheGradeKey",
                  "value": 0.0
                }
              ],
              "triggerID": "HitSpecialTrigger"
            },
            {
              "$type": "IDNGFEEBPAM",
              "boolID": "NoSensing"
            }
          ]
        }
      ],
      "modifiers": {
        "Pose_Init_Pneuma": {
          "modifierName": "",
          "elementDurability": 100.0,
          "onAdded": [
            {
              "$type": "PILJLANJHMK",
              "value": -2.0,
              "key": "arkheGradeKey",
              "maxValue": 0.0,
              "minValue": 0.0
            },
            {
              "$type": "SetAnimatorInt",
              "intID": "InitialPneumaOusia",
              "value": -1.0
            }
          ]
        },
        "Pose_Init_Normal": {
          "modifierName": "",
          "elementDurability": 100.0,
          "onAdded": [
            {
              "$type": "PILJLANJHMK",
              "value": 0.0,
              "key": "arkheGradeKey",
              "maxValue": 0.0,
              "minValue": 0.0
            },
            {
              "$type": "SetAnimatorInt",
              "intID": "InitialPneumaOusia",
              "value": 0.0
            }
          ]
        },
        "Pose_Init_Ousia": {
          "modifierName": "",
          "elementDurability": 100.0,
          "onAdded": [
            {
              "$type": "PILJLANJHMK",
              "value": 2.0,
              "key": "arkheGradeKey",
              "maxValue": 0.0,
              "minValue": 0.0
            },
            {
              "$type": "SetAnimatorInt",
              "intID": "InitialPneumaOusia",
              "value": 1.0
            },
            {
              "$type": "AttachModifier",
              "modifierName": "Ruggiero01_Ousia_EventPatternHandler"
            }
          ]
        },
        "Pose_Pneuma_2": {
          "modifierName": "",
          "elementDurability": 100.0,
          "onAdded": [
            {
              "$type": "GFFKENEJFFB",
              "intID": "StateTag",
              "value": -1
            },
            {
              "$type": "SetAnimatorInt",
              "intID": "EnergyTag1",
              "value": -2.0
            },
            {
              "$type": "ResetAnimatorTrigger",
              "triggerID": "HitSpecialTrigger"
            },
            {
              "$type": "SetGlobalValue",
              "value": 0.0,
              "key": "_MACHINAIUSTITIA_NEEDREPAIR_",
              "maxValue": 0.0,
              "minValue": 0.0
            },
            {
              "$type": "RemoveModifier",
              "modifierName": "Ruggiero01_SelfRepair_Delay"
            }
          ]
        },
        "Pose_Pneuma_1": {
          "modifierName": "",
          "elementDurability": 100.0,
          "onAdded": [
            {
              "$type": "GFFKENEJFFB",
              "intID": "StateTag",
              "value": -1
            },
            {
              "$type": "SetAnimatorInt",
              "intID": "EnergyTag1",
              "value": -1.0
            },
            {
              "$type": "ResetAnimatorTrigger",
              "triggerID": "HitSpecialTrigger"
            },
            {
              "$type": "SetGlobalValue",
              "value": 0.0,
              "key": "_MACHINAIUSTITIA_NEEDREPAIR_",
              "maxValue": 0.0,
              "minValue": 0.0
            },
            {
              "$type": "RemoveModifier",
              "modifierName": "Ruggiero01_SelfRepair_Delay"
            }
          ]
        },
        "Pose_Normal": {
          "modifierName": "",
          "elementDurability": 100.0,
          "onAdded": [
            {
              "$type": "GFFKENEJFFB",
              "intID": "StateTag"
            },
            {
              "$type": "SetAnimatorInt",
              "intID": "EnergyTag1",
              "value": 0.0
            },
            {
              "$type": "AttachModifier",
              "modifierName": "Ruggiero01_NeedRepair_Delay"
            },
            {
              "$type": "AttachModifier",
              "modifierName": "Ruggiero01_SelfRepair_Delay"
            }
          ]
        },
        "Pose_Ousia_2": {
          "modifierName": "",
          "elementDurability": 100.0,
          "onAdded": [
            {
              "$type": "GFFKENEJFFB",
              "intID": "StateTag",
              "value": 1
            },
            {
              "$type": "SetAnimatorInt",
              "intID": "EnergyTag1",
              "value": 2.0
            },
            {
              "$type": "ResetAnimatorTrigger",
              "triggerID": "HitSpecialTrigger"
            },
            {
              "$type": "SetGlobalValue",
              "value": 0.0,
              "key": "_MACHINAIUSTITIA_NEEDREPAIR_",
              "maxValue": 0.0,
              "minValue": 0.0
            },
            {
              "$type": "RemoveModifier",
              "modifierName": "Ruggiero01_SelfRepair_Delay"
            }
          ]
        },
        "Pose_Ousia_1": {
          "modifierName": "",
          "elementDurability": 100.0,
          "onAdded": [
            {
              "$type": "GFFKENEJFFB",
              "intID": "StateTag",
              "value": 1
            },
            {
              "$type": "SetAnimatorInt",
              "intID": "EnergyTag1",
              "value": 1.0
            },
            {
              "$type": "ResetAnimatorTrigger",
              "triggerID": "HitSpecialTrigger"
            },
            {
              "$type": "SetGlobalValue",
              "value": 0.0,
              "key": "_MACHINAIUSTITIA_NEEDREPAIR_",
              "maxValue": 0.0,
              "minValue": 0.0
            },
            {
              "$type": "RemoveModifier",
              "modifierName": "Ruggiero01_SelfRepair_Delay"
            }
          ]
        },
        "Ruggiero01_Ousia_EventPatternHandler": {
          "modifierName": "",
          "elementDurability": 100.0,
          "modifierMixins": [
            {
              "$type": "ReplaceEventPatternMixin",
              "oldPatterns": [
                "Monster_MachinaIustitia_Ruggiero01_Recover_Pneuma"
              ],
              "newPatterns": [
                "Monster_MachinaIustitia_Ruggiero01_Recover_Ousia"
              ]
            }
          ]
        },
        "Ruggiero01_NeedRepair_Delay": {
          "modifierName": "",
          "duration": 4.0,
          "elementDurability": 100.0,
          "onRemoved": [
            {
              "$type": "SetGlobalValue",
              "value": 1.0,
              "key": "_MACHINAIUSTITIA_NEEDREPAIR_",
              "maxValue": 0.0,
              "minValue": 0.0
            }
          ]
        },
        "Ruggiero01_SelfRepair_Delay": {
          "modifierName": "",
          "duration": 25.0,
          "elementDurability": 100.0,
          "onRemoved": [
            {
              "$type": "IPMMJGMONCI",
              "canBeHandledOnRecover": true,
              "predicates": [
                {
                  "$type": "ByTargetGlobalValue",
                  "key": "_MACHINAIUSTITIA_CHARGED_",
                  "value": 0.0,
                  "compareType": "NoneOrEqual"
                }
              ],
              "skillIDs": [192]
            },
            {
              "$type": "SetGlobalValue",
              "predicates": [
                {
                  "$type": "ByNot",
                  "predicates": [
                    {
                      "$type": "ByAnimatorFloat",
                      "logic": "Equal",
                      "value": 701.0,
                      "parameter": "PoseID"
                    },
                    {
                      "$type": "ByAnimatorFloat",
                      "logic": "Equal",
                      "value": 801.0,
                      "parameter": "PoseID"
                    },
                    {
                      "$type": "ByAnimatorFloat",
                      "logic": "Equal",
                      "value": 901.0,
                      "parameter": "PoseID"
                    },
                    {
                      "$type": "ByAnimatorFloat",
                      "logic": "Equal",
                      "value": 902.0,
                      "parameter": "PoseID"
                    },
                    {
                      "$type": "ByAnimatorFloat",
                      "logic": "Equal",
                      "value": 903.0,
                      "parameter": "PoseID"
                    },
                    {
                      "$type": "ByAnimatorFloat",
                      "logic": "Equal",
                      "value": 1.0,
                      "parameter": "PoseID"
                    },
                    {
                      "$type": "ByAnimatorFloat",
                      "logic": "Equal",
                      "value": 11.0,
                      "parameter": "PoseID"
                    },
                    {
                      "$type": "ByAnimatorFloat",
                      "logic": "Equal",
                      "value": 21.0,
                      "parameter": "PoseID"
                    },
                    {
                      "$type": "ByAnimatorFloat",
                      "logic": "Equal",
                      "value": 1001.0,
                      "parameter": "PoseID"
                    }
                  ]
                }
              ],
              "value": 1.0,
              "key": "_MACHINAIUSTITIA_SELFRECOVER_",
              "maxValue": 0.0,
              "minValue": 0.0
            }
          ]
        }
      }
    }
  },
  {
    "Default": {
      "$type": "ConfigAbility",
      "abilityName": "Monster_MachinaIustitia_Ruggiero01_RepairPose",
      "abilityMixins": [
        {
          "$type": "AttachModifierToSelfGlobalValueMixin",
          "globalValueKey": "_MACHINAIUSTITIA_CHARGED_",
          "gvInTalk": 0.0,
          "valueSteps": [-0.5, 0.5, 1.5],
          "modifierNameSteps": ["Pose_NoRepair", "Pose_ReadyRepair"]
        }
      ],
      "modifiers": {
        "Pose_NoRepair": {
          "modifierName": "",
          "elementDurability": 100.0,
          "onAdded": [
            {
              "$type": "IDNGFEEBPAM",
              "boolID": "RepairTag"
            }
          ]
        },
        "Pose_ReadyRepair": {
          "modifierName": "",
          "elementDurability": 100.0,
          "onAdded": [
            {
              "$type": "IDNGFEEBPAM",
              "boolID": "RepairTag",
              "value": true
            },
            {
              "$type": "SetGlobalValue",
              "value": 0.0,
              "key": "_MACHINAIUSTITIA_NEEDREPAIR_",
              "maxValue": 0.0,
              "minValue": 0.0
            }
          ]
        }
      },
      "onAdded": [
        {
          "$type": "SetGlobalValue",
          "value": 0.0,
          "key": "_MACHINAIUSTITIA_NEEDREPAIR_",
          "maxValue": 0.0,
          "minValue": 0.0
        },
        {
          "$type": "SetGlobalValue",
          "value": 0.0,
          "key": "_MACHINAIUSTITIA_CHARGED_",
          "maxValue": 0.0,
          "minValue": 0.0
        },
        {
          "$type": "SetGlobalValue",
          "value": 0.0,
          "key": "_MACHINAIUSTITIA_SELFRECOVER_",
          "maxValue": 0.0,
          "minValue": 0.0
        }
      ]
    }
  },
  {
    "Default": {
      "$type": "ConfigAbility",
      "abilityName": "Monster_MachinaIustitia_Ruggiero01_Recover_Pneuma",
      "onAbilityStart": [
        {
          "$type": "PILJLANJHMK",
          "value": -2.0,
          "key": "arkheGradeKey",
          "maxValue": 0.0,
          "minValue": 0.0
        },
        {
          "$type": "SetGlobalValue",
          "value": 0.0,
          "key": "_MACHINAIUSTITIA_CHARGED_",
          "maxValue": 0.0,
          "minValue": 0.0
        },
        {
          "$type": "SetGlobalValue",
          "value": 0.0,
          "key": "_MACHINAIUSTITIA_SELFRECOVER_",
          "maxValue": 0.0,
          "minValue": 0.0
        }
      ]
    }
  },
  {
    "Default": {
      "$type": "ConfigAbility",
      "abilityName": "Monster_MachinaIustitia_Ruggiero01_RecoverEffect_Pneuma",
      "onAbilityStart": [
        {
          "$type": "RemoveUniqueModifier",
          "modifierName": "UNIQUE_MachinaIustitia_Charge_Effect_Pneuma"
        }
      ]
    }
  },
  {
    "Default": {
      "$type": "ConfigAbility",
      "abilityName": "Monster_MachinaIustitia_Ruggiero01_Recover_Effect_Extra",
      "onAbilityStart": [
        {
          "$type": "FireEffect",
          "predicates": [
            {
              "$type": "ByTargetGlobalValue",
              "key": "_MACHINAIUSTITIA_CHARGED_",
              "value": 0.0,
              "compareType": "NoneOrEqual"
            },
            {
              "$type": "ByTargetGlobalValue",
              "key": "_MACHINAIUSTITIA_STATIC_STATE_",
              "value": -1.0,
              "compareType": "LessAndEqual"
            }
          ],
          "rotationDampTime": "Eff_Monster_MachinaIustitia_Recover_Pneuma",
          "PPPDJGDDOGD": 1.0,
          "AJDILHJFNKE": -1.0
        },
        {
          "$type": "FireEffect",
          "predicates": [
            {
              "$type": "ByTargetGlobalValue",
              "key": "_MACHINAIUSTITIA_CHARGED_",
              "value": 0.0,
              "compareType": "NoneOrEqual"
            },
            {
              "$type": "ByTargetGlobalValue",
              "key": "_MACHINAIUSTITIA_STATIC_STATE_",
              "value": 1.0,
              "compareType": "MoreThanAndEqual"
            }
          ],
          "rotationDampTime": "Eff_Monster_MachinaIustitia_Recover_Ousia",
          "PPPDJGDDOGD": 1.0,
          "AJDILHJFNKE": -1.0
        }
      ]
    }
  },
  {
    "Default": {
      "$type": "ConfigAbility",
      "abilityName": "Monster_MachinaIustitia_Ruggiero01_Recover_Ousia",
      "onAbilityStart": [
        {
          "$type": "PILJLANJHMK",
          "value": 2.0,
          "key": "arkheGradeKey",
          "maxValue": 0.0,
          "minValue": 0.0
        },
        {
          "$type": "SetGlobalValue",
          "value": 0.0,
          "key": "_MACHINAIUSTITIA_CHARGED_",
          "maxValue": 0.0,
          "minValue": 0.0
        },
        {
          "$type": "SetGlobalValue",
          "value": 0.0,
          "key": "_MACHINAIUSTITIA_SELFRECOVER_",
          "maxValue": 0.0,
          "minValue": 0.0
        }
      ]
    }
  },
  {
    "Default": {
      "$type": "ConfigAbility",
      "abilityName": "Monster_MachinaIustitia_Ruggiero01_RecoverEffect_Ousia",
      "onAbilityStart": [
        {
          "$type": "RemoveUniqueModifier",
          "modifierName": "UNIQUE_MachinaIustitia_Charge_Effect_Ousia"
        }
      ]
    }
  },
  {
    "Default": {
      "$type": "ConfigAbility",
      "abilityName": "Monster_MachinaIustitia_Ruggiero01_ResetState",
      "abilityMixins": [
        {
          "$type": "LEOGLBFIELL",
          "poseIDs": [701, 801, 901, 902, 903],
          "modifierName": "MachinaIustitia_Ruggiero01_ReturnToBorn"
        }
      ],
      "modifiers": {
        "MachinaIustitia_Ruggiero01_ReturnToBorn": {
          "modifierName": "",
          "elementDurability": 100.0,
          "onRemoved": [
            {
              "$type": "PILJLANJHMK",
              "predicates": [
                {
                  "$type": "ByTargetGlobalValue",
                  "key": "_MACHINAIUSTITIA_STATIC_STATE_",
                  "value": 0.0
                }
              ],
              "value": 0.0,
              "key": "arkheGradeKey",
              "maxValue": 0.0,
              "minValue": 0.0
            },
            {
              "$type": "PILJLANJHMK",
              "predicates": [
                {
                  "$type": "ByTargetGlobalValue",
                  "key": "_MACHINAIUSTITIA_STATIC_STATE_",
                  "value": -1.0,
                  "compareType": "LessAndEqual"
                }
              ],
              "value": -2.0,
              "key": "arkheGradeKey",
              "maxValue": 0.0,
              "minValue": 0.0
            },
            {
              "$type": "PILJLANJHMK",
              "predicates": [
                {
                  "$type": "ByTargetGlobalValue",
                  "key": "_MACHINAIUSTITIA_STATIC_STATE_",
                  "value": 1.0,
                  "compareType": "MoreThanAndEqual"
                }
              ],
              "value": 2.0,
              "key": "arkheGradeKey",
              "maxValue": 0.0,
              "minValue": 0.0
            },
            {
              "$type": "SetGlobalValue",
              "value": 0.0,
              "key": "_MACHINAIUSTITIA_NEEDREPAIR_",
              "maxValue": 0.0,
              "minValue": 0.0
            }
          ]
        }
      }
    }
  },
  {
    "Default": {
      "$type": "ConfigAbility",
      "abilityName": "Monster_MachinaIustitia_Ruggiero01_CoilEffect",
      "abilityMixins": [
        {
          "$type": "AttachModifierToSelfGlobalValueMixin",
          "globalValueKey": "_MACHINAIUSTITIA_COIL_STATE_",
          "gvInTalk": 0.0,
          "valueSteps": [-0.5, 0.5, 1.5],
          "modifierNameSteps": [
            "MachinaIustitia_Ruggiero01_CoilEffect01_Handler",
            "MachinaIustitia_Ruggiero01_CoilEffect02_Handler"
          ]
        }
      ],
      "modifiers": {
        "MachinaIustitia_Ruggiero01_CoilEffect01_Handler": {
          "modifierName": "",
          "elementDurability": 100.0,
          "modifierMixins": [
            {
              "$type": "AttachModifierToSelfGlobalValueMixin",
              "globalValueKey": "arkheGradeKey",
              "gvInTalk": 0.0,
              "valueSteps": [-2.5, -0.5, 0.5, 2.5],
              "modifierNameSteps": [
                "MachinaIustitia_Ruggiero01_CoilEffect01_Pneuma",
                "Blank",
                "MachinaIustitia_Ruggiero01_CoilEffect01_Ousia"
              ]
            }
          ]
        },
        "MachinaIustitia_Ruggiero01_CoilEffect02_Handler": {
          "modifierName": "",
          "elementDurability": 100.0,
          "modifierMixins": [
            {
              "$type": "AttachModifierToSelfGlobalValueMixin",
              "globalValueKey": "arkheGradeKey",
              "gvInTalk": 0.0,
              "valueSteps": [-2.5, -0.5, 0.5, 2.5],
              "modifierNameSteps": [
                "MachinaIustitia_Ruggiero01_CoilEffect02_Pneuma",
                "Blank",
                "MachinaIustitia_Ruggiero01_CoilEffect02_Ousia"
              ]
            }
          ]
        },
        "MachinaIustitia_Ruggiero01_CoilEffect01_Pneuma": {
          "modifierName": "",
          "elementDurability": 100.0,
          "onAdded": [
            {
              "$type": "AttachEffect",
              "rotationDampTime": "Eff_Monster_MachinaIustitia_Coil01_Pneuma",
              "born": {
                "$type": "ConfigBornByAttachPoint",
                "offset": {
                  "x": 0.0,
                  "y": 0.0,
                  "z": 0.0
                },
                "useRotation": true,
                "attachPointName": "CoilAttachPoint01"
              },
              "PPPDJGDDOGD": 2.0,
              "AJDILHJFNKE": -1.0
            }
          ]
        },
        "MachinaIustitia_Ruggiero01_CoilEffect01_Ousia": {
          "modifierName": "",
          "elementDurability": 100.0,
          "onAdded": [
            {
              "$type": "AttachEffect",
              "rotationDampTime": "Eff_Monster_MachinaIustitia_Coil01_Ousia",
              "born": {
                "$type": "ConfigBornByAttachPoint",
                "offset": {
                  "x": 0.0,
                  "y": 0.0,
                  "z": 0.0
                },
                "useRotation": true,
                "attachPointName": "CoilAttachPoint01"
              },
              "PPPDJGDDOGD": 2.0,
              "AJDILHJFNKE": -1.0
            }
          ]
        },
        "MachinaIustitia_Ruggiero01_CoilEffect02_Pneuma": {
          "modifierName": "",
          "elementDurability": 100.0,
          "onAdded": [
            {
              "$type": "AttachEffect",
              "rotationDampTime": "Eff_Monster_MachinaIustitia_Coil02_Pneuma",
              "born": {
                "$type": "ConfigBornByAttachPoint",
                "offset": {
                  "x": 0.0,
                  "y": 0.0,
                  "z": 0.0
                },
                "useRotation": true,
                "attachPointName": "CoilAttachPoint02"
              },
              "PPPDJGDDOGD": 2.0,
              "AJDILHJFNKE": -1.0
            }
          ]
        },
        "MachinaIustitia_Ruggiero01_CoilEffect02_Ousia": {
          "modifierName": "",
          "elementDurability": 100.0,
          "onAdded": [
            {
              "$type": "AttachEffect",
              "rotationDampTime": "Eff_Monster_MachinaIustitia_Coil02_Ousia",
              "born": {
                "$type": "ConfigBornByAttachPoint",
                "offset": {
                  "x": 0.0,
                  "y": 0.0,
                  "z": 0.0
                },
                "useRotation": true,
                "attachPointName": "CoilAttachPoint02"
              },
              "PPPDJGDDOGD": 2.0,
              "AJDILHJFNKE": -1.0
            }
          ]
        },
        "Blank": {
          "modifierName": "",
          "elementDurability": 100.0
        }
      },
      "onKill": [
        {
          "$type": "RemoveModifier",
          "modifierName": "MachinaIustitia_Ruggiero01_CoilEffect01_Pneuma"
        },
        {
          "$type": "RemoveModifier",
          "modifierName": "MachinaIustitia_Ruggiero01_CoilEffect01_Ousia"
        },
        {
          "$type": "RemoveModifier",
          "modifierName": "MachinaIustitia_Ruggiero01_CoilEffect02_Pneuma"
        },
        {
          "$type": "RemoveModifier",
          "modifierName": "MachinaIustitia_Ruggiero01_CoilEffect02_Ousia"
        }
      ]
    }
  },
  {
    "Default": {
      "$type": "ConfigAbility",
      "abilityName": "Monster_MachinaIustitia_Ruggiero01_Attack02_HitEffect",
      "onAbilityStart": [
        {
          "$type": "FireEffect",
          "rotationDampTime": "Eff_Monster_MachinaIustitia_Ruggiero01_Attack02_Hit2_2",
          "born": {
            "$type": "ConfigBornBySelf",
            "offset": {
              "x": 0.0,
              "y": 0.0,
              "z": 0.699999988079071
            },
            "useRotation": true
          },
          "PPPDJGDDOGD": 1.0,
          "AJDILHJFNKE": -1.0
        }
      ]
    }
  },
  {
    "Default": {
      "$type": "ConfigAbility",
      "abilityName": "Monster_MachinaIustitia_Ruggiero01_Attack04",
      "abilityMixins": [
        {
          "$type": "AttachToNormalizedTimeMixin",
          "stateID": "Attack04",
          "modifierName": "Ruggiero01_RushAtk_RushMove_Handler",
          "normalizeStart": 0.5299999713897705,
          "normalizeEnd": 0.6100000143051147,
          "DGFCLAIDIFI": ""
        },
        {
          "$type": "AttachToNormalizedTimeMixin",
          "stateID": "Attack04_Loop1",
          "modifierName": "Ruggiero01_RushAtk_RushMove_Handler",
          "normalizeStart": 0.5299999713897705,
          "normalizeEnd": 0.6100000143051147,
          "DGFCLAIDIFI": ""
        },
        {
          "$type": "AttachToStateIDMixin",
          "stateIDs": ["Attack04_Turn", "Attack04_Loop1"],
          "modifierName": "Attack04BSEffect",
          "DGFCLAIDIFI": ""
        }
      ],
      "modifiers": {
        "Attack04BSEffect": {
          "modifierName": "",
          "elementDurability": 100.0,
          "onAdded": [
            {
              "$type": "AttachEffect",
              "rotationDampTime": "Eff_Monster_MachinaIustitia_Ruggiero01_Attack04_BS2",
              "PPPDJGDDOGD": 1.0,
              "AJDILHJFNKE": -1.0
            }
          ]
        },
        "Ruggiero01_RushAtk_RushMove_Handler": {
          "modifierName": "",
          "elementDurability": 100.0,
          "onAdded": [
            {
              "$type": "TriggerBullet",
              "bulletID": 42406050,
              "born": {
                "$type": "ConfigBornBySelf",
                "useRotation": true
              },
              "trackTarget": "Self",
              "lifeByOwnerV2": true
            }
          ],
          "onRemoved": [
            {
              "$type": "KillSelf",
              "otherTargets": {
                "$type": "SelectTargetsByChildren",
                "configID": 42406050
              }
            }
          ]
        }
      }
    }
  },
  {
    "Default": {
      "$type": "ConfigAbility",
      "abilityName": "MachinaIustitia_Ruggiero01_RushAtk_FollowBullet",
      "onAbilityStart": [
        {
          "$type": "Predicated",
          "target": "Target",
          "targetPredicates": [
            {
              "$type": "ByEntityTypes",
              "entityTypes": ["Avatar", "Vehicle", "Partner"]
            }
          ],
          "successActions": [
            {
              "$type": "DamageByAttackValue",
              "target": "Target",
              "attackInfo": {
                "attackTag": "",
                "attenuationTag": "",
                "attenuationGroup": "default",
                "attackProperty": {
                  "actorGrassSubHurtDelta": 1.0,
                  "actorWindSubHurtDelta": 0.0,
                  "elementType": "Fire",
                  "elementDurability": 25.0,
                  "strikeType": "Default",
                  "enBreak": 200.0,
                  "attackType": "Melee",
                  "GLKMCMDJBIK": 0.0
                },
                "hitPattern": {
                  "onHitEffectName": "default",
                  "hitImpulseY": "",
                  "hitImpulseType": "LV5",
                  "retreatType": "ByHitDirection",
                  "hitHaltTimeScale": 0.05000000074505806
                },
                "canBeModifiedBy": "OriginOwner"
              }
            }
          ]
        }
      ]
    }
  },
  {
    "Default": {
      "$type": "ConfigAbility",
      "abilityName": "Monster_MachinaIustitia_Ruggiero01_Attack06",
      "abilityMixins": [
        {
          "$type": "AttachToNormalizedTimeMixin",
          "stateID": "Attack06",
          "modifierName": "Ruggiero01_Attack06_Handler",
          "normalizeStart": 0.38999998569488525,
          "normalizeEnd": 0.5,
          "DGFCLAIDIFI": ""
        }
      ],
      "modifiers": {
        "Ruggiero01_Attack06_Handler": {
          "modifierName": "",
          "elementDurability": 100.0,
          "onAdded": [
            {
              "$type": "TriggerBullet",
              "bulletID": 42406049,
              "born": {
                "$type": "ConfigBornBySelf",
                "useRotation": true
              },
              "trackTarget": "Self",
              "lifeByOwnerV2": true
            }
          ],
          "onRemoved": [
            {
              "$type": "KillSelf",
              "otherTargets": {
                "$type": "SelectTargetsByChildren",
                "configID": 42406049
              }
            }
          ]
        }
      }
    }
  },
  {
    "Default": {
      "$type": "ConfigAbility",
      "abilityName": "MachinaIustitia_Ruggiero01_Attack06_FollowBullet",
      "onAbilityStart": [
        {
          "$type": "Predicated",
          "target": "Target",
          "targetPredicates": [
            {
              "$type": "ByEntityTypes",
              "entityTypes": ["Avatar", "Vehicle", "Partner"]
            }
          ],
          "successActions": [
            {
              "$type": "DamageByAttackValue",
              "target": "Target",
              "attackInfo": {
                "attackTag": "",
                "attenuationTag": "",
                "attenuationGroup": "default",
                "attackProperty": {
                  "actorGrassSubHurtDelta": 0.6000000238418579,
                  "actorWindSubHurtDelta": 0.0,
                  "elementDurability": 100.0,
                  "strikeType": "Default",
                  "enBreak": 200.0,
                  "attackType": "Melee",
                  "GLKMCMDJBIK": 0.0
                },
                "hitPattern": {
                  "onHitEffectName": "default",
                  "hitImpulseY": "",
                  "hitImpulseType": "LV5",
                  "retreatType": "ByHitDirection",
                  "hitHaltTimeScale": 0.05000000074505806
                },
                "canBeModifiedBy": "OriginOwner"
              }
            }
          ]
        }
      ]
    }
  },
  {
    "Default": {
      "$type": "ConfigAbility",
      "abilityName": "Monster_MachinaIustitia_Ruggiero01_Steer",
      "abilityMixins": [
        {
          "$type": "IILHMBGONGM",
          "steerStateIDs": ["Alert1"],
          "startNormalizedTime": 0.10000000149011612,
          "endNormalizedTime": 0.30000001192092896,
          "angularSpeed": 120.0,
          "attackTrigger": "",
          "DGFCLAIDIFI": ""
        },
        {
          "$type": "IILHMBGONGM",
          "steerStateIDs": ["Alert1"],
          "startNormalizedTime": 0.6000000238418579,
          "endNormalizedTime": 0.699999988079071,
          "angularSpeed": 60.0,
          "attackTrigger": "",
          "DGFCLAIDIFI": ""
        },
        {
          "$type": "IILHMBGONGM",
          "steerStateIDs": ["Alert2"],
          "endNormalizedTime": 0.30000001192092896,
          "angularSpeed": 120.0,
          "attackTrigger": "",
          "DGFCLAIDIFI": ""
        },
        {
          "$type": "IILHMBGONGM",
          "steerStateIDs": ["Alert2"],
          "startNormalizedTime": 0.5099999904632568,
          "endNormalizedTime": 0.7300000190734863,
          "angularSpeed": 120.0,
          "attackTrigger": "",
          "DGFCLAIDIFI": ""
        },
        {
          "$type": "IILHMBGONGM",
          "steerStateIDs": ["Attack01"],
          "startNormalizedTime": 0.15000000596046448,
          "endNormalizedTime": 0.18000000715255737,
          "angularSpeed": 120.0,
          "attackTrigger": "",
          "DGFCLAIDIFI": ""
        },
        {
          "$type": "IILHMBGONGM",
          "steerStateIDs": ["Attack01"],
          "startNormalizedTime": 0.27000001072883606,
          "endNormalizedTime": 0.3199999928474426,
          "angularSpeed": 360.0,
          "attackTrigger": "",
          "DGFCLAIDIFI": ""
        },
        {
          "$type": "IILHMBGONGM",
          "steerStateIDs": ["Attack01"],
          "startNormalizedTime": 0.3700000047683716,
          "endNormalizedTime": 0.46000000834465027,
          "angularSpeed": 360.0,
          "attackTrigger": "",
          "DGFCLAIDIFI": ""
        },
        {
          "$type": "IILHMBGONGM",
          "steerStateIDs": ["Attack01"],
          "startNormalizedTime": 0.6000000238418579,
          "endNormalizedTime": 0.7099999785423279,
          "angularSpeed": 360.0,
          "attackTrigger": "",
          "DGFCLAIDIFI": ""
        },
        {
          "$type": "IILHMBGONGM",
          "steerStateIDs": ["Attack02"],
          "startNormalizedTime": 0.20999999344348907,
          "endNormalizedTime": 0.23999999463558197,
          "angularSpeed": 120.0,
          "attackTrigger": "",
          "DGFCLAIDIFI": ""
        },
        {
          "$type": "IILHMBGONGM",
          "steerStateIDs": ["Attack02"],
          "startNormalizedTime": 0.3199999928474426,
          "endNormalizedTime": 0.36000001430511475,
          "angularSpeed": 360.0,
          "attackTrigger": "",
          "DGFCLAIDIFI": ""
        },
        {
          "$type": "IILHMBGONGM",
          "steerStateIDs": ["Attack02"],
          "startNormalizedTime": 0.5,
          "endNormalizedTime": 0.5600000023841858,
          "angularSpeed": 360.0,
          "attackTrigger": "",
          "DGFCLAIDIFI": ""
        },
        {
          "$type": "IILHMBGONGM",
          "steerStateIDs": ["Attack02"],
          "startNormalizedTime": 0.699999988079071,
          "endNormalizedTime": 0.7400000095367432,
          "angularSpeed": 120.0,
          "attackTrigger": "",
          "DGFCLAIDIFI": ""
        },
        {
          "$type": "IILHMBGONGM",
          "steerStateIDs": ["Attack02AS"],
          "endNormalizedTime": 0.10000000149011612,
          "angularSpeed": 360.0,
          "attackTrigger": "",
          "DGFCLAIDIFI": ""
        },
        {
          "$type": "IILHMBGONGM",
          "steerStateIDs": ["Attack02AS"],
          "endNormalizedTime": 0.10000000149011612,
          "angularSpeed": 360.0,
          "attackTrigger": "",
          "DGFCLAIDIFI": ""
        },
        {
          "$type": "IILHMBGONGM",
          "steerStateIDs": ["Attack02AS"],
          "startNormalizedTime": 0.27000001072883606,
          "endNormalizedTime": 0.3499999940395355,
          "angularSpeed": 360.0,
          "attackTrigger": "",
          "DGFCLAIDIFI": ""
        },
        {
          "$type": "IILHMBGONGM",
          "steerStateIDs": ["Attack02AS"],
          "startNormalizedTime": 0.550000011920929,
          "endNormalizedTime": 0.6200000047683716,
          "angularSpeed": 90.0,
          "attackTrigger": "",
          "DGFCLAIDIFI": ""
        },
        {
          "$type": "IILHMBGONGM",
          "steerStateIDs": ["Attack03"],
          "endNormalizedTime": 0.07999999821186066,
          "angularSpeed": 120.0,
          "attackTrigger": "",
          "DGFCLAIDIFI": ""
        },
        {
          "$type": "IILHMBGONGM",
          "steerStateIDs": ["Attack03"],
          "startNormalizedTime": 0.2800000011920929,
          "endNormalizedTime": 0.30000001192092896,
          "angularSpeed": 360.0,
          "attackTrigger": "",
          "DGFCLAIDIFI": ""
        },
        {
          "$type": "IILHMBGONGM",
          "steerStateIDs": ["Attack03"],
          "startNormalizedTime": 0.4399999976158142,
          "endNormalizedTime": 0.47999998927116394,
          "angularSpeed": 360.0,
          "attackTrigger": "",
          "DGFCLAIDIFI": ""
        },
        {
          "$type": "IILHMBGONGM",
          "steerStateIDs": ["Attack04_To_Attack03"],
          "startNormalizedTime": 0.4399999976158142,
          "endNormalizedTime": 0.47999998927116394,
          "angularSpeed": 360.0,
          "attackTrigger": "",
          "DGFCLAIDIFI": ""
        },
        {
          "$type": "IILHMBGONGM",
          "steerStateIDs": ["Attack03"],
          "startNormalizedTime": 0.6200000047683716,
          "endNormalizedTime": 0.6499999761581421,
          "angularSpeed": 360.0,
          "attackTrigger": "",
          "DGFCLAIDIFI": ""
        },
        {
          "$type": "IILHMBGONGM",
          "steerStateIDs": ["Attack04_To_Attack03"],
          "startNormalizedTime": 0.6200000047683716,
          "endNormalizedTime": 0.6499999761581421,
          "angularSpeed": 360.0,
          "attackTrigger": "",
          "DGFCLAIDIFI": ""
        },
        {
          "$type": "IILHMBGONGM",
          "steerStateIDs": ["Attack04"],
          "endNormalizedTime": 0.07999999821186066,
          "angularSpeed": 120.0,
          "attackTrigger": "",
          "DGFCLAIDIFI": ""
        },
        {
          "$type": "IILHMBGONGM",
          "steerStateIDs": ["Attack04"],
          "startNormalizedTime": 0.12999999523162842,
          "endNormalizedTime": 0.1899999976158142,
          "angularSpeed": 360.0,
          "attackTrigger": "",
          "DGFCLAIDIFI": ""
        },
        {
          "$type": "IILHMBGONGM",
          "steerStateIDs": ["Attack04_Turn"],
          "startNormalizedTime": 0.5,
          "angularSpeed": 480.0,
          "attackTrigger": "",
          "DGFCLAIDIFI": ""
        },
        {
          "$type": "IILHMBGONGM",
          "steerStateIDs": ["Attack04"],
          "startNormalizedTime": 0.5099999904632568,
          "endNormalizedTime": 0.5600000023841858,
          "angularSpeed": 180.0,
          "attackTrigger": "",
          "DGFCLAIDIFI": ""
        },
        {
          "$type": "IILHMBGONGM",
          "steerStateIDs": ["Attack04_Loop1"],
          "startNormalizedTime": 0.5099999904632568,
          "endNormalizedTime": 0.5600000023841858,
          "angularSpeed": 120.0,
          "attackTrigger": "",
          "DGFCLAIDIFI": ""
        },
        {
          "$type": "IILHMBGONGM",
          "steerStateIDs": ["Attack04"],
          "startNormalizedTime": 0.7799999713897705,
          "endNormalizedTime": 0.9100000262260437,
          "angularSpeed": 60.0,
          "attackTrigger": "",
          "DGFCLAIDIFI": ""
        },
        {
          "$type": "IILHMBGONGM",
          "steerStateIDs": ["Attack04_Loop1"],
          "startNormalizedTime": 0.7799999713897705,
          "endNormalizedTime": 0.9100000262260437,
          "angularSpeed": 60.0,
          "attackTrigger": "",
          "DGFCLAIDIFI": ""
        },
        {
          "$type": "IILHMBGONGM",
          "steerStateIDs": ["Attack05"],
          "endNormalizedTime": 0.3499999940395355,
          "angularSpeed": 120.0,
          "attackTrigger": "",
          "DGFCLAIDIFI": ""
        },
        {
          "$type": "IILHMBGONGM",
          "steerStateIDs": ["Attack06"],
          "endNormalizedTime": 0.15000000596046448,
          "angularSpeed": 240.0,
          "attackTrigger": "",
          "DGFCLAIDIFI": ""
        },
        {
          "$type": "IILHMBGONGM",
          "steerStateIDs": ["Attack06"],
          "startNormalizedTime": 0.3499999940395355,
          "endNormalizedTime": 0.4000000059604645,
          "angularSpeed": 120.0,
          "attackTrigger": "",
          "DGFCLAIDIFI": ""
        },
        {
          "$type": "IILHMBGONGM",
          "steerStateIDs": ["Attack07"],
          "endNormalizedTime": 0.10000000149011612,
          "angularSpeed": 90.0,
          "attackTrigger": "",
          "DGFCLAIDIFI": ""
        },
        {
          "$type": "IILHMBGONGM",
          "steerStateIDs": ["Attack07"],
          "startNormalizedTime": 0.4099999964237213,
          "endNormalizedTime": 0.4399999976158142,
          "angularSpeed": 180.0,
          "attackTrigger": "",
          "DGFCLAIDIFI": ""
        }
      ]
    }
  }
]
