[
  {
    "Default": {
      "$type": "ConfigAbility",
      "abilityName": "Monster_Apparatus_Enigma_BionicDrone_Initialization",
      "onAdded": [
        {
          "$type": "SetGlobalValue",
          "value": 1.0,
          "key": "_GLOBALVALUE_EnigmaType",
          "maxValue": 0.0,
          "minValue": 0.0
        }
      ]
    }
  },
  {
    "Default": {
      "$type": "ConfigAbility",
      "abilityName": "Monster_Apparatus_Enigma_BionicDrone_CoreActive",
      "abilityMixins": [
        {
          "$type": "AttachToNormalizedTimeMixin",
          "stateID": "ChargeAtk",
          "modifierName": "UNIQUE_Monster_Apparatus_Enigma_BionicDrone_CoreState",
          "normalizeEnd": 0.699999988079071,
          "DGFCLAIDIFI": ""
        },
        {
          "$type": "AttachToNormalizedTimeMixin",
          "stateID": "CoveringFireBS",
          "modifierName": "UNIQUE_Monster_Apparatus_Enigma_BionicDrone_CoreState",
          "normalizeEnd": 0.8999999761581421,
          "DGFCLAIDIFI": ""
        },
        {
          "$type": "LEOGLBFIELL",
          "poseIDs": [202],
          "modifierName": "Enigma_BionicDrone_Weak"
        }
      ],
      "modifiers": {
        "UNIQUE_Monster_Apparatus_Enigma_BionicDrone_CoreState": {
          "modifierName": "",
          "forceTriggerWhenChangeAuthority": true,
          "elementDurability": 100.0,
          "onAdded": [
            {
              "$type": "SetAnimatorInt",
              "intID": "PowerStage",
              "value": 2.0
            },
            {
              "$type": "AddGlobalValue",
              "value": 1.0,
              "key": "_MONSTER_Apparatus_Enigma_CoreActive",
              "useLimitRange": true,
              "maxValue": 1.0,
              "minValue": 0.0
            },
            {
              "$type": "EnableHitBoxByName",
              "hitBoxNames": ["CoreBox"],
              "setEnable": true
            },
            {
              "$type": "EnableHitBoxByName",
              "hitBoxNames": ["MainBox"]
            }
          ],
          "onRemoved": [
            {
              "$type": "AddGlobalValue",
              "value": -1.0,
              "key": "_MONSTER_Apparatus_Enigma_CoreActive",
              "useLimitRange": true,
              "maxValue": 1.0,
              "minValue": 0.0
            },
            {
              "$type": "EnableHitBoxByName",
              "hitBoxNames": ["CoreBox"]
            },
            {
              "$type": "EnableHitBoxByName",
              "hitBoxNames": ["MainBox"],
              "setEnable": true
            },
            {
              "$type": "SetAnimatorInt",
              "predicates": [
                {
                  "$type": "ByAnimatorInt",
                  "value": 0,
                  "parameter": "PowerStage"
                }
              ],
              "intID": "PowerStage",
              "value": 1.0
            }
          ]
        },
        "Enigma_BionicDrone_Weak": {
          "modifierName": "",
          "elementDurability": 100.0,
          "onAdded": [
            {
              "$type": "SetGlobalValue",
              "target": "Owner",
              "value": 1.0,
              "key": "_WATCHER_80104_1",
              "maxValue": 0.0,
              "minValue": 0.0
            }
          ]
        }
      },
      "onKill": [
        {
          "$type": "SetGlobalValue",
          "target": "Owner",
          "value": 1.0,
          "key": "_WATCHER_80105_",
          "maxValue": 0.0,
          "minValue": 0.0
        }
      ]
    }
  },
  {
    "Default": {
      "$type": "ConfigAbility",
      "abilityName": "Monster_Apparatus_Enigma_BionicDrone_AimAtk",
      "modifiers": {
        "Apparatus_Enigma_BionicDrone_AimAtk_Target": {
          "modifierName": "",
          "duration": 3.0,
          "elementDurability": 100.0,
          "onAdded": [
            {
              "$type": "Predicated",
              "targetPredicates": [
                {
                  "$type": "ByEntityTypes",
                  "entityTypes": ["Avatar"]
                }
              ],
              "successActions": [
                {
                  "$type": "AttachModifier",
                  "modifierName": "Apparatus_Enigma_BionicDrone_AimAtk_Avatar"
                }
              ]
            },
            {
              "$type": "Predicated",
              "targetPredicates": [
                {
                  "$type": "ByEntityTypes",
                  "entityTypes": ["Partner", "Vehicle"]
                }
              ],
              "successActions": [
                {
                  "$type": "AttachModifier",
                  "modifierName": "Monster_Apparatus_Enigma_BionicDrone_AimAtk_Alert"
                }
              ]
            }
          ]
        },
        "Apparatus_Enigma_BionicDrone_AimAtk_Avatar": {
          "modifierName": "",
          "elementDurability": 100.0,
          "modifierMixins": [
            {
              "$type": "CurLocalAvatarMixin",
              "modifierName": "Monster_Apparatus_Enigma_BionicDrone_AimAtk_Alert"
            }
          ]
        },
        "Monster_Apparatus_Enigma_BionicDrone_AimAtk_Alert": {
          "modifierName": "",
          "elementDurability": 100.0,
          "onAdded": [
            {
              "$type": "AttachEffect",
              "rotationDampTime": "Eff_Monster_Apparatus_Enigma_BionicDrone_AimAtk_Alert",
              "PPPDJGDDOGD": 1.0,
              "AJDILHJFNKE": -1.0
            }
          ]
        }
      },
      "onAbilityStart": [
        {
          "$type": "ApplyModifier",
          "target": "SelfAttackTarget",
          "modifierName": "Apparatus_Enigma_BionicDrone_AimAtk_Target"
        }
      ]
    }
  },
  {
    "Default": {
      "$type": "ConfigAbility",
      "abilityName": "Monster_Apparatus_Enigma_BionicDrone_AimAtk_TriggerBullet",
      "onAbilityStart": [
        {
          "$type": "TriggerBullet",
          "bulletID": 42401001,
          "born": {
            "$type": "ConfigBornByAttachPoint",
            "offset": {
              "x": 0.0,
              "y": 0.0,
              "z": 0.0
            },
            "direction": {
              "$type": "ConfigDirectionByAttackTarget",
              "maxAngleType": "Vertical",
              "maxAngle": 15.0,
              "startPoint": ""
            },
            "attachPointName": "CorePoint"
          }
        }
      ]
    }
  },
  {
    "Default": {
      "$type": "ConfigAbility",
      "abilityName": "Monster_Apparatus_Enigma_BionicDrone_AimAtk_Bullet",
      "modifiers": {
        "Apparatus_Enigma_BionicDrone_AimAtk_BulletEffect": {
          "modifierName": "",
          "elementDurability": 100.0,
          "onAdded": [
            {
              "$type": "AttachEffect",
              "rotationDampTime": "Eff_Monster_Apparatus_Enigma_BionicDrone_AimAtk_Bullet",
              "PPPDJGDDOGD": 1.0,
              "AJDILHJFNKE": -1.0
            },
            {
              "$type": "AttachEffect",
              "rotationDampTime": "Eff_Monster_Apparatus_Enigma_BionicDrone_AimAtk_Bullet_Trail",
              "PPPDJGDDOGD": 1.0,
              "AJDILHJFNKE": -1.0
            }
          ]
        }
      },
      "onAdded": [
        {
          "$type": "ApplyModifier",
          "modifierName": "Apparatus_Enigma_BionicDrone_AimAtk_BulletEffect"
        }
      ],
      "onAbilityStart": [
        {
          "$type": "TriggerAttackEvent",
          "attackEvent": {
            "attackPattern": {
              "$type": "ConfigAttackSphere",
              "triggerType": "TriggerNoRepeat",
              "born": {
                "$type": "ConfigBornByCollisionPoint"
              },
              "radius": 0.4000000059604645
            },
            "attackInfo": {
              "attackTag": "",
              "attenuationTag": "",
              "attenuationGroup": "default",
              "attackProperty": {
                "actorGrassSubHurtDelta": 0.699999988079071,
                "actorWindSubHurtDelta": 0.0,
                "elementDurability": 100.0,
                "strikeType": "Pierce",
                "GLKMCMDJBIK": 0.0
              },
              "hitPattern": {
                "onHitEffectName": "default",
                "hitImpulseY": "",
                "hitImpulseType": "LV3",
                "hitHaltTimeScale": 0.05000000074505806
              },
              "canBeModifiedBy": "OriginOwner"
            }
          },
          "targetType": "Enemy"
        },
        {
          "$type": "FireEffect",
          "rotationDampTime": "Eff_Monster_Apparatus_Enigma_BionicDrone_AimAtk_Explode",
          "born": {
            "$type": "ConfigBornByCollisionPoint"
          },
          "PPPDJGDDOGD": 1.0,
          "AJDILHJFNKE": -1.0
        }
      ]
    }
  },
  {
    "Default": {
      "$type": "ConfigAbility",
      "abilityName": "Monster_Apparatus_Enigma_BionicDrone_ChargeAtk",
      "modifiers": {
        "Apparatus_Enigma_BionicDrone_ChargeAtk_Target": {
          "modifierName": "",
          "duration": 3.0,
          "elementDurability": 100.0,
          "onAdded": [
            {
              "$type": "Predicated",
              "targetPredicates": [
                {
                  "$type": "ByEntityTypes",
                  "entityTypes": ["Avatar"]
                }
              ],
              "successActions": [
                {
                  "$type": "AttachModifier",
                  "modifierName": "Apparatus_Enigma_BionicDrone_ChargeAtk_Avatar"
                }
              ]
            },
            {
              "$type": "Predicated",
              "targetPredicates": [
                {
                  "$type": "ByEntityTypes",
                  "entityTypes": ["Partner", "Vehicle"]
                }
              ],
              "successActions": [
                {
                  "$type": "AttachModifier",
                  "modifierName": "Monster_Apparatus_Enigma_BionicDrone_ChargeAtk_Alert"
                }
              ]
            }
          ]
        },
        "Apparatus_Enigma_BionicDrone_ChargeAtk_Avatar": {
          "modifierName": "",
          "elementDurability": 100.0,
          "modifierMixins": [
            {
              "$type": "CurLocalAvatarMixin",
              "modifierName": "Monster_Apparatus_Enigma_BionicDrone_ChargeAtk_Alert"
            }
          ]
        },
        "Monster_Apparatus_Enigma_BionicDrone_ChargeAtk_Alert": {
          "modifierName": "",
          "elementDurability": 100.0,
          "onAdded": [
            {
              "$type": "AttachEffect",
              "rotationDampTime": "Eff_Monster_Apparatus_Enigma_BionicDrone_ChargeAtk_Alert",
              "PPPDJGDDOGD": 1.0,
              "AJDILHJFNKE": -1.0
            }
          ]
        }
      },
      "onAbilityStart": [
        {
          "$type": "ApplyModifier",
          "target": "SelfAttackTarget",
          "modifierName": "Apparatus_Enigma_BionicDrone_ChargeAtk_Target"
        }
      ]
    }
  },
  {
    "Default": {
      "$type": "ConfigAbility",
      "abilityName": "Monster_Apparatus_Enigma_BionicDrone_ChargeAtk_TriggerBullet",
      "onAbilityStart": [
        {
          "$type": "TriggerBullet",
          "bulletID": 42401002,
          "born": {
            "$type": "ConfigBornByAttachPoint",
            "offset": {
              "x": 0.0,
              "y": 0.0,
              "z": 0.0
            },
            "direction": {
              "$type": "ConfigDirectionByAttackTarget",
              "maxAngleType": "Vertical",
              "maxAngle": 45.0,
              "startPoint": ""
            },
            "attachPointName": "CorePoint"
          }
        }
      ]
    }
  },
  {
    "Default": {
      "$type": "ConfigAbility",
      "abilityName": "Monster_Apparatus_Enigma_BionicDrone_ChargeAtk_Bullet",
      "modifiers": {
        "Apparatus_Enigma_BionicDrone_ChargeAtk_BulletEffect": {
          "modifierName": "",
          "elementDurability": 100.0,
          "onAdded": [
            {
              "$type": "AttachEffect",
              "rotationDampTime": "Eff_Monster_Apparatus_Enigma_BionicDrone_ChargeAtk_Bullet",
              "PPPDJGDDOGD": 1.0,
              "AJDILHJFNKE": -1.0
            },
            {
              "$type": "AttachEffect",
              "rotationDampTime": "Eff_Monster_Apparatus_Enigma_BionicDrone_ChargeAtk_Bullet_Trail",
              "PPPDJGDDOGD": 1.0,
              "AJDILHJFNKE": -1.0
            }
          ]
        }
      },
      "onAdded": [
        {
          "$type": "ApplyModifier",
          "modifierName": "Apparatus_Enigma_BionicDrone_ChargeAtk_BulletEffect"
        }
      ],
      "onAbilityStart": [
        {
          "$type": "TriggerAttackEvent",
          "attackEvent": {
            "attackPattern": {
              "$type": "ConfigAttackSphere",
              "triggerType": "TriggerNoRepeat",
              "born": {
                "$type": "ConfigBornByCollisionPoint"
              },
              "radius": 0.5
            },
            "attackInfo": {
              "attackTag": "Apparatus_Enigma_PowerAtk",
              "attenuationTag": "",
              "attenuationGroup": "default",
              "attackProperty": {
                "actorGrassSubHurtDelta": 1.0,
                "actorWindSubHurtDelta": 0.0,
                "elementDurability": 100.0,
                "strikeType": "Blunt",
                "GLKMCMDJBIK": 0.0
              },
              "hitPattern": {
                "onHitEffectName": "default",
                "hitImpulseY": "",
                "hitImpulseType": "LV3",
                "hitHaltTimeScale": 0.05000000074505806
              },
              "canBeModifiedBy": "OriginOwner"
            }
          },
          "targetType": "Enemy"
        },
        {
          "$type": "FireEffect",
          "rotationDampTime": "Eff_Monster_Apparatus_Enigma_BionicDrone_ChargeAtk_Explode",
          "born": {
            "$type": "ConfigBornByCollisionPoint"
          },
          "PPPDJGDDOGD": 1.0,
          "AJDILHJFNKE": -1.0
        }
      ]
    }
  },
  {
    "Default": {
      "$type": "ConfigAbility",
      "abilityName": "Monster_Apparatus_Enigma_BionicDrone_VoltSwitch",
      "onAbilityStart": [
        {
          "$type": "SetGlobalPos",
          "key": "_MONSTER_Apparatus_Enigma_BionicDrone_VoltSwitch_BulletPos",
          "born": {
            "$type": "ConfigBornByAttachPoint",
            "attachPointName": "CorePoint"
          }
        },
        {
          "$type": "SetGlobalDir",
          "key": "_MONSTER_Apparatus_Enigma_BionicDrone_VoltSwitch_BulletDir",
          "born": {
            "$type": "ConfigBornBySelf"
          }
        },
        {
          "$type": "TriggerBullet",
          "bulletID": 42401003,
          "born": {
            "$type": "ConfigBornByAttachPoint",
            "offset": {
              "x": 0.0,
              "y": 0.0,
              "z": 0.0
            },
            "direction": {
              "$type": "ConfigDirectionByEntity"
            },
            "attachPointName": "CorePoint"
          }
        }
      ]
    }
  },
  {
    "Default": {
      "$type": "ConfigAbility",
      "abilityName": "Monster_Apparatus_Enigma_BionicDrone_VoltSwitch_EnergyBall",
      "modifiers": {
        "Monster_Apparatus_Enigma_BionicDrone_VoltSwitch_EnergyBall": {
          "modifierName": "",
          "elementDurability": 100.0,
          "onAdded": [
            {
              "$type": "AttachEffect",
              "rotationDampTime": "Eff_Monster_Apparatus_Enigma_BionicDrone_VoltSwitch_EnergyBall",
              "PPPDJGDDOGD": 1.0,
              "AJDILHJFNKE": -1.0
            }
          ]
        }
      },
      "onAdded": [
        {
          "$type": "AttachModifier",
          "modifierName": "Monster_Apparatus_Enigma_BionicDrone_VoltSwitch_EnergyBall"
        }
      ],
      "onAbilityStart": [
        {
          "$type": "CreateGadget",
          "ownerIs": "Owner",
          "lifeByOwnerIsAlive": true,
          "born": {
            "$type": "ConfigBornBySelf",
            "offset": {
              "x": 0.0,
              "y": 0.0,
              "z": 0.0
            },
            "onGround": true,
            "alongGround": true
          },
          "gadgetID": 42401004,
          "campID": 4001,
          "campTargetType": "Alliance"
        },
        {
          "$type": "TriggerAttackEvent",
          "attackEvent": {
            "attackPattern": {
              "$type": "ConfigAttackCircle",
              "triggerType": "TriggerNoRepeat",
              "born": {
                "$type": "ConfigBornBySelf",
                "offset": {
                  "x": 0.0,
                  "y": 0.0,
                  "z": 0.0
                }
              },
              "height": 1.0,
              "radius": 1.2000000476837158
            },
            "attackInfo": {
              "attackTag": "",
              "attenuationTag": "",
              "attenuationGroup": "default",
              "attackProperty": {
                "actorGrassSubHurtDelta": 0.4000000059604645,
                "actorWindSubHurtDelta": 0.0,
                "elementDurability": 100.0,
                "strikeType": "Default",
                "attackType": "Range",
                "GLKMCMDJBIK": 0.0
              },
              "hitPattern": {
                "onHitEffectName": "default",
                "hitImpulseY": "",
                "hitImpulseType": "LV0",
                "retreatType": "ByHitDirection"
              },
              "canBeModifiedBy": "OriginOwner"
            }
          },
          "targetType": "Enemy"
        }
      ]
    }
  },
  {
    "Default": {
      "$type": "ConfigAbility",
      "abilityName": "Monster_Apparatus_Enigma_BionicDrone_VoltSwitch_EnergyBall_Land",
      "modifiers": {
        "Monster_Apparatus_Enigma_BionicDrone_VoltSwitch_EnergyBall_Land": {
          "modifierName": "",
          "elementDurability": 100.0,
          "thinkInterval": 0.20000000298023224,
          "onAdded": [
            {
              "$type": "AttachEffect",
              "rotationDampTime": "Eff_Monster_Apparatus_Enigma_BionicDrone_VoltSwitch_EnergyBall_Land",
              "PPPDJGDDOGD": 1.0,
              "AJDILHJFNKE": -1.0
            }
          ],
          "onThinkInterval": [
            {
              "$type": "TriggerAttackEvent",
              "attackEvent": {
                "attackPattern": {
                  "$type": "ConfigAttackCircle",
                  "triggerType": "TriggerNoRepeat",
                  "born": {
                    "$type": "ConfigBornBySelf",
                    "offset": {
                      "x": 0.0,
                      "y": 0.0,
                      "z": 0.0
                    }
                  },
                  "height": 1.0,
                  "radius": 1.2000000476837158
                },
                "attackInfo": {
                  "attackTag": "",
                  "attenuationTag": "Monster_Konungmathr_Attenuation_1",
                  "attenuationGroup": "Monster_Konungmathr_Attenuation_1",
                  "attackProperty": {
                    "actorGrassSubHurtDelta": 0.30000001192092896,
                    "actorWindSubHurtDelta": 0.0,
                    "elementDurability": 100.0,
                    "strikeType": "Default",
                    "attackType": "Range",
                    "GLKMCMDJBIK": 0.0
                  },
                  "hitPattern": {
                    "onHitEffectName": "default",
                    "hitImpulseY": "",
                    "hitImpulseType": "LV0",
                    "retreatType": "ByHitDirection"
                  },
                  "canBeModifiedBy": "OriginOwner"
                }
              },
              "targetType": "Enemy"
            }
          ]
        }
      },
      "onAdded": [
        {
          "$type": "AttachModifier",
          "modifierName": "Monster_Apparatus_Enigma_BionicDrone_VoltSwitch_EnergyBall_Land"
        }
      ],
      "onKill": [
        {
          "$type": "FireEffect",
          "rotationDampTime": "Eff_Monster_Apparatus_Enigma_BionicDrone_VoltSwitch_EnergyBall_LandAS",
          "PPPDJGDDOGD": 1.0,
          "AJDILHJFNKE": -1.0
        },
        {
          "$type": "RemoveModifier",
          "modifierName": "Monster_Apparatus_Enigma_BionicDrone_VoltSwitch_EnergyBall_Land"
        }
      ]
    }
  },
  {
    "Default": {
      "$type": "ConfigAbility",
      "abilityName": "Monster_Apparatus_Enigma_BionicDrone_CoveringFire",
      "abilityMixins": [
        {
          "$type": "AttachToAnimatorStateIDMixin",
          "stateIDs": ["CoveringFireBS", "CoveringFireLoop"],
          "modifierName": "Apparatus_Enigma_BionicDrone_CoveringFire_Effect",
          "DGFCLAIDIFI": ""
        },
        {
          "$type": "AttachToAnimatorStateIDMixin",
          "stateIDs": ["CoveringFireLoop"],
          "modifierName": "Apparatus_Enigma_BionicDrone_CoveringFire_Active",
          "DGFCLAIDIFI": ""
        }
      ],
      "modifiers": {
        "Apparatus_Enigma_BionicDrone_CoveringFire_Effect": {
          "modifierName": "",
          "elementDurability": 100.0,
          "onAdded": [
            {
              "$type": "AttachEffect",
              "rotationDampTime": "Eff_Monster_Apparatus_Enigma_BionicDrone_CoveringFire",
              "PPPDJGDDOGD": 1.0,
              "AJDILHJFNKE": -1.0
            }
          ]
        },
        "Apparatus_Enigma_BionicDrone_CoveringFire_Active": {
          "modifierName": "",
          "elementDurability": 100.0,
          "onAdded": [
            {
              "$type": "CreateGadget",
              "target": "SelfAttackTarget",
              "predicates": [
                {
                  "$type": "ByTargetGlobalValue",
                  "target": "Self",
                  "key": "_ENIGMA_Supporter_Tag_",
                  "value": 0.0,
                  "compareType": "NoneOrEqual"
                }
              ],
              "lifeByOwnerIsAlive": true,
              "born": {
                "$type": "MPCGPEHJNNH",
                "onGround": true,
                "direction": {
                  "$type": "ConfigDirectionByEntity"
                },
                "alongGround": true,
                "timeForPredictive": 0.5
              },
              "gadgetID": 42401005,
              "campID": 4001,
              "campTargetType": "Alliance"
            },
            {
              "$type": "CreateGadget",
              "otherTargets": {
                "$type": "SelectTargetsByShape",
                "topLimit": 1,
                "sortType": "Nearest",
                "shapeName": "CircleR30",
                "campTargetType": "SelfCamp",
                "doOffStage": 1.0
              },
              "predicates": [
                {
                  "$type": "ByTargetGlobalValue",
                  "target": "Self",
                  "key": "_ENIGMA_Supporter_Tag_",
                  "value": 1.0
                },
                {
                  "$type": "ByTargetGlobalValue",
                  "key": "_MONSTER_Apparatus_Enigma_SupportPosition",
                  "value": 1.0
                }
              ],
              "lifeByOwnerIsAlive": true,
              "born": {
                "$type": "ConfigBornByTarget",
                "offset": {
                  "x": 0.0,
                  "y": 0.0,
                  "z": 0.0
                },
                "onGround": true,
                "alongGround": true
              },
              "gadgetID": 42401005,
              "campID": 4001,
              "campTargetType": "Alliance"
            }
          ],
          "onRemoved": [
            {
              "$type": "ApplyModifier",
              "otherTargets": {
                "$type": "SelectTargetsByChildren",
                "sortType": "Reversed",
                "configID": 42401005
              },
              "modifierName": "KillSelf_Latency"
            }
          ]
        },
        "KillSelf_Latency": {
          "modifierName": "",
          "duration": 0.5,
          "elementDurability": 100.0,
          "onAdded": [
            {
              "$type": "KillSelf",
              "configIdArray": [42401005]
            }
          ]
        }
      },
      "onAbilityStart": [
        {
          "$type": "TriggerAbility",
          "otherTargets": {
            "$type": "SelectTargetsByChildren",
            "configID": 42401005
          },
          "abilityName": "Monster_Apparatus_Enigma_BionicDrone_CoveringFire_Position"
        }
      ]
    }
  },
  {
    "Default": {
      "$type": "ConfigAbility",
      "abilityName": "Monster_Apparatus_Enigma_BionicDrone_CoveringFire_Position",
      "modifiers": {
        "Apparatus_Enigma_BionicDrone_CoveringFire_Position": {
          "modifierName": "",
          "elementDurability": 100.0,
          "thinkInterval": 0.5,
          "onAdded": [
            {
              "$type": "AttachEffect",
              "rotationDampTime": "Eff_Monster_Apparatus_Enigma_BionicDrone_CoveringFire_DamageArea",
              "born": {
                "$type": "ConfigBornBySelf",
                "offset": {
                  "x": 0.0,
                  "y": 0.0,
                  "z": 0.0
                },
                "direction": {
                  "$type": "ConfigDirectionByWorld",
                  "eularAngles": {
                    "x": 0.10000000149011612,
                    "y": 0.10000000149011612,
                    "z": 0.10000000149011612
                  }
                }
              },
              "PPPDJGDDOGD": 1.0,
              "AJDILHJFNKE": -1.0
            },
            {
              "$type": "TriggerAttackEvent",
              "attackEvent": {
                "attackPattern": {
                  "$type": "ConfigAttackCircle",
                  "triggerType": "TriggerNoRepeat",
                  "born": {
                    "$type": "ConfigBornBySelf",
                    "offset": {
                      "x": 0.10000000149011612,
                      "y": 0.10000000149011612,
                      "z": 0.10000000149011612
                    }
                  },
                  "height": 3.0,
                  "radius": 1.7999999523162842
                },
                "attackInfo": {
                  "attackTag": "Apparatus_Enigma_PowerAtk",
                  "attenuationTag": "",
                  "attenuationGroup": "default",
                  "attackProperty": {
                    "actorGrassSubHurtDelta": 0.30000001192092896,
                    "actorWindSubHurtDelta": 0.0,
                    "elementDurability": 100.0,
                    "strikeType": "Default",
                    "attackType": "Range",
                    "GLKMCMDJBIK": 0.0
                  },
                  "hitPattern": {
                    "onHitEffectName": "default",
                    "hitImpulseY": "",
                    "hitImpulseType": "LV1",
                    "retreatType": "ByHitDirection"
                  },
                  "canBeModifiedBy": "OriginOwner"
                }
              },
              "targetType": "Enemy"
            }
          ],
          "onThinkInterval": [
            {
              "$type": "KillSelf",
              "predicates": [
                {
                  "$type": "ByNot",
                  "predicates": [
                    {
                      "$type": "ByEntityIsAlive",
                      "target": "Owner"
                    }
                  ]
                }
              ]
            }
          ]
        },
        "AttackEvent_Latency": {
          "modifierName": "",
          "duration": 0.20000000298023224,
          "elementDurability": 100.0,
          "onRemoved": [
            {
              "$type": "TriggerAttackEvent",
              "attackEvent": {
                "attackPattern": {
                  "$type": "ConfigAttackCircle",
                  "triggerType": "TriggerNoRepeat",
                  "born": {
                    "$type": "ConfigBornBySelf",
                    "offset": {
                      "x": 0.0,
                      "y": 0.0,
                      "z": 0.0
                    }
                  },
                  "height": 3.0,
                  "radius": 5.800000190734863
                },
                "attackInfo": {
                  "attackTag": "",
                  "attenuationTag": "",
                  "attenuationGroup": "default",
                  "attackProperty": {
                    "actorGrassSubHurtDelta": 0.4000000059604645,
                    "actorWindSubHurtDelta": 0.0,
                    "elementDurability": 100.0,
                    "strikeType": "Default",
                    "attackType": "Range",
                    "GLKMCMDJBIK": 0.0
                  },
                  "hitPattern": {
                    "onHitEffectName": "default",
                    "hitImpulseY": "",
                    "hitImpulseType": "LV2",
                    "retreatType": "ByHitDirection"
                  },
                  "canBeModifiedBy": "OriginOwner"
                }
              },
              "targetType": "Enemy"
            }
          ]
        }
      },
      "onAdded": [
        {
          "$type": "AttachModifier",
          "modifierName": "Apparatus_Enigma_BionicDrone_CoveringFire_Position"
        },
        {
          "$type": "SetGlobalPos",
          "key": "_MONSTER_Apparatus_Enigma_BionicDrone_CoveringFire_EffectPos",
          "born": {
            "$type": "ConfigBornBySelf"
          }
        },
        {
          "$type": "SetGlobalDir",
          "key": "_MONSTER_Apparatus_Enigma_BionicDrone_CoveringFire_EffectDir",
          "born": {
            "$type": "ConfigBornBySelfOwner"
          }
        }
      ],
      "onAbilityStart": [
        {
          "$type": "FireEffect",
          "rotationDampTime": "Eff_Monster_Apparatus_Enigma_BionicDrone_CoveringFire_DamageArea_Trigger",
          "born": {
            "$type": "ConfigBornByGlobalValue",
            "onGround": true,
            "onGroundIgnoreWater": true,
            "onGroundRaycastUpDist": 3.0,
            "positionKey": "_MONSTER_Apparatus_Enigma_BionicDrone_CoveringFire_EffectPos",
            "directionKey": "_MONSTER_Apparatus_Enigma_BionicDrone_CoveringFire_EffectDir"
          },
          "PPPDJGDDOGD": 1.0,
          "AJDILHJFNKE": -1.0
        },
        {
          "$type": "ApplyModifier",
          "modifierName": "AttackEvent_Latency"
        }
      ],
      "onKill": [
        {
          "$type": "RemoveModifier",
          "modifierName": "Apparatus_Enigma_BionicDrone_CoveringFire_Position"
        },
        {
          "$type": "FireEffect",
          "rotationDampTime": "Eff_Monster_Apparatus_Enigma_BionicDrone_CoveringFire_DamageArea_AS",
          "born": {
            "$type": "ConfigBornBySelf",
            "offset": {
              "x": 0.0,
              "y": 0.0,
              "z": 0.0
            },
            "direction": {
              "$type": "ConfigDirectionByWorld",
              "eularAngles": {
                "x": 0.10000000149011612,
                "y": 0.10000000149011612,
                "z": 0.10000000149011612
              }
            }
          },
          "PPPDJGDDOGD": 1.0,
          "AJDILHJFNKE": -1.0
        }
      ]
    }
  },
  {
    "Default": {
      "$type": "ConfigAbility",
      "abilityName": "Monster_Apparatus_Enigma_BionicDrone_Steer",
      "abilityMixins": [
        {
          "$type": "IILHMBGONGM",
          "steerStateIDs": ["AimAtk"],
          "endNormalizedTime": 0.4699999988079071,
          "angularSpeed": 180.0,
          "attackTrigger": "",
          "DGFCLAIDIFI": ""
        },
        {
          "$type": "IILHMBGONGM",
          "steerStateIDs": ["ChargeAtk"],
          "endNormalizedTime": 0.699999988079071,
          "angularSpeed": 180.0,
          "attackTrigger": "",
          "DGFCLAIDIFI": ""
        },
        {
          "$type": "IILHMBGONGM",
          "steerStateIDs": ["VoltSwitch"],
          "endNormalizedTime": 0.5799999833106995,
          "angularSpeed": 180.0,
          "attackTrigger": "",
          "DGFCLAIDIFI": ""
        },
        {
          "$type": "IILHMBGONGM",
          "steerStateIDs": ["CoveringFireBS"],
          "angularSpeed": 180.0,
          "attackTrigger": "",
          "DGFCLAIDIFI": ""
        },
        {
          "$type": "IILHMBGONGM",
          "steerStateIDs": ["Turn"],
          "startNormalizedTime": 0.10000000149011612,
          "endNormalizedTime": 0.30000001192092896,
          "angularSpeed": 180.0,
          "attackTrigger": "",
          "DGFCLAIDIFI": ""
        },
        {
          "$type": "IILHMBGONGM",
          "steerStateIDs": ["Turn"],
          "startNormalizedTime": 0.30000001192092896,
          "endNormalizedTime": 0.6000000238418579,
          "angularSpeed": 360.0,
          "attackTrigger": "",
          "DGFCLAIDIFI": ""
        }
      ]
    }
  }
]
