[
  {
    "Default": {
      "$type": "ConfigAbility",
      "abilityName": "Monster_Ptahur_Phantom_01_SteerAttack",
      "abilityMixins": [
        {
          "$type": "IILHMBGONGM",
          "steerStateIDs": ["BladeSlash01"],
          "startNormalizedTime": 0.1599999964237213,
          "endNormalizedTime": 0.20000000298023224,
          "angularSpeed": 540.0,
          "attackTrigger": "",
          "attackDistance": 1.5,
          "DGFCLAIDIFI": ""
        },
        {
          "$type": "IILHMBGONGM",
          "steerStateIDs": ["BladeSlash02"],
          "startNormalizedTime": 0.10000000149011612,
          "endNormalizedTime": 0.12999999523162842,
          "angularSpeed": 540.0,
          "attackTrigger": "",
          "attackDistance": 1.5,
          "DGFCLAIDIFI": ""
        },
        {
          "$type": "IILHMBGONGM",
          "steerStateIDs": ["BladeSlash03"],
          "endNormalizedTime": 0.20000000298023224,
          "angularSpeed": 240.0,
          "attackTrigger": "",
          "attackDistance": 1.5,
          "DGFCLAIDIFI": ""
        },
        {
          "$type": "IILHMBGONGM",
          "steerStateIDs": ["ThrowBlade"],
          "startNormalizedTime": 0.23999999463558197,
          "endNormalizedTime": 0.41999998688697815,
          "angularSpeed": 240.0,
          "attackTrigger": "",
          "attackDistance": 1.5,
          "DGFCLAIDIFI": ""
        }
      ]
    }
  },
  {
    "Default": {
      "$type": "ConfigAbility",
      "abilityName": "Monster_Ptahur_Phantom_01_StandbyEffectManager",
      "onAdded": [
        {
          "$type": "AttachAbilityStateResistance",
          "resistanceListID": 13002
        }
      ]
    }
  },
  {
    "Default": {
      "$type": "ConfigAbility",
      "abilityName": "Monster_Ptahur_Phantom_BladeComboCounter",
      "abilityMixins": [
        {
          "$type": "AttachToAnimatorStateIDMixin",
          "stateIDs": ["Standby"],
          "modifierName": "ClearComboCounter",
          "DGFCLAIDIFI": ""
        }
      ],
      "abilitySpecials": {
        "BladeComboCounter": 0.0
      },
      "modifiers": {
        "ClearComboCounter": {
          "modifierName": "",
          "elementDurability": 100.0,
          "onAdded": [
            {
              "$type": "SetGlobalValue",
              "value": 0.0,
              "key": "_MONSTER_PTAHUR_PHANTOM_BLADECOMBOCOUNTER",
              "maxValue": 0.0,
              "minValue": 0.0
            },
            {
              "$type": "SetGlobalValueToOverrideMap",
              "globalValueKey": "_MONSTER_PTAHUR_PHANTOM_BLADECOMBOCOUNTER",
              "overrideMapKey": "BladeComboCounter"
            },
            {
              "$type": "SetAnimatorInt",
              "intID": "BladeComboCounter",
              "value": "BladeComboCounter"
            }
          ]
        }
      },
      "onAdded": [
        {
          "$type": "SetGlobalValue",
          "value": 0.0,
          "key": "_MONSTER_PTAHUR_PHANTOM_BLADECOMBOCOUNTER",
          "maxValue": 0.0,
          "minValue": 0.0
        }
      ],
      "onAbilityStart": [
        {
          "$type": "AddGlobalValue",
          "value": 1.0,
          "key": "_MONSTER_PTAHUR_PHANTOM_BLADECOMBOCOUNTER",
          "useLimitRange": true,
          "maxValue": 9.0,
          "minValue": 0.0
        },
        {
          "$type": "SetGlobalValueToOverrideMap",
          "globalValueKey": "_MONSTER_PTAHUR_PHANTOM_BLADECOMBOCOUNTER",
          "overrideMapKey": "BladeComboCounter"
        },
        {
          "$type": "SetAnimatorInt",
          "intID": "BladeComboCounter",
          "value": "BladeComboCounter"
        }
      ]
    }
  },
  {
    "Default": {
      "$type": "ConfigAbility",
      "abilityName": "Monster_Ptahur_Phantom_BladeSlash_PhaseMoveToTarget",
      "onAbilityStart": [
        {
          "$type": "Predicated",
          "targetPredicates": [
            {
              "$type": "ByTargetPositionToSelfPosition",
              "target": "SelfAttackTarget",
              "logic": "LesserOrEqual",
              "value": 4.0,
              "DDALGNLEHOD": ""
            }
          ],
          "successActions": [
            {
              "$type": "BHPDPACKKNI",
              "target": "SelfAttackTarget",
              "born": {
                "$type": "ConfigBornByTarget",
                "offset": {
                  "x": 0.0,
                  "y": 0.0,
                  "z": 4.0
                },
                "onGround": true
              },
              "hitSceneType": "BlinkHitSceneTestByThreeSegments",
              "limitY": 2.5
            }
          ],
          "failActions": [
            {
              "$type": "BHPDPACKKNI",
              "target": "SelfAttackTarget",
              "born": {
                "$type": "ConfigBornByTargetLinearPoint",
                "offset": {
                  "x": 0.0,
                  "y": 0.0,
                  "z": 0.0
                },
                "onGround": true,
                "linearOffset": -2.0,
                "linearXZ": false,
                "linearMin": 0.0,
                "linearMax": 6.0
              },
              "hitSceneType": "BlinkHitSceneTestByThreeSegments",
              "limitY": 2.5
            }
          ]
        },
        {
          "$type": "IFCMHHHOLCK"
        },
        {
          "$type": "TurnDirectionToPos",
          "target": "SelfAttackTarget",
          "toPos": {
            "$type": "ConfigBornByTarget"
          }
        }
      ]
    }
  },
  {
    "Default": {
      "$type": "ConfigAbility",
      "abilityName": "Monster_Ptahur_Phantom_PhaseMoveToTarget",
      "onAbilityStart": [
        {
          "$type": "FIFEAMMHOIC",
          "target": "SelfAttackTarget",
          "forwardAngle": 90.0,
          "minRange": 6.5,
          "maxRange": 6.5,
          "ignoreWater": true
        },
        {
          "$type": "IFCMHHHOLCK"
        },
        {
          "$type": "TurnDirectionToPos",
          "target": "SelfAttackTarget",
          "toPos": {
            "$type": "ConfigBornByTarget"
          }
        },
        {
          "$type": "FireEffect",
          "rotationDampTime": "Eff_Monster_Ptahur_Phantom_01_PhaseStrike_PhaseDoor",
          "born": {
            "$type": "DNEKFAOHKBC",
            "direction": {
              "$type": "ConfigDirectionByAttackTarget",
              "startPoint": ""
            },
            "useRotation": true
          },
          "PPPDJGDDOGD": 1.0,
          "AJDILHJFNKE": -1.0
        }
      ]
    }
  },
  {
    "Default": {
      "$type": "ConfigAbility",
      "abilityName": "Monster_Ptahur_Phantom_PhaseIn",
      "abilityMixins": [
        {
          "$type": "AttachModifierToSelfGlobalValueMixin",
          "globalValueKey": "_MONSTER_PTAHUR_PHANTOM_VISIBLE",
          "gvInTalk": 1.0,
          "valueSteps": [-0.5, 0.5, 1.5, 2.5],
          "modifierNameSteps": ["PhaseOut", "PhaseIn", "Empty"]
        },
        {
          "$type": "AttachModifierToSelfGlobalValueMixin",
          "globalValueKey": "_MONSTER_PTAHUR_PHANTOM_HITTABLE",
          "gvInTalk": 1.0,
          "valueSteps": [-0.5, 0.5, 1.5],
          "modifierNameSteps": ["Inhittable", "Hittable"]
        }
      ],
      "modifiers": {
        "Empty": {
          "modifierName": "",
          "elementDurability": 100.0
        },
        "PhaseOut": {
          "modifierName": "",
          "elementDurability": 100.0,
          "onAdded": [
            {
              "$type": "TriggerSetVisible"
            },
            {
              "$type": "SetGlobalValue",
              "value": 0.0,
              "key": "_MONSTER_PTAHUR_PHANTOM_WEAPON_VISIBLE",
              "maxValue": 0.0,
              "minValue": 0.0
            },
            {
              "$type": "EnablePushColliderName",
              "pushColliderNames": ["PushCollider", "PushCollider_Occluder"]
            }
          ]
        },
        "PhaseIn": {
          "modifierName": "",
          "elementDurability": 100.0,
          "onAdded": [
            {
              "$type": "TriggerSetVisible",
              "KGGEDGKGLDD": true
            },
            {
              "$type": "EnablePushColliderName",
              "pushColliderNames": ["PushCollider", "PushCollider_Occluder"],
              "setEnable": true
            },
            {
              "$type": "AttachEffect",
              "rotationDampTime": "Eff_Monster_Ptahur_Phantom_01_ChestBlackHole",
              "PPPDJGDDOGD": 1.0,
              "AJDILHJFNKE": -1.0
            },
            {
              "$type": "AttachEffect",
              "rotationDampTime": "Eff_Monster_Ptahur_Phantom_01_Noise",
              "PPPDJGDDOGD": 1.0,
              "AJDILHJFNKE": -1.0
            },
            {
              "$type": "SetGlobalValue",
              "value": 1.0,
              "key": "_MONSTER_PTAHUR_PHANTOM_WEAPON_VISIBLE",
              "maxValue": 0.0,
              "minValue": 0.0
            }
          ],
          "onKill": [
            {
              "$type": "SetGlobalValue",
              "value": 2.0,
              "key": "_MONSTER_PTAHUR_PHANTOM_VISIBLE",
              "maxValue": 0.0,
              "minValue": 0.0
            }
          ]
        },
        "Inhittable": {
          "modifierName": "",
          "elementDurability": 100.0,
          "onAdded": [
            {
              "$type": "EnableHitBoxByName",
              "hitBoxNames": ["HitBox_01", "HeadBox"]
            },
            {
              "$type": "AttachModifier",
              "modifierName": "IsInvincible"
            },
            {
              "$type": "AttachModifier",
              "modifierName": "IsDenyLockOn"
            },
            {
              "$type": "AttachModifier",
              "modifierName": "IsGhostToEnemy"
            },
            {
              "$type": "HBNEMPLJCMB",
              "hide": true
            }
          ]
        },
        "Hittable": {
          "modifierName": "",
          "elementDurability": 100.0,
          "onAdded": [
            {
              "$type": "EnableHitBoxByName",
              "hitBoxNames": ["HitBox_01", "HeadBox"],
              "setEnable": true
            },
            {
              "$type": "HBNEMPLJCMB"
            }
          ]
        },
        "IsDenyLockOn": {
          "modifierName": "",
          "elementDurability": 100.0,
          "state": "DenyLockOn"
        },
        "IsInvincible": {
          "modifierName": "",
          "elementDurability": 100.0,
          "state": "Invincible"
        },
        "IsGhostToEnemy": {
          "modifierName": "",
          "elementDurability": 100.0,
          "state": "IsGhostToEnemy"
        }
      },
      "onAbilityStart": [
        {
          "$type": "SetGlobalValue",
          "value": 1.0,
          "key": "_MONSTER_PTAHUR_PHANTOM_VISIBLE",
          "maxValue": 0.0,
          "minValue": 0.0
        }
      ]
    }
  },
  {
    "Default": {
      "$type": "ConfigAbility",
      "abilityName": "Monster_Ptahur_Phantom_PhaseOut",
      "onAbilityStart": [
        {
          "$type": "SetGlobalValue",
          "value": 0.0,
          "key": "_MONSTER_PTAHUR_PHANTOM_VISIBLE",
          "maxValue": 0.0,
          "minValue": 0.0
        }
      ]
    }
  },
  {
    "Default": {
      "$type": "ConfigAbility",
      "abilityName": "Monster_Ptahur_Phantom_WeaponShow",
      "abilityMixins": [
        {
          "$type": "AttachModifierToSelfGlobalValueMixin",
          "globalValueKey": "_MONSTER_PTAHUR_PHANTOM_WEAPON_VISIBLE",
          "gvInTalk": 1.0,
          "valueSteps": [-0.5, 0.5, 1.5],
          "modifierNameSteps": ["WeaponHide", "WeaponShow"]
        }
      ],
      "modifiers": {
        "WeaponHide": {
          "modifierName": "",
          "elementDurability": 100.0,
          "onAdded": [
            {
              "$type": "HMIDGKNOHJM",
              "renderNames": ["MonEquip_Ptahur_Phantom_Sword_Model"]
            }
          ]
        },
        "WeaponShow": {
          "modifierName": "",
          "elementDurability": 100.0,
          "onAdded": [
            {
              "$type": "HMIDGKNOHJM",
              "renderNames": ["MonEquip_Ptahur_Phantom_Sword_Model"],
              "setEnable": true
            },
            {
              "$type": "AttachEffect",
              "rotationDampTime": "Eff_Monster_Ptahur_Phantom_01_BladeBlackHole",
              "PPPDJGDDOGD": 1.0,
              "AJDILHJFNKE": -1.0
            }
          ]
        }
      },
      "onAbilityStart": [
        {
          "$type": "SetGlobalValue",
          "value": 1.0,
          "key": "_MONSTER_PTAHUR_PHANTOM_WEAPON_VISIBLE",
          "maxValue": 0.0,
          "minValue": 0.0
        }
      ]
    }
  },
  {
    "Default": {
      "$type": "ConfigAbility",
      "abilityName": "Monster_Ptahur_Phantom_WeaponHide",
      "onAbilityStart": [
        {
          "$type": "SetGlobalValue",
          "value": 0.0,
          "key": "_MONSTER_PTAHUR_PHANTOM_WEAPON_VISIBLE",
          "maxValue": 0.0,
          "minValue": 0.0
        }
      ]
    }
  },
  {
    "Default": {
      "$type": "ConfigAbility",
      "abilityName": "Monster_Ptahur_Phantom_Sethittable",
      "onAbilityStart": [
        {
          "$type": "SetGlobalValue",
          "value": 1.0,
          "key": "_MONSTER_PTAHUR_PHANTOM_HITTABLE",
          "maxValue": 0.0,
          "minValue": 0.0
        }
      ]
    }
  },
  {
    "Default": {
      "$type": "ConfigAbility",
      "abilityName": "Monster_Ptahur_Phantom_Setinhittable",
      "onAbilityStart": [
        {
          "$type": "SetGlobalValue",
          "value": 0.0,
          "key": "_MONSTER_PTAHUR_PHANTOM_HITTABLE",
          "maxValue": 0.0,
          "minValue": 0.0
        }
      ]
    }
  },
  {
    "Default": {
      "$type": "ConfigAbility",
      "abilityName": "Monster_Ptahur_Phantom_01_ThrowBlade_Throw",
      "onAbilityStart": [
        {
          "$type": "TriggerBullet",
          "bulletID": 42909002,
          "born": {
            "$type": "ConfigBornByAttachPoint",
            "direction": {
              "$type": "ConfigDirectionByAttackTarget",
              "startPoint": ""
            },
            "useRotation": true,
            "attachPointName": "ThrowBladeSource"
          }
        }
      ]
    }
  },
  {
    "Default": {
      "$type": "ConfigAbility",
      "abilityName": "Monster_Ptahur_Phantom_01_EnvironmentAttackHandler",
      "abilityMixins": [
        {
          "$type": "AttachModifierToSelfGlobalValueMixin",
          "globalValueKey": "Ptahur_Phantom_TimeElapsed",
          "gvInTalk": 0.0,
          "valueSteps": [-0.5, 30.5, 60.5, 999999.5],
          "modifierNameSteps": [
            "EnvironmentState01",
            "EnvironmentState02",
            "EnvironmentState03"
          ]
        }
      ],
      "modifiers": {
        "Ptahur_Phantom_TimeTicker": {
          "modifierName": "",
          "elementDurability": 100.0,
          "thinkInterval": 1.0,
          "onThinkInterval": [
            {
              "$type": "AddGlobalValue",
              "value": 1.0,
              "key": "Ptahur_Phantom_TimeElapsed",
              "maxValue": 999999.0,
              "minValue": 0.0
            }
          ]
        },
        "EnvironmentState01": {
          "modifierName": "",
          "elementDurability": 100.0,
          "thinkInterval": 15.0,
          "onThinkInterval": [
            {
              "$type": "CreateGadget",
              "target": "SelfAttackTarget",
              "born": {
                "$type": "MPCGPEHJNNH",
                "bornRandom": {
                  "$type": "BornRandomFromCenter",
                  "minRandomRange": 0.0,
                  "maxRandomRange": 0.5
                },
                "onGround": true,
                "onGroundRaycastUpDist": 0.20000000298023224,
                "timeForPredictive": 0.5
              },
              "lifeByOwnerV2": true,
              "gadgetID": 42909030,
              "campID": 4001
            },
            {
              "$type": "ApplyModifier",
              "modifierName": "RandomEnvironmentAttackLauncher01"
            }
          ]
        },
        "EnvironmentState02": {
          "modifierName": "",
          "elementDurability": 100.0,
          "thinkInterval": 9.0,
          "onThinkInterval": [
            {
              "$type": "CreateGadget",
              "target": "SelfAttackTarget",
              "born": {
                "$type": "MPCGPEHJNNH",
                "bornRandom": {
                  "$type": "BornRandomFromCenter",
                  "minRandomRange": 0.0,
                  "maxRandomRange": 0.5
                },
                "onGround": true,
                "onGroundRaycastUpDist": 0.20000000298023224,
                "timeForPredictive": 0.5
              },
              "lifeByOwnerV2": true,
              "gadgetID": 42909030,
              "campID": 4001
            },
            {
              "$type": "ApplyModifier",
              "modifierName": "RandomEnvironmentAttackLauncher02"
            }
          ]
        },
        "EnvironmentState03": {
          "modifierName": "",
          "elementDurability": 100.0,
          "thinkInterval": 5.0,
          "onThinkInterval": [
            {
              "$type": "CreateGadget",
              "target": "SelfAttackTarget",
              "born": {
                "$type": "MPCGPEHJNNH",
                "bornRandom": {
                  "$type": "BornRandomFromCenter",
                  "minRandomRange": 0.0,
                  "maxRandomRange": 0.5
                },
                "onGround": true,
                "onGroundRaycastUpDist": 0.20000000298023224,
                "timeForPredictive": 0.5
              },
              "lifeByOwnerV2": true,
              "gadgetID": 42909030,
              "campID": 4001
            },
            {
              "$type": "ApplyModifier",
              "modifierName": "RandomEnvironmentAttackLauncher03"
            }
          ]
        },
        "RandomEnvironmentAttackLauncher01": {
          "modifierName": "",
          "duration": 0.5,
          "elementDurability": 100.0,
          "thinkInterval": 0.20000000298023224,
          "onAdded": [
            {
              "$type": "Repeated",
              "repeatTimes": 1,
              "actions": [
                {
                  "$type": "CreateGadget",
                  "target": "SelfAttackTarget",
                  "born": {
                    "$type": "MPCGPEHJNNH",
                    "bornRandom": {
                      "$type": "BornRandomFromCenter",
                      "minRandomRange": 3.0,
                      "maxRandomRange": 7.5
                    },
                    "onGround": true,
                    "onGroundRaycastUpDist": 0.20000000298023224,
                    "timeForPredictive": 0.5
                  },
                  "lifeByOwnerV2": true,
                  "gadgetID": 42909030,
                  "campID": 4001
                }
              ]
            }
          ],
          "onThinkInterval": [
            {
              "$type": "Repeated",
              "repeatTimes": 1,
              "actions": [
                {
                  "$type": "CreateGadget",
                  "target": "SelfAttackTarget",
                  "born": {
                    "$type": "MPCGPEHJNNH",
                    "bornRandom": {
                      "$type": "BornRandomFromCenter",
                      "minRandomRange": 3.0,
                      "maxRandomRange": 7.5
                    },
                    "onGround": true,
                    "onGroundRaycastUpDist": 0.20000000298023224,
                    "timeForPredictive": 0.5
                  },
                  "lifeByOwnerV2": true,
                  "gadgetID": 42909030,
                  "campID": 4001
                }
              ]
            }
          ]
        },
        "RandomEnvironmentAttackLauncher02": {
          "modifierName": "",
          "duration": 0.5,
          "elementDurability": 100.0,
          "thinkInterval": 0.20000000298023224,
          "onAdded": [
            {
              "$type": "Repeated",
              "repeatTimes": 1,
              "actions": [
                {
                  "$type": "CreateGadget",
                  "target": "SelfAttackTarget",
                  "born": {
                    "$type": "MPCGPEHJNNH",
                    "bornRandom": {
                      "$type": "BornRandomFromCenter",
                      "minRandomRange": 3.0,
                      "maxRandomRange": 7.5
                    },
                    "onGround": true,
                    "onGroundRaycastUpDist": 0.20000000298023224,
                    "timeForPredictive": 0.5
                  },
                  "lifeByOwnerV2": true,
                  "gadgetID": 42909030,
                  "campID": 4001
                }
              ]
            }
          ],
          "onThinkInterval": [
            {
              "$type": "Repeated",
              "repeatTimes": 1,
              "actions": [
                {
                  "$type": "CreateGadget",
                  "target": "SelfAttackTarget",
                  "born": {
                    "$type": "MPCGPEHJNNH",
                    "bornRandom": {
                      "$type": "BornRandomFromCenter",
                      "minRandomRange": 3.0,
                      "maxRandomRange": 7.5
                    },
                    "onGround": true,
                    "onGroundRaycastUpDist": 0.20000000298023224,
                    "timeForPredictive": 0.5
                  },
                  "lifeByOwnerV2": true,
                  "gadgetID": 42909030,
                  "campID": 4001
                }
              ]
            }
          ]
        },
        "RandomEnvironmentAttackLauncher03": {
          "modifierName": "",
          "duration": 0.8999999761581421,
          "elementDurability": 100.0,
          "thinkInterval": 0.20000000298023224,
          "onAdded": [
            {
              "$type": "Repeated",
              "repeatTimes": 1,
              "actions": [
                {
                  "$type": "CreateGadget",
                  "target": "SelfAttackTarget",
                  "born": {
                    "$type": "MPCGPEHJNNH",
                    "bornRandom": {
                      "$type": "BornRandomFromCenter",
                      "minRandomRange": 3.0,
                      "maxRandomRange": 7.5
                    },
                    "onGround": true,
                    "onGroundRaycastUpDist": 0.20000000298023224,
                    "timeForPredictive": 0.5
                  },
                  "lifeByOwnerV2": true,
                  "gadgetID": 42909030,
                  "campID": 4001
                }
              ]
            }
          ],
          "onThinkInterval": [
            {
              "$type": "Repeated",
              "repeatTimes": 1,
              "actions": [
                {
                  "$type": "CreateGadget",
                  "target": "SelfAttackTarget",
                  "born": {
                    "$type": "MPCGPEHJNNH",
                    "bornRandom": {
                      "$type": "BornRandomFromCenter",
                      "minRandomRange": 3.0,
                      "maxRandomRange": 7.5
                    },
                    "onGround": true,
                    "onGroundRaycastUpDist": 0.20000000298023224,
                    "timeForPredictive": 0.5
                  },
                  "lifeByOwnerV2": true,
                  "gadgetID": 42909030,
                  "campID": 4001
                }
              ]
            }
          ]
        }
      },
      "onAdded": [
        {
          "$type": "SetGlobalValue",
          "value": 0.0,
          "key": "Ptahur_Phantom_TimeElapsed",
          "maxValue": 0.0,
          "minValue": 0.0
        },
        {
          "$type": "ApplyModifier",
          "modifierName": "Ptahur_Phantom_TimeTicker"
        }
      ],
      "onAbilityStart": [
        {
          "$type": "CreateGadget",
          "target": "SelfAttackTarget",
          "born": {
            "$type": "MPCGPEHJNNH",
            "bornRandom": {
              "$type": "BornRandomFromCenter",
              "minRandomRange": 0.0,
              "maxRandomRange": 1.0
            },
            "onGround": true,
            "onGroundRaycastUpDist": 0.20000000298023224,
            "timeForPredictive": 0.5
          },
          "lifeByOwnerV2": true,
          "gadgetID": 42909030,
          "campID": 4001
        }
      ]
    }
  },
  {
    "Default": {
      "$type": "ConfigAbility",
      "abilityName": "Monster_Ptahur_Phantom_EnvironmentAttack",
      "modifiers": {
        "Damage_Timer": {
          "modifierName": "",
          "duration": 2.4000000953674316,
          "elementDurability": 100.0,
          "thinkInterval": 2.0,
          "onThinkInterval": [
            {
              "$type": "FireSubEmitterEffect",
              "rotationDampTime": "Eff_Monster_Ptahur_Phantom_EnvironmentAttack_Attack",
              "born": {
                "$type": "ConfigBornByTarget",
                "onGround": true,
                "alongGround": true
              }
            },
            {
              "$type": "TriggerAudio",
              "operation": {
                "$type": "ConfigAudioEventOp",
                "operation": {
                  "text": "Play_sfx_monster_effigy_ice_vfx_spikeStrike_attack"
                }
              }
            },
            {
              "$type": "ApplyModifier",
              "modifierName": "SingleDamage"
            }
          ]
        },
        "SingleDamage": {
          "modifierName": "",
          "duration": 0.5,
          "elementDurability": 100.0,
          "onAdded": [
            {
              "$type": "TriggerAttackEvent",
              "attackEvent": {
                "attackPattern": {
                  "$type": "ConfigAttackCircle",
                  "triggerType": "TriggerNoRepeat",
                  "born": {
                    "$type": "ConfigBornBySelf",
                    "offset": {
                      "x": 0.0,
                      "y": 0.0,
                      "z": 0.0
                    },
                    "onGround": true,
                    "alongGround": true,
                    "useRotation": true
                  },
                  "height": 3.0,
                  "radius": 2.0
                },
                "attackInfo": {
                  "attackTag": "",
                  "attenuationTag": "",
                  "attenuationGroup": "default",
                  "attackProperty": {
                    "actorGrassSubHurtDelta": 0.5,
                    "actorWindSubHurtDelta": 0.0,
                    "elementType": "Electric",
                    "elementDurability": 10.0,
                    "strikeType": "Default",
                    "enBreak": 0.0,
                    "GLKMCMDJBIK": 0.0
                  },
                  "hitPattern": {
                    "onHitEffectName": "default",
                    "hitImpulseY": "",
                    "hitImpulseType": "LV0",
                    "hitHaltTimeScale": 0.05000000074505806
                  },
                  "canBeModifiedBy": "OriginOwner"
                }
              },
              "targetType": "Enemy"
            }
          ]
        }
      },
      "onAdded": [
        {
          "$type": "FireSubEmitterEffect",
          "rotationDampTime": "Eff_Monster_Ptahur_Phantom_EnvironmentAttack_Warning",
          "born": {
            "$type": "ConfigBornByTarget",
            "onGround": true,
            "alongGround": true
          }
        },
        {
          "$type": "TriggerAudio",
          "operation": {
            "$type": "ConfigAudioEventOp",
            "operation": {
              "text": "Play_sfx_monster_effigy_ice_vfx_spikeStrike_alert"
            }
          }
        },
        {
          "$type": "ApplyModifier",
          "modifierName": "Damage_Timer"
        }
      ]
    }
  },
  {
    "Default": {
      "$type": "ConfigAbility",
      "abilityName": "Monster_Ptahur_Phantom_VertexBreakingBuffAttack",
      "modifiers": {
        "Damage_Timer": {
          "modifierName": "",
          "duration": 1.2000000476837158,
          "elementDurability": 100.0,
          "thinkInterval": 0.800000011920929,
          "onThinkInterval": [
            {
              "$type": "ApplyModifier",
              "modifierName": "SingleDamage"
            }
          ]
        },
        "SingleDamage": {
          "modifierName": "",
          "duration": 1.0,
          "elementDurability": 100.0,
          "onAdded": [
            {
              "$type": "TriggerAttackEvent",
              "attackEvent": {
                "attackPattern": {
                  "$type": "ConfigAttackSphere",
                  "triggerType": "TriggerNoRepeat",
                  "ignoreMassive": true,
                  "born": {
                    "$type": "ConfigBornBySelf",
                    "offset": {
                      "y": 2.0
                    },
                    "useRotation": true
                  },
                  "radius": 4.0
                },
                "attackInfo": {
                  "attackTag": "",
                  "attenuationTag": "",
                  "attenuationGroup": "default",
                  "attackProperty": {
                    "actorGrassSubHurtDelta": 0.0,
                    "actorWindSubHurtDelta": 0.0,
                    "elementDurability": 100.0,
                    "GLKMCMDJBIK": 1.0
                  },
                  "hitPattern": {
                    "onHitEffectName": "none",
                    "hitImpulseY": "",
                    "hitImpulseType": "LV0",
                    "muteHitText": true
                  }
                }
              },
              "targetType": "Enemy"
            }
          ]
        }
      },
      "onAdded": [
        {
          "$type": "FireEffect",
          "rotationDampTime": "Eff_Monster_Ptahur_ArkheAttack",
          "born": {
            "$type": "ConfigBornByTarget",
            "onGround": true,
            "alongGround": true
          },
          "PPPDJGDDOGD": 1.0,
          "AJDILHJFNKE": -1.0
        },
        {
          "$type": "ApplyModifier",
          "modifierName": "Damage_Timer"
        }
      ]
    }
  },
  {
    "Default": {
      "$type": "ConfigAbility",
      "abilityName": "Monster_Ptahur_Phantom_01_ThrowBlade_Bullet",
      "modifiers": {
        "Bullet_Loop": {
          "modifierName": "",
          "elementDurability": 100.0,
          "onAdded": [
            {
              "$type": "AttachEffect",
              "rotationDampTime": "Eff_Monster_Ptahur_Phantom_01_ThrowBlade_Bullet",
              "PPPDJGDDOGD": 1.0,
              "AJDILHJFNKE": -1.0
            }
          ],
          "onRemoved": [
            {
              "$type": "KillSelf"
            }
          ]
        }
      },
      "onAdded": [
        {
          "$type": "AttachModifier",
          "modifierName": "Bullet_Loop"
        }
      ],
      "onAbilityStart": [
        {
          "$type": "RemoveModifier",
          "modifierName": "Bullet_Loop"
        },
        {
          "$type": "FireEffect",
          "rotationDampTime": "Eff_Monster_Ptahur_Phantom_01_ThrowBlade_Bullet_Explode",
          "PPPDJGDDOGD": 1.0,
          "AJDILHJFNKE": -1.0
        }
      ]
    }
  },
  {
    "Default": {
      "$type": "ConfigAbility",
      "abilityName": "Monster_Ptahur_Phantom_01_ThrowBlade_Bullet_Damage",
      "onAbilityStart": [
        {
          "$type": "DamageByAttackValue",
          "target": "Target",
          "attacker": "CasterOriginOwner",
          "attackInfo": {
            "attackTag": "",
            "attenuationTag": "",
            "attenuationGroup": "default",
            "attackProperty": {
              "actorGrassSubHurtDelta": 1.0,
              "actorWindSubHurtDelta": 0.0,
              "elementType": "Electric",
              "elementDurability": 10.0,
              "strikeType": "Blunt",
              "enBreak": 100.0,
              "attackType": "Range",
              "GLKMCMDJBIK": 0.0
            },
            "hitPattern": {
              "onHitEffectName": "default",
              "hitImpulseY": "",
              "hitImpulseType": "LV3",
              "hitHaltTimeScale": 0.05000000074505806
            },
            "canBeModifiedBy": "OriginOwner"
          }
        }
      ]
    }
  },
  {
    "Default": {
      "$type": "ConfigAbility",
      "abilityName": "Monster_Ptahur_Devourer_Phantom_BladeSlash01_CastAfterStrike",
      "onAbilityStart": [
        {
          "$type": "TriggerBullet",
          "bulletID": 42909026,
          "born": {
            "$type": "ConfigBornBySelf",
            "offset": {
              "x": 0.0,
              "y": 0.0,
              "z": 0.0
            },
            "onGround": true,
            "useRotation": true
          }
        }
      ]
    }
  },
  {
    "Default": {
      "$type": "ConfigAbility",
      "abilityName": "Monster_Ptahur_Devourer_Phantom_BladeSlash02_CastAfterStrike",
      "onAbilityStart": [
        {
          "$type": "TriggerBullet",
          "bulletID": 42909027,
          "born": {
            "$type": "ConfigBornBySelf",
            "offset": {
              "x": 0.0,
              "y": 0.0,
              "z": 0.0
            },
            "onGround": true,
            "useRotation": true
          }
        }
      ]
    }
  },
  {
    "Default": {
      "$type": "ConfigAbility",
      "abilityName": "Monster_Ptahur_Devourer_Phantom_BladeSlash03_CastAfterStrike",
      "onAbilityStart": [
        {
          "$type": "TriggerBullet",
          "bulletID": 42909028,
          "born": {
            "$type": "ConfigBornBySelf",
            "offset": {
              "x": 0.0,
              "y": 0.0,
              "z": 0.0
            },
            "onGround": true,
            "useRotation": true
          }
        }
      ]
    }
  },
  {
    "Default": {
      "$type": "ConfigAbility",
      "abilityName": "Monster_Ptahur_Devourer_Phantom_BladeSlash01_AfterStrike",
      "onAbilityStart": [
        {
          "$type": "TriggerAttackEvent",
          "attackEvent": {
            "attackPattern": {
              "$type": "ConfigAttackCircle",
              "triggerType": "TriggerNoRepeat",
              "born": {
                "$type": "ConfigBornBySelf",
                "offset": {
                  "x": 0.0,
                  "y": 0.0,
                  "z": 0.0
                },
                "useRotation": true
              },
              "height": 3.0,
              "fanAngle": 180.0,
              "radius": 7.0,
              "MMBCLAEOEFB": 2.75
            },
            "attackInfo": {
              "attackTag": "",
              "attenuationTag": "",
              "attenuationGroup": "default",
              "attackProperty": {
                "actorGrassSubHurtDelta": 0.5,
                "actorWindSubHurtDelta": 0.0,
                "elementType": "Electric",
                "elementDurability": 10.0,
                "strikeType": "Slash",
                "enBreak": 50.0,
                "attackType": "Melee",
                "GLKMCMDJBIK": 0.0
              },
              "hitPattern": {
                "onHitEffectName": "default",
                "hitImpulseY": "",
                "hitImpulseType": "LV4",
                "canBeDefenceHalt": true
              }
            }
          },
          "targetType": "Enemy"
        }
      ]
    }
  },
  {
    "Default": {
      "$type": "ConfigAbility",
      "abilityName": "Monster_Ptahur_Devourer_Phantom_BladeSlash02_AfterStrike",
      "onAbilityStart": [
        {
          "$type": "TriggerAttackEvent",
          "attackEvent": {
            "attackPattern": {
              "$type": "ConfigAttackCircle",
              "triggerType": "TriggerNoRepeat",
              "born": {
                "$type": "ConfigBornBySelf",
                "offset": {
                  "x": 0.0,
                  "y": 0.0,
                  "z": 0.0
                },
                "useRotation": true
              },
              "height": 3.0,
              "fanAngle": 45.0,
              "radius": 12.0,
              "MMBCLAEOEFB": 0.0
            },
            "attackInfo": {
              "attackTag": "",
              "attenuationTag": "",
              "attenuationGroup": "default",
              "attackProperty": {
                "actorGrassSubHurtDelta": 0.5,
                "actorWindSubHurtDelta": 0.0,
                "elementType": "Electric",
                "elementDurability": 10.0,
                "strikeType": "Slash",
                "enBreak": 50.0,
                "attackType": "Melee",
                "GLKMCMDJBIK": 0.0
              },
              "hitPattern": {
                "onHitEffectName": "default",
                "hitImpulseY": "",
                "hitImpulseType": "LV4",
                "canBeDefenceHalt": true
              }
            }
          },
          "targetType": "Enemy"
        }
      ]
    }
  },
  {
    "Default": {
      "$type": "ConfigAbility",
      "abilityName": "Monster_Ptahur_Devourer_Phantom_BladeSlash03_AfterStrike",
      "onAbilityStart": [
        {
          "$type": "TriggerAttackEvent",
          "attackEvent": {
            "attackPattern": {
              "$type": "ConfigAttackCircle",
              "triggerType": "TriggerNoRepeat",
              "born": {
                "$type": "ConfigBornBySelf",
                "offset": {
                  "x": 0.0,
                  "y": 0.0,
                  "z": 0.0
                },
                "useRotation": true
              },
              "height": 3.0,
              "fanAngle": 240.0,
              "radius": 9.0,
              "MMBCLAEOEFB": 5.0
            },
            "attackInfo": {
              "attackTag": "",
              "attenuationTag": "",
              "attenuationGroup": "default",
              "attackProperty": {
                "actorGrassSubHurtDelta": 0.5,
                "actorWindSubHurtDelta": 0.0,
                "elementType": "Electric",
                "elementDurability": 10.0,
                "strikeType": "Slash",
                "enBreak": 50.0,
                "attackType": "Melee",
                "GLKMCMDJBIK": 0.0
              },
              "hitPattern": {
                "onHitEffectName": "default",
                "hitImpulseY": "",
                "hitImpulseType": "LV4",
                "canBeDefenceHalt": true
              }
            }
          },
          "targetType": "Enemy"
        }
      ]
    }
  },
  {
    "Default": {
      "$type": "ConfigAbility",
      "abilityName": "Monster_Ptahur_Phantom_PhaseMoveToVertexPoint",
      "onAbilityStart": [
        {
          "$type": "BHPDPACKKNI",
          "target": "SelfAttackTarget",
          "born": {
            "$type": "BBIDJJMEHNM",
            "onGround": true,
            "worldPos": {
              "x": 4602.93798828125,
              "z": -201.63479614257812
            },
            "worldFwd": {
              "z": 1.0
            }
          },
          "hitSceneType": "BlinkHitSceneTestByThreeSegments",
          "limitY": 2.5
        },
        {
          "$type": "IFCMHHHOLCK"
        }
      ]
    }
  },
  {
    "Default": {
      "$type": "ConfigAbility",
      "abilityName": "Monster_Ptahur_Phantom_EnterVertexState",
      "abilityMixins": [
        {
          "$type": "AttachToStateIDMixin",
          "stateIDs": ["NormalIdle", "Break", "Die"],
          "modifierName": "NoVertexState",
          "DGFCLAIDIFI": ""
        },
        {
          "$type": "AttachModifierToSelfGlobalValueMixin",
          "globalValueKey": "PTAHUR_PHANTOM_VERTEXSTATE",
          "gvInTalk": 0.0,
          "valueSteps": [-0.5, 0.5, 1.5],
          "modifierNameSteps": ["Empty", "VertexState"]
        },
        {
          "$type": "PDIMAGBFBIE",
          "valueSteps": [0.699999988079071, 0.30000001192092896],
          "modifierNameSteps": [
            "LifePercent01",
            "LifePercent02",
            "LifePercent03"
          ]
        },
        {
          "$type": "AttachModifierToSelfGlobalValueNoInitMixin",
          "globalValueKey": "SGV_EnterDevour_Count",
          "valueSteps": [-0.5, 1.5, 99.5],
          "modifierNameSteps": ["Empty", "WatcherHandler"],
          "NMCLMHFBALJ": true
        }
      ],
      "modifiers": {
        "Empty": {
          "modifierName": "",
          "elementDurability": 100.0
        },
        "VertexState": {
          "modifierName": "",
          "elementDurability": 100.0,
          "onAdded": [
            {
              "$type": "AttachEffect",
              "rotationDampTime": "Eff_Monster_Ptahur_Phantom_VertexAttack_01",
              "PPPDJGDDOGD": 1.0,
              "AJDILHJFNKE": -1.0
            },
            {
              "$type": "BAKEBEKLLAC",
              "id": 201980103
            },
            {
              "$type": "DLEIPBPNAIM",
              "paramList": [0, 0, 0]
            }
          ],
          "onBeingHit": [
            {
              "$type": "Predicated",
              "target": "Target",
              "targetPredicates": [
                {
                  "$type": "ByAny",
                  "predicates": [
                    {
                      "$type": "LBCGJFGOKMP"
                    },
                    {
                      "$type": "LBCGJFGOKMP",
                      "logic": "Lesser"
                    }
                  ]
                }
              ],
              "successActions": [
                {
                  "$type": "TriggerAttackEvent",
                  "attackEvent": {
                    "attackPattern": {
                      "$type": "ConfigAttackBox",
                      "triggerType": "TriggerNoRepeat",
                      "ignoreMassive": true,
                      "born": {
                        "$type": "ConfigBornBySelf",
                        "useRotation": true
                      },
                      "size": {
                        "x": 0.10000000149011612,
                        "y": 0.10000000149011612,
                        "z": 0.10000000149011612
                      }
                    },
                    "attackInfo": {
                      "attackTag": "",
                      "attenuationTag": "",
                      "attenuationGroup": "default",
                      "attackProperty": {
                        "actorGrassSubHurtDelta": 0.0,
                        "actorWindSubHurtDelta": 0.0,
                        "elementDurability": 100.0,
                        "GLKMCMDJBIK": 0.0
                      },
                      "hitPattern": {
                        "onHitEffectName": "none",
                        "hitImpulseY": "",
                        "hitImpulseType": "LV0",
                        "muteHitText": true
                      },
                      "cameraShake": {
                        "shakeType": "CustomVector",
                        "shakeRange": 1.0,
                        "shakeTime": 2.0,
                        "shakeDistance": 35.0,
                        "shakeDir": {
                          "z": 2.0
                        },
                        "extension": {
                          "baseOnCamera": true,
                          "rangeAttenuation": 0.0
                        }
                      }
                    }
                  }
                },
                {
                  "$type": "FireEffect",
                  "rotationDampTime": "Eff_Monster_MachinaIustitia_Fusion",
                  "born": {
                    "$type": "ConfigBornByAttachPoint",
                    "useRotation": true,
                    "attachPointName": "Fusion_Node"
                  },
                  "PPPDJGDDOGD": 1.0,
                  "AJDILHJFNKE": -1.0
                },
                {
                  "$type": "FireEffect",
                  "rotationDampTime": "Eff_Monster_Ptahur_Phantom_VertexAttack_01_Explode",
                  "PPPDJGDDOGD": 1.0,
                  "AJDILHJFNKE": -1.0
                },
                {
                  "$type": "DLEIPBPNAIM",
                  "paramList": [0, 0, 1]
                },
                {
                  "$type": "TriggerAbility",
                  "abilityName": "Monster_Ptahur_Phantom_PhaseIn"
                },
                {
                  "$type": "FireEffect",
                  "rotationDampTime": "Eff_Monster_Ptahur_Phantom_01_PhaseIn",
                  "PPPDJGDDOGD": 1.0,
                  "AJDILHJFNKE": -1.0
                },
                {
                  "$type": "SetAnimatorTrigger",
                  "triggerID": "Break"
                },
                {
                  "$type": "LoseHP",
                  "amountByCasterMaxHPRatio": 0.25,
                  "BJKGFBGEFPB": ""
                },
                {
                  "$type": "KillGadget",
                  "gadgetInfo": {
                    "configID": 42909012
                  }
                },
                {
                  "$type": "KillGadget",
                  "gadgetInfo": {
                    "configID": 42909013
                  }
                },
                {
                  "$type": "KillGadget",
                  "gadgetInfo": {
                    "configID": 42909014
                  }
                },
                {
                  "$type": "KillGadget",
                  "gadgetInfo": {
                    "configID": 42909015
                  }
                },
                {
                  "$type": "KillGadget",
                  "gadgetInfo": {
                    "configID": 42909016
                  }
                },
                {
                  "$type": "KillGadget",
                  "gadgetInfo": {
                    "configID": 42909017
                  }
                },
                {
                  "$type": "SetGlobalValue",
                  "value": 0.0,
                  "key": "PTAHUR_PHANTOM_VERTEXSTATE",
                  "maxValue": 0.0,
                  "minValue": 0.0
                }
              ]
            }
          ],
          "onKill": [
            {
              "$type": "TriggerAttackEvent",
              "attackEvent": {
                "attackPattern": {
                  "$type": "ConfigAttackBox",
                  "triggerType": "TriggerNoRepeat",
                  "ignoreMassive": true,
                  "born": {
                    "$type": "ConfigBornBySelf",
                    "useRotation": true
                  },
                  "size": {
                    "x": 0.10000000149011612,
                    "y": 0.10000000149011612,
                    "z": 0.10000000149011612
                  }
                },
                "attackInfo": {
                  "attackTag": "",
                  "attenuationTag": "",
                  "attenuationGroup": "default",
                  "attackProperty": {
                    "actorGrassSubHurtDelta": 0.0,
                    "actorWindSubHurtDelta": 0.0,
                    "elementDurability": 100.0,
                    "GLKMCMDJBIK": 0.0
                  },
                  "hitPattern": {
                    "onHitEffectName": "none",
                    "hitImpulseY": "",
                    "hitImpulseType": "LV0",
                    "muteHitText": true
                  },
                  "cameraShake": {
                    "shakeType": "CustomVector",
                    "shakeRange": 1.0,
                    "shakeTime": 2.0,
                    "shakeDistance": 35.0,
                    "shakeDir": {
                      "z": 2.0
                    },
                    "extension": {
                      "baseOnCamera": true,
                      "rangeAttenuation": 0.0
                    }
                  }
                }
              }
            },
            {
              "$type": "FireEffect",
              "rotationDampTime": "Eff_Monster_Ptahur_Phantom_VertexAttack_01_Explode",
              "PPPDJGDDOGD": 1.0,
              "AJDILHJFNKE": -1.0
            },
            {
              "$type": "TriggerSetVisible",
              "KGGEDGKGLDD": true
            },
            {
              "$type": "KillGadget",
              "gadgetInfo": {
                "configID": 42909012
              }
            },
            {
              "$type": "KillGadget",
              "gadgetInfo": {
                "configID": 42909013
              }
            },
            {
              "$type": "KillGadget",
              "gadgetInfo": {
                "configID": 42909014
              }
            },
            {
              "$type": "KillGadget",
              "gadgetInfo": {
                "configID": 42909015
              }
            },
            {
              "$type": "KillGadget",
              "gadgetInfo": {
                "configID": 42909016
              }
            },
            {
              "$type": "KillGadget",
              "gadgetInfo": {
                "configID": 42909017
              }
            },
            {
              "$type": "SetGlobalValue",
              "value": 0.0,
              "key": "PTAHUR_PHANTOM_VERTEXSTATE",
              "maxValue": 0.0,
              "minValue": 0.0
            }
          ]
        },
        "LifePercent01": {
          "modifierName": "",
          "elementDurability": 100.0
        },
        "LifePercent02": {
          "modifierName": "",
          "elementDurability": 100.0,
          "onAdded": [
            {
              "$type": "LMICIIMGMGO",
              "rotationDampTime": "Eff_UI_ShieldBar_PtahurDimensionShatter_ShatterOnce",
              "effectSlot": "UICombatBar",
              "effectPattern": ""
            },
            {
              "$type": "ONEOKBONCFN",
              "rotationDampTime": "Eff_UI_ShieldBar_PtahurDimensionShatter_Level01",
              "effectSlot": "UICombatBar"
            }
          ]
        },
        "LifePercent03": {
          "modifierName": "",
          "elementDurability": 100.0,
          "onAdded": [
            {
              "$type": "LMICIIMGMGO",
              "rotationDampTime": "Eff_UI_ShieldBar_PtahurDimensionShatter_ShatterOnce",
              "effectSlot": "UICombatBar",
              "effectPattern": ""
            },
            {
              "$type": "ONEOKBONCFN",
              "rotationDampTime": "Eff_UI_ShieldBar_PtahurDimensionShatter_Level02",
              "effectSlot": "UICombatBar"
            }
          ]
        },
        "ShieldBarHandler": {
          "modifierName": "",
          "elementDurability": 100.0,
          "modifierMixins": [
            {
              "$type": "KDAILFEPHCK",
              "otherTargets": {
                "$type": "SelectTargetsByShape",
                "topLimit": 1,
                "sortType": "Nearest",
                "shapeName": "CircleR1000",
                "campTargetType": "Alliance",
                "doOffStage": 1.0
              },
              "predicates": [
                {
                  "$type": "ByEntityTypes",
                  "entityTypes": ["Monster"]
                }
              ],
              "skipInitAnim": true
            }
          ]
        },
        "NoVertexState": {
          "modifierName": "",
          "elementDurability": 100.0,
          "onAdded": [
            {
              "$type": "SetGlobalValue",
              "value": 0.0,
              "key": "PTAHUR_PHANTOM_VERTEXSTATE",
              "maxValue": 0.0,
              "minValue": 0.0
            }
          ]
        },
        "WatcherHandler": {
          "modifierName": "",
          "elementDurability": 100.0,
          "onAdded": [
            {
              "$type": "HCLAKBJKPLE",
              "watcherId": 82188
            }
          ]
        }
      },
      "onAdded": [
        {
          "$type": "ApplyModifier",
          "modifierName": "ShieldBarHandler"
        },
        {
          "$type": "AOOCGNCCAJB",
          "isAdd": true,
          "tag": "_PTAHUR_PHANTOM_"
        },
        {
          "$type": "SetGlobalValue",
          "value": 0.0,
          "key": "PTAHUR_PHANTOM_DIE",
          "maxValue": 0.0,
          "minValue": 0.0
        }
      ],
      "onAbilityStart": [
        {
          "$type": "SetGlobalValue",
          "value": 1.0,
          "key": "PTAHUR_PHANTOM_VERTEXSTATE",
          "maxValue": 0.0,
          "minValue": 0.0
        }
      ],
      "onKill": [
        {
          "$type": "RemoveModifier",
          "modifierName": "LifePercent03"
        },
        {
          "$type": "RemoveModifier",
          "modifierName": "LifePercent02"
        },
        {
          "$type": "RemoveModifier",
          "modifierName": "LifePercent03"
        },
        {
          "$type": "LMICIIMGMGO",
          "rotationDampTime": "Eff_UI_ShieldBar_PtahurDimensionShatter_End",
          "effectSlot": "UICombatBar",
          "effectPattern": ""
        },
        {
          "$type": "TriggerSetVisible",
          "KGGEDGKGLDD": true
        },
        {
          "$type": "HMIDGKNOHJM",
          "renderNames": ["MonEquip_Ptahur_Phantom_Sword_Model"],
          "setEnable": true
        },
        {
          "$type": "SetGlobalValue",
          "value": 1.0,
          "key": "PTAHUR_PHANTOM_DIE",
          "maxValue": 0.0,
          "minValue": 0.0
        }
      ]
    }
  },
  {
    "Default": {
      "$type": "ConfigAbility",
      "abilityName": "Monster_Ptahur_Phantom_SetVertexFxToEnd",
      "onAbilityStart": [
        {
          "$type": "SendEffectTrigger",
          "parameter": "End",
          "attachPoint": "",
          "rotationDampTime": "Eff_Monster_Ptahur_Phantom_VertexAttack_01"
        }
      ]
    }
  },
  {
    "Default": {
      "$type": "ConfigAbility",
      "abilityName": "Monster_Ptahur_Phantom_ExitVertexState",
      "onAbilityStart": [
        {
          "$type": "SetGlobalValue",
          "value": 0.0,
          "key": "PTAHUR_PHANTOM_VERTEXSTATE",
          "maxValue": 0.0,
          "minValue": 0.0
        }
      ]
    }
  },
  {
    "Default": {
      "$type": "ConfigAbility",
      "abilityName": "Monster_Ptahur_Phantom_CastDrakeAttack_01",
      "onAbilityStart": [
        {
          "$type": "CreateGadget",
          "born": {
            "$type": "ConfigBornBySelf",
            "offset": {
              "x": -11.5,
              "y": 1.149999976158142,
              "z": 1.8399959802627563
            },
            "alongGround": true,
            "useRotation": true
          },
          "gadgetID": 42909013
        }
      ]
    }
  },
  {
    "Default": {
      "$type": "ConfigAbility",
      "abilityName": "Monster_Ptahur_Phantom_CastDrakeAttack_02",
      "onAbilityStart": [
        {
          "$type": "CreateGadget",
          "born": {
            "$type": "ConfigBornBySelf",
            "offset": {
              "x": 11.5,
              "y": 1.149999976158142,
              "z": 1.8399959802627563
            },
            "alongGround": true,
            "useRotation": true
          },
          "gadgetID": 42909013
        }
      ]
    }
  },
  {
    "Default": {
      "$type": "ConfigAbility",
      "abilityName": "Monster_Ptahur_Phantom_CastDrakeAttack_03",
      "onAbilityStart": [
        {
          "$type": "CreateGadget",
          "born": {
            "$type": "ConfigBornBySelf",
            "offset": {
              "x": 11.5,
              "y": 1.149999976158142,
              "z": 20.83799934387207
            },
            "alongGround": true,
            "useRotation": true
          },
          "gadgetID": 42909013
        }
      ]
    }
  },
  {
    "Default": {
      "$type": "ConfigAbility",
      "abilityName": "Monster_Ptahur_Phantom_CastDrakeAttack_04",
      "onAbilityStart": [
        {
          "$type": "CreateGadget",
          "born": {
            "$type": "ConfigBornBySelf",
            "offset": {
              "x": -11.5,
              "y": 1.149999976158142,
              "z": 20.83799934387207
            },
            "alongGround": true,
            "useRotation": true
          },
          "gadgetID": 42909013
        }
      ]
    }
  },
  {
    "Default": {
      "$type": "ConfigAbility",
      "abilityName": "Monster_Ptahur_Phantom_CastPantherAttack_01",
      "onAbilityStart": [
        {
          "$type": "CreateGadget",
          "born": {
            "$type": "ConfigBornBySelf",
            "offset": {
              "x": -11.5,
              "y": 1.149999976158142,
              "z": 1.8399959802627563
            },
            "alongGround": true,
            "useRotation": true
          },
          "gadgetID": 42909015
        }
      ]
    }
  },
  {
    "Default": {
      "$type": "ConfigAbility",
      "abilityName": "Monster_Ptahur_Phantom_CastPantherAttack_02",
      "onAbilityStart": [
        {
          "$type": "CreateGadget",
          "born": {
            "$type": "ConfigBornBySelf",
            "offset": {
              "x": 11.5,
              "y": 1.149999976158142,
              "z": 1.8399959802627563
            },
            "alongGround": true,
            "useRotation": true
          },
          "gadgetID": 42909015
        }
      ]
    }
  },
  {
    "Default": {
      "$type": "ConfigAbility",
      "abilityName": "Monster_Ptahur_Phantom_CastPantherAttack_03",
      "onAbilityStart": [
        {
          "$type": "CreateGadget",
          "born": {
            "$type": "ConfigBornBySelf",
            "offset": {
              "x": 11.5,
              "y": 1.149999976158142,
              "z": 20.83799934387207
            },
            "alongGround": true,
            "useRotation": true
          },
          "gadgetID": 42909015
        }
      ]
    }
  },
  {
    "Default": {
      "$type": "ConfigAbility",
      "abilityName": "Monster_Ptahur_Phantom_CastPantherAttack_04",
      "onAbilityStart": [
        {
          "$type": "CreateGadget",
          "born": {
            "$type": "ConfigBornBySelf",
            "offset": {
              "x": -11.5,
              "y": 1.149999976158142,
              "z": 20.83799934387207
            },
            "alongGround": true,
            "useRotation": true
          },
          "gadgetID": 42909015
        }
      ]
    }
  },
  {
    "Default": {
      "$type": "ConfigAbility",
      "abilityName": "Monster_Ptahur_Phantom_CastJellyFishAttack_01",
      "onAbilityStart": [
        {
          "$type": "CreateGadget",
          "born": {
            "$type": "ConfigBornBySelf",
            "offset": {
              "x": -11.5,
              "y": 1.149999976158142,
              "z": 1.8399959802627563
            },
            "alongGround": true,
            "useRotation": true
          },
          "gadgetID": 42909017
        }
      ]
    }
  },
  {
    "Default": {
      "$type": "ConfigAbility",
      "abilityName": "Monster_Ptahur_Phantom_CastJellyFishAttack_02",
      "onAbilityStart": [
        {
          "$type": "CreateGadget",
          "born": {
            "$type": "ConfigBornBySelf",
            "offset": {
              "x": 11.5,
              "y": 1.149999976158142,
              "z": 1.8399959802627563
            },
            "alongGround": true,
            "useRotation": true
          },
          "gadgetID": 42909017
        }
      ]
    }
  },
  {
    "Default": {
      "$type": "ConfigAbility",
      "abilityName": "Monster_Ptahur_Phantom_CastJellyFishAttack_03",
      "onAbilityStart": [
        {
          "$type": "CreateGadget",
          "born": {
            "$type": "ConfigBornBySelf",
            "offset": {
              "x": 11.5,
              "y": 1.149999976158142,
              "z": 20.83799934387207
            },
            "alongGround": true,
            "useRotation": true
          },
          "gadgetID": 42909017
        }
      ]
    }
  },
  {
    "Default": {
      "$type": "ConfigAbility",
      "abilityName": "Monster_Ptahur_Phantom_CastJellyFishAttack_04",
      "onAbilityStart": [
        {
          "$type": "CreateGadget",
          "born": {
            "$type": "ConfigBornBySelf",
            "offset": {
              "x": -11.5,
              "y": 1.149999976158142,
              "z": 20.83799934387207
            },
            "alongGround": true,
            "useRotation": true
          },
          "gadgetID": 42909017
        }
      ]
    }
  },
  {
    "Default": {
      "$type": "ConfigAbility",
      "abilityName": "Ptahur_Underlings_KillSelf",
      "onAbilityStart": [
        {
          "$type": "KillSelf"
        }
      ]
    }
  },
  {
    "Default": {
      "$type": "ConfigAbility",
      "abilityName": "Ptahur_Underlings_DrakeAttack_Vertex",
      "modifiers": {
        "BS": {
          "modifierName": "",
          "duration": 0.800000011920929,
          "elementDurability": 100.0,
          "onAdded": [
            {
              "$type": "AttachEffect",
              "rotationDampTime": "Eff_Monster_Ptahur_Phantom_VertexAttack_Vertex_Alert",
              "PPPDJGDDOGD": 1.0,
              "AJDILHJFNKE": -1.0
            }
          ],
          "onRemoved": [
            {
              "$type": "ApplyModifier",
              "modifierName": "Loop"
            }
          ]
        },
        "Loop": {
          "modifierName": "",
          "duration": 0.4000000059604645,
          "elementDurability": 100.0,
          "onAdded": [
            {
              "$type": "AttachEffect",
              "rotationDampTime": "Eff_Monster_Ptahur_Phantom_VertexAttack_Vertex_BS",
              "PPPDJGDDOGD": 1.0,
              "AJDILHJFNKE": -1.0
            }
          ],
          "onRemoved": [
            {
              "$type": "CreateGadget",
              "ownerIs": "Owner",
              "born": {
                "$type": "ConfigBornBySelf",
                "alongGround": true,
                "useRotation": true
              },
              "gadgetID": 42909012
            },
            {
              "$type": "FireEffect",
              "rotationDampTime": "Eff_Monster_Ptahur_Phantom_VertexAttack_Vertex_AS",
              "PPPDJGDDOGD": 1.0,
              "AJDILHJFNKE": -1.0
            }
          ]
        }
      },
      "onAdded": [
        {
          "$type": "ApplyModifier",
          "modifierName": "BS"
        }
      ]
    }
  },
  {
    "Default": {
      "$type": "ConfigAbility",
      "abilityName": "Ptahur_Phantom_PantherAttack_Vertex",
      "modifiers": {
        "BS": {
          "modifierName": "",
          "duration": 0.800000011920929,
          "elementDurability": 100.0,
          "onAdded": [
            {
              "$type": "AttachEffect",
              "rotationDampTime": "Eff_Monster_Ptahur_Phantom_VertexAttack_Vertex_Alert",
              "PPPDJGDDOGD": 1.0,
              "AJDILHJFNKE": -1.0
            }
          ],
          "onRemoved": [
            {
              "$type": "ApplyModifier",
              "modifierName": "Loop"
            }
          ]
        },
        "Loop": {
          "modifierName": "",
          "duration": 0.4000000059604645,
          "elementDurability": 100.0,
          "onAdded": [
            {
              "$type": "AttachEffect",
              "rotationDampTime": "Eff_Monster_Ptahur_Phantom_VertexAttack_Vertex_BS",
              "PPPDJGDDOGD": 1.0,
              "AJDILHJFNKE": -1.0
            }
          ],
          "onRemoved": [
            {
              "$type": "CreateGadget",
              "ownerIs": "Owner",
              "born": {
                "$type": "ConfigBornBySelf",
                "alongGround": true,
                "useRotation": true
              },
              "gadgetID": 42909014
            },
            {
              "$type": "FireEffect",
              "rotationDampTime": "Eff_Monster_Ptahur_Phantom_VertexAttack_Vertex_AS",
              "PPPDJGDDOGD": 1.0,
              "AJDILHJFNKE": -1.0
            }
          ]
        }
      },
      "onAdded": [
        {
          "$type": "ApplyModifier",
          "modifierName": "BS"
        }
      ]
    }
  },
  {
    "Default": {
      "$type": "ConfigAbility",
      "abilityName": "Ptahur_Phantom_JellyFishAttack_Vertex",
      "modifiers": {
        "BS": {
          "modifierName": "",
          "duration": 0.800000011920929,
          "elementDurability": 100.0,
          "onAdded": [
            {
              "$type": "AttachEffect",
              "rotationDampTime": "Eff_Monster_Ptahur_Phantom_VertexAttack_Vertex_Alert",
              "PPPDJGDDOGD": 1.0,
              "AJDILHJFNKE": -1.0
            }
          ],
          "onRemoved": [
            {
              "$type": "ApplyModifier",
              "modifierName": "Loop"
            }
          ]
        },
        "Loop": {
          "modifierName": "",
          "duration": 0.4000000059604645,
          "elementDurability": 100.0,
          "onAdded": [
            {
              "$type": "AttachEffect",
              "rotationDampTime": "Eff_Monster_Ptahur_Phantom_VertexAttack_Vertex_BS",
              "PPPDJGDDOGD": 1.0,
              "AJDILHJFNKE": -1.0
            }
          ],
          "onRemoved": [
            {
              "$type": "CreateGadget",
              "ownerIs": "Owner",
              "born": {
                "$type": "ConfigBornBySelf",
                "alongGround": true,
                "useRotation": true
              },
              "gadgetID": 42909016
            },
            {
              "$type": "FireEffect",
              "rotationDampTime": "Eff_Monster_Ptahur_Phantom_VertexAttack_Vertex_AS",
              "PPPDJGDDOGD": 1.0,
              "AJDILHJFNKE": -1.0
            }
          ]
        }
      },
      "onAdded": [
        {
          "$type": "ApplyModifier",
          "modifierName": "BS"
        }
      ]
    }
  },
  {
    "Default": {
      "$type": "ConfigAbility",
      "abilityName": "Ptahur_Underlings_DrakeAttack",
      "modifiers": {
        "AttackDuration": {
          "modifierName": "",
          "duration": 2.5999999046325684,
          "elementDurability": 100.0,
          "onRemoved": [
            {
              "$type": "FireEffect",
              "rotationDampTime": "Eff_Monster_Ptahur_Phantom_VertexAttack_Drake_MuiltiBullet_AttackEnd",
              "PPPDJGDDOGD": 1.0,
              "AJDILHJFNKE": -1.0
            },
            {
              "$type": "KillSelf"
            }
          ]
        }
      },
      "onAdded": [
        {
          "$type": "SetSelfAttackTarget",
          "otherTargets": {
            "$type": "SelectTargetsByShape",
            "topLimit": 1,
            "sortType": "Nearest",
            "shapeName": "CircleR50",
            "campTargetType": "AllExceptSelf",
            "doOffStage": 1.0
          },
          "predicates": [
            {
              "$type": "ByEntityTypes",
              "entityTypes": ["Avatar"]
            }
          ],
          "turnToTargetImmediately": true
        }
      ],
      "onAbilityStart": [
        {
          "$type": "SetGlobalPos",
          "otherTargets": {
            "$type": "SelectTargetsByShape",
            "topLimit": 1,
            "sortType": "Nearest",
            "shapeName": "CircleR50",
            "campTargetType": "AllExceptSelf",
            "doOffStage": 1.0
          },
          "predicates": [
            {
              "$type": "ByEntityTypes",
              "entityTypes": ["Avatar"]
            }
          ],
          "key": "_PTAHUR_PHANTOM_VERTEXATTACK_DRAKE_BLINKPOS_",
          "born": {
            "$type": "MPCGPEHJNNH",
            "bornRandom": {
              "$type": "BornRandomFromCenter",
              "minRandomRange": 0.0,
              "maxRandomRange": 1.0
            },
            "onGround": true,
            "onGroundRaycastUpDist": 0.800000011920929
          },
          "setTarget": false
        },
        {
          "$type": "FireEffect",
          "rotationDampTime": "Eff_Monster_Ptahur_Drake_QuakeAttack_Alert_Ground",
          "born": {
            "$type": "ConfigBornByGlobalValue",
            "onGround": true,
            "alongGround": true,
            "positionKey": "_PTAHUR_PHANTOM_VERTEXATTACK_DRAKE_BLINKPOS_",
            "directionKey": ""
          },
          "PPPDJGDDOGD": 1.0,
          "AJDILHJFNKE": -1.0
        },
        {
          "$type": "HJCPHKDNBOC",
          "toPos": {
            "$type": "ConfigBornByGlobalValue",
            "onGround": true,
            "positionKey": "_PTAHUR_PHANTOM_VERTEXATTACK_DRAKE_BLINKPOS_",
            "directionKey": ""
          },
          "maxRange": 40.0,
          "timeRange": 0.8199999928474426
        }
      ]
    }
  },
  {
    "Default": {
      "$type": "ConfigAbility",
      "abilityName": "Ptahur_Underlings_DrakeAttack_JumpAttack",
      "onAbilityStart": [
        {
          "$type": "TriggerAttackEvent",
          "attackEvent": {
            "attackPattern": {
              "$type": "ConfigAttackCircle",
              "triggerType": "TriggerNoRepeat",
              "born": {
                "$type": "ConfigBornBySelf",
                "offset": {
                  "x": 0.0,
                  "y": 0.0,
                  "z": 0.0
                },
                "onGround": true,
                "useRotation": true
              },
              "height": 3.0,
              "radius": 4.0
            },
            "attackInfo": {
              "attackTag": "Monster_Ptahur_DrakeAttack",
              "attenuationTag": "",
              "attenuationGroup": "default",
              "attackProperty": {
                "actorGrassSubHurtDelta": 1.0,
                "actorWindSubHurtDelta": 0.0,
                "elementType": "Fire",
                "elementDurability": 10.0,
                "strikeType": "Blunt",
                "enBreak": 50.0,
                "GLKMCMDJBIK": 0.0
              },
              "hitPattern": {
                "onHitEffectName": "default",
                "hitImpulseY": "",
                "hitImpulseType": "LV4"
              },
              "cameraShake": {
                "shakeType": "CustomVector",
                "shakeRange": 0.11999999731779099,
                "shakeTime": 0.23999999463558197,
                "shakeDir": {
                  "y": -1.0
                }
              }
            }
          },
          "targetType": "Enemy"
        }
      ]
    }
  },
  {
    "Default": {
      "$type": "ConfigAbility",
      "abilityName": "Ptahur_Phantom_PantherAttack",
      "abilityMixins": [
        {
          "$type": "AttachToAnimatorStateIDMixin",
          "stateIDs": ["Sacred_Attack04_Loop"],
          "modifierName": "LoopEffect",
          "DGFCLAIDIFI": ""
        }
      ],
      "modifiers": {
        "LoopEffect": {
          "modifierName": "",
          "elementDurability": 100.0,
          "onAdded": [
            {
              "$type": "AttachEffect",
              "rotationDampTime": "Eff_Monster_Ptahur_Panther_ChargeAttack_Loop",
              "PPPDJGDDOGD": 1.0,
              "AJDILHJFNKE": -1.0
            }
          ]
        }
      },
      "onAdded": [
        {
          "$type": "SetSelfAttackTarget",
          "otherTargets": {
            "$type": "SelectTargetsByShape",
            "topLimit": 1,
            "sortType": "Nearest",
            "shapeName": "CircleR50",
            "campTargetType": "AllExceptSelf",
            "doOffStage": 1.0
          },
          "predicates": [
            {
              "$type": "ByEntityTypes",
              "entityTypes": ["Avatar"]
            }
          ],
          "turnToTargetImmediately": true
        }
      ],
      "onAbilityStart": [
        {
          "$type": "KillSelf"
        }
      ]
    }
  },
  {
    "Default": {
      "$type": "ConfigAbility",
      "abilityName": "Ptahur_Underlings_PantherAttack_ChargeAttack01",
      "onAbilityStart": [
        {
          "$type": "TriggerAttackEvent",
          "attackEvent": {
            "attackPattern": {
              "$type": "ConfigAttackBox",
              "triggerType": "TriggerNoRepeat",
              "born": {
                "$type": "ConfigBornBySelf",
                "offset": {
                  "x": 0.0,
                  "y": 0.0,
                  "z": 0.0
                },
                "useRotation": true
              },
              "size": {
                "x": 2.0,
                "y": 2.0,
                "z": 2.0
              }
            },
            "attackInfo": {
              "attackTag": "Monster_Ptahur_Panther_Attack",
              "attenuationTag": "Monster_Ptahur_Panther_Attack",
              "attenuationGroup": "Monster_Ptahur_Panther_Attack",
              "attenuationRedirect": "None",
              "attackProperty": {
                "actorGrassSubHurtDelta": 0.5,
                "actorWindSubHurtDelta": 0.0,
                "elementType": "Electric",
                "elementDurability": 10.0,
                "strikeType": "Blunt",
                "enBreak": 50.0,
                "GLKMCMDJBIK": 0.0
              },
              "hitPattern": {
                "onHitEffectName": "default",
                "hitImpulseY": "",
                "hitImpulseType": "LV4"
              },
              "cameraShake": {
                "shakeType": "CustomVector",
                "shakeRange": 0.11999999731779099,
                "shakeTime": 0.23999999463558197,
                "shakeDir": {
                  "y": -1.0
                }
              }
            }
          },
          "targetType": "Enemy"
        }
      ]
    }
  },
  {
    "Default": {
      "$type": "ConfigAbility",
      "abilityName": "Ptahur_Underlings_PantherAttack_ChargeAttack02",
      "onAbilityStart": [
        {
          "$type": "TriggerAttackEvent",
          "attackEvent": {
            "attackPattern": {
              "$type": "ConfigAttackBox",
              "triggerType": "TriggerNoRepeat",
              "born": {
                "$type": "ConfigBornBySelf",
                "offset": {
                  "x": 0.0,
                  "y": 0.0,
                  "z": 0.0
                },
                "useRotation": true
              },
              "size": {
                "x": 2.0,
                "y": 2.0,
                "z": 2.0
              }
            },
            "attackInfo": {
              "attackTag": "Monster_Ptahur_Panther_Attack",
              "attenuationTag": "Monster_Ptahur_Panther_Attack",
              "attenuationGroup": "Monster_Ptahur_Panther_Attack",
              "attenuationRedirect": "None",
              "attackProperty": {
                "actorGrassSubHurtDelta": 0.5,
                "actorWindSubHurtDelta": 0.0,
                "elementType": "Electric",
                "elementDurability": 10.0,
                "strikeType": "Blunt",
                "enBreak": 50.0,
                "GLKMCMDJBIK": 0.0
              },
              "hitPattern": {
                "onHitEffectName": "default",
                "hitImpulseY": "",
                "hitImpulseType": "LV4"
              },
              "cameraShake": {
                "shakeType": "CustomVector",
                "shakeRange": 0.11999999731779099,
                "shakeTime": 0.23999999463558197,
                "shakeDir": {
                  "y": -1.0
                }
              }
            }
          },
          "targetType": "Enemy"
        }
      ]
    }
  },
  {
    "Default": {
      "$type": "ConfigAbility",
      "abilityName": "Ptahur_Phantom_JellyFishAttack",
      "modifiers": {
        "AttackDuration": {
          "modifierName": "",
          "duration": 2.5999999046325684,
          "elementDurability": 100.0,
          "onRemoved": [
            {
              "$type": "FireEffect",
              "rotationDampTime": "Eff_Monster_Ptahur_Phantom_VertexAttack_JellyFish_MuiltiBullet_AttackEnd",
              "PPPDJGDDOGD": 1.0,
              "AJDILHJFNKE": -1.0
            },
            {
              "$type": "KillSelf"
            }
          ]
        }
      },
      "onAdded": [
        {
          "$type": "SetSelfAttackTarget",
          "otherTargets": {
            "$type": "SelectTargetsByShape",
            "topLimit": 1,
            "sortType": "Nearest",
            "shapeName": "CircleR50",
            "campTargetType": "AllExceptSelf",
            "doOffStage": 1.0
          },
          "predicates": [
            {
              "$type": "ByEntityTypes",
              "entityTypes": ["Avatar"]
            }
          ],
          "turnToTargetImmediately": true
        }
      ],
      "onAbilityStart": [
        {
          "$type": "SetSelfAttackTarget",
          "otherTargets": {
            "$type": "SelectTargetsByShape",
            "topLimit": 1,
            "sortType": "Nearest",
            "shapeName": "CircleR50",
            "campTargetType": "AllExceptSelf",
            "doOffStage": 1.0
          },
          "predicates": [
            {
              "$type": "ByEntityTypes",
              "entityTypes": ["Avatar"]
            }
          ]
        },
        {
          "$type": "TriggerBullet",
          "bulletID": 42909003,
          "born": {
            "$type": "ConfigBornByAttachPoint",
            "offset": {
              "x": 0.0,
              "y": 0.0,
              "z": 0.0
            },
            "direction": {
              "$type": "ConfigDirectionByAttackTarget",
              "maxAngle": 60.0,
              "startPoint": ""
            },
            "useRotation": true,
            "attachPointName": "BulletNode"
          }
        }
      ]
    }
  },
  {
    "Default": {
      "$type": "ConfigAbility",
      "abilityName": "Monster_Ptahur_Phantom_Achievement",
      "abilityMixins": [
        {
          "$type": "JCLLHEBBFON",
          "watcherId": 82195,
          "predicates": [
            {
              "$type": "ByTargetGlobalValue",
              "target": "Self",
              "key": "_WATCHER_82195_FAILED",
              "value": 0.0,
              "compareType": "NoneOrEqual"
            }
          ]
        }
      ],
      "modifiers": {
        "Underlings_Hit_Monitor": {
          "modifierName": "",
          "elementDurability": 100.0,
          "onAttackLanded": [
            {
              "$type": "Predicated",
              "target": "Target",
              "targetPredicates": [
                {
                  "$type": "ByAttackTags",
                  "attackTags": [
                    "Monster_Ptahur_DrakeAttack",
                    "Monster_Ptahur_Panther_Attack",
                    "Monster_Ptahur_JellyFish_Attack"
                  ]
                },
                {
                  "$type": "ByEntityTypes",
                  "entityTypes": ["Avatar"]
                }
              ],
              "successActions": [
                {
                  "$type": "SetGlobalValue",
                  "value": 1.0,
                  "key": "_WATCHER_82195_FAILED",
                  "maxValue": 0.0,
                  "minValue": 0.0
                }
              ]
            }
          ]
        }
      },
      "onAdded": [
        {
          "$type": "SetGlobalValue",
          "value": 0.0,
          "key": "_WATCHER_82195_FAILED",
          "maxValue": 0.0,
          "minValue": 0.0
        },
        {
          "$type": "ApplyModifier",
          "modifierName": "Underlings_Hit_Monitor"
        }
      ]
    }
  }
]
