[
  {
    "Default": {
      "$type": "ConfigAbility",
      "abilityName": "Monster_MachinaIustitia_Frigate_Pose",
      "abilityMixins": [
        {
          "$type": "AttachModifierToSelfGlobalValueMixin",
          "globalValueKey": "_MACHINAIUSTITIA_STATIC_STATE_",
          "gvInTalk": 0.0,
          "valueSteps": [-1.5, -0.5, 0.5, 1.5],
          "modifierNameSteps": [
            "Pose_Init_Pneuma",
            "Pose_Init_Normal",
            "Pose_Init_Ousia"
          ]
        },
        {
          "$type": "AttachModifierToSelfGlobalValueMixin",
          "globalValueKey": "arkheGradeKey",
          "gvInTalk": 0.0,
          "valueSteps": [-2.5, -1.5, -0.5, 0.5, 1.5, 2.5],
          "modifierNameSteps": [
            "Pose_Pneuma_2",
            "Pose_Pneuma_1",
            "Pose_Normal",
            "Pose_Ousia_1",
            "Pose_Ousia_2"
          ]
        },
        {
          "$type": "CADNOOEAFHD",
          "actionQueue": [
            {
              "$type": "SetAnimatorTrigger",
              "predicates": [
                {
                  "$type": "ByEntityIsAlive",
                  "target": "Self"
                },
                {
                  "$type": "ByTargetGlobalValue",
                  "key": "arkheGradeKey",
                  "value": 0.0
                }
              ],
              "triggerID": "HitSpecialTrigger"
            }
          ]
        }
      ],
      "modifiers": {
        "Pose_Init_Pneuma": {
          "modifierName": "",
          "elementDurability": 100.0,
          "onAdded": [
            {
              "$type": "PILJLANJHMK",
              "value": -2.0,
              "key": "arkheGradeKey",
              "maxValue": 0.0,
              "minValue": 0.0
            }
          ]
        },
        "Pose_Init_Normal": {
          "modifierName": "",
          "elementDurability": 100.0,
          "onAdded": [
            {
              "$type": "PILJLANJHMK",
              "value": 0.0,
              "key": "arkheGradeKey",
              "maxValue": 0.0,
              "minValue": 0.0
            }
          ]
        },
        "Pose_Init_Ousia": {
          "modifierName": "",
          "elementDurability": 100.0,
          "onAdded": [
            {
              "$type": "PILJLANJHMK",
              "value": 2.0,
              "key": "arkheGradeKey",
              "maxValue": 0.0,
              "minValue": 0.0
            },
            {
              "$type": "AttachModifier",
              "modifierName": "Frigate_Ousia_EventPatternHandler"
            }
          ]
        },
        "Pose_Pneuma_2": {
          "modifierName": "",
          "elementDurability": 100.0,
          "onAdded": [
            {
              "$type": "GFFKENEJFFB",
              "intID": "StateTag",
              "value": -1
            },
            {
              "$type": "SetAnimatorInt",
              "intID": "EnergyTag1",
              "value": -2.0
            },
            {
              "$type": "ResetAnimatorTrigger",
              "triggerID": "HitSpecialTrigger"
            },
            {
              "$type": "RemoveModifier",
              "modifierName": "Frigate_SelfRepair_Delay"
            }
          ]
        },
        "Pose_Pneuma_1": {
          "modifierName": "",
          "elementDurability": 100.0,
          "onAdded": [
            {
              "$type": "GFFKENEJFFB",
              "intID": "StateTag",
              "value": -1
            },
            {
              "$type": "SetAnimatorInt",
              "intID": "EnergyTag1",
              "value": -1.0
            },
            {
              "$type": "ResetAnimatorTrigger",
              "triggerID": "HitSpecialTrigger"
            },
            {
              "$type": "RemoveModifier",
              "modifierName": "Frigate_SelfRepair_Delay"
            }
          ]
        },
        "Pose_Normal": {
          "modifierName": "",
          "elementDurability": 100.0,
          "onAdded": [
            {
              "$type": "GFFKENEJFFB",
              "intID": "StateTag"
            },
            {
              "$type": "SetAnimatorInt",
              "intID": "EnergyTag1",
              "value": 0.0
            },
            {
              "$type": "AttachModifier",
              "modifierName": "Frigate_SelfRepair_Delay"
            }
          ]
        },
        "Pose_Ousia_2": {
          "modifierName": "",
          "elementDurability": 100.0,
          "onAdded": [
            {
              "$type": "GFFKENEJFFB",
              "intID": "StateTag",
              "value": 1
            },
            {
              "$type": "SetAnimatorInt",
              "intID": "EnergyTag1",
              "value": 2.0
            },
            {
              "$type": "ResetAnimatorTrigger",
              "triggerID": "HitSpecialTrigger"
            },
            {
              "$type": "RemoveModifier",
              "modifierName": "Frigate_SelfRepair_Delay"
            }
          ]
        },
        "Pose_Ousia_1": {
          "modifierName": "",
          "elementDurability": 100.0,
          "onAdded": [
            {
              "$type": "GFFKENEJFFB",
              "intID": "StateTag",
              "value": 1
            },
            {
              "$type": "SetAnimatorInt",
              "intID": "EnergyTag1",
              "value": 1.0
            },
            {
              "$type": "ResetAnimatorTrigger",
              "triggerID": "HitSpecialTrigger"
            },
            {
              "$type": "RemoveModifier",
              "modifierName": "Frigate_SelfRepair_Delay"
            }
          ]
        },
        "Frigate_Ousia_EventPatternHandler": {
          "modifierName": "",
          "elementDurability": 100.0,
          "modifierMixins": [
            {
              "$type": "ReplaceEventPatternMixin",
              "oldPatterns": ["Monster_MachinaIustitia_Frigate_Recover_Pneuma"],
              "newPatterns": ["Monster_MachinaIustitia_Frigate_Recover_Ousia"]
            }
          ]
        },
        "Frigate_SelfRepair_Delay": {
          "modifierName": "",
          "duration": 50.0,
          "elementDurability": 100.0,
          "onRemoved": [
            {
              "$type": "SetGlobalValue",
              "predicates": [
                {
                  "$type": "ByNot",
                  "predicates": [
                    {
                      "$type": "ByAnimatorFloat",
                      "logic": "Equal",
                      "value": 901.0,
                      "parameter": "PoseID"
                    },
                    {
                      "$type": "ByAnimatorFloat",
                      "logic": "Equal",
                      "value": 902.0,
                      "parameter": "PoseID"
                    },
                    {
                      "$type": "ByAnimatorFloat",
                      "logic": "Equal",
                      "value": 903.0,
                      "parameter": "PoseID"
                    },
                    {
                      "$type": "ByAnimatorFloat",
                      "logic": "Equal",
                      "value": 1.0,
                      "parameter": "PoseID"
                    },
                    {
                      "$type": "ByAnimatorFloat",
                      "logic": "Equal",
                      "value": 11.0,
                      "parameter": "PoseID"
                    },
                    {
                      "$type": "ByAnimatorFloat",
                      "logic": "Equal",
                      "value": 21.0,
                      "parameter": "PoseID"
                    }
                  ]
                }
              ],
              "value": 1.0,
              "key": "_MACHINAIUSTITIA_SELFRECOVER_",
              "maxValue": 0.0,
              "minValue": 0.0
            }
          ]
        }
      },
      "onAdded": [
        {
          "$type": "SetGlobalValue",
          "value": 0.0,
          "key": "_MACHINAIUSTITIA_SELFRECOVER_",
          "maxValue": 0.0,
          "minValue": 0.0
        }
      ]
    }
  },
  {
    "Default": {
      "$type": "ConfigAbility",
      "abilityName": "Monster_MachinaIustitia_Frigate_Recover_Pneuma",
      "onAbilityStart": [
        {
          "$type": "SetGlobalValue",
          "value": 0.0,
          "key": "_MACHINAIUSTITIA_SELFRECOVER_",
          "maxValue": 0.0,
          "minValue": 0.0
        },
        {
          "$type": "SetGlobalValue",
          "value": -2.0,
          "key": "arkheGradeKey",
          "maxValue": 0.0,
          "minValue": 0.0
        }
      ]
    }
  },
  {
    "Default": {
      "$type": "ConfigAbility",
      "abilityName": "Monster_MachinaIustitia_Frigate_Recover_Effect_Extra",
      "onAbilityStart": [
        {
          "$type": "FireEffect",
          "predicates": [
            {
              "$type": "ByTargetGlobalValue",
              "key": "_MACHINAIUSTITIA_STATIC_STATE_",
              "value": -1.0,
              "compareType": "LessAndEqual"
            }
          ],
          "rotationDampTime": "Eff_Monster_MachinaIustitia_Recover_Pneuma",
          "PPPDJGDDOGD": 1.0,
          "AJDILHJFNKE": -1.0
        },
        {
          "$type": "FireEffect",
          "predicates": [
            {
              "$type": "ByTargetGlobalValue",
              "key": "_MACHINAIUSTITIA_STATIC_STATE_",
              "value": 1.0,
              "compareType": "MoreThanAndEqual"
            }
          ],
          "rotationDampTime": "Eff_Monster_MachinaIustitia_Recover_Ousia",
          "PPPDJGDDOGD": 1.0,
          "AJDILHJFNKE": -1.0
        }
      ]
    }
  },
  {
    "Default": {
      "$type": "ConfigAbility",
      "abilityName": "Monster_MachinaIustitia_Frigate_Recover_Ousia",
      "onAbilityStart": [
        {
          "$type": "SetGlobalValue",
          "value": 0.0,
          "key": "_MACHINAIUSTITIA_SELFRECOVER_",
          "maxValue": 0.0,
          "minValue": 0.0
        },
        {
          "$type": "SetGlobalValue",
          "value": 2.0,
          "key": "arkheGradeKey",
          "maxValue": 0.0,
          "minValue": 0.0
        }
      ]
    }
  },
  {
    "Default": {
      "$type": "ConfigAbility",
      "abilityName": "Monster_MachinaIustitia_Frigate_ResetState",
      "abilityMixins": [
        {
          "$type": "LEOGLBFIELL",
          "poseIDs": [901, 902, 903],
          "modifierName": "MachinaIustitia_Frigate_ReturnToBorn"
        }
      ],
      "modifiers": {
        "MachinaIustitia_Frigate_ReturnToBorn": {
          "modifierName": "",
          "elementDurability": 100.0,
          "onRemoved": [
            {
              "$type": "PILJLANJHMK",
              "predicates": [
                {
                  "$type": "ByTargetGlobalValue",
                  "key": "_MACHINAIUSTITIA_STATIC_STATE_",
                  "value": 0.0
                }
              ],
              "value": 0.0,
              "key": "arkheGradeKey",
              "maxValue": 0.0,
              "minValue": 0.0
            },
            {
              "$type": "PILJLANJHMK",
              "predicates": [
                {
                  "$type": "ByTargetGlobalValue",
                  "key": "_MACHINAIUSTITIA_STATIC_STATE_",
                  "value": -1.0,
                  "compareType": "LessAndEqual"
                }
              ],
              "value": -2.0,
              "key": "arkheGradeKey",
              "maxValue": 0.0,
              "minValue": 0.0
            },
            {
              "$type": "PILJLANJHMK",
              "predicates": [
                {
                  "$type": "ByTargetGlobalValue",
                  "key": "_MACHINAIUSTITIA_STATIC_STATE_",
                  "value": 1.0,
                  "compareType": "MoreThanAndEqual"
                }
              ],
              "value": 2.0,
              "key": "arkheGradeKey",
              "maxValue": 0.0,
              "minValue": 0.0
            }
          ]
        }
      }
    }
  },
  {
    "Default": {
      "$type": "ConfigAbility",
      "abilityName": "Monster_MachinaIustitia_Frigate_CoilEffect",
      "abilityMixins": [
        {
          "$type": "AttachModifierToSelfGlobalValueMixin",
          "globalValueKey": "_MACHINAIUSTITIA_COIL_STATE_",
          "gvInTalk": 0.0,
          "valueSteps": [-0.5, 0.5, 1.5],
          "modifierNameSteps": [
            "MachinaIustitia_Frigate_CoilEffect01_Handler",
            "MachinaIustitia_Frigate_CoilEffect02_Handler"
          ]
        }
      ],
      "modifiers": {
        "MachinaIustitia_Frigate_CoilEffect01_Handler": {
          "modifierName": "",
          "elementDurability": 100.0,
          "modifierMixins": [
            {
              "$type": "AttachModifierToSelfGlobalValueMixin",
              "globalValueKey": "arkheGradeKey",
              "gvInTalk": 0.0,
              "valueSteps": [-2.5, -0.5, 0.5, 2.5],
              "modifierNameSteps": [
                "MachinaIustitia_Frigate_CoilEffect01_Pneuma",
                "Blank",
                "MachinaIustitia_Frigate_CoilEffect01_Ousia"
              ]
            }
          ]
        },
        "MachinaIustitia_Frigate_CoilEffect02_Handler": {
          "modifierName": "",
          "elementDurability": 100.0,
          "modifierMixins": [
            {
              "$type": "AttachModifierToSelfGlobalValueMixin",
              "globalValueKey": "arkheGradeKey",
              "gvInTalk": 0.0,
              "valueSteps": [-2.5, -0.5, 0.5, 2.5],
              "modifierNameSteps": [
                "MachinaIustitia_Frigate_CoilEffect02_Pneuma",
                "Blank",
                "MachinaIustitia_Frigate_CoilEffect02_Ousia"
              ]
            }
          ]
        },
        "MachinaIustitia_Frigate_CoilEffect01_Pneuma": {
          "modifierName": "",
          "elementDurability": 100.0,
          "onAdded": [
            {
              "$type": "AttachEffect",
              "rotationDampTime": "Eff_Monster_MachinaIustitia_Recon_Coil01_Pneuma",
              "born": {
                "$type": "ConfigBornByAttachPoint",
                "offset": {
                  "x": 0.0,
                  "y": 0.0,
                  "z": 0.0
                },
                "useRotation": true,
                "attachPointName": "CoilAttachPoint01"
              },
              "PPPDJGDDOGD": 3.0,
              "AJDILHJFNKE": -1.0
            }
          ]
        },
        "MachinaIustitia_Frigate_CoilEffect01_Ousia": {
          "modifierName": "",
          "elementDurability": 100.0,
          "onAdded": [
            {
              "$type": "AttachEffect",
              "rotationDampTime": "Eff_Monster_MachinaIustitia_Recon_Coil01_Ousia",
              "born": {
                "$type": "ConfigBornByAttachPoint",
                "offset": {
                  "x": 0.0,
                  "y": 0.0,
                  "z": 0.0
                },
                "useRotation": true,
                "attachPointName": "CoilAttachPoint01"
              },
              "PPPDJGDDOGD": 3.0,
              "AJDILHJFNKE": -1.0
            }
          ]
        },
        "MachinaIustitia_Frigate_CoilEffect02_Pneuma": {
          "modifierName": "",
          "elementDurability": 100.0,
          "onAdded": [
            {
              "$type": "AttachEffect",
              "rotationDampTime": "Eff_Monster_MachinaIustitia_Recon_Coil02_Pneuma",
              "born": {
                "$type": "ConfigBornByAttachPoint",
                "offset": {
                  "x": 0.0,
                  "y": 0.0,
                  "z": 0.0
                },
                "useRotation": true,
                "attachPointName": "CoilAttachPoint02"
              },
              "PPPDJGDDOGD": 3.0,
              "AJDILHJFNKE": -1.0
            }
          ]
        },
        "MachinaIustitia_Frigate_CoilEffect02_Ousia": {
          "modifierName": "",
          "elementDurability": 100.0,
          "onAdded": [
            {
              "$type": "AttachEffect",
              "rotationDampTime": "Eff_Monster_MachinaIustitia_Recon_Coil02_Ousia",
              "born": {
                "$type": "ConfigBornByAttachPoint",
                "offset": {
                  "x": 0.0,
                  "y": 0.0,
                  "z": 0.0
                },
                "useRotation": true,
                "attachPointName": "CoilAttachPoint02"
              },
              "PPPDJGDDOGD": 3.0,
              "AJDILHJFNKE": -1.0
            }
          ]
        },
        "Blank": {
          "modifierName": "",
          "elementDurability": 100.0
        }
      },
      "onKill": [
        {
          "$type": "RemoveModifier",
          "modifierName": "MachinaIustitia_Frigate_CoilEffect01_Pneuma"
        },
        {
          "$type": "RemoveModifier",
          "modifierName": "MachinaIustitia_Frigate_CoilEffect01_Ousia"
        },
        {
          "$type": "RemoveModifier",
          "modifierName": "MachinaIustitia_Frigate_CoilEffect02_Pneuma"
        },
        {
          "$type": "RemoveModifier",
          "modifierName": "MachinaIustitia_Frigate_CoilEffect02_Ousia"
        }
      ]
    }
  },
  {
    "Default": {
      "$type": "ConfigAbility",
      "abilityName": "Monster_MachinaIustitia_Frigate_Steer",
      "abilityMixins": [
        {
          "$type": "IILHMBGONGM",
          "steerStateIDs": ["Alert", "Recover"],
          "startNormalizedTime": 0.20000000298023224,
          "endNormalizedTime": 0.30000001192092896,
          "angularSpeed": 30.0,
          "attackTrigger": "",
          "DGFCLAIDIFI": ""
        },
        {
          "$type": "IILHMBGONGM",
          "steerStateIDs": ["Alert", "Recover"],
          "startNormalizedTime": 0.30000001192092896,
          "endNormalizedTime": 0.800000011920929,
          "angularSpeed": 50.0,
          "attackTrigger": "",
          "DGFCLAIDIFI": ""
        },
        {
          "$type": "MFGGKNJLABP",
          "PNAPPKMKAJP": ["Attack_01"],
          "endNormalizedTime": 0.46000000834465027,
          "GINJMMLNHIA": 25.0,
          "HIFACMDKHHK": -25.0,
          "angularSpeed": 60.0,
          "attackTrigger": ""
        },
        {
          "$type": "MFGGKNJLABP",
          "PNAPPKMKAJP": ["Attack_02"],
          "endNormalizedTime": 0.75,
          "GINJMMLNHIA": 10.0,
          "HIFACMDKHHK": 10.0,
          "angularSpeed": 60.0,
          "attackTrigger": ""
        }
      ]
    }
  },
  {
    "Default": {
      "$type": "ConfigAbility",
      "abilityName": "Monster_MachinaIustitia_Frigate_Attack01",
      "onAbilityStart": [
        {
          "$type": "TriggerBullet",
          "bulletID": 42406033,
          "born": {
            "$type": "ConfigBornByAttachPoint",
            "direction": {
              "$type": "ConfigDirectionByAttackTarget",
              "maxAngle": 20.0,
              "speedForPredictive": 22.0,
              "startPoint": ""
            },
            "useRotation": true,
            "attachPointName": "ArrowPoint"
          }
        }
      ]
    }
  },
  {
    "Default": {
      "$type": "ConfigAbility",
      "abilityName": "Monster_MachinaIustitia_Frigate_Attack02_1",
      "onAbilityStart": [
        {
          "$type": "TriggerBullet",
          "bulletID": 42406034,
          "born": {
            "$type": "ConfigBornBySelf",
            "offset": {
              "x": -0.9319999814033508,
              "y": -4.313000202178955,
              "z": -0.21199999749660492
            },
            "direction": {
              "$type": "ConfigDirectionByDefault",
              "angleOffset": {
                "x": 6.307000160217285,
                "y": -0.7129999995231628,
                "z": -5.78000020980835
              }
            },
            "useRotation": true
          }
        }
      ]
    }
  },
  {
    "Default": {
      "$type": "ConfigAbility",
      "abilityName": "Monster_MachinaIustitia_Frigate_Attack02_2",
      "onAbilityStart": [
        {
          "$type": "TriggerBullet",
          "bulletID": 42406034,
          "born": {
            "$type": "ConfigBornBySelf",
            "offset": {
              "x": 0.8069999814033508,
              "y": -4.435999870300293,
              "z": 0.3140000104904175
            },
            "direction": {
              "$type": "ConfigDirectionByDefault",
              "angleOffset": {
                "x": 2.3519999980926514,
                "y": -0.15600000321865082,
                "z": -7.377999782562256
              }
            },
            "useRotation": true
          }
        }
      ]
    }
  },
  {
    "Default": {
      "$type": "ConfigAbility",
      "abilityName": "Monster_MachinaIustitia_Frigate_Attack01_Bullet",
      "modifiers": {
        "FireEffectModifier": {
          "modifierName": "",
          "elementDurability": 100.0,
          "onAdded": [
            {
              "$type": "AttachEffect",
              "rotationDampTime": "Eff_Monster_MachinaIustitia_Frigate_Attack01_Bullet",
              "PPPDJGDDOGD": 1.0,
              "AJDILHJFNKE": -1.0
            },
            {
              "$type": "AttachEffect",
              "rotationDampTime": "Eff_Monster_MachinaIustitia_Frigate_Attack01_BulletTrail",
              "PPPDJGDDOGD": 1.0,
              "AJDILHJFNKE": -1.0
            }
          ]
        }
      },
      "onAdded": [
        {
          "$type": "AttachModifier",
          "modifierName": "FireEffectModifier"
        }
      ],
      "onAbilityStart": [
        {
          "$type": "RemoveModifier",
          "modifierName": "FireEffectModifier"
        },
        {
          "$type": "FireEffect",
          "rotationDampTime": "Eff_Monster_MachinaIustitia_Frigate_Attack01_Explode",
          "born": {
            "$type": "ConfigBornByCollisionPoint"
          },
          "PPPDJGDDOGD": 1.0,
          "AJDILHJFNKE": -1.0
        },
        {
          "$type": "TriggerAttackEvent",
          "attackEvent": {
            "attackPattern": {
              "$type": "ConfigAttackSphere",
              "triggerType": "TriggerNoRepeat",
              "born": {
                "$type": "ConfigBornByCollisionPoint"
              },
              "radius": 0.75
            },
            "attackInfo": {
              "attackTag": "",
              "attenuationTag": "",
              "attenuationGroup": "default",
              "attackProperty": {
                "actorGrassSubHurtDelta": 1.0,
                "actorWindSubHurtDelta": 0.0,
                "elementType": "Wind",
                "elementDurability": 25.0,
                "strikeType": "Pierce",
                "enBreak": 50.0,
                "GLKMCMDJBIK": 0.0
              },
              "hitPattern": {
                "onHitEffectName": "none",
                "hitImpulseY": "",
                "hitImpulseType": "LV2",
                "hitHaltTimeScale": 0.009999999776482582
              },
              "canBeModifiedBy": "OriginOwner"
            }
          },
          "targetType": "Enemy"
        },
        {
          "$type": "KillSelf"
        }
      ]
    }
  },
  {
    "Default": {
      "$type": "ConfigAbility",
      "abilityName": "Monster_MachinaIustitia_Frigate_Attack02_Bullet",
      "modifiers": {
        "ChaseBullet_Effect": {
          "modifierName": "",
          "elementDurability": 100.0,
          "onAdded": [
            {
              "$type": "AttachEffect",
              "rotationDampTime": "Eff_Monster_MachinaIustitia_Frigate_Attack02_Bullet",
              "PPPDJGDDOGD": 1.0,
              "AJDILHJFNKE": -1.0
            },
            {
              "$type": "AttachEffect",
              "rotationDampTime": "Eff_Monster_MachinaIustitia_Frigate_Attack02_BulletTrail",
              "PPPDJGDDOGD": 1.0,
              "AJDILHJFNKE": -1.0
            }
          ]
        }
      },
      "onAdded": [
        {
          "$type": "AttachModifier",
          "modifierName": "ChaseBullet_Effect"
        }
      ],
      "onAbilityStart": [
        {
          "$type": "RemoveModifier",
          "modifierName": "ChaseBullet_Effect"
        },
        {
          "$type": "FireEffect",
          "rotationDampTime": "Eff_Monster_MachinaIustitia_Frigate_Attack02_Explode",
          "born": {
            "$type": "ConfigBornByCollisionPoint"
          },
          "PPPDJGDDOGD": 1.0,
          "AJDILHJFNKE": -1.0
        },
        {
          "$type": "TriggerAttackEvent",
          "attackEvent": {
            "attackPattern": {
              "$type": "ConfigAttackSphere",
              "triggerType": "TriggerNoRepeat",
              "born": {
                "$type": "ConfigBornByCollisionPoint",
                "offset": {
                  "x": 0.0,
                  "y": 0.0,
                  "z": 0.0
                }
              },
              "radius": 1.0
            },
            "attackInfo": {
              "attackTag": "",
              "attenuationTag": "",
              "attenuationGroup": "default",
              "attackProperty": {
                "actorGrassSubHurtDelta": 1.0,
                "actorWindSubHurtDelta": 0.0,
                "elementDurability": 100.0,
                "strikeType": "Default",
                "enBreak": 100.0,
                "attackType": "Melee",
                "GLKMCMDJBIK": 0.0
              },
              "hitPattern": {
                "onHitEffectName": "default",
                "hitImpulseY": "",
                "hitImpulseType": "LV2",
                "hitHaltTimeScale": 0.05000000074505806
              },
              "canBeModifiedBy": "OriginOwner"
            }
          },
          "targetType": "Enemy"
        },
        {
          "$type": "KillSelf"
        }
      ]
    }
  },
  {
    "Default": {
      "$type": "ConfigAbility",
      "abilityName": "Monster_MachinaIustitia_Frigate_PlayEffect",
      "abilityMixins": [
        {
          "$type": "AttachToStateIDMixin",
          "stateIDs": [
            "Run",
            "WalkForward",
            "WalkBack",
            "Attack_01",
            "Attack_02"
          ],
          "modifierName": "Bubble_Effect",
          "DGFCLAIDIFI": ""
        },
        {
          "$type": "AttachToStateIDMixin",
          "stateIDs": ["Alert", "Recover"],
          "modifierName": "Alert_Effect",
          "DGFCLAIDIFI": ""
        },
        {
          "$type": "AttachToStateIDMixin",
          "stateIDs": ["Die"],
          "modifierName": "Die_Effect",
          "DGFCLAIDIFI": ""
        }
      ],
      "modifiers": {
        "Bubble_Effect": {
          "modifierName": "",
          "elementDurability": 100.0,
          "onAdded": [
            {
              "$type": "AttachEffect",
              "rotationDampTime": "Eff_Monster_MachinaIustitia_Frigate_SurroundBubble",
              "PPPDJGDDOGD": 1.0,
              "AJDILHJFNKE": -1.0
            }
          ]
        },
        "Alert_Effect": {
          "modifierName": "",
          "elementDurability": 100.0,
          "onAdded": [
            {
              "$type": "FireEffect",
              "rotationDampTime": "Eff_Monster_MachinaIustitia_Frigate_Alert",
              "PPPDJGDDOGD": 1.0,
              "AJDILHJFNKE": -1.0
            }
          ]
        },
        "Die_Effect": {
          "modifierName": "",
          "elementDurability": 100.0,
          "onAdded": [
            {
              "$type": "FireEffect",
              "rotationDampTime": "Eff_Monster_MachinaIustitia_Frigate_Die",
              "PPPDJGDDOGD": 1.0,
              "AJDILHJFNKE": -1.0
            }
          ]
        }
      }
    }
  },
  {
    "Default": {
      "$type": "ConfigAbility",
      "abilityName": "Monster_MachinaIustitia_Frigate_RotationControl",
      "abilityMixins": [
        {
          "$type": "AttachToStateIDMixin",
          "stateIDs": ["Die", "Personality1", "HitSpecial"],
          "modifierName": "NoRotation",
          "DGFCLAIDIFI": ""
        },
        {
          "$type": "AttachToStateIDMixin",
          "stateIDs": ["Born", "Recover", "Alert", "WalkForward", "WalkBack"],
          "modifierName": "SlowRotation",
          "DGFCLAIDIFI": ""
        },
        {
          "$type": "AttachToStateIDMixin",
          "stateIDs": ["Standby"],
          "modifierName": "SingleSlowRotation",
          "DGFCLAIDIFI": ""
        },
        {
          "$type": "AttachToStateIDMixin",
          "stateIDs": ["Attack_01", "Attack_02", "Run"],
          "modifierName": "FastRotation",
          "DGFCLAIDIFI": ""
        }
      ],
      "modifiers": {
        "NoRotation": {
          "modifierName": "",
          "elementDurability": 100.0,
          "onAdded": [
            {
              "$type": "SetAnimatorFloat",
              "floatID": "InnerRotationRatio",
              "value": 0.0
            },
            {
              "$type": "SetAnimatorFloat",
              "floatID": "OuterRotationRatio",
              "value": 0.0
            }
          ]
        },
        "SingleSlowRotation": {
          "modifierName": "",
          "elementDurability": 100.0,
          "onAdded": [
            {
              "$type": "SetAnimatorFloat",
              "floatID": "InnerRotationRatio",
              "value": 1.0
            },
            {
              "$type": "SetAnimatorFloat",
              "floatID": "OuterRotationRatio",
              "value": 0.0
            }
          ]
        },
        "SlowRotation": {
          "modifierName": "",
          "elementDurability": 100.0,
          "onAdded": [
            {
              "$type": "SetAnimatorFloat",
              "floatID": "InnerRotationRatio",
              "value": 1.0
            },
            {
              "$type": "SetAnimatorFloat",
              "floatID": "OuterRotationRatio",
              "value": 1.0
            }
          ]
        },
        "FastRotation": {
          "modifierName": "",
          "elementDurability": 100.0,
          "onAdded": [
            {
              "$type": "SetAnimatorFloat",
              "floatID": "InnerRotationRatio",
              "value": 1.5
            },
            {
              "$type": "SetAnimatorFloat",
              "floatID": "OuterRotationRatio",
              "value": 1.5
            }
          ]
        }
      },
      "onKill": [
        {
          "$type": "SetAnimatorFloat",
          "floatID": "InnerRotationRatio",
          "value": 0.0
        },
        {
          "$type": "SetAnimatorFloat",
          "floatID": "OuterRotationRatio",
          "value": 0.0
        }
      ]
    }
  }
]
