[
  {
    "Default": {
      "$type": "ConfigAbility",
      "abilityName": "Thoarder_Male_NoWeapon_SteerAttack",
      "abilityMixins": [
        {
          "$type": "IILHMBGONGM",
          "steerStateIDs": ["NormalAtk"],
          "endNormalizedTime": 0.46000000834465027,
          "angularSpeed": 360.0,
          "attackTrigger": "",
          "attackDistance": 2.75,
          "DGFCLAIDIFI": ""
        },
        {
          "$type": "IILHMBGONGM",
          "steerStateIDs": ["BirdieKick"],
          "endNormalizedTime": 0.4399999976158142,
          "angularSpeed": 320.0,
          "attackTrigger": "",
          "attackDistance": 4.75,
          "DGFCLAIDIFI": ""
        },
        {
          "$type": "IILHMBGONGM",
          "steerStateIDs": ["ThrowingKnife_BS"],
          "endNormalizedTime": 0.05000000074505806,
          "angularSpeed": 540.0,
          "attackTrigger": "",
          "attackDistance": 15.0,
          "DGFCLAIDIFI": ""
        },
        {
          "$type": "IILHMBGONGM",
          "steerStateIDs": ["ThrowMolotovCocktail_BS"],
          "endNormalizedTime": 0.05000000074505806,
          "angularSpeed": 540.0,
          "attackTrigger": "",
          "attackDistance": 15.0,
          "DGFCLAIDIFI": ""
        },
        {
          "$type": "IILHMBGONGM",
          "steerStateIDs": ["ThrowBomb_BS"],
          "endNormalizedTime": 0.05000000074505806,
          "angularSpeed": 540.0,
          "attackTrigger": "",
          "attackDistance": 15.0,
          "DGFCLAIDIFI": ""
        },
        {
          "$type": "IILHMBGONGM",
          "steerStateIDs": ["ThrowingKnife_BS"],
          "startNormalizedTime": 0.4000000059604645,
          "endNormalizedTime": 0.44999998807907104,
          "angularSpeed": 540.0,
          "attackTrigger": "",
          "attackDistance": 15.0,
          "DGFCLAIDIFI": ""
        },
        {
          "$type": "IILHMBGONGM",
          "steerStateIDs": ["ThrowMolotovCocktail_BS"],
          "startNormalizedTime": 0.4000000059604645,
          "endNormalizedTime": 0.44999998807907104,
          "angularSpeed": 540.0,
          "attackTrigger": "",
          "attackDistance": 15.0,
          "DGFCLAIDIFI": ""
        },
        {
          "$type": "IILHMBGONGM",
          "steerStateIDs": ["ThrowBomb_BS"],
          "startNormalizedTime": 0.4000000059604645,
          "endNormalizedTime": 0.44999998807907104,
          "angularSpeed": 540.0,
          "attackTrigger": "",
          "attackDistance": 15.0,
          "DGFCLAIDIFI": ""
        }
      ]
    }
  },
  {
    "Default": {
      "$type": "ConfigAbility",
      "abilityName": "Thoarder_Male_NoWeapon_ThrowingKnife",
      "onAbilityStart": [
        {
          "$type": "TriggerBullet",
          "bulletID": 42501001,
          "born": {
            "$type": "ConfigBornByAttachPoint",
            "offset": {
              "x": -0.2849999964237213,
              "y": 0.20000000298023224,
              "z": -0.4000000059604645
            },
            "direction": {
              "$type": "ConfigDirectionByAttackTarget",
              "randomAngleHor": 0.30000001192092896,
              "randomAngleVer": 0.5,
              "maxAngle": 60.0,
              "startPoint": ""
            },
            "attachPointName": "WeaponR"
          }
        }
      ]
    }
  },
  {
    "Default": {
      "$type": "ConfigAbility",
      "abilityName": "Thoarder_Male_NoWeapon_ThrowingKnife_Activity",
      "onAbilityStart": [
        {
          "$type": "TriggerBullet",
          "bulletID": 42501026,
          "born": {
            "$type": "ConfigBornByAttachPoint",
            "offset": {
              "x": -0.2849999964237213,
              "y": 0.20000000298023224,
              "z": -0.4000000059604645
            },
            "direction": {
              "$type": "ConfigDirectionByAttackTarget",
              "randomAngleHor": 0.30000001192092896,
              "randomAngleVer": 0.5,
              "maxAngle": 60.0,
              "startPoint": ""
            },
            "useRotation": true,
            "attachPointName": "WeaponR"
          }
        }
      ]
    }
  },
  {
    "Default": {
      "$type": "ConfigAbility",
      "abilityName": "Thoarder_Male_NoWeapon_ThrowingKnife_KnifeManager",
      "abilityMixins": [
        {
          "$type": "AttachToNormalizedTimeMixin",
          "stateID": "ThrowingKnife_BS",
          "modifierName": "KnifeManager",
          "normalizeEnd": 0.44999998807907104,
          "DGFCLAIDIFI": ""
        }
      ],
      "modifiers": {
        "KnifeManager": {
          "modifierName": "",
          "elementDurability": 100.0,
          "onRemoved": [
            {
              "$type": "RemoveModifier",
              "modifierName": "KnifeInHand"
            }
          ]
        },
        "KnifeInHand": {
          "modifierName": "",
          "elementDurability": 100.0,
          "onAdded": [
            {
              "$type": "AttachEffect",
              "rotationDampTime": "Eff_Monster_Thoarder_ThrowingKnife_Knife",
              "born": {
                "$type": "ConfigBornByAttachPoint",
                "offset": {
                  "x": 0.0,
                  "y": 0.0,
                  "z": 0.0
                },
                "direction": {
                  "$type": "ConfigDirectionByDefault",
                  "angleOffset": {
                    "x": 0.0,
                    "y": 0.0,
                    "z": 0.0
                  }
                },
                "attachPointName": "WeaponR",
                "attachPointTargetType": "Self"
              },
              "PPPDJGDDOGD": 1.0,
              "AJDILHJFNKE": -1.0
            }
          ]
        }
      },
      "onAbilityStart": [
        {
          "$type": "ApplyModifier",
          "modifierName": "KnifeInHand"
        }
      ]
    }
  },
  {
    "Default": {
      "$type": "ConfigAbility",
      "abilityName": "Thoarder_Male_NoWeapon_ThrowingKnife_KnifeManager_Activity",
      "abilityMixins": [
        {
          "$type": "AttachToNormalizedTimeMixin",
          "stateID": "ThrowingKnife_BS",
          "modifierName": "KnifeManager",
          "normalizeEnd": 0.44999998807907104,
          "DGFCLAIDIFI": ""
        }
      ],
      "modifiers": {
        "KnifeManager": {
          "modifierName": "",
          "elementDurability": 100.0,
          "onRemoved": [
            {
              "$type": "RemoveModifier",
              "modifierName": "KnifeInHand"
            }
          ]
        },
        "KnifeInHand": {
          "modifierName": "",
          "elementDurability": 100.0,
          "onAdded": [
            {
              "$type": "AttachEffect",
              "rotationDampTime": "Eff_Monster_Thoarder_ThrowingKnife_Knife_ShootingActivity",
              "born": {
                "$type": "ConfigBornByAttachPoint",
                "offset": {
                  "x": 0.0,
                  "y": 0.0,
                  "z": 0.0
                },
                "direction": {
                  "$type": "ConfigDirectionByDefault",
                  "angleOffset": {
                    "x": 0.0,
                    "y": 0.0,
                    "z": 0.0
                  }
                },
                "useRotation": true,
                "attachPointName": "WeaponR",
                "attachPointTargetType": "Self"
              },
              "PPPDJGDDOGD": 1.0,
              "AJDILHJFNKE": -1.0
            }
          ]
        }
      },
      "onAbilityStart": [
        {
          "$type": "ApplyModifier",
          "modifierName": "KnifeInHand"
        }
      ]
    }
  },
  {
    "Default": {
      "$type": "ConfigAbility",
      "abilityName": "Thoarder_Male_NoWeapon_ThrowBomb",
      "onAbilityStart": [
        {
          "$type": "TriggerBullet",
          "bulletID": 42501002,
          "born": {
            "$type": "ConfigBornByAttachPoint",
            "offset": {
              "x": 0.0,
              "y": 0.0,
              "z": 0.0
            },
            "direction": {
              "$type": "ConfigDirectionByAttackTarget",
              "maxAngleType": "Horizontal",
              "maxAngle": 15.0,
              "startPoint": ""
            },
            "attachPointName": "WeaponR"
          }
        }
      ]
    }
  },
  {
    "Default": {
      "$type": "ConfigAbility",
      "abilityName": "Thoarder_Male_NoWeapon_ThrowBomb_BombManager",
      "abilityMixins": [
        {
          "$type": "AttachToNormalizedTimeMixin",
          "stateID": "ThrowBomb_BS",
          "modifierName": "BombManager",
          "normalizeEnd": 0.44999998807907104,
          "DGFCLAIDIFI": ""
        }
      ],
      "modifiers": {
        "BombManager": {
          "modifierName": "",
          "elementDurability": 100.0,
          "onRemoved": [
            {
              "$type": "RemoveModifier",
              "modifierName": "BombInHand"
            }
          ]
        },
        "BombInHand": {
          "modifierName": "",
          "elementDurability": 100.0,
          "onAdded": [
            {
              "$type": "AttachEffect",
              "rotationDampTime": "Eff_Monster_Thoarder_BombBullet_InHand",
              "born": {
                "$type": "ConfigBornByAttachPoint",
                "offset": {
                  "x": 0.0,
                  "y": 0.0,
                  "z": 0.0
                },
                "direction": {
                  "$type": "ConfigDirectionByDefault",
                  "angleOffset": {
                    "x": 0.0,
                    "y": 0.0,
                    "z": 0.0
                  }
                },
                "attachPointName": "WeaponR",
                "attachPointTargetType": "Self"
              },
              "PPPDJGDDOGD": 1.0,
              "AJDILHJFNKE": -1.0
            }
          ]
        }
      },
      "onAbilityStart": [
        {
          "$type": "ApplyModifier",
          "modifierName": "BombInHand"
        }
      ]
    }
  },
  {
    "Default": {
      "$type": "ConfigAbility",
      "abilityName": "Thoarder_Male_NoWeapon_ThrowMolotovCocktail",
      "onAbilityStart": [
        {
          "$type": "TriggerBullet",
          "bulletID": 42501003,
          "born": {
            "$type": "ConfigBornByAttachPoint",
            "offset": {
              "x": 0.0,
              "y": 0.0,
              "z": 0.0
            },
            "direction": {
              "$type": "ConfigDirectionByAttackTarget",
              "maxAngleType": "Horizontal",
              "maxAngle": 15.0,
              "startPoint": ""
            },
            "attachPointName": "WeaponR"
          }
        }
      ]
    }
  },
  {
    "Default": {
      "$type": "ConfigAbility",
      "abilityName": "Thoarder_Male_NoWeapon_ThrowMolotovCocktail_MolotovManager",
      "abilityMixins": [
        {
          "$type": "AttachToNormalizedTimeMixin",
          "stateID": "ThrowMolotovCocktail_BS",
          "modifierName": "MolotovManager",
          "normalizeEnd": 0.44999998807907104,
          "DGFCLAIDIFI": ""
        }
      ],
      "modifiers": {
        "MolotovManager": {
          "modifierName": "",
          "elementDurability": 100.0,
          "onRemoved": [
            {
              "$type": "RemoveModifier",
              "modifierName": "MolotovInHand"
            }
          ]
        },
        "MolotovInHand": {
          "modifierName": "",
          "elementDurability": 100.0,
          "onAdded": [
            {
              "$type": "AttachEffect",
              "rotationDampTime": "Eff_Monster_Thoarder_MolotovCocktailBullet_InHand",
              "born": {
                "$type": "ConfigBornByAttachPoint",
                "offset": {
                  "x": 0.0,
                  "y": 0.0,
                  "z": 0.0
                },
                "direction": {
                  "$type": "ConfigDirectionByDefault",
                  "angleOffset": {
                    "x": 0.0,
                    "y": 0.0,
                    "z": 0.0
                  }
                },
                "attachPointName": "WeaponR",
                "attachPointTargetType": "Self"
              },
              "PPPDJGDDOGD": 1.0,
              "AJDILHJFNKE": -1.0
            }
          ]
        }
      },
      "onAbilityStart": [
        {
          "$type": "ApplyModifier",
          "modifierName": "MolotovInHand"
        }
      ]
    }
  },
  {
    "Default": {
      "$type": "ConfigAbility",
      "abilityName": "Thoarder_Male_NoWeapon_ThrowBomb_Water",
      "onAbilityStart": [
        {
          "$type": "TriggerBullet",
          "bulletID": 42501004,
          "born": {
            "$type": "ConfigBornByAttachPoint",
            "offset": {
              "x": 0.0,
              "y": 0.0,
              "z": 0.0
            },
            "direction": {
              "$type": "ConfigDirectionByAttackTarget",
              "maxAngleType": "Horizontal",
              "maxAngle": 15.0,
              "startPoint": ""
            },
            "attachPointName": "WeaponR"
          }
        }
      ]
    }
  },
  {
    "Default": {
      "$type": "ConfigAbility",
      "abilityName": "Thoarder_Male_NoWeapon_ThrowBomb_Water_BombManager",
      "abilityMixins": [
        {
          "$type": "AttachToNormalizedTimeMixin",
          "stateID": "ThrowBomb_BS",
          "modifierName": "BombManager",
          "normalizeEnd": 0.44999998807907104,
          "DGFCLAIDIFI": ""
        }
      ],
      "modifiers": {
        "BombManager": {
          "modifierName": "",
          "elementDurability": 100.0,
          "onRemoved": [
            {
              "$type": "RemoveModifier",
              "modifierName": "BombInHand"
            }
          ]
        },
        "BombInHand": {
          "modifierName": "",
          "elementDurability": 100.0,
          "onAdded": [
            {
              "$type": "AttachEffect",
              "rotationDampTime": "Eff_Monster_Thoarder_Bomb_Water_01_InHand",
              "born": {
                "$type": "ConfigBornByAttachPoint",
                "offset": {
                  "x": 0.0,
                  "y": 0.0,
                  "z": 0.0
                },
                "direction": {
                  "$type": "ConfigDirectionByDefault",
                  "angleOffset": {
                    "x": 0.0,
                    "y": 0.0,
                    "z": 0.0
                  }
                },
                "attachPointName": "WeaponR",
                "attachPointTargetType": "Self"
              },
              "PPPDJGDDOGD": 1.0,
              "AJDILHJFNKE": -1.0
            }
          ]
        }
      },
      "onAbilityStart": [
        {
          "$type": "ApplyModifier",
          "modifierName": "BombInHand"
        }
      ]
    }
  },
  {
    "Default": {
      "$type": "ConfigAbility",
      "abilityName": "Thoarder_Male_NoWeapon_ThrowBomb_Ice",
      "onAbilityStart": [
        {
          "$type": "TriggerBullet",
          "bulletID": 42501005,
          "born": {
            "$type": "ConfigBornByAttachPoint",
            "offset": {
              "x": 0.0,
              "y": 0.0,
              "z": 0.0
            },
            "direction": {
              "$type": "ConfigDirectionByAttackTarget",
              "maxAngleType": "Horizontal",
              "maxAngle": 15.0,
              "startPoint": ""
            },
            "attachPointName": "WeaponR"
          }
        }
      ]
    }
  },
  {
    "Default": {
      "$type": "ConfigAbility",
      "abilityName": "Thoarder_Male_NoWeapon_ThrowBomb_Ice_BombManager",
      "abilityMixins": [
        {
          "$type": "AttachToNormalizedTimeMixin",
          "stateID": "ThrowBomb_BS",
          "modifierName": "BombManager",
          "normalizeEnd": 0.44999998807907104,
          "DGFCLAIDIFI": ""
        }
      ],
      "modifiers": {
        "BombManager": {
          "modifierName": "",
          "elementDurability": 100.0,
          "onRemoved": [
            {
              "$type": "RemoveModifier",
              "modifierName": "BombInHand"
            }
          ]
        },
        "BombInHand": {
          "modifierName": "",
          "elementDurability": 100.0,
          "onAdded": [
            {
              "$type": "AttachEffect",
              "rotationDampTime": "Eff_Monster_Thoarder_Bomb_Ice_01_InHand",
              "born": {
                "$type": "ConfigBornByAttachPoint",
                "offset": {
                  "x": 0.0,
                  "y": 0.0,
                  "z": 0.0
                },
                "direction": {
                  "$type": "ConfigDirectionByDefault",
                  "angleOffset": {
                    "x": 0.0,
                    "y": 0.0,
                    "z": 0.0
                  }
                },
                "attachPointName": "WeaponR",
                "attachPointTargetType": "Self"
              },
              "PPPDJGDDOGD": 1.0,
              "AJDILHJFNKE": -1.0
            }
          ]
        }
      },
      "onAbilityStart": [
        {
          "$type": "ApplyModifier",
          "modifierName": "BombInHand"
        }
      ]
    }
  },
  {
    "Default": {
      "$type": "ConfigAbility",
      "abilityName": "Thoarder_Male_NoWeapon_ThrowBomb_Electric",
      "onAbilityStart": [
        {
          "$type": "TriggerBullet",
          "bulletID": 42501006,
          "born": {
            "$type": "ConfigBornByAttachPoint",
            "offset": {
              "x": 0.0,
              "y": 0.0,
              "z": 0.0
            },
            "direction": {
              "$type": "ConfigDirectionByAttackTarget",
              "maxAngleType": "Horizontal",
              "maxAngle": 15.0,
              "startPoint": ""
            },
            "attachPointName": "WeaponR"
          }
        }
      ]
    }
  },
  {
    "Default": {
      "$type": "ConfigAbility",
      "abilityName": "Thoarder_Male_NoWeapon_ThrowBomb_Electric_BombManager",
      "abilityMixins": [
        {
          "$type": "AttachToNormalizedTimeMixin",
          "stateID": "ThrowBomb_BS",
          "modifierName": "BombManager",
          "normalizeEnd": 0.44999998807907104,
          "DGFCLAIDIFI": ""
        }
      ],
      "modifiers": {
        "BombManager": {
          "modifierName": "",
          "elementDurability": 100.0,
          "onRemoved": [
            {
              "$type": "RemoveModifier",
              "modifierName": "BombInHand"
            }
          ]
        },
        "BombInHand": {
          "modifierName": "",
          "elementDurability": 100.0,
          "onAdded": [
            {
              "$type": "AttachEffect",
              "rotationDampTime": "Eff_Monster_Thoarder_Bomb_Electric_01_InHand",
              "born": {
                "$type": "ConfigBornByAttachPoint",
                "offset": {
                  "x": 0.0,
                  "y": 0.0,
                  "z": 0.0
                },
                "direction": {
                  "$type": "ConfigDirectionByDefault",
                  "angleOffset": {
                    "x": 0.0,
                    "y": 0.0,
                    "z": 0.0
                  }
                },
                "attachPointName": "WeaponR",
                "attachPointTargetType": "Self"
              },
              "PPPDJGDDOGD": 1.0,
              "AJDILHJFNKE": -1.0
            }
          ]
        }
      },
      "onAbilityStart": [
        {
          "$type": "ApplyModifier",
          "modifierName": "BombInHand"
        }
      ]
    }
  }
]
