[
  {
    "Default": {
      "$type": "ConfigAbility",
      "abilityName": "Monster_ToothTrap_AbyssVersion",
      "onAdded": [
        {
          "$type": "SetGlobalValue",
          "value": 1.0,
          "key": "_AbyssVersion_",
          "maxValue": 0.0,
          "minValue": 0.0
        }
      ],
      "isDynamicAbility": true
    }
  },
  {
    "Default": {
      "$type": "ConfigAbility",
      "abilityName": "Monster_ToothTrap_KillGadget",
      "abilityMixins": [
        {
          "$type": "AttachToStateIDMixin",
          "stateIDs": [
            "Attack03",
            "Attack02_Hit_BS",
            "Attack02_Hit_Loop",
            "Attack02_Hit_AS",
            "Attack05_BS",
            "Attack05_Loop",
            "Attack05_AS"
          ],
          "modifierName": "ClearArea",
          "DGFCLAIDIFI": ""
        }
      ],
      "modifiers": {
        "ClearArea": {
          "modifierName": "",
          "elementDurability": 100.0,
          "thinkInterval": 0.10000000149011612,
          "onAdded": [
            {
              "$type": "Predicated",
              "otherTargets": {
                "$type": "SelectTargetsByShape",
                "shapeName": "CircleR4H4",
                "campTargetType": "Enemy",
                "doOffStage": 1.0
              },
              "targetPredicates": [
                {
                  "$type": "ByTargetGlobalValue",
                  "key": "_COMMON_GADGET_ISSUMMON",
                  "value": 0.0,
                  "compareType": "MoreThan"
                }
              ],
              "successActions": [
                {
                  "$type": "ApplyModifier",
                  "target": "Target",
                  "modifierName": "Kill_Summon_Gadget"
                }
              ]
            }
          ],
          "onThinkInterval": [
            {
              "$type": "Predicated",
              "otherTargets": {
                "$type": "SelectTargetsByShape",
                "shapeName": "CircleR4H4",
                "campTargetType": "Enemy",
                "doOffStage": 1.0
              },
              "targetPredicates": [
                {
                  "$type": "ByTargetGlobalValue",
                  "key": "_COMMON_GADGET_ISSUMMON",
                  "value": 0.0,
                  "compareType": "MoreThan"
                }
              ],
              "successActions": [
                {
                  "$type": "ApplyModifier",
                  "target": "Target",
                  "modifierName": "Kill_Summon_Gadget"
                }
              ]
            }
          ]
        },
        "Kill_Summon_Gadget": {
          "modifierName": "",
          "elementDurability": 100.0,
          "onAdded": [
            {
              "$type": "KillSelf"
            }
          ]
        }
      }
    }
  },
  {
    "Default": {
      "$type": "ConfigAbility",
      "abilityName": "Monster_ToothTrap_Alert",
      "abilityMixins": [
        {
          "$type": "AttachToStateIDMixin",
          "stateIDs": ["AlertSleep"],
          "modifierName": "ToothTrapAlert",
          "DGFCLAIDIFI": ""
        },
        {
          "$type": "AttachToStateIDMixin",
          "stateIDs": ["StandbyStatue"],
          "modifierName": "StatueBillboard",
          "DGFCLAIDIFI": ""
        },
        {
          "$type": "AttachToStateIDMixin",
          "stateIDs": ["StandbyStatue", "AlertSleep"],
          "modifierName": "StatueMode",
          "DGFCLAIDIFI": ""
        },
        {
          "$type": "AttachToStateIDMixin",
          "stateIDs": ["StandbyStatue"],
          "modifierName": "StatueCollider",
          "DGFCLAIDIFI": ""
        },
        {
          "$type": "LEOGLBFIELL",
          "poseIDs": [121],
          "modifierName": "ToothTrapLimbo"
        }
      ],
      "abilitySpecials": {
        "sub_hurt_delta_positive_before_battle": 2.0
      },
      "modifiers": {
        "StatueCollider": {
          "modifierName": "",
          "elementDurability": 100.0,
          "modifierMixins": [
            {
              "$type": "RigidBodyFreezeMixin"
            },
            {
              "$type": "AttachActionToModifierMixin",
              "onAdded": [
                {
                  "$type": "EnablePushColliderName",
                  "pushColliderNames": ["PushCollider", "PushCollider2"]
                },
                {
                  "$type": "EnablePushColliderName",
                  "pushColliderNames": [
                    "PushColliderSleep",
                    "PushCollider_Occluder"
                  ],
                  "setEnable": true
                }
              ],
              "onRemoved": [
                {
                  "$type": "EnablePushColliderName",
                  "pushColliderNames": ["PushCollider", "PushCollider2"],
                  "setEnable": true
                },
                {
                  "$type": "EnablePushColliderName",
                  "pushColliderNames": [
                    "PushColliderSleep",
                    "PushCollider_Occluder"
                  ]
                }
              ]
            }
          ]
        },
        "ToothTrapLimbo": {
          "modifierName": "",
          "elementDurability": 100.0,
          "onAdded": [
            {
              "$type": "AttachModifier",
              "modifierName": "PowerOff_Invincible"
            },
            {
              "$type": "AttachModifier",
              "modifierName": "PowerOff_IsGhostToAllied"
            },
            {
              "$type": "AttachModifier",
              "modifierName": "PowerOff_IsGhostToEnemy"
            },
            {
              "$type": "AttachModifier",
              "modifierName": "PowerOff_MuteTaunt"
            }
          ]
        },
        "StatueMode": {
          "modifierName": "",
          "elementDurability": 100.0,
          "properties": {
            "Entity_MassRatio": 1000.0,
            "Entity_WeightRatio": 5.0,
            "Actor_EndureDelta": 0.0010000000474974513,
            "Actor_PhysicalSubHurtDelta": "sub_hurt_delta_positive_before_battle",
            "Actor_FireSubHurtDelta": "sub_hurt_delta_positive_before_battle",
            "Actor_ElecSubHurtDelta": "sub_hurt_delta_positive_before_battle",
            "Actor_IceSubHurtDelta": "sub_hurt_delta_positive_before_battle",
            "Actor_WaterSubHurtDelta": "sub_hurt_delta_positive_before_battle",
            "Actor_GrassSubHurtDelta": "sub_hurt_delta_positive_before_battle",
            "Actor_WindSubHurtDelta": "sub_hurt_delta_positive_before_battle",
            "Actor_RockSubHurtDelta": "sub_hurt_delta_positive_before_battle"
          }
        },
        "StatueBillboard": {
          "modifierName": "",
          "elementDurability": 100.0,
          "modifierMixins": [
            {
              "$type": "AttachActionToModifierMixin",
              "onAdded": [
                {
                  "$type": "HBNEMPLJCMB",
                  "hide": true
                }
              ],
              "onRemoved": [
                {
                  "$type": "HBNEMPLJCMB"
                }
              ]
            }
          ]
        },
        "ToothTrapAlert": {
          "modifierName": "",
          "elementDurability": 100.0,
          "onAdded": [
            {
              "$type": "IDNGFEEBPAM",
              "boolID": "Statue"
            },
            {
              "$type": "IDNGFEEBPAM",
              "boolID": "BlindStatue"
            }
          ]
        },
        "PowerOff_Invincible": {
          "modifierName": "",
          "elementDurability": 100.0,
          "state": "Invincible"
        },
        "PowerOff_IsGhostToAllied": {
          "modifierName": "",
          "elementDurability": 100.0,
          "state": "IsGhostToAllied"
        },
        "PowerOff_IsGhostToEnemy": {
          "modifierName": "",
          "elementDurability": 100.0,
          "state": "IsGhostToEnemy"
        },
        "PowerOff_MuteTaunt": {
          "modifierName": "",
          "elementDurability": 100.0,
          "state": "MuteTaunt"
        }
      }
    }
  },
  {
    "Default": {
      "$type": "ConfigAbility",
      "abilityName": "Monster_ToothTrap_ReturnToBorn",
      "abilityMixins": [
        {
          "$type": "LEOGLBFIELL",
          "poseIDs": [901, 902, 903],
          "modifierName": "ReturnToBorn_Start"
        },
        {
          "$type": "AOKOIIHJJPJ",
          "alertness": [0],
          "modifierName": "ClearChargeBar"
        }
      ],
      "modifiers": {
        "ReturnToBorn_Start": {
          "modifierName": "",
          "elementDurability": 100.0
        },
        "ClearChargeBar": {
          "modifierName": "",
          "elementDurability": 100.0,
          "onAdded": [
            {
              "$type": "SetGlobalValue",
              "predicates": [
                {
                  "$type": "BHFFBBOLCCP",
                  "modifierName": "ToothTrap_Shield"
                }
              ],
              "value": 0.0,
              "key": "_CHARGEBAR_VALUE",
              "maxValue": 0.0,
              "minValue": 0.0
            }
          ]
        }
      }
    }
  },
  {
    "Default": {
      "$type": "ConfigAbility",
      "abilityName": "Monster_ToothTrap_ShieldManager",
      "abilitySpecials": {
        "NyxChargeBar": 100.0
      },
      "modifiers": {
        "NyxChargeBarManager": {
          "modifierName": "",
          "elementDurability": 100.0,
          "modifierMixins": [
            {
              "$type": "LEOGLBFIELL",
              "poseIDs": [101, 201],
              "modifierName": "ToothTrap_Shield"
            },
            {
              "$type": "AttachToStateIDMixin",
              "stateIDs": [
                "Weak",
                "Attack02_Hit_BS",
                "Attack02_Hit_Loop",
                "Attack02_Hit_AS"
              ],
              "modifierName": "RemoveSubHurt",
              "DGFCLAIDIFI": ""
            }
          ]
        },
        "RemoveSubHurt": {
          "modifierName": "",
          "elementDurability": 100.0,
          "properties": {
            "Actor_PhysicalSubHurtDelta": -0.4000000059604645,
            "Actor_FireSubHurtDelta": -0.4000000059604645,
            "Actor_ElecSubHurtDelta": -0.4000000059604645,
            "Actor_WaterSubHurtDelta": -0.4000000059604645,
            "Actor_GrassSubHurtDelta": -0.4000000059604645,
            "Actor_WindSubHurtDelta": -0.4000000059604645,
            "Actor_IceSubHurtDelta": -0.4000000059604645,
            "Actor_RockSubHurtDelta": -0.4000000059604645
          }
        },
        "UNIQUE_DragonizedKeeping": {
          "stacking": "Unique",
          "modifierName": "",
          "forceTriggerWhenChangeAuthority": true,
          "duration": 1.899999976158142,
          "elementDurability": 100.0,
          "onAdded": [
            {
              "$type": "FireEffect",
              "rotationDampTime": "Eff_Monster_ToothTrap_DragonizedKeep",
              "PPPDJGDDOGD": 1.0,
              "AJDILHJFNKE": -1.0
            },
            {
              "$type": "FireEffect",
              "rotationDampTime": "Eff_Monster_ToothTrap_Enhance_ToohDown01_L",
              "PPPDJGDDOGD": 1.0,
              "AJDILHJFNKE": -1.0
            },
            {
              "$type": "FireEffect",
              "rotationDampTime": "Eff_Monster_ToothTrap_Enhance_ToohDown01_R",
              "PPPDJGDDOGD": 1.0,
              "AJDILHJFNKE": -1.0
            },
            {
              "$type": "FireEffect",
              "rotationDampTime": "Eff_Monster_ToothTrap_Enhance_ToothLeft",
              "PPPDJGDDOGD": 1.0,
              "AJDILHJFNKE": -1.0
            },
            {
              "$type": "FireEffect",
              "rotationDampTime": "Eff_Monster_ToothTrap_Enhance_ToothRight",
              "PPPDJGDDOGD": 1.0,
              "AJDILHJFNKE": -1.0
            },
            {
              "$type": "FireEffect",
              "rotationDampTime": "Eff_Monster_ToothTrap_Enhance_HandLeft3",
              "PPPDJGDDOGD": 1.0,
              "AJDILHJFNKE": -1.0
            },
            {
              "$type": "FireEffect",
              "rotationDampTime": "Eff_Monster_ToothTrap_Enhance_HandRight3",
              "PPPDJGDDOGD": 1.0,
              "AJDILHJFNKE": -1.0
            }
          ]
        },
        "ToothTrap_Shield": {
          "modifierName": "",
          "elementDurability": 100.0,
          "modifierMixins": [
            {
              "$type": "HBPDEMIJCDL",
              "chargeBarIconID": 5,
              "initialValue": 0.0,
              "maxValue": "NyxChargeBar"
            },
            {
              "$type": "LOBJJNKNCCP",
              "thinkInterval": 1.0,
              "KJANIIKDJDI": 25.0,
              "KCIJECLGPKJ": 10.0,
              "onEnter": [
                {
                  "$type": "Predicated",
                  "targetPredicates": [
                    {
                      "$type": "ByTargetGlobalValue",
                      "target": "Self",
                      "key": "_ToothTrap_CrazySkill_",
                      "value": 0.0,
                      "compareType": "NoneOrEqual"
                    },
                    {
                      "$type": "ByTargetGlobalValue",
                      "target": "Self",
                      "key": "WeakAS",
                      "value": 0.0,
                      "compareType": "NoneOrEqual"
                    },
                    {
                      "$type": "ByHasAttackTarget",
                      "target": "Self"
                    }
                  ],
                  "successActions": [
                    {
                      "$type": "PMJJNECJCLE",
                      "value": 15.0,
                      "maxValue": 0.0,
                      "minValue": 0.0
                    },
                    {
                      "$type": "FireEffect",
                      "rotationDampTime": "Eff_Monster_ToothTrap_DragonizedEnter",
                      "PPPDJGDDOGD": 1.0,
                      "AJDILHJFNKE": -1.0
                    }
                  ]
                },
                {
                  "$type": "Predicated",
                  "targetPredicates": [
                    {
                      "$type": "ByTargetGlobalValue",
                      "key": "_CHARGEBAR_VALUE",
                      "value": "NyxChargeBar"
                    },
                    {
                      "$type": "ByTargetGlobalValue",
                      "key": "_ToothTrap_CrazySkill_",
                      "value": 0.0,
                      "compareType": "NoneOrEqual"
                    }
                  ],
                  "successActions": [
                    {
                      "$type": "SetAnimatorTrigger",
                      "triggerID": "WeakTrigger"
                    },
                    {
                      "$type": "SetGlobalValue",
                      "value": 1.0,
                      "key": "_ToothTrap_CrazySkill_",
                      "maxValue": 0.0,
                      "minValue": 0.0
                    }
                  ]
                }
              ],
              "BGIJEHIOKDI": [
                {
                  "$type": "Predicated",
                  "targetPredicates": [
                    {
                      "$type": "ByTargetGlobalValue",
                      "target": "Self",
                      "key": "_ToothTrap_CrazySkill_",
                      "value": 0.0,
                      "compareType": "NoneOrEqual"
                    },
                    {
                      "$type": "ByTargetGlobalValue",
                      "target": "Self",
                      "key": "WeakAS",
                      "value": 0.0,
                      "compareType": "NoneOrEqual"
                    },
                    {
                      "$type": "ByHasAttackTarget",
                      "target": "Self"
                    }
                  ],
                  "successActions": [
                    {
                      "$type": "PMJJNECJCLE",
                      "value": 15.0,
                      "maxValue": 0.0,
                      "minValue": 0.0
                    },
                    {
                      "$type": "ApplyModifier",
                      "modifierName": "UNIQUE_DragonizedKeeping"
                    }
                  ]
                },
                {
                  "$type": "Predicated",
                  "targetPredicates": [
                    {
                      "$type": "ByTargetGlobalValue",
                      "key": "_CHARGEBAR_VALUE",
                      "value": "NyxChargeBar"
                    },
                    {
                      "$type": "ByTargetGlobalValue",
                      "key": "_ToothTrap_CrazySkill_",
                      "value": 0.0,
                      "compareType": "NoneOrEqual"
                    }
                  ],
                  "successActions": [
                    {
                      "$type": "SetAnimatorTrigger",
                      "triggerID": "WeakTrigger"
                    },
                    {
                      "$type": "SetGlobalValue",
                      "value": 1.0,
                      "key": "_ToothTrap_CrazySkill_",
                      "maxValue": 0.0,
                      "minValue": 0.0
                    }
                  ]
                }
              ]
            }
          ],
          "properties": {
            "Actor_PhysicalSubHurtDelta": 0.4000000059604645,
            "Actor_FireSubHurtDelta": 0.4000000059604645,
            "Actor_ElecSubHurtDelta": 0.4000000059604645,
            "Actor_WaterSubHurtDelta": 0.4000000059604645,
            "Actor_GrassSubHurtDelta": 0.4000000059604645,
            "Actor_WindSubHurtDelta": 0.4000000059604645,
            "Actor_IceSubHurtDelta": 0.4000000059604645,
            "Actor_RockSubHurtDelta": 0.4000000059604645
          },
          "onRemoved": [
            {
              "$type": "RemoveUniqueModifier",
              "modifierName": "UNIQUE_DragonizedKeeping"
            }
          ]
        }
      },
      "onAdded": [
        {
          "$type": "SetGlobalValue",
          "value": 1.0,
          "key": "ToothTrap",
          "maxValue": 0.0,
          "minValue": 0.0
        },
        {
          "$type": "SetGlobalValue",
          "value": 0.0,
          "key": "_ToothTrap_CrazySkill_",
          "maxValue": 0.0,
          "minValue": 0.0
        },
        {
          "$type": "SetOverrideMapValue",
          "predicates": [
            {
              "$type": "ByTargetGlobalValue",
              "target": "Self",
              "key": "_AbyssVersion_",
              "value": 1.0
            }
          ],
          "value": 170.0,
          "overrideMapKey": "NyxChargeBar",
          "maxValue": 0.0,
          "minValue": 0.0
        },
        {
          "$type": "ApplyModifier",
          "modifierName": "NyxChargeBarManager"
        }
      ]
    }
  },
  {
    "Default": {
      "$type": "ConfigAbility",
      "abilityName": "Monster_ToothTrap_SteerAttack",
      "abilityMixins": [
        {
          "$type": "IILHMBGONGM",
          "steerStateIDs": ["AlertTurn"],
          "endNormalizedTime": 0.20000000298023224,
          "angularSpeed": 480.0,
          "attackTrigger": "",
          "DGFCLAIDIFI": ""
        },
        {
          "$type": "IILHMBGONGM",
          "steerStateIDs": ["AlertSleep"],
          "startNormalizedTime": 0.4000000059604645,
          "endNormalizedTime": 0.6499999761581421,
          "angularSpeed": 400.0,
          "attackTrigger": "",
          "DGFCLAIDIFI": ""
        },
        {
          "$type": "IILHMBGONGM",
          "steerStateIDs": ["AlertNormal"],
          "angularSpeed": 160.0,
          "attackTrigger": "",
          "DGFCLAIDIFI": ""
        },
        {
          "$type": "IILHMBGONGM",
          "steerStateIDs": ["Blink"],
          "angularSpeed": 160.0,
          "attackTrigger": "",
          "DGFCLAIDIFI": ""
        },
        {
          "$type": "IILHMBGONGM",
          "steerStateIDs": ["BlinkL"],
          "angularSpeed": 160.0,
          "attackTrigger": "",
          "DGFCLAIDIFI": ""
        },
        {
          "$type": "IILHMBGONGM",
          "steerStateIDs": ["BlinkR"],
          "angularSpeed": 160.0,
          "attackTrigger": "",
          "DGFCLAIDIFI": ""
        },
        {
          "$type": "IILHMBGONGM",
          "steerStateIDs": ["Weak"],
          "startNormalizedTime": 0.36500000953674316,
          "angularSpeed": 160.0,
          "attackTrigger": "",
          "DGFCLAIDIFI": ""
        },
        {
          "$type": "IILHMBGONGM",
          "steerStateIDs": ["Attack01"],
          "endNormalizedTime": 0.3499999940395355,
          "angularSpeed": 150.0,
          "attackTrigger": "",
          "DGFCLAIDIFI": ""
        },
        {
          "$type": "IILHMBGONGM",
          "steerStateIDs": ["Weak"],
          "angularSpeed": 90.0,
          "attackTrigger": "",
          "DGFCLAIDIFI": ""
        },
        {
          "$type": "IILHMBGONGM",
          "steerStateIDs": ["Attack02_Hit_BS"],
          "startNormalizedTime": 0.5,
          "endNormalizedTime": 0.6499999761581421,
          "angularSpeed": 60.0,
          "attackTrigger": "",
          "DGFCLAIDIFI": ""
        },
        {
          "$type": "IILHMBGONGM",
          "steerStateIDs": ["Attack02_Hit_Loop"],
          "endNormalizedTime": 0.125,
          "angularSpeed": 4.0,
          "attackTrigger": "",
          "DGFCLAIDIFI": ""
        },
        {
          "$type": "IILHMBGONGM",
          "steerStateIDs": ["Attack02_Hit_Loop"],
          "startNormalizedTime": 0.125,
          "endNormalizedTime": 0.25,
          "angularSpeed": 8.0,
          "attackTrigger": "",
          "DGFCLAIDIFI": ""
        },
        {
          "$type": "IILHMBGONGM",
          "steerStateIDs": ["Attack02_Hit_Loop"],
          "startNormalizedTime": 0.25,
          "endNormalizedTime": 2.0,
          "angularSpeed": 16.0,
          "attackTrigger": "",
          "DGFCLAIDIFI": ""
        },
        {
          "$type": "IILHMBGONGM",
          "steerStateIDs": ["Attack03"],
          "endNormalizedTime": 0.07000000029802322,
          "angularSpeed": 120.0,
          "attackTrigger": "",
          "DGFCLAIDIFI": ""
        },
        {
          "$type": "IILHMBGONGM",
          "steerStateIDs": ["Attack03"],
          "startNormalizedTime": 0.15000000596046448,
          "endNormalizedTime": 0.2199999988079071,
          "angularSpeed": 180.0,
          "attackTrigger": "",
          "DGFCLAIDIFI": ""
        },
        {
          "$type": "IILHMBGONGM",
          "steerStateIDs": ["Attack03"],
          "startNormalizedTime": 0.2199999988079071,
          "endNormalizedTime": 0.38999998569488525,
          "angularSpeed": 180.0,
          "attackTrigger": "",
          "DGFCLAIDIFI": ""
        },
        {
          "$type": "IILHMBGONGM",
          "steerStateIDs": ["Attack04_BS"],
          "endNormalizedTime": 0.699999988079071,
          "angularSpeed": 150.0,
          "attackTrigger": "",
          "DGFCLAIDIFI": ""
        },
        {
          "$type": "IILHMBGONGM",
          "steerStateIDs": ["Attack04_AS"],
          "endNormalizedTime": 0.10000000149011612,
          "angularSpeed": 120.0,
          "attackTrigger": "",
          "DGFCLAIDIFI": ""
        },
        {
          "$type": "IILHMBGONGM",
          "steerStateIDs": ["Attack04_AS"],
          "startNormalizedTime": 0.20999999344348907,
          "endNormalizedTime": 0.25999999046325684,
          "angularSpeed": 120.0,
          "attackTrigger": "",
          "DGFCLAIDIFI": ""
        },
        {
          "$type": "IILHMBGONGM",
          "steerStateIDs": ["Attack05_BS"],
          "angularSpeed": 120.0,
          "attackTrigger": "",
          "DGFCLAIDIFI": ""
        },
        {
          "$type": "IILHMBGONGM",
          "steerStateIDs": ["Attack05_Loop"],
          "endNormalizedTime": 0.550000011920929,
          "angularSpeed": 120.0,
          "attackTrigger": "",
          "DGFCLAIDIFI": ""
        },
        {
          "$type": "IILHMBGONGM",
          "steerStateIDs": ["Attack05_Loop"],
          "startNormalizedTime": 0.800000011920929,
          "angularSpeed": 90.0,
          "attackTrigger": "",
          "DGFCLAIDIFI": ""
        },
        {
          "$type": "IILHMBGONGM",
          "steerStateIDs": ["Attack05_Loop"],
          "startNormalizedTime": 1.0,
          "endNormalizedTime": 1.5499999523162842,
          "angularSpeed": 120.0,
          "attackTrigger": "",
          "DGFCLAIDIFI": ""
        },
        {
          "$type": "IILHMBGONGM",
          "steerStateIDs": ["Attack05_Loop"],
          "startNormalizedTime": 1.7999999523162842,
          "endNormalizedTime": 2.0,
          "angularSpeed": 90.0,
          "attackTrigger": "",
          "DGFCLAIDIFI": ""
        },
        {
          "$type": "IILHMBGONGM",
          "steerStateIDs": ["Attack05_Loop"],
          "startNormalizedTime": 2.0,
          "endNormalizedTime": 2.549999952316284,
          "angularSpeed": 120.0,
          "attackTrigger": "",
          "DGFCLAIDIFI": ""
        },
        {
          "$type": "IILHMBGONGM",
          "steerStateIDs": ["Attack05_Loop"],
          "startNormalizedTime": 2.799999952316284,
          "endNormalizedTime": 3.0,
          "angularSpeed": 90.0,
          "attackTrigger": "",
          "DGFCLAIDIFI": ""
        }
      ]
    }
  },
  {
    "Default": {
      "$type": "ConfigAbility",
      "abilityName": "Monster_ToothTrap_Attack01"
    }
  },
  {
    "Default": {
      "$type": "ConfigAbility",
      "abilityName": "Monster_ToothTrap_Attack02",
      "abilityMixins": [
        {
          "$type": "AttachToStateIDMixin",
          "stateIDs": ["Weak", "Attack02_Hit_BS", "Attack02_Hit_Loop"],
          "modifierName": "Attack02ClearGV",
          "DGFCLAIDIFI": ""
        },
        {
          "$type": "AttachModifierToGlobalValueMixin",
          "globalValueKey": "_ToothTrap_CrazySkill_",
          "valueSteps": [-0.5, 0.5, 1.5],
          "modifierNameSteps": ["Empty", "Attack02Dragonized"]
        },
        {
          "$type": "AttachToStateIDMixin",
          "stateIDs": ["Attack02_Hit_AS"],
          "modifierName": "Attack02Weak",
          "DGFCLAIDIFI": ""
        },
        {
          "$type": "AttachToStateIDMixin",
          "stateIDs": ["Attack02_Hit_Loop", "Attack02_Hit_AS"],
          "modifierName": "Attack02_Laser_AttackEffect",
          "DGFCLAIDIFI": ""
        },
        {
          "$type": "AttachToStateIDMixin",
          "stateIDs": ["Attack02_Hit_Loop"],
          "modifierName": "Attack02_Laser_Attack",
          "DGFCLAIDIFI": ""
        },
        {
          "$type": "AttachToStateIDMixin",
          "stateIDs": ["Attack02_Hit_BS"],
          "modifierName": "Attack02HandEffect",
          "DGFCLAIDIFI": ""
        },
        {
          "$type": "AttachToStateIDMixin",
          "stateIDs": [
            "Attack02_Hit_BS",
            "Attack02_Hit_Loop",
            "Attack02_Hit_AS"
          ],
          "modifierName": "Attack02BodyEffect",
          "DGFCLAIDIFI": ""
        }
      ],
      "modifiers": {
        "Empty": {
          "modifierName": "",
          "elementDurability": 100.0
        },
        "Attack02BodyEffect": {
          "modifierName": "",
          "elementDurability": 100.0,
          "onAdded": [
            {
              "$type": "AttachEffect",
              "rotationDampTime": "Eff_Monster_ToothTrap_CannonAttack_HandLeft3",
              "PPPDJGDDOGD": 1.0,
              "AJDILHJFNKE": -1.0
            },
            {
              "$type": "AttachEffect",
              "rotationDampTime": "Eff_Monster_ToothTrap_CannonAttack_HandRight3",
              "PPPDJGDDOGD": 1.0,
              "AJDILHJFNKE": -1.0
            },
            {
              "$type": "AttachEffect",
              "rotationDampTime": "Eff_Monster_ToothTrap_CannonAttack_ToohDown01_L",
              "PPPDJGDDOGD": 1.0,
              "AJDILHJFNKE": -1.0
            },
            {
              "$type": "AttachEffect",
              "rotationDampTime": "Eff_Monster_ToothTrap_CannonAttack_ToohDown01_R",
              "PPPDJGDDOGD": 1.0,
              "AJDILHJFNKE": -1.0
            },
            {
              "$type": "AttachEffect",
              "rotationDampTime": "Eff_Monster_ToothTrap_CannonAttack_ToothLeft",
              "PPPDJGDDOGD": 1.0,
              "AJDILHJFNKE": -1.0
            },
            {
              "$type": "AttachEffect",
              "rotationDampTime": "Eff_Monster_ToothTrap_CannonAttack_ToothRight",
              "PPPDJGDDOGD": 1.0,
              "AJDILHJFNKE": -1.0
            }
          ]
        },
        "Attack02HandEffect": {
          "modifierName": "",
          "elementDurability": 100.0,
          "onAdded": [
            {
              "$type": "AttachEffect",
              "rotationDampTime": "Eff_Monster_ToothTrap_CannonAttack_BS_HandRight",
              "born": {
                "$type": "ConfigBornByAttachPoint",
                "useRotation": true,
                "attachPointName": "HandRight"
              },
              "PPPDJGDDOGD": 1.0,
              "AJDILHJFNKE": -1.0,
              "setSelfAsEffectPluginTarget": true
            },
            {
              "$type": "AttachEffect",
              "rotationDampTime": "Eff_Monster_ToothTrap_CannonAttack_BS_HandLeft",
              "born": {
                "$type": "ConfigBornByAttachPoint",
                "useRotation": true,
                "attachPointName": "HandLeft"
              },
              "PPPDJGDDOGD": 1.0,
              "AJDILHJFNKE": -1.0,
              "setSelfAsEffectPluginTarget": true
            }
          ]
        },
        "Attack02Dragonized": {
          "modifierName": "",
          "elementDurability": 100.0,
          "onAdded": [
            {
              "$type": "AttachEffect",
              "rotationDampTime": "Eff_Monster_ToothTrap_Enhance",
              "PPPDJGDDOGD": 1.0,
              "AJDILHJFNKE": -1.0
            }
          ]
        },
        "Attack02Weak": {
          "modifierName": "",
          "elementDurability": 100.0,
          "onAdded": [
            {
              "$type": "SetGlobalValue",
              "value": 1.0,
              "key": "WeakAS",
              "maxValue": 0.0,
              "minValue": 0.0
            }
          ],
          "onRemoved": [
            {
              "$type": "SetGlobalValue",
              "value": 0.0,
              "key": "WeakAS",
              "maxValue": 0.0,
              "minValue": 0.0
            }
          ]
        },
        "Attack02ClearGV": {
          "modifierName": "",
          "elementDurability": 100.0,
          "onRemoved": [
            {
              "$type": "SetGlobalValue",
              "value": 0.0,
              "key": "_ToothTrap_CrazySkill_",
              "maxValue": 0.0,
              "minValue": 0.0
            },
            {
              "$type": "SetGlobalValue",
              "value": 0.0,
              "key": "_CHARGEBAR_VALUE",
              "maxValue": 0.0,
              "minValue": 0.0
            }
          ]
        },
        "Attack02_Laser_AttackEffect": {
          "modifierName": "",
          "elementDurability": 100.0,
          "onAdded": [
            {
              "$type": "AttachEffect",
              "rotationDampTime": "Eff_Monster_ToothTrap_CannonAttack_Bullet",
              "PPPDJGDDOGD": 1.0,
              "AJDILHJFNKE": -1.0
            }
          ]
        },
        "Attack02_Laser_Attack": {
          "modifierName": "",
          "elementDurability": 100.0,
          "thinkInterval": 0.4000000059604645,
          "onAdded": [
            {
              "$type": "TriggerAttackEvent",
              "attackEvent": {
                "attackPattern": {
                  "$type": "ConfigAttackBox",
                  "triggerType": "TriggerNoRepeat",
                  "born": {
                    "$type": "ConfigBornBySelf",
                    "offset": {
                      "x": 0.0,
                      "y": 1.7000000476837158,
                      "z": 0.5
                    },
                    "useRotation": true
                  },
                  "size": {
                    "x": 1.5,
                    "y": 1.2999999523162842,
                    "z": 30.0
                  }
                },
                "attackInfo": {
                  "attackTag": "",
                  "attenuationTag": "ToothTrap_Attack02",
                  "attenuationGroup": "ToothTrap_Attack02",
                  "attackProperty": {
                    "actorGrassSubHurtDelta": 1.0,
                    "actorWindSubHurtDelta": 0.0,
                    "elementType": "Fire",
                    "elementDurability": 25.0,
                    "strikeType": "Default",
                    "enBreak": 10.0,
                    "attackType": "Range",
                    "GLKMCMDJBIK": 0.0
                  },
                  "hitPattern": {
                    "onHitEffectName": "default",
                    "hitImpulseY": "",
                    "hitImpulseType": "LV1"
                  }
                }
              },
              "targetType": "Enemy"
            }
          ],
          "onRemoved": [
            {
              "$type": "SendEffectTrigger",
              "parameter": "LineEnd",
              "attachPoint": "",
              "rotationDampTime": "Eff_Monster_ToothTrap_CannonAttack_Bullet"
            },
            {
              "$type": "SendEffectTrigger",
              "parameter": "LineEnd",
              "attachPoint": "",
              "rotationDampTime": "Eff_Monster_ToothTrap_CannonAttack_HandLeft3"
            },
            {
              "$type": "SendEffectTrigger",
              "parameter": "LineEnd",
              "attachPoint": "",
              "rotationDampTime": "Eff_Monster_ToothTrap_CannonAttack_HandRight3"
            },
            {
              "$type": "SendEffectTrigger",
              "parameter": "LineEnd",
              "attachPoint": "",
              "rotationDampTime": "Eff_Monster_ToothTrap_CannonAttack_ToohDown01_L"
            },
            {
              "$type": "SendEffectTrigger",
              "parameter": "LineEnd",
              "attachPoint": "",
              "rotationDampTime": "Eff_Monster_ToothTrap_CannonAttack_ToohDown01_R"
            },
            {
              "$type": "SendEffectTrigger",
              "parameter": "LineEnd",
              "attachPoint": "",
              "rotationDampTime": "Eff_Monster_ToothTrap_CannonAttack_ToothLeft"
            },
            {
              "$type": "SendEffectTrigger",
              "parameter": "LineEnd",
              "attachPoint": "",
              "rotationDampTime": "Eff_Monster_ToothTrap_CannonAttack_ToothRight"
            }
          ],
          "onThinkInterval": [
            {
              "$type": "TriggerAttackEvent",
              "attackEvent": {
                "attackPattern": {
                  "$type": "ConfigAttackBox",
                  "triggerType": "TriggerNoRepeat",
                  "entityAttackFilter": "IgnoreSceneProp",
                  "born": {
                    "$type": "ConfigBornBySelf",
                    "offset": {
                      "x": 0.0,
                      "y": 1.7000000476837158,
                      "z": 0.5
                    },
                    "useRotation": true
                  },
                  "size": {
                    "x": 1.5,
                    "y": 1.2999999523162842,
                    "z": 30.0
                  }
                },
                "attackInfo": {
                  "attackTag": "",
                  "attenuationTag": "ToothTrap_Attack02",
                  "attenuationGroup": "ToothTrap_Attack02",
                  "attackProperty": {
                    "actorGrassSubHurtDelta": 1.0,
                    "actorWindSubHurtDelta": 0.0,
                    "elementType": "Fire",
                    "elementDurability": 25.0,
                    "strikeType": "Default",
                    "enBreak": 10.0,
                    "attackType": "Range",
                    "GLKMCMDJBIK": 0.0
                  },
                  "hitPattern": {
                    "onHitEffectName": "default",
                    "hitImpulseY": "",
                    "hitImpulseType": "LV1"
                  }
                }
              },
              "targetType": "Enemy"
            }
          ],
          "onChangeAuthority": [
            {
              "$type": "SendEffectTrigger",
              "parameter": "LineEnd",
              "attachPoint": "",
              "rotationDampTime": "Eff_Monster_ToothTrap_CannonAttack_Bullet"
            },
            {
              "$type": "SendEffectTrigger",
              "parameter": "LineEnd",
              "attachPoint": "",
              "rotationDampTime": "Eff_Monster_ToothTrap_CannonAttack_HandLeft3"
            },
            {
              "$type": "SendEffectTrigger",
              "parameter": "LineEnd",
              "attachPoint": "",
              "rotationDampTime": "Eff_Monster_ToothTrap_CannonAttack_HandRight3"
            },
            {
              "$type": "SendEffectTrigger",
              "parameter": "LineEnd",
              "attachPoint": "",
              "rotationDampTime": "Eff_Monster_ToothTrap_CannonAttack_ToohDown01_L"
            },
            {
              "$type": "SendEffectTrigger",
              "parameter": "LineEnd",
              "attachPoint": "",
              "rotationDampTime": "Eff_Monster_ToothTrap_CannonAttack_ToohDown01_R"
            },
            {
              "$type": "SendEffectTrigger",
              "parameter": "LineEnd",
              "attachPoint": "",
              "rotationDampTime": "Eff_Monster_ToothTrap_CannonAttack_ToothLeft"
            },
            {
              "$type": "SendEffectTrigger",
              "parameter": "LineEnd",
              "attachPoint": "",
              "rotationDampTime": "Eff_Monster_ToothTrap_CannonAttack_ToothRight"
            }
          ]
        }
      }
    }
  },
  {
    "Default": {
      "$type": "ConfigAbility",
      "abilityName": "Monster_ToothTrap_Attack03_BS",
      "modifiers": {
        "Attack03_HitBS": {
          "modifierName": "",
          "duration": 0.5,
          "elementDurability": 100.0,
          "onAdded": [
            {
              "$type": "SetGlobalPos",
              "target": "SelfAttackTarget",
              "key": "Attack03Pos",
              "born": {
                "$type": "ConfigBornByTarget",
                "onGround": true
              },
              "setTarget": false
            },
            {
              "$type": "FireEffect",
              "rotationDampTime": "Eff_Monster_ToothTrap_BombAttack_BulletBS",
              "born": {
                "$type": "ConfigBornByGlobalValue",
                "onGround": true,
                "direction": {
                  "$type": "ConfigDirectionByWorld",
                  "eularAngles": {
                    "x": 0.10000000149011612,
                    "y": 0.10000000149011612,
                    "z": 0.10000000149011612
                  }
                },
                "positionKey": "Attack03Pos",
                "directionKey": ""
              },
              "PPPDJGDDOGD": 1.0,
              "AJDILHJFNKE": -1.0
            }
          ]
        }
      },
      "onAbilityStart": [
        {
          "$type": "ApplyModifier",
          "modifierName": "Attack03_HitBS"
        }
      ]
    }
  },
  {
    "Default": {
      "$type": "ConfigAbility",
      "abilityName": "Monster_ToothTrap_Attack03",
      "abilityMixins": [
        {
          "$type": "AttachToStateIDMixin",
          "stateIDs": ["Attack03"],
          "modifierName": "Attack03HandEffect",
          "DGFCLAIDIFI": ""
        }
      ],
      "modifiers": {
        "Attack03HandEffect": {
          "modifierName": "",
          "elementDurability": 100.0,
          "onAdded": [
            {
              "$type": "AttachEffect",
              "rotationDampTime": "Eff_Monster_ToothTrap_BombAttack_BS_HandRight",
              "born": {
                "$type": "ConfigBornByAttachPoint",
                "useRotation": true,
                "attachPointName": "HandRight"
              },
              "PPPDJGDDOGD": 1.0,
              "AJDILHJFNKE": -1.0,
              "setSelfAsEffectPluginTarget": true
            },
            {
              "$type": "AttachEffect",
              "rotationDampTime": "Eff_Monster_ToothTrap_BombAttack_BS_HandLeft",
              "born": {
                "$type": "ConfigBornByAttachPoint",
                "useRotation": true,
                "attachPointName": "HandLeft"
              },
              "PPPDJGDDOGD": 1.0,
              "AJDILHJFNKE": -1.0,
              "setSelfAsEffectPluginTarget": true
            }
          ]
        },
        "Attack03_HitLogic": {
          "modifierName": "",
          "duration": 2.0,
          "elementDurability": 100.0,
          "thinkInterval": 0.5,
          "onAdded": [
            {
              "$type": "BGLDIBDIEDJ"
            }
          ],
          "onThinkInterval": [
            {
              "$type": "TriggerAttackEvent",
              "attackEvent": {
                "attackPattern": {
                  "$type": "ConfigAttackCircle",
                  "triggerType": "TriggerNoRepeat",
                  "entityAttackFilter": "IgnoreSceneProp",
                  "born": {
                    "$type": "ConfigBornByGlobalValue",
                    "offset": {
                      "y": 0.5
                    },
                    "direction": {
                      "$type": "ConfigDirectionByWorld",
                      "eularAngles": {
                        "x": 0.10000000149011612,
                        "y": 0.10000000149011612,
                        "z": 0.10000000149011612
                      }
                    },
                    "positionKey": "Attack03Pos",
                    "directionKey": ""
                  },
                  "height": 10.0,
                  "radius": 0.30000001192092896
                },
                "attackInfo": {
                  "attackTag": "",
                  "attenuationTag": "ToothTrap_Attack03",
                  "attenuationGroup": "ToothTrap_Attack03",
                  "attackProperty": {
                    "actorGrassSubHurtDelta": 0.699999988079071,
                    "actorWindSubHurtDelta": 0.0,
                    "elementType": "Fire",
                    "elementDurability": 25.0,
                    "strikeType": "Pierce",
                    "enBreak": 10.0,
                    "attackType": "Range",
                    "GLKMCMDJBIK": 0.0
                  },
                  "hitPattern": {
                    "onHitEffectName": "default",
                    "hitImpulseY": "",
                    "hitImpulseType": "LV1"
                  }
                }
              },
              "targetType": "Enemy"
            },
            {
              "$type": "TriggerAttackEvent",
              "attackEvent": {
                "attackPattern": {
                  "$type": "ConfigAttackCircle",
                  "triggerType": "TriggerNoRepeat",
                  "entityAttackFilter": "IgnoreSceneProp",
                  "born": {
                    "$type": "ConfigBornByGlobalValue",
                    "onGround": true,
                    "direction": {
                      "$type": "ConfigDirectionByWorld",
                      "eularAngles": {
                        "x": 0.10000000149011612,
                        "y": 0.10000000149011612,
                        "z": 0.10000000149011612
                      }
                    },
                    "positionKey": "Attack03Pos",
                    "directionKey": ""
                  },
                  "height": 0.5,
                  "radius": 4.0
                },
                "attackInfo": {
                  "attackTag": "",
                  "attenuationTag": "ToothTrap_Attack03",
                  "attenuationGroup": "ToothTrap_Attack03",
                  "attackProperty": {
                    "actorGrassSubHurtDelta": 0.699999988079071,
                    "actorWindSubHurtDelta": 0.0,
                    "elementType": "Fire",
                    "elementDurability": 25.0,
                    "strikeType": "Pierce",
                    "enBreak": 10.0,
                    "attackType": "Range",
                    "GLKMCMDJBIK": 0.0
                  },
                  "hitPattern": {
                    "onHitEffectName": "default",
                    "hitImpulseY": "",
                    "hitImpulseType": "LV1"
                  }
                }
              },
              "targetType": "Enemy"
            }
          ]
        },
        "Attack03_HitEffect": {
          "modifierName": "",
          "duration": 3.0,
          "elementDurability": 100.0,
          "onAdded": [
            {
              "$type": "AttachEffect",
              "rotationDampTime": "Eff_Monster_ToothTrap_BombAttack_BulletHit",
              "born": {
                "$type": "ConfigBornByGlobalValue",
                "onGround": true,
                "direction": {
                  "$type": "ConfigDirectionByWorld",
                  "eularAngles": {
                    "x": 0.10000000149011612,
                    "y": 0.10000000149011612,
                    "z": 0.10000000149011612
                  }
                },
                "positionKey": "Attack03Pos",
                "directionKey": ""
              },
              "PPPDJGDDOGD": 1.0,
              "AJDILHJFNKE": -1.0
            }
          ]
        }
      },
      "onAbilityStart": [
        {
          "$type": "ApplyModifier",
          "modifierName": "Attack03_HitEffect"
        },
        {
          "$type": "ApplyModifier",
          "modifierName": "Attack03_HitLogic"
        }
      ]
    }
  },
  {
    "Default": {
      "$type": "ConfigAbility",
      "abilityName": "Monster_ToothTrap_Attack04",
      "abilityMixins": [
        {
          "$type": "AttachToStateIDMixin",
          "stateIDs": ["Attack04_AS"],
          "modifierName": "Attack04HandEffect",
          "DGFCLAIDIFI": ""
        }
      ],
      "modifiers": {
        "Attack04HandEffect": {
          "modifierName": "",
          "elementDurability": 100.0,
          "onAdded": [
            {
              "$type": "AttachEffect",
              "rotationDampTime": "Eff_Monster_ToothTrap_Hit_BS_Bone_ToothRight",
              "born": {
                "$type": "ConfigBornByAttachPoint",
                "useRotation": true,
                "attachPointName": "Head"
              },
              "PPPDJGDDOGD": 1.0,
              "AJDILHJFNKE": -1.0,
              "setSelfAsEffectPluginTarget": true
            },
            {
              "$type": "AttachEffect",
              "rotationDampTime": "Eff_Monster_ToothTrap_Hit_BS_Bone_ToothLeft",
              "born": {
                "$type": "ConfigBornByAttachPoint",
                "useRotation": true,
                "attachPointName": "Head"
              },
              "PPPDJGDDOGD": 1.0,
              "AJDILHJFNKE": -1.0,
              "setSelfAsEffectPluginTarget": true
            }
          ]
        }
      }
    }
  },
  {
    "Default": {
      "$type": "ConfigAbility",
      "abilityName": "Monster_ToothTrap_Attack05",
      "abilityMixins": [
        {
          "$type": "AttachToNormalizedTimeMixin",
          "stateID": "Attack05_Loop",
          "modifierName": "Attack05StopCheck",
          "normalizeStart": 0.8899999856948853,
          "normalizeEnd": 2.0999999046325684,
          "DGFCLAIDIFI": ""
        }
      ],
      "modifiers": {
        "Attack05StopCheck": {
          "modifierName": "",
          "elementDurability": 100.0,
          "thinkInterval": 0.014999999664723873,
          "onThinkInterval": [
            {
              "$type": "Predicated",
              "target": "SelfAttackTarget",
              "targetPredicates": [
                {
                  "$type": "ByTargetPositionToSelfPosition",
                  "logic": "LesserOrEqual",
                  "value": 3.0,
                  "DDALGNLEHOD": ""
                }
              ],
              "successActions": [
                {
                  "$type": "SetAnimatorBool",
                  "boolID": "Attack05End",
                  "value": true
                }
              ],
              "failActions": [
                {
                  "$type": "SetAnimatorBool",
                  "boolID": "Attack05End"
                }
              ]
            }
          ]
        }
      }
    }
  },
  {
    "Default": {
      "$type": "ConfigAbility",
      "abilityName": "Monster_ToothTrap_Blink",
      "abilityMixins": [
        {
          "$type": "AttachToNormalizedTimeMixin",
          "stateID": "Attack04_BS",
          "modifierName": "BlinkShadowAfterImage0",
          "normalizeStart": 0.5600000023841858,
          "DGFCLAIDIFI": ""
        },
        {
          "$type": "AttachToNormalizedTimeMixin",
          "stateID": "Blink",
          "modifierName": "BlinkShadowAfterImage1",
          "normalizeStart": 0.10000000149011612,
          "normalizeEnd": 0.699999988079071,
          "DGFCLAIDIFI": ""
        },
        {
          "$type": "AttachToNormalizedTimeMixin",
          "stateID": "BlinkL",
          "modifierName": "BlinkShadowAfterImage1",
          "normalizeStart": 0.10000000149011612,
          "normalizeEnd": 0.699999988079071,
          "DGFCLAIDIFI": ""
        },
        {
          "$type": "AttachToNormalizedTimeMixin",
          "stateID": "BlinkR",
          "modifierName": "BlinkShadowAfterImage1",
          "normalizeStart": 0.10000000149011612,
          "normalizeEnd": 0.699999988079071,
          "DGFCLAIDIFI": ""
        },
        {
          "$type": "AttachToNormalizedTimeMixin",
          "stateID": "Blink",
          "modifierName": "BlinkLogic",
          "normalizeEnd": 0.10000000149011612,
          "DGFCLAIDIFI": ""
        },
        {
          "$type": "AttachToNormalizedTimeMixin",
          "stateID": "Attack04_BS",
          "modifierName": "BlinkLogicSkill",
          "normalizeStart": 0.75,
          "normalizeEnd": 0.800000011920929,
          "DGFCLAIDIFI": ""
        }
      ],
      "modifiers": {
        "BlinkShadowAfterImage0": {
          "modifierName": "",
          "elementDurability": 100.0,
          "onAdded": [
            {
              "$type": "EnableAfterImage",
              "enable": true
            }
          ],
          "onRemoved": [
            {
              "$type": "EnableAfterImage"
            }
          ]
        },
        "BlinkShadowAfterImage1": {
          "modifierName": "",
          "elementDurability": 100.0,
          "onAdded": [
            {
              "$type": "EnableAfterImage",
              "enable": true,
              "index": 1
            }
          ],
          "onRemoved": [
            {
              "$type": "EnableAfterImage",
              "index": 1
            }
          ]
        },
        "BlinkLogic": {
          "modifierName": "",
          "elementDurability": 100.0,
          "onAdded": [
            {
              "$type": "BHPDPACKKNI",
              "target": "SelfAttackTarget",
              "born": {
                "$type": "ConfigBornByTargetLinearPoint",
                "offset": {
                  "x": 0.0,
                  "y": 0.0,
                  "z": 0.0
                },
                "onGround": true,
                "direction": {
                  "$type": "ConfigDirectionByDefault",
                  "randomAngleHor": 30.0
                },
                "linearOffset": -6.5,
                "linearMin": 0.0,
                "linearMax": 40.0
              },
              "hitSceneType": "BlinkHitSceneTestByThreeSegments",
              "limitY": 2.5
            }
          ],
          "onRemoved": [
            {
              "$type": "PAGFCBCKEBH",
              "toPos": {
                "$type": "DNEKFAOHKBC",
                "useRotation": true
              },
              "NKPCHMCNNOK": 0.800000011920929,
              "maxRange": 50.0,
              "animatorStateIDs": ["Blink"],
              "overrideMoveCollider": ""
            }
          ]
        },
        "BlinkLogicSkill": {
          "modifierName": "",
          "elementDurability": 100.0,
          "onAdded": [
            {
              "$type": "BHPDPACKKNI",
              "target": "SelfAttackTarget",
              "born": {
                "$type": "ConfigBornByTargetLinearPoint",
                "offset": {
                  "x": 0.0,
                  "y": 0.0,
                  "z": 0.0
                },
                "onGround": true,
                "linearOffset": -7.0,
                "linearMin": 0.0,
                "linearMax": 40.0
              },
              "hitSceneType": "BlinkHitSceneTestByThreeSegments",
              "limitY": 2.5
            }
          ],
          "onRemoved": [
            {
              "$type": "PAGFCBCKEBH",
              "toPos": {
                "$type": "DNEKFAOHKBC",
                "useRotation": true
              },
              "NKPCHMCNNOK": 0.10000000149011612,
              "maxRange": 50.0,
              "animatorStateIDs": ["Attack04_BS"],
              "overrideMoveCollider": ""
            }
          ]
        }
      }
    }
  },
  {
    "Default": {
      "$type": "ConfigAbility",
      "abilityName": "Monster_ToothTrap_Personality",
      "abilityMixins": [
        {
          "$type": "AttachToStateIDMixin",
          "stateIDs": [
            "Personality_Loop",
            "Personality_AS",
            "Personality_Alert",
            "Personality_AlertTurn"
          ],
          "modifierName": "PersonalityLoopHandEffect",
          "DGFCLAIDIFI": ""
        },
        {
          "$type": "AttachToStateIDMixin",
          "stateIDs": [
            "Personality_AS",
            "Personality_Alert",
            "Personality_AlertTurn"
          ],
          "modifierName": "PersonalityLoopHandEffectEnd",
          "DGFCLAIDIFI": ""
        }
      ],
      "modifiers": {
        "PersonalityLoopHandEffectEnd": {
          "modifierName": "",
          "elementDurability": 100.0,
          "onAdded": [
            {
              "$type": "SendEffectTrigger",
              "parameter": "LineEnd",
              "attachPoint": "",
              "rotationDampTime": "Eff_Monster_ToothTrap_Personality1_Loop_L"
            },
            {
              "$type": "SendEffectTrigger",
              "parameter": "LineEnd",
              "attachPoint": "",
              "rotationDampTime": "Eff_Monster_ToothTrap_Personality1_Loop_R"
            }
          ]
        },
        "PersonalityLoopHandEffect": {
          "modifierName": "",
          "elementDurability": 100.0,
          "onAdded": [
            {
              "$type": "AttachEffect",
              "rotationDampTime": "Eff_Monster_ToothTrap_Personality1_Loop_L",
              "PPPDJGDDOGD": 1.0,
              "AJDILHJFNKE": -1.0
            },
            {
              "$type": "AttachEffect",
              "rotationDampTime": "Eff_Monster_ToothTrap_Personality1_Loop_R",
              "PPPDJGDDOGD": 1.0,
              "AJDILHJFNKE": -1.0
            }
          ]
        }
      }
    }
  }
]
