[
  {
    "Default": {
      "$type": "ConfigAbility",
      "abilityName": "Monster_Eremite_Female_Slim_PushDagger_Water_FightControl",
      "abilityMixins": [
        {
          "$type": "LEOGLBFIELL",
          "poseIDs": [1, 2, 901, 902, 903],
          "modifierName": "Eremite_OutFightState"
        },
        {
          "$type": "LEOGLBFIELL",
          "poseIDs": [101, 102, 111, 201, 301],
          "modifierName": "Eremite_InFightState"
        }
      ],
      "modifiers": {
        "Eremite_OutFightState": {
          "modifierName": "",
          "elementDurability": 100.0,
          "onAdded": [
            {
              "$type": "AddGlobalValue",
              "value": -10.0,
              "key": "_MONSTER_EREMITE_ISINFIGHT_",
              "useLimitRange": true,
              "maxValue": 1.0,
              "minValue": 0.0
            },
            {
              "$type": "RemoveModifier",
              "modifierName": "Eremite_InFightState"
            }
          ]
        },
        "Eremite_InFightState": {
          "modifierName": "",
          "elementDurability": 100.0,
          "onAdded": [
            {
              "$type": "AddGlobalValue",
              "value": 10.0,
              "key": "_MONSTER_EREMITE_ISINFIGHT_",
              "useLimitRange": true,
              "maxValue": 1.0,
              "minValue": 0.0
            },
            {
              "$type": "RemoveModifier",
              "modifierName": "Eremite_OutFightState"
            }
          ]
        }
      },
      "onAdded": [
        {
          "$type": "SetGlobalValue",
          "value": 0.0,
          "key": "_MONSTER_EREMITE_IMPROVED_",
          "useLimitRange": true,
          "maxValue": 1.0,
          "minValue": 0.0
        },
        {
          "$type": "SetGlobalValue",
          "value": 0.0,
          "key": "_MONSTER_EREMITE_OUTIMPROVED",
          "useLimitRange": true,
          "maxValue": 1.0,
          "minValue": 0.0
        },
        {
          "$type": "SetGlobalValue",
          "value": 0.0,
          "key": "_MONSTER_EREMITE_IMPROVED_COUNT_",
          "useLimitRange": true,
          "maxValue": 99.0,
          "minValue": 0.0
        },
        {
          "$type": "SetGlobalValue",
          "value": 0.0,
          "key": "_MONSTER_EREMITE_ISINFIGHT_",
          "useLimitRange": true,
          "maxValue": 1.0,
          "minValue": 0.0
        },
        {
          "$type": "SetGlobalValue",
          "value": 0.0,
          "key": "_MONSTER_EREMITE_WEAK_",
          "useLimitRange": true,
          "maxValue": 1.0,
          "minValue": 0.0
        },
        {
          "$type": "SetGlobalValue",
          "value": 0.0,
          "key": "_MONSTER_EREMITE_RETURNTOBORN_",
          "useLimitRange": true,
          "maxValue": 1.0,
          "minValue": 0.0
        }
      ]
    }
  },
  {
    "Default": {
      "$type": "ConfigAbility",
      "abilityName": "Monster_Eremite_Female_Slim_PushDagger_Water_Alert",
      "onAbilityStart": [
        {
          "$type": "GFFKENEJFFB",
          "intID": "FreePoseMark"
        }
      ]
    }
  },
  {
    "Default": {
      "$type": "ConfigAbility",
      "abilityName": "Monster_Eremite_Female_Slim_PushDagger_Water_Improve",
      "abilityMixins": [
        {
          "$type": "AttachModifierToSelfGlobalValueMixin",
          "globalValueKey": "_MONSTER_EREMITE_IMPROVED_",
          "gvInTalk": 0.0,
          "valueSteps": [-0.5, 0.5, 1.5],
          "modifierNameSteps": ["Eremite_NormalState", "Eremite_ImproveState"]
        },
        {
          "$type": "AttachModifierToSelfGlobalValueMixin",
          "globalValueKey": "_MONSTER_EREMITE_WEAK_",
          "gvInTalk": 0.0,
          "valueSteps": [-0.5, 0.5, 1.5],
          "modifierNameSteps": ["Eremite_IsNotWeak", "Eremite_IsWeak"]
        },
        {
          "$type": "AttachModifierToSelfGlobalValueMixin",
          "globalValueKey": "_MONSTER_EREMITE_OUTIMPROVED",
          "gvInTalk": 0.0,
          "valueSteps": [-0.5, 0.5, 1.5],
          "modifierNameSteps": [
            "Eremite_ISNotOutImproved",
            "Eremite_IsOutImproved"
          ]
        },
        {
          "$type": "LAPMOOFOPBM",
          "valueSteps": [0.699999988079071],
          "modifierNameSteps": ["Empty", "UNIQUE_Eremite_Force_ImproveState"]
        },
        {
          "$type": "LEOGLBFIELL",
          "poseIDs": [1, 2],
          "modifierName": "ResetMonsterSkill"
        },
        {
          "$type": "APJKOLPHCGH",
          "stateIDs": ["Die", "Die_RagDoll"],
          "enterActions": [
            {
              "$type": "RemoveModifier",
              "modifierName": "Eremite_Improve_Effect"
            },
            {
              "$type": "RemoveUniqueModifier",
              "modifierName": "UNIQUE_Eremite_Effect"
            },
            {
              "$type": "RemoveUniqueModifier",
              "modifierName": "UNIQUE_Eremite_Effect02"
            }
          ],
          "DGFCLAIDIFI": ""
        },
        {
          "$type": "AttachToStateIDMixin",
          "stateIDs": ["Improve"],
          "modifierName": "Improve_AddEndure",
          "DGFCLAIDIFI": ""
        },
        {
          "$type": "LEOGLBFIELL",
          "poseIDs": [201],
          "modifierName": "Improve_AddEndure"
        }
      ],
      "abilitySpecials": {
        "Eremite_Max_HP": 0.0
      },
      "modifiers": {
        "Improve_AddEndure": {
          "modifierName": "",
          "elementDurability": 100.0,
          "properties": {
            "Actor_EndureDelta": 0.0,
            "Entity_WeightRatio": 5.0
          }
        },
        "Empty": {
          "modifierName": "",
          "elementDurability": 100.0
        },
        "UNIQUE_Eremite_Force_ImproveState": {
          "stacking": "Unique",
          "modifierName": "",
          "forceTriggerWhenChangeAuthority": true,
          "elementDurability": 100.0,
          "onAdded": [
            {
              "$type": "IDNGFEEBPAM",
              "canBeHandledOnRecover": true,
              "predicates": [
                {
                  "$type": "ByTargetGlobalValue",
                  "target": "Self",
                  "key": "_MONSTER_EREMITE_IMPROVED_COUNT_",
                  "value": 0.0,
                  "compareType": "NoneOrEqual"
                }
              ],
              "boolID": "ForceImprove",
              "value": true
            },
            {
              "$type": "IPMMJGMONCI",
              "skillIDs": [401]
            }
          ],
          "onRemoved": [
            {
              "$type": "IDNGFEEBPAM",
              "boolID": "ForceImprove"
            }
          ]
        },
        "Eremite_NormalState": {
          "modifierName": "",
          "elementDurability": 100.0,
          "onAdded": [
            {
              "$type": "IDNGFEEBPAM",
              "canBeHandledOnRecover": true,
              "boolID": "ImproveState"
            },
            {
              "$type": "RemoveModifier",
              "modifierName": "Eremite_ImproveState"
            }
          ]
        },
        "Eremite_ImproveState": {
          "modifierName": "",
          "elementDurability": 100.0,
          "onAdded": [
            {
              "$type": "IDNGFEEBPAM",
              "canBeHandledOnRecover": true,
              "boolID": "ImproveState",
              "value": true
            },
            {
              "$type": "RemoveModifier",
              "modifierName": "Eremite_NormalState"
            }
          ]
        },
        "Eremite_IsNotWeak": {
          "modifierName": "",
          "elementDurability": 100.0,
          "onAdded": [
            {
              "$type": "IDNGFEEBPAM",
              "canBeHandledOnRecover": true,
              "boolID": "WeakState"
            },
            {
              "$type": "RemoveModifier",
              "modifierName": "Eremite_IsWeak"
            }
          ]
        },
        "Eremite_IsWeak": {
          "modifierName": "",
          "elementDurability": 100.0,
          "onAdded": [
            {
              "$type": "IDNGFEEBPAM",
              "canBeHandledOnRecover": true,
              "boolID": "WeakState",
              "value": true
            },
            {
              "$type": "RemoveModifier",
              "modifierName": "Eremite_IsNotWeak"
            }
          ]
        },
        "UNIQUE_Eremite_ImproveState_Properties": {
          "stacking": "Unique",
          "modifierName": "",
          "forceTriggerWhenChangeAuthority": true,
          "duration": 20.0,
          "elementDurability": 100.0,
          "properties": {
            "Actor_EndureDelta": 0.0,
            "Entity_WeightRatio": 5.0
          },
          "onAdded": [
            {
              "$type": "AddGlobalValue",
              "canBeHandledOnRecover": true,
              "value": 10.0,
              "key": "_MONSTER_EREMITE_IMPROVED_",
              "useLimitRange": true,
              "maxValue": 1.0,
              "minValue": 0.0
            },
            {
              "$type": "AddGlobalValue",
              "canBeHandledOnRecover": true,
              "value": -10.0,
              "key": "_MONSTER_EREMITE_RECOVER_",
              "useLimitRange": true,
              "maxValue": 1.0,
              "minValue": 0.0
            },
            {
              "$type": "AddGlobalValue",
              "value": 1.0,
              "key": "_MONSTER_EREMITE_IMPROVED_COUNT_",
              "useLimitRange": true,
              "maxValue": 99.0,
              "minValue": 0.0
            },
            {
              "$type": "OHPMBBJIJFG",
              "canBeHandledOnRecover": true
            },
            {
              "$type": "AttachModifier",
              "modifierName": "Eremite_Improve_Effect"
            },
            {
              "$type": "AttachModifier",
              "modifierName": "Eremite_ASHintEffect02"
            },
            {
              "$type": "AttachModifier",
              "modifierName": "Eremite_ASHintEffect01"
            }
          ],
          "onRemoved": [
            {
              "$type": "SetAnimatorTrigger",
              "shieldHP": true,
              "predicates": [
                {
                  "$type": "ByTargetGlobalValue",
                  "target": "Self",
                  "key": "_MONSTER_EREMITE_RETURNTOBORN_",
                  "value": 0.0
                }
              ],
              "triggerID": "Weak"
            },
            {
              "$type": "RemoveModifier",
              "modifierName": "Eremite_Improve_Effect"
            },
            {
              "$type": "RemoveUniqueModifier",
              "modifierName": "UNIQUE_Eremite_Effect"
            },
            {
              "$type": "RemoveUniqueModifier",
              "modifierName": "UNIQUE_Eremite_Effect02"
            },
            {
              "$type": "AddGlobalValue",
              "canBeHandledOnRecover": true,
              "value": -10.0,
              "key": "_MONSTER_EREMITE_IMPROVED_",
              "useLimitRange": true,
              "maxValue": 1.0,
              "minValue": 0.0
            },
            {
              "$type": "AddGlobalValue",
              "canBeHandledOnRecover": true,
              "value": 10.0,
              "key": "_MONSTER_EREMITE_WEAK_",
              "useLimitRange": true,
              "maxValue": 1.0,
              "minValue": 0.0
            },
            {
              "$type": "RemoveUniqueModifier",
              "modifierName": "UNIQUE_Eremite_Force_ImproveState"
            },
            {
              "$type": "OHPMBBJIJFG",
              "canBeHandledOnRecover": true,
              "value": 2.0
            }
          ]
        },
        "RemoveImproveState": {
          "modifierName": "",
          "elementDurability": 100.0,
          "state": "Invincible",
          "onAdded": [
            {
              "$type": "AddGlobalValue",
              "value": 10.0,
              "key": "_MOSNTER_EREMITE_RETURNTOBORN_",
              "useLimitRange": true,
              "maxValue": 1.0,
              "minValue": 0.0
            },
            {
              "$type": "RemoveUniqueModifier",
              "modifierName": "UNIQUE_Eremite_ImproveState_Properties"
            }
          ],
          "onRemoved": [
            {
              "$type": "AddGlobalValue",
              "value": -10.0,
              "key": "_MOSNTER_EREMITE_RETURNTOBORN_",
              "useLimitRange": true,
              "maxValue": 1.0,
              "minValue": 0.0
            }
          ]
        },
        "ResetMonsterSkill": {
          "modifierName": "",
          "elementDurability": 100.0,
          "onAdded": [
            {
              "$type": "AddGlobalValue",
              "value": -99.0,
              "key": "_MONSTER_EREMITE_IMPROVED_COUNT_",
              "useLimitRange": true,
              "maxValue": 99.0,
              "minValue": 0.0
            },
            {
              "$type": "IPMMJGMONCI",
              "skillIDs": [401]
            }
          ]
        },
        "Eremite_Improve_Effect": {
          "modifierName": "",
          "elementDurability": 100.0,
          "onAdded": [
            {
              "$type": "AttachEffect",
              "rotationDampTime": "Eff_Monster_Eremite_Female_Slim_PushDagger_Water_Improve_Loop01",
              "PPPDJGDDOGD": 1.0,
              "AJDILHJFNKE": -1.0
            },
            {
              "$type": "AttachEffect",
              "rotationDampTime": "Eff_Monster_Eremite_Female_Slim_PushDagger_Water_Improve_Loop02",
              "PPPDJGDDOGD": 1.0,
              "AJDILHJFNKE": -1.0
            },
            {
              "$type": "AttachEffect",
              "rotationDampTime": "Eff_Monster_Eremite_Female_Slim_PushDagger_Water_Improve_Loop03",
              "PPPDJGDDOGD": 1.0,
              "AJDILHJFNKE": -1.0
            }
          ]
        },
        "Eremite_IsOutImproved": {
          "modifierName": "",
          "elementDurability": 100.0,
          "onAdded": [
            {
              "$type": "IDNGFEEBPAM",
              "canBeHandledOnRecover": true,
              "boolID": "OutImproved",
              "value": true
            },
            {
              "$type": "RemoveModifier",
              "modifierName": "Eremite_ISNotOutImproved"
            }
          ]
        },
        "Eremite_ISNotOutImproved": {
          "modifierName": "",
          "elementDurability": 100.0,
          "onAdded": [
            {
              "$type": "IDNGFEEBPAM",
              "canBeHandledOnRecover": true,
              "boolID": "OutImproved"
            },
            {
              "$type": "RemoveModifier",
              "modifierName": "Eremite_IsOutImproved"
            }
          ]
        },
        "Eremite_ASHintEffect02": {
          "modifierName": "",
          "elementDurability": 100.0,
          "thinkInterval": 18.200000762939453,
          "onThinkInterval": [
            {
              "$type": "AttachEffect",
              "rotationDampTime": "Eff_Monster_Eremite_Female_Slim_PushDagger_Water_Improve_ASHint",
              "PPPDJGDDOGD": 1.0,
              "AJDILHJFNKE": -1.0
            }
          ]
        },
        "Eremite_ASHintEffect01": {
          "modifierName": "",
          "elementDurability": 100.0,
          "thinkInterval": 15.0,
          "onThinkInterval": [
            {
              "$type": "AttachEffect",
              "rotationDampTime": "Eff_Monster_Eremite_Female_Slim_PushDagger_Water_Improve_ASHint02",
              "PPPDJGDDOGD": 1.0,
              "AJDILHJFNKE": -1.0
            }
          ]
        }
      },
      "onAbilityStart": [
        {
          "$type": "AttachModifier",
          "modifierName": "UNIQUE_Eremite_ImproveState_Properties"
        }
      ]
    }
  },
  {
    "Default": {
      "$type": "ConfigAbility",
      "abilityName": "Monster_Eremite_Female_Slim_PushDagger_Water_Improve_Die",
      "onAbilityStart": [
        {
          "$type": "RemoveUniqueModifier",
          "modifierName": "UNIQUE_Eremite_ImproveState_Properties"
        }
      ]
    }
  },
  {
    "Default": {
      "$type": "ConfigAbility",
      "abilityName": "Monster_Eremite_Female_Slim_PushDagger_Water_Improve_Effect",
      "modifiers": {
        "UNIQUE_Eremite_Effect": {
          "stacking": "Unique",
          "modifierName": "",
          "forceTriggerWhenChangeAuthority": true,
          "elementDurability": 100.0,
          "onAdded": [
            {
              "$type": "AttachEffect",
              "rotationDampTime": "Eff_Monster_Eremite_Female_Slim_PushDagger_Water_Improve_BS01",
              "PPPDJGDDOGD": 1.0,
              "AJDILHJFNKE": -1.0
            }
          ]
        }
      },
      "onAbilityStart": [
        {
          "$type": "ApplyModifier",
          "modifierName": "UNIQUE_Eremite_Effect"
        }
      ]
    }
  },
  {
    "Default": {
      "$type": "ConfigAbility",
      "abilityName": "Monster_Eremite_Female_Slim_PushDagger_Water_Improve_Effect02",
      "modifiers": {
        "UNIQUE_Eremite_Effect02": {
          "stacking": "Unique",
          "modifierName": "",
          "forceTriggerWhenChangeAuthority": true,
          "elementDurability": 100.0,
          "onAdded": [
            {
              "$type": "AttachEffect",
              "rotationDampTime": "Eff_Monster_Eremite_Female_Slim_PushDagger_Water_Improve_BS02",
              "PPPDJGDDOGD": 1.0,
              "AJDILHJFNKE": -1.0
            },
            {
              "$type": "AttachEffect",
              "rotationDampTime": "Eff_Monster_Eremite_Female_Slim_PushDagger_Water_Improve_BS03",
              "PPPDJGDDOGD": 1.0,
              "AJDILHJFNKE": -1.0
            }
          ]
        }
      },
      "onAbilityStart": [
        {
          "$type": "ApplyModifier",
          "modifierName": "UNIQUE_Eremite_Effect02"
        }
      ]
    }
  },
  {
    "Default": {
      "$type": "ConfigAbility",
      "abilityName": "Monster_Eremite_Female_Slim_PushDagger_Water_Weak",
      "abilityMixins": [
        {
          "$type": "LEOGLBFIELL",
          "poseIDs": [301],
          "modifierName": "WeakState"
        }
      ],
      "modifiers": {
        "WeakState": {
          "modifierName": "",
          "duration": 8.0,
          "elementDurability": 100.0,
          "modifierMixins": [
            {
              "$type": "AttachModifierToSelfGlobalValueMixin",
              "globalValueKey": "_MONSTER_EREMITE_RECOVER_",
              "gvInTalk": 0.0,
              "valueSteps": [-0.5, 0.5, 1.5],
              "modifierNameSteps": ["Empty", "Recover"]
            }
          ],
          "properties": {
            "Actor_WaterSubHurtDelta": -0.6000000238418579,
            "Actor_EndureDelta": 0.0
          },
          "onAdded": [
            {
              "$type": "FireEffect",
              "rotationDampTime": "Eff_Monster_Eremite_Female_Slim_PushDagger_Water_Improve_AS01",
              "PPPDJGDDOGD": 1.0,
              "AJDILHJFNKE": -1.0
            },
            {
              "$type": "AttachEffect",
              "rotationDampTime": "Eff_Avatar_Properties_Defense_Down",
              "PPPDJGDDOGD": 1.0,
              "AJDILHJFNKE": -1.0
            },
            {
              "$type": "AddGlobalValue",
              "canBeHandledOnRecover": true,
              "value": 10.0,
              "key": "_MONSTER_EREMITE_WEAK_",
              "useLimitRange": true,
              "maxValue": 1.0,
              "minValue": 0.0
            },
            {
              "$type": "AddGlobalValue",
              "canBeHandledOnRecover": true,
              "value": -10.0,
              "key": "_MONSTER_EREMITE_RECOVER_",
              "useLimitRange": true,
              "maxValue": 1.0,
              "minValue": 0.0
            }
          ],
          "onRemoved": [
            {
              "$type": "AddGlobalValue",
              "canBeHandledOnRecover": true,
              "value": 10.0,
              "key": "_MONSTER_EREMITE_RECOVER_",
              "useLimitRange": true,
              "maxValue": 1.0,
              "minValue": 0.0
            },
            {
              "$type": "AddGlobalValue",
              "canBeHandledOnRecover": true,
              "value": -10.0,
              "key": "_MONSTER_EREMITE_WEAK_",
              "useLimitRange": true,
              "maxValue": 1.0,
              "minValue": 0.0
            },
            {
              "$type": "SetGlobalValue",
              "canBeHandledOnRecover": true,
              "value": 1.0,
              "key": "_MONSTER_EREMITE_OUTIMPROVED",
              "useLimitRange": true,
              "maxValue": 1.0,
              "minValue": 0.0
            },
            {
              "$type": "DOANGHCALGB",
              "skillIDs": [402]
            }
          ],
          "onChangeAuthority": [
            {
              "$type": "AddGlobalValue",
              "canBeHandledOnRecover": true,
              "value": 10.0,
              "key": "_MONSTER_EREMITE_WEAK_",
              "useLimitRange": true,
              "maxValue": 1.0,
              "minValue": 0.0
            },
            {
              "$type": "AddGlobalValue",
              "canBeHandledOnRecover": true,
              "value": -10.0,
              "key": "_MONSTER_EREMITE_RECOVER_",
              "useLimitRange": true,
              "maxValue": 1.0,
              "minValue": 0.0
            }
          ]
        },
        "Empty": {
          "modifierName": "",
          "elementDurability": 100.0
        },
        "Recover": {
          "modifierName": "",
          "elementDurability": 100.0,
          "onAdded": [
            {
              "$type": "SetAnimatorTrigger",
              "triggerID": "Recover"
            }
          ]
        }
      }
    }
  },
  {
    "Default": {
      "$type": "ConfigAbility",
      "abilityName": "Monster_Eremite_Female_Slim_PushDagger_Water_WeaponOnback",
      "abilityMixins": [
        {
          "$type": "LEOGLBFIELL",
          "poseIDs": [1, 2, 901, 902, 903, 9003],
          "modifierName": "UNIQUE_WeaponOnBack_Equip"
        }
      ],
      "modifiers": {
        "UNIQUE_WeaponOnBack_Equip": {
          "modifierName": "",
          "forceTriggerWhenChangeAuthority": true,
          "elementDurability": 100.0,
          "onAdded": [
            {
              "$type": "JLJCNEBNINA",
              "partName": "equip01",
              "realName": "WeaponOnBackL"
            },
            {
              "$type": "JLJCNEBNINA",
              "partName": "equip02",
              "realName": "WeaponOnBackL"
            }
          ]
        }
      },
      "onAbilityStart": [
        {
          "$type": "ApplyModifier",
          "modifierName": "UNIQUE_WeaponOnBack_Equip"
        }
      ]
    }
  },
  {
    "Default": {
      "$type": "ConfigAbility",
      "abilityName": "Monster_Eremite_Female_Slim_PushDagger_Water_DrawWeapon",
      "abilityMixins": [
        {
          "$type": "DIDNLIKKLLF",
          "stateIDs": ["Hit_H", "Hit_L", "HitThrow"],
          "enterActions": [
            {
              "$type": "TriggerAbility",
              "abilityName": "Monster_Eremite_Female_Slim_PushDagger_Water_Alert"
            },
            {
              "$type": "AddGlobalValue",
              "value": 10.0,
              "key": "_MONSTER_EREMITE_SHEATH_WEAPON",
              "useLimitRange": true,
              "maxValue": 1.0,
              "minValue": 0.0
            }
          ],
          "DGFCLAIDIFI": ""
        },
        {
          "$type": "AttachToStateIDMixin",
          "stateIDs": ["Alert"],
          "modifierName": "Reconnect_DrawWeapon",
          "DGFCLAIDIFI": ""
        },
        {
          "$type": "AttachToStateIDMixin",
          "stateIDs": ["Struggle"],
          "modifierName": "DrawWeapon",
          "DGFCLAIDIFI": ""
        },
        {
          "$type": "LEOGLBFIELL",
          "poseIDs": [101],
          "modifierName": "Reconnect_DrawWeapon"
        },
        {
          "$type": "AttachModifierToSelfGlobalValueMixin",
          "globalValueKey": "_MONSTER_EREMITE_SHEATH_WEAPON",
          "gvInTalk": 0.0,
          "valueSteps": [-0.5, 0.5, 1.5],
          "modifierNameSteps": ["UNIQUE_SheathWeapon", "UNIQUE_DrawWeapon"]
        }
      ],
      "modifiers": {
        "UNIQUE_DrawWeapon": {
          "stacking": "Unique",
          "modifierName": "",
          "forceTriggerWhenChangeAuthority": true,
          "elementDurability": 100.0,
          "onAdded": [
            {
              "$type": "RemoveUniqueModifier",
              "modifierName": "UNIQUE_SheathWeapon"
            },
            {
              "$type": "JLJCNEBNINA",
              "canBeHandledOnRecover": true,
              "partName": "equip01",
              "realName": ""
            },
            {
              "$type": "JLJCNEBNINA",
              "canBeHandledOnRecover": true,
              "partName": "equip02",
              "realName": ""
            }
          ]
        },
        "UNIQUE_SheathWeapon": {
          "stacking": "Unique",
          "modifierName": "",
          "forceTriggerWhenChangeAuthority": true,
          "elementDurability": 100.0,
          "onAdded": [
            {
              "$type": "RemoveUniqueModifier",
              "modifierName": "UNIQUE_DrawWeapon"
            },
            {
              "$type": "JLJCNEBNINA",
              "canBeHandledOnRecover": true,
              "partName": "equip01",
              "realName": "WeaponOnBackR"
            },
            {
              "$type": "JLJCNEBNINA",
              "canBeHandledOnRecover": true,
              "partName": "equip02",
              "realName": "WeaponOnBackL"
            }
          ]
        },
        "Reconnect_DrawWeapon": {
          "modifierName": "",
          "duration": 2.0,
          "elementDurability": 100.0,
          "onRemoved": [
            {
              "$type": "AddGlobalValue",
              "value": 10.0,
              "key": "_MONSTER_EREMITE_SHEATH_WEAPON",
              "useLimitRange": true,
              "maxValue": 1.0,
              "minValue": 0.0
            }
          ]
        },
        "DrawWeapon": {
          "modifierName": "",
          "elementDurability": 100.0,
          "onAdded": [
            {
              "$type": "SetGlobalValue",
              "canBeHandledOnRecover": true,
              "value": 1.0,
              "key": "_MONSTER_EREMITE_SHEATH_WEAPON",
              "useLimitRange": true,
              "maxValue": 1.0,
              "minValue": 0.0
            }
          ]
        }
      },
      "onAdded": [
        {
          "$type": "SetGlobalValue",
          "value": 0.0,
          "key": "_MONSTER_EREMITE_SHEATH_WEAPON",
          "useLimitRange": true,
          "maxValue": 1.0,
          "minValue": 0.0
        }
      ],
      "onAbilityStart": [
        {
          "$type": "AddGlobalValue",
          "value": 10.0,
          "key": "_MONSTER_EREMITE_SHEATH_WEAPON",
          "useLimitRange": true,
          "maxValue": 1.0,
          "minValue": 0.0
        }
      ]
    }
  },
  {
    "Default": {
      "$type": "ConfigAbility",
      "abilityName": "Monster_Eremite_Female_Slim_PushDagger_Water_SheathWeapon",
      "abilityMixins": [
        {
          "$type": "AttachToStateIDMixin",
          "stateIDs": ["SheathWeapon"],
          "modifierName": "Reconnect_SheathWeapon",
          "DGFCLAIDIFI": ""
        }
      ],
      "modifiers": {
        "Reconnect_SheathWeapon": {
          "modifierName": "",
          "elementDurability": 100.0,
          "onRemoved": [
            {
              "$type": "AddGlobalValue",
              "value": -10.0,
              "key": "_MONSTER_EREMITE_SHEATH_WEAPON",
              "useLimitRange": true,
              "maxValue": 1.0,
              "minValue": 0.0
            }
          ]
        }
      },
      "onAbilityStart": [
        {
          "$type": "AddGlobalValue",
          "value": -10.0,
          "key": "_MONSTER_EREMITE_SHEATH_WEAPON",
          "useLimitRange": true,
          "maxValue": 1.0,
          "minValue": 0.0
        }
      ]
    }
  },
  {
    "Default": {
      "$type": "ConfigAbility",
      "abilityName": "Monster_Eremite_Female_Slim_PushDagger_Water_HideWeapon",
      "abilityMixins": [
        {
          "$type": "AttachToStateIDMixin",
          "stateIDs": ["Lie", "Sit_Loop"],
          "modifierName": "HideWeapon",
          "DGFCLAIDIFI": ""
        }
      ],
      "modifiers": {
        "HideWeapon": {
          "modifierName": "",
          "elementDurability": 100.0,
          "onAdded": [
            {
              "$type": "SetGlobalValue",
              "canBeHandledOnRecover": true,
              "value": 1.0,
              "key": "_MONSTER_EREMITE_HIDE_WEAPON",
              "useLimitRange": true,
              "maxValue": 1.0,
              "minValue": 0.0
            }
          ],
          "onRemoved": [
            {
              "$type": "SetGlobalValue",
              "canBeHandledOnRecover": true,
              "value": 0.0,
              "key": "_MONSTER_EREMITE_HIDE_WEAPON",
              "useLimitRange": true,
              "maxValue": 1.0,
              "minValue": 0.0
            }
          ]
        }
      },
      "onAdded": [
        {
          "$type": "SetGlobalValue",
          "value": 0.0,
          "key": "_MONSTER_EREMITE_HIDE_WEAPON",
          "useLimitRange": true,
          "maxValue": 1.0,
          "minValue": 0.0
        }
      ],
      "onAbilityStart": [
        {
          "$type": "AddGlobalValue",
          "value": 10.0,
          "key": "_MONSTER_EREMITE_SHEATH_HIDEWEAPON",
          "useLimitRange": true,
          "maxValue": 1.0,
          "minValue": 0.0
        }
      ]
    }
  },
  {
    "Default": {
      "$type": "ConfigAbility",
      "abilityName": "Monster_Eremite_Female_Slim_PushDagger_Water_UnhideWeapon",
      "onAbilityStart": [
        {
          "$type": "AddGlobalValue",
          "value": -10.0,
          "key": "_MONSTER_EREMITE_HIDE_WEAPON",
          "useLimitRange": true,
          "maxValue": 1.0,
          "minValue": 0.0
        }
      ]
    }
  },
  {
    "Default": {
      "$type": "ConfigAbility",
      "abilityName": "Monster_Eremite_Female_Slim_PushDagger_Water_SteerControl",
      "abilityMixins": [
        {
          "$type": "IILHMBGONGM",
          "steerStateIDs": ["Turn"],
          "endNormalizedTime": 99.0,
          "angularSpeed": 150.0,
          "attackTrigger": "",
          "attackDistance": 2.0,
          "DGFCLAIDIFI": ""
        },
        {
          "$type": "IILHMBGONGM",
          "steerStateIDs": ["Alert"],
          "startNormalizedTime": 0.10000000149011612,
          "endNormalizedTime": 0.6000000238418579,
          "angularSpeed": 90.0,
          "attackTrigger": "",
          "attackDistance": 2.0,
          "DGFCLAIDIFI": ""
        },
        {
          "$type": "IILHMBGONGM",
          "steerStateIDs": ["Sit_Alert"],
          "startNormalizedTime": 0.10000000149011612,
          "endNormalizedTime": 0.6000000238418579,
          "angularSpeed": 90.0,
          "attackTrigger": "",
          "attackDistance": 2.0,
          "DGFCLAIDIFI": ""
        },
        {
          "$type": "IILHMBGONGM",
          "steerStateIDs": ["Squat_Alert"],
          "startNormalizedTime": 0.10000000149011612,
          "endNormalizedTime": 0.6000000238418579,
          "angularSpeed": 150.0,
          "attackTrigger": "",
          "attackDistance": 2.0,
          "DGFCLAIDIFI": ""
        },
        {
          "$type": "IILHMBGONGM",
          "steerStateIDs": ["Improve"],
          "angularSpeed": 90.0,
          "attackTrigger": "",
          "attackDistance": 2.0,
          "DGFCLAIDIFI": ""
        },
        {
          "$type": "IILHMBGONGM",
          "steerStateIDs": ["NormalAtk01"],
          "angularSpeed": 90.0,
          "attackTrigger": "",
          "attackDistance": 2.0,
          "DGFCLAIDIFI": ""
        },
        {
          "$type": "IILHMBGONGM",
          "steerStateIDs": ["MeleeAttackBS"],
          "angularSpeed": 150.0,
          "attackTrigger": "",
          "attackDistance": 2.0,
          "DGFCLAIDIFI": ""
        },
        {
          "$type": "IILHMBGONGM",
          "steerStateIDs": ["MeleeAttackBS02"],
          "angularSpeed": 150.0,
          "attackTrigger": "",
          "attackDistance": 2.0,
          "DGFCLAIDIFI": ""
        },
        {
          "$type": "IILHMBGONGM",
          "steerStateIDs": ["MeleeRush"],
          "endNormalizedTime": 99.0,
          "angularSpeed": 100.0,
          "attackTrigger": "",
          "attackDistance": 2.0,
          "DGFCLAIDIFI": ""
        },
        {
          "$type": "IILHMBGONGM",
          "steerStateIDs": ["MeleeAtkAS"],
          "startNormalizedTime": 0.10000000149011612,
          "endNormalizedTime": 0.75,
          "angularSpeed": 120.0,
          "attackTrigger": "",
          "attackDistance": 2.0,
          "DGFCLAIDIFI": ""
        },
        {
          "$type": "IILHMBGONGM",
          "steerStateIDs": ["SlamAtk01"],
          "endNormalizedTime": 0.20000000298023224,
          "angularSpeed": 300.0,
          "attackTrigger": "",
          "attackDistance": 2.0,
          "DGFCLAIDIFI": ""
        },
        {
          "$type": "IILHMBGONGM",
          "steerStateIDs": ["SlamAtk01"],
          "startNormalizedTime": 0.4000000059604645,
          "angularSpeed": 150.0,
          "attackTrigger": "",
          "attackDistance": 2.0,
          "DGFCLAIDIFI": ""
        },
        {
          "$type": "IILHMBGONGM",
          "steerStateIDs": ["ImproveNormalAtk01"],
          "angularSpeed": 150.0,
          "attackTrigger": "",
          "attackDistance": 2.0,
          "DGFCLAIDIFI": ""
        },
        {
          "$type": "IILHMBGONGM",
          "steerStateIDs": ["ImproveMeleeAttackBS"],
          "angularSpeed": 150.0,
          "attackTrigger": "",
          "attackDistance": 2.0,
          "DGFCLAIDIFI": ""
        },
        {
          "$type": "IILHMBGONGM",
          "steerStateIDs": ["ImproveMeleeAttackBS02"],
          "angularSpeed": 150.0,
          "attackTrigger": "",
          "attackDistance": 2.0,
          "DGFCLAIDIFI": ""
        },
        {
          "$type": "IILHMBGONGM",
          "steerStateIDs": ["ImproveMeleeRush"],
          "endNormalizedTime": 99.0,
          "angularSpeed": 100.0,
          "attackTrigger": "",
          "attackDistance": 2.0,
          "DGFCLAIDIFI": ""
        },
        {
          "$type": "IILHMBGONGM",
          "steerStateIDs": ["ImproveMeleeAtkAS"],
          "startNormalizedTime": 0.10000000149011612,
          "angularSpeed": 120.0,
          "attackTrigger": "",
          "attackDistance": 2.0,
          "DGFCLAIDIFI": ""
        },
        {
          "$type": "IILHMBGONGM",
          "steerStateIDs": ["ImproveSlamAtk01"],
          "endNormalizedTime": 0.20000000298023224,
          "angularSpeed": 300.0,
          "attackTrigger": "",
          "attackDistance": 2.0,
          "DGFCLAIDIFI": ""
        },
        {
          "$type": "IILHMBGONGM",
          "steerStateIDs": ["ImproveSlamAtk01"],
          "startNormalizedTime": 0.44999998807907104,
          "angularSpeed": 150.0,
          "attackTrigger": "",
          "attackDistance": 2.0,
          "DGFCLAIDIFI": ""
        },
        {
          "$type": "IILHMBGONGM",
          "steerStateIDs": ["ImproveSlamAtk02"],
          "angularSpeed": 100.0,
          "attackTrigger": "",
          "attackDistance": 2.0,
          "DGFCLAIDIFI": ""
        }
      ]
    }
  },
  {
    "Default": {
      "$type": "ConfigAbility",
      "abilityName": "Monster_Eremite_Female_Slim_PushDagger_Water_RushMove",
      "abilityMixins": [
        {
          "$type": "AttachToStateIDMixin",
          "stateIDs": ["MeleeRush", "MeleeAtkBS02"],
          "modifierName": "MeleeRush_Effect",
          "DGFCLAIDIFI": ""
        },
        {
          "$type": "AttachToStateIDMixin",
          "stateIDs": ["ImproveMeleeRush", "ImproveMeleeAtkBS02"],
          "modifierName": "ImproveMeleeRush_Effect",
          "DGFCLAIDIFI": ""
        }
      ],
      "modifiers": {
        "MeleeRush_Effect": {
          "modifierName": "",
          "elementDurability": 100.0,
          "thinkInterval": 0.10000000149011612,
          "onThinkInterval": [
            {
              "$type": "Predicated",
              "target": "SelfAttackTarget",
              "targetPredicates": [
                {
                  "$type": "ByTargetPositionToSelfPosition",
                  "logic": "LesserOrEqual",
                  "value": 3.0,
                  "DDALGNLEHOD": ""
                }
              ],
              "successActions": [
                {
                  "$type": "SetAnimatorTrigger",
                  "triggerID": "NearTarget"
                }
              ]
            }
          ]
        },
        "ImproveMeleeRush_Effect": {
          "modifierName": "",
          "elementDurability": 100.0,
          "thinkInterval": 0.10000000149011612,
          "onThinkInterval": [
            {
              "$type": "Predicated",
              "target": "SelfAttackTarget",
              "targetPredicates": [
                {
                  "$type": "ByTargetPositionToSelfPosition",
                  "logic": "LesserOrEqual",
                  "value": 3.0,
                  "DDALGNLEHOD": ""
                }
              ],
              "successActions": [
                {
                  "$type": "SetAnimatorTrigger",
                  "triggerID": "NearTarget"
                }
              ]
            }
          ]
        }
      }
    }
  },
  {
    "Default": {
      "$type": "ConfigAbility",
      "abilityName": "Monster_Eremite_Female_Slim_PushDagger_Water_RushMove_Damage",
      "modifiers": {
        "RushMove_Damage": {
          "modifierName": "",
          "duration": 0.38999998569488525,
          "elementDurability": 100.0,
          "thinkInterval": 0.10000000149011612,
          "onThinkInterval": [
            {
              "$type": "TriggerAttackEvent",
              "attackEvent": {
                "attackPattern": {
                  "$type": "ConfigAttackBox",
                  "triggerType": "TriggerNoRepeat",
                  "ignoreMassive": true,
                  "born": {
                    "$type": "ConfigBornByAttachPoint",
                    "offset": {
                      "x": -0.25,
                      "y": 0.0,
                      "z": -4.75
                    },
                    "direction": {
                      "$type": "ConfigDirectionByAttachPoint",
                      "angleOffset": {
                        "x": 0.0,
                        "y": 0.0,
                        "z": 0.0
                      },
                      "attachPointName": "RootNode"
                    },
                    "attachPointName": "RootNode"
                  },
                  "size": {
                    "x": 1.5,
                    "y": 2.0,
                    "z": 4.0
                  },
                  "muteHitBehindScene": true
                },
                "attackInfo": {
                  "attackTag": "",
                  "attenuationTag": "",
                  "attenuationGroup": "default",
                  "attackProperty": {
                    "actorGrassSubHurtDelta": 0.30000001192092896,
                    "actorWindSubHurtDelta": 0.0,
                    "elementType": "Water",
                    "elementDurability": 100.0,
                    "strikeType": "Slash",
                    "enBreak": 100.0,
                    "attackType": "Melee",
                    "GLKMCMDJBIK": 0.0
                  },
                  "hitPattern": {
                    "onHitEffectName": "default",
                    "hitImpulseY": "",
                    "hitImpulseType": "LV4",
                    "canBeDefenceHalt": true
                  },
                  "cameraShake": {
                    "shakeType": "CustomVector",
                    "shakeRange": 0.10000000149011612,
                    "shakeTime": 0.10000000149011612,
                    "shakeDistance": 30.0,
                    "shakeDir": {
                      "y": 1.0,
                      "z": 1.0
                    }
                  }
                }
              },
              "targetType": "Enemy"
            }
          ]
        }
      },
      "onAbilityStart": [
        {
          "$type": "ApplyModifier",
          "modifierName": "RushMove_Damage"
        }
      ]
    }
  },
  {
    "Default": {
      "$type": "ConfigAbility",
      "abilityName": "Monster_Eremite_Female_Slim_PushDagger_Water_ReturnToBorn",
      "abilityMixins": [
        {
          "$type": "LEOGLBFIELL",
          "poseIDs": [901],
          "modifierName": "ReturnToBorn_Start"
        },
        {
          "$type": "AttachToAnimatorStateIDMixin",
          "stateIDs": ["SheathWeapon"],
          "modifierName": "ReturnToBornHandler",
          "DGFCLAIDIFI": ""
        }
      ],
      "modifiers": {
        "ReturnToBorn_Start": {
          "modifierName": "",
          "elementDurability": 100.0,
          "onAdded": [
            {
              "$type": "SetAnimatorTrigger",
              "triggerID": "SheathWeaponTrigger"
            }
          ]
        },
        "ReturnToBornHandler": {
          "modifierName": "",
          "elementDurability": 100.0,
          "onAdded": [
            {
              "$type": "SetGlobalValue",
              "value": 0.0,
              "key": "_MONSTER_EREMITE_IMPROVED_",
              "useLimitRange": true,
              "maxValue": 1.0,
              "minValue": 0.0
            },
            {
              "$type": "SetGlobalValue",
              "value": 1.0,
              "key": "_MONSTER_EREMITE_RETURNTOBORN_",
              "useLimitRange": true,
              "maxValue": 1.0,
              "minValue": 0.0
            },
            {
              "$type": "SetGlobalValue",
              "value": 0.0,
              "key": "_MONSTER_EREMITE_WEAK_",
              "useLimitRange": true,
              "maxValue": 1.0,
              "minValue": 0.0
            },
            {
              "$type": "SetGlobalValue",
              "value": 0.0,
              "key": "_MONSTER_EREMITE_IMPROVED_COUNT_",
              "useLimitRange": true,
              "maxValue": 99.0,
              "minValue": 0.0
            },
            {
              "$type": "SetGlobalValue",
              "value": 0.0,
              "key": "_MONSTER_EREMITE_IMPROVED_COUNT_",
              "useLimitRange": true,
              "maxValue": 99.0,
              "minValue": 0.0
            },
            {
              "$type": "RemoveUniqueModifier",
              "modifierName": "UNIQUE_Eremite_ImproveState_Properties"
            },
            {
              "$type": "RemoveUniqueModifier",
              "modifierName": "UNIQUE_Eremite_Force_ImproveState"
            }
          ],
          "onRemoved": [
            {
              "$type": "FireEffect",
              "rotationDampTime": "Eff_Death_Sand_Eremite",
              "PPPDJGDDOGD": 1.0,
              "AJDILHJFNKE": -1.0
            },
            {
              "$type": "SetGlobalValue",
              "value": 0.0,
              "key": "_MONSTER_EREMITE_IMPROVED_",
              "useLimitRange": true,
              "maxValue": 1.0,
              "minValue": 0.0
            },
            {
              "$type": "SetGlobalValue",
              "value": 0.0,
              "key": "_MONSTER_EREMITE_IMPROVED_COUNT_",
              "useLimitRange": true,
              "maxValue": 99.0,
              "minValue": 0.0
            },
            {
              "$type": "SetGlobalValue",
              "value": 0.0,
              "key": "_MONSTER_EREMITE_ISINFIGHT_",
              "useLimitRange": true,
              "maxValue": 1.0,
              "minValue": 0.0
            },
            {
              "$type": "SetGlobalValue",
              "value": 0.0,
              "key": "_MONSTER_EREMITE_WEAK_",
              "useLimitRange": true,
              "maxValue": 1.0,
              "minValue": 0.0
            },
            {
              "$type": "SetGlobalValue",
              "value": 0.0,
              "key": "_MONSTER_EREMITE_RETURNTOBORN_",
              "useLimitRange": true,
              "maxValue": 1.0,
              "minValue": 0.0
            },
            {
              "$type": "SetGlobalValue",
              "value": 0.0,
              "key": "_MONSTER_EREMITE_OUTIMPROVED",
              "useLimitRange": true,
              "maxValue": 1.0,
              "minValue": 0.0
            }
          ]
        }
      }
    }
  }
]
