[
  {
    "Default": {
      "$type": "ConfigAbility",
      "abilityName": "Slime_Grass_02_AIStateControl",
      "abilityMixins": [
        {
          "$type": "EAKJOFAIAPH",
          "poseIDs": [101],
          "enterActions": [
            {
              "$type": "DOANGHCALGB",
              "skillIDs": [102]
            }
          ]
        },
        {
          "$type": "EAKJOFAIAPH",
          "poseIDs": [201],
          "enterActions": [
            {
              "$type": "DOANGHCALGB",
              "skillIDs": [101]
            }
          ]
        }
      ]
    }
  },
  {
    "Default": {
      "$type": "ConfigAbility",
      "abilityName": "Slime_Grass_03_AIStateControl",
      "abilityMixins": [
        {
          "$type": "EAKJOFAIAPH",
          "poseIDs": [101],
          "enterActions": [
            {
              "$type": "DOANGHCALGB",
              "skillIDs": [102]
            }
          ]
        },
        {
          "$type": "EAKJOFAIAPH",
          "poseIDs": [201],
          "enterActions": [
            {
              "$type": "DOANGHCALGB",
              "skillIDs": [101]
            }
          ]
        },
        {
          "$type": "EAKJOFAIAPH",
          "poseIDs": [301],
          "enterActions": [
            {
              "$type": "DOANGHCALGB",
              "skillIDs": [401]
            }
          ]
        },
        {
          "$type": "EAKJOFAIAPH",
          "poseIDs": [401],
          "enterActions": [
            {
              "$type": "DOANGHCALGB",
              "skillIDs": [701]
            }
          ]
        },
        {
          "$type": "EAKJOFAIAPH",
          "poseIDs": [501],
          "enterActions": [
            {
              "$type": "DOANGHCALGB",
              "skillIDs": [201]
            }
          ]
        }
      ]
    }
  },
  {
    "Default": {
      "$type": "ConfigAbility",
      "abilityName": "Slime_Grass_02_DrillOut",
      "onAbilityStart": [
        {
          "$type": "RemoveUniqueModifier",
          "modifierName": "UNIQUE_UnderGround_State"
        }
      ]
    }
  },
  {
    "Default": {
      "$type": "ConfigAbility",
      "abilityName": "Slime_Grass_03_DrillOut",
      "onAbilityStart": [
        {
          "$type": "RemoveUniqueModifier",
          "modifierName": "UNIQUE_UnderGround_State"
        }
      ]
    }
  },
  {
    "Default": {
      "$type": "ConfigAbility",
      "abilityName": "Slime_Grass_02_UnderGround",
      "abilityMixins": [
        {
          "$type": "AttachToAnimatorStateIDMixin",
          "stateIDs": ["Walk_Under", "Run_Under"],
          "modifierName": "UnderGround_MoveEffect",
          "DGFCLAIDIFI": ""
        },
        {
          "$type": "AttachToStateIDMixin",
          "stateIDs": ["NormalIdle_Under", "Turn_Under", "NormalMove_Under"],
          "modifierName": "UnderGround_Invincible",
          "DGFCLAIDIFI": ""
        },
        {
          "$type": "AttachToStateIDMixin",
          "stateIDs": ["NormalIdle_Under", "Turn_Under", "NormalMove_Under"],
          "modifierName": "UnderGround_DenyLockOn",
          "DGFCLAIDIFI": ""
        },
        {
          "$type": "AttachToAnimatorStateIDMixin",
          "stateIDs": ["Watch_Random"],
          "modifierName": "UnderGround_WathcRandom",
          "DGFCLAIDIFI": ""
        },
        {
          "$type": "AttachToAnimatorStateIDMixin",
          "stateIDs": ["Walk_Under"],
          "modifierName": "UnderGround_WalkRandom",
          "DGFCLAIDIFI": ""
        }
      ],
      "abilitySpecials": {
        "WalkRandomTime": 1.0
      },
      "modifiers": {
        "UnderGround_Invincible": {
          "modifierName": "",
          "elementDurability": 100.0,
          "state": "Invincible"
        },
        "UnderGround_DenyLockOn": {
          "modifierName": "",
          "elementDurability": 100.0,
          "state": "DenyLockOn"
        },
        "UnderGround_MoveEffect": {
          "modifierName": "",
          "elementDurability": 100.0,
          "onAdded": [
            {
              "$type": "AttachEffect",
              "rotationDampTime": "Eff_Monster_Slime_Grass_Move_UnderGround",
              "PPPDJGDDOGD": 1.0,
              "AJDILHJFNKE": -1.0
            }
          ]
        },
        "UnderGround_WathcRandom": {
          "modifierName": "",
          "elementDurability": 100.0,
          "onAdded": [
            {
              "$type": "SetAnimatorFloat",
              "floatID": "WatchRandom",
              "useRandomValue": true,
              "randomValueMin": 1.0,
              "randomValueMax": 10.0
            },
            {
              "$type": "SetRandomOverrideMapValue",
              "valueRangeMax": 1.0,
              "valueRangeMin": 0.5,
              "overrideMapKey": "WalkRandomTime"
            }
          ]
        },
        "UnderGround_WalkRandom": {
          "modifierName": "",
          "duration": "WalkRandomTime",
          "elementDurability": 100.0,
          "onRemoved": [
            {
              "$type": "SetAnimatorTrigger",
              "triggerID": "WalkRandom"
            }
          ]
        },
        "UNIQUE_UnderGround_State": {
          "modifierName": "",
          "forceTriggerWhenChangeAuthority": true,
          "elementDurability": 100.0,
          "thinkInterval": 0.20000000298023224,
          "modifierMixins": [
            {
              "$type": "AttachActionToModifierMixin",
              "onAdded": [
                {
                  "$type": "EnableHitBoxByName",
                  "hitBoxNames": ["HitBox"]
                },
                {
                  "$type": "EnableHitBoxByName",
                  "hitBoxNames": ["HitBox_Ground"],
                  "setEnable": true
                },
                {
                  "$type": "EnablePushColliderName",
                  "pushColliderNames": ["PushCollider"]
                },
                {
                  "$type": "HBNEMPLJCMB",
                  "hide": true
                },
                {
                  "$type": "KDNMCNMAKNK",
                  "enable": true
                },
                {
                  "$type": "EnableHDMesh",
                  "hdMeshKey": "Default"
                }
              ],
              "onRemoved": [
                {
                  "$type": "EnableHitBoxByName",
                  "hitBoxNames": ["HitBox"],
                  "setEnable": true
                },
                {
                  "$type": "EnableHitBoxByName",
                  "hitBoxNames": ["HitBox_Ground"]
                },
                {
                  "$type": "EnablePushColliderName",
                  "pushColliderNames": ["PushCollider"],
                  "setEnable": true
                },
                {
                  "$type": "HBNEMPLJCMB"
                },
                {
                  "$type": "KDNMCNMAKNK"
                },
                {
                  "$type": "EnableHDMesh",
                  "enable": true,
                  "hdMeshKey": "Default"
                }
              ]
            }
          ],
          "onAdded": [
            {
              "$type": "SetGlobalValue",
              "shieldHP": true,
              "value": 1.0,
              "key": "_ABILITY_SLIME_GRASS_UNDERGROUND",
              "maxValue": 0.0,
              "minValue": 0.0
            },
            {
              "$type": "IDNGFEEBPAM",
              "boolID": "UnderGround",
              "value": true
            }
          ],
          "onRemoved": [
            {
              "$type": "SetGlobalValue",
              "shieldHP": true,
              "value": 0.0,
              "key": "_ABILITY_SLIME_GRASS_UNDERGROUND",
              "maxValue": 0.0,
              "minValue": 0.0
            },
            {
              "$type": "IDNGFEEBPAM",
              "boolID": "UnderGround"
            }
          ],
          "onBeingHit": [
            {
              "$type": "SetAnimatorTrigger",
              "predicates": [
                {
                  "$type": "ByHitElement",
                  "element": "Fire"
                }
              ],
              "triggerID": "ToGround"
            }
          ],
          "onThinkInterval": [
            {
              "$type": "Predicated",
              "target": "SelfAttackTarget",
              "targetPredicates": [
                {
                  "$type": "FCOADDGEDOH",
                  "logic": "Lesser",
                  "value": 90.0
                }
              ],
              "successActions": [
                {
                  "$type": "IDNGFEEBPAM",
                  "boolID": "IsInBack"
                },
                {
                  "$type": "SetAnimatorTrigger",
                  "triggerID": "AttackStopTrigger"
                }
              ],
              "failActions": [
                {
                  "$type": "IDNGFEEBPAM",
                  "boolID": "IsInBack",
                  "value": true
                }
              ]
            }
          ]
        }
      },
      "onAdded": [
        {
          "$type": "ApplyModifier",
          "modifierName": "UNIQUE_UnderGround_State"
        }
      ],
      "onAbilityStart": [
        {
          "$type": "ApplyModifier",
          "modifierName": "UNIQUE_UnderGround_State"
        }
      ]
    }
  },
  {
    "Default": {
      "$type": "ConfigAbility",
      "abilityName": "Slime_Grass_03_UnderGround",
      "abilityMixins": [
        {
          "$type": "AttachToAnimatorStateIDMixin",
          "stateIDs": ["Walk_Under"],
          "modifierName": "UnderGround_MoveEffect",
          "DGFCLAIDIFI": ""
        },
        {
          "$type": "AttachToStateIDMixin",
          "stateIDs": ["NormalIdle_Under", "NormalMove_Under"],
          "modifierName": "UnderGround_LockHP",
          "DGFCLAIDIFI": ""
        },
        {
          "$type": "AttachToStateIDMixin",
          "stateIDs": ["NormalIdle_Under", "NormalMove_Under"],
          "modifierName": "UnderGround_DenyLockOn",
          "DGFCLAIDIFI": ""
        }
      ],
      "modifiers": {
        "UnderGround_LockHP": {
          "modifierName": "",
          "elementDurability": 100.0,
          "state": "LockHP"
        },
        "UnderGround_DenyLockOn": {
          "modifierName": "",
          "elementDurability": 100.0,
          "state": "DenyLockOn"
        },
        "UnderGround_MoveEffect": {
          "modifierName": "",
          "elementDurability": 100.0,
          "onAdded": [
            {
              "$type": "AttachEffect",
              "rotationDampTime": "Eff_Monster_Slime_Grass_Move_UnderGround",
              "PPPDJGDDOGD": 1.0,
              "AJDILHJFNKE": -1.0
            }
          ]
        },
        "UNIQUE_UnderGround_State": {
          "modifierName": "",
          "forceTriggerWhenChangeAuthority": true,
          "elementDurability": 100.0,
          "thinkInterval": 0.20000000298023224,
          "modifierMixins": [
            {
              "$type": "AttachActionToModifierMixin",
              "onAdded": [
                {
                  "$type": "EnableHitBoxByName",
                  "hitBoxNames": ["HitBox", "HitBox_Flower"]
                },
                {
                  "$type": "EnableHitBoxByName",
                  "hitBoxNames": ["HitBox_Ground"],
                  "setEnable": true
                },
                {
                  "$type": "EnablePushColliderName",
                  "pushColliderNames": ["PushCollider"]
                },
                {
                  "$type": "EnablePushColliderName",
                  "pushColliderNames": ["PushCollider_Ground"],
                  "setEnable": true
                },
                {
                  "$type": "HBNEMPLJCMB",
                  "hide": true
                },
                {
                  "$type": "KDNMCNMAKNK",
                  "enable": true
                },
                {
                  "$type": "EnableHDMesh",
                  "hdMeshKey": "Default"
                }
              ],
              "onRemoved": [
                {
                  "$type": "EnableHitBoxByName",
                  "hitBoxNames": ["HitBox", "HitBox_Flower"],
                  "setEnable": true
                },
                {
                  "$type": "EnableHitBoxByName",
                  "hitBoxNames": ["HitBox_Ground"]
                },
                {
                  "$type": "EnablePushColliderName",
                  "pushColliderNames": ["PushCollider"],
                  "setEnable": true
                },
                {
                  "$type": "EnablePushColliderName",
                  "pushColliderNames": ["PushCollider_Ground"]
                },
                {
                  "$type": "HBNEMPLJCMB"
                },
                {
                  "$type": "KDNMCNMAKNK"
                },
                {
                  "$type": "EnableHDMesh",
                  "enable": true,
                  "hdMeshKey": "Default"
                }
              ]
            }
          ],
          "properties": {
            "Entity_MassRatio": 1000.0,
            "Entity_WeightRatio": 0.5,
            "Actor_EndureDelta": 0.0
          },
          "onAdded": [
            {
              "$type": "SetGlobalValue",
              "shieldHP": true,
              "value": 1.0,
              "key": "_ABILITY_SLIME_GRASS_UNDERGROUND",
              "maxValue": 0.0,
              "minValue": 0.0
            },
            {
              "$type": "IDNGFEEBPAM",
              "boolID": "UnderGround",
              "value": true
            }
          ],
          "onRemoved": [
            {
              "$type": "SetGlobalValue",
              "shieldHP": true,
              "value": 0.0,
              "key": "_ABILITY_SLIME_GRASS_UNDERGROUND",
              "maxValue": 0.0,
              "minValue": 0.0
            },
            {
              "$type": "IDNGFEEBPAM",
              "boolID": "UnderGround"
            }
          ],
          "onBeingHit": [
            {
              "$type": "SetAnimatorTrigger",
              "predicates": [
                {
                  "$type": "ByHitElement",
                  "element": "Fire"
                }
              ],
              "triggerID": "ToGround"
            }
          ],
          "onThinkInterval": [
            {
              "$type": "Predicated",
              "target": "SelfAttackTarget",
              "targetPredicates": [
                {
                  "$type": "FCOADDGEDOH",
                  "logic": "Lesser",
                  "value": 120.0
                }
              ],
              "successActions": [
                {
                  "$type": "IDNGFEEBPAM",
                  "boolID": "IsInBack"
                }
              ],
              "failActions": [
                {
                  "$type": "IDNGFEEBPAM",
                  "boolID": "IsInBack",
                  "value": true
                }
              ]
            }
          ]
        }
      },
      "onAdded": [
        {
          "$type": "ApplyModifier",
          "modifierName": "UNIQUE_UnderGround_State"
        }
      ],
      "onAbilityStart": [
        {
          "$type": "ApplyModifier",
          "modifierName": "UNIQUE_UnderGround_State"
        }
      ]
    }
  },
  {
    "Default": {
      "$type": "ConfigAbility",
      "abilityName": "Slime_Grass_02_ElementState",
      "modifiers": {
        "ElementState": {
          "modifierName": "",
          "elementType": "Grass",
          "elementDurability": 50.0,
          "modifierMixins": [
            {
              "$type": "JJIHJPCPPGO",
              "abilityStates": ["ElementBurning"],
              "modifierName": "BurningDetect"
            }
          ],
          "onAdded": [
            {
              "$type": "AddGlobalValue",
              "value": 1.0,
              "key": "_ABILITY_SLIME_GRASS_ELEMENTSTATE",
              "useLimitRange": true,
              "maxValue": 1.0,
              "minValue": 0.0
            },
            {
              "$type": "TriggerSetRenderersEnable",
              "renderNames": ["Grass"],
              "setEnable": true
            },
            {
              "$type": "IDNGFEEBPAM",
              "boolID": "ElementState",
              "value": true
            }
          ],
          "onRemoved": [
            {
              "$type": "SetAnimatorTrigger",
              "predicates": [
                {
                  "$type": "ByTargetGlobalValue",
                  "key": "_ABILITY_SLIME_GRASS_UNDERGROUND",
                  "value": 1.0
                }
              ],
              "triggerID": "ToGround"
            },
            {
              "$type": "RemoveUniqueModifier",
              "modifierName": "UNIQUE_UnderGround_State"
            },
            {
              "$type": "AddGlobalValue",
              "value": -1.0,
              "key": "_ABILITY_SLIME_GRASS_ELEMENTSTATE",
              "useLimitRange": true,
              "maxValue": 1.0,
              "minValue": 0.0
            },
            {
              "$type": "TriggerSetRenderersEnable",
              "renderNames": ["Grass"]
            },
            {
              "$type": "IDNGFEEBPAM",
              "boolID": "ElementState"
            }
          ]
        },
        "BurningDetect": {
          "modifierName": "",
          "elementDurability": 100.0,
          "onAdded": [
            {
              "$type": "IDNGFEEBPAM",
              "boolID": "OnFire",
              "value": true
            },
            {
              "$type": "DamageByAttackValue",
              "predicates": [
                {
                  "$type": "ByAnimatorFloat",
                  "logic": "Equal",
                  "value": 401.0,
                  "parameter": "PoseID"
                }
              ],
              "attackInfo": {
                "attackTag": "",
                "attenuationTag": "",
                "attenuationGroup": "default",
                "attackProperty": {
                  "actorGrassSubHurtDelta": 0.0,
                  "actorWindSubHurtDelta": 0.0,
                  "elementDurability": 100.0,
                  "enBreak": 1000.0,
                  "GLKMCMDJBIK": 0.0
                },
                "hitPattern": {
                  "onHitEffectName": "",
                  "hitImpulseY": "",
                  "hitImpulseType": "LV2",
                  "hitHaltTimeScale": 0.009999999776482582,
                  "muteHitText": true
                }
              }
            },
            {
              "$type": "AttachEffect",
              "rotationDampTime": "Eff_Monster_Slime_Grass_Burning_02",
              "PPPDJGDDOGD": 1.0,
              "AJDILHJFNKE": -1.0
            }
          ],
          "onRemoved": [
            {
              "$type": "IDNGFEEBPAM",
              "boolID": "OnFire"
            }
          ]
        }
      },
      "onAdded": [
        {
          "$type": "ApplyModifier",
          "modifierName": "ElementState"
        }
      ],
      "onAbilityStart": [
        {
          "$type": "ApplyModifier",
          "modifierName": "ElementState"
        }
      ]
    }
  },
  {
    "Default": {
      "$type": "ConfigAbility",
      "abilityName": "Slime_Grass_03_ElementState",
      "modifiers": {
        "ElementState": {
          "modifierName": "",
          "elementType": "Grass",
          "elementDurability": 200.0,
          "modifierMixins": [
            {
              "$type": "JJIHJPCPPGO",
              "abilityStates": ["ElementBurning"],
              "modifierName": "BurningDetect"
            }
          ],
          "onAdded": [
            {
              "$type": "TriggerSetRenderersEnable",
              "renderNames": ["Grass"],
              "setEnable": true
            },
            {
              "$type": "IDNGFEEBPAM",
              "boolID": "ElementState",
              "value": true
            },
            {
              "$type": "EnableHitBoxByName",
              "hitBoxNames": ["HitBox_Flower"],
              "setEnable": true
            }
          ],
          "onRemoved": [
            {
              "$type": "SetAnimatorTrigger",
              "predicates": [
                {
                  "$type": "ByTargetGlobalValue",
                  "key": "_ABILITY_SLIME_GRASS_UNDERGROUND",
                  "value": 1.0
                }
              ],
              "triggerID": "ToGround"
            },
            {
              "$type": "RemoveUniqueModifier",
              "modifierName": "UNIQUE_UnderGround_State"
            },
            {
              "$type": "FireEffect",
              "rotationDampTime": "Eff_Monster_Slime_Grass_PutOutFire",
              "PPPDJGDDOGD": 1.0,
              "AJDILHJFNKE": -1.0
            },
            {
              "$type": "TriggerSetRenderersEnable",
              "renderNames": ["Grass"]
            },
            {
              "$type": "IDNGFEEBPAM",
              "boolID": "ElementState"
            },
            {
              "$type": "EnableHitBoxByName",
              "hitBoxNames": ["HitBox_Flower"]
            }
          ]
        },
        "BurningDetect": {
          "modifierName": "",
          "elementDurability": 100.0,
          "onAdded": [
            {
              "$type": "IDNGFEEBPAM",
              "boolID": "OnFire",
              "value": true
            },
            {
              "$type": "DamageByAttackValue",
              "predicates": [
                {
                  "$type": "ByAnimatorFloat",
                  "logic": "Equal",
                  "value": 401.0,
                  "parameter": "PoseID"
                }
              ],
              "attackInfo": {
                "attackTag": "",
                "attenuationTag": "",
                "attenuationGroup": "default",
                "attackProperty": {
                  "actorGrassSubHurtDelta": 0.0,
                  "actorWindSubHurtDelta": 0.0,
                  "elementDurability": 100.0,
                  "enBreak": 1000.0,
                  "GLKMCMDJBIK": 0.0
                },
                "hitPattern": {
                  "onHitEffectName": "",
                  "hitImpulseY": "",
                  "hitImpulseType": "LV2",
                  "hitHaltTimeScale": 0.009999999776482582,
                  "muteHitText": true
                }
              }
            },
            {
              "$type": "AttachEffect",
              "rotationDampTime": "Eff_Monster_Slime_Grass_Burning_03",
              "PPPDJGDDOGD": 1.0,
              "AJDILHJFNKE": -1.0
            }
          ],
          "onRemoved": [
            {
              "$type": "IDNGFEEBPAM",
              "boolID": "OnFire"
            }
          ]
        }
      },
      "onAdded": [
        {
          "$type": "ApplyModifier",
          "modifierName": "ElementState"
        }
      ],
      "onAbilityStart": [
        {
          "$type": "ApplyModifier",
          "modifierName": "ElementState"
        }
      ]
    }
  },
  {
    "Default": {
      "$type": "ConfigAbility",
      "abilityName": "Slime_Grass_03_PutOutFire",
      "modifiers": {
        "PutOutFire": {
          "modifierName": "",
          "duration": 0.10000000149011612,
          "elementType": "AntiFire",
          "elementDurability": 10000.0
        }
      },
      "onAbilityStart": [
        {
          "$type": "ApplyModifier",
          "modifierName": "PutOutFire"
        },
        {
          "$type": "FireEffect",
          "rotationDampTime": "Eff_Monster_Slime_Grass_PutOutFire",
          "PPPDJGDDOGD": 1.0,
          "AJDILHJFNKE": -1.0
        }
      ]
    }
  },
  {
    "Default": {
      "$type": "ConfigAbility",
      "abilityName": "Slime_Grass_02_UnderAttack",
      "abilityMixins": [
        {
          "$type": "AttachToAnimatorStateIDMixin",
          "stateIDs": ["UnderAttack_Stop", "Watch_Stop"],
          "modifierName": "UnderAttack_StopAtk",
          "DGFCLAIDIFI": ""
        },
        {
          "$type": "AttachToAnimatorStateIDMixin",
          "stateIDs": ["Turn_Under"],
          "modifierName": "UnderAttack_Flee",
          "DGFCLAIDIFI": ""
        },
        {
          "$type": "AttachToAnimatorStateIDMixin",
          "stateIDs": [
            "Watch",
            "UnderAttack_Watch",
            "UnderAttack",
            "UnderAttack_Stop",
            "Watch_Stop"
          ],
          "modifierName": "UnderGround_BeingHit",
          "DGFCLAIDIFI": ""
        },
        {
          "$type": "JJIHJPCPPGO",
          "abilityStates": ["Struggle", "ElementFreeze"],
          "modifierName": "AbilityState_Detect"
        }
      ],
      "modifiers": {
        "UnderGround_BeingHit": {
          "modifierName": "",
          "elementDurability": 100.0,
          "onBeingHit": [
            {
              "$type": "RemoveUniqueModifier",
              "predicates": [
                {
                  "$type": "ByHitDamage",
                  "damage": 0.0
                }
              ],
              "modifierName": "UNIQUE_UnderGround_State"
            }
          ]
        },
        "AbilityState_Detect": {
          "modifierName": "",
          "elementDurability": 100.0,
          "onRemoved": [
            {
              "$type": "RemoveUniqueModifier",
              "modifierName": "UNIQUE_UnderGround_State"
            }
          ]
        },
        "UnderAttack_StopAtk": {
          "modifierName": "",
          "elementDurability": 100.0,
          "onAdded": [
            {
              "$type": "Predicated",
              "target": "SelfAttackTarget",
              "targetPredicates": [
                {
                  "$type": "ByTargetPositionToSelfPosition",
                  "logic": "Lesser",
                  "value": 5.0,
                  "DDALGNLEHOD": ""
                }
              ],
              "successActions": [
                {
                  "$type": "IDNGFEEBPAM",
                  "boolID": "StopAtk",
                  "value": true
                }
              ]
            }
          ],
          "onRemoved": [
            {
              "$type": "ApplyModifier",
              "modifierName": "StopFleeTimer"
            }
          ]
        },
        "UnderAttack_Flee": {
          "modifierName": "",
          "elementDurability": 100.0,
          "onRemoved": [
            {
              "$type": "IDNGFEEBPAM",
              "boolID": "StopAtk"
            }
          ]
        },
        "StopFleeTimer": {
          "modifierName": "",
          "duration": 3.0,
          "elementDurability": 100.0,
          "onRemoved": [
            {
              "$type": "IDNGFEEBPAM",
              "boolID": "StopAtk"
            }
          ]
        }
      }
    }
  },
  {
    "Default": {
      "$type": "ConfigAbility",
      "abilityName": "Slime_Grass_03_UnderAttack",
      "abilityMixins": [
        {
          "$type": "JJIHJPCPPGO",
          "abilityStates": ["Struggle"],
          "modifierName": "AbilityState_Detect"
        }
      ],
      "modifiers": {
        "AbilityState_Detect": {
          "modifierName": "",
          "elementDurability": 100.0,
          "onRemoved": [
            {
              "$type": "RemoveUniqueModifier",
              "modifierName": "UNIQUE_UnderGround_State"
            }
          ]
        }
      },
      "onAbilityStart": [
        {
          "$type": "RemoveUniqueModifier",
          "modifierName": "UNIQUE_UnderGround_State"
        }
      ]
    }
  },
  {
    "Default": {
      "$type": "ConfigAbility",
      "abilityName": "Slime_Grass_03_Spread",
      "abilityMixins": [
        {
          "$type": "AttachToAnimatorStateIDMixin",
          "stateIDs": ["Spread"],
          "modifierName": "Spread_Loop",
          "DGFCLAIDIFI": ""
        }
      ],
      "modifiers": {
        "Spread_Loop": {
          "modifierName": "",
          "elementDurability": 100.0,
          "thinkInterval": 0.5,
          "onAdded": [
            {
              "$type": "AttachEffect",
              "rotationDampTime": "Eff_Monster_Slime_Grass_Spread",
              "PPPDJGDDOGD": 1.0,
              "AJDILHJFNKE": -1.0
            },
            {
              "$type": "AttachEffect",
              "rotationDampTime": "Eff_Monster_Slime_Grass_Spread_Area",
              "PPPDJGDDOGD": 1.0,
              "AJDILHJFNKE": -1.0
            }
          ],
          "onThinkInterval": [
            {
              "$type": "HealHP",
              "otherTargets": {
                "$type": "SelectTargetsByShape",
                "shapeName": "CircleR5",
                "campTargetType": "Alliance",
                "doOffStage": 1.0
              },
              "predicates": [
                {
                  "$type": "ByEntityTypes",
                  "entityTypes": ["Monster"]
                }
              ],
              "CKDBFHCIJEK": 0.05000000074505806,
              "cdRatio": ""
            },
            {
              "$type": "TriggerAttackEvent",
              "attackEvent": {
                "attackPattern": {
                  "$type": "ConfigAttackCircle",
                  "triggerType": "TriggerNoRepeat",
                  "born": {
                    "$type": "ConfigBornBySelf",
                    "offset": {
                      "x": 0.0,
                      "y": 0.0,
                      "z": 0.0
                    }
                  },
                  "height": 2.0,
                  "radius": 5.0
                },
                "attackInfo": {
                  "attackTag": "",
                  "attenuationTag": "",
                  "attenuationGroup": "default",
                  "attackProperty": {
                    "actorGrassSubHurtDelta": 0.10000000149011612,
                    "actorWindSubHurtDelta": 0.0,
                    "elementType": "Grass",
                    "elementDurability": 25.0,
                    "strikeType": "Default",
                    "enBreak": 0.0,
                    "GLKMCMDJBIK": 0.0
                  },
                  "hitPattern": {
                    "onHitEffectName": "",
                    "hitImpulseY": "",
                    "hitImpulseType": "LV0",
                    "hitHaltTimeScale": 0.009999999776482582
                  },
                  "canBeModifiedBy": "OriginOwner"
                }
              },
              "targetType": "Enemy"
            }
          ]
        }
      }
    }
  },
  {
    "Default": {
      "$type": "ConfigAbility",
      "abilityName": "Slime_Grass_03_Sow",
      "onAbilityStart": [
        {
          "$type": "TriggerBullet",
          "predicates": [
            {
              "$type": "IPLAKGPLAFE",
              "logic": "Lesser",
              "summonTag": 20010101,
              "value": 6
            }
          ],
          "bulletID": 42001012,
          "born": {
            "$type": "ConfigBornByAttachPoint",
            "attachPointName": "FlowerBud"
          }
        },
        {
          "$type": "TriggerBullet",
          "predicates": [
            {
              "$type": "IPLAKGPLAFE",
              "logic": "GreaterOrEqual",
              "summonTag": 20010101,
              "value": 6
            }
          ],
          "bulletID": 42001013,
          "born": {
            "$type": "ConfigBornByAttachPoint",
            "attachPointName": "FlowerBud"
          }
        }
      ]
    }
  },
  {
    "Default": {
      "$type": "ConfigAbility",
      "abilityName": "Slime_Grass_03_Summon",
      "onAbilityStart": [
        {
          "$type": "DCKBKHHAFNO",
          "target": "Target",
          "predicates": [
            {
              "$type": "ByTargetGlobalValue",
              "key": "_MONSTERAFFIX_SUMMON_LIFETIME",
              "value": 1.0,
              "forceByCaster": true
            }
          ],
          "monsterID": 20010101,
          "born": {
            "$type": "ConfigBornByTarget",
            "onGround": true,
            "direction": {
              "$type": "ConfigDirectionByAttackTarget",
              "startPoint": ""
            },
            "alongGround": true
          },
          "summonTag": 20010101,
          "aliveByOwner": true,
          "sightGroupWithOwner": true,
          "PCOICDDOAOP": true
        },
        {
          "$type": "DCKBKHHAFNO",
          "target": "Target",
          "predicates": [
            {
              "$type": "ByTargetGlobalValue",
              "key": "_MONSTERAFFIX_SUMMON_LIFETIME",
              "value": 0.0,
              "forceByCaster": true,
              "compareType": "NoneOrEqual"
            }
          ],
          "monsterID": 20010101,
          "born": {
            "$type": "ConfigBornByTarget",
            "onGround": true,
            "direction": {
              "$type": "ConfigDirectionByAttackTarget",
              "startPoint": ""
            },
            "alongGround": true
          },
          "summonTag": 20010101,
          "sightGroupWithOwner": true,
          "PCOICDDOAOP": true
        }
      ]
    }
  },
  {
    "Default": {
      "$type": "ConfigAbility",
      "abilityName": "Slime_Grass_Seed",
      "modifiers": {
        "Seed_Loop": {
          "modifierName": "",
          "elementType": "Grass",
          "elementDurability": 100.0,
          "onAdded": [
            {
              "$type": "AttachEffect",
              "rotationDampTime": "Eff_Monster_Slime_Grass_Seed_Missile",
              "PPPDJGDDOGD": 1.0,
              "AJDILHJFNKE": -1.0
            }
          ],
          "onRemoved": [
            {
              "$type": "KillSelf"
            }
          ]
        }
      },
      "onAdded": [
        {
          "$type": "ApplyModifier",
          "modifierName": "Seed_Loop"
        }
      ],
      "onAbilityStart": [
        {
          "$type": "RemoveModifier",
          "modifierName": "Seed_Loop"
        },
        {
          "$type": "CreateGadget",
          "target": "Owner",
          "ownerIs": "Other",
          "born": {
            "$type": "ConfigBornByAttachPoint",
            "onGround": true,
            "direction": {
              "$type": "ConfigDirectionByAttackTarget",
              "startPoint": ""
            },
            "alongGround": true,
            "attachPointName": "RootNode",
            "attachPointTargetType": "Caster"
          },
          "gadgetID": 42001014,
          "campID": 4001,
          "campTargetType": "All"
        },
        {
          "$type": "FireEffect",
          "rotationDampTime": "Eff_Monster_Slime_Grass_Seed_Missile_AS",
          "born": {
            "$type": "ConfigBornByAttachPoint",
            "onGround": true,
            "direction": {
              "$type": "ConfigDirectionByAttackTarget",
              "startPoint": ""
            },
            "alongGround": true,
            "attachPointName": "RootNode",
            "attachPointTargetType": "Caster"
          },
          "PPPDJGDDOGD": 1.0,
          "AJDILHJFNKE": -1.0
        }
      ]
    }
  },
  {
    "Default": {
      "$type": "ConfigAbility",
      "abilityName": "Slime_Grass_SeedGrow",
      "modifiers": {
        "SeedGrow_Loop": {
          "modifierName": "",
          "duration": 3.3299999237060547,
          "elementType": "Grass",
          "elementDurability": 1.0,
          "thinkInterval": 3.200000047683716,
          "onAdded": [
            {
              "$type": "AttachEffect",
              "rotationDampTime": "Eff_Monster_Slime_Grass_Seed_Grow",
              "PPPDJGDDOGD": 1.0,
              "AJDILHJFNKE": -1.0
            }
          ],
          "onRemoved": [
            {
              "$type": "FireEffect",
              "rotationDampTime": "Eff_Monster_Slime_Grass_Seed_Grow_AS",
              "PPPDJGDDOGD": 1.0,
              "AJDILHJFNKE": -1.0
            },
            {
              "$type": "KillSelf"
            }
          ],
          "onThinkInterval": [
            {
              "$type": "TriggerAbility",
              "target": "Owner",
              "abilityName": "Slime_Grass_03_Summon"
            }
          ]
        }
      },
      "onAdded": [
        {
          "$type": "ApplyModifier",
          "modifierName": "SeedGrow_Loop"
        }
      ]
    }
  },
  {
    "Default": {
      "$type": "ConfigAbility",
      "abilityName": "Slime_Grass_SeedAtk",
      "modifiers": {
        "SeedAtk_Loop": {
          "modifierName": "",
          "elementType": "Grass",
          "elementDurability": 100.0,
          "onAdded": [
            {
              "$type": "AttachEffect",
              "rotationDampTime": "Eff_Monster_Slime_Grass_Seed_Poison_Missile",
              "PPPDJGDDOGD": 1.0,
              "AJDILHJFNKE": -1.0
            }
          ],
          "onRemoved": [
            {
              "$type": "KillSelf"
            }
          ]
        }
      },
      "onAdded": [
        {
          "$type": "ApplyModifier",
          "modifierName": "SeedAtk_Loop"
        }
      ],
      "onAbilityStart": [
        {
          "$type": "RemoveModifier",
          "modifierName": "SeedAtk_Loop"
        },
        {
          "$type": "SetGlobalPos",
          "target": "Owner",
          "key": "_ABILITY_SLIME_GRASS_SEED_POS",
          "born": {
            "$type": "ConfigBornByCollisionPoint",
            "onGround": true
          }
        },
        {
          "$type": "TriggerBullet",
          "target": "Owner",
          "bulletID": 42001015,
          "born": {
            "$type": "ConfigBornByGlobalValue",
            "offset": {
              "x": 0.0,
              "y": 0.5,
              "z": 0.0
            },
            "direction": {
              "$type": "ConfigDirectionByEntity",
              "randomAngleHor": 360.0
            },
            "positionKey": "_ABILITY_SLIME_GRASS_SEED_POS",
            "directionKey": ""
          },
          "ownerIs": "Other"
        },
        {
          "$type": "FireEffect",
          "rotationDampTime": "Eff_Monster_Slime_Grass_Seed_Poison_Missile_AS",
          "born": {
            "$type": "ConfigBornByCollisionPoint",
            "onGround": true
          },
          "PPPDJGDDOGD": 1.0,
          "AJDILHJFNKE": -1.0
        }
      ]
    }
  },
  {
    "Default": {
      "$type": "ConfigAbility",
      "abilityName": "Slime_Grass_SeedFloat",
      "modifiers": {
        "SeedFloat_Loop": {
          "modifierName": "",
          "elementType": "Grass",
          "elementDurability": 1.0,
          "onAdded": [
            {
              "$type": "AttachEffect",
              "rotationDampTime": "Eff_Monster_Slime_Grass_Seed_Float",
              "PPPDJGDDOGD": 1.0,
              "AJDILHJFNKE": -1.0
            }
          ],
          "onRemoved": [
            {
              "$type": "KillSelf"
            }
          ],
          "onBeingHit": [
            {
              "$type": "FireEffect",
              "predicates": [
                {
                  "$type": "ByHitElement",
                  "element": "Fire"
                }
              ],
              "rotationDampTime": "Eff_Monster_Slime_Grass_Seed_Explosion",
              "PPPDJGDDOGD": 1.0,
              "AJDILHJFNKE": -1.0
            },
            {
              "$type": "TriggerAttackEvent",
              "predicates": [
                {
                  "$type": "ByHitElement",
                  "element": "Fire"
                }
              ],
              "attackEvent": {
                "attackPattern": {
                  "$type": "ConfigAttackSphere",
                  "triggerType": "TriggerNoRepeat",
                  "born": {
                    "$type": "ConfigBornBySelf"
                  },
                  "radius": 2.0
                },
                "attackInfo": {
                  "attackTag": "",
                  "attenuationTag": "",
                  "attenuationGroup": "default",
                  "attackProperty": {
                    "actorGrassSubHurtDelta": 1.0,
                    "actorWindSubHurtDelta": 0.0,
                    "elementDurability": 100.0,
                    "strikeType": "Blunt",
                    "enBreak": 200.0,
                    "GLKMCMDJBIK": 0.0
                  },
                  "hitPattern": {
                    "onHitEffectName": "default",
                    "hitImpulseY": "",
                    "hitImpulseType": "LV5",
                    "hitHaltTimeScale": 0.009999999776482582
                  },
                  "canBeModifiedBy": "OriginOwner"
                }
              },
              "targetType": "Enemy"
            },
            {
              "$type": "KillSelf",
              "predicates": [
                {
                  "$type": "ByHitElement",
                  "element": "Fire"
                }
              ]
            },
            {
              "$type": "KillSelf",
              "predicates": [
                {
                  "$type": "ByHitElement",
                  "element": "Wind"
                }
              ]
            }
          ]
        }
      },
      "onAdded": [
        {
          "$type": "ApplyModifier",
          "modifierName": "SeedFloat_Loop"
        }
      ],
      "onAbilityStart": [
        {
          "$type": "RemoveModifier",
          "modifierName": "SeedFloat_Loop"
        }
      ]
    }
  },
  {
    "Default": {
      "$type": "ConfigAbility",
      "abilityName": "Slime_Grass_SeedFloat_Poison",
      "modifiers": {
        "UNIQUE_Slime_Grass_Seed_Poison": {
          "modifierName": "",
          "forceTriggerWhenChangeAuthority": true,
          "duration": 5.0,
          "elementType": "Grass",
          "elementDurability": 100.0,
          "thinkInterval": 0.5,
          "onAdded": [
            {
              "$type": "AttachEffect",
              "rotationDampTime": "Eff_Monster_Slime_Grass_Poison_Dot",
              "PPPDJGDDOGD": 1.0,
              "AJDILHJFNKE": -1.0
            },
            {
              "$type": "DamageByAttackValue",
              "attackInfo": {
                "attackTag": "",
                "attenuationTag": "",
                "attenuationGroup": "default",
                "attackProperty": {
                  "actorGrassSubHurtDelta": 0.10000000149011612,
                  "actorWindSubHurtDelta": 0.0,
                  "elementType": "Grass",
                  "elementDurability": 25.0,
                  "strikeType": "Default",
                  "enBreak": 0.0,
                  "GLKMCMDJBIK": 0.0
                },
                "hitPattern": {
                  "onHitEffectName": "",
                  "hitImpulseY": "",
                  "hitImpulseType": "LV0"
                }
              }
            }
          ],
          "onThinkInterval": [
            {
              "$type": "DamageByAttackValue",
              "attackInfo": {
                "attackTag": "",
                "attenuationTag": "Group1",
                "attenuationGroup": "default",
                "attackProperty": {
                  "actorGrassSubHurtDelta": 0.10000000149011612,
                  "actorWindSubHurtDelta": 0.0,
                  "elementType": "Grass",
                  "elementDurability": 25.0,
                  "strikeType": "Default",
                  "enBreak": 0.0,
                  "GLKMCMDJBIK": 0.0
                },
                "hitPattern": {
                  "onHitEffectName": "",
                  "hitImpulseY": "",
                  "hitImpulseType": "LV0"
                }
              }
            }
          ]
        }
      },
      "onAbilityStart": [
        {
          "$type": "ApplyModifier",
          "target": "Target",
          "predicates": [
            {
              "$type": "ByEntityTypes",
              "entityTypes": ["Avatar", "Vehicle", "Partner"]
            }
          ],
          "modifierName": "UNIQUE_Slime_Grass_Seed_Poison"
        }
      ]
    }
  },
  {
    "Default": {
      "$type": "ConfigAbility",
      "abilityName": "Slime_Grass_JumpGround_castShadow",
      "onAbilityStart": [
        {
          "$type": "ActCameraShake",
          "cameraShake": {
            "shakeType": "CustomVector",
            "shakeRange": 0.05999999865889549,
            "shakeTime": 0.15000000596046448,
            "shakeDir": {
              "y": 1.0
            }
          }
        }
      ]
    }
  },
  {
    "Default": {
      "$type": "ConfigAbility",
      "abilityName": "Slime_Grass_JumpGround_Alert",
      "abilityMixins": [
        {
          "$type": "AttachToNormalizedTimeMixin",
          "stateID": "JumpAttack",
          "modifierName": "JumpCollider",
          "normalizeStart": 0.3449999988079071,
          "normalizeEnd": 0.7400000095367432,
          "DGFCLAIDIFI": ""
        }
      ],
      "modifiers": {
        "JumpGround_Alert": {
          "modifierName": "",
          "duration": 1.0,
          "elementDurability": 100.0,
          "onAdded": [
            {
              "$type": "FireEffect",
              "rotationDampTime": "Eff_Monster_Slime_Fire_JumpGround_Alert",
              "born": {
                "$type": "HCHAOBKOELI"
              },
              "PPPDJGDDOGD": 1.0,
              "AJDILHJFNKE": -1.0
            }
          ]
        },
        "JumpCollider": {
          "modifierName": "",
          "elementDurability": 100.0,
          "modifierMixins": [
            {
              "$type": "AttachActionToModifierMixin",
              "onAdded": [
                {
                  "$type": "IEJIAEEJHGE"
                },
                {
                  "$type": "EnablePushColliderName",
                  "pushColliderNames": ["PushCollider"]
                }
              ],
              "onRemoved": [
                {
                  "$type": "IEJIAEEJHGE",
                  "castShadow": true
                },
                {
                  "$type": "EnablePushColliderName",
                  "pushColliderNames": ["PushCollider"],
                  "setEnable": true
                }
              ]
            }
          ]
        }
      },
      "onAbilityStart": [
        {
          "$type": "ApplyModifier",
          "modifierName": "JumpGround_Alert"
        }
      ]
    }
  },
  {
    "Default": {
      "$type": "ConfigAbility",
      "abilityName": "Slime_Grass_JumpGround_Attack",
      "onAbilityStart": [
        {
          "$type": "TriggerAttackEvent",
          "attackEvent": {
            "attackPattern": {
              "$type": "ConfigAttackCircle",
              "triggerType": "TriggerNoRepeat",
              "born": {
                "$type": "ConfigBornBySelf",
                "offset": {
                  "x": 0.0,
                  "y": 0.0,
                  "z": 0.0
                }
              },
              "height": 1.5,
              "radius": 2.0
            },
            "attackInfo": {
              "attackTag": "",
              "attenuationTag": "",
              "attenuationGroup": "default",
              "attackProperty": {
                "actorGrassSubHurtDelta": 1.0,
                "actorWindSubHurtDelta": 0.0,
                "elementDurability": 100.0,
                "strikeType": "Blunt",
                "enBreak": 200.0,
                "GLKMCMDJBIK": 0.0
              },
              "hitPattern": {
                "onHitEffectName": "default",
                "hitImpulseY": "",
                "hitImpulseType": "LV5",
                "hitHaltTimeScale": 0.009999999776482582
              },
              "forceCameraShake": true,
              "cameraShake": {
                "shakeType": "CustomVector",
                "shakeRange": 0.11999999731779099,
                "shakeTime": 0.15000000596046448,
                "shakeDistance": 25.0,
                "shakeDir": {
                  "y": -1.0
                }
              }
            }
          },
          "targetType": "Enemy"
        }
      ]
    }
  },
  {
    "Default": {
      "$type": "ConfigAbility",
      "abilityName": "Slime_Grass_02_AnimationSteer",
      "abilityMixins": [
        {
          "$type": "IILHMBGONGM",
          "steerStateIDs": ["NormalAttack"],
          "endNormalizedTime": 0.25,
          "angularSpeed": 360.0,
          "attackTrigger": "",
          "attackDistance": 12.0,
          "DGFCLAIDIFI": ""
        }
      ]
    }
  },
  {
    "Default": {
      "$type": "ConfigAbility",
      "abilityName": "Slime_Grass_03_AnimationSteer",
      "abilityMixins": [
        {
          "$type": "IILHMBGONGM",
          "steerStateIDs": ["Turn"],
          "endNormalizedTime": 0.5400000214576721,
          "angularSpeed": 180.0,
          "attackTrigger": "",
          "attackDistance": 12.0,
          "DGFCLAIDIFI": ""
        },
        {
          "$type": "IILHMBGONGM",
          "steerStateIDs": ["NormalAttack"],
          "endNormalizedTime": 0.25,
          "angularSpeed": 360.0,
          "attackTrigger": "",
          "attackDistance": 12.0,
          "DGFCLAIDIFI": ""
        },
        {
          "$type": "IILHMBGONGM",
          "steerStateIDs": ["JumpAttack"],
          "endNormalizedTime": 0.5,
          "angularSpeed": 120.0,
          "attackTrigger": "",
          "attackDistance": 12.0,
          "DGFCLAIDIFI": ""
        },
        {
          "$type": "IILHMBGONGM",
          "steerStateIDs": ["UnderAttack"],
          "endNormalizedTime": 0.17499999701976776,
          "angularSpeed": 120.0,
          "attackTrigger": "",
          "attackDistance": 12.0,
          "DGFCLAIDIFI": ""
        },
        {
          "$type": "IILHMBGONGM",
          "steerStateIDs": ["Sow"],
          "endNormalizedTime": 0.3499999940395355,
          "angularSpeed": 120.0,
          "attackTrigger": "",
          "attackDistance": 12.0,
          "DGFCLAIDIFI": ""
        },
        {
          "$type": "IILHMBGONGM",
          "steerStateIDs": ["Spread"],
          "angularSpeed": 120.0,
          "attackTrigger": "",
          "attackDistance": 12.0,
          "DGFCLAIDIFI": ""
        }
      ]
    }
  }
]
