[
  {
    "Default": {
      "$type": "ConfigAbility",
      "abilityName": "Thoarder_MuscleMan_Hammer_SteerAttack",
      "abilityMixins": [
        {
          "$type": "IILHMBGONGM",
          "steerStateIDs": ["QuickCombo01"],
          "endNormalizedTime": 0.4000000059604645,
          "angularSpeed": 480.0,
          "attackTrigger": "",
          "attackDistance": 3.75,
          "DGFCLAIDIFI": ""
        },
        {
          "$type": "IILHMBGONGM",
          "steerStateIDs": ["QuickCombo01_2"],
          "endNormalizedTime": 0.4000000059604645,
          "angularSpeed": 480.0,
          "attackTrigger": "",
          "attackDistance": 3.75,
          "DGFCLAIDIFI": ""
        },
        {
          "$type": "IILHMBGONGM",
          "steerStateIDs": ["QuickCombo02"],
          "endNormalizedTime": 0.2849999964237213,
          "angularSpeed": 240.0,
          "attackTrigger": "",
          "attackDistance": 3.75,
          "DGFCLAIDIFI": ""
        },
        {
          "$type": "IILHMBGONGM",
          "steerStateIDs": ["QuickCombo02_2"],
          "endNormalizedTime": 0.2849999964237213,
          "angularSpeed": 240.0,
          "attackTrigger": "",
          "attackDistance": 3.75,
          "DGFCLAIDIFI": ""
        },
        {
          "$type": "IILHMBGONGM",
          "steerStateIDs": ["PowerCombo01"],
          "endNormalizedTime": 0.20000000298023224,
          "angularSpeed": 480.0,
          "attackTrigger": "",
          "attackDistance": 3.75,
          "DGFCLAIDIFI": ""
        },
        {
          "$type": "IILHMBGONGM",
          "steerStateIDs": ["PowerCombo02"],
          "startNormalizedTime": 0.10000000149011612,
          "endNormalizedTime": 0.20000000298023224,
          "angularSpeed": 360.0,
          "attackTrigger": "",
          "attackDistance": 3.75,
          "DGFCLAIDIFI": ""
        }
      ]
    }
  }
]
