[
  {
    "Default": {
      "$type": "ConfigAbility",
      "abilityName": "FauneAbyssale_Octopus_AttackSteer",
      "abilityMixins": [
        {
          "$type": "MFGGKNJLABP",
          "PNAPPKMKAJP": ["FireEnergy"],
          "endNormalizedTime": 0.3499999940395355,
          "GINJMMLNHIA": 20.0,
          "HIFACMDKHHK": -20.0,
          "angularSpeed": 120.0,
          "attackTrigger": ""
        },
        {
          "$type": "MFGGKNJLABP",
          "PNAPPKMKAJP": ["NormalAttack"],
          "endNormalizedTime": 0.30000001192092896,
          "GINJMMLNHIA": 20.0,
          "HIFACMDKHHK": -20.0,
          "angularSpeed": 120.0,
          "attackTrigger": ""
        },
        {
          "$type": "MFGGKNJLABP",
          "PNAPPKMKAJP": ["Taunt01", "Taunt02"],
          "GINJMMLNHIA": 20.0,
          "HIFACMDKHHK": -20.0,
          "angularSpeed": 180.0,
          "attackTrigger": ""
        },
        {
          "$type": "IILHMBGONGM",
          "steerStateIDs": ["Turn"],
          "angularSpeed": 240.0,
          "attackTrigger": "",
          "DGFCLAIDIFI": ""
        }
      ]
    }
  },
  {
    "Default": {
      "$type": "ConfigAbility",
      "abilityName": "MonsterAffix_ExcludeForces_WindZoneType",
      "abilityMixins": [
        {
          "$type": "CIBMLJJLANN",
          "excludeForces": ["WindZoneType"]
        }
      ],
      "isDynamicAbility": true
    }
  }
]
