[
  {
    "Default": {
      "$type": "ConfigAbility",
      "abilityName": "Defender_None_Born",
      "onAdded": [
        {
          "$type": "AddGlobalValue",
          "value": 0.0,
          "key": "_ABILITY_DEFENDER_NONE_WEAKNESSPROTECT",
          "useLimitRange": true,
          "maxValue": 1.0,
          "minValue": 0.0
        },
        {
          "$type": "TriggerAbility",
          "predicates": [
            {
              "$type": "ByAnimatorFloat",
              "logic": "LesserOrEqual",
              "value": 100.0,
              "parameter": "PoseID"
            }
          ],
          "abilityName": "Defender_None_Weakness"
        }
      ]
    }
  },
  {
    "Default": {
      "$type": "ConfigAbility",
      "abilityName": "Defender_None_PowerOff",
      "abilityMixins": [
        {
          "$type": "AttachToStateIDMixin",
          "stateIDs": [
            "Born",
            "NormalIdle_PowerOff",
            "PowerOff_WakeUp",
            "PowerOff_Warning"
          ],
          "modifierName": "UNIQUE_Defender_PowerOff",
          "predicates": [
            {
              "$type": "ByAnimatorFloat",
              "logic": "Equal",
              "value": 101.0,
              "parameter": "PoseID"
            }
          ],
          "DGFCLAIDIFI": ""
        }
      ],
      "modifiers": {
        "UNIQUE_Defender_PowerOff": {
          "modifierName": "",
          "forceTriggerWhenChangeAuthority": true,
          "elementDurability": 100.0,
          "properties": {
            "Entity_MassRatio": 1000.0,
            "Entity_WeightRatio": 5.0,
            "Actor_EndureDelta": 0.0
          },
          "onAdded": [
            {
              "$type": "AttachModifier",
              "modifierName": "PowerOff_Invincible"
            },
            {
              "$type": "AttachModifier",
              "modifierName": "PowerOff_IsGhostToAllied"
            },
            {
              "$type": "AttachModifier",
              "modifierName": "PowerOff_IsGhostToEnemy"
            },
            {
              "$type": "AttachModifier",
              "modifierName": "PowerOff_MuteTaunt"
            },
            {
              "$type": "HBNEMPLJCMB",
              "hide": true
            },
            {
              "$type": "IDNGFEEBPAM",
              "boolID": "PowerOff",
              "value": true
            }
          ],
          "onRemoved": [
            {
              "$type": "HBNEMPLJCMB"
            },
            {
              "$type": "IDNGFEEBPAM",
              "boolID": "PowerOff"
            }
          ]
        },
        "PowerOff_Invincible": {
          "modifierName": "",
          "elementDurability": 100.0,
          "state": "Invincible"
        },
        "PowerOff_IsGhostToAllied": {
          "modifierName": "",
          "elementDurability": 100.0,
          "state": "IsGhostToAllied"
        },
        "PowerOff_IsGhostToEnemy": {
          "modifierName": "",
          "elementDurability": 100.0,
          "state": "IsGhostToEnemy"
        },
        "PowerOff_MuteTaunt": {
          "modifierName": "",
          "elementDurability": 100.0,
          "state": "MuteTaunt"
        }
      },
      "onAbilityStart": [
        {
          "$type": "ApplyModifier",
          "modifierName": "UNIQUE_Defender_PowerOff"
        }
      ]
    }
  },
  {
    "Default": {
      "$type": "ConfigAbility",
      "abilityName": "Defender_None_PowerOff_WakeUp",
      "onAbilityStart": [
        {
          "$type": "SetAnimatorTrigger",
          "triggerID": "WakeUpTrigger"
        }
      ]
    }
  },
  {
    "Default": {
      "$type": "ConfigAbility",
      "abilityName": "Defender_None_PowerOff_Remove",
      "abilityMixins": [
        {
          "$type": "AttachToStateIDMixin",
          "stateIDs": ["PowerOff_Warning"],
          "modifierName": "EyeEffect_PowerOffEnd",
          "DGFCLAIDIFI": ""
        },
        {
          "$type": "AttachToStateIDMixin",
          "stateIDs": ["PowerOff_WarningAS"],
          "modifierName": "PowerOff_WarningAS",
          "DGFCLAIDIFI": ""
        }
      ],
      "modifiers": {
        "EyeEffect_PowerOffEnd": {
          "modifierName": "",
          "elementDurability": 100.0,
          "onAdded": [
            {
              "$type": "AttachEffect",
              "rotationDampTime": "Eff_Monster_Defender_None_Eye_02",
              "PPPDJGDDOGD": 1.0,
              "AJDILHJFNKE": -1.0
            }
          ]
        },
        "PowerOff_WarningAS": {
          "modifierName": "",
          "elementDurability": 100.0,
          "onAdded": [
            {
              "$type": "TriggerAbility",
              "abilityName": "Defender_None_Weakness"
            }
          ]
        }
      }
    }
  },
  {
    "Default": {
      "$type": "ConfigAbility",
      "abilityName": "Defender_None_Weakness",
      "abilityMixins": [
        {
          "$type": "AttachToStateIDMixin",
          "stateIDs": ["Break"],
          "modifierName": "UNIQUE_Defender_BreakState",
          "DGFCLAIDIFI": ""
        }
      ],
      "abilitySpecials": {
        "WeaknessDurability": 150.0
      },
      "modifiers": {
        "UNIQUE_Defender_Weakness": {
          "modifierName": "",
          "forceTriggerWhenChangeAuthority": true,
          "elementDurability": "WeaknessDurability",
          "properties": {
            "Actor_EndureDelta": 1.0
          },
          "onAdded": [
            {
              "$type": "GFFKENEJFFB",
              "intID": "EnergyState",
              "value": 1
            },
            {
              "$type": "AttachEffect",
              "rotationDampTime": "Eff_Monster_Defender_None_Eye",
              "PPPDJGDDOGD": 0.10000000149011612,
              "AJDILHJFNKE": -1.0
            },
            {
              "$type": "AttachEffect",
              "rotationDampTime": "Eff_Monster_Defender_None_Active_Back",
              "PPPDJGDDOGD": 1.0,
              "AJDILHJFNKE": -1.0
            },
            {
              "$type": "AttachEffect",
              "rotationDampTime": "Eff_Monster_Defender_None_BackSmoke",
              "PPPDJGDDOGD": 1.0,
              "AJDILHJFNKE": -1.0
            },
            {
              "$type": "EnableHitBoxByName",
              "hitBoxNames": ["HeadBox", "BackBox"],
              "setEnable": true
            },
            {
              "$type": "AddGlobalValue",
              "value": -1.0,
              "key": "_MONSTER_AutoMatron_WeakTag",
              "useLimitRange": true,
              "maxValue": 1.0,
              "minValue": 0.0
            }
          ],
          "onRemoved": [
            {
              "$type": "SetAnimatorTrigger",
              "triggerID": "WeakStartTrigger"
            },
            {
              "$type": "GFFKENEJFFB",
              "intID": "EnergyState"
            },
            {
              "$type": "TriggerAbility",
              "abilityName": "Defender_None_Weak"
            },
            {
              "$type": "FireEffect",
              "rotationDampTime": "Eff_Monster_Defender_None_Eye_03",
              "PPPDJGDDOGD": 1.0,
              "AJDILHJFNKE": -1.0
            },
            {
              "$type": "FireEffect",
              "rotationDampTime": "Eff_Monster_Defender_None_Active_Back_02",
              "PPPDJGDDOGD": 1.0,
              "AJDILHJFNKE": -1.0
            },
            {
              "$type": "EnableHitBoxByName",
              "hitBoxNames": ["HeadBox", "BackBox"]
            },
            {
              "$type": "AddGlobalValue",
              "value": 1.0,
              "key": "_MONSTER_AutoMatron_WeakTag",
              "useLimitRange": true,
              "maxValue": 1.0,
              "minValue": 0.0
            }
          ],
          "onBeingHit": [
            {
              "$type": "Predicated",
              "targetPredicates": [
                {
                  "$type": "OHKJOADLOBB",
                  "hitBoxNames": ["HeadBox", "BackBox"]
                },
                {
                  "$type": "ByHitEnBreak",
                  "logic": "GreaterOrEqual",
                  "enBreak": 80.0
                },
                {
                  "$type": "ByTargetGlobalValue",
                  "key": "_ABILITY_DEFENDER_NONE_WEAKNESSPROTECT",
                  "value": 0.0
                }
              ],
              "successActions": [
                {
                  "$type": "SetAnimatorTrigger",
                  "triggerID": "BreakTrigger"
                },
                {
                  "$type": "FireEffect",
                  "predicates": [
                    {
                      "$type": "OHKJOADLOBB",
                      "hitBoxNames": ["HeadBox"]
                    }
                  ],
                  "rotationDampTime": "Eff_Monster_Defender_None_Weakness_BeHit",
                  "born": {
                    "$type": "ConfigBornByAttachPoint",
                    "attachPointName": "AimingPoint"
                  },
                  "PPPDJGDDOGD": 1.0,
                  "AJDILHJFNKE": -1.0
                },
                {
                  "$type": "FireEffect",
                  "predicates": [
                    {
                      "$type": "OHKJOADLOBB",
                      "hitBoxNames": ["BackBox"]
                    }
                  ],
                  "rotationDampTime": "Eff_Monster_Defender_None_Weakness_BeHit",
                  "born": {
                    "$type": "ConfigBornByAttachPoint",
                    "attachPointName": "BackPoint"
                  },
                  "PPPDJGDDOGD": 1.0,
                  "AJDILHJFNKE": -1.0
                },
                {
                  "$type": "AddElementDurability",
                  "value": -50.0,
                  "modifierName": "UNIQUE_Defender_Weakness",
                  "useLimitRange": true,
                  "maxValue": 9999.0,
                  "minValue": 0.0
                }
              ]
            }
          ]
        },
        "UNIQUE_Defender_BreakState": {
          "modifierName": "",
          "forceTriggerWhenChangeAuthority": true,
          "elementDurability": 100.0,
          "onAdded": [
            {
              "$type": "AttachEffect",
              "rotationDampTime": "Eff_Monster_Defender_None_WeakStart",
              "PPPDJGDDOGD": 1.0,
              "AJDILHJFNKE": -1.0
            }
          ],
          "onBeingHit": [
            {
              "$type": "Predicated",
              "targetPredicates": [
                {
                  "$type": "OHKJOADLOBB",
                  "hitBoxNames": ["HeadBox", "BackBox"]
                },
                {
                  "$type": "ByHitEnBreak",
                  "logic": "GreaterOrEqual",
                  "enBreak": 80.0
                },
                {
                  "$type": "ByTargetGlobalValue",
                  "key": "_ABILITY_DEFENDER_NONE_WEAKNESSPROTECT",
                  "value": 0.0
                }
              ],
              "successActions": [
                {
                  "$type": "FireEffect",
                  "predicates": [
                    {
                      "$type": "OHKJOADLOBB",
                      "hitBoxNames": ["HeadBox"]
                    }
                  ],
                  "rotationDampTime": "Eff_Monster_Defender_None_Weakness_BeHit",
                  "born": {
                    "$type": "ConfigBornByAttachPoint",
                    "attachPointName": "AimingPoint"
                  },
                  "PPPDJGDDOGD": 1.0,
                  "AJDILHJFNKE": -1.0
                },
                {
                  "$type": "FireEffect",
                  "predicates": [
                    {
                      "$type": "OHKJOADLOBB",
                      "hitBoxNames": ["BackBox"]
                    }
                  ],
                  "rotationDampTime": "Eff_Monster_Defender_None_Weakness_BeHit",
                  "born": {
                    "$type": "ConfigBornByAttachPoint",
                    "attachPointName": "BackPoint"
                  },
                  "PPPDJGDDOGD": 1.0,
                  "AJDILHJFNKE": -1.0
                },
                {
                  "$type": "AddElementDurability",
                  "value": -100.0,
                  "modifierName": "UNIQUE_Defender_Weakness",
                  "useLimitRange": true,
                  "maxValue": 9999.0,
                  "minValue": 0.0
                }
              ]
            }
          ]
        }
      },
      "onAbilityStart": [
        {
          "$type": "SetOverrideMapValue",
          "predicates": [
            {
              "$type": "ByTargetGlobalValue",
              "key": "_MONSTERAFFIX_Defender_WeaknessNerf_ForBuoyantCombat",
              "value": 1.0,
              "forceByCaster": true
            }
          ],
          "value": 50.0,
          "overrideMapKey": "WeaknessDurability",
          "maxValue": 0.0,
          "minValue": 0.0
        },
        {
          "$type": "ApplyModifier",
          "modifierName": "UNIQUE_Defender_Weakness"
        }
      ]
    }
  },
  {
    "Default": {
      "$type": "ConfigAbility",
      "abilityName": "Defender_None_Weakness_Remove",
      "onAbilityStart": [
        {
          "$type": "RemoveUniqueModifier",
          "modifierName": "UNIQUE_Defender_Weakness"
        }
      ]
    }
  },
  {
    "Default": {
      "$type": "ConfigAbility",
      "abilityName": "Defender_None_Break_Remove",
      "abilitySpecials": {
        "BreakProtectTime": 7.5,
        "BreakProtectTimeDelta": 1.5
      },
      "modifiers": {
        "BreakProtect": {
          "modifierName": "",
          "duration": "BreakProtectTime",
          "elementDurability": 100.0,
          "onAdded": [
            {
              "$type": "AddGlobalValue",
              "value": 1.0,
              "key": "_ABILITY_DEFENDER_NONE_WEAKNESSPROTECT",
              "useLimitRange": true,
              "maxValue": 1.0,
              "minValue": 0.0
            },
            {
              "$type": "ApplyModifier",
              "modifierName": "BreakProtectEffect"
            }
          ],
          "onRemoved": [
            {
              "$type": "AddGlobalValue",
              "value": -1.0,
              "key": "_ABILITY_DEFENDER_NONE_WEAKNESSPROTECT",
              "useLimitRange": true,
              "maxValue": 1.0,
              "minValue": 0.0
            },
            {
              "$type": "SendEffectTrigger",
              "parameter": "EffectTrigger",
              "attachPoint": "",
              "rotationDampTime": "Eff_Monster_Defender_None_Shield_Eye"
            },
            {
              "$type": "SendEffectTrigger",
              "parameter": "EffectTrigger",
              "attachPoint": "",
              "rotationDampTime": "Eff_Monster_Defender_None_Shield_Back"
            }
          ]
        },
        "BreakProtectEffect": {
          "modifierName": "",
          "duration": [
            "BreakProtectTime",
            "BreakProtectTimeDelta",
            "ADD"
          ],
          "elementDurability": 100.0,
          "onAdded": [
            {
              "$type": "AttachEffect",
              "rotationDampTime": "Eff_Monster_Defender_None_Shield_Eye",
              "PPPDJGDDOGD": 1.0,
              "AJDILHJFNKE": -1.0
            },
            {
              "$type": "AttachEffect",
              "rotationDampTime": "Eff_Monster_Defender_None_Shield_Back",
              "PPPDJGDDOGD": 1.0,
              "AJDILHJFNKE": -1.0
            }
          ]
        }
      },
      "onAbilityStart": [
        {
          "$type": "RemoveUniqueModifier",
          "modifierName": "UNIQUE_Defender_BreakState"
        },
        {
          "$type": "ApplyModifier",
          "modifierName": "BreakProtect"
        }
      ]
    }
  },
  {
    "Default": {
      "$type": "ConfigAbility",
      "abilityName": "Defender_None_Weak",
      "abilitySpecials": {
        "WeakTime_ExtraRatio": 0.0
      },
      "modifiers": {
        "UNIQUE_WeakTimer": {
          "modifierName": "",
          "forceTriggerWhenChangeAuthority": true,
          "duration": [
            15.0,
            "WeakTime_ExtraRatio",
            "MUL",
            15.0,
            "ADD"
          ],
          "elementDurability": 100.0,
          "onAdded": [
            {
              "$type": "IDNGFEEBPAM",
              "boolID": "WeakLocked",
              "value": true
            }
          ],
          "onRemoved": [
            {
              "$type": "IDNGFEEBPAM",
              "boolID": "WeakLocked"
            }
          ]
        }
      },
      "onAbilityStart": [
        {
          "$type": "SetGlobalValueToOverrideMap",
          "globalValueKey": "_MONSTER_WeakTime_ExtraRatio",
          "overrideMapKey": "WeakTime_ExtraRatio"
        },
        {
          "$type": "ApplyModifier",
          "modifierName": "UNIQUE_WeakTimer"
        }
      ]
    }
  },
  {
    "Default": {
      "$type": "ConfigAbility",
      "abilityName": "Defender_None_Weak_Effect",
      "abilityMixins": [
        {
          "$type": "LEOGLBFIELL",
          "poseIDs": [98, 99, 202, 203],
          "modifierName": "WeakEffect"
        },
        {
          "$type": "AttachToStateIDMixin",
          "stateIDs": ["Weak_Start"],
          "modifierName": "Watch_Weak",
          "DGFCLAIDIFI": ""
        }
      ],
      "modifiers": {
        "WeakEffect": {
          "modifierName": "",
          "elementDurability": 100.0,
          "onAdded": [
            {
              "$type": "AttachEffect",
              "rotationDampTime": "Eff_Monster_Defender_None_WeakStart",
              "PPPDJGDDOGD": 1.0,
              "AJDILHJFNKE": -1.0
            }
          ]
        },
        "Watch_Weak": {
          "modifierName": "",
          "elementDurability": 100.0,
          "onAdded": [
            {
              "$type": "HCLAKBJKPLE",
              "watcherId": 82013,
              "inThreatListOnly": true
            }
          ]
        }
      },
      "onAbilityStart": [
        {
          "$type": "RemoveModifier",
          "modifierName": "WeakEffect"
        }
      ]
    }
  },
  {
    "Default": {
      "$type": "ConfigAbility",
      "abilityName": "Defender_None_Weak_Ground",
      "onAbilityStart": [
        {
          "$type": "FireEffect",
          "rotationDampTime": "Eff_Monster_Defender_None_WeakDust",
          "PPPDJGDDOGD": 1.0,
          "AJDILHJFNKE": -1.0
        },
        {
          "$type": "ActCameraShake",
          "cameraShake": {
            "shakeType": "CustomVector",
            "shakeRange": 0.20000000298023224,
            "shakeTime": 0.15000000596046448,
            "shakeDistance": 25.0,
            "shakeDir": {
              "y": -1.0
            }
          }
        }
      ]
    }
  },
  {
    "Default": {
      "$type": "ConfigAbility",
      "abilityName": "Defender_None_Weak_End",
      "abilityMixins": [
        {
          "$type": "AttachToStateIDMixin",
          "stateIDs": ["Weak_End"],
          "modifierName": "EyeEffect_WeakEnd",
          "DGFCLAIDIFI": ""
        },
        {
          "$type": "AttachToStateIDMixin",
          "stateIDs": ["Weak_EndAS"],
          "modifierName": "Weak_EndAS",
          "DGFCLAIDIFI": ""
        }
      ],
      "abilitySpecials": {
        "WeakProtectTime": 15.0,
        "WeakProtectTimeDelta": 1.5
      },
      "modifiers": {
        "EyeEffect_WeakEnd": {
          "modifierName": "",
          "elementDurability": 100.0,
          "onAdded": [
            {
              "$type": "AttachEffect",
              "rotationDampTime": "Eff_Monster_Defender_None_Eye_02",
              "PPPDJGDDOGD": 1.0,
              "AJDILHJFNKE": -1.0
            }
          ]
        },
        "Weak_EndAS": {
          "modifierName": "",
          "elementDurability": 100.0,
          "onAdded": [
            {
              "$type": "TriggerAbility",
              "abilityName": "Defender_None_Weakness"
            },
            {
              "$type": "ApplyModifier",
              "modifierName": "WeakProtect"
            }
          ]
        },
        "WeakProtect": {
          "modifierName": "",
          "duration": "WeakProtectTime",
          "elementDurability": 100.0,
          "onAdded": [
            {
              "$type": "AddGlobalValue",
              "value": 1.0,
              "key": "_ABILITY_DEFENDER_NONE_WEAKNESSPROTECT",
              "useLimitRange": true,
              "maxValue": 1.0,
              "minValue": 0.0
            },
            {
              "$type": "ApplyModifier",
              "modifierName": "WeakProtectEffect"
            }
          ],
          "onRemoved": [
            {
              "$type": "AddGlobalValue",
              "value": -1.0,
              "key": "_ABILITY_DEFENDER_NONE_WEAKNESSPROTECT",
              "useLimitRange": true,
              "maxValue": 1.0,
              "minValue": 0.0
            },
            {
              "$type": "SendEffectTrigger",
              "parameter": "EffectTrigger",
              "attachPoint": "",
              "rotationDampTime": "Eff_Monster_Defender_None_Shield_Eye"
            },
            {
              "$type": "SendEffectTrigger",
              "parameter": "EffectTrigger",
              "attachPoint": "",
              "rotationDampTime": "Eff_Monster_Defender_None_Shield_Back"
            }
          ]
        },
        "WeakProtectEffect": {
          "modifierName": "",
          "duration": [
            "WeakProtectTime",
            "WeakProtectTimeDelta",
            "ADD"
          ],
          "elementDurability": 100.0,
          "onAdded": [
            {
              "$type": "AttachEffect",
              "rotationDampTime": "Eff_Monster_Defender_None_Shield_Eye",
              "PPPDJGDDOGD": 1.0,
              "AJDILHJFNKE": -1.0
            },
            {
              "$type": "AttachEffect",
              "rotationDampTime": "Eff_Monster_Defender_None_Shield_Back",
              "PPPDJGDDOGD": 1.0,
              "AJDILHJFNKE": -1.0
            }
          ]
        }
      }
    }
  },
  {
    "Default": {
      "$type": "ConfigAbility",
      "abilityName": "Defender_None_Whirl",
      "abilityMixins": [
        {
          "$type": "IILHMBGONGM",
          "steerStateIDs": ["Whirl_BS", "Whirl_Loop", "Whirl_AS"],
          "startNormalizedTime": 0.800000011920929,
          "endNormalizedTime": 0.25,
          "angularSpeed": 90.0,
          "attackTrigger": "",
          "DGFCLAIDIFI": ""
        },
        {
          "$type": "AttachToStateIDMixin",
          "stateIDs": ["Whirl_BS", "Whirl_Loop"],
          "modifierName": "Whirl_State",
          "DGFCLAIDIFI": ""
        }
      ],
      "modifiers": {
        "Whirl_Effect_StateCheck": {
          "modifierName": "",
          "elementDurability": 100.0,
          "modifierMixins": [
            {
              "$type": "JJIHJPCPPGO",
              "abilityStates": ["ElementFrozen", "ElementPetrifaction"],
              "reject": true,
              "modifierName": "Whirl_Effect"
            }
          ]
        },
        "Whirl_Effect": {
          "modifierName": "",
          "elementDurability": 100.0,
          "thinkInterval": 0.20000000298023224,
          "onAdded": [
            {
              "$type": "AttachEffect",
              "rotationDampTime": "Eff_Monster_Defender_None_WhirlLoop",
              "PPPDJGDDOGD": 1.0,
              "AJDILHJFNKE": -1.0
            }
          ],
          "onThinkInterval": [
            {
              "$type": "ActCameraShake",
              "cameraShake": {
                "shakeType": "CustomVector",
                "shakeRange": 0.1599999964237213,
                "shakeTime": 0.20000000298023224,
                "shakeDir": {
                  "y": 1.0
                },
                "extension": {
                  "baseCycle": 0.20000000298023224,
                  "cycleDamping": 0.0,
                  "rangeAttenuation": 1.0
                }
              }
            }
          ]
        },
        "Whirl_State": {
          "modifierName": "",
          "elementDurability": 100.0,
          "onRemoved": [
            {
              "$type": "RemoveModifier",
              "modifierName": "Whirl_Effect_StateCheck"
            }
          ]
        }
      },
      "onAbilityStart": [
        {
          "$type": "ApplyModifier",
          "modifierName": "Whirl_Effect_StateCheck"
        }
      ]
    }
  },
  {
    "Default": {
      "$type": "ConfigAbility",
      "abilityName": "Defender_None_Laser_BS",
      "abilityMixins": [
        {
          "$type": "IILHMBGONGM",
          "steerStateIDs": ["Laser_BS"],
          "endNormalizedTime": 0.07999999821186066,
          "angularSpeed": 240.0,
          "attackTrigger": "",
          "DGFCLAIDIFI": ""
        }
      ],
      "modifiers": {
        "Monster_Defender_Laser_Effect_Handler": {
          "modifierName": "",
          "duration": 0.2800000011920929,
          "elementDurability": 100.0,
          "onAdded": [
            {
              "$type": "FireEffect",
              "rotationDampTime": "Eff_Monster_Defender_None_Step",
              "born": {
                "$type": "ConfigBornByAttachPoint",
                "attachPointName": "LeftHand"
              },
              "PPPDJGDDOGD": 1.0,
              "AJDILHJFNKE": -1.0
            }
          ],
          "onRemoved": [
            {
              "$type": "FireEffect",
              "rotationDampTime": "Eff_Monster_Defender_None_Step",
              "born": {
                "$type": "ConfigBornByAttachPoint",
                "attachPointName": "RightHand"
              },
              "PPPDJGDDOGD": 1.0,
              "AJDILHJFNKE": -1.0
            }
          ]
        }
      },
      "onAbilityStart": [
        {
          "$type": "DOGDNJHJADD"
        },
        {
          "$type": "ApplyModifier",
          "modifierName": "Monster_Defender_Laser_Effect_Handler"
        }
      ]
    }
  },
  {
    "Default": {
      "$type": "ConfigAbility",
      "abilityName": "Defender_None_CannonEffect",
      "modifiers": {
        "UNIQUE_Defender_None_ChaseAim_Effect": {
          "modifierName": "",
          "forceTriggerWhenChangeAuthority": true,
          "duration": 1.7000000476837158,
          "elementDurability": 100.0,
          "onAdded": [
            {
              "$type": "AttachEffect",
              "rotationDampTime": "Eff_Monster_Defender_None_ChaseAim",
              "PPPDJGDDOGD": 1.0,
              "AJDILHJFNKE": -1.0
            }
          ]
        }
      },
      "onAbilityStart": [
        {
          "$type": "FireEffect",
          "rotationDampTime": "Eff_Monster_Defender_None_LaserBS1",
          "PPPDJGDDOGD": 1.0,
          "AJDILHJFNKE": -1.0
        },
        {
          "$type": "FireEffect",
          "rotationDampTime": "Eff_Monster_Defender_None_LaserBS2",
          "PPPDJGDDOGD": 1.0,
          "AJDILHJFNKE": -1.0
        },
        {
          "$type": "FireEffect",
          "rotationDampTime": "Eff_Monster_Defender_None_LaserBS3",
          "PPPDJGDDOGD": 1.0,
          "AJDILHJFNKE": -1.0
        },
        {
          "$type": "FireEffect",
          "rotationDampTime": "Eff_Monster_Defender_None_LaserBS4",
          "PPPDJGDDOGD": 1.0,
          "AJDILHJFNKE": -1.0
        },
        {
          "$type": "FireEffect",
          "rotationDampTime": "Eff_Monster_Defender_None_LaserBS5",
          "PPPDJGDDOGD": 1.0,
          "AJDILHJFNKE": -1.0
        },
        {
          "$type": "FireEffect",
          "rotationDampTime": "Eff_Monster_Defender_None_LaserBS6",
          "PPPDJGDDOGD": 1.0,
          "AJDILHJFNKE": -1.0
        },
        {
          "$type": "ApplyModifier",
          "target": "SelfAttackTarget",
          "modifierName": "UNIQUE_Defender_None_ChaseAim_Effect"
        }
      ]
    }
  },
  {
    "Default": {
      "$type": "ConfigAbility",
      "abilityName": "Defender_None_Laser",
      "onAbilityStart": [
        {
          "$type": "TriggerBullet",
          "bulletID": 42304015,
          "born": {
            "$type": "ConfigBornByAttachPoint",
            "offset": {
              "x": 0.0,
              "y": 0.0,
              "z": 0.0
            },
            "direction": {
              "$type": "ConfigDirectionByAttachPoint",
              "attachPointName": "BackSmoke01",
              "attachPointTargetType": "Self"
            },
            "attachPointName": "BackSmoke01"
          }
        },
        {
          "$type": "TriggerBullet",
          "bulletID": 42304015,
          "born": {
            "$type": "ConfigBornByAttachPoint",
            "offset": {
              "x": 0.0,
              "y": 0.0,
              "z": 0.0
            },
            "direction": {
              "$type": "ConfigDirectionByAttachPoint",
              "attachPointName": "BackSmoke02",
              "attachPointTargetType": "Self"
            },
            "attachPointName": "BackSmoke02"
          }
        },
        {
          "$type": "TriggerBullet",
          "bulletID": 42304015,
          "born": {
            "$type": "ConfigBornByAttachPoint",
            "offset": {
              "x": 0.0,
              "y": 0.0,
              "z": 0.0
            },
            "direction": {
              "$type": "ConfigDirectionByAttachPoint",
              "attachPointName": "BackSmoke03",
              "attachPointTargetType": "Self"
            },
            "attachPointName": "BackSmoke03"
          }
        },
        {
          "$type": "TriggerBullet",
          "bulletID": 42304015,
          "born": {
            "$type": "ConfigBornByAttachPoint",
            "offset": {
              "x": 0.0,
              "y": 0.0,
              "z": 0.0
            },
            "direction": {
              "$type": "ConfigDirectionByAttachPoint",
              "attachPointName": "BackSmoke04",
              "attachPointTargetType": "Self"
            },
            "attachPointName": "BackSmoke04"
          }
        },
        {
          "$type": "TriggerBullet",
          "bulletID": 42304015,
          "born": {
            "$type": "ConfigBornByAttachPoint",
            "offset": {
              "x": 0.0,
              "y": 0.0,
              "z": 0.0
            },
            "direction": {
              "$type": "ConfigDirectionByAttachPoint",
              "attachPointName": "BackSmoke05",
              "attachPointTargetType": "Self"
            },
            "attachPointName": "BackSmoke05"
          }
        },
        {
          "$type": "TriggerBullet",
          "bulletID": 42304015,
          "born": {
            "$type": "ConfigBornByAttachPoint",
            "offset": {
              "x": 0.0,
              "y": 0.0,
              "z": 0.0
            },
            "direction": {
              "$type": "ConfigDirectionByAttachPoint",
              "attachPointName": "BackSmoke06",
              "attachPointTargetType": "Self"
            },
            "attachPointName": "BackSmoke06"
          }
        }
      ]
    }
  },
  {
    "Default": {
      "$type": "ConfigAbility",
      "abilityName": "Monster_Defender_None_ChaseBullet",
      "modifiers": {
        "Defender_None_ChaseBullet_Effect": {
          "modifierName": "",
          "elementDurability": 100.0,
          "onAdded": [
            {
              "$type": "AttachEffect",
              "rotationDampTime": "Eff_Monster_Defender_None_Bullet_Chase",
              "PPPDJGDDOGD": 1.0,
              "AJDILHJFNKE": -1.0
            }
          ]
        }
      },
      "onAdded": [
        {
          "$type": "ApplyModifier",
          "modifierName": "Defender_None_ChaseBullet_Effect"
        }
      ],
      "onAbilityStart": [
        {
          "$type": "FireEffect",
          "rotationDampTime": "Eff_Monster_Formathr_None_ChaseBullet_Hit",
          "born": {
            "$type": "ConfigBornByCollisionPoint"
          },
          "PPPDJGDDOGD": 0.4000000059604645,
          "AJDILHJFNKE": -1.0
        },
        {
          "$type": "TriggerAttackEvent",
          "attackEvent": {
            "attackPattern": {
              "$type": "ConfigAttackSphere",
              "triggerType": "TriggerNoRepeat",
              "born": {
                "$type": "ConfigBornByCollisionPoint",
                "offset": {
                  "x": 0.0,
                  "y": 0.0,
                  "z": 0.0
                }
              },
              "radius": 0.5
            },
            "attackInfo": {
              "attackTag": "",
              "attenuationTag": "",
              "attenuationGroup": "default",
              "attackProperty": {
                "actorGrassSubHurtDelta": 0.3125,
                "actorWindSubHurtDelta": 0.0,
                "elementDurability": 100.0,
                "strikeType": "Default",
                "enBreak": 100.0,
                "attackType": "Melee",
                "GLKMCMDJBIK": 0.0
              },
              "hitPattern": {
                "onHitEffectName": "default",
                "hitImpulseY": "",
                "hitImpulseType": "LV4",
                "hitHaltTimeScale": 0.05000000074505806
              },
              "cameraShake": {
                "shakeType": "HitVector",
                "shakeRange": 0.05999999865889549,
                "shakeTime": 0.11999999731779099,
                "shakeDir": {
                  "z": 1.0
                }
              },
              "canBeModifiedBy": "OriginOwner"
            }
          },
          "targetType": "Enemy"
        },
        {
          "$type": "RemoveModifier",
          "modifierName": "Defender_None_ChaseBullet_Effect"
        },
        {
          "$type": "RemoveUniqueModifier",
          "target": "Target",
          "modifierName": "UNIQUE_Defender_None_ChaseAim_Effect"
        },
        {
          "$type": "KillSelf"
        }
      ]
    }
  },
  {
    "Default": {
      "$type": "ConfigAbility",
      "abilityName": "Defender_None_Turn",
      "abilityMixins": [
        {
          "$type": "IILHMBGONGM",
          "steerStateIDs": ["Turn"],
          "startNormalizedTime": 0.10000000149011612,
          "endNormalizedTime": 0.30000001192092896,
          "angularSpeed": 180.0,
          "attackTrigger": "",
          "DGFCLAIDIFI": ""
        },
        {
          "$type": "IILHMBGONGM",
          "steerStateIDs": ["Turn"],
          "startNormalizedTime": 0.30000001192092896,
          "endNormalizedTime": 0.6000000238418579,
          "angularSpeed": 360.0,
          "attackTrigger": "",
          "DGFCLAIDIFI": ""
        }
      ]
    }
  },
  {
    "Default": {
      "$type": "ConfigAbility",
      "abilityName": "Defender_None_Smash_Turn",
      "abilityMixins": [
        {
          "$type": "IILHMBGONGM",
          "steerStateIDs": ["Smash"],
          "startNormalizedTime": 0.1850000023841858,
          "endNormalizedTime": 0.2150000035762787,
          "angularSpeed": 120.0,
          "attackTrigger": "",
          "DGFCLAIDIFI": ""
        },
        {
          "$type": "IILHMBGONGM",
          "steerStateIDs": ["Smash"],
          "startNormalizedTime": 0.3199999928474426,
          "endNormalizedTime": 0.3499999940395355,
          "angularSpeed": 270.0,
          "attackTrigger": "",
          "DGFCLAIDIFI": ""
        },
        {
          "$type": "IILHMBGONGM",
          "steerStateIDs": ["Smash"],
          "startNormalizedTime": 0.46000000834465027,
          "endNormalizedTime": 0.4699999988079071,
          "angularSpeed": 900.0,
          "attackTrigger": "",
          "DGFCLAIDIFI": ""
        }
      ]
    }
  },
  {
    "Default": {
      "$type": "ConfigAbility",
      "abilityName": "Defender_None_Smash_Atk01",
      "modifiers": {
        "Smash_Atk01_Detect": {
          "modifierName": "",
          "duration": 1.0,
          "elementDurability": 100.0,
          "onAttackLanded": [
            {
              "$type": "FireEffect",
              "predicates": [
                {
                  "$type": "ByAttackTags",
                  "attackTags": ["Defender_None_Smash_Atk01"]
                }
              ],
              "rotationDampTime": "Eff_Monster_Defender_None_Smash_01",
              "PPPDJGDDOGD": 1.0,
              "AJDILHJFNKE": -1.0
            }
          ]
        }
      },
      "onAbilityStart": [
        {
          "$type": "FireEffect",
          "rotationDampTime": "Eff_Monster_Defender_None_Smash_01_Miss",
          "PPPDJGDDOGD": 1.0,
          "AJDILHJFNKE": -1.0
        },
        {
          "$type": "TriggerAttackEvent",
          "attackEvent": {
            "attackPattern": {
              "$type": "ConfigAttackCircle",
              "triggerType": "TriggerNoRepeat",
              "born": {
                "$type": "ConfigBornBySelf",
                "offset": {
                  "x": 0.0,
                  "y": 0.0,
                  "z": 1.0
                }
              },
              "fanAngle": 180.0,
              "radius": 2.75
            },
            "attackInfo": {
              "attackTag": "Defender_None_Smash_Atk01",
              "attenuationTag": "",
              "attenuationGroup": "default",
              "attackProperty": {
                "actorGrassSubHurtDelta": 0.5,
                "actorWindSubHurtDelta": 0.0,
                "elementDurability": 100.0,
                "strikeType": "Blunt",
                "enBreak": 100.0,
                "GLKMCMDJBIK": 0.0
              },
              "hitPattern": {
                "onHitEffectName": "default",
                "hitImpulseY": "",
                "hitImpulseType": "LV6",
                "hitHaltTime": 0.05000000074505806,
                "hitHaltTimeScale": 0.009999999776482582
              },
              "cameraShake": {
                "shakeType": "HitVector",
                "shakeRange": 0.30000001192092896,
                "shakeTime": 0.23999999463558197,
                "shakeDistance": 30.0,
                "shakeDir": {
                  "x": -1.0,
                  "y": -1.0
                }
              }
            }
          },
          "targetType": "Enemy"
        },
        {
          "$type": "ApplyModifier",
          "modifierName": "Smash_Atk01_Detect"
        }
      ]
    }
  },
  {
    "Default": {
      "$type": "ConfigAbility",
      "abilityName": "Defender_None_Smash_Atk02",
      "modifiers": {
        "Smash_Atk02_Detect": {
          "modifierName": "",
          "duration": 1.0,
          "elementDurability": 100.0,
          "onAttackLanded": [
            {
              "$type": "FireEffect",
              "predicates": [
                {
                  "$type": "ByAttackTags",
                  "attackTags": ["Defender_None_Smash_Atk02"]
                }
              ],
              "rotationDampTime": "Eff_Monster_Defender_None_Smash_02",
              "PPPDJGDDOGD": 1.0,
              "AJDILHJFNKE": -1.0
            }
          ]
        }
      },
      "onAbilityStart": [
        {
          "$type": "FireEffect",
          "rotationDampTime": "Eff_Monster_Defender_None_Smash_02_Miss",
          "PPPDJGDDOGD": 1.0,
          "AJDILHJFNKE": -1.0
        },
        {
          "$type": "TriggerAttackEvent",
          "attackEvent": {
            "attackPattern": {
              "$type": "ConfigAttackCircle",
              "triggerType": "TriggerNoRepeat",
              "born": {
                "$type": "ConfigBornBySelf",
                "offset": {
                  "x": 0.0,
                  "y": 0.0,
                  "z": 2.0
                }
              },
              "radius": 3.0
            },
            "attackInfo": {
              "attackTag": "Defender_None_Smash_Atk02",
              "attenuationTag": "",
              "attenuationGroup": "default",
              "attackProperty": {
                "actorGrassSubHurtDelta": 0.75,
                "actorWindSubHurtDelta": 0.0,
                "elementDurability": 100.0,
                "strikeType": "Blunt",
                "enBreak": 100.0,
                "GLKMCMDJBIK": 0.0
              },
              "hitPattern": {
                "onHitEffectName": "default",
                "hitImpulseY": "",
                "hitImpulseType": "LV6",
                "hitHaltTime": 0.05000000074505806,
                "hitHaltTimeScale": 0.009999999776482582
              },
              "cameraShake": {
                "shakeType": "HitVector",
                "shakeRange": 0.30000001192092896,
                "shakeTime": 0.23999999463558197,
                "shakeDistance": 30.0,
                "shakeDir": {
                  "x": -1.0,
                  "y": -1.0
                }
              }
            }
          },
          "targetType": "Enemy"
        },
        {
          "$type": "ApplyModifier",
          "modifierName": "Smash_Atk02_Detect"
        }
      ]
    }
  },
  {
    "Default": {
      "$type": "ConfigAbility",
      "abilityName": "Defender_None_Smash_Alert",
      "abilityMixins": [
        {
          "$type": "AttachToNormalizedTimeMixin",
          "stateID": "Smash",
          "modifierName": "Smash_Atk03_Collider",
          "normalizeStart": 0.46799999475479126,
          "normalizeEnd": 0.550000011920929,
          "DGFCLAIDIFI": ""
        }
      ],
      "modifiers": {
        "Smash_Atk03_Collider": {
          "modifierName": "",
          "elementDurability": 100.0,
          "onAdded": [
            {
              "$type": "EnablePushColliderName",
              "pushColliderNames": ["PushCollider"]
            }
          ],
          "onRemoved": [
            {
              "$type": "EnablePushColliderName",
              "pushColliderNames": ["PushCollider"],
              "setEnable": true
            }
          ]
        }
      },
      "onAbilityStart": [
        {
          "$type": "FireEffect",
          "rotationDampTime": "Eff_Monster_Defender_None_Smash_Alert",
          "born": {
            "$type": "HCHAOBKOELI",
            "offset": {
              "x": 0.0,
              "y": 0.0,
              "z": 3.5
            }
          },
          "PPPDJGDDOGD": 1.0,
          "AJDILHJFNKE": -1.0
        },
        {
          "$type": "ActCameraShake",
          "cameraShake": {
            "shakeType": "CustomVector",
            "shakeRange": 0.11999999731779099,
            "shakeTime": 0.15000000596046448,
            "shakeDir": {
              "y": 1.0
            }
          }
        }
      ]
    }
  },
  {
    "Default": {
      "$type": "ConfigAbility",
      "abilityName": "Defender_None_Smash_Atk03",
      "onAbilityStart": [
        {
          "$type": "TriggerAttackEvent",
          "attackEvent": {
            "attackPattern": {
              "$type": "ConfigAttackCircle",
              "triggerType": "TriggerNoRepeat",
              "born": {
                "$type": "ConfigBornBySelf",
                "offset": {
                  "x": 0.0,
                  "y": 0.0,
                  "z": 3.0
                }
              },
              "radius": 4.0
            },
            "attackInfo": {
              "attackTag": "",
              "attenuationTag": "",
              "attenuationGroup": "default",
              "attackProperty": {
                "actorGrassSubHurtDelta": 1.0,
                "actorWindSubHurtDelta": 0.0,
                "elementDurability": 100.0,
                "strikeType": "Blunt",
                "enBreak": 200.0,
                "GLKMCMDJBIK": 0.0
              },
              "hitPattern": {
                "onHitEffectName": "default",
                "hitImpulseY": "",
                "hitImpulseType": "LV8"
              },
              "forceCameraShake": true,
              "cameraShake": {
                "shakeType": "CustomVector",
                "shakeRange": 0.36000001430511475,
                "shakeTime": 0.36000001430511475,
                "shakeDistance": 30.0,
                "shakeDir": {
                  "y": -1.0
                }
              }
            }
          },
          "targetType": "Enemy"
        },
        {
          "$type": "FireEffect",
          "rotationDampTime": "Eff_Monster_Defender_None_Smash_03",
          "PPPDJGDDOGD": 1.0,
          "AJDILHJFNKE": -1.0
        }
      ]
    }
  },
  {
    "Default": {
      "$type": "ConfigAbility",
      "abilityName": "Defender_None_Stamp",
      "abilityMixins": [
        {
          "$type": "IILHMBGONGM",
          "steerStateIDs": ["Stamp"],
          "startNormalizedTime": 0.15000000596046448,
          "endNormalizedTime": 0.3499999940395355,
          "angularSpeed": 120.0,
          "attackTrigger": "",
          "DGFCLAIDIFI": ""
        },
        {
          "$type": "IILHMBGONGM",
          "steerStateIDs": ["Swipe"],
          "endNormalizedTime": 0.11999999731779099,
          "angularSpeed": 180.0,
          "attackTrigger": "",
          "DGFCLAIDIFI": ""
        }
      ],
      "onAbilityStart": [
        {
          "$type": "Predicated",
          "target": "SelfAttackTarget",
          "targetPredicates": [
            {
              "$type": "ByTargetPositionToSelfPosition",
              "logic": "Lesser",
              "value": 5.5,
              "DDALGNLEHOD": ""
            }
          ],
          "successActions": [
            {
              "$type": "SetAnimatorTrigger",
              "triggerID": "SwipeTrigger"
            }
          ]
        }
      ]
    }
  },
  {
    "Default": {
      "$type": "ConfigAbility",
      "abilityName": "Defender_None_Swipe_Arm_01",
      "onAbilityStart": [
        {
          "$type": "FireEffect",
          "rotationDampTime": "Eff_Monster_Defender_None_Arm",
          "born": {
            "$type": "ConfigBornByAttachPoint",
            "attachPointName": "ArmL02"
          },
          "PPPDJGDDOGD": 1.0,
          "AJDILHJFNKE": -1.0
        },
        {
          "$type": "FireEffect",
          "rotationDampTime": "Eff_Monster_Defender_None_Arm",
          "born": {
            "$type": "ConfigBornByAttachPoint",
            "attachPointName": "ArmR02"
          },
          "PPPDJGDDOGD": 1.0,
          "AJDILHJFNKE": -1.0
        }
      ]
    }
  },
  {
    "Default": {
      "$type": "ConfigAbility",
      "abilityName": "Defender_None_Swipe_Arm_02",
      "onAbilityStart": [
        {
          "$type": "FireEffect",
          "rotationDampTime": "Eff_Monster_Defender_None_Arm",
          "born": {
            "$type": "ConfigBornByAttachPoint",
            "attachPointName": "ArmL03"
          },
          "PPPDJGDDOGD": 1.0,
          "AJDILHJFNKE": -1.0
        },
        {
          "$type": "FireEffect",
          "rotationDampTime": "Eff_Monster_Defender_None_Arm",
          "born": {
            "$type": "ConfigBornByAttachPoint",
            "attachPointName": "ArmR03"
          },
          "PPPDJGDDOGD": 1.0,
          "AJDILHJFNKE": -1.0
        }
      ]
    }
  },
  {
    "Default": {
      "$type": "ConfigAbility",
      "abilityName": "Defender_None_Swipe_Arm_03",
      "onAbilityStart": [
        {
          "$type": "FireEffect",
          "rotationDampTime": "Eff_Monster_Defender_None_Arm",
          "born": {
            "$type": "ConfigBornByAttachPoint",
            "attachPointName": "ArmL04"
          },
          "PPPDJGDDOGD": 1.0,
          "AJDILHJFNKE": -1.0
        },
        {
          "$type": "FireEffect",
          "rotationDampTime": "Eff_Monster_Defender_None_Arm",
          "born": {
            "$type": "ConfigBornByAttachPoint",
            "attachPointName": "ArmR04"
          },
          "PPPDJGDDOGD": 1.0,
          "AJDILHJFNKE": -1.0
        }
      ]
    }
  },
  {
    "Default": {
      "$type": "ConfigAbility",
      "abilityName": "Defender_None_Swipe_Arm_04",
      "onAbilityStart": [
        {
          "$type": "FireEffect",
          "rotationDampTime": "Eff_Monster_Defender_None_Arm",
          "born": {
            "$type": "ConfigBornByAttachPoint",
            "attachPointName": "ArmL05"
          },
          "PPPDJGDDOGD": 1.0,
          "AJDILHJFNKE": -1.0
        },
        {
          "$type": "FireEffect",
          "rotationDampTime": "Eff_Monster_Defender_None_Arm",
          "born": {
            "$type": "ConfigBornByAttachPoint",
            "attachPointName": "ArmR05"
          },
          "PPPDJGDDOGD": 1.0,
          "AJDILHJFNKE": -1.0
        }
      ]
    }
  },
  {
    "Default": {
      "$type": "ConfigAbility",
      "abilityName": "Defender_None_Die",
      "onAbilityStart": [
        {
          "$type": "FireEffect",
          "rotationDampTime": "Eff_Monster_Defender_None_Die",
          "PPPDJGDDOGD": 1.0,
          "AJDILHJFNKE": -1.0
        }
      ]
    }
  },
  {
    "Default": {
      "$type": "ConfigAbility",
      "abilityName": "Defender_None_Die_Ground",
      "onAbilityStart": [
        {
          "$type": "FireEffect",
          "rotationDampTime": "Eff_Monster_Defender_None_WeakDust",
          "born": {
            "$type": "ConfigBornByTarget",
            "offset": {
              "x": 0.0,
              "y": 0.0,
              "z": 3.75
            }
          },
          "PPPDJGDDOGD": 1.0,
          "AJDILHJFNKE": -1.0
        },
        {
          "$type": "ActCameraShake",
          "cameraShake": {
            "shakeType": "CustomVector",
            "shakeRange": 0.36000001430511475,
            "shakeTime": 0.36000001430511475,
            "shakeDistance": 30.0,
            "shakeDir": {
              "y": -1.0
            }
          }
        }
      ]
    }
  },
  {
    "Default": {
      "$type": "ConfigAbility",
      "abilityName": "Defender_None_WeakDie_Ground",
      "onAbilityStart": [
        {
          "$type": "FireEffect",
          "rotationDampTime": "Eff_Monster_Defender_None_WeakDust",
          "born": {
            "$type": "ConfigBornByTarget",
            "offset": {
              "x": 0.0,
              "y": 0.0,
              "z": 0.0
            }
          },
          "PPPDJGDDOGD": 1.0,
          "AJDILHJFNKE": -1.0
        }
      ]
    }
  },
  {
    "Default": {
      "$type": "ConfigAbility",
      "abilityName": "Defender_None_Step_Left",
      "onAbilityStart": [
        {
          "$type": "ActCameraShake",
          "predicates": [
            {
              "$type": "ByAnimatorInt",
              "logic": "Equal",
              "value": 0,
              "parameter": "SkillID"
            }
          ],
          "cameraShake": {
            "shakeType": "CustomVector",
            "shakeRange": 0.05999999865889549,
            "shakeTime": 0.09000000357627869,
            "shakeDir": {
              "y": -1.0
            }
          }
        },
        {
          "$type": "FireEffect",
          "rotationDampTime": "Eff_Monster_Defender_None_Step",
          "born": {
            "$type": "ConfigBornByAttachPoint",
            "attachPointName": "LeftFoot"
          },
          "PPPDJGDDOGD": 1.0,
          "AJDILHJFNKE": -1.0
        }
      ]
    }
  },
  {
    "Default": {
      "$type": "ConfigAbility",
      "abilityName": "Defender_None_Step_Right",
      "onAbilityStart": [
        {
          "$type": "ActCameraShake",
          "predicates": [
            {
              "$type": "ByAnimatorInt",
              "logic": "Equal",
              "value": 0,
              "parameter": "SkillID"
            }
          ],
          "cameraShake": {
            "shakeType": "CustomVector",
            "shakeRange": 0.05999999865889549,
            "shakeTime": 0.09000000357627869,
            "shakeDir": {
              "y": -1.0
            }
          }
        },
        {
          "$type": "FireEffect",
          "rotationDampTime": "Eff_Monster_Defender_None_Step",
          "born": {
            "$type": "ConfigBornByAttachPoint",
            "attachPointName": "RightFoot"
          },
          "PPPDJGDDOGD": 1.0,
          "AJDILHJFNKE": -1.0
        }
      ]
    }
  },
  {
    "Default": {
      "$type": "ConfigAbility",
      "abilityName": "Defender_None_ReturnToBorn",
      "abilityMixins": [
        {
          "$type": "LEOGLBFIELL",
          "poseIDs": [902, 903],
          "modifierName": "ReturnToBorn_State"
        },
        {
          "$type": "LEOGLBFIELL",
          "poseIDs": [902],
          "modifierName": "ReturnToBorn_Disappear"
        },
        {
          "$type": "LEOGLBFIELL",
          "poseIDs": [903],
          "modifierName": "ReturnToBorn_Appear"
        }
      ],
      "modifiers": {
        "ReturnToBorn_Disappear": {
          "modifierName": "",
          "elementDurability": 100.0,
          "onAdded": [
            {
              "$type": "AKIIMECIGKE",
              "duration": 2.0
            }
          ]
        },
        "ReturnToBorn_Appear": {
          "modifierName": "",
          "elementDurability": 100.0,
          "onAdded": [
            {
              "$type": "AKIIMECIGKE",
              "duration": 0.20000000298023224,
              "reverse": true
            }
          ]
        },
        "ReturnToBorn_State": {
          "modifierName": "",
          "elementDurability": 100.0,
          "onAdded": [
            {
              "$type": "RemoveUniqueModifier",
              "modifierName": "UNIQUE_Defender_Weakness"
            },
            {
              "$type": "ResetAnimatorTrigger",
              "triggerID": "WeakStartTrigger"
            },
            {
              "$type": "AttachModifier",
              "modifierName": "ReturnToBorn_Invincible"
            },
            {
              "$type": "AttachModifier",
              "modifierName": "ReturnToBorn_DenyLockOn"
            }
          ],
          "onRemoved": [
            {
              "$type": "RemoveUniqueModifier",
              "modifierName": "UNIQUE_WeakTimer"
            },
            {
              "$type": "TriggerAbility",
              "abilityName": "Defender_None_Weakness"
            }
          ]
        },
        "ReturnToBorn_Invincible": {
          "modifierName": "",
          "elementDurability": 100.0,
          "state": "Invincible"
        },
        "ReturnToBorn_DenyLockOn": {
          "modifierName": "",
          "elementDurability": 100.0,
          "state": "DenyLockOn"
        }
      }
    }
  },
  {
    "Default": {
      "$type": "ConfigAbility",
      "abilityName": "Defender_None_GearControl",
      "abilityMixins": [
        {
          "$type": "AttachToStateIDMixin",
          "stateIDs": [
            "Weak_Start",
            "BeHit",
            "NormalIdle_PowerOff",
            "NormalIdle_WeakLoop",
            "PowerOff_WakeUp",
            "Born"
          ],
          "modifierName": "GearControl_Stop",
          "DGFCLAIDIFI": ""
        },
        {
          "$type": "AttachToStateIDMixin",
          "stateIDs": [
            "Weak_End",
            "Weak_EndAS",
            "PowerOff_Warning",
            "PowerOff_WarningAS"
          ],
          "modifierName": "GearControl_Active",
          "DGFCLAIDIFI": ""
        },
        {
          "$type": "AttachToStateIDMixin",
          "stateIDs": [
            "Smash",
            "Stamp",
            "Swipe",
            "Whirl_BS",
            "Whirl_Loop",
            "Laser_BS",
            "Laser_Aim"
          ],
          "modifierName": "GearControl_Skill",
          "DGFCLAIDIFI": ""
        },
        {
          "$type": "AttachToStateIDMixin",
          "stateIDs": [
            "NormalIdle",
            "Turn",
            "NormalMove",
            "Whirl_AS",
            "Laser_Shoot"
          ],
          "modifierName": "GearControl_Normal",
          "DGFCLAIDIFI": ""
        }
      ],
      "modifiers": {
        "GearControl_Stop": {
          "modifierName": "",
          "elementDurability": 100.0,
          "onAdded": [
            {
              "$type": "SetAnimatorFloat",
              "floatID": "GearSpeed",
              "value": 0.0
            }
          ]
        },
        "GearControl_Normal": {
          "modifierName": "",
          "elementDurability": 100.0,
          "onAdded": [
            {
              "$type": "SetAnimatorFloat",
              "floatID": "GearSpeed",
              "value": 1.0
            }
          ]
        },
        "GearControl_Active": {
          "modifierName": "",
          "elementDurability": 100.0,
          "onAdded": [
            {
              "$type": "SetAnimatorFloat",
              "floatID": "GearSpeed",
              "value": 3.0
            }
          ]
        },
        "GearControl_Skill": {
          "modifierName": "",
          "elementDurability": 100.0,
          "onAdded": [
            {
              "$type": "SetAnimatorFloat",
              "floatID": "GearSpeed",
              "value": 2.0
            }
          ]
        }
      },
      "onAbilityStart": [
        {
          "$type": "SetAnimatorFloat",
          "floatID": "GearSpeed",
          "value": 0.0
        }
      ],
      "onKill": [
        {
          "$type": "SetAnimatorFloat",
          "floatID": "GearSpeed",
          "value": 0.5
        }
      ]
    }
  },
  {
    "Default": {
      "$type": "ConfigAbility",
      "abilityName": "Defender_None_HeadControl",
      "abilityMixins": [
        {
          "$type": "AttachToStateIDMixin",
          "stateIDs": [
            "NormalIdle_PowerOff",
            "PowerOff_WakeUp",
            "Weak_Start",
            "BeHit",
            "Break",
            "Whirl_BS",
            "Whirl_Loop",
            "Whirl_AS"
          ],
          "modifierName": "HeadControl_Disable",
          "DGFCLAIDIFI": ""
        }
      ],
      "modifiers": {
        "HeadControl_Disable": {
          "modifierName": "",
          "elementDurability": 100.0,
          "onAdded": [
            {
              "$type": "EnableHeadControl"
            }
          ],
          "onRemoved": [
            {
              "$type": "EnableHeadControl",
              "enable": true
            }
          ]
        }
      }
    }
  }
]
