[
  {
    "Default": {
      "$type": "ConfigAbility",
      "abilityName": "Monster_Hound_Riftstalker_Electric_Pose",
      "abilityMixins": [
        {
          "$type": "AttachModifierToSelfGlobalValueMixin",
          "globalValueKey": "_Riftstalker_POSE_TAG_",
          "gvInTalk": 0.0,
          "valueSteps": [-0.5, 0.5, 1.5, 2.5],
          "modifierNameSteps": [
            "Pose_None",
            "Pose_NormalToActivated",
            "Pose_Activated"
          ]
        },
        {
          "$type": "LEOGLBFIELL",
          "poseIDs": [201, 301, 401],
          "modifierName": "Riftstalker_ChargeBar_Handler"
        }
      ],
      "modifiers": {
        "Riftstalker_ChargeBar_Handler": {
          "modifierName": "",
          "elementDurability": 100.0,
          "onAdded": [
            {
              "$type": "ApplyModifier",
              "modifierName": "UNIQUE_Riftstalker_ChargeBar"
            }
          ],
          "onRemoved": [
            {
              "$type": "RemoveUniqueModifier",
              "modifierName": "UNIQUE_Riftstalker_ChargeBar"
            }
          ]
        },
        "UNIQUE_Riftstalker_ChargeBar": {
          "modifierName": "",
          "forceTriggerWhenChangeAuthority": true,
          "elementDurability": 100.0,
          "modifierMixins": [
            {
              "$type": "HBPDEMIJCDL",
              "chargeBarElementType": "Electric",
              "chargeBarIconID": 2,
              "initialValue": 0.0,
              "maxValue": 100.0
            },
            {
              "$type": "AttachModifierToSelfGlobalValueMixin",
              "globalValueKey": "_CHARGEBAR_VALUE",
              "gvInTalk": 0.0,
              "valueSteps": [99.5, 100.5],
              "modifierNameSteps": ["ChargeActivated"]
            }
          ],
          "onAdded": [
            {
              "$type": "FEJJABGNGHA",
              "value": 0.0
            }
          ]
        },
        "ChargeActivated": {
          "modifierName": "",
          "elementDurability": 100.0,
          "onAdded": [
            {
              "$type": "SetGlobalValue",
              "value": 1.0,
              "key": "_Riftstalker_POSE_TAG_",
              "maxValue": 0.0,
              "minValue": 0.0
            }
          ]
        },
        "Pose_None": {
          "modifierName": "",
          "elementDurability": 100.0,
          "onAdded": [
            {
              "$type": "GFFKENEJFFB",
              "intID": "ActivatedTag"
            },
            {
              "$type": "SetAnimatorBool",
              "boolID": "ActivatedTag"
            },
            {
              "$type": "SetAnimatorBool",
              "boolID": "ShaderActivatedTag"
            }
          ]
        },
        "Pose_NormalToActivated": {
          "modifierName": "",
          "elementDurability": 100.0,
          "onAdded": [
            {
              "$type": "GFFKENEJFFB",
              "intID": "ActivatedTag",
              "value": 1
            },
            {
              "$type": "OHPMBBJIJFG",
              "value": 0.20000000298023224
            }
          ]
        },
        "Pose_Activated": {
          "modifierName": "",
          "elementDurability": 100.0,
          "properties": {
            "Actor_ElecSubHurtDelta": -0.6499999761581421
          },
          "state": "DefenseDown",
          "onAdded": [
            {
              "$type": "GFFKENEJFFB",
              "intID": "ActivatedTag",
              "value": 2
            },
            {
              "$type": "SetAnimatorBool",
              "boolID": "ActivatedTag",
              "value": true
            },
            {
              "$type": "SetAnimatorBool",
              "boolID": "ShaderActivatedTag",
              "value": true
            },
            {
              "$type": "OHPMBBJIJFG",
              "value": 1.399999976158142
            }
          ]
        },
        "UNIQUE_Riftstalker_BeHitCheck": {
          "modifierName": "",
          "forceTriggerWhenChangeAuthority": true,
          "elementDurability": 100.0,
          "onBeingHit": [
            {
              "$type": "Predicated",
              "target": "Target",
              "targetPredicates": [
                {
                  "$type": "ByEntityTypes",
                  "entityTypes": ["Avatar", "Vehicle", "Partner"]
                },
                {
                  "$type": "ByHitElement",
                  "element": "Electric"
                }
              ],
              "successActions": [
                {
                  "$type": "PMJJNECJCLE",
                  "value": 20.0,
                  "maxValue": 0.0,
                  "minValue": 0.0
                }
              ]
            },
            {
              "$type": "Predicated",
              "target": "TargetOriginOwner",
              "targetPredicates": [
                {
                  "$type": "ByEntityTypes",
                  "entityTypes": ["Avatar", "Vehicle", "Partner"]
                },
                {
                  "$type": "ByHitElement",
                  "element": "Electric"
                }
              ],
              "successActions": [
                {
                  "$type": "PMJJNECJCLE",
                  "value": 20.0,
                  "maxValue": 0.0,
                  "minValue": 0.0
                }
              ]
            }
          ]
        }
      },
      "onAdded": [
        {
          "$type": "ApplyModifier",
          "modifierName": "UNIQUE_Riftstalker_BeHitCheck"
        },
        {
          "$type": "SetGlobalValue",
          "value": 1.0,
          "key": "_RIFTSTALKER_ELECTRIC_TAG_",
          "maxValue": 0.0,
          "minValue": 0.0
        }
      ]
    }
  },
  {
    "Default": {
      "$type": "ConfigAbility",
      "abilityName": "Monster_Hound_Riftstalker_Electric_Steer",
      "abilityMixins": [
        {
          "$type": "IILHMBGONGM",
          "steerStateIDs": ["RandomWalk"],
          "angularSpeed": 720.0,
          "attackTrigger": "",
          "DGFCLAIDIFI": ""
        },
        {
          "$type": "IILHMBGONGM",
          "steerStateIDs": ["WavePaw"],
          "endNormalizedTime": 0.20000000298023224,
          "angularSpeed": 120.0,
          "attackTrigger": "",
          "DGFCLAIDIFI": ""
        },
        {
          "$type": "IILHMBGONGM",
          "steerStateIDs": ["Strike_BS"],
          "endNormalizedTime": 0.18000000715255737,
          "angularSpeed": 180.0,
          "attackTrigger": "",
          "DGFCLAIDIFI": ""
        },
        {
          "$type": "IILHMBGONGM",
          "steerStateIDs": ["Biting"],
          "endNormalizedTime": 0.25,
          "angularSpeed": 120.0,
          "attackTrigger": "",
          "DGFCLAIDIFI": ""
        },
        {
          "$type": "IILHMBGONGM",
          "steerStateIDs": ["JumpBack"],
          "endNormalizedTime": 0.10000000149011612,
          "angularSpeed": 270.0,
          "attackTrigger": "",
          "DGFCLAIDIFI": ""
        },
        {
          "$type": "IILHMBGONGM",
          "steerStateIDs": ["ShockWave"],
          "endNormalizedTime": 0.11999999731779099,
          "angularSpeed": 270.0,
          "attackTrigger": "",
          "DGFCLAIDIFI": ""
        },
        {
          "$type": "IILHMBGONGM",
          "steerStateIDs": ["ShockWave"],
          "startNormalizedTime": 0.5,
          "endNormalizedTime": 0.5899999737739563,
          "angularSpeed": 270.0,
          "attackTrigger": "",
          "DGFCLAIDIFI": ""
        }
      ]
    }
  },
  {
    "Default": {
      "$type": "ConfigAbility",
      "abilityName": "Monster_Hound_Riftstalker_Electric_AddBodyEff",
      "modifiers": {
        "UNIQUE_Riftstalker_Electric_BodyEff": {
          "modifierName": "",
          "forceTriggerWhenChangeAuthority": true,
          "elementDurability": 100.0,
          "onAdded": [
            {
              "$type": "AttachEffect",
              "rotationDampTime": "Eff_Monster_Riftstalker_Electric_Body",
              "PPPDJGDDOGD": 1.0,
              "AJDILHJFNKE": -1.0
            }
          ]
        },
        "UNIQUE_Riftstalker_Electric_EyeEff": {
          "modifierName": "",
          "forceTriggerWhenChangeAuthority": true,
          "elementDurability": 100.0,
          "onAdded": [
            {
              "$type": "AttachEffect",
              "rotationDampTime": "Eff_Monster_Riftstalker_Electric_Eye",
              "born": {
                "$type": "ConfigBornByAttachPoint",
                "offset": {
                  "x": 0.0,
                  "y": 0.0,
                  "z": 0.0
                },
                "attachPointName": "Mouth"
              },
              "PPPDJGDDOGD": 1.0,
              "AJDILHJFNKE": -1.0
            }
          ]
        }
      },
      "onAdded": [
        {
          "$type": "ApplyModifier",
          "modifierName": "UNIQUE_Riftstalker_Electric_BodyEff"
        },
        {
          "$type": "ApplyModifier",
          "modifierName": "UNIQUE_Riftstalker_Electric_EyeEff"
        }
      ],
      "onAbilityStart": [
        {
          "$type": "ApplyModifier",
          "modifierName": "UNIQUE_Riftstalker_Electric_BodyEff"
        },
        {
          "$type": "ApplyModifier",
          "modifierName": "UNIQUE_Riftstalker_Electric_EyeEff"
        }
      ]
    }
  },
  {
    "Default": {
      "$type": "ConfigAbility",
      "abilityName": "Monster_Hound_Riftstalker_Electric_RemoveBodyEff",
      "onAbilityStart": [
        {
          "$type": "RemoveUniqueModifier",
          "modifierName": "UNIQUE_Riftstalker_Electric_BodyEff"
        },
        {
          "$type": "RemoveUniqueModifier",
          "modifierName": "UNIQUE_Riftstalker_Electric_EyeEff"
        }
      ]
    }
  },
  {
    "Default": {
      "$type": "ConfigAbility",
      "abilityName": "Monster_Hound_Riftstalker_Electric_Strike_State",
      "abilityMixins": [
        {
          "$type": "AttachToStateIDMixin",
          "stateIDs": ["Strike_Loop_01", "Strike_Loop_02", "Strike_Loop_03"],
          "modifierName": "UNIQUE_Strike_Actions",
          "DGFCLAIDIFI": ""
        },
        {
          "$type": "AttachToStateIDMixin",
          "stateIDs": ["Strike_Loop_02"],
          "modifierName": "Strike_FindBlinkPointActions",
          "DGFCLAIDIFI": ""
        },
        {
          "$type": "AttachToStateIDMixin",
          "stateIDs": ["Strike_Loop_03"],
          "modifierName": "Strike_BlinkActions",
          "DGFCLAIDIFI": ""
        }
      ],
      "modifiers": {
        "UNIQUE_Strike_Actions": {
          "modifierName": "",
          "forceTriggerWhenChangeAuthority": true,
          "elementDurability": 100.0,
          "onAdded": [
            {
              "$type": "ClearLockTarget",
              "target": "CurLocalAvatar"
            },
            {
              "$type": "AttachModifier",
              "modifierName": "Strike_Invincible"
            },
            {
              "$type": "AttachModifier",
              "modifierName": "Strike_DenyLockOn"
            },
            {
              "$type": "TriggerSetVisible"
            },
            {
              "$type": "HBNEMPLJCMB",
              "hide": true
            },
            {
              "$type": "EnableHitBoxByName",
              "hitBoxNames": ["HitBox_Head", "HitBox_Body"]
            },
            {
              "$type": "EnablePushColliderName",
              "pushColliderNames": ["PushCollider"]
            },
            {
              "$type": "TriggerAbility",
              "abilityName": "Monster_Hound_Riftstalker_Electric_RemoveBodyEff"
            }
          ],
          "onRemoved": [
            {
              "$type": "EnableHitBoxByName",
              "hitBoxNames": ["HitBox_Head", "HitBox_Body"],
              "setEnable": true
            },
            {
              "$type": "EnablePushColliderName",
              "pushColliderNames": ["PushCollider"],
              "setEnable": true
            },
            {
              "$type": "TriggerSetVisible",
              "KGGEDGKGLDD": true
            },
            {
              "$type": "HBNEMPLJCMB"
            },
            {
              "$type": "TriggerAbility",
              "abilityName": "Monster_Hound_Riftstalker_Electric_AddBodyEff"
            }
          ]
        },
        "Strike_Invincible": {
          "modifierName": "",
          "elementDurability": 100.0,
          "state": "Invincible"
        },
        "Strike_DenyLockOn": {
          "modifierName": "",
          "elementDurability": 100.0,
          "state": "DenyLockOn"
        },
        "Strike_FindBlinkPointActions": {
          "modifierName": "",
          "elementDurability": 100.0,
          "onAdded": [
            {
              "$type": "TriggerAbility",
              "abilityName": "Monster_Hound_Riftstalker_Electric_Strike_FindBlinkPoint"
            }
          ]
        },
        "Strike_BlinkActions": {
          "modifierName": "",
          "elementDurability": 100.0,
          "onAdded": [
            {
              "$type": "TriggerAbility",
              "abilityName": "Monster_Hound_Riftstalker_Electric_Strike_DoBlink"
            }
          ],
          "onRemoved": [
            {
              "$type": "FireEffect",
              "rotationDampTime": "Eff_Monster_Riftstalker_Electric_Strike_AS",
              "born": {
                "$type": "DNEKFAOHKBC"
              },
              "PPPDJGDDOGD": 1.0,
              "AJDILHJFNKE": -1.0
            }
          ]
        }
      }
    }
  },
  {
    "Default": {
      "$type": "ConfigAbility",
      "abilityName": "Monster_Hound_Riftstalker_Electric_Strike_FindBlinkPoint",
      "onAbilityStart": [
        {
          "$type": "BHPDPACKKNI",
          "target": "SelfAttackTarget",
          "predicates": [
            {
              "$type": "ByTargetGlobalValue",
              "target": "Self",
              "key": "_ROUGUE_HOUNDSTRIKE_TAG_",
              "value": 0.0,
              "compareType": "NoneOrEqual"
            }
          ],
          "born": {
            "$type": "ConfigBornByTargetLinearPoint",
            "offset": {
              "x": 0.0,
              "y": 0.0,
              "z": 0.0
            },
            "onGround": true,
            "linearOffset": 4.800000190734863,
            "linearXZ": false,
            "linearMin": 0.0,
            "linearMax": 40.0
          },
          "hitSceneType": "BlinkHitSceneTestByThreeSegments",
          "limitY": 2.5
        },
        {
          "$type": "BHPDPACKKNI",
          "target": "SelfAttackTarget",
          "predicates": [
            {
              "$type": "ByTargetGlobalValue",
              "target": "Self",
              "key": "_ROUGUE_HOUNDSTRIKE_TAG_",
              "value": 1.0
            }
          ],
          "born": {
            "$type": "ConfigBornByTargetLinearPoint",
            "offset": {
              "x": 0.0,
              "y": 0.0,
              "z": 0.0
            },
            "onGround": true,
            "linearOffset": 4.800000190734863,
            "linearXZ": false,
            "linearMin": 0.0,
            "linearMax": 40.0
          },
          "hitSceneType": "BlinkHitSceneTestByThreeSegments",
          "limitY": 2.5
        }
      ]
    }
  },
  {
    "Default": {
      "$type": "ConfigAbility",
      "abilityName": "Monster_Hound_Riftstalker_Electric_Strike_DoBlink",
      "onAbilityStart": [
        {
          "$type": "IFCMHHHOLCK"
        },
        {
          "$type": "TurnDirectionToPos",
          "target": "SelfAttackTarget",
          "toPos": {
            "$type": "ConfigBornByTarget"
          }
        }
      ]
    }
  },
  {
    "Default": {
      "$type": "ConfigAbility",
      "abilityName": "Monster_Hound_Riftstalker_Electric_Strike_Attack",
      "onAbilityStart": [
        {
          "$type": "TriggerAttackEvent",
          "attackEvent": {
            "attackPattern": {
              "$type": "ConfigAttackCircle",
              "triggerType": "TriggerNoRepeat",
              "born": {
                "$type": "ConfigBornBySelf",
                "offset": {
                  "x": -1.4900000095367432,
                  "y": -0.18000000715255737,
                  "z": 1.600000023841858
                },
                "direction": {
                  "$type": "ConfigDirectionByDefault",
                  "angleOffset": {
                    "x": -9.380000114440918,
                    "y": -4.0,
                    "z": 16.5
                  }
                }
              },
              "height": 2.950000047683716,
              "fanAngle": 270.0,
              "radius": 4.0
            },
            "attackInfo": {
              "attackTag": "Hound_Corruption_Tag",
              "attenuationTag": "",
              "attenuationGroup": "default",
              "attackProperty": {
                "actorGrassSubHurtDelta": 1.0,
                "actorWindSubHurtDelta": 0.0,
                "elementType": "Electric",
                "elementDurability": 50.0,
                "strikeType": "Default",
                "enBreak": 20.0,
                "GLKMCMDJBIK": 0.0
              },
              "hitPattern": {
                "onHitEffectName": "Eff_Monster_Riftstalker_Hit",
                "hitImpulseY": "",
                "hitImpulseType": "LV2",
                "hitHaltTimeScale": 0.05000000074505806
              }
            }
          },
          "targetType": "Enemy"
        }
      ]
    }
  },
  {
    "Default": {
      "$type": "ConfigAbility",
      "abilityName": "Monster_Hound_Riftstalker_Electric_JumpBack",
      "abilityMixins": [
        {
          "$type": "AttachToStateIDMixin",
          "stateIDs": ["JumpBack"],
          "modifierName": "Riftstalker_JumpBack_Actions",
          "DGFCLAIDIFI": ""
        }
      ],
      "modifiers": {
        "Riftstalker_JumpBack_Actions": {
          "modifierName": "",
          "elementDurability": 100.0,
          "onAdded": [
            {
              "$type": "FireEffect",
              "rotationDampTime": "Eff_Monster_Riftstalker_Electric_JumpBack",
              "PPPDJGDDOGD": 1.0,
              "AJDILHJFNKE": -1.0
            },
            {
              "$type": "BHPDPACKKNI",
              "target": "SelfAttackTarget",
              "born": {
                "$type": "ConfigBornBySelf",
                "offset": {
                  "x": 0.0,
                  "y": 0.0,
                  "z": -8.0
                }
              },
              "hitSceneType": "BlinkHitSceneTestByThreeSegments",
              "limitY": 2.5
            },
            {
              "$type": "PAGFCBCKEBH",
              "toPos": {
                "$type": "DNEKFAOHKBC"
              },
              "NKPCHMCNNOK": 1.0,
              "animatorStateIDs": ["JumpBack"],
              "overrideMoveCollider": ""
            }
          ]
        }
      }
    }
  },
  {
    "Default": {
      "$type": "ConfigAbility",
      "abilityName": "Monster_Hound_Riftstalker_Electric_Howl",
      "abilityMixins": [
        {
          "$type": "DIDNLIKKLLF",
          "stateIDs": ["Howl"],
          "exitActions": [
            {
              "$type": "ApplyModifier",
              "modifierName": "Watcher_82124_Moniter_Cleaner"
            }
          ],
          "DGFCLAIDIFI": ""
        },
        {
          "$type": "DIDNLIKKLLF",
          "stateIDs": ["Die"],
          "enterActions": [
            {
              "$type": "HCLAKBJKPLE",
              "predicates": [
                {
                  "$type": "BHFFBBOLCCP",
                  "modifierName": "Watcher_82124_Moniter"
                }
              ],
              "watcherId": 82124,
              "inThreatListOnly": true
            }
          ],
          "DGFCLAIDIFI": ""
        }
      ],
      "modifiers": {
        "UNIQUE_Hound_Riftstalker_Electric_Howl": {
          "stacking": "Multiple",
          "modifierName": "",
          "forceTriggerWhenChangeAuthority": true,
          "duration": 10.0,
          "elementDurability": 100.0,
          "properties": {
            "Actor_AttackRatio": 0.25
          },
          "onAdded": [
            {
              "$type": "IPMMJGMONCI",
              "skillIDs": [304]
            },
            {
              "$type": "FireEffect",
              "rotationDampTime": "Eff_Monster_Riftstalker_Electric_Howl_Response",
              "PPPDJGDDOGD": 1.0,
              "AJDILHJFNKE": -1.0
            }
          ]
        },
        "Watcher_82124_Moniter": {
          "modifierName": "",
          "duration": 8.0,
          "elementDurability": 100.0
        },
        "Watcher_82124_Moniter_Cleaner": {
          "modifierName": "",
          "duration": 0.8799999952316284,
          "elementDurability": 100.0,
          "onRemoved": [
            {
              "$type": "RemoveModifier",
              "modifierName": "Watcher_82124_Moniter"
            }
          ]
        }
      },
      "onAdded": [
        {
          "$type": "SetGlobalValue",
          "value": 2.0,
          "key": "_RIFTSTALKER_ELECTRIC_HOWL_COUNT_",
          "maxValue": 0.0,
          "minValue": 0.0
        }
      ],
      "onAbilityStart": [
        {
          "$type": "Predicated",
          "otherTargets": {
            "$type": "SelectTargetsByShape",
            "sortType": "Nearest",
            "shapeName": "CircleR30",
            "campTargetType": "Alliance",
            "doOffStage": 1.0
          },
          "targetPredicates": [
            {
              "$type": "ByTargetGlobalValue",
              "key": "_KANIS_TAG_",
              "value": 1.0
            },
            {
              "$type": "ByTargetGlobalValue",
              "target": "Self",
              "key": "_RIFTSTALKER_ELECTRIC_HOWL_COUNT_",
              "value": 0.0,
              "compareType": "MoreThan"
            }
          ],
          "successActions": [
            {
              "$type": "ApplyModifier",
              "target": "Target",
              "modifierName": "UNIQUE_Hound_Riftstalker_Electric_Howl"
            },
            {
              "$type": "AddGlobalValue",
              "value": -1.0,
              "key": "_RIFTSTALKER_ELECTRIC_HOWL_COUNT_",
              "useLimitRange": true,
              "maxValue": 2.0,
              "minValue": 0.0
            }
          ]
        },
        {
          "$type": "SetGlobalValue",
          "value": 2.0,
          "key": "_RIFTSTALKER_ELECTRIC_HOWL_COUNT_",
          "maxValue": 0.0,
          "minValue": 0.0
        },
        {
          "$type": "ApplyModifier",
          "modifierName": "Watcher_82124_Moniter"
        }
      ]
    }
  },
  {
    "Default": {
      "$type": "ConfigAbility",
      "abilityName": "Monster_Hound_Riftstalker_Electric_Smash",
      "abilityMixins": [
        {
          "$type": "AttachToStateIDMixin",
          "stateIDs": ["Smash_Loop_01", "Smash_Loop_02", "Smash_Loop_03"],
          "modifierName": "Smash_Actions",
          "DGFCLAIDIFI": ""
        },
        {
          "$type": "IILHMBGONGM",
          "steerStateIDs": ["Smash_BS"],
          "endNormalizedTime": 0.5,
          "angularSpeed": 270.0,
          "attackTrigger": "",
          "DGFCLAIDIFI": ""
        },
        {
          "$type": "AttachToStateIDMixin",
          "stateIDs": [
            "Smash_BS",
            "Smash_Loop_01",
            "Smash_Loop_02",
            "Smash_Loop_03",
            "Smash_AS"
          ],
          "modifierName": "Smash_ShaderProtect",
          "DGFCLAIDIFI": ""
        }
      ],
      "modifiers": {
        "Smash_Actions": {
          "modifierName": "",
          "elementDurability": 100.0,
          "onAdded": [
            {
              "$type": "AttachModifier",
              "modifierName": "Smash_EffHandler"
            },
            {
              "$type": "AttachModifier",
              "modifierName": "Smash_Rush"
            },
            {
              "$type": "TriggerBullet",
              "bulletID": 42205004,
              "born": {
                "$type": "ConfigBornByAttachPoint",
                "offset": {
                  "x": 0.0,
                  "y": 0.0,
                  "z": -4.0
                },
                "attachPointName": "Body"
              },
              "trackTarget": "Self",
              "lifeByOwnerV2": true
            },
            {
              "$type": "EnablePushColliderName",
              "pushColliderNames": ["PushCollider"]
            }
          ],
          "onRemoved": [
            {
              "$type": "KillSelf",
              "otherTargets": {
                "$type": "SelectTargetsByChildren",
                "configID": 42205004
              }
            },
            {
              "$type": "EnablePushColliderName",
              "pushColliderNames": ["PushCollider"],
              "setEnable": true
            }
          ]
        },
        "Smash_EffHandler": {
          "modifierName": "",
          "elementDurability": 100.0,
          "onAdded": [
            {
              "$type": "AttachEffect",
              "rotationDampTime": "Eff_Monster_Riftstalker_Electric_Smash_Loop",
              "PPPDJGDDOGD": 1.0,
              "AJDILHJFNKE": -1.0
            }
          ],
          "onRemoved": [
            {
              "$type": "RemoveModifier",
              "modifierName": "Smash_ShaderHandler"
            }
          ]
        },
        "Smash_ShaderHandler": {
          "modifierName": "",
          "elementDurability": 100.0,
          "onAdded": [
            {
              "$type": "SetAnimatorBool",
              "boolID": "ShaderSmashTag",
              "value": true
            }
          ],
          "onRemoved": [
            {
              "$type": "SetAnimatorBool",
              "boolID": "ShaderSmashTag"
            }
          ]
        },
        "Smash_Rush": {
          "modifierName": "",
          "elementDurability": 100.0,
          "onAdded": [
            {
              "$type": "BHPDPACKKNI",
              "target": "SelfAttackTarget",
              "born": {
                "$type": "ConfigBornByTargetLinearPoint",
                "offset": {
                  "x": 0.0,
                  "y": 0.0,
                  "z": 0.0
                },
                "linearOffset": 6.5,
                "linearMin": 10.0,
                "linearMax": 15.0
              },
              "hitSceneTest": false,
              "limitY": 2.5
            },
            {
              "$type": "PAGFCBCKEBH",
              "toPos": {
                "$type": "DNEKFAOHKBC"
              },
              "NKPCHMCNNOK": 0.4000000059604645,
              "animatorStateIDs": [
                "Smash_Loop_01",
                "Smash_Loop_02",
                "Smash_Loop_03"
              ],
              "overrideMoveCollider": "",
              "checkAnimatorStateOnExitOnly": true
            }
          ]
        },
        "Smash_ShaderProtect": {
          "modifierName": "",
          "elementDurability": 100.0,
          "onRemoved": [
            {
              "$type": "RemoveModifier",
              "modifierName": "Smash_ShaderHandler"
            }
          ]
        }
      },
      "onAbilityStart": [
        {
          "$type": "ApplyModifier",
          "modifierName": "Smash_ShaderHandler"
        }
      ]
    }
  },
  {
    "Default": {
      "$type": "ConfigAbility",
      "abilityName": "Hound_Riftstalker_Electric_Smash_FollowBullet_Hit",
      "abilityMixins": [
        {
          "$type": "CGANCPEKBPF",
          "onHittingScene": [
            {
              "$type": "SetAnimatorTrigger",
              "target": "Owner",
              "triggerID": "SmashEnd"
            },
            {
              "$type": "ActCameraShake",
              "cameraShake": {
                "shakeRange": 0.1599999964237213,
                "shakeTime": 0.09000000357627869,
                "shakeDistance": 25.0
              }
            }
          ]
        }
      ],
      "onAbilityStart": [
        {
          "$type": "TriggerAttackEvent",
          "attackEvent": {
            "attackPattern": {
              "$type": "ConfigAttackSphere",
              "triggerType": "TriggerNoRepeat",
              "born": {
                "$type": "ConfigBornByCollisionPoint"
              },
              "radius": 1.0
            },
            "attackInfo": {
              "attackTag": "Hound_Corruption_Tag",
              "attenuationTag": "",
              "attenuationGroup": "default",
              "attackProperty": {
                "actorGrassSubHurtDelta": 0.8500000238418579,
                "actorWindSubHurtDelta": 0.0,
                "elementType": "Electric",
                "elementDurability": 50.0,
                "strikeType": "Blunt",
                "enBreak": 1.0,
                "GLKMCMDJBIK": 0.0
              },
              "hitPattern": {
                "onHitEffectName": "Eff_Monster_Riftstalker_Hit",
                "hitImpulseY": "",
                "hitImpulseType": "LV1",
                "hitHaltTimeScale": 0.009999999776482582
              },
              "canBeModifiedBy": "OriginOwner"
            }
          },
          "targetType": "Enemy"
        }
      ]
    }
  },
  {
    "Default": {
      "$type": "ConfigAbility",
      "abilityName": "Monster_Hound_Riftstalker_Electric_Acitvated",
      "abilityMixins": [
        {
          "$type": "AttachToStateIDMixin",
          "stateIDs": ["Activated"],
          "modifierName": "Riftstalker_Activated_Actions",
          "DGFCLAIDIFI": ""
        }
      ],
      "modifiers": {
        "Riftstalker_Activated_Actions": {
          "modifierName": "",
          "elementDurability": 100.0,
          "onAdded": [
            {
              "$type": "SetGlobalValue",
              "value": 2.0,
              "key": "_Riftstalker_POSE_TAG_",
              "maxValue": 0.0,
              "minValue": 0.0
            }
          ],
          "onRemoved": [
            {
              "$type": "RemoveUniqueModifier",
              "modifierName": "UNIQUE_Riftstalker_ChargeBar"
            },
            {
              "$type": "IPMMJGMONCI",
              "skillIDs": [901]
            }
          ]
        }
      }
    }
  },
  {
    "Default": {
      "$type": "ConfigAbility",
      "abilityName": "Monster_Hound_Riftstalker_Electric_ShockWave_Bullet",
      "onAbilityStart": [
        {
          "$type": "TriggerBullet",
          "bulletID": 42205002,
          "born": {
            "$type": "ConfigBornByAttachPoint",
            "attachPointName": "BulletAttachPoint"
          }
        }
      ]
    }
  },
  {
    "Default": {
      "$type": "ConfigAbility",
      "abilityName": "Monster_Hound_Riftstalker_Electric_ShockWave_Effect",
      "onAbilityStart": [
        {
          "$type": "FireEffect",
          "rotationDampTime": "Eff_Monster_Riftstalker_Electric_ShockWave",
          "PPPDJGDDOGD": 1.0,
          "AJDILHJFNKE": -1.0
        }
      ]
    }
  },
  {
    "Default": {
      "$type": "ConfigAbility",
      "abilityName": "Hound_Riftstalker_Electric_ShockWave_Bullet",
      "modifiers": {
        "ShockWave_Bullet_Effect": {
          "modifierName": "",
          "elementDurability": 100.0,
          "onAdded": [
            {
              "$type": "AttachEffect",
              "rotationDampTime": "Eff_Monster_Riftstalker_Electric_ShockWave_Bullet",
              "PPPDJGDDOGD": 1.0,
              "AJDILHJFNKE": -1.0
            },
            {
              "$type": "AttachEffect",
              "rotationDampTime": "Eff_Monster_Riftstalker_Electric_ShockWave_Bullet_Trail",
              "PPPDJGDDOGD": 1.0,
              "AJDILHJFNKE": -1.0
            }
          ]
        }
      },
      "onAdded": [
        {
          "$type": "ApplyModifier",
          "modifierName": "ShockWave_Bullet_Effect"
        }
      ],
      "onAbilityStart": [
        {
          "$type": "TriggerAttackEvent",
          "attackEvent": {
            "attackPattern": {
              "$type": "ConfigAttackSphere",
              "triggerType": "TriggerNoRepeat",
              "born": {
                "$type": "ConfigBornBySelf",
                "offset": {
                  "x": 0.0,
                  "y": 0.0,
                  "z": 0.0
                }
              },
              "radius": 1.7000000476837158
            },
            "attackInfo": {
              "attackTag": "Hound_Corruption_Tag",
              "attenuationTag": "",
              "attenuationGroup": "default",
              "attackProperty": {
                "actorGrassSubHurtDelta": 0.949999988079071,
                "actorWindSubHurtDelta": 0.0,
                "elementType": "Electric",
                "elementDurability": 50.0,
                "strikeType": "Default",
                "enBreak": 1.0,
                "GLKMCMDJBIK": 0.0
              },
              "hitPattern": {
                "onHitEffectName": "Eff_Monster_Riftstalker_Hit",
                "hitImpulseY": "",
                "hitImpulseType": "LV2",
                "hitHaltTimeScale": 0.05000000074505806
              }
            }
          },
          "targetType": "Enemy"
        },
        {
          "$type": "RemoveModifier",
          "modifierName": "ShockWave_Bullet_Effect"
        },
        {
          "$type": "FireEffect",
          "rotationDampTime": "Eff_Monster_Riftstalker_Electric_ShockWave_Explode",
          "PPPDJGDDOGD": 1.0,
          "AJDILHJFNKE": -1.0
        },
        {
          "$type": "KillSelf"
        }
      ]
    }
  }
]
