[
  {
    "Default": {
      "$type": "ConfigAbility",
      "abilityName": "Monster_Eremite_FeMale_Standard_Longbow_StreeController",
      "abilityMixins": [
        {
          "$type": "IILHMBGONGM",
          "steerStateIDs": ["Alert"],
          "endNormalizedTime": 0.6499999761581421,
          "angularSpeed": 150.0,
          "attackTrigger": "",
          "attackDistance": 2.0,
          "DGFCLAIDIFI": ""
        },
        {
          "$type": "IILHMBGONGM",
          "steerStateIDs": ["RapidMove"],
          "angularSpeed": 150.0,
          "attackTrigger": "",
          "attackDistance": 2.0,
          "DGFCLAIDIFI": ""
        },
        {
          "$type": "IILHMBGONGM",
          "steerStateIDs": ["NormalAtk01_01"],
          "startNormalizedTime": 0.25999999046325684,
          "endNormalizedTime": 0.8700000047683716,
          "angularSpeed": 150.0,
          "attackTrigger": "",
          "attackDistance": 2.0,
          "DGFCLAIDIFI": ""
        },
        {
          "$type": "IILHMBGONGM",
          "steerStateIDs": ["NormalAtk01_02"],
          "endNormalizedTime": 0.5699999928474426,
          "angularSpeed": 150.0,
          "attackTrigger": "",
          "attackDistance": 2.0,
          "DGFCLAIDIFI": ""
        },
        {
          "$type": "IILHMBGONGM",
          "steerStateIDs": ["NormalAtk01_03"],
          "endNormalizedTime": 0.27000001072883606,
          "angularSpeed": 150.0,
          "attackTrigger": "",
          "attackDistance": 2.0,
          "DGFCLAIDIFI": ""
        },
        {
          "$type": "IILHMBGONGM",
          "steerStateIDs": ["NormalAtk02"],
          "endNormalizedTime": 0.3499999940395355,
          "angularSpeed": 150.0,
          "attackTrigger": "",
          "attackDistance": 2.0,
          "DGFCLAIDIFI": ""
        },
        {
          "$type": "IILHMBGONGM",
          "steerStateIDs": ["ArrowShoot_01_BS"],
          "angularSpeed": 100.0,
          "attackTrigger": "",
          "attackDistance": 2.0,
          "DGFCLAIDIFI": ""
        },
        {
          "$type": "IILHMBGONGM",
          "steerStateIDs": ["ArrowShoot_01_Loop"],
          "angularSpeed": 100.0,
          "attackTrigger": "",
          "attackDistance": 2.0,
          "DGFCLAIDIFI": ""
        },
        {
          "$type": "IILHMBGONGM",
          "steerStateIDs": ["ArrowShoot_01_AS"],
          "angularSpeed": 100.0,
          "attackTrigger": "",
          "attackDistance": 2.0,
          "DGFCLAIDIFI": ""
        },
        {
          "$type": "IILHMBGONGM",
          "steerStateIDs": ["MeleeAttack_01"],
          "endNormalizedTime": 0.27000001072883606,
          "angularSpeed": 200.0,
          "attackTrigger": "",
          "attackDistance": 2.0,
          "DGFCLAIDIFI": ""
        },
        {
          "$type": "IILHMBGONGM",
          "steerStateIDs": ["MoveShoot_01"],
          "endNormalizedTime": 0.5370000004768372,
          "angularSpeed": 150.0,
          "attackTrigger": "",
          "attackDistance": 2.0,
          "DGFCLAIDIFI": ""
        },
        {
          "$type": "IILHMBGONGM",
          "steerStateIDs": ["AirShoot_01"],
          "endNormalizedTime": 0.11999999731779099,
          "angularSpeed": 200.0,
          "attackTrigger": "",
          "attackDistance": 2.0,
          "DGFCLAIDIFI": ""
        },
        {
          "$type": "IILHMBGONGM",
          "steerStateIDs": ["Dodge"],
          "angularSpeed": 120.0,
          "attackTrigger": "",
          "attackDistance": 2.0,
          "DGFCLAIDIFI": ""
        },
        {
          "$type": "IILHMBGONGM",
          "steerStateIDs": ["Improve_Shoot_01"],
          "endNormalizedTime": 0.3919999897480011,
          "angularSpeed": 150.0,
          "attackTrigger": "",
          "attackDistance": 2.0,
          "DGFCLAIDIFI": ""
        },
        {
          "$type": "IILHMBGONGM",
          "steerStateIDs": ["Improve_ChargeShoot01_BS"],
          "endNormalizedTime": 0.75,
          "angularSpeed": 180.0,
          "attackTrigger": "",
          "attackDistance": 2.0,
          "DGFCLAIDIFI": ""
        }
      ]
    }
  },
  {
    "Default": {
      "$type": "ConfigAbility",
      "abilityName": "Monster_Eremite_FeMale_Standard_Longbow_FightControl",
      "abilityMixins": [
        {
          "$type": "LEOGLBFIELL",
          "poseIDs": [1, 2, 901, 902, 903],
          "modifierName": "Eremite_OutFightState"
        },
        {
          "$type": "LEOGLBFIELL",
          "poseIDs": [101, 102, 111, 201, 301],
          "modifierName": "Eremite_InFightState"
        }
      ],
      "modifiers": {
        "Eremite_OutFightState": {
          "modifierName": "",
          "elementDurability": 100.0,
          "onAdded": [
            {
              "$type": "AddGlobalValue",
              "value": -10.0,
              "key": "_MONSTER_EREMITE_ISINFIGHT_",
              "useLimitRange": true,
              "maxValue": 1.0,
              "minValue": 0.0
            },
            {
              "$type": "RemoveModifier",
              "modifierName": "Eremite_InFightState"
            }
          ]
        },
        "Eremite_InFightState": {
          "modifierName": "",
          "elementDurability": 100.0,
          "onAdded": [
            {
              "$type": "AddGlobalValue",
              "value": 10.0,
              "key": "_MONSTER_EREMITE_ISINFIGHT_",
              "useLimitRange": true,
              "maxValue": 1.0,
              "minValue": 0.0
            },
            {
              "$type": "RemoveModifier",
              "modifierName": "Eremite_OutFightState"
            }
          ]
        }
      },
      "onAdded": [
        {
          "$type": "SetGlobalValue",
          "value": 0.0,
          "key": "_MONSTER_EREMITE_IMPROVED_",
          "useLimitRange": true,
          "maxValue": 1.0,
          "minValue": 0.0
        },
        {
          "$type": "SetGlobalValue",
          "value": 0.0,
          "key": "_EREMITE_WEAK_TIMES_",
          "useLimitRange": true,
          "maxValue": 100.0,
          "minValue": 0.0
        },
        {
          "$type": "SetGlobalValue",
          "value": 0.0,
          "key": "_MONSTER_EREMITE_OUTIMPROVED",
          "useLimitRange": true,
          "maxValue": 1.0,
          "minValue": 0.0
        },
        {
          "$type": "SetGlobalValue",
          "value": 0.0,
          "key": "_MONSTER_EREMITE_IMPROVED_COUNT_",
          "useLimitRange": true,
          "maxValue": 99.0,
          "minValue": 0.0
        },
        {
          "$type": "SetGlobalValue",
          "value": 0.0,
          "key": "_MONSTER_EREMITE_ISINFIGHT_",
          "useLimitRange": true,
          "maxValue": 1.0,
          "minValue": 0.0
        },
        {
          "$type": "SetGlobalValue",
          "value": 0.0,
          "key": "_MONSTER_EREMITE_WEAK_",
          "useLimitRange": true,
          "maxValue": 1.0,
          "minValue": 0.0
        },
        {
          "$type": "SetGlobalValue",
          "value": 0.0,
          "key": "_MONSTER_EREMITE_RETURNTOBORN_",
          "useLimitRange": true,
          "maxValue": 1.0,
          "minValue": 0.0
        }
      ]
    }
  },
  {
    "Default": {
      "$type": "ConfigAbility",
      "abilityName": "Monster_Eremite_FeMale_Standard_Longbow_Improve",
      "abilityMixins": [
        {
          "$type": "AttachModifierToSelfGlobalValueMixin",
          "globalValueKey": "_MONSTER_EREMITE_IMPROVED_",
          "gvInTalk": 0.0,
          "valueSteps": [-0.5, 0.5, 1.5],
          "modifierNameSteps": ["Eremite_NormalState", "Eremite_ImproveState"]
        },
        {
          "$type": "AttachModifierToSelfGlobalValueMixin",
          "globalValueKey": "_MONSTER_EREMITE_WEAK_",
          "gvInTalk": 0.0,
          "valueSteps": [-0.5, 0.5, 1.5],
          "modifierNameSteps": ["Eremite_IsNotWeak", "Eremite_IsWeak"]
        },
        {
          "$type": "AttachModifierToSelfGlobalValueMixin",
          "globalValueKey": "_EREMITE_SLAVE_DIE_",
          "gvInTalk": 0.0,
          "valueSteps": [-0.5, 0.5, 1.5],
          "modifierNameSteps": ["Empty", "Eremite_RemoveImprove"]
        },
        {
          "$type": "AttachModifierToSelfGlobalValueMixin",
          "globalValueKey": "_MONSTER_EREMITE_OUTIMPROVED",
          "gvInTalk": 0.0,
          "valueSteps": [-0.5, 0.5, 1.5],
          "modifierNameSteps": [
            "Eremite_ISNotOutImproved",
            "Eremite_IsOutImproved"
          ]
        },
        {
          "$type": "AttachModifierToSelfGlobalValueMixin",
          "globalValueKey": "_MONSTER_EREMITE_HP_PERCENT_",
          "gvInTalk": 0.0,
          "valueSteps": [-1.0, 0.10000000149011612, 1.0],
          "modifierNameSteps": [
            "Eremite_NormalState_Handle",
            "Eremite_EliteState_Handle"
          ]
        },
        {
          "$type": "LEOGLBFIELL",
          "poseIDs": [111, 201],
          "modifierName": "Improve_AddEndure"
        },
        {
          "$type": "APJKOLPHCGH",
          "stateIDs": ["Die", "Die_RagDoll"],
          "enterActions": [
            {
              "$type": "RemoveUniqueModifier",
              "modifierName": "UNIQUE_Monster_Eremite_FeMale_Standard_Longbow_Improve_LoopEffect"
            }
          ],
          "DGFCLAIDIFI": ""
        },
        {
          "$type": "LEOGLBFIELL",
          "poseIDs": [102],
          "modifierName": "WeakEnd_AddEndureHandle"
        }
      ],
      "abilitySpecials": {
        "hppercent": 0.0
      },
      "modifiers": {
        "Eremite_NormalState_Handle": {
          "modifierName": "",
          "elementDurability": 100.0,
          "modifierMixins": [
            {
              "$type": "LAPMOOFOPBM",
              "valueSteps": [0.699999988079071],
              "modifierNameSteps": [
                "Empty",
                "UNIQUE_Eremite_Force_ImproveState"
              ]
            }
          ]
        },
        "Eremite_EliteState_Handle": {
          "modifierName": "",
          "elementDurability": 100.0,
          "modifierMixins": [
            {
              "$type": "EAKJOFAIAPH",
              "poseIDs": [1, 2],
              "enterActions": [
                {
                  "$type": "ApplyModifier",
                  "predicates": [
                    {
                      "$type": "ByTargetGlobalValue",
                      "target": "Self",
                      "key": "_MONSTER_EREMITE_HP_PERCENT_",
                      "value": 0.0,
                      "compareType": "MoreThan"
                    }
                  ],
                  "modifierName": "UNIQUE_Eremite_Force_ImproveState"
                }
              ]
            }
          ],
          "onAdded": [
            {
              "$type": "ApplyModifier",
              "modifierName": "UNIQUE_Eremite_Force_ImproveState"
            }
          ]
        },
        "Improve_AddEndure": {
          "modifierName": "",
          "elementDurability": 100.0,
          "properties": {
            "Actor_EndureDelta": 0.0,
            "Entity_WeightRatio": 5.0
          }
        },
        "Empty": {
          "modifierName": "",
          "elementDurability": 100.0
        },
        "Eremite_RemoveImprove": {
          "modifierName": "",
          "elementDurability": 100.0,
          "onAdded": [
            {
              "$type": "RemoveUniqueModifier",
              "modifierName": "UNIQUE_Eremite_ImproveState_Properties"
            }
          ]
        },
        "UNIQUE_Eremite_Force_ImproveState": {
          "stacking": "Unique",
          "modifierName": "",
          "forceTriggerWhenChangeAuthority": true,
          "elementDurability": 100.0,
          "onAdded": [
            {
              "$type": "IDNGFEEBPAM",
              "canBeHandledOnRecover": true,
              "predicates": [
                {
                  "$type": "ByTargetGlobalValue",
                  "target": "Self",
                  "key": "_MONSTER_EREMITE_IMPROVED_COUNT_",
                  "value": 0.0,
                  "compareType": "NoneOrEqual"
                }
              ],
              "boolID": "ForceImprove",
              "value": true
            },
            {
              "$type": "IPMMJGMONCI",
              "skillIDs": [401]
            }
          ],
          "onRemoved": [
            {
              "$type": "IDNGFEEBPAM",
              "boolID": "ForceImprove"
            }
          ]
        },
        "Eremite_NormalState": {
          "modifierName": "",
          "elementDurability": 100.0,
          "onAdded": [
            {
              "$type": "IDNGFEEBPAM",
              "canBeHandledOnRecover": true,
              "boolID": "ImproveState"
            },
            {
              "$type": "RemoveModifier",
              "modifierName": "Eremite_ImproveState"
            }
          ]
        },
        "Eremite_ImproveState": {
          "modifierName": "",
          "elementDurability": 100.0,
          "onAdded": [
            {
              "$type": "IDNGFEEBPAM",
              "canBeHandledOnRecover": true,
              "boolID": "ImproveState",
              "value": true
            },
            {
              "$type": "RemoveModifier",
              "modifierName": "Eremite_NormalState"
            }
          ]
        },
        "Eremite_IsNotWeak": {
          "modifierName": "",
          "elementDurability": 100.0,
          "onAdded": [
            {
              "$type": "IDNGFEEBPAM",
              "canBeHandledOnRecover": true,
              "boolID": "WeakState"
            },
            {
              "$type": "RemoveModifier",
              "modifierName": "Eremite_IsWeak"
            }
          ]
        },
        "Eremite_IsWeak": {
          "modifierName": "",
          "elementDurability": 100.0,
          "onAdded": [
            {
              "$type": "IDNGFEEBPAM",
              "canBeHandledOnRecover": true,
              "boolID": "WeakState",
              "value": true
            },
            {
              "$type": "RemoveModifier",
              "modifierName": "Eremite_IsNotWeak"
            }
          ]
        },
        "Eremite_IsOutImproved": {
          "modifierName": "",
          "elementDurability": 100.0,
          "onAdded": [
            {
              "$type": "IDNGFEEBPAM",
              "canBeHandledOnRecover": true,
              "boolID": "OutImproved",
              "value": true
            },
            {
              "$type": "RemoveModifier",
              "modifierName": "Eremite_ISNotOutImproved"
            }
          ]
        },
        "Eremite_ISNotOutImproved": {
          "modifierName": "",
          "elementDurability": 100.0,
          "onAdded": [
            {
              "$type": "IDNGFEEBPAM",
              "canBeHandledOnRecover": true,
              "boolID": "OutImproved"
            },
            {
              "$type": "RemoveModifier",
              "modifierName": "Eremite_IsOutImproved"
            }
          ]
        },
        "UNIQUE_Eremite_ImproveState_Properties": {
          "stacking": "Unique",
          "modifierName": "",
          "forceTriggerWhenChangeAuthority": true,
          "elementDurability": 100.0,
          "properties": {
            "Actor_EndureDelta": 0.0,
            "Entity_WeightRatio": 5.0,
            "Actor_PhysicalSubHurtDelta": 0.5,
            "Actor_FireSubHurtDelta": 0.5,
            "Actor_ElecSubHurtDelta": 0.5,
            "Actor_WaterSubHurtDelta": 0.5,
            "Actor_GrassSubHurtDelta": 0.5,
            "Actor_WindSubHurtDelta": 0.5,
            "Actor_IceSubHurtDelta": 0.5,
            "Actor_RockSubHurtDelta": 0.5
          },
          "onAdded": [
            {
              "$type": "AddGlobalValue",
              "canBeHandledOnRecover": true,
              "value": 10.0,
              "key": "_MONSTER_EREMITE_IMPROVED_",
              "useLimitRange": true,
              "maxValue": 1.0,
              "minValue": 0.0
            },
            {
              "$type": "AddGlobalValue",
              "canBeHandledOnRecover": true,
              "value": -10.0,
              "key": "_MONSTER_EREMITE_RECOVER_",
              "useLimitRange": true,
              "maxValue": 1.0,
              "minValue": 0.0
            },
            {
              "$type": "AddGlobalValue",
              "value": 1.0,
              "key": "_MONSTER_EREMITE_IMPROVED_COUNT_",
              "useLimitRange": true,
              "maxValue": 99.0,
              "minValue": 0.0
            },
            {
              "$type": "OHPMBBJIJFG",
              "value": 5.0
            }
          ],
          "onRemoved": [
            {
              "$type": "RemoveUniqueModifier",
              "modifierName": "UNIQUE_Monster_Eremite_FeMale_Standard_Longbow_Improve_LoopEffect"
            },
            {
              "$type": "RemoveUniqueModifier",
              "modifierName": "UNIQUE_Monster_Eremite_FeMale_Standard_Longbow_ChargeShoot_Effect"
            },
            {
              "$type": "KillSelf",
              "otherTargets": {
                "$type": "SelectTargetsByChildren",
                "configID": 25110201
              }
            },
            {
              "$type": "KillSelf",
              "otherTargets": {
                "$type": "SelectTargetsByChildren",
                "configID": 42550008
              }
            },
            {
              "$type": "AddGlobalValue",
              "canBeHandledOnRecover": true,
              "value": 1.0,
              "key": "_EREMITE_WEAK_TIMES_",
              "useLimitRange": true,
              "maxValue": 100.0,
              "minValue": 0.0
            },
            {
              "$type": "SetAnimatorTrigger",
              "shieldHP": true,
              "predicates": [
                {
                  "$type": "ByTargetGlobalValue",
                  "target": "Self",
                  "key": "_MONSTER_EREMITE_RETURNTOBORN_",
                  "value": 0.0
                }
              ],
              "triggerID": "Weak"
            },
            {
              "$type": "ApplyModifier",
              "modifierName": "Eremite_Out_Imporve"
            },
            {
              "$type": "RemoveUniqueModifier",
              "modifierName": "UNIQUE_Eremite_Force_ImproveState"
            }
          ]
        },
        "Eremite_Out_Imporve": {
          "modifierName": "",
          "duration": 1.0,
          "elementDurability": 100.0,
          "onAdded": [
            {
              "$type": "SetGlobalValue",
              "value": 1.0,
              "key": "_MONSTER_EREMITE_OUTIMPROVED",
              "useLimitRange": true,
              "maxValue": 1.0,
              "minValue": 0.0
            },
            {
              "$type": "AddGlobalValue",
              "canBeHandledOnRecover": true,
              "value": -10.0,
              "key": "_MONSTER_EREMITE_IMPROVED_",
              "useLimitRange": true,
              "maxValue": 1.0,
              "minValue": 0.0
            },
            {
              "$type": "AddGlobalValue",
              "canBeHandledOnRecover": true,
              "value": 10.0,
              "key": "_MONSTER_EREMITE_WEAK_",
              "useLimitRange": true,
              "maxValue": 1.0,
              "minValue": 0.0
            }
          ]
        },
        "WeakEnd_AddEndureHandle": {
          "modifierName": "",
          "elementDurability": 100.0,
          "properties": {
            "Actor_EndureDelta": 5.0
          }
        }
      },
      "onAbilityStart": [
        {
          "$type": "AttachModifier",
          "modifierName": "UNIQUE_Eremite_ImproveState_Properties"
        }
      ]
    }
  },
  {
    "Default": {
      "$type": "ConfigAbility",
      "abilityName": "Monster_Eremite_FeMale_Standard_Longbow_Summon",
      "modifiers": {
        "Summon_Eremite_Vulture_Wind": {
          "modifierName": "",
          "duration": 1.0,
          "elementDurability": 100.0,
          "onAdded": [
            {
              "$type": "DCKBKHHAFNO",
              "monsterID": 25110201,
              "born": {
                "$type": "ConfigBornBySelf"
              },
              "summonTag": 25110201,
              "aliveByOwner": true,
              "sightGroupWithOwner": true,
              "PCOICDDOAOP": true
            }
          ]
        }
      },
      "onAbilityStart": [
        {
          "$type": "SetGlobalValue",
          "value": 0.0,
          "key": "_EREMITE_SLAVE_DIE_",
          "useLimitRange": true,
          "maxValue": 1.0,
          "minValue": 0.0
        },
        {
          "$type": "ApplyModifier",
          "modifierName": "Summon_Eremite_Vulture_Wind"
        }
      ]
    }
  },
  {
    "Default": {
      "$type": "ConfigAbility",
      "abilityName": "Monster_Eremite_FeMale_Standard_Longbow_Improve_LoopEffect",
      "modifiers": {
        "UNIQUE_Monster_Eremite_FeMale_Standard_Longbow_Improve_LoopEffect": {
          "stacking": "Unique",
          "modifierName": "",
          "forceTriggerWhenChangeAuthority": true,
          "elementDurability": 100.0,
          "onAdded": [
            {
              "$type": "AttachEffect",
              "rotationDampTime": "Eff_Monster_Eremite_Female_Standard_Longbow_Wind_Improve_Loop_01",
              "PPPDJGDDOGD": 1.0,
              "AJDILHJFNKE": -1.0
            }
          ]
        }
      },
      "onAbilityStart": [
        {
          "$type": "AttachModifier",
          "modifierName": "UNIQUE_Monster_Eremite_FeMale_Standard_Longbow_Improve_LoopEffect"
        }
      ]
    }
  },
  {
    "Default": {
      "$type": "ConfigAbility",
      "abilityName": "Monster_Eremite_FeMale_Standard_Longbow_Weak",
      "abilityMixins": [
        {
          "$type": "LEOGLBFIELL",
          "poseIDs": [301],
          "modifierName": "WeakState"
        },
        {
          "$type": "AttachModifierToSelfGlobalValueMixin",
          "globalValueKey": "_MONSTER_EREMITE_RECOVER_",
          "gvInTalk": 0.0,
          "valueSteps": [-0.5, 0.5, 1.5],
          "modifierNameSteps": ["Empty", "Recover"]
        }
      ],
      "abilitySpecials": {
        "Eremite_Cur_HP": 0.0
      },
      "modifiers": {
        "WeakState": {
          "modifierName": "",
          "duration": 10.0,
          "elementDurability": 100.0,
          "properties": {
            "Actor_EndureDelta": 0.0,
            "Actor_WindSubHurtDelta": -0.6000000238418579
          },
          "onAdded": [
            {
              "$type": "AttachEffect",
              "rotationDampTime": "Eff_Avatar_Properties_Defense_Down",
              "PPPDJGDDOGD": 1.0,
              "AJDILHJFNKE": -1.0
            },
            {
              "$type": "ApplyModifier",
              "predicates": [
                {
                  "$type": "ByTargetGlobalValue",
                  "target": "Self",
                  "key": "_EREMITE_WEAK_TIMES_",
                  "value": 1.0
                }
              ],
              "modifierName": "WeakState_Damage"
            },
            {
              "$type": "AddGlobalValue",
              "canBeHandledOnRecover": true,
              "value": 10.0,
              "key": "_MONSTER_EREMITE_WEAK_",
              "useLimitRange": true,
              "maxValue": 1.0,
              "minValue": 0.0
            },
            {
              "$type": "AddGlobalValue",
              "canBeHandledOnRecover": true,
              "value": -10.0,
              "key": "_MONSTER_EREMITE_RECOVER_",
              "useLimitRange": true,
              "maxValue": 1.0,
              "minValue": 0.0
            }
          ],
          "onRemoved": [
            {
              "$type": "AddGlobalValue",
              "canBeHandledOnRecover": true,
              "value": -10.0,
              "key": "_MONSTER_EREMITE_WEAK_",
              "useLimitRange": true,
              "maxValue": 1.0,
              "minValue": 0.0
            },
            {
              "$type": "AddGlobalValue",
              "canBeHandledOnRecover": true,
              "value": 10.0,
              "key": "_MONSTER_EREMITE_RECOVER_",
              "useLimitRange": true,
              "maxValue": 1.0,
              "minValue": 0.0
            }
          ]
        },
        "Empty": {
          "modifierName": "",
          "elementDurability": 100.0
        },
        "Recover": {
          "modifierName": "",
          "elementDurability": 100.0,
          "onAdded": [
            {
              "$type": "SetAnimatorTrigger",
              "triggerID": "Recover"
            }
          ]
        },
        "WeakState_Damage": {
          "modifierName": "",
          "duration": 1.0,
          "elementDurability": 100.0,
          "onAdded": [
            {
              "$type": "PPHLJOONDFG",
              "shieldHP": true,
              "fightProp": "FIGHT_PROP_CUR_HP",
              "globalValueKey": "_MONSTER_CUR_HP_"
            },
            {
              "$type": "SetGlobalValueToOverrideMap",
              "shieldHP": true,
              "globalValueKey": "_MONSTER_CUR_HP_",
              "overrideMapKey": "Eremite_Cur_HP"
            },
            {
              "$type": "DamageByAttackValue",
              "attackInfo": {
                "attackTag": "",
                "attenuationTag": "",
                "attenuationGroup": "default",
                "attackProperty": {
                  "actorGrassSubHurtDelta": 0.0,
                  "actorWindSubHurtDelta": 0.0,
                  "elementType": "Wind",
                  "elementDurability": 100.0,
                  "ignoreAttackerProperty": true,
                  "enBreak": 0.0,
                  "HMBONGBFIAP": [0.375, "Eremite_Cur_HP", "MUL"],
                  "trueDamage": true,
                  "GLKMCMDJBIK": 0.0
                }
              }
            },
            {
              "$type": "FireEffect",
              "rotationDampTime": "Eff_Monster_Eremite_Female_Standard_Longbow_Wind_ShieldBreak",
              "PPPDJGDDOGD": 1.0,
              "AJDILHJFNKE": -1.0
            }
          ]
        }
      }
    }
  },
  {
    "Default": {
      "$type": "ConfigAbility",
      "abilityName": "Monster_Eremite_FeMale_Standard_Longbow_ArrowHandle",
      "abilityMixins": [
        {
          "$type": "AttachModifierToSelfGlobalValueMixin",
          "globalValueKey": "_MONSTER_EREMITE_ATTACKARROW_",
          "gvInTalk": 0.0,
          "valueSteps": [-0.5, 0.5, 1.5],
          "modifierNameSteps": ["Close_Arrow", "Open_Arrow"]
        },
        {
          "$type": "AttachToStateIDMixin",
          "stateIDs": ["NormalAtk01_02", "NormalAtk01_03"],
          "modifierName": "NormalAtk_Arrow_Handle",
          "DGFCLAIDIFI": ""
        }
      ],
      "modifiers": {
        "NormalAtk_Arrow_Handle": {
          "modifierName": "",
          "elementDurability": 100.0,
          "onAdded": [
            {
              "$type": "SetGlobalValue",
              "canBeHandledOnRecover": true,
              "value": 1.0,
              "key": "_MONSTER_EREMITE_ATTACKARROW_",
              "maxValue": 0.0,
              "minValue": 0.0
            }
          ],
          "onRemoved": [
            {
              "$type": "SetGlobalValue",
              "canBeHandledOnRecover": true,
              "value": 0.0,
              "key": "_MONSTER_EREMITE_ATTACKARROW_",
              "maxValue": 0.0,
              "minValue": 0.0
            }
          ]
        },
        "Close_Arrow": {
          "modifierName": "",
          "elementDurability": 100.0,
          "onAdded": [
            {
              "$type": "TriggerSetRenderersEnable",
              "renderNames": ["SkillObj_Arrow"]
            }
          ]
        },
        "Open_Arrow": {
          "modifierName": "",
          "elementDurability": 100.0,
          "onAdded": [
            {
              "$type": "TriggerSetRenderersEnable",
              "renderNames": ["SkillObj_Arrow"],
              "setEnable": true
            }
          ]
        }
      }
    }
  },
  {
    "Default": {
      "$type": "ConfigAbility",
      "abilityName": "Monster_Eremite_FeMale_Standard_Longbow_OpenArrow",
      "onAbilityStart": [
        {
          "$type": "SetGlobalValue",
          "canBeHandledOnRecover": true,
          "value": 1.0,
          "key": "_MONSTER_EREMITE_ATTACKARROW_",
          "maxValue": 0.0,
          "minValue": 0.0
        }
      ]
    }
  },
  {
    "Default": {
      "$type": "ConfigAbility",
      "abilityName": "Monster_Eremite_FeMale_Standard_Longbow_ClosedArrow",
      "onAbilityStart": [
        {
          "$type": "SetGlobalValue",
          "canBeHandledOnRecover": true,
          "value": 0.0,
          "key": "_MONSTER_EREMITE_ATTACKARROW_",
          "maxValue": 0.0,
          "minValue": 0.0
        }
      ]
    }
  },
  {
    "Default": {
      "$type": "ConfigAbility",
      "abilityName": "Monster_Eremite_FeMale_Standard_Longbow_NormalAttack03",
      "modifiers": {
        "Monster_Eremite_FeMale_Standard_Longbow_NormalAttack03": {
          "modifierName": "",
          "duration": 1.0,
          "elementDurability": 100.0,
          "onAdded": [
            {
              "$type": "FireEffect",
              "rotationDampTime": "Eff_Monster_Eremite_Female_Standard_Longbow_Wind_NormalAtk01_03_Damage",
              "born": {
                "$type": "ConfigBornBySelf",
                "offset": {
                  "x": 0.0,
                  "y": 0.0,
                  "z": 2.5
                },
                "onGround": true,
                "alongGround": true
              },
              "PPPDJGDDOGD": 1.0,
              "AJDILHJFNKE": -1.0
            },
            {
              "$type": "TriggerAttackEvent",
              "attackEvent": {
                "attackPattern": {
                  "$type": "ConfigAttackCircle",
                  "triggerType": "TriggerNoRepeat",
                  "born": {
                    "$type": "ConfigBornBySelf",
                    "offset": {
                      "x": 0.0,
                      "y": 0.0,
                      "z": 2.5
                    },
                    "onGround": true,
                    "alongGround": true
                  },
                  "height": 1.7999999523162842,
                  "radius": 3.5
                },
                "attackInfo": {
                  "attackTag": "",
                  "attenuationTag": "",
                  "attenuationGroup": "default",
                  "attackProperty": {
                    "actorGrassSubHurtDelta": 0.75,
                    "actorWindSubHurtDelta": 0.0,
                    "elementType": "Wind",
                    "elementDurability": 50.0,
                    "strikeType": "Default",
                    "enBreak": 200.0,
                    "GLKMCMDJBIK": 0.0
                  },
                  "hitPattern": {
                    "onHitEffectName": "default",
                    "hitImpulseY": "",
                    "hitImpulseType": "LV5",
                    "hitHaltTimeScale": 0.05000000074505806
                  }
                }
              },
              "targetType": "Enemy"
            }
          ]
        }
      },
      "onAbilityStart": [
        {
          "$type": "ApplyModifier",
          "modifierName": "Monster_Eremite_FeMale_Standard_Longbow_NormalAttack03"
        }
      ]
    }
  },
  {
    "Default": {
      "$type": "ConfigAbility",
      "abilityName": "Monster_Eremite_FeMale_Standard_Longbow_NormalAttack03_RushMove",
      "onAbilityStart": [
        {
          "$type": "BHPDPACKKNI",
          "target": "SelfAttackTarget",
          "born": {
            "$type": "ConfigBornByTargetLinearPoint",
            "linearOffset": -0.5,
            "linearMin": 1.0,
            "linearMax": 2.0
          },
          "hitSceneTest": false,
          "limitY": 2.5
        },
        {
          "$type": "PAGFCBCKEBH",
          "toPos": {
            "$type": "DNEKFAOHKBC"
          },
          "NKPCHMCNNOK": 0.30000001192092896,
          "animatorStateIDs": ["NormalAtk02", "NormalAtk01_03"],
          "overrideMoveCollider": "",
          "checkAnimatorStateOnExitOnly": true
        }
      ]
    }
  },
  {
    "Default": {
      "$type": "ConfigAbility",
      "abilityName": "Monster_Eremite_FeMale_Standard_Longbow_ArrowShotHandle",
      "abilityMixins": [
        {
          "$type": "AttachToStateIDMixin",
          "stateIDs": [
            "ArrowShoot_01_AS",
            "ArrowShoot_01_Loop",
            "ArrowShoot_01_BS",
            "MoveShoot_01"
          ],
          "modifierName": "Chargebow_NormalAtk_Storage_Effect",
          "DGFCLAIDIFI": ""
        }
      ],
      "modifiers": {
        "Chargebow_NormalAtk_Storage_Effect": {
          "modifierName": "",
          "elementDurability": 100.0,
          "modifierMixins": [
            {
              "$type": "MFMIPMOKOKM",
              "abilityStates": ["ElementFrozen", "ElementPetrifaction"]
            }
          ]
        }
      }
    }
  },
  {
    "Default": {
      "$type": "ConfigAbility",
      "abilityName": "Monster_Eremite_FeMale_Standard_Longbow_ArrowShoot",
      "onAbilityStart": [
        {
          "$type": "TriggerBullet",
          "bulletID": 42550001,
          "born": {
            "$type": "ConfigBornByAttachPoint",
            "direction": {
              "$type": "ConfigDirectionByAttackTarget",
              "maxAngle": 15.0,
              "startPoint": ""
            },
            "attachPointName": "WeaponL"
          }
        }
      ]
    }
  },
  {
    "Default": {
      "$type": "ConfigAbility",
      "abilityName": "Monster_Eremite_FeMale_Standard_Longbow_ArrowShoot_Lauch",
      "modifiers": {
        "NormalAtk_Action": {
          "modifierName": "",
          "elementDurability": 100.0,
          "properties": {
            "Animator_OverallSpeedRatioMultiplied": 0.009999999776482582
          },
          "onAdded": [
            {
              "$type": "FireHitEffect",
              "hitEntity": "",
              "hitScene": {
                "defaultEffect": "Eff_Monster_Eremite_Female_Standard_Longbow_Wind_ArrowShoot_AS"
              }
            },
            {
              "$type": "EnableBulletCollisionPluginTrigger"
            },
            {
              "$type": "RemoveModifier",
              "modifierName": "NormalAtk_Eff"
            },
            {
              "$type": "KillSelf",
              "duration": 0.20000000298023224
            }
          ]
        },
        "NormalAtk_Eff": {
          "modifierName": "",
          "elementDurability": 100.0,
          "onAdded": [
            {
              "$type": "AttachEffect",
              "rotationDampTime": "Eff_Monster_Eremite_Female_Standard_Longbow_Wind_ArrowShoot_Bullet",
              "PPPDJGDDOGD": 1.0,
              "AJDILHJFNKE": -1.0
            },
            {
              "$type": "AttachEffect",
              "rotationDampTime": "Eff_Monster_Eremite_Female_Standard_Longbow_Wind_ArrowShoot_BulletTrail",
              "PPPDJGDDOGD": 1.0,
              "AJDILHJFNKE": -1.0
            }
          ]
        },
        "NormalAtk_DamageBullet": {
          "modifierName": "",
          "elementDurability": 100.0,
          "onAdded": [
            {
              "$type": "TriggerBullet",
              "bulletID": 42550002,
              "born": {
                "$type": "ConfigBornBySelf"
              },
              "trackTarget": "Self",
              "lifeByOwnerV2": true
            }
          ]
        }
      },
      "onAdded": [
        {
          "$type": "AttachModifier",
          "modifierName": "NormalAtk_Eff"
        },
        {
          "$type": "AttachModifier",
          "modifierName": "NormalAtk_DamageBullet"
        }
      ],
      "onRemoved": [
        {
          "$type": "RemoveModifier",
          "modifierName": "NormalAtk_Eff"
        }
      ],
      "onAbilityStart": [
        {
          "$type": "ApplyModifier",
          "modifierName": "NormalAtk_Action"
        }
      ],
      "onKill": [
        {
          "$type": "RemoveModifier",
          "modifierName": "NormalAtk_Eff"
        }
      ]
    }
  },
  {
    "Default": {
      "$type": "ConfigAbility",
      "abilityName": "Monster_Eremite_FeMale_Standard_Longbow_ArrowShoot_Damage",
      "onAbilityStart": [
        {
          "$type": "TriggerAttackEvent",
          "attackEvent": {
            "attackPattern": {
              "$type": "ConfigAttackSphere",
              "triggerType": "TriggerNoRepeat",
              "checkHitLayerType": "Both",
              "born": {
                "$type": "ConfigBornByCollisionPoint"
              },
              "radius": 0.800000011920929
            },
            "attackInfo": {
              "attackTag": "Monster_Eremite_FeMale_Standard_Attack",
              "attenuationTag": "Monster_Eremite_FeMale_Standard_Longbow_ArrowShoot",
              "attenuationGroup": "default",
              "attackProperty": {
                "actorGrassSubHurtDelta": 0.75,
                "actorWindSubHurtDelta": 0.0,
                "elementType": "Wind",
                "elementDurability": 50.0,
                "strikeType": "Default",
                "enBreak": 100.0,
                "GLKMCMDJBIK": 0.0
              },
              "hitPattern": {
                "onHitEffectName": "default",
                "hitImpulseY": "",
                "hitImpulseType": "LV3",
                "hitHaltTimeScale": 0.009999999776482582
              },
              "canBeModifiedBy": "OriginOwner"
            }
          },
          "targetType": "Enemy"
        },
        {
          "$type": "EnableBulletCollisionPluginTrigger"
        },
        {
          "$type": "FireEffect",
          "rotationDampTime": "Eff_Monster_Eremite_Female_Standard_Longbow_Wind_ArrowShoot_AS",
          "born": {
            "$type": "ConfigBornByCollisionPoint"
          },
          "PPPDJGDDOGD": 1.0,
          "AJDILHJFNKE": -1.0
        },
        {
          "$type": "TriggerAbility",
          "target": "Owner",
          "abilityName": "Monster_Eremite_FeMale_Standard_Longbow_ArrowShoot_Lauch"
        },
        {
          "$type": "KillSelf"
        }
      ]
    }
  },
  {
    "Default": {
      "$type": "ConfigAbility",
      "abilityName": "Monster_Eremite_FeMale_Standard_Longbow_AirShoot01_Damage",
      "abilityMixins": [
        {
          "$type": "AttachToNormalizedTimeMixin",
          "stateID": "AirShoot_01",
          "modifierName": "Eremite_FeMale_Standard_Longbow_AirShoot01_Headle",
          "normalizeStart": 0.11999999731779099,
          "normalizeEnd": 0.3319999873638153,
          "DGFCLAIDIFI": ""
        }
      ],
      "modifiers": {
        "Eremite_FeMale_Standard_Longbow_AirShoot01_Damage": {
          "modifierName": "",
          "duration": 1.5499999523162842,
          "elementDurability": 100.0,
          "onAdded": [
            {
              "$type": "FireEffect",
              "rotationDampTime": "Eff_Monster_Eremite_Female_Standard_Longbow_Wind_AirShoot_Alert",
              "born": {
                "$type": "ConfigBornBySelf",
                "offset": {
                  "x": 0.0,
                  "y": 0.0,
                  "z": 2.0
                },
                "onGround": true,
                "alongGround": true
              },
              "PPPDJGDDOGD": 1.0,
              "AJDILHJFNKE": -1.0
            },
            {
              "$type": "AttachModifier",
              "modifierName": "Eremite_FeMale_Standard_Longbow_AirShoot01_WindArea"
            }
          ],
          "onRemoved": [
            {
              "$type": "FireEffect",
              "rotationDampTime": "Eff_Monster_Eremite_Female_Standard_Longbow_Wind_AirShoot_Damage",
              "born": {
                "$type": "ConfigBornBySelf",
                "offset": {
                  "x": 0.0,
                  "y": 0.0,
                  "z": 2.0
                },
                "onGround": true,
                "alongGround": true
              },
              "PPPDJGDDOGD": 1.0,
              "AJDILHJFNKE": -1.0
            },
            {
              "$type": "TriggerAttackEvent",
              "attackEvent": {
                "attackPattern": {
                  "$type": "ConfigAttackCircle",
                  "triggerType": "TriggerNoRepeat",
                  "born": {
                    "$type": "ConfigBornBySelf",
                    "offset": {
                      "x": 0.0,
                      "y": 0.0,
                      "z": 2.0
                    },
                    "onGround": true,
                    "alongGround": true
                  },
                  "height": 2.0,
                  "radius": 4.0
                },
                "attackInfo": {
                  "attackTag": "",
                  "attenuationTag": "",
                  "attenuationGroup": "default",
                  "attackProperty": {
                    "actorGrassSubHurtDelta": 0.800000011920929,
                    "actorWindSubHurtDelta": 0.0,
                    "elementType": "Wind",
                    "elementDurability": 50.0,
                    "strikeType": "Default",
                    "enBreak": 200.0,
                    "GLKMCMDJBIK": 0.0
                  },
                  "hitPattern": {
                    "onHitEffectName": "default",
                    "hitImpulseY": "",
                    "hitImpulseType": "LV5",
                    "hitHaltTimeScale": 0.05000000074505806
                  },
                  "forceCameraShake": true,
                  "cameraShake": {
                    "shakeType": "CustomVector",
                    "shakeRange": 0.10000000149011612,
                    "shakeTime": 1.0,
                    "shakeDir": {
                      "y": 2.0
                    },
                    "extension": {
                      "baseOnCamera": true,
                      "rangeAttenuation": 0.0
                    }
                  }
                }
              },
              "targetType": "Enemy"
            }
          ]
        },
        "Eremite_FeMale_Standard_Longbow_AirShoot01_WindArea": {
          "modifierName": "",
          "elementDurability": 100.0,
          "modifierMixins": [
            {
              "$type": "WindZoneMixin",
              "shapeName": "CircleR5",
              "born": {
                "$type": "ConfigBornByAttachPoint",
                "offset": {
                  "x": 0.0,
                  "y": -2.0,
                  "z": 0.0
                },
                "attachPointName": "WeaponL"
              },
              "strength": 5.0,
              "IAELBHDMINN": 0.0,
              "MMBCLAEOEFB": 1.0,
              "targetType": "Enemy",
              "modifierName": ""
            }
          ]
        },
        "Eremite_FeMale_Standard_Longbow_AirShoot01_Headle": {
          "modifierName": "",
          "elementDurability": 100.0,
          "properties": {
            "Actor_EndureDelta": 0.0,
            "Entity_WeightRatio": 5.0
          },
          "onAdded": [
            {
              "$type": "EnablePushColliderName",
              "pushColliderNames": ["PushCollider"]
            }
          ],
          "onRemoved": [
            {
              "$type": "EnablePushColliderName",
              "pushColliderNames": ["PushCollider"],
              "setEnable": true
            }
          ]
        }
      },
      "onAbilityStart": [
        {
          "$type": "ApplyModifier",
          "modifierName": "Eremite_FeMale_Standard_Longbow_AirShoot01_Damage"
        }
      ]
    }
  },
  {
    "Default": {
      "$type": "ConfigAbility",
      "abilityName": "Monster_Eremite_FeMale_Standard_Longbow_ChargeShoot_Handle",
      "abilityMixins": [
        {
          "$type": "AttachToStateIDMixin",
          "stateIDs": [
            "Improve_ChargeShoot01_BS",
            "Improve_ChargeShoot01_Loop",
            "Improve_ChargeShoot01_AS"
          ],
          "modifierName": "Remove_ChargeShoot_Effect",
          "DGFCLAIDIFI": ""
        },
        {
          "$type": "AttachToStateIDMixin",
          "stateIDs": [
            "Improve_ChargeShoot01_BS",
            "Improve_ChargeShoot01_Loop",
            "Improve_ChargeShoot01_AS"
          ],
          "modifierName": "Kill_Gadget",
          "DGFCLAIDIFI": ""
        }
      ],
      "modifiers": {
        "Eremite_Female_Standard_Longbow_ChargeShoot_ChargeGagdget": {
          "modifierName": "",
          "duration": 1.0,
          "elementDurability": 100.0,
          "onAdded": [
            {
              "$type": "CreateGadget",
              "target": "SelfAttackTarget",
              "born": {
                "$type": "ConfigBornByTarget",
                "onGround": true,
                "alongGround": true
              },
              "lifeByOwnerV2": true,
              "gadgetID": 42550008,
              "campID": 4001
            }
          ]
        },
        "Remove_ChargeShoot_Effect": {
          "modifierName": "",
          "elementDurability": 100.0,
          "onRemoved": [
            {
              "$type": "RemoveUniqueModifier",
              "modifierName": "UNIQUE_Monster_Eremite_FeMale_Standard_Longbow_ChargeShoot_Effect"
            }
          ]
        },
        "Kill_Gadget": {
          "modifierName": "",
          "elementDurability": 100.0,
          "onChangeAuthority": [
            {
              "$type": "ApplyModifier",
              "otherTargets": {
                "$type": "SelectTargetsByChildren",
                "configID": 42550008
              },
              "modifierName": "Kill_Self"
            }
          ]
        },
        "Kill_Self": {
          "modifierName": "",
          "duration": 1.0,
          "elementDurability": 100.0,
          "onAdded": [
            {
              "$type": "KillSelf",
              "configIdArray": [42550008]
            }
          ]
        }
      },
      "onAbilityStart": [
        {
          "$type": "ApplyModifier",
          "modifierName": "Eremite_Female_Standard_Longbow_ChargeShoot_ChargeGagdget"
        }
      ]
    }
  },
  {
    "Default": {
      "$type": "ConfigAbility",
      "abilityName": "Monster_Eremite_FeMale_Standard_Longbow_ChargeShoot_Effect",
      "modifiers": {
        "UNIQUE_Monster_Eremite_FeMale_Standard_Longbow_ChargeShoot_Effect": {
          "modifierName": "",
          "forceTriggerWhenChangeAuthority": true,
          "duration": 5.0,
          "elementDurability": 100.0,
          "onAdded": [
            {
              "$type": "AttachEffect",
              "rotationDampTime": "Eff_Monster_Eremite_Female_Standard_Longbow_Wind_ChargeShoot_BS",
              "PPPDJGDDOGD": 1.0,
              "AJDILHJFNKE": -1.0
            }
          ]
        }
      },
      "onAbilityStart": [
        {
          "$type": "ApplyModifier",
          "modifierName": "UNIQUE_Monster_Eremite_FeMale_Standard_Longbow_ChargeShoot_Effect"
        }
      ]
    }
  },
  {
    "Default": {
      "$type": "ConfigAbility",
      "abilityName": "Monster_Eremite_FeMale_Standard_Longbow_ChargeShoot_Damage",
      "modifiers": {
        "Monster_Eremite_FeMale_Standard_Longbow_ChargeShoot_Effect": {
          "modifierName": "",
          "duration": 3.5,
          "elementDurability": 100.0,
          "thinkInterval": 3.0,
          "onAdded": [
            {
              "$type": "FireEffect",
              "rotationDampTime": "Eff_Monster_Eremite_Female_Standard_Longbow_Wind_ChargeShoot_DamageAlert",
              "born": {
                "$type": "ConfigBornBySelf",
                "onGround": true
              },
              "PPPDJGDDOGD": 1.0,
              "AJDILHJFNKE": -1.0
            }
          ],
          "onThinkInterval": [
            {
              "$type": "ApplyModifier",
              "modifierName": "Monster_Eremite_FeMale_Standard_Longbow_ChargeShoot_Damage"
            }
          ]
        },
        "Monster_Eremite_FeMale_Standard_Longbow_ChargeShoot_Damage": {
          "modifierName": "",
          "duration": 0.1599999964237213,
          "elementDurability": 100.0,
          "onAdded": [
            {
              "$type": "FireEffect",
              "rotationDampTime": "Eff_Monster_Eremite_Female_Standard_Longbow_Wind_ChargeShoot_Bullet",
              "PPPDJGDDOGD": 1.0,
              "AJDILHJFNKE": -1.0
            }
          ],
          "onRemoved": [
            {
              "$type": "FireEffect",
              "rotationDampTime": "Eff_Monster_Eremite_Female_Standard_Longbow_Wind_ChargeShoot_Damage",
              "born": {
                "$type": "ConfigBornBySelf",
                "offset": {
                  "x": 0.0,
                  "y": 0.0,
                  "z": 0.0
                },
                "onGround": true,
                "alongGround": true
              },
              "PPPDJGDDOGD": 1.0,
              "AJDILHJFNKE": -1.0
            },
            {
              "$type": "TriggerAttackEvent",
              "attackEvent": {
                "attackPattern": {
                  "$type": "ConfigAttackCircle",
                  "triggerType": "TriggerNoRepeat",
                  "born": {
                    "$type": "ConfigBornBySelf",
                    "offset": {
                      "x": 0.0,
                      "y": 0.0,
                      "z": 0.0
                    },
                    "onGround": true,
                    "alongGround": true
                  },
                  "height": 2.0,
                  "radius": 6.0
                },
                "attackInfo": {
                  "attackTag": "",
                  "attenuationTag": "",
                  "attenuationGroup": "default",
                  "attackProperty": {
                    "actorGrassSubHurtDelta": 1.0,
                    "actorWindSubHurtDelta": 0.0,
                    "elementType": "Wind",
                    "elementDurability": 50.0,
                    "strikeType": "Default",
                    "enBreak": 20000.0,
                    "GLKMCMDJBIK": 0.0
                  },
                  "hitPattern": {
                    "onHitEffectName": "default",
                    "hitImpulseY": "",
                    "hitImpulseType": "LV7",
                    "hitHaltTimeScale": 0.05000000074505806
                  },
                  "forceCameraShake": true,
                  "cameraShake": {
                    "shakeType": "CustomVector",
                    "shakeRange": 0.30000001192092896,
                    "shakeTime": 1.0,
                    "shakeDir": {
                      "y": 2.0
                    },
                    "extension": {
                      "baseOnCamera": true,
                      "rangeAttenuation": 0.0
                    }
                  },
                  "canBeModifiedBy": "OriginOwner"
                }
              },
              "targetType": "Enemy"
            },
            {
              "$type": "KillSelf"
            }
          ]
        }
      },
      "onAdded": [
        {
          "$type": "AttachModifier",
          "modifierName": "Monster_Eremite_FeMale_Standard_Longbow_ChargeShoot_Effect"
        },
        {
          "$type": "SetGlobalValue",
          "value": 1.0,
          "key": "_EREMITE_CHARGESHOOT_DAMAGE_GADGET_",
          "maxValue": 0.0,
          "minValue": 0.0
        }
      ],
      "onKill": [
        {
          "$type": "RemoveModifier",
          "modifierName": "Monster_Eremite_FeMale_Standard_Longbow_ChargeShoot_Effect"
        }
      ]
    }
  },
  {
    "Default": {
      "$type": "ConfigAbility",
      "abilityName": "Monster_Eremite_FeMale_Standard_Longbow_MeleeAttack_01",
      "abilityMixins": [
        {
          "$type": "AttachToNormalizedTimeMixin",
          "stateID": "MeleeAttack_01",
          "modifierName": "MeleeAttack_RushMove",
          "normalizeStart": 0.23600000143051147,
          "normalizeEnd": 0.3319999873638153,
          "DGFCLAIDIFI": ""
        }
      ],
      "modifiers": {
        "MeleeAttack_RushMove": {
          "modifierName": "",
          "elementDurability": 100.0,
          "modifierMixins": [
            {
              "$type": "AttachActionToModifierMixin",
              "onAdded": [
                {
                  "$type": "EnablePushColliderName",
                  "pushColliderNames": ["PushCollider"]
                }
              ],
              "onRemoved": [
                {
                  "$type": "EnablePushColliderName",
                  "canBeHandledOnRecover": true,
                  "pushColliderNames": ["PushCollider"],
                  "setEnable": true
                }
              ]
            }
          ],
          "onAdded": [
            {
              "$type": "FireEffect",
              "rotationDampTime": "Eff_Monster_Eremite_Female_Standard_Longbow_Wind_MeleeAttack01_BS",
              "PPPDJGDDOGD": 1.0,
              "AJDILHJFNKE": -1.0
            },
            {
              "$type": "AttachEffect",
              "rotationDampTime": "Eff_Monster_Eremite_Female_Standard_Longbow_Wind_MeleeAttack01_RushMove",
              "PPPDJGDDOGD": 1.0,
              "AJDILHJFNKE": -1.0
            },
            {
              "$type": "AttachModifier",
              "modifierName": "Eremite_Invincible"
            },
            {
              "$type": "AttachModifier",
              "modifierName": "Eremite_DenyLockOn"
            }
          ]
        },
        "Eremite_Invincible": {
          "modifierName": "",
          "elementDurability": 100.0,
          "state": "Invincible"
        },
        "Eremite_DenyLockOn": {
          "modifierName": "",
          "elementDurability": 100.0,
          "state": "DenyLockOn"
        }
      },
      "onAbilityStart": [
        {
          "$type": "BHPDPACKKNI",
          "target": "SelfAttackTarget",
          "born": {
            "$type": "ConfigBornByTargetLinearPoint",
            "onGround": true,
            "linearOffset": -3.0,
            "linearMin": 0.0,
            "linearMax": 50.0
          },
          "hitSceneTest": false,
          "limitY": 2.5
        },
        {
          "$type": "PAGFCBCKEBH",
          "toPos": {
            "$type": "DNEKFAOHKBC"
          },
          "NKPCHMCNNOK": 0.20000000298023224,
          "animatorStateIDs": ["MeleeAttack_01"],
          "overrideMoveCollider": "",
          "checkAnimatorStateOnExitOnly": true
        }
      ]
    }
  },
  {
    "Default": {
      "$type": "ConfigAbility",
      "abilityName": "Monster_Eremite_FeMale_Standard_Longbow_Dobge",
      "abilityMixins": [
        {
          "$type": "AttachToStateIDMixin",
          "stateIDs": ["Dodge"],
          "modifierName": "Monster_Eremite_FeMale_Standard_Longbow_Dodge",
          "DGFCLAIDIFI": ""
        }
      ],
      "modifiers": {
        "Monster_Eremite_FeMale_Standard_Longbow_Dodge": {
          "modifierName": "",
          "elementDurability": 100.0,
          "onAdded": [
            {
              "$type": "ApplyModifier",
              "modifierName": "DodgeInvincible"
            }
          ]
        },
        "DodgeInvincible": {
          "modifierName": "",
          "duration": 0.75,
          "elementDurability": 100.0,
          "state": "Invincible"
        }
      }
    }
  },
  {
    "Default": {
      "$type": "ConfigAbility",
      "abilityName": "Monster_Eremite_FeMale_Standard_Longbow_ReturnToBorn",
      "abilityMixins": [
        {
          "$type": "LEOGLBFIELL",
          "poseIDs": [901],
          "modifierName": "ReturnToBorn_Start"
        },
        {
          "$type": "AttachToAnimatorStateIDMixin",
          "stateIDs": ["SheathWeapon"],
          "modifierName": "ReturnToBornHandler",
          "DGFCLAIDIFI": ""
        },
        {
          "$type": "AttachToStateIDMixin",
          "stateIDs": ["FeelWind"],
          "modifierName": "FeelWind_Effect",
          "DGFCLAIDIFI": ""
        }
      ],
      "modifiers": {
        "ReturnToBorn_Start": {
          "modifierName": "",
          "elementDurability": 100.0,
          "onAdded": [
            {
              "$type": "SetAnimatorTrigger",
              "triggerID": "SheathWeaponTrigger"
            }
          ]
        },
        "ReturnToBornHandler": {
          "modifierName": "",
          "elementDurability": 100.0,
          "onAdded": [
            {
              "$type": "SetGlobalValue",
              "value": 0.0,
              "key": "_MONSTER_EREMITE_IMPROVED_",
              "useLimitRange": true,
              "maxValue": 1.0,
              "minValue": 0.0
            },
            {
              "$type": "SetGlobalValue",
              "value": 1.0,
              "key": "_MONSTER_EREMITE_RETURNTOBORN_",
              "useLimitRange": true,
              "maxValue": 1.0,
              "minValue": 0.0
            },
            {
              "$type": "SetGlobalValue",
              "value": 0.0,
              "key": "_MONSTER_EREMITE_WEAK_",
              "useLimitRange": true,
              "maxValue": 1.0,
              "minValue": 0.0
            },
            {
              "$type": "SetGlobalValue",
              "value": 0.0,
              "key": "_MONSTER_EREMITE_IMPROVED_COUNT_",
              "useLimitRange": true,
              "maxValue": 99.0,
              "minValue": 0.0
            },
            {
              "$type": "RemoveUniqueModifier",
              "modifierName": "UNIQUE_Eremite_ImproveState_Properties"
            },
            {
              "$type": "RemoveUniqueModifier",
              "modifierName": "UNIQUE_Eremite_Force_ImproveState"
            }
          ],
          "onRemoved": [
            {
              "$type": "SetGlobalValue",
              "value": 0.0,
              "key": "_MONSTER_EREMITE_IMPROVED_",
              "useLimitRange": true,
              "maxValue": 1.0,
              "minValue": 0.0
            },
            {
              "$type": "SetGlobalValue",
              "value": 0.0,
              "key": "_EREMITE_WEAK_TIMES_",
              "useLimitRange": true,
              "maxValue": 100.0,
              "minValue": 0.0
            },
            {
              "$type": "SetGlobalValue",
              "value": 0.0,
              "key": "_MONSTER_EREMITE_IMPROVED_COUNT_",
              "useLimitRange": true,
              "maxValue": 99.0,
              "minValue": 0.0
            },
            {
              "$type": "SetGlobalValue",
              "value": 0.0,
              "key": "_MONSTER_EREMITE_ISINFIGHT_",
              "useLimitRange": true,
              "maxValue": 1.0,
              "minValue": 0.0
            },
            {
              "$type": "SetGlobalValue",
              "value": 0.0,
              "key": "_MONSTER_EREMITE_WEAK_",
              "useLimitRange": true,
              "maxValue": 1.0,
              "minValue": 0.0
            },
            {
              "$type": "SetGlobalValue",
              "value": 0.0,
              "key": "_MONSTER_EREMITE_RETURNTOBORN_",
              "useLimitRange": true,
              "maxValue": 1.0,
              "minValue": 0.0
            },
            {
              "$type": "SetGlobalValue",
              "value": 0.0,
              "key": "_MONSTER_EREMITE_OUTIMPROVED",
              "useLimitRange": true,
              "maxValue": 1.0,
              "minValue": 0.0
            },
            {
              "$type": "ApplyModifier",
              "otherTargets": {
                "$type": "SelectTargetsByChildren",
                "configID": 25110201
              },
              "modifierName": "Slave_ReturnToBorn"
            },
            {
              "$type": "KillSelf",
              "otherTargets": {
                "$type": "SelectTargetsByChildren",
                "configID": 25110201
              },
              "banHPPercentageDrop": true
            },
            {
              "$type": "SetGlobalValue",
              "value": 0.0,
              "key": "_EREMITE_SLAVE_DIE_",
              "useLimitRange": true,
              "maxValue": 1.0,
              "minValue": 0.0
            }
          ]
        },
        "Slave_ReturnToBorn": {
          "modifierName": "",
          "duration": 1.0,
          "elementDurability": 100.0,
          "onAdded": [
            {
              "$type": "AddGlobalValue",
              "value": 1.0,
              "key": "_EREMITE_SLAVE_RETURNTOBORN_",
              "useLimitRange": true,
              "maxValue": 1.0,
              "minValue": 0.0
            }
          ]
        },
        "FeelWind_Effect": {
          "modifierName": "",
          "elementDurability": 100.0,
          "onAdded": [
            {
              "$type": "AttachEffect",
              "rotationDampTime": "Eff_Monster_Eremite_Female_Standard_Longbow_Wind_FeelWind_Effect",
              "PPPDJGDDOGD": 1.0,
              "AJDILHJFNKE": -1.0
            }
          ]
        }
      },
      "onAbilityStart": [
        {
          "$type": "ApplyModifier",
          "otherTargets": {
            "$type": "SelectTargetsByChildren",
            "configID": 25110201
          },
          "modifierName": "Slave_ReturnToBorn"
        },
        {
          "$type": "KillSelf",
          "otherTargets": {
            "$type": "SelectTargetsByChildren",
            "configID": 25110201
          }
        }
      ]
    }
  }
]
