[
  {
    "Default": {
      "$type": "ConfigAbility",
      "abilityName": "Monster_Necalevia_Big_InitialTransform",
      "onAdded": [
        {
          "$type": "SetGlobalValue",
          "value": 1.0,
          "key": "_MESH_STATE",
          "maxValue": 0.0,
          "minValue": 0.0
        },
        {
          "$type": "SetGlobalValue",
          "value": 1.0,
          "key": "_IN_ANGRY",
          "maxValue": 0.0,
          "minValue": 0.0
        }
      ]
    }
  },
  {
    "Default": {
      "$type": "ConfigAbility",
      "abilityName": "Monster_Necalevia_SmallTransformToBig",
      "abilityMixins": [
        {
          "$type": "AttachToStateIDMixin",
          "stateIDs": ["TransformToBig_AS"],
          "modifierName": "Monster_Necalevia_SmallTransformToBig",
          "DGFCLAIDIFI": ""
        },
        {
          "$type": "AttachModifierToSelfGlobalValueMixin",
          "globalValueKey": "_MESH_STATE",
          "gvInTalk": 0.0,
          "valueSteps": [-0.5, 0.5, 1.5],
          "modifierNameSteps": [
            "Necalevia_Big_MeshBody",
            "Necalevia_Big_MeshBodyBig"
          ]
        },
        {
          "$type": "AttachToStateIDMixin",
          "stateIDs": ["TransformToBig_BS", "TransformToBig_AS"],
          "modifierName": "Monster_Necalevia_BigOpenSPHitBox",
          "DGFCLAIDIFI": ""
        }
      ],
      "modifiers": {
        "Monster_Necalevia_SmallTransformToBig": {
          "modifierName": "",
          "elementDurability": 100.0,
          "onAdded": [
            {
              "$type": "SetGlobalValue",
              "value": 1.0,
              "key": "_MESH_STATE",
              "maxValue": 0.0,
              "minValue": 0.0
            },
            {
              "$type": "SetGlobalValue",
              "value": 1.0,
              "key": "_IN_ANGRY",
              "maxValue": 0.0,
              "minValue": 0.0
            }
          ]
        },
        "Necalevia_Big_MeshBody": {
          "modifierName": "",
          "elementDurability": 100.0,
          "onAdded": [
            {
              "$type": "TriggerSetRenderersEnable",
              "canBeHandledOnRecover": true,
              "renderNames": ["Body_Small_01"],
              "setEnable": true
            },
            {
              "$type": "TriggerSetRenderersEnable",
              "canBeHandledOnRecover": true,
              "renderNames": ["Body_Big_01"]
            },
            {
              "$type": "EnableHitBoxByName",
              "hitBoxNames": ["HitBoxSmall"],
              "setEnable": true
            },
            {
              "$type": "EnableHitBoxByName",
              "hitBoxNames": ["HitBoxBig"]
            },
            {
              "$type": "EnableHitBoxByName",
              "hitBoxNames": ["HitBoxSP"]
            },
            {
              "$type": "EnablePushColliderName",
              "pushColliderNames": ["PushCollider"],
              "setEnable": true
            },
            {
              "$type": "EnablePushColliderName",
              "pushColliderNames": ["PushCollider_Big"]
            }
          ]
        },
        "Necalevia_Big_MeshBodyBig": {
          "modifierName": "",
          "elementDurability": 100.0,
          "modifierMixins": [
            {
              "$type": "OverrideEffectMeshMixin",
              "MIPDKACPIGJ": "EffectMesh2"
            },
            {
              "$type": "FPEBEMNFIPF",
              "attachPointName": "BillBoardAttach2"
            },
            {
              "$type": "BFDNGLAIGLK",
              "overrideBulletAimPoint": "BulletAim2"
            }
          ],
          "onAdded": [
            {
              "$type": "TriggerSetRenderersEnable",
              "canBeHandledOnRecover": true,
              "renderNames": ["Body_Small_01"]
            },
            {
              "$type": "TriggerSetRenderersEnable",
              "canBeHandledOnRecover": true,
              "renderNames": ["Body_Big_01"],
              "setEnable": true
            },
            {
              "$type": "EnableHitBoxByName",
              "hitBoxNames": ["HitBoxSmall"]
            },
            {
              "$type": "EnableHitBoxByName",
              "hitBoxNames": ["HitBoxBig"],
              "setEnable": true
            },
            {
              "$type": "AttachEffect",
              "rotationDampTime": "Eff_Monster_Necalevia_Big_Angry",
              "PPPDJGDDOGD": 1.0,
              "AJDILHJFNKE": -1.0
            },
            {
              "$type": "EnablePushColliderName",
              "pushColliderNames": ["PushCollider"]
            },
            {
              "$type": "EnablePushColliderName",
              "pushColliderNames": ["PushCollider_Big"],
              "setEnable": true
            }
          ]
        },
        "Monster_Necalevia_BigOpenSPHitBox": {
          "modifierName": "",
          "elementDurability": 100.0,
          "modifierMixins": [
            {
              "$type": "AttachActionToModifierMixin",
              "onAdded": [
                {
                  "$type": "EnableHitBoxByName",
                  "hitBoxNames": ["HitBoxSP"],
                  "setEnable": true
                }
              ],
              "onRemoved": [
                {
                  "$type": "EnableHitBoxByName",
                  "hitBoxNames": ["HitBoxSP"]
                }
              ]
            }
          ]
        }
      },
      "onKill": [
        {
          "$type": "FireEffect",
          "predicates": [
            {
              "$type": "ByTargetGlobalValue",
              "key": "_MESH_STATE",
              "value": 0.0,
              "compareType": "NoneOrEqual"
            }
          ],
          "rotationDampTime": "Eff_Monster_Necalevia_Small_Die",
          "PPPDJGDDOGD": 1.0,
          "AJDILHJFNKE": -1.0
        },
        {
          "$type": "FireEffect",
          "predicates": [
            {
              "$type": "ByTargetGlobalValue",
              "key": "_MESH_STATE",
              "value": 1.0
            }
          ],
          "rotationDampTime": "Eff_Monster_Necalevia_Big_Die",
          "PPPDJGDDOGD": 1.0,
          "AJDILHJFNKE": -1.0
        }
      ]
    }
  },
  {
    "Default": {
      "$type": "ConfigAbility",
      "abilityName": "Monster_Necalevia_SmallBreakToBig",
      "abilityMixins": [
        {
          "$type": "AttachToStateIDMixin",
          "stateIDs": ["BreakToBig_BS"],
          "modifierName": "Monster_Necalevia_SmallBreakToBig",
          "DGFCLAIDIFI": ""
        },
        {
          "$type": "AttachToStateIDMixin",
          "stateIDs": ["BigChangeToSmall_AS"],
          "modifierName": "Monster_Necalevia_BigChangeToSmall",
          "DGFCLAIDIFI": ""
        }
      ],
      "modifiers": {
        "Monster_Necalevia_SmallBreakToBig": {
          "modifierName": "",
          "elementDurability": 100.0,
          "onAdded": [
            {
              "$type": "ApplyModifier",
              "modifierName": "Monster_Necalevia_SmallBreakToBigDelay"
            }
          ]
        },
        "Monster_Necalevia_SmallBreakToBigDelay": {
          "modifierName": "",
          "duration": 0.4000000059604645,
          "elementDurability": 100.0,
          "onAdded": [
            {
              "$type": "SetGlobalValue",
              "value": 1.0,
              "key": "_IN_ANGRY",
              "maxValue": 0.0,
              "minValue": 0.0
            }
          ],
          "onRemoved": [
            {
              "$type": "SetGlobalValue",
              "value": 1.0,
              "key": "_MESH_STATE",
              "maxValue": 0.0,
              "minValue": 0.0
            }
          ]
        },
        "Monster_Necalevia_BigChangeToSmall": {
          "modifierName": "",
          "elementDurability": 100.0,
          "onAdded": [
            {
              "$type": "SetGlobalValue",
              "value": 0.0,
              "key": "_MESH_STATE",
              "maxValue": 0.0,
              "minValue": 0.0
            },
            {
              "$type": "SetGlobalValue",
              "value": 0.0,
              "key": "_IN_ANGRY",
              "maxValue": 0.0,
              "minValue": 0.0
            },
            {
              "$type": "FireEffect",
              "rotationDampTime": "Eff_Monster_Necalevia_Big_ChangeToSmall",
              "PPPDJGDDOGD": 1.0,
              "AJDILHJFNKE": -1.0
            }
          ]
        }
      }
    }
  },
  {
    "Default": {
      "$type": "ConfigAbility",
      "abilityName": "Monster_Necalevia_AngrySystem",
      "abilityMixins": [
        {
          "$type": "AttachModifierToSelfGlobalValueMixin",
          "globalValueKey": "_IN_ANGRY",
          "gvInTalk": 0.0,
          "valueSteps": [-0.5, 0.5, 1.5],
          "modifierNameSteps": ["Necalevia_InPeace", "Necalevia_InAngry"]
        },
        {
          "$type": "LEOGLBFIELL",
          "poseIDs": [101],
          "modifierName": "Monster_Necalevia_CheckFreezeTime"
        },
        {
          "$type": "AttachModifierToSelfGlobalValueMixin",
          "globalValueKey": "_FREEZE_TIMER",
          "gvInTalk": 0.0,
          "valueSteps": [-0.5, 7.5, 30.0],
          "modifierNameSteps": ["NotFreeze", "InFreezeLong"]
        },
        {
          "$type": "AttachToStateIDMixin",
          "stateIDs": ["NormalRangeAttack"],
          "modifierName": "Monster_Necalevia_CanNotShake",
          "DGFCLAIDIFI": ""
        },
        {
          "$type": "LAPMOOFOPBM",
          "valueSteps": [0.30000001192092896],
          "modifierNameSteps": ["GO_TransformEmpty", "Go_Transform"]
        }
      ],
      "modifiers": {
        "GO_TransformEmpty": {
          "modifierName": "",
          "elementDurability": 100.0
        },
        "Go_Transform": {
          "modifierName": "",
          "elementDurability": 100.0,
          "onAdded": [
            {
              "$type": "IPMMJGMONCI",
              "skillIDs": [9000]
            }
          ]
        },
        "Monster_Necalevia_CanNotShake": {
          "modifierName": "",
          "elementDurability": 100.0,
          "onAdded": [
            {
              "$type": "SetAnimatorBool",
              "boolID": "CanShake"
            }
          ],
          "onRemoved": [
            {
              "$type": "SetAnimatorBool",
              "boolID": "CanShake",
              "value": true
            }
          ]
        },
        "NotFreeze": {
          "modifierName": "",
          "elementDurability": 100.0
        },
        "InFreezeLong": {
          "modifierName": "",
          "elementDurability": 100.0,
          "onAdded": [
            {
              "$type": "ApplyModifier",
              "modifierName": "GoBreakDelay"
            },
            {
              "$type": "ApplyModifier",
              "modifierName": "Monster_Necalevia_ResistFreeze"
            },
            {
              "$type": "HCLAKBJKPLE",
              "watcherId": 82177,
              "inThreatListOnly": true
            }
          ]
        },
        "Monster_Necalevia_ResistFreeze": {
          "modifierName": "",
          "duration": 0.10000000149011612,
          "elementDurability": 100.0,
          "onAdded": [
            {
              "$type": "AttachAbilityStateResistance",
              "resistanceBuffDebuffs": [
                "ElementFreeze",
                "ElementFrozen",
                "ElementIce"
              ]
            },
            {
              "$type": "GOKILMDLLJD",
              "resistanceListID": 14002
            }
          ]
        },
        "GoBreakDelay": {
          "modifierName": "",
          "duration": 0.05000000074505806,
          "elementDurability": 100.0,
          "onRemoved": [
            {
              "$type": "SetAnimatorTrigger",
              "triggerID": "GoBreak"
            }
          ]
        },
        "Monster_Necalevia_CheckFreezeTime": {
          "modifierName": "",
          "elementDurability": 100.0,
          "modifierMixins": [
            {
              "$type": "BOFHCLGLCLO",
              "globalValueKey": "_FREEZE_TIMER",
              "abilityState": "ElementFreeze",
              "JNHLHIMMEHN": 1.0,
              "LBFEPLBPNOD": 8.0
            }
          ]
        },
        "Necalevia_InPeace": {
          "modifierName": "",
          "elementDurability": 100.0,
          "onAdded": [
            {
              "$type": "SetAnimatorBool",
              "boolID": "ReconnectFlag"
            },
            {
              "$type": "SetAnimatorBool",
              "boolID": "SkinAngry"
            },
            {
              "$type": "IDNGFEEBPAM",
              "boolID": "Angry"
            },
            {
              "$type": "OHPMBBJIJFG",
              "canBeHandledOnRecover": true,
              "value": 3.0
            }
          ]
        },
        "Necalevia_InAngry": {
          "modifierName": "",
          "elementDurability": 100.0,
          "modifierMixins": [
            {
              "$type": "AttachModifierToSelfGlobalValueMixin",
              "globalValueKey": "_RECONNECT_ANGRY",
              "gvInTalk": 0.0,
              "valueSteps": [-0.5, 0.5, 1.5],
              "modifierNameSteps": ["Reconnect_Empty", "Reconnect_Angry"]
            },
            {
              "$type": "DoActionBySelfElementReactionMixin",
              "reactionTypes": ["Freeze"],
              "actionQueue": [
                {
                  "$type": "SetAnimatorTrigger",
                  "triggerID": "GoIceFake",
                  "mpTriggerOnRemote": true
                }
              ]
            }
          ],
          "onAdded": [
            {
              "$type": "SetAnimatorBool",
              "boolID": "SkinAngry",
              "value": true
            },
            {
              "$type": "IDNGFEEBPAM",
              "boolID": "Angry",
              "value": true
            },
            {
              "$type": "AttachAbilityStateResistance",
              "resistanceBuffDebuffs": ["ElementFreeze", "ElementFrozen"]
            },
            {
              "$type": "SetGlobalValue",
              "value": 0.0,
              "key": "_RECONNECT_ANGRY",
              "maxValue": 0.0,
              "minValue": 0.0
            },
            {
              "$type": "Predicated",
              "targetPredicates": [
                {
                  "$type": "ByTargetGlobalValue",
                  "key": "_SP_NECALEVIA",
                  "value": 0.0,
                  "compareType": "NoneOrEqual"
                }
              ],
              "successActions": [
                {
                  "$type": "OHPMBBJIJFG",
                  "canBeHandledOnRecover": true,
                  "value": 0.5
                }
              ],
              "failActions": [
                {
                  "$type": "Predicated",
                  "targetPredicates": [
                    {
                      "$type": "ByTargetGlobalValue",
                      "key": "_SP_NECALEVIA_INTOWER",
                      "value": 0.0,
                      "compareType": "NoneOrEqual"
                    }
                  ],
                  "successActions": [
                    {
                      "$type": "OHPMBBJIJFG",
                      "canBeHandledOnRecover": true,
                      "value": 0.10000000149011612
                    }
                  ],
                  "failActions": [
                    {
                      "$type": "OHPMBBJIJFG",
                      "canBeHandledOnRecover": true,
                      "value": 2.0
                    }
                  ]
                }
              ]
            }
          ],
          "onRemoved": [
            {
              "$type": "SetGlobalValue",
              "value": 0.0,
              "key": "_RECONNECT_ANGRY",
              "maxValue": 0.0,
              "minValue": 0.0
            }
          ],
          "onReconnect": [
            {
              "$type": "SetGlobalValue",
              "value": 1.0,
              "key": "_RECONNECT_ANGRY",
              "maxValue": 0.0,
              "minValue": 0.0
            }
          ],
          "onChangeAuthority": [
            {
              "$type": "SetGlobalValue",
              "value": 1.0,
              "key": "_RECONNECT_ANGRY",
              "maxValue": 0.0,
              "minValue": 0.0
            }
          ]
        },
        "Reconnect_Empty": {
          "modifierName": "",
          "elementDurability": 100.0
        },
        "Reconnect_Angry": {
          "modifierName": "",
          "elementDurability": 100.0,
          "onAdded": [
            {
              "$type": "SetAnimatorBool",
              "boolID": "ReconnectFlag",
              "value": true
            }
          ]
        }
      },
      "onAdded": [
        {
          "$type": "SetGlobalValue",
          "value": 0.0,
          "key": "_IN_ANGRY",
          "maxValue": 0.0,
          "minValue": 0.0
        }
      ]
    }
  },
  {
    "Default": {
      "$type": "ConfigAbility",
      "abilityName": "Monster_Necalevia_Big_PushSkin",
      "abilityMixins": [
        {
          "$type": "AttachToStateIDMixin",
          "stateIDs": ["PushAttack"],
          "modifierName": "Monster_Necalevia_Big_PushSkin",
          "DGFCLAIDIFI": ""
        }
      ],
      "modifiers": {
        "Monster_Necalevia_Big_PushSkin": {
          "modifierName": "",
          "elementDurability": 100.0,
          "onAdded": [
            {
              "$type": "SetAnimatorTrigger",
              "triggerID": "PushAttackSkin",
              "mpTriggerOnRemote": true
            }
          ]
        }
      }
    }
  },
  {
    "Default": {
      "$type": "ConfigAbility",
      "abilityName": "Necalevia_Small_RangeBullet_Explode",
      "abilityMixins": [
        {
          "$type": "AttachModifierToSelfGlobalValueMixin",
          "globalValueKey": "_GOEXPLODE",
          "gvInTalk": 0.0,
          "valueSteps": [0.5, 1.5],
          "modifierNameSteps": ["RangeBullet_GoExplode"]
        }
      ],
      "modifiers": {
        "RangeBullet_GoExplode": {
          "modifierName": "",
          "elementDurability": 100.0,
          "onAdded": [
            {
              "$type": "RemoveModifier",
              "modifierName": "Necalevia_RangeBullet_Bullet"
            }
          ]
        },
        "Necalevia_RangeBullet_Bullet": {
          "modifierName": "",
          "elementDurability": 100.0,
          "onAdded": [
            {
              "$type": "AttachEffect",
              "rotationDampTime": "Eff_Monster_Necalevia_Small_AttackBullet",
              "PPPDJGDDOGD": 1.0,
              "AJDILHJFNKE": -1.0
            }
          ]
        }
      },
      "onAdded": [
        {
          "$type": "ApplyModifier",
          "modifierName": "Necalevia_RangeBullet_Bullet"
        }
      ],
      "onAbilityStart": [
        {
          "$type": "SetGlobalValue",
          "value": 1.0,
          "key": "_GOEXPLODE",
          "maxValue": 0.0,
          "minValue": 0.0
        },
        {
          "$type": "Predicated",
          "target": "Target",
          "targetPredicates": [
            {
              "$type": "ByEntityTypes",
              "entityTypes": ["Avatar", "Gadget", "Field", "Partner", "Vehicle"]
            }
          ],
          "successActions": [
            {
              "$type": "FireEffect",
              "rotationDampTime": "Eff_Monster_Necalevia_Small_AttackBulletExplode",
              "born": {
                "$type": "ConfigBornByCollisionPoint",
                "useSyncValue": true
              },
              "PPPDJGDDOGD": 1.0,
              "AJDILHJFNKE": -1.0
            },
            {
              "$type": "TriggerAttackEvent",
              "doAfterDie": false,
              "attackEvent": {
                "attackPattern": {
                  "$type": "ConfigAttackSphere",
                  "triggerType": "TriggerNoRepeat",
                  "born": {
                    "$type": "ConfigBornByCollisionPoint",
                    "useSyncValue": true
                  },
                  "radius": 0.5
                },
                "attackInfo": {
                  "attackTag": "",
                  "attenuationTag": "",
                  "attenuationGroup": "default",
                  "attackProperty": {
                    "actorGrassSubHurtDelta": 0.5,
                    "actorWindSubHurtDelta": 0.0,
                    "elementType": "Water",
                    "elementDurability": 25.0,
                    "strikeType": "Blunt",
                    "enBreak": 25.0,
                    "attackType": "Range",
                    "GLKMCMDJBIK": 0.0
                  },
                  "hitPattern": {
                    "onHitEffectName": "default",
                    "hitImpulseY": "",
                    "hitImpulseType": "LV2"
                  },
                  "canBeModifiedBy": "OriginOwner"
                }
              },
              "targetType": "Enemy"
            }
          ],
          "failActions": [
            {
              "$type": "FireEffect",
              "rotationDampTime": "Eff_Monster_Necalevia_Small_AttackBulletExplode",
              "born": {
                "$type": "ConfigBornBySelf",
                "useRotation": true
              },
              "PPPDJGDDOGD": 1.0,
              "AJDILHJFNKE": -1.0
            },
            {
              "$type": "TriggerAttackEvent",
              "doAfterDie": false,
              "attackEvent": {
                "attackPattern": {
                  "$type": "ConfigAttackSphere",
                  "triggerType": "TriggerNoRepeat",
                  "born": {
                    "$type": "ConfigBornBySelf",
                    "useRotation": true
                  },
                  "radius": 0.5
                },
                "attackInfo": {
                  "attackTag": "",
                  "attenuationTag": "",
                  "attenuationGroup": "default",
                  "attackProperty": {
                    "actorGrassSubHurtDelta": 0.5,
                    "actorWindSubHurtDelta": 0.0,
                    "elementType": "Water",
                    "elementDurability": 25.0,
                    "strikeType": "Blunt",
                    "enBreak": 25.0,
                    "attackType": "Range",
                    "GLKMCMDJBIK": 0.0
                  },
                  "hitPattern": {
                    "onHitEffectName": "default",
                    "hitImpulseY": "",
                    "hitImpulseType": "LV2"
                  },
                  "canBeModifiedBy": "OriginOwner"
                }
              },
              "targetType": "Enemy"
            }
          ]
        }
      ]
    }
  },
  {
    "Default": {
      "$type": "ConfigAbility",
      "abilityName": "Monster_Necalevia_Small_RangeBulletExplode_LifeOver",
      "onAbilityStart": [
        {
          "$type": "SetGlobalValue",
          "value": 1.0,
          "key": "_GOEXPLODE",
          "maxValue": 0.0,
          "minValue": 0.0
        },
        {
          "$type": "FireEffect",
          "rotationDampTime": "Eff_Monster_Necalevia_Small_AttackBulletExplode",
          "born": {
            "$type": "ConfigBornBySelf",
            "useRotation": true
          },
          "PPPDJGDDOGD": 1.0,
          "AJDILHJFNKE": -1.0
        },
        {
          "$type": "TriggerAttackEvent",
          "doAfterDie": false,
          "attackEvent": {
            "attackPattern": {
              "$type": "ConfigAttackSphere",
              "triggerType": "TriggerNoRepeat",
              "born": {
                "$type": "ConfigBornBySelf",
                "useRotation": true
              },
              "radius": 0.5
            },
            "attackInfo": {
              "attackTag": "",
              "attenuationTag": "",
              "attenuationGroup": "default",
              "attackProperty": {
                "actorGrassSubHurtDelta": 0.5,
                "actorWindSubHurtDelta": 0.0,
                "elementType": "Water",
                "elementDurability": 25.0,
                "strikeType": "Blunt",
                "enBreak": 25.0,
                "attackType": "Range",
                "GLKMCMDJBIK": 0.0
              },
              "hitPattern": {
                "onHitEffectName": "default",
                "hitImpulseY": "",
                "hitImpulseType": "LV2"
              },
              "canBeModifiedBy": "OriginOwner"
            }
          },
          "targetType": "Enemy"
        }
      ]
    }
  },
  {
    "Default": {
      "$type": "ConfigAbility",
      "abilityName": "Monster_Necalevia_Small_ReleaseRangeBullet",
      "onAbilityStart": [
        {
          "$type": "TriggerBullet",
          "bulletID": 42005103,
          "born": {
            "$type": "ConfigBornBySelf",
            "offset": {
              "x": 0.0,
              "y": 1.100000023841858,
              "z": 1.0
            },
            "direction": {
              "$type": "ConfigDirectionByAttackTarget",
              "useCorrectDir": true,
              "maxAngleType": "Vertical",
              "maxAngle": 30.0,
              "startPoint": ""
            },
            "useRotation": true
          }
        }
      ]
    }
  },
  {
    "Default": {
      "$type": "ConfigAbility",
      "abilityName": "Necalevia_RangeBullet_Explode",
      "abilityMixins": [
        {
          "$type": "AttachModifierToSelfGlobalValueMixin",
          "globalValueKey": "_GOEXPLODE",
          "gvInTalk": 0.0,
          "valueSteps": [0.5, 1.5],
          "modifierNameSteps": ["RangeBullet_GoExplode"]
        }
      ],
      "modifiers": {
        "RangeBullet_GoExplode": {
          "modifierName": "",
          "elementDurability": 100.0,
          "onAdded": [
            {
              "$type": "RemoveModifier",
              "modifierName": "Necalevia_RangeBullet_Bullet"
            }
          ]
        },
        "Necalevia_RangeBullet_Bullet": {
          "modifierName": "",
          "elementDurability": 100.0,
          "onAdded": [
            {
              "$type": "AttachEffect",
              "rotationDampTime": "Eff_Monster_Necalevia_Big_RangeAttackBullet",
              "PPPDJGDDOGD": 1.0,
              "AJDILHJFNKE": -1.0
            },
            {
              "$type": "AttachEffect",
              "rotationDampTime": "Eff_Monster_Necalevia_Big_RangeAttackBullet_Trail",
              "PPPDJGDDOGD": 1.0,
              "AJDILHJFNKE": -1.0
            }
          ]
        }
      },
      "onAdded": [
        {
          "$type": "ApplyModifier",
          "modifierName": "Necalevia_RangeBullet_Bullet"
        }
      ],
      "onAbilityStart": [
        {
          "$type": "SetGlobalValue",
          "value": 1.0,
          "key": "_GOEXPLODE",
          "maxValue": 0.0,
          "minValue": 0.0
        },
        {
          "$type": "Predicated",
          "target": "Target",
          "targetPredicates": [
            {
              "$type": "ByEntityTypes",
              "entityTypes": ["Avatar", "Gadget", "Field", "Partner", "Vehicle"]
            }
          ],
          "successActions": [
            {
              "$type": "FireEffect",
              "rotationDampTime": "Eff_Monster_Necalevia_Big_RangeAttackBullet_Explode",
              "born": {
                "$type": "ConfigBornByCollisionPoint",
                "useSyncValue": true
              },
              "PPPDJGDDOGD": 1.0,
              "AJDILHJFNKE": -1.0
            },
            {
              "$type": "TriggerAttackEvent",
              "doAfterDie": false,
              "attackEvent": {
                "attackPattern": {
                  "$type": "ConfigAttackSphere",
                  "triggerType": "TriggerNoRepeat",
                  "born": {
                    "$type": "ConfigBornByCollisionPoint",
                    "useSyncValue": true
                  },
                  "radius": 2.0
                },
                "attackInfo": {
                  "attackTag": "",
                  "attenuationTag": "RangeAtkBullet",
                  "attenuationGroup": "Oceanid_Crab_WaterStream",
                  "attackProperty": {
                    "actorGrassSubHurtDelta": 1.0,
                    "actorWindSubHurtDelta": 0.0,
                    "elementType": "Water",
                    "elementDurability": 25.0,
                    "strikeType": "Blunt",
                    "enBreak": 101.0,
                    "attackType": "Range",
                    "GLKMCMDJBIK": 0.0
                  },
                  "hitPattern": {
                    "onHitEffectName": "default",
                    "hitImpulseY": "",
                    "hitImpulseType": "LV4"
                  },
                  "canBeModifiedBy": "OriginOwner"
                }
              },
              "targetType": "Enemy"
            }
          ],
          "failActions": [
            {
              "$type": "FireEffect",
              "rotationDampTime": "Eff_Monster_Necalevia_Big_RangeAttackBullet_Explode",
              "born": {
                "$type": "ConfigBornBySelf",
                "useRotation": true
              },
              "PPPDJGDDOGD": 1.0,
              "AJDILHJFNKE": -1.0
            },
            {
              "$type": "TriggerAttackEvent",
              "doAfterDie": false,
              "attackEvent": {
                "attackPattern": {
                  "$type": "ConfigAttackSphere",
                  "triggerType": "TriggerNoRepeat",
                  "born": {
                    "$type": "ConfigBornBySelf",
                    "useRotation": true
                  },
                  "radius": 2.0
                },
                "attackInfo": {
                  "attackTag": "",
                  "attenuationTag": "RangeAtkBullet",
                  "attenuationGroup": "Oceanid_Crab_WaterStream",
                  "attackProperty": {
                    "actorGrassSubHurtDelta": 1.0,
                    "actorWindSubHurtDelta": 0.0,
                    "elementType": "Water",
                    "elementDurability": 25.0,
                    "strikeType": "Blunt",
                    "enBreak": 101.0,
                    "attackType": "Range",
                    "GLKMCMDJBIK": 0.0
                  },
                  "hitPattern": {
                    "onHitEffectName": "default",
                    "hitImpulseY": "",
                    "hitImpulseType": "LV4"
                  },
                  "canBeModifiedBy": "OriginOwner"
                }
              },
              "targetType": "Enemy"
            }
          ]
        }
      ]
    }
  },
  {
    "Default": {
      "$type": "ConfigAbility",
      "abilityName": "Monster_Necalevia_RangeBulletExplode_LifeOver",
      "onAbilityStart": [
        {
          "$type": "SetGlobalValue",
          "value": 1.0,
          "key": "_GOEXPLODE",
          "maxValue": 0.0,
          "minValue": 0.0
        },
        {
          "$type": "FireEffect",
          "rotationDampTime": "Eff_Monster_Necalevia_Big_RangeAttackBullet_Explode",
          "born": {
            "$type": "ConfigBornBySelf",
            "useRotation": true
          },
          "PPPDJGDDOGD": 1.0,
          "AJDILHJFNKE": -1.0
        },
        {
          "$type": "TriggerAttackEvent",
          "doAfterDie": false,
          "attackEvent": {
            "attackPattern": {
              "$type": "ConfigAttackSphere",
              "triggerType": "TriggerNoRepeat",
              "born": {
                "$type": "ConfigBornBySelf",
                "useRotation": true
              },
              "radius": 2.0
            },
            "attackInfo": {
              "attackTag": "",
              "attenuationTag": "",
              "attenuationGroup": "default",
              "attackProperty": {
                "actorGrassSubHurtDelta": 1.0,
                "actorWindSubHurtDelta": 0.0,
                "elementType": "Water",
                "elementDurability": 25.0,
                "strikeType": "Blunt",
                "enBreak": 101.0,
                "attackType": "Range",
                "GLKMCMDJBIK": 0.0
              },
              "hitPattern": {
                "onHitEffectName": "default",
                "hitImpulseY": "",
                "hitImpulseType": "LV4"
              },
              "canBeModifiedBy": "OriginOwner"
            }
          },
          "targetType": "Enemy"
        }
      ]
    }
  },
  {
    "Default": {
      "$type": "ConfigAbility",
      "abilityName": "Monster_Necalevia_ReleaseRangeBullet",
      "onAbilityStart": [
        {
          "$type": "TriggerBullet",
          "bulletID": 42005101,
          "born": {
            "$type": "ConfigBornByAttachPoint",
            "direction": {
              "$type": "ConfigDirectionByAttackTarget",
              "useCorrectDir": true,
              "maxAngleType": "Vertical",
              "maxAngle": 30.0,
              "startPoint": ""
            },
            "useRotation": true,
            "attachPointName": "RangeFirePoint"
          }
        }
      ]
    }
  },
  {
    "Default": {
      "$type": "ConfigAbility",
      "abilityName": "Monster_Necalevia_ReleaseRangeBullet_SP",
      "onAbilityStart": [
        {
          "$type": "SetGlobalValue",
          "value": 1.0,
          "key": "_TARGET_BEFORE",
          "maxValue": 0.0,
          "minValue": 0.0
        },
        {
          "$type": "Predicated",
          "target": "SelfAttackTarget",
          "targetPredicates": [
            {
              "$type": "NDOONLLEPBJ",
              "logic": "Lesser",
              "value": 90.0,
              "namedTransform": ""
            }
          ],
          "failActions": [
            {
              "$type": "SetGlobalValue",
              "value": 0.0,
              "key": "_TARGET_BEFORE",
              "maxValue": 0.0,
              "minValue": 0.0
            }
          ]
        },
        {
          "$type": "Predicated",
          "target": "SelfAttackTarget",
          "targetPredicates": [
            {
              "$type": "ByTargetPositionToSelfPosition",
              "logic": "Lesser",
              "value": 3.0,
              "DDALGNLEHOD": ""
            }
          ],
          "successActions": [
            {
              "$type": "SetGlobalValue",
              "value": 0.0,
              "key": "_TARGET_FAR",
              "maxValue": 0.0,
              "minValue": 0.0
            }
          ],
          "failActions": [
            {
              "$type": "SetGlobalValue",
              "value": 1.0,
              "key": "_TARGET_FAR",
              "maxValue": 0.0,
              "minValue": 0.0
            }
          ]
        },
        {
          "$type": "Predicated",
          "targetPredicates": [
            {
              "$type": "BGOKEHHCFHG",
              "predicates": [
                {
                  "$type": "ByTargetGlobalValue",
                  "key": "_TARGET_BEFORE",
                  "value": 1.0
                },
                {
                  "$type": "ByTargetGlobalValue",
                  "key": "_TARGET_FAR",
                  "value": 1.0
                }
              ]
            }
          ],
          "successActions": [
            {
              "$type": "TriggerBullet",
              "bulletID": 42005101,
              "born": {
                "$type": "ConfigBornByAttachPoint",
                "direction": {
                  "$type": "ConfigDirectionByAttackTarget",
                  "useCorrectDir": true,
                  "maxAngle": 80.0,
                  "startPoint": ""
                },
                "useRotation": true,
                "attachPointName": "RangeFirePoint"
              }
            },
            {
              "$type": "TriggerBullet",
              "bulletID": 42005101,
              "born": {
                "$type": "ConfigBornByAttachPoint",
                "direction": {
                  "$type": "ConfigDirectionByAttackTarget",
                  "angleOffset": {
                    "x": 0.0,
                    "y": 15.0,
                    "z": 0.0
                  },
                  "useCorrectDir": true,
                  "maxAngle": 80.0,
                  "startPoint": ""
                },
                "useRotation": true,
                "attachPointName": "RangeFirePoint"
              }
            },
            {
              "$type": "TriggerBullet",
              "bulletID": 42005101,
              "born": {
                "$type": "ConfigBornByAttachPoint",
                "direction": {
                  "$type": "ConfigDirectionByAttackTarget",
                  "angleOffset": {
                    "x": 0.0,
                    "y": -15.0,
                    "z": 0.0
                  },
                  "useCorrectDir": true,
                  "maxAngle": 80.0,
                  "startPoint": ""
                },
                "useRotation": true,
                "attachPointName": "RangeFirePoint"
              }
            },
            {
              "$type": "TriggerBullet",
              "bulletID": 42005101,
              "born": {
                "$type": "ConfigBornByAttachPoint",
                "direction": {
                  "$type": "ConfigDirectionByAttackTarget",
                  "angleOffset": {
                    "x": 0.0,
                    "y": 40.0,
                    "z": 0.0
                  },
                  "useCorrectDir": true,
                  "maxAngle": 80.0,
                  "startPoint": ""
                },
                "useRotation": true,
                "attachPointName": "RangeFirePoint"
              }
            },
            {
              "$type": "TriggerBullet",
              "bulletID": 42005101,
              "born": {
                "$type": "ConfigBornByAttachPoint",
                "direction": {
                  "$type": "ConfigDirectionByAttackTarget",
                  "angleOffset": {
                    "x": 0.0,
                    "y": -40.0,
                    "z": 0.0
                  },
                  "useCorrectDir": true,
                  "maxAngle": 80.0,
                  "startPoint": ""
                },
                "useRotation": true,
                "attachPointName": "RangeFirePoint"
              }
            }
          ],
          "failActions": [
            {
              "$type": "Predicated",
              "targetPredicates": [
                {
                  "$type": "ByTargetGlobalValue",
                  "key": "_TARGET_BEFORE",
                  "value": 0.0
                }
              ],
              "successActions": [
                {
                  "$type": "TriggerBullet",
                  "bulletID": 42005101,
                  "born": {
                    "$type": "ConfigBornByAttachPoint",
                    "direction": {
                      "$type": "ConfigDirectionByEntity"
                    },
                    "useRotation": true,
                    "attachPointName": "RangeFirePoint"
                  }
                },
                {
                  "$type": "TriggerBullet",
                  "bulletID": 42005101,
                  "born": {
                    "$type": "ConfigBornByAttachPoint",
                    "direction": {
                      "$type": "ConfigDirectionByEntity",
                      "angleOffset": {
                        "x": 0.0,
                        "y": 15.0,
                        "z": 0.0
                      },
                      "useCorrectDir": true
                    },
                    "useRotation": true,
                    "attachPointName": "RangeFirePoint"
                  }
                },
                {
                  "$type": "TriggerBullet",
                  "bulletID": 42005101,
                  "born": {
                    "$type": "ConfigBornByAttachPoint",
                    "direction": {
                      "$type": "ConfigDirectionByEntity",
                      "angleOffset": {
                        "x": 0.0,
                        "y": -15.0,
                        "z": 0.0
                      },
                      "useCorrectDir": true
                    },
                    "useRotation": true,
                    "attachPointName": "RangeFirePoint"
                  }
                },
                {
                  "$type": "TriggerBullet",
                  "bulletID": 42005101,
                  "born": {
                    "$type": "ConfigBornByAttachPoint",
                    "direction": {
                      "$type": "ConfigDirectionByEntity",
                      "angleOffset": {
                        "x": 0.0,
                        "y": 40.0,
                        "z": 0.0
                      },
                      "useCorrectDir": true
                    },
                    "useRotation": true,
                    "attachPointName": "RangeFirePoint"
                  }
                },
                {
                  "$type": "TriggerBullet",
                  "bulletID": 42005101,
                  "born": {
                    "$type": "ConfigBornByAttachPoint",
                    "direction": {
                      "$type": "ConfigDirectionByEntity",
                      "angleOffset": {
                        "x": 0.0,
                        "y": -40.0,
                        "z": 0.0
                      },
                      "useCorrectDir": true
                    },
                    "useRotation": true,
                    "attachPointName": "RangeFirePoint"
                  }
                }
              ]
            }
          ]
        },
        {
          "$type": "Predicated",
          "targetPredicates": [
            {
              "$type": "BGOKEHHCFHG",
              "predicates": [
                {
                  "$type": "ByTargetGlobalValue",
                  "key": "_TARGET_BEFORE",
                  "value": 1.0
                },
                {
                  "$type": "ByTargetGlobalValue",
                  "key": "_TARGET_FAR",
                  "value": 0.0
                }
              ]
            }
          ],
          "successActions": [
            {
              "$type": "TriggerBullet",
              "bulletID": 42005101,
              "born": {
                "$type": "ConfigBornByAttachPoint",
                "direction": {
                  "$type": "ConfigDirectionByAttackTarget",
                  "useCorrectDir": true,
                  "startPoint": ""
                },
                "useRotation": true,
                "attachPointName": "RangeFirePoint"
              }
            },
            {
              "$type": "TriggerBullet",
              "bulletID": 42005101,
              "born": {
                "$type": "ConfigBornByAttachPoint",
                "direction": {
                  "$type": "ConfigDirectionByAttackTarget",
                  "angleOffset": {
                    "x": 0.0,
                    "y": 15.0,
                    "z": 0.0
                  },
                  "useCorrectDir": true,
                  "startPoint": ""
                },
                "useRotation": true,
                "attachPointName": "RangeFirePoint"
              }
            },
            {
              "$type": "TriggerBullet",
              "bulletID": 42005101,
              "born": {
                "$type": "ConfigBornByAttachPoint",
                "direction": {
                  "$type": "ConfigDirectionByAttackTarget",
                  "angleOffset": {
                    "x": 0.0,
                    "y": -15.0,
                    "z": 0.0
                  },
                  "useCorrectDir": true,
                  "startPoint": ""
                },
                "useRotation": true,
                "attachPointName": "RangeFirePoint"
              }
            },
            {
              "$type": "TriggerBullet",
              "bulletID": 42005101,
              "born": {
                "$type": "ConfigBornByAttachPoint",
                "direction": {
                  "$type": "ConfigDirectionByAttackTarget",
                  "angleOffset": {
                    "x": 0.0,
                    "y": 40.0,
                    "z": 0.0
                  },
                  "useCorrectDir": true,
                  "startPoint": ""
                },
                "useRotation": true,
                "attachPointName": "RangeFirePoint"
              }
            },
            {
              "$type": "TriggerBullet",
              "bulletID": 42005101,
              "born": {
                "$type": "ConfigBornByAttachPoint",
                "direction": {
                  "$type": "ConfigDirectionByAttackTarget",
                  "angleOffset": {
                    "x": 0.0,
                    "y": -40.0,
                    "z": 0.0
                  },
                  "useCorrectDir": true,
                  "startPoint": ""
                },
                "useRotation": true,
                "attachPointName": "RangeFirePoint"
              }
            }
          ]
        }
      ]
    }
  },
  {
    "Default": {
      "$type": "ConfigAbility",
      "abilityName": "Necalevia_AOERangeMulti_CheckTargetNear",
      "abilityMixins": [
        {
          "$type": "AttachToStateIDMixin",
          "stateIDs": ["RangeAOEAttack_Loop"],
          "modifierName": "Necalevia_AOERangeMulti_CheckTargetNear",
          "DGFCLAIDIFI": ""
        }
      ],
      "modifiers": {
        "Necalevia_AOERangeMulti_CheckTargetNear": {
          "modifierName": "",
          "elementDurability": 100.0,
          "thinkInterval": 0.10000000149011612,
          "onThinkInterval": [
            {
              "$type": "SetGlobalValue",
              "value": 0.0,
              "key": "_TARGET_NEAR",
              "maxValue": 0.0,
              "minValue": 0.0
            },
            {
              "$type": "Predicated",
              "otherTargets": {
                "$type": "SelectTargetsByShape",
                "shapeName": "CircleR3H4",
                "campTargetType": "Enemy",
                "doOffStage": 1.0
              },
              "targetPredicates": [
                {
                  "$type": "ByEntityTypes",
                  "entityTypes": ["Avatar", "Monster", "Vehicle", "Partner"]
                }
              ],
              "successActions": [
                {
                  "$type": "SetGlobalValue",
                  "value": 1.0,
                  "key": "_TARGET_NEAR",
                  "maxValue": 0.0,
                  "minValue": 0.0
                }
              ]
            },
            {
              "$type": "SetAnimatorTrigger",
              "predicates": [
                {
                  "$type": "ByTargetGlobalValue",
                  "key": "_TARGET_NEAR",
                  "value": 1.0
                }
              ],
              "triggerID": "TargetNear"
            }
          ]
        }
      }
    }
  },
  {
    "Default": {
      "$type": "ConfigAbility",
      "abilityName": "Necalevia_AOERangeMulti_Damage",
      "abilityMixins": [
        {
          "$type": "AttachModifierToGlobalValueMixin",
          "globalValueTarget": "Owner",
          "globalValueKey": "_AOE_WATERBULLET_KILLSELF",
          "valueSteps": [0.5, 1.5],
          "modifierNameSteps": ["AOE_KillSelf"]
        }
      ],
      "modifiers": {
        "AOE_KillSelf": {
          "modifierName": "",
          "elementDurability": 100.0,
          "onAdded": [
            {
              "$type": "KillSelf"
            }
          ]
        }
      },
      "onAbilityStart": [
        {
          "$type": "DamageByAttackValue",
          "target": "Other",
          "born": {
            "$type": "ConfigBornByCollisionPoint",
            "useSyncValue": true
          },
          "attackInfo": {
            "attackTag": "",
            "attenuationTag": "WaterLineAtk",
            "attenuationGroup": "Skirmisher_Fat_SprayGun_Ice",
            "attackProperty": {
              "actorGrassSubHurtDelta": 0.4000000059604645,
              "actorWindSubHurtDelta": 0.0,
              "elementType": "Water",
              "elementDurability": 25.0,
              "strikeType": "Blunt",
              "enBreak": 10.0,
              "attackType": "Range",
              "GLKMCMDJBIK": 0.0
            },
            "hitPattern": {
              "onHitEffectName": "default",
              "hitImpulseY": "",
              "hitImpulseType": "LV2"
            },
            "canBeModifiedBy": "OriginOwner"
          }
        }
      ]
    }
  },
  {
    "Default": {
      "$type": "ConfigAbility",
      "abilityName": "Necalevia_ReleaseAOERangeAtk",
      "abilityMixins": [
        {
          "$type": "JJIHJPCPPGO",
          "abilityStates": ["ElementPetrifaction"],
          "modifierName": "Necalevia_ReleaseAOERangeAtk_DeleteWaterAOE"
        },
        {
          "$type": "AttachToStateIDMixin",
          "stateIDs": [
            "RangeAOEAttack_BS",
            "RangeAOEAttack_Loop",
            "RangeAOEAttack_AS"
          ],
          "modifierName": "Necalevia_ReleaseAOERangeAtk_State_EndWaterAOE",
          "DGFCLAIDIFI": ""
        },
        {
          "$type": "AttachToNormalizedTimeMixin",
          "stateID": "RangeAOEAttack_BS",
          "modifierName": "Necalevia_ReleaseAOERangeAtk_FireEffect",
          "normalizeStart": 0.7319999933242798,
          "DGFCLAIDIFI": ""
        }
      ],
      "modifiers": {
        "Necalevia_ReleaseAOERangeAtk_FireEffect": {
          "modifierName": "",
          "elementDurability": 100.0,
          "onAdded": [
            {
              "$type": "ApplyModifier",
              "modifierName": "Necalevia_ReleaseAOERangeAtk_FireEffectDuration"
            }
          ]
        },
        "Necalevia_ReleaseAOERangeAtk_FireEffectDuration": {
          "modifierName": "",
          "duration": 9.0,
          "elementDurability": 100.0,
          "onAdded": [
            {
              "$type": "AttachEffect",
              "rotationDampTime": "Eff_Monster_Necalevia_Big_RangeAOEAttack_Fire",
              "PPPDJGDDOGD": 1.0,
              "AJDILHJFNKE": -1.0
            }
          ]
        },
        "Necalevia_ReleaseAOERangeAtk_DeleteWaterAOE": {
          "modifierName": "",
          "elementDurability": 100.0,
          "onAdded": [
            {
              "$type": "SetAnimatorTrigger",
              "triggerID": "EndAOEAtk"
            },
            {
              "$type": "SetGlobalValue",
              "value": 1.0,
              "key": "_AOE_WATERBULLET_KILLSELF",
              "maxValue": 0.0,
              "minValue": 0.0
            },
            {
              "$type": "RemoveModifier",
              "modifierName": "Necalevia_ReleaseAOERangeAtk_FireEffectDuration"
            }
          ]
        },
        "Necalevia_ReleaseAOERangeAtk_State_EndWaterAOE": {
          "modifierName": "",
          "elementDurability": 100.0,
          "onRemoved": [
            {
              "$type": "SetGlobalValue",
              "value": 1.0,
              "key": "_AOE_WATERBULLET_KILLSELF",
              "maxValue": 0.0,
              "minValue": 0.0
            },
            {
              "$type": "RemoveModifier",
              "modifierName": "Necalevia_ReleaseAOERangeAtk_FireEffectDuration"
            }
          ]
        }
      },
      "onAbilityStart": [
        {
          "$type": "SetGlobalValue",
          "value": 0.0,
          "key": "_AOE_WATERBULLET_KILLSELF",
          "maxValue": 0.0,
          "minValue": 0.0
        },
        {
          "$type": "TriggerBullet",
          "bulletID": 42005102,
          "lifeByOwnerV2": true
        }
      ]
    }
  },
  {
    "Default": {
      "$type": "ConfigAbility",
      "abilityName": "Monster_Necalevia_OutOfBattle",
      "abilityMixins": [
        {
          "$type": "LEOGLBFIELL",
          "poseIDs": [901],
          "modifierName": "Monster_Necalevia_OutOfBattle"
        }
      ],
      "modifiers": {
        "Monster_Necalevia_OutOfBattle": {
          "modifierName": "",
          "elementDurability": 100.0,
          "onAdded": [
            {
              "$type": "SetAnimatorTrigger",
              "triggerID": "OutOfBattle"
            },
            {
              "$type": "ApplyModifier",
              "modifierName": "OutOfBattle_Delay"
            }
          ]
        },
        "OutOfBattle_Delay": {
          "modifierName": "",
          "duration": 4.0,
          "elementDurability": 100.0,
          "onRemoved": [
            {
              "$type": "SetGlobalValue",
              "value": 0.0,
              "key": "_MESH_STATE",
              "maxValue": 0.0,
              "minValue": 0.0
            },
            {
              "$type": "SetGlobalValue",
              "value": 0.0,
              "key": "_MESH_SMALL_STATE",
              "maxValue": 0.0,
              "minValue": 0.0
            },
            {
              "$type": "SetGlobalValue",
              "value": 0.0,
              "key": "_IN_ANGRY",
              "maxValue": 0.0,
              "minValue": 0.0
            },
            {
              "$type": "IDNGFEEBPAM",
              "predicates": [
                {
                  "$type": "ByTargetGlobalValue",
                  "key": "_WARNING_POSE",
                  "value": 1.0
                }
              ],
              "boolID": "Warning",
              "value": true
            }
          ]
        }
      }
    }
  },
  {
    "Default": {
      "$type": "ConfigAbility",
      "abilityName": "Monster_Necalevia_PushAtk_SP",
      "onAbilityStart": [
        {
          "$type": "SetGlobalPos",
          "key": "_SP_PUSHATK_POS",
          "born": {
            "$type": "ConfigBornBySelf",
            "useRotation": true
          }
        },
        {
          "$type": "FireEffect",
          "rotationDampTime": "Eff_Monster_Necalevia_Big_MeleeAttackExplode_Earth",
          "born": {
            "$type": "ConfigBornByGlobalValue",
            "offset": {
              "x": 0.0,
              "y": 0.0,
              "z": 4.0
            },
            "onGround": true,
            "positionKey": "_SP_PUSHATK_POS",
            "directionKey": ""
          },
          "PPPDJGDDOGD": 1.0,
          "AJDILHJFNKE": -1.0
        },
        {
          "$type": "TriggerAttackEvent",
          "doAfterDie": false,
          "attackEvent": {
            "attackPattern": {
              "$type": "ConfigAttackCircle",
              "triggerType": "TriggerNoRepeat",
              "born": {
                "$type": "ConfigBornByGlobalValue",
                "offset": {
                  "x": 0.0,
                  "y": -0.5,
                  "z": 4.0
                },
                "onGround": true,
                "positionKey": "_SP_PUSHATK_POS",
                "directionKey": ""
              },
              "height": 3.0,
              "radius": 2.5
            },
            "attackInfo": {
              "attackTag": "",
              "attenuationTag": "PushAtk",
              "attenuationGroup": "Oceanid_Crab_WaterStream",
              "attackProperty": {
                "actorGrassSubHurtDelta": 1.0,
                "actorWindSubHurtDelta": 0.0,
                "elementType": "Water",
                "elementDurability": 25.0,
                "strikeType": "Blunt",
                "enBreak": 101.0,
                "attackType": "Melee",
                "GLKMCMDJBIK": 0.0
              },
              "hitPattern": {
                "onHitEffectName": "default",
                "hitImpulseY": "",
                "hitImpulseType": "LV5",
                "canBeDefenceHalt": true
              }
            }
          },
          "targetType": "Enemy"
        },
        {
          "$type": "FireEffect",
          "rotationDampTime": "Eff_Monster_Necalevia_Big_MeleeAttackExplode_Earth",
          "born": {
            "$type": "ConfigBornByGlobalValue",
            "offset": {
              "x": 0.0,
              "y": 0.0,
              "z": -4.0
            },
            "onGround": true,
            "positionKey": "_SP_PUSHATK_POS",
            "directionKey": ""
          },
          "PPPDJGDDOGD": 1.0,
          "AJDILHJFNKE": -1.0
        },
        {
          "$type": "TriggerAttackEvent",
          "doAfterDie": false,
          "attackEvent": {
            "attackPattern": {
              "$type": "ConfigAttackCircle",
              "triggerType": "TriggerNoRepeat",
              "born": {
                "$type": "ConfigBornByGlobalValue",
                "offset": {
                  "x": 0.0,
                  "y": -0.5,
                  "z": -4.0
                },
                "onGround": true,
                "positionKey": "_SP_PUSHATK_POS",
                "directionKey": ""
              },
              "height": 3.0,
              "radius": 2.5
            },
            "attackInfo": {
              "attackTag": "",
              "attenuationTag": "PushAtk",
              "attenuationGroup": "Oceanid_Crab_WaterStream",
              "attackProperty": {
                "actorGrassSubHurtDelta": 1.0,
                "actorWindSubHurtDelta": 0.0,
                "elementType": "Water",
                "elementDurability": 25.0,
                "strikeType": "Blunt",
                "enBreak": 101.0,
                "attackType": "Melee",
                "GLKMCMDJBIK": 0.0
              },
              "hitPattern": {
                "onHitEffectName": "default",
                "hitImpulseY": "",
                "hitImpulseType": "LV5",
                "canBeDefenceHalt": true
              }
            }
          },
          "targetType": "Enemy"
        },
        {
          "$type": "FireEffect",
          "rotationDampTime": "Eff_Monster_Necalevia_Big_MeleeAttackExplode_Earth",
          "born": {
            "$type": "ConfigBornByGlobalValue",
            "offset": {
              "x": 4.0,
              "y": 0.0,
              "z": 0.0
            },
            "onGround": true,
            "positionKey": "_SP_PUSHATK_POS",
            "directionKey": ""
          },
          "PPPDJGDDOGD": 1.0,
          "AJDILHJFNKE": -1.0
        },
        {
          "$type": "TriggerAttackEvent",
          "doAfterDie": false,
          "attackEvent": {
            "attackPattern": {
              "$type": "ConfigAttackCircle",
              "triggerType": "TriggerNoRepeat",
              "born": {
                "$type": "ConfigBornByGlobalValue",
                "offset": {
                  "x": 4.0,
                  "y": -0.5,
                  "z": 0.0
                },
                "onGround": true,
                "positionKey": "_SP_PUSHATK_POS",
                "directionKey": ""
              },
              "height": 3.0,
              "radius": 2.5
            },
            "attackInfo": {
              "attackTag": "",
              "attenuationTag": "PushAtk",
              "attenuationGroup": "Oceanid_Crab_WaterStream",
              "attackProperty": {
                "actorGrassSubHurtDelta": 1.0,
                "actorWindSubHurtDelta": 0.0,
                "elementType": "Water",
                "elementDurability": 25.0,
                "strikeType": "Blunt",
                "enBreak": 101.0,
                "attackType": "Melee",
                "GLKMCMDJBIK": 0.0
              },
              "hitPattern": {
                "onHitEffectName": "default",
                "hitImpulseY": "",
                "hitImpulseType": "LV5",
                "canBeDefenceHalt": true
              }
            }
          },
          "targetType": "Enemy"
        },
        {
          "$type": "FireEffect",
          "rotationDampTime": "Eff_Monster_Necalevia_Big_MeleeAttackExplode_Earth",
          "born": {
            "$type": "ConfigBornByGlobalValue",
            "offset": {
              "x": -4.0,
              "y": 0.0,
              "z": 0.0
            },
            "onGround": true,
            "positionKey": "_SP_PUSHATK_POS",
            "directionKey": ""
          },
          "PPPDJGDDOGD": 1.0,
          "AJDILHJFNKE": -1.0
        },
        {
          "$type": "TriggerAttackEvent",
          "doAfterDie": false,
          "attackEvent": {
            "attackPattern": {
              "$type": "ConfigAttackCircle",
              "triggerType": "TriggerNoRepeat",
              "born": {
                "$type": "ConfigBornByGlobalValue",
                "offset": {
                  "x": -4.0,
                  "y": -0.5,
                  "z": 0.0
                },
                "onGround": true,
                "positionKey": "_SP_PUSHATK_POS",
                "directionKey": ""
              },
              "height": 3.0,
              "radius": 2.5
            },
            "attackInfo": {
              "attackTag": "",
              "attenuationTag": "PushAtk",
              "attenuationGroup": "Oceanid_Crab_WaterStream",
              "attackProperty": {
                "actorGrassSubHurtDelta": 1.0,
                "actorWindSubHurtDelta": 0.0,
                "elementType": "Water",
                "elementDurability": 25.0,
                "strikeType": "Blunt",
                "enBreak": 101.0,
                "attackType": "Melee",
                "GLKMCMDJBIK": 0.0
              },
              "hitPattern": {
                "onHitEffectName": "default",
                "hitImpulseY": "",
                "hitImpulseType": "LV5",
                "canBeDefenceHalt": true
              }
            }
          },
          "targetType": "Enemy"
        }
      ]
    }
  }
]
