[
  {
    "Default": {
      "$type": "ConfigAbility",
      "abilityName": "Monster_Tribalwarrior_Female_Standard_Launcher_HookWalker_Steer",
      "abilityMixins": [
        {
          "$type": "IILHMBGONGM",
          "steerStateIDs": ["Turn"],
          "endNormalizedTime": 100.0,
          "angularSpeed": 125.0,
          "attackTrigger": "",
          "DGFCLAIDIFI": ""
        },
        {
          "$type": "IILHMBGONGM",
          "steerStateIDs": ["Alert"],
          "endNormalizedTime": 0.25,
          "angularSpeed": 450.0,
          "attackTrigger": "",
          "DGFCLAIDIFI": ""
        },
        {
          "$type": "IILHMBGONGM",
          "steerStateIDs": ["MeleeAttack01"],
          "startNormalizedTime": 0.07000000029802322,
          "endNormalizedTime": 0.2199999988079071,
          "angularSpeed": 280.0,
          "attackTrigger": "",
          "DGFCLAIDIFI": ""
        },
        {
          "$type": "IILHMBGONGM",
          "steerStateIDs": ["MeleeAttack02"],
          "startNormalizedTime": 0.05000000074505806,
          "endNormalizedTime": 0.23000000417232513,
          "angularSpeed": 280.0,
          "attackTrigger": "",
          "DGFCLAIDIFI": ""
        },
        {
          "$type": "IILHMBGONGM",
          "steerStateIDs": ["RangedAttack_Reload"],
          "startNormalizedTime": 0.800000011920929,
          "endNormalizedTime": 0.8999999761581421,
          "angularSpeed": 180.0,
          "attackTrigger": "",
          "DGFCLAIDIFI": ""
        },
        {
          "$type": "IILHMBGONGM",
          "steerStateIDs": ["TribalUlt"],
          "startNormalizedTime": 0.3400000035762787,
          "endNormalizedTime": 0.41999998688697815,
          "angularSpeed": 180.0,
          "attackTrigger": "",
          "DGFCLAIDIFI": ""
        },
        {
          "$type": "IILHMBGONGM",
          "steerStateIDs": ["RangedAttack02_BS"],
          "startNormalizedTime": 0.47999998927116394,
          "endNormalizedTime": 0.550000011920929,
          "angularSpeed": 1200.0,
          "attackTrigger": "",
          "DGFCLAIDIFI": ""
        },
        {
          "$type": "MFGGKNJLABP",
          "PNAPPKMKAJP": [
            "InAir_Idle",
            "InAirAtk_BS",
            "InAirAtk_Loop",
            "InAirAtk_AS"
          ],
          "angularSpeed": 540.0,
          "attackTrigger": ""
        },
        {
          "$type": "IILHMBGONGM",
          "steerStateIDs": ["Aware"],
          "endNormalizedTime": 0.8999999761581421,
          "angularSpeed": 90.0,
          "attackTrigger": "",
          "DGFCLAIDIFI": ""
        },
        {
          "$type": "IILHMBGONGM",
          "steerStateIDs": ["TauntAware01"],
          "endNormalizedTime": 0.41999998688697815,
          "angularSpeed": 90.0,
          "attackTrigger": "",
          "DGFCLAIDIFI": ""
        },
        {
          "$type": "IILHMBGONGM",
          "steerStateIDs": ["TauntAware01"],
          "startNormalizedTime": 0.6000000238418579,
          "endNormalizedTime": 0.949999988079071,
          "angularSpeed": 90.0,
          "attackTrigger": "",
          "DGFCLAIDIFI": ""
        },
        {
          "$type": "IILHMBGONGM",
          "steerStateIDs": ["TauntAware02"],
          "endNormalizedTime": 0.949999988079071,
          "angularSpeed": 90.0,
          "attackTrigger": "",
          "DGFCLAIDIFI": ""
        },
        {
          "$type": "IILHMBGONGM",
          "steerStateIDs": ["TauntAware_BS"],
          "endNormalizedTime": 0.800000011920929,
          "angularSpeed": 90.0,
          "attackTrigger": "",
          "DGFCLAIDIFI": ""
        },
        {
          "$type": "IILHMBGONGM",
          "steerStateIDs": ["TauntAware_AS"],
          "endNormalizedTime": 0.8999999761581421,
          "angularSpeed": 90.0,
          "attackTrigger": "",
          "DGFCLAIDIFI": ""
        },
        {
          "$type": "IILHMBGONGM",
          "steerStateIDs": ["TauntAware03"],
          "endNormalizedTime": 0.12999999523162842,
          "angularSpeed": 120.0,
          "attackTrigger": "",
          "DGFCLAIDIFI": ""
        },
        {
          "$type": "IILHMBGONGM",
          "steerStateIDs": ["TauntAware03"],
          "startNormalizedTime": 0.5,
          "endNormalizedTime": 0.8999999761581421,
          "angularSpeed": 90.0,
          "attackTrigger": "",
          "DGFCLAIDIFI": ""
        }
      ]
    }
  },
  {
    "Default": {
      "$type": "ConfigAbility",
      "abilityName": "Monster_Tribalwarrior_Female_Standard_Launcher_HookWalker_TribalUltLine",
      "modifiers": {
        "UNIQUE_Monster_Tribalwarrior_Female_Standard_Launcher_HookWalker_TribalUltLine": {
          "modifierName": "",
          "forceTriggerWhenChangeAuthority": true,
          "duration": 3.0,
          "elementDurability": 100.0,
          "onAdded": [
            {
              "$type": "AttachEffect",
              "rotationDampTime": "Eff_Monster_Tribalwarrior_Female_Standard_Launcher_Hookwalker_TribalUlt_Chain",
              "born": {
                "$type": "ConfigBornByAttachPoint",
                "useRotation": true,
                "attachPointName": "Bone_MonEquip02_M"
              },
              "PPPDJGDDOGD": 1.0,
              "AJDILHJFNKE": -1.0,
              "setSelfAsEffectPluginTarget": true
            }
          ]
        }
      },
      "onAbilityStart": [
        {
          "$type": "ApplyModifier",
          "modifierName": "UNIQUE_Monster_Tribalwarrior_Female_Standard_Launcher_HookWalker_TribalUltLine"
        }
      ]
    }
  },
  {
    "Default": {
      "$type": "ConfigAbility",
      "abilityName": "Monster_Tribalwarrior_Female_Standard_Launcher_HookWalker_TribalUlt",
      "onAbilityStart": [
        {
          "$type": "TriggerBullet",
          "bulletID": 42551013
        },
        {
          "$type": "TriggerBullet",
          "bulletID": 42551004,
          "born": {
            "$type": "ConfigBornByAttachPoint",
            "useRotation": true,
            "attachPointName": "BulletSource"
          }
        }
      ]
    }
  },
  {
    "Default": {
      "$type": "ConfigAbility",
      "abilityName": "Monster_Tribalwarrior_Female_Standard_Launcher_HookWalker_LeftLine",
      "abilityMixins": [
        {
          "$type": "AttachToAnimatorStateIDMixin",
          "stateIDs": ["RangedAttack_SideStepLeft"],
          "modifierName": "Monster_Tribalwarrior_Female_Standard_Launcher_HookWalker_MeleeChargeLineInit",
          "DGFCLAIDIFI": ""
        }
      ],
      "modifiers": {
        "Monster_Tribalwarrior_Female_Standard_Launcher_HookWalker_MeleeChargeLineInit": {
          "modifierName": "",
          "elementDurability": 100.0,
          "onAdded": [
            {
              "$type": "SetGlobalPos",
              "key": "_MONSTER_Tribalwarrior_Move_EndPos",
              "born": {
                "$type": "ConfigBornBySelf",
                "offset": {
                  "x": -5.0
                },
                "onGround": true,
                "useRotation": true
              }
            }
          ]
        },
        "UNIQUE_Monster_Tribalwarrior_Female_Standard_Launcher_HookWalker_LeftLine": {
          "modifierName": "",
          "forceTriggerWhenChangeAuthority": true,
          "duration": 0.8500000238418579,
          "elementDurability": 100.0,
          "modifierMixins": [
            {
              "$type": "FKIBGDFKICL",
              "rotationDampTime": "Eff_Monster_Tribalwarrior_Female_Standard_Launcher_Hookwalker_LeftChain",
              "positionKey": "_MONSTER_Tribalwarrior_Move_EndPos",
              "onHookReached": [
                {
                  "$type": "AttachEffect",
                  "muteRemoteAction": true,
                  "rotationDampTime": "Eff_Monster_Tribalwarrior_Female_Standard_Launcher_Hookwalker_HookPoint",
                  "born": {
                    "$type": "ConfigBornByGlobalValue",
                    "positionKey": "_MONSTER_Tribalwarrior_Move_EndPos",
                    "directionKey": ""
                  },
                  "PPPDJGDDOGD": 1.0,
                  "AJDILHJFNKE": -1.0
                }
              ],
              "CFLNFDJCNAJ": true
            }
          ]
        }
      },
      "onAbilityStart": [
        {
          "$type": "ApplyModifier",
          "modifierName": "UNIQUE_Monster_Tribalwarrior_Female_Standard_Launcher_HookWalker_LeftLine"
        }
      ]
    }
  },
  {
    "Default": {
      "$type": "ConfigAbility",
      "abilityName": "Monster_Tribalwarrior_Female_Standard_Launcher_HookWalker_RightLine",
      "abilityMixins": [
        {
          "$type": "AttachToAnimatorStateIDMixin",
          "stateIDs": ["RangedAttack_SideStepRight"],
          "modifierName": "Monster_Tribalwarrior_Female_Standard_Launcher_HookWalker_MeleeChargeLineInit",
          "DGFCLAIDIFI": ""
        }
      ],
      "modifiers": {
        "Monster_Tribalwarrior_Female_Standard_Launcher_HookWalker_MeleeChargeLineInit": {
          "modifierName": "",
          "elementDurability": 100.0,
          "onAdded": [
            {
              "$type": "SetGlobalPos",
              "key": "_MONSTER_Tribalwarrior_Move_EndPos",
              "born": {
                "$type": "ConfigBornBySelf",
                "offset": {
                  "x": 5.0
                },
                "onGround": true,
                "useRotation": true
              }
            }
          ]
        },
        "UNIQUE_Monster_Tribalwarrior_Female_Standard_Launcher_HookWalker_RightLine": {
          "modifierName": "",
          "forceTriggerWhenChangeAuthority": true,
          "duration": 0.8500000238418579,
          "elementDurability": 100.0,
          "modifierMixins": [
            {
              "$type": "FKIBGDFKICL",
              "rotationDampTime": "Eff_Monster_Tribalwarrior_Female_Standard_Launcher_Hookwalker_RightChain",
              "positionKey": "_MONSTER_Tribalwarrior_Move_EndPos",
              "onHookReached": [
                {
                  "$type": "AttachEffect",
                  "muteRemoteAction": true,
                  "rotationDampTime": "Eff_Monster_Tribalwarrior_Female_Standard_Launcher_Hookwalker_HookPoint",
                  "born": {
                    "$type": "ConfigBornByGlobalValue",
                    "positionKey": "_MONSTER_Tribalwarrior_Move_EndPos",
                    "directionKey": ""
                  },
                  "PPPDJGDDOGD": 1.0,
                  "AJDILHJFNKE": -1.0
                }
              ],
              "CFLNFDJCNAJ": true
            }
          ]
        }
      },
      "onAbilityStart": [
        {
          "$type": "ApplyModifier",
          "modifierName": "UNIQUE_Monster_Tribalwarrior_Female_Standard_Launcher_HookWalker_RightLine"
        }
      ]
    }
  },
  {
    "Default": {
      "$type": "ConfigAbility",
      "abilityName": "Monster_Tribalwarrior_Female_Standard_Launcher_HookWalker_RangedAttack01",
      "onAbilityStart": [
        {
          "$type": "TriggerBullet",
          "bulletID": 42551010,
          "born": {
            "$type": "ConfigBornByAttachPoint",
            "useRotation": true,
            "attachPointName": "BulletSource"
          }
        }
      ]
    }
  },
  {
    "Default": {
      "$type": "ConfigAbility",
      "abilityName": "Monster_Tribalwarrior_Female_Standard_Launcher_HookWalker_RangedAttack02",
      "onAbilityStart": [
        {
          "$type": "TriggerBullet",
          "bulletID": 42551011,
          "born": {
            "$type": "ConfigBornByAttachPoint",
            "direction": {
              "$type": "ConfigDirectionByAttackTarget",
              "maxAngle": 30.0,
              "startPoint": ""
            },
            "useRotation": true,
            "attachPointName": "BulletSource"
          }
        }
      ]
    }
  },
  {
    "Default": {
      "$type": "ConfigAbility",
      "abilityName": "Tribalwarrior_Female_Standard_Launcher_HookWalker_ShootAttack01_Bullet",
      "modifiers": {
        "BulletEffect": {
          "modifierName": "",
          "elementDurability": 100.0,
          "onAdded": [
            {
              "$type": "AttachEffect",
              "rotationDampTime": "Eff_Monster_Tribalwarrior_Female_Standard_Launcher_Hookwalker_RangedAttack01_Bullet",
              "PPPDJGDDOGD": 1.0,
              "AJDILHJFNKE": -1.0
            }
          ]
        },
        "TrailEffect": {
          "modifierName": "",
          "elementDurability": 100.0
        }
      },
      "onAdded": [
        {
          "$type": "AttachModifier",
          "modifierName": "BulletEffect"
        },
        {
          "$type": "AttachModifier",
          "modifierName": "TrailEffect"
        }
      ],
      "onAbilityStart": [
        {
          "$type": "FireSubEmitterEffect",
          "rotationDampTime": "Eff_Monster_Tribalwarrior_Female_Standard_Launcher_Hookwalker_RangedAttack01_Hit",
          "born": {
            "$type": "ConfigBornByCollisionPoint"
          }
        },
        {
          "$type": "FireEffect",
          "rotationDampTime": "Eff_Monster_Tribalwarrior_Female_Standard_Launcher_Hookwalker_RangedAttack01_Hit_Ground",
          "born": {
            "$type": "ConfigBornByCollisionPoint"
          },
          "PPPDJGDDOGD": 1.0,
          "AJDILHJFNKE": -1.0
        },
        {
          "$type": "TriggerAttackEvent",
          "attackEvent": {
            "attackPattern": {
              "$type": "ConfigAttackSphere",
              "triggerType": "TriggerNoRepeat",
              "born": {
                "$type": "ConfigBornBySelf",
                "offset": {
                  "x": 0.0,
                  "y": 0.0,
                  "z": 0.0
                },
                "useRotation": true
              },
              "radius": 1.0
            },
            "attackInfo": {
              "attackTag": "",
              "attenuationTag": "",
              "attenuationGroup": "default",
              "attackProperty": {
                "actorGrassSubHurtDelta": 0.800000011920929,
                "actorWindSubHurtDelta": 0.0,
                "elementType": "Grass",
                "elementDurability": 25.0,
                "strikeType": "Default",
                "enBreak": 200.0,
                "attackType": "Range",
                "GLKMCMDJBIK": 0.0
              },
              "hitPattern": {
                "onHitEffectName": "",
                "hitImpulseY": "",
                "hitImpulseType": "LV4",
                "hitHaltTimeScale": 0.05000000074505806
              }
            }
          },
          "targetType": "Enemy"
        },
        {
          "$type": "KillSelf",
          "configIdArray": [42551010]
        }
      ]
    }
  },
  {
    "Default": {
      "$type": "ConfigAbility",
      "abilityName": "Tribalwarrior_Female_Standard_Launcher_HookWalker_ShootAttack02_Bullet",
      "onAbilityStart": [
        {
          "$type": "FireSubEmitterEffect",
          "rotationDampTime": "Eff_Monster_Tribalwarrior_Female_Standard_Launcher_Hookwalker_RangedAttack02_Hit",
          "born": {
            "$type": "ConfigBornByCollisionPoint"
          }
        },
        {
          "$type": "FireEffect",
          "rotationDampTime": "Eff_Monster_Tribalwarrior_Female_Standard_Launcher_Hookwalker_RangedAttack02_Hit_Ground",
          "born": {
            "$type": "ConfigBornByCollisionPoint"
          },
          "PPPDJGDDOGD": 1.0,
          "AJDILHJFNKE": -1.0
        },
        {
          "$type": "TriggerAttackEvent",
          "attackEvent": {
            "attackPattern": {
              "$type": "ConfigAttackSphere",
              "triggerType": "TriggerNoRepeat",
              "born": {
                "$type": "ConfigBornByCollisionPoint"
              },
              "radius": 0.699999988079071
            },
            "attackInfo": {
              "attackTag": "",
              "attenuationTag": "Tribalwarrior_Female_Standard_Launcher_HookWalker_Shoot",
              "attenuationGroup": "Tribalwarrior_Female_Standard_Launcher_HookWalker_Shoot",
              "attackProperty": {
                "actorGrassSubHurtDelta": 0.30000001192092896,
                "actorWindSubHurtDelta": 0.0,
                "elementType": "Grass",
                "elementDurability": 25.0,
                "strikeType": "Default",
                "enBreak": 50.0,
                "attackType": "Range",
                "GLKMCMDJBIK": 0.0
              },
              "hitPattern": {
                "onHitEffectName": "",
                "hitImpulseY": "",
                "hitImpulseType": "LV3",
                "hitHaltTimeScale": 0.05000000074505806
              }
            }
          },
          "targetType": "Enemy"
        }
      ]
    }
  },
  {
    "Default": {
      "$type": "ConfigAbility",
      "abilityName": "Monster_Tribalwarrior_HookWalker_Personality_Female",
      "abilityMixins": [
        {
          "$type": "AttachToAnimatorStateIDMixin",
          "stateIDs": ["Personality01"],
          "modifierName": "Monster_Tribalwarrior_HookWalker_Personality01",
          "DGFCLAIDIFI": ""
        },
        {
          "$type": "AttachToNormalizedTimeMixin",
          "stateID": "Personality01",
          "modifierName": "Monster_Tribalwarrior_HookWalker_Personality01",
          "normalizeStart": 0.23499999940395355,
          "normalizeEnd": 0.6899999976158142,
          "DGFCLAIDIFI": ""
        }
      ],
      "modifiers": {
        "Monster_Tribalwarrior_HookWalker_Personality01": {
          "modifierName": "",
          "elementDurability": 100.0,
          "onAdded": [
            {
              "$type": "AttachEffect",
              "rotationDampTime": "Eff_Monster_Tribalwarrior_Male_Standard_Chainsword_Hookwalker_Personality_Chain",
              "born": {
                "$type": "ConfigBornByAttachPoint",
                "useRotation": true,
                "attachPointName": "HandR"
              },
              "PPPDJGDDOGD": 1.0,
              "AJDILHJFNKE": -1.0,
              "setSelfAsEffectPluginTarget": true
            }
          ]
        }
      }
    }
  },
  {
    "Default": {
      "$type": "ConfigAbility",
      "abilityName": "Monster_Tribalwarrior_Female_Standard_Launcher_HookWalker_JumpLandLine",
      "abilityMixins": [
        {
          "$type": "AttachToAnimatorStateIDMixin",
          "stateIDs": ["SquatToFight_BS"],
          "modifierName": "Tribalwarrior_Female_Standard_Launcher_HookWalker_JumpLandLineInit",
          "DGFCLAIDIFI": ""
        },
        {
          "$type": "AttachToAnimatorStateIDMixin",
          "stateIDs": ["SquatToFight_Loop"],
          "modifierName": "Tribalwarrior_Female_Standard_Launcher_HookWalker_JumpLandLineProc",
          "DGFCLAIDIFI": ""
        },
        {
          "$type": "AttachToNormalizedTimeMixin",
          "stateID": "SquatToFight_AS",
          "modifierName": "Tribalwarrior_Female_Standard_Launcher_HookWalker_JumpLandLineRemove",
          "normalizeStart": 0.30000001192092896,
          "DGFCLAIDIFI": ""
        }
      ],
      "modifiers": {
        "Tribalwarrior_Female_Standard_Launcher_HookWalker_SquatSysInit": {
          "modifierName": "",
          "elementDurability": 100.0,
          "modifierMixins": [
            {
              "$type": "LEOGLBFIELL",
              "poseIDs": [9003],
              "modifierName": "Tribalwarrior_Female_Standard_Launcher_HookWalker_SquatState"
            },
            {
              "$type": "LEOGLBFIELL",
              "poseIDs": [1001],
              "modifierName": "Tribalwarrior_Female_Standard_Launcher_HookWalker_NotSquatState"
            }
          ]
        },
        "Tribalwarrior_Female_Standard_Launcher_HookWalker_JumpLandLineInit": {
          "modifierName": "",
          "elementDurability": 100.0,
          "onAdded": [
            {
              "$type": "SetGlobalPos",
              "key": "_Tribalwarrior_Female_Standard_Launcher_HookWalker_JumpStartPos",
              "born": {
                "$type": "ConfigBornBySelf",
                "useRotation": true
              },
              "setTarget": false
            },
            {
              "$type": "SetGlobalPos",
              "target": "SelfAttackTarget",
              "key": "_Tribalwarrior_Female_Standard_Launcher_HookWalker_JumpEndPos",
              "born": {
                "$type": "ConfigBornBySelf",
                "offset": {
                  "z": 1.0
                },
                "onGround": true,
                "FMFDCHCDFCK": 50.0,
                "useRotation": true
              },
              "setTarget": false
            },
            {
              "$type": "PAGFCBCKEBH",
              "toPos": {
                "$type": "ConfigBornBySelf",
                "offset": {
                  "y": 1.0,
                  "z": 0.5
                },
                "useRotation": true
              },
              "NKPCHMCNNOK": 0.05000000074505806,
              "maxRange": 5.0,
              "animatorStateIDs": ["SquatToFight_BS"],
              "overrideMoveCollider": "",
              "isInAir": true
            }
          ]
        },
        "UNIQUE_Tribalwarrior_Female_Standard_Launcher_HookWalker_JumpLandLine": {
          "modifierName": "",
          "forceTriggerWhenChangeAuthority": true,
          "duration": 3.0,
          "elementDurability": 100.0,
          "modifierMixins": [
            {
              "$type": "FKIBGDFKICL",
              "rotationDampTime": "Eff_Monster_Tribalwarrior_Male_Standard_Chainsword_Hookwalker_SquatToFight_Chain",
              "positionKey": "_Tribalwarrior_Female_Standard_Launcher_HookWalker_JumpStartPos",
              "onHookReached": [
                {
                  "$type": "AttachEffect",
                  "muteRemoteAction": true,
                  "rotationDampTime": "Eff_Monster_Tribalwarrior_Female_Standard_Launcher_Hookwalker_HookPoint",
                  "born": {
                    "$type": "ConfigBornByGlobalValue",
                    "positionKey": "_Tribalwarrior_Female_Standard_Launcher_HookWalker_JumpStartPos",
                    "directionKey": ""
                  },
                  "PPPDJGDDOGD": 1.0,
                  "AJDILHJFNKE": -1.0
                }
              ],
              "CFLNFDJCNAJ": true
            }
          ]
        },
        "Tribalwarrior_Female_Standard_Launcher_HookWalker_JumpLandLineProc": {
          "modifierName": "",
          "elementDurability": 100.0
        },
        "Tribalwarrior_Female_Standard_Launcher_HookWalker_SquatState": {
          "modifierName": "",
          "elementDurability": 100.0,
          "onAdded": [
            {
              "$type": "SetGlobalValue",
              "value": 1.0,
              "key": "_MONSTER_Tribalwarrior_SquatState",
              "maxValue": 0.0,
              "minValue": 0.0
            },
            {
              "$type": "SetGlobalValue",
              "value": 0.0,
              "key": "_Tribalwarrior_Female_Standard_Launcher_HookWalker_NotSquatState",
              "maxValue": 0.0,
              "minValue": 0.0
            }
          ]
        },
        "Tribalwarrior_Female_Standard_Launcher_HookWalker_NotSquatState": {
          "modifierName": "",
          "elementDurability": 100.0,
          "onAdded": [
            {
              "$type": "SetGlobalValue",
              "value": 0.0,
              "key": "_MONSTER_Tribalwarrior_SquatState",
              "maxValue": 0.0,
              "minValue": 0.0
            },
            {
              "$type": "SetGlobalValue",
              "value": 1.0,
              "key": "_Tribalwarrior_Female_Standard_Launcher_HookWalker_NotSquatState",
              "maxValue": 0.0,
              "minValue": 0.0
            }
          ]
        },
        "Tribalwarrior_Female_Standard_Launcher_HookWalker_CancelSquatState": {
          "modifierName": "",
          "elementDurability": 100.0,
          "onAdded": [
            {
              "$type": "SetGlobalValue",
              "value": 0.0,
              "key": "_MONSTER_Tribalwarrior_SquatState",
              "maxValue": 0.0,
              "minValue": 0.0
            },
            {
              "$type": "SetGlobalValue",
              "value": 1.0,
              "key": "_Tribalwarrior_Female_Standard_Launcher_HookWalker_NotSquatState",
              "maxValue": 0.0,
              "minValue": 0.0
            },
            {
              "$type": "GFFKENEJFFB",
              "intID": "FreePoseMark",
              "value": 1001
            }
          ]
        },
        "Tribalwarrior_Female_Standard_Launcher_HookWalker_JumpLandLineRemove": {
          "modifierName": "",
          "elementDurability": 100.0,
          "onAdded": [
            {
              "$type": "RemoveUniqueModifier",
              "modifierName": "UNIQUE_Tribalwarrior_Female_Standard_Launcher_HookWalker_JumpLandLine"
            },
            {
              "$type": "ApplyModifier",
              "modifierName": "Tribalwarrior_Female_Standard_Launcher_HookWalker_Hookwalker_SquatToFight_ReclaimeChain"
            }
          ]
        },
        "Tribalwarrior_Female_Standard_Launcher_HookWalker_Hookwalker_SquatToFight_ReclaimeChain": {
          "modifierName": "",
          "duration": 3.0,
          "elementDurability": 100.0,
          "modifierMixins": [
            {
              "$type": "FKIBGDFKICL",
              "rotationDampTime": "Eff_Monster_Tribalwarrior_Male_Standard_Chainsword_Hookwalker_SquatToFight_ReclaimeChain",
              "positionKey": "_Tribalwarrior_Female_Standard_Launcher_HookWalker_JumpStartPos",
              "CFLNFDJCNAJ": true
            }
          ]
        }
      },
      "onAdded": [
        {
          "$type": "SetGlobalValue",
          "value": 1.0,
          "key": "_Tribalwarrior_Female_Standard_Launcher_HookWalker_NotSquatState",
          "maxValue": 0.0,
          "minValue": 0.0
        },
        {
          "$type": "SetGlobalValue",
          "value": 0.0,
          "key": "_MONSTER_Tribalwarrior_SquatState",
          "maxValue": 0.0,
          "minValue": 0.0
        },
        {
          "$type": "ApplyModifier",
          "modifierName": "Tribalwarrior_Female_Standard_Launcher_HookWalker_SquatSysInit"
        }
      ],
      "onAbilityStart": [
        {
          "$type": "ApplyModifier",
          "modifierName": "UNIQUE_Tribalwarrior_Female_Standard_Launcher_HookWalker_JumpLandLine"
        }
      ]
    }
  },
  {
    "Default": {
      "$type": "ConfigAbility",
      "abilityName": "Tribalwarrior_Female_Standard_Launcher_HookWalker_TribalUlt_MultiBullet",
      "onAbilityStart": [
        {
          "$type": "TriggerAttackEvent",
          "attackEvent": {
            "attackPattern": {
              "$type": "ConfigAttackSphere",
              "triggerType": "TriggerNoRepeat",
              "born": {
                "$type": "ConfigBornByCollisionPoint"
              },
              "radius": 1.5
            },
            "attackInfo": {
              "attackTag": "",
              "attenuationTag": "Tribalwarrior_Female_Standard_Launcher_HookWalker_TribalUlt",
              "attenuationGroup": "Tribalwarrior_Female_Standard_Launcher_HookWalker_TribalUlt",
              "attackProperty": {
                "actorGrassSubHurtDelta": 1.0,
                "actorWindSubHurtDelta": 0.0,
                "elementType": "Grass",
                "elementDurability": 25.0,
                "strikeType": "Default",
                "enBreak": 200.0,
                "GLKMCMDJBIK": 0.0
              },
              "hitPattern": {
                "onHitEffectName": "default",
                "hitImpulseY": "",
                "hitImpulseType": "LV4",
                "hitHaltTimeScale": 0.009999999776482582
              },
              "canBeModifiedBy": "OriginOwner"
            }
          },
          "targetType": "Enemy"
        },
        {
          "$type": "FireSubEmitterEffect",
          "rotationDampTime": "Eff_Monster_Tribalwarrior_Female_Standard_Launcher_Hookwalker_RangedAttack02_Hit",
          "born": {
            "$type": "ConfigBornByCollisionPoint"
          }
        },
        {
          "$type": "FireEffect",
          "rotationDampTime": "Eff_Monster_Tribalwarrior_Female_Standard_Launcher_Hookwalker_TribalUlt_Doom_Hit_Ground",
          "born": {
            "$type": "ConfigBornByCollisionPoint"
          },
          "PPPDJGDDOGD": 1.0,
          "AJDILHJFNKE": -1.0
        }
      ]
    }
  },
  {
    "Default": {
      "$type": "ConfigAbility",
      "abilityName": "Tribalwarrior_Female_Standard_Launcher_HookWalker_TribalUlt_SingleBullet",
      "modifiers": {
        "UNIQUE_Tribalwarrior_Female_Standard_Launcher_HookWalker_TribalUlt_SingleBullet": {
          "modifierName": "",
          "forceTriggerWhenChangeAuthority": true,
          "elementDurability": 100.0,
          "onAdded": [
            {
              "$type": "AttachEffect",
              "rotationDampTime": "Eff_Monster_Tribalwarrior_Female_Standard_Launcher_Hookwalker_TribalUlt_Doom_Single",
              "PPPDJGDDOGD": 1.0,
              "AJDILHJFNKE": -1.0
            }
          ]
        }
      },
      "onAdded": [
        {
          "$type": "ApplyModifier",
          "modifierName": "UNIQUE_Tribalwarrior_Female_Standard_Launcher_HookWalker_TribalUlt_SingleBullet"
        }
      ],
      "onAbilityStart": [
        {
          "$type": "TriggerAttackEvent",
          "attackEvent": {
            "attackPattern": {
              "$type": "ConfigAttackSphere",
              "triggerType": "TriggerNoRepeat",
              "born": {
                "$type": "ConfigBornByCollisionPoint"
              },
              "radius": 1.5
            },
            "attackInfo": {
              "attackTag": "",
              "attenuationTag": "Tribalwarrior_Female_Standard_Launcher_HookWalker_TribalUlt",
              "attenuationGroup": "Tribalwarrior_Female_Standard_Launcher_HookWalker_TribalUlt",
              "attackProperty": {
                "actorGrassSubHurtDelta": 1.0,
                "actorWindSubHurtDelta": 0.0,
                "elementType": "Grass",
                "elementDurability": 25.0,
                "strikeType": "Default",
                "enBreak": 200.0,
                "GLKMCMDJBIK": 0.0
              },
              "hitPattern": {
                "onHitEffectName": "default",
                "hitImpulseY": "",
                "hitImpulseType": "LV4",
                "hitHaltTimeScale": 0.009999999776482582
              },
              "canBeModifiedBy": "OriginOwner"
            }
          },
          "targetType": "Enemy"
        },
        {
          "$type": "FireSubEmitterEffect",
          "rotationDampTime": "Eff_Monster_Tribalwarrior_Female_Standard_Launcher_Hookwalker_RangedAttack02_Hit",
          "born": {
            "$type": "ConfigBornByCollisionPoint"
          }
        },
        {
          "$type": "FireEffect",
          "rotationDampTime": "Eff_Monster_Tribalwarrior_Female_Standard_Launcher_Hookwalker_TribalUlt_Doom_Hit_Ground",
          "born": {
            "$type": "ConfigBornByCollisionPoint"
          },
          "PPPDJGDDOGD": 1.0,
          "AJDILHJFNKE": -1.0
        },
        {
          "$type": "RemoveUniqueModifier",
          "modifierName": "UNIQUE_Tribalwarrior_Female_Standard_Launcher_HookWalker_TribalUlt_SingleBullet"
        }
      ]
    }
  },
  {
    "Default": {
      "$type": "ConfigAbility",
      "abilityName": "Monster_TribalWarrior_HookWalker_FreePoseManager",
      "abilityMixins": [
        {
          "$type": "EAKJOFAIAPH",
          "poseIDs": [9003],
          "enterActions": [
            {
              "$type": "SetGlobalValue",
              "value": 1.0,
              "key": "GV_Monster_TribalWarrior_HookWalker_DoNotRecoverPoseOnThreat",
              "maxValue": 0.0,
              "minValue": 0.0
            }
          ]
        },
        {
          "$type": "EAKJOFAIAPH",
          "poseIDs": [1, 101],
          "enterActions": [
            {
              "$type": "GFFKENEJFFB",
              "predicates": [
                {
                  "$type": "ByTargetGlobalValue",
                  "key": "GV_Monster_TribalWarrior_HookWalker_DoNotRecoverPoseOnThreat",
                  "value": 0.0,
                  "compareType": "NoneOrEqual"
                }
              ],
              "intID": "FreePoseMark",
              "value": 1001
            }
          ]
        }
      ]
    }
  },
  {
    "Default": {
      "$type": "ConfigAbility",
      "abilityName": "Monster_Tribalwarrior_Female_Standard_Launcher_HookWalker_AirState",
      "abilityMixins": [
        {
          "$type": "LEOGLBFIELL",
          "poseIDs": [101, 201],
          "modifierName": "Monster_Tribalwarrior_Female_Standard_Launcher_HookWalker_AIInCombat"
        },
        {
          "$type": "AttachToStateIDMixin",
          "stateIDs": [
            "ToGround_BS",
            "ToGround_AS",
            "BeHitThrow",
            "BeHitThrowToStandby"
          ],
          "modifierName": "Monster_Tribalwarrior_Female_Standard_Launcher_HookWalker_SetGroundState",
          "DGFCLAIDIFI": ""
        },
        {
          "$type": "AttachToStateIDMixin",
          "stateIDs": [
            "InAir_Idle",
            "InAirAtk_BS",
            "InAirAtk_Loop",
            "InAirAtk_AS"
          ],
          "modifierName": "Monster_Tribalwarrior_Female_Standard_Launcher_HookWalker_DropPredicated",
          "DGFCLAIDIFI": ""
        },
        {
          "$type": "AttachToStateIDMixin",
          "stateIDs": ["InAir", "InAirHook"],
          "modifierName": "Monster_Tribalwarrior_Female_Standard_Launcher_HookWalker_InAirPhysical",
          "DGFCLAIDIFI": ""
        }
      ],
      "modifiers": {
        "Monster_Tribalwarrior_Female_Standard_Launcher_HookWalker_AIInCombat": {
          "modifierName": "",
          "elementDurability": 100.0,
          "modifierMixins": [
            {
              "$type": "AttachModifierToSelfGlobalValueMixin",
              "globalValueKey": "_MONSTER_TRIBALWARRIOR_LAUNCHER_HOOKWALKER_AIRSTATE_",
              "gvInTalk": 0.0,
              "valueSteps": [-0.5, 0.5, 1.5],
              "modifierNameSteps": [
                "UNIQUE_Monster_Tribalwarrior_Female_Standard_Launcher_HookWalker_NormalState",
                "UNIQUE_Monster_Tribalwarrior_Female_Standard_Launcher_HookWalker_AirState"
              ]
            },
            {
              "$type": "AttachModifierToSelfGlobalValueMixin",
              "globalValueKey": "_WATCHER_82233_FLAG_01_",
              "gvInTalk": 0.0,
              "valueSteps": [-0.5, 2.5, 3.5],
              "modifierNameSteps": ["Empty", "SetWatcherFlag02"]
            }
          ],
          "onAdded": [
            {
              "$type": "FNPMFLOOCDD",
              "value": 0.0,
              "key": "_MONSTER_TRIBALWARRIOR_LAUNCHER_HOOKWALKER_AIRSTATE_",
              "maxValue": 0.0,
              "minValue": 0.0
            }
          ],
          "onKill": [
            {
              "$type": "FNPMFLOOCDD",
              "value": 1.0,
              "key": "_WATCHER_82233_FLAG_02_",
              "maxValue": 0.0,
              "minValue": 0.0
            },
            {
              "$type": "KillSelf",
              "otherTargets": {
                "$type": "SelectTargetsByChildren",
                "configID": 42551104
              },
              "configIdArray": [42551104]
            }
          ]
        },
        "UNIQUE_Monster_Tribalwarrior_Female_Standard_Launcher_HookWalker_NormalState": {
          "modifierName": "",
          "forceTriggerWhenChangeAuthority": true,
          "elementDurability": 100.0,
          "onAdded": [
            {
              "$type": "IDNGFEEBPAM",
              "boolID": "InAir"
            }
          ]
        },
        "UNIQUE_Monster_Tribalwarrior_Female_Standard_Launcher_HookWalker_AirState": {
          "modifierName": "",
          "forceTriggerWhenChangeAuthority": true,
          "elementDurability": 100.0,
          "modifierMixins": [
            {
              "$type": "CIBMLJJLANN",
              "excludeForces": ["WindZoneType"]
            }
          ],
          "properties": {
            "Actor_PhysicalSubHurtDelta": 1.0,
            "Actor_FireSubHurtDelta": 1.0,
            "Actor_ElecSubHurtDelta": 1.0,
            "Actor_WaterSubHurtDelta": 1.0,
            "Actor_GrassSubHurtDelta": 1.0,
            "Actor_WindSubHurtDelta": 1.0,
            "Actor_IceSubHurtDelta": 1.0,
            "Actor_RockSubHurtDelta": 1.0
          },
          "onAdded": [
            {
              "$type": "IDNGFEEBPAM",
              "boolID": "InAir",
              "value": true
            },
            {
              "$type": "FNPMFLOOCDD",
              "shieldHP": true,
              "value": 1.0,
              "key": "_WATCHER_82234_FLAG_01_",
              "maxValue": 0.0,
              "minValue": 0.0
            },
            {
              "$type": "FNPMFLOOCDD",
              "shieldHP": true,
              "value": 0.0,
              "key": "_WATCHER_82233_FLAG_01_",
              "maxValue": 0.0,
              "minValue": 0.0
            }
          ],
          "onRemoved": [
            {
              "$type": "IDNGFEEBPAM",
              "boolID": "InAir",
              "value": true
            },
            {
              "$type": "FNPMFLOOCDD",
              "shieldHP": true,
              "value": 0.0,
              "key": "_WATCHER_82234_FLAG_01_",
              "maxValue": 0.0,
              "minValue": 0.0
            }
          ]
        },
        "Monster_Tribalwarrior_Female_Standard_Launcher_HookWalker_SetGroundState": {
          "modifierName": "",
          "elementDurability": 100.0,
          "onAdded": [
            {
              "$type": "FNPMFLOOCDD",
              "value": 0.0,
              "key": "_MONSTER_TRIBALWARRIOR_LAUNCHER_HOOKWALKER_AIRSTATE_",
              "maxValue": 0.0,
              "minValue": 0.0
            },
            {
              "$type": "FNPMFLOOCDD",
              "value": 0.0,
              "key": "_DROPTAG_",
              "maxValue": 0.0,
              "minValue": 0.0
            },
            {
              "$type": "FNPMFLOOCDD",
              "value": 1.0,
              "key": "_WATCHER_82233_FLAG_02_",
              "maxValue": 0.0,
              "minValue": 0.0
            },
            {
              "$type": "KillSelf",
              "otherTargets": {
                "$type": "SelectTargetsByChildren",
                "configID": 42551104
              },
              "configIdArray": [42551104]
            }
          ]
        },
        "Monster_Tribalwarrior_Female_Standard_Launcher_HookWalker_DropPredicated": {
          "modifierName": "",
          "elementDurability": 100.0,
          "modifierMixins": [
            {
              "$type": "AttachModifierToGlobalValueMixin",
              "globalValueKey": "_DROPTAG_",
              "valueSteps": [-0.5, 0.5, 1.5],
              "modifierNameSteps": [
                "Empty",
                "Monster_Tribalwarrior_Female_Standard_Launcher_HookWalker_Drop"
              ]
            }
          ]
        },
        "Monster_Tribalwarrior_Female_Standard_Launcher_HookWalker_Drop": {
          "modifierName": "",
          "elementDurability": 100.0,
          "onAdded": [
            {
              "$type": "SetAnimatorTrigger",
              "triggerID": "Drop"
            }
          ]
        },
        "Monster_Tribalwarrior_Female_Standard_Launcher_HookWalker_InAirPhysical": {
          "modifierName": "",
          "elementDurability": 100.0,
          "modifierMixins": [
            {
              "$type": "AttachActionToModifierMixin",
              "onAdded": [
                {
                  "$type": "EnablePushColliderName",
                  "pushColliderNames": ["PushCollider"]
                }
              ],
              "onRemoved": [
                {
                  "$type": "EnablePushColliderName",
                  "pushColliderNames": ["PushCollider"],
                  "setEnable": true
                }
              ]
            }
          ]
        },
        "SetWatcherFlag02": {
          "modifierName": "",
          "elementDurability": 100.0,
          "onAdded": [
            {
              "$type": "FNPMFLOOCDD",
              "value": 1.0,
              "key": "_WATCHER_82233_FLAG_03_",
              "maxValue": 0.0,
              "minValue": 0.0
            }
          ]
        },
        "Empty": {
          "modifierName": "",
          "elementDurability": 100.0
        }
      },
      "onAdded": [
        {
          "$type": "FNPMFLOOCDD",
          "value": 0.0,
          "key": "_MONSTER_TRIBALWARRIOR_LAUNCHER_HOOKWALKER_AIRSTATE_",
          "maxValue": 0.0,
          "minValue": 0.0
        },
        {
          "$type": "FNPMFLOOCDD",
          "value": 0.0,
          "key": "_DROPTAG_",
          "maxValue": 0.0,
          "minValue": 0.0
        }
      ],
      "onKill": [
        {
          "$type": "HCLAKBJKPLE",
          "watcherId": 82232,
          "authorityOnly": true,
          "inThreatListOnly": true
        },
        {
          "$type": "HCLAKBJKPLE",
          "predicates": [
            {
              "$type": "ByTargetGlobalValue",
              "target": "Self",
              "key": "_WATCHER_82233_FLAG_03_",
              "value": 1.0
            },
            {
              "$type": "EBOHLEJJMIG",
              "IKILOJFBKMA": 82232
            }
          ],
          "watcherId": 82233,
          "authorityOnly": true,
          "inThreatListOnly": true
        },
        {
          "$type": "HCLAKBJKPLE",
          "predicates": [
            {
              "$type": "ByTargetGlobalValue",
              "target": "Self",
              "key": "_WATCHER_82234_FLAG_01_",
              "value": 1.0
            },
            {
              "$type": "EBOHLEJJMIG",
              "IKILOJFBKMA": 82233
            }
          ],
          "watcherId": 82234,
          "authorityOnly": true,
          "inThreatListOnly": true
        },
        {
          "$type": "FNPMFLOOCDD",
          "target": "Team",
          "value": 1.0,
          "key": "_NYX_CHALLENGE_LEVEL",
          "maxValue": 0.0,
          "minValue": 0.0
        },
        {
          "$type": "FNPMFLOOCDD",
          "target": "Team",
          "predicates": [
            {
              "$type": "ByTargetGlobalValue",
              "target": "Self",
              "key": "_WATCHER_82233_FLAG_03_",
              "value": 1.0
            },
            {
              "$type": "EBOHLEJJMIG",
              "IKILOJFBKMA": 82232
            }
          ],
          "value": 2.0,
          "key": "_NYX_CHALLENGE_LEVEL",
          "maxValue": 0.0,
          "minValue": 0.0
        },
        {
          "$type": "FNPMFLOOCDD",
          "target": "Team",
          "predicates": [
            {
              "$type": "ByTargetGlobalValue",
              "target": "Self",
              "key": "_WATCHER_82234_FLAG_01_",
              "value": 1.0
            },
            {
              "$type": "EBOHLEJJMIG",
              "IKILOJFBKMA": 82233
            }
          ],
          "value": 3.0,
          "key": "_NYX_CHALLENGE_LEVEL",
          "maxValue": 0.0,
          "minValue": 0.0
        }
      ]
    }
  },
  {
    "Default": {
      "$type": "ConfigAbility",
      "abilityName": "Monster_Tribalwarrior_Female_Standard_Launcher_HookWalker_CreateHookPoint",
      "abilityMixins": [
        {
          "$type": "AttachToStateIDMixin",
          "stateIDs": ["TribalUlt"],
          "modifierName": "CreatHookPointAnchor",
          "DGFCLAIDIFI": ""
        }
      ],
      "abilitySpecials": {
        "HookPoint_RandomHeight1": 5.0,
        "HookPoint_RandomHeight2": 5.0,
        "HookPoint_RandomHeight3": 5.0
      },
      "modifiers": {
        "CreatHookPointAnchor": {
          "modifierName": "",
          "elementDurability": 100.0,
          "onAdded": [
            {
              "$type": "SetRandomOverrideMapValue",
              "valueRangeMax": 6.0,
              "valueRangeMin": 4.5,
              "overrideMapKey": "HookPoint_RandomHeight1"
            },
            {
              "$type": "SetRandomOverrideMapValue",
              "valueRangeMax": 6.0,
              "valueRangeMin": 4.5,
              "overrideMapKey": "HookPoint_RandomHeight2"
            },
            {
              "$type": "SetRandomOverrideMapValue",
              "valueRangeMax": 6.0,
              "valueRangeMin": 4.5,
              "overrideMapKey": "HookPoint_RandomHeight3"
            },
            {
              "$type": "KillSelf",
              "otherTargets": {
                "$type": "SelectTargetsByChildren",
                "configID": 42551105
              },
              "configIdArray": [42551105]
            },
            {
              "$type": "CreateGadget",
              "born": {
                "$type": "ConfigBornByGlobalValue",
                "offset": {
                  "x": 0.0,
                  "y": 0.0,
                  "z": 0.0
                },
                "onGround": true,
                "direction": {
                  "$type": "ConfigDirectionByDefault",
                  "angleOffset": {
                    "x": 0.0,
                    "y": 0.0,
                    "z": 0.0
                  },
                  "randomAngleHor": 360.0
                },
                "positionKey": "_MONSTER_BORN_POS_",
                "directionKey": ""
              },
              "lifeByOwnerV2": true,
              "gadgetID": 42551105,
              "campID": 4001,
              "campTargetType": "Enemy"
            }
          ]
        }
      },
      "onAdded": [
        {
          "$type": "SetGlobalPos",
          "key": "_MONSTER_BORN_POS_",
          "born": {
            "$type": "ConfigBornBySelf",
            "direction": {
              "$type": "ConfigDirectionByDefault",
              "angleOffset": {
                "x": 0.0,
                "y": 0.0,
                "z": 0.0
              }
            },
            "useRotation": true
          }
        }
      ],
      "onAbilityStart": [
        {
          "$type": "SetGlobalPos",
          "otherTargets": {
            "$type": "SelectTargetsByChildren",
            "configID": 42551105
          },
          "key": "_MONSTER_HOOKPOINT_POS_1_",
          "born": {
            "$type": "ConfigBornByTarget",
            "offset": {
              "x": 0.0,
              "y": 0.0,
              "z": 12.0
            },
            "bornRandom": {
              "$type": "BornRandomFromCenter",
              "minRandomRange": 0.0,
              "maxRandomRange": 2.5
            },
            "onGround": true,
            "useRotation": true
          },
          "setTarget": false
        },
        {
          "$type": "SetGlobalPos",
          "otherTargets": {
            "$type": "SelectTargetsByChildren",
            "configID": 42551105
          },
          "key": "_MONSTER_HOOKPOINT_POS_2_",
          "born": {
            "$type": "ConfigBornByTarget",
            "offset": {
              "x": -8.0,
              "y": 0.0,
              "z": -6.0
            },
            "bornRandom": {
              "$type": "BornRandomFromCenter",
              "minRandomRange": 0.0,
              "maxRandomRange": 2.5
            },
            "onGround": true,
            "useRotation": true
          },
          "setTarget": false
        },
        {
          "$type": "SetGlobalPos",
          "otherTargets": {
            "$type": "SelectTargetsByChildren",
            "configID": 42551105
          },
          "key": "_MONSTER_HOOKPOINT_POS_3_",
          "born": {
            "$type": "ConfigBornByTarget",
            "offset": {
              "x": 8.0,
              "y": 0.0,
              "z": -6.0
            },
            "bornRandom": {
              "$type": "BornRandomFromCenter",
              "minRandomRange": 0.0,
              "maxRandomRange": 2.5
            },
            "onGround": true,
            "useRotation": true
          },
          "setTarget": false
        },
        {
          "$type": "FNPMFLOOCDD",
          "value": 0.0,
          "key": "_WATCHER_82233_FLAG_02_",
          "maxValue": 0.0,
          "minValue": 0.0
        },
        {
          "$type": "CreateGadget",
          "born": {
            "$type": "ConfigBornByGlobalValue",
            "offset": {
              "x": 0.0,
              "y": "HookPoint_RandomHeight1",
              "z": 0.0
            },
            "onGround": true,
            "positionKey": "_MONSTER_HOOKPOINT_POS_1_",
            "directionKey": ""
          },
          "lifeByOwnerV2": true,
          "gadgetID": 42551104,
          "campID": 4001,
          "campTargetType": "Enemy",
          "byServer": true
        },
        {
          "$type": "CreateGadget",
          "born": {
            "$type": "ConfigBornByGlobalValue",
            "offset": {
              "x": 0.0,
              "y": "HookPoint_RandomHeight2",
              "z": 0.0
            },
            "onGround": true,
            "positionKey": "_MONSTER_HOOKPOINT_POS_2_",
            "directionKey": ""
          },
          "lifeByOwnerV2": true,
          "gadgetID": 42551104,
          "campID": 4001,
          "campTargetType": "Enemy",
          "byServer": true
        },
        {
          "$type": "CreateGadget",
          "born": {
            "$type": "ConfigBornByGlobalValue",
            "offset": {
              "x": 0.0,
              "y": "HookPoint_RandomHeight3",
              "z": 0.0
            },
            "onGround": true,
            "positionKey": "_MONSTER_HOOKPOINT_POS_3_",
            "directionKey": ""
          },
          "lifeByOwnerV2": true,
          "gadgetID": 42551104,
          "campID": 4001,
          "campTargetType": "Enemy",
          "byServer": true
        }
      ]
    }
  },
  {
    "Default": {
      "$type": "ConfigAbility",
      "abilityName": "Monster_Tribalwarrior_Female_Standard_Launcher_HookWalker_InAir",
      "abilityMixins": [
        {
          "$type": "AttachToStateIDMixin",
          "stateIDs": ["InAir"],
          "modifierName": "Monster_Tribalwarrior_Female_Standard_Launcher_HookWalker_SetAirState",
          "DGFCLAIDIFI": ""
        }
      ],
      "modifiers": {
        "Monster_Tribalwarrior_Female_Standard_Launcher_HookWalker_SetAirState": {
          "modifierName": "",
          "elementDurability": 100.0,
          "onAdded": [
            {
              "$type": "FNPMFLOOCDD",
              "value": 1.0,
              "key": "_MONSTER_TRIBALWARRIOR_LAUNCHER_HOOKWALKER_AIRSTATE_",
              "maxValue": 0.0,
              "minValue": 0.0
            },
            {
              "$type": "Predicated",
              "otherTargets": {
                "$type": "SelectTargetsByChildren",
                "topLimit": 1,
                "sortType": "Random",
                "configID": 42551104
              },
              "successActions": [
                {
                  "$type": "SetGlobalPos",
                  "target": "Target",
                  "key": "_MONSTER_HOOK_POS_",
                  "born": {
                    "$type": "ConfigBornByAttachPoint",
                    "offset": {
                      "x": 0.0,
                      "y": -2.5,
                      "z": 0.0
                    },
                    "useRotation": true,
                    "attachPointName": "RootNode"
                  },
                  "setTarget": false
                },
                {
                  "$type": "SetGlobalPos",
                  "target": "Target",
                  "key": "_MONSTER_HOOK_TURN_POS_",
                  "born": {
                    "$type": "ConfigBornByAttachPoint",
                    "offset": {
                      "x": 0.0,
                      "y": -4.0,
                      "z": 0.0
                    },
                    "onGround": true,
                    "useRotation": true,
                    "attachPointName": "RootNode"
                  },
                  "setTarget": false
                },
                {
                  "$type": "SetGlobalPos",
                  "target": "Target",
                  "key": "_MONSTER_HOOK_END_POS_",
                  "born": {
                    "$type": "ConfigBornByAttachPoint",
                    "offset": {
                      "x": 0.0,
                      "y": 0.0,
                      "z": 0.0
                    },
                    "useRotation": true,
                    "attachPointName": "RootNode"
                  },
                  "setTarget": false
                },
                {
                  "$type": "ApplyModifier",
                  "target": "Target",
                  "modifierName": "SetNearestHookPointTag"
                }
              ]
            },
            {
              "$type": "TurnDirectionToPos",
              "toPos": {
                "$type": "ConfigBornByGlobalValue",
                "positionKey": "_MONSTER_HOOK_TURN_POS_",
                "directionKey": ""
              }
            },
            {
              "$type": "FNPMFLOOCDD",
              "value": 0.0,
              "key": "_DROPTAG_",
              "maxValue": 0.0,
              "minValue": 0.0
            }
          ]
        },
        "SetNearestHookPointTag": {
          "modifierName": "",
          "duration": 0.10000000149011612,
          "elementDurability": 100.0,
          "onAdded": [
            {
              "$type": "FNPMFLOOCDD",
              "value": 1.0,
              "key": "_TARGET_HOOKPOINT_",
              "maxValue": 0.0,
              "minValue": 0.0
            }
          ]
        }
      },
      "onAbilityStart": [
        {
          "$type": "PAGFCBCKEBH",
          "toPos": {
            "$type": "ConfigBornByGlobalValue",
            "positionKey": "_MONSTER_HOOK_POS_",
            "directionKey": ""
          },
          "NKPCHMCNNOK": 0.800000011920929,
          "maxRange": -1.0,
          "animatorStateIDs": ["InAir"],
          "overrideMoveCollider": "",
          "isInAir": true,
          "ignoreDetectForward": true,
          "exactArrive": true
        }
      ]
    }
  },
  {
    "Default": {
      "$type": "ConfigAbility",
      "abilityName": "Monster_Tribalwarrior_Female_Standard_Launcher_HookWalker_HookLine",
      "modifiers": {
        "Monster_Tribalwarrior_Female_Standard_Launcher_HookWalker_HookLineEffect": {
          "modifierName": "",
          "duration": 1.2000000476837158,
          "elementDurability": 100.0,
          "modifierMixins": [
            {
              "$type": "FKIBGDFKICL",
              "rotationDampTime": "Eff_Monster_Tribalwarrior_Female_Standard_Launcher_Hookwalker_LeftChain",
              "positionKey": "_MONSTER_HOOK_END_POS_",
              "onHookReached": [
                {
                  "$type": "AttachEffect",
                  "muteRemoteAction": true,
                  "rotationDampTime": "Eff_Monster_Tribalwarrior_Female_Standard_Launcher_Hookwalker_HookPoint",
                  "born": {
                    "$type": "ConfigBornByGlobalValue",
                    "positionKey": "_MONSTER_HOOK_END_POS_",
                    "directionKey": ""
                  },
                  "PPPDJGDDOGD": 1.0,
                  "AJDILHJFNKE": -1.0
                },
                {
                  "$type": "FireEffect",
                  "muteRemoteAction": true,
                  "rotationDampTime": "Eff_Monster_Tribalwarrior_Female_Standard_Launcher_Hookwalker_HookPoint_02_Connect",
                  "born": {
                    "$type": "ConfigBornByGlobalValue",
                    "positionKey": "_MONSTER_HOOK_END_POS_",
                    "directionKey": ""
                  },
                  "PPPDJGDDOGD": 1.0,
                  "AJDILHJFNKE": -1.0
                }
              ],
              "CFLNFDJCNAJ": true
            }
          ]
        }
      },
      "onAbilityStart": [
        {
          "$type": "ApplyModifier",
          "modifierName": "Monster_Tribalwarrior_Female_Standard_Launcher_HookWalker_HookLineEffect"
        }
      ]
    }
  },
  {
    "Default": {
      "$type": "ConfigAbility",
      "abilityName": "Monster_Tribalwarrior_Female_Standard_Launcher_HookWalker_InAirAtk",
      "abilityMixins": [
        {
          "$type": "AttachToStateIDMixin",
          "stateIDs": ["InAirAtk_BS"],
          "modifierName": "Monster_Tribalwarrior_Female_Standard_Launcher_HookWalker_InAirAtk",
          "DGFCLAIDIFI": ""
        }
      ],
      "modifiers": {
        "Monster_Tribalwarrior_Female_Standard_Launcher_HookWalker_InAirAtk": {
          "modifierName": "",
          "elementDurability": 100.0,
          "onAdded": [
            {
              "$type": "FireEffect",
              "rotationDampTime": "Eff_Monster_Tribalwarrior_Female_Standard_Launcher_Hookwalker_InAirAttack_Alert",
              "PPPDJGDDOGD": 1.0,
              "AJDILHJFNKE": -1.0
            }
          ]
        }
      },
      "onAbilityStart": [
        {
          "$type": "TriggerBullet",
          "bulletID": 42551102,
          "born": {
            "$type": "ConfigBornByAttachPoint",
            "direction": {
              "$type": "ConfigDirectionByAttackTarget",
              "maxAngleType": "Vertical",
              "maxAngle": 30.0,
              "startPoint": ""
            },
            "useRotation": true,
            "attachPointName": "BulletSource"
          },
          "lifeByOwnerV2": true
        },
        {
          "$type": "FireEffect",
          "rotationDampTime": "Eff_Monster_Tribalwarrior_Female_Standard_Launcher_Hookwalker_RangedAttack02_Burst",
          "PPPDJGDDOGD": 1.0,
          "AJDILHJFNKE": -1.0
        }
      ]
    }
  },
  {
    "Default": {
      "$type": "ConfigAbility",
      "abilityName": "Monster_Tribalwarrior_Female_Standard_Launcher_HookWalker_InAirHook",
      "abilityMixins": [
        {
          "$type": "AttachToStateIDMixin",
          "stateIDs": ["InAirHook"],
          "modifierName": "Monster_Tribalwarrior_Female_Standard_Launcher_HookWalker_SetInAirHookPos",
          "DGFCLAIDIFI": ""
        }
      ],
      "modifiers": {
        "Monster_Tribalwarrior_Female_Standard_Launcher_HookWalker_SetInAirHookPos": {
          "modifierName": "",
          "elementDurability": 100.0,
          "onAdded": [
            {
              "$type": "FNPMFLOOCDD",
              "value": 0.0,
              "key": "_TEMPKEY_",
              "maxValue": 0.0,
              "minValue": 0.0
            },
            {
              "$type": "Predicated",
              "otherTargets": {
                "$type": "SelectTargetsByChildren",
                "sortType": "Random",
                "configID": 42551104
              },
              "targetPredicates": [
                {
                  "$type": "ByTargetGlobalValue",
                  "key": "_TARGET_HOOKPOINT_",
                  "value": 0.0,
                  "compareType": "NoneOrEqual"
                },
                {
                  "$type": "ByTargetGlobalValue",
                  "target": "Self",
                  "key": "_TEMPKEY_",
                  "value": 0.0,
                  "compareType": "NoneOrEqual"
                }
              ],
              "successActions": [
                {
                  "$type": "SetGlobalPos",
                  "target": "Target",
                  "key": "_MONSTER_HOOK_POS_",
                  "born": {
                    "$type": "ConfigBornByAttachPoint",
                    "offset": {
                      "x": 0.0,
                      "y": -2.5,
                      "z": 0.0
                    },
                    "useRotation": true,
                    "attachPointName": "RootNode"
                  },
                  "setTarget": false
                },
                {
                  "$type": "SetGlobalPos",
                  "target": "Target",
                  "key": "_MONSTER_HOOK_TURN_POS_",
                  "born": {
                    "$type": "ConfigBornByAttachPoint",
                    "offset": {
                      "x": 0.0,
                      "y": -4.0,
                      "z": 0.0
                    },
                    "onGround": true,
                    "useRotation": true,
                    "attachPointName": "RootNode"
                  },
                  "setTarget": false
                },
                {
                  "$type": "SetGlobalPos",
                  "target": "Target",
                  "key": "_MONSTER_HOOK_END_POS_",
                  "born": {
                    "$type": "ConfigBornByAttachPoint",
                    "offset": {
                      "x": 0.0,
                      "y": 0.0,
                      "z": 0.0
                    },
                    "useRotation": true,
                    "attachPointName": "RootNode"
                  },
                  "setTarget": false
                },
                {
                  "$type": "ApplyModifier",
                  "target": "Target",
                  "modifierName": "SetTargettHookPointTag"
                },
                {
                  "$type": "FNPMFLOOCDD",
                  "value": 1.0,
                  "key": "_TEMPKEY_",
                  "maxValue": 0.0,
                  "minValue": 0.0
                }
              ]
            },
            {
              "$type": "TurnDirectionToPos",
              "toPos": {
                "$type": "ConfigBornByGlobalValue",
                "positionKey": "_MONSTER_HOOK_TURN_POS_",
                "directionKey": ""
              }
            }
          ]
        },
        "SetTargettHookPointTag": {
          "modifierName": "",
          "duration": 0.10000000149011612,
          "elementDurability": 100.0,
          "onAdded": [
            {
              "$type": "FNPMFLOOCDD",
              "value": 1.0,
              "key": "_TARGET_HOOKPOINT_",
              "maxValue": 0.0,
              "minValue": 0.0
            }
          ]
        }
      },
      "onAbilityStart": [
        {
          "$type": "PAGFCBCKEBH",
          "toPos": {
            "$type": "ConfigBornByGlobalValue",
            "positionKey": "_MONSTER_HOOK_POS_",
            "directionKey": ""
          },
          "NKPCHMCNNOK": 1.25,
          "maxRange": -1.0,
          "animatorStateIDs": ["InAirHook"],
          "overrideMoveCollider": "",
          "isInAir": true,
          "ignoreDetectForward": true,
          "exactArrive": true
        }
      ]
    }
  },
  {
    "Default": {
      "$type": "ConfigAbility",
      "abilityName": "Tribalwarrior_Female_Standard_Launcher_HookWalker_HookPointCommon",
      "modifiers": {
        "UNIQUE_Tribalwarrior_Female_Standard_Launcher_HookWalker_HookPointLifeTimer": {
          "modifierName": "",
          "forceTriggerWhenChangeAuthority": true,
          "elementType": "Grass",
          "elementDurability": 125.0,
          "modifierMixins": [
            {
              "$type": "ShieldBarMixin",
              "onShieldBroken": [
                {
                  "$type": "RemoveModifier",
                  "modifierName": "UNIQUE_Tribalwarrior_Female_Standard_Launcher_HookWalker_HookPointLifeTimer"
                }
              ],
              "showDamageText": "",
              "barElementType": "Grass"
            },
            {
              "$type": "AttachModifierToGlobalValueMixin",
              "globalValueKey": "_TARGET_HOOKPOINT_",
              "valueSteps": [-0.5, 0.5, 1.5],
              "modifierNameSteps": [
                "Empty",
                "Tribalwarrior_Female_Standard_Launcher_HookWalker_HookPoint_ClearOtherTag"
              ]
            }
          ],
          "properties": {
            "Actor_EndureDelta": 0.0
          },
          "onAdded": [
            {
              "$type": "AddGlobalValue",
              "target": "Owner",
              "value": 1.0,
              "key": "_HOOKPOINT_COUNT_",
              "useLimitRange": true,
              "maxValue": 3.0,
              "minValue": 0.0
            },
            {
              "$type": "AddGlobalValue",
              "target": "Owner",
              "value": 1.0,
              "key": "_HOOKPOINT_AIR_COUNT_",
              "useLimitRange": true,
              "maxValue": 2.0,
              "minValue": 0.0
            },
            {
              "$type": "FireEffect",
              "rotationDampTime": "Eff_Monster_Tribalwarrior_Female_Standard_Launcher_Hookwalker_HookPoint_02_EmitterAS",
              "PPPDJGDDOGD": 1.0,
              "AJDILHJFNKE": -1.0
            },
            {
              "$type": "AttachEffect",
              "rotationDampTime": "Eff_Monster_Tribalwarrior_Female_Standard_Launcher_Hookwalker_HookPoint_02",
              "PPPDJGDDOGD": 1.0,
              "AJDILHJFNKE": -1.0
            }
          ],
          "onRemoved": [
            {
              "$type": "ApplyModifier",
              "target": "Owner",
              "predicates": [
                {
                  "$type": "ByTargetGlobalValue",
                  "target": "Owner",
                  "key": "_WATCHER_82233_FLAG_02_",
                  "value": 0.0,
                  "compareType": "NoneOrEqual"
                }
              ],
              "modifierName": "SetWatcherFlag"
            },
            {
              "$type": "ApplyModifier",
              "target": "Owner",
              "predicates": [
                {
                  "$type": "ByTargetGlobalValue",
                  "target": "Self",
                  "key": "_TARGET_HOOKPOINT_",
                  "value": 1.0
                }
              ],
              "modifierName": "TriggerOwnerDropTrigger"
            },
            {
              "$type": "KillSelf",
              "configIdArray": [42551104]
            }
          ]
        },
        "TriggerOwnerDropTrigger": {
          "modifierName": "",
          "duration": 0.10000000149011612,
          "elementDurability": 100.0,
          "onAdded": [
            {
              "$type": "FNPMFLOOCDD",
              "value": 1.0,
              "key": "_DROPTAG_",
              "maxValue": 0.0,
              "minValue": 0.0
            }
          ]
        },
        "SetOwnerHookPointCount": {
          "stacking": "Multiple",
          "modifierName": "",
          "duration": 0.10000000149011612,
          "elementDurability": 100.0,
          "onAdded": [
            {
              "$type": "AddGlobalValue",
              "value": -1.0,
              "key": "_HOOKPOINT_COUNT_",
              "useLimitRange": true,
              "maxValue": 3.0,
              "minValue": 0.0
            },
            {
              "$type": "AddGlobalValue",
              "value": -1.0,
              "key": "_HOOKPOINT_AIR_COUNT_",
              "useLimitRange": true,
              "maxValue": 2.0,
              "minValue": 0.0
            }
          ]
        },
        "Tribalwarrior_Female_Standard_Launcher_HookWalker_HookPoint_ClearOtherTag": {
          "modifierName": "",
          "elementDurability": 100.0,
          "onAdded": [
            {
              "$type": "Predicated",
              "otherTargets": {
                "$type": "SelectTargetsByShape",
                "entityTypePriority": ["Gadget"],
                "shapeName": "CircleR50",
                "campTargetType": "AllExceptSelf",
                "doOffStage": 1.0
              },
              "targetPredicates": [
                {
                  "$type": "ByTargetGlobalValue",
                  "key": "_ISHOOKPOINT_",
                  "value": 1.0
                }
              ],
              "successActions": [
                {
                  "$type": "ApplyModifier",
                  "target": "Target",
                  "modifierName": "ClearTag"
                }
              ]
            }
          ]
        },
        "ClearTag": {
          "modifierName": "",
          "duration": 0.10000000149011612,
          "elementDurability": 100.0,
          "onAdded": [
            {
              "$type": "FNPMFLOOCDD",
              "value": 0.0,
              "key": "_TARGET_HOOKPOINT_",
              "maxValue": 0.0,
              "minValue": 0.0
            }
          ]
        },
        "SetWatcherFlag": {
          "stacking": "Multiple",
          "modifierName": "",
          "duration": 0.10000000149011612,
          "elementDurability": 100.0,
          "onAdded": [
            {
              "$type": "AddGlobalValue",
              "value": 1.0,
              "key": "_WATCHER_82233_FLAG_01_",
              "useLimitRange": true,
              "maxValue": 3.0,
              "minValue": 0.0
            }
          ]
        },
        "Empty": {
          "modifierName": "",
          "elementDurability": 100.0
        }
      },
      "onAdded": [
        {
          "$type": "ApplyModifier",
          "modifierName": "UNIQUE_Tribalwarrior_Female_Standard_Launcher_HookWalker_HookPointLifeTimer"
        },
        {
          "$type": "FNPMFLOOCDD",
          "value": 1.0,
          "key": "_ISHOOKPOINT_",
          "maxValue": 0.0,
          "minValue": 0.0
        }
      ],
      "onKill": [
        {
          "$type": "FireEffect",
          "rotationDampTime": "Eff_Monster_Tribalwarrior_Female_Standard_Launcher_Hookwalker_HookPoint_02_AS",
          "PPPDJGDDOGD": 1.0,
          "AJDILHJFNKE": -1.0
        },
        {
          "$type": "ApplyModifier",
          "target": "Owner",
          "modifierName": "SetOwnerHookPointCount"
        }
      ]
    }
  },
  {
    "Default": {
      "$type": "ConfigAbility",
      "abilityName": "Tribalwarrior_Female_Standard_Launcher_HookWalker_InAirAtkBulletHit",
      "modifiers": {
        "Tribalwarrior_Female_Standard_Launcher_HookWalker_InAirAtkBullet": {
          "modifierName": "",
          "elementDurability": 100.0,
          "onAdded": [
            {
              "$type": "AttachEffect",
              "rotationDampTime": "Eff_Monster_Tribalwarrior_Female_Standard_Launcher_Hookwalker_InAirAttack_Bullet",
              "PPPDJGDDOGD": 1.0,
              "AJDILHJFNKE": -1.0
            },
            {
              "$type": "AttachEffect",
              "rotationDampTime": "Eff_Monster_Tribalwarrior_Female_Standard_Launcher_Hookwalker_InAirAttack_Bullet_Trail",
              "PPPDJGDDOGD": 1.0,
              "AJDILHJFNKE": -1.0
            }
          ]
        }
      },
      "onAdded": [
        {
          "$type": "ApplyModifier",
          "modifierName": "Tribalwarrior_Female_Standard_Launcher_HookWalker_InAirAtkBullet"
        }
      ],
      "onAbilityStart": [
        {
          "$type": "TriggerAttackEvent",
          "attackEvent": {
            "attackPattern": {
              "$type": "ConfigAttackSphere",
              "triggerType": "TriggerNoRepeat",
              "born": {
                "$type": "ConfigBornByCollisionPoint",
                "offset": {
                  "x": 0.0,
                  "y": 0.0,
                  "z": 0.0
                },
                "useRotation": true
              },
              "radius": 0.5
            },
            "attackInfo": {
              "attackTag": "",
              "attenuationTag": "",
              "attenuationGroup": "default",
              "attackProperty": {
                "actorGrassSubHurtDelta": 0.6600000262260437,
                "actorWindSubHurtDelta": 0.0,
                "elementType": "Grass",
                "elementDurability": 25.0,
                "strikeType": "Default",
                "enBreak": 1.0,
                "attackType": "Range",
                "GLKMCMDJBIK": 0.0
              },
              "hitPattern": {
                "onHitEffectName": "default",
                "hitImpulseY": "",
                "hitImpulseType": "LV1",
                "hitHaltTimeScale": 0.05000000074505806
              }
            }
          },
          "targetType": "Enemy"
        },
        {
          "$type": "FireSubEmitterEffect",
          "rotationDampTime": "Eff_Monster_Tribalwarrior_Female_Standard_Launcher_Hookwalker_RangedAttack01_Hit",
          "born": {
            "$type": "ConfigBornByCollisionPoint"
          }
        }
      ]
    }
  }
]
