[
  {
    "Default": {
      "$type": "ConfigAbility",
      "abilityName": "Monster_Regisvine_Fire_BossEvent_StageControl",
      "abilityMixins": [
        {
          "$type": "AttachModifierToSelfGlobalValueMixin",
          "globalValueKey": "_REGISVINE_STAGE",
          "gvInTalk": 0.0,
          "valueSteps": [-0.10000000149011612, 0.5, 1.5, 2.5, 3.5, 4.5, 5.5],
          "modifierNameSteps": [
            "Init_0",
            "HeadState_1",
            "ReadyForFireStorm_2",
            "RootStage_3",
            "Stun_4",
            "ReadyForRecovery_5"
          ]
        },
        {
          "$type": "AttachModifierToGlobalValueMixin",
          "globalValueKey": "_REGISVINE_STAGE",
          "valueSteps": [-0.10000000149011612, 3.5],
          "modifierNameSteps": ["CoreProtect"]
        }
      ],
      "abilitySpecials": {
        "stun_timer": 15.0,
        "sub_hurt_delta": 0.0,
        "core_state_sub_hurt_delta": 3.0
      },
      "modifiers": {
        "Init_0": {
          "modifierName": "",
          "elementDurability": 100.0,
          "onAdded": [
            {
              "$type": "SetAnimatorBool",
              "boolID": "IsRootCore"
            },
            {
              "$type": "GFFKENEJFFB",
              "intID": "Stage"
            }
          ]
        },
        "HeadState_1": {
          "modifierName": "",
          "elementDurability": 100.0,
          "onAdded": [
            {
              "$type": "BAKEBEKLLAC",
              "id": 31040003
            },
            {
              "$type": "SetAnimatorBool",
              "boolID": "IsRootCore"
            },
            {
              "$type": "GFFKENEJFFB",
              "intID": "Stage",
              "value": 1
            },
            {
              "$type": "EnableHitBoxByName",
              "hitBoxNames": ["HitBox_Core", "HitBox_Fruit"]
            },
            {
              "$type": "EnableHitBoxByName",
              "hitBoxNames": ["HitBox_Core_Critical"],
              "setEnable": true
            },
            {
              "$type": "SetGlobalValue",
              "value": 0.0,
              "key": "GV_EffigyChallenge_V5_Boss_DisableButtonT",
              "maxValue": 0.0,
              "minValue": 0.0
            },
            {
              "$type": "AttachEffect",
              "rotationDampTime": "Eff_Monster_Regisvine_Fire_Core_Normal",
              "PPPDJGDDOGD": 1.0,
              "AJDILHJFNKE": -1.0
            }
          ]
        },
        "ReadyForFireStorm_2": {
          "modifierName": "",
          "elementDurability": 100.0,
          "onAdded": [
            {
              "$type": "SetAnimatorBool",
              "boolID": "IsRootCore"
            },
            {
              "$type": "GFFKENEJFFB",
              "intID": "Stage",
              "value": 2
            },
            {
              "$type": "SetGlobalValue",
              "value": 1.0,
              "key": "GV_EffigyChallenge_V5_Boss_DisableButtonT",
              "maxValue": 0.0,
              "minValue": 0.0
            }
          ]
        },
        "RootStage_3": {
          "modifierName": "",
          "elementDurability": 100.0,
          "onAdded": [
            {
              "$type": "BAKEBEKLLAC",
              "id": 31040004
            },
            {
              "$type": "SetAnimatorBool",
              "boolID": "IsRootCore",
              "value": true
            },
            {
              "$type": "GFFKENEJFFB",
              "intID": "Stage",
              "value": 3
            },
            {
              "$type": "EnableHitBoxByName",
              "hitBoxNames": ["HitBox_Core", "HitBox_Fruit"],
              "setEnable": true
            },
            {
              "$type": "EnableHitBoxByName",
              "hitBoxNames": ["HitBox_Core_Critical"]
            },
            {
              "$type": "SetGlobalValue",
              "value": 0.0,
              "key": "GV_EffigyChallenge_V5_Boss_DisableButtonT",
              "maxValue": 0.0,
              "minValue": 0.0
            }
          ]
        },
        "Stun_4": {
          "modifierName": "",
          "elementDurability": 100.0,
          "onAdded": [
            {
              "$type": "SetAnimatorBool",
              "boolID": "IsRootCore"
            },
            {
              "$type": "GFFKENEJFFB",
              "intID": "Stage",
              "value": 4
            },
            {
              "$type": "EnableHitBoxByName",
              "hitBoxNames": ["HitBox_Core", "HitBox_Fruit"],
              "setEnable": true
            },
            {
              "$type": "EnableHitBoxByName",
              "hitBoxNames": ["HitBox_Core_Critical"]
            },
            {
              "$type": "Predicated",
              "targetPredicates": [
                {
                  "$type": "ByTargetGlobalValue",
                  "key": "SGV_EffigyChallenge_V5_AssistOptionSelected_3",
                  "value": 1.0
                }
              ],
              "successActions": [
                {
                  "$type": "SetOverrideMapValue",
                  "value": 21.0,
                  "overrideMapKey": "stun_timer",
                  "maxValue": 0.0,
                  "minValue": 0.0
                },
                {
                  "$type": "AttachModifier",
                  "modifierName": "StunHurtDelta"
                }
              ],
              "failActions": [
                {
                  "$type": "SetOverrideMapValue",
                  "value": 15.0,
                  "overrideMapKey": "stun_timer",
                  "maxValue": 0.0,
                  "minValue": 0.0
                }
              ]
            },
            {
              "$type": "AttachModifier",
              "modifierName": "StunTimer"
            },
            {
              "$type": "SetGlobalValue",
              "value": 1.0,
              "key": "GV_EffigyChallenge_V5_Boss_DisableButtonT",
              "maxValue": 0.0,
              "minValue": 0.0
            }
          ]
        },
        "ReadyForRecovery_5": {
          "modifierName": "",
          "elementDurability": 100.0,
          "onAdded": [
            {
              "$type": "SetAnimatorBool",
              "boolID": "IsRootCore"
            },
            {
              "$type": "GFFKENEJFFB",
              "intID": "Stage",
              "value": 5
            }
          ]
        },
        "CoreProtect": {
          "modifierName": "",
          "elementDurability": 100.0,
          "properties": {
            "Actor_PhysicalSubHurtDelta": "core_state_sub_hurt_delta",
            "Actor_FireSubHurtDelta": "core_state_sub_hurt_delta",
            "Actor_ElecSubHurtDelta": "core_state_sub_hurt_delta",
            "Actor_WaterSubHurtDelta": "core_state_sub_hurt_delta",
            "Actor_GrassSubHurtDelta": "core_state_sub_hurt_delta",
            "Actor_WindSubHurtDelta": "core_state_sub_hurt_delta",
            "Actor_IceSubHurtDelta": "core_state_sub_hurt_delta",
            "Actor_RockSubHurtDelta": "core_state_sub_hurt_delta"
          }
        },
        "StunHurtDelta": {
          "modifierName": "",
          "elementDurability": 100.0,
          "properties": {
            "Actor_PhysicalSubHurtDelta": "sub_hurt_delta",
            "Actor_FireSubHurtDelta": "sub_hurt_delta",
            "Actor_ElecSubHurtDelta": "sub_hurt_delta",
            "Actor_IceSubHurtDelta": "sub_hurt_delta",
            "Actor_WaterSubHurtDelta": "sub_hurt_delta",
            "Actor_GrassSubHurtDelta": "sub_hurt_delta",
            "Actor_WindSubHurtDelta": "sub_hurt_delta",
            "Actor_RockSubHurtDelta": "sub_hurt_delta"
          }
        },
        "StunTimer": {
          "modifierName": "",
          "elementDurability": 100.0,
          "thinkInterval": "stun_timer",
          "onThinkInterval": [
            {
              "$type": "FNPMFLOOCDD",
              "value": 5.0,
              "key": "_REGISVINE_STAGE",
              "maxValue": 0.0,
              "minValue": 0.0
            }
          ]
        }
      },
      "onAdded": [
        {
          "$type": "CreateGadget",
          "sightGroupWithOwner": true,
          "lifeByOwnerV2": true,
          "gadgetID": 42602049,
          "byServer": true
        },
        {
          "$type": "AttachAbilityStateResistance",
          "shieldHP": true,
          "resistanceBuffDebuffs": [
            "ElementFreeze",
            "Struggle",
            "ElementPetrifaction"
          ]
        },
        {
          "$type": "HMIDGKNOHJM",
          "renderNames": ["Core"],
          "setEnable": true
        },
        {
          "$type": "HMIDGKNOHJM",
          "renderNames": ["Core_Broken"]
        },
        {
          "$type": "SetGlobalValue",
          "value": 0.0,
          "key": "GV_EffigyChallenge_V5_Boss_DisableButtonT",
          "maxValue": 0.0,
          "minValue": 0.0
        }
      ],
      "onAbilityStart": [
        {
          "$type": "IBACDLDFCND",
          "enable": true,
          "specialCameraName": "StunFocus",
          "frameDelay": 1,
          "lockTrans": ""
        },
        {
          "$type": "FNPMFLOOCDD",
          "value": 2.0,
          "key": "_REGISVINE_STAGE",
          "maxValue": 0.0,
          "minValue": 0.0
        },
        {
          "$type": "SetAnimatorTrigger",
          "triggerID": "StageChange",
          "mpTriggerOnRemote": true
        },
        {
          "$type": "DamageByAttackValue",
          "attackInfo": {
            "attackTag": "",
            "attenuationTag": "",
            "attenuationGroup": "default",
            "hitPattern": {
              "onHitEffectName": "default",
              "hitImpulseY": "",
              "hitImpulseType": "LV0",
              "hitHaltTime": 0.10000000149011612,
              "hitHaltTimeScale": 0.05000000074505806
            }
          }
        },
        {
          "$type": "ActCameraRadialBlur",
          "cameraRadialBlur": {
            "power": 0.4000000059604645,
            "blurTime": 0.05000000074505806,
            "fadeTime": 0.20000000298023224
          }
        },
        {
          "$type": "ActCameraShake",
          "cameraShake": {
            "shakeRange": 1.2999999523162842,
            "shakeTime": 0.36000001430511475,
            "shakeDistance": 50.0,
            "extension": {
              "baseCycle": 0.36000001430511475,
              "cycleDamping": 0.0,
              "rangeAttenuation": 0.019999999552965164
            }
          }
        }
      ]
    }
  },
  {
    "Default": {
      "$type": "ConfigAbility",
      "abilityName": "Monster_Regisvine_Fire_BossEvent_StartCycle",
      "abilityMixins": [
        {
          "$type": "APJKOLPHCGH",
          "stateIDs": ["RevengeAttack", "Alert"],
          "exitActions": [
            {
              "$type": "FNPMFLOOCDD",
              "value": 1.0,
              "key": "_REGISVINE_STAGE",
              "maxValue": 0.0,
              "minValue": 0.0
            }
          ],
          "DGFCLAIDIFI": ""
        }
      ],
      "onAbilityStart": [
        {
          "$type": "DLEIPBPNAIM",
          "paramList": [1, 0, 0]
        },
        {
          "$type": "FNPMFLOOCDD",
          "value": 1.0,
          "key": "_REGISVINE_STAGE",
          "maxValue": 0.0,
          "minValue": 0.0
        }
      ]
    }
  },
  {
    "Default": {
      "$type": "ConfigAbility",
      "abilityName": "Monster_Regisvine_Fire_BossEvent_ShieldBreak",
      "onAbilityStart": [
        {
          "$type": "AHPEKICBIIL",
          "luaCallType": "CurGalleryControlGroup",
          "funcName": "SLC_EffigyChallenge_V5_SubChallengeAchieve",
          "param1": 0.0,
          "MGAMDEHMCOL": 0.0,
          "MMHOHAOGPLP": 0.0
        },
        {
          "$type": "FNPMFLOOCDD",
          "value": 4.0,
          "key": "_REGISVINE_STAGE",
          "maxValue": 0.0,
          "minValue": 0.0
        },
        {
          "$type": "SetAnimatorTrigger",
          "triggerID": "ShieldBreak",
          "mpTriggerOnRemote": true
        },
        {
          "$type": "FNPMFLOOCDD",
          "value": 0.0,
          "key": "_CAMERA_STATE",
          "maxValue": 0.0,
          "minValue": 0.0
        },
        {
          "$type": "DamageByAttackValue",
          "attackInfo": {
            "attackTag": "",
            "attenuationTag": "",
            "attenuationGroup": "default",
            "hitPattern": {
              "onHitEffectName": "default",
              "hitImpulseY": "",
              "hitImpulseType": "LV0",
              "hitHaltTime": 0.10000000149011612,
              "hitHaltTimeScale": 0.05000000074505806
            }
          }
        },
        {
          "$type": "ActCameraRadialBlur",
          "cameraRadialBlur": {
            "power": 0.4000000059604645,
            "blurTime": 0.05000000074505806,
            "fadeTime": 0.20000000298023224
          }
        },
        {
          "$type": "ActCameraShake",
          "cameraShake": {
            "shakeRange": 1.2999999523162842,
            "shakeTime": 0.36000001430511475,
            "shakeDistance": 50.0,
            "extension": {
              "baseCycle": 0.36000001430511475,
              "cycleDamping": 0.0,
              "rangeAttenuation": 0.019999999552965164
            }
          }
        },
        {
          "$type": "IBACDLDFCND",
          "enable": true,
          "specialCameraName": "StunFocus",
          "frameDelay": 1,
          "lockTrans": ""
        }
      ]
    }
  },
  {
    "Default": {
      "$type": "ConfigAbility",
      "abilityName": "Monster_Regisvine_Fire_BossEvent_HeadSkillSwitch_Enable",
      "onAbilityStart": [
        {
          "$type": "IDNGFEEBPAM",
          "boolID": "HeadSkillSwitch",
          "value": true
        }
      ]
    }
  },
  {
    "Default": {
      "$type": "ConfigAbility",
      "abilityName": "Monster_Regisvine_Fire_BossEvent_HeadSkillSwitch_Disable",
      "onAbilityStart": [
        {
          "$type": "IDNGFEEBPAM",
          "boolID": "HeadSkillSwitch"
        }
      ]
    }
  },
  {
    "Default": {
      "$type": "ConfigAbility",
      "abilityName": "Monster_Regisvine_Fire_BossEvent_ColliderManager",
      "abilityMixins": [
        {
          "$type": "AttachToMultiNormalizedTimeMixin",
          "normalizedStateIDList": [
            {
              "stateID": "HeadAttack",
              "normalizeStart": 0.4129999876022339,
              "normalizeEnd": 0.6000000238418579
            },
            {
              "stateID": "HeadCombo_Attack01",
              "normalizeStart": 0.4129999876022339,
              "normalizeEnd": 0.6000000238418579
            },
            {
              "stateID": "HeadCombo_Attack02",
              "normalizeStart": 0.4129999876022339,
              "normalizeEnd": 0.6000000238418579
            },
            {
              "stateID": "MeleeCombo",
              "normalizeStart": 0.46799999475479126,
              "normalizeEnd": 0.8309999704360962
            },
            {
              "stateID": "HeadCombo_Final",
              "normalizeStart": 0.46799999475479126,
              "normalizeEnd": 0.8309999704360962
            }
          ],
          "modifierName": "HeadDown",
          "DGFCLAIDIFI": ""
        },
        {
          "$type": "AttachToMultiNormalizedTimeMixin",
          "normalizedStateIDList": [
            {
              "stateID": "FlameLazer_Attack02",
              "normalizeStart": 0.1080000028014183,
              "normalizeEnd": 0.7699999809265137
            },
            {
              "stateID": "FlameLazer_Attack03",
              "normalizeStart": 0.1080000028014183,
              "normalizeEnd": 0.7699999809265137
            }
          ],
          "modifierName": "HeadLazer",
          "DGFCLAIDIFI": ""
        },
        {
          "$type": "AttachToMultiNormalizedTimeMixin",
          "normalizedStateIDList": [
            {
              "stateID": "ShieldBreak",
              "normalizeStart": 0.7200000286102295
            },
            {
              "stateID": "Stun"
            },
            {
              "stateID": "RevengeAttack",
              "normalizeEnd": 0.15000000596046448
            }
          ],
          "modifierName": "StunPush",
          "DGFCLAIDIFI": ""
        }
      ],
      "modifiers": {
        "HeadDown": {
          "modifierName": "",
          "elementDurability": 100.0,
          "onAdded": [
            {
              "$type": "EnablePushColliderName",
              "pushColliderNames": ["PushCollider_Head"],
              "setEnable": true
            }
          ],
          "onRemoved": [
            {
              "$type": "EnablePushColliderName",
              "pushColliderNames": ["PushCollider_Head"]
            }
          ]
        },
        "StunPush": {
          "modifierName": "",
          "elementDurability": 100.0,
          "onAdded": [
            {
              "$type": "EnablePushColliderName",
              "pushColliderNames": [
                "PushCollider_Faint01",
                "PushCollider_Faint01_Extra"
              ],
              "setEnable": true
            }
          ],
          "onRemoved": [
            {
              "$type": "EnablePushColliderName",
              "pushColliderNames": [
                "PushCollider_Faint01",
                "PushCollider_Faint01_Extra"
              ]
            }
          ]
        },
        "HeadLazer": {
          "modifierName": "",
          "elementDurability": 100.0,
          "onAdded": [
            {
              "$type": "EnablePushColliderName",
              "pushColliderNames": ["PushCollider_LazerAttack"],
              "setEnable": true
            }
          ],
          "onRemoved": [
            {
              "$type": "EnablePushColliderName",
              "pushColliderNames": ["PushCollider_LazerAttack"]
            }
          ]
        }
      }
    }
  },
  {
    "Default": {
      "$type": "ConfigAbility",
      "abilityName": "Monster_Regisvine_Fire_BossEvent_CameraManager",
      "abilityMixins": [
        {
          "$type": "AttachModifierToSelfGlobalValueMixin",
          "globalValueKey": "_CAMERA_STATE",
          "gvInTalk": -1.0,
          "valueSteps": [-0.5, 0.5, 1.5, 2.5, 3.5],
          "modifierNameSteps": [
            "Camera_Default",
            "Camera_FireStormStartView",
            "Camera_FireStormCrossFireView",
            "Camera_LavaBlastCharge"
          ]
        },
        {
          "$type": "AOKOIIHJJPJ",
          "alertness": [2, 3],
          "modifierName": "Camera_Manager"
        }
      ],
      "modifiers": {
        "Camera_Manager": {
          "modifierName": "",
          "elementDurability": 100.0,
          "modifierMixins": [
            {
              "$type": "APJKOLPHCGH",
              "stateIDs": ["Standby"],
              "enterActions": [
                {
                  "$type": "FNPMFLOOCDD",
                  "predicates": [
                    {
                      "$type": "ByNot",
                      "predicates": [
                        {
                          "$type": "ByTargetGlobalValue",
                          "key": "_CAMERA_STATE",
                          "value": 0.0
                        }
                      ]
                    }
                  ],
                  "value": 0.0,
                  "key": "_CAMERA_STATE",
                  "maxValue": 0.0,
                  "minValue": 0.0
                }
              ],
              "DGFCLAIDIFI": ""
            },
            {
              "$type": "APJKOLPHCGH",
              "stateIDs": ["FlameLazer_Attack01"],
              "enterActions": [
                {
                  "$type": "FNPMFLOOCDD",
                  "value": 3.0,
                  "key": "_CAMERA_STATE",
                  "maxValue": 0.0,
                  "minValue": 0.0
                }
              ],
              "exitActions": [
                {
                  "$type": "FNPMFLOOCDD",
                  "value": 0.0,
                  "key": "_CAMERA_STATE",
                  "maxValue": 0.0,
                  "minValue": 0.0
                }
              ],
              "DGFCLAIDIFI": ""
            }
          ],
          "onAdded": [
            {
              "$type": "FNPMFLOOCDD",
              "value": 0.0,
              "key": "_CAMERA_STATE",
              "maxValue": 0.0,
              "minValue": 0.0
            }
          ],
          "onReconnect": [
            {
              "$type": "IBACDLDFCND",
              "enable": true,
              "specialCameraName": "BasicView",
              "frameDelay": 1,
              "lockTrans": ""
            },
            {
              "$type": "FNPMFLOOCDD",
              "value": 0.0,
              "key": "_CAMERA_STATE",
              "maxValue": 0.0,
              "minValue": 0.0
            }
          ]
        },
        "Camera_Default": {
          "modifierName": "",
          "elementDurability": 100.0,
          "onAdded": [
            {
              "$type": "IBACDLDFCND",
              "enable": true,
              "specialCameraName": "BasicView",
              "frameDelay": 1,
              "lockTrans": ""
            }
          ]
        },
        "Camera_FireStormStartView": {
          "modifierName": "",
          "elementDurability": 100.0,
          "onAdded": [
            {
              "$type": "IBACDLDFCND",
              "enable": true,
              "specialCameraName": "FireStormStartView",
              "frameDelay": 1,
              "lockTrans": ""
            }
          ]
        },
        "Camera_FireStormCrossFireView": {
          "modifierName": "",
          "elementDurability": 100.0,
          "onAdded": [
            {
              "$type": "IBACDLDFCND",
              "enable": true,
              "specialCameraName": "FireStormCrossFireView",
              "frameDelay": 1,
              "lockTrans": ""
            }
          ]
        },
        "Camera_LavaBlastCharge": {
          "modifierName": "",
          "elementDurability": 100.0,
          "onAdded": [
            {
              "$type": "IBACDLDFCND",
              "enable": true,
              "specialCameraName": "LavaBlastCharge",
              "frameDelay": 1,
              "lockTrans": ""
            }
          ]
        }
      }
    }
  },
  {
    "Default": {
      "$type": "ConfigAbility",
      "abilityName": "Monster_Regisvine_Fire_BossEvent_TickToFindDummyGadget",
      "modifiers": {
        "Tick_To_Find_DummyGadget": {
          "modifierName": "",
          "elementDurability": 100.0,
          "thinkInterval": 2.0,
          "onAdded": [
            {
              "$type": "KGKOLOLDKHH",
              "partRootNames": ["BaseControl"],
              "enable": true
            },
            {
              "$type": "ApplyModifier",
              "modifierName": "HighFreq_Tick"
            }
          ],
          "onThinkInterval": [
            {
              "$type": "GPDAIGICDKI",
              "otherTargets": {
                "$type": "SelectTargetsByChildren",
                "configID": 42602001
              },
              "partRootNames": ["BaseControl"]
            }
          ],
          "onKill": [
            {
              "$type": "KGKOLOLDKHH",
              "partRootNames": ["BaseControl"]
            }
          ]
        },
        "HighFreq_Tick": {
          "modifierName": "",
          "duration": 5.0,
          "elementDurability": 100.0,
          "thinkInterval": 0.019999999552965164,
          "onThinkInterval": [
            {
              "$type": "GPDAIGICDKI",
              "otherTargets": {
                "$type": "SelectTargetsByChildren",
                "configID": 42602001
              },
              "partRootNames": ["BaseControl"]
            }
          ]
        }
      },
      "onAdded": [
        {
          "$type": "ApplyModifier",
          "modifierName": "Tick_To_Find_DummyGadget"
        }
      ]
    }
  },
  {
    "Default": {
      "$type": "ConfigAbility",
      "abilityName": "Monster_Regisvine_Fire_BossEvent_LavaBlastLogic",
      "abilityMixins": [
        {
          "$type": "AttachToAnimatorStateIDMixin",
          "stateIDs": ["LavaBlast_Loop", "LavaBlast_Ready"],
          "modifierName": "LavaBlast_MonsterVFX",
          "DGFCLAIDIFI": ""
        },
        {
          "$type": "DIDNLIKKLLF",
          "stateIDs": ["LavaBlast_Attack"],
          "enterActions": [
            {
              "$type": "ActCameraShake",
              "cameraShake": {
                "shakeRange": 1.5,
                "shakeTime": 0.36000001430511475,
                "shakeDistance": 50.0,
                "extension": {
                  "baseCycle": 0.23999999463558197,
                  "cycleDamping": 0.0,
                  "rangeAttenuation": 0.019999999552965164
                }
              }
            },
            {
              "$type": "TriggerBullet",
              "bulletID": 42602052
            }
          ],
          "DGFCLAIDIFI": ""
        },
        {
          "$type": "AttachToNormalizedTimeMixin",
          "stateID": "FlameLazer_Attack02",
          "modifierName": "LazerAttack_Damage",
          "normalizeStart": 0.125,
          "normalizeEnd": 0.33000001311302185,
          "DGFCLAIDIFI": ""
        }
      ],
      "modifiers": {
        "LazerAttack_Damage": {
          "modifierName": "",
          "elementDurability": 100.0,
          "thinkInterval": 0.15000000596046448,
          "onAdded": [
            {
              "$type": "ActCameraRadialBlur",
              "cameraRadialBlur": {
                "power": 2.4000000953674316,
                "blurTime": 0.20999999344348907,
                "fadeTime": 0.30000001192092896
              }
            },
            {
              "$type": "TriggerAttackEvent",
              "attackEvent": {
                "attackPattern": {
                  "$type": "ConfigAttackCircle",
                  "triggerType": "TriggerNoRepeat",
                  "born": {
                    "$type": "ConfigBornBySelf",
                    "offset": {
                      "z": 4.75
                    },
                    "useRotation": true
                  },
                  "height": 3.0,
                  "fanAngle": 25.0,
                  "radius": 21.0,
                  "MMBCLAEOEFB": 3.799999952316284
                },
                "attackInfo": {
                  "attackTag": "",
                  "attenuationTag": "LazerAttack",
                  "attenuationGroup": "Sandworm_Stage02_TailStormAttack",
                  "attackProperty": {
                    "actorGrassSubHurtDelta": 0.8999999761581421,
                    "actorWindSubHurtDelta": 0.0,
                    "elementType": "Fire",
                    "elementDurability": 25.0,
                    "strikeType": "Default",
                    "enBreak": 200.0,
                    "attackType": "Range",
                    "GLKMCMDJBIK": 0.0
                  },
                  "hitPattern": {
                    "onHitEffectName": "default",
                    "hitImpulseY": "",
                    "hitImpulseType": "",
                    "overrideHitImpulse": {
                      "hitLevel": "Heavy",
                      "IMIJMPGJOGG": 700.0
                    }
                  }
                }
              },
              "targetType": "Enemy"
            }
          ],
          "onThinkInterval": [
            {
              "$type": "TriggerAttackEvent",
              "attackEvent": {
                "attackPattern": {
                  "$type": "ConfigAttackCircle",
                  "triggerType": "TriggerNoRepeat",
                  "born": {
                    "$type": "ConfigBornBySelf",
                    "offset": {
                      "z": 4.75
                    },
                    "useRotation": true
                  },
                  "height": 3.0,
                  "fanAngle": 25.0,
                  "radius": 21.0,
                  "MMBCLAEOEFB": 3.799999952316284
                },
                "attackInfo": {
                  "attackTag": "",
                  "attenuationTag": "LazerAttack",
                  "attenuationGroup": "Sandworm_Stage02_TailStormAttack",
                  "attackProperty": {
                    "actorGrassSubHurtDelta": 0.699999988079071,
                    "actorWindSubHurtDelta": 0.0,
                    "elementType": "Fire",
                    "elementDurability": 25.0,
                    "strikeType": "Default",
                    "enBreak": 5.0,
                    "attackType": "Range",
                    "GLKMCMDJBIK": 0.0
                  },
                  "hitPattern": {
                    "onHitEffectName": "default",
                    "hitImpulseY": "",
                    "hitImpulseType": "LV0"
                  }
                }
              },
              "targetType": "Enemy"
            }
          ]
        },
        "LavaBlast_MonsterVFX": {
          "modifierName": "",
          "elementDurability": 100.0,
          "onAdded": [
            {
              "$type": "KGKOLOLDKHH",
              "partRootNames": ["BlazeSeedSource"],
              "enable": true
            },
            {
              "$type": "AttachEffect",
              "rotationDampTime": "Eff_Monster_Regisvine_Fire_BossEvent_LavaBlast_Charge",
              "PPPDJGDDOGD": 1.0,
              "AJDILHJFNKE": -1.0
            },
            {
              "$type": "AttachEffect",
              "rotationDampTime": "Eff_Monster_Regisvine_Fire_BossEvent_LavaBlast_Charge_AttackShape",
              "PPPDJGDDOGD": 1.0,
              "AJDILHJFNKE": -1.0
            },
            {
              "$type": "AttachEffect",
              "rotationDampTime": "Eff_Monster_Regisvine_Fire_SummonBlazeSeed_03",
              "PPPDJGDDOGD": 1.0,
              "AJDILHJFNKE": -1.0
            },
            {
              "$type": "FNPMFLOOCDD",
              "value": 3.0,
              "key": "_CAMERA_STATE",
              "maxValue": 0.0,
              "minValue": 0.0
            }
          ],
          "onRemoved": [
            {
              "$type": "KGKOLOLDKHH",
              "partRootNames": ["BlazeSeedSource"]
            },
            {
              "$type": "FNPMFLOOCDD",
              "value": 0.0,
              "key": "_CAMERA_STATE",
              "maxValue": 0.0,
              "minValue": 0.0
            }
          ]
        }
      }
    }
  },
  {
    "Default": {
      "$type": "ConfigAbility",
      "abilityName": "Monster_Regisvine_Fire_BossEvent_FireStormLogic",
      "abilityMixins": [
        {
          "$type": "AttachToAnimatorStateIDMixin",
          "stateIDs": ["FireStorm_Loop"],
          "modifierName": "FireStorm_VFX",
          "DGFCLAIDIFI": ""
        },
        {
          "$type": "APJKOLPHCGH",
          "stateIDs": ["FireStorm_BS"],
          "enterActions": [
            {
              "$type": "FNPMFLOOCDD",
              "value": 1.0,
              "key": "_CAMERA_STATE",
              "maxValue": 0.0,
              "minValue": 0.0
            },
            {
              "$type": "FireEffect",
              "rotationDampTime": "Eff_Monster_Regisvine_Fire_MissileAttack_01",
              "PPPDJGDDOGD": 1.0,
              "AJDILHJFNKE": -1.0
            }
          ],
          "DGFCLAIDIFI": ""
        }
      ],
      "modifiers": {
        "WindZoneBurst": {
          "modifierName": "",
          "duration": 1.2000000476837158,
          "elementDurability": 100.0,
          "modifierMixins": [
            {
              "$type": "WindZoneMixin",
              "shapeName": "CircleR24",
              "strength": -90.0,
              "IAELBHDMINN": 0.5,
              "MMBCLAEOEFB": 0.0,
              "targetType": "Enemy",
              "predicates": [
                {
                  "$type": "ByEntityTypes",
                  "entityTypes": ["Avatar"]
                }
              ],
              "modifierName": "",
              "forceGrowth": 1000.0
            }
          ],
          "onAdded": [
            {
              "$type": "ActCameraRadialBlur",
              "cameraRadialBlur": {
                "power": 5.0,
                "blurTime": 0.6000000238418579,
                "fadeTime": 0.4399999976158142
              }
            },
            {
              "$type": "ApplyModifier",
              "otherTargets": {
                "$type": "SelectTargetsByShape",
                "shapeName": "CircleR10H10",
                "campTargetType": "Enemy",
                "doOffStage": 1.0
              },
              "predicates": [
                {
                  "$type": "ByEntityTypes",
                  "entityTypes": ["Avatar", "Monster", "Partner", "Gadget"]
                }
              ],
              "modifierName": "Force_Push_Off"
            }
          ]
        },
        "Force_Push_Off": {
          "modifierName": "",
          "duration": 0.10000000149011612,
          "elementDurability": 100.0,
          "onAdded": [
            {
              "$type": "DamageByAttackValue",
              "attackInfo": {
                "attackTag": "Regisvine_SurroundingFire",
                "attenuationTag": "",
                "attenuationGroup": "Regisvine_SurroundingFire",
                "attackProperty": {
                  "actorGrassSubHurtDelta": 0.0,
                  "actorWindSubHurtDelta": 0.0,
                  "elementDurability": 100.0,
                  "enBreak": 500.0,
                  "GLKMCMDJBIK": 0.0
                },
                "hitPattern": {
                  "onHitEffectName": "default",
                  "hitImpulseY": "",
                  "hitImpulseType": "",
                  "overrideHitImpulse": {
                    "hitLevel": "Air",
                    "BPCDKKBKOBM": 500.0
                  }
                },
                "forceCameraShake": true,
                "cameraShake": {
                  "shakeType": "HitVector",
                  "shakeRange": 5.0,
                  "shakeTime": 0.800000011920929,
                  "shakeDistance": 40.0,
                  "extension": {
                    "baseCycle": 0.4000000059604645,
                    "cycleDamping": 0.699999988079071
                  }
                }
              }
            }
          ]
        },
        "FireStorm_VFX": {
          "modifierName": "",
          "elementDurability": 100.0,
          "modifierMixins": [
            {
              "$type": "WindZoneMixin",
              "shapeName": "CircleR24",
              "strength": -2.5999999046325684,
              "IAELBHDMINN": 0.949999988079071,
              "MMBCLAEOEFB": 6.5,
              "targetType": "Enemy",
              "predicates": [
                {
                  "$type": "ByEntityTypes",
                  "entityTypes": ["Avatar", "Monster", "Partner", "Gadget"]
                }
              ],
              "modifierName": ""
            }
          ],
          "onAdded": [
            {
              "$type": "FNPMFLOOCDD",
              "value": 0.0,
              "key": "_FIRE_STORM_DESTROY",
              "maxValue": 0.0,
              "minValue": 0.0
            },
            {
              "$type": "FNPMFLOOCDD",
              "value": 2.0,
              "key": "_CAMERA_STATE",
              "maxValue": 0.0,
              "minValue": 0.0
            },
            {
              "$type": "AttachEffect",
              "rotationDampTime": "Eff_Monster_Regisvine_Fire_MissileAttack_02",
              "PPPDJGDDOGD": 1.0,
              "AJDILHJFNKE": -1.0
            },
            {
              "$type": "CreateGadget",
              "lifeByOwnerV2": true,
              "gadgetID": 42602050
            }
          ],
          "onRemoved": [
            {
              "$type": "FNPMFLOOCDD",
              "value": 1.0,
              "key": "_FIRE_STORM_DESTROY",
              "maxValue": 0.0,
              "minValue": 0.0
            },
            {
              "$type": "FNPMFLOOCDD",
              "value": 0.0,
              "key": "_CAMERA_STATE",
              "maxValue": 0.0,
              "minValue": 0.0
            },
            {
              "$type": "PFIOPNPNADE",
              "id": 31040004
            }
          ]
        }
      },
      "onAdded": [
        {
          "$type": "FNPMFLOOCDD",
          "value": 1.0,
          "key": "_FIRE_STORM_DESTROY",
          "maxValue": 0.0,
          "minValue": 0.0
        }
      ],
      "onAbilityStart": [
        {
          "$type": "ApplyModifier",
          "modifierName": "WindZoneBurst"
        },
        {
          "$type": "FNPMFLOOCDD",
          "value": 3.0,
          "key": "_REGISVINE_STAGE",
          "maxValue": 0.0,
          "minValue": 0.0
        },
        {
          "$type": "DLEIPBPNAIM",
          "paramList": [1, 1, 0]
        },
        {
          "$type": "FNPMFLOOCDD",
          "value": 0.0,
          "key": "_FIRE_STORM_DESTROY",
          "maxValue": 0.0,
          "minValue": 0.0
        }
      ]
    }
  }
]
