[
  {
    "Default": {
      "$type": "ConfigAbility",
      "abilityName": "Slime_Rock_01_RockShield",
      "modifiers": {
        "UNIQUE_RockShield": {
          "stacking": "Unique",
          "modifierName": "",
          "forceTriggerWhenChangeAuthority": true,
          "elementType": "Rock",
          "elementDurability": 200.0,
          "onAdded": [
            {
              "$type": "TriggerSetRenderersEnable",
              "renderNames": ["Brk02", "Brk03", "Brk04", "Brk05"],
              "setEnable": true
            },
            {
              "$type": "IDNGFEEBPAM",
              "boolID": "RockState",
              "value": true
            }
          ]
        },
        "ShieldReborn": {
          "modifierName": "",
          "duration": 10.0,
          "elementDurability": 100.0,
          "onAdded": [
            {
              "$type": "IDNGFEEBPAM",
              "boolID": "RebornGCD",
              "value": true
            }
          ],
          "onRemoved": [
            {
              "$type": "IDNGFEEBPAM",
              "boolID": "RebornGCD"
            }
          ]
        }
      },
      "onAdded": [
        {
          "$type": "AttachModifier",
          "modifierName": "UNIQUE_RockShield"
        }
      ],
      "onAbilityStart": [
        {
          "$type": "AttachModifier",
          "modifierName": "UNIQUE_RockShield"
        }
      ]
    }
  },
  {
    "Default": {
      "$type": "ConfigAbility",
      "abilityName": "Slime_Rock_02_RockShield",
      "modifiers": {
        "UNIQUE_RockShield": {
          "stacking": "Unique",
          "modifierName": "",
          "forceTriggerWhenChangeAuthority": true,
          "elementDurability": 100.0,
          "modifierMixins": [
            {
              "$type": "EliteShieldMixin",
              "shieldType": "default",
              "DLBHHADKGJN": 360.0,
              "maxShieldByHPRatio": 1.0,
              "costShieldRatioName": "",
              "showDamageText": ""
            },
            {
              "$type": "AttachToStateIDMixin",
              "stateIDs": ["BeHit"],
              "modifierName": "HitOnShield_Trigger",
              "DGFCLAIDIFI": ""
            }
          ],
          "onAdded": [
            {
              "$type": "TriggerSetRenderersEnable",
              "renderNames": ["Brk02", "Brk03", "Brk04", "Brk05"],
              "setEnable": true
            },
            {
              "$type": "IDNGFEEBPAM",
              "boolID": "RockState",
              "value": true
            },
            {
              "$type": "EnableHitBoxByName",
              "hitBoxNames": ["HitBoxShield"],
              "setEnable": true
            },
            {
              "$type": "EnableHitBoxByName",
              "hitBoxNames": ["HitBox"]
            }
          ],
          "onRemoved": [
            {
              "$type": "FireEffect",
              "rotationDampTime": "Eff_Monster_Slime_Rock_ShieldDestroy_Middle",
              "PPPDJGDDOGD": 1.0,
              "AJDILHJFNKE": -1.0
            },
            {
              "$type": "TriggerSetRenderersEnable",
              "renderNames": ["Brk02", "Brk03", "Brk04", "Brk05"]
            },
            {
              "$type": "IDNGFEEBPAM",
              "boolID": "RockState"
            },
            {
              "$type": "EnableHitBoxByName",
              "hitBoxNames": ["HitBoxShield"]
            },
            {
              "$type": "EnableHitBoxByName",
              "hitBoxNames": ["HitBox"],
              "setEnable": true
            },
            {
              "$type": "ApplyModifier",
              "modifierName": "ShieldReborn"
            }
          ]
        },
        "ShieldReborn": {
          "modifierName": "",
          "duration": 10.0,
          "elementDurability": 100.0,
          "onAdded": [
            {
              "$type": "IDNGFEEBPAM",
              "boolID": "RebornGCD",
              "value": true
            }
          ],
          "onRemoved": [
            {
              "$type": "IDNGFEEBPAM",
              "boolID": "RebornGCD"
            }
          ]
        },
        "HitOnShield_Trigger": {
          "modifierName": "",
          "duration": 0.10000000149011612,
          "elementDurability": 100.0,
          "onAdded": [
            {
              "$type": "FireEffect",
              "rotationDampTime": "Eff_Monster_Slime_Rock_ShieldDestroy_Large",
              "PPPDJGDDOGD": 1.0,
              "AJDILHJFNKE": -1.0
            }
          ]
        }
      },
      "onAdded": [
        {
          "$type": "AttachModifier",
          "modifierName": "UNIQUE_RockShield"
        }
      ],
      "onAbilityStart": [
        {
          "$type": "AttachModifier",
          "modifierName": "UNIQUE_RockShield"
        }
      ]
    }
  },
  {
    "Default": {
      "$type": "ConfigAbility",
      "abilityName": "Slime_Rock_03_RockShield",
      "abilitySpecials": {
        "ElementShield_DurabilityImprove": 0.0,
        "ElementShield_GapReduce": 0.0
      },
      "modifiers": {
        "UNIQUE_RockShield": {
          "stacking": "Unique",
          "modifierName": "",
          "forceTriggerWhenChangeAuthority": true,
          "elementType": "Rock",
          "elementDurability": [
            200.0,
            "ElementShield_DurabilityImprove",
            "MUL",
            200.0,
            "ADD"
          ],
          "modifierMixins": [
            {
              "$type": "ReplaceEventPatternMixin",
              "oldPatterns": [
                "Monster_Slime_Rock_03_NormalAttack",
                "Monster_Slime_Rock_JumpAttack"
              ],
              "newPatterns": [
                "Monster_Slime_Rock_03_NormalAttack_Shield",
                "Monster_Slime_Rock_JumpAttack_Shield"
              ]
            },
            {
              "$type": "AAPIOACHKCI",
              "elementType": "Rock",
              "showDamageText": "",
              "DLBHHADKGJN": 360.0,
              "maxShieldByHPRatio": 1.0,
              "shieldAngle": 0.20000000298023224,
              "useMutiPlayerFixData": true,
              "updateShieldByMaxHp": true
            },
            {
              "$type": "AttachModifierToElementDurabilityMixin",
              "valueSteps": [
                0.5,
                [60.0, "ElementShield_DurabilityImprove", "MUL", 60.0, "ADD"],
                [120.0, "ElementShield_DurabilityImprove", "MUL", 120.0, "ADD"],
                [200.0, "ElementShield_DurabilityImprove", "MUL", 200.5, "ADD"]
              ],
              "modifierNameSteps": [
                "Shield_Stage03",
                "Shield_Stage02",
                "Shield_Stage01"
              ]
            }
          ],
          "properties": {
            "Actor_EndureDelta": 0.4000000059604645
          },
          "onAdded": [
            {
              "$type": "IDNGFEEBPAM",
              "boolID": "RockState",
              "value": true
            },
            {
              "$type": "EnableHitBoxByName",
              "hitBoxNames": ["HitBoxShield"],
              "setEnable": true
            },
            {
              "$type": "EnableHitBoxByName",
              "hitBoxNames": ["HitBox"]
            }
          ],
          "onRemoved": [
            {
              "$type": "IDNGFEEBPAM",
              "boolID": "RockState"
            },
            {
              "$type": "AHPEKICBIIL",
              "predicates": [
                {
                  "$type": "ByTargetGlobalValue",
                  "target": "Self",
                  "key": "ShieldActivity",
                  "value": 0.0,
                  "compareType": "MoreThan"
                }
              ],
              "luaCallType": "FromGroup",
              "funcName": "SLC_BuffDungeon_50_Add_Counter",
              "param1": 0.0,
              "MGAMDEHMCOL": 0.0,
              "MMHOHAOGPLP": 0.0
            },
            {
              "$type": "EnableHitBoxByName",
              "hitBoxNames": ["HitBoxShield"]
            },
            {
              "$type": "EnableHitBoxByName",
              "hitBoxNames": ["HitBox"],
              "setEnable": true
            },
            {
              "$type": "ApplyModifier",
              "modifierName": "ShieldReborn"
            },
            {
              "$type": "HCLAKBJKPLE",
              "watcherId": 82004,
              "inThreatListOnly": true
            }
          ],
          "onBeingHit": [
            {
              "$type": "FireEffect",
              "rotationDampTime": "Eff_Monster_Slime_Rock_ShieldHit",
              "PPPDJGDDOGD": 1.0,
              "AJDILHJFNKE": -1.0
            }
          ]
        },
        "ShieldReborn": {
          "modifierName": "",
          "duration": [
            18.0,
            "ElementShield_GapReduce",
            "MUL",
            18.0,
            "ADD"
          ],
          "elementDurability": 100.0,
          "onAdded": [
            {
              "$type": "IDNGFEEBPAM",
              "boolID": "RebornGCD",
              "value": true
            }
          ],
          "onRemoved": [
            {
              "$type": "IDNGFEEBPAM",
              "boolID": "RebornGCD"
            }
          ]
        },
        "Shield_Stage01": {
          "modifierName": "",
          "elementDurability": 100.0,
          "onAdded": [
            {
              "$type": "TriggerSetRenderersEnable",
              "renderNames": ["Stone01"],
              "setEnable": true
            }
          ],
          "onRemoved": [
            {
              "$type": "TriggerSetRenderersEnable",
              "renderNames": ["Stone01"]
            },
            {
              "$type": "FireEffect",
              "rotationDampTime": "Eff_Monster_Slime_Rock_ShieldDestroy_Large_Stage01",
              "PPPDJGDDOGD": 1.0,
              "AJDILHJFNKE": -1.0
            }
          ]
        },
        "Shield_Stage02": {
          "modifierName": "",
          "elementDurability": 100.0,
          "onAdded": [
            {
              "$type": "TriggerSetRenderersEnable",
              "renderNames": ["Stone02"],
              "setEnable": true
            }
          ],
          "onRemoved": [
            {
              "$type": "TriggerSetRenderersEnable",
              "renderNames": ["Stone02"]
            },
            {
              "$type": "FireEffect",
              "rotationDampTime": "Eff_Monster_Slime_Rock_ShieldDestroy_Large_Stage02",
              "PPPDJGDDOGD": 1.0,
              "AJDILHJFNKE": -1.0
            }
          ]
        },
        "Shield_Stage03": {
          "modifierName": "",
          "elementDurability": 100.0,
          "onAdded": [
            {
              "$type": "TriggerSetRenderersEnable",
              "renderNames": ["Stone03"],
              "setEnable": true
            }
          ],
          "onRemoved": [
            {
              "$type": "TriggerSetRenderersEnable",
              "renderNames": ["Stone03"]
            },
            {
              "$type": "FireEffect",
              "rotationDampTime": "Eff_Monster_Slime_Rock_ShieldDestroy_Large_Stage03",
              "PPPDJGDDOGD": 1.0,
              "AJDILHJFNKE": -1.0
            }
          ]
        }
      },
      "onAdded": [
        {
          "$type": "SetGlobalValueToOverrideMap",
          "globalValueKey": "_MONSTERAFFIX_ELEMENTSHIELD_DURABILITYIMPROVE",
          "overrideMapKey": "ElementShield_DurabilityImprove"
        },
        {
          "$type": "SetGlobalValueToOverrideMap",
          "globalValueKey": "_MONSTERAFFIX_ELEMENTSHIELD_GAPREDUCE",
          "overrideMapKey": "ElementShield_GapReduce"
        },
        {
          "$type": "AttachModifier",
          "modifierName": "UNIQUE_RockShield"
        }
      ],
      "onAbilityStart": [
        {
          "$type": "AttachModifier",
          "modifierName": "UNIQUE_RockShield"
        }
      ]
    }
  },
  {
    "Default": {
      "$type": "ConfigAbility",
      "abilityName": "Slime_Rock_TestTool_RockShieldDestroy",
      "onAbilityStart": [
        {
          "$type": "RemoveUniqueModifier",
          "modifierName": "UNIQUE_RockShield"
        }
      ]
    }
  },
  {
    "Default": {
      "$type": "ConfigAbility",
      "abilityName": "Slime_Rock_JumpGround_castShadow",
      "onAbilityStart": [
        {
          "$type": "ActCameraShake",
          "cameraShake": {
            "shakeType": "CustomVector",
            "shakeRange": 0.05999999865889549,
            "shakeTime": 0.15000000596046448,
            "shakeDir": {
              "y": 1.0
            }
          }
        }
      ]
    }
  },
  {
    "Default": {
      "$type": "ConfigAbility",
      "abilityName": "Slime_Rock_JumpGround_Alert",
      "abilityMixins": [
        {
          "$type": "AttachToNormalizedTimeMixin",
          "stateID": "JumpAttack",
          "modifierName": "JumpCollider",
          "normalizeStart": 0.3449999988079071,
          "normalizeEnd": 0.7400000095367432,
          "DGFCLAIDIFI": ""
        }
      ],
      "modifiers": {
        "JumpGround_Alert": {
          "modifierName": "",
          "duration": 1.0,
          "elementDurability": 100.0,
          "onAdded": [
            {
              "$type": "FireEffect",
              "rotationDampTime": "Eff_Monster_Slime_Fire_JumpGround_Alert",
              "born": {
                "$type": "HCHAOBKOELI"
              },
              "PPPDJGDDOGD": 1.0,
              "AJDILHJFNKE": -1.0
            }
          ]
        },
        "JumpCollider": {
          "modifierName": "",
          "elementDurability": 100.0,
          "modifierMixins": [
            {
              "$type": "AttachActionToModifierMixin",
              "onAdded": [
                {
                  "$type": "IEJIAEEJHGE"
                },
                {
                  "$type": "EnablePushColliderName",
                  "pushColliderNames": ["PushCollider"]
                }
              ],
              "onRemoved": [
                {
                  "$type": "IEJIAEEJHGE",
                  "castShadow": true
                },
                {
                  "$type": "EnablePushColliderName",
                  "pushColliderNames": ["PushCollider"],
                  "setEnable": true
                }
              ]
            }
          ]
        }
      },
      "onAbilityStart": [
        {
          "$type": "ApplyModifier",
          "modifierName": "JumpGround_Alert"
        }
      ]
    }
  },
  {
    "Default": {
      "$type": "ConfigAbility",
      "abilityName": "Slime_Rock_JumpGround_Attack",
      "modifiers": {
        "UNIQUE_MonsterEliteAffix_DefaultState": {
          "modifierName": "",
          "forceTriggerWhenChangeAuthority": true,
          "elementDurability": 100.0,
          "onAdded": [
            {
              "$type": "HNGKOKDJKDL",
              "predicates": [
                {
                  "$type": "ByTargetGlobalValue",
                  "key": "GV_TD_MONSTER_SLIME_SHIELDREBORN",
                  "value": 0.0,
                  "compareType": "NoneOrEqual"
                }
              ],
              "skillEliteSetID": 1
            },
            {
              "$type": "HNGKOKDJKDL",
              "predicates": [
                {
                  "$type": "ByTargetGlobalValue",
                  "key": "GV_TD_MONSTER_SLIME_SHIELDREBORN",
                  "value": 1.0
                }
              ],
              "skillEliteSetID": 3
            }
          ]
        }
      },
      "onAdded": [
        {
          "$type": "ApplyModifier",
          "predicates": [
            {
              "$type": "ByTargetGlobalValue",
              "key": "_ELITEAFFIX_TAG",
              "value": 0.0,
              "compareType": "NoneOrEqual"
            }
          ],
          "modifierName": "UNIQUE_MonsterEliteAffix_DefaultState"
        }
      ],
      "onAbilityStart": [
        {
          "$type": "TriggerAttackEvent",
          "predicates": [
            {
              "$type": "ByHasElement",
              "element": "Rock"
            }
          ],
          "attackEvent": {
            "attackPattern": {
              "$type": "ConfigAttackCircle",
              "triggerType": "TriggerNoRepeat",
              "born": {
                "$type": "ConfigBornBySelf",
                "offset": {
                  "x": 0.0,
                  "y": 0.0,
                  "z": 0.0
                }
              },
              "height": 1.5,
              "radius": 2.0
            },
            "attackInfo": {
              "attackTag": "",
              "attenuationTag": "",
              "attenuationGroup": "default",
              "attackProperty": {
                "actorGrassSubHurtDelta": 1.0,
                "actorWindSubHurtDelta": 0.0,
                "elementType": "Rock",
                "elementDurability": 50.0,
                "strikeType": "Blunt",
                "enBreak": 200.0,
                "GLKMCMDJBIK": 0.0
              },
              "hitPattern": {
                "onHitEffectName": "default",
                "hitImpulseY": "",
                "hitImpulseType": "LV5",
                "hitHaltTimeScale": 0.009999999776482582
              },
              "forceCameraShake": true,
              "cameraShake": {
                "shakeType": "CustomVector",
                "shakeRange": 0.11999999731779099,
                "shakeTime": 0.15000000596046448,
                "shakeDistance": 25.0,
                "shakeDir": {
                  "y": -1.0
                }
              }
            }
          },
          "targetType": "Enemy"
        },
        {
          "$type": "TriggerAttackEvent",
          "predicates": [
            {
              "$type": "ByNot",
              "predicates": [
                {
                  "$type": "ByHasElement",
                  "element": "Rock"
                }
              ]
            }
          ],
          "attackEvent": {
            "attackPattern": {
              "$type": "ConfigAttackCircle",
              "triggerType": "TriggerNoRepeat",
              "born": {
                "$type": "ConfigBornBySelf",
                "offset": {
                  "x": 0.0,
                  "y": 0.0,
                  "z": 0.0
                }
              },
              "height": 1.5,
              "radius": 1.25
            },
            "attackInfo": {
              "attackTag": "",
              "attenuationTag": "",
              "attenuationGroup": "default",
              "attackProperty": {
                "actorGrassSubHurtDelta": 0.6660000085830688,
                "actorWindSubHurtDelta": 0.0,
                "elementDurability": 100.0,
                "strikeType": "Blunt",
                "enBreak": 50.0,
                "GLKMCMDJBIK": 0.0
              },
              "hitPattern": {
                "onHitEffectName": "default",
                "hitImpulseY": "",
                "hitImpulseType": "LV5",
                "hitHaltTimeScale": 0.009999999776482582
              },
              "forceCameraShake": true,
              "cameraShake": {
                "shakeRange": 0.1599999964237213,
                "shakeTime": 0.15000000596046448,
                "shakeDistance": 35.0
              }
            }
          },
          "targetType": "Enemy"
        }
      ]
    }
  },
  {
    "Default": {
      "$type": "ConfigAbility",
      "abilityName": "Slime_Rock_RockThrow",
      "onAbilityStart": [
        {
          "$type": "TriggerBullet",
          "bulletID": 42001002,
          "born": {
            "$type": "ConfigBornByAttachPoint",
            "offset": {
              "x": 0.0,
              "y": 0.0,
              "z": 1.5
            },
            "direction": {
              "$type": "ConfigDirectionByAttackTarget",
              "startPoint": ""
            },
            "attachPointName": "RootNode"
          }
        }
      ]
    }
  },
  {
    "Default": {
      "$type": "ConfigAbility",
      "abilityName": "Slime_Rock_RockThrow_Loop",
      "modifiers": {
        "RockThrow_Loop": {
          "modifierName": "",
          "elementType": "Rock",
          "elementDurability": 100.0,
          "onAdded": [
            {
              "$type": "AttachEffect",
              "rotationDampTime": "Eff_Monster_Slime_Rock_RockBullet_Large",
              "PPPDJGDDOGD": 1.0,
              "AJDILHJFNKE": -1.0
            }
          ],
          "onRemoved": [
            {
              "$type": "KillSelf"
            }
          ]
        }
      },
      "onAdded": [
        {
          "$type": "AttachModifier",
          "modifierName": "RockThrow_Loop"
        }
      ]
    }
  },
  {
    "Default": {
      "$type": "ConfigAbility",
      "abilityName": "Slime_Rock_RockThrow_Explode",
      "onAbilityStart": [
        {
          "$type": "FireEffect",
          "rotationDampTime": "Eff_Monster_Slime_Rock_RockBullet_Large_01",
          "PPPDJGDDOGD": 1.0,
          "AJDILHJFNKE": -1.0
        },
        {
          "$type": "TriggerAttackEvent",
          "attackEvent": {
            "attackPattern": {
              "$type": "ConfigAttackSphere",
              "triggerType": "TriggerNoRepeat",
              "born": {
                "$type": "ConfigBornBySelf",
                "offset": {
                  "x": 0.0,
                  "y": 0.25,
                  "z": 0.0
                }
              },
              "radius": 1.5
            },
            "attackInfo": {
              "attackTag": "",
              "attenuationTag": "",
              "attenuationGroup": "default",
              "attackProperty": {
                "actorGrassSubHurtDelta": 0.3330000042915344,
                "actorWindSubHurtDelta": 0.0,
                "elementType": "Rock",
                "elementDurability": 25.0,
                "strikeType": "Blunt",
                "enBreak": 100.0,
                "GLKMCMDJBIK": 0.0
              },
              "hitPattern": {
                "onHitEffectName": "default",
                "hitImpulseY": "",
                "hitImpulseType": "LV3",
                "hitHaltTimeScale": 0.05000000074505806
              },
              "cameraShake": {
                "shakeRange": 0.05999999865889549,
                "shakeTime": 0.09000000357627869
              },
              "canBeModifiedBy": "OriginOwner"
            }
          },
          "targetType": "Enemy"
        }
      ]
    }
  },
  {
    "Default": {
      "$type": "ConfigAbility",
      "abilityName": "Slime_Rock_AnimationSteer",
      "abilityMixins": [
        {
          "$type": "IILHMBGONGM",
          "steerStateIDs": ["JumpAttack"],
          "endNormalizedTime": 0.20000000298023224,
          "angularSpeed": 120.0,
          "attackTrigger": "",
          "attackDistance": 12.0,
          "DGFCLAIDIFI": ""
        },
        {
          "$type": "IILHMBGONGM",
          "steerStateIDs": ["RockThrow"],
          "endNormalizedTime": 0.5600000023841858,
          "angularSpeed": 360.0,
          "attackTrigger": "",
          "attackDistance": 12.0,
          "DGFCLAIDIFI": ""
        },
        {
          "$type": "IILHMBGONGM",
          "steerStateIDs": ["NormalAttack"],
          "endNormalizedTime": 0.25,
          "angularSpeed": 360.0,
          "attackTrigger": "",
          "attackDistance": 12.0,
          "DGFCLAIDIFI": ""
        }
      ]
    }
  }
]
