[
  {
    "Default": {
      "$type": "ConfigAbility",
      "abilityName": "FauneAbyssale_HermitCrab_Larva_Born",
      "abilityMixins": [
        {
          "$type": "LEOGLBFIELL",
          "poseIDs": [1, 2, 3, 31, 201, 203, 801, 802, 803],
          "modifierName": "FauneAbyssale_HermitCrab_Larva_SpacialState_UnderWater"
        },
        {
          "$type": "LEOGLBFIELL",
          "poseIDs": [11, 12, 13, 51, 301, 303, 901, 902, 903],
          "modifierName": "FauneAbyssale_HermitCrab_Larva_SpacialState_InWater"
        },
        {
          "$type": "LEOGLBFIELL",
          "poseIDs": [21, 41, 22, 23, 401, 403, 701, 702, 703],
          "modifierName": "FauneAbyssale_HermitCrab_Larva_SpacialState_OnLand"
        },
        {
          "$type": "LEOGLBFIELL",
          "poseIDs": [
            1, 2, 3, 31, 201, 203, 801, 802, 803, 11, 12, 13, 51, 301, 303, 901,
            902, 903
          ],
          "modifierName": "FauneAbyssale_HermitCrab_Larva_SpacialState_DieInWater"
        },
        {
          "$type": "AttachToAnimatorStateIDMixin",
          "stateIDs": [
            "Defend",
            "Alert",
            "DefendAttack01",
            "DefendAttack02",
            "DefendBreak"
          ],
          "modifierName": "FauneAbyssale_HermitCrab_Larva_InWaterLayerState",
          "DGFCLAIDIFI": ""
        },
        {
          "$type": "AttachToStateIDMixin",
          "stateIDs": ["Launch"],
          "modifierName": "FauneAbyssale_HermitCrab_Larva_Launch",
          "DGFCLAIDIFI": ""
        },
        {
          "$type": "AttachToStateIDMixin",
          "stateIDs": ["Land"],
          "modifierName": "FauneAbyssale_HermitCrab_Larva_Land",
          "DGFCLAIDIFI": ""
        },
        {
          "$type": "AttachToAnimatorStateIDMixin",
          "stateIDs": ["Personality4_Loop", "Personality5_Loop"],
          "modifierName": "FauneAbyssale_HermitCrab_Larva_SpacialState_InShell",
          "DGFCLAIDIFI": ""
        },
        {
          "$type": "LEOGLBFIELL",
          "poseIDs": [1],
          "modifierName": "FauneAbyssale_HermitCrab_Free_LandInWater"
        },
        {
          "$type": "LEOGLBFIELL",
          "poseIDs": [11],
          "modifierName": "FauneAbyssale_HermitCrab_Free_InWater"
        },
        {
          "$type": "LEOGLBFIELL",
          "poseIDs": [21],
          "modifierName": "FauneAbyssale_HermitCrab_Free_Land"
        },
        {
          "$type": "LEOGLBFIELL",
          "poseIDs": [31],
          "modifierName": "FauneAbyssale_HermitCrab_Free_InShellInWater"
        },
        {
          "$type": "LEOGLBFIELL",
          "poseIDs": [41],
          "modifierName": "FauneAbyssale_HermitCrab_Free_InShellOnFloor"
        },
        {
          "$type": "LEOGLBFIELL",
          "poseIDs": [51],
          "modifierName": "FauneAbyssale_HermitCrab_Free_InWaterInShell"
        },
        {
          "$type": "LEOGLBFIELL",
          "poseIDs": [2],
          "modifierName": "FauneAbyssale_HermitCrab_Free_MuteOnFloorInWater"
        },
        {
          "$type": "LEOGLBFIELL",
          "poseIDs": [12],
          "modifierName": "FauneAbyssale_HermitCrab_Free_MuteInWater"
        },
        {
          "$type": "LEOGLBFIELL",
          "poseIDs": [22],
          "modifierName": "FauneAbyssale_HermitCrab_Free_MuteOnFloor"
        },
        {
          "$type": "LEOGLBFIELL",
          "poseIDs": [3],
          "modifierName": "FauneAbyssale_HermitCrab_Free_MuteOnFloorInWater"
        },
        {
          "$type": "LEOGLBFIELL",
          "poseIDs": [13],
          "modifierName": "FauneAbyssale_HermitCrab_Free_MuteInWater"
        },
        {
          "$type": "LEOGLBFIELL",
          "poseIDs": [23],
          "modifierName": "FauneAbyssale_HermitCrab_Free_LandMuteShell"
        },
        {
          "$type": "AttachToAnimatorStateIDMixin",
          "stateIDs": [
            "DefendBreak",
            "Hit_H",
            "Hit_InWater",
            "HitThrow",
            "HitThrowToGround",
            "Hit_Throw_From_Struggle",
            "Struggle",
            "Die",
            "DieInWater"
          ],
          "modifierName": "FauneAbyssale_HermitCrab_DropGVController",
          "DGFCLAIDIFI": ""
        }
      ],
      "modifiers": {
        "FauneAbyssale_HermitCrab_Larva_SpacialState_UnderWater": {
          "modifierName": "",
          "elementDurability": 100.0,
          "modifierMixins": [
            {
              "$type": "CIBMLJJLANN",
              "excludeForces": ["RetreatType", "RetreatAirType"]
            }
          ],
          "onAdded": [
            {
              "$type": "SetAnimatorInt",
              "intID": "SpacialState",
              "value": 0.0
            },
            {
              "$type": "SetAnimatorInt",
              "intID": "InWaterState",
              "value": 1.0
            },
            {
              "$type": "SetGlobalValue",
              "predicates": [
                {
                  "$type": "ByAnimatorInt",
                  "logic": "LesserOrEqual",
                  "value": 1,
                  "parameter": "MotionStateFlag"
                }
              ],
              "value": 1.0,
              "key": "GV_EnvironmentType",
              "maxValue": 0.0,
              "minValue": 0.0
            },
            {
              "$type": "SetGlobalValue",
              "predicates": [
                {
                  "$type": "ByAnimatorInt",
                  "value": 1,
                  "parameter": "MotionStateFlag"
                }
              ],
              "value": 2.0,
              "key": "GV_EnvironmentType",
              "maxValue": 0.0,
              "minValue": 0.0
            },
            {
              "$type": "GBJBFGPDBPL",
              "disableWeatherEffect": true
            }
          ]
        },
        "FauneAbyssale_HermitCrab_Larva_SpacialState_InWater": {
          "modifierName": "",
          "elementDurability": 100.0,
          "modifierMixins": [
            {
              "$type": "CIBMLJJLANN",
              "excludeForces": ["RetreatType", "RetreatAirType"]
            },
            {
              "$type": "ReplaceEventPatternMixin",
              "oldPatterns": [
                "Audio_Monster_FauneAbyssale_HermitCrab_Larva_Defebd"
              ],
              "newPatterns": [
                "Audio_Monster_FauneAbyssale_HermitCrab_Larva_DefebdInWater"
              ]
            },
            {
              "$type": "ReplaceEventPatternMixin",
              "oldPatterns": [
                "Audio_Monster_FauneAbyssale_HermitCrab_Mature_Defend"
              ],
              "newPatterns": [
                "Audio_Monster_FauneAbyssale_HermitCrab_Mature_DefendInWater"
              ]
            }
          ],
          "onAdded": [
            {
              "$type": "SetAnimatorInt",
              "intID": "SpacialState",
              "value": 1.0
            },
            {
              "$type": "SetAnimatorInt",
              "intID": "InWaterState",
              "value": 1.0
            },
            {
              "$type": "SetGlobalValue",
              "predicates": [
                {
                  "$type": "ByAnimatorInt",
                  "logic": "LesserOrEqual",
                  "value": 1,
                  "parameter": "MotionStateFlag"
                }
              ],
              "value": 1.0,
              "key": "GV_EnvironmentType",
              "maxValue": 0.0,
              "minValue": 0.0
            },
            {
              "$type": "SetGlobalValue",
              "predicates": [
                {
                  "$type": "ByAnimatorInt",
                  "value": 1,
                  "parameter": "MotionStateFlag"
                }
              ],
              "value": 2.0,
              "key": "GV_EnvironmentType",
              "maxValue": 0.0,
              "minValue": 0.0
            },
            {
              "$type": "GBJBFGPDBPL",
              "disableWeatherEffect": true
            }
          ]
        },
        "FauneAbyssale_HermitCrab_Larva_SpacialState_OnLand": {
          "modifierName": "",
          "elementDurability": 100.0,
          "onAdded": [
            {
              "$type": "SetAnimatorInt",
              "intID": "SpacialState",
              "value": 0.0
            },
            {
              "$type": "SetAnimatorInt",
              "intID": "InWaterState",
              "value": 0.0
            },
            {
              "$type": "SetGlobalValue",
              "predicates": [
                {
                  "$type": "ByAnimatorInt",
                  "logic": "LesserOrEqual",
                  "value": 1,
                  "parameter": "MotionStateFlag"
                }
              ],
              "value": 1.0,
              "key": "GV_EnvironmentType",
              "maxValue": 0.0,
              "minValue": 0.0
            },
            {
              "$type": "SetGlobalValue",
              "predicates": [
                {
                  "$type": "ByAnimatorInt",
                  "value": 1,
                  "parameter": "MotionStateFlag"
                }
              ],
              "value": 2.0,
              "key": "GV_EnvironmentType",
              "maxValue": 0.0,
              "minValue": 0.0
            },
            {
              "$type": "GBJBFGPDBPL"
            },
            {
              "$type": "GFFKENEJFFB",
              "predicates": [
                {
                  "$type": "ByAnimatorInt",
                  "logic": "Equal",
                  "value": 0,
                  "parameter": "MotionStateFlag"
                }
              ],
              "intID": "SpacialState"
            },
            {
              "$type": "SetAnimatorInt",
              "predicates": [
                {
                  "$type": "ByAnimatorInt",
                  "logic": "Equal",
                  "value": 0,
                  "parameter": "MotionStateFlag"
                }
              ],
              "intID": "SpacialState",
              "value": 0.0
            }
          ]
        },
        "FauneAbyssale_HermitCrab_Larva_SpacialState_DieInWater": {
          "modifierName": "",
          "elementDurability": 100.0,
          "modifierMixins": [
            {
              "$type": "NAOEBBPINOO",
              "hasAnimatorDie": true,
              "fallWhenAirDie": false,
              "dieEndTime": 1.5,
              "dieForceDisappearTime": 2.5,
              "dieDisappearEffect": "Eff_Death_InWater_Common",
              "dieShaderData": "MonsterDieInWater",
              "dieShaderEnableDurationTime": 1.0,
              "dieModelFadeDelay": 0.5,
              "muteHitBox": true,
              "dieDenyLockOn": true,
              "dieIsGhostToEnemy": true,
              "dieIgnoreTriggerBullet": true,
              "muteBillboard": true,
              "mutePushCollider": true
            }
          ]
        },
        "FauneAbyssale_HermitCrab_Larva_InWaterLayerState": {
          "modifierName": "",
          "elementDurability": 100.0,
          "onAdded": [
            {
              "$type": "SetAnimatorInt",
              "intID": "InWaterLayerState",
              "value": 1.0
            }
          ],
          "onRemoved": [
            {
              "$type": "SetAnimatorInt",
              "intID": "InWaterLayerState",
              "value": 0.0
            }
          ]
        },
        "FauneAbyssale_HermitCrab_Larva_DefendState_Weak": {
          "modifierName": "",
          "elementDurability": 100.0,
          "onAdded": [
            {
              "$type": "SetAnimatorInt",
              "intID": "DefendState",
              "value": 2.0
            },
            {
              "$type": "SetGlobalValue",
              "value": 2.0,
              "key": "_ABILITY_FauneAbyssale_HermitCrab_Larva_DefendState",
              "useLimitRange": true,
              "maxValue": 5.0,
              "minValue": 0.0
            }
          ]
        },
        "FauneAbyssale_HermitCrab_Larva_Launch": {
          "modifierName": "",
          "elementDurability": 100.0,
          "onAdded": [
            {
              "$type": "GFFKENEJFFB",
              "intID": "SpacialState",
              "value": 1
            },
            {
              "$type": "SetAnimatorInt",
              "intID": "SpacialState",
              "value": 1.0
            },
            {
              "$type": "DOANGHCALGB",
              "skillIDs": [311]
            },
            {
              "$type": "DOANGHCALGB",
              "skillIDs": [312]
            },
            {
              "$type": "DOANGHCALGB",
              "skillIDs": [121]
            }
          ]
        },
        "FauneAbyssale_HermitCrab_Larva_Land": {
          "modifierName": "",
          "elementDurability": 100.0,
          "onAdded": [
            {
              "$type": "SetAnimatorInt",
              "intID": "SpacialState",
              "value": 0.0
            }
          ],
          "onRemoved": [
            {
              "$type": "GFFKENEJFFB",
              "intID": "SpacialState"
            },
            {
              "$type": "DOANGHCALGB",
              "skillIDs": [301]
            },
            {
              "$type": "DOANGHCALGB",
              "skillIDs": [302]
            },
            {
              "$type": "DOANGHCALGB",
              "skillIDs": [101]
            },
            {
              "$type": "DOANGHCALGB",
              "skillIDs": [111]
            }
          ]
        },
        "FauneAbyssale_HermitCrab_Larva_SpacialState_InShell": {
          "modifierName": "",
          "elementDurability": 100.0,
          "modifierMixins": [
            {
              "$type": "LEOGLBFIELL",
              "poseIDs": [201, 203, 301, 303, 401, 403],
              "modifierName": "FauneAbyssale_HermitCrab_Larva_SpacialState_GoOutOfShell"
            }
          ],
          "onAdded": [
            {
              "$type": "SetAnimatorInt",
              "intID": "InshellState",
              "value": 1.0
            }
          ],
          "onRemoved": [
            {
              "$type": "SetAnimatorInt",
              "intID": "InshellState",
              "value": 0.0
            }
          ],
          "onBeingHit": [
            {
              "$type": "SetAnimatorTrigger",
              "triggerID": "OutShellTrigger"
            }
          ]
        },
        "FauneAbyssale_HermitCrab_Larva_SpacialState_GoOutOfShell": {
          "modifierName": "",
          "elementDurability": 100.0,
          "onAdded": [
            {
              "$type": "SetAnimatorTrigger",
              "triggerID": "OutShellTrigger"
            }
          ]
        },
        "FauneAbyssale_HermitCrab_Free_LandInWater": {
          "modifierName": "",
          "elementDurability": 100.0,
          "onAdded": [
            {
              "$type": "SetGlobalValue",
              "value": 1.0,
              "key": "_ABILITY_FauneAbyssale_HermitCrab_FreeState",
              "useLimitRange": true,
              "maxValue": 99.0,
              "minValue": 0.0
            }
          ]
        },
        "FauneAbyssale_HermitCrab_Free_InWater": {
          "modifierName": "",
          "elementDurability": 100.0,
          "onAdded": [
            {
              "$type": "SetGlobalValue",
              "value": 11.0,
              "key": "_ABILITY_FauneAbyssale_HermitCrab_FreeState",
              "useLimitRange": true,
              "maxValue": 99.0,
              "minValue": 0.0
            }
          ]
        },
        "FauneAbyssale_HermitCrab_Free_Land": {
          "modifierName": "",
          "elementDurability": 100.0,
          "onAdded": [
            {
              "$type": "SetGlobalValue",
              "value": 21.0,
              "key": "_ABILITY_FauneAbyssale_HermitCrab_FreeState",
              "useLimitRange": true,
              "maxValue": 99.0,
              "minValue": 0.0
            }
          ]
        },
        "FauneAbyssale_HermitCrab_Free_MuteOnFloorInWater": {
          "modifierName": "",
          "elementDurability": 100.0,
          "onAdded": [
            {
              "$type": "SetGlobalValue",
              "value": 2.0,
              "key": "_ABILITY_FauneAbyssale_HermitCrab_FreeState",
              "useLimitRange": true,
              "maxValue": 99.0,
              "minValue": 0.0
            }
          ]
        },
        "FauneAbyssale_HermitCrab_Free_MuteInWater": {
          "modifierName": "",
          "elementDurability": 100.0,
          "onAdded": [
            {
              "$type": "SetGlobalValue",
              "value": 12.0,
              "key": "_ABILITY_FauneAbyssale_HermitCrab_FreeState",
              "useLimitRange": true,
              "maxValue": 99.0,
              "minValue": 0.0
            }
          ]
        },
        "FauneAbyssale_HermitCrab_Free_MuteOnFloor": {
          "modifierName": "",
          "elementDurability": 100.0,
          "onAdded": [
            {
              "$type": "SetGlobalValue",
              "value": 22.0,
              "key": "_ABILITY_FauneAbyssale_HermitCrab_FreeState",
              "useLimitRange": true,
              "maxValue": 99.0,
              "minValue": 0.0
            }
          ]
        },
        "FauneAbyssale_HermitCrab_Free_MuteShellOnFloorLandInWater": {
          "modifierName": "",
          "elementDurability": 100.0,
          "onAdded": [
            {
              "$type": "SetGlobalValue",
              "value": 3.0,
              "key": "_ABILITY_FauneAbyssale_HermitCrab_FreeState",
              "useLimitRange": true,
              "maxValue": 99.0,
              "minValue": 0.0
            }
          ]
        },
        "FauneAbyssale_HermitCrab_Free_MuteShellOnFloorInWater": {
          "modifierName": "",
          "elementDurability": 100.0,
          "onAdded": [
            {
              "$type": "SetGlobalValue",
              "value": 13.0,
              "key": "_ABILITY_FauneAbyssale_HermitCrab_FreeState",
              "useLimitRange": true,
              "maxValue": 99.0,
              "minValue": 0.0
            }
          ]
        },
        "FauneAbyssale_HermitCrab_Free_LandMuteShell": {
          "modifierName": "",
          "elementDurability": 100.0,
          "onAdded": [
            {
              "$type": "SetGlobalValue",
              "value": 23.0,
              "key": "_ABILITY_FauneAbyssale_HermitCrab_FreeState",
              "useLimitRange": true,
              "maxValue": 99.0,
              "minValue": 0.0
            }
          ]
        },
        "FauneAbyssale_HermitCrab_Free_InShellInWater": {
          "modifierName": "",
          "elementDurability": 100.0,
          "onAdded": [
            {
              "$type": "SetGlobalValue",
              "value": 31.0,
              "key": "_ABILITY_FauneAbyssale_HermitCrab_FreeState",
              "useLimitRange": true,
              "maxValue": 99.0,
              "minValue": 0.0
            }
          ]
        },
        "FauneAbyssale_HermitCrab_Free_InWaterInShell": {
          "modifierName": "",
          "elementDurability": 100.0,
          "onAdded": [
            {
              "$type": "SetGlobalValue",
              "value": 51.0,
              "key": "_ABILITY_FauneAbyssale_HermitCrab_FreeState",
              "useLimitRange": true,
              "maxValue": 99.0,
              "minValue": 0.0
            }
          ]
        },
        "FauneAbyssale_HermitCrab_Free_InShellOnFloor": {
          "modifierName": "",
          "elementDurability": 100.0,
          "onAdded": [
            {
              "$type": "SetGlobalValue",
              "value": 41.0,
              "key": "_ABILITY_FauneAbyssale_HermitCrab_FreeState",
              "useLimitRange": true,
              "maxValue": 99.0,
              "minValue": 0.0
            }
          ]
        },
        "FauneAbyssale_HermitCrab_DropGVController": {
          "modifierName": "",
          "elementDurability": 100.0,
          "onAdded": [
            {
              "$type": "SetGlobalValue",
              "predicates": [
                {
                  "$type": "ByAnimatorInt",
                  "logic": "LesserOrEqual",
                  "value": 1,
                  "parameter": "MotionStateFlag"
                }
              ],
              "value": 1.0,
              "key": "GV_EnvironmentType",
              "maxValue": 0.0,
              "minValue": 0.0
            },
            {
              "$type": "SetGlobalValue",
              "predicates": [
                {
                  "$type": "ByAnimatorInt",
                  "value": 1,
                  "parameter": "MotionStateFlag"
                }
              ],
              "value": 2.0,
              "key": "GV_EnvironmentType",
              "maxValue": 0.0,
              "minValue": 0.0
            }
          ]
        }
      },
      "onAdded": [
        {
          "$type": "SetGlobalValue",
          "value": 0.0,
          "key": "_ABILITY_FauneAbyssale_HermitCrab_Larva_DefendState",
          "useLimitRange": true,
          "maxValue": 5.0,
          "minValue": 0.0
        },
        {
          "$type": "SetGlobalValue",
          "value": 0.0,
          "key": "_ABILITY_FauneAbyssale_HermitCrab_Initial",
          "maxValue": 0.0,
          "minValue": 0.0
        }
      ]
    }
  },
  {
    "Default": {
      "$type": "ConfigAbility",
      "abilityName": "FauneAbyssale_HermitCrab_Larva_Defend",
      "abilityMixins": [
        {
          "$type": "AttachToAnimatorStateIDMixin",
          "stateIDs": ["Defend"],
          "modifierName": "FauneAbyssale_HermitCrab_Larva_DefendCheck",
          "DGFCLAIDIFI": ""
        }
      ],
      "modifiers": {
        "FauneAbyssale_HermitCrab_Larva_DefendCheck": {
          "modifierName": "",
          "elementDurability": 100.0,
          "onBeingHit": [
            {
              "$type": "SetAnimatorTrigger",
              "triggerID": "WeakTrigger",
              "mpTriggerOnRemote": true
            }
          ]
        }
      }
    }
  },
  {
    "Default": {
      "$type": "ConfigAbility",
      "abilityName": "Monster_FauneAbyssale_HermitCrab_FireBulletLoop",
      "onAbilityStart": [
        {
          "$type": "TriggerBullet",
          "bulletID": 42615001,
          "born": {
            "$type": "ConfigBornByAttachPoint",
            "offset": {
              "x": 0.0,
              "y": 0.0,
              "z": 0.0
            },
            "direction": {
              "$type": "ConfigDirectionByAttackTarget",
              "startPoint": ""
            },
            "useRotation": true,
            "attachPointName": "BulletSource"
          }
        }
      ]
    }
  },
  {
    "Default": {
      "$type": "ConfigAbility",
      "abilityName": "Monster_FauneAbyssale_HermitCrab_FireState_Controller",
      "abilityMixins": [
        {
          "$type": "AttachToAnimatorStateIDMixin",
          "stateIDs": [
            "NormalAttack02_Loop1",
            "NormalAttack02_Loop2",
            "NormalAttack02_Loop3"
          ],
          "modifierName": "FauneAbyssale_HermitCrab_FireState",
          "DGFCLAIDIFI": ""
        },
        {
          "$type": "AttachToAnimatorStateIDMixin",
          "stateIDs": ["NormalAttack02_AS"],
          "modifierName": "FauneAbyssale_HermitCrab_FireStateEnd",
          "DGFCLAIDIFI": ""
        },
        {
          "$type": "AttachToAnimatorStateIDMixin",
          "stateIDs": ["NormalAttack02_BS"],
          "modifierName": "FauneAbyssale_HermitCrab_RandomFire",
          "DGFCLAIDIFI": ""
        }
      ],
      "modifiers": {
        "FauneAbyssale_HermitCrab_FireState": {
          "modifierName": "",
          "elementDurability": 100.0,
          "onAdded": [
            {
              "$type": "SetAnimatorInt",
              "intID": "FireState",
              "value": 1.0
            }
          ],
          "onRemoved": [
            {
              "$type": "SetAnimatorInt",
              "intID": "FireState",
              "value": 0.0
            }
          ]
        },
        "FauneAbyssale_HermitCrab_FireStateEnd": {
          "modifierName": "",
          "elementDurability": 100.0,
          "onAdded": [
            {
              "$type": "SetAnimatorInt",
              "intID": "FireState",
              "value": 0.0
            }
          ]
        },
        "FauneAbyssale_HermitCrab_RandomFire": {
          "modifierName": "",
          "elementDurability": 100.0,
          "onAdded": [
            {
              "$type": "Randomed",
              "chance": 0.5,
              "successActions": [
                {
                  "$type": "SetAnimatorTrigger",
                  "triggerID": "StopFireBulletTrigger"
                }
              ]
            }
          ]
        }
      },
      "onAbilityStart": [
        {
          "$type": "SetAnimatorInt",
          "intID": "FireState",
          "value": 1.0
        }
      ]
    }
  },
  {
    "Default": {
      "$type": "ConfigAbility",
      "abilityName": "Monster_FauneAbyssale_HermitCrab_Attack_Turn",
      "abilityMixins": [
        {
          "$type": "IILHMBGONGM",
          "steerStateIDs": ["DefendAttack01"],
          "endNormalizedTime": 0.7599999904632568,
          "angularSpeed": 90.0,
          "attackTrigger": "",
          "DGFCLAIDIFI": ""
        },
        {
          "$type": "IILHMBGONGM",
          "steerStateIDs": ["DefendAttack02"],
          "startNormalizedTime": 0.11100000143051147,
          "endNormalizedTime": 0.2930000126361847,
          "angularSpeed": 180.0,
          "attackTrigger": "",
          "DGFCLAIDIFI": ""
        },
        {
          "$type": "IILHMBGONGM",
          "steerStateIDs": ["NormalAttack01_BS"],
          "startNormalizedTime": 0.10000000149011612,
          "endNormalizedTime": 0.6399999856948853,
          "angularSpeed": 90.0,
          "attackTrigger": "",
          "DGFCLAIDIFI": ""
        },
        {
          "$type": "IILHMBGONGM",
          "steerStateIDs": ["NormalAttack01"],
          "startNormalizedTime": 0.06400000303983688,
          "endNormalizedTime": 0.43700000643730164,
          "angularSpeed": 900.0,
          "attackTrigger": "",
          "DGFCLAIDIFI": ""
        },
        {
          "$type": "MFGGKNJLABP",
          "PNAPPKMKAJP": ["NormalAttack03_BS"],
          "GINJMMLNHIA": 45.0,
          "HIFACMDKHHK": -45.0,
          "angularSpeed": 180.0,
          "attackTrigger": "",
          "remoteSteerToLocalTarget": false
        },
        {
          "$type": "AttachToAnimatorStateIDMixin",
          "stateIDs": ["NormalAttack03_BS"],
          "modifierName": "Monster_FauneAbyssale_HermitCrab_NormalAttack03_RandomWhirl",
          "DGFCLAIDIFI": ""
        },
        {
          "$type": "MFGGKNJLABP",
          "PNAPPKMKAJP": ["NormalAttack03_Loop"],
          "GINJMMLNHIA": 60.0,
          "HIFACMDKHHK": -60.0,
          "angularSpeed": 60.0,
          "attackTrigger": "",
          "remoteSteerToLocalTarget": false
        },
        {
          "$type": "IILHMBGONGM",
          "steerStateIDs": [
            "DefendAttack_Rush1",
            "DefendAttack_Rush2",
            "DefendAttack_Rush3",
            "DefendAttack_Rush4"
          ],
          "angularSpeed": 360.0,
          "attackTrigger": "StopPrepareTrigger",
          "attackDistance": 3.0,
          "DGFCLAIDIFI": ""
        },
        {
          "$type": "IILHMBGONGM",
          "steerStateIDs": [
            "NormalAttack01_Rush1",
            "NormalAttack01_Rush2",
            "NormalAttack01_Rush3",
            "NormalAttack01_Rush4"
          ],
          "angularSpeed": 360.0,
          "attackTrigger": "StopPrepareTrigger",
          "attackDistance": 8.0,
          "DGFCLAIDIFI": ""
        },
        {
          "$type": "IILHMBGONGM",
          "steerStateIDs": [
            "NormalAttack02_WalkBack1",
            "NormalAttack02_WalkBack2",
            "NormalAttack02_WalkBack3",
            "NormalAttack02_WalkBack4"
          ],
          "angularSpeed": 360.0,
          "attackTrigger": "",
          "DGFCLAIDIFI": ""
        },
        {
          "$type": "IILHMBGONGM",
          "steerStateIDs": [
            "NormalAttack02_WalkLeft1",
            "NormalAttack02_WalkLeft2",
            "NormalAttack02_WalkLeft3",
            "NormalAttack02_WalkLeft4"
          ],
          "angularSpeed": 360.0,
          "attackTrigger": "",
          "DGFCLAIDIFI": ""
        },
        {
          "$type": "IILHMBGONGM",
          "steerStateIDs": [
            "NormalAttack02_WalkRight1",
            "NormalAttack02_WalkRight2",
            "NormalAttack02_WalkRight3",
            "NormalAttack02_WalkRight4"
          ],
          "angularSpeed": 360.0,
          "attackTrigger": "",
          "DGFCLAIDIFI": ""
        }
      ],
      "modifiers": {
        "Monster_FauneAbyssale_HermitCrab_NormalAttack03_RandomWhirl": {
          "modifierName": "",
          "elementDurability": 100.0,
          "onAdded": [
            {
              "$type": "Randomed",
              "chance": 0.5,
              "successActions": [
                {
                  "$type": "SetAnimatorInt",
                  "intID": "WhirlCount",
                  "value": 2.0
                }
              ],
              "failActions": [
                {
                  "$type": "Randomed",
                  "chance": 0.5,
                  "successActions": [
                    {
                      "$type": "SetAnimatorInt",
                      "intID": "WhirlCount",
                      "value": 3.0
                    }
                  ],
                  "failActions": [
                    {
                      "$type": "Randomed",
                      "chance": 0.5,
                      "successActions": [
                        {
                          "$type": "SetAnimatorInt",
                          "intID": "WhirlCount",
                          "value": 1.0
                        }
                      ]
                    }
                  ]
                }
              ]
            }
          ]
        },
        "Monster_FauneAbyssale_HermitCrab_NormalAttack03_SubWhirlCount": {
          "modifierName": "",
          "elementDurability": 100.0
        }
      }
    }
  },
  {
    "Default": {
      "$type": "ConfigAbility",
      "abilityName": "Monster_FauneAbyssale_HermitCrab_NormalAttack01_Alert",
      "abilityMixins": [
        {
          "$type": "AttachToNormalizedTimeMixin",
          "stateID": "NormalAttack01",
          "modifierName": "NormalAttack01_Collider",
          "normalizeStart": 0.06400000303983688,
          "normalizeEnd": 0.43700000643730164,
          "DGFCLAIDIFI": ""
        }
      ],
      "modifiers": {
        "NormalAttack01_Collider": {
          "modifierName": "",
          "elementDurability": 100.0,
          "modifierMixins": [
            {
              "$type": "AttachActionToModifierMixin",
              "onAdded": [
                {
                  "$type": "EnablePushColliderName",
                  "pushColliderNames": ["PushCollider"]
                },
                {
                  "$type": "EnablePushColliderName",
                  "pushColliderNames": ["PushCollider2"]
                }
              ],
              "onRemoved": [
                {
                  "$type": "EnablePushColliderName",
                  "pushColliderNames": ["PushCollider"],
                  "setEnable": true
                },
                {
                  "$type": "EnablePushColliderName",
                  "pushColliderNames": ["PushCollider2"],
                  "setEnable": true
                }
              ]
            }
          ]
        }
      },
      "onAbilityStart": [
        {
          "$type": "FireEffect",
          "rotationDampTime": "Eff_Monster_FauneAbyssale_HermitCrab_Mature_NormalAtk01_Alert",
          "born": {
            "$type": "HCHAOBKOELI",
            "offset": {
              "x": 0.0,
              "y": 0.0,
              "z": -0.5
            },
            "onGround": true,
            "alongGround": true
          },
          "PPPDJGDDOGD": 1.0,
          "AJDILHJFNKE": -1.0
        },
        {
          "$type": "ActCameraShake",
          "cameraShake": {
            "shakeType": "CustomVector",
            "shakeRange": 0.11999999731779099,
            "shakeTime": 0.15000000596046448,
            "shakeDir": {
              "y": 1.0
            }
          }
        }
      ]
    }
  },
  {
    "Default": {
      "$type": "ConfigAbility",
      "abilityName": "Monster_FauneAbyssale_HermitCrab_NormalAttack01_JumpRange",
      "onAbilityStart": [
        {
          "$type": "Predicated",
          "target": "SelfAttackTarget",
          "targetPredicates": [
            {
              "$type": "ByTargetPositionToSelfPosition",
              "logic": "LesserOrEqual",
              "value": 1.0,
              "DDALGNLEHOD": ""
            }
          ],
          "failActions": [
            {
              "$type": "BHPDPACKKNI",
              "target": "SelfAttackTarget",
              "born": {
                "$type": "ConfigBornByTargetLinearPoint",
                "offset": {
                  "x": 0.0,
                  "y": 0.0,
                  "z": 0.0
                },
                "onGround": true,
                "linearOffset": -2.0,
                "linearXZ": false,
                "linearMin": 0.0,
                "linearMax": 12.5
              },
              "hitSceneType": "BlinkHitSceneTestByThreeSegments",
              "limitY": 2.5
            },
            {
              "$type": "PAGFCBCKEBH",
              "toPos": {
                "$type": "DNEKFAOHKBC"
              },
              "NKPCHMCNNOK": 0.6000000238418579,
              "animatorStateIDs": ["NormalAttack01"],
              "overrideMoveCollider": "",
              "isInAir": true
            }
          ]
        }
      ]
    }
  },
  {
    "Default": {
      "$type": "ConfigAbility",
      "abilityName": "Monster_FauneAbyssale_HermitCrab_NormalAttack01",
      "onAbilityStart": [
        {
          "$type": "TriggerAttackEvent",
          "attackEvent": {
            "attackPattern": {
              "$type": "ConfigAttackCircle",
              "triggerType": "TriggerNoRepeat",
              "born": {
                "$type": "ConfigBornBySelf",
                "offset": {
                  "x": 0.0,
                  "y": 0.0,
                  "z": 0.5
                },
                "useRotation": true
              },
              "height": 2.0,
              "radius": 2.1500000953674316
            },
            "attackInfo": {
              "attackTag": "",
              "attenuationTag": "",
              "attenuationGroup": "default",
              "attackProperty": {
                "actorGrassSubHurtDelta": 0.75,
                "actorWindSubHurtDelta": 0.0,
                "elementDurability": 100.0,
                "strikeType": "Blunt",
                "enBreak": 150.0,
                "GLKMCMDJBIK": 0.0
              },
              "hitPattern": {
                "onHitEffectName": "default",
                "hitImpulseY": "",
                "hitImpulseType": "LV4"
              },
              "forceCameraShake": true,
              "cameraShake": {
                "shakeType": "CustomVector",
                "shakeRange": 0.36000001430511475,
                "shakeTime": 0.36000001430511475,
                "shakeDistance": 30.0,
                "shakeDir": {
                  "y": -1.0
                }
              }
            }
          },
          "targetType": "Enemy"
        }
      ]
    }
  },
  {
    "Default": {
      "$type": "ConfigAbility",
      "abilityName": "Monster_FauneAbyssale_HermitCrab_Bullet_Loop",
      "modifiers": {
        "UNIQUE_Monster_FauneAbyssale_HermitCrab_Bullet_Loop": {
          "modifierName": "",
          "forceTriggerWhenChangeAuthority": true,
          "elementDurability": 100.0,
          "onAdded": [
            {
              "$type": "AttachEffect",
              "rotationDampTime": "Eff_Monster_FauneAbyssale_HermitCrab_Mature_NormalAtk02_FireBullet",
              "PPPDJGDDOGD": 1.0,
              "AJDILHJFNKE": -1.0
            }
          ],
          "onRemoved": [
            {
              "$type": "KillSelf"
            }
          ]
        }
      },
      "onAdded": [
        {
          "$type": "AttachModifier",
          "modifierName": "UNIQUE_Monster_FauneAbyssale_HermitCrab_Bullet_Loop"
        }
      ]
    }
  },
  {
    "Default": {
      "$type": "ConfigAbility",
      "abilityName": "Monster_FauneAbyssale_HermitCrab_Bullet_Explode",
      "onAbilityStart": [
        {
          "$type": "FireEffect",
          "rotationDampTime": "Eff_Monster_FauneAbyssale_HermitCrab_Mature_NormalAtk02_FireBullet_Hit",
          "born": {
            "$type": "ConfigBornBySelf",
            "offset": {
              "x": 0.0,
              "y": 0.0,
              "z": 0.0
            },
            "useRotation": true
          },
          "PPPDJGDDOGD": 1.0,
          "AJDILHJFNKE": -1.0
        },
        {
          "$type": "RemoveUniqueModifier",
          "modifierName": "UNIQUE_Monster_FauneAbyssale_HermitCrab_Bullet_Loop"
        },
        {
          "$type": "TriggerAttackEvent",
          "attackEvent": {
            "attackPattern": {
              "$type": "ConfigAttackSphere",
              "triggerType": "TriggerNoRepeat",
              "massiveAttackRatio": 0.5,
              "born": {
                "$type": "ConfigBornBySelf",
                "offset": {
                  "x": 0.0,
                  "y": 0.0,
                  "z": 0.0
                },
                "useRotation": true
              },
              "radius": 1.5
            },
            "attackInfo": {
              "attackTag": "",
              "attenuationTag": "",
              "attenuationGroup": "default",
              "attackProperty": {
                "actorGrassSubHurtDelta": 0.75,
                "actorWindSubHurtDelta": 0.0,
                "elementType": "Fire",
                "elementDurability": 100.0,
                "strikeType": "Default",
                "attackType": "Range",
                "GLKMCMDJBIK": 0.0
              },
              "hitPattern": {
                "onHitEffectName": "default",
                "hitImpulseY": "",
                "hitImpulseType": "LV4",
                "hitHaltTimeScale": 0.05000000074505806
              },
              "canBeModifiedBy": "OriginOwner"
            }
          },
          "targetType": "Enemy"
        }
      ]
    }
  },
  {
    "Default": {
      "$type": "ConfigAbility",
      "abilityName": "FauneAbyssale_HermitCrab_Mature_Born",
      "abilityMixins": [
        {
          "$type": "AttachModifierToSelfGlobalValueMixin",
          "globalValueKey": "_ABILITY_FauneAbyssale_HermitCrab_WeakState",
          "gvInTalk": 0.0,
          "valueSteps": [-0.5, 2.5, 3.5],
          "modifierNameSteps": [
            "FauneAbyssale_HermitCrab_Core_Show",
            "FauneAbyssale_HermitCrab_Core_Hide"
          ]
        },
        {
          "$type": "AttachModifierToGlobalValueMixin",
          "globalValueKey": "_ABILITY_FauneAbyssale_HermitCrab_WeakState",
          "valueSteps": [-0.5, 0.5, 3.5],
          "modifierNameSteps": [
            "Monster_FauneAbyssale_HermitCrab_Mature_Core_Detect",
            "Monster_FauneAbyssale_HermitCrab_Mature_Core_Broken"
          ]
        },
        {
          "$type": "LEOGLBFIELL",
          "poseIDs": [901, 902, 903, 801, 802, 803, 701, 702, 703],
          "modifierName": "ReturnToBorn_SelfHandler"
        },
        {
          "$type": "LEOGLBFIELL",
          "poseIDs": [
            1, 2, 3, 11, 12, 13, 31, 51, 201, 203, 301, 303, 901, 902, 903, 801,
            802, 803
          ],
          "modifierName": "FauneAbyssale_HermitCrab_Core_InWater"
        },
        {
          "$type": "AttachToAnimatorStateIDMixin",
          "stateIDs": [
            "NormalAttack03_BS",
            "NormalAttack03_Loop",
            "NormalAttack03_AS"
          ],
          "modifierName": "Monster_FauneAbyssale_HermitCrab_Mature_ChargeCollider",
          "DGFCLAIDIFI": ""
        }
      ],
      "abilitySpecials": {
        "sub_hurt_delta_positive": 0.6000000238418579,
        "element_shield_max_durability": 270.0,
        "cache_element": 0.0
      },
      "modifiers": {
        "Monster_FauneAbyssale_HermitCrab_Mature_ChargeCollider": {
          "modifierName": "",
          "elementDurability": 100.0,
          "modifierMixins": [
            {
              "$type": "AttachActionToModifierMixin",
              "onAdded": [
                {
                  "$type": "EnablePushColliderName",
                  "pushColliderNames": ["MoveCollider2"],
                  "setEnable": true
                }
              ],
              "onRemoved": [
                {
                  "$type": "EnablePushColliderName",
                  "pushColliderNames": ["MoveCollider2"]
                }
              ]
            }
          ]
        },
        "FauneAbyssale_HermitCrab_Core_Show": {
          "modifierName": "",
          "elementDurability": 100.0,
          "onAdded": [
            {
              "$type": "TriggerSetRenderersEnable",
              "canBeHandledOnRecover": true,
              "renderNames": ["Hat"],
              "setEnable": true
            },
            {
              "$type": "GFFKENEJFFB",
              "intID": "WeakState"
            },
            {
              "$type": "EnablePushColliderName",
              "pushColliderNames": ["PushCollider2"],
              "setEnable": true
            }
          ]
        },
        "FauneAbyssale_HermitCrab_Core_Hide": {
          "modifierName": "",
          "elementDurability": 100.0,
          "onAdded": [
            {
              "$type": "TriggerSetRenderersEnable",
              "canBeHandledOnRecover": true,
              "renderNames": ["Hat"]
            },
            {
              "$type": "GFFKENEJFFB",
              "intID": "WeakState",
              "value": 1
            },
            {
              "$type": "EnablePushColliderName",
              "pushColliderNames": ["PushCollider2"]
            }
          ]
        },
        "Monster_FauneAbyssale_HermitCrab_Mature_Core_Detect": {
          "stacking": "Unique",
          "modifierName": "",
          "elementType": "Fire",
          "elementDurability": 270.0,
          "modifierMixins": [
            {
              "$type": "ShieldBarMixin",
              "onShieldBroken": [
                {
                  "$type": "ApplyModifier",
                  "modifierName": "Monster_FauneAbyssale_HermitCrab_Mature_Core_Breaking"
                }
              ],
              "showDamageText": "",
              "skipInitAnim": true,
              "barElementType": "Fire"
            }
          ],
          "properties": {
            "Actor_EndureDelta": 0.699999988079071,
            "Actor_PhysicalSubHurtDelta": "sub_hurt_delta_positive",
            "Actor_FireSubHurtDelta": "sub_hurt_delta_positive",
            "Actor_ElecSubHurtDelta": "sub_hurt_delta_positive",
            "Actor_IceSubHurtDelta": "sub_hurt_delta_positive",
            "Actor_WaterSubHurtDelta": "sub_hurt_delta_positive",
            "Actor_GrassSubHurtDelta": "sub_hurt_delta_positive",
            "Actor_WindSubHurtDelta": "sub_hurt_delta_positive",
            "Actor_RockSubHurtDelta": "sub_hurt_delta_positive"
          },
          "onKill": [
            {
              "$type": "RemoveModifier",
              "modifierName": "Monster_FauneAbyssale_HermitCrab_Mature_Core_Detect"
            }
          ],
          "forceSyncToRemote": true
        },
        "Monster_FauneAbyssale_HermitCrab_Mature_Core_Breaking": {
          "modifierName": "",
          "duration": 0.20000000298023224,
          "elementDurability": 100.0,
          "properties": {
            "Actor_EndureDelta": 0.0
          },
          "onAdded": [
            {
              "$type": "SetGlobalValue",
              "value": 3.0,
              "key": "_ABILITY_FauneAbyssale_HermitCrab_WeakState",
              "maxValue": 0.0,
              "minValue": 0.0
            },
            {
              "$type": "SetAnimatorTrigger",
              "triggerID": "WeakTrigger",
              "mpTriggerOnRemote": true
            },
            {
              "$type": "GFFKENEJFFB",
              "intID": "WeakState",
              "value": 1
            },
            {
              "$type": "ClearEndura"
            }
          ]
        },
        "Monster_FauneAbyssale_HermitCrab_Mature_Core_Broken": {
          "modifierName": "",
          "elementDurability": 100.0
        },
        "ReturnToBorn_SelfHandler": {
          "modifierName": "",
          "elementDurability": 100.0,
          "onAdded": [
            {
              "$type": "SetGlobalValue",
              "predicates": [
                {
                  "$type": "ByTargetGlobalValue",
                  "key": "_ABILITY_FauneAbyssale_HermitCrab_WeakState",
                  "value": 2.0,
                  "compareType": "LessAndEqual"
                }
              ],
              "value": 2.0,
              "key": "_ABILITY_FauneAbyssale_HermitCrab_WeakState",
              "maxValue": 0.0,
              "minValue": 0.0
            },
            {
              "$type": "SetGlobalValue",
              "value": "element_shield_max_durability",
              "key": "_CACHE_ELEMENT_",
              "maxValue": 0.0,
              "minValue": 0.0
            }
          ],
          "onRemoved": [
            {
              "$type": "Predicated",
              "targetPredicates": [
                {
                  "$type": "ByTargetGlobalValue",
                  "target": "Self",
                  "key": "_ABILITY_FauneAbyssale_HermitCrab_WeakState",
                  "value": 3.0
                }
              ],
              "successActions": [
                {
                  "$type": "Predicated",
                  "targetPredicates": [
                    {
                      "$type": "ByAnimatorInt",
                      "value": 0,
                      "parameter": "MotionStateFlag"
                    }
                  ],
                  "successActions": [
                    {
                      "$type": "SetGlobalValue",
                      "value": 1.0,
                      "key": "_ABILITY_FauneAbyssale_HermitCrab_WeakState",
                      "maxValue": 0.0,
                      "minValue": 0.0
                    },
                    {
                      "$type": "FireEffect",
                      "rotationDampTime": "Eff_Monster_FauneAbyssale_HermitCrab_Mature_Reborn",
                      "PPPDJGDDOGD": 1.0,
                      "AJDILHJFNKE": -1.0
                    }
                  ],
                  "failActions": [
                    {
                      "$type": "SetGlobalValue",
                      "value": 0.0,
                      "key": "_ABILITY_FauneAbyssale_HermitCrab_WeakState",
                      "maxValue": 0.0,
                      "minValue": 0.0
                    },
                    {
                      "$type": "FireEffect",
                      "rotationDampTime": "Eff_Monster_FauneAbyssale_HermitCrab_Mature_Reborn",
                      "PPPDJGDDOGD": 1.0,
                      "AJDILHJFNKE": -1.0
                    }
                  ]
                }
              ]
            },
            {
              "$type": "Predicated",
              "targetPredicates": [
                {
                  "$type": "ByAnimatorInt",
                  "value": 0,
                  "parameter": "MotionStateFlag"
                }
              ],
              "successActions": [
                {
                  "$type": "SetGlobalValue",
                  "value": 1.0,
                  "key": "_ABILITY_FauneAbyssale_HermitCrab_WeakState",
                  "maxValue": 0.0,
                  "minValue": 0.0
                }
              ],
              "failActions": [
                {
                  "$type": "SetGlobalValue",
                  "value": 0.0,
                  "key": "_ABILITY_FauneAbyssale_HermitCrab_WeakState",
                  "maxValue": 0.0,
                  "minValue": 0.0
                }
              ]
            }
          ]
        },
        "FauneAbyssale_HermitCrab_Core_KillSelf": {
          "modifierName": "",
          "elementDurability": 100.0,
          "onAdded": [
            {
              "$type": "KillSelf"
            }
          ]
        },
        "FauneAbyssale_HermitCrab_Core_InWater": {
          "modifierName": "",
          "elementDurability": 100.0,
          "onAdded": [
            {
              "$type": "Predicated",
              "targetPredicates": [
                {
                  "$type": "ByTargetGlobalValue",
                  "key": "_ABILITY_FauneAbyssale_HermitCrab_WeakState",
                  "value": 0.0
                }
              ],
              "successActions": [
                {
                  "$type": "ONHNLNNAJBN",
                  "globalValueKey": "_CACHE_ELEMENT_",
                  "maxValue": 0.0,
                  "minValue": 0.0,
                  "modifierName": "Monster_FauneAbyssale_HermitCrab_Mature_Core_Detect"
                },
                {
                  "$type": "SetGlobalValue",
                  "value": 1.0,
                  "key": "_ABILITY_FauneAbyssale_HermitCrab_WeakState",
                  "maxValue": 0.0,
                  "minValue": 0.0
                }
              ]
            }
          ],
          "onRemoved": [
            {
              "$type": "Predicated",
              "targetPredicates": [
                {
                  "$type": "ByTargetGlobalValue",
                  "key": "_ABILITY_FauneAbyssale_HermitCrab_WeakState",
                  "value": 1.0
                }
              ],
              "successActions": [
                {
                  "$type": "SetGlobalValue",
                  "value": 0.0,
                  "key": "_ABILITY_FauneAbyssale_HermitCrab_WeakState",
                  "maxValue": 0.0,
                  "minValue": 0.0
                },
                {
                  "$type": "SetGlobalValueToOverrideMap",
                  "globalValueKey": "_CACHE_ELEMENT_",
                  "overrideMapKey": "cache_element"
                },
                {
                  "$type": "AddElementDurability",
                  "value": "cache_element",
                  "modifierName": "Monster_FauneAbyssale_HermitCrab_Mature_Core_Detect",
                  "maxValue": 3.4028234663852886e38
                }
              ]
            }
          ]
        }
      },
      "onAdded": [
        {
          "$type": "SetGlobalValue",
          "value": "element_shield_max_durability",
          "key": "_CACHE_ELEMENT_",
          "maxValue": 0.0,
          "minValue": 0.0
        }
      ]
    }
  },
  {
    "Default": {
      "$type": "ConfigAbility",
      "abilityName": "Monster_FauneAbyssale_HermitCrab_NormalCollisionInWater",
      "abilityMixins": [
        {
          "$type": "LEOGLBFIELL",
          "poseIDs": [11, 12, 13, 51, 301, 303, 901, 902, 903],
          "modifierName": "Monster_FauneAbyssale_HermitCrab_NormalCollisionInWater"
        }
      ],
      "modifiers": {
        "Monster_FauneAbyssale_HermitCrab_NormalCollisionInWater": {
          "modifierName": "",
          "elementDurability": 100.0,
          "modifierMixins": [
            {
              "$type": "MGIHAKAHDGP",
              "NCMKEPHAKCA": ["MoveCollider"]
            }
          ]
        }
      }
    }
  },
  {
    "Default": {
      "$type": "ConfigAbility",
      "abilityName": "Monster_FauneAbyssale_HermitCrab_Mature_Core"
    }
  },
  {
    "Default": {
      "$type": "ConfigAbility",
      "abilityName": "Monster_FauneAbyssale_HermitCrab_Mature_TrailAttack",
      "abilityMixins": [
        {
          "$type": "MFGGKNJLABP",
          "PNAPPKMKAJP": ["TrailAttack_BS"],
          "GINJMMLNHIA": 30.0,
          "HIFACMDKHHK": -30.0,
          "angularSpeed": 90.0,
          "attackTrigger": "",
          "remoteSteerToLocalTarget": false
        },
        {
          "$type": "MFGGKNJLABP",
          "PNAPPKMKAJP": ["EnhanceTrailAttack_BS"],
          "GINJMMLNHIA": 30.0,
          "HIFACMDKHHK": -30.0,
          "angularSpeed": 90.0,
          "attackTrigger": "",
          "remoteSteerToLocalTarget": false
        },
        {
          "$type": "MFGGKNJLABP",
          "PNAPPKMKAJP": ["TrailAttack"],
          "endNormalizedTime": 0.20000000298023224,
          "GINJMMLNHIA": 30.0,
          "HIFACMDKHHK": -30.0,
          "angularSpeed": 90.0,
          "attackTrigger": "",
          "remoteSteerToLocalTarget": false
        },
        {
          "$type": "MFGGKNJLABP",
          "PNAPPKMKAJP": ["EnhanceTrailAttack"],
          "endNormalizedTime": 0.20000000298023224,
          "GINJMMLNHIA": 30.0,
          "HIFACMDKHHK": -30.0,
          "angularSpeed": 90.0,
          "attackTrigger": "",
          "remoteSteerToLocalTarget": false
        },
        {
          "$type": "LAPMOOFOPBM",
          "valueSteps": [0.6000000238418579, 9.999999747378752e-5],
          "modifierNameSteps": [
            "UNIQUE_Monster_FauneAbyssale_HermitCrab_Mature_HpState1",
            "UNIQUE_Monster_FauneAbyssale_HermitCrab_Mature_HpState2",
            "UNIQUE_Monster_FauneAbyssale_HermitCrab_Mature_HpState3"
          ]
        },
        {
          "$type": "AttachToAnimatorStateIDMixin",
          "stateIDs": [
            "NormalAttack03_BS",
            "NormalAttack03_Loop",
            "NormalAttack03_AS"
          ],
          "modifierName": "Monster_FauneAbyssale_HermitCrab_Mature_ChargeCollider",
          "DGFCLAIDIFI": ""
        }
      ],
      "modifiers": {
        "UNIQUE_Monster_FauneAbyssale_HermitCrab_Mature_HpState1": {
          "modifierName": "",
          "forceTriggerWhenChangeAuthority": true,
          "elementDurability": 100.0,
          "modifierMixins": [
            {
              "$type": "MGIHAKAHDGP",
              "NCMKEPHAKCA": ["MoveCollider"]
            }
          ],
          "properties": {
            "Actor_EndureDelta": 0.0
          },
          "onAdded": [
            {
              "$type": "GFFKENEJFFB",
              "intID": "EnhanceState"
            }
          ],
          "onBeingHit": [
            {
              "$type": "Predicated",
              "targetPredicates": [
                {
                  "$type": "ByAttackTags",
                  "attackTags": ["Diving_CrabShield_Bullet"]
                }
              ],
              "successActions": [
                {
                  "$type": "DLEIPBPNAIM",
                  "paramList": [0, 0, 0]
                },
                {
                  "$type": "SetAnimatorTrigger",
                  "triggerID": "DefendBrokenTrigger"
                },
                {
                  "$type": "LoseHP",
                  "amountByCasterMaxHPRatio": 0.20000000298023224,
                  "enableInvincible": true,
                  "BJKGFBGEFPB": ""
                }
              ]
            }
          ]
        },
        "UNIQUE_Monster_FauneAbyssale_HermitCrab_Mature_HpState2": {
          "modifierName": "",
          "forceTriggerWhenChangeAuthority": true,
          "elementDurability": 100.0,
          "modifierMixins": [
            {
              "$type": "AttachToAnimatorStateIDMixin",
              "stateIDs": [
                "EnhanceTrailAttack_BS",
                "EnhanceTrailAttack",
                "EnhanceTrailAttack_AS",
                "FightBackAttack"
              ],
              "modifierName": "UNIQUE_Monster_FauneAbyssale_HermitCrab_Mature_InitialBeingHitCount",
              "DGFCLAIDIFI": ""
            },
            {
              "$type": "AttachModifierToGlobalValueMixin",
              "globalValueKey": "_ABILITY_FauneAbyssale_HermitCrab_BeingHit",
              "valueSteps": [-1.5, -0.5, 0.5, 1.5, 2.5],
              "modifierNameSteps": [
                "Monster_FauneAbyssale_HermitCrab_Mature_Shield_None",
                "Monster_FauneAbyssale_HermitCrab_Mature_Shield_Hold",
                "Monster_FauneAbyssale_HermitCrab_Mature_Shield_Weak",
                "Monster_FauneAbyssale_HermitCrab_Mature_Shield_Broken"
              ]
            },
            {
              "$type": "MGIHAKAHDGP",
              "NCMKEPHAKCA": ["MoveCollider"]
            }
          ],
          "properties": {
            "Actor_EndureDelta": 0.0
          },
          "onAdded": [
            {
              "$type": "GFFKENEJFFB",
              "intID": "EnhanceState",
              "value": 1
            }
          ],
          "onBeingHit": [
            {
              "$type": "Predicated",
              "targetPredicates": [
                {
                  "$type": "ByAttackTags",
                  "attackTags": ["Diving_CrabShield_Bullet"]
                }
              ],
              "successActions": [
                {
                  "$type": "AddElementDurability",
                  "value": -100.0,
                  "modifierName": "UNIQUE_Monster_FauneAbyssale_HermitCrab_Mature_InitialBeingHitCount",
                  "useLimitRange": true,
                  "maxValue": 301.0,
                  "minValue": 0.0
                },
                {
                  "$type": "Predicated",
                  "targetPredicates": [
                    {
                      "$type": "ByTargetGlobalValue",
                      "target": "Self",
                      "key": "_ABILITY_FauneAbyssale_HermitCrab_BeingHit",
                      "value": 1.0,
                      "compareType": "MoreThan"
                    }
                  ],
                  "successActions": [
                    {
                      "$type": "DLEIPBPNAIM",
                      "paramList": [0, 0, 1]
                    },
                    {
                      "$type": "LoseHP",
                      "amountByCasterMaxHPRatio": 0.6000000238418579,
                      "BJKGFBGEFPB": ""
                    },
                    {
                      "$type": "SetAnimatorTrigger",
                      "triggerID": "DefendBrokenTrigger"
                    }
                  ],
                  "failActions": [
                    {
                      "$type": "Predicated",
                      "targetPredicates": [
                        {
                          "$type": "BHFFBBOLCCP",
                          "modifierName": "UNIQUE_Monster_FauneAbyssale_HermitCrab_Mature_InitialBeingHitCount"
                        }
                      ],
                      "successActions": [
                        {
                          "$type": "AddGlobalValue",
                          "value": 1.0,
                          "key": "_ABILITY_FauneAbyssale_HermitCrab_BeingHit",
                          "maxValue": 10.0,
                          "minValue": 0.0
                        },
                        {
                          "$type": "DOANGHCALGB",
                          "skillIDs": [231]
                        },
                        {
                          "$type": "SetAnimatorTrigger",
                          "triggerID": "FightBackTrigger"
                        }
                      ],
                      "failActions": [
                        {
                          "$type": "LoseHP",
                          "amountByCasterMaxHPRatio": 0.10000000149011612,
                          "enableInvincible": true,
                          "BJKGFBGEFPB": ""
                        },
                        {
                          "$type": "SetAnimatorTrigger",
                          "triggerID": "DefendBrokenTrigger"
                        },
                        {
                          "$type": "DLEIPBPNAIM",
                          "paramList": [0, 0, 0]
                        }
                      ]
                    }
                  ]
                }
              ]
            }
          ]
        },
        "UNIQUE_Monster_FauneAbyssale_HermitCrab_Mature_HpState3": {
          "modifierName": "",
          "forceTriggerWhenChangeAuthority": true,
          "elementDurability": 100.0,
          "modifierMixins": [
            {
              "$type": "MGIHAKAHDGP",
              "NCMKEPHAKCA": ["MoveCollider"]
            }
          ],
          "properties": {
            "Actor_EndureDelta": 0.0
          }
        },
        "UNIQUE_Monster_FauneAbyssale_HermitCrab_Mature_InitialBeingHitCount": {
          "stacking": "Unique",
          "modifierName": "",
          "forceTriggerWhenChangeAuthority": true,
          "elementDurability": 301.0,
          "modifierMixins": [
            {
              "$type": "ShieldBarMixin",
              "showDamageText": "",
              "skipInitAnim": true
            }
          ],
          "state": "Invincible",
          "onAdded": [
            {
              "$type": "SetGlobalValue",
              "value": 0.0,
              "key": "_ABILITY_FauneAbyssale_HermitCrab_BeingHit",
              "maxValue": 10.0,
              "minValue": 0.0
            },
            {
              "$type": "AttachEffect",
              "rotationDampTime": "Eff_Monster_FauneAbyssale_HermitCrab_Mature_TrailAtk_Shield",
              "PPPDJGDDOGD": 1.0,
              "AJDILHJFNKE": -1.0
            }
          ],
          "onRemoved": [
            {
              "$type": "SetGlobalValue",
              "value": -1.0,
              "key": "_ABILITY_FauneAbyssale_HermitCrab_BeingHit",
              "maxValue": 10.0,
              "minValue": 0.0
            }
          ],
          "forceSyncToRemote": true
        },
        "Monster_FauneAbyssale_HermitCrab_Mature_Shield_Hold": {
          "modifierName": "",
          "elementDurability": 100.0,
          "onAdded": [
            {
              "$type": "SendEffectTrigger",
              "parameter": "ResetTrigger",
              "attachPoint": "",
              "rotationDampTime": "Eff_Monster_FauneAbyssale_HermitCrab_Mature_TrailAtk_Shield"
            }
          ]
        },
        "Monster_FauneAbyssale_HermitCrab_Mature_Shield_Weak": {
          "modifierName": "",
          "elementDurability": 100.0,
          "onAdded": [
            {
              "$type": "SendEffectTrigger",
              "parameter": "WeakTrigger",
              "attachPoint": "",
              "rotationDampTime": "Eff_Monster_FauneAbyssale_HermitCrab_Mature_TrailAtk_Shield"
            }
          ]
        },
        "Monster_FauneAbyssale_HermitCrab_Mature_Shield_Broken": {
          "modifierName": "",
          "elementDurability": 100.0,
          "onAdded": [
            {
              "$type": "SendEffectTrigger",
              "parameter": "BrokenTrigger",
              "attachPoint": "",
              "rotationDampTime": "Eff_Monster_FauneAbyssale_HermitCrab_Mature_TrailAtk_Shield"
            }
          ]
        },
        "Monster_FauneAbyssale_HermitCrab_Mature_Shield_None": {
          "modifierName": "",
          "elementDurability": 100.0,
          "onAdded": [
            {
              "$type": "SendEffectTrigger",
              "parameter": "InitialTrigger",
              "attachPoint": "",
              "rotationDampTime": "Eff_Monster_FauneAbyssale_HermitCrab_Mature_TrailAtk_Shield"
            }
          ]
        },
        "Monster_FauneAbyssale_HermitCrab_Mature_ChargeCollider": {
          "modifierName": "",
          "elementDurability": 100.0,
          "modifierMixins": [
            {
              "$type": "AttachActionToModifierMixin",
              "onAdded": [
                {
                  "$type": "EnablePushColliderName",
                  "pushColliderNames": ["MoveCollider2"],
                  "setEnable": true
                }
              ],
              "onRemoved": [
                {
                  "$type": "EnablePushColliderName",
                  "pushColliderNames": ["MoveCollider2"]
                }
              ]
            }
          ]
        }
      },
      "onAdded": [
        {
          "$type": "SetGlobalValue",
          "value": -1.0,
          "key": "_ABILITY_FauneAbyssale_HermitCrab_BeingHit",
          "maxValue": 10.0,
          "minValue": 0.0
        }
      ],
      "onAbilityStart": [
        {
          "$type": "TriggerBullet",
          "bulletID": 42615019,
          "born": {
            "$type": "ConfigBornByAttachPoint",
            "offset": {
              "x": 0.0,
              "y": 0.0,
              "z": 0.0
            },
            "direction": {
              "$type": "ConfigDirectionByAttackTarget",
              "randomAngleHor": 30.0,
              "randomAngleVer": 30.0,
              "maxAngle": 60.0,
              "startPoint": ""
            },
            "useRotation": true,
            "attachPointName": "BulletSource"
          }
        }
      ]
    }
  },
  {
    "Default": {
      "$type": "ConfigAbility",
      "abilityName": "Monster_FauneAbyssale_HermitCrab_Mature_FightBackAttack",
      "abilityMixins": [
        {
          "$type": "MFGGKNJLABP",
          "PNAPPKMKAJP": ["FightBackAttack"],
          "endNormalizedTime": 0.20000000298023224,
          "GINJMMLNHIA": 30.0,
          "HIFACMDKHHK": -30.0,
          "angularSpeed": 180.0,
          "attackTrigger": "",
          "remoteSteerToLocalTarget": false
        }
      ],
      "onAbilityStart": [
        {
          "$type": "TriggerBullet",
          "bulletID": 42615020,
          "born": {
            "$type": "ConfigBornByAttachPoint",
            "offset": {
              "x": 0.0,
              "y": 0.0,
              "z": 0.0
            },
            "direction": {
              "$type": "ConfigDirectionByAttackTarget",
              "maxAngle": 60.0,
              "startPoint": ""
            },
            "useRotation": true,
            "attachPointName": "Bone_Cheliped04_L"
          }
        }
      ]
    }
  },
  {
    "Default": {
      "$type": "ConfigAbility",
      "abilityName": "Monster_FauneAbyssale_HermitCrab_TrailBullet_Loop",
      "modifiers": {
        "UNIQUE_Monster_FauneAbyssale_HermitCrab_TrialBullet_Loop": {
          "modifierName": "",
          "forceTriggerWhenChangeAuthority": true,
          "elementDurability": 100.0,
          "onAdded": [
            {
              "$type": "AttachEffect",
              "rotationDampTime": "Eff_Monster_FauneAbyssale_HermitCrab_Mature_TrailAtk_Bullet01",
              "PPPDJGDDOGD": 1.0,
              "AJDILHJFNKE": -1.0
            },
            {
              "$type": "AttachEffect",
              "rotationDampTime": "Eff_Monster_FauneAbyssale_HermitCrab_Mature_TrailAtk_BulletTrail",
              "PPPDJGDDOGD": 1.0,
              "AJDILHJFNKE": -1.0
            }
          ],
          "onRemoved": [
            {
              "$type": "KillSelf"
            }
          ]
        }
      },
      "onAdded": [
        {
          "$type": "AttachModifier",
          "modifierName": "UNIQUE_Monster_FauneAbyssale_HermitCrab_TrialBullet_Loop"
        }
      ]
    }
  },
  {
    "Default": {
      "$type": "ConfigAbility",
      "abilityName": "Monster_FauneAbyssale_HermitCrab_TrailBullet_Explode",
      "onAbilityStart": [
        {
          "$type": "FireEffect",
          "rotationDampTime": "Eff_Monster_FauneAbyssale_HermitCrab_Mature_TrailAtk_BulletHit",
          "born": {
            "$type": "ConfigBornBySelf",
            "offset": {
              "x": 0.0,
              "y": 0.0,
              "z": 0.0
            },
            "useRotation": true
          },
          "PPPDJGDDOGD": 1.0,
          "AJDILHJFNKE": -1.0
        },
        {
          "$type": "RemoveUniqueModifier",
          "modifierName": "UNIQUE_Monster_FauneAbyssale_HermitCrab_TrialBullet_Loop"
        },
        {
          "$type": "Predicated",
          "otherTargets": {
            "$type": "SelectTargetsByShape",
            "shapeName": "CircleR1.5",
            "campTargetType": "All",
            "doOffStage": 1.0
          },
          "targetPredicates": [
            {
              "$type": "ByHasShield",
              "damageRatio": "All"
            }
          ],
          "successActions": [
            {
              "$type": "TriggerAttackEvent",
              "attackEvent": {
                "attackPattern": {
                  "$type": "ConfigAttackSphere",
                  "triggerType": "TriggerNoRepeat",
                  "massiveAttackRatio": 0.5,
                  "born": {
                    "$type": "ConfigBornBySelf",
                    "offset": {
                      "x": 0.0,
                      "y": 0.0,
                      "z": 0.0
                    },
                    "useRotation": true
                  },
                  "radius": 1.5
                },
                "attackInfo": {
                  "attackTag": "",
                  "attenuationTag": "",
                  "attenuationGroup": "default",
                  "attackProperty": {
                    "actorGrassSubHurtDelta": 0.10000000149011612,
                    "actorWindSubHurtDelta": 0.0,
                    "elementType": "Water",
                    "elementDurability": 25.0,
                    "strikeType": "Default",
                    "attackType": "Range",
                    "GLKMCMDJBIK": 0.0
                  },
                  "hitPattern": {
                    "onHitEffectName": "default",
                    "hitImpulseY": "",
                    "hitImpulseType": "LV5",
                    "hitHaltTimeScale": 0.05000000074505806
                  },
                  "canBeModifiedBy": "OriginOwner"
                }
              },
              "targetType": "Enemy"
            }
          ],
          "failActions": [
            {
              "$type": "TriggerAttackEvent",
              "attackEvent": {
                "attackPattern": {
                  "$type": "ConfigAttackSphere",
                  "triggerType": "TriggerNoRepeat",
                  "massiveAttackRatio": 0.5,
                  "born": {
                    "$type": "ConfigBornBySelf",
                    "offset": {
                      "x": 0.0,
                      "y": 0.0,
                      "z": 0.0
                    },
                    "useRotation": true
                  },
                  "radius": 1.5
                },
                "attackInfo": {
                  "attackTag": "",
                  "attenuationTag": "",
                  "attenuationGroup": "default",
                  "attackProperty": {
                    "actorGrassSubHurtDelta": 0.699999988079071,
                    "actorWindSubHurtDelta": 0.0,
                    "elementType": "Water",
                    "elementDurability": 25.0,
                    "strikeType": "Default",
                    "attackType": "Range",
                    "GLKMCMDJBIK": 0.0
                  },
                  "hitPattern": {
                    "onHitEffectName": "default",
                    "hitImpulseY": "",
                    "hitImpulseType": "LV5",
                    "hitHaltTimeScale": 0.05000000074505806
                  },
                  "canBeModifiedBy": "OriginOwner"
                }
              },
              "targetType": "Enemy"
            }
          ]
        }
      ]
    }
  },
  {
    "Default": {
      "$type": "ConfigAbility",
      "abilityName": "Monster_FauneAbyssale_HermitCrab_BombBullet_Loop",
      "modifiers": {
        "UNIQUE_Monster_FauneAbyssale_HermitCrab_BombBullet_Loop": {
          "modifierName": "",
          "forceTriggerWhenChangeAuthority": true,
          "elementDurability": 100.0,
          "onAdded": [
            {
              "$type": "AttachEffect",
              "rotationDampTime": "Eff_Monster_FauneAbyssale_HermitCrab_Mature_02_Shield_Back_Bullet",
              "PPPDJGDDOGD": 1.0,
              "AJDILHJFNKE": -1.0
            }
          ],
          "onRemoved": [
            {
              "$type": "KillSelf"
            }
          ]
        }
      },
      "onAdded": [
        {
          "$type": "AttachModifier",
          "modifierName": "UNIQUE_Monster_FauneAbyssale_HermitCrab_BombBullet_Loop"
        }
      ]
    }
  },
  {
    "Default": {
      "$type": "ConfigAbility",
      "abilityName": "Monster_FauneAbyssale_HermitCrab_BombBullet_Explode",
      "onAbilityStart": [
        {
          "$type": "FireHitEffect",
          "hitEntity": "",
          "hitScene": {
            "defaultEffect": "Eff_Monster_Diving_Shield_Back_Bullet_Hit"
          }
        },
        {
          "$type": "FireEffect",
          "rotationDampTime": "Eff_Monster_FauneAbyssale_HermitCrab_Mature_02_Shield_Back_Bullet_Hit",
          "PPPDJGDDOGD": 1.0,
          "AJDILHJFNKE": -1.0
        },
        {
          "$type": "RemoveUniqueModifier",
          "modifierName": "UNIQUE_Monster_FauneAbyssale_HermitCrab_BombBullet_Loop"
        },
        {
          "$type": "Predicated",
          "otherTargets": {
            "$type": "SelectTargetsByShape",
            "shapeName": "CircleR1.5",
            "campTargetType": "All",
            "doOffStage": 1.0
          },
          "targetPredicates": [
            {
              "$type": "ByHasShield",
              "damageRatio": "All"
            }
          ],
          "successActions": [
            {
              "$type": "TriggerAttackEvent",
              "attackEvent": {
                "attackPattern": {
                  "$type": "ConfigAttackSphere",
                  "triggerType": "TriggerNoRepeat",
                  "massiveAttackRatio": 0.5,
                  "born": {
                    "$type": "ConfigBornBySelf",
                    "offset": {
                      "x": 0.0,
                      "y": 0.0,
                      "z": 0.0
                    },
                    "useRotation": true
                  },
                  "radius": 1.5
                },
                "attackInfo": {
                  "attackTag": "",
                  "attenuationTag": "",
                  "attenuationGroup": "default",
                  "attackProperty": {
                    "actorGrassSubHurtDelta": 0.10000000149011612,
                    "actorWindSubHurtDelta": 0.0,
                    "elementType": "Water",
                    "elementDurability": 25.0,
                    "strikeType": "Default",
                    "attackType": "Range",
                    "GLKMCMDJBIK": 0.0
                  },
                  "hitPattern": {
                    "onHitEffectName": "default",
                    "hitImpulseY": "",
                    "hitImpulseType": "LV5",
                    "hitHaltTimeScale": 0.05000000074505806
                  },
                  "canBeModifiedBy": "OriginOwner"
                }
              },
              "targetType": "Enemy"
            }
          ],
          "failActions": [
            {
              "$type": "TriggerAttackEvent",
              "attackEvent": {
                "attackPattern": {
                  "$type": "ConfigAttackSphere",
                  "triggerType": "TriggerNoRepeat",
                  "massiveAttackRatio": 0.5,
                  "born": {
                    "$type": "ConfigBornBySelf",
                    "offset": {
                      "x": 0.0,
                      "y": 0.0,
                      "z": 0.0
                    },
                    "useRotation": true
                  },
                  "radius": 1.5
                },
                "attackInfo": {
                  "attackTag": "",
                  "attenuationTag": "",
                  "attenuationGroup": "default",
                  "attackProperty": {
                    "actorGrassSubHurtDelta": 0.699999988079071,
                    "actorWindSubHurtDelta": 0.0,
                    "elementType": "Water",
                    "elementDurability": 25.0,
                    "strikeType": "Default",
                    "attackType": "Range",
                    "GLKMCMDJBIK": 0.0
                  },
                  "hitPattern": {
                    "onHitEffectName": "default",
                    "hitImpulseY": "",
                    "hitImpulseType": "LV5",
                    "hitHaltTimeScale": 0.05000000074505806
                  },
                  "canBeModifiedBy": "OriginOwner"
                }
              },
              "targetType": "Enemy"
            }
          ]
        },
        {
          "$type": "KillSelf"
        }
      ]
    }
  },
  {
    "Default": {
      "$type": "ConfigAbility",
      "abilityName": "Monster_FauneAbyssale_HermitCrab_Mature_TrailAtk_BS_Bullet",
      "modifiers": {
        "Monster_FauneAbyssale_HermitCrab_Mature_TrailAtk_BS_Bullet": {
          "modifierName": "",
          "duration": 2.0,
          "elementDurability": 100.0,
          "onAdded": [
            {
              "$type": "AttachEffect",
              "rotationDampTime": "Eff_Monster_FauneAbyssale_HermitCrab_Mature_TrailAtk_BS_Bullet",
              "PPPDJGDDOGD": 1.0,
              "AJDILHJFNKE": -1.0
            }
          ]
        }
      },
      "onAbilityStart": [
        {
          "$type": "ApplyModifier",
          "modifierName": "Monster_FauneAbyssale_HermitCrab_Mature_TrailAtk_BS_Bullet"
        }
      ]
    }
  }
]
