[
  {
    "Default": {
      "$type": "ConfigAbility",
      "abilityName": "Monster_MachinaIustitia_Bradamante_Pose",
      "abilityMixins": [
        {
          "$type": "AttachModifierToSelfGlobalValueMixin",
          "globalValueKey": "_MACHINAIUSTITIA_STATIC_STATE_",
          "gvInTalk": 0.0,
          "valueSteps": [-1.5, -0.5, 0.5, 1.5],
          "modifierNameSteps": [
            "Pose_Init_Pneuma",
            "Pose_Init_Normal",
            "Pose_Init_Ousia"
          ]
        },
        {
          "$type": "AttachModifierToSelfGlobalValueMixin",
          "globalValueKey": "arkheGradeKey",
          "gvInTalk": 0.0,
          "valueSteps": [-2.5, -1.5, -0.5, 0.5, 1.5, 2.5],
          "modifierNameSteps": [
            "Pose_Pneuma_2",
            "Pose_Pneuma_1",
            "Pose_Normal",
            "Pose_Ousia_1",
            "Pose_Ousia_2"
          ]
        },
        {
          "$type": "CADNOOEAFHD",
          "actionQueue": [
            {
              "$type": "SetAnimatorTrigger",
              "predicates": [
                {
                  "$type": "ByEntityIsAlive",
                  "target": "Self"
                },
                {
                  "$type": "ByTargetGlobalValue",
                  "key": "arkheGradeKey",
                  "value": 0.0
                }
              ],
              "triggerID": "HitSpecialTrigger"
            },
            {
              "$type": "IDNGFEEBPAM",
              "boolID": "NoSensing"
            }
          ]
        }
      ],
      "modifiers": {
        "Pose_Init_Pneuma": {
          "modifierName": "",
          "elementDurability": 100.0,
          "onAdded": [
            {
              "$type": "PILJLANJHMK",
              "value": -2.0,
              "key": "arkheGradeKey",
              "maxValue": 0.0,
              "minValue": 0.0
            },
            {
              "$type": "SetAnimatorInt",
              "intID": "InitialPneumaOusia",
              "value": -1.0
            }
          ]
        },
        "Pose_Init_Normal": {
          "modifierName": "",
          "elementDurability": 100.0,
          "onAdded": [
            {
              "$type": "PILJLANJHMK",
              "value": 0.0,
              "key": "arkheGradeKey",
              "maxValue": 0.0,
              "minValue": 0.0
            },
            {
              "$type": "SetAnimatorInt",
              "intID": "InitialPneumaOusia",
              "value": 0.0
            }
          ]
        },
        "Pose_Init_Ousia": {
          "modifierName": "",
          "elementDurability": 100.0,
          "onAdded": [
            {
              "$type": "PILJLANJHMK",
              "value": 2.0,
              "key": "arkheGradeKey",
              "maxValue": 0.0,
              "minValue": 0.0
            },
            {
              "$type": "SetAnimatorInt",
              "intID": "InitialPneumaOusia",
              "value": 1.0
            },
            {
              "$type": "AttachModifier",
              "modifierName": "Bradamante_Ousia_EventPatternHandler"
            }
          ]
        },
        "Pose_Pneuma_2": {
          "modifierName": "",
          "elementDurability": 100.0,
          "onAdded": [
            {
              "$type": "GFFKENEJFFB",
              "intID": "StateTag",
              "value": -1
            },
            {
              "$type": "SetAnimatorInt",
              "intID": "EnergyTag1",
              "value": -2.0
            },
            {
              "$type": "ResetAnimatorTrigger",
              "triggerID": "HitSpecialTrigger"
            },
            {
              "$type": "SetGlobalValue",
              "value": 0.0,
              "key": "_MACHINAIUSTITIA_NEEDREPAIR_",
              "maxValue": 0.0,
              "minValue": 0.0
            },
            {
              "$type": "RemoveModifier",
              "modifierName": "Bradamante_SelfRepair_Delay"
            }
          ]
        },
        "Pose_Pneuma_1": {
          "modifierName": "",
          "elementDurability": 100.0,
          "onAdded": [
            {
              "$type": "GFFKENEJFFB",
              "intID": "StateTag",
              "value": -1
            },
            {
              "$type": "SetAnimatorInt",
              "intID": "EnergyTag1",
              "value": -1.0
            },
            {
              "$type": "ResetAnimatorTrigger",
              "triggerID": "HitSpecialTrigger"
            },
            {
              "$type": "SetGlobalValue",
              "value": 0.0,
              "key": "_MACHINAIUSTITIA_NEEDREPAIR_",
              "maxValue": 0.0,
              "minValue": 0.0
            },
            {
              "$type": "RemoveModifier",
              "modifierName": "Bradamante_SelfRepair_Delay"
            }
          ]
        },
        "Pose_Normal": {
          "modifierName": "",
          "elementDurability": 100.0,
          "onAdded": [
            {
              "$type": "GFFKENEJFFB",
              "intID": "StateTag"
            },
            {
              "$type": "SetAnimatorInt",
              "intID": "EnergyTag1",
              "value": 0.0
            },
            {
              "$type": "AttachModifier",
              "modifierName": "Bradamante_NeedRepair_Delay"
            },
            {
              "$type": "AttachModifier",
              "modifierName": "Bradamante_SelfRepair_Delay"
            }
          ]
        },
        "Pose_Ousia_2": {
          "modifierName": "",
          "elementDurability": 100.0,
          "onAdded": [
            {
              "$type": "GFFKENEJFFB",
              "intID": "StateTag",
              "value": 1
            },
            {
              "$type": "SetAnimatorInt",
              "intID": "EnergyTag1",
              "value": 2.0
            },
            {
              "$type": "ResetAnimatorTrigger",
              "triggerID": "HitSpecialTrigger"
            },
            {
              "$type": "SetGlobalValue",
              "value": 0.0,
              "key": "_MACHINAIUSTITIA_NEEDREPAIR_",
              "maxValue": 0.0,
              "minValue": 0.0
            },
            {
              "$type": "RemoveModifier",
              "modifierName": "Bradamante_SelfRepair_Delay"
            }
          ]
        },
        "Pose_Ousia_1": {
          "modifierName": "",
          "elementDurability": 100.0,
          "onAdded": [
            {
              "$type": "GFFKENEJFFB",
              "intID": "StateTag",
              "value": 1
            },
            {
              "$type": "SetAnimatorInt",
              "intID": "EnergyTag1",
              "value": 1.0
            },
            {
              "$type": "ResetAnimatorTrigger",
              "triggerID": "HitSpecialTrigger"
            },
            {
              "$type": "SetGlobalValue",
              "value": 0.0,
              "key": "_MACHINAIUSTITIA_NEEDREPAIR_",
              "maxValue": 0.0,
              "minValue": 0.0
            },
            {
              "$type": "RemoveModifier",
              "modifierName": "Bradamante_SelfRepair_Delay"
            }
          ]
        },
        "Bradamante_Ousia_EventPatternHandler": {
          "modifierName": "",
          "elementDurability": 100.0,
          "modifierMixins": [
            {
              "$type": "ReplaceEventPatternMixin",
              "oldPatterns": [
                "Monster_MachinaIustitia_Bradamante_Recover_Pneuma"
              ],
              "newPatterns": [
                "Monster_MachinaIustitia_Bradamante_Recover_Ousia"
              ]
            }
          ]
        },
        "Bradamante_NeedRepair_Delay": {
          "modifierName": "",
          "duration": 4.0,
          "elementDurability": 100.0,
          "onRemoved": [
            {
              "$type": "SetGlobalValue",
              "value": 1.0,
              "key": "_MACHINAIUSTITIA_NEEDREPAIR_",
              "maxValue": 0.0,
              "minValue": 0.0
            }
          ]
        },
        "Bradamante_SelfRepair_Delay": {
          "modifierName": "",
          "duration": 25.0,
          "elementDurability": 100.0,
          "onRemoved": [
            {
              "$type": "IPMMJGMONCI",
              "canBeHandledOnRecover": true,
              "predicates": [
                {
                  "$type": "ByTargetGlobalValue",
                  "key": "_MACHINAIUSTITIA_CHARGED_",
                  "value": 0.0,
                  "compareType": "NoneOrEqual"
                }
              ],
              "skillIDs": [192]
            },
            {
              "$type": "SetGlobalValue",
              "predicates": [
                {
                  "$type": "ByNot",
                  "predicates": [
                    {
                      "$type": "ByAnimatorFloat",
                      "logic": "Equal",
                      "value": 701.0,
                      "parameter": "PoseID"
                    },
                    {
                      "$type": "ByAnimatorFloat",
                      "logic": "Equal",
                      "value": 801.0,
                      "parameter": "PoseID"
                    },
                    {
                      "$type": "ByAnimatorFloat",
                      "logic": "Equal",
                      "value": 901.0,
                      "parameter": "PoseID"
                    },
                    {
                      "$type": "ByAnimatorFloat",
                      "logic": "Equal",
                      "value": 902.0,
                      "parameter": "PoseID"
                    },
                    {
                      "$type": "ByAnimatorFloat",
                      "logic": "Equal",
                      "value": 903.0,
                      "parameter": "PoseID"
                    },
                    {
                      "$type": "ByAnimatorFloat",
                      "logic": "Equal",
                      "value": 1.0,
                      "parameter": "PoseID"
                    },
                    {
                      "$type": "ByAnimatorFloat",
                      "logic": "Equal",
                      "value": 11.0,
                      "parameter": "PoseID"
                    },
                    {
                      "$type": "ByAnimatorFloat",
                      "logic": "Equal",
                      "value": 21.0,
                      "parameter": "PoseID"
                    },
                    {
                      "$type": "ByAnimatorFloat",
                      "logic": "Equal",
                      "value": 1001.0,
                      "parameter": "PoseID"
                    }
                  ]
                }
              ],
              "value": 1.0,
              "key": "_MACHINAIUSTITIA_SELFRECOVER_",
              "maxValue": 0.0,
              "minValue": 0.0
            }
          ]
        }
      }
    }
  },
  {
    "Default": {
      "$type": "ConfigAbility",
      "abilityName": "Monster_MachinaIustitia_Bradamante_RepairPose",
      "abilityMixins": [
        {
          "$type": "AttachModifierToSelfGlobalValueMixin",
          "globalValueKey": "_MACHINAIUSTITIA_CHARGED_",
          "gvInTalk": 0.0,
          "valueSteps": [-0.5, 0.5, 1.5],
          "modifierNameSteps": ["Pose_NoRepair", "Pose_ReadyRepair"]
        }
      ],
      "modifiers": {
        "Pose_NoRepair": {
          "modifierName": "",
          "elementDurability": 100.0,
          "onAdded": [
            {
              "$type": "IDNGFEEBPAM",
              "boolID": "RepairTag"
            }
          ]
        },
        "Pose_ReadyRepair": {
          "modifierName": "",
          "elementDurability": 100.0,
          "onAdded": [
            {
              "$type": "IDNGFEEBPAM",
              "boolID": "RepairTag",
              "value": true
            },
            {
              "$type": "SetGlobalValue",
              "value": 0.0,
              "key": "_MACHINAIUSTITIA_NEEDREPAIR_",
              "maxValue": 0.0,
              "minValue": 0.0
            }
          ]
        }
      },
      "onAdded": [
        {
          "$type": "SetGlobalValue",
          "value": 0.0,
          "key": "_MACHINAIUSTITIA_NEEDREPAIR_",
          "maxValue": 0.0,
          "minValue": 0.0
        },
        {
          "$type": "SetGlobalValue",
          "value": 0.0,
          "key": "_MACHINAIUSTITIA_CHARGED_",
          "maxValue": 0.0,
          "minValue": 0.0
        },
        {
          "$type": "SetGlobalValue",
          "value": 0.0,
          "key": "_MACHINAIUSTITIA_SELFRECOVER_",
          "maxValue": 0.0,
          "minValue": 0.0
        }
      ]
    }
  },
  {
    "Default": {
      "$type": "ConfigAbility",
      "abilityName": "Monster_MachinaIustitia_Bradamante_Recover_Pneuma",
      "onAbilityStart": [
        {
          "$type": "PILJLANJHMK",
          "value": -2.0,
          "key": "arkheGradeKey",
          "maxValue": 0.0,
          "minValue": 0.0
        },
        {
          "$type": "SetGlobalValue",
          "value": 0.0,
          "key": "_MACHINAIUSTITIA_CHARGED_",
          "maxValue": 0.0,
          "minValue": 0.0
        },
        {
          "$type": "SetGlobalValue",
          "value": 0.0,
          "key": "_MACHINAIUSTITIA_SELFRECOVER_",
          "maxValue": 0.0,
          "minValue": 0.0
        }
      ]
    }
  },
  {
    "Default": {
      "$type": "ConfigAbility",
      "abilityName": "Monster_MachinaIustitia_Bradamante_RecoverEffect_Pneuma",
      "onAbilityStart": [
        {
          "$type": "RemoveUniqueModifier",
          "modifierName": "UNIQUE_MachinaIustitia_Charge_Effect_Pneuma"
        }
      ]
    }
  },
  {
    "Default": {
      "$type": "ConfigAbility",
      "abilityName": "Monster_MachinaIustitia_Bradamante_Recover_Effect_Extra",
      "onAbilityStart": [
        {
          "$type": "FireEffect",
          "predicates": [
            {
              "$type": "ByTargetGlobalValue",
              "key": "_MACHINAIUSTITIA_CHARGED_",
              "value": 0.0,
              "compareType": "NoneOrEqual"
            },
            {
              "$type": "ByTargetGlobalValue",
              "key": "_MACHINAIUSTITIA_STATIC_STATE_",
              "value": -1.0,
              "compareType": "LessAndEqual"
            }
          ],
          "rotationDampTime": "Eff_Monster_MachinaIustitia_Recover_Pneuma",
          "PPPDJGDDOGD": 1.0,
          "AJDILHJFNKE": -1.0
        },
        {
          "$type": "FireEffect",
          "predicates": [
            {
              "$type": "ByTargetGlobalValue",
              "key": "_MACHINAIUSTITIA_CHARGED_",
              "value": 0.0,
              "compareType": "NoneOrEqual"
            },
            {
              "$type": "ByTargetGlobalValue",
              "key": "_MACHINAIUSTITIA_STATIC_STATE_",
              "value": 1.0,
              "compareType": "MoreThanAndEqual"
            }
          ],
          "rotationDampTime": "Eff_Monster_MachinaIustitia_Recover_Ousia",
          "PPPDJGDDOGD": 1.0,
          "AJDILHJFNKE": -1.0
        }
      ]
    }
  },
  {
    "Default": {
      "$type": "ConfigAbility",
      "abilityName": "Monster_MachinaIustitia_Bradamante_Recover_Ousia",
      "onAbilityStart": [
        {
          "$type": "PILJLANJHMK",
          "value": 2.0,
          "key": "arkheGradeKey",
          "maxValue": 0.0,
          "minValue": 0.0
        },
        {
          "$type": "SetGlobalValue",
          "value": 0.0,
          "key": "_MACHINAIUSTITIA_CHARGED_",
          "maxValue": 0.0,
          "minValue": 0.0
        },
        {
          "$type": "SetGlobalValue",
          "value": 0.0,
          "key": "_MACHINAIUSTITIA_SELFRECOVER_",
          "maxValue": 0.0,
          "minValue": 0.0
        }
      ]
    }
  },
  {
    "Default": {
      "$type": "ConfigAbility",
      "abilityName": "Monster_MachinaIustitia_Bradamante_RecoverEffect_Ousia",
      "onAbilityStart": [
        {
          "$type": "RemoveUniqueModifier",
          "modifierName": "UNIQUE_MachinaIustitia_Charge_Effect_Ousia"
        }
      ]
    }
  },
  {
    "Default": {
      "$type": "ConfigAbility",
      "abilityName": "Monster_MachinaIustitia_Bradamante_ResetState",
      "abilityMixins": [
        {
          "$type": "LEOGLBFIELL",
          "poseIDs": [701, 801, 901, 902, 903],
          "modifierName": "MachinaIustitia_Bradamante_ReturnToBorn"
        }
      ],
      "modifiers": {
        "MachinaIustitia_Bradamante_ReturnToBorn": {
          "modifierName": "",
          "elementDurability": 100.0,
          "onRemoved": [
            {
              "$type": "PILJLANJHMK",
              "predicates": [
                {
                  "$type": "ByTargetGlobalValue",
                  "key": "_MACHINAIUSTITIA_STATIC_STATE_",
                  "value": 0.0
                }
              ],
              "value": 0.0,
              "key": "arkheGradeKey",
              "maxValue": 0.0,
              "minValue": 0.0
            },
            {
              "$type": "PILJLANJHMK",
              "predicates": [
                {
                  "$type": "ByTargetGlobalValue",
                  "key": "_MACHINAIUSTITIA_STATIC_STATE_",
                  "value": -1.0,
                  "compareType": "LessAndEqual"
                }
              ],
              "value": -2.0,
              "key": "arkheGradeKey",
              "maxValue": 0.0,
              "minValue": 0.0
            },
            {
              "$type": "PILJLANJHMK",
              "predicates": [
                {
                  "$type": "ByTargetGlobalValue",
                  "key": "_MACHINAIUSTITIA_STATIC_STATE_",
                  "value": 1.0,
                  "compareType": "MoreThanAndEqual"
                }
              ],
              "value": 2.0,
              "key": "arkheGradeKey",
              "maxValue": 0.0,
              "minValue": 0.0
            },
            {
              "$type": "SetGlobalValue",
              "value": 0.0,
              "key": "_MACHINAIUSTITIA_NEEDREPAIR_",
              "maxValue": 0.0,
              "minValue": 0.0
            }
          ]
        }
      }
    }
  },
  {
    "Default": {
      "$type": "ConfigAbility",
      "abilityName": "Monster_MachinaIustitia_Bradamante_CoilEffect",
      "abilityMixins": [
        {
          "$type": "AttachModifierToSelfGlobalValueMixin",
          "globalValueKey": "_MACHINAIUSTITIA_COIL_STATE_",
          "gvInTalk": 0.0,
          "valueSteps": [-0.5, 0.5, 1.5],
          "modifierNameSteps": [
            "MachinaIustitia_Bradamante_CoilEffect01_Handler",
            "MachinaIustitia_Bradamante_CoilEffect02_Handler"
          ]
        }
      ],
      "modifiers": {
        "MachinaIustitia_Bradamante_CoilEffect01_Handler": {
          "modifierName": "",
          "elementDurability": 100.0,
          "modifierMixins": [
            {
              "$type": "AttachModifierToSelfGlobalValueMixin",
              "globalValueKey": "arkheGradeKey",
              "gvInTalk": 0.0,
              "valueSteps": [-2.5, -0.5, 0.5, 2.5],
              "modifierNameSteps": [
                "MachinaIustitia_Bradamante_CoilEffect01_Pneuma",
                "Blank",
                "MachinaIustitia_Bradamante_CoilEffect01_Ousia"
              ]
            }
          ]
        },
        "MachinaIustitia_Bradamante_CoilEffect02_Handler": {
          "modifierName": "",
          "elementDurability": 100.0,
          "modifierMixins": [
            {
              "$type": "AttachModifierToSelfGlobalValueMixin",
              "globalValueKey": "arkheGradeKey",
              "gvInTalk": 0.0,
              "valueSteps": [-2.5, -0.5, 0.5, 2.5],
              "modifierNameSteps": [
                "MachinaIustitia_Bradamante_CoilEffect02_Pneuma",
                "Blank",
                "MachinaIustitia_Bradamante_CoilEffect02_Ousia"
              ]
            }
          ]
        },
        "MachinaIustitia_Bradamante_CoilEffect01_Pneuma": {
          "modifierName": "",
          "elementDurability": 100.0,
          "onAdded": [
            {
              "$type": "AttachEffect",
              "rotationDampTime": "Eff_Monster_MachinaIustitia_Coil01_Pneuma",
              "born": {
                "$type": "ConfigBornByAttachPoint",
                "offset": {
                  "x": 0.0,
                  "y": 0.0,
                  "z": 0.0
                },
                "useRotation": true,
                "attachPointName": "CoilAttachPoint01"
              },
              "PPPDJGDDOGD": 1.5,
              "AJDILHJFNKE": -1.0
            }
          ]
        },
        "MachinaIustitia_Bradamante_CoilEffect01_Ousia": {
          "modifierName": "",
          "elementDurability": 100.0,
          "onAdded": [
            {
              "$type": "AttachEffect",
              "rotationDampTime": "Eff_Monster_MachinaIustitia_Coil01_Ousia",
              "born": {
                "$type": "ConfigBornByAttachPoint",
                "offset": {
                  "x": 0.0,
                  "y": 0.0,
                  "z": 0.0
                },
                "useRotation": true,
                "attachPointName": "CoilAttachPoint01"
              },
              "PPPDJGDDOGD": 1.5,
              "AJDILHJFNKE": -1.0
            }
          ]
        },
        "MachinaIustitia_Bradamante_CoilEffect02_Pneuma": {
          "modifierName": "",
          "elementDurability": 100.0,
          "onAdded": [
            {
              "$type": "AttachEffect",
              "rotationDampTime": "Eff_Monster_MachinaIustitia_Coil02_Pneuma",
              "born": {
                "$type": "ConfigBornByAttachPoint",
                "offset": {
                  "x": 0.0,
                  "y": 0.0,
                  "z": 0.0
                },
                "useRotation": true,
                "attachPointName": "CoilAttachPoint02"
              },
              "PPPDJGDDOGD": 1.5,
              "AJDILHJFNKE": -1.0
            }
          ]
        },
        "MachinaIustitia_Bradamante_CoilEffect02_Ousia": {
          "modifierName": "",
          "elementDurability": 100.0,
          "onAdded": [
            {
              "$type": "AttachEffect",
              "rotationDampTime": "Eff_Monster_MachinaIustitia_Coil02_Ousia",
              "born": {
                "$type": "ConfigBornByAttachPoint",
                "offset": {
                  "x": 0.0,
                  "y": 0.0,
                  "z": 0.0
                },
                "useRotation": true,
                "attachPointName": "CoilAttachPoint02"
              },
              "PPPDJGDDOGD": 1.5,
              "AJDILHJFNKE": -1.0
            }
          ]
        },
        "Blank": {
          "modifierName": "",
          "elementDurability": 100.0
        }
      },
      "onKill": [
        {
          "$type": "RemoveModifier",
          "modifierName": "MachinaIustitia_Bradamante_CoilEffect01_Pneuma"
        },
        {
          "$type": "RemoveModifier",
          "modifierName": "MachinaIustitia_Bradamante_CoilEffect01_Ousia"
        },
        {
          "$type": "RemoveModifier",
          "modifierName": "MachinaIustitia_Bradamante_CoilEffect02_Pneuma"
        },
        {
          "$type": "RemoveModifier",
          "modifierName": "MachinaIustitia_Bradamante_CoilEffect02_Ousia"
        }
      ]
    }
  },
  {
    "Default": {
      "$type": "ConfigAbility",
      "abilityName": "Monster_MachinaIustitia_Bradamante_Attack01",
      "abilityMixins": [
        {
          "$type": "AttachToNormalizedTimeMixin",
          "stateID": "Attack01",
          "modifierName": "Bradamante_RushAtk_RushMove_Handler",
          "normalizeStart": 0.42500001192092896,
          "normalizeEnd": 0.6949999928474426,
          "DGFCLAIDIFI": ""
        },
        {
          "$type": "AttachToNormalizedTimeMixin",
          "stateID": "Attack01_Loop1",
          "modifierName": "Bradamante_RushAtk_RushMove_Handler",
          "normalizeStart": 0.42500001192092896,
          "normalizeEnd": 0.6949999928474426,
          "DGFCLAIDIFI": ""
        },
        {
          "$type": "AttachToNormalizedTimeMixin",
          "stateID": "Attack01_Loop2",
          "modifierName": "Bradamante_RushAtk_RushMove_Handler",
          "normalizeStart": 0.42500001192092896,
          "normalizeEnd": 0.6949999928474426,
          "DGFCLAIDIFI": ""
        },
        {
          "$type": "AttachToStateIDMixin",
          "stateIDs": ["Attack01", "Attack01_Loop1", "Attack01_Loop2"],
          "modifierName": "Attack01SkillShader",
          "DGFCLAIDIFI": ""
        }
      ],
      "modifiers": {
        "Attack01SkillShader": {
          "modifierName": "",
          "elementDurability": 100.0,
          "onAdded": [
            {
              "$type": "ResetAnimatorTrigger",
              "triggerID": "Attack01Stop"
            },
            {
              "$type": "SetAnimatorInt",
              "intID": "SkillShader",
              "value": 1.0
            }
          ],
          "onRemoved": [
            {
              "$type": "SetAnimatorInt",
              "intID": "SkillShader",
              "value": 0.0
            },
            {
              "$type": "ResetAnimatorTrigger",
              "triggerID": "Attack01Stop"
            }
          ]
        },
        "Bradamante_BulletShoot_End_SpecialState": {
          "modifierName": "",
          "elementDurability": 100.0,
          "onAdded": [
            {
              "$type": "SetAnimatorTrigger",
              "triggerID": "Attack01Stop"
            },
            {
              "$type": "RemoveModifier",
              "modifierName": "Bradamante_RushAtk_RushMove_Handler"
            }
          ]
        },
        "Bradamante_RushAtk_RushMove_Handler": {
          "modifierName": "",
          "elementDurability": 100.0,
          "modifierMixins": [
            {
              "$type": "JJIHJPCPPGO",
              "abilityStates": ["ElementFrozen", "ElementPetrifaction"],
              "modifierName": "Bradamante_BulletShoot_End_SpecialState"
            }
          ],
          "onAdded": [
            {
              "$type": "TriggerBullet",
              "bulletID": 42406044,
              "born": {
                "$type": "ConfigBornBySelf",
                "useRotation": true
              },
              "trackTarget": "Self",
              "lifeByOwnerV2": true
            }
          ],
          "onRemoved": [
            {
              "$type": "KillSelf",
              "otherTargets": {
                "$type": "SelectTargetsByChildren",
                "configID": 42406044
              }
            }
          ]
        }
      }
    }
  },
  {
    "Default": {
      "$type": "ConfigAbility",
      "abilityName": "MachinaIustitia_Bradamante_RushAtk_FollowBullet",
      "modifiers": {
        "FollowBullet_Effect": {
          "modifierName": "",
          "elementDurability": 100.0,
          "onAdded": [
            {
              "$type": "AttachEffect",
              "rotationDampTime": "Eff_Monster_MachinaIustitia_Bradamante01_Attack01_Circle",
              "PPPDJGDDOGD": 1.0,
              "AJDILHJFNKE": -1.0
            }
          ]
        }
      },
      "onAdded": [
        {
          "$type": "ApplyModifier",
          "modifierName": "FollowBullet_Effect"
        }
      ],
      "onAbilityStart": [
        {
          "$type": "TriggerAttackEvent",
          "attackEvent": {
            "attackPattern": {
              "$type": "ConfigAttackSphere",
              "triggerType": "TriggerNoRepeat",
              "born": {
                "$type": "ConfigBornByCollisionPoint"
              },
              "radius": 1.0
            },
            "attackInfo": {
              "attackTag": "",
              "attenuationTag": "Bradamante_Attack01",
              "attenuationGroup": "Bradamante_Attack01",
              "attackProperty": {
                "actorGrassSubHurtDelta": 0.6000000238418579,
                "actorWindSubHurtDelta": 0.0,
                "elementType": "Water",
                "elementDurability": 25.0,
                "strikeType": "Slash",
                "enBreak": 50.0,
                "attackType": "Melee",
                "GLKMCMDJBIK": 0.0
              },
              "hitPattern": {
                "onHitEffectName": "default",
                "hitImpulseY": "",
                "hitImpulseType": "LV3",
                "retreatType": "ByHitDirection",
                "hitHaltTimeScale": 0.05000000074505806
              },
              "canBeModifiedBy": "OriginOwner"
            }
          },
          "targetType": "Enemy"
        }
      ],
      "onKill": [
        {
          "$type": "RemoveModifier",
          "modifierName": "FollowBullet_Effect"
        }
      ]
    }
  },
  {
    "Default": {
      "$type": "ConfigAbility",
      "abilityName": "Monster_MachinaIustitia_Bradamante_RushMove",
      "abilityMixins": [
        {
          "$type": "AttachToNormalizedTimeMixin",
          "stateID": "Attack02",
          "modifierName": "Attack02_RushMove",
          "normalizeStart": 0.2199999988079071,
          "DGFCLAIDIFI": ""
        },
        {
          "$type": "AttachToNormalizedTimeMixin",
          "stateID": "Attack04",
          "modifierName": "Attack04_RushMove",
          "normalizeStart": 0.28999999165534973,
          "DGFCLAIDIFI": ""
        }
      ],
      "modifiers": {
        "Attack02_RushMove": {
          "modifierName": "",
          "elementDurability": 100.0,
          "onAdded": [
            {
              "$type": "Predicated",
              "target": "SelfAttackTarget",
              "targetPredicates": [
                {
                  "$type": "ByTargetPositionToSelfPosition",
                  "logic": "GreaterOrEqual",
                  "value": 3.0,
                  "DDALGNLEHOD": ""
                }
              ],
              "successActions": [
                {
                  "$type": "PAGFCBCKEBH",
                  "toPos": {
                    "$type": "ConfigBornBySelf",
                    "offset": {
                      "x": 0.0,
                      "y": 0.0,
                      "z": 2.5
                    },
                    "onGround": true,
                    "useRotation": true
                  },
                  "NKPCHMCNNOK": 0.11999999731779099,
                  "animatorStateIDs": ["Attack02"],
                  "overrideMoveCollider": ""
                }
              ]
            }
          ]
        },
        "Attack04_RushMove": {
          "modifierName": "",
          "elementDurability": 100.0,
          "onAdded": [
            {
              "$type": "Predicated",
              "target": "SelfAttackTarget",
              "targetPredicates": [
                {
                  "$type": "ByTargetPositionToSelfPosition",
                  "logic": "GreaterOrEqual",
                  "value": 3.0,
                  "DDALGNLEHOD": ""
                }
              ],
              "successActions": [
                {
                  "$type": "PAGFCBCKEBH",
                  "toPos": {
                    "$type": "ConfigBornBySelf",
                    "offset": {
                      "x": 0.0,
                      "y": 0.0,
                      "z": 3.0
                    },
                    "onGround": true,
                    "useRotation": true
                  },
                  "NKPCHMCNNOK": 0.09000000357627869,
                  "animatorStateIDs": ["Attack04"],
                  "overrideMoveCollider": ""
                }
              ]
            }
          ]
        }
      }
    }
  },
  {
    "Default": {
      "$type": "ConfigAbility",
      "abilityName": "Monster_MachinaIustitia_Bradamante_Attack02_Hit3_Side2",
      "onAbilityStart": [
        {
          "$type": "TriggerBullet",
          "bulletID": 42406059,
          "born": {
            "$type": "ConfigBornBySelf",
            "offset": {
              "x": 2.690000057220459,
              "y": 1.399999976158142,
              "z": 1.5199999809265137
            },
            "direction": {
              "$type": "ConfigDirectionByDefault"
            },
            "useRotation": true
          },
          "trackTarget": "Self"
        }
      ]
    }
  },
  {
    "Default": {
      "$type": "ConfigAbility",
      "abilityName": "Monster_MachinaIustitia_Bradamante_Attack02_Hit3_Side3",
      "onAbilityStart": [
        {
          "$type": "TriggerBullet",
          "bulletID": 42406060,
          "born": {
            "$type": "ConfigBornBySelf",
            "offset": {
              "x": -1.6299999952316284,
              "y": 1.559999942779541,
              "z": 0.7699999809265137
            },
            "direction": {
              "$type": "ConfigDirectionByDefault"
            },
            "useRotation": true
          },
          "trackTarget": "Self"
        }
      ]
    }
  },
  {
    "Default": {
      "$type": "ConfigAbility",
      "abilityName": "Monster_MachinaIustitia_Bradamante_Attack02_Hit3",
      "abilityMixins": [
        {
          "$type": "AttachToStateIDMixin",
          "stateIDs": ["Attack02"],
          "modifierName": "Attack02SkillShader",
          "DGFCLAIDIFI": ""
        }
      ],
      "modifiers": {
        "Attack02SkillShader": {
          "modifierName": "",
          "elementDurability": 100.0,
          "onAdded": [
            {
              "$type": "SetAnimatorInt",
              "intID": "SkillShader",
              "value": 2.0
            }
          ],
          "onRemoved": [
            {
              "$type": "SetAnimatorInt",
              "intID": "SkillShader",
              "value": 0.0
            }
          ]
        }
      },
      "onAbilityStart": [
        {
          "$type": "TriggerBullet",
          "bulletID": 42406045,
          "born": {
            "$type": "ConfigBornBySelf",
            "offset": {
              "x": 0.27000001072883606,
              "y": 1.1299999952316284,
              "z": 1.6200000047683716
            },
            "direction": {
              "$type": "ConfigDirectionByDefault"
            },
            "useRotation": true
          },
          "trackTarget": "Self"
        }
      ]
    }
  },
  {
    "Default": {
      "$type": "ConfigAbility",
      "abilityName": "Monster_MachinaIustitia_Bradamante_Attack02_Hit3Bullet",
      "modifiers": {
        "Bullet_Effect": {
          "modifierName": "",
          "duration": 1.7999999523162842,
          "elementDurability": 100.0,
          "onAdded": [
            {
              "$type": "AttachEffect",
              "rotationDampTime": "Eff_Monster_MachinaIustitia_Bradamante01_Attack02_LegKnife",
              "PPPDJGDDOGD": 1.0,
              "AJDILHJFNKE": -1.0
            }
          ],
          "onRemoved": [
            {
              "$type": "KillSelf"
            }
          ]
        }
      },
      "onAdded": [
        {
          "$type": "AttachModifier",
          "modifierName": "Bullet_Effect"
        }
      ],
      "onAbilityStart": [
        {
          "$type": "TriggerAttackEvent",
          "attackEvent": {
            "attackPattern": {
              "$type": "ConfigAttackBox",
              "triggerType": "TriggerAlways",
              "born": {
                "$type": "ConfigBornBySelf",
                "offset": {
                  "x": 0.0,
                  "y": 0.0,
                  "z": 0.0
                },
                "useRotation": true
              },
              "size": {
                "x": 2.299999952316284,
                "y": 0.5,
                "z": 2.299999952316284
              }
            },
            "attackInfo": {
              "attackTag": "",
              "attenuationTag": "Bradamante_Attack02",
              "attenuationGroup": "Bradamante_Attack02",
              "attackProperty": {
                "actorGrassSubHurtDelta": 0.3499999940395355,
                "actorWindSubHurtDelta": 0.0,
                "elementType": "Water",
                "elementDurability": 25.0,
                "strikeType": "Slash",
                "enBreak": 200.0,
                "GLKMCMDJBIK": 0.0
              },
              "hitPattern": {
                "onHitEffectName": "default",
                "hitImpulseY": "",
                "hitImpulseType": "LV4",
                "hitHaltTimeScale": 0.05000000074505806
              },
              "canBeModifiedBy": "OriginOwner"
            }
          },
          "targetType": "Enemy"
        }
      ]
    }
  },
  {
    "Default": {
      "$type": "ConfigAbility",
      "abilityName": "Monster_MachinaIustitia_Bradamante_Attack02_Hit3Bullet2",
      "modifiers": {
        "Bullet_Effect": {
          "modifierName": "",
          "duration": 1.7999999523162842,
          "elementDurability": 100.0,
          "onAdded": [
            {
              "$type": "AttachEffect",
              "rotationDampTime": "Eff_Monster_MachinaIustitia_Bradamante01_Attack02_LegKnife_01",
              "PPPDJGDDOGD": 1.0,
              "AJDILHJFNKE": -1.0
            }
          ],
          "onRemoved": [
            {
              "$type": "KillSelf"
            }
          ]
        }
      },
      "onAdded": [
        {
          "$type": "AttachModifier",
          "modifierName": "Bullet_Effect"
        }
      ],
      "onAbilityStart": [
        {
          "$type": "TriggerAttackEvent",
          "attackEvent": {
            "attackPattern": {
              "$type": "ConfigAttackBox",
              "triggerType": "TriggerAlways",
              "born": {
                "$type": "ConfigBornBySelf",
                "offset": {
                  "x": 0.0,
                  "y": 0.0,
                  "z": 0.0
                },
                "useRotation": true
              },
              "size": {
                "x": 2.299999952316284,
                "y": 0.5,
                "z": 2.299999952316284
              }
            },
            "attackInfo": {
              "attackTag": "",
              "attenuationTag": "Bradamante_Attack02",
              "attenuationGroup": "Bradamante_Attack02",
              "attackProperty": {
                "actorGrassSubHurtDelta": 0.3499999940395355,
                "actorWindSubHurtDelta": 0.0,
                "elementType": "Water",
                "elementDurability": 25.0,
                "strikeType": "Slash",
                "enBreak": 200.0,
                "GLKMCMDJBIK": 0.0
              },
              "hitPattern": {
                "onHitEffectName": "default",
                "hitImpulseY": "",
                "hitImpulseType": "LV4",
                "hitHaltTimeScale": 0.05000000074505806
              },
              "canBeModifiedBy": "OriginOwner"
            }
          },
          "targetType": "Enemy"
        }
      ]
    }
  },
  {
    "Default": {
      "$type": "ConfigAbility",
      "abilityName": "Monster_MachinaIustitia_Bradamante_Attack02_Hit3Bullet3",
      "modifiers": {
        "Bullet_Effect": {
          "modifierName": "",
          "duration": 1.7999999523162842,
          "elementDurability": 100.0,
          "onAdded": [
            {
              "$type": "AttachEffect",
              "rotationDampTime": "Eff_Monster_MachinaIustitia_Bradamante01_Attack02_LegKnife_02",
              "PPPDJGDDOGD": 1.0,
              "AJDILHJFNKE": -1.0
            }
          ],
          "onRemoved": [
            {
              "$type": "KillSelf"
            }
          ]
        }
      },
      "onAdded": [
        {
          "$type": "AttachModifier",
          "modifierName": "Bullet_Effect"
        }
      ],
      "onAbilityStart": [
        {
          "$type": "TriggerAttackEvent",
          "attackEvent": {
            "attackPattern": {
              "$type": "ConfigAttackBox",
              "triggerType": "TriggerAlways",
              "born": {
                "$type": "ConfigBornBySelf",
                "offset": {
                  "x": 0.0,
                  "y": 0.0,
                  "z": 0.0
                },
                "useRotation": true
              },
              "size": {
                "x": 2.299999952316284,
                "y": 0.5,
                "z": 2.299999952316284
              }
            },
            "attackInfo": {
              "attackTag": "",
              "attenuationTag": "Bradamante_Attack02",
              "attenuationGroup": "Bradamante_Attack02",
              "attackProperty": {
                "actorGrassSubHurtDelta": 0.3499999940395355,
                "actorWindSubHurtDelta": 0.0,
                "elementType": "Water",
                "elementDurability": 25.0,
                "strikeType": "Slash",
                "enBreak": 200.0,
                "GLKMCMDJBIK": 0.0
              },
              "hitPattern": {
                "onHitEffectName": "default",
                "hitImpulseY": "",
                "hitImpulseType": "LV4",
                "hitHaltTimeScale": 0.05000000074505806
              },
              "canBeModifiedBy": "OriginOwner"
            }
          },
          "targetType": "Enemy"
        }
      ]
    }
  },
  {
    "Default": {
      "$type": "ConfigAbility",
      "abilityName": "Monster_MachinaIustitia_Bradamante_Attack03",
      "onAbilityStart": [
        {
          "$type": "TriggerBullet",
          "bulletID": 42406048,
          "born": {
            "$type": "ConfigBornBySelf",
            "offset": {
              "x": 0.0,
              "y": 0.0,
              "z": 2.5
            },
            "direction": {
              "$type": "ConfigDirectionByEntity",
              "angleOffset": {
                "x": 0.0,
                "y": 0.0,
                "z": 0.0
              }
            },
            "useRotation": true
          }
        }
      ]
    }
  },
  {
    "Default": {
      "$type": "ConfigAbility",
      "abilityName": "Monster_MachinaIustitia_Bradamante_Attack03_BulletHit",
      "modifiers": {
        "Monster_Bradamante_Attack03_Bullet_Damage": {
          "modifierName": "",
          "duration": 0.699999988079071,
          "elementDurability": 100.0,
          "thinkInterval": 0.20000000298023224,
          "onAdded": [
            {
              "$type": "FireEffect",
              "rotationDampTime": "Eff_Monster_MachinaIustitia_Bradamante01_Attack03_Hit",
              "born": {
                "$type": "ConfigBornBySelf",
                "useRotation": true
              },
              "PPPDJGDDOGD": 1.0,
              "AJDILHJFNKE": -1.0
            },
            {
              "$type": "TriggerAttackEvent",
              "attackEvent": {
                "attackPattern": {
                  "$type": "ConfigAttackCircle",
                  "triggerType": "TriggerNoRepeat",
                  "born": {
                    "$type": "ConfigBornBySelf",
                    "useRotation": true
                  },
                  "height": 1.7999999523162842,
                  "radius": 2.0
                },
                "attackInfo": {
                  "attackTag": "",
                  "attenuationTag": "Bradamante_Attack03",
                  "attenuationGroup": "Bradamante_Attack03",
                  "attackProperty": {
                    "actorGrassSubHurtDelta": 1.0,
                    "actorWindSubHurtDelta": 0.0,
                    "elementType": "Electric",
                    "elementDurability": 25.0,
                    "strikeType": "Slash",
                    "enBreak": 100.0,
                    "GLKMCMDJBIK": 0.0
                  },
                  "hitPattern": {
                    "onHitEffectName": "default",
                    "hitImpulseY": "",
                    "hitImpulseType": "LV5",
                    "retreatType": "ByHitDirection",
                    "hitHaltTimeScale": 0.009999999776482582
                  },
                  "canBeModifiedBy": "OriginOwner"
                }
              },
              "targetType": "Enemy"
            }
          ],
          "onThinkInterval": [
            {
              "$type": "FireEffect",
              "rotationDampTime": "Eff_Monster_MachinaIustitia_Bradamante01_Attack03_Hit",
              "born": {
                "$type": "ConfigBornBySelf",
                "useRotation": true
              },
              "PPPDJGDDOGD": 1.0,
              "AJDILHJFNKE": -1.0
            },
            {
              "$type": "TriggerAttackEvent",
              "attackEvent": {
                "attackPattern": {
                  "$type": "ConfigAttackCircle",
                  "triggerType": "TriggerNoRepeat",
                  "born": {
                    "$type": "ConfigBornBySelf",
                    "useRotation": true
                  },
                  "height": 1.7999999523162842,
                  "radius": 2.0
                },
                "attackInfo": {
                  "attackTag": "",
                  "attenuationTag": "Bradamante_Attack03",
                  "attenuationGroup": "Bradamante_Attack03",
                  "attackProperty": {
                    "actorGrassSubHurtDelta": 1.0,
                    "actorWindSubHurtDelta": 0.0,
                    "elementType": "Electric",
                    "elementDurability": 25.0,
                    "strikeType": "Slash",
                    "enBreak": 100.0,
                    "GLKMCMDJBIK": 0.0
                  },
                  "hitPattern": {
                    "onHitEffectName": "default",
                    "hitImpulseY": "",
                    "hitImpulseType": "LV5",
                    "retreatType": "ByHitDirection",
                    "hitHaltTimeScale": 0.009999999776482582
                  },
                  "canBeModifiedBy": "OriginOwner"
                }
              },
              "targetType": "Enemy"
            }
          ],
          "onThinkIntervalIsFixedUpdate": true
        }
      },
      "onAdded": [
        {
          "$type": "ApplyModifier",
          "modifierName": "Monster_Bradamante_Attack03_Bullet_Damage"
        }
      ]
    }
  },
  {
    "Default": {
      "$type": "ConfigAbility",
      "abilityName": "Monster_MachinaIustitia_Bradamante_SummonBullet",
      "modifiers": {
        "Bullet_LengthShifter": {
          "modifierName": "",
          "duration": 0.10000000149011612,
          "elementDurability": 100.0,
          "onAdded": [
            {
              "$type": "BHPDPACKKNI",
              "born": {
                "$type": "ConfigBornBySelf",
                "offset": {
                  "x": 3.0,
                  "y": 0.0,
                  "z": -3.0
                },
                "onGround": true,
                "useRotation": true
              },
              "hitSceneType": "BlinkHitSceneTestByThreeSegments",
              "limitY": 0.5
            },
            {
              "$type": "CreateGadget",
              "born": {
                "$type": "DNEKFAOHKBC",
                "onGround": true
              },
              "lifeByOwnerV2": true,
              "gadgetID": 42406058,
              "campID": 4001
            }
          ],
          "onRemoved": [
            {
              "$type": "SetSelfAttackTarget",
              "otherTargets": {
                "$type": "SelectTargetsByChildren",
                "topLimit": 1,
                "entityTypePriority": ["Gadget"],
                "configID": 42406058
              }
            },
            {
              "$type": "TriggerBullet",
              "target": "SelfAttackTarget",
              "bulletID": 42406057,
              "born": {
                "$type": "ConfigBornBySelf",
                "useRotation": true
              },
              "lifeByOwnerV2": true
            },
            {
              "$type": "DOGDNJHJADD"
            }
          ]
        }
      },
      "onAbilityStart": [
        {
          "$type": "ApplyModifier",
          "modifierName": "Bullet_LengthShifter"
        }
      ],
      "isDynamicAbility": true
    }
  },
  {
    "Default": {
      "$type": "ConfigAbility",
      "abilityName": "Monster_MachinaIustitia_Bradamante_Summon",
      "abilityMixins": [
        {
          "$type": "AOKOIIHJJPJ",
          "alertness": [1, 2],
          "modifierName": "KillSummoner"
        }
      ],
      "modifiers": {
        "KillSummoner": {
          "modifierName": "",
          "elementDurability": 100.0,
          "onRemoved": [
            {
              "$type": "KillSelf",
              "otherTargets": {
                "$type": "SelectTargetsByChildren",
                "configID": 24061109
              },
              "banHPPercentageDrop": true,
              "value": true,
              "banExp": true
            },
            {
              "$type": "KillSelf",
              "otherTargets": {
                "$type": "SelectTargetsByChildren",
                "configID": 24061110
              },
              "banHPPercentageDrop": true,
              "value": true,
              "banExp": true
            },
            {
              "$type": "KillSelf",
              "otherTargets": {
                "$type": "SelectTargetsByChildren",
                "configID": 24066109
              },
              "banHPPercentageDrop": true,
              "value": true,
              "banExp": true
            },
            {
              "$type": "KillSelf",
              "otherTargets": {
                "$type": "SelectTargetsByChildren",
                "configID": 24066110
              },
              "banHPPercentageDrop": true,
              "value": true,
              "banExp": true
            }
          ]
        },
        "Summon_LengthShifter": {
          "modifierName": "",
          "duration": 1.0,
          "elementDurability": 100.0,
          "onAdded": [
            {
              "$type": "BHPDPACKKNI",
              "born": {
                "$type": "ConfigBornBySelf",
                "offset": {
                  "x": 3.0,
                  "y": 0.0,
                  "z": -3.0
                },
                "onGround": true,
                "useRotation": true
              },
              "hitSceneType": "BlinkHitSceneTestByThreeSegments",
              "limitY": 0.5
            },
            {
              "$type": "DCKBKHHAFNO",
              "predicates": [
                {
                  "$type": "ByTargetGlobalValue",
                  "target": "Self",
                  "key": "_MACHINAIUSTITIA_STATIC_STATE_",
                  "value": -1.0
                },
                {
                  "$type": "ByTargetGlobalValue",
                  "target": "Self",
                  "key": "_MACHINAIUSTITIA_COIL_STATE_",
                  "value": 0.0
                }
              ],
              "monsterID": 24061109,
              "born": {
                "$type": "DNEKFAOHKBC",
                "onGround": true
              },
              "summonTag": 24061109,
              "aliveByOwner": true,
              "sightGroupWithOwner": true,
              "PCOICDDOAOP": true
            },
            {
              "$type": "DCKBKHHAFNO",
              "predicates": [
                {
                  "$type": "ByTargetGlobalValue",
                  "target": "Self",
                  "key": "_MACHINAIUSTITIA_STATIC_STATE_",
                  "value": -1.0
                },
                {
                  "$type": "ByTargetGlobalValue",
                  "target": "Self",
                  "key": "_MACHINAIUSTITIA_COIL_STATE_",
                  "value": 1.0
                }
              ],
              "monsterID": 24061110,
              "born": {
                "$type": "DNEKFAOHKBC",
                "onGround": true
              },
              "summonTag": 24061110,
              "aliveByOwner": true,
              "sightGroupWithOwner": true,
              "PCOICDDOAOP": true
            },
            {
              "$type": "DCKBKHHAFNO",
              "predicates": [
                {
                  "$type": "ByTargetGlobalValue",
                  "target": "Self",
                  "key": "_MACHINAIUSTITIA_STATIC_STATE_",
                  "value": 1.0
                },
                {
                  "$type": "ByTargetGlobalValue",
                  "target": "Self",
                  "key": "_MACHINAIUSTITIA_COIL_STATE_",
                  "value": 0.0
                }
              ],
              "monsterID": 24066109,
              "born": {
                "$type": "DNEKFAOHKBC",
                "onGround": true
              },
              "summonTag": 24066109,
              "aliveByOwner": true,
              "sightGroupWithOwner": true,
              "PCOICDDOAOP": true
            },
            {
              "$type": "DCKBKHHAFNO",
              "predicates": [
                {
                  "$type": "ByTargetGlobalValue",
                  "target": "Self",
                  "key": "_MACHINAIUSTITIA_STATIC_STATE_",
                  "value": 1.0
                },
                {
                  "$type": "ByTargetGlobalValue",
                  "target": "Self",
                  "key": "_MACHINAIUSTITIA_COIL_STATE_",
                  "value": 1.0
                }
              ],
              "monsterID": 24066110,
              "born": {
                "$type": "DNEKFAOHKBC",
                "onGround": true
              },
              "summonTag": 24066110,
              "aliveByOwner": true,
              "sightGroupWithOwner": true,
              "PCOICDDOAOP": true
            }
          ]
        }
      },
      "onAbilityStart": [
        {
          "$type": "ApplyModifier",
          "modifierName": "Summon_LengthShifter"
        }
      ],
      "isDynamicAbility": true
    }
  },
  {
    "Default": {
      "$type": "ConfigAbility",
      "abilityName": "Monster_MachinaIustitia_Bradamante_Steer",
      "abilityMixins": [
        {
          "$type": "IILHMBGONGM",
          "steerStateIDs": ["Alert1"],
          "endNormalizedTime": 0.3199999928474426,
          "angularSpeed": 240.0,
          "attackTrigger": "",
          "DGFCLAIDIFI": ""
        },
        {
          "$type": "IILHMBGONGM",
          "steerStateIDs": ["Alert1"],
          "startNormalizedTime": 0.3799999952316284,
          "endNormalizedTime": 0.6100000143051147,
          "angularSpeed": 240.0,
          "attackTrigger": "",
          "DGFCLAIDIFI": ""
        },
        {
          "$type": "IILHMBGONGM",
          "steerStateIDs": ["Alert2"],
          "endNormalizedTime": 0.03999999910593033,
          "angularSpeed": 540.0,
          "attackTrigger": "",
          "DGFCLAIDIFI": ""
        },
        {
          "$type": "IILHMBGONGM",
          "steerStateIDs": ["Alert2"],
          "startNormalizedTime": 0.44999998807907104,
          "endNormalizedTime": 0.4699999988079071,
          "angularSpeed": 540.0,
          "attackTrigger": "",
          "DGFCLAIDIFI": ""
        },
        {
          "$type": "IILHMBGONGM",
          "steerStateIDs": ["Attack01"],
          "startNormalizedTime": 0.03999999910593033,
          "endNormalizedTime": 0.07999999821186066,
          "angularSpeed": 120.0,
          "attackTrigger": "",
          "DGFCLAIDIFI": ""
        },
        {
          "$type": "IILHMBGONGM",
          "steerStateIDs": ["Attack01_Loop1"],
          "startNormalizedTime": 0.03999999910593033,
          "endNormalizedTime": 0.07999999821186066,
          "angularSpeed": 120.0,
          "attackTrigger": "",
          "DGFCLAIDIFI": ""
        },
        {
          "$type": "IILHMBGONGM",
          "steerStateIDs": ["Attack01_Loop2"],
          "startNormalizedTime": 0.03999999910593033,
          "endNormalizedTime": 0.07999999821186066,
          "angularSpeed": 120.0,
          "attackTrigger": "",
          "DGFCLAIDIFI": ""
        },
        {
          "$type": "IILHMBGONGM",
          "steerStateIDs": ["Attack01"],
          "startNormalizedTime": 0.1599999964237213,
          "endNormalizedTime": 0.44999998807907104,
          "angularSpeed": 240.0,
          "attackTrigger": "",
          "DGFCLAIDIFI": ""
        },
        {
          "$type": "IILHMBGONGM",
          "steerStateIDs": ["Attack01_Loop1"],
          "startNormalizedTime": 0.1599999964237213,
          "endNormalizedTime": 0.44999998807907104,
          "angularSpeed": 240.0,
          "attackTrigger": "",
          "DGFCLAIDIFI": ""
        },
        {
          "$type": "IILHMBGONGM",
          "steerStateIDs": ["Attack01_Loop2"],
          "startNormalizedTime": 0.1599999964237213,
          "endNormalizedTime": 0.44999998807907104,
          "angularSpeed": 240.0,
          "attackTrigger": "",
          "DGFCLAIDIFI": ""
        },
        {
          "$type": "IILHMBGONGM",
          "steerStateIDs": ["Attack01"],
          "startNormalizedTime": 0.6700000166893005,
          "endNormalizedTime": 0.8600000143051147,
          "angularSpeed": 120.0,
          "attackTrigger": "",
          "DGFCLAIDIFI": ""
        },
        {
          "$type": "IILHMBGONGM",
          "steerStateIDs": ["Attack01_Loop1"],
          "startNormalizedTime": 0.6700000166893005,
          "endNormalizedTime": 0.8600000143051147,
          "angularSpeed": 120.0,
          "attackTrigger": "",
          "DGFCLAIDIFI": ""
        },
        {
          "$type": "IILHMBGONGM",
          "steerStateIDs": ["Attack01_Loop2"],
          "startNormalizedTime": 0.6700000166893005,
          "endNormalizedTime": 0.8600000143051147,
          "angularSpeed": 120.0,
          "attackTrigger": "",
          "DGFCLAIDIFI": ""
        },
        {
          "$type": "IILHMBGONGM",
          "steerStateIDs": ["Attack01"],
          "startNormalizedTime": 0.8199999928474426,
          "endNormalizedTime": 0.9300000071525574,
          "angularSpeed": 60.0,
          "attackTrigger": "",
          "DGFCLAIDIFI": ""
        },
        {
          "$type": "IILHMBGONGM",
          "steerStateIDs": ["Attack01_Loop1"],
          "startNormalizedTime": 0.8199999928474426,
          "endNormalizedTime": 0.9300000071525574,
          "angularSpeed": 60.0,
          "attackTrigger": "",
          "DGFCLAIDIFI": ""
        },
        {
          "$type": "IILHMBGONGM",
          "steerStateIDs": ["Attack01_Loop2"],
          "startNormalizedTime": 0.8199999928474426,
          "endNormalizedTime": 0.9300000071525574,
          "angularSpeed": 60.0,
          "attackTrigger": "",
          "DGFCLAIDIFI": ""
        },
        {
          "$type": "IILHMBGONGM",
          "steerStateIDs": ["Attack02"],
          "startNormalizedTime": 0.07000000029802322,
          "endNormalizedTime": 0.4000000059604645,
          "angularSpeed": 180.0,
          "attackTrigger": "",
          "DGFCLAIDIFI": ""
        },
        {
          "$type": "IILHMBGONGM",
          "steerStateIDs": ["Attack02"],
          "startNormalizedTime": 0.5299999713897705,
          "endNormalizedTime": 0.800000011920929,
          "angularSpeed": 180.0,
          "attackTrigger": "",
          "DGFCLAIDIFI": ""
        },
        {
          "$type": "IILHMBGONGM",
          "steerStateIDs": ["Attack03"],
          "endNormalizedTime": 0.5320000052452087,
          "angularSpeed": 180.0,
          "attackTrigger": "",
          "DGFCLAIDIFI": ""
        },
        {
          "$type": "IILHMBGONGM",
          "steerStateIDs": ["Attack03_Loop1"],
          "endNormalizedTime": 0.5320000052452087,
          "angularSpeed": 180.0,
          "attackTrigger": "",
          "DGFCLAIDIFI": ""
        },
        {
          "$type": "IILHMBGONGM",
          "steerStateIDs": ["Attack03_Loop2"],
          "endNormalizedTime": 0.5320000052452087,
          "angularSpeed": 180.0,
          "attackTrigger": "",
          "DGFCLAIDIFI": ""
        },
        {
          "$type": "IILHMBGONGM",
          "steerStateIDs": ["Attack03"],
          "startNormalizedTime": 0.8899999856948853,
          "endNormalizedTime": 0.949999988079071,
          "angularSpeed": 90.0,
          "attackTrigger": "",
          "DGFCLAIDIFI": ""
        },
        {
          "$type": "IILHMBGONGM",
          "steerStateIDs": ["Attack03_Loop1"],
          "startNormalizedTime": 0.8899999856948853,
          "endNormalizedTime": 0.949999988079071,
          "angularSpeed": 90.0,
          "attackTrigger": "",
          "DGFCLAIDIFI": ""
        },
        {
          "$type": "IILHMBGONGM",
          "steerStateIDs": ["Attack03_Loop2"],
          "startNormalizedTime": 0.8899999856948853,
          "endNormalizedTime": 0.949999988079071,
          "angularSpeed": 90.0,
          "attackTrigger": "",
          "DGFCLAIDIFI": ""
        },
        {
          "$type": "IILHMBGONGM",
          "steerStateIDs": ["Attack04"],
          "endNormalizedTime": 0.10000000149011612,
          "angularSpeed": 120.0,
          "attackTrigger": "",
          "DGFCLAIDIFI": ""
        },
        {
          "$type": "IILHMBGONGM",
          "steerStateIDs": ["Attack04"],
          "startNormalizedTime": 0.20999999344348907,
          "endNormalizedTime": 0.27000001072883606,
          "angularSpeed": 180.0,
          "attackTrigger": "",
          "DGFCLAIDIFI": ""
        },
        {
          "$type": "IILHMBGONGM",
          "steerStateIDs": ["Attack04"],
          "startNormalizedTime": 0.3700000047683716,
          "endNormalizedTime": 0.47999998927116394,
          "angularSpeed": 240.0,
          "attackTrigger": "",
          "DGFCLAIDIFI": ""
        },
        {
          "$type": "IILHMBGONGM",
          "steerStateIDs": ["Attack04"],
          "startNormalizedTime": 0.5600000023841858,
          "endNormalizedTime": 0.6000000238418579,
          "angularSpeed": 360.0,
          "attackTrigger": "",
          "DGFCLAIDIFI": ""
        },
        {
          "$type": "IILHMBGONGM",
          "steerStateIDs": ["Dash02"],
          "startNormalizedTime": 0.30000001192092896,
          "endNormalizedTime": 0.5,
          "angularSpeed": 360.0,
          "attackTrigger": "",
          "DGFCLAIDIFI": ""
        },
        {
          "$type": "IILHMBGONGM",
          "steerStateIDs": ["Dash02"],
          "startNormalizedTime": 0.8199999928474426,
          "endNormalizedTime": 0.949999988079071,
          "angularSpeed": 120.0,
          "attackTrigger": "",
          "DGFCLAIDIFI": ""
        },
        {
          "$type": "IILHMBGONGM",
          "steerStateIDs": ["Dash04"],
          "startNormalizedTime": 0.30000001192092896,
          "endNormalizedTime": 0.5,
          "angularSpeed": 360.0,
          "attackTrigger": "",
          "DGFCLAIDIFI": ""
        },
        {
          "$type": "IILHMBGONGM",
          "steerStateIDs": ["Dash04"],
          "startNormalizedTime": 0.8199999928474426,
          "endNormalizedTime": 0.949999988079071,
          "angularSpeed": 120.0,
          "attackTrigger": "",
          "DGFCLAIDIFI": ""
        },
        {
          "$type": "IILHMBGONGM",
          "steerStateIDs": ["Attack06"],
          "startNormalizedTime": 0.10000000149011612,
          "endNormalizedTime": 0.30000001192092896,
          "angularSpeed": 90.0,
          "attackTrigger": "",
          "DGFCLAIDIFI": ""
        },
        {
          "$type": "IILHMBGONGM",
          "steerStateIDs": ["Attack07"],
          "startNormalizedTime": 0.10000000149011612,
          "endNormalizedTime": 0.1599999964237213,
          "angularSpeed": 90.0,
          "attackTrigger": "",
          "DGFCLAIDIFI": ""
        },
        {
          "$type": "IILHMBGONGM",
          "steerStateIDs": ["Attack07"],
          "startNormalizedTime": 0.30000001192092896,
          "endNormalizedTime": 0.4300000071525574,
          "angularSpeed": 90.0,
          "attackTrigger": "",
          "DGFCLAIDIFI": ""
        },
        {
          "$type": "IILHMBGONGM",
          "steerStateIDs": ["Summon"],
          "startNormalizedTime": 0.07999999821186066,
          "endNormalizedTime": 0.20000000298023224,
          "angularSpeed": 240.0,
          "attackTrigger": "",
          "DGFCLAIDIFI": ""
        }
      ]
    }
  },
  {
    "Default": {
      "$type": "ConfigAbility",
      "abilityName": "Monster_MachinaIustitia_Bradamante_Elite",
      "onAdded": [
        {
          "$type": "HNGKOKDJKDL",
          "skillEliteSetID": 2
        },
        {
          "$type": "SetAnimatorBool",
          "boolID": "Elite",
          "value": true
        }
      ],
      "isDynamicAbility": true
    }
  }
]
