[
  {
    "Default": {
      "$type": "ConfigAbility",
      "abilityName": "Monster_Fungus_Un_Gamma_Water_Steer",
      "abilityMixins": [
        {
          "$type": "IILHMBGONGM",
          "steerStateIDs": ["RamNormal_BS"],
          "angularSpeed": 720.0,
          "attackTrigger": "",
          "DGFCLAIDIFI": ""
        },
        {
          "$type": "IILHMBGONGM",
          "steerStateIDs": ["RamOverdose_BS"],
          "angularSpeed": 720.0,
          "attackTrigger": "",
          "DGFCLAIDIFI": ""
        },
        {
          "$type": "IILHMBGONGM",
          "steerStateIDs": ["RamDecayed_BS"],
          "angularSpeed": 720.0,
          "attackTrigger": "",
          "DGFCLAIDIFI": ""
        },
        {
          "$type": "IILHMBGONGM",
          "steerStateIDs": ["ShootNormal_BS"],
          "angularSpeed": 720.0,
          "attackTrigger": "",
          "DGFCLAIDIFI": ""
        },
        {
          "$type": "IILHMBGONGM",
          "steerStateIDs": ["ShootOverdose_BS"],
          "angularSpeed": 720.0,
          "attackTrigger": "",
          "DGFCLAIDIFI": ""
        },
        {
          "$type": "IILHMBGONGM",
          "steerStateIDs": ["ShootDecayed_BS"],
          "angularSpeed": 720.0,
          "attackTrigger": "",
          "DGFCLAIDIFI": ""
        },
        {
          "$type": "IILHMBGONGM",
          "steerStateIDs": ["JumpProcess"],
          "endNormalizedTime": 999.0,
          "angularSpeed": 180.0,
          "attackTrigger": "",
          "DGFCLAIDIFI": ""
        }
      ]
    }
  },
  {
    "Default": {
      "$type": "ConfigAbility",
      "abilityName": "Monster_Fungus_Un_Gamma_Water_Launch",
      "abilityMixins": [
        {
          "$type": "LEOGLBFIELL",
          "poseIDs": [302, 401],
          "modifierName": "Fungus_Un_Gamma_Water_Launch"
        }
      ],
      "modifiers": {
        "Fungus_Un_Gamma_Water_Launch": {
          "modifierName": "",
          "elementDurability": 100.0,
          "modifierMixins": [
            {
              "$type": "NAMKKPHALBP",
              "onMotionChange": [
                {
                  "$type": "IDNGFEEBPAM",
                  "boolID": "AirTag",
                  "value": true
                }
              ],
              "runUpToPos": "_Fungus_Un_Gamma_Water_Launch_Pos_",
              "launchToPos": ""
            }
          ],
          "onAdded": [
            {
              "$type": "IJLOOPGDPED",
              "born": {
                "$type": "ConfigBornByTarget",
                "offset": {
                  "x": 0.0,
                  "y": 2.0,
                  "z": 0.0
                }
              },
              "key": "_Fungus_Un_Gamma_Water_Launch_Pos_",
              "setTarget": false,
              "limitY": 2.5
            }
          ]
        },
        "Fungus_Un_Gamma_Water_Ground_Timer": {
          "modifierName": "",
          "duration": 10.0,
          "elementDurability": 100.0,
          "onAdded": [
            {
              "$type": "IDNGFEEBPAM",
              "boolID": "StartLand"
            }
          ],
          "onRemoved": [
            {
              "$type": "IDNGFEEBPAM",
              "boolID": "StartLaunch",
              "value": true
            }
          ]
        },
        "Fungus_Un_Gamma_Water_Air_Timer": {
          "modifierName": "",
          "duration": 10.0,
          "elementDurability": 100.0,
          "onAdded": [
            {
              "$type": "IDNGFEEBPAM",
              "boolID": "StartLaunch"
            }
          ],
          "onRemoved": [
            {
              "$type": "IDNGFEEBPAM",
              "boolID": "StartLand",
              "value": true
            }
          ]
        }
      }
    }
  },
  {
    "Default": {
      "$type": "ConfigAbility",
      "abilityName": "Monster_Fungus_Un_Gamma_Water_Land",
      "abilityMixins": [
        {
          "$type": "LEOGLBFIELL",
          "poseIDs": [402, 301],
          "modifierName": "Fungus_Un_Gamma_Water_Land"
        }
      ],
      "modifiers": {
        "Fungus_Un_Gamma_Water_Land": {
          "modifierName": "",
          "elementDurability": 100.0,
          "modifierMixins": [
            {
              "$type": "FMHEMJBJFNA",
              "onMotionChange": [
                {
                  "$type": "IDNGFEEBPAM",
                  "boolID": "AirTag"
                }
              ],
              "dropToPos": "_Fungus_Un_Gamma_Water_Land_Pos_"
            }
          ],
          "onAdded": [
            {
              "$type": "IJLOOPGDPED",
              "born": {
                "$type": "ConfigBornByTarget",
                "offset": {
                  "x": 0.0,
                  "y": 0.0,
                  "z": 2.0
                },
                "onGround": true
              },
              "key": "_Fungus_Un_Gamma_Water_Land_Pos_",
              "setTarget": false,
              "limitY": 2.5
            }
          ]
        }
      }
    }
  },
  {
    "Default": {
      "$type": "ConfigAbility",
      "abilityName": "Monster_Fungus_Test_StartLand",
      "onAbilityStart": [
        {
          "$type": "IDNGFEEBPAM",
          "boolID": "StartLaunch"
        },
        {
          "$type": "IDNGFEEBPAM",
          "boolID": "StartLand",
          "value": true
        }
      ]
    }
  },
  {
    "Default": {
      "$type": "ConfigAbility",
      "abilityName": "Monster_Fungus_Test_StartLaunch",
      "onAbilityStart": [
        {
          "$type": "IDNGFEEBPAM",
          "boolID": "StartLand"
        },
        {
          "$type": "IDNGFEEBPAM",
          "boolID": "StartLaunch",
          "value": true
        }
      ]
    }
  },
  {
    "Default": {
      "$type": "ConfigAbility",
      "abilityName": "Monster_Fungus_Un_Jump",
      "abilityMixins": [
        {
          "$type": "AttachToAnimatorStateIDMixin",
          "stateIDs": ["Jump_BS", "Launch_Loop"],
          "modifierName": "JumpLaunch",
          "DGFCLAIDIFI": ""
        },
        {
          "$type": "AttachToAnimatorStateIDMixin",
          "stateIDs": ["Jump_AS", "Drop_Loop", "Land_AS"],
          "modifierName": "JumpDrop",
          "DGFCLAIDIFI": ""
        },
        {
          "$type": "AttachToAnimatorStateIDMixin",
          "stateIDs": ["HitThrow", "HitThrowDrop", "ReturnToBorn_BS"],
          "modifierName": "JumpLand",
          "DGFCLAIDIFI": ""
        }
      ],
      "modifiers": {
        "JumpLaunch": {
          "modifierName": "",
          "elementDurability": 100.0,
          "onAdded": [
            {
              "$type": "IDNGFEEBPAM",
              "boolID": "AirTag",
              "value": true
            }
          ]
        },
        "JumpDrop": {
          "modifierName": "",
          "elementDurability": 100.0,
          "modifierMixins": [
            {
              "$type": "FMHEMJBJFNA",
              "onMotionChange": [
                {
                  "$type": "IDNGFEEBPAM",
                  "boolID": "AirTag"
                }
              ],
              "dropToPos": ""
            }
          ]
        },
        "JumpLand": {
          "modifierName": "",
          "elementDurability": 100.0,
          "onAdded": [
            {
              "$type": "IDNGFEEBPAM",
              "boolID": "AirTag"
            }
          ]
        }
      }
    }
  },
  {
    "Default": {
      "$type": "ConfigAbility",
      "abilityName": "Monster_Fungus_FungusStateManager",
      "abilityMixins": [
        {
          "$type": "AttachModifierToSelfGlobalValueMixin",
          "globalValueKey": "_MONSTER_FUNGUSSTATE_",
          "gvInTalk": 0.0,
          "valueSteps": [-0.5, 0.5, 1.5, 2.5],
          "modifierNameSteps": [
            "UNIQUE_FungusNormalState",
            "UNIQUE_FungusOverdoseState",
            "UNIQUE_FungusDecayedState"
          ]
        },
        {
          "$type": "AttachModifierToSelfGlobalValueNoInitMixin",
          "globalValueKey": "SGV_DeathZoneState",
          "valueSteps": [0.5, 1.5],
          "modifierNameSteps": ["EnterDeathZone"]
        }
      ],
      "modifiers": {
        "UNIQUE_FungusNormalState": {
          "modifierName": "",
          "forceTriggerWhenChangeAuthority": true,
          "elementDurability": 100.0,
          "modifierMixins": [
            {
              "$type": "EFGJEACDJDG",
              "minValue": 0.0,
              "maxValue": 4.0
            },
            {
              "$type": "FDOLONNOJHG",
              "elementTypes": ["Electric"],
              "modifierName": "EnterOverdose"
            },
            {
              "$type": "FDOLONNOJHG",
              "elementTypes": ["Fire"],
              "modifierName": "EnterDecay"
            }
          ],
          "onAdded": [
            {
              "$type": "GFFKENEJFFB",
              "intID": "FungusState"
            },
            {
              "$type": "SetAnimatorInt",
              "intID": "ShaderState",
              "value": 0.0,
              "persistent": true
            }
          ],
          "onBeingHit": [
            {
              "$type": "Predicated",
              "targetPredicates": [
                {
                  "$type": "ByAny",
                  "predicates": [
                    {
                      "$type": "ByHitElement",
                      "element": "Electric"
                    }
                  ]
                }
              ],
              "successActions": [
                {
                  "$type": "SetGlobalValue",
                  "value": 1.0,
                  "key": "_MONSTER_FUNGUSSTATE_",
                  "maxValue": 0.0,
                  "minValue": 0.0
                }
              ],
              "failActions": [
                {
                  "$type": "Predicated",
                  "targetPredicates": [
                    {
                      "$type": "ByAny",
                      "predicates": [
                        {
                          "$type": "ByHitElement",
                          "element": "Fire"
                        }
                      ]
                    }
                  ],
                  "successActions": [
                    {
                      "$type": "SetGlobalValue",
                      "value": 2.0,
                      "key": "_MONSTER_FUNGUSSTATE_",
                      "maxValue": 0.0,
                      "minValue": 0.0
                    }
                  ]
                }
              ]
            }
          ]
        },
        "UNIQUE_FungusOverdoseState": {
          "modifierName": "",
          "forceTriggerWhenChangeAuthority": true,
          "elementDurability": 100.0,
          "modifierMixins": [
            {
              "$type": "EFGJEACDJDG",
              "minValue": 0.0,
              "maxValue": 1.0
            }
          ],
          "properties": {
            "Animator_MoveSpeedRatio": 1.5
          },
          "onAdded": [
            {
              "$type": "GFFKENEJFFB",
              "intID": "FungusState",
              "value": 1
            },
            {
              "$type": "SetAnimatorTrigger",
              "triggerID": "ChangeStateToOverdose"
            },
            {
              "$type": "SetAnimatorInt",
              "intID": "ShaderState",
              "value": 1.0,
              "persistent": true
            }
          ]
        },
        "UNIQUE_FungusDecayedState": {
          "modifierName": "",
          "forceTriggerWhenChangeAuthority": true,
          "elementDurability": 100.0,
          "modifierMixins": [
            {
              "$type": "EFGJEACDJDG",
              "minValue": -0.800000011920929,
              "maxValue": -0.20000000298023224
            }
          ],
          "properties": {
            "Animator_MoveSpeedRatio": 0.5
          },
          "onAdded": [
            {
              "$type": "GFFKENEJFFB",
              "intID": "FungusState",
              "value": 2
            },
            {
              "$type": "SetAnimatorTrigger",
              "triggerID": "ChangeStateToDecayed"
            },
            {
              "$type": "SetAnimatorInt",
              "intID": "ShaderState",
              "value": 2.0,
              "persistent": true
            }
          ]
        },
        "EnterOverdose": {
          "modifierName": "",
          "elementDurability": 100.0,
          "onAdded": [
            {
              "$type": "SetGlobalValue",
              "value": 1.0,
              "key": "_MONSTER_FUNGUSSTATE_",
              "maxValue": 0.0,
              "minValue": 0.0
            }
          ]
        },
        "EnterDecay": {
          "modifierName": "",
          "elementDurability": 100.0,
          "onAdded": [
            {
              "$type": "SetGlobalValue",
              "value": 2.0,
              "key": "_MONSTER_FUNGUSSTATE_",
              "maxValue": 0.0,
              "minValue": 0.0
            }
          ]
        },
        "EnterDeathZone": {
          "modifierName": "",
          "elementDurability": 100.0,
          "onAdded": [
            {
              "$type": "SetGlobalValue",
              "value": 2.0,
              "key": "_MONSTER_FUNGUSSTATE_",
              "maxValue": 0.0,
              "minValue": 0.0
            }
          ],
          "onRemoved": [
            {
              "$type": "AKJOHBCCCIJ",
              "dieImmediately": true
            },
            {
              "$type": "KillSelf",
              "banHPPercentageDrop": true,
              "value": true,
              "banExp": true
            }
          ]
        }
      }
    }
  },
  {
    "Default": {
      "$type": "ConfigAbility",
      "abilityName": "Monster_Fungus_Alert",
      "onAbilityStart": [
        {
          "$type": "IDNGFEEBPAM",
          "boolID": "Dance"
        },
        {
          "$type": "IDNGFEEBPAM",
          "boolID": "Tease"
        },
        {
          "$type": "IDNGFEEBPAM",
          "boolID": "Absorb"
        },
        {
          "$type": "IDNGFEEBPAM",
          "boolID": "Practice"
        }
      ]
    }
  },
  {
    "Default": {
      "$type": "ConfigAbility",
      "abilityName": "Monster_Fungus_Un_Gamma_Water_ShootNormal",
      "abilityMixins": [
        {
          "$type": "AttachToAnimatorStateIDMixin",
          "stateIDs": [
            "ShootNormal_BS",
            "ShootNormal_Loop",
            "ShootOverdose_BS",
            "ShootOverdose_Loop"
          ],
          "modifierName": "ShootNormalBSEffect",
          "DGFCLAIDIFI": ""
        },
        {
          "$type": "AttachToAnimatorStateIDMixin",
          "stateIDs": ["ShootDecayed_BS", "ShootDecayed_Loop"],
          "modifierName": "ShootDecayedBSEffect",
          "DGFCLAIDIFI": ""
        }
      ],
      "modifiers": {
        "ShootNormalBSEffect": {
          "modifierName": "",
          "elementDurability": 100.0,
          "onAdded": [
            {
              "$type": "AttachEffect",
              "rotationDampTime": "Eff_Monster_Fungus_Un_Gamma_Water_ShootNormal_Loop",
              "PPPDJGDDOGD": 1.0,
              "AJDILHJFNKE": -1.0
            }
          ]
        },
        "ShootDecayedBSEffect": {
          "modifierName": "",
          "elementDurability": 100.0,
          "onAdded": [
            {
              "$type": "AttachEffect",
              "rotationDampTime": "Eff_Monster_Fungus_Un_Gamma_Water_ShootDecay_Loop",
              "PPPDJGDDOGD": 1.0,
              "AJDILHJFNKE": -1.0
            }
          ]
        }
      },
      "onAbilityStart": [
        {
          "$type": "Randomed",
          "chance": 0.33000001311302185,
          "successActions": [
            {
              "$type": "TriggerBullet",
              "bulletID": 42609001,
              "born": {
                "$type": "ConfigBornBySelf",
                "offset": {
                  "x": 0.0,
                  "y": 1.0,
                  "z": 1.5
                }
              },
              "lifeByOwnerIsAlive": true
            }
          ],
          "failActions": [
            {
              "$type": "TriggerBullet",
              "bulletID": 42609001,
              "born": {
                "$type": "ConfigBornBySelf",
                "offset": {
                  "x": 0.0,
                  "y": 0.5,
                  "z": 0.0
                }
              },
              "lifeByOwnerIsAlive": true
            }
          ]
        }
      ]
    }
  },
  {
    "Default": {
      "$type": "ConfigAbility",
      "abilityName": "Monster_Fungus_Un_Gamma_Water_ShootOverdose",
      "onAbilityStart": [
        {
          "$type": "TriggerBullet",
          "bulletID": 42609002,
          "born": {
            "$type": "ConfigBornBySelf",
            "offset": {
              "x": 0.0,
              "y": 1.0,
              "z": 1.5
            },
            "direction": {
              "$type": "ConfigDirectionByAttackTarget",
              "startPoint": ""
            }
          }
        }
      ]
    }
  },
  {
    "Default": {
      "$type": "ConfigAbility",
      "abilityName": "Monster_Fungus_Un_Gamma_Water_ShootDecayed",
      "onAbilityStart": [
        {
          "$type": "CreateGadget",
          "born": {
            "$type": "ConfigBornByTarget",
            "offset": {
              "x": 0.0,
              "y": 0.20000000298023224,
              "z": 0.0
            }
          },
          "gadgetID": 42609001,
          "campID": 4001,
          "campTargetType": "All"
        }
      ]
    }
  },
  {
    "Default": {
      "$type": "ConfigAbility",
      "abilityName": "Fungus_Un_Gamma_Water_BulletNormal_Loop",
      "modifiers": {
        "UNIQUE_BulletNormal_Loop": {
          "modifierName": "",
          "forceTriggerWhenChangeAuthority": true,
          "elementType": "Water",
          "elementDurability": 100.0,
          "onAdded": [
            {
              "$type": "AttachEffect",
              "rotationDampTime": "Eff_Monster_Fungus_Un_Gamma_Water_Shoot_BulletNormal",
              "PPPDJGDDOGD": 1.0,
              "AJDILHJFNKE": -1.0
            },
            {
              "$type": "AttachEffect",
              "rotationDampTime": "Eff_Monster_Fungus_Un_Gamma_Water_Shoot_BulletNormal_Trail",
              "PPPDJGDDOGD": 1.0,
              "AJDILHJFNKE": -1.0
            }
          ],
          "onRemoved": [
            {
              "$type": "KillSelf"
            }
          ],
          "onBeingHit": [
            {
              "$type": "TriggerAbility",
              "predicates": [
                {
                  "$type": "EKJMHHOMFOP",
                  "hitImpulse": 0.0
                }
              ],
              "abilityName": "Fungus_Un_Gamma_Water_BulletNormal_Explode"
            }
          ]
        }
      },
      "onAdded": [
        {
          "$type": "AttachModifier",
          "modifierName": "UNIQUE_BulletNormal_Loop"
        }
      ]
    }
  },
  {
    "Default": {
      "$type": "ConfigAbility",
      "abilityName": "Fungus_Un_Gamma_Water_BulletNormal_Explode",
      "onAbilityStart": [
        {
          "$type": "RemoveUniqueModifier",
          "modifierName": "UNIQUE_BulletNormal_Loop"
        },
        {
          "$type": "FireEffect",
          "rotationDampTime": "Eff_Monster_Fungus_Un_Gamma_Water_Shoot_HitNormal",
          "born": {
            "$type": "ConfigBornByAttachPoint",
            "attachPointName": "RootNode"
          },
          "PPPDJGDDOGD": 1.0,
          "AJDILHJFNKE": -1.0
        },
        {
          "$type": "Predicated",
          "targetPredicates": [
            {
              "$type": "ByTargetGlobalValue",
              "key": "_BUBBLE_EXPLODE_BEINGHIT_",
              "value": 0.0,
              "compareType": "NoneOrEqual"
            }
          ],
          "successActions": [
            {
              "$type": "SetGlobalValue",
              "value": 1.0,
              "key": "_BUBBLE_EXPLODE_BEINGHIT_",
              "maxValue": 0.0,
              "minValue": 0.0
            },
            {
              "$type": "TriggerAttackEvent",
              "attackEvent": {
                "attackPattern": {
                  "$type": "ConfigAttackSphere",
                  "triggerType": "TriggerNoRepeat",
                  "born": {
                    "$type": "ConfigBornBySelf",
                    "offset": {
                      "x": 0.0,
                      "y": 0.0,
                      "z": 0.0
                    }
                  },
                  "radius": 1.5
                },
                "attackInfo": {
                  "attackTag": "",
                  "attenuationTag": "",
                  "attenuationGroup": "default",
                  "attackProperty": {
                    "actorGrassSubHurtDelta": 0.30000001192092896,
                    "actorWindSubHurtDelta": 0.0,
                    "elementType": "Water",
                    "elementDurability": 25.0,
                    "strikeType": "Default",
                    "enBreak": 0.0,
                    "attackType": "Range",
                    "GLKMCMDJBIK": 0.0
                  },
                  "hitPattern": {
                    "onHitEffectName": "default",
                    "hitImpulseY": "",
                    "hitImpulseType": "LV0",
                    "hitHaltTimeScale": 0.05000000074505806
                  },
                  "canBeModifiedBy": "OriginOwner"
                }
              },
              "targetType": "Enemy"
            }
          ]
        }
      ]
    }
  },
  {
    "Default": {
      "$type": "ConfigAbility",
      "abilityName": "Fungus_Un_Gamma_Water_BulletNormal_Surround",
      "modifiers": {
        "BulletNormal_Surround_Reject": {
          "modifierName": "",
          "duration": 0.10000000149011612,
          "elementDurability": 100.0,
          "onAdded": [
            {
              "$type": "ApplyModifier",
              "target": "Owner",
              "modifierName": "BulletNormal_Surround"
            }
          ]
        },
        "BulletNormal_AntiGravity": {
          "modifierName": "",
          "duration": 0.30000001192092896,
          "elementDurability": 100.0,
          "properties": {
            "Actor_AddGravityScale": -7.5
          }
        },
        "BulletNormal_Surround": {
          "modifierName": "",
          "duration": 5.0,
          "elementType": "Water",
          "elementDurability": 100.0,
          "properties": {
            "Actor_AddGravityScale": -2.0
          },
          "state": "Struggle",
          "onAdded": [
            {
              "$type": "AttachModifier",
              "modifierName": "BulletNormal_AntiGravity"
            },
            {
              "$type": "AttachEffect",
              "rotationDampTime": "Eff_Monster_Fungus_Un_Gamma_Water_Shoot_SurroundNormal",
              "PPPDJGDDOGD": 1.0,
              "AJDILHJFNKE": -1.0
            },
            {
              "$type": "Predicated",
              "targetPredicates": [
                {
                  "$type": "ByTargetGlobalValue",
                  "key": "Not_Un_Gamma_Water_Mark",
                  "value": 1.0
                }
              ],
              "successActions": [
                {
                  "$type": "HCLAKBJKPLE",
                  "watcherId": 82130,
                  "inThreatListOnly": true
                }
              ]
            }
          ],
          "onRemoved": [
            {
              "$type": "FireEffect",
              "rotationDampTime": "Eff_Monster_Fungus_Un_Gamma_Water_Shoot_ASNormal",
              "born": {
                "$type": "ConfigBornByAttachPoint",
                "attachPointName": "RootNode"
              },
              "PPPDJGDDOGD": 1.0,
              "AJDILHJFNKE": -1.0
            }
          ],
          "onBeingHit": [
            {
              "$type": "Predicated",
              "target": "Other",
              "targetPredicates": [
                {
                  "$type": "ByTargetType",
                  "isTarget": false,
                  "ALBJEAMOFLG": ""
                },
                {
                  "$type": "EKJMHHOMFOP",
                  "hitImpulse": 0.0
                }
              ],
              "successActions": [
                {
                  "$type": "RemoveModifier",
                  "modifierName": "BulletNormal_Surround"
                }
              ]
            }
          ],
          "onKill": [
            {
              "$type": "RemoveModifier",
              "modifierName": "BulletNormal_Surround"
            }
          ]
        }
      },
      "onAbilityStart": [
        {
          "$type": "Predicated",
          "target": "Target",
          "targetPredicates": [
            {
              "$type": "ByAny",
              "predicates": [
                {
                  "$type": "ByEntityTypes",
                  "entityTypes": ["Gadget"]
                },
                {
                  "$type": "ByTargetWeight",
                  "BHOOHGLJDHM": 100.0
                }
              ]
            }
          ],
          "successActions": [
            {
              "$type": "TriggerAbility",
              "abilityName": "Fungus_Un_Gamma_Water_BulletNormal_Explode"
            }
          ],
          "failActions": [
            {
              "$type": "TriggerAbility",
              "abilityName": "Fungus_Un_Gamma_Water_BulletNormal_Explode"
            },
            {
              "$type": "ApplyModifier",
              "target": "Target",
              "predicates": [
                {
                  "$type": "ByEntityTypes",
                  "entityTypes": ["Equip", "MonsterEquip"]
                }
              ],
              "modifierName": "BulletNormal_Surround_Reject"
            },
            {
              "$type": "ApplyModifier",
              "target": "Target",
              "predicates": [
                {
                  "$type": "ByEntityTypes",
                  "entityTypes": ["Avatar", "Monster"]
                }
              ],
              "modifierName": "BulletNormal_Surround"
            }
          ]
        }
      ]
    }
  },
  {
    "Default": {
      "$type": "ConfigAbility",
      "abilityName": "Fungus_Un_Gamma_Water_BulletOverdose_Loop",
      "modifiers": {
        "UNIQUE_BulletOverdose_Loop": {
          "modifierName": "",
          "forceTriggerWhenChangeAuthority": true,
          "elementType": "Water",
          "elementDurability": 100.0,
          "onAdded": [
            {
              "$type": "AttachEffect",
              "rotationDampTime": "Eff_Monster_Fungus_Un_Gamma_Water_Shoot_BulletOverdose",
              "PPPDJGDDOGD": 1.0,
              "AJDILHJFNKE": -1.0
            },
            {
              "$type": "AttachEffect",
              "rotationDampTime": "Eff_Monster_Fungus_Un_Gamma_Water_Shoot_BulletOverdose_Trail",
              "PPPDJGDDOGD": 1.0,
              "AJDILHJFNKE": -1.0
            }
          ]
        }
      },
      "onAdded": [
        {
          "$type": "AttachModifier",
          "modifierName": "UNIQUE_BulletOverdose_Loop"
        }
      ]
    }
  },
  {
    "Default": {
      "$type": "ConfigAbility",
      "abilityName": "Fungus_Un_Gamma_Water_BulletOverdose_Explode",
      "onAbilityStart": [
        {
          "$type": "RemoveUniqueModifier",
          "modifierName": "UNIQUE_BulletOverdose_Loop"
        },
        {
          "$type": "FireEffect",
          "rotationDampTime": "Eff_Monster_Fungus_Un_Gamma_Water_Shoot_HitOverdose",
          "born": {
            "$type": "ConfigBornByAttachPoint",
            "attachPointName": "RootNode"
          },
          "PPPDJGDDOGD": 1.0,
          "AJDILHJFNKE": -1.0
        },
        {
          "$type": "TriggerAttackEvent",
          "attackEvent": {
            "attackPattern": {
              "$type": "ConfigAttackSphere",
              "triggerType": "TriggerNoRepeat",
              "born": {
                "$type": "ConfigBornBySelf",
                "offset": {
                  "x": 0.0,
                  "y": 0.0,
                  "z": 0.0
                }
              },
              "radius": 1.5
            },
            "attackInfo": {
              "attackTag": "",
              "attenuationTag": "",
              "attenuationGroup": "default",
              "attackProperty": {
                "actorGrassSubHurtDelta": 0.6000000238418579,
                "actorWindSubHurtDelta": 0.0,
                "elementType": "Water",
                "elementDurability": 25.0,
                "strikeType": "Default",
                "enBreak": 100.0,
                "attackType": "Range",
                "GLKMCMDJBIK": 0.0
              },
              "hitPattern": {
                "onHitEffectName": "",
                "hitImpulseY": "",
                "hitImpulseType": "LV2",
                "hitHaltTimeScale": 0.05000000074505806
              },
              "canBeModifiedBy": "OriginOwner"
            }
          },
          "targetType": "Enemy"
        }
      ]
    }
  },
  {
    "Default": {
      "$type": "ConfigAbility",
      "abilityName": "Monster_Fungus_Un_ReturnToBornManager",
      "abilityMixins": [
        {
          "$type": "AttachToAnimatorStateIDMixin",
          "stateIDs": ["ReturnToBorn_Loop"],
          "modifierName": "ReturnToBorn_Invincible",
          "DGFCLAIDIFI": ""
        },
        {
          "$type": "AttachToNormalizedTimeMixin",
          "stateID": "ReturnToBorn_BS",
          "modifierName": "ReturnToBorn_Invincible",
          "normalizeStart": 0.949999988079071,
          "DGFCLAIDIFI": ""
        }
      ],
      "modifiers": {
        "ReturnToBorn_Invincible": {
          "modifierName": "",
          "elementDurability": 100.0,
          "modifierMixins": [
            {
              "$type": "AttachActionToModifierMixin",
              "onAdded": [
                {
                  "$type": "HBNEMPLJCMB",
                  "predicates": [
                    {
                      "$type": "ByTargetGlobalValue",
                      "target": "Self",
                      "key": "_FUNGUS_CAPTURE_STATE_",
                      "value": 0.0,
                      "compareType": "NoneOrEqual"
                    }
                  ],
                  "hide": true
                },
                {
                  "$type": "IEJIAEEJHGE"
                },
                {
                  "$type": "EnablePushColliderName",
                  "pushColliderNames": ["PushCollider"]
                }
              ],
              "onRemoved": [
                {
                  "$type": "HBNEMPLJCMB"
                },
                {
                  "$type": "IEJIAEEJHGE",
                  "castShadow": true
                },
                {
                  "$type": "EnablePushColliderName",
                  "pushColliderNames": ["PushCollider"],
                  "setEnable": true
                }
              ]
            }
          ],
          "state": "Invincible"
        }
      }
    }
  },
  {
    "Default": {
      "$type": "ConfigAbility",
      "abilityName": "Monster_Fungus_Un_Water_HitThrowDropToGround",
      "onAbilityStart": [
        {
          "$type": "Predicated",
          "targetPredicates": [
            {
              "$type": "BySceneSurfaceType",
              "filters": ["Water"]
            }
          ],
          "successActions": [
            {
              "$type": "FireEffect",
              "rotationDampTime": "Eff_Monster_Fungus_HitThrowToGround_Water",
              "PPPDJGDDOGD": 1.0,
              "AJDILHJFNKE": -1.0,
              "useRemoteSelfPos": true
            }
          ],
          "failActions": [
            {
              "$type": "FireEffect",
              "rotationDampTime": "Eff_Monster_Fungus_Un_Gamma_Water_HitThrowToGround",
              "PPPDJGDDOGD": 1.0,
              "AJDILHJFNKE": -1.0,
              "useRemoteSelfPos": true
            }
          ]
        }
      ]
    }
  },
  {
    "Default": {
      "$type": "ConfigAbility",
      "abilityName": "Monster_Fungus_Not_Un_Gamma_Water_Mark",
      "modifiers": {
        "Fungus_Not_Un_Gamma_Water_Mark": {
          "modifierName": "",
          "elementDurability": 100.0,
          "onAdded": [
            {
              "$type": "SetGlobalValue",
              "value": 1.0,
              "key": "Not_Un_Gamma_Water_Mark",
              "maxValue": 0.0,
              "minValue": 0.0
            }
          ]
        }
      },
      "onAdded": [
        {
          "$type": "ApplyModifier",
          "modifierName": "Fungus_Not_Un_Gamma_Water_Mark"
        }
      ]
    }
  }
]
