[
  {
    "Default": {
      "$type": "ConfigAbility",
      "abilityName": "Monster_Common_RockGadget_Summon_Detect",
      "onAdded": [
        {
          "$type": "AddGlobalValue",
          "value": 1.0,
          "key": "_COMMON_GADGET_ISSUMMON",
          "useLimitRange": true,
          "maxValue": 1.0,
          "minValue": 0.0
        }
      ]
    }
  },
  {
    "Default": {
      "$type": "ConfigAbility",
      "abilityName": "Monster_Common_RockGadget_ResistZhongli",
      "onAdded": [
        {
          "$type": "AddGlobalValue",
          "value": 1.0,
          "key": "_COMMON_GADGET_ISSUMMON_NOT_ROCK",
          "useLimitRange": true,
          "maxValue": 1.0,
          "minValue": 0.0
        }
      ]
    }
  },
  {
    "Default": {
      "$type": "ConfigAbility",
      "abilityName": "Monster_Common_ArmedWithEquip",
      "modifiers": {
        "DropAll": {
          "modifierName": "",
          "elementDurability": 100.0,
          "onBeingHit": [
            {
              "$type": "PKKLMLMLOCJ",
              "predicates": [
                {
                  "$type": "EKJMHHOMFOP",
                  "hitImpulse": 1000.0
                }
              ],
              "dropAll": true
            }
          ]
        }
      },
      "onAdded": [
        {
          "$type": "ApplyModifier",
          "shieldHP": true,
          "modifierName": "DropAll"
        }
      ]
    }
  },
  {
    "Default": {
      "$type": "ConfigAbility",
      "abilityName": "Monster_Common_Runback",
      "modifiers": {
        "Runback_HealHP": {
          "modifierName": "",
          "duration": 2.0,
          "elementDurability": 100.0,
          "thinkInterval": 0.5,
          "onThinkInterval": [
            {
              "$type": "HealHP",
              "CKDBFHCIJEK": 0.3499999940395355,
              "cdRatio": ""
            }
          ]
        },
        "Runback_Invincible": {
          "modifierName": "",
          "elementDurability": 100.0,
          "state": "Invincible"
        },
        "Runback_Denylockon": {
          "modifierName": "",
          "elementDurability": 100.0,
          "state": "DenyLockOn"
        },
        "Runback_Ghosttoallied": {
          "modifierName": "",
          "elementDurability": 100.0,
          "state": "IsGhostToAllied"
        }
      },
      "onAbilityStart": [
        {
          "$type": "AttachModifier",
          "target": "Caster",
          "modifierName": "Runback_HealHP"
        },
        {
          "$type": "AttachModifier",
          "target": "Caster",
          "modifierName": "Runback_Invincible"
        },
        {
          "$type": "AttachModifier",
          "target": "Caster",
          "modifierName": "Runback_Denylockon"
        },
        {
          "$type": "AttachModifier",
          "target": "Caster",
          "modifierName": "Runback_Ghosttoallied"
        }
      ]
    }
  },
  {
    "Default": {
      "$type": "ConfigAbility",
      "abilityName": "Monster_Common_MuteTaunt",
      "modifiers": {
        "MuteTaunt": {
          "modifierName": "",
          "elementDurability": 100.0,
          "state": "MuteTaunt"
        }
      },
      "onAdded": [
        {
          "$type": "ApplyModifier",
          "shieldHP": true,
          "modifierName": "MuteTaunt"
        }
      ]
    }
  },
  {
    "Default": {
      "$type": "ConfigAbility",
      "abilityName": "Monster_Common_FireMuteHurt",
      "modifiers": {
        "FireMuteHurt": {
          "modifierName": "",
          "elementDurability": 100.0,
          "properties": {
            "Actor_FireMuteHurtDelta": 1.0
          }
        }
      },
      "onAdded": [
        {
          "$type": "ApplyModifier",
          "shieldHP": true,
          "modifierName": "FireMuteHurt"
        }
      ]
    }
  },
  {
    "Default": {
      "$type": "ConfigAbility",
      "abilityName": "Monster_Common_ElecMuteHurt",
      "modifiers": {
        "ElecMuteHurt": {
          "modifierName": "",
          "elementDurability": 100.0,
          "properties": {
            "Actor_ElecMuteHurtDelta": 1.0
          }
        }
      },
      "onAdded": [
        {
          "$type": "ApplyModifier",
          "shieldHP": true,
          "modifierName": "ElecMuteHurt"
        }
      ]
    }
  },
  {
    "Default": {
      "$type": "ConfigAbility",
      "abilityName": "Monster_Common_WaterMuteHurt",
      "modifiers": {
        "WaterMuteHurt": {
          "modifierName": "",
          "elementDurability": 100.0,
          "properties": {
            "Actor_WaterMuteHurtDelta": 1.0
          }
        }
      },
      "onAdded": [
        {
          "$type": "ApplyModifier",
          "shieldHP": true,
          "modifierName": "WaterMuteHurt"
        }
      ]
    }
  },
  {
    "Default": {
      "$type": "ConfigAbility",
      "abilityName": "Monster_Common_GrassMuteHurt",
      "modifiers": {
        "GrassMuteHurt": {
          "modifierName": "",
          "elementDurability": 100.0,
          "properties": {
            "Actor_GrassMuteHurtDelta": 1.0
          }
        }
      },
      "onAdded": [
        {
          "$type": "ApplyModifier",
          "shieldHP": true,
          "modifierName": "GrassMuteHurt"
        }
      ]
    }
  },
  {
    "Default": {
      "$type": "ConfigAbility",
      "abilityName": "Monster_Common_WindMuteHurt",
      "modifiers": {
        "WindMuteHurt": {
          "modifierName": "",
          "elementDurability": 100.0,
          "properties": {
            "Actor_WindMuteHurtDelta": 1.0
          }
        }
      },
      "onAdded": [
        {
          "$type": "ApplyModifier",
          "shieldHP": true,
          "modifierName": "WindMuteHurt"
        }
      ]
    }
  },
  {
    "Default": {
      "$type": "ConfigAbility",
      "abilityName": "Monster_Common_IceMuteHurt",
      "modifiers": {
        "IceMuteHurt": {
          "modifierName": "",
          "elementDurability": 100.0,
          "properties": {
            "Actor_IceMuteHurtDelta": 1.0
          }
        }
      },
      "onAdded": [
        {
          "$type": "ApplyModifier",
          "shieldHP": true,
          "modifierName": "IceMuteHurt"
        }
      ]
    }
  },
  {
    "Default": {
      "$type": "ConfigAbility",
      "abilityName": "Monster_Common_RockMuteHurt",
      "modifiers": {
        "RockMuteHurt": {
          "modifierName": "",
          "elementDurability": 100.0,
          "properties": {
            "Actor_RockMuteHurtDelta": 1.0
          }
        }
      },
      "onAdded": [
        {
          "$type": "ApplyModifier",
          "shieldHP": true,
          "modifierName": "RockMuteHurt"
        }
      ]
    }
  },
  {
    "Default": {
      "$type": "ConfigAbility",
      "abilityName": "Monster_Common_PhysicalMuteHurt",
      "modifiers": {
        "PhysicalMuteHurt": {
          "modifierName": "",
          "elementDurability": 100.0,
          "properties": {
            "Actor_PhysicalMuteHurtDelta": 1.0
          }
        }
      },
      "onAdded": [
        {
          "$type": "ApplyModifier",
          "shieldHP": true,
          "modifierName": "PhysicalMuteHurt"
        }
      ]
    }
  },
  {
    "Default": {
      "$type": "ConfigAbility",
      "abilityName": "Monster_Animal_Common_BillboardControl",
      "abilityMixins": [
        {
          "$type": "AOKOIIHJJPJ",
          "alertness": [0, 1],
          "modifierName": "Animal_BillboardControl"
        }
      ],
      "modifiers": {
        "Animal_BillboardControl": {
          "modifierName": "",
          "elementDurability": 100.0,
          "onAdded": [
            {
              "$type": "HBNEMPLJCMB",
              "hide": true
            }
          ],
          "onRemoved": [
            {
              "$type": "HBNEMPLJCMB"
            }
          ]
        }
      },
      "isDynamicAbility": true
    }
  },
  {
    "Default": {
      "$type": "ConfigAbility",
      "abilityName": "Monster_Common_FrequencyShieldLabel_AbyssShield",
      "onAdded": [
        {
          "$type": "SetGlobalValue",
          "value": 1.0,
          "key": "_FrequencyShieldLabel_",
          "maxValue": 0.0,
          "minValue": 0.0
        }
      ],
      "isDynamicAbility": true
    }
  },
  {
    "Default": {
      "$type": "ConfigAbility",
      "abilityName": "Monster_Common_FrequencyShieldLabel_ElementShield",
      "onAdded": [
        {
          "$type": "SetGlobalValue",
          "value": 2.0,
          "key": "_FrequencyShieldLabel_",
          "maxValue": 0.0,
          "minValue": 0.0
        }
      ],
      "isDynamicAbility": true
    }
  }
]
