[
  {
    "Default": {
      "$type": "ConfigAbility",
      "abilityName": "Monster_Tribalwarrior_Male_Standard_Chainsword_Steer",
      "abilityMixins": [
        {
          "$type": "IILHMBGONGM",
          "steerStateIDs": ["MeleeAttack0101"],
          "startNormalizedTime": 0.0949999988079071,
          "endNormalizedTime": 0.20499999821186066,
          "angularSpeed": 360.0,
          "attackTrigger": "",
          "ONLGEKDCBLK": "Right",
          "DGFCLAIDIFI": ""
        },
        {
          "$type": "IILHMBGONGM",
          "steerStateIDs": ["MeleeAttack0102"],
          "startNormalizedTime": 0.07000000029802322,
          "endNormalizedTime": 0.17000000178813934,
          "angularSpeed": 360.0,
          "attackTrigger": "",
          "ONLGEKDCBLK": "Left",
          "DGFCLAIDIFI": ""
        },
        {
          "$type": "IILHMBGONGM",
          "steerStateIDs": ["MeleeAttack0201"],
          "startNormalizedTime": 0.07000000029802322,
          "endNormalizedTime": 0.17000000178813934,
          "angularSpeed": 360.0,
          "attackTrigger": "",
          "DGFCLAIDIFI": ""
        },
        {
          "$type": "IILHMBGONGM",
          "steerStateIDs": ["MeleeAttack0202"],
          "startNormalizedTime": 0.0949999988079071,
          "endNormalizedTime": 0.20499999821186066,
          "angularSpeed": 360.0,
          "attackTrigger": "",
          "DGFCLAIDIFI": ""
        },
        {
          "$type": "IILHMBGONGM",
          "steerStateIDs": ["MeleeAttack0203"],
          "startNormalizedTime": 0.07000000029802322,
          "endNormalizedTime": 0.17000000178813934,
          "angularSpeed": 360.0,
          "attackTrigger": "",
          "DGFCLAIDIFI": ""
        },
        {
          "$type": "IILHMBGONGM",
          "steerStateIDs": ["ChargeAttack_BS"],
          "endNormalizedTime": 0.33799999952316284,
          "angularSpeed": 360.0,
          "attackTrigger": "",
          "DGFCLAIDIFI": ""
        },
        {
          "$type": "IILHMBGONGM",
          "steerStateIDs": ["TribalUlt"],
          "startNormalizedTime": 0.5099999904632568,
          "endNormalizedTime": 0.6000000238418579,
          "angularSpeed": 480.0,
          "attackTrigger": "",
          "DGFCLAIDIFI": ""
        },
        {
          "$type": "IILHMBGONGM",
          "steerStateIDs": ["JumpBack"],
          "angularSpeed": 180.0,
          "attackTrigger": "",
          "DGFCLAIDIFI": ""
        },
        {
          "$type": "IILHMBGONGM",
          "steerStateIDs": ["Alert"],
          "endNormalizedTime": 0.6000000238418579,
          "angularSpeed": 160.0,
          "attackTrigger": "",
          "DGFCLAIDIFI": ""
        },
        {
          "$type": "IILHMBGONGM",
          "steerStateIDs": ["Turn"],
          "endNormalizedTime": 100.0,
          "angularSpeed": 125.0,
          "attackTrigger": "",
          "DGFCLAIDIFI": ""
        },
        {
          "$type": "IILHMBGONGM",
          "steerStateIDs": ["TauntAware01"],
          "endNormalizedTime": 0.3799999952316284,
          "angularSpeed": 90.0,
          "attackTrigger": "",
          "DGFCLAIDIFI": ""
        },
        {
          "$type": "IILHMBGONGM",
          "steerStateIDs": ["TauntAware01"],
          "startNormalizedTime": 0.6700000166893005,
          "endNormalizedTime": 0.9399999976158142,
          "angularSpeed": 90.0,
          "attackTrigger": "",
          "DGFCLAIDIFI": ""
        },
        {
          "$type": "IILHMBGONGM",
          "steerStateIDs": ["Aware"],
          "startNormalizedTime": 0.10000000149011612,
          "endNormalizedTime": 0.6000000238418579,
          "angularSpeed": 180.0,
          "attackTrigger": "",
          "DGFCLAIDIFI": ""
        },
        {
          "$type": "IILHMBGONGM",
          "steerStateIDs": ["TauntAware_BS"],
          "startNormalizedTime": 0.25,
          "endNormalizedTime": 0.6000000238418579,
          "angularSpeed": 180.0,
          "attackTrigger": "",
          "DGFCLAIDIFI": ""
        },
        {
          "$type": "IILHMBGONGM",
          "steerStateIDs": ["TauntAware_AS"],
          "startNormalizedTime": 0.10000000149011612,
          "endNormalizedTime": 0.6000000238418579,
          "angularSpeed": 180.0,
          "attackTrigger": "",
          "DGFCLAIDIFI": ""
        },
        {
          "$type": "IILHMBGONGM",
          "steerStateIDs": ["TauntAware02"],
          "startNormalizedTime": 0.05000000074505806,
          "endNormalizedTime": 0.17000000178813934,
          "angularSpeed": 90.0,
          "attackTrigger": "",
          "DGFCLAIDIFI": ""
        },
        {
          "$type": "IILHMBGONGM",
          "steerStateIDs": ["TauntAware02"],
          "startNormalizedTime": 0.36000001430511475,
          "endNormalizedTime": 0.47999998927116394,
          "angularSpeed": 120.0,
          "attackTrigger": "",
          "DGFCLAIDIFI": ""
        },
        {
          "$type": "IILHMBGONGM",
          "steerStateIDs": ["TauntAware02"],
          "startNormalizedTime": 0.699999988079071,
          "endNormalizedTime": 0.9100000262260437,
          "angularSpeed": 90.0,
          "attackTrigger": "",
          "DGFCLAIDIFI": ""
        },
        {
          "$type": "IILHMBGONGM",
          "steerStateIDs": ["TauntAware03A"],
          "endNormalizedTime": 0.20000000298023224,
          "angularSpeed": 90.0,
          "attackTrigger": "",
          "DGFCLAIDIFI": ""
        },
        {
          "$type": "IILHMBGONGM",
          "steerStateIDs": ["TauntAware03A"],
          "startNormalizedTime": 0.699999988079071,
          "endNormalizedTime": 0.9200000166893005,
          "angularSpeed": 90.0,
          "attackTrigger": "",
          "DGFCLAIDIFI": ""
        },
        {
          "$type": "IILHMBGONGM",
          "steerStateIDs": ["TauntAware03C"],
          "startNormalizedTime": 0.05000000074505806,
          "endNormalizedTime": 0.9200000166893005,
          "angularSpeed": 90.0,
          "attackTrigger": "",
          "DGFCLAIDIFI": ""
        }
      ]
    }
  },
  {
    "Default": {
      "$type": "ConfigAbility",
      "abilityName": "Monster_Tribalwarrior_Male_Standard_Chainsword_JumpLandLine",
      "abilityMixins": [
        {
          "$type": "AttachToAnimatorStateIDMixin",
          "stateIDs": ["SquatToFight_BS"],
          "modifierName": "Monster_Tribalwarrior_Male_Standard_Chainsword_JumpLandLineInit",
          "DGFCLAIDIFI": ""
        },
        {
          "$type": "AttachToAnimatorStateIDMixin",
          "stateIDs": ["SquatToFight_Loop"],
          "modifierName": "Monster_Tribalwarrior_Male_Standard_Chainsword_JumpLandLineProc",
          "DGFCLAIDIFI": ""
        },
        {
          "$type": "AttachToNormalizedTimeMixin",
          "stateID": "SquatToFight_AS",
          "modifierName": "Monster_Tribalwarrior_Male_Standard_Chainsword_JumpLandLineRemove",
          "normalizeStart": 0.30000001192092896,
          "DGFCLAIDIFI": ""
        }
      ],
      "modifiers": {
        "Monster_Tribalwarrior_Male_Standard_Chainsword_SquatSysInit": {
          "modifierName": "",
          "elementDurability": 100.0,
          "modifierMixins": [
            {
              "$type": "LEOGLBFIELL",
              "poseIDs": [9003],
              "modifierName": "Monster_Tribalwarrior_Male_Standard_Chainsword_SquatState"
            },
            {
              "$type": "LEOGLBFIELL",
              "poseIDs": [1001],
              "modifierName": "Monster_Tribalwarrior_Male_Standard_Chainsword_NotSquatState"
            }
          ]
        },
        "Monster_Tribalwarrior_Male_Standard_Chainsword_JumpLandLineInit": {
          "modifierName": "",
          "elementDurability": 100.0,
          "onAdded": [
            {
              "$type": "SetGlobalPos",
              "key": "_MONSTER_Tribalwarrior_Male_Standard_Chainsword_JumpStartPos",
              "born": {
                "$type": "ConfigBornBySelf",
                "useRotation": true
              },
              "setTarget": false
            },
            {
              "$type": "SetGlobalPos",
              "target": "SelfAttackTarget",
              "key": "_MONSTER_Tribalwarrior_Male_Standard_Chainsword_JumpEndPos",
              "born": {
                "$type": "ConfigBornBySelf",
                "offset": {
                  "z": 1.0
                },
                "onGround": true,
                "FMFDCHCDFCK": 50.0,
                "useRotation": true
              },
              "setTarget": false
            },
            {
              "$type": "PAGFCBCKEBH",
              "toPos": {
                "$type": "ConfigBornBySelf",
                "offset": {
                  "y": 1.0,
                  "z": 0.5
                },
                "useRotation": true
              },
              "NKPCHMCNNOK": 0.05000000074505806,
              "maxRange": 5.0,
              "animatorStateIDs": ["SquatToFight_BS"],
              "overrideMoveCollider": "",
              "isInAir": true
            }
          ]
        },
        "UNIQUE_Monster_Tribalwarrior_Male_Standard_Chainsword_JumpLandLine": {
          "modifierName": "",
          "forceTriggerWhenChangeAuthority": true,
          "duration": 3.0,
          "elementDurability": 100.0,
          "modifierMixins": [
            {
              "$type": "FKIBGDFKICL",
              "rotationDampTime": "Eff_Monster_Tribalwarrior_Male_Standard_Chainsword_Hookwalker_SquatToFight_Chain",
              "positionKey": "_MONSTER_Tribalwarrior_Male_Standard_Chainsword_JumpStartPos",
              "onHookReached": [
                {
                  "$type": "AttachEffect",
                  "muteRemoteAction": true,
                  "rotationDampTime": "Eff_Monster_Tribalwarrior_Female_Standard_Launcher_Hookwalker_HookPoint",
                  "born": {
                    "$type": "ConfigBornByGlobalValue",
                    "positionKey": "_MONSTER_Tribalwarrior_Male_Standard_Chainsword_JumpStartPos",
                    "directionKey": ""
                  },
                  "PPPDJGDDOGD": 1.0,
                  "AJDILHJFNKE": -1.0
                }
              ],
              "CFLNFDJCNAJ": true
            }
          ]
        },
        "Monster_Tribalwarrior_Male_Standard_Chainsword_JumpLandLineProc": {
          "modifierName": "",
          "elementDurability": 100.0
        },
        "Monster_Tribalwarrior_Male_Standard_Chainsword_SquatState": {
          "modifierName": "",
          "elementDurability": 100.0,
          "onAdded": [
            {
              "$type": "SetGlobalValue",
              "value": 1.0,
              "key": "_MONSTER_Tribalwarrior_SquatState",
              "maxValue": 0.0,
              "minValue": 0.0
            },
            {
              "$type": "SetGlobalValue",
              "value": 0.0,
              "key": "_MONSTER_Tribalwarrior_Male_Standard_Chainsword_NotSquatState",
              "maxValue": 0.0,
              "minValue": 0.0
            }
          ]
        },
        "Monster_Tribalwarrior_Male_Standard_Chainsword_NotSquatState": {
          "modifierName": "",
          "elementDurability": 100.0,
          "onAdded": [
            {
              "$type": "SetGlobalValue",
              "value": 0.0,
              "key": "_MONSTER_Tribalwarrior_SquatState",
              "maxValue": 0.0,
              "minValue": 0.0
            },
            {
              "$type": "SetGlobalValue",
              "value": 1.0,
              "key": "_MONSTER_Tribalwarrior_Male_Standard_Chainsword_NotSquatState",
              "maxValue": 0.0,
              "minValue": 0.0
            }
          ]
        },
        "Monster_Tribalwarrior_Male_Standard_Chainsword_CancelSquatState": {
          "modifierName": "",
          "elementDurability": 100.0,
          "onAdded": [
            {
              "$type": "SetGlobalValue",
              "value": 0.0,
              "key": "_MONSTER_Tribalwarrior_SquatState",
              "maxValue": 0.0,
              "minValue": 0.0
            },
            {
              "$type": "SetGlobalValue",
              "value": 1.0,
              "key": "_MONSTER_Tribalwarrior_Male_Standard_Chainsword_NotSquatState",
              "maxValue": 0.0,
              "minValue": 0.0
            },
            {
              "$type": "GFFKENEJFFB",
              "intID": "FreePoseMark",
              "value": 1001
            }
          ]
        },
        "Monster_Tribalwarrior_Male_Standard_Chainsword_JumpLandLineRemove": {
          "modifierName": "",
          "elementDurability": 100.0,
          "onAdded": [
            {
              "$type": "RemoveUniqueModifier",
              "modifierName": "UNIQUE_Monster_Tribalwarrior_Male_Standard_Chainsword_JumpLandLine"
            },
            {
              "$type": "ApplyModifier",
              "modifierName": "Monster_Tribalwarrior_Male_Standard_Chainsword_Hookwalker_SquatToFight_ReclaimeChain"
            }
          ]
        },
        "Monster_Tribalwarrior_Male_Standard_Chainsword_Hookwalker_SquatToFight_ReclaimeChain": {
          "modifierName": "",
          "duration": 3.0,
          "elementDurability": 100.0,
          "modifierMixins": [
            {
              "$type": "FKIBGDFKICL",
              "rotationDampTime": "Eff_Monster_Tribalwarrior_Male_Standard_Chainsword_Hookwalker_SquatToFight_ReclaimeChain",
              "positionKey": "_MONSTER_Tribalwarrior_Male_Standard_Chainsword_JumpStartPos",
              "CFLNFDJCNAJ": true
            }
          ]
        }
      },
      "onAdded": [
        {
          "$type": "SetGlobalValue",
          "value": 1.0,
          "key": "_MONSTER_Tribalwarrior_Male_Standard_Chainsword_NotSquatState",
          "maxValue": 0.0,
          "minValue": 0.0
        },
        {
          "$type": "SetGlobalValue",
          "value": 0.0,
          "key": "_MONSTER_Tribalwarrior_SquatState",
          "maxValue": 0.0,
          "minValue": 0.0
        },
        {
          "$type": "ApplyModifier",
          "modifierName": "Monster_Tribalwarrior_Male_Standard_Chainsword_SquatSysInit"
        }
      ],
      "onAbilityStart": [
        {
          "$type": "ApplyModifier",
          "modifierName": "UNIQUE_Monster_Tribalwarrior_Male_Standard_Chainsword_JumpLandLine"
        }
      ]
    }
  },
  {
    "Default": {
      "$type": "ConfigAbility",
      "abilityName": "Monster_Tribalwarrior_FallDownCheck_FollowBullet",
      "modifiers": {
        "Monster_Tribalwarrior_FallDownCheck_FollowBullet": {
          "modifierName": "",
          "duration": 0.5,
          "elementDurability": 100.0,
          "onAdded": [
            {
              "$type": "SetAnimatorTrigger",
              "triggerID": "SquatToFightTrigger",
              "mpTriggerOnRemote": true
            }
          ]
        }
      },
      "onAbilityStart": [
        {
          "$type": "ApplyModifier",
          "target": "Owner",
          "modifierName": "Monster_Tribalwarrior_FallDownCheck_FollowBullet"
        }
      ]
    }
  },
  {
    "Default": {
      "$type": "ConfigAbility",
      "abilityName": "Monster_Tribalwarrior_Male_Standard_Chainsword_MeleeChargeLine",
      "abilityMixins": [
        {
          "$type": "AttachToAnimatorStateIDMixin",
          "stateIDs": ["ChargeAttack_BS"],
          "modifierName": "Monster_Tribalwarrior_Male_Standard_Chainsword_MeleeChargeLineInit",
          "DGFCLAIDIFI": ""
        },
        {
          "$type": "AttachToAnimatorStateIDMixin",
          "stateIDs": ["ChargeAttack_Proc"],
          "modifierName": "Monster_Tribalwarrior_Male_Standard_Chainsword_MeleeChargeMove",
          "DGFCLAIDIFI": ""
        },
        {
          "$type": "AttachToAnimatorStateIDMixin",
          "stateIDs": ["ChargeAttack_Proc"],
          "modifierName": "Monster_Tribalwarrior_Male_Standard_Chainsword_MeleeCharging",
          "DGFCLAIDIFI": ""
        }
      ],
      "modifiers": {
        "Monster_Tribalwarrior_Male_Standard_Chainsword_MeleeChargeLineInit": {
          "modifierName": "",
          "elementDurability": 100.0,
          "onAdded": [
            {
              "$type": "SetGlobalPos",
              "target": "SelfAttackTarget",
              "key": "_MONSTER_Tribalwarrior_Male_Standard_Chainsword_ChargeEndPos",
              "born": {
                "$type": "ConfigBornByTarget",
                "onGround": true,
                "useRotation": true
              },
              "setTarget": false
            },
            {
              "$type": "TurnDirectionToPos",
              "toPos": {
                "$type": "ConfigBornByGlobalValue",
                "useRotation": true,
                "positionKey": "_MONSTER_Tribalwarrior_Male_Standard_Chainsword_ChargeEndPos",
                "directionKey": ""
              }
            },
            {
              "$type": "Predicated",
              "predicates": [
                {
                  "$type": "GFPOLMJGMFG",
                  "target": "Self",
                  "value": 10.0,
                  "positionKey": "_MONSTER_Tribalwarrior_Male_Standard_Chainsword_ChargeEndPos"
                }
              ],
              "successActions": [
                {
                  "$type": "SetGlobalPos",
                  "key": "_MONSTER_Tribalwarrior_Male_Standard_Chainsword_ChargeEndPos",
                  "born": {
                    "$type": "ConfigBornBySelf",
                    "offset": {
                      "z": 9.5
                    },
                    "onGround": true,
                    "alongGround": true,
                    "useRotation": true
                  }
                }
              ],
              "failActions": [
                {
                  "$type": "Predicated",
                  "predicates": [
                    {
                      "$type": "GFPOLMJGMFG",
                      "target": "Self",
                      "value": 5.0,
                      "positionKey": "_MONSTER_Tribalwarrior_Male_Standard_Chainsword_ChargeEndPos"
                    }
                  ],
                  "successActions": [
                    {
                      "$type": "SetGlobalPos",
                      "target": "SelfAttackTarget",
                      "key": "_MONSTER_Tribalwarrior_Male_Standard_Chainsword_ChargeEndPos",
                      "born": {
                        "$type": "ConfigBornByTarget",
                        "offset": {
                          "z": -0.5
                        },
                        "onGround": true,
                        "alongGround": true,
                        "useRotation": true
                      },
                      "setTarget": false
                    }
                  ],
                  "failActions": [
                    {
                      "$type": "SetGlobalPos",
                      "key": "_MONSTER_Tribalwarrior_Male_Standard_Chainsword_ChargeEndPos",
                      "born": {
                        "$type": "ConfigBornBySelf",
                        "offset": {
                          "z": 4.5
                        },
                        "onGround": true,
                        "alongGround": true,
                        "useRotation": true
                      }
                    }
                  ]
                }
              ]
            }
          ]
        },
        "Monster_Tribalwarrior_Male_Standard_Chainsword_MeleeChargeLine": {
          "modifierName": "",
          "duration": 1.5,
          "elementDurability": 100.0,
          "modifierMixins": [
            {
              "$type": "FKIBGDFKICL",
              "rotationDampTime": "Eff_Monster_Tribalwarrior_Male_Standard_Chainsword_Hookwalker_SquatToFight_Chain",
              "positionKey": "_MONSTER_Tribalwarrior_Male_Standard_Chainsword_ChargeEndPos",
              "onHookReached": [
                {
                  "$type": "AttachEffect",
                  "muteRemoteAction": true,
                  "rotationDampTime": "Eff_Monster_Tribalwarrior_Female_Standard_Launcher_Hookwalker_HookPoint",
                  "born": {
                    "$type": "ConfigBornByGlobalValue",
                    "positionKey": "_MONSTER_Tribalwarrior_Male_Standard_Chainsword_ChargeEndPos",
                    "directionKey": ""
                  },
                  "PPPDJGDDOGD": 1.0,
                  "AJDILHJFNKE": -1.0
                }
              ],
              "CFLNFDJCNAJ": true
            }
          ]
        },
        "Monster_Tribalwarrior_Male_Standard_Chainsword_MeleeChargeMove": {
          "modifierName": "",
          "elementDurability": 100.0,
          "onAdded": [
            {
              "$type": "PAGFCBCKEBH",
              "toPos": {
                "$type": "ConfigBornByGlobalValue",
                "onGround": true,
                "positionKey": "_MONSTER_Tribalwarrior_Male_Standard_Chainsword_ChargeEndPos",
                "directionKey": ""
              },
              "NKPCHMCNNOK": 0.5,
              "maxRange": 10.0,
              "animatorStateIDs": ["ChargeAttack_Proc"],
              "overrideMoveCollider": "",
              "isInAir": true
            },
            {
              "$type": "AttachEffect",
              "rotationDampTime": "Eff_Monster_Tribalwarrior_Male_Standard_Chainsword_Hookwalker_ChargeAttack_Proc",
              "PPPDJGDDOGD": 1.0,
              "AJDILHJFNKE": -1.0
            }
          ]
        },
        "Monster_Tribalwarrior_Male_Standard_Chainsword_MeleeCharging": {
          "modifierName": "",
          "elementDurability": 100.0,
          "modifierMixins": [
            {
              "$type": "AttachActionToModifierMixin",
              "onAdded": [
                {
                  "$type": "EnablePushColliderName",
                  "pushColliderNames": ["PushCollider"]
                }
              ],
              "onRemoved": [
                {
                  "$type": "EnablePushColliderName",
                  "pushColliderNames": ["PushCollider"],
                  "setEnable": true
                }
              ]
            }
          ],
          "onAdded": [
            {
              "$type": "TriggerBullet",
              "bulletID": 42551003,
              "trackTarget": "Self"
            }
          ],
          "onRemoved": [
            {
              "$type": "OMLHACEIICE",
              "gadgetInfo": {
                "configID": 42551003
              }
            }
          ],
          "onKill": [
            {
              "$type": "OMLHACEIICE",
              "gadgetInfo": {
                "configID": 42551003
              }
            }
          ]
        }
      },
      "onAbilityStart": [
        {
          "$type": "ApplyModifier",
          "modifierName": "Monster_Tribalwarrior_Male_Standard_Chainsword_MeleeChargeLine"
        }
      ]
    }
  },
  {
    "Default": {
      "$type": "ConfigAbility",
      "abilityName": "Monster_Tribalwarrior_Male_Standard_Chainsword_MeleeChargeFlyWeapon",
      "modifiers": {
        "Monster_Tribalwarrior_Male_Standard_Chainsword_MeleeChargeLine": {
          "modifierName": "",
          "duration": 1.5,
          "elementDurability": 100.0,
          "modifierMixins": [
            {
              "$type": "FKIBGDFKICL",
              "rotationDampTime": "Eff_Monster_Tribalwarrior_Male_Standard_Chainsword_Hookwalker_SquatToFight_Chain",
              "positionKey": "_MONSTER_Tribalwarrior_Male_Standard_Chainsword_ChargeEndPos",
              "onHookReached": [
                {
                  "$type": "AttachEffect",
                  "muteRemoteAction": true,
                  "rotationDampTime": "Eff_Monster_Tribalwarrior_Female_Standard_Launcher_Hookwalker_HookPoint",
                  "born": {
                    "$type": "ConfigBornByGlobalValue",
                    "positionKey": "_MONSTER_Tribalwarrior_Male_Standard_Chainsword_ChargeEndPos",
                    "directionKey": ""
                  },
                  "PPPDJGDDOGD": 1.0,
                  "AJDILHJFNKE": -1.0
                }
              ],
              "CFLNFDJCNAJ": true
            }
          ]
        }
      }
    }
  },
  {
    "Default": {
      "$type": "ConfigAbility",
      "abilityName": "Monster_Tribalwarrior_Male_Standard_Chainsword_TribalUlt",
      "abilityMixins": [
        {
          "$type": "AttachToNormalizedTimeMixin",
          "stateID": "",
          "modifierName": "UNIQUE_Monster_Tribalwarrior_Male_Standard_Chainsword_TribalUltLine",
          "normalizeStart": 0.25600001215934753,
          "normalizeEnd": 0.597000002861023,
          "DGFCLAIDIFI": ""
        }
      ],
      "modifiers": {
        "UNIQUE_Monster_Tribalwarrior_Male_Standard_Chainsword_TribalUltLine": {
          "modifierName": "",
          "forceTriggerWhenChangeAuthority": true,
          "elementDurability": 100.0,
          "onAdded": [
            {
              "$type": "AttachEffect",
              "rotationDampTime": "Eff_Monster_Tribalwarrior_Male_Standard_Chainsword_Hookwalker_TribalUlt_FlyWeapon_Chain",
              "born": {
                "$type": "ConfigBornByAttachPoint",
                "useRotation": true,
                "attachPointName": "Bone_MonEquip02_M"
              },
              "PPPDJGDDOGD": 1.0,
              "AJDILHJFNKE": -1.0,
              "setSelfAsEffectPluginTarget": true
            }
          ]
        }
      }
    }
  },
  {
    "Default": {
      "$type": "ConfigAbility",
      "abilityName": "Monster_Tribalwarrior_Male_Standard_Chainsword_TribalUltBullet",
      "onAbilityStart": [
        {
          "$type": "FireEffect",
          "rotationDampTime": "Eff_Monster_Tribalwarrior_Male_Standard_Chainsword_Hookwalker_TribalUlt_Earth",
          "born": {
            "$type": "ConfigBornBySelf",
            "offset": {
              "z": 7.5
            },
            "alongGround": true,
            "useRotation": true
          },
          "PPPDJGDDOGD": 1.0,
          "AJDILHJFNKE": -1.0,
          "setSelfAsEffectPluginTarget": true
        }
      ]
    }
  },
  {
    "Default": {
      "$type": "ConfigAbility",
      "abilityName": "Monster_Tribalwarrior_Male_Standard_Chainsword_HookWalker_HookPoint",
      "modifiers": {
        "Monster_Tribalwarrior_Male_Standard_Chainsword_HookWalker_HookPoint": {
          "modifierName": "",
          "elementDurability": 100.0,
          "onAdded": [
            {
              "$type": "AttachEffect",
              "target": "OriginOwner",
              "rotationDampTime": "Eff_Monster_Tribalwarrior_Male_Standard_Chainsword_Hookwalker_SquatToFight_Chain",
              "born": {
                "$type": "ConfigBornByAttachPoint",
                "useRotation": true,
                "attachPointName": "HookStart"
              },
              "PPPDJGDDOGD": 1.0,
              "AJDILHJFNKE": -1.0,
              "setSelfAsEffectPluginTarget": true
            }
          ]
        }
      },
      "onAdded": [
        {
          "$type": "ApplyModifier",
          "modifierName": "Monster_Tribalwarrior_Male_Standard_Chainsword_HookWalker_HookPoint"
        }
      ]
    }
  },
  {
    "Default": {
      "$type": "ConfigAbility",
      "abilityName": "Monster_Tribalwarrior_Male_Standard_Chainsword_TribalUltTriggerBullet",
      "abilityMixins": [
        {
          "$type": "AttachToNormalizedTimeMixin",
          "stateID": "TribalUlt",
          "modifierName": "Monster_Tribalwarrior_Male_Standard_Chainsword_TribalUltReturnBullet",
          "normalizeStart": 0.7250000238418579,
          "DGFCLAIDIFI": ""
        },
        {
          "$type": "AttachToAnimatorStateIDMixin",
          "stateIDs": ["TribalUlt"],
          "modifierName": "Monster_Tribalwarrior_Male_Standard_Chainsword_TribalUltBulletLogic",
          "DGFCLAIDIFI": ""
        }
      ],
      "modifiers": {
        "Monster_Tribalwarrior_Male_Standard_Chainsword_TribalUltReturnBullet": {
          "modifierName": "",
          "elementDurability": 100.0,
          "modifierMixins": [
            {
              "$type": "AttachActionToModifierMixin",
              "onAdded": [
                {
                  "$type": "EnableHitBoxByName",
                  "canBeHandledOnRecover": true,
                  "hitBoxNames": ["WeaponBox"],
                  "setEnable": true
                }
              ],
              "onRemoved": [
                {
                  "$type": "EnableHitBoxByName",
                  "canBeHandledOnRecover": true,
                  "hitBoxNames": ["WeaponBox"]
                }
              ]
            }
          ],
          "onAdded": [
            {
              "$type": "ApplyModifier",
              "otherTargets": {
                "$type": "SelectTargetsByChildren",
                "topLimit": 1,
                "configID": 42551009
              },
              "modifierName": "Monster_Tribalwarrior_Male_Standard_Chainsword_TribalUltBulletReturn"
            }
          ]
        },
        "Monster_Tribalwarrior_Male_Standard_Chainsword_TribalUltBulletReturn": {
          "modifierName": "",
          "elementDurability": 100.0,
          "modifierMixins": [
            {
              "$type": "KNFKPGJOPOG",
              "PNDHLAJCGOC": {
                "$type": "FBFANCLKCMA",
                "traceOnYAxis": true,
                "MKGJCEEALHP": "Bone_MonEquip02_M"
              }
            }
          ],
          "onAdded": [
            {
              "$type": "LOCAANHCJBE",
              "target": "OriginOwner"
            },
            {
              "$type": "RemoveUniqueModifier",
              "modifierName": "UNIQUE_Monster_Tribalwarrior_Male_Standard_Chainsword_HookWalker_Stay"
            },
            {
              "$type": "RemoveUniqueModifier",
              "modifierName": "UNIQUE_Monster_Tribalwarrior_Male_Standard_Chainsword_HookWalker_ReachedStay"
            },
            {
              "$type": "SetGlobalValue",
              "value": 1.0,
              "key": "IsReturning",
              "maxValue": 0.0,
              "minValue": 0.0
            }
          ]
        },
        "Monster_Tribalwarrior_Male_Standard_Chainsword_TribalUltBulletLogic": {
          "modifierName": "",
          "elementDurability": 100.0,
          "onAdded": [
            {
              "$type": "FNPMFLOOCDD",
              "value": 1.0,
              "key": "_ABILITY_Tribalwarrior_Male_Standard_Chainsword_HookWalker_InTribalUlt",
              "maxValue": 0.0,
              "minValue": 0.0
            }
          ],
          "onRemoved": [
            {
              "$type": "FNPMFLOOCDD",
              "value": 0.0,
              "key": "_ABILITY_Tribalwarrior_Male_Standard_Chainsword_HookWalker_InTribalUlt",
              "maxValue": 0.0,
              "minValue": 0.0
            },
            {
              "$type": "OMLHACEIICE",
              "gadgetInfo": {
                "configID": 42551009
              }
            }
          ],
          "onKill": [
            {
              "$type": "OMLHACEIICE",
              "gadgetInfo": {
                "configID": 42551009
              }
            }
          ]
        }
      },
      "onAdded": [
        {
          "$type": "EnableHitBoxByName",
          "canBeHandledOnRecover": true,
          "hitBoxNames": ["WeaponBox"]
        }
      ],
      "onAbilityStart": [
        {
          "$type": "SetGlobalPos",
          "target": "SelfAttackTarget",
          "key": "GV_ControlledBullet_TrackPosInit",
          "born": {
            "$type": "ConfigBornByTarget",
            "onGround": true,
            "useRotation": true
          },
          "setTarget": false
        },
        {
          "$type": "Predicated",
          "targetPredicates": [
            {
              "$type": "GFPOLMJGMFG",
              "target": "Self",
              "logic": "LesserOrEqual",
              "value": 5.0,
              "positionKey": "GV_ControlledBullet_TrackPosInit"
            }
          ],
          "successActions": [
            {
              "$type": "SetGlobalPos",
              "target": "SelfAttackTarget",
              "key": "GV_ControlledBullet_TrackPos",
              "born": {
                "$type": "ConfigBornBySelf",
                "offset": {
                  "y": 0.5,
                  "z": 5.0
                },
                "onGround": true,
                "useRotation": true
              },
              "setTarget": false
            }
          ],
          "failActions": [
            {
              "$type": "Predicated",
              "targetPredicates": [
                {
                  "$type": "GFPOLMJGMFG",
                  "target": "Self",
                  "logic": "GreaterOrEqual",
                  "value": 20.0,
                  "positionKey": "GV_ControlledBullet_TrackPosInit"
                }
              ],
              "successActions": [
                {
                  "$type": "SetGlobalPos",
                  "target": "SelfAttackTarget",
                  "key": "GV_ControlledBullet_TrackPos",
                  "born": {
                    "$type": "ConfigBornBySelf",
                    "offset": {
                      "y": 0.5,
                      "z": 20.0
                    },
                    "onGround": true,
                    "useRotation": true
                  },
                  "setTarget": false
                }
              ],
              "failActions": [
                {
                  "$type": "SetGlobalPos",
                  "target": "SelfAttackTarget",
                  "key": "GV_ControlledBullet_TrackPos",
                  "born": {
                    "$type": "ConfigBornByTarget",
                    "offset": {
                      "y": 0.5
                    },
                    "onGround": true,
                    "useRotation": true
                  },
                  "setTarget": false
                }
              ]
            }
          ]
        },
        {
          "$type": "FireEffect",
          "rotationDampTime": "Eff_Monster_Tribalwarrior_Male_Standard_Chainsword_Hookwalker_TribalUlt_Fire_01",
          "PPPDJGDDOGD": 1.0,
          "AJDILHJFNKE": -1.0
        },
        {
          "$type": "TriggerBullet",
          "bulletID": 42551009,
          "born": {
            "$type": "ConfigBornByAttachPoint",
            "useRotation": true,
            "attachPointName": "Bone_MonEquip02_M"
          },
          "lifeByOwnerV2": true
        }
      ]
    }
  },
  {
    "Default": {
      "$type": "ConfigAbility",
      "abilityName": "Monster_Tribalwarrior_Male_Standard_Chainsword_HookWalker_HookFollowBullet",
      "modifiers": {
        "Monster_Tribalwarrior_Male_Standard_Chainsword_HookWalker_HookPoint": {
          "modifierName": "",
          "elementDurability": 100.0,
          "onAdded": [
            {
              "$type": "AttachEffect",
              "target": "OriginOwner",
              "rotationDampTime": "Eff_Monster_Tribalwarrior_Male_Standard_Chainsword_Hookwalker_TribalUlt_FlyWeapon_Chain",
              "born": {
                "$type": "ConfigBornByAttachPoint",
                "useRotation": true,
                "attachPointName": "Bone_MonEquip02_M"
              },
              "PPPDJGDDOGD": 1.0,
              "AJDILHJFNKE": -1.0,
              "setSelfAsEffectPluginTarget": true
            },
            {
              "$type": "AttachEffect",
              "rotationDampTime": "Eff_Monster_Tribalwarrior_Male_Standard_Chainsword_Hookwalker_TribalUlt_FlyWeapon",
              "PPPDJGDDOGD": 1.0,
              "AJDILHJFNKE": -1.0
            }
          ]
        },
        "UNIQUE_Monster_Tribalwarrior_Male_Standard_Chainsword_HookWalker_Stay": {
          "modifierName": "",
          "forceTriggerWhenChangeAuthority": true,
          "elementDurability": 100.0,
          "modifierMixins": [
            {
              "$type": "KNFKPGJOPOG",
              "PNDHLAJCGOC": {
                "$type": "KFNDBIMNJAH"
              }
            }
          ]
        }
      },
      "onAdded": [
        {
          "$type": "ApplyModifier",
          "modifierName": "Monster_Tribalwarrior_Male_Standard_Chainsword_HookWalker_HookPoint"
        },
        {
          "$type": "CFEHCGHKKGI",
          "srcTarget": "OriginOwner",
          "dstTarget": "Self",
          "srcKey": "GV_ControlledBullet_TrackPos",
          "dstKey": "GV_ControlledBullet_TrackPos"
        },
        {
          "$type": "SetGlobalValue",
          "value": 0.0,
          "key": "IsReturning",
          "maxValue": 0.0,
          "minValue": 0.0
        }
      ],
      "onAbilityStart": [
        {
          "$type": "Predicated",
          "target": "Other",
          "targetPredicates": [
            {
              "$type": "ByEntityTypes",
              "entityTypes": [
                "Avatar",
                "Partner",
                "Gadget",
                "Vehicle",
                "Monster"
              ]
            }
          ],
          "successActions": [
            {
              "$type": "DamageByAttackValue",
              "target": "Target",
              "predicates": [
                {
                  "$type": "IGGDNFHNDBO",
                  "campTargetType": "Enemy"
                }
              ],
              "attackInfo": {
                "attackTag": "",
                "attenuationTag": "",
                "attenuationGroup": "default",
                "attackProperty": {
                  "actorGrassSubHurtDelta": 1.0,
                  "actorWindSubHurtDelta": 0.0,
                  "elementType": "Grass",
                  "elementDurability": 25.0,
                  "strikeType": "Blunt",
                  "enBreak": 250.0,
                  "attackType": "Melee",
                  "GLKMCMDJBIK": 0.0
                },
                "hitPattern": {
                  "onHitEffectName": "default",
                  "hitImpulseY": "",
                  "hitImpulseType": "LV5",
                  "retreatType": "ByAttackerForward",
                  "hitHaltTimeScale": 0.009999999776482582
                },
                "canBeModifiedBy": "Owner"
              }
            }
          ]
        },
        {
          "$type": "Predicated",
          "target": "Other",
          "targetPredicates": [
            {
              "$type": "ByEntityTypes",
              "entityTypes": ["Level"]
            },
            {
              "$type": "ByTargetGlobalValue",
              "target": "Self",
              "key": "IsReturning",
              "value": 0.0,
              "compareType": "NoneOrEqual"
            }
          ],
          "successActions": [
            {
              "$type": "ApplyModifier",
              "modifierName": "UNIQUE_Monster_Tribalwarrior_Male_Standard_Chainsword_HookWalker_Stay"
            }
          ]
        },
        {
          "$type": "Predicated",
          "target": "Other",
          "targetPredicates": [
            {
              "$type": "ByTargetGlobalValue",
              "key": "_ABILITY_Tribalwarrior_Male_Standard_Chainsword_HookWalker_InTribalUlt",
              "value": 1.0
            },
            {
              "$type": "ByTargetGlobalValue",
              "target": "Self",
              "key": "IsReturning",
              "value": 0.0,
              "compareType": "MoreThan"
            }
          ],
          "successActions": [
            {
              "$type": "FireEffect",
              "target": "OriginOwner",
              "rotationDampTime": "Eff_Monster_Tribalwarrior_Male_Standard_Chainsword_Hookwalker_TribalUlt_Fire_02",
              "PPPDJGDDOGD": 1.0,
              "AJDILHJFNKE": -1.0
            },
            {
              "$type": "KillSelf",
              "configIdArray": [42551009]
            }
          ]
        }
      ]
    }
  },
  {
    "Default": {
      "$type": "ConfigAbility",
      "abilityName": "Monster_Tribalwarrior_Male_Standard_Chainsword_HookWalker_HookFollowBullet_Stay",
      "modifiers": {
        "UNIQUE_Monster_Tribalwarrior_Male_Standard_Chainsword_HookWalker_ReachedStay": {
          "modifierName": "",
          "forceTriggerWhenChangeAuthority": true,
          "elementDurability": 100.0,
          "modifierMixins": [
            {
              "$type": "KNFKPGJOPOG",
              "PNDHLAJCGOC": {
                "$type": "KFNDBIMNJAH"
              }
            }
          ]
        }
      },
      "onAbilityStart": [
        {
          "$type": "ApplyModifier",
          "modifierName": "UNIQUE_Monster_Tribalwarrior_Male_Standard_Chainsword_HookWalker_ReachedStay"
        }
      ]
    }
  },
  {
    "Default": {
      "$type": "ConfigAbility",
      "abilityName": "Monster_Tribalwarrior_HookWalker_Personality",
      "abilityMixins": [
        {
          "$type": "AttachToAnimatorStateIDMixin",
          "stateIDs": ["Personality01"],
          "modifierName": "Monster_Tribalwarrior_HookWalker_Personality01",
          "DGFCLAIDIFI": ""
        },
        {
          "$type": "AttachToNormalizedTimeMixin",
          "stateID": "Personality01",
          "modifierName": "Monster_Tribalwarrior_HookWalker_Personality01",
          "normalizeStart": 0.2150000035762787,
          "normalizeEnd": 0.6480000019073486,
          "DGFCLAIDIFI": ""
        }
      ],
      "modifiers": {
        "Monster_Tribalwarrior_HookWalker_Personality01": {
          "modifierName": "",
          "elementDurability": 100.0,
          "onAdded": [
            {
              "$type": "AttachEffect",
              "rotationDampTime": "Eff_Monster_Tribalwarrior_Male_Standard_Chainsword_Hookwalker_Personality_Chain",
              "born": {
                "$type": "ConfigBornByAttachPoint",
                "useRotation": true,
                "attachPointName": "HandR"
              },
              "PPPDJGDDOGD": 1.0,
              "AJDILHJFNKE": -1.0,
              "setSelfAsEffectPluginTarget": true
            }
          ]
        }
      }
    }
  },
  {
    "Default": {
      "$type": "ConfigAbility",
      "abilityName": "Monster_Tribalwarrior_Male_Standard_Chainsword_JumpBackJudgement",
      "onAbilityStart": [
        {
          "$type": "SetGlobalPos",
          "target": "SelfAttackTarget",
          "key": "_Monster_Tribalwarrior_Male_Standard_Chainsword_HookWalker_ThreatTargetPos",
          "born": {
            "$type": "ConfigBornByTarget",
            "useRotation": true
          },
          "setTarget": false
        },
        {
          "$type": "Predicated",
          "predicates": [
            {
              "$type": "GFPOLMJGMFG",
              "target": "Self",
              "value": 5.0,
              "positionKey": "_Monster_Tribalwarrior_Male_Standard_Chainsword_HookWalker_ThreatTargetPos"
            }
          ],
          "successActions": [
            {
              "$type": "Randomed",
              "chance": 0.6000000238418579,
              "successActions": [
                {
                  "$type": "SetAnimatorTrigger",
                  "triggerID": "ChargeTrigger",
                  "mpTriggerOnRemote": true
                }
              ]
            }
          ]
        },
        {
          "$type": "Predicated",
          "predicates": [
            {
              "$type": "GFPOLMJGMFG",
              "target": "Self",
              "logic": "Lesser",
              "value": 5.0,
              "positionKey": "_Monster_Tribalwarrior_Male_Standard_Chainsword_HookWalker_ThreatTargetPos"
            }
          ],
          "successActions": [
            {
              "$type": "Randomed",
              "chance": 0.6000000238418579,
              "successActions": [
                {
                  "$type": "SetAnimatorTrigger",
                  "triggerID": "MeleeAttackTrigger",
                  "mpTriggerOnRemote": true
                }
              ]
            }
          ]
        }
      ]
    }
  },
  {
    "Default": {
      "$type": "ConfigAbility",
      "abilityName": "Monster_Tribalwarrior_Male_Standard_Chainsword_ChainsawManager",
      "abilityMixins": [
        {
          "$type": "LEOGLBFIELL",
          "poseIDs": [
            101, 1001, 1002, 1003, 9001, 9002, 9003, 901, 902, 903, 911, 912,
            913
          ],
          "modifierName": "ChainsawTag_Stop"
        },
        {
          "$type": "LEOGLBFIELL",
          "poseIDs": [1],
          "modifierName": "ChainsawTag_Rotating"
        },
        {
          "$type": "AttachModifierToSelfGlobalValueMixin",
          "globalValueKey": "_MONSTER_TRIBALWARRIOR_CHAINSWORD_CHAINSAWTAG_",
          "gvInTalk": 0.0,
          "valueSteps": [-0.5, 0.5, 1.5],
          "modifierNameSteps": ["Chainsaw_Stop", "Chainsaw_Rotating"]
        }
      ],
      "modifiers": {
        "ChainsawTag_Stop": {
          "modifierName": "",
          "elementDurability": 100.0,
          "onAdded": [
            {
              "$type": "FNPMFLOOCDD",
              "value": 0.0,
              "key": "_MONSTER_TRIBALWARRIOR_CHAINSWORD_CHAINSAWTAG_",
              "maxValue": 0.0,
              "minValue": 0.0
            }
          ]
        },
        "ChainsawTag_Rotating": {
          "modifierName": "",
          "elementDurability": 100.0,
          "onAdded": [
            {
              "$type": "FNPMFLOOCDD",
              "value": 1.0,
              "key": "_MONSTER_TRIBALWARRIOR_CHAINSWORD_CHAINSAWTAG_",
              "maxValue": 0.0,
              "minValue": 0.0
            }
          ]
        },
        "Chainsaw_Stop": {
          "modifierName": "",
          "elementDurability": 100.0,
          "onAdded": [
            {
              "$type": "SetAnimatorFloat",
              "floatID": "ChainsawRotateRate",
              "value": 0.0
            }
          ]
        },
        "Chainsaw_Rotating": {
          "modifierName": "",
          "elementDurability": 100.0,
          "onAdded": [
            {
              "$type": "SetAnimatorFloat",
              "floatID": "ChainsawRotateRate",
              "value": 0.20000000298023224
            }
          ]
        }
      },
      "onAdded": [
        {
          "$type": "FNPMFLOOCDD",
          "value": 0.0,
          "key": "_MONSTER_TRIBALWARRIOR_CHAINSWORD_CHAINSAWTAG_",
          "maxValue": 0.0,
          "minValue": 0.0
        }
      ]
    }
  },
  {
    "Default": {
      "$type": "ConfigAbility",
      "abilityName": "Monster_TribalWarrior_Male_Standard_Chainsword_HookWalker_WeaponVisibilityManager",
      "abilityMixins": [
        {
          "$type": "AttachModifierToSelfGlobalValueMixin",
          "globalValueKey": "_WEAPON_HIDE",
          "gvInTalk": 0.0,
          "valueSteps": [-0.5, 0.5, 1.5],
          "modifierNameSteps": ["WeaponShow", "WeaponHide"]
        },
        {
          "$type": "AttachToStateIDMixin",
          "stateIDs": ["Struggle"],
          "modifierName": "Weapon_VisibilityTag_Hide",
          "DGFCLAIDIFI": ""
        },
        {
          "$type": "LEOGLBFIELL",
          "poseIDs": [9001],
          "modifierName": "Weapon_VisibilityTag_Hide"
        }
      ],
      "modifiers": {
        "Weapon_VisibilityTag_Hide": {
          "modifierName": "",
          "elementDurability": 100.0,
          "onAdded": [
            {
              "$type": "SetGlobalValue",
              "value": 1.0,
              "key": "_WEAPON_HIDE",
              "maxValue": 0.0,
              "minValue": 0.0
            }
          ],
          "onRemoved": [
            {
              "$type": "SetGlobalValue",
              "value": 0.0,
              "key": "_WEAPON_HIDE",
              "maxValue": 0.0,
              "minValue": 0.0
            }
          ]
        },
        "WeaponShow": {
          "modifierName": "",
          "elementDurability": 100.0,
          "onAdded": [
            {
              "$type": "HMIDGKNOHJM",
              "renderNames": [
                "MonEquip_Tribalwarrior_Chainsword_Hookwalker_Model"
              ],
              "setEnable": true
            }
          ],
          "onKill": [
            {
              "$type": "HMIDGKNOHJM",
              "predicates": [
                {
                  "$type": "OPHKIEEIOBJ",
                  "dieStateFlag": "DieDrawn"
                }
              ],
              "renderNames": [
                "MonEquip_Tribalwarrior_Chainsword_Hookwalker_Model"
              ]
            }
          ]
        },
        "WeaponHide": {
          "modifierName": "",
          "elementDurability": 100.0,
          "onAdded": [
            {
              "$type": "HMIDGKNOHJM",
              "renderNames": [
                "MonEquip_Tribalwarrior_Chainsword_Hookwalker_Model"
              ]
            }
          ]
        }
      }
    }
  }
]
