[
  {
    "Default": {
      "$type": "ConfigAbility",
      "abilityName": "Brute_None_Axe_TurnToSit",
      "abilityMixins": [
        {
          "$type": "LEOGLBFIELL",
          "poseIDs": [401],
          "modifierName": "SitStateManager"
        }
      ],
      "modifiers": {
        "SitStateManager": {
          "modifierName": "",
          "elementDurability": 100.0,
          "modifierMixins": [
            {
              "$type": "AttachModifierToSelfGlobalValueMixin",
              "globalValueKey": "_IS_Axe_01",
              "gvInTalk": 0.0,
              "valueSteps": [0.8999999761581421, 1.5],
              "modifierNameSteps": ["SitState"],
              "removeAppliedModifier": false
            }
          ],
          "onRemoved": [
            {
              "$type": "RemoveModifier",
              "modifierName": "SitState"
            }
          ]
        },
        "SitState": {
          "modifierName": "",
          "elementDurability": 100.0,
          "modifierMixins": [
            {
              "$type": "KDMKOMNGPIO",
              "actionQueue": [
                {
                  "$type": "FireEffect",
                  "otherTargets": {
                    "$type": "SelectTargetsByEquipParts",
                    "equipPartNames": ["equip01"]
                  },
                  "rotationDampTime": "Eff_Monster_Weapon_Disappear",
                  "PPPDJGDDOGD": 1.0,
                  "AJDILHJFNKE": -1.0
                },
                {
                  "$type": "PKDMMDFBGEJ",
                  "place": true,
                  "equipPartName": "equip01",
                  "born": {
                    "$type": "ConfigBornByTarget",
                    "offset": {
                      "x": 1.5,
                      "y": 0.0,
                      "z": 0.0
                    },
                    "bornRandom": {
                      "$type": "BornRandomFromCenter",
                      "minRandomRange": 0.0,
                      "maxRandomRange": 0.5
                    },
                    "onGround": true,
                    "alongGround": true
                  }
                },
                {
                  "$type": "EnableHitBoxByName",
                  "otherTargets": {
                    "$type": "SelectTargetsByEquipParts",
                    "equipPartNames": ["equip01"]
                  },
                  "hitBoxNames": ["HitBox"]
                },
                {
                  "$type": "FireEffect",
                  "otherTargets": {
                    "$type": "SelectTargetsByEquipParts",
                    "equipPartNames": ["equip01"]
                  },
                  "rotationDampTime": "Eff_Monster_Weapon_Disappear",
                  "PPPDJGDDOGD": 1.0,
                  "AJDILHJFNKE": -1.0
                }
              ]
            }
          ],
          "properties": {
            "Entity_MassRatio": 9999.0,
            "Entity_WeightRatio": 5.0
          },
          "onRemoved": [
            {
              "$type": "FireEffect",
              "otherTargets": {
                "$type": "SelectTargetsByEquipParts",
                "equipPartNames": ["equip01"]
              },
              "rotationDampTime": "Eff_Monster_Weapon_Disappear",
              "PPPDJGDDOGD": 1.0,
              "AJDILHJFNKE": -1.0
            },
            {
              "$type": "EnableHitBoxByName",
              "otherTargets": {
                "$type": "SelectTargetsByEquipParts",
                "equipPartNames": ["equip01"]
              },
              "hitBoxNames": ["HitBox"],
              "setEnable": true
            },
            {
              "$type": "PKDMMDFBGEJ",
              "equipPartName": "equip01"
            },
            {
              "$type": "FireEffect",
              "otherTargets": {
                "$type": "SelectTargetsByEquipParts",
                "equipPartNames": ["equip01"]
              },
              "rotationDampTime": "Eff_Monster_Weapon_Disappear",
              "PPPDJGDDOGD": 1.0,
              "AJDILHJFNKE": -1.0
            }
          ],
          "onBeingHit": [
            {
              "$type": "IDNGFEEBPAM",
              "boolID": "Sit"
            }
          ],
          "onKill": [
            {
              "$type": "FireEffect",
              "otherTargets": {
                "$type": "SelectTargetsByEquipParts",
                "equipPartNames": ["equip01"]
              },
              "rotationDampTime": "Eff_Monster_Weapon_Disappear",
              "PPPDJGDDOGD": 1.0,
              "AJDILHJFNKE": -1.0
            },
            {
              "$type": "EnableHitBoxByName",
              "otherTargets": {
                "$type": "SelectTargetsByEquipParts",
                "equipPartNames": ["equip01"]
              },
              "hitBoxNames": ["HitBox"],
              "setEnable": true
            },
            {
              "$type": "PKDMMDFBGEJ",
              "equipPartName": "equip01"
            },
            {
              "$type": "FireEffect",
              "otherTargets": {
                "$type": "SelectTargetsByEquipParts",
                "equipPartNames": ["equip01"]
              },
              "rotationDampTime": "Eff_Monster_Weapon_Disappear",
              "PPPDJGDDOGD": 1.0,
              "AJDILHJFNKE": -1.0
            }
          ]
        }
      },
      "onAbilityStart": [
        {
          "$type": "IDNGFEEBPAM",
          "boolID": "Sit",
          "value": true
        },
        {
          "$type": "DOANGHCALGB",
          "skillIDs": [123]
        }
      ]
    }
  },
  {
    "Default": {
      "$type": "ConfigAbility",
      "abilityName": "Brute_None_OutOfSit",
      "onAbilityStart": [
        {
          "$type": "IDNGFEEBPAM",
          "boolID": "Sit"
        }
      ]
    }
  },
  {
    "Default": {
      "$type": "ConfigAbility",
      "abilityName": "Brute_None_AwakeAlert",
      "onAbilityStart": [
        {
          "$type": "IDNGFEEBPAM",
          "boolID": "Sit"
        },
        {
          "$type": "IDNGFEEBPAM",
          "boolID": "Sleep"
        }
      ]
    }
  },
  {
    "Default": {
      "$type": "ConfigAbility",
      "abilityName": "Brute_None_Axe_Turn",
      "abilityMixins": [
        {
          "$type": "IILHMBGONGM",
          "steerStateIDs": ["TurnRight"],
          "startNormalizedTime": 0.23999999463558197,
          "endNormalizedTime": 0.8700000047683716,
          "angularSpeed": 170.0,
          "attackTrigger": "",
          "attackDistance": 2.0,
          "DGFCLAIDIFI": ""
        },
        {
          "$type": "IILHMBGONGM",
          "steerStateIDs": ["TurnLeft"],
          "startNormalizedTime": 0.15000000596046448,
          "endNormalizedTime": 0.8399999737739563,
          "angularSpeed": 170.0,
          "attackTrigger": "",
          "attackDistance": 2.0,
          "DGFCLAIDIFI": ""
        }
      ]
    }
  },
  {
    "Default": {
      "$type": "ConfigAbility",
      "abilityName": "Brute_Axe_FireAxe",
      "abilityMixins": [
        {
          "$type": "LEOGLBFIELL",
          "poseIDs": [212],
          "modifierName": "FireState"
        }
      ],
      "modifiers": {
        "AxeOnFire": {
          "modifierName": "",
          "elementType": "Fire",
          "elementDurability": 100.0,
          "overrideWeaponElement": true,
          "onAdded": [
            {
              "$type": "IDNGFEEBPAM",
              "target": "Owner",
              "boolID": "AxeOnFire",
              "value": true
            },
            {
              "$type": "AttachEffect",
              "rotationDampTime": "Eff_Monster_Brute_None_Axe_Fire",
              "PPPDJGDDOGD": 1.0,
              "AJDILHJFNKE": -1.0
            },
            {
              "$type": "AttachEffect",
              "rotationDampTime": "Eff_Monster_Brute_None_Axe_Fire01",
              "PPPDJGDDOGD": 1.0,
              "AJDILHJFNKE": -1.0
            }
          ],
          "onRemoved": [
            {
              "$type": "IDNGFEEBPAM",
              "target": "Owner",
              "boolID": "AxeOnFire"
            },
            {
              "$type": "DOANGHCALGB",
              "skillIDs": [241]
            }
          ],
          "onKill": [
            {
              "$type": "RemoveModifier",
              "modifierName": "AxeOnFire"
            }
          ]
        },
        "FireState": {
          "modifierName": "",
          "elementDurability": 100.0,
          "modifierMixins": [
            {
              "$type": "ReplaceEventPatternMixin",
              "oldPatterns": [
                "Monster_Brute_Axe_Attack01",
                "Monster_Brute_Axe_Attack02",
                "Monster_Brute_Axe_Attack03",
                "Monster_Brute_Axe_JumpAttack",
                "Monster_Brute_Axe_Whirl_Loop",
                "Monster_Brute_Axe_Whirl_AS"
              ],
              "newPatterns": [
                "Monster_Brute_Axe_Attack01_Fire",
                "Monster_Brute_Axe_Attack02_Fire",
                "Monster_Brute_Axe_Attack03_Fire",
                "Monster_Brute_Axe_JumpAttack_Fire",
                "Monster_Brute_Axe_Whirl_Loop_Fire",
                "Monster_Brute_Axe_Whirl_AS_Fire"
              ]
            }
          ],
          "properties": {
            "Actor_EndureDelta": 0.800000011920929
          }
        }
      },
      "onAbilityStart": [
        {
          "$type": "ApplyModifier",
          "otherTargets": {
            "$type": "SelectTargetsByEquipParts",
            "equipPartNames": ["equip01"]
          },
          "modifierName": "AxeOnFire"
        },
        {
          "$type": "SendEffectTrigger",
          "parameter": "PutOutTrigger",
          "attachPoint": "",
          "rotationDampTime": "Eff_Monster_Brute_None_FireSlimeInHand"
        },
        {
          "$type": "FireEffect",
          "otherTargets": {
            "$type": "SelectTargetsByEquipParts",
            "equipPartNames": ["equip01"]
          },
          "rotationDampTime": "Eff_Monster_Brute_None_Axe_OnFire",
          "born": {
            "$type": "ConfigBornByAttachPoint",
            "attachPointName": "Blade"
          },
          "PPPDJGDDOGD": 1.0,
          "AJDILHJFNKE": -1.0
        }
      ]
    }
  },
  {
    "Default": {
      "$type": "ConfigAbility",
      "abilityName": "Brute_Axe_NormalAttack",
      "abilityMixins": [
        {
          "$type": "IILHMBGONGM",
          "steerStateIDs": ["Attack01"],
          "startNormalizedTime": 0.11999999731779099,
          "endNormalizedTime": 0.20000000298023224,
          "angularSpeed": 180.0,
          "attackTrigger": "",
          "attackDistance": 2.0,
          "DGFCLAIDIFI": ""
        },
        {
          "$type": "IILHMBGONGM",
          "steerStateIDs": ["Attack02"],
          "startNormalizedTime": 0.1599999964237213,
          "endNormalizedTime": 0.41999998688697815,
          "angularSpeed": 180.0,
          "attackTrigger": "",
          "attackDistance": 2.0,
          "DGFCLAIDIFI": ""
        },
        {
          "$type": "IILHMBGONGM",
          "steerStateIDs": ["Attack03"],
          "startNormalizedTime": 0.18000000715255737,
          "endNormalizedTime": 0.27000001072883606,
          "angularSpeed": 180.0,
          "attackTrigger": "",
          "attackDistance": 2.0,
          "DGFCLAIDIFI": ""
        }
      ],
      "modifiers": {
        "UNIQUE_MonsterEliteAffix_DefaultState": {
          "modifierName": "",
          "forceTriggerWhenChangeAuthority": true,
          "elementDurability": 100.0,
          "onAdded": [
            {
              "$type": "HNGKOKDJKDL",
              "skillEliteSetID": 1
            }
          ]
        }
      },
      "onAdded": [
        {
          "$type": "ApplyModifier",
          "predicates": [
            {
              "$type": "ByTargetGlobalValue",
              "key": "_ELITEAFFIX_TAG",
              "value": 0.0,
              "compareType": "NoneOrEqual"
            }
          ],
          "modifierName": "UNIQUE_MonsterEliteAffix_DefaultState"
        }
      ]
    }
  },
  {
    "Default": {
      "$type": "ConfigAbility",
      "abilityName": "Brute_Axe_Attack03_FireWave",
      "onAbilityStart": [
        {
          "$type": "TriggerBullet",
          "bulletID": 42102001,
          "born": {
            "$type": "ConfigBornByTarget",
            "offset": {
              "x": 0.0,
              "y": 0.5,
              "z": 3.0
            }
          }
        }
      ]
    }
  },
  {
    "Default": {
      "$type": "ConfigAbility",
      "abilityName": "Brute_Axe_FireWave01_Wave",
      "modifiers": {
        "Loop": {
          "modifierName": "",
          "elementType": "Fire",
          "elementDurability": 50.0,
          "onAdded": [
            {
              "$type": "AttachEffect",
              "rotationDampTime": "Eff_Monster_Brute_None_Axe_FireWave01",
              "PPPDJGDDOGD": 1.0,
              "AJDILHJFNKE": -1.0
            }
          ],
          "onRemoved": [
            {
              "$type": "KillSelf"
            }
          ]
        }
      },
      "onAdded": [
        {
          "$type": "AttachModifier",
          "modifierName": "Loop"
        }
      ],
      "onAbilityStart": [
        {
          "$type": "TriggerAttackEvent",
          "attackEvent": {
            "attackPattern": {
              "$type": "ConfigAttackSphere",
              "triggerType": "TriggerNoRepeat",
              "born": {
                "$type": "ConfigBornBySelf",
                "offset": {
                  "x": 0.0,
                  "y": 0.0,
                  "z": 0.0
                }
              },
              "radius": 2.0
            },
            "attackInfo": {
              "attackTag": "",
              "attenuationTag": "",
              "attenuationGroup": "default",
              "attackProperty": {
                "actorGrassSubHurtDelta": 0.5,
                "actorWindSubHurtDelta": 0.0,
                "elementType": "Fire",
                "elementDurability": 50.0,
                "strikeType": "Blunt",
                "enBreak": 200.0,
                "GLKMCMDJBIK": 0.0
              },
              "hitPattern": {
                "onHitEffectName": "default",
                "hitImpulseY": "",
                "hitImpulseType": "LV5",
                "hitHaltTimeScale": 0.05000000074505806
              },
              "cameraShake": {
                "shakeRange": 0.36000001430511475,
                "shakeTime": 0.23999999463558197
              },
              "canBeModifiedBy": "OriginOwner"
            }
          },
          "targetType": "Enemy"
        }
      ]
    }
  },
  {
    "Default": {
      "$type": "ConfigAbility",
      "abilityName": "Brute_Axe_JumpAttack_Alert",
      "abilityMixins": [
        {
          "$type": "AttachToNormalizedTimeMixin",
          "stateID": "JumpAttack",
          "modifierName": "JumpAttack_Collider",
          "normalizeStart": 0.2199999988079071,
          "normalizeEnd": 0.3799999952316284,
          "DGFCLAIDIFI": ""
        },
        {
          "$type": "IILHMBGONGM",
          "steerStateIDs": ["JumpAttack"],
          "startNormalizedTime": 0.07999999821186066,
          "endNormalizedTime": 0.12999999523162842,
          "angularSpeed": 360.0,
          "attackTrigger": "",
          "attackDistance": 2.0,
          "DGFCLAIDIFI": ""
        }
      ],
      "modifiers": {
        "JumpAttack_Collider": {
          "modifierName": "",
          "elementDurability": 100.0,
          "onAdded": [
            {
              "$type": "EnablePushColliderName",
              "pushColliderNames": ["PushCollider"]
            }
          ],
          "onRemoved": [
            {
              "$type": "EnablePushColliderName",
              "pushColliderNames": ["PushCollider"],
              "setEnable": true
            }
          ]
        }
      },
      "onAbilityStart": [
        {
          "$type": "FireEffect",
          "rotationDampTime": "Eff_Monster_Brute_None_Axe_JumpAttack_Alert",
          "born": {
            "$type": "HCHAOBKOELI",
            "offset": {
              "x": 0.0,
              "y": 0.0,
              "z": 5.25
            }
          },
          "PPPDJGDDOGD": 1.0,
          "AJDILHJFNKE": -1.0
        },
        {
          "$type": "ActCameraShake",
          "cameraShake": {
            "shakeType": "CustomVector",
            "shakeRange": 0.05999999865889549,
            "shakeTime": 0.15000000596046448,
            "shakeDir": {
              "y": 1.0
            }
          }
        }
      ]
    }
  },
  {
    "Default": {
      "$type": "ConfigAbility",
      "abilityName": "Brute_Axe_Attack02_FireWave",
      "onAbilityStart": [
        {
          "$type": "TriggerBullet",
          "bulletID": 42102002,
          "born": {
            "$type": "ConfigBornByTarget",
            "offset": {
              "x": 0.0,
              "y": 0.0,
              "z": 3.0
            }
          }
        },
        {
          "$type": "TriggerBullet",
          "predicates": [
            {
              "$type": "ByTargetGlobalValue",
              "key": "_ELITEAFFIX_ATTACK_ENHANCE",
              "value": 1.0
            }
          ],
          "bulletID": 42102002,
          "born": {
            "$type": "ConfigBornByTarget",
            "offset": {
              "x": 0.5199999809265137,
              "y": 0.0,
              "z": 2.9000000953674316
            },
            "direction": {
              "$type": "ConfigDirectionByDefault",
              "angleOffset": {
                "x": 0.0,
                "y": 12.0,
                "z": 0.0
              }
            }
          }
        },
        {
          "$type": "TriggerBullet",
          "predicates": [
            {
              "$type": "ByTargetGlobalValue",
              "key": "_ELITEAFFIX_ATTACK_ENHANCE",
              "value": 1.0
            }
          ],
          "bulletID": 42102002,
          "born": {
            "$type": "ConfigBornByTarget",
            "offset": {
              "x": -0.5199999809265137,
              "y": 0.0,
              "z": 2.9000000953674316
            },
            "direction": {
              "$type": "ConfigDirectionByDefault",
              "angleOffset": {
                "x": 0.0,
                "y": -12.0,
                "z": 0.0
              }
            }
          }
        }
      ]
    }
  },
  {
    "Default": {
      "$type": "ConfigAbility",
      "abilityName": "Brute_Axe_JumpAttack_FireWave",
      "onAbilityStart": [
        {
          "$type": "TriggerBullet",
          "bulletID": 42102002,
          "born": {
            "$type": "ConfigBornByTarget",
            "offset": {
              "x": 0.0,
              "y": 0.0,
              "z": 3.0
            }
          }
        },
        {
          "$type": "TriggerBullet",
          "bulletID": 42102002,
          "born": {
            "$type": "ConfigBornByTarget",
            "offset": {
              "x": 3.0,
              "y": 0.0,
              "z": 0.0
            },
            "direction": {
              "$type": "ConfigDirectionByDefault",
              "angleOffset": {
                "x": 0.0,
                "y": 90.0,
                "z": 0.0
              }
            }
          }
        },
        {
          "$type": "TriggerBullet",
          "bulletID": 42102002,
          "born": {
            "$type": "ConfigBornByTarget",
            "offset": {
              "x": -3.0,
              "y": 0.0,
              "z": 0.0
            },
            "direction": {
              "$type": "ConfigDirectionByDefault",
              "angleOffset": {
                "x": 0.0,
                "y": -90.0,
                "z": 0.0
              }
            }
          }
        },
        {
          "$type": "TriggerBullet",
          "predicates": [
            {
              "$type": "ByTargetGlobalValue",
              "key": "_ELITEAFFIX_ATTACK_ENHANCE",
              "value": 0.0,
              "compareType": "NoneOrEqual"
            }
          ],
          "bulletID": 42102002,
          "born": {
            "$type": "ConfigBornByTarget",
            "offset": {
              "x": 1.7999999523162842,
              "y": 0.0,
              "z": 1.7999999523162842
            },
            "direction": {
              "$type": "ConfigDirectionByDefault",
              "angleOffset": {
                "x": 0.0,
                "y": 45.0,
                "z": 0.0
              }
            }
          }
        },
        {
          "$type": "TriggerBullet",
          "predicates": [
            {
              "$type": "ByTargetGlobalValue",
              "key": "_ELITEAFFIX_ATTACK_ENHANCE",
              "value": 0.0,
              "compareType": "NoneOrEqual"
            }
          ],
          "bulletID": 42102002,
          "born": {
            "$type": "ConfigBornByTarget",
            "offset": {
              "x": -1.7999999523162842,
              "y": 0.0,
              "z": 1.7999999523162842
            },
            "direction": {
              "$type": "ConfigDirectionByDefault",
              "angleOffset": {
                "x": 0.0,
                "y": -45.0,
                "z": 0.0
              }
            }
          }
        },
        {
          "$type": "TriggerBullet",
          "predicates": [
            {
              "$type": "ByTargetGlobalValue",
              "key": "_ELITEAFFIX_ATTACK_ENHANCE",
              "value": 1.0
            }
          ],
          "bulletID": 42102002,
          "born": {
            "$type": "ConfigBornByTarget",
            "offset": {
              "x": 1.5,
              "y": 0.0,
              "z": 2.5999999046325684
            },
            "direction": {
              "$type": "ConfigDirectionByDefault",
              "angleOffset": {
                "x": 0.0,
                "y": 30.0,
                "z": 0.0
              }
            }
          }
        },
        {
          "$type": "TriggerBullet",
          "predicates": [
            {
              "$type": "ByTargetGlobalValue",
              "key": "_ELITEAFFIX_ATTACK_ENHANCE",
              "value": 1.0
            }
          ],
          "bulletID": 42102002,
          "born": {
            "$type": "ConfigBornByTarget",
            "offset": {
              "x": 2.5999999046325684,
              "y": 0.0,
              "z": 1.5
            },
            "direction": {
              "$type": "ConfigDirectionByDefault",
              "angleOffset": {
                "x": 0.0,
                "y": 60.0,
                "z": 0.0
              }
            }
          }
        },
        {
          "$type": "TriggerBullet",
          "predicates": [
            {
              "$type": "ByTargetGlobalValue",
              "key": "_ELITEAFFIX_ATTACK_ENHANCE",
              "value": 1.0
            }
          ],
          "bulletID": 42102002,
          "born": {
            "$type": "ConfigBornByTarget",
            "offset": {
              "x": -1.5,
              "y": 0.0,
              "z": 2.5999999046325684
            },
            "direction": {
              "$type": "ConfigDirectionByDefault",
              "angleOffset": {
                "x": 0.0,
                "y": -30.0,
                "z": 0.0
              }
            }
          }
        },
        {
          "$type": "TriggerBullet",
          "predicates": [
            {
              "$type": "ByTargetGlobalValue",
              "key": "_ELITEAFFIX_ATTACK_ENHANCE",
              "value": 1.0
            }
          ],
          "bulletID": 42102002,
          "born": {
            "$type": "ConfigBornByTarget",
            "offset": {
              "x": -2.5999999046325684,
              "y": 0.0,
              "z": 1.5
            },
            "direction": {
              "$type": "ConfigDirectionByDefault",
              "angleOffset": {
                "x": 0.0,
                "y": -60.0,
                "z": 0.0
              }
            }
          }
        }
      ]
    }
  },
  {
    "Default": {
      "$type": "ConfigAbility",
      "abilityName": "Brute_Axe_FireWave02_Wave",
      "modifiers": {
        "WaveDamge": {
          "modifierName": "",
          "elementDurability": 100.0,
          "thinkInterval": 0.30000001192092896,
          "onThinkInterval": [
            {
              "$type": "TriggerAttackEvent",
              "attackEvent": {
                "attackPattern": {
                  "$type": "ConfigAttackBox",
                  "triggerType": "TriggerNoRepeat",
                  "born": {
                    "$type": "ConfigBornByTarget",
                    "offset": {
                      "x": 0.0,
                      "y": 1.0,
                      "z": -1.0
                    },
                    "onGround": true
                  },
                  "size": {
                    "x": 2.0,
                    "y": 4.0,
                    "z": 2.0
                  }
                },
                "attackInfo": {
                  "attackTag": "",
                  "attenuationTag": "",
                  "attenuationGroup": "default",
                  "attackProperty": {
                    "actorGrassSubHurtDelta": 0.16500000655651093,
                    "actorWindSubHurtDelta": 0.0,
                    "elementType": "Fire",
                    "elementDurability": 50.0,
                    "strikeType": "Blunt",
                    "enBreak": 200.0,
                    "GLKMCMDJBIK": 0.0
                  },
                  "hitPattern": {
                    "onHitEffectName": "default",
                    "hitImpulseY": "",
                    "hitImpulseType": "LV6",
                    "retreatType": "ByHitDirection",
                    "hitHaltTimeScale": 0.05000000074505806
                  },
                  "forceCameraShake": true,
                  "cameraShake": {
                    "shakeType": "CustomVector",
                    "shakeRange": 0.1599999964237213,
                    "shakeTime": 0.09000000357627869,
                    "shakeDistance": 25.0,
                    "shakeDir": {
                      "y": 1.0
                    }
                  },
                  "canBeModifiedBy": "OriginOwner"
                }
              },
              "targetType": "Enemy"
            },
            {
              "$type": "FireEffect",
              "rotationDampTime": "Eff_Monster_Brute_None_Axe_FireWave_Explode",
              "born": {
                "$type": "ConfigBornByTarget",
                "onGround": true
              },
              "PPPDJGDDOGD": 1.0,
              "AJDILHJFNKE": -1.0
            }
          ]
        }
      },
      "onAdded": [
        {
          "$type": "ApplyModifier",
          "modifierName": "WaveDamge"
        }
      ]
    }
  },
  {
    "Default": {
      "$type": "ConfigAbility",
      "abilityName": "Brute_Axe_Whirl",
      "abilityMixins": [
        {
          "$type": "IILHMBGONGM",
          "steerStateIDs": ["Whirl_BS", "Whirl_Loop"],
          "startNormalizedTime": 0.6000000238418579,
          "endNormalizedTime": 10.0,
          "angularSpeed": 60.0,
          "attackTrigger": "",
          "attackDistance": 2.0,
          "DGFCLAIDIFI": ""
        },
        {
          "$type": "AttachToStateIDMixin",
          "stateIDs": ["Whirl_Loop"],
          "modifierName": "WhirlLoop",
          "DGFCLAIDIFI": ""
        },
        {
          "$type": "CGANCPEKBPF",
          "onHittingScene": [
            {
              "$type": "SetAnimatorTrigger",
              "triggerID": "CrashTrigger"
            },
            {
              "$type": "ActCameraShake",
              "cameraShake": {
                "shakeRange": 0.1599999964237213,
                "shakeTime": 0.09000000357627869,
                "shakeDistance": 25.0
              }
            }
          ],
          "animEventIDs": ["Whirl_HitScene"]
        }
      ],
      "modifiers": {
        "WhirlEffect": {
          "modifierName": "",
          "elementDurability": 100.0,
          "onAdded": [
            {
              "$type": "AttachEffect",
              "predicates": [
                {
                  "$type": "ByAnimatorFloat",
                  "logic": "Lesser",
                  "value": 212.0,
                  "parameter": "PoseID"
                }
              ],
              "rotationDampTime": "Eff_Monster_Brute_None_Axe_Whirl_Loop",
              "PPPDJGDDOGD": 1.0,
              "AJDILHJFNKE": -1.0
            },
            {
              "$type": "AttachEffect",
              "predicates": [
                {
                  "$type": "ByAnimatorFloat",
                  "logic": "GreaterOrEqual",
                  "value": 212.0,
                  "parameter": "PoseID"
                }
              ],
              "rotationDampTime": "Eff_Monster_Brute_None_Axe_Whirl_Loop_Big",
              "PPPDJGDDOGD": 1.0,
              "AJDILHJFNKE": -1.0
            },
            {
              "$type": "EnablePushColliderName",
              "pushColliderNames": ["PushCollider_Whirl"],
              "setEnable": true
            }
          ],
          "onRemoved": [
            {
              "$type": "EnablePushColliderName",
              "pushColliderNames": ["PushCollider_Whirl"]
            }
          ]
        },
        "WhirlLoop": {
          "modifierName": "",
          "elementDurability": 100.0,
          "modifierMixins": [
            {
              "$type": "JJIHJPCPPGO",
              "abilityStates": ["ElementFrozen", "ElementPetrifaction"],
              "reject": true,
              "modifierName": "WhirlEffect"
            }
          ],
          "onRemoved": [
            {
              "$type": "FireEffect",
              "predicates": [
                {
                  "$type": "ByAnimatorFloat",
                  "logic": "GreaterOrEqual",
                  "value": 212.0,
                  "parameter": "PoseID"
                }
              ],
              "rotationDampTime": "Eff_Monster_Brute_None_Axe_Whirl_Loop_Big_Last",
              "PPPDJGDDOGD": 1.0,
              "AJDILHJFNKE": -1.0
            },
            {
              "$type": "FireEffect",
              "predicates": [
                {
                  "$type": "ByAnimatorFloat",
                  "logic": "Lesser",
                  "value": 212.0,
                  "parameter": "PoseID"
                }
              ],
              "rotationDampTime": "Eff_Monster_Brute_None_Axe_Whirl_Loop_Last",
              "PPPDJGDDOGD": 1.0,
              "AJDILHJFNKE": -1.0
            },
            {
              "$type": "TriggerAttackEvent",
              "predicates": [
                {
                  "$type": "ByAnimatorFloat",
                  "logic": "GreaterOrEqual",
                  "value": 212.0,
                  "parameter": "PoseID"
                }
              ],
              "attackEvent": {
                "attackPattern": {
                  "$type": "ConfigAttackCircle",
                  "triggerType": "TriggerNoRepeat",
                  "born": {
                    "$type": "ConfigBornBySelf",
                    "offset": {
                      "x": 0.0,
                      "y": 0.0,
                      "z": 1.5
                    }
                  },
                  "radius": 5.0
                },
                "attackInfo": {
                  "attackTag": "",
                  "attenuationTag": "",
                  "attenuationGroup": "default",
                  "attackProperty": {
                    "actorGrassSubHurtDelta": 0.5,
                    "actorWindSubHurtDelta": 0.0,
                    "elementType": "Fire",
                    "elementDurability": 100.0,
                    "strikeType": "Blunt",
                    "enBreak": 200.0,
                    "attackType": "Melee",
                    "GLKMCMDJBIK": 0.0
                  },
                  "hitPattern": {
                    "onHitEffectName": "default",
                    "hitImpulseY": "",
                    "hitImpulseType": "LV6"
                  },
                  "forceCameraShake": true,
                  "cameraShake": {
                    "shakeRange": 0.1599999964237213,
                    "shakeTime": 0.11999999731779099,
                    "shakeDistance": 25.0
                  }
                }
              },
              "targetType": "Enemy"
            },
            {
              "$type": "TriggerAttackEvent",
              "predicates": [
                {
                  "$type": "ByAnimatorFloat",
                  "logic": "Lesser",
                  "value": 212.0,
                  "parameter": "PoseID"
                }
              ],
              "attackEvent": {
                "attackPattern": {
                  "$type": "ConfigAttackCircle",
                  "triggerType": "TriggerNoRepeat",
                  "born": {
                    "$type": "ConfigBornBySelf",
                    "offset": {
                      "x": 0.0,
                      "y": 0.0,
                      "z": 1.5
                    }
                  },
                  "radius": 4.5
                },
                "attackInfo": {
                  "attackTag": "",
                  "attenuationTag": "",
                  "attenuationGroup": "default",
                  "attackProperty": {
                    "actorGrassSubHurtDelta": 0.5,
                    "actorWindSubHurtDelta": 0.0,
                    "elementDurability": 100.0,
                    "strikeType": "Blunt",
                    "enBreak": 200.0,
                    "attackType": "Melee",
                    "GLKMCMDJBIK": 0.0
                  },
                  "hitPattern": {
                    "onHitEffectName": "default",
                    "hitImpulseY": "",
                    "hitImpulseType": "LV6"
                  },
                  "forceCameraShake": true,
                  "cameraShake": {
                    "shakeRange": 0.05999999865889549,
                    "shakeTime": 0.11999999731779099
                  }
                }
              },
              "targetType": "Enemy"
            }
          ],
          "onAttackLanded": [
            {
              "$type": "SetAnimatorTrigger",
              "predicates": [
                {
                  "$type": "ByEntityTypes",
                  "entityTypes": ["Avatar", "Partner", "Vehicle"],
                  "useEventSource": true
                }
              ],
              "triggerID": "NextSkillTrigger"
            }
          ]
        }
      }
    }
  },
  {
    "Default": {
      "$type": "ConfigAbility",
      "abilityName": "Brute_Axe_PickUpAndThrow",
      "abilityMixins": [
        {
          "$type": "AttachToStateIDMixin",
          "stateIDs": ["PickUp", "Throw", "CastAndThrow"],
          "modifierName": "HoldSlime",
          "DGFCLAIDIFI": ""
        },
        {
          "$type": "IILHMBGONGM",
          "steerStateIDs": ["PickUp"],
          "endNormalizedTime": 0.10999999940395355,
          "angularSpeed": 360.0,
          "attackTrigger": "",
          "attackDistance": 2.0,
          "DGFCLAIDIFI": ""
        },
        {
          "$type": "IILHMBGONGM",
          "steerStateIDs": ["PickUp"],
          "startNormalizedTime": 0.800000011920929,
          "endNormalizedTime": 0.8999999761581421,
          "angularSpeed": 360.0,
          "attackTrigger": "",
          "attackDistance": 2.0,
          "DGFCLAIDIFI": ""
        },
        {
          "$type": "IILHMBGONGM",
          "steerStateIDs": ["Throw"],
          "startNormalizedTime": 0.25,
          "endNormalizedTime": 0.44999998807907104,
          "angularSpeed": 360.0,
          "attackTrigger": "",
          "attackDistance": 2.0,
          "DGFCLAIDIFI": ""
        },
        {
          "$type": "IILHMBGONGM",
          "steerStateIDs": ["CastAndThrow"],
          "startNormalizedTime": 0.5799999833106995,
          "endNormalizedTime": 0.699999988079071,
          "angularSpeed": 360.0,
          "attackTrigger": "",
          "attackDistance": 2.0,
          "DGFCLAIDIFI": ""
        }
      ],
      "modifiers": {
        "PickUp_Shake_Manager": {
          "modifierName": "",
          "duration": 0.9599999785423279,
          "elementDurability": 100.0,
          "onAdded": [
            {
              "$type": "ActCameraShake",
              "cameraShake": {
                "shakeType": "CustomVector",
                "shakeRange": 0.03999999910593033,
                "shakeTime": 0.09000000357627869,
                "shakeDir": {
                  "y": -1.0
                }
              }
            }
          ],
          "onRemoved": [
            {
              "$type": "ActCameraShake",
              "cameraShake": {
                "shakeType": "CustomVector",
                "shakeRange": 0.03999999910593033,
                "shakeTime": 0.09000000357627869,
                "shakeDir": {
                  "y": 1.0
                }
              }
            },
            {
              "$type": "ApplyModifier",
              "modifierName": "UNIQUE_Brute_Axe_FireSlimeInHand"
            }
          ]
        },
        "UNIQUE_Brute_Axe_FireSlimeInHand": {
          "stacking": "Unique",
          "modifierName": "",
          "forceTriggerWhenChangeAuthority": true,
          "elementDurability": 100.0,
          "onAdded": [
            {
              "$type": "AttachEffect",
              "rotationDampTime": "Eff_Monster_Brute_None_FireSlimeInHand",
              "PPPDJGDDOGD": 1.0,
              "AJDILHJFNKE": -1.0
            }
          ]
        },
        "HoldSlime": {
          "modifierName": "",
          "elementDurability": 100.0,
          "onRemoved": [
            {
              "$type": "RemoveUniqueModifier",
              "modifierName": "UNIQUE_Brute_Axe_FireSlimeInHand"
            }
          ]
        }
      },
      "onAbilityStart": [
        {
          "$type": "ApplyModifier",
          "modifierName": "PickUp_Shake_Manager"
        }
      ]
    }
  },
  {
    "Default": {
      "$type": "ConfigAbility",
      "abilityName": "Brute_Axe_ThrowFireSlime_Fire",
      "onAbilityStart": [
        {
          "$type": "RemoveUniqueModifier",
          "modifierName": "UNIQUE_Brute_Axe_FireSlimeInHand"
        },
        {
          "$type": "TriggerBullet",
          "bulletID": 42102003,
          "born": {
            "$type": "ConfigBornByTarget",
            "offset": {
              "x": 0.0,
              "y": 2.0,
              "z": 2.0
            }
          }
        }
      ]
    }
  },
  {
    "Default": {
      "$type": "ConfigAbility",
      "abilityName": "Brute_Axe_ThrowFireSlime_None",
      "onAbilityStart": [
        {
          "$type": "RemoveUniqueModifier",
          "modifierName": "UNIQUE_Brute_Axe_FireSlimeInHand"
        },
        {
          "$type": "TriggerBullet",
          "bulletID": 42102004,
          "born": {
            "$type": "ConfigBornByTarget",
            "offset": {
              "x": 0.0,
              "y": 2.0,
              "z": 2.0
            }
          }
        }
      ]
    }
  },
  {
    "Default": {
      "$type": "ConfigAbility",
      "abilityName": "Brute_Axe_FireSlime_Explode",
      "modifiers": {
        "Trail": {
          "modifierName": "",
          "elementDurability": 100.0,
          "onAdded": [
            {
              "$type": "Predicated",
              "targetPredicates": [
                {
                  "$type": "ByHasElement",
                  "element": "Fire"
                }
              ],
              "successActions": [
                {
                  "$type": "AttachEffect",
                  "rotationDampTime": "Eff_Monster_Brute_None_FireSlimeThrow_Trail",
                  "PPPDJGDDOGD": 1.0,
                  "AJDILHJFNKE": -1.0
                }
              ],
              "failActions": [
                {
                  "$type": "AttachEffect",
                  "rotationDampTime": "Eff_Monster_Brute_None_FireSlimeThrow_Trail_NoElem",
                  "PPPDJGDDOGD": 1.0,
                  "AJDILHJFNKE": -1.0
                }
              ]
            }
          ]
        }
      },
      "onAdded": [
        {
          "$type": "AttachModifier",
          "modifierName": "Trail"
        }
      ],
      "onAbilityStart": [
        {
          "$type": "RemoveModifier",
          "modifierName": "Trail"
        },
        {
          "$type": "TriggerAttackEvent",
          "predicates": [
            {
              "$type": "ByHasElement",
              "element": "Fire"
            }
          ],
          "attackEvent": {
            "attackPattern": {
              "$type": "ConfigAttackSphere",
              "triggerType": "TriggerNoRepeat",
              "born": {
                "$type": "ConfigBornByCollisionPoint"
              },
              "radius": 2.0
            },
            "attackInfo": {
              "attackTag": "",
              "attenuationTag": "",
              "attenuationGroup": "default",
              "attackProperty": {
                "actorGrassSubHurtDelta": 0.75,
                "actorWindSubHurtDelta": 0.0,
                "elementType": "Fire",
                "elementDurability": 50.0,
                "strikeType": "Blunt",
                "enBreak": 200.0,
                "GLKMCMDJBIK": 0.0
              },
              "hitPattern": {
                "onHitEffectName": "default",
                "hitImpulseY": "",
                "hitImpulseType": "LV5",
                "hitHaltTimeScale": 0.05000000074505806
              },
              "forceCameraShake": true,
              "cameraShake": {
                "shakeRange": 0.20000000298023224,
                "shakeTime": 0.30000001192092896,
                "shakeDistance": 25.0,
                "extension": {
                  "rangeAttenuation": 0.8999999761581421
                }
              },
              "canBeModifiedBy": "OriginOwner"
            }
          },
          "targetType": "Enemy"
        },
        {
          "$type": "FireEffect",
          "predicates": [
            {
              "$type": "ByHasElement",
              "element": "Fire"
            }
          ],
          "rotationDampTime": "Eff_Monster_Brute_None_FireSlimeExplode_Fire",
          "born": {
            "$type": "ConfigBornByCollisionPoint"
          },
          "PPPDJGDDOGD": 1.0,
          "AJDILHJFNKE": -1.0
        },
        {
          "$type": "TriggerAttackEvent",
          "predicates": [
            {
              "$type": "ByNot",
              "predicates": [
                {
                  "$type": "ByHasElement",
                  "element": "Fire"
                }
              ]
            }
          ],
          "attackEvent": {
            "attackPattern": {
              "$type": "ConfigAttackSphere",
              "triggerType": "TriggerNoRepeat",
              "born": {
                "$type": "ConfigBornByCollisionPoint"
              },
              "radius": 1.0
            },
            "attackInfo": {
              "attackTag": "",
              "attenuationTag": "",
              "attenuationGroup": "default",
              "attackProperty": {
                "actorGrassSubHurtDelta": 0.375,
                "actorWindSubHurtDelta": 0.0,
                "elementDurability": 50.0,
                "strikeType": "Blunt",
                "enBreak": 50.0,
                "GLKMCMDJBIK": 0.0
              },
              "hitPattern": {
                "onHitEffectName": "default",
                "hitImpulseY": "",
                "hitImpulseType": "LV4",
                "hitHaltTimeScale": 0.05000000074505806
              },
              "cameraShake": {
                "shakeRange": 0.05999999865889549,
                "shakeTime": 0.30000001192092896,
                "extension": {
                  "rangeAttenuation": 0.8999999761581421
                }
              },
              "canBeModifiedBy": "OriginOwner"
            }
          },
          "targetType": "Enemy"
        },
        {
          "$type": "FireEffect",
          "predicates": [
            {
              "$type": "ByNot",
              "predicates": [
                {
                  "$type": "ByHasElement",
                  "element": "Fire"
                }
              ]
            }
          ],
          "rotationDampTime": "Eff_Monster_Brute_None_FireSlimeExplode_None",
          "born": {
            "$type": "ConfigBornByCollisionPoint"
          },
          "PPPDJGDDOGD": 1.0,
          "AJDILHJFNKE": -1.0
        }
      ]
    }
  },
  {
    "Default": {
      "$type": "ConfigAbility",
      "abilityName": "Brute_Axe_FireSlime_Fire",
      "modifiers": {
        "Loop": {
          "modifierName": "",
          "elementType": "Fire",
          "elementDurability": 50.0,
          "onAdded": [
            {
              "$type": "SetAnimatorBool",
              "boolID": "FireState",
              "value": true
            }
          ],
          "onRemoved": [
            {
              "$type": "SetAnimatorBool",
              "boolID": "FireState"
            }
          ]
        }
      },
      "onAdded": [
        {
          "$type": "AttachModifier",
          "modifierName": "Loop"
        }
      ]
    }
  }
]
