[
  {
    "Default": {
      "$type": "ConfigAbility",
      "abilityName": "FauneAbyssale_Seal_Larva_Born",
      "abilityMixins": [
        {
          "$type": "MFGGKNJLABP",
          "PNAPPKMKAJP": ["NormalAttack1_BS"],
          "GINJMMLNHIA": 45.0,
          "HIFACMDKHHK": -45.0,
          "angularSpeed": 180.0,
          "attackTrigger": ""
        },
        {
          "$type": "MFGGKNJLABP",
          "PNAPPKMKAJP": ["NormalAttack1_Loop"],
          "GINJMMLNHIA": 45.0,
          "HIFACMDKHHK": -45.0,
          "angularSpeed": 60.0,
          "attackTrigger": ""
        },
        {
          "$type": "AttachToAnimatorStateIDMixin",
          "stateIDs": ["Personality4"],
          "modifierName": "FauneAbyssale_Seal_Bubble",
          "DGFCLAIDIFI": ""
        },
        {
          "$type": "LEOGLBFIELL",
          "poseIDs": [12],
          "modifierName": "FauneAbyssale_SpecialConfigOnFloor"
        },
        {
          "$type": "LEOGLBFIELL",
          "poseIDs": [18],
          "modifierName": "FauneAbyssale_SpecialConfigInWater"
        },
        {
          "$type": "AttachToAnimatorStateIDMixin",
          "stateIDs": ["Standby"],
          "modifierName": "FauneAbyssale_Seal_WalkRandomOffset",
          "DGFCLAIDIFI": ""
        },
        {
          "$type": "LEOGLBFIELL",
          "poseIDs": [11, 13, 14, 15, 16, 17, 19, 20, 21, 22, 99, 201, 901],
          "modifierName": "FauneAbyssale_Seal_CollisionInWater"
        },
        {
          "$type": "AttachToAnimatorStateIDMixin",
          "stateIDs": ["Struggle_Absorbed"],
          "modifierName": "FauneAbyssale_Seal_BeAbsorbedTurnStates",
          "DGFCLAIDIFI": ""
        }
      ],
      "modifiers": {
        "FauneAbyssale_Seal_Bubble": {
          "modifierName": "",
          "elementDurability": 100.0,
          "onAdded": [
            {
              "$type": "AttachEffect",
              "rotationDampTime": "Eff_Monster_FauneAbyssale_Seal_Larva_Bubble",
              "PPPDJGDDOGD": 1.0,
              "AJDILHJFNKE": -1.0
            }
          ]
        },
        "FauneAbyssale_Seal_CollisionInWater": {
          "modifierName": "",
          "elementDurability": 100.0,
          "modifierMixins": [
            {
              "$type": "MGIHAKAHDGP",
              "NCMKEPHAKCA": ["MoveCollider"]
            }
          ],
          "onAdded": [
            {
              "$type": "GBJBFGPDBPL",
              "disableWeatherEffect": true
            },
            {
              "$type": "SetGlobalValue",
              "value": 2.0,
              "key": "GV_EnvironmentType",
              "maxValue": 0.0,
              "minValue": 0.0
            }
          ]
        },
        "FauneAbyssale_SpecialConfigOnFloor": {
          "modifierName": "",
          "elementDurability": 100.0,
          "modifierMixins": [
            {
              "$type": "NAOEBBPINOO",
              "hasAnimatorDie": true,
              "fallWhenAirDie": false,
              "dieForceDisappearTime": 0.0,
              "dieDisappearEffect": "Eff_Death_Common",
              "dieShaderData": "MonsterDie",
              "dieShaderEnableDurationTime": 0.05000000074505806,
              "muteHitBox": true,
              "dieDenyLockOn": true,
              "dieIsGhostToEnemy": true,
              "dieIgnoreTriggerBullet": true,
              "muteBillboard": true,
              "mutePushCollider": true
            },
            {
              "$type": "FPEBEMNFIPF",
              "attachPointName": "BillboardAttach2"
            }
          ],
          "state": "MuteTaunt",
          "onAdded": [
            {
              "$type": "EnablePushColliderName",
              "pushColliderNames": ["MoveCollider"]
            },
            {
              "$type": "EnablePushColliderName",
              "pushColliderNames": ["MoveCollider2"],
              "setEnable": true
            },
            {
              "$type": "EnablePushColliderName",
              "pushColliderNames": ["PushCollider2"],
              "setEnable": true
            },
            {
              "$type": "EnablePushColliderName",
              "pushColliderNames": ["PushCollider"]
            },
            {
              "$type": "EnablePushColliderName",
              "pushColliderNames": ["PushCollider_Occluder"],
              "setEnable": true
            },
            {
              "$type": "EnablePushColliderName",
              "pushColliderNames": ["PushCollider_Extra"],
              "setEnable": true
            },
            {
              "$type": "LEDCNKMFMOK",
              "canBeHandledOnRecover": true
            },
            {
              "$type": "HCJBFBBJCBH",
              "canBeHandledOnRecover": true
            },
            {
              "$type": "JMAJPLCBAKM",
              "canBeHandledOnRecover": true,
              "range": 0.0
            },
            {
              "$type": "EOBAHJDPGPN"
            }
          ],
          "onBeingHit": [
            {
              "$type": "Predicated",
              "targetPredicates": [
                {
                  "$type": "ByAnimatorBool",
                  "logic": "Equal",
                  "parameter": "IsAbilityAnimal"
                },
                {
                  "$type": "ByAnimatorBool",
                  "logic": "Equal",
                  "parameter": "StopBeHitAttack"
                },
                {
                  "$type": "ByAnimatorBool",
                  "logic": "Equal",
                  "parameter": "StopBeHit"
                }
              ],
              "successActions": [
                {
                  "$type": "SetAnimatorTrigger",
                  "triggerID": "HitAttackTrigger",
                  "mpTriggerOnRemote": true
                }
              ]
            }
          ]
        },
        "FauneAbyssale_SpecialConfigInWater": {
          "modifierName": "",
          "elementDurability": 100.0,
          "modifierMixins": [
            {
              "$type": "NAOEBBPINOO",
              "hasAnimatorDie": true,
              "fallWhenAirDie": false,
              "dieForceDisappearTime": 0.0,
              "dieDisappearEffect": "Eff_Death_InWater_Common",
              "dieShaderData": "MonsterDieInWater",
              "dieShaderEnableDurationTime": 0.05000000074505806,
              "muteHitBox": true,
              "dieDenyLockOn": true,
              "dieIsGhostToEnemy": true,
              "dieIgnoreTriggerBullet": true,
              "muteBillboard": true,
              "mutePushCollider": true
            },
            {
              "$type": "FPEBEMNFIPF",
              "attachPointName": "BillboardAttach2"
            }
          ],
          "state": "MuteTaunt",
          "onAdded": [
            {
              "$type": "EnablePushColliderName",
              "pushColliderNames": ["MoveCollider"]
            },
            {
              "$type": "EnablePushColliderName",
              "pushColliderNames": ["MoveCollider2"],
              "setEnable": true
            },
            {
              "$type": "EnablePushColliderName",
              "pushColliderNames": ["PushCollider2"],
              "setEnable": true
            },
            {
              "$type": "EnablePushColliderName",
              "pushColliderNames": ["PushCollider"]
            },
            {
              "$type": "EnablePushColliderName",
              "pushColliderNames": ["PushCollider_Occluder"],
              "setEnable": true
            },
            {
              "$type": "EnablePushColliderName",
              "pushColliderNames": ["PushCollider_Extra"],
              "setEnable": true
            },
            {
              "$type": "LEDCNKMFMOK",
              "canBeHandledOnRecover": true
            },
            {
              "$type": "HCJBFBBJCBH",
              "canBeHandledOnRecover": true
            },
            {
              "$type": "JMAJPLCBAKM",
              "canBeHandledOnRecover": true,
              "range": 0.0
            },
            {
              "$type": "EOBAHJDPGPN"
            }
          ],
          "onRemoved": [
            {
              "$type": "EnablePushColliderName",
              "pushColliderNames": ["MoveCollider"],
              "setEnable": true
            },
            {
              "$type": "EnablePushColliderName",
              "pushColliderNames": ["MoveCollider2"]
            },
            {
              "$type": "EnablePushColliderName",
              "pushColliderNames": ["PushCollider2"]
            },
            {
              "$type": "EnablePushColliderName",
              "pushColliderNames": ["PushCollider"],
              "setEnable": true
            },
            {
              "$type": "EnablePushColliderName",
              "pushColliderNames": ["PushCollider_Occluder"]
            },
            {
              "$type": "EnablePushColliderName",
              "pushColliderNames": ["PushCollider_Extra"]
            },
            {
              "$type": "LEDCNKMFMOK",
              "canBeHandledOnRecover": true,
              "setEnable": true
            },
            {
              "$type": "HCJBFBBJCBH",
              "canBeHandledOnRecover": true,
              "setEnable": true
            },
            {
              "$type": "JMAJPLCBAKM",
              "predicates": [
                {
                  "$type": "ByTargetGlobalValue",
                  "key": "ABILITY_ANIMAL_CAN_BE_ABSORBED",
                  "value": -999.0,
                  "compareType": "NoneOrEqual"
                }
              ],
              "range": 8.0
            }
          ],
          "onBeingHit": [
            {
              "$type": "Predicated",
              "targetPredicates": [
                {
                  "$type": "ByAnimatorBool",
                  "logic": "Equal",
                  "parameter": "IsAbilityAnimal"
                },
                {
                  "$type": "ByAnimatorBool",
                  "logic": "Equal",
                  "parameter": "StopBeHitAttack"
                },
                {
                  "$type": "ByAnimatorBool",
                  "logic": "Equal",
                  "parameter": "StopBeHit"
                }
              ],
              "successActions": [
                {
                  "$type": "SetAnimatorTrigger",
                  "triggerID": "HitAttackTrigger",
                  "mpTriggerOnRemote": true
                }
              ]
            }
          ]
        },
        "FauneAbyssale_Seal_WalkRandomOffset": {
          "modifierName": "",
          "elementDurability": 100.0,
          "onAdded": [
            {
              "$type": "Randomed",
              "chance": 0.5,
              "successActions": [
                {
                  "$type": "SetAnimatorInt",
                  "intID": "RanmdomOffset",
                  "value": 1.0
                }
              ],
              "failActions": [
                {
                  "$type": "Randomed",
                  "chance": 0.5,
                  "successActions": [
                    {
                      "$type": "SetAnimatorInt",
                      "intID": "RanmdomOffset",
                      "value": 2.0
                    }
                  ],
                  "failActions": [
                    {
                      "$type": "SetAnimatorInt",
                      "intID": "RanmdomOffset",
                      "value": 3.0
                    }
                  ]
                }
              ]
            }
          ]
        },
        "FauneAbyssale_Seal_BeAbsorbedTurnStates": {
          "modifierName": "",
          "elementDurability": 100.0,
          "onAdded": [
            {
              "$type": "Predicated",
              "targetPredicates": [
                {
                  "$type": "BHFFBBOLCCP",
                  "target": "Self",
                  "modifierName": "FauneAbyssale_SpecialConfigInWater"
                }
              ],
              "successActions": [
                {
                  "$type": "GFFKENEJFFB",
                  "intID": "FreeState"
                }
              ]
            }
          ]
        }
      }
    }
  },
  {
    "Default": {
      "$type": "ConfigAbility",
      "abilityName": "FauneAbyssale_Seal_HideUIBillBoard",
      "abilityMixins": [
        {
          "$type": "LEOGLBFIELL",
          "poseIDs": [12, 18],
          "modifierName": "FauneAbyssale_HideBillBoard"
        }
      ],
      "modifiers": {
        "FauneAbyssale_HideBillBoard": {
          "modifierName": "",
          "elementDurability": 100.0,
          "onAdded": [
            {
              "$type": "HBNEMPLJCMB",
              "hide": true
            }
          ],
          "onRemoved": [
            {
              "$type": "HBNEMPLJCMB",
              "predicates": [
                {
                  "$type": "ByTargetGlobalValue",
                  "key": "ABILITY_ANIMAL_CAN_BE_ABSORBED",
                  "value": -999.0,
                  "compareType": "NoneOrEqual"
                }
              ]
            }
          ],
          "onBeingHit": [
            {
              "$type": "RemoveModifier",
              "modifierName": "FauneAbyssale_HideBillBoard"
            }
          ]
        }
      }
    }
  },
  {
    "Default": {
      "$type": "ConfigAbility",
      "abilityName": "Monster_FauneAbyssale_Seal_TriggerBullet",
      "onAbilityStart": [
        {
          "$type": "TriggerBullet",
          "bulletID": 42615004,
          "born": {
            "$type": "ConfigBornByAttachPoint",
            "offset": {
              "x": 0.0,
              "y": 0.0,
              "z": 0.0
            },
            "direction": {
              "$type": "ConfigDirectionByAttackTarget",
              "maxAngle": 15.0,
              "startPoint": ""
            },
            "useRotation": true,
            "attachPointName": "RootNode"
          }
        }
      ]
    }
  },
  {
    "Default": {
      "$type": "ConfigAbility",
      "abilityName": "Monster_FauneAbyssale_Seal_TriggerEnhanceBullet",
      "onAbilityStart": [
        {
          "$type": "TriggerBullet",
          "bulletID": 42615021,
          "born": {
            "$type": "ConfigBornByAttachPoint",
            "offset": {
              "x": 0.0,
              "y": 0.0,
              "z": 0.0
            },
            "direction": {
              "$type": "ConfigDirectionByAttackTarget",
              "maxAngle": 15.0,
              "startPoint": ""
            },
            "useRotation": true,
            "attachPointName": "RootNode"
          }
        }
      ]
    }
  },
  {
    "Default": {
      "$type": "ConfigAbility",
      "abilityName": "Monster_FauneAbyssale_Seal_Bullet_Loop",
      "modifiers": {
        "UNIQUE_Monster_FauneAbyssale_Seal_Bullet_Loop": {
          "modifierName": "",
          "forceTriggerWhenChangeAuthority": true,
          "elementDurability": 100.0,
          "onAdded": [
            {
              "$type": "AttachEffect",
              "rotationDampTime": "Eff_Monster_FauneAbyssale_Seal_Larva_Attack",
              "PPPDJGDDOGD": 1.0,
              "AJDILHJFNKE": -1.0
            }
          ],
          "onRemoved": [
            {
              "$type": "KillSelf"
            }
          ]
        }
      },
      "onAdded": [
        {
          "$type": "AttachModifier",
          "modifierName": "UNIQUE_Monster_FauneAbyssale_Seal_Bullet_Loop"
        }
      ]
    }
  },
  {
    "Default": {
      "$type": "ConfigAbility",
      "abilityName": "Monster_FauneAbyssale_Seal_Bullet_Explode",
      "onAbilityStart": [
        {
          "$type": "FireEffect",
          "rotationDampTime": "Eff_Monster_FauneAbyssale_Seal_Larva_Attack_Hit",
          "born": {
            "$type": "ConfigBornByCollisionPoint"
          },
          "PPPDJGDDOGD": 1.0,
          "AJDILHJFNKE": -1.0
        },
        {
          "$type": "RemoveUniqueModifier",
          "modifierName": "UNIQUE_Monster_FauneAbyssale_Seal_Bullet_Loop"
        },
        {
          "$type": "TriggerAttackEvent",
          "attackEvent": {
            "attackPattern": {
              "$type": "ConfigAttackSphere",
              "triggerType": "TriggerNoRepeat",
              "born": {
                "$type": "ConfigBornByCollisionPoint"
              },
              "radius": 1.5
            },
            "attackInfo": {
              "attackTag": "",
              "attenuationTag": "FauneAbyssale_Seal_Attack",
              "attenuationGroup": "FauneAbyssale_Seal_Attack",
              "attackProperty": {
                "actorGrassSubHurtDelta": 1.0,
                "actorWindSubHurtDelta": 0.0,
                "elementDurability": 25.0,
                "strikeType": "Default",
                "enBreak": 1.0,
                "attackType": "Range",
                "GLKMCMDJBIK": 0.0
              },
              "hitPattern": {
                "onHitEffectName": "default",
                "hitImpulseY": "",
                "hitImpulseType": "LV4",
                "hitHaltTimeScale": 0.05000000074505806
              },
              "canBeModifiedBy": "OriginOwner"
            }
          },
          "targetType": "Enemy"
        }
      ]
    }
  },
  {
    "Default": {
      "$type": "ConfigAbility",
      "abilityName": "FauneAbyssale_Seal_Larva_FreeSkillsBinding",
      "abilityMixins": [
        {
          "$type": "LEOGLBFIELL",
          "poseIDs": [13],
          "modifierName": "FauneAbyssale_Seal_Larva_SyncSingSource"
        },
        {
          "$type": "LEOGLBFIELL",
          "poseIDs": [14],
          "modifierName": "FauneAbyssale_Seal_Larva_SyncSingTarget"
        },
        {
          "$type": "LEOGLBFIELL",
          "poseIDs": [15],
          "modifierName": "FauneAbyssale_Seal_Larva_AsyncSingSource"
        },
        {
          "$type": "LEOGLBFIELL",
          "poseIDs": [16],
          "modifierName": "FauneAbyssale_Seal_Larva_AsyncSingTarget"
        },
        {
          "$type": "LEOGLBFIELL",
          "poseIDs": [19],
          "modifierName": "FauneAbyssale_Seal_Larva_SyncSingSourceIdle"
        },
        {
          "$type": "LEOGLBFIELL",
          "poseIDs": [20],
          "modifierName": "FauneAbyssale_Seal_Larva_SyncSingTargetIdle"
        },
        {
          "$type": "LEOGLBFIELL",
          "poseIDs": [21],
          "modifierName": "FauneAbyssale_Seal_Larva_AsyncSingSourceIdle"
        },
        {
          "$type": "LEOGLBFIELL",
          "poseIDs": [22],
          "modifierName": "FauneAbyssale_Seal_Larva_AsyncSingTargetIdle"
        },
        {
          "$type": "LEOGLBFIELL",
          "poseIDs": [17],
          "modifierName": "FauneAbyssale_Seal_Larva_Circling"
        },
        {
          "$type": "LEOGLBFIELL",
          "poseIDs": [99],
          "modifierName": "FauneAbyssale_Seal_Larva_MuteFreeSkill"
        },
        {
          "$type": "AttachToStateIDMixin",
          "stateIDs": [
            "Personality7_BS",
            "Personality7",
            "Personality7_AS",
            "Personality11_BS",
            "Personality11",
            "Personality11_AS"
          ],
          "modifierName": "FauneAbyssale_Seal_Larva_MuteSingTrigger",
          "DGFCLAIDIFI": ""
        }
      ],
      "modifiers": {
        "FauneAbyssale_Seal_Larva_SyncSingSource": {
          "modifierName": "",
          "elementDurability": 100.0,
          "onAdded": [
            {
              "$type": "SetGlobalValue",
              "value": 2.0,
              "key": "_ABILITY_FauneAbyssale_Seal_SingState",
              "useLimitRange": true,
              "maxValue": 5.0,
              "minValue": 0.0
            }
          ]
        },
        "FauneAbyssale_Seal_Larva_SyncSingTarget": {
          "modifierName": "",
          "elementDurability": 100.0,
          "onAdded": [
            {
              "$type": "SetGlobalValue",
              "value": 3.0,
              "key": "_ABILITY_FauneAbyssale_Seal_SingState",
              "useLimitRange": true,
              "maxValue": 5.0,
              "minValue": 0.0
            }
          ]
        },
        "FauneAbyssale_Seal_Larva_AsyncSingSource": {
          "modifierName": "",
          "elementDurability": 100.0,
          "onAdded": [
            {
              "$type": "SetGlobalValue",
              "value": 4.0,
              "key": "_ABILITY_FauneAbyssale_Seal_SingState",
              "useLimitRange": true,
              "maxValue": 5.0,
              "minValue": 0.0
            }
          ]
        },
        "FauneAbyssale_Seal_Larva_AsyncSingTarget": {
          "modifierName": "",
          "elementDurability": 100.0,
          "onAdded": [
            {
              "$type": "SetGlobalValue",
              "value": 5.0,
              "key": "_ABILITY_FauneAbyssale_Seal_SingState",
              "useLimitRange": true,
              "maxValue": 5.0,
              "minValue": 0.0
            }
          ]
        },
        "FauneAbyssale_Seal_Larva_SyncSingSourceIdle": {
          "modifierName": "",
          "elementDurability": 100.0,
          "onAdded": [
            {
              "$type": "SetGlobalValue",
              "value": 19.0,
              "key": "_ABILITY_FauneAbyssale_Seal_SingState",
              "useLimitRange": true,
              "maxValue": 50.0,
              "minValue": 0.0
            }
          ]
        },
        "FauneAbyssale_Seal_Larva_SyncSingTargetIdle": {
          "modifierName": "",
          "elementDurability": 100.0,
          "onAdded": [
            {
              "$type": "SetGlobalValue",
              "value": 20.0,
              "key": "_ABILITY_FauneAbyssale_Seal_SingState",
              "useLimitRange": true,
              "maxValue": 50.0,
              "minValue": 0.0
            }
          ]
        },
        "FauneAbyssale_Seal_Larva_AsyncSingSourceIdle": {
          "modifierName": "",
          "elementDurability": 100.0,
          "onAdded": [
            {
              "$type": "SetGlobalValue",
              "value": 21.0,
              "key": "_ABILITY_FauneAbyssale_Seal_SingState",
              "useLimitRange": true,
              "maxValue": 50.0,
              "minValue": 0.0
            }
          ]
        },
        "FauneAbyssale_Seal_Larva_AsyncSingTargetIdle": {
          "modifierName": "",
          "elementDurability": 100.0,
          "onAdded": [
            {
              "$type": "SetGlobalValue",
              "value": 22.0,
              "key": "_ABILITY_FauneAbyssale_Seal_SingState",
              "useLimitRange": true,
              "maxValue": 50.0,
              "minValue": 0.0
            }
          ]
        },
        "FauneAbyssale_Seal_Larva_Circling": {
          "modifierName": "",
          "elementDurability": 100.0,
          "onAdded": [
            {
              "$type": "SetGlobalValue",
              "value": 6.0,
              "key": "_ABILITY_FauneAbyssale_Seal_SingState",
              "useLimitRange": true,
              "maxValue": 6.0,
              "minValue": 0.0
            }
          ]
        },
        "FauneAbyssale_Seal_Larva_MuteFreeSkill": {
          "modifierName": "",
          "elementDurability": 100.0,
          "onAdded": [
            {
              "$type": "SetGlobalValue",
              "value": 99.0,
              "key": "_ABILITY_FauneAbyssale_Seal_SingState",
              "useLimitRange": true,
              "maxValue": 99.0,
              "minValue": 0.0
            }
          ]
        },
        "FauneAbyssale_Seal_Larva_MuteSingTrigger": {
          "modifierName": "",
          "elementDurability": 100.0,
          "onAdded": [
            {
              "$type": "SetGlobalValue",
              "value": 1.0,
              "key": "_ABILITY_FauneAbyssale_Seal_MuteSingState",
              "useLimitRange": true,
              "maxValue": 5.0,
              "minValue": 0.0
            }
          ],
          "onRemoved": [
            {
              "$type": "SetGlobalValue",
              "value": 0.0,
              "key": "_ABILITY_FauneAbyssale_Seal_MuteSingState",
              "useLimitRange": true,
              "maxValue": 5.0,
              "minValue": 0.0
            }
          ]
        }
      },
      "onAdded": [
        {
          "$type": "SetGlobalValue",
          "value": 0.0,
          "key": "_ABILITY_FauneAbyssale_Seal_MuteSingState",
          "useLimitRange": true,
          "maxValue": 5.0,
          "minValue": 0.0
        }
      ]
    }
  },
  {
    "Default": {
      "$type": "ConfigAbility",
      "abilityName": "FauneAbyssale_Seal_Larva_FreeSkillsBindingForPose14",
      "abilityMixins": [
        {
          "$type": "AttachToAnimatorStateIDMixin",
          "stateIDs": ["Struggle_Absorbed"],
          "modifierName": "UNIQUE_FauneAbyssale_Seal_BeAbsorbed",
          "DGFCLAIDIFI": ""
        }
      ],
      "modifiers": {
        "UNIQUE_FauneAbyssale_Seal_BeAbsorbed": {
          "modifierName": "",
          "forceTriggerWhenChangeAuthority": true,
          "elementDurability": 100.0
        },
        "FauneAbyssale_Seal_Larva_SyncSingTrigger": {
          "modifierName": "",
          "duration": 1.0,
          "elementDurability": 100.0,
          "onAdded": [
            {
              "$type": "SetAnimatorTrigger",
              "target": "Target",
              "triggerID": "SyncSingTrigger"
            }
          ]
        }
      },
      "onAbilityStart": [
        {
          "$type": "Predicated",
          "otherTargets": {
            "$type": "SelectTargetsByShape",
            "topLimit": 10,
            "entityTypePriority": ["Monster"],
            "shapeName": "CircleR20H20",
            "campTargetType": "AllExceptSelf",
            "doOffStage": 1.0
          },
          "predicates": [
            {
              "$type": "ByTargetGlobalValue",
              "key": "_ABILITY_FauneAbyssale_Seal_SingState",
              "value": 3.0
            },
            {
              "$type": "ByNot",
              "predicates": [
                {
                  "$type": "BHFFBBOLCCP",
                  "modifierName": "UNIQUE_FauneAbyssale_Seal_BeAbsorbed"
                }
              ]
            }
          ],
          "targetPredicates": [
            {
              "$type": "ByTargetGlobalValue",
              "key": "_ABILITY_FauneAbyssale_Seal_SingState",
              "value": 3.0
            },
            {
              "$type": "ByNot",
              "predicates": [
                {
                  "$type": "BHFFBBOLCCP",
                  "modifierName": "UNIQUE_FauneAbyssale_Seal_BeAbsorbed"
                }
              ]
            }
          ],
          "successActions": [
            {
              "$type": "ApplyModifier",
              "target": "Target",
              "modifierName": "FauneAbyssale_Seal_Larva_SyncSingTrigger"
            }
          ]
        }
      ]
    }
  },
  {
    "Default": {
      "$type": "ConfigAbility",
      "abilityName": "FauneAbyssale_Seal_Larva_FreeSkillsBindingForPose20",
      "modifiers": {
        "FauneAbyssale_Seal_Larva_SyncSingIdleTrigger": {
          "modifierName": "",
          "duration": 1.0,
          "elementDurability": 100.0,
          "onAdded": [
            {
              "$type": "SetAnimatorTrigger",
              "target": "Target",
              "triggerID": "SyncSingIdleTrigger"
            }
          ]
        }
      },
      "onAbilityStart": [
        {
          "$type": "Predicated",
          "otherTargets": {
            "$type": "SelectTargetsByShape",
            "topLimit": 10,
            "entityTypePriority": ["Monster"],
            "shapeName": "CircleR20H20",
            "campTargetType": "AllExceptSelf",
            "doOffStage": 1.0
          },
          "predicates": [
            {
              "$type": "ByTargetGlobalValue",
              "key": "_ABILITY_FauneAbyssale_Seal_SingState",
              "value": 20.0
            },
            {
              "$type": "ByNot",
              "predicates": [
                {
                  "$type": "BHFFBBOLCCP",
                  "modifierName": "UNIQUE_FauneAbyssale_Seal_BeAbsorbed"
                }
              ]
            }
          ],
          "targetPredicates": [
            {
              "$type": "ByTargetGlobalValue",
              "key": "_ABILITY_FauneAbyssale_Seal_SingState",
              "value": 20.0
            },
            {
              "$type": "ByNot",
              "predicates": [
                {
                  "$type": "BHFFBBOLCCP",
                  "modifierName": "UNIQUE_FauneAbyssale_Seal_BeAbsorbed"
                }
              ]
            }
          ],
          "successActions": [
            {
              "$type": "ApplyModifier",
              "target": "Target",
              "modifierName": "FauneAbyssale_Seal_Larva_SyncSingIdleTrigger"
            }
          ]
        }
      ]
    }
  },
  {
    "Default": {
      "$type": "ConfigAbility",
      "abilityName": "FauneAbyssale_Seal_Larva_FreeSkillsBindingForPose16",
      "modifiers": {
        "FauneAbyssale_Seal_Larva_AsyncSingTrigger": {
          "modifierName": "",
          "duration": 1.0,
          "elementDurability": 100.0,
          "onAdded": [
            {
              "$type": "SetAnimatorTrigger",
              "target": "Target",
              "triggerID": "AsyncSingTrigger"
            }
          ]
        }
      },
      "onAbilityStart": [
        {
          "$type": "Predicated",
          "otherTargets": {
            "$type": "SelectTargetsByShape",
            "topLimit": 1,
            "entityTypePriority": ["Monster"],
            "sortType": "Nearest",
            "shapeName": "CircleR20H20",
            "campTargetType": "AllExceptSelf",
            "doOffStage": 1.0
          },
          "predicates": [
            {
              "$type": "ByTargetGlobalValue",
              "key": "_ABILITY_FauneAbyssale_Seal_SingState",
              "value": 5.0
            },
            {
              "$type": "ByTargetGlobalValue",
              "key": "_ABILITY_FauneAbyssale_Seal_MuteSingState",
              "value": 0.0
            },
            {
              "$type": "ByNot",
              "predicates": [
                {
                  "$type": "BHFFBBOLCCP",
                  "modifierName": "UNIQUE_FauneAbyssale_Seal_BeAbsorbed"
                }
              ]
            }
          ],
          "targetPredicates": [
            {
              "$type": "ByTargetGlobalValue",
              "key": "_ABILITY_FauneAbyssale_Seal_SingState",
              "value": 5.0
            },
            {
              "$type": "ByTargetGlobalValue",
              "key": "_ABILITY_FauneAbyssale_Seal_MuteSingState",
              "value": 0.0
            },
            {
              "$type": "ByNot",
              "predicates": [
                {
                  "$type": "BHFFBBOLCCP",
                  "modifierName": "UNIQUE_FauneAbyssale_Seal_BeAbsorbed"
                }
              ]
            }
          ],
          "successActions": [
            {
              "$type": "ApplyModifier",
              "target": "Target",
              "modifierName": "FauneAbyssale_Seal_Larva_AsyncSingTrigger"
            }
          ]
        }
      ]
    }
  },
  {
    "Default": {
      "$type": "ConfigAbility",
      "abilityName": "FauneAbyssale_Seal_Larva_FreeSkillsBindingForPose22",
      "modifiers": {
        "FauneAbyssale_Seal_Larva_AsyncSingIdleTrigger": {
          "modifierName": "",
          "duration": 1.0,
          "elementDurability": 100.0,
          "onAdded": [
            {
              "$type": "SetAnimatorTrigger",
              "target": "Target",
              "triggerID": "AsyncSingIdleTrigger"
            }
          ]
        }
      },
      "onAbilityStart": [
        {
          "$type": "Predicated",
          "otherTargets": {
            "$type": "SelectTargetsByShape",
            "topLimit": 1,
            "entityTypePriority": ["Monster"],
            "sortType": "Nearest",
            "shapeName": "CircleR20H20",
            "campTargetType": "AllExceptSelf",
            "doOffStage": 1.0
          },
          "predicates": [
            {
              "$type": "ByTargetGlobalValue",
              "key": "_ABILITY_FauneAbyssale_Seal_SingState",
              "value": 22.0
            },
            {
              "$type": "ByTargetGlobalValue",
              "key": "_ABILITY_FauneAbyssale_Seal_MuteSingState",
              "value": 0.0
            },
            {
              "$type": "ByNot",
              "predicates": [
                {
                  "$type": "BHFFBBOLCCP",
                  "modifierName": "UNIQUE_FauneAbyssale_Seal_BeAbsorbed"
                }
              ]
            }
          ],
          "targetPredicates": [
            {
              "$type": "ByTargetGlobalValue",
              "key": "_ABILITY_FauneAbyssale_Seal_SingState",
              "value": 22.0
            },
            {
              "$type": "ByTargetGlobalValue",
              "key": "_ABILITY_FauneAbyssale_Seal_MuteSingState",
              "value": 0.0
            },
            {
              "$type": "ByNot",
              "predicates": [
                {
                  "$type": "BHFFBBOLCCP",
                  "modifierName": "UNIQUE_FauneAbyssale_Seal_BeAbsorbed"
                }
              ]
            }
          ],
          "successActions": [
            {
              "$type": "ApplyModifier",
              "target": "Target",
              "modifierName": "FauneAbyssale_Seal_Larva_AsyncSingIdleTrigger"
            }
          ]
        }
      ]
    }
  },
  {
    "Default": {
      "$type": "ConfigAbility",
      "abilityName": "FauneAbyssale_Seal_Larva_SpecialSing",
      "abilityMixins": [
        {
          "$type": "AttachModifierToSelfGlobalValueMixin",
          "globalValueKey": "SGV_FauneAbyssale_Seal_Activity_SingState",
          "gvInTalk": 0.0,
          "valueSteps": [-0.5, 0.5, 1.5, 2.5],
          "modifierNameSteps": [
            "FauneAbyssale_Seal_Larva_SpecialSing_State0",
            "FauneAbyssale_Seal_Larva_SpecialSing_State1",
            "FauneAbyssale_Seal_Larva_SpecialSing_ChangeState"
          ],
          "NMCLMHFBALJ": true
        },
        {
          "$type": "AttachToAnimatorStateIDMixin",
          "stateIDs": ["SpecialSing_BS"],
          "modifierName": "FauneAbyssale_Seal_Larva_SpecialSing_State2",
          "DGFCLAIDIFI": ""
        }
      ],
      "modifiers": {
        "FauneAbyssale_Seal_Larva_SpecialSing_State0": {
          "modifierName": "",
          "elementDurability": 100.0,
          "onAdded": [
            {
              "$type": "SetAnimatorInt",
              "intID": "SpecialSingState",
              "value": 0.0
            }
          ]
        },
        "FauneAbyssale_Seal_Larva_SpecialSing_State1": {
          "modifierName": "",
          "elementDurability": 100.0,
          "onAdded": [
            {
              "$type": "SetAnimatorInt",
              "intID": "SpecialSingState",
              "value": 1.0
            }
          ]
        },
        "FauneAbyssale_Seal_Larva_SpecialSing_ChangeState": {
          "modifierName": "",
          "elementDurability": 100.0,
          "onAdded": [
            {
              "$type": "GFFKENEJFFB",
              "intID": "FreeState",
              "value": 2
            }
          ]
        },
        "FauneAbyssale_Seal_Larva_SpecialSing_State2": {
          "modifierName": "",
          "elementDurability": 100.0,
          "onAdded": [
            {
              "$type": "SetAnimatorInt",
              "intID": "SpecialSingState",
              "value": 2.0
            }
          ]
        }
      }
    }
  },
  {
    "Default": {
      "$type": "ConfigAbility",
      "abilityName": "Monster_FauneAbyssale_Seal_Large_Pace",
      "abilityMixins": [
        {
          "$type": "AttachToAnimatorStateIDMixin",
          "stateIDs": ["Standby"],
          "modifierName": "Monster_FauneAbyssale_Seal_Large_Pace",
          "DGFCLAIDIFI": ""
        },
        {
          "$type": "AttachToAnimatorStateIDMixin",
          "stateIDs": ["StandbyFree"],
          "modifierName": "Monster_FauneAbyssale_Seal_Large_Pace",
          "DGFCLAIDIFI": ""
        },
        {
          "$type": "AttachToAnimatorStateIDMixin",
          "stateIDs": ["Walk"],
          "modifierName": "Monster_FauneAbyssale_Seal_Large_Pace",
          "DGFCLAIDIFI": ""
        },
        {
          "$type": "AttachToAnimatorStateIDMixin",
          "stateIDs": ["WalkFree"],
          "modifierName": "Monster_FauneAbyssale_Seal_Large_Pace",
          "DGFCLAIDIFI": ""
        }
      ],
      "modifiers": {
        "Monster_FauneAbyssale_Seal_Large_Pace": {
          "modifierName": "",
          "elementDurability": 100.0,
          "onAdded": [
            {
              "$type": "SetAnimatorInt",
              "intID": "WalkPace",
              "value": 1.0
            }
          ]
        }
      },
      "onAdded": [
        {
          "$type": "SetAnimatorInt",
          "intID": "WalkPace",
          "value": 1.0
        }
      ]
    }
  },
  {
    "Default": {
      "$type": "ConfigAbility",
      "abilityName": "Monster_FauneAbyssale_Seal_Enormous_Pace",
      "abilityMixins": [
        {
          "$type": "AttachToAnimatorStateIDMixin",
          "stateIDs": ["Standby"],
          "modifierName": "Monster_FauneAbyssale_Seal_Enormous_Pace",
          "DGFCLAIDIFI": ""
        },
        {
          "$type": "AttachToAnimatorStateIDMixin",
          "stateIDs": ["StandbyFree"],
          "modifierName": "Monster_FauneAbyssale_Seal_Enormous_Pace",
          "DGFCLAIDIFI": ""
        },
        {
          "$type": "AttachToAnimatorStateIDMixin",
          "stateIDs": ["Walk"],
          "modifierName": "Monster_FauneAbyssale_Seal_Enormous_Pace",
          "DGFCLAIDIFI": ""
        },
        {
          "$type": "AttachToAnimatorStateIDMixin",
          "stateIDs": ["WalkFree"],
          "modifierName": "Monster_FauneAbyssale_Seal_Enormous_Pace",
          "DGFCLAIDIFI": ""
        }
      ],
      "modifiers": {
        "Monster_FauneAbyssale_Seal_Enormous_Pace": {
          "modifierName": "",
          "elementDurability": 100.0,
          "onAdded": [
            {
              "$type": "SetAnimatorInt",
              "intID": "WalkPace",
              "value": 2.0
            }
          ]
        }
      },
      "onAdded": [
        {
          "$type": "SetAnimatorInt",
          "intID": "WalkPace",
          "value": 2.0
        }
      ]
    }
  },
  {
    "Default": {
      "$type": "ConfigAbility",
      "abilityName": "Monster_FauneAbyssale_Seal_HideBody",
      "abilityMixins": [
        {
          "$type": "AttachModifierToSelfGlobalValueMixin",
          "globalValueKey": "_ABILITY_FauneAbyssale_Seal_HideState",
          "gvInTalk": 0.0,
          "valueSteps": [-0.5, 0.5, 1.5],
          "modifierNameSteps": [
            "Monster_FauneAbyssale_Seal_ShowBody",
            "Monster_FauneAbyssale_Seal_HideBody"
          ]
        },
        {
          "$type": "AttachToAnimatorStateIDMixin",
          "stateIDs": ["Personality1_AS"],
          "modifierName": "Monster_FauneAbyssale_Seal_HideBodySkill",
          "DGFCLAIDIFI": ""
        },
        {
          "$type": "MFGGKNJLABP",
          "PNAPPKMKAJP": ["Personality4"],
          "endNormalizedTime": 0.5,
          "angularSpeed": 360.0,
          "attackTrigger": ""
        },
        {
          "$type": "AttachToAnimatorStateIDMixin",
          "stateIDs": ["Personality4"],
          "modifierName": "Monster_FauneAbyssale_Seal_TriggerBulletWhileHide",
          "DGFCLAIDIFI": ""
        },
        {
          "$type": "LEOGLBFIELL",
          "poseIDs": [11, 12, 13, 14, 15, 16, 17, 18, 19, 20, 21, 22, 99, 901],
          "modifierName": "Monster_FauneAbyssale_Seal_ForceShow"
        }
      ],
      "modifiers": {
        "Monster_FauneAbyssale_Seal_ForceShow": {
          "modifierName": "",
          "elementDurability": 100.0,
          "onAdded": [
            {
              "$type": "SetGlobalValue",
              "value": 0.0,
              "key": "_ABILITY_FauneAbyssale_Seal_HideState",
              "maxValue": 0.0,
              "minValue": 0.0
            },
            {
              "$type": "SetAnimatorBool",
              "boolID": "HideState"
            }
          ]
        },
        "Monster_FauneAbyssale_Seal_ShowBody": {
          "modifierName": "",
          "elementDurability": 100.0,
          "properties": {
            "Actor_EndureDelta": 0.0
          },
          "onAdded": [
            {
              "$type": "GFFKENEJFFB",
              "intID": "HideState"
            },
            {
              "$type": "HBNEMPLJCMB"
            }
          ]
        },
        "Monster_FauneAbyssale_Seal_HideBody": {
          "modifierName": "",
          "elementDurability": 100.0,
          "modifierMixins": [
            {
              "$type": "ShaderLerpMixin",
              "damageRatio": "SealInvisible"
            }
          ],
          "properties": {
            "Actor_EndureDelta": 0.0
          },
          "state": "DenyLockOn",
          "onAdded": [
            {
              "$type": "GFFKENEJFFB",
              "intID": "HideState",
              "value": 1
            },
            {
              "$type": "SetAnimatorBool",
              "boolID": "HideState",
              "value": true
            },
            {
              "$type": "HBNEMPLJCMB",
              "hide": true
            },
            {
              "$type": "AttachEffect",
              "rotationDampTime": "Eff_Monster_FauneAbyssale_Seal_Larva_Bubble",
              "PPPDJGDDOGD": 1.0,
              "AJDILHJFNKE": -1.0
            },
            {
              "$type": "ApplyModifier",
              "modifierName": "Monster_FauneAbyssale_Seal_HideBodyDetectCD"
            }
          ],
          "onBeingHit": [
            {
              "$type": "Predicated",
              "targetPredicates": [
                {
                  "$type": "ByAttackTags",
                  "attackTags": ["Dive_Echo_Bullet"]
                },
                {
                  "$type": "ByNot",
                  "predicates": [
                    {
                      "$type": "BHFFBBOLCCP",
                      "modifierName": "Monster_FauneAbyssale_Seal_HideBodyDetectCD"
                    }
                  ]
                }
              ],
              "successActions": [
                {
                  "$type": "DLEIPBPNAIM",
                  "paramList": [0, 0, 0]
                },
                {
                  "$type": "ApplyModifier",
                  "modifierName": "Monster_FauneAbyssale_Seal_BeFindAttack"
                }
              ]
            }
          ]
        },
        "Monster_FauneAbyssale_Seal_HideBodySkill": {
          "modifierName": "",
          "elementDurability": 100.0,
          "onAdded": [
            {
              "$type": "SetGlobalValue",
              "value": 1.0,
              "key": "_ABILITY_FauneAbyssale_Seal_HideState",
              "maxValue": 0.0,
              "minValue": 0.0
            },
            {
              "$type": "GFFKENEJFFB",
              "intID": "HideState",
              "value": 1
            },
            {
              "$type": "ClearEndura"
            }
          ]
        },
        "Monster_FauneAbyssale_Seal_HideBodyDetectCD": {
          "modifierName": "",
          "duration": 4.0,
          "elementDurability": 100.0,
          "modifierMixins": [
            {
              "$type": "JEBJLNFFPBC",
              "attackTags": ["Dive_Echo_Bullet"]
            }
          ]
        },
        "Monster_FauneAbyssale_Seal_TriggerBulletWhileHide": {
          "modifierName": "",
          "elementDurability": 100.0,
          "thinkInterval": 1.25,
          "onAdded": [
            {
              "$type": "ApplyModifier",
              "modifierName": "Monster_FauneAbyssale_Seal_DelayTurn"
            }
          ],
          "onThinkInterval": [
            {
              "$type": "TriggerBullet",
              "bulletID": 42615021,
              "born": {
                "$type": "ConfigBornByAttachPoint",
                "direction": {
                  "$type": "ConfigDirectionByAttackTarget",
                  "startPoint": ""
                },
                "useRotation": true,
                "attachPointName": "RootNode"
              }
            }
          ]
        },
        "Monster_FauneAbyssale_Seal_DelayTurn": {
          "modifierName": "",
          "duration": 0.550000011920929,
          "elementDurability": 100.0,
          "onRemoved": [
            {
              "$type": "Randomed",
              "chance": 0.5,
              "successActions": [
                {
                  "$type": "TurnDirectionToPos",
                  "toPos": {
                    "$type": "ConfigBornBySelf",
                    "offset": {
                      "x": -50.0,
                      "y": 0.0,
                      "z": 0.0
                    },
                    "useRotation": true
                  }
                }
              ],
              "failActions": [
                {
                  "$type": "TurnDirectionToPos",
                  "toPos": {
                    "$type": "ConfigBornBySelf",
                    "offset": {
                      "x": 50.0,
                      "y": 0.0,
                      "z": 0.0
                    },
                    "useRotation": true
                  }
                }
              ]
            }
          ]
        },
        "Monster_FauneAbyssale_Seal_BeFindAttack": {
          "modifierName": "",
          "duration": 5.0,
          "elementDurability": 100.0,
          "onAdded": [
            {
              "$type": "SetGlobalValue",
              "value": 0.0,
              "key": "_ABILITY_FauneAbyssale_Seal_HideState",
              "maxValue": 0.0,
              "minValue": 0.0
            },
            {
              "$type": "SetAnimatorBool",
              "boolID": "HideState"
            },
            {
              "$type": "LoseHP",
              "amountByCasterMaxHPRatio": 0.15000000596046448,
              "BJKGFBGEFPB": ""
            },
            {
              "$type": "ClearEndura"
            },
            {
              "$type": "ActCameraShake",
              "cameraShake": {
                "shakeRange": 0.20000000298023224,
                "shakeTime": 0.11999999731779099,
                "shakeDistance": 5.0,
                "extension": {
                  "baseOnCamera": true
                }
              }
            },
            {
              "$type": "SetAnimatorTrigger",
              "triggerID": "BeAbsorbed",
              "mpTriggerOnRemote": true
            },
            {
              "$type": "DOANGHCALGB",
              "skillIDs": [201]
            },
            {
              "$type": "DOANGHCALGB",
              "skillIDs": [202]
            }
          ]
        }
      },
      "onAdded": [
        {
          "$type": "SetGlobalValue",
          "value": 0.0,
          "key": "_ABILITY_FauneAbyssale_Seal_HideState",
          "useLimitRange": true,
          "maxValue": 1.0,
          "minValue": 0.0
        }
      ],
      "onKill": [
        {
          "$type": "SetGlobalValue",
          "value": 0.0,
          "key": "_ABILITY_FauneAbyssale_Seal_HideState",
          "useLimitRange": true,
          "maxValue": 1.0,
          "minValue": 0.0
        }
      ]
    }
  },
  {
    "Default": {
      "$type": "ConfigAbility",
      "abilityName": "Monster_FauneAbyssale_Seal_EnhanceBullet_Loop",
      "modifiers": {
        "UNIQUE_Monster_FauneAbyssale_Seal_EnhanceBullet_Loop": {
          "modifierName": "",
          "forceTriggerWhenChangeAuthority": true,
          "elementDurability": 100.0,
          "onAdded": [
            {
              "$type": "AttachEffect",
              "rotationDampTime": "Eff_Monster_FauneAbyssale_Seal_Larva_EnhancedAttack",
              "PPPDJGDDOGD": 1.0,
              "AJDILHJFNKE": -1.0
            }
          ],
          "onRemoved": [
            {
              "$type": "KillSelf"
            }
          ]
        }
      },
      "onAdded": [
        {
          "$type": "AttachModifier",
          "modifierName": "UNIQUE_Monster_FauneAbyssale_Seal_EnhanceBullet_Loop"
        }
      ]
    }
  },
  {
    "Default": {
      "$type": "ConfigAbility",
      "abilityName": "Monster_FauneAbyssale_Seal_EnhanceBullet_Explode",
      "onAbilityStart": [
        {
          "$type": "RemoveUniqueModifier",
          "modifierName": "UNIQUE_Monster_FauneAbyssale_Seal_EnhanceBullet_Loop"
        },
        {
          "$type": "TriggerAttackEvent",
          "attackEvent": {
            "attackPattern": {
              "$type": "ConfigAttackSphere",
              "triggerType": "TriggerNoRepeat",
              "born": {
                "$type": "ConfigBornByCollisionPoint"
              },
              "radius": 0.75
            },
            "attackInfo": {
              "attackTag": "",
              "attenuationTag": "FauneAbyssale_Seal_Attack",
              "attenuationGroup": "FauneAbyssale_Seal_Attack",
              "attackProperty": {
                "actorGrassSubHurtDelta": 1.0,
                "actorWindSubHurtDelta": 0.0,
                "elementType": "Water",
                "elementDurability": 25.0,
                "strikeType": "Default",
                "enBreak": 1.0,
                "GLKMCMDJBIK": 0.0
              },
              "hitPattern": {
                "onHitEffectName": "default",
                "hitImpulseY": "",
                "hitImpulseType": "LV4",
                "hitHaltTimeScale": 0.05000000074505806
              },
              "canBeModifiedBy": "OriginOwner"
            }
          },
          "targetType": "Enemy"
        }
      ]
    }
  },
  {
    "Default": {
      "$type": "ConfigAbility",
      "abilityName": "Monster_FauneAbyssale_Seal_EnhanceBullet_AS",
      "onAbilityStart": [
        {
          "$type": "FireEffect",
          "rotationDampTime": "Eff_Monster_FauneAbyssale_Seal_Larva_EnhancedAttack_AS",
          "born": {
            "$type": "ConfigBornByAttachPoint",
            "useRotation": true,
            "attachPointName": "RootNode"
          },
          "PPPDJGDDOGD": 1.0,
          "AJDILHJFNKE": -1.0
        }
      ]
    }
  },
  {
    "Default": {
      "$type": "ConfigAbility",
      "abilityName": "FauneAbyssale_Seal_SetAnimatorBool",
      "onAdded": [
        {
          "$type": "SetAnimatorBool",
          "boolID": "IsAbilityAnimal",
          "value": true
        }
      ]
    }
  },
  {
    "Default": {
      "$type": "ConfigAbility",
      "abilityName": "FauneAbyssale_Seal_BeHitAttackCD",
      "abilityMixins": [
        {
          "$type": "AttachToAnimatorStateIDMixin",
          "stateIDs": ["Hit_HOnFloorAttack", "Hit_HOnFloorAttackInWater"],
          "modifierName": "FauneAbyssale_Seal_BeHitAttackState",
          "DGFCLAIDIFI": ""
        },
        {
          "$type": "AttachToAnimatorStateIDMixin",
          "stateIDs": [
            "Hit_HOnFloorAttack",
            "Hit_HOnFloorAttackInWater",
            "Hit_HOnFloor",
            "Hit_HOnFloorInWater"
          ],
          "modifierName": "FauneAbyssale_Seal_BeHitState",
          "DGFCLAIDIFI": ""
        }
      ],
      "modifiers": {
        "FauneAbyssale_Seal_BeHitAttackState": {
          "modifierName": "",
          "elementDurability": 100.0,
          "onRemoved": [
            {
              "$type": "ApplyModifier",
              "modifierName": "FauneAbyssale_Seal_BeHitAttackCD"
            }
          ]
        },
        "FauneAbyssale_Seal_BeHitState": {
          "modifierName": "",
          "elementDurability": 100.0,
          "modifierMixins": [
            {
              "$type": "AttachActionToModifierMixin",
              "onAdded": [
                {
                  "$type": "SetAnimatorBool",
                  "boolID": "StopBeHit",
                  "value": true
                }
              ],
              "onRemoved": [
                {
                  "$type": "SetAnimatorBool",
                  "boolID": "StopBeHit"
                }
              ]
            }
          ]
        },
        "FauneAbyssale_Seal_BeHitAttackCD": {
          "modifierName": "",
          "duration": 8.0,
          "elementDurability": 100.0,
          "onAdded": [
            {
              "$type": "SetAnimatorBool",
              "boolID": "StopBeHitAttack",
              "value": true
            }
          ],
          "onRemoved": [
            {
              "$type": "SetAnimatorBool",
              "boolID": "StopBeHitAttack"
            }
          ]
        }
      }
    }
  }
]
