[
  {
    "Default": {
      "$type": "ConfigAbility",
      "abilityName": "Hili_Electric_ShootArrow_WithRandom",
      "abilityMixins": [
        {
          "$type": "IILHMBGONGM",
          "steerStateIDs": ["Aim"],
          "angularSpeed": 120.0,
          "attackTrigger": "",
          "attackDistance": 3.75,
          "DGFCLAIDIFI": ""
        },
        {
          "$type": "AttachToStateIDMixin",
          "stateIDs": ["Aim"],
          "modifierName": "ShowAimingEffect",
          "DGFCLAIDIFI": ""
        },
        {
          "$type": "AttachToStateIDMixin",
          "stateIDs": ["Shoot"],
          "modifierName": "FireArrow",
          "DGFCLAIDIFI": ""
        }
      ],
      "modifiers": {
        "ShowAimingEffect": {
          "modifierName": "",
          "elementDurability": 100.0,
          "onAdded": [
            {
              "$type": "AttachEffect",
              "rotationDampTime": "Eff_Monster_Hili_Electric_CrossBow_Aim_01",
              "born": {
                "$type": "ConfigBornByAttachPoint",
                "attachPointName": "WeaponR"
              },
              "PPPDJGDDOGD": 1.0,
              "AJDILHJFNKE": -1.0
            }
          ]
        },
        "FireArrow": {
          "modifierName": "",
          "elementDurability": 100.0,
          "onAdded": [
            {
              "$type": "TriggerBullet",
              "predicates": [
                {
                  "$type": "ByTargetGlobalValue",
                  "key": "_ELITEAFFIX_ATTACK_ENHANCE",
                  "value": 0.0,
                  "compareType": "NoneOrEqual"
                }
              ],
              "bulletID": 42101011,
              "born": {
                "$type": "ConfigBornByAttachPoint",
                "offset": {
                  "x": 0.20000000298023224,
                  "y": 0.0,
                  "z": 0.10000000149011612
                },
                "direction": {
                  "$type": "ConfigDirectionByAttackTarget",
                  "randomAngleHor": 0.30000001192092896,
                  "randomAngleVer": 0.5,
                  "maxAngle": 60.0,
                  "startPoint": ""
                },
                "attachPointName": "WeaponR"
              }
            },
            {
              "$type": "TriggerBullet",
              "predicates": [
                {
                  "$type": "ByTargetGlobalValue",
                  "key": "_ELITEAFFIX_ATTACK_ENHANCE",
                  "value": 1.0
                }
              ],
              "bulletID": 42101011,
              "born": {
                "$type": "ConfigBornByAttachPoint",
                "offset": {
                  "x": 0.20000000298023224,
                  "y": 0.0,
                  "z": 0.10000000149011612
                },
                "direction": {
                  "$type": "ConfigDirectionByAttackTarget",
                  "angleOffset": {
                    "x": 0.0,
                    "y": 0.0,
                    "z": 0.0
                  },
                  "maxAngle": 60.0,
                  "speedForPredictive": 30.0,
                  "startPoint": ""
                },
                "attachPointName": "WeaponR"
              }
            },
            {
              "$type": "TriggerBullet",
              "predicates": [
                {
                  "$type": "ByTargetGlobalValue",
                  "key": "_ELITEAFFIX_ATTACK_ENHANCE",
                  "value": 1.0
                }
              ],
              "bulletID": 42101011,
              "born": {
                "$type": "ConfigBornByAttachPoint",
                "offset": {
                  "x": 0.20000000298023224,
                  "y": 0.0,
                  "z": 0.10000000149011612
                },
                "direction": {
                  "$type": "ConfigDirectionByAttackTarget",
                  "angleOffset": {
                    "x": 0.0,
                    "y": 5.0,
                    "z": 0.0
                  },
                  "startPoint": ""
                },
                "attachPointName": "WeaponR"
              }
            },
            {
              "$type": "TriggerBullet",
              "predicates": [
                {
                  "$type": "ByTargetGlobalValue",
                  "key": "_ELITEAFFIX_ATTACK_ENHANCE",
                  "value": 1.0
                }
              ],
              "bulletID": 42101011,
              "born": {
                "$type": "ConfigBornByAttachPoint",
                "offset": {
                  "x": 0.20000000298023224,
                  "y": 0.0,
                  "z": 0.10000000149011612
                },
                "direction": {
                  "$type": "ConfigDirectionByAttackTarget",
                  "angleOffset": {
                    "x": 0.0,
                    "y": 10.0,
                    "z": 0.0
                  },
                  "maxAngle": 60.0,
                  "speedForPredictive": 30.0,
                  "startPoint": ""
                },
                "attachPointName": "WeaponR"
              }
            },
            {
              "$type": "TriggerBullet",
              "predicates": [
                {
                  "$type": "ByTargetGlobalValue",
                  "key": "_ELITEAFFIX_ATTACK_ENHANCE",
                  "value": 1.0
                }
              ],
              "bulletID": 42101011,
              "born": {
                "$type": "ConfigBornByAttachPoint",
                "offset": {
                  "x": 0.20000000298023224,
                  "y": 0.0,
                  "z": 0.10000000149011612
                },
                "direction": {
                  "$type": "ConfigDirectionByAttackTarget",
                  "angleOffset": {
                    "x": 0.0,
                    "y": -5.0,
                    "z": 0.0
                  },
                  "maxAngle": 60.0,
                  "speedForPredictive": 30.0,
                  "startPoint": ""
                },
                "attachPointName": "WeaponR"
              }
            },
            {
              "$type": "TriggerBullet",
              "predicates": [
                {
                  "$type": "ByTargetGlobalValue",
                  "key": "_ELITEAFFIX_ATTACK_ENHANCE",
                  "value": 1.0
                }
              ],
              "bulletID": 42101011,
              "born": {
                "$type": "ConfigBornByAttachPoint",
                "offset": {
                  "x": 0.20000000298023224,
                  "y": 0.0,
                  "z": 0.10000000149011612
                },
                "direction": {
                  "$type": "ConfigDirectionByAttackTarget",
                  "angleOffset": {
                    "x": 0.0,
                    "y": -10.0,
                    "z": 0.0
                  },
                  "maxAngle": 60.0,
                  "speedForPredictive": 30.0,
                  "startPoint": ""
                },
                "attachPointName": "WeaponR"
              }
            },
            {
              "$type": "FireEffect",
              "rotationDampTime": "Eff_Monster_Hili_Electric_CrossBow_Arrow_AS",
              "PPPDJGDDOGD": 1.0,
              "AJDILHJFNKE": -1.0
            }
          ]
        }
      }
    }
  },
  {
    "Default": {
      "$type": "ConfigAbility",
      "abilityName": "Hili_Electric_Arrow_Damage",
      "modifiers": {
        "FireEffectModifier": {
          "modifierName": "",
          "elementType": "Electric",
          "elementDurability": 50.0,
          "onAdded": [
            {
              "$type": "AttachEffect",
              "rotationDampTime": "Eff_Monster_Hili_Electric_CrossBow_Arrow_Particle",
              "PPPDJGDDOGD": 1.0,
              "AJDILHJFNKE": -1.0
            },
            {
              "$type": "AttachEffect",
              "rotationDampTime": "Eff_Monster_Hili_Electric_CrossBow_Arrow_Trail",
              "PPPDJGDDOGD": 1.0,
              "AJDILHJFNKE": -1.0
            }
          ]
        }
      },
      "onAdded": [
        {
          "$type": "AttachModifier",
          "modifierName": "FireEffectModifier"
        }
      ],
      "onAbilityStart": [
        {
          "$type": "TriggerAttackEvent",
          "predicates": [
            {
              "$type": "ByHasElement",
              "element": "Electric"
            },
            {
              "$type": "ByTargetGlobalValue",
              "target": "Owner",
              "key": "_ELITEAFFIX_ATTACK_ENHANCE",
              "value": 0.0,
              "compareType": "NoneOrEqual"
            }
          ],
          "attackEvent": {
            "attackPattern": {
              "$type": "ConfigAttackSphere",
              "triggerType": "TriggerNoRepeat",
              "checkHitLayerType": "Both",
              "born": {
                "$type": "ConfigBornByCollisionPoint"
              },
              "radius": 0.75
            },
            "attackInfo": {
              "attackTag": "",
              "attenuationTag": "",
              "attenuationGroup": "default",
              "attackProperty": {
                "actorGrassSubHurtDelta": 1.0,
                "actorWindSubHurtDelta": 0.0,
                "elementType": "Electric",
                "elementDurability": 50.0,
                "strikeType": "Pierce",
                "enBreak": 50.0,
                "GLKMCMDJBIK": 0.0
              },
              "hitPattern": {
                "onHitEffectName": "none",
                "hitImpulseY": "",
                "hitImpulseType": "LV2",
                "hitHaltTimeScale": 0.009999999776482582
              },
              "cameraShake": {
                "shakeRange": 0.05999999865889549,
                "shakeTime": 0.09000000357627869
              },
              "canBeModifiedBy": "OriginOwner"
            }
          },
          "targetType": "Enemy"
        },
        {
          "$type": "TriggerAttackEvent",
          "predicates": [
            {
              "$type": "ByHasElement",
              "element": "Electric"
            },
            {
              "$type": "ByTargetGlobalValue",
              "target": "Owner",
              "key": "_ELITEAFFIX_ATTACK_ENHANCE",
              "value": 1.0
            }
          ],
          "attackEvent": {
            "attackPattern": {
              "$type": "ConfigAttackSphere",
              "triggerType": "TriggerNoRepeat",
              "checkHitLayerType": "Both",
              "born": {
                "$type": "ConfigBornByCollisionPoint"
              },
              "radius": 0.75
            },
            "attackInfo": {
              "attackTag": "",
              "attenuationTag": "",
              "attenuationGroup": "default",
              "attackProperty": {
                "actorGrassSubHurtDelta": 0.6660000085830688,
                "actorWindSubHurtDelta": 0.0,
                "elementType": "Electric",
                "elementDurability": 50.0,
                "strikeType": "Pierce",
                "enBreak": 50.0,
                "GLKMCMDJBIK": 0.0
              },
              "hitPattern": {
                "onHitEffectName": "none",
                "hitImpulseY": "",
                "hitImpulseType": "LV2",
                "hitHaltTimeScale": 0.009999999776482582
              },
              "cameraShake": {
                "shakeRange": 0.05999999865889549,
                "shakeTime": 0.09000000357627869
              },
              "canBeModifiedBy": "OriginOwner"
            }
          },
          "targetType": "Enemy"
        },
        {
          "$type": "TriggerAttackEvent",
          "predicates": [
            {
              "$type": "ByNot",
              "predicates": [
                {
                  "$type": "ByHasElement",
                  "element": "Electric"
                }
              ]
            },
            {
              "$type": "ByTargetGlobalValue",
              "target": "Owner",
              "key": "_ELITEAFFIX_ATTACK_ENHANCE",
              "value": 0.0,
              "compareType": "NoneOrEqual"
            }
          ],
          "attackEvent": {
            "attackPattern": {
              "$type": "ConfigAttackBox",
              "triggerType": "TriggerNoRepeat",
              "checkHitLayerType": "Both",
              "born": {
                "$type": "ConfigBornByCollisionPoint",
                "offset": {
                  "x": 0.0,
                  "y": 0.0,
                  "z": -0.5
                }
              },
              "size": {
                "x": 0.10000000149011612,
                "y": 0.10000000149011612,
                "z": 1.0
              }
            },
            "attackInfo": {
              "attackTag": "",
              "attenuationTag": "",
              "attenuationGroup": "default",
              "attackProperty": {
                "actorGrassSubHurtDelta": 0.6660000085830688,
                "actorWindSubHurtDelta": 0.0,
                "elementDurability": 100.0,
                "strikeType": "Pierce",
                "GLKMCMDJBIK": 0.0
              },
              "hitPattern": {
                "onHitEffectName": "default",
                "hitImpulseY": "",
                "hitImpulseType": "LV1",
                "hitHaltTimeScale": 0.009999999776482582
              },
              "canBeModifiedBy": "OriginOwner"
            }
          },
          "targetType": "Enemy"
        },
        {
          "$type": "TriggerAttackEvent",
          "predicates": [
            {
              "$type": "ByNot",
              "predicates": [
                {
                  "$type": "ByHasElement",
                  "element": "Electric"
                }
              ]
            },
            {
              "$type": "ByTargetGlobalValue",
              "target": "Owner",
              "key": "_ELITEAFFIX_ATTACK_ENHANCE",
              "value": 1.0
            }
          ],
          "attackEvent": {
            "attackPattern": {
              "$type": "ConfigAttackBox",
              "triggerType": "TriggerNoRepeat",
              "checkHitLayerType": "Both",
              "born": {
                "$type": "ConfigBornByCollisionPoint",
                "offset": {
                  "x": 0.0,
                  "y": 0.0,
                  "z": -0.5
                }
              },
              "size": {
                "x": 0.10000000149011612,
                "y": 0.10000000149011612,
                "z": 1.0
              }
            },
            "attackInfo": {
              "attackTag": "",
              "attenuationTag": "",
              "attenuationGroup": "default",
              "attackProperty": {
                "actorGrassSubHurtDelta": 0.4659999907016754,
                "actorWindSubHurtDelta": 0.0,
                "elementDurability": 100.0,
                "strikeType": "Pierce",
                "GLKMCMDJBIK": 0.0
              },
              "hitPattern": {
                "onHitEffectName": "default",
                "hitImpulseY": "",
                "hitImpulseType": "LV1",
                "hitHaltTimeScale": 0.009999999776482582
              },
              "canBeModifiedBy": "OriginOwner"
            }
          },
          "targetType": "Enemy"
        },
        {
          "$type": "FireEffect",
          "predicates": [
            {
              "$type": "ByHasElement",
              "element": "Electric"
            }
          ],
          "rotationDampTime": "Eff_Monster_Hili_Electric_CrossBow_ArrowHit",
          "born": {
            "$type": "ConfigBornByCollisionPoint",
            "offset": {
              "x": 0.0,
              "y": 0.0,
              "z": 0.3499999940395355
            }
          },
          "PPPDJGDDOGD": 1.0,
          "AJDILHJFNKE": -1.0
        },
        {
          "$type": "FireHitEffect",
          "predicates": [
            {
              "$type": "ByHasElement",
              "element": "Electric"
            }
          ],
          "hitEntity": "",
          "hitScene": {
            "defaultEffect": "Eff_Monster_Hili_Electric_CrossBow_ArrowHit",
            "surfaceEffect": {
              "Water": "Eff_Arrow_Hit_Water"
            }
          }
        },
        {
          "$type": "FireHitEffect",
          "predicates": [
            {
              "$type": "ByNot",
              "predicates": [
                {
                  "$type": "ByHasElement",
                  "element": "Electric"
                }
              ]
            }
          ],
          "hitEntity": "Eff_Arrow_Hit_Monster",
          "hitScene": {
            "defaultEffect": "Eff_Arrow_Hit_Earth",
            "surfaceEffect": {
              "Water": "Eff_Arrow_Hit_Water"
            }
          }
        },
        {
          "$type": "RemoveModifier",
          "modifierName": "FireEffectModifier"
        }
      ]
    }
  },
  {
    "Default": {
      "$type": "ConfigAbility",
      "abilityName": "Monster_Hili_Electric_BombHold",
      "onAbilityStart": [
        {
          "$type": "IDNGFEEBPAM",
          "boolID": "BombHold",
          "value": true
        }
      ]
    }
  },
  {
    "Default": {
      "$type": "ConfigAbility",
      "abilityName": "Monster_Hili_Electric_BombDrop",
      "abilityMixins": [
        {
          "$type": "AttachToStateIDMixin",
          "stateIDs": [
            "CreateBomb",
            "CreateBombAS",
            "ThrowBomb",
            "NormalIdle",
            "NormalMove",
            "Turn"
          ],
          "modifierName": "HoldBombOnHand",
          "DGFCLAIDIFI": ""
        }
      ],
      "modifiers": {
        "HoldBombOnHand": {
          "modifierName": "",
          "elementDurability": 100.0,
          "onRemoved": [
            {
              "$type": "RemoveUniqueModifier",
              "modifierName": "UNIQUE_Monster_Hili_Electric_HoldBomb"
            },
            {
              "$type": "PKKLMLMLOCJ",
              "equipParts": ["equip01"]
            },
            {
              "$type": "IDNGFEEBPAM",
              "boolID": "BombHold"
            }
          ]
        }
      },
      "onAbilityStart": [
        {
          "$type": "IDNGFEEBPAM",
          "boolID": "BombHold"
        }
      ]
    }
  },
  {
    "Default": {
      "$type": "ConfigAbility",
      "abilityName": "Monster_Hili_Electric_CreateBomb",
      "abilityMixins": [
        {
          "$type": "AttachToStateIDMixin",
          "stateIDs": ["CreateBomb"],
          "modifierName": "State_CreateBomb",
          "DGFCLAIDIFI": ""
        },
        {
          "$type": "AttachToStateIDMixin",
          "stateIDs": ["CreateBombAS"],
          "modifierName": "State_CreateBombAS",
          "DGFCLAIDIFI": ""
        }
      ],
      "abilitySpecials": {
        "RandomHoldTime": 1.5
      },
      "modifiers": {
        "State_CreateBomb": {
          "modifierName": "",
          "duration": 1.5,
          "elementDurability": 100.0,
          "onRemoved": [
            {
              "$type": "SetAnimatorTrigger",
              "triggerID": "CreateBombEnd"
            },
            {
              "$type": "GNGMFJBIDNA",
              "gadgetID": 42101026,
              "equipPart": "equip01"
            },
            {
              "$type": "TriggerAbility",
              "abilityName": "Monster_Hili_Electric_BombHold"
            }
          ]
        },
        "State_CreateBombAS": {
          "modifierName": "",
          "elementDurability": 100.0,
          "onAdded": [
            {
              "$type": "AddGlobalValue",
              "value": 0.0,
              "key": "_MONSTER_Hili_Electric_BombHoldTime_",
              "useLimitRange": true,
              "randomInRange": true,
              "maxValue": 5.0,
              "minValue": 3.0
            },
            {
              "$type": "SetGlobalValueToOverrideMap",
              "globalValueKey": "_MONSTER_Hili_Electric_BombHoldTime_",
              "overrideMapKey": "RandomHoldTime"
            },
            {
              "$type": "ApplyModifier",
              "modifierName": "UNIQUE_Monster_Hili_Electric_HoldBomb"
            },
            {
              "$type": "ResetAnimatorTrigger",
              "triggerID": "CreateBombEnd"
            },
            {
              "$type": "ApplyModifier",
              "predicates": [
                {
                  "$type": "ByTargetGlobalValue",
                  "key": "_ELITEAFFIX_ATTACK_ENHANCE",
                  "value": 1.0
                },
                {
                  "$type": "ByTargetGlobalValue",
                  "key": "_MONSTER_Hili_Electric_EliteTag_",
                  "value": 0.0,
                  "compareType": "NoneOrEqual"
                }
              ],
              "modifierName": "Hili_Electric_Elite_CrazyBomber"
            }
          ]
        },
        "UNIQUE_Monster_Hili_Electric_HoldBomb": {
          "modifierName": "",
          "forceTriggerWhenChangeAuthority": true,
          "duration": "RandomHoldTime",
          "elementDurability": 100.0,
          "onRemoved": [
            {
              "$type": "SetGlobalValue",
              "value": 0.0,
              "key": "_MONSTER_Hili_Electric_BombHoldTime_",
              "maxValue": 0.0,
              "minValue": 0.0
            }
          ]
        },
        "Hili_Electric_Elite_CrazyBomber": {
          "modifierName": "",
          "duration": 15.0,
          "elementDurability": 100.0,
          "onAdded": [
            {
              "$type": "IDNGFEEBPAM",
              "boolID": "EliteTag",
              "value": true
            },
            {
              "$type": "SetGlobalValue",
              "value": 1.0,
              "key": "_MONSTER_Hili_Electric_EliteTag_",
              "maxValue": 0.0,
              "minValue": 0.0
            }
          ],
          "onRemoved": [
            {
              "$type": "IDNGFEEBPAM",
              "boolID": "EliteTag"
            },
            {
              "$type": "DOANGHCALGB",
              "skillIDs": [203]
            },
            {
              "$type": "SetGlobalValue",
              "value": 0.0,
              "key": "_MONSTER_Hili_Electric_EliteTag_",
              "maxValue": 0.0,
              "minValue": 0.0
            }
          ]
        }
      },
      "onAdded": [
        {
          "$type": "SetGlobalValue",
          "value": 0.0,
          "key": "_MONSTER_Hili_Electric_EliteTag_",
          "maxValue": 0.0,
          "minValue": 0.0
        }
      ],
      "onKill": [
        {
          "$type": "RemoveModifier",
          "modifierName": "UNIQUE_Monster_Hili_Electric_HoldBomb"
        }
      ]
    }
  },
  {
    "Default": {
      "$type": "ConfigAbility",
      "abilityName": "Monster_Hili_Electric_ThrowBomb",
      "abilityMixins": [
        {
          "$type": "IILHMBGONGM",
          "steerStateIDs": ["ThrowBomb"],
          "endNormalizedTime": 0.4000000059604645,
          "angularSpeed": 150.0,
          "attackTrigger": "",
          "attackDistance": 2.0,
          "DGFCLAIDIFI": ""
        },
        {
          "$type": "AttachToAnimatorStateIDMixin",
          "stateIDs": ["ThrowBomb"],
          "modifierName": "ThrowBomb_Handler",
          "DGFCLAIDIFI": ""
        }
      ],
      "modifiers": {
        "ThrowBomb_Handler": {
          "modifierName": "",
          "elementDurability": 100.0,
          "onAdded": [
            {
              "$type": "ApplyModifier",
              "modifierName": "ThrowBomb_Timer"
            }
          ]
        },
        "ThrowBomb_Timer": {
          "modifierName": "",
          "duration": 0.7900000214576721,
          "elementDurability": 100.0,
          "onRemoved": [
            {
              "$type": "TriggerAbility",
              "abilityName": "Monster_Hili_Electric_BombDrop"
            },
            {
              "$type": "TriggerAbility",
              "otherTargets": {
                "$type": "SelectTargetsByChildren",
                "topLimit": 1,
                "configID": 42101026
              },
              "abilityName": "Hili_Electric_SlimeThrow_Handler"
            },
            {
              "$type": "BFNNCJJCLNL",
              "equipPart": "equip01",
              "born": {
                "$type": "ConfigBornByTarget",
                "direction": {
                  "$type": "ConfigDirectionByAttackTarget",
                  "maxAngleType": "Horizontal",
                  "maxAngle": 50.0,
                  "startPoint": ""
                }
              }
            }
          ]
        }
      }
    }
  },
  {
    "Default": {
      "$type": "ConfigAbility",
      "abilityName": "Hili_Electric_SlimeThrow_Handler",
      "modifiers": {
        "SlimeThrow_AddElement": {
          "modifierName": "",
          "duration": 9.0,
          "elementType": "Electric",
          "elementDurability": 30.0,
          "isElementDurabilityMutable": false
        },
        "UNIQUE_Monster_Hili_Electric_SlimeThrow_Trail": {
          "modifierName": "",
          "forceTriggerWhenChangeAuthority": true,
          "elementDurability": 100.0,
          "onAdded": [
            {
              "$type": "AttachEffect",
              "rotationDampTime": "Eff_Monster_Hili_Electric_Bomb_Trail",
              "PPPDJGDDOGD": 1.0,
              "AJDILHJFNKE": -1.0
            }
          ]
        },
        "SlimeThrow_LifeOverExplode": {
          "modifierName": "",
          "duration": 9.0,
          "elementDurability": 100.0,
          "onRemoved": [
            {
              "$type": "TriggerAbility",
              "abilityName": "Hili_Electric_SlimeThrow_Explode"
            }
          ]
        }
      },
      "onAdded": [
        {
          "$type": "EnableBulletCollisionPluginTrigger"
        },
        {
          "$type": "AttachModifier",
          "modifierName": "SlimeThrow_AddElement"
        },
        {
          "$type": "ApplyModifier",
          "modifierName": "SlimeThrow_LifeOverExplode"
        }
      ],
      "onAbilityStart": [
        {
          "$type": "EnableBulletCollisionPluginTrigger",
          "setEnable": true
        },
        {
          "$type": "AttachModifier",
          "modifierName": "UNIQUE_Monster_Hili_Electric_SlimeThrow_Trail"
        }
      ]
    }
  },
  {
    "Default": {
      "$type": "ConfigAbility",
      "abilityName": "Hili_Electric_SlimeThrow_Explode",
      "onAbilityStart": [
        {
          "$type": "RemoveUniqueModifier",
          "modifierName": "UNIQUE_Monster_Hili_Electric_SlimeThrow_Trail"
        },
        {
          "$type": "FireEffect",
          "rotationDampTime": "Eff_Monster_Hili_Electric_SlimeThrow_Explode",
          "born": {
            "$type": "ConfigBornBySelf",
            "onGround": true
          },
          "PPPDJGDDOGD": 1.0,
          "AJDILHJFNKE": -1.0
        },
        {
          "$type": "TriggerAttackEvent",
          "attackEvent": {
            "attackPattern": {
              "$type": "ConfigAttackSphere",
              "born": {
                "$type": "ConfigBornByTarget"
              },
              "radius": 1.5
            },
            "attackInfo": {
              "attackTag": "",
              "attenuationTag": "",
              "attenuationGroup": "default",
              "attackProperty": {
                "actorGrassSubHurtDelta": 1.0,
                "actorWindSubHurtDelta": 0.0,
                "elementType": "Electric",
                "elementDurability": 50.0,
                "strikeType": "Blunt",
                "enBreak": 101.0,
                "attackType": "Range",
                "GLKMCMDJBIK": 0.0
              },
              "hitPattern": {
                "onHitEffectName": "default",
                "hitImpulseY": "",
                "hitImpulseType": "LV5"
              },
              "cameraShake": {
                "shakeRange": 2.0,
                "shakeTime": 0.15000000596046448
              },
              "canBeModifiedBy": "OriginOwner"
            }
          },
          "targetType": "Enemy"
        },
        {
          "$type": "KillSelf",
          "duration": 1.2999999523162842,
          "value": true,
          "banExp": true
        },
        {
          "$type": "TriggerSetVisible"
        }
      ]
    }
  },
  {
    "Default": {
      "$type": "ConfigAbility",
      "abilityName": "Monster_Hili_Electric_EliteSet",
      "modifiers": {
        "UNIQUE_MonsterEliteAffix_DefaultState": {
          "modifierName": "",
          "forceTriggerWhenChangeAuthority": true,
          "elementDurability": 100.0,
          "onAdded": [
            {
              "$type": "HNGKOKDJKDL",
              "skillEliteSetID": 1
            }
          ]
        },
        "UNIQUE_MonsterEliteAffix_EliteState": {
          "modifierName": "",
          "forceTriggerWhenChangeAuthority": true,
          "elementDurability": 100.0,
          "onAdded": [
            {
              "$type": "HNGKOKDJKDL",
              "skillEliteSetID": 2
            }
          ]
        }
      },
      "onAdded": [
        {
          "$type": "ApplyModifier",
          "predicates": [
            {
              "$type": "ByTargetGlobalValue",
              "key": "_ELITEAFFIX_ATTACK_ENHANCE",
              "value": 0.0,
              "compareType": "NoneOrEqual"
            }
          ],
          "modifierName": "UNIQUE_MonsterEliteAffix_DefaultState"
        },
        {
          "$type": "ApplyModifier",
          "predicates": [
            {
              "$type": "ByTargetGlobalValue",
              "key": "_ELITEAFFIX_ATTACK_ENHANCE",
              "value": 1.0
            }
          ],
          "modifierName": "UNIQUE_MonsterEliteAffix_EliteState"
        }
      ]
    }
  }
]
