[
  {
    "Default": {
      "$type": "ConfigAbility",
      "abilityName": "Thoarder_Male_Shovel_SteerAttack",
      "abilityMixins": [
        {
          "$type": "IILHMBGONGM",
          "steerStateIDs": ["NormalAtk"],
          "endNormalizedTime": 0.019999999552965164,
          "angularSpeed": 270.0,
          "attackTrigger": "",
          "attackDistance": 3.75,
          "DGFCLAIDIFI": ""
        },
        {
          "$type": "IILHMBGONGM",
          "steerStateIDs": ["NormalAtk"],
          "startNormalizedTime": 0.15000000596046448,
          "endNormalizedTime": 0.23000000417232513,
          "angularSpeed": 120.0,
          "attackTrigger": "",
          "attackDistance": 3.75,
          "DGFCLAIDIFI": ""
        },
        {
          "$type": "IILHMBGONGM",
          "steerStateIDs": ["PowerSlam"],
          "startNormalizedTime": 0.27000001072883606,
          "endNormalizedTime": 0.3199999928474426,
          "angularSpeed": 270.0,
          "attackTrigger": "",
          "attackDistance": 3.75,
          "DGFCLAIDIFI": ""
        },
        {
          "$type": "IILHMBGONGM",
          "steerStateIDs": ["WildSlam_BS"],
          "endNormalizedTime": 0.6000000238418579,
          "angularSpeed": 150.0,
          "attackTrigger": "",
          "attackDistance": 3.75,
          "DGFCLAIDIFI": ""
        },
        {
          "$type": "IILHMBGONGM",
          "steerStateIDs": ["WildSlam_Loop"],
          "angularSpeed": 100.0,
          "attackTrigger": "",
          "attackDistance": 3.75,
          "DGFCLAIDIFI": ""
        }
      ]
    }
  },
  {
    "Default": {
      "$type": "ConfigAbility",
      "abilityName": "Thoarder_Male_Shovel_SteerMove",
      "abilityMixins": [
        {
          "$type": "IILHMBGONGM",
          "steerStateIDs": ["Turn"],
          "angularSpeed": 120.0,
          "attackTrigger": "",
          "attackDistance": 3.75,
          "DGFCLAIDIFI": ""
        }
      ]
    }
  },
  {
    "Default": {
      "$type": "ConfigAbility",
      "abilityName": "Monster_Thoarder_Male_Shovel_ShovelAttack_Bullet",
      "abilityMixins": [
        {
          "$type": "IILHMBGONGM",
          "steerStateIDs": ["ShovelAttack"],
          "startNormalizedTime": 0.05000000074505806,
          "endNormalizedTime": 0.23000000417232513,
          "angularSpeed": 240.0,
          "attackTrigger": "",
          "attackDistance": 3.75,
          "DGFCLAIDIFI": ""
        },
        {
          "$type": "IILHMBGONGM",
          "steerStateIDs": ["ShovelAttack"],
          "startNormalizedTime": 0.4000000059604645,
          "endNormalizedTime": 0.41999998688697815,
          "angularSpeed": 360.0,
          "attackTrigger": "",
          "attackDistance": 3.75,
          "DGFCLAIDIFI": ""
        }
      ],
      "onAbilityStart": [
        {
          "$type": "TriggerBullet",
          "bulletID": 42503001,
          "born": {
            "$type": "ConfigBornByAttachPoint",
            "offset": {
              "x": 0.0,
              "y": 0.3499999940395355,
              "z": 1.5
            },
            "direction": {
              "$type": "ConfigDirectionByAttackTarget",
              "maxAngleType": "Horizontal",
              "maxAngle": 15.0,
              "startPoint": ""
            },
            "attachPointName": "WeaponR"
          }
        }
      ]
    }
  },
  {
    "Default": {
      "$type": "ConfigAbility",
      "abilityName": "Monster_Thoarder_Male_Shovel_StepShake",
      "onAbilityStart": [
        {
          "$type": "ActCameraShake",
          "cameraShake": {
            "shakeType": "CustomVector",
            "shakeRange": 0.05999999865889549,
            "shakeTime": 0.09000000357627869,
            "shakeDir": {
              "y": -1.0
            }
          }
        }
      ]
    }
  },
  {
    "Default": {
      "$type": "ConfigAbility",
      "abilityName": "Monster_Thoarder_Male_Shovel_WildSlam_Loop",
      "abilityMixins": [
        {
          "$type": "AttachToStateIDMixin",
          "stateIDs": ["WildSlam_BS", "WildSlam_Loop"],
          "modifierName": "WildSlamHitAvatar",
          "DGFCLAIDIFI": ""
        },
        {
          "$type": "AttachToStateIDMixin",
          "stateIDs": ["WildSlam_Loop"],
          "modifierName": "WildSlamRushEffect",
          "DGFCLAIDIFI": ""
        }
      ],
      "modifiers": {
        "WildSlamHitAvatar": {
          "modifierName": "",
          "elementDurability": 100.0,
          "onAttackLanded": [
            {
              "$type": "SetAnimatorTrigger",
              "predicates": [
                {
                  "$type": "ByEntityTypes",
                  "entityTypes": ["Avatar", "Partner", "Vehicle"],
                  "useEventSource": true
                }
              ],
              "triggerID": "WildSlamLoopEndTrigger"
            }
          ]
        },
        "WildSlamRushEffect": {
          "modifierName": "",
          "elementDurability": 100.0,
          "onAdded": [
            {
              "$type": "AttachEffect",
              "rotationDampTime": "Eff_Monster_Thoarder_Male_Shovel_WildSlam_Dust",
              "PPPDJGDDOGD": 1.0,
              "AJDILHJFNKE": -1.0
            }
          ]
        }
      }
    }
  },
  {
    "Default": {
      "$type": "ConfigAbility",
      "abilityName": "Monster_Thoarder_Male_Shovel_WildSlam_RushEffect",
      "abilityMixins": [
        {
          "$type": "AttachToStateIDMixin",
          "stateIDs": ["WildSlam_BS", "WildSlam_Loop"],
          "modifierName": "WildSlamHitAvatar",
          "DGFCLAIDIFI": ""
        }
      ],
      "modifiers": {
        "WildSlamHitAvatar": {
          "modifierName": "",
          "elementDurability": 100.0,
          "onAttackLanded": [
            {
              "$type": "SetAnimatorTrigger",
              "predicates": [
                {
                  "$type": "ByEntityTypes",
                  "entityTypes": ["Avatar", "Partner", "Vehicle"],
                  "useEventSource": true
                }
              ],
              "triggerID": "WildSlamLoopEndTrigger"
            }
          ]
        }
      }
    }
  },
  {
    "Default": {
      "$type": "ConfigAbility",
      "abilityName": "Monster_Thoarder_Male_Shovel_WildSlam_RushMove01",
      "onAbilityStart": [
        {
          "$type": "POLLHJCDPMK",
          "toPos": {
            "$type": "ConfigBornBySelf",
            "offset": {
              "x": 0.0,
              "y": 0.0,
              "z": 5.0
            }
          },
          "minRange": 2.0,
          "maxRange": 2.200000047683716,
          "timeRange": 0.20000000298023224
        }
      ]
    }
  },
  {
    "Default": {
      "$type": "ConfigAbility",
      "abilityName": "Monster_Thoarder_Male_Shovel_AuxWeaponTrans",
      "abilityMixins": [
        {
          "$type": "LEOGLBFIELL",
          "poseIDs": [1001],
          "modifierName": "AuxWeaponTransManager"
        }
      ],
      "modifiers": {
        "AuxWeaponTransManager": {
          "modifierName": "",
          "elementDurability": 100.0,
          "modifierMixins": [
            {
              "$type": "AttachToStateIDMixin",
              "stateIDs": ["NormalIdle", "NormalMove", "Turn", "BeHit"],
              "modifierName": "Shovel_AuxWeaponTrans",
              "DGFCLAIDIFI": ""
            }
          ],
          "onRemoved": [
            {
              "$type": "RemoveModifier",
              "modifierName": "Shovel_AuxWeaponTrans"
            }
          ]
        },
        "Shovel_AuxWeaponTrans": {
          "modifierName": "",
          "elementDurability": 100.0,
          "onAdded": [
            {
              "$type": "JOELMCGODNA",
              "setEnable": true,
              "equipPart": "equip01"
            }
          ],
          "onRemoved": [
            {
              "$type": "JOELMCGODNA",
              "equipPart": "equip01"
            }
          ]
        }
      }
    }
  }
]
