[
  {
    "Default": {
      "$type": "ConfigAbility",
      "abilityName": "Monster_Skirmisher_Male_Strong_Gloves_Wind_EyeEffect",
      "abilityMixins": [
        {
          "$type": "LEOGLBFIELL",
          "poseIDs": [101, 201, 202, 301],
          "modifierName": "Monster_Skirmisher_Male_Strong_Gloves_Wind_EyeEffect"
        },
        {
          "$type": "LEOGLBFIELL",
          "poseIDs": [1, 2, 3],
          "modifierName": "Monster_Skirmisher_Male_Strong_Gloves_Wind_Watcher_82084"
        }
      ],
      "modifiers": {
        "Monster_Skirmisher_Male_Strong_Gloves_Wind_EyeEffect": {
          "modifierName": "",
          "elementDurability": 100.0,
          "onAdded": [
            {
              "$type": "AttachEffect",
              "rotationDampTime": "Eff_Monster_Skirmisher_Male_Strong_Gloves_Wind_EyeNormal",
              "PPPDJGDDOGD": 1.0,
              "AJDILHJFNKE": -1.0
            }
          ]
        },
        "Monster_Skirmisher_Male_Strong_Gloves_Wind_Watcher_82084": {
          "modifierName": "",
          "elementDurability": 100.0,
          "onAdded": [
            {
              "$type": "SetGlobalValue",
              "value": 0.0,
              "key": "_WATCHER_82084_01_",
              "maxValue": 0.0,
              "minValue": 0.0
            },
            {
              "$type": "SetGlobalValue",
              "value": 0.0,
              "key": "_WATCHER_82084_02_",
              "maxValue": 0.0,
              "minValue": 0.0
            },
            {
              "$type": "SetGlobalValue",
              "value": 0.0,
              "key": "_WATCHER_82084_03_",
              "maxValue": 0.0,
              "minValue": 0.0
            },
            {
              "$type": "SetGlobalValue",
              "value": 0.0,
              "key": "_WATCHER_82084_04_",
              "maxValue": 0.0,
              "minValue": 0.0
            },
            {
              "$type": "SetGlobalValue",
              "value": 5.0,
              "key": "_WATCHER_82084_04_",
              "maxValue": 0.0,
              "minValue": 0.0
            }
          ]
        }
      },
      "onKill": [
        {
          "$type": "HCLAKBJKPLE",
          "predicates": [
            {
              "$type": "ByTargetGlobalValue",
              "target": "Self",
              "key": "_WATCHER_82084_01_",
              "value": 1.0
            },
            {
              "$type": "ByTargetGlobalValue",
              "target": "Self",
              "key": "_WATCHER_82084_02_",
              "value": 1.0
            },
            {
              "$type": "ByTargetGlobalValue",
              "target": "Self",
              "key": "_WATCHER_82084_03_",
              "value": 1.0
            },
            {
              "$type": "ByTargetGlobalValue",
              "target": "Self",
              "key": "_WATCHER_82084_04_",
              "value": 1.0
            }
          ],
          "watcherId": 82084,
          "inThreatListOnly": true
        }
      ]
    }
  },
  {
    "Default": {
      "$type": "ConfigAbility",
      "abilityName": "Monster_Skirmisher_Male_Strong_Gloves_Wind_PunchRush",
      "onAbilityStart": [
        {
          "$type": "POLLHJCDPMK",
          "toPos": {
            "$type": "ConfigBornBySelf",
            "offset": {
              "x": 0.0,
              "y": 0.0,
              "z": 2.0
            }
          },
          "maxRange": 2.0,
          "timeRange": 0.10000000149011612
        }
      ]
    }
  },
  {
    "Default": {
      "$type": "ConfigAbility",
      "abilityName": "Monster_Skirmisher_Alert_FireEffect",
      "onAbilityStart": [
        {
          "$type": "FireEffect",
          "rotationDampTime": "Eff_Monster_Undead_01_Alert",
          "born": {
            "$type": "ConfigBornByAttachPoint",
            "attachPointName": "MoveHead"
          },
          "PPPDJGDDOGD": 1.0,
          "AJDILHJFNKE": -1.0
        }
      ]
    }
  },
  {
    "Default": {
      "$type": "ConfigAbility",
      "abilityName": "Monster_Skirmisher_Strong_Gloves_Wind_RushBuddyPrepare",
      "abilityMixins": [
        {
          "$type": "AttachToNormalizedTimeMixin",
          "stateID": "RushBuddyPrepare",
          "modifierName": "Monster_Skirmisher_Strong_Gloves_Wind_RushBuddyDistanceTrigger",
          "DGFCLAIDIFI": ""
        },
        {
          "$type": "AttachToNormalizedTimeMixin",
          "stateID": "BlockRushToAlliance",
          "modifierName": "Monster_Skirmisher_Strong_Gloves_Wind_CheckTargetType",
          "DGFCLAIDIFI": ""
        },
        {
          "$type": "AttachToNormalizedTimeMixin",
          "stateID": "RushBuddy",
          "modifierName": "Monster_Skirmisher_Strong_Gloves_Wind_AfterImageHandler",
          "normalizeStart": 0.1599999964237213,
          "normalizeEnd": 0.33000001311302185,
          "DGFCLAIDIFI": ""
        }
      ],
      "modifiers": {
        "Monster_Skirmisher_Strong_Gloves_Wind_AfterImageHandler": {
          "modifierName": "",
          "elementDurability": 100.0,
          "onAdded": [
            {
              "$type": "EnableAfterImage",
              "enable": true
            }
          ],
          "onRemoved": [
            {
              "$type": "EnableAfterImage"
            }
          ]
        },
        "Monster_Skirmisher_Gloves_Wind_RushBuddyOverTimeTrigger": {
          "modifierName": "",
          "duration": 5.0,
          "elementDurability": 100.0,
          "onRemoved": [
            {
              "$type": "SetAnimatorTrigger",
              "triggerID": "ReachTarget"
            }
          ]
        },
        "Monster_Skirmisher_Strong_Gloves_Wind_RushBuddyDistanceTrigger": {
          "modifierName": "",
          "elementDurability": 100.0,
          "thinkInterval": 0.20000000298023224,
          "onAdded": [
            {
              "$type": "ApplyModifier",
              "modifierName": "Monster_Skirmisher_Gloves_Wind_RushBuddyOverTimeTrigger"
            },
            {
              "$type": "Predicated",
              "target": "SelfAttackTarget",
              "targetPredicates": [
                {
                  "$type": "ByEntityTypes",
                  "entityTypes": ["Avatar", "Partner", "Vehicle"]
                }
              ],
              "failActions": [
                {
                  "$type": "SetAnimatorTrigger",
                  "triggerID": "ToAttackEnemy"
                }
              ]
            }
          ],
          "onThinkInterval": [
            {
              "$type": "Predicated",
              "target": "SelfAttackTarget",
              "targetPredicates": [
                {
                  "$type": "ByTargetPositionToSelfPosition",
                  "logic": "Lesser",
                  "compareType": "XYZ",
                  "value": 4.0,
                  "DDALGNLEHOD": ""
                }
              ],
              "successActions": [
                {
                  "$type": "SetAnimatorTrigger",
                  "triggerID": "NearTarget"
                }
              ]
            },
            {
              "$type": "Predicated",
              "target": "SelfAttackTarget",
              "targetPredicates": [
                {
                  "$type": "ByTargetPositionToSelfPosition",
                  "logic": "Lesser",
                  "compareType": "XYZ",
                  "value": 15.0,
                  "DDALGNLEHOD": ""
                }
              ],
              "successActions": [
                {
                  "$type": "SetAnimatorTrigger",
                  "triggerID": "ReachTarget"
                }
              ]
            }
          ]
        },
        "Monster_Skirmisher_Strong_Gloves_Wind_CheckTargetType": {
          "modifierName": "",
          "elementDurability": 100.0,
          "onAdded": [
            {
              "$type": "Predicated",
              "target": "SelfAttackTarget",
              "targetPredicates": [
                {
                  "$type": "ByEntityTypes",
                  "entityTypes": ["Avatar", "Partner", "Vehicle"]
                }
              ],
              "failActions": [
                {
                  "$type": "SetAnimatorTrigger",
                  "triggerID": "ToAttackEnemy"
                }
              ]
            }
          ]
        }
      }
    }
  },
  {
    "Default": {
      "$type": "ConfigAbility",
      "abilityName": "Monster_Skirmisher_Strong_Gloves_Wind_CheckAlliance",
      "abilityMixins": [
        {
          "$type": "LEOGLBFIELL",
          "poseIDs": [101, 201, 301],
          "modifierName": "CheckAllianceAlive"
        }
      ],
      "modifiers": {
        "CheckAllianceAlive": {
          "modifierName": "",
          "elementDurability": 100.0,
          "thinkInterval": 0.5,
          "onThinkInterval": [
            {
              "$type": "Predicated",
              "otherTargets": {
                "$type": "SelectTargetsByShape",
                "topLimit": 10,
                "shapeName": "CircleR50",
                "campTargetType": "Alliance",
                "doOffStage": 1.0
              },
              "targetPredicates": [
                {
                  "$type": "ByEntityTypes",
                  "entityTypes": ["Monster"]
                }
              ],
              "successActions": [
                {
                  "$type": "AddGlobalValue",
                  "value": 1.0,
                  "key": "_MONSTER_SKIRMISHER_GLOVES_HASALLIANCE",
                  "useLimitRange": true,
                  "maxValue": 1.0,
                  "minValue": 0.0
                }
              ]
            },
            {
              "$type": "Predicated",
              "targetPredicates": [
                {
                  "$type": "ByTargetGlobalValue",
                  "key": "_MONSTER_SKIRMISHER_GLOVES_HASALLIANCE",
                  "value": 1.0
                }
              ],
              "successActions": [
                {
                  "$type": "IDNGFEEBPAM",
                  "boolID": "HaveAlliance",
                  "value": true
                }
              ],
              "failActions": [
                {
                  "$type": "IDNGFEEBPAM",
                  "boolID": "HaveAlliance"
                }
              ]
            },
            {
              "$type": "Predicated",
              "otherTargets": {
                "$type": "SelectTargetsByShape",
                "topLimit": 10,
                "shapeName": "CircleR50",
                "campTargetType": "Alliance",
                "doOffStage": 1.0
              },
              "targetPredicates": [
                {
                  "$type": "ByTargetGlobalValue",
                  "key": "_MONSTER_SKIRMISHER_WEAK_",
                  "value": 1.0
                }
              ],
              "successActions": [
                {
                  "$type": "AddGlobalValue",
                  "value": 1.0,
                  "key": "_MONSTER_SKIRMISHER_GLOVES_WIND_WEAKBUDDYSUM",
                  "useLimitRange": true,
                  "maxValue": 10.0,
                  "minValue": 0.0
                }
              ]
            },
            {
              "$type": "Predicated",
              "targetPredicates": [
                {
                  "$type": "ByTargetGlobalValue",
                  "key": "_MONSTER_SKIRMISHER_GLOVES_WIND_WEAKBUDDYSUM",
                  "value": 0.0,
                  "compareType": "MoreThan"
                }
              ],
              "successActions": [
                {
                  "$type": "IDNGFEEBPAM",
                  "boolID": "HaveWeakAlliance",
                  "value": true
                },
                {
                  "$type": "AddGlobalValue",
                  "value": -10.0,
                  "key": "_MONSTER_SKIRMISHER_GLOVES_WIND_WEAKBUDDYSUM",
                  "useLimitRange": true,
                  "maxValue": 10.0,
                  "minValue": 0.0
                }
              ],
              "failActions": [
                {
                  "$type": "IDNGFEEBPAM",
                  "boolID": "HaveWeakAlliance"
                }
              ]
            }
          ]
        }
      },
      "onAdded": [
        {
          "$type": "AddGlobalValue",
          "value": -2.0,
          "key": "_MONSTER_SKIRMISHER_GLOVES_HASALLIANCE",
          "useLimitRange": true,
          "maxValue": 1.0,
          "minValue": 0.0
        }
      ]
    }
  },
  {
    "Default": {
      "$type": "ConfigAbility",
      "abilityName": "Monster_Skirmisher_Strong_Gloves_Wind_DistanceToTarget",
      "abilityMixins": [
        {
          "$type": "AttachToStateIDMixin",
          "stateIDs": ["RunToBuddy"],
          "modifierName": "Skirmisher_Gloves_IsReach",
          "DGFCLAIDIFI": ""
        }
      ],
      "modifiers": {
        "Monster_Skirmisher_Gloves_Wind_RushToAllianceOverTimeTrigger": {
          "modifierName": "",
          "duration": 5.0,
          "elementDurability": 100.0,
          "onRemoved": [
            {
              "$type": "SetAnimatorTrigger",
              "triggerID": "ReachTarget"
            }
          ]
        },
        "Skirmisher_Gloves_IsReach": {
          "modifierName": "",
          "elementDurability": 100.0,
          "thinkInterval": 0.10000000149011612,
          "onAdded": [
            {
              "$type": "ApplyModifier",
              "modifierName": "Monster_Skirmisher_Gloves_Wind_RushToAllianceOverTimeTrigger"
            }
          ],
          "onThinkInterval": [
            {
              "$type": "SetSelfAttackTarget",
              "otherTargets": {
                "$type": "SelectTargetsByShape",
                "topLimit": 10,
                "shapeName": "CircleR50",
                "campTargetType": "Alliance",
                "doOffStage": 1.0
              },
              "predicates": [
                {
                  "$type": "ByTargetGlobalValue",
                  "key": "_MONSTER_SKIRMISHER_WEAK_",
                  "value": 1.0
                }
              ]
            },
            {
              "$type": "Predicated",
              "target": "SelfAttackTarget",
              "targetPredicates": [
                {
                  "$type": "ByTargetPositionToSelfPosition",
                  "logic": "LesserOrEqual",
                  "compareType": "XYZ",
                  "value": 8.0,
                  "DDALGNLEHOD": ""
                }
              ],
              "successActions": [
                {
                  "$type": "SetAnimatorTrigger",
                  "triggerID": "ReachTarget"
                }
              ]
            }
          ]
        }
      }
    }
  },
  {
    "Default": {
      "$type": "ConfigAbility",
      "abilityName": "Monster_Skirmisher_Strong_Gloves_Wind_Steer",
      "abilityMixins": [
        {
          "$type": "IILHMBGONGM",
          "steerStateIDs": ["Turn"],
          "angularSpeed": 200.0,
          "attackTrigger": "",
          "attackDistance": 2.0,
          "DGFCLAIDIFI": ""
        },
        {
          "$type": "IILHMBGONGM",
          "steerStateIDs": ["RunToBuddy"],
          "endNormalizedTime": 999999.0,
          "angularSpeed": 360.0,
          "attackTrigger": "",
          "attackDistance": 2.0,
          "facingTargetTypes": ["BuddyTarget", "AttackTarget"],
          "DGFCLAIDIFI": ""
        },
        {
          "$type": "IILHMBGONGM",
          "steerStateIDs": ["BlockRushToAlliancePrepare"],
          "endNormalizedTime": 99999.0,
          "angularSpeed": 360.0,
          "attackTrigger": "",
          "attackDistance": 2.0,
          "facingTargetTypes": ["BuddyTarget", "AttackTarget"],
          "DGFCLAIDIFI": ""
        },
        {
          "$type": "BEJLNHKNIKK",
          "steerStateIDs": ["BlockRushToAlliance"],
          "endNormalizedTime": 0.49000000953674316,
          "angularSpeed": 720.0,
          "attackTrigger": "",
          "attackDistance": 2.0,
          "DGFCLAIDIFI": ""
        },
        {
          "$type": "IILHMBGONGM",
          "steerStateIDs": ["Punch_BS"],
          "endNormalizedTime": 0.8999999761581421,
          "angularSpeed": 200.0,
          "attackTrigger": "",
          "attackDistance": 2.0,
          "DGFCLAIDIFI": ""
        },
        {
          "$type": "IILHMBGONGM",
          "steerStateIDs": ["PunchPower"],
          "endNormalizedTime": 0.20000000298023224,
          "angularSpeed": 720.0,
          "attackTrigger": "",
          "attackDistance": 2.0,
          "DGFCLAIDIFI": ""
        },
        {
          "$type": "IILHMBGONGM",
          "steerStateIDs": ["DefendSheild_BS"],
          "endNormalizedTime": 0.10000000149011612,
          "angularSpeed": 720.0,
          "attackTrigger": "",
          "attackDistance": 2.0,
          "DGFCLAIDIFI": ""
        },
        {
          "$type": "IILHMBGONGM",
          "steerStateIDs": ["SecondWind"],
          "endNormalizedTime": 0.1899999976158142,
          "angularSpeed": 200.0,
          "attackTrigger": "",
          "attackDistance": 2.0,
          "DGFCLAIDIFI": ""
        }
      ]
    }
  },
  {
    "Default": {
      "$type": "ConfigAbility",
      "abilityName": "Monster_Skirmisher_Strong_Gloves_Wind_Punch_Drag",
      "abilityMixins": [
        {
          "$type": "AttachToNormalizedTimeMixin",
          "stateID": "WindPunch",
          "modifierName": "PowerPunch_WindZone",
          "normalizeStart": 0.2199999988079071,
          "normalizeEnd": 0.3799999952316284,
          "DGFCLAIDIFI": ""
        },
        {
          "$type": "AttachToNormalizedTimeMixin",
          "stateID": "Block_Punch",
          "modifierName": "BlockPunch_WindZone",
          "normalizeStart": 0.2199999988079071,
          "normalizeEnd": 0.4399999976158142,
          "DGFCLAIDIFI": ""
        }
      ],
      "modifiers": {
        "PowerPunch_WindZone": {
          "modifierName": "",
          "elementDurability": 100.0,
          "modifierMixins": [
            {
              "$type": "WindZoneMixin",
              "shapeName": "SectorR15D90",
              "born": {
                "$type": "ConfigBornBySelf",
                "offset": {
                  "x": 0.0,
                  "y": 0.0,
                  "z": 1.0
                }
              },
              "strength": 10.0,
              "IAELBHDMINN": 1.0,
              "MMBCLAEOEFB": 1.0,
              "targetType": "Enemy",
              "modifierName": ""
            }
          ]
        },
        "BlockPunch_WindZone": {
          "modifierName": "",
          "elementDurability": 100.0,
          "modifierMixins": [
            {
              "$type": "WindZoneMixin",
              "shapeName": "CircleR10",
              "born": {
                "$type": "ConfigBornBySelf",
                "offset": {
                  "x": 0.0,
                  "y": 0.0,
                  "z": 2.0
                }
              },
              "strength": 10.0,
              "IAELBHDMINN": 1.0,
              "MMBCLAEOEFB": 1.0,
              "targetType": "Enemy",
              "modifierName": ""
            }
          ]
        }
      }
    }
  },
  {
    "Default": {
      "$type": "ConfigAbility",
      "abilityName": "Monster_Skirmisher_Male_Strong_Gloves_Wind_FixedRush",
      "onAbilityStart": [
        {
          "$type": "PAGFCBCKEBH",
          "target": "SelfAttackTarget",
          "toPos": {
            "$type": "ConfigBornByTargetLinearPoint",
            "linearOffset": -2.0,
            "linearMin": 0.0,
            "linearMax": 50.0
          },
          "NKPCHMCNNOK": 0.15000000596046448,
          "maxRange": 17.0,
          "animatorStateIDs": ["RushBuddy"],
          "overrideMoveCollider": ""
        }
      ]
    }
  },
  {
    "Default": {
      "$type": "ConfigAbility",
      "abilityName": "Monster_Skirmisher_Strong_Gloves_Wind_BlockDuring",
      "abilityMixins": [
        {
          "$type": "AttachToStateIDMixin",
          "stateIDs": ["DefendSheild"],
          "modifierName": "Skirmisher_Strong_Gloves_Wind_BlockAction",
          "DGFCLAIDIFI": ""
        },
        {
          "$type": "AttachToStateIDMixin",
          "stateIDs": [
            "DefendSheild",
            "DefendShield_AS",
            "DefendShield_BS",
            "PunchPower"
          ],
          "modifierName": "Skirmisher_Strong_Gloves_Wind_ResistFrozen",
          "DGFCLAIDIFI": ""
        },
        {
          "$type": "AttachToStateIDMixin",
          "stateIDs": ["PunchPower"],
          "modifierName": "Skirmisher_Strong_Gloves_Wind_RemoveBlockEffect",
          "DGFCLAIDIFI": ""
        },
        {
          "$type": "AttachToStateIDMixin",
          "stateIDs": ["DefendSheild_BS", "BlockRushToAlliance"],
          "modifierName": "Skirmisher_Strong_Gloves_Wind_ResetDefendBool",
          "DGFCLAIDIFI": ""
        }
      ],
      "modifiers": {
        "Skirmisher_Strong_Gloves_Wind_ResistFrozen": {
          "modifierName": "",
          "elementDurability": 100.0,
          "onAdded": [
            {
              "$type": "AttachAbilityStateResistance",
              "resistanceListID": 13001
            },
            {
              "$type": "AttachAbilityStateResistance",
              "resistanceListID": 14006
            }
          ]
        },
        "Monster_Skirmisher_Strong_Gloves_Wind_BlockEffectDelay": {
          "modifierName": "",
          "duration": 0.05999999865889549,
          "elementDurability": 100.0,
          "onRemoved": [
            {
              "$type": "ApplyModifier",
              "modifierName": "Monster_Skirmisher_Strong_Gloves_Wind_BlockEffect"
            }
          ]
        },
        "Monster_Skirmisher_Strong_Gloves_Wind_BlockEffect": {
          "modifierName": "",
          "elementDurability": 100.0,
          "onAdded": [
            {
              "$type": "AttachEffect",
              "rotationDampTime": "Eff_Monster_Skirmisher_Male_Strong_Gloves_Wind_BlockSheildWindLoop",
              "PPPDJGDDOGD": 1.0,
              "AJDILHJFNKE": -1.0
            }
          ]
        },
        "Skirmisher_Strong_Gloves_Wind_BlockTimer": {
          "modifierName": "",
          "duration": 5.0,
          "elementDurability": 500.0,
          "properties": {
            "Actor_EndureDelta": 0.0,
            "Entity_MassRatio": 10000.0
          },
          "onAdded": [
            {
              "$type": "AddGlobalValue",
              "value": -10.0,
              "key": "_MONSTER_SKIRMISHER_STRONG_GLOVES_WIND_PUNCH_ELEMENT",
              "useLimitRange": true,
              "maxValue": 8.0,
              "minValue": 0.0
            },
            {
              "$type": "EnablePushColliderName",
              "pushColliderNames": ["PushCollider"]
            },
            {
              "$type": "EnablePushColliderName",
              "pushColliderNames": ["BlockPushCollider"],
              "setEnable": true
            },
            {
              "$type": "Predicated",
              "target": "SelfAttackTarget",
              "targetPredicates": [
                {
                  "$type": "ByEntityTypes",
                  "entityTypes": ["Avatar", "Partner", "Vehicle"]
                }
              ],
              "failActions": [
                {
                  "$type": "SetSelfAttackTarget",
                  "otherTargets": {
                    "$type": "SelectTargetsByShape",
                    "topLimit": 4,
                    "sortType": "Nearest",
                    "shapeName": "CircleR50",
                    "campTargetType": "Enemy",
                    "doOffStage": 1.0
                  },
                  "predicates": [
                    {
                      "$type": "ByEntityTypes",
                      "entityTypes": ["Avatar", "Partner", "Vehicle"]
                    }
                  ],
                  "turnToTargetKeepUpAxisDirection": true
                }
              ]
            },
            {
              "$type": "TurnDirection",
              "turnMode": "OnlyTarget"
            },
            {
              "$type": "ApplyModifier",
              "modifierName": "Monster_Skirmisher_Strong_Gloves_Wind_BlockEffectDelay"
            },
            {
              "$type": "ApplyModifier",
              "modifierName": "Skirmisher_Gloves_Wind_AngleDefend"
            },
            {
              "$type": "SetAnimatorBool",
              "boolID": "BlockState",
              "value": true
            }
          ],
          "onRemoved": [
            {
              "$type": "RemoveModifier",
              "modifierName": "Skirmisher_Gloves_Wind_AngleDefend"
            },
            {
              "$type": "RemoveModifier",
              "modifierName": "Monster_Skirmisher_Strong_Gloves_Wind_BlockEffect"
            },
            {
              "$type": "EnablePushColliderName",
              "pushColliderNames": ["PushCollider"],
              "setEnable": true
            },
            {
              "$type": "EnablePushColliderName",
              "pushColliderNames": ["BlockPushCollider"]
            },
            {
              "$type": "SetAnimatorBool",
              "boolID": "BlockState"
            },
            {
              "$type": "IDNGFEEBPAM",
              "boolID": "GoBlock"
            },
            {
              "$type": "FireEffect",
              "predicates": [
                {
                  "$type": "ByTargetGlobalValue",
                  "key": "_MONSTER_SKIRMISHER_STRONG_GLOVES_WIND_PUNCH_ELEMENT",
                  "value": 0.0
                }
              ],
              "rotationDampTime": "Eff_Monster_Skirmisher_Male_Strong_Gloves_Wind_BlockSheildWindAS",
              "born": {
                "$type": "ConfigBornBySelf"
              },
              "PPPDJGDDOGD": 1.0,
              "AJDILHJFNKE": -1.0
            },
            {
              "$type": "FireEffect",
              "predicates": [
                {
                  "$type": "ByTargetGlobalValue",
                  "key": "_MONSTER_SKIRMISHER_STRONG_GLOVES_WIND_PUNCH_ELEMENT",
                  "value": 1.0
                }
              ],
              "rotationDampTime": "Eff_Monster_Skirmisher_Male_Strong_Gloves_Wind_BlockSheildFireAS",
              "born": {
                "$type": "ConfigBornBySelf"
              },
              "PPPDJGDDOGD": 1.0,
              "AJDILHJFNKE": -1.0
            },
            {
              "$type": "FireEffect",
              "predicates": [
                {
                  "$type": "ByTargetGlobalValue",
                  "key": "_MONSTER_SKIRMISHER_STRONG_GLOVES_WIND_PUNCH_ELEMENT",
                  "value": 2.0
                }
              ],
              "rotationDampTime": "Eff_Monster_Skirmisher_Male_Strong_Gloves_Wind_BlockSheildWaterAS",
              "born": {
                "$type": "ConfigBornBySelf"
              },
              "PPPDJGDDOGD": 1.0,
              "AJDILHJFNKE": -1.0
            },
            {
              "$type": "FireEffect",
              "predicates": [
                {
                  "$type": "ByTargetGlobalValue",
                  "key": "_MONSTER_SKIRMISHER_STRONG_GLOVES_WIND_PUNCH_ELEMENT",
                  "value": 4.0
                }
              ],
              "rotationDampTime": "Eff_Monster_Skirmisher_Male_Strong_Gloves_Wind_BlockSheildElectricAS",
              "born": {
                "$type": "ConfigBornBySelf"
              },
              "PPPDJGDDOGD": 1.0,
              "AJDILHJFNKE": -1.0
            },
            {
              "$type": "FireEffect",
              "predicates": [
                {
                  "$type": "ByTargetGlobalValue",
                  "key": "_MONSTER_SKIRMISHER_STRONG_GLOVES_WIND_PUNCH_ELEMENT",
                  "value": 5.0
                }
              ],
              "rotationDampTime": "Eff_Monster_Skirmisher_Male_Strong_Gloves_Wind_BlockSheildIceAS",
              "born": {
                "$type": "ConfigBornBySelf"
              },
              "PPPDJGDDOGD": 1.0,
              "AJDILHJFNKE": -1.0
            },
            {
              "$type": "FireEffect",
              "predicates": [
                {
                  "$type": "ByTargetGlobalValue",
                  "key": "_MONSTER_SKIRMISHER_STRONG_GLOVES_WIND_PUNCH_ELEMENT",
                  "value": 7.0
                }
              ],
              "rotationDampTime": "Eff_Monster_Skirmisher_Male_Strong_Gloves_Wind_BlockSheildWindAS",
              "born": {
                "$type": "ConfigBornBySelf"
              },
              "PPPDJGDDOGD": 1.0,
              "AJDILHJFNKE": -1.0
            }
          ],
          "onBeingHit": [
            {
              "$type": "ApplyModifier",
              "predicates": [
                {
                  "$type": "ByHitElement",
                  "element": "Fire"
                }
              ],
              "modifierName": "Punch_Attack_Fire"
            },
            {
              "$type": "ApplyModifier",
              "predicates": [
                {
                  "$type": "ByHitElement",
                  "element": "Water"
                }
              ],
              "modifierName": "Punch_Attack_Water"
            },
            {
              "$type": "ApplyModifier",
              "predicates": [
                {
                  "$type": "ByHitElement",
                  "element": "Electric"
                }
              ],
              "modifierName": "Punch_Attack_Electric"
            },
            {
              "$type": "ApplyModifier",
              "predicates": [
                {
                  "$type": "ByHitElement",
                  "element": "Ice"
                }
              ],
              "modifierName": "Punch_Attack_Ice"
            },
            {
              "$type": "ApplyModifier",
              "predicates": [
                {
                  "$type": "ByHitElement",
                  "element": "Wind"
                }
              ],
              "modifierName": "Punch_Attack_Wind"
            },
            {
              "$type": "SetAnimatorTrigger",
              "predicates": [
                {
                  "$type": "ByNot",
                  "predicates": [
                    {
                      "$type": "ByHitElement",
                      "element": "Grass"
                    }
                  ]
                },
                {
                  "$type": "ByNot",
                  "predicates": [
                    {
                      "$type": "ByHitElement",
                      "element": "Rock"
                    }
                  ]
                },
                {
                  "$type": "ByNot",
                  "predicates": [
                    {
                      "$type": "ByHitElement"
                    }
                  ]
                }
              ],
              "triggerID": "BeAttacked"
            },
            {
              "$type": "RemoveModifier",
              "predicates": [
                {
                  "$type": "ByNot",
                  "predicates": [
                    {
                      "$type": "ByHitElement",
                      "element": "Grass"
                    }
                  ]
                },
                {
                  "$type": "ByNot",
                  "predicates": [
                    {
                      "$type": "ByHitElement",
                      "element": "Rock"
                    }
                  ]
                },
                {
                  "$type": "ByNot",
                  "predicates": [
                    {
                      "$type": "ByHitElement"
                    }
                  ]
                }
              ],
              "modifierName": "Skirmisher_Strong_Gloves_Wind_BlockTimer"
            }
          ],
          "onKill": [
            {
              "$type": "RemoveModifier",
              "modifierName": "Skirmisher_Strong_Gloves_Wind_BlockTimer"
            }
          ]
        },
        "Skirmisher_Gloves_Wind_AngleDefend": {
          "modifierName": "",
          "elementDurability": 100.0,
          "modifierMixins": [
            {
              "$type": "AAPIOACHKCI",
              "showDamageText": "ATTACK_DAMAGE_IMMUNE",
              "DLBHHADKGJN": 90.0,
              "maxShieldByHPRatio": 1.0,
              "shieldAngle": 0.20000000298023224,
              "useMutiPlayerFixData": true
            }
          ]
        },
        "Skirmisher_Strong_Gloves_Wind_BlockAction": {
          "modifierName": "",
          "elementDurability": 100.0,
          "onAdded": [
            {
              "$type": "ApplyModifier",
              "canBeHandledOnRecover": true,
              "modifierName": "Skirmisher_Strong_Gloves_Wind_BlockTimer"
            },
            {
              "$type": "IDNGFEEBPAM",
              "boolID": "GoBlock",
              "value": true
            }
          ]
        },
        "Punch_Attack_None": {
          "modifierName": "",
          "duration": 2.5999999046325684,
          "elementDurability": 100.0,
          "onAdded": [
            {
              "$type": "AddGlobalValue",
              "value": 0.0,
              "key": "_MONSTER_SKIRMISHER_STRONG_GLOVES_WIND_PUNCH_ELEMENT",
              "useLimitRange": true,
              "maxValue": 8.0,
              "minValue": 0.0
            }
          ]
        },
        "Punch_Attack_Fire": {
          "modifierName": "",
          "duration": 2.5999999046325684,
          "elementDurability": 100.0,
          "onAdded": [
            {
              "$type": "ActCameraShake",
              "cameraShake": {
                "shakeRange": 3.0,
                "shakeTime": 0.10000000149011612,
                "shakeDistance": 25.0
              },
              "born": {
                "$type": "ConfigBornBySelf"
              }
            },
            {
              "$type": "AddGlobalValue",
              "value": 1.0,
              "key": "_MONSTER_SKIRMISHER_STRONG_GLOVES_WIND_PUNCH_ELEMENT",
              "useLimitRange": true,
              "maxValue": 8.0,
              "minValue": 0.0
            },
            {
              "$type": "SetGlobalValue",
              "value": 1.0,
              "key": "_WATCHER_82084_01_",
              "maxValue": 0.0,
              "minValue": 0.0
            }
          ]
        },
        "Punch_Attack_Water": {
          "modifierName": "",
          "duration": 2.5999999046325684,
          "elementDurability": 100.0,
          "onAdded": [
            {
              "$type": "AddGlobalValue",
              "value": 2.0,
              "key": "_MONSTER_SKIRMISHER_STRONG_GLOVES_WIND_PUNCH_ELEMENT",
              "useLimitRange": true,
              "maxValue": 8.0,
              "minValue": 0.0
            },
            {
              "$type": "SetGlobalValue",
              "value": 1.0,
              "key": "_WATCHER_82084_02_",
              "maxValue": 0.0,
              "minValue": 0.0
            }
          ]
        },
        "Punch_Attack_Grass": {
          "modifierName": "",
          "duration": 1.0,
          "elementDurability": 100.0,
          "onAdded": [
            {
              "$type": "AddGlobalValue",
              "value": 3.0,
              "key": "_MONSTER_SKIRMISHER_STRONG_GLOVES_WIND_PUNCH_ELEMENT",
              "useLimitRange": true,
              "maxValue": 8.0,
              "minValue": 0.0
            }
          ]
        },
        "Punch_Attack_Electric": {
          "modifierName": "",
          "duration": 2.5999999046325684,
          "elementDurability": 100.0,
          "onAdded": [
            {
              "$type": "AddGlobalValue",
              "value": 4.0,
              "key": "_MONSTER_SKIRMISHER_STRONG_GLOVES_WIND_PUNCH_ELEMENT",
              "useLimitRange": true,
              "maxValue": 8.0,
              "minValue": 0.0
            },
            {
              "$type": "SetGlobalValue",
              "value": 1.0,
              "key": "_WATCHER_82084_03_",
              "maxValue": 0.0,
              "minValue": 0.0
            }
          ]
        },
        "Punch_Attack_Ice": {
          "modifierName": "",
          "duration": 2.5999999046325684,
          "elementDurability": 100.0,
          "onAdded": [
            {
              "$type": "AddGlobalValue",
              "value": 5.0,
              "key": "_MONSTER_SKIRMISHER_STRONG_GLOVES_WIND_PUNCH_ELEMENT",
              "useLimitRange": true,
              "maxValue": 8.0,
              "minValue": 0.0
            },
            {
              "$type": "SetGlobalValue",
              "value": 1.0,
              "key": "_WATCHER_82084_04_",
              "maxValue": 0.0,
              "minValue": 0.0
            }
          ]
        },
        "Punch_Attack_Wind": {
          "modifierName": "",
          "duration": 2.5999999046325684,
          "elementDurability": 100.0,
          "onAdded": [
            {
              "$type": "AddGlobalValue",
              "value": 7.0,
              "key": "_MONSTER_SKIRMISHER_STRONG_GLOVES_WIND_PUNCH_ELEMENT",
              "useLimitRange": true,
              "maxValue": 8.0,
              "minValue": 0.0
            },
            {
              "$type": "SetGlobalValue",
              "value": 1.0,
              "key": "_WATCHER_82084_05_",
              "maxValue": 0.0,
              "minValue": 0.0
            }
          ]
        },
        "Punch_Attack_Rock": {
          "modifierName": "",
          "duration": 2.5999999046325684,
          "elementDurability": 100.0,
          "onAdded": [
            {
              "$type": "AddGlobalValue",
              "value": 8.0,
              "key": "_MONSTER_SKIRMISHER_STRONG_GLOVES_WIND_PUNCH_ELEMENT",
              "useLimitRange": true,
              "maxValue": 8.0,
              "minValue": 0.0
            }
          ]
        },
        "Skirmisher_Strong_Gloves_Wind_RemoveBlockEffect": {
          "modifierName": "",
          "elementDurability": 100.0,
          "thinkInterval": 0.5,
          "onThinkInterval": [
            {
              "$type": "RemoveModifier",
              "modifierName": "Monster_Skirmisher_Strong_Gloves_Wind_BlockEffect"
            }
          ]
        },
        "Skirmisher_Strong_Gloves_Wind_ResetDefendBool": {
          "modifierName": "",
          "elementDurability": 100.0,
          "onAdded": [
            {
              "$type": "SetAnimatorBool",
              "boolID": "BlockState",
              "value": true
            }
          ]
        }
      }
    }
  },
  {
    "Default": {
      "$type": "ConfigAbility",
      "abilityName": "Monster_Skirmisher_Male_Strong_Glove_Wind_BlockAttackBS",
      "onAbilityStart": [
        {
          "$type": "FireEffect",
          "predicates": [
            {
              "$type": "ByTargetGlobalValue",
              "target": "Self",
              "key": "_MONSTER_SKIRMISHER_STRONG_GLOVES_WIND_PUNCH_ELEMENT",
              "value": 7.0
            }
          ],
          "rotationDampTime": "Eff_Monster_Skirmisher_Male_Strong_Gloves_Wind_BlockAttackWeaponWind",
          "PPPDJGDDOGD": 1.0,
          "AJDILHJFNKE": -1.0
        },
        {
          "$type": "FireEffect",
          "predicates": [
            {
              "$type": "ByTargetGlobalValue",
              "target": "Self",
              "key": "_MONSTER_SKIRMISHER_STRONG_GLOVES_WIND_PUNCH_ELEMENT",
              "value": 7.0
            }
          ],
          "rotationDampTime": "Eff_Monster_Skirmisher_Male_Strong_Gloves_Wind_BlockAttackWindBS",
          "born": {
            "$type": "ConfigBornBySelf"
          },
          "PPPDJGDDOGD": 1.0,
          "AJDILHJFNKE": -1.0
        },
        {
          "$type": "FireEffect",
          "predicates": [
            {
              "$type": "ByTargetGlobalValue",
              "target": "Self",
              "key": "_MONSTER_SKIRMISHER_STRONG_GLOVES_WIND_PUNCH_ELEMENT",
              "value": 1.0
            }
          ],
          "rotationDampTime": "Eff_Monster_Skirmisher_Male_Strong_Gloves_Wind_BlockAttackFireBS",
          "born": {
            "$type": "ConfigBornBySelf"
          },
          "PPPDJGDDOGD": 1.0,
          "AJDILHJFNKE": -1.0
        },
        {
          "$type": "FireEffect",
          "predicates": [
            {
              "$type": "ByTargetGlobalValue",
              "target": "Self",
              "key": "_MONSTER_SKIRMISHER_STRONG_GLOVES_WIND_PUNCH_ELEMENT",
              "value": 2.0
            }
          ],
          "rotationDampTime": "Eff_Monster_Skirmisher_Male_Strong_Gloves_Wind_BlockAttackWaterWind",
          "PPPDJGDDOGD": 1.0,
          "AJDILHJFNKE": -1.0
        },
        {
          "$type": "FireEffect",
          "predicates": [
            {
              "$type": "ByTargetGlobalValue",
              "target": "Self",
              "key": "_MONSTER_SKIRMISHER_STRONG_GLOVES_WIND_PUNCH_ELEMENT",
              "value": 2.0
            }
          ],
          "rotationDampTime": "Eff_Monster_Skirmisher_Male_Strong_Gloves_Wind_BlockAttackWaterBS",
          "born": {
            "$type": "ConfigBornBySelf"
          },
          "PPPDJGDDOGD": 1.0,
          "AJDILHJFNKE": -1.0
        },
        {
          "$type": "FireEffect",
          "predicates": [
            {
              "$type": "ByTargetGlobalValue",
              "target": "Self",
              "key": "_MONSTER_SKIRMISHER_STRONG_GLOVES_WIND_PUNCH_ELEMENT",
              "value": 4.0
            }
          ],
          "rotationDampTime": "Eff_Monster_Skirmisher_Male_Strong_Gloves_Wind_BlockAttackElectricBS",
          "born": {
            "$type": "ConfigBornBySelf"
          },
          "PPPDJGDDOGD": 1.0,
          "AJDILHJFNKE": -1.0
        },
        {
          "$type": "FireEffect",
          "predicates": [
            {
              "$type": "ByTargetGlobalValue",
              "target": "Self",
              "key": "_MONSTER_SKIRMISHER_STRONG_GLOVES_WIND_PUNCH_ELEMENT",
              "value": 5.0
            }
          ],
          "rotationDampTime": "Eff_Monster_Skirmisher_Male_Strong_Gloves_Wind_BlockAttackIceBS",
          "born": {
            "$type": "ConfigBornBySelf"
          },
          "PPPDJGDDOGD": 1.0,
          "AJDILHJFNKE": -1.0
        },
        {
          "$type": "FireEffect",
          "predicates": [
            {
              "$type": "ByTargetGlobalValue",
              "target": "Self",
              "key": "_MONSTER_SKIRMISHER_STRONG_GLOVES_WIND_PUNCH_ELEMENT",
              "value": 8.0
            }
          ],
          "rotationDampTime": "Eff_Monster_Skirmisher_Male_Strong_Gloves_Wind_BlockAttackRockBS",
          "born": {
            "$type": "ConfigBornBySelf"
          },
          "PPPDJGDDOGD": 1.0,
          "AJDILHJFNKE": -1.0
        }
      ]
    }
  },
  {
    "Default": {
      "$type": "ConfigAbility",
      "abilityName": "Monster_Skirmisher_Male_Strong_Glove_Wind_BlockAttackEffect",
      "onAbilityStart": [
        {
          "$type": "FireEffect",
          "predicates": [
            {
              "$type": "ByTargetGlobalValue",
              "target": "Self",
              "key": "_MONSTER_SKIRMISHER_STRONG_GLOVES_WIND_PUNCH_ELEMENT",
              "value": 7.0
            }
          ],
          "rotationDampTime": "Eff_Monster_Skirmisher_Male_Strong_Gloves_Wind_BlockAttackWindAS",
          "born": {
            "$type": "ConfigBornBySelf"
          },
          "PPPDJGDDOGD": 1.0,
          "AJDILHJFNKE": -1.0
        },
        {
          "$type": "FireEffect",
          "predicates": [
            {
              "$type": "ByTargetGlobalValue",
              "target": "Self",
              "key": "_MONSTER_SKIRMISHER_STRONG_GLOVES_WIND_PUNCH_ELEMENT",
              "value": 1.0
            }
          ],
          "rotationDampTime": "Eff_Monster_Skirmisher_Male_Strong_Gloves_Wind_BlockAttackFireAS",
          "born": {
            "$type": "ConfigBornBySelf"
          },
          "PPPDJGDDOGD": 1.0,
          "AJDILHJFNKE": -1.0
        },
        {
          "$type": "FireEffect",
          "predicates": [
            {
              "$type": "ByTargetGlobalValue",
              "target": "Self",
              "key": "_MONSTER_SKIRMISHER_STRONG_GLOVES_WIND_PUNCH_ELEMENT",
              "value": 2.0
            }
          ],
          "rotationDampTime": "Eff_Monster_Skirmisher_Male_Strong_Gloves_Wind_BlockAttackWaterAS",
          "born": {
            "$type": "ConfigBornBySelf"
          },
          "PPPDJGDDOGD": 1.0,
          "AJDILHJFNKE": -1.0
        },
        {
          "$type": "FireEffect",
          "predicates": [
            {
              "$type": "ByTargetGlobalValue",
              "target": "Self",
              "key": "_MONSTER_SKIRMISHER_STRONG_GLOVES_WIND_PUNCH_ELEMENT",
              "value": 4.0
            }
          ],
          "rotationDampTime": "Eff_Monster_Skirmisher_Male_Strong_Gloves_Wind_BlockAttackElectricAS",
          "born": {
            "$type": "ConfigBornBySelf"
          },
          "PPPDJGDDOGD": 1.0,
          "AJDILHJFNKE": -1.0
        },
        {
          "$type": "FireEffect",
          "predicates": [
            {
              "$type": "ByTargetGlobalValue",
              "target": "Self",
              "key": "_MONSTER_SKIRMISHER_STRONG_GLOVES_WIND_PUNCH_ELEMENT",
              "value": 5.0
            }
          ],
          "rotationDampTime": "Eff_Monster_Skirmisher_Male_Strong_Gloves_Wind_BlockAttackIceAS",
          "born": {
            "$type": "ConfigBornBySelf"
          },
          "PPPDJGDDOGD": 1.0,
          "AJDILHJFNKE": -1.0
        },
        {
          "$type": "FireEffect",
          "predicates": [
            {
              "$type": "ByTargetGlobalValue",
              "target": "Self",
              "key": "_MONSTER_SKIRMISHER_STRONG_GLOVES_WIND_PUNCH_ELEMENT",
              "value": 8.0
            }
          ],
          "rotationDampTime": "Eff_Monster_Skirmisher_Male_Strong_Gloves_Wind_BlockAttackRockAS",
          "born": {
            "$type": "ConfigBornBySelf"
          },
          "PPPDJGDDOGD": 1.0,
          "AJDILHJFNKE": -1.0
        }
      ]
    }
  },
  {
    "Default": {
      "$type": "ConfigAbility",
      "abilityName": "Monster_Skirmisher_Male_Strong_Glove_Wind_PowerPunchDamage",
      "modifiers": {
        "Target_Element_Tag_Fire": {
          "modifierName": "",
          "duration": 8.0,
          "elementType": "Fire",
          "elementDurability": 50.0,
          "onAdded": [
            {
              "$type": "AddGlobalValue",
              "value": 1.0,
              "key": "_SKIRMISHER_ELEMENT_FIRE_",
              "useLimitRange": true,
              "maxValue": 1.0,
              "minValue": 0.0
            }
          ],
          "onRemoved": [
            {
              "$type": "AddGlobalValue",
              "target": "Target",
              "value": -5.0,
              "key": "_SKIRMISHER_ELEMENT_FIRE_",
              "useLimitRange": true,
              "maxValue": 1.0,
              "minValue": 0.0
            }
          ]
        },
        "Target_Element_Tag_Water": {
          "modifierName": "",
          "duration": 8.0,
          "elementType": "Water",
          "elementDurability": 50.0,
          "onAdded": [
            {
              "$type": "AddGlobalValue",
              "value": 1.0,
              "key": "_SKIRMISHER_ELEMENT_WATER_",
              "useLimitRange": true,
              "maxValue": 1.0,
              "minValue": 0.0
            }
          ],
          "onRemoved": [
            {
              "$type": "AddGlobalValue",
              "target": "Target",
              "value": -5.0,
              "key": "_SKIRMISHER_ELEMENT_WATER_",
              "useLimitRange": true,
              "maxValue": 1.0,
              "minValue": 0.0
            }
          ]
        },
        "Target_Element_Tag_Electric": {
          "modifierName": "",
          "duration": 8.0,
          "elementType": "Electric",
          "elementDurability": 50.0,
          "onAdded": [
            {
              "$type": "AddGlobalValue",
              "value": 1.0,
              "key": "_SKIRMISHER_ELEMENT_ELECTRIC_",
              "useLimitRange": true,
              "maxValue": 1.0,
              "minValue": 0.0
            }
          ],
          "onRemoved": [
            {
              "$type": "AddGlobalValue",
              "target": "Target",
              "value": -5.0,
              "key": "_SKIRMISHER_ELEMENT_ELECTRIC_",
              "useLimitRange": true,
              "maxValue": 1.0,
              "minValue": 0.0
            }
          ]
        },
        "Target_Element_Tag_Ice": {
          "modifierName": "",
          "duration": 8.0,
          "elementType": "Ice",
          "elementDurability": 50.0,
          "onAdded": [
            {
              "$type": "AddGlobalValue",
              "value": 1.0,
              "key": "_SKIRMISHER_ELEMENT_ICE_",
              "useLimitRange": true,
              "maxValue": 1.0,
              "minValue": 0.0
            }
          ],
          "onRemoved": [
            {
              "$type": "AddGlobalValue",
              "target": "Target",
              "value": -5.0,
              "key": "_SKIRMISHER_ELEMENT_ICE_",
              "useLimitRange": true,
              "maxValue": 1.0,
              "minValue": 0.0
            }
          ]
        },
        "Give_Target_Element_Tag": {
          "modifierName": "",
          "duration": 1.0,
          "elementDurability": 100.0,
          "onAttackLanded": [
            {
              "$type": "ApplyModifier",
              "target": "Target",
              "predicates": [
                {
                  "$type": "ByTargetGlobalValue",
                  "target": "Self",
                  "key": "_MONSTER_SKIRMISHER_STRONG_GLOVES_WIND_PUNCH_ELEMENT",
                  "value": 1.0
                }
              ],
              "modifierName": "Target_Element_Tag_Fire"
            },
            {
              "$type": "ApplyModifier",
              "target": "Target",
              "predicates": [
                {
                  "$type": "ByTargetGlobalValue",
                  "target": "Self",
                  "key": "_MONSTER_SKIRMISHER_STRONG_GLOVES_WIND_PUNCH_ELEMENT",
                  "value": 2.0
                }
              ],
              "modifierName": "Target_Element_Tag_Water"
            },
            {
              "$type": "ApplyModifier",
              "target": "Target",
              "predicates": [
                {
                  "$type": "ByTargetGlobalValue",
                  "target": "Self",
                  "key": "_MONSTER_SKIRMISHER_STRONG_GLOVES_WIND_PUNCH_ELEMENT",
                  "value": 4.0
                }
              ],
              "modifierName": "Target_Element_Tag_Electric"
            },
            {
              "$type": "ApplyModifier",
              "target": "Target",
              "predicates": [
                {
                  "$type": "ByTargetGlobalValue",
                  "target": "Self",
                  "key": "_MONSTER_SKIRMISHER_STRONG_GLOVES_WIND_PUNCH_ELEMENT",
                  "value": 5.0
                }
              ],
              "modifierName": "Target_Element_Tag_Ice"
            }
          ]
        }
      },
      "onAbilityStart": [
        {
          "$type": "AttachModifier",
          "modifierName": "Give_Target_Element_Tag"
        },
        {
          "$type": "TriggerAttackEvent",
          "predicates": [
            {
              "$type": "ByTargetGlobalValue",
              "target": "Self",
              "key": "_MONSTER_SKIRMISHER_STRONG_GLOVES_WIND_PUNCH_ELEMENT",
              "value": 0.0
            }
          ],
          "attackEvent": {
            "attackPattern": {
              "$type": "ConfigAttackBox",
              "triggerType": "TriggerNoRepeat",
              "ignoreMassive": true,
              "born": {
                "$type": "ConfigBornBySelf",
                "offset": {
                  "x": 0.0,
                  "y": 1.5,
                  "z": 1.0
                }
              },
              "size": {
                "x": 5.0,
                "y": 2.5,
                "z": 6.0
              }
            },
            "attackInfo": {
              "attackTag": "",
              "attenuationTag": "",
              "attenuationGroup": "default",
              "attackProperty": {
                "actorGrassSubHurtDelta": 1.0,
                "actorWindSubHurtDelta": 0.0,
                "elementType": "Wind",
                "elementDurability": 50.0,
                "strikeType": "Blunt",
                "enBreak": 100.0,
                "attackType": "Melee",
                "GLKMCMDJBIK": 0.0
              },
              "hitPattern": {
                "onHitEffectName": "default",
                "hitImpulseY": "",
                "hitImpulseType": "LV5",
                "retreatType": "ByHitDirection",
                "canBeDefenceHalt": true
              }
            }
          },
          "targetType": "Enemy"
        },
        {
          "$type": "TriggerAttackEvent",
          "predicates": [
            {
              "$type": "ByTargetGlobalValue",
              "target": "Self",
              "key": "_MONSTER_SKIRMISHER_STRONG_GLOVES_WIND_PUNCH_ELEMENT",
              "value": 1.0
            }
          ],
          "attackEvent": {
            "attackPattern": {
              "$type": "ConfigAttackBox",
              "triggerType": "TriggerNoRepeat",
              "ignoreMassive": true,
              "born": {
                "$type": "ConfigBornBySelf",
                "offset": {
                  "x": 0.0,
                  "y": 1.5,
                  "z": 1.0
                }
              },
              "size": {
                "x": 5.0,
                "y": 2.5,
                "z": 6.0
              }
            },
            "attackInfo": {
              "attackTag": "",
              "attenuationTag": "",
              "attenuationGroup": "default",
              "attackProperty": {
                "actorGrassSubHurtDelta": 1.0,
                "actorWindSubHurtDelta": 0.0,
                "elementType": "Fire",
                "elementDurability": 50.0,
                "strikeType": "Blunt",
                "enBreak": 100.0,
                "attackType": "Melee",
                "GLKMCMDJBIK": 0.0
              },
              "hitPattern": {
                "onHitEffectName": "default",
                "hitImpulseY": "",
                "hitImpulseType": "LV5",
                "retreatType": "ByHitDirection",
                "canBeDefenceHalt": true
              }
            }
          },
          "targetType": "Enemy"
        },
        {
          "$type": "TriggerAttackEvent",
          "predicates": [
            {
              "$type": "ByTargetGlobalValue",
              "key": "_MONSTER_SKIRMISHER_STRONG_GLOVES_WIND_PUNCH_ELEMENT",
              "value": 2.0
            }
          ],
          "attackEvent": {
            "attackPattern": {
              "$type": "ConfigAttackBox",
              "triggerType": "TriggerNoRepeat",
              "ignoreMassive": true,
              "born": {
                "$type": "ConfigBornBySelf",
                "offset": {
                  "x": 0.0,
                  "y": 1.5,
                  "z": 1.0
                }
              },
              "size": {
                "x": 5.0,
                "y": 2.5,
                "z": 6.0
              }
            },
            "attackInfo": {
              "attackTag": "",
              "attenuationTag": "",
              "attenuationGroup": "default",
              "attackProperty": {
                "actorGrassSubHurtDelta": 1.0,
                "actorWindSubHurtDelta": 0.0,
                "elementType": "Water",
                "elementDurability": 50.0,
                "strikeType": "Blunt",
                "enBreak": 100.0,
                "attackType": "Melee",
                "GLKMCMDJBIK": 0.0
              },
              "hitPattern": {
                "onHitEffectName": "default",
                "hitImpulseY": "",
                "hitImpulseType": "LV5",
                "retreatType": "ByHitDirection",
                "canBeDefenceHalt": true
              }
            }
          },
          "targetType": "Enemy"
        },
        {
          "$type": "TriggerAttackEvent",
          "predicates": [
            {
              "$type": "ByTargetGlobalValue",
              "key": "_MONSTER_SKIRMISHER_STRONG_GLOVES_WIND_PUNCH_ELEMENT",
              "value": 3.0
            }
          ],
          "attackEvent": {
            "attackPattern": {
              "$type": "ConfigAttackBox",
              "triggerType": "TriggerNoRepeat",
              "ignoreMassive": true,
              "born": {
                "$type": "ConfigBornBySelf",
                "offset": {
                  "x": 0.0,
                  "y": 1.5,
                  "z": 1.0
                }
              },
              "size": {
                "x": 5.0,
                "y": 2.5,
                "z": 6.0
              }
            },
            "attackInfo": {
              "attackTag": "",
              "attenuationTag": "",
              "attenuationGroup": "default",
              "attackProperty": {
                "actorGrassSubHurtDelta": 1.0,
                "actorWindSubHurtDelta": 0.0,
                "elementType": "Grass",
                "elementDurability": 50.0,
                "strikeType": "Blunt",
                "enBreak": 100.0,
                "attackType": "Melee",
                "GLKMCMDJBIK": 0.0
              },
              "hitPattern": {
                "onHitEffectName": "default",
                "hitImpulseY": "",
                "hitImpulseType": "LV5",
                "retreatType": "ByHitDirection",
                "canBeDefenceHalt": true
              }
            }
          },
          "targetType": "Enemy"
        },
        {
          "$type": "TriggerAttackEvent",
          "predicates": [
            {
              "$type": "ByTargetGlobalValue",
              "key": "_MONSTER_SKIRMISHER_STRONG_GLOVES_WIND_PUNCH_ELEMENT",
              "value": 4.0
            }
          ],
          "attackEvent": {
            "attackPattern": {
              "$type": "ConfigAttackBox",
              "triggerType": "TriggerNoRepeat",
              "ignoreMassive": true,
              "born": {
                "$type": "ConfigBornBySelf",
                "offset": {
                  "x": 0.0,
                  "y": 1.5,
                  "z": 1.0
                }
              },
              "size": {
                "x": 5.0,
                "y": 2.5,
                "z": 6.0
              }
            },
            "attackInfo": {
              "attackTag": "",
              "attenuationTag": "",
              "attenuationGroup": "default",
              "attackProperty": {
                "actorGrassSubHurtDelta": 1.0,
                "actorWindSubHurtDelta": 0.0,
                "elementType": "Electric",
                "elementDurability": 50.0,
                "strikeType": "Blunt",
                "enBreak": 100.0,
                "attackType": "Melee",
                "GLKMCMDJBIK": 0.0
              },
              "hitPattern": {
                "onHitEffectName": "default",
                "hitImpulseY": "",
                "hitImpulseType": "LV5",
                "retreatType": "ByHitDirection",
                "canBeDefenceHalt": true
              }
            }
          },
          "targetType": "Enemy"
        },
        {
          "$type": "TriggerAttackEvent",
          "predicates": [
            {
              "$type": "ByTargetGlobalValue",
              "key": "_MONSTER_SKIRMISHER_STRONG_GLOVES_WIND_PUNCH_ELEMENT",
              "value": 5.0
            }
          ],
          "attackEvent": {
            "attackPattern": {
              "$type": "ConfigAttackBox",
              "triggerType": "TriggerNoRepeat",
              "ignoreMassive": true,
              "born": {
                "$type": "ConfigBornBySelf",
                "offset": {
                  "x": 0.0,
                  "y": 1.5,
                  "z": 1.0
                }
              },
              "size": {
                "x": 5.0,
                "y": 2.5,
                "z": 6.0
              }
            },
            "attackInfo": {
              "attackTag": "",
              "attenuationTag": "",
              "attenuationGroup": "default",
              "attackProperty": {
                "actorGrassSubHurtDelta": 1.0,
                "actorWindSubHurtDelta": 0.0,
                "elementType": "Ice",
                "elementDurability": 50.0,
                "strikeType": "Blunt",
                "enBreak": 100.0,
                "attackType": "Melee",
                "GLKMCMDJBIK": 0.0
              },
              "hitPattern": {
                "onHitEffectName": "default",
                "hitImpulseY": "",
                "hitImpulseType": "LV5",
                "retreatType": "ByHitDirection",
                "canBeDefenceHalt": true
              }
            }
          },
          "targetType": "Enemy"
        },
        {
          "$type": "TriggerAttackEvent",
          "predicates": [
            {
              "$type": "ByTargetGlobalValue",
              "key": "_MONSTER_SKIRMISHER_STRONG_GLOVES_WIND_PUNCH_ELEMENT",
              "value": 6.0
            }
          ],
          "attackEvent": {
            "attackPattern": {
              "$type": "ConfigAttackBox",
              "triggerType": "TriggerNoRepeat",
              "ignoreMassive": true,
              "born": {
                "$type": "ConfigBornBySelf",
                "offset": {
                  "x": 0.0,
                  "y": 1.5,
                  "z": 1.0
                }
              },
              "size": {
                "x": 5.0,
                "y": 2.5,
                "z": 6.0
              }
            },
            "attackInfo": {
              "attackTag": "",
              "attenuationTag": "",
              "attenuationGroup": "default",
              "attackProperty": {
                "actorGrassSubHurtDelta": 1.0,
                "actorWindSubHurtDelta": 0.0,
                "elementType": "Frozen",
                "elementDurability": 50.0,
                "strikeType": "Blunt",
                "enBreak": 100.0,
                "attackType": "Melee",
                "GLKMCMDJBIK": 0.0
              },
              "hitPattern": {
                "onHitEffectName": "default",
                "hitImpulseY": "",
                "hitImpulseType": "LV5",
                "retreatType": "ByHitDirection",
                "canBeDefenceHalt": true
              }
            }
          },
          "targetType": "Enemy"
        },
        {
          "$type": "TriggerAttackEvent",
          "predicates": [
            {
              "$type": "ByTargetGlobalValue",
              "key": "_MONSTER_SKIRMISHER_STRONG_GLOVES_WIND_PUNCH_ELEMENT",
              "value": 7.0
            }
          ],
          "attackEvent": {
            "attackPattern": {
              "$type": "ConfigAttackBox",
              "triggerType": "TriggerNoRepeat",
              "ignoreMassive": true,
              "born": {
                "$type": "ConfigBornBySelf",
                "offset": {
                  "x": 0.0,
                  "y": 1.5,
                  "z": 1.0
                }
              },
              "size": {
                "x": 5.0,
                "y": 2.5,
                "z": 6.0
              }
            },
            "attackInfo": {
              "attackTag": "",
              "attenuationTag": "",
              "attenuationGroup": "default",
              "attackProperty": {
                "actorGrassSubHurtDelta": 1.0,
                "actorWindSubHurtDelta": 0.0,
                "elementType": "Wind",
                "elementDurability": 50.0,
                "strikeType": "Blunt",
                "enBreak": 100.0,
                "attackType": "Melee",
                "GLKMCMDJBIK": 0.0
              },
              "hitPattern": {
                "onHitEffectName": "default",
                "hitImpulseY": "",
                "hitImpulseType": "LV5",
                "retreatType": "ByHitDirection",
                "canBeDefenceHalt": true
              }
            }
          },
          "targetType": "Enemy"
        },
        {
          "$type": "TriggerAttackEvent",
          "predicates": [
            {
              "$type": "ByTargetGlobalValue",
              "key": "_MONSTER_SKIRMISHER_STRONG_GLOVES_WIND_PUNCH_ELEMENT",
              "value": 8.0
            }
          ],
          "attackEvent": {
            "attackPattern": {
              "$type": "ConfigAttackBox",
              "triggerType": "TriggerNoRepeat",
              "ignoreMassive": true,
              "born": {
                "$type": "ConfigBornBySelf",
                "offset": {
                  "x": 0.0,
                  "y": 1.5,
                  "z": 1.0
                }
              },
              "size": {
                "x": 5.0,
                "y": 2.5,
                "z": 6.0
              }
            },
            "attackInfo": {
              "attackTag": "",
              "attenuationTag": "",
              "attenuationGroup": "default",
              "attackProperty": {
                "actorGrassSubHurtDelta": 1.0,
                "actorWindSubHurtDelta": 0.0,
                "elementType": "Rock",
                "elementDurability": 50.0,
                "strikeType": "Blunt",
                "enBreak": 100.0,
                "attackType": "Melee",
                "GLKMCMDJBIK": 0.0
              },
              "hitPattern": {
                "onHitEffectName": "default",
                "hitImpulseY": "",
                "hitImpulseType": "LV5",
                "retreatType": "ByHitDirection",
                "canBeDefenceHalt": true
              }
            }
          },
          "targetType": "Enemy"
        }
      ]
    }
  },
  {
    "Default": {
      "$type": "ConfigAbility",
      "abilityName": "Monster_Skirmisher_Strong_Gloves_Wind_SecondWind",
      "onAbilityStart": [
        {
          "$type": "FireEffect",
          "otherTargets": {
            "$type": "SelectTargetsByShape",
            "topLimit": 10,
            "shapeName": "CircleR50",
            "campTargetType": "Alliance",
            "doOffStage": 1.0
          },
          "predicates": [
            {
              "$type": "ByTargetGlobalValue",
              "key": "_MONSTER_SKIRMISHER_WEAK_",
              "value": 1.0
            }
          ],
          "rotationDampTime": "Eff_Monster_Skirmisher_Male_Strong_Gloves_Wind_SecondWindBuff",
          "born": {
            "$type": "ConfigBornByTarget"
          },
          "PPPDJGDDOGD": 1.0,
          "AJDILHJFNKE": -1.0
        },
        {
          "$type": "AddGlobalValue",
          "otherTargets": {
            "$type": "SelectTargetsByShape",
            "topLimit": 10,
            "shapeName": "CircleR50",
            "campTargetType": "Alliance",
            "doOffStage": 1.0
          },
          "predicates": [
            {
              "$type": "ByTargetGlobalValue",
              "key": "_MONSTER_SKIRMISHER_WEAK_",
              "value": 1.0
            }
          ],
          "value": 1.0,
          "key": "_MONSTER_SKIRMISHER_RECOVER",
          "useLimitRange": true,
          "maxValue": 1.0,
          "minValue": 0.0
        }
      ]
    }
  },
  {
    "Default": {
      "$type": "ConfigAbility",
      "abilityName": "Monster_Skirmisher_Strong_Gloves_Wind_StruggleHideWeapon",
      "abilityMixins": [
        {
          "$type": "AttachToNormalizedTimeMixin",
          "stateID": "Struggle",
          "modifierName": "Monster_Skirmisher_Strong_Gloves_Wind_StruggleHideWeapon",
          "DGFCLAIDIFI": ""
        },
        {
          "$type": "AttachToNormalizedTimeMixin",
          "stateID": "SwimDie",
          "modifierName": "Monster_Skirmisher_Strong_Gloves_Wind_StruggleHideWeapon",
          "DGFCLAIDIFI": ""
        },
        {
          "$type": "AttachToNormalizedTimeMixin",
          "stateID": "SwimDie_AS",
          "modifierName": "Monster_Skirmisher_Strong_Gloves_Wind_StruggleHideWeapon",
          "DGFCLAIDIFI": ""
        }
      ],
      "modifiers": {
        "Monster_Skirmisher_Strong_Gloves_Wind_StruggleHideWeapon": {
          "modifierName": "",
          "elementDurability": 100.0,
          "onAdded": [
            {
              "$type": "TriggerHideWeapon",
              "partNames": ["equip01", "equip02"]
            }
          ],
          "onRemoved": [
            {
              "$type": "TriggerHideWeapon",
              "KGGEDGKGLDD": true,
              "partNames": ["equip01", "equip02"]
            }
          ]
        }
      }
    }
  },
  {
    "Default": {
      "$type": "ConfigAbility",
      "abilityName": "Monster_Skirmisher_Strong_Gloves_Wind_WeaponSpecialState",
      "abilityMixins": [
        {
          "$type": "JJIHJPCPPGO",
          "abilityStates": ["ElementFreeze"],
          "modifierName": "Monster_Skirmisher_Strong_Gloves_Wind_WeaponFrozen"
        },
        {
          "$type": "JJIHJPCPPGO",
          "abilityStates": ["ElementPetrifaction"],
          "modifierName": "Monster_Skirmisher_Strong_Gloves_Wind_WeaponPetrifaction"
        }
      ],
      "modifiers": {
        "Monster_Skirmisher_Strong_Gloves_Wind_WeaponFrozen": {
          "modifierName": "",
          "elementDurability": 100.0,
          "onAdded": [
            {
              "$type": "AttachModifier",
              "otherTargets": {
                "$type": "SelectTargetsByEquipParts",
                "equipPartNames": ["equip01", "equip02"]
              },
              "modifierName": "Monster_Skirmisher_Strong_Gloves_Wind_WeaponBeFrozen"
            }
          ]
        },
        "Monster_Skirmisher_Strong_Gloves_Wind_WeaponPetrifaction": {
          "modifierName": "",
          "elementDurability": 100.0,
          "onAdded": [
            {
              "$type": "AttachModifier",
              "otherTargets": {
                "$type": "SelectTargetsByEquipParts",
                "equipPartNames": ["equip01", "equip02"]
              },
              "modifierName": "Monster_Skirmisher_Strong_Gloves_Wind_WeaponBePetrifaction"
            }
          ]
        },
        "Monster_Skirmisher_Strong_Gloves_Wind_WeaponBeFrozen": {
          "modifierName": "",
          "elementDurability": 100.0,
          "state": "ElementFreeze"
        },
        "Monster_Skirmisher_Strong_Gloves_Wind_WeaponBePetrifaction": {
          "modifierName": "",
          "elementDurability": 100.0,
          "state": "ElementPetrifaction"
        }
      }
    }
  }
]
