[
  {
    "Default": {
      "$type": "ConfigAbility",
      "abilityName": "Drake_Primo_Rock_BossEvent_ElementExplode_CreateLogicGadget",
      "abilityMixins": [
        {
          "$type": "APJKOLPHCGH",
          "stateIDs": ["ElementExplode"],
          "enterActions": [
            {
              "$type": "BAKEBEKLLAC",
              "id": 31030003
            },
            {
              "$type": "SetGlobalValue",
              "value": 0.0,
              "key": "_HIT_LEVEL",
              "maxValue": 0.0,
              "minValue": 0.0
            },
            {
              "$type": "FNPMFLOOCDD",
              "value": 4.0,
              "key": "_CAMERA_STATE",
              "maxValue": 0.0,
              "minValue": 0.0
            }
          ],
          "DGFCLAIDIFI": ""
        }
      ],
      "onAbilityStart": [
        {
          "$type": "CreateGadget",
          "born": {
            "$type": "ConfigBornBySelf",
            "offset": {
              "z": 1.600000023841858
            },
            "onGround": true,
            "useRotation": true
          },
          "lifeByOwnerV2": true,
          "gadgetID": 42605058
        },
        {
          "$type": "SetGlobalValue",
          "predicates": [
            {
              "$type": "ByTargetGlobalValue",
              "key": "EX_PASS_COUNT",
              "value": 3.0,
              "compareType": "MoreThanAndEqual"
            }
          ],
          "value": -1.0,
          "key": "EX_PASS_COUNT",
          "maxValue": 0.0,
          "minValue": 0.0
        },
        {
          "$type": "FNPMFLOOCDD",
          "value": 0.0,
          "key": "_CAMERA_STATE",
          "maxValue": 0.0,
          "minValue": 0.0
        },
        {
          "$type": "FNPMFLOOCDD",
          "value": 0.0,
          "key": "_ELEMENT_EXPLODE_ENABLE",
          "maxValue": 0.0,
          "minValue": 0.0
        }
      ]
    }
  },
  {
    "Default": {
      "$type": "ConfigAbility",
      "abilityName": "Drake_Primo_Rock_BossEvent_ElementExplode_LogicGadget",
      "abilityMixins": [
        {
          "$type": "AttachModifierToGlobalValueMixin",
          "globalValueTarget": "Owner",
          "globalValueKey": "_DRAKE_PRIMO_STATE",
          "valueSteps": [0.5, 2.5, 4.5],
          "modifierNameSteps": ["IceExplode", "WaterExplode"]
        }
      ],
      "modifiers": {
        "IceExplode": {
          "modifierName": "",
          "elementDurability": 100.0,
          "onAdded": [
            {
              "$type": "ApplyModifier",
              "modifierName": "ElementExplode_Hit_Ice_Monitor"
            },
            {
              "$type": "FireEffect",
              "rotationDampTime": "Eff_Monster_Drake_Primo_Rock_ElementExplode_Ice",
              "PPPDJGDDOGD": 1.0,
              "AJDILHJFNKE": -1.0
            },
            {
              "$type": "ApplyModifier",
              "target": "AllPlayerAvatars",
              "modifierName": "Explode_AvatarDamage_Ice"
            },
            {
              "$type": "DLEIPBPNAIM",
              "target": "Owner",
              "paramList": [2, 0, 0]
            }
          ]
        },
        "ElementExplode_Hit_Ice_Monitor": {
          "modifierName": "",
          "elementDurability": 100.0,
          "onAttackLanded": [
            {
              "$type": "ApplyModifier",
              "target": "Target",
              "predicates": [
                {
                  "$type": "ByAttackTags",
                  "attackTags": ["Primo_ElementExplode_Ice"]
                },
                {
                  "$type": "ByEntityTypes",
                  "entityTypes": ["Avatar"]
                }
              ],
              "modifierName": "ShieldDetect_Ice"
            }
          ]
        },
        "Explode_AvatarDamage_Ice": {
          "modifierName": "",
          "duration": 0.20000000298023224,
          "elementDurability": 100.0,
          "onAdded": [
            {
              "$type": "Predicated",
              "target": "Applier",
              "targetPredicates": [
                {
                  "$type": "ByTargetPositionToSelfPosition",
                  "logic": "Lesser",
                  "value": 20.0,
                  "DDALGNLEHOD": ""
                },
                {
                  "$type": "ByTargetPositionToSelfPosition",
                  "logic": "Lesser",
                  "compareType": "Y",
                  "value": 3.0,
                  "DDALGNLEHOD": ""
                }
              ],
              "successActions": [
                {
                  "$type": "Predicated",
                  "targetPredicates": [
                    {
                      "$type": "ByHasShield",
                      "damageRatio": "All"
                    }
                  ],
                  "successActions": [
                    {
                      "$type": "DamageByAttackValue",
                      "attackInfo": {
                        "attackTag": "Primo_ElementExplode_Ice",
                        "attenuationTag": "",
                        "attenuationGroup": "default",
                        "attackProperty": {
                          "actorGrassSubHurtDelta": 0.4000000059604645,
                          "actorWindSubHurtDelta": 0.0,
                          "elementType": "Ice",
                          "elementDurability": 100.0,
                          "strikeType": "Default",
                          "enBreak": 500.0,
                          "attackType": "Range",
                          "GLKMCMDJBIK": 0.0
                        },
                        "hitPattern": {
                          "onHitEffectName": "default",
                          "hitImpulseY": "",
                          "hitImpulseType": "LV7"
                        }
                      }
                    }
                  ],
                  "failActions": [
                    {
                      "$type": "DamageByAttackValue",
                      "attackInfo": {
                        "attackTag": "Primo_ElementExplode_Ice",
                        "attenuationTag": "",
                        "attenuationGroup": "default",
                        "attackProperty": {
                          "actorGrassSubHurtDelta": 2.0,
                          "actorWindSubHurtDelta": 0.0,
                          "elementType": "Ice",
                          "elementDurability": 100.0,
                          "strikeType": "Default",
                          "enBreak": 500.0,
                          "attackType": "Range",
                          "GLKMCMDJBIK": 0.0
                        },
                        "hitPattern": {
                          "onHitEffectName": "default",
                          "hitImpulseY": "",
                          "hitImpulseType": "LV7"
                        }
                      }
                    }
                  ]
                }
              ]
            }
          ]
        },
        "ShieldDetect_Ice": {
          "modifierName": "",
          "duration": 0.20000000298023224,
          "elementDurability": 100.0,
          "onAdded": [
            {
              "$type": "Predicated",
              "targetPredicates": [
                {
                  "$type": "ByHasShield",
                  "damageRatio": "All"
                }
              ],
              "successActions": [
                {
                  "$type": "Predicated",
                  "targetPredicates": [
                    {
                      "$type": "ByHasShield",
                      "damageRatio": "All",
                      "usePotentShield": true,
                      "potentShieldType": "Ice"
                    }
                  ],
                  "successActions": [
                    {
                      "$type": "FireEffect",
                      "rotationDampTime": "Eff_Monster_Drake_Primo_Rock_ElementExplodeHitH_Ice",
                      "PPPDJGDDOGD": 1.0,
                      "AJDILHJFNKE": -1.0
                    },
                    {
                      "$type": "SetGlobalPos",
                      "target": "CasterOriginOwner",
                      "key": "_MONSTER_DRAKE_PRIMO_ROCK_BROKEN_POS",
                      "born": {
                        "$type": "ConfigBornBySelf",
                        "useRotation": true
                      }
                    },
                    {
                      "$type": "ApplyModifier",
                      "target": "CasterOriginOwner",
                      "modifierName": "BeHitBrokenH"
                    }
                  ],
                  "failActions": [
                    {
                      "$type": "FireEffect",
                      "rotationDampTime": "Eff_Monster_Drake_Primo_Rock_ElementExplodeHitL",
                      "PPPDJGDDOGD": 1.0,
                      "AJDILHJFNKE": -1.0
                    },
                    {
                      "$type": "SetGlobalPos",
                      "target": "CasterOriginOwner",
                      "key": "_MONSTER_DRAKE_PRIMO_ROCK_BROKEN_POS",
                      "born": {
                        "$type": "ConfigBornBySelf",
                        "useRotation": true
                      }
                    },
                    {
                      "$type": "ApplyModifier",
                      "target": "CasterOriginOwner",
                      "modifierName": "BeHitBrokenL"
                    }
                  ]
                }
              ]
            }
          ]
        },
        "WaterExplode": {
          "modifierName": "",
          "elementDurability": 100.0,
          "onAdded": [
            {
              "$type": "ApplyModifier",
              "modifierName": "ElementExplode_Hit_Water_Monitor"
            },
            {
              "$type": "FireEffect",
              "rotationDampTime": "Eff_Monster_Drake_Primo_Rock_ElementExplode_Water",
              "PPPDJGDDOGD": 1.0,
              "AJDILHJFNKE": -1.0
            },
            {
              "$type": "ApplyModifier",
              "target": "AllPlayerAvatars",
              "modifierName": "Explode_AvatarDamage_Water"
            },
            {
              "$type": "DLEIPBPNAIM",
              "target": "Owner",
              "paramList": [2, 0, 1]
            }
          ]
        },
        "Explode_AvatarDamage_Water": {
          "modifierName": "",
          "duration": 0.20000000298023224,
          "elementDurability": 100.0,
          "onAdded": [
            {
              "$type": "Predicated",
              "target": "Applier",
              "targetPredicates": [
                {
                  "$type": "ByTargetPositionToSelfPosition",
                  "logic": "Lesser",
                  "value": 20.0,
                  "DDALGNLEHOD": ""
                },
                {
                  "$type": "ByTargetPositionToSelfPosition",
                  "logic": "Lesser",
                  "compareType": "Y",
                  "value": 3.0,
                  "DDALGNLEHOD": ""
                }
              ],
              "successActions": [
                {
                  "$type": "Predicated",
                  "targetPredicates": [
                    {
                      "$type": "ByHasShield",
                      "damageRatio": "All"
                    }
                  ],
                  "successActions": [
                    {
                      "$type": "DamageByAttackValue",
                      "attackInfo": {
                        "attackTag": "Primo_ElementExplode_Water",
                        "attenuationTag": "",
                        "attenuationGroup": "default",
                        "attackProperty": {
                          "actorGrassSubHurtDelta": 0.4000000059604645,
                          "actorWindSubHurtDelta": 0.0,
                          "elementType": "Water",
                          "elementDurability": 100.0,
                          "strikeType": "Default",
                          "enBreak": 500.0,
                          "attackType": "Range",
                          "GLKMCMDJBIK": 0.0
                        },
                        "hitPattern": {
                          "onHitEffectName": "default",
                          "hitImpulseY": "",
                          "hitImpulseType": "LV7"
                        }
                      }
                    }
                  ],
                  "failActions": [
                    {
                      "$type": "DamageByAttackValue",
                      "attackInfo": {
                        "attackTag": "Primo_ElementExplode_Water",
                        "attenuationTag": "",
                        "attenuationGroup": "default",
                        "attackProperty": {
                          "actorGrassSubHurtDelta": 2.0,
                          "actorWindSubHurtDelta": 0.0,
                          "elementType": "Water",
                          "elementDurability": 100.0,
                          "strikeType": "Default",
                          "enBreak": 500.0,
                          "attackType": "Range",
                          "GLKMCMDJBIK": 0.0
                        },
                        "hitPattern": {
                          "onHitEffectName": "default",
                          "hitImpulseY": "",
                          "hitImpulseType": "LV7"
                        }
                      }
                    }
                  ]
                }
              ]
            }
          ]
        },
        "ElementExplode_Hit_Water_Monitor": {
          "modifierName": "",
          "elementDurability": 100.0,
          "onAttackLanded": [
            {
              "$type": "ApplyModifier",
              "target": "Target",
              "predicates": [
                {
                  "$type": "ByAttackTags",
                  "attackTags": ["Primo_ElementExplode_Water"]
                },
                {
                  "$type": "ByEntityTypes",
                  "entityTypes": ["Avatar"]
                }
              ],
              "modifierName": "ShieldDetect_Water"
            }
          ]
        },
        "ShieldDetect_Water": {
          "modifierName": "",
          "duration": 0.20000000298023224,
          "elementDurability": 100.0,
          "onAdded": [
            {
              "$type": "Predicated",
              "targetPredicates": [
                {
                  "$type": "ByHasShield",
                  "damageRatio": "All"
                }
              ],
              "successActions": [
                {
                  "$type": "Predicated",
                  "targetPredicates": [
                    {
                      "$type": "ByHasShield",
                      "damageRatio": "All",
                      "usePotentShield": true,
                      "potentShieldType": "Water"
                    }
                  ],
                  "successActions": [
                    {
                      "$type": "FireEffect",
                      "rotationDampTime": "Eff_Monster_Drake_Primo_Rock_ElementExplodeHitH_Water",
                      "PPPDJGDDOGD": 1.0,
                      "AJDILHJFNKE": -1.0
                    },
                    {
                      "$type": "ApplyModifier",
                      "target": "CasterOriginOwner",
                      "modifierName": "BeHitBrokenH"
                    }
                  ],
                  "failActions": [
                    {
                      "$type": "FireEffect",
                      "rotationDampTime": "Eff_Monster_Drake_Primo_Rock_ElementExplodeHitL",
                      "PPPDJGDDOGD": 1.0,
                      "AJDILHJFNKE": -1.0
                    },
                    {
                      "$type": "ApplyModifier",
                      "target": "CasterOriginOwner",
                      "modifierName": "BeHitBrokenL"
                    }
                  ]
                }
              ]
            }
          ]
        },
        "BeHitBrokenL": {
          "stacking": "Unique",
          "modifierName": "",
          "duration": 2.0,
          "elementDurability": 100.0,
          "onAdded": [
            {
              "$type": "SetGlobalValue",
              "predicates": [
                {
                  "$type": "ByTargetGlobalValue",
                  "key": "_HIT_LEVEL",
                  "value": 0.0
                }
              ],
              "value": 1.0,
              "key": "_HIT_LEVEL",
              "maxValue": 0.0,
              "minValue": 0.0
            },
            {
              "$type": "TriggerAbility",
              "abilityName": "Drake_Primo_Rock_BossEvent_HitShield"
            },
            {
              "$type": "SetGlobalPos",
              "key": "_MONSTER_DRAKE_PRIMO_ROCK_BROKEN_POS",
              "born": {
                "$type": "ConfigBornByAttachPoint",
                "useRotation": true,
                "attachPointName": "RootNode",
                "attachPointTargetType": "Applier"
              }
            }
          ]
        },
        "BeHitBrokenH": {
          "stacking": "Unique",
          "modifierName": "",
          "duration": 2.0,
          "elementDurability": 100.0,
          "onAdded": [
            {
              "$type": "SetGlobalValue",
              "predicates": [
                {
                  "$type": "ByTargetGlobalValue",
                  "key": "_HIT_LEVEL",
                  "value": 1.0,
                  "compareType": "LessAndEqual"
                }
              ],
              "value": 2.0,
              "key": "_HIT_LEVEL",
              "maxValue": 0.0,
              "minValue": 0.0
            },
            {
              "$type": "TriggerAbility",
              "abilityName": "Drake_Primo_Rock_BossEvent_HitShield"
            },
            {
              "$type": "SetGlobalPos",
              "key": "_MONSTER_DRAKE_PRIMO_ROCK_BROKEN_POS",
              "born": {
                "$type": "ConfigBornByAttachPoint",
                "useRotation": true,
                "attachPointName": "RootNode",
                "attachPointTargetType": "Applier"
              }
            }
          ]
        }
      },
      "onAdded": [
        {
          "$type": "ActCameraRadialBlur",
          "cameraRadialBlur": {
            "power": 2.799999952316284,
            "blurTime": 0.5,
            "fadeTime": 0.4000000059604645
          }
        },
        {
          "$type": "ActCameraShake",
          "cameraShake": {
            "shakeRange": 3.75,
            "shakeTime": 1.440000057220459,
            "shakeDistance": 70.0,
            "extension": {
              "baseCycle": 0.36000001430511475,
              "cycleDamping": 0.0,
              "rangeAttenuation": 0.11999999731779099
            }
          }
        }
      ]
    }
  },
  {
    "Default": {
      "$type": "ConfigAbility",
      "abilityName": "Drake_Primo_Rock_BossEvent_ScaleBurst_Bullet_Ice",
      "modifiers": {
        "Bullet_VFX": {
          "modifierName": "",
          "elementDurability": 100.0,
          "onAdded": [
            {
              "$type": "AttachEffect",
              "rotationDampTime": "Eff_Monster_Drake_Primo_Rock_ScaleBullet_Ice",
              "PPPDJGDDOGD": 1.0,
              "AJDILHJFNKE": -1.0
            }
          ]
        }
      },
      "onAdded": [
        {
          "$type": "ApplyModifier",
          "modifierName": "Bullet_VFX"
        }
      ],
      "onAbilityStart": [
        {
          "$type": "FireEffect",
          "rotationDampTime": "Eff_Monster_Drake_Primo_Rock_ScaleGadgetBS_Ice",
          "born": {
            "$type": "ConfigBornByCollisionPoint",
            "onGround": true,
            "alongGround": true
          },
          "PPPDJGDDOGD": 1.0,
          "AJDILHJFNKE": -1.0
        },
        {
          "$type": "CreateGadget",
          "target": "CasterOriginOwner",
          "ownerIsTarget": true,
          "ownerIs": "CasterOriginOwner",
          "born": {
            "$type": "ConfigBornByCollisionPoint",
            "onGround": true,
            "alongGround": true
          },
          "sightGroupWithOwner": true,
          "lifeByOwnerV2": true,
          "gadgetID": 42605054,
          "byServer": true
        }
      ]
    }
  },
  {
    "Default": {
      "$type": "ConfigAbility",
      "abilityName": "Drake_Primo_Rock_BossEvent_ScaleBurst_Bullet_Water",
      "modifiers": {
        "Bullet_VFX": {
          "modifierName": "",
          "elementDurability": 100.0,
          "onAdded": [
            {
              "$type": "AttachEffect",
              "rotationDampTime": "Eff_Monster_Drake_Primo_Rock_ScaleBullet_Water",
              "PPPDJGDDOGD": 1.0,
              "AJDILHJFNKE": -1.0
            }
          ]
        }
      },
      "onAdded": [
        {
          "$type": "ApplyModifier",
          "modifierName": "Bullet_VFX"
        }
      ],
      "onAbilityStart": [
        {
          "$type": "FireEffect",
          "rotationDampTime": "Eff_Monster_Drake_Primo_Rock_ScaleGadgetBS_Water",
          "born": {
            "$type": "ConfigBornByCollisionPoint",
            "onGround": true,
            "alongGround": true
          },
          "PPPDJGDDOGD": 1.0,
          "AJDILHJFNKE": -1.0
        },
        {
          "$type": "CreateGadget",
          "target": "CasterOriginOwner",
          "ownerIsTarget": true,
          "ownerIs": "CasterOriginOwner",
          "born": {
            "$type": "ConfigBornByCollisionPoint",
            "onGround": true,
            "alongGround": true
          },
          "sightGroupWithOwner": true,
          "lifeByOwnerV2": true,
          "gadgetID": 42605055,
          "byServer": true
        }
      ]
    }
  },
  {
    "Default": {
      "$type": "ConfigAbility",
      "abilityName": "Drake_Primo_Rock_BossEvent_ScaleGadget_Ice",
      "modifiers": {
        "Calm_Timer": {
          "modifierName": "",
          "duration": 3.75,
          "elementDurability": 100.0
        },
        "Kill_Timer": {
          "modifierName": "",
          "elementDurability": 100.0,
          "thinkInterval": 6.199999809265137,
          "onThinkInterval": [
            {
              "$type": "AddGlobalValue",
              "value": 1.0,
              "key": "_TICK_TIMER",
              "maxValue": 0.0,
              "minValue": 0.0
            },
            {
              "$type": "KillSelf",
              "predicates": [
                {
                  "$type": "ByTargetGlobalValue",
                  "target": "Self",
                  "key": "_TICK_TIMER",
                  "value": 5.0,
                  "compareType": "MoreThanAndEqual"
                }
              ],
              "configIdArray": [42605054]
            }
          ]
        },
        "Gadget_CheckAvatar_Position": {
          "modifierName": "",
          "elementDurability": 100.0,
          "thinkInterval": 0.6700000166893005,
          "onAdded": [
            {
              "$type": "AttachEffect",
              "rotationDampTime": "Eff_Monster_Drake_Primo_Rock_ScaleGadget_Ice",
              "PPPDJGDDOGD": 1.0,
              "AJDILHJFNKE": -1.0
            }
          ],
          "onThinkInterval": [
            {
              "$type": "Predicated",
              "target": "AllPlayerAvatars",
              "predicates": [
                {
                  "$type": "ByNot",
                  "predicates": [
                    {
                      "$type": "BHFFBBOLCCP",
                      "target": "Self",
                      "modifierName": "Calm_Timer"
                    }
                  ]
                }
              ],
              "targetPredicates": [
                {
                  "$type": "ByTargetPositionToSelfPosition",
                  "logic": "Lesser",
                  "value": 5.0,
                  "DDALGNLEHOD": ""
                }
              ],
              "successActions": [
                {
                  "$type": "ApplyModifier",
                  "modifierName": "Gadget_AttackHandler"
                }
              ]
            }
          ]
        },
        "Gadget_AttackHandler": {
          "stacking": "Unique",
          "modifierName": "",
          "duration": 3.75,
          "elementDurability": 100.0,
          "onAdded": [
            {
              "$type": "ApplyModifier",
              "modifierName": "Attack_Alert_VFX"
            }
          ]
        },
        "Attack_Alert_VFX": {
          "modifierName": "",
          "duration": 0.800000011920929,
          "elementDurability": 100.0,
          "onAdded": [
            {
              "$type": "FireEffect",
              "rotationDampTime": "Eff_Monster_Drake_Primo_Rock_BossEvent_ScaleExplosionBS_Ice",
              "PPPDJGDDOGD": 1.0,
              "AJDILHJFNKE": -1.0
            }
          ],
          "onRemoved": [
            {
              "$type": "FireEffect",
              "rotationDampTime": "Eff_Monster_Drake_Primo_Rock_ScaleExplosion_Ice",
              "PPPDJGDDOGD": 1.0,
              "AJDILHJFNKE": -1.0
            },
            {
              "$type": "ApplyModifier",
              "modifierName": "Drake_Primo_Rock_ScaleExplosion_Ice_1st"
            }
          ]
        },
        "Drake_Primo_Rock_ScaleExplosion_Ice_1st": {
          "modifierName": "",
          "duration": 0.47999998927116394,
          "elementDurability": 100.0,
          "onAdded": [
            {
              "$type": "TriggerAttackEvent",
              "attackEvent": {
                "attackPattern": {
                  "$type": "ConfigAttackCircle",
                  "triggerType": "TriggerNoRepeat",
                  "height": 1.0,
                  "radius": 2.4000000953674316
                },
                "attackInfo": {
                  "attackTag": "",
                  "attenuationTag": "",
                  "attenuationGroup": "default",
                  "attackProperty": {
                    "actorGrassSubHurtDelta": 0.25,
                    "actorWindSubHurtDelta": 0.0,
                    "elementType": "Ice",
                    "elementDurability": 50.0,
                    "strikeType": "Default",
                    "enBreak": 1.0,
                    "GLKMCMDJBIK": 0.0
                  },
                  "hitPattern": {
                    "onHitEffectName": "default",
                    "hitImpulseY": "",
                    "hitImpulseType": "LV3"
                  },
                  "canBeModifiedBy": "OriginOwner"
                }
              },
              "targetType": "Enemy"
            }
          ],
          "onRemoved": [
            {
              "$type": "ApplyModifier",
              "modifierName": "Drake_Primo_Rock_ScaleExplosion_Ice_2nd"
            }
          ]
        },
        "Drake_Primo_Rock_ScaleExplosion_Ice_2nd": {
          "modifierName": "",
          "duration": 0.4000000059604645,
          "elementDurability": 100.0,
          "onAdded": [
            {
              "$type": "TriggerAttackEvent",
              "attackEvent": {
                "attackPattern": {
                  "$type": "ConfigAttackCircle",
                  "triggerType": "TriggerNoRepeat",
                  "height": 1.5,
                  "radius": 4.800000190734863,
                  "MMBCLAEOEFB": 2.4000000953674316
                },
                "attackInfo": {
                  "attackTag": "",
                  "attenuationTag": "",
                  "attenuationGroup": "default",
                  "attackProperty": {
                    "actorGrassSubHurtDelta": 0.25,
                    "actorWindSubHurtDelta": 0.0,
                    "elementType": "Ice",
                    "elementDurability": 50.0,
                    "strikeType": "Default",
                    "enBreak": 1.0,
                    "GLKMCMDJBIK": 0.0
                  },
                  "hitPattern": {
                    "onHitEffectName": "default",
                    "hitImpulseY": "",
                    "hitImpulseType": "LV3"
                  },
                  "canBeModifiedBy": "OriginOwner"
                }
              },
              "targetType": "Enemy"
            }
          ],
          "onRemoved": [
            {
              "$type": "TriggerAttackEvent",
              "attackEvent": {
                "attackPattern": {
                  "$type": "ConfigAttackCircle",
                  "triggerType": "TriggerNoRepeat",
                  "height": 2.0,
                  "radius": 6.0,
                  "MMBCLAEOEFB": 4.0
                },
                "attackInfo": {
                  "attackTag": "",
                  "attenuationTag": "",
                  "attenuationGroup": "default",
                  "attackProperty": {
                    "actorGrassSubHurtDelta": 0.375,
                    "actorWindSubHurtDelta": 0.0,
                    "elementType": "Ice",
                    "elementDurability": 50.0,
                    "strikeType": "Default",
                    "enBreak": 1.0,
                    "GLKMCMDJBIK": 0.0
                  },
                  "hitPattern": {
                    "onHitEffectName": "default",
                    "hitImpulseY": "",
                    "hitImpulseType": "",
                    "overrideHitImpulse": {
                      "hitLevel": "Heavy",
                      "IMIJMPGJOGG": 200.0
                    }
                  },
                  "canBeModifiedBy": "OriginOwner"
                }
              },
              "targetType": "Enemy"
            }
          ]
        }
      },
      "onAdded": [
        {
          "$type": "ApplyModifier",
          "modifierName": "Gadget_CheckAvatar_Position"
        },
        {
          "$type": "ApplyModifier",
          "modifierName": "Kill_Timer"
        },
        {
          "$type": "ApplyModifier",
          "modifierName": "Calm_Timer"
        },
        {
          "$type": "SetGlobalValue",
          "value": 0.0,
          "key": "_TICK_TIMER",
          "maxValue": 0.0,
          "minValue": 0.0
        }
      ]
    }
  },
  {
    "Default": {
      "$type": "ConfigAbility",
      "abilityName": "Drake_Primo_Rock_BossEvent_ScaleGadget_Water",
      "modifiers": {
        "Calm_Timer": {
          "modifierName": "",
          "duration": 3.75,
          "elementDurability": 100.0
        },
        "Kill_Timer": {
          "modifierName": "",
          "elementDurability": 100.0,
          "thinkInterval": 6.199999809265137,
          "onThinkInterval": [
            {
              "$type": "AddGlobalValue",
              "value": 1.0,
              "key": "_TICK_TIMER",
              "maxValue": 0.0,
              "minValue": 0.0
            },
            {
              "$type": "KillSelf",
              "predicates": [
                {
                  "$type": "ByTargetGlobalValue",
                  "target": "Self",
                  "key": "_TICK_TIMER",
                  "value": 5.0,
                  "compareType": "MoreThanAndEqual"
                }
              ],
              "configIdArray": [42605055]
            }
          ]
        },
        "Gadget_CheckAvatar_Position": {
          "modifierName": "",
          "elementDurability": 100.0,
          "thinkInterval": 0.6700000166893005,
          "onAdded": [
            {
              "$type": "AttachEffect",
              "rotationDampTime": "Eff_Monster_Drake_Primo_Rock_ScaleGadget_Water",
              "PPPDJGDDOGD": 1.0,
              "AJDILHJFNKE": -1.0
            }
          ],
          "onThinkInterval": [
            {
              "$type": "Predicated",
              "target": "AllPlayerAvatars",
              "predicates": [
                {
                  "$type": "ByNot",
                  "predicates": [
                    {
                      "$type": "BHFFBBOLCCP",
                      "target": "Self",
                      "modifierName": "Calm_Timer"
                    }
                  ]
                }
              ],
              "targetPredicates": [
                {
                  "$type": "ByTargetPositionToSelfPosition",
                  "logic": "Lesser",
                  "value": 5.0,
                  "DDALGNLEHOD": ""
                }
              ],
              "successActions": [
                {
                  "$type": "ApplyModifier",
                  "modifierName": "Gadget_AttackHandler"
                }
              ]
            }
          ]
        },
        "Gadget_AttackHandler": {
          "stacking": "Unique",
          "modifierName": "",
          "duration": 3.75,
          "elementDurability": 100.0,
          "onAdded": [
            {
              "$type": "ApplyModifier",
              "modifierName": "Attack_Alert_VFX"
            }
          ]
        },
        "Attack_Alert_VFX": {
          "modifierName": "",
          "duration": 0.5,
          "elementDurability": 100.0,
          "onAdded": [
            {
              "$type": "FireEffect",
              "rotationDampTime": "Eff_Monster_Drake_Primo_Rock_BossEvent_ScaleExplosionBS_Water",
              "PPPDJGDDOGD": 1.0,
              "AJDILHJFNKE": -1.0
            }
          ],
          "onRemoved": [
            {
              "$type": "SetSelfAttackTarget",
              "otherTargets": {
                "$type": "SelectTargetsByShape",
                "topLimit": 1,
                "entityTypePriority": ["Avatar"],
                "sortType": "Nearest",
                "shapeName": "CircleR12H5",
                "campTargetType": "Enemy",
                "doOffStage": 1.0
              }
            },
            {
              "$type": "TriggerBullet",
              "target": "OriginOwner",
              "bulletID": 42605059,
              "born": {
                "$type": "ConfigBornBySelf",
                "direction": {
                  "$type": "ConfigDirectionByAttackTarget",
                  "useCorrectDir": true,
                  "startPoint": ""
                },
                "useRotation": true
              },
              "ownerIsTarget": true,
              "ownerIs": "OriginOwner"
            }
          ]
        }
      },
      "onAdded": [
        {
          "$type": "ApplyModifier",
          "modifierName": "Gadget_CheckAvatar_Position"
        },
        {
          "$type": "ApplyModifier",
          "modifierName": "Kill_Timer"
        },
        {
          "$type": "ApplyModifier",
          "modifierName": "Calm_Timer"
        },
        {
          "$type": "SetGlobalValue",
          "value": 0.0,
          "key": "_TICK_TIMER",
          "maxValue": 0.0,
          "minValue": 0.0
        }
      ]
    }
  },
  {
    "Default": {
      "$type": "ConfigAbility",
      "abilityName": "Drake_Primo_Rock_BossEvent_ScaleGadget_Water_Bullet",
      "modifiers": {
        "Bullet_TriggerDamage": {
          "modifierName": "",
          "duration": 1.899999976158142,
          "elementDurability": 100.0,
          "thinkInterval": 0.30000001192092896,
          "onThinkInterval": [
            {
              "$type": "FireEffect",
              "rotationDampTime": "Eff_Monster_Drake_Primo_Rock_ScaleExplosion_Water",
              "born": {
                "$type": "ConfigBornBySelf",
                "onGround": true,
                "alongGround": true,
                "useRotation": true
              },
              "PPPDJGDDOGD": 1.0,
              "AJDILHJFNKE": -1.0,
              "useRemoteSelfPos": true
            },
            {
              "$type": "TriggerAttackEvent",
              "attackEvent": {
                "attackPattern": {
                  "$type": "ConfigAttackCircle",
                  "triggerType": "TriggerNoRepeat",
                  "born": {
                    "$type": "ConfigBornBySelf",
                    "offset": {
                      "y": -0.5
                    },
                    "onGround": true,
                    "alongGround": true,
                    "useRotation": true
                  },
                  "height": 3.0,
                  "radius": 1.2000000476837158
                },
                "attackInfo": {
                  "attackTag": "",
                  "attenuationTag": "",
                  "attenuationGroup": "default",
                  "attackProperty": {
                    "actorGrassSubHurtDelta": 0.1599999964237213,
                    "actorWindSubHurtDelta": 0.0,
                    "elementType": "Water",
                    "elementDurability": 50.0,
                    "strikeType": "Default",
                    "enBreak": 1.0,
                    "GLKMCMDJBIK": 0.0
                  },
                  "hitPattern": {
                    "onHitEffectName": "default",
                    "hitImpulseY": "",
                    "hitImpulseType": "LV3"
                  },
                  "canBeModifiedBy": "OriginOwner"
                }
              },
              "targetType": "Enemy"
            }
          ]
        }
      },
      "onAdded": [
        {
          "$type": "ApplyModifier",
          "modifierName": "Bullet_TriggerDamage"
        }
      ]
    }
  }
]
