[
  {
    "Default": {
      "$type": "ConfigAbility",
      "abilityName": "Monster_Ovacua_Chaos_01_Steer",
      "abilityMixins": [
        {
          "$type": "IILHMBGONGM",
          "steerStateIDs": ["Order_HeavyShoot"],
          "endNormalizedTime": 0.5,
          "angularSpeed": 120.0,
          "attackTrigger": "",
          "attackDistance": 12.0,
          "DGFCLAIDIFI": ""
        }
      ]
    }
  },
  {
    "Default": {
      "$type": "ConfigAbility",
      "abilityName": "Monster_Ovacua_Chaos_OuterRing_Chaos_Idle01",
      "onAbilityStart": [
        {
          "$type": "SetAnimatorInt",
          "otherTargets": {
            "$type": "SelectTargetsByEquipParts",
            "equipPartNames": ["equip01"]
          },
          "intID": "SkillID",
          "value": 12.0
        },
        {
          "$type": "SetAnimatorTrigger",
          "otherTargets": {
            "$type": "SelectTargetsByEquipParts",
            "equipPartNames": ["equip01"]
          },
          "triggerID": "DoSkill",
          "mpTriggerOnRemote": true
        }
      ]
    }
  },
  {
    "Default": {
      "$type": "ConfigAbility",
      "abilityName": "Monster_Ovacua_Chaos_01_Growth_Shoot",
      "onAbilityStart": [
        {
          "$type": "TriggerBullet",
          "bulletID": 42211008
        }
      ]
    }
  },
  {
    "Default": {
      "$type": "ConfigAbility",
      "abilityName": "Monster_Ovacua_Chaos_02_Growth_Shoot",
      "onAbilityStart": [
        {
          "$type": "TriggerBullet",
          "bulletID": 42211007
        }
      ]
    }
  },
  {
    "Default": {
      "$type": "ConfigAbility",
      "abilityName": "Monster_Ovacua_Chaos_GrowthSkillHeightManager",
      "abilityMixins": [
        {
          "$type": "AttachToNormalizedTimeMixin",
          "stateID": "Chaos_Growth_BS",
          "modifierName": "Height01",
          "normalizeStart": 0.2590000033378601,
          "normalizeEnd": 0.44999998807907104,
          "DGFCLAIDIFI": ""
        },
        {
          "$type": "AttachToNormalizedTimeMixin",
          "stateID": "Chaos_Growth_Loop",
          "modifierName": "Height01",
          "normalizeStart": 0.2590000033378601,
          "normalizeEnd": 0.44999998807907104,
          "DGFCLAIDIFI": ""
        },
        {
          "$type": "AttachToNormalizedTimeMixin",
          "stateID": "Chaos_Growth_AS",
          "modifierName": "Height01",
          "normalizeStart": 0.2590000033378601,
          "normalizeEnd": 0.44999998807907104,
          "DGFCLAIDIFI": ""
        }
      ],
      "modifiers": {
        "Height01": {
          "modifierName": "",
          "elementDurability": 100.0,
          "onAdded": [
            {
              "$type": "SetAnimatorFloat",
              "floatID": "GrowthAnimHeight",
              "value": 0.0
            }
          ]
        }
      }
    }
  },
  {
    "Default": {
      "$type": "ConfigAbility",
      "abilityName": "Monster_Ovacua_Chaos_01_GrowthState",
      "abilityMixins": [
        {
          "$type": "AttachModifierToSelfGlobalValueMixin",
          "globalValueKey": "_MONSTER_OVACUA_CHAOS_GROWTHSTATE",
          "gvInTalk": 0.0,
          "valueSteps": [-0.5, 0.5, 1.5, 2.5],
          "modifierNameSteps": [
            "Ovacua_Chaos_GrowthState_Off",
            "Ovacua_Chaos_GrowthState_On",
            "Ovacua_Chaos_GrowthState_Break"
          ]
        }
      ],
      "abilitySpecials": {
        "GrowthShieldDurability": 100.0
      },
      "modifiers": {
        "Ovacua_Chaos_GrowthState_Off": {
          "modifierName": "",
          "elementDurability": 100.0,
          "onAdded": [
            {
              "$type": "IDNGFEEBPAM",
              "boolID": "Faint"
            },
            {
              "$type": "EnableHitBoxByName",
              "hitBoxNames": ["HitBox_Lockable_Growth"]
            }
          ]
        },
        "Ovacua_Chaos_GrowthState_On": {
          "modifierName": "",
          "elementType": "Grass",
          "elementDurability": "GrowthShieldDurability",
          "modifierMixins": [
            {
              "$type": "ShieldBarMixin",
              "onShieldBroken": [
                {
                  "$type": "TriggerAttackEvent",
                  "attackEvent": {
                    "attackPattern": {
                      "$type": "ConfigAttackBox",
                      "triggerType": "TriggerNoRepeat",
                      "ignoreMassive": true,
                      "born": {
                        "$type": "ConfigBornBySelf",
                        "useRotation": true
                      },
                      "size": {
                        "x": 0.10000000149011612,
                        "y": 0.10000000149011612,
                        "z": 0.10000000149011612
                      }
                    },
                    "attackInfo": {
                      "attackTag": "",
                      "attenuationTag": "",
                      "attenuationGroup": "default",
                      "attackProperty": {
                        "actorGrassSubHurtDelta": 0.0,
                        "actorWindSubHurtDelta": 0.0,
                        "elementDurability": 100.0,
                        "GLKMCMDJBIK": 0.0
                      },
                      "hitPattern": {
                        "onHitEffectName": "none",
                        "hitImpulseY": "",
                        "hitImpulseType": "LV0",
                        "muteHitText": true
                      },
                      "cameraShake": {
                        "shakeType": "CustomVector",
                        "shakeRange": 1.0,
                        "shakeTime": 2.0,
                        "shakeDistance": 35.0,
                        "shakeDir": {
                          "z": 2.0
                        },
                        "extension": {
                          "baseOnCamera": true,
                          "rangeAttenuation": 0.0
                        }
                      }
                    }
                  }
                },
                {
                  "$type": "SetAnimatorTrigger",
                  "triggerID": "GrowthBreakTrigger"
                },
                {
                  "$type": "DLEIPBPNAIM",
                  "paramList": [1, 0, 0]
                },
                {
                  "$type": "SetGlobalValue",
                  "value": 1.0,
                  "key": "_MONSTER_OVACUA_CHAOS_GROWTHSTATE_ALREADYREMOVED_BYSHIELDBROKEN",
                  "maxValue": 0.0,
                  "minValue": 0.0
                },
                {
                  "$type": "SetGlobalValue",
                  "value": 2.0,
                  "key": "_MONSTER_OVACUA_CHAOS_GROWTHSTATE",
                  "maxValue": 0.0,
                  "minValue": 0.0
                }
              ],
              "showDamageText": "",
              "useMutiPlayerFixData": true
            },
            {
              "$type": "CIBMLJJLANN",
              "excludeForces": ["RetreatAirType", "WindZoneType", "RetreatType"]
            }
          ],
          "onAdded": [
            {
              "$type": "IDNGFEEBPAM",
              "boolID": "Faint"
            },
            {
              "$type": "AttachEffect",
              "rotationDampTime": "Eff_Monster_Ovacua_Chaos_MH",
              "PPPDJGDDOGD": 1.0,
              "AJDILHJFNKE": -1.0
            },
            {
              "$type": "SetGlobalValue",
              "value": 0.0,
              "key": "_MONSTER_OVACUA_CHAOS_GROWTHSTATE_REMOVEBYSELF",
              "maxValue": 0.0,
              "minValue": 0.0
            },
            {
              "$type": "SetGlobalValue",
              "value": 0.0,
              "key": "_MONSTER_OVACUA_CHAOS_GROWTHSTATE_REMOVEBYARKHE",
              "maxValue": 0.0,
              "minValue": 0.0
            },
            {
              "$type": "SetGlobalValue",
              "value": 0.0,
              "key": "_MONSTER_OVACUA_CHAOS_GROWTHSTATE_ALREADYREMOVED_BYSHIELDBROKEN",
              "maxValue": 0.0,
              "minValue": 0.0
            },
            {
              "$type": "EnableHitBoxByName",
              "hitBoxNames": ["HitBox_Lockable_Growth"],
              "setEnable": true
            }
          ],
          "onRemoved": [
            {
              "$type": "Predicated",
              "canBeHandledOnRecover": true,
              "targetPredicates": [
                {
                  "$type": "ByTargetGlobalValue",
                  "key": "_MONSTER_OVACUA_CHAOS_GROWTHSTATE_REMOVEBYSELF",
                  "value": 0.0,
                  "compareType": "NoneOrEqual"
                }
              ],
              "successActions": [
                {
                  "$type": "TriggerAttackEvent",
                  "attackEvent": {
                    "attackPattern": {
                      "$type": "ConfigAttackBox",
                      "triggerType": "TriggerNoRepeat",
                      "ignoreMassive": true,
                      "born": {
                        "$type": "ConfigBornBySelf",
                        "useRotation": true
                      },
                      "size": {
                        "x": 0.10000000149011612,
                        "y": 0.10000000149011612,
                        "z": 0.10000000149011612
                      }
                    },
                    "attackInfo": {
                      "attackTag": "",
                      "attenuationTag": "",
                      "attenuationGroup": "default",
                      "attackProperty": {
                        "actorGrassSubHurtDelta": 0.0,
                        "actorWindSubHurtDelta": 0.0,
                        "elementDurability": 100.0,
                        "GLKMCMDJBIK": 0.0
                      },
                      "hitPattern": {
                        "onHitEffectName": "none",
                        "hitImpulseY": "",
                        "hitImpulseType": "LV0",
                        "muteHitText": true
                      },
                      "cameraShake": {
                        "shakeType": "CustomVector",
                        "shakeRange": 1.0,
                        "shakeTime": 2.0,
                        "shakeDistance": 35.0,
                        "shakeDir": {
                          "z": 2.0
                        },
                        "extension": {
                          "baseOnCamera": true,
                          "rangeAttenuation": 0.0
                        }
                      }
                    }
                  }
                },
                {
                  "$type": "SetAnimatorTrigger",
                  "triggerID": "GrowthBreakTrigger"
                },
                {
                  "$type": "DLEIPBPNAIM",
                  "predicates": [
                    {
                      "$type": "ByTargetGlobalValue",
                      "key": "_MONSTER_OVACUA_CHAOS_GROWTHSTATE_REMOVEBYARKHE",
                      "value": 0.0,
                      "compareType": "NoneOrEqual"
                    },
                    {
                      "$type": "ByTargetGlobalValue",
                      "key": "_MONSTER_OVACUA_CHAOS_GROWTHSTATE_ALREADYREMOVED_BYSHIELDBROKEN",
                      "value": 0.0,
                      "compareType": "NoneOrEqual"
                    }
                  ],
                  "paramList": [1, 0, 0]
                },
                {
                  "$type": "SetGlobalValue",
                  "value": 2.0,
                  "key": "_MONSTER_OVACUA_CHAOS_GROWTHSTATE",
                  "maxValue": 0.0,
                  "minValue": 0.0
                }
              ]
            }
          ],
          "onBeingHit": [
            {
              "$type": "Predicated",
              "target": "Target",
              "targetPredicates": [
                {
                  "$type": "ByAny",
                  "predicates": [
                    {
                      "$type": "LBCGJFGOKMP"
                    },
                    {
                      "$type": "LBCGJFGOKMP",
                      "logic": "Lesser"
                    }
                  ]
                }
              ],
              "successActions": [
                {
                  "$type": "HCLAKBJKPLE",
                  "watcherId": 82176,
                  "inThreatListOnly": true
                },
                {
                  "$type": "TriggerAttackEvent",
                  "attackEvent": {
                    "attackPattern": {
                      "$type": "ConfigAttackBox",
                      "triggerType": "TriggerNoRepeat",
                      "ignoreMassive": true,
                      "born": {
                        "$type": "ConfigBornBySelf",
                        "useRotation": true
                      },
                      "size": {
                        "x": 0.10000000149011612,
                        "y": 0.10000000149011612,
                        "z": 0.10000000149011612
                      }
                    },
                    "attackInfo": {
                      "attackTag": "",
                      "attenuationTag": "",
                      "attenuationGroup": "default",
                      "attackProperty": {
                        "actorGrassSubHurtDelta": 0.0,
                        "actorWindSubHurtDelta": 0.0,
                        "elementDurability": 100.0,
                        "GLKMCMDJBIK": 0.0
                      },
                      "hitPattern": {
                        "onHitEffectName": "none",
                        "hitImpulseY": "",
                        "hitImpulseType": "LV0",
                        "muteHitText": true
                      },
                      "cameraShake": {
                        "shakeType": "CustomVector",
                        "shakeRange": 1.0,
                        "shakeTime": 2.0,
                        "shakeDistance": 35.0,
                        "shakeDir": {
                          "z": 2.0
                        },
                        "extension": {
                          "baseOnCamera": true,
                          "rangeAttenuation": 0.0
                        }
                      }
                    }
                  }
                },
                {
                  "$type": "FireEffect",
                  "rotationDampTime": "Eff_Monster_MachinaIustitia_Fusion",
                  "born": {
                    "$type": "ConfigBornByAttachPoint",
                    "useRotation": true,
                    "attachPointName": "Core"
                  },
                  "PPPDJGDDOGD": 1.0,
                  "AJDILHJFNKE": -1.0
                },
                {
                  "$type": "SetAnimatorTrigger",
                  "triggerID": "GrowthBreakTrigger"
                },
                {
                  "$type": "DLEIPBPNAIM",
                  "paramList": [0, 0, 0]
                },
                {
                  "$type": "SetGlobalValue",
                  "value": 1.0,
                  "key": "_MONSTER_OVACUA_CHAOS_GROWTHSTATE_REMOVEBYARKHE",
                  "maxValue": 0.0,
                  "minValue": 0.0
                },
                {
                  "$type": "SetGlobalValue",
                  "value": 2.0,
                  "key": "_MONSTER_OVACUA_CHAOS_GROWTHSTATE",
                  "maxValue": 0.0,
                  "minValue": 0.0
                }
              ]
            }
          ]
        },
        "Ovacua_Chaos_GrowthState_Break": {
          "modifierName": "",
          "elementDurability": 100.0,
          "onAdded": [
            {
              "$type": "IDNGFEEBPAM",
              "boolID": "Faint",
              "value": true
            },
            {
              "$type": "EnableHitBoxByName",
              "hitBoxNames": ["HitBox"]
            },
            {
              "$type": "EnableHitBoxByName",
              "hitBoxNames": ["HitBox_Core"],
              "setEnable": true
            },
            {
              "$type": "EnableHitBoxByName",
              "hitBoxNames": ["HitBox_Lockable_Growth"]
            }
          ],
          "onRemoved": [
            {
              "$type": "EnableHitBoxByName",
              "hitBoxNames": ["HitBox"],
              "setEnable": true
            },
            {
              "$type": "EnableHitBoxByName",
              "hitBoxNames": ["HitBox_Core"]
            }
          ]
        }
      },
      "onAdded": [
        {
          "$type": "EnableHitBoxByName",
          "hitBoxNames": ["HitBox"],
          "setEnable": true
        },
        {
          "$type": "EnableHitBoxByName",
          "hitBoxNames": ["HitBox_Core"]
        },
        {
          "$type": "EnableHitBoxByName",
          "hitBoxNames": ["HitBox_Lockable_Growth"]
        }
      ],
      "onAbilityStart": [
        {
          "$type": "SetGlobalValueToOverrideMap",
          "predicates": [
            {
              "$type": "ByTargetGlobalValue",
              "key": "_MONSTER_OVACUA_GROWTH_ELEMENTDURABILITY",
              "value": 0.0,
              "compareType": "MoreThan"
            }
          ],
          "globalValueKey": "_MONSTER_OVACUA_GROWTH_ELEMENTDURABILITY",
          "overrideMapKey": "GrowthShieldDurability"
        },
        {
          "$type": "SetGlobalValue",
          "value": 1.0,
          "key": "_MONSTER_OVACUA_CHAOS_GROWTHSTATE",
          "maxValue": 0.0,
          "minValue": 0.0
        }
      ]
    }
  },
  {
    "Default": {
      "$type": "ConfigAbility",
      "abilityName": "Monster_Ovacua_Chaos_01_GrowthState_Off",
      "onAbilityStart": [
        {
          "$type": "SetGlobalValue",
          "value": 1.0,
          "key": "_MONSTER_OVACUA_CHAOS_GROWTHSTATE_REMOVEBYSELF",
          "maxValue": 0.0,
          "minValue": 0.0
        },
        {
          "$type": "SetGlobalValue",
          "value": 0.0,
          "key": "_MONSTER_OVACUA_CHAOS_GROWTHSTATE",
          "maxValue": 0.0,
          "minValue": 0.0
        }
      ]
    }
  },
  {
    "Default": {
      "$type": "ConfigAbility",
      "abilityName": "Monster_Ovacua_Chaos_01_Growth_Bullet",
      "onAbilityStart": [
        {
          "$type": "FireSubEmitterEffect",
          "rotationDampTime": "Eff_Monster_Ovacua_Chaos_Growth_Bullet_Hit",
          "born": {
            "$type": "ConfigBornByCollisionPoint"
          }
        },
        {
          "$type": "TriggerAttackEvent",
          "attackEvent": {
            "attackPattern": {
              "$type": "ConfigAttackSphere",
              "triggerType": "TriggerNoRepeat",
              "born": {
                "$type": "ConfigBornByCollisionPoint"
              },
              "radius": 1.5
            },
            "attackInfo": {
              "attackTag": "Ovacua_Chaos_GrowthBullet",
              "attenuationTag": "Ovacua_Chaos_GrowthBullet",
              "attenuationGroup": "Ovacua_Chaos_GrowthBullet",
              "attackProperty": {
                "actorGrassSubHurtDelta": 0.75,
                "actorWindSubHurtDelta": 0.0,
                "elementType": "Grass",
                "elementDurability": 100.0,
                "strikeType": "Blunt",
                "enBreak": 25.0,
                "attackType": "Range",
                "GLKMCMDJBIK": 0.0
              },
              "hitPattern": {
                "onHitEffectName": "default",
                "hitImpulseY": "",
                "hitImpulseType": "LV3",
                "hitHaltTimeScale": 0.05000000074505806
              }
            }
          },
          "targetType": "Enemy"
        }
      ]
    }
  },
  {
    "Default": {
      "$type": "ConfigAbility",
      "abilityName": "Monster_Ovacua_Chaos_02_Growth_Bullet",
      "onAbilityStart": [
        {
          "$type": "FireSubEmitterEffect",
          "rotationDampTime": "Eff_Monster_Ovacua_Chaos_02_Growth_Bullet_Hit",
          "born": {
            "$type": "ConfigBornByCollisionPoint"
          }
        },
        {
          "$type": "TriggerAttackEvent",
          "attackEvent": {
            "attackPattern": {
              "$type": "ConfigAttackSphere",
              "triggerType": "TriggerNoRepeat",
              "born": {
                "$type": "ConfigBornByCollisionPoint"
              },
              "radius": 0.75
            },
            "attackInfo": {
              "attackTag": "Ovacua_Chaos_GrowthBullet",
              "attenuationTag": "Ovacua_Chaos_GrowthBullet",
              "attenuationGroup": "Ovacua_Chaos_GrowthBullet",
              "attackProperty": {
                "actorGrassSubHurtDelta": 0.75,
                "actorWindSubHurtDelta": 0.0,
                "elementType": "Grass",
                "elementDurability": 100.0,
                "strikeType": "Blunt",
                "enBreak": 25.0,
                "attackType": "Range",
                "GLKMCMDJBIK": 0.0
              },
              "hitPattern": {
                "onHitEffectName": "default",
                "hitImpulseY": "",
                "hitImpulseType": "LV3",
                "hitHaltTimeScale": 0.05000000074505806
              }
            }
          },
          "targetType": "Enemy"
        }
      ]
    }
  }
]
