[
  {
    "Default": {
      "$type": "ConfigAbility",
      "abilityName": "Monster_Hilistray_Wind_Steer",
      "abilityMixins": [
        {
          "$type": "IILHMBGONGM",
          "steerStateIDs": ["Turn"],
          "endNormalizedTime": 999.0,
          "angularSpeed": 120.0,
          "attackTrigger": "",
          "DGFCLAIDIFI": ""
        },
        {
          "$type": "IILHMBGONGM",
          "steerStateIDs": ["NormalAtk01"],
          "startNormalizedTime": 0.0989999994635582,
          "endNormalizedTime": 0.13899999856948853,
          "angularSpeed": 180.0,
          "attackTrigger": "",
          "DGFCLAIDIFI": ""
        },
        {
          "$type": "IILHMBGONGM",
          "steerStateIDs": ["Syuriken02"],
          "startNormalizedTime": 0.1120000034570694,
          "endNormalizedTime": 0.18700000643730164,
          "angularSpeed": 180.0,
          "attackTrigger": "",
          "DGFCLAIDIFI": ""
        },
        {
          "$type": "IILHMBGONGM",
          "steerStateIDs": ["Syuriken02"],
          "startNormalizedTime": 0.06300000101327896,
          "endNormalizedTime": 0.10599999874830246,
          "angularSpeed": 270.0,
          "attackTrigger": "",
          "DGFCLAIDIFI": ""
        },
        {
          "$type": "IILHMBGONGM",
          "steerStateIDs": ["Syuriken02"],
          "startNormalizedTime": 0.3580000102519989,
          "endNormalizedTime": 0.3840000033378601,
          "angularSpeed": 270.0,
          "attackTrigger": "",
          "DGFCLAIDIFI": ""
        },
        {
          "$type": "IILHMBGONGM",
          "steerStateIDs": ["SpecialAtk_JumpUp"],
          "startNormalizedTime": 0.19599999487400055,
          "endNormalizedTime": 0.3089999854564667,
          "angularSpeed": 360.0,
          "attackTrigger": "",
          "DGFCLAIDIFI": ""
        }
      ]
    }
  },
  {
    "Default": {
      "$type": "ConfigAbility",
      "abilityName": "Monster_Hilistray_Wind_ExitBattle",
      "abilityMixins": [
        {
          "$type": "AOKOIIHJJPJ",
          "alertness": [2],
          "modifierName": "ExitBattle"
        },
        {
          "$type": "LEOGLBFIELL",
          "poseIDs": [905],
          "modifierName": "ExitBattle_AnimatorHandler"
        }
      ],
      "modifiers": {
        "ExitBattle": {
          "modifierName": "",
          "elementDurability": 100.0
        },
        "ExitBattle_AnimatorHandler": {
          "modifierName": "",
          "elementDurability": 100.0,
          "onAdded": [
            {
              "$type": "SetAnimatorTrigger",
              "canBeHandledOnRecover": true,
              "triggerID": "ReturnToBornTrigger"
            }
          ],
          "onRemoved": [
            {
              "$type": "ResetAnimatorTrigger",
              "canBeHandledOnRecover": true,
              "triggerID": "ReturnToBornTrigger"
            }
          ]
        }
      }
    }
  },
  {
    "Default": {
      "$type": "ConfigAbility",
      "abilityName": "Monster_Hilistray_Wind_Alert",
      "onAbilityStart": [
        {
          "$type": "IDNGFEEBPAM",
          "boolID": "Box"
        },
        {
          "$type": "IDNGFEEBPAM",
          "boolID": "Sit"
        },
        {
          "$type": "IDNGFEEBPAM",
          "boolID": "Teach"
        },
        {
          "$type": "IDNGFEEBPAM",
          "boolID": "JumpAlert"
        },
        {
          "$type": "IDNGFEEBPAM",
          "boolID": "JumpForwardAlert"
        }
      ]
    }
  },
  {
    "Default": {
      "$type": "ConfigAbility",
      "abilityName": "Monster_Hilistray_Wind_NormalAtk01",
      "abilityMixins": [
        {
          "$type": "AttachToStateIDMixin",
          "stateIDs": ["NormalAtk01"],
          "modifierName": "Hilistray_Wind_NormalAtk01_TriggerHandler",
          "DGFCLAIDIFI": ""
        }
      ],
      "modifiers": {
        "Hilistray_Wind_NormalAtk01_ComboDetect": {
          "modifierName": "",
          "duration": 1.0,
          "elementDurability": 100.0,
          "thinkInterval": 0.10000000149011612,
          "onAdded": [
            {
              "$type": "Predicated",
              "target": "SelfAttackTarget",
              "targetPredicates": [
                {
                  "$type": "ByTargetPositionToSelfPosition",
                  "logic": "Lesser",
                  "value": 8.5,
                  "DDALGNLEHOD": ""
                },
                {
                  "$type": "NDOONLLEPBJ",
                  "logic": "Lesser",
                  "value": 110.0,
                  "namedTransform": ""
                }
              ],
              "successActions": [
                {
                  "$type": "SetAnimatorTrigger",
                  "triggerID": "NormalAtkCombo"
                }
              ]
            }
          ],
          "onRemoved": [
            {
              "$type": "ResetAnimatorTrigger",
              "triggerID": "NormalAtkCombo"
            }
          ],
          "onThinkInterval": [
            {
              "$type": "Predicated",
              "target": "SelfAttackTarget",
              "targetPredicates": [
                {
                  "$type": "ByTargetPositionToSelfPosition",
                  "logic": "Lesser",
                  "value": 8.5,
                  "DDALGNLEHOD": ""
                },
                {
                  "$type": "NDOONLLEPBJ",
                  "logic": "Lesser",
                  "value": 110.0,
                  "namedTransform": ""
                }
              ],
              "successActions": [
                {
                  "$type": "SetAnimatorTrigger",
                  "triggerID": "NormalAtkCombo"
                }
              ]
            }
          ]
        },
        "Hilistray_Wind_NormalAtk01_TriggerHandler": {
          "modifierName": "",
          "elementDurability": 100.0,
          "onAdded": [
            {
              "$type": "ResetAnimatorTrigger",
              "triggerID": "NormalAtkCombo"
            }
          ]
        }
      },
      "onAbilityStart": [
        {
          "$type": "ApplyModifier",
          "modifierName": "Hilistray_Wind_NormalAtk01_ComboDetect"
        }
      ]
    }
  },
  {
    "Default": {
      "$type": "ConfigAbility",
      "abilityName": "Monster_Hilistray_Wind_NormalAtk01_RushMove",
      "abilityMixins": [
        {
          "$type": "AttachToStateIDMixin",
          "stateIDs": ["NormalAtk01"],
          "modifierName": "Hilistray_Wind_NormalAtk01_RushMove_Handler",
          "DGFCLAIDIFI": ""
        }
      ],
      "modifiers": {
        "Hilistray_Wind_NormalAtk01_RushMove": {
          "modifierName": "",
          "elementDurability": 100.0,
          "onAdded": [
            {
              "$type": "PAGFCBCKEBH",
              "toPos": {
                "$type": "ConfigBornBySelf",
                "offset": {
                  "x": 0.0,
                  "y": 0.0,
                  "z": 1.5
                },
                "onGround": true,
                "useRotation": true
              },
              "NKPCHMCNNOK": 0.25,
              "animatorStateIDs": ["NormalAtk01"],
              "overrideMoveCollider": ""
            }
          ]
        },
        "Hilistray_Wind_NormalAtk01_RushMove_Handler": {
          "modifierName": "",
          "elementDurability": 100.0,
          "onRemoved": [
            {
              "$type": "RemoveModifier",
              "modifierName": "Hilistray_Wind_NormalAtk01_RushMove"
            }
          ]
        }
      },
      "onAbilityStart": [
        {
          "$type": "ApplyModifier",
          "modifierName": "Hilistray_Wind_NormalAtk01_RushMove"
        }
      ]
    }
  },
  {
    "Default": {
      "$type": "ConfigAbility",
      "abilityName": "Monster_Hilistray_Wind_NormalAtk02_RushMove",
      "abilityMixins": [
        {
          "$type": "AttachToStateIDMixin",
          "stateIDs": ["NormalAtk02"],
          "modifierName": "Hilistray_Wind_NormalAtk02_RushMove_Handler",
          "DGFCLAIDIFI": ""
        }
      ],
      "modifiers": {
        "Hilistray_Wind_NormalAtk02_RushMove": {
          "modifierName": "",
          "elementDurability": 100.0,
          "onAdded": [
            {
              "$type": "PAGFCBCKEBH",
              "toPos": {
                "$type": "ConfigBornBySelf",
                "offset": {
                  "x": 0.0,
                  "y": 0.0,
                  "z": 2.5
                },
                "onGround": true,
                "useRotation": true
              },
              "NKPCHMCNNOK": 0.15000000596046448,
              "animatorStateIDs": ["NormalAtk02"],
              "overrideMoveCollider": ""
            }
          ]
        },
        "Hilistray_Wind_NormalAtk02_RushMove_Handler": {
          "modifierName": "",
          "elementDurability": 100.0,
          "onRemoved": [
            {
              "$type": "RemoveModifier",
              "modifierName": "Hilistray_Wind_NormalAtk02_RushMove"
            }
          ]
        }
      },
      "onAbilityStart": [
        {
          "$type": "ApplyModifier",
          "modifierName": "Hilistray_Wind_NormalAtk02_RushMove"
        }
      ]
    }
  },
  {
    "Default": {
      "$type": "ConfigAbility",
      "abilityName": "Monster_Hilistray_Wind_Syuriken01",
      "abilityMixins": [
        {
          "$type": "AttachToStateIDMixin",
          "stateIDs": ["Syuriken01"],
          "modifierName": "Hilistray_Wind_Syuriken01_KillBullet",
          "DGFCLAIDIFI": ""
        }
      ],
      "modifiers": {
        "Hilistray_Wind_Syuriken01_KillBullet": {
          "modifierName": "",
          "elementDurability": 100.0,
          "onAdded": [
            {
              "$type": "SetGlobalValue",
              "value": 0.0,
              "key": "_HILISTRAY_WIND_SYURIKEN_FOLLOWBULLET_",
              "maxValue": 0.0,
              "minValue": 0.0
            }
          ],
          "onRemoved": [
            {
              "$type": "SetGlobalValue",
              "value": 1.0,
              "key": "_HILISTRAY_WIND_SYURIKEN_FOLLOWBULLET_",
              "maxValue": 0.0,
              "minValue": 0.0
            }
          ]
        }
      },
      "onAdded": [
        {
          "$type": "SetGlobalValue",
          "value": 0.0,
          "key": "_HILISTRAY_WIND_SYURIKEN_FOLLOWBULLET_",
          "maxValue": 0.0,
          "minValue": 0.0
        }
      ],
      "onAbilityStart": [
        {
          "$type": "FireEffect",
          "rotationDampTime": "Eff_Monster_Hilistray_Wind_Syuriken01_SyurikenBullet_AS",
          "born": {
            "$type": "ConfigBornByAttachPoint",
            "offset": {
              "x": 0.0,
              "y": 0.0,
              "z": 0.0
            },
            "useRotation": true,
            "attachPointName": "RootNode"
          },
          "PPPDJGDDOGD": 1.0,
          "AJDILHJFNKE": -1.0
        },
        {
          "$type": "SetGlobalValue",
          "value": 1.0,
          "key": "_HILISTRAY_WIND_SYURIKEN_FOLLOWBULLET_",
          "maxValue": 0.0,
          "minValue": 0.0
        }
      ]
    }
  },
  {
    "Default": {
      "$type": "ConfigAbility",
      "abilityName": "Monster_Hilistray_Wind_Syuriken01_Bullet",
      "onAbilityStart": [
        {
          "$type": "TriggerBullet",
          "bulletID": 42104005,
          "born": {
            "$type": "ConfigBornByAttachPoint",
            "offset": {
              "x": 0.0,
              "y": 0.0,
              "z": 0.0
            },
            "useRotation": true,
            "attachPointName": "SyurikenBulletPoint"
          },
          "trackTarget": "Self",
          "lifeByOwnerV2": true
        }
      ]
    }
  },
  {
    "Default": {
      "$type": "ConfigAbility",
      "abilityName": "Hilistray_Wind_Syuriken01_Bullet",
      "abilityMixins": [
        {
          "$type": "AttachModifierToGlobalValueMixin",
          "globalValueTarget": "Owner",
          "globalValueKey": "_HILISTRAY_WIND_SYURIKEN_FOLLOWBULLET_",
          "valueSteps": [-0.5, 0.5, 1.5],
          "modifierNameSteps": [
            "Blank",
            "Hilistray_Wind_Syuriken01_Bullet_Kill"
          ]
        }
      ],
      "modifiers": {
        "Hilistray_Wind_Syuriken01_Bullet_Kill": {
          "modifierName": "",
          "elementDurability": 100.0,
          "onAdded": [
            {
              "$type": "KillSelf"
            }
          ]
        },
        "Hilistray_Wind_Syuriken01_Bullet_Effect": {
          "modifierName": "",
          "elementDurability": 100.0,
          "onAdded": [
            {
              "$type": "FireEffect",
              "rotationDampTime": "Eff_Monster_Hilistray_Wind_Syuriken01_SyurikenBullet_BS",
              "PPPDJGDDOGD": 1.0,
              "AJDILHJFNKE": -1.0
            },
            {
              "$type": "AttachEffect",
              "rotationDampTime": "Eff_Monster_Hilistray_Wind_Syuriken01_SyurikenBullet_Loop",
              "PPPDJGDDOGD": 1.0,
              "AJDILHJFNKE": -1.0
            }
          ]
        },
        "Hilistray_Wind_Syuriken01_Bullet_Move_Handler": {
          "stacking": "Unique",
          "modifierName": "",
          "elementDurability": 100.0,
          "onAdded": [
            {
              "$type": "ApplyModifier",
              "modifierName": "Bullet_Move_Angle_Handler_Liner"
            },
            {
              "$type": "ApplyModifier",
              "modifierName": "Bullet_Move_Angle_Delay_Turn1"
            },
            {
              "$type": "ApplyModifier",
              "modifierName": "Bullet_Move_Angle_Delay_Turn2"
            },
            {
              "$type": "ApplyModifier",
              "modifierName": "Bullet_Move_Angle_Delay_Back"
            }
          ]
        },
        "Bullet_Move_Angle_Handler_Liner": {
          "modifierName": "",
          "duration": 0.5,
          "elementDurability": 100.0,
          "properties": {
            "Actor_BulletMoveAngularVelocityRatio": 0.009999999776482582
          }
        },
        "Bullet_Move_Angle_Delay_Turn1": {
          "modifierName": "",
          "duration": 0.4000000059604645,
          "elementDurability": 100.0,
          "onRemoved": [
            {
              "$type": "ApplyModifier",
              "modifierName": "Bullet_Move_Angle_Handler_Turn1"
            }
          ]
        },
        "Bullet_Move_Angle_Handler_Turn1": {
          "modifierName": "",
          "duration": 0.25,
          "elementDurability": 100.0,
          "thinkInterval": 0.10000000149011612,
          "onAdded": [
            {
              "$type": "ApplyModifier",
              "modifierName": "Bullet_Move_AngleUp_Turn1"
            }
          ],
          "onThinkInterval": [
            {
              "$type": "ApplyModifier",
              "modifierName": "Bullet_Move_AngleUp_Turn1"
            }
          ]
        },
        "Bullet_Move_AngleUp_Turn1": {
          "stacking": "Multiple",
          "modifierName": "",
          "elementDurability": 100.0,
          "properties": {
            "Actor_BulletMoveAngularVelocityRatio": 1.399999976158142
          }
        },
        "Bullet_Move_Angle_Delay_Turn2": {
          "modifierName": "",
          "duration": 1.0,
          "elementDurability": 100.0,
          "onRemoved": [
            {
              "$type": "ApplyModifier",
              "modifierName": "Bullet_Move_Angle_Handler_Turn2"
            }
          ]
        },
        "Bullet_Move_Angle_Handler_Turn2": {
          "modifierName": "",
          "duration": 0.25,
          "elementDurability": 100.0,
          "thinkInterval": 0.10000000149011612,
          "onAdded": [
            {
              "$type": "ApplyModifier",
              "modifierName": "Bullet_Move_AngleUp_Turn2"
            }
          ],
          "onThinkInterval": [
            {
              "$type": "ApplyModifier",
              "modifierName": "Bullet_Move_AngleUp_Turn2"
            }
          ]
        },
        "Bullet_Move_AngleUp_Turn2": {
          "stacking": "Multiple",
          "modifierName": "",
          "elementDurability": 100.0,
          "properties": {
            "Actor_BulletMoveAngularVelocityRatio": 0.699999988079071
          }
        },
        "Bullet_Move_Angle_Delay_Back": {
          "modifierName": "",
          "duration": 0.8999999761581421,
          "elementDurability": 100.0,
          "onRemoved": [
            {
              "$type": "ApplyModifier",
              "modifierName": "Bullet_Move_Angle_Handler_Back"
            }
          ]
        },
        "Bullet_Move_Angle_Handler_Back": {
          "modifierName": "",
          "elementDurability": 100.0,
          "thinkInterval": 0.20000000298023224,
          "onThinkInterval": [
            {
              "$type": "ApplyModifier",
              "modifierName": "Bullet_Move_AngleUp_Back"
            }
          ]
        },
        "Bullet_Move_AngleUp_Back": {
          "stacking": "Multiple",
          "modifierName": "",
          "elementDurability": 100.0,
          "properties": {
            "Actor_BulletMoveAngularVelocityRatio": 0.5
          }
        },
        "Bullet_Move_Speed_Handler_Pt1": {
          "modifierName": "",
          "duration": 1.7000000476837158,
          "elementDurability": 100.0,
          "thinkInterval": 0.30000001192092896,
          "onAdded": [
            {
              "$type": "SetGlobalValue",
              "value": 0.0,
              "key": "_HILISTRAY_SYURIKEN_BULLET_MARK_",
              "maxValue": 0.0,
              "minValue": 0.0
            }
          ],
          "onThinkInterval": [
            {
              "$type": "ApplyModifier",
              "predicates": [
                {
                  "$type": "ByTargetGlobalValue",
                  "key": "_HILISTRAY_SYURIKEN_BULLET_MARK_",
                  "value": 0.0
                }
              ],
              "modifierName": "Bullet_Move_SpeedDown_Pt1_1"
            },
            {
              "$type": "ApplyModifier",
              "predicates": [
                {
                  "$type": "ByTargetGlobalValue",
                  "key": "_HILISTRAY_SYURIKEN_BULLET_MARK_",
                  "value": 1.0
                }
              ],
              "modifierName": "Bullet_Move_SpeedDown_Pt1_2"
            },
            {
              "$type": "ApplyModifier",
              "predicates": [
                {
                  "$type": "ByTargetGlobalValue",
                  "key": "_HILISTRAY_SYURIKEN_BULLET_MARK_",
                  "value": 2.0
                }
              ],
              "modifierName": "Bullet_Move_SpeedDown_Pt1_3"
            },
            {
              "$type": "ApplyModifier",
              "predicates": [
                {
                  "$type": "ByTargetGlobalValue",
                  "key": "_HILISTRAY_SYURIKEN_BULLET_MARK_",
                  "value": 3.0
                }
              ],
              "modifierName": "Bullet_Move_SpeedDown_Pt1_4"
            },
            {
              "$type": "AddGlobalValue",
              "value": 1.0,
              "key": "_HILISTRAY_SYURIKEN_BULLET_MARK_",
              "useLimitRange": true,
              "maxValue": 4.0,
              "minValue": 0.0
            }
          ],
          "onThinkIntervalIsFixedUpdate": true
        },
        "Bullet_Move_SpeedDown_Pt1_1": {
          "modifierName": "",
          "duration": 0.5,
          "elementDurability": 100.0,
          "properties": {
            "Animator_OverallSpeedRatioMultiplied": 0.800000011920929
          }
        },
        "Bullet_Move_SpeedDown_Pt1_2": {
          "modifierName": "",
          "duration": 0.699999988079071,
          "elementDurability": 100.0,
          "properties": {
            "Animator_OverallSpeedRatioMultiplied": 0.4000000059604645
          }
        },
        "Bullet_Move_SpeedDown_Pt1_3": {
          "modifierName": "",
          "duration": 0.699999988079071,
          "elementDurability": 100.0,
          "properties": {
            "Animator_OverallSpeedRatioMultiplied": 0.4000000059604645
          }
        },
        "Bullet_Move_SpeedDown_Pt1_4": {
          "modifierName": "",
          "duration": 0.6000000238418579,
          "elementDurability": 100.0,
          "properties": {
            "Animator_OverallSpeedRatioMultiplied": 0.699999988079071
          },
          "onRemoved": [
            {
              "$type": "ApplyModifier",
              "modifierName": "Bullet_Move_Speed_Handler_Pt2"
            }
          ]
        },
        "Bullet_Move_Speed_Handler_Pt2": {
          "modifierName": "",
          "elementDurability": 100.0,
          "thinkInterval": 0.25,
          "onThinkInterval": [
            {
              "$type": "ApplyModifier",
              "modifierName": "Bullet_Move_SpeedUp_Pt2"
            }
          ]
        },
        "Bullet_Move_SpeedUp_Pt2": {
          "stacking": "Multiple",
          "modifierName": "",
          "elementDurability": 100.0,
          "properties": {
            "Animator_OverallSpeedRatioMultiplied": 0.8999999761581421
          }
        },
        "Blank": {
          "modifierName": "",
          "elementDurability": 100.0
        }
      },
      "onAdded": [
        {
          "$type": "AttachModifier",
          "modifierName": "Hilistray_Wind_Syuriken01_Bullet_Effect"
        },
        {
          "$type": "ApplyModifier",
          "modifierName": "Hilistray_Wind_Syuriken01_Bullet_Move_Handler"
        },
        {
          "$type": "TriggerAttackEvent",
          "attackEvent": {
            "attackPattern": {
              "$type": "ConfigAttackSphere",
              "triggerType": "TriggerNoRepeat",
              "born": {
                "$type": "ConfigBornBySelf",
                "offset": {
                  "x": 0.0,
                  "y": 0.0,
                  "z": -1.2999999523162842
                },
                "useRotation": true
              },
              "radius": 1.399999976158142
            },
            "attackInfo": {
              "attackTag": "",
              "attenuationTag": "Hilistray_Wind_Syuriken01",
              "attenuationGroup": "Hilistray_Wind_Syuriken01",
              "attackProperty": {
                "actorGrassSubHurtDelta": 0.8500000238418579,
                "actorWindSubHurtDelta": 0.0,
                "elementType": "Wind",
                "elementDurability": 25.0,
                "strikeType": "Blunt",
                "enBreak": 100.0,
                "GLKMCMDJBIK": 0.0
              },
              "hitPattern": {
                "onHitEffectName": "default",
                "hitImpulseY": "",
                "hitImpulseType": "LV3",
                "hitHaltTimeScale": 0.009999999776482582
              },
              "canBeModifiedBy": "OriginOwner"
            }
          },
          "targetType": "Enemy"
        }
      ],
      "onAbilityStart": [
        {
          "$type": "TriggerAttackEvent",
          "attackEvent": {
            "attackPattern": {
              "$type": "ConfigAttackSphere",
              "triggerType": "TriggerNoRepeat",
              "born": {
                "$type": "ConfigBornByCollisionPoint"
              },
              "radius": 1.0
            },
            "attackInfo": {
              "attackTag": "",
              "attenuationTag": "Hilistray_Wind_Syuriken01",
              "attenuationGroup": "Hilistray_Wind_Syuriken01",
              "attackProperty": {
                "actorGrassSubHurtDelta": 0.8500000238418579,
                "actorWindSubHurtDelta": 0.0,
                "elementType": "Wind",
                "elementDurability": 25.0,
                "strikeType": "Blunt",
                "enBreak": 100.0,
                "GLKMCMDJBIK": 0.0
              },
              "hitPattern": {
                "onHitEffectName": "default",
                "hitImpulseY": "",
                "hitImpulseType": "LV3",
                "hitHaltTimeScale": 0.009999999776482582
              },
              "canBeModifiedBy": "OriginOwner"
            }
          },
          "targetType": "Enemy"
        }
      ]
    }
  },
  {
    "Default": {
      "$type": "ConfigAbility",
      "abilityName": "Monster_Hilistray_Wind_Syuriken02_SmallBullet",
      "onAbilityStart": [
        {
          "$type": "TriggerBullet",
          "bulletID": 42104006,
          "born": {
            "$type": "ConfigBornByAttachPoint",
            "offset": {
              "x": 0.0,
              "y": 0.0,
              "z": 0.0
            },
            "direction": {
              "$type": "ConfigDirectionByAttackTarget",
              "maxAngle": 30.0,
              "startPoint": ""
            },
            "useRotation": true,
            "attachPointName": "SyurikenBulletPoint2"
          }
        }
      ]
    }
  },
  {
    "Default": {
      "$type": "ConfigAbility",
      "abilityName": "Monster_Hilistray_Wind_Syuriken02_BigBullet",
      "onAbilityStart": [
        {
          "$type": "TriggerBullet",
          "bulletID": 42104007,
          "born": {
            "$type": "ConfigBornByAttachPoint",
            "offset": {
              "x": 0.0,
              "y": 0.0,
              "z": 0.0
            },
            "direction": {
              "$type": "ConfigDirectionByAttackTarget",
              "maxAngle": 30.0,
              "startPoint": ""
            },
            "useRotation": true,
            "attachPointName": "SyurikenBulletPoint2"
          }
        }
      ]
    }
  },
  {
    "Default": {
      "$type": "ConfigAbility",
      "abilityName": "Hilistray_Wind_Syuriken02_SmallBullet",
      "modifiers": {
        "SmallBullet_Effect": {
          "modifierName": "",
          "elementDurability": 100.0,
          "onAdded": [
            {
              "$type": "AttachEffect",
              "rotationDampTime": "Eff_Monster_Hilistray_Wind_Syuriken02_Bullet01_Loop",
              "PPPDJGDDOGD": 1.0,
              "AJDILHJFNKE": -1.0
            }
          ]
        }
      },
      "onAdded": [
        {
          "$type": "ApplyModifier",
          "modifierName": "SmallBullet_Effect"
        }
      ],
      "onAbilityStart": [
        {
          "$type": "TriggerAttackEvent",
          "attackEvent": {
            "attackPattern": {
              "$type": "ConfigAttackSphere",
              "triggerType": "TriggerNoRepeat",
              "born": {
                "$type": "ConfigBornByCollisionPoint"
              },
              "radius": 0.800000011920929
            },
            "attackInfo": {
              "attackTag": "",
              "attenuationTag": "",
              "attenuationGroup": "default",
              "attackProperty": {
                "actorGrassSubHurtDelta": 0.6000000238418579,
                "actorWindSubHurtDelta": 0.0,
                "elementType": "Wind",
                "elementDurability": 25.0,
                "strikeType": "Slash",
                "enBreak": 20.0,
                "attackType": "Range",
                "GLKMCMDJBIK": 0.0
              },
              "hitPattern": {
                "onHitEffectName": "default",
                "hitImpulseY": "",
                "hitImpulseType": "LV2",
                "retreatType": "ByHitDirection",
                "hitHaltTimeScale": 0.05000000074505806
              },
              "canBeModifiedBy": "OriginOwner"
            }
          },
          "targetType": "Enemy"
        },
        {
          "$type": "RemoveModifier",
          "modifierName": "SmallBullet_Effect"
        },
        {
          "$type": "FireEffect",
          "rotationDampTime": "Eff_Monster_Hilistray_Wind_Syuriken02_Bullet01_AS",
          "born": {
            "$type": "ConfigBornByCollisionPoint"
          },
          "PPPDJGDDOGD": 1.0,
          "AJDILHJFNKE": -1.0
        },
        {
          "$type": "KillSelf"
        }
      ],
      "onKill": [
        {
          "$type": "RemoveModifier",
          "modifierName": "SmallBullet_Effect"
        }
      ]
    }
  },
  {
    "Default": {
      "$type": "ConfigAbility",
      "abilityName": "Hilistray_Wind_Syuriken02_SmallBullet_LifeOver",
      "onAbilityStart": [
        {
          "$type": "TriggerAttackEvent",
          "attackEvent": {
            "attackPattern": {
              "$type": "ConfigAttackSphere",
              "triggerType": "TriggerNoRepeat",
              "born": {
                "$type": "ConfigBornBySelf",
                "useRotation": true
              },
              "radius": 0.800000011920929
            },
            "attackInfo": {
              "attackTag": "",
              "attenuationTag": "",
              "attenuationGroup": "default",
              "attackProperty": {
                "actorGrassSubHurtDelta": 0.6000000238418579,
                "actorWindSubHurtDelta": 0.0,
                "elementType": "Wind",
                "elementDurability": 25.0,
                "strikeType": "Default",
                "enBreak": 20.0,
                "attackType": "Range",
                "GLKMCMDJBIK": 0.0
              },
              "hitPattern": {
                "onHitEffectName": "none",
                "hitImpulseY": "",
                "hitImpulseType": "LV2",
                "retreatType": "ByHitDirection",
                "hitHaltTimeScale": 0.05000000074505806
              },
              "canBeModifiedBy": "OriginOwner"
            }
          },
          "targetType": "Enemy"
        },
        {
          "$type": "FireEffect",
          "rotationDampTime": "Eff_Monster_Hilistray_Wind_Syuriken02_Bullet01_AS",
          "born": {
            "$type": "ConfigBornBySelf",
            "useRotation": true
          },
          "PPPDJGDDOGD": 1.0,
          "AJDILHJFNKE": -1.0
        },
        {
          "$type": "KillSelf"
        }
      ]
    }
  },
  {
    "Default": {
      "$type": "ConfigAbility",
      "abilityName": "Hilistray_Wind_Syuriken02_BigBullet",
      "modifiers": {
        "BigBullet_Effect": {
          "modifierName": "",
          "elementDurability": 100.0,
          "onAdded": [
            {
              "$type": "AttachEffect",
              "rotationDampTime": "Eff_Monster_Hilistray_Wind_Syuriken02_Bullet02_Loop",
              "PPPDJGDDOGD": 1.0,
              "AJDILHJFNKE": -1.0
            }
          ]
        }
      },
      "onAdded": [
        {
          "$type": "ApplyModifier",
          "modifierName": "BigBullet_Effect"
        }
      ],
      "onAbilityStart": [
        {
          "$type": "TriggerAttackEvent",
          "attackEvent": {
            "attackPattern": {
              "$type": "ConfigAttackSphere",
              "triggerType": "TriggerNoRepeat",
              "born": {
                "$type": "ConfigBornByCollisionPoint"
              },
              "radius": 1.2000000476837158
            },
            "attackInfo": {
              "attackTag": "",
              "attenuationTag": "",
              "attenuationGroup": "default",
              "attackProperty": {
                "actorGrassSubHurtDelta": 0.8500000238418579,
                "actorWindSubHurtDelta": 0.0,
                "elementType": "Wind",
                "elementDurability": 50.0,
                "strikeType": "Slash",
                "enBreak": 100.0,
                "attackType": "Range",
                "GLKMCMDJBIK": 0.0
              },
              "hitPattern": {
                "onHitEffectName": "default",
                "hitImpulseY": "",
                "hitImpulseType": "LV3",
                "retreatType": "ByHitDirection",
                "hitHaltTimeScale": 0.05000000074505806
              },
              "canBeModifiedBy": "OriginOwner"
            }
          },
          "targetType": "Enemy"
        },
        {
          "$type": "RemoveModifier",
          "modifierName": "BigBullet_Effect"
        },
        {
          "$type": "FireEffect",
          "rotationDampTime": "Eff_Monster_Hilistray_Wind_Syuriken02_Bullet02_AS",
          "born": {
            "$type": "ConfigBornByCollisionPoint"
          },
          "PPPDJGDDOGD": 1.0,
          "AJDILHJFNKE": -1.0
        },
        {
          "$type": "KillSelf"
        }
      ],
      "onKill": [
        {
          "$type": "RemoveModifier",
          "modifierName": "BigBullet_Effect"
        }
      ]
    }
  },
  {
    "Default": {
      "$type": "ConfigAbility",
      "abilityName": "Hilistray_Wind_Syuriken02_BigBullet_LifeOver",
      "onAbilityStart": [
        {
          "$type": "TriggerAttackEvent",
          "attackEvent": {
            "attackPattern": {
              "$type": "ConfigAttackSphere",
              "triggerType": "TriggerNoRepeat",
              "born": {
                "$type": "ConfigBornBySelf",
                "useRotation": true
              },
              "radius": 1.2000000476837158
            },
            "attackInfo": {
              "attackTag": "",
              "attenuationTag": "",
              "attenuationGroup": "default",
              "attackProperty": {
                "actorGrassSubHurtDelta": 0.8500000238418579,
                "actorWindSubHurtDelta": 0.0,
                "elementType": "Wind",
                "elementDurability": 50.0,
                "strikeType": "Default",
                "enBreak": 100.0,
                "attackType": "Range",
                "GLKMCMDJBIK": 0.0
              },
              "hitPattern": {
                "onHitEffectName": "none",
                "hitImpulseY": "",
                "hitImpulseType": "LV3",
                "retreatType": "ByHitDirection",
                "hitHaltTimeScale": 0.05000000074505806
              },
              "canBeModifiedBy": "OriginOwner"
            }
          },
          "targetType": "Enemy"
        },
        {
          "$type": "FireEffect",
          "rotationDampTime": "Eff_Monster_Hilistray_Wind_Syuriken02_Bullet02_AS",
          "born": {
            "$type": "ConfigBornBySelf",
            "useRotation": true
          },
          "PPPDJGDDOGD": 1.0,
          "AJDILHJFNKE": -1.0
        },
        {
          "$type": "KillSelf"
        }
      ]
    }
  },
  {
    "Default": {
      "$type": "ConfigAbility",
      "abilityName": "Monster_Hilistray_Wind_SpecialAtk_AirState",
      "abilityMixins": [
        {
          "$type": "AttachToStateIDMixin",
          "stateIDs": [
            "SpecialAtk_JumpUp",
            "SpecialAtk_InAir",
            "SpecialAtk_JumpDown"
          ],
          "modifierName": "Hilistray_Wind_SpecialAtk_AirState",
          "DGFCLAIDIFI": ""
        },
        {
          "$type": "AttachModifierToSelfGlobalValueMixin",
          "globalValueKey": "_HILISTRAY_WIND_STATE_",
          "gvInTalk": 0.0,
          "valueSteps": [-0.5, 0.5, 1.5],
          "modifierNameSteps": [
            "Hilistray_Wind_OnGround",
            "Hilistray_Wind_InAir"
          ]
        },
        {
          "$type": "JJIHJPCPPGO",
          "abilityStates": ["ElementFreeze", "ElementPetrifaction"],
          "modifierName": "Hilistray_Wind_SpecialAtk_SlimeStateHandler"
        }
      ],
      "modifiers": {
        "Hilistray_Wind_SpecialAtk_AirState": {
          "modifierName": "",
          "elementDurability": 100.0,
          "onAdded": [
            {
              "$type": "DLEIPBPNAIM",
              "paramList": [0, 0]
            },
            {
              "$type": "SetGlobalValue",
              "value": 1.0,
              "key": "_HILISTRAY_WIND_STATE_",
              "maxValue": 0.0,
              "minValue": 0.0
            }
          ],
          "onRemoved": [
            {
              "$type": "SetGlobalValue",
              "value": 0.0,
              "key": "_HILISTRAY_WIND_STATE_",
              "maxValue": 0.0,
              "minValue": 0.0
            }
          ]
        },
        "Hilistray_Wind_OnGround": {
          "modifierName": "",
          "elementDurability": 100.0,
          "onAdded": [
            {
              "$type": "IDNGFEEBPAM",
              "boolID": "AirState"
            },
            {
              "$type": "ApplyModifier",
              "modifierName": "UNIQUE_Hilistray_Wind_SpecialAtk_AimPoint"
            }
          ]
        },
        "Hilistray_Wind_InAir": {
          "modifierName": "",
          "elementDurability": 100.0,
          "properties": {
            "Actor_EndureDelta": 0.009999999776482582
          },
          "onAdded": [
            {
              "$type": "IDNGFEEBPAM",
              "boolID": "AirState",
              "value": true
            },
            {
              "$type": "RemoveUniqueModifier",
              "modifierName": "UNIQUE_Hilistray_Wind_SpecialAtk_AimPoint"
            }
          ]
        },
        "UNIQUE_Hilistray_Wind_SpecialAtk_AimPoint": {
          "modifierName": "",
          "forceTriggerWhenChangeAuthority": true,
          "elementDurability": 100.0,
          "modifierMixins": [
            {
              "$type": "BFDNGLAIGLK",
              "overrideBulletAimPoint": "RootNode"
            }
          ]
        },
        "Hilistray_Wind_SpecialAtk_SlimeStateHandler": {
          "modifierName": "",
          "elementDurability": 100.0,
          "onAdded": [
            {
              "$type": "SetAnimatorFloat",
              "otherTargets": {
                "$type": "SelectTargetsByChildren",
                "topLimit": 1,
                "configID": 42104001
              },
              "floatID": "Speed",
              "value": 0.0
            }
          ],
          "onRemoved": [
            {
              "$type": "SetAnimatorFloat",
              "otherTargets": {
                "$type": "SelectTargetsByChildren",
                "topLimit": 1,
                "configID": 42104001
              },
              "floatID": "Speed",
              "value": 1.0
            }
          ]
        }
      },
      "onAbilityStart": [
        {
          "$type": "ApplyModifier",
          "modifierName": "UNIQUE_Hilistray_Wind_SpecialAtk_AimPoint"
        }
      ]
    }
  },
  {
    "Default": {
      "$type": "ConfigAbility",
      "abilityName": "Monster_Hilistray_Wind_SpecialAtk_AirState_End",
      "onAbilityStart": [
        {
          "$type": "SetGlobalValue",
          "value": 0.0,
          "key": "_HILISTRAY_WIND_STATE_",
          "maxValue": 0.0,
          "minValue": 0.0
        }
      ]
    }
  },
  {
    "Default": {
      "$type": "ConfigAbility",
      "abilityName": "Monster_Hilistray_Wind_SpecialAtk_CreateSlime",
      "onAbilityStart": [
        {
          "$type": "GNGMFJBIDNA",
          "gadgetID": 42104001,
          "equipPart": "equip01"
        }
      ]
    }
  },
  {
    "Default": {
      "$type": "ConfigAbility",
      "abilityName": "Monster_Hilistray_Wind_SpecialAtk_RemoveSlime",
      "abilityMixins": [
        {
          "$type": "AttachToStateIDMixin",
          "stateIDs": [
            "SpecialAtk_JumpUp",
            "SpecialAtk_InAir",
            "SpecialAtk_JumpDown"
          ],
          "modifierName": "Hilistray_Wind_SpecialAtk_SlimeLife",
          "DGFCLAIDIFI": ""
        },
        {
          "$type": "AttachToAnimatorStateIDMixin",
          "stateIDs": ["SpecialAtk_InAir"],
          "modifierName": "Hilistray_Wind_SpecialAtk_SlimeInAir",
          "DGFCLAIDIFI": ""
        },
        {
          "$type": "AttachToStateIDMixin",
          "stateIDs": ["SpecialAtk_Drop"],
          "modifierName": "Hilistray_Wind_SpecialAtk_SlimeClear",
          "DGFCLAIDIFI": ""
        }
      ],
      "modifiers": {
        "Hilistray_Wind_SpecialAtk_SlimeLife": {
          "modifierName": "",
          "elementDurability": 100.0,
          "onAdded": [
            {
              "$type": "SetGlobalValue",
              "value": 0.0,
              "key": "_HILISTRAY_WIND_SLIMETAG_",
              "maxValue": 0.0,
              "minValue": 0.0
            },
            {
              "$type": "ResetAnimatorTrigger",
              "triggerID": "SpecialAtkEnd"
            }
          ],
          "onRemoved": [
            {
              "$type": "SetAnimatorTrigger",
              "otherTargets": {
                "$type": "SelectTargetsByChildren",
                "topLimit": 1,
                "configID": 42104001
              },
              "triggerID": "CanRemove",
              "mpTriggerOnRemote": true
            },
            {
              "$type": "SetGlobalValue",
              "value": 2.0,
              "key": "_HILISTRAY_WIND_SLIMETAG_",
              "maxValue": 0.0,
              "minValue": 0.0
            }
          ]
        },
        "Hilistray_Wind_SpecialAtk_SlimeInAir": {
          "modifierName": "",
          "elementDurability": 100.0,
          "onAdded": [
            {
              "$type": "SetGlobalValue",
              "value": 1.0,
              "key": "_HILISTRAY_WIND_SLIMETAG_",
              "maxValue": 0.0,
              "minValue": 0.0
            }
          ],
          "onRemoved": [
            {
              "$type": "SetAnimatorTrigger",
              "otherTargets": {
                "$type": "SelectTargetsByChildren",
                "topLimit": 1,
                "configID": 42104001
              },
              "triggerID": "CanRemove",
              "mpTriggerOnRemote": true
            },
            {
              "$type": "SetGlobalValue",
              "value": 2.0,
              "key": "_HILISTRAY_WIND_SLIMETAG_",
              "maxValue": 0.0,
              "minValue": 0.0
            }
          ]
        },
        "Hilistray_Wind_SpecialAtk_SlimeClear": {
          "modifierName": "",
          "elementDurability": 100.0,
          "onAdded": [
            {
              "$type": "SetAnimatorTrigger",
              "otherTargets": {
                "$type": "SelectTargetsByChildren",
                "topLimit": 1,
                "configID": 42104001
              },
              "triggerID": "CanRemove",
              "mpTriggerOnRemote": true
            },
            {
              "$type": "SetGlobalValue",
              "value": 2.0,
              "key": "_HILISTRAY_WIND_SLIMETAG_",
              "maxValue": 0.0,
              "minValue": 0.0
            }
          ]
        }
      },
      "onAbilityStart": [
        {
          "$type": "SetGlobalValue",
          "value": 1.0,
          "key": "_HILISTRAY_WIND_SLIMETAG_",
          "maxValue": 0.0,
          "minValue": 0.0
        }
      ]
    }
  },
  {
    "Default": {
      "$type": "ConfigAbility",
      "abilityName": "Monster_Hilistray_Wind_SpecialAtk_WeaponEffectOn",
      "abilityMixins": [
        {
          "$type": "AttachToAnimatorStateIDMixin",
          "stateIDs": ["SpecialAtk_InAir"],
          "modifierName": "Hilistray_Wind_SpecialAtk_WeaponEffect_Handler",
          "DGFCLAIDIFI": ""
        }
      ],
      "modifiers": {
        "Hilistray_Wind_SpecialAtk_WeaponEffect_Handler": {
          "modifierName": "",
          "elementDurability": 100.0,
          "onRemoved": [
            {
              "$type": "RemoveUniqueModifier",
              "modifierName": "UNIQUE_Hilistray_Wind_SpecialAtk_WeaponEffect"
            }
          ]
        },
        "UNIQUE_Hilistray_Wind_SpecialAtk_WeaponEffect": {
          "modifierName": "",
          "forceTriggerWhenChangeAuthority": true,
          "elementDurability": 100.0,
          "onAdded": [
            {
              "$type": "AttachEffect",
              "rotationDampTime": "Eff_Monster_Hilistray_Wind_SpecialAtk_Weapon",
              "PPPDJGDDOGD": 1.0,
              "AJDILHJFNKE": -1.0
            }
          ]
        }
      },
      "onAbilityStart": [
        {
          "$type": "ApplyModifier",
          "modifierName": "UNIQUE_Hilistray_Wind_SpecialAtk_WeaponEffect"
        }
      ]
    }
  },
  {
    "Default": {
      "$type": "ConfigAbility",
      "abilityName": "Monster_Hilistray_Wind_SpecialAtk_WeaponEffectOff",
      "onAbilityStart": [
        {
          "$type": "RemoveUniqueModifier",
          "modifierName": "UNIQUE_Hilistray_Wind_SpecialAtk_WeaponEffect"
        }
      ]
    }
  },
  {
    "Default": {
      "$type": "ConfigAbility",
      "abilityName": "Monster_Hilistray_Wind_SpecialAtk_Bullet_01",
      "onAbilityStart": [
        {
          "$type": "TriggerBullet",
          "bulletID": 42104002,
          "born": {
            "$type": "ConfigBornByAttachPoint",
            "direction": {
              "$type": "ConfigDirectionByAttackTarget",
              "maxAngle": 25.0,
              "startPoint": ""
            },
            "useRotation": true,
            "attachPointName": "SpecialAtkBullet01",
            "attachPointTargetType": "Self"
          }
        },
        {
          "$type": "JFAFIJFHNDM",
          "otherTargets": {
            "$type": "SelectTargetsByChildren",
            "topLimit": 1,
            "configID": 42104001
          },
          "faceAnimation": "Wind_WindBlade"
        }
      ]
    }
  },
  {
    "Default": {
      "$type": "ConfigAbility",
      "abilityName": "Monster_Hilistray_Wind_SpecialAtk_Bullet_02",
      "onAbilityStart": [
        {
          "$type": "TriggerBullet",
          "bulletID": 42104003,
          "born": {
            "$type": "ConfigBornByAttachPoint",
            "direction": {
              "$type": "ConfigDirectionByAttackTarget",
              "maxAngle": 25.0,
              "startPoint": ""
            },
            "useRotation": true,
            "attachPointName": "SpecialAtkBullet02",
            "attachPointTargetType": "Self"
          }
        },
        {
          "$type": "JFAFIJFHNDM",
          "otherTargets": {
            "$type": "SelectTargetsByChildren",
            "topLimit": 1,
            "configID": 42104001
          },
          "faceAnimation": "Wind_WindBlade"
        }
      ]
    }
  },
  {
    "Default": {
      "$type": "ConfigAbility",
      "abilityName": "Monster_Hilistray_Wind_SpecialAtk_Bullet_03",
      "onAbilityStart": [
        {
          "$type": "TriggerBullet",
          "bulletID": 42104004,
          "born": {
            "$type": "ConfigBornByAttachPoint",
            "direction": {
              "$type": "ConfigDirectionByAttackTarget",
              "maxAngle": 25.0,
              "startPoint": ""
            },
            "useRotation": true,
            "attachPointName": "SpecialAtkBullet03",
            "attachPointTargetType": "Self"
          }
        },
        {
          "$type": "JFAFIJFHNDM",
          "otherTargets": {
            "$type": "SelectTargetsByChildren",
            "topLimit": 1,
            "configID": 42104001
          },
          "faceAnimation": "Wind_WindBlade"
        }
      ]
    }
  },
  {
    "Default": {
      "$type": "ConfigAbility",
      "abilityName": "Hilistray_Wind_SpecialAtk_Slime",
      "abilityMixins": [
        {
          "$type": "AttachModifierToGlobalValueMixin",
          "globalValueTarget": "Owner",
          "globalValueKey": "_HILISTRAY_WIND_SLIMETAG_",
          "valueSteps": [-0.5, 0.5, 1.5, 2.5],
          "modifierNameSteps": [
            "Hilistray_Wind_SpecialAtk_Slime_Normal",
            "Hilistray_Wind_SpecialAtk_Slime_InAir",
            "Hilistray_Wind_SpecialAtk_Slime_LifeOver"
          ]
        }
      ],
      "modifiers": {
        "Hilistray_Wind_SpecialAtk_Slime_Normal": {
          "modifierName": "",
          "elementDurability": 100.0
        },
        "Hilistray_Wind_SpecialAtk_Slime_InAir": {
          "modifierName": "",
          "elementDurability": 100.0,
          "properties": {
            "Actor_AddGravityScale": -1.899999976158142
          },
          "onAdded": [
            {
              "$type": "RemoveVelocityForce",
              "forces": ["RetreatAirType"]
            },
            {
              "$type": "EnableHitBoxByName",
              "hitBoxNames": ["HitBox_InAir"],
              "setEnable": true
            }
          ],
          "onRemoved": [
            {
              "$type": "EnableHitBoxByName",
              "hitBoxNames": ["HitBox_InAir"]
            }
          ],
          "onBeingHit": [
            {
              "$type": "Predicated",
              "targetPredicates": [
                {
                  "$type": "EKJMHHOMFOP",
                  "hitImpulse": 0.0
                },
                {
                  "$type": "ByHitDamage",
                  "damage": 0.0,
                  "useOriginDamage": true
                },
                {
                  "$type": "ByNot",
                  "predicates": [
                    {
                      "$type": "ByHitElement",
                      "element": "Wind"
                    }
                  ]
                }
              ],
              "successActions": [
                {
                  "$type": "ApplyModifier",
                  "target": "Owner",
                  "modifierName": "Hilistray_Wind_SpecialAtk_Log"
                },
                {
                  "$type": "SetGlobalValue",
                  "value": 1.0,
                  "key": "_SLIME_HITDIE_",
                  "maxValue": 0.0,
                  "minValue": 0.0
                },
                {
                  "$type": "EnableHitBoxByName",
                  "hitBoxNames": ["HitBox_InAir"]
                },
                {
                  "$type": "SetAnimatorTrigger",
                  "target": "Owner",
                  "triggerID": "SpecialAtkEnd"
                },
                {
                  "$type": "SetAnimatorBool",
                  "boolID": "HitDie",
                  "value": true
                }
              ]
            }
          ]
        },
        "Hilistray_Wind_SpecialAtk_Log": {
          "modifierName": "",
          "duration": 0.10000000149011612,
          "elementDurability": 100.0,
          "onAdded": [
            {
              "$type": "DLEIPBPNAIM",
              "paramList": [0, 1]
            }
          ]
        },
        "Hilistray_Wind_SpecialAtk_Slime_LifeOver": {
          "stacking": "Unique",
          "modifierName": "",
          "elementDurability": 100.0,
          "onAdded": [
            {
              "$type": "FireEffect",
              "target": "Caster",
              "predicates": [
                {
                  "$type": "ByTargetGlobalValue",
                  "target": "Caster",
                  "key": "_SLIME_HITDIE_",
                  "value": 0.0,
                  "compareType": "NoneOrEqual"
                }
              ],
              "rotationDampTime": "Eff_Monster_Hilistray_Wind_SpecialAtk_SlimeDisappear",
              "PPPDJGDDOGD": 1.0,
              "AJDILHJFNKE": -1.0
            },
            {
              "$type": "FireEffect",
              "target": "Caster",
              "predicates": [
                {
                  "$type": "ByTargetGlobalValue",
                  "target": "Caster",
                  "key": "_SLIME_HITDIE_",
                  "value": 1.0
                }
              ],
              "rotationDampTime": "Eff_Monster_Hilistray_Wind_SpecialAtk_SlimeHitDie",
              "PPPDJGDDOGD": 1.0,
              "AJDILHJFNKE": -1.0
            },
            {
              "$type": "KillSelf",
              "duration": 0.10000000149011612
            }
          ]
        },
        "Hilistray_Wind_SpecialAtk_Slime_Resistance": {
          "modifierName": "",
          "elementDurability": 100.0,
          "properties": {
            "Actor_WindMuteHurtDelta": 1.0
          }
        }
      },
      "onAdded": [
        {
          "$type": "SetAnimatorBool",
          "boolID": "HitDie"
        },
        {
          "$type": "SetGlobalValue",
          "value": 0.0,
          "key": "_SLIME_HITDIE_",
          "maxValue": 0.0,
          "minValue": 0.0
        },
        {
          "$type": "ApplyModifier",
          "modifierName": "Hilistray_Wind_SpecialAtk_Slime_Resistance"
        }
      ]
    }
  },
  {
    "Default": {
      "$type": "ConfigAbility",
      "abilityName": "Hilistray_Wind_SpecialAtk_Slime_Effect",
      "abilityMixins": [
        {
          "$type": "AttachToStateIDMixin",
          "stateIDs": ["Born", "InAir"],
          "modifierName": "Hilistray_Wind_SpecialAtk_Slime_Effect",
          "DGFCLAIDIFI": ""
        }
      ],
      "modifiers": {
        "Hilistray_Wind_SpecialAtk_Slime_Effect": {
          "modifierName": "",
          "elementDurability": 100.0,
          "onAdded": [
            {
              "$type": "AttachEffect",
              "rotationDampTime": "Eff_Monster_Hilistray_Wind_SpecialAtk_SlimeExpand",
              "PPPDJGDDOGD": 1.0,
              "AJDILHJFNKE": -1.0
            }
          ]
        }
      }
    }
  },
  {
    "Default": {
      "$type": "ConfigAbility",
      "abilityName": "Hilistray_Wind_SpecialAtk_WindBlade_01",
      "modifiers": {
        "WindBlade_Effect": {
          "modifierName": "",
          "elementDurability": 100.0,
          "onAdded": [
            {
              "$type": "AttachEffect",
              "rotationDampTime": "Eff_Monster_Hilistray_Wind_SpecialAtk_WindBlade_01",
              "PPPDJGDDOGD": 1.0,
              "AJDILHJFNKE": -1.0
            }
          ]
        }
      },
      "onAdded": [
        {
          "$type": "ApplyModifier",
          "modifierName": "WindBlade_Effect"
        }
      ],
      "onAbilityStart": [
        {
          "$type": "TriggerAttackEvent",
          "attackEvent": {
            "attackPattern": {
              "$type": "ConfigAttackSphere",
              "triggerType": "TriggerNoRepeat",
              "born": {
                "$type": "ConfigBornByCollisionPoint"
              },
              "radius": 0.5
            },
            "attackInfo": {
              "attackTag": "",
              "attenuationTag": "Hilistray_Wind_SpecialAtk",
              "attenuationGroup": "Hilistray_Wind_SpecialAtk",
              "attackProperty": {
                "actorGrassSubHurtDelta": 0.800000011920929,
                "actorWindSubHurtDelta": 0.0,
                "elementType": "Wind",
                "elementDurability": 50.0,
                "strikeType": "Slash",
                "enBreak": 100.0,
                "GLKMCMDJBIK": 0.0
              },
              "hitPattern": {
                "onHitEffectName": "default",
                "hitImpulseY": "",
                "hitImpulseType": "LV4",
                "retreatType": "ByHitDirection",
                "hitHaltTimeScale": 0.05000000074505806
              },
              "canBeModifiedBy": "OriginOwner"
            }
          },
          "targetType": "Enemy"
        }
      ]
    }
  },
  {
    "Default": {
      "$type": "ConfigAbility",
      "abilityName": "Hilistray_Wind_SpecialAtk_WindBlade_02",
      "modifiers": {
        "WindBlade_Effect": {
          "modifierName": "",
          "elementDurability": 100.0,
          "onAdded": [
            {
              "$type": "AttachEffect",
              "rotationDampTime": "Eff_Monster_Hilistray_Wind_SpecialAtk_WindBlade_02",
              "PPPDJGDDOGD": 1.0,
              "AJDILHJFNKE": -1.0
            }
          ]
        }
      },
      "onAdded": [
        {
          "$type": "ApplyModifier",
          "modifierName": "WindBlade_Effect"
        }
      ],
      "onAbilityStart": [
        {
          "$type": "TriggerAttackEvent",
          "attackEvent": {
            "attackPattern": {
              "$type": "ConfigAttackSphere",
              "triggerType": "TriggerNoRepeat",
              "born": {
                "$type": "ConfigBornByCollisionPoint"
              },
              "radius": 0.5
            },
            "attackInfo": {
              "attackTag": "",
              "attenuationTag": "Hilistray_Wind_SpecialAtk",
              "attenuationGroup": "Hilistray_Wind_SpecialAtk",
              "attackProperty": {
                "actorGrassSubHurtDelta": 0.800000011920929,
                "actorWindSubHurtDelta": 0.0,
                "elementType": "Wind",
                "elementDurability": 50.0,
                "strikeType": "Slash",
                "enBreak": 100.0,
                "GLKMCMDJBIK": 0.0
              },
              "hitPattern": {
                "onHitEffectName": "default",
                "hitImpulseY": "",
                "hitImpulseType": "LV4",
                "retreatType": "ByHitDirection",
                "hitHaltTimeScale": 0.05000000074505806
              },
              "canBeModifiedBy": "OriginOwner"
            }
          },
          "targetType": "Enemy"
        }
      ]
    }
  },
  {
    "Default": {
      "$type": "ConfigAbility",
      "abilityName": "Hilistray_Wind_SpecialAtk_WindBlade_03",
      "modifiers": {
        "WindBlade_Effect": {
          "modifierName": "",
          "elementDurability": 100.0,
          "onAdded": [
            {
              "$type": "AttachEffect",
              "rotationDampTime": "Eff_Monster_Hilistray_Wind_SpecialAtk_WindBlade_03",
              "PPPDJGDDOGD": 1.0,
              "AJDILHJFNKE": -1.0
            }
          ]
        }
      },
      "onAdded": [
        {
          "$type": "ApplyModifier",
          "modifierName": "WindBlade_Effect"
        }
      ],
      "onAbilityStart": [
        {
          "$type": "TriggerAttackEvent",
          "attackEvent": {
            "attackPattern": {
              "$type": "ConfigAttackSphere",
              "triggerType": "TriggerNoRepeat",
              "born": {
                "$type": "ConfigBornByCollisionPoint"
              },
              "radius": 0.5
            },
            "attackInfo": {
              "attackTag": "",
              "attenuationTag": "Hilistray_Wind_SpecialAtk",
              "attenuationGroup": "Hilistray_Wind_SpecialAtk",
              "attackProperty": {
                "actorGrassSubHurtDelta": 1.0,
                "actorWindSubHurtDelta": 0.0,
                "elementType": "Wind",
                "elementDurability": 50.0,
                "strikeType": "Slash",
                "enBreak": 150.0,
                "GLKMCMDJBIK": 0.0
              },
              "hitPattern": {
                "onHitEffectName": "default",
                "hitImpulseY": "",
                "hitImpulseType": "LV4",
                "retreatType": "ByHitDirection",
                "hitHaltTimeScale": 0.05000000074505806
              },
              "canBeModifiedBy": "OriginOwner"
            }
          },
          "targetType": "Enemy"
        }
      ]
    }
  },
  {
    "Default": {
      "$type": "ConfigAbility",
      "abilityName": "Monster_Hilistray_Wind_JumpAlert",
      "abilityMixins": [
        {
          "$type": "AttachToAnimatorStateIDMixin",
          "stateIDs": ["Alert02_BS", "Alert02_Forward_BS"],
          "modifierName": "Hilistray_Wind_JumpAlert_AirHandler",
          "DGFCLAIDIFI": ""
        },
        {
          "$type": "AOKOIIHJJPJ",
          "alertness": [2],
          "modifierName": "Hilistray_Wind_JumpAlert_Protect"
        }
      ],
      "modifiers": {
        "Hilistray_Wind_JumpAlert_AirHandler": {
          "modifierName": "",
          "elementDurability": 100.0,
          "onAdded": [
            {
              "$type": "IDNGFEEBPAM",
              "boolID": "JumpAlertAir",
              "value": true
            }
          ],
          "onRemoved": [
            {
              "$type": "IDNGFEEBPAM",
              "boolID": "JumpAlertAir"
            }
          ]
        },
        "Hilistray_Wind_JumpAlert_BeHit": {
          "modifierName": "",
          "elementDurability": 100.0,
          "onBeingHit": [
            {
              "$type": "IDNGFEEBPAM",
              "boolID": "JumpAlert"
            },
            {
              "$type": "IDNGFEEBPAM",
              "boolID": "JumpForwardAlert"
            }
          ]
        },
        "Hilistray_Wind_JumpAlert_Protect": {
          "modifierName": "",
          "elementDurability": 100.0,
          "onAdded": [
            {
              "$type": "ApplyModifier",
              "modifierName": "Hilistray_Wind_JumpAlert_ForceChangePose"
            }
          ]
        },
        "Hilistray_Wind_JumpAlert_ForceChangePose": {
          "modifierName": "",
          "duration": 1.0,
          "elementDurability": 100.0,
          "onRemoved": [
            {
              "$type": "IDNGFEEBPAM",
              "boolID": "JumpAlert"
            },
            {
              "$type": "IDNGFEEBPAM",
              "boolID": "JumpForwardAlert"
            }
          ]
        }
      },
      "onAdded": [
        {
          "$type": "ApplyModifier",
          "modifierName": "Hilistray_Wind_JumpAlert_BeHit"
        }
      ],
      "onAbilityStart": [
        {
          "$type": "IDNGFEEBPAM",
          "boolID": "JumpAlertAir"
        }
      ]
    }
  }
]
