[
  {
    "Default": {
      "$type": "ConfigAbility",
      "abilityName": "Monster_Fungus_Amanita_Du_Udatta_Rock_Steer",
      "abilityMixins": [
        {
          "$type": "IILHMBGONGM",
          "steerStateIDs": ["Warning"],
          "endNormalizedTime": 0.30000001192092896,
          "angularSpeed": 540.0,
          "attackTrigger": "",
          "DGFCLAIDIFI": ""
        },
        {
          "$type": "IILHMBGONGM",
          "steerStateIDs": ["Taunt"],
          "endNormalizedTime": 0.4000000059604645,
          "angularSpeed": 540.0,
          "attackTrigger": "",
          "DGFCLAIDIFI": ""
        },
        {
          "$type": "IILHMBGONGM",
          "steerStateIDs": ["MeleeAttack01Normal_BS"],
          "startNormalizedTime": 0.18000000715255737,
          "endNormalizedTime": 0.800000011920929,
          "angularSpeed": 540.0,
          "attackTrigger": "",
          "DGFCLAIDIFI": ""
        },
        {
          "$type": "IILHMBGONGM",
          "steerStateIDs": ["MeleeAttack01Overdose_BS"],
          "startNormalizedTime": 0.18000000715255737,
          "endNormalizedTime": 0.800000011920929,
          "angularSpeed": 540.0,
          "attackTrigger": "",
          "DGFCLAIDIFI": ""
        },
        {
          "$type": "IILHMBGONGM",
          "steerStateIDs": ["MeleeAttack01Decay_BS"],
          "startNormalizedTime": 0.18000000715255737,
          "endNormalizedTime": 0.800000011920929,
          "angularSpeed": 540.0,
          "attackTrigger": "",
          "DGFCLAIDIFI": ""
        },
        {
          "$type": "IILHMBGONGM",
          "steerStateIDs": ["MeleeAttack01_AS"],
          "startNormalizedTime": 0.44999998807907104,
          "endNormalizedTime": 0.699999988079071,
          "angularSpeed": 540.0,
          "attackTrigger": "",
          "DGFCLAIDIFI": ""
        },
        {
          "$type": "IILHMBGONGM",
          "steerStateIDs": ["MeleeAttack02Normal_BS"],
          "angularSpeed": 540.0,
          "attackTrigger": "",
          "DGFCLAIDIFI": ""
        },
        {
          "$type": "IILHMBGONGM",
          "steerStateIDs": ["MeleeAttack02Overdose_BS"],
          "angularSpeed": 540.0,
          "attackTrigger": "",
          "DGFCLAIDIFI": ""
        },
        {
          "$type": "IILHMBGONGM",
          "steerStateIDs": ["MeleeAttack02Decay_BS"],
          "angularSpeed": 540.0,
          "attackTrigger": "",
          "DGFCLAIDIFI": ""
        },
        {
          "$type": "IILHMBGONGM",
          "steerStateIDs": ["RamNormal_BS"],
          "startNormalizedTime": 0.20000000298023224,
          "angularSpeed": 240.0,
          "attackTrigger": "",
          "DGFCLAIDIFI": ""
        },
        {
          "$type": "IILHMBGONGM",
          "steerStateIDs": ["RamNormal_MoveLoop"],
          "endNormalizedTime": 9.0,
          "angularSpeed": 60.0,
          "attackTrigger": "RamAttackTrigger",
          "attackDistance": 2.0,
          "DGFCLAIDIFI": ""
        },
        {
          "$type": "IILHMBGONGM",
          "steerStateIDs": ["RamOverdose_BS"],
          "startNormalizedTime": 0.20000000298023224,
          "angularSpeed": 240.0,
          "attackTrigger": "",
          "DGFCLAIDIFI": ""
        },
        {
          "$type": "IILHMBGONGM",
          "steerStateIDs": ["RamOverdose_MoveLoop"],
          "endNormalizedTime": 9.0,
          "angularSpeed": 30.0,
          "attackTrigger": "RamAttackTrigger",
          "attackDistance": 2.0,
          "DGFCLAIDIFI": ""
        },
        {
          "$type": "IILHMBGONGM",
          "steerStateIDs": ["RamOverdose_MoveLoop_Aim"],
          "endNormalizedTime": 9.0,
          "angularSpeed": 360.0,
          "attackTrigger": "",
          "DGFCLAIDIFI": ""
        },
        {
          "$type": "IILHMBGONGM",
          "steerStateIDs": ["RamDecay_BS"],
          "startNormalizedTime": 0.20000000298023224,
          "angularSpeed": 240.0,
          "attackTrigger": "",
          "DGFCLAIDIFI": ""
        },
        {
          "$type": "IILHMBGONGM",
          "steerStateIDs": ["RamDecay_MoveLoop"],
          "endNormalizedTime": 9.0,
          "angularSpeed": 60.0,
          "attackTrigger": "RamAttackTrigger",
          "attackDistance": 2.0,
          "DGFCLAIDIFI": ""
        },
        {
          "$type": "IILHMBGONGM",
          "steerStateIDs": ["QuakeNormal_BS"],
          "startNormalizedTime": 0.20000000298023224,
          "endNormalizedTime": 0.3499999940395355,
          "angularSpeed": 480.0,
          "attackTrigger": "",
          "DGFCLAIDIFI": ""
        },
        {
          "$type": "IILHMBGONGM",
          "steerStateIDs": ["QuakeOverdose_BS"],
          "startNormalizedTime": 0.20000000298023224,
          "endNormalizedTime": 0.3499999940395355,
          "angularSpeed": 480.0,
          "attackTrigger": "",
          "DGFCLAIDIFI": ""
        },
        {
          "$type": "IILHMBGONGM",
          "steerStateIDs": ["QuakeDecay_BS"],
          "startNormalizedTime": 0.20000000298023224,
          "endNormalizedTime": 0.3499999940395355,
          "angularSpeed": 480.0,
          "attackTrigger": "",
          "DGFCLAIDIFI": ""
        }
      ]
    }
  },
  {
    "Default": {
      "$type": "ConfigAbility",
      "abilityName": "Monster_Fungus_Amanita_Du_Udatta_Rock_Ram",
      "abilityMixins": [
        {
          "$type": "AttachToStateIDMixin",
          "stateIDs": [
            "RamNormal_MoveLoop",
            "RamOverdose_MoveLoop",
            "RamOverdose_MoveLoop_Aim"
          ],
          "modifierName": "Ram_MoveLoopEffect_Normal",
          "DGFCLAIDIFI": ""
        },
        {
          "$type": "AttachToStateIDMixin",
          "stateIDs": ["RamDecay_MoveLoop"],
          "modifierName": "Ram_MoveLoopEffect_Decay",
          "DGFCLAIDIFI": ""
        }
      ],
      "modifiers": {
        "Ram_MoveLoopEffect_Normal": {
          "modifierName": "",
          "elementDurability": 100.0,
          "onAdded": [
            {
              "$type": "AttachEffect",
              "rotationDampTime": "Eff_Monster_Fungus_Amanita_Du_Udatta_Rock_RamNormal_MoveLoop",
              "PPPDJGDDOGD": 1.0,
              "AJDILHJFNKE": -1.0
            }
          ]
        },
        "Ram_MoveLoopEffect_Decay": {
          "modifierName": "",
          "elementDurability": 100.0,
          "onAdded": [
            {
              "$type": "AttachEffect",
              "rotationDampTime": "Eff_Monster_Fungus_Amanita_Du_Udatta_Rock_RamDecay_MoveLoop",
              "PPPDJGDDOGD": 1.0,
              "AJDILHJFNKE": -1.0
            }
          ]
        }
      }
    }
  },
  {
    "Default": {
      "$type": "ConfigAbility",
      "abilityName": "Monster_Fungus_Amanita_Du_Udatta_Rock_QuakeDecay_Attack",
      "modifiers": {
        "Ring01": {
          "modifierName": "",
          "duration": 0.44999998807907104,
          "elementDurability": 100.0,
          "onAdded": [
            {
              "$type": "FireEffect",
              "rotationDampTime": "Eff_Monster_Fungus_Amanita_Du_Udatta_Rock_QuakeDecay_Attack_Ground",
              "PPPDJGDDOGD": 1.0,
              "AJDILHJFNKE": -1.0
            },
            {
              "$type": "TriggerAttackEvent",
              "attackEvent": {
                "attackPattern": {
                  "$type": "ConfigAttackCircle",
                  "triggerType": "TriggerNoRepeat",
                  "born": {
                    "$type": "ConfigBornBySelf",
                    "offset": {
                      "x": 0.0,
                      "y": 0.0,
                      "z": 0.699999988079071
                    }
                  },
                  "height": 1.5,
                  "radius": 3.0
                },
                "attackInfo": {
                  "attackTag": "Monster_Fungus_Amanita_Du_Udatta_Rock_QuakeDecay",
                  "attenuationTag": "Monster_Fungus_Raptor_01_SporeAttack_Explode",
                  "attenuationGroup": "Effigy_Ice_Attenuation_1",
                  "attackProperty": {
                    "actorGrassSubHurtDelta": 1.0,
                    "actorWindSubHurtDelta": 0.0,
                    "elementType": "Rock",
                    "elementDurability": 25.0,
                    "strikeType": "Blunt",
                    "enBreak": 200.0,
                    "attackType": "Melee",
                    "GLKMCMDJBIK": 0.0
                  },
                  "hitPattern": {
                    "onHitEffectName": "default",
                    "hitImpulseY": "",
                    "hitImpulseType": "LV6"
                  }
                }
              },
              "targetType": "Enemy"
            }
          ],
          "onRemoved": [
            {
              "$type": "ApplyModifier",
              "modifierName": "Ring02"
            }
          ]
        },
        "Ring02": {
          "modifierName": "",
          "duration": 0.30000001192092896,
          "elementDurability": 100.0,
          "onAdded": [
            {
              "$type": "FireEffect",
              "rotationDampTime": "Eff_Monster_Fungus_Amanita_Du_Udatta_Rock_QuakeDecay_Attack_Ground_02",
              "PPPDJGDDOGD": 1.0,
              "AJDILHJFNKE": -1.0
            },
            {
              "$type": "TriggerAttackEvent",
              "attackEvent": {
                "attackPattern": {
                  "$type": "ConfigAttackCircle",
                  "triggerType": "TriggerNoRepeat",
                  "born": {
                    "$type": "ConfigBornBySelf",
                    "offset": {
                      "x": 0.0,
                      "y": 0.0,
                      "z": 0.699999988079071
                    }
                  },
                  "height": 1.7999999523162842,
                  "radius": 5.0,
                  "MMBCLAEOEFB": 3.0
                },
                "attackInfo": {
                  "attackTag": "Monster_Fungus_Amanita_Du_Udatta_Rock_QuakeDecay",
                  "attenuationTag": "Monster_Fungus_Raptor_01_SporeAttack_Explode",
                  "attenuationGroup": "Effigy_Ice_Attenuation_1",
                  "attackProperty": {
                    "actorGrassSubHurtDelta": 1.0,
                    "actorWindSubHurtDelta": 0.0,
                    "elementType": "Rock",
                    "elementDurability": 25.0,
                    "strikeType": "Blunt",
                    "enBreak": 200.0,
                    "attackType": "Melee",
                    "GLKMCMDJBIK": 0.0
                  },
                  "hitPattern": {
                    "onHitEffectName": "default",
                    "hitImpulseY": "",
                    "hitImpulseType": "LV6"
                  }
                }
              },
              "targetType": "Enemy"
            }
          ]
        }
      },
      "onAbilityStart": [
        {
          "$type": "ApplyModifier",
          "modifierName": "Ring01"
        }
      ]
    }
  }
]
