[
  {
    "Default": {
      "$type": "ConfigAbility",
      "abilityName": "Monster_Abyss_Alert",
      "onAbilityStart": [
        {
          "$type": "IDNGFEEBPAM",
          "boolID": "Sacrifice"
        }
      ]
    }
  },
  {
    "Default": {
      "$type": "ConfigAbility",
      "abilityName": "Monster_Abyss_SpecialsState",
      "abilityMixins": [
        {
          "$type": "LEOGLBFIELL",
          "poseIDs": [9013],
          "modifierName": "SpecialsState"
        }
      ],
      "modifiers": {
        "SpecialsState": {
          "modifierName": "",
          "elementDurability": 100.0,
          "properties": {
            "Entity_MassRatio": 9999.0,
            "Entity_WeightRatio": 5.0
          },
          "onBeingHit": [
            {
              "$type": "IDNGFEEBPAM",
              "boolID": "Sacrifice"
            }
          ]
        }
      }
    }
  },
  {
    "Default": {
      "$type": "ConfigAbility",
      "abilityName": "Monster_Abyss_ActionPointRegister",
      "abilityMixins": [
        {
          "$type": "LEOGLBFIELL",
          "poseIDs": [9013],
          "modifierName": "ActionPointRegister_Preach"
        }
      ],
      "modifiers": {
        "ActionPointRegister_Preach": {
          "modifierName": "",
          "elementDurability": 100.0,
          "onAdded": [
            {
              "$type": "AFLBOAPGDBD",
              "pointType": "PreachPoint"
            }
          ],
          "onRemoved": [
            {
              "$type": "ELPBHEGNGPL",
              "pointType": "PreachPoint"
            }
          ],
          "onKill": [
            {
              "$type": "ELPBHEGNGPL",
              "pointType": "PreachPoint"
            }
          ]
        }
      }
    }
  },
  {
    "Default": {
      "$type": "ConfigAbility",
      "abilityName": "Monster_Abyss_TurnToSacrifice",
      "onAbilityStart": [
        {
          "$type": "IDNGFEEBPAM",
          "boolID": "Sacrifice",
          "value": true
        }
      ]
    }
  },
  {
    "Default": {
      "$type": "ConfigAbility",
      "abilityName": "Monster_Abyss_OutOfSacrifice",
      "onAbilityStart": [
        {
          "$type": "IDNGFEEBPAM",
          "boolID": "Sacrifice"
        }
      ]
    }
  },
  {
    "Default": {
      "$type": "ConfigAbility",
      "abilityName": "Monster_Abyss_Sacrifice_NeuronBroadcaster",
      "abilityMixins": [
        {
          "$type": "AttachToStateIDMixin",
          "stateIDs": ["Sacrifice"],
          "modifierName": "NeuronBroadcast_Surround",
          "DGFCLAIDIFI": ""
        }
      ],
      "modifiers": {
        "NeuronBroadcast_Surround": {
          "modifierName": "",
          "elementDurability": 100.0,
          "onAdded": [
            {
              "$type": "AHKDMIKPLIN",
              "neuronName": "SURROUND",
              "stimulate": true,
              "range": 50.0
            }
          ],
          "onRemoved": [
            {
              "$type": "AHKDMIKPLIN",
              "neuronName": "SURROUND",
              "range": 50.0
            }
          ],
          "onKill": [
            {
              "$type": "AHKDMIKPLIN",
              "neuronName": "SURROUND",
              "range": 50.0
            }
          ]
        }
      }
    }
  },
  {
    "Default": {
      "$type": "ConfigAbility",
      "abilityName": "Monster_Abyss_Sacrifice_Effect",
      "abilityMixins": [
        {
          "$type": "AttachToStateIDMixin",
          "stateIDs": ["Sacrifice"],
          "modifierName": "Sacrifice_Effect",
          "DGFCLAIDIFI": ""
        }
      ],
      "modifiers": {
        "Sacrifice_Effect": {
          "modifierName": "",
          "elementDurability": 100.0,
          "onAdded": [
            {
              "$type": "AttachEffect",
              "rotationDampTime": "Eff_Monster_Abyss_Common_Preach",
              "PPPDJGDDOGD": 1.0,
              "AJDILHJFNKE": -1.0
            }
          ]
        }
      }
    }
  },
  {
    "Default": {
      "$type": "ConfigAbility",
      "abilityName": "Abyss_Fire_Disappear",
      "onAbilityStart": [
        {
          "$type": "AKJOHBCCCIJ",
          "dieImmediately": true
        },
        {
          "$type": "KillSelf",
          "banHPPercentageDrop": true,
          "value": true,
          "banExp": true
        }
      ]
    }
  },
  {
    "Default": {
      "$type": "ConfigAbility",
      "abilityName": "Monster_Abyss_Fire_SpecialsState",
      "abilityMixins": [
        {
          "$type": "APJKOLPHCGH",
          "stateIDs": ["Sacrifice", "TurnToSacrifice"],
          "enterPredicates": [
            {
              "$type": "ByTargetGlobalValue",
              "key": "_ABILITY_ABYSS_FIRE_ELEMENTSHIELD",
              "value": 1.0,
              "forceByCaster": true
            }
          ],
          "exitPredicates": [
            {
              "$type": "ByTargetGlobalValue",
              "key": "_ABILITY_ABYSS_FIRE_ELEMENTSHIELD",
              "value": 0.0,
              "forceByCaster": true
            }
          ],
          "enterActions": [
            {
              "$type": "TriggerAbility",
              "abilityName": "Abyss_Fire_ElementShield_Remove_NoBroken"
            }
          ],
          "exitActions": [
            {
              "$type": "GFFKENEJFFB",
              "intID": "ElementState",
              "value": 2
            },
            {
              "$type": "TriggerAbility",
              "abilityName": "Abyss_Fire_ElementShield"
            },
            {
              "$type": "TriggerAbility",
              "abilityName": "Abyss_Fire_ElementShield_Effect"
            }
          ],
          "DGFCLAIDIFI": ""
        }
      ]
    }
  },
  {
    "Default": {
      "$type": "ConfigAbility",
      "abilityName": "Abyss_Fire_ElementShield_Remove_NoBroken",
      "onAbilityStart": [
        {
          "$type": "RemoveUniqueModifier",
          "modifierName": "UNIQUE_Abyss_Fire_ElementShield"
        },
        {
          "$type": "GFFKENEJFFB",
          "intID": "ElementState",
          "value": 2
        },
        {
          "$type": "ResetAnimatorTrigger",
          "triggerID": "ShiledBrokenTrigger"
        }
      ]
    }
  },
  {
    "Default": {
      "$type": "ConfigAbility",
      "abilityName": "Abyss_Fire_SacrificeAlert",
      "onAbilityStart": [
        {
          "$type": "GFFKENEJFFB",
          "intID": "ElementState",
          "value": 2
        },
        {
          "$type": "TriggerAbility",
          "abilityName": "Abyss_Fire_ElementShield"
        },
        {
          "$type": "TriggerAbility",
          "abilityName": "Abyss_Fire_ElementShield_Effect"
        }
      ]
    }
  },
  {
    "Default": {
      "$type": "ConfigAbility",
      "abilityName": "Abyss_Fire_WeaponElement",
      "abilityMixins": [
        {
          "$type": "LEOGLBFIELL",
          "poseIDs": [201, 300, 301],
          "modifierName": "WeaponEffect"
        }
      ],
      "modifiers": {
        "WeaponEffect": {
          "modifierName": "",
          "elementDurability": 100.0,
          "onAdded": [
            {
              "$type": "AttachEffect",
              "rotationDampTime": "Eff_Monster_Abyss_Fire_WeaponElement",
              "PPPDJGDDOGD": 1.0,
              "AJDILHJFNKE": -1.0
            }
          ],
          "onKill": [
            {
              "$type": "RemoveModifier",
              "modifierName": "WeaponEffect"
            }
          ]
        }
      }
    }
  },
  {
    "Default": {
      "$type": "ConfigAbility",
      "abilityName": "Abyss_Fire_ElementShield",
      "abilityMixins": [
        {
          "$type": "LEOGLBFIELL",
          "poseIDs": [300, 301, 302],
          "modifierName": "Abyss_Fire_ElementShield_RecoverHandler"
        }
      ],
      "abilitySpecials": {
        "ElementShield_DurabilityImprove": 0.0
      },
      "modifiers": {
        "Abyss_Fire_ElementShield_RecoverHandler": {
          "modifierName": "",
          "elementDurability": 100.0,
          "onReconnect": [
            {
              "$type": "ApplyModifier",
              "modifierName": "UNIQUE_Abyss_Fire_ElementShield"
            }
          ]
        },
        "UNIQUE_MonsterEliteAffix_DefaultState": {
          "modifierName": "",
          "forceTriggerWhenChangeAuthority": true,
          "elementDurability": 100.0,
          "onAdded": [
            {
              "$type": "HNGKOKDJKDL",
              "skillEliteSetID": 1
            }
          ]
        },
        "UNIQUE_Abyss_Fire_ElementShield": {
          "stacking": "Unique",
          "modifierName": "",
          "forceTriggerWhenChangeAuthority": true,
          "elementType": "Fire",
          "elementDurability": [
            300.0,
            "ElementShield_DurabilityImprove",
            "MUL",
            300.0,
            "ADD"
          ],
          "modifierMixins": [
            {
              "$type": "AAPIOACHKCI",
              "elementType": "Fire",
              "showDamageText": "",
              "DLBHHADKGJN": 360.0,
              "maxShieldByHPRatio": 1.0,
              "shieldAngle": 0.20000000298023224,
              "onShieldSuccess": [
                {
                  "$type": "Predicated",
                  "target": "Target",
                  "targetPredicates": [
                    {
                      "$type": "ByEntityTypes",
                      "entityTypes": ["Avatar", "Partner", "Vehicle"]
                    }
                  ],
                  "successActions": [
                    {
                      "$type": "SetGlobalDir",
                      "target": "Target",
                      "key": "_ABILITY_ABYSS_FIRE_ELEMENTSHIELD_HIT",
                      "born": {
                        "$type": "ConfigBornBySelf",
                        "direction": {
                          "$type": "PIKKPLPCLKE",
                          "namedTransform": ""
                        }
                      },
                      "setTarget": false
                    }
                  ],
                  "failActions": [
                    {
                      "$type": "SetGlobalDir",
                      "target": "TargetOriginOwner",
                      "key": "_ABILITY_ABYSS_FIRE_ELEMENTSHIELD_HIT",
                      "born": {
                        "$type": "ConfigBornBySelf",
                        "direction": {
                          "$type": "PIKKPLPCLKE",
                          "namedTransform": ""
                        }
                      },
                      "setTarget": false
                    }
                  ]
                },
                {
                  "$type": "FireEffect",
                  "rotationDampTime": "Eff_Monster_Abyss_Fire_ElementShield_Hit_Invalid",
                  "born": {
                    "$type": "ConfigBornByTarget",
                    "direction": {
                      "$type": "ConfigDirectionByGlobalValue",
                      "directionKey": "_ABILITY_ABYSS_FIRE_ELEMENTSHIELD_HIT"
                    }
                  },
                  "PPPDJGDDOGD": 1.0,
                  "AJDILHJFNKE": -1.0
                },
                {
                  "$type": "SendEffectTrigger",
                  "parameter": "BeHitInvalid",
                  "attachPoint": "",
                  "rotationDampTime": "Eff_Monster_Abyss_Fire_ElementShield_BS"
                }
              ],
              "onShieldFailed": [
                {
                  "$type": "Predicated",
                  "target": "Target",
                  "targetPredicates": [
                    {
                      "$type": "ByEntityTypes",
                      "entityTypes": ["Avatar", "Partner", "Vehicle"]
                    }
                  ],
                  "successActions": [
                    {
                      "$type": "SetGlobalDir",
                      "target": "Target",
                      "key": "_ABILITY_ABYSS_FIRE_ELEMENTSHIELD_HIT",
                      "born": {
                        "$type": "ConfigBornBySelf",
                        "direction": {
                          "$type": "PIKKPLPCLKE",
                          "namedTransform": ""
                        }
                      },
                      "setTarget": false
                    }
                  ],
                  "failActions": [
                    {
                      "$type": "SetGlobalDir",
                      "target": "TargetOriginOwner",
                      "key": "_ABILITY_ABYSS_FIRE_ELEMENTSHIELD_HIT",
                      "born": {
                        "$type": "ConfigBornBySelf",
                        "direction": {
                          "$type": "PIKKPLPCLKE",
                          "namedTransform": ""
                        }
                      },
                      "setTarget": false
                    }
                  ]
                },
                {
                  "$type": "FireEffect",
                  "rotationDampTime": "Eff_Monster_Abyss_Fire_ElementShield_Hit",
                  "born": {
                    "$type": "ConfigBornByTarget",
                    "direction": {
                      "$type": "ConfigDirectionByGlobalValue",
                      "directionKey": "_ABILITY_ABYSS_FIRE_ELEMENTSHIELD_HIT"
                    }
                  },
                  "PPPDJGDDOGD": 1.0,
                  "AJDILHJFNKE": -1.0
                },
                {
                  "$type": "SendEffectTrigger",
                  "parameter": "BeHit",
                  "attachPoint": "",
                  "rotationDampTime": "Eff_Monster_Abyss_Fire_ElementShield_BS"
                }
              ],
              "useMutiPlayerFixData": true,
              "updateShieldByMaxHp": true
            },
            {
              "$type": "CIBMLJJLANN",
              "excludeForces": ["WindZoneType"]
            }
          ],
          "properties": {
            "Actor_EndureDelta": 0.0
          },
          "onAdded": [
            {
              "$type": "AddGlobalValue",
              "value": 1.0,
              "key": "_ABILITY_ABYSS_FIRE_ELEMENTSHIELD",
              "useLimitRange": true,
              "maxValue": 1.0,
              "minValue": 0.0
            },
            {
              "$type": "ApplyModifier",
              "modifierName": "UNIQUE_Abyss_Fire_MoveOnWaterHandler"
            },
            {
              "$type": "AttachAbilityStateResistance",
              "resistanceListID": 14001
            }
          ],
          "onRemoved": [
            {
              "$type": "SetAnimatorTrigger",
              "triggerID": "ShiledBrokenTrigger"
            },
            {
              "$type": "GFFKENEJFFB",
              "intID": "ElementState"
            },
            {
              "$type": "AddGlobalValue",
              "value": -1.0,
              "key": "_ABILITY_ABYSS_FIRE_ELEMENTSHIELD",
              "useLimitRange": true,
              "maxValue": 1.0,
              "minValue": 0.0
            },
            {
              "$type": "AHPEKICBIIL",
              "predicates": [
                {
                  "$type": "ByTargetGlobalValue",
                  "target": "Self",
                  "key": "ShieldActivity",
                  "value": 0.0,
                  "compareType": "MoreThan"
                }
              ],
              "luaCallType": "FromGroup",
              "funcName": "SLC_BuffDungeon_50_Add_Counter",
              "param1": 0.0,
              "MGAMDEHMCOL": 0.0,
              "MMHOHAOGPLP": 0.0
            },
            {
              "$type": "RemoveUniqueModifier",
              "predicates": [
                {
                  "$type": "ByTargetGlobalValue",
                  "key": "_RETURNTOBORN_TAG_",
                  "value": 0.0,
                  "compareType": "NoneOrEqual"
                }
              ],
              "modifierName": "UNIQUE_Abyss_Fire_MoveOnWaterHandler"
            },
            {
              "$type": "RemoveUniqueModifier",
              "modifierName": "UNIQUE_Abyss_Fire_ElementShield_Effect"
            },
            {
              "$type": "KillSelf",
              "predicates": [
                {
                  "$type": "ByTargetGlobalValue",
                  "key": "_MONSTER_ForCharAmusement_Shield",
                  "value": 1.0
                }
              ]
            }
          ],
          "onBeingHit": [
            {
              "$type": "DamageByAttackValue",
              "target": "Target",
              "predicates": [
                {
                  "$type": "ByTargetGlobalValue",
                  "key": "_ELITEAFFIX_DEFENCE_ENHANCE",
                  "value": 1.0,
                  "forceByCaster": true
                },
                {
                  "$type": "ByEntityTypes",
                  "entityTypes": ["Avatar", "Vehicle", "Partner"]
                },
                {
                  "$type": "ByAnimatorFloat",
                  "target": "Caster",
                  "logic": "GreaterOrEqual",
                  "value": 301.0,
                  "parameter": "PoseID"
                }
              ],
              "attackInfo": {
                "attackTag": "",
                "attenuationTag": "",
                "attenuationGroup": "default",
                "attackProperty": {
                  "actorGrassSubHurtDelta": 0.0,
                  "actorWindSubHurtDelta": 0.0,
                  "elementType": "Fire",
                  "elementDurability": 25.0,
                  "enBreak": 0.0,
                  "GLKMCMDJBIK": 0.0
                },
                "hitPattern": {
                  "onHitEffectName": "none",
                  "hitImpulseY": "",
                  "hitImpulseType": "LV0",
                  "muteHitText": true
                }
              }
            },
            {
              "$type": "DamageByAttackValue",
              "target": "TargetOwner",
              "predicates": [
                {
                  "$type": "ByTargetGlobalValue",
                  "key": "_ELITEAFFIX_DEFENCE_ENHANCE",
                  "value": 1.0,
                  "forceByCaster": true
                },
                {
                  "$type": "ByEntityTypes",
                  "entityTypes": ["Avatar", "Vehicle", "Partner"]
                },
                {
                  "$type": "ByAnimatorFloat",
                  "target": "Caster",
                  "logic": "GreaterOrEqual",
                  "value": 301.0,
                  "parameter": "PoseID"
                }
              ],
              "attackInfo": {
                "attackTag": "",
                "attenuationTag": "",
                "attenuationGroup": "default",
                "attackProperty": {
                  "actorGrassSubHurtDelta": 0.0,
                  "actorWindSubHurtDelta": 0.0,
                  "elementType": "Fire",
                  "elementDurability": 25.0,
                  "enBreak": 0.0,
                  "GLKMCMDJBIK": 0.0
                },
                "hitPattern": {
                  "onHitEffectName": "none",
                  "hitImpulseY": "",
                  "hitImpulseType": "LV0",
                  "muteHitText": true
                }
              }
            }
          ],
          "onKill": [
            {
              "$type": "RemoveUniqueModifier",
              "modifierName": "UNIQUE_Abyss_Fire_ElementShield"
            }
          ]
        },
        "UNIQUE_Abyss_Fire_MoveOnWaterHandler": {
          "modifierName": "",
          "forceTriggerWhenChangeAuthority": true,
          "elementDurability": 100.0,
          "modifierMixins": [
            {
              "$type": "EnableCharacterMoveOnWaterMixin"
            }
          ]
        }
      },
      "onAdded": [
        {
          "$type": "SetGlobalValueToOverrideMap",
          "globalValueKey": "_MONSTERAFFIX_ELEMENTSHIELD_DURABILITYIMPROVE",
          "overrideMapKey": "ElementShield_DurabilityImprove"
        },
        {
          "$type": "ApplyModifier",
          "predicates": [
            {
              "$type": "ByTargetGlobalValue",
              "key": "_ELITEAFFIX_TAG",
              "value": 0.0,
              "compareType": "NoneOrEqual"
            }
          ],
          "modifierName": "UNIQUE_MonsterEliteAffix_DefaultState"
        },
        {
          "$type": "GFFKENEJFFB",
          "intID": "ElementState",
          "value": 2
        },
        {
          "$type": "ApplyModifier",
          "modifierName": "UNIQUE_Abyss_Fire_ElementShield"
        }
      ],
      "onAbilityStart": [
        {
          "$type": "GFFKENEJFFB",
          "intID": "ElementState",
          "value": 2
        },
        {
          "$type": "ApplyModifier",
          "modifierName": "UNIQUE_Abyss_Fire_ElementShield"
        }
      ]
    }
  },
  {
    "Default": {
      "$type": "ConfigAbility",
      "abilityName": "Abyss_Fire_ElementShield_Effect",
      "abilityMixins": [
        {
          "$type": "LEOGLBFIELL",
          "poseIDs": [300, 301, 302],
          "modifierName": "Abyss_Fire_ElementShield_Effect_RecoverHandler"
        }
      ],
      "modifiers": {
        "Abyss_Fire_ElementShield_Effect_RecoverHandler": {
          "modifierName": "",
          "elementDurability": 100.0,
          "onReconnect": [
            {
              "$type": "ApplyModifier",
              "modifierName": "UNIQUE_Abyss_Fire_ElementShield_Effect"
            }
          ]
        },
        "UNIQUE_Abyss_Fire_ElementShield_Effect": {
          "stacking": "Unique",
          "modifierName": "",
          "forceTriggerWhenChangeAuthority": true,
          "elementDurability": 100.0,
          "onAdded": [
            {
              "$type": "EnableHitBoxByName",
              "hitBoxNames": ["HitBox_ElementShield"],
              "setEnable": true
            },
            {
              "$type": "EnableHitBoxByName",
              "hitBoxNames": ["HitBox", "HeadBox"]
            },
            {
              "$type": "EnablePushColliderName",
              "pushColliderNames": ["PushCollider_ElementShield"],
              "setEnable": true
            },
            {
              "$type": "AttachEffect",
              "rotationDampTime": "Eff_Monster_Abyss_Fire_ElementShield_BS",
              "PPPDJGDDOGD": 1.0,
              "AJDILHJFNKE": -1.0
            }
          ],
          "onRemoved": [
            {
              "$type": "EnableHitBoxByName",
              "hitBoxNames": ["HitBox_ElementShield"]
            },
            {
              "$type": "EnableHitBoxByName",
              "hitBoxNames": ["HitBox", "HeadBox"],
              "setEnable": true
            },
            {
              "$type": "EnablePushColliderName",
              "pushColliderNames": ["PushCollider_ElementShield"]
            }
          ]
        }
      },
      "onAbilityStart": [
        {
          "$type": "ApplyModifier",
          "predicates": [
            {
              "$type": "ByTargetGlobalValue",
              "key": "_ABILITY_ABYSS_FIRE_ELEMENTSHIELD",
              "value": 1.0
            }
          ],
          "modifierName": "UNIQUE_Abyss_Fire_ElementShield_Effect"
        }
      ]
    }
  },
  {
    "Default": {
      "$type": "ConfigAbility",
      "abilityName": "Abyss_Fire_ElementShield_Remove",
      "onAbilityStart": [
        {
          "$type": "RemoveUniqueModifier",
          "modifierName": "UNIQUE_Abyss_Fire_ElementShield"
        }
      ]
    }
  },
  {
    "Default": {
      "$type": "ConfigAbility",
      "abilityName": "Abyss_Fire_DizzyTimer",
      "abilityMixins": [
        {
          "$type": "LEOGLBFIELL",
          "poseIDs": [100, 101],
          "modifierName": "Abyss_Fire_DizzyTimer_Handler"
        }
      ],
      "abilitySpecials": {
        "ElementShield_GapReduce": 0.0
      },
      "modifiers": {
        "Abyss_Fire_DizzyTimer_Handler": {
          "modifierName": "",
          "elementDurability": 100.0,
          "onAdded": [
            {
              "$type": "ApplyModifier",
              "modifierName": "UNIQUE_Abyss_Fire_DizzyTimer"
            }
          ],
          "onReconnect": [
            {
              "$type": "ApplyModifier",
              "modifierName": "UNIQUE_Abyss_Fire_DizzyTimer"
            }
          ]
        },
        "UNIQUE_Abyss_Fire_DizzyTimer": {
          "stacking": "Unique",
          "modifierName": "",
          "forceTriggerWhenChangeAuthority": true,
          "duration": [
            12.0,
            "ElementShield_GapReduce",
            "MUL",
            12.0,
            "ADD"
          ],
          "elementDurability": 100.0,
          "properties": {
            "Actor_EndureDelta": 3.0
          },
          "onRemoved": [
            {
              "$type": "GFFKENEJFFB",
              "predicates": [
                {
                  "$type": "ByTargetGlobalValue",
                  "key": "_ABILITY_ABYSS_FIRE_ELEMENTSHIELD",
                  "value": 0.0,
                  "compareType": "NoneOrEqual"
                }
              ],
              "intID": "ElementState",
              "value": 1
            }
          ]
        }
      },
      "onAdded": [
        {
          "$type": "SetGlobalValueToOverrideMap",
          "globalValueKey": "_MONSTERAFFIX_ELEMENTSHIELD_GAPREDUCE",
          "overrideMapKey": "ElementShield_GapReduce"
        }
      ]
    }
  },
  {
    "Default": {
      "$type": "ConfigAbility",
      "abilityName": "Abyss_Fire_GatherStart",
      "abilityMixins": [
        {
          "$type": "AttachToStateIDMixin",
          "stateIDs": ["GatherStart", "GatherLoop", "GatherSuccess_Alert"],
          "modifierName": "GatherState",
          "DGFCLAIDIFI": ""
        },
        {
          "$type": "LEOGLBFIELL",
          "poseIDs": [201],
          "modifierName": "GatherEndure"
        }
      ],
      "modifiers": {
        "GatherEndure": {
          "modifierName": "",
          "elementDurability": 100.0,
          "properties": {
            "Actor_EndureDelta": 0.4000000059604645
          }
        },
        "GatherState": {
          "modifierName": "",
          "elementDurability": 100.0,
          "onAdded": [
            {
              "$type": "AddGlobalValue",
              "value": 1.0,
              "key": "_GATHERFAILEDSTATE_",
              "useLimitRange": true,
              "maxValue": 1.0,
              "minValue": 1.0
            }
          ],
          "onRemoved": [
            {
              "$type": "GFFKENEJFFB",
              "predicates": [
                {
                  "$type": "ByTargetGlobalValue",
                  "key": "_ABILITY_ABYSS_FIRE_ELEMENTSHIELD",
                  "value": 0.0,
                  "compareType": "NoneOrEqual"
                }
              ],
              "intID": "ElementState"
            }
          ]
        }
      }
    }
  },
  {
    "Default": {
      "$type": "ConfigAbility",
      "abilityName": "Abyss_Fire_GatherLoop",
      "abilityMixins": [
        {
          "$type": "AttachToStateIDMixin",
          "stateIDs": ["GatherLoop"],
          "modifierName": "GatherLoop_Effect",
          "DGFCLAIDIFI": ""
        },
        {
          "$type": "AttachToStateIDMixin",
          "stateIDs": ["GatherLoop"],
          "modifierName": "Gather_FireImpulse_Default",
          "DGFCLAIDIFI": ""
        }
      ],
      "modifiers": {
        "GatherLoop_Effect": {
          "modifierName": "",
          "elementDurability": 100.0,
          "thinkInterval": 1.0,
          "onAdded": [
            {
              "$type": "AttachEffect",
              "rotationDampTime": "Eff_Monster_Abyss_Fire_Gather",
              "PPPDJGDDOGD": 1.0,
              "AJDILHJFNKE": -1.0
            },
            {
              "$type": "AttachEffect",
              "rotationDampTime": "Eff_Monster_Abyss_Fire_WeaponElement",
              "PPPDJGDDOGD": 1.0,
              "AJDILHJFNKE": -1.0
            },
            {
              "$type": "ApplyModifier",
              "modifierName": "Abyss_Fire_FireImpulse_InitGV"
            },
            {
              "$type": "AddGlobalValue",
              "value": -1.0,
              "key": "_ABILITY_FIREIMPULSE_TARGET",
              "useLimitRange": true,
              "maxValue": 1.0,
              "minValue": 0.0
            },
            {
              "$type": "CreateGadget",
              "born": {
                "$type": "ConfigBornByTarget"
              },
              "gadgetID": 42201008,
              "campID": 4001,
              "campTargetType": "Enemy"
            }
          ],
          "onThinkInterval": [
            {
              "$type": "CreateGadget",
              "target": "SelfAttackTarget",
              "predicates": [
                {
                  "$type": "ByTargetGlobalValue",
                  "key": "_ABILITY_FIREIMPULSE_HIT",
                  "value": 0.0,
                  "forceByCaster": true
                },
                {
                  "$type": "ByTargetGlobalValue",
                  "key": "_ABILITY_FIREIMPULSE_TARGET",
                  "value": 1.0,
                  "forceByCaster": true
                }
              ],
              "born": {
                "$type": "MPCGPEHJNNH",
                "onGround": true,
                "timeForPredictive": 0.75
              },
              "gadgetID": 42201007,
              "campID": 4001,
              "campTargetType": "Enemy"
            }
          ]
        },
        "Gather_FireImpulse_Default": {
          "modifierName": "",
          "elementDurability": 100.0,
          "thinkInterval": 0.75,
          "onThinkInterval": [
            {
              "$type": "SetGlobalPos",
              "key": "Gather_BornPos",
              "born": {
                "$type": "ConfigBornByTarget",
                "bornRandom": {
                  "$type": "BornRandomFromCenter",
                  "minRandomRange": 2.0,
                  "maxRandomRange": 7.0
                }
              }
            },
            {
              "$type": "CreateGadget",
              "born": {
                "$type": "ConfigBornByGlobalValue",
                "positionKey": "Gather_BornPos",
                "directionKey": ""
              },
              "checkGround": {
                "enable": true,
                "raycastDownHeight": 10.0
              },
              "gadgetID": 42201007,
              "campID": 4001,
              "campTargetType": "Enemy"
            }
          ]
        },
        "Abyss_Fire_FireImpulse_InitGV": {
          "stacking": "MultipleRefresh",
          "stackingOption": {
            "abilitySpecialName": "",
            "maxModifierNumForMultipleType": 1.0
          },
          "modifierName": "",
          "duration": 0.10000000149011612,
          "elementDurability": 100.0,
          "onAdded": [
            {
              "$type": "AddGlobalValue",
              "value": -1.0,
              "key": "_ABILITY_FIREIMPULSE_HIT",
              "useLimitRange": true,
              "maxValue": 1.0,
              "minValue": 0.0
            }
          ]
        }
      }
    }
  },
  {
    "Default": {
      "$type": "ConfigAbility",
      "abilityName": "Abyss_Fire_GatherAlert",
      "abilityMixins": [
        {
          "$type": "AttachToStateIDMixin",
          "stateIDs": ["GatherSuccess_Alert"],
          "modifierName": "GatherAlert",
          "DGFCLAIDIFI": ""
        }
      ],
      "modifiers": {
        "GatherAlert": {
          "modifierName": "",
          "elementDurability": 100.0,
          "onAdded": [
            {
              "$type": "AttachEffect",
              "rotationDampTime": "Eff_Monster_Abyss_Fire_Gather_Alert",
              "PPPDJGDDOGD": 1.0,
              "AJDILHJFNKE": -1.0
            }
          ]
        }
      }
    }
  },
  {
    "Default": {
      "$type": "ConfigAbility",
      "abilityName": "Abyss_Fire_GatherSuccess",
      "onAbilityStart": [
        {
          "$type": "RemoveUniqueModifier",
          "modifierName": "UNIQUE_Abyss_Fire_DizzyTimer"
        },
        {
          "$type": "FireEffect",
          "rotationDampTime": "Eff_Monster_Abyss_Fire_Gather_AS_Hor",
          "born": {
            "$type": "ConfigBornByTarget",
            "offset": {
              "x": 0.0,
              "y": 1.0,
              "z": 0.0
            }
          },
          "PPPDJGDDOGD": 1.0,
          "AJDILHJFNKE": -1.0
        },
        {
          "$type": "TriggerAttackEvent",
          "attackEvent": {
            "attackPattern": {
              "$type": "ConfigAttackCircle",
              "triggerType": "TriggerNoRepeat",
              "born": {
                "$type": "ConfigBornBySelf",
                "offset": {
                  "x": 0.0,
                  "y": 0.75,
                  "z": 0.0
                }
              },
              "radius": 5.0
            },
            "attackInfo": {
              "attackTag": "",
              "attenuationTag": "",
              "attenuationGroup": "default",
              "attackProperty": {
                "actorGrassSubHurtDelta": 1.0,
                "actorWindSubHurtDelta": 0.0,
                "elementType": "Fire",
                "elementDurability": 50.0,
                "strikeType": "Default",
                "enBreak": 200.0,
                "GLKMCMDJBIK": 0.0
              },
              "hitPattern": {
                "onHitEffectName": "default",
                "hitImpulseY": "",
                "hitImpulseType": "LV5",
                "hitHaltTimeScale": 0.05000000074505806
              }
            }
          },
          "targetType": "Enemy"
        },
        {
          "$type": "FireEffect",
          "rotationDampTime": "Eff_Monster_Abyss_Fire_Gather_AS_Ver",
          "born": {
            "$type": "ConfigBornByTarget",
            "offset": {
              "x": 0.0,
              "y": 0.0,
              "z": 0.0
            }
          },
          "PPPDJGDDOGD": 1.0,
          "AJDILHJFNKE": -1.0
        },
        {
          "$type": "TriggerAttackEvent",
          "attackEvent": {
            "attackPattern": {
              "$type": "ConfigAttackBox",
              "triggerType": "TriggerNoRepeat",
              "born": {
                "$type": "ConfigBornBySelf",
                "offset": {
                  "x": 0.0,
                  "y": 5.0,
                  "z": -0.5
                }
              },
              "size": {
                "x": 1.0,
                "y": 10.0,
                "z": 1.0
              }
            },
            "attackInfo": {
              "attackTag": "",
              "attenuationTag": "",
              "attenuationGroup": "default",
              "attackProperty": {
                "actorGrassSubHurtDelta": 1.3329999446868896,
                "actorWindSubHurtDelta": 0.0,
                "elementType": "Fire",
                "elementDurability": 50.0,
                "strikeType": "Default",
                "enBreak": 200.0,
                "GLKMCMDJBIK": 0.0
              },
              "hitPattern": {
                "onHitEffectName": "default",
                "hitImpulseY": "",
                "hitImpulseType": "LV5",
                "hitHaltTimeScale": 0.05000000074505806
              }
            }
          },
          "targetType": "Enemy"
        },
        {
          "$type": "ActCameraShake",
          "cameraShake": {
            "shakeType": "CustomVector",
            "shakeRange": 0.1599999964237213,
            "shakeTime": 0.30000001192092896,
            "shakeDistance": 25.0,
            "shakeDir": {
              "y": 1.0
            },
            "extension": {
              "rangeAttenuation": 0.8999999761581421
            }
          }
        },
        {
          "$type": "AddGlobalValue",
          "value": 0.0,
          "key": "_GATHERFAILEDSTATE_",
          "useLimitRange": true,
          "maxValue": 0.0,
          "minValue": 0.0
        }
      ],
      "onKill": [
        {
          "$type": "HCLAKBJKPLE",
          "predicates": [
            {
              "$type": "ByTargetGlobalValue",
              "target": "Self",
              "key": "_GATHERFAILEDSTATE_",
              "value": 1.0
            }
          ],
          "watcherId": 82006,
          "inThreatListOnly": true
        }
      ]
    }
  },
  {
    "Default": {
      "$type": "ConfigAbility",
      "abilityName": "Abyss_Fire_Impulse",
      "modifiers": {
        "FireImpulse": {
          "modifierName": "",
          "duration": 0.6000000238418579,
          "elementDurability": 100.0,
          "onAdded": [
            {
              "$type": "FireEffect",
              "rotationDampTime": "Eff_Monster_Abyss_Fire_Impulse",
              "PPPDJGDDOGD": 1.0,
              "AJDILHJFNKE": -1.0
            },
            {
              "$type": "FireEffect",
              "rotationDampTime": "Eff_Monster_Abyss_Fire_Impulse_Alert",
              "PPPDJGDDOGD": 1.0,
              "AJDILHJFNKE": -1.0
            }
          ],
          "onRemoved": [
            {
              "$type": "ApplyModifier",
              "modifierName": "FireImpulse_Damage"
            }
          ]
        },
        "FireImpulse_Damage": {
          "modifierName": "",
          "elementDurability": 100.0,
          "onAdded": [
            {
              "$type": "TriggerAttackEvent",
              "attackEvent": {
                "attackPattern": {
                  "$type": "ConfigAttackCircle",
                  "triggerType": "TriggerNoRepeat",
                  "born": {
                    "$type": "ConfigBornBySelf",
                    "offset": {
                      "x": 0.0,
                      "y": 0.0,
                      "z": 0.0
                    }
                  },
                  "height": 3.0,
                  "radius": 0.75
                },
                "attackInfo": {
                  "attackTag": "",
                  "attenuationTag": "",
                  "attenuationGroup": "default",
                  "attackProperty": {
                    "actorGrassSubHurtDelta": 1.0,
                    "actorWindSubHurtDelta": 0.0,
                    "elementType": "Fire",
                    "elementDurability": 50.0,
                    "strikeType": "Default",
                    "enBreak": 100.0,
                    "attackType": "Range",
                    "GLKMCMDJBIK": 0.0
                  },
                  "hitPattern": {
                    "onHitEffectName": "default",
                    "hitImpulseY": "",
                    "hitImpulseType": "LV7",
                    "hitHaltTimeScale": 0.05000000074505806
                  },
                  "forceCameraShake": true,
                  "cameraShake": {
                    "shakeType": "CustomVector",
                    "shakeRange": 0.03999999910593033,
                    "shakeTime": 0.11999999731779099,
                    "shakeDir": {
                      "y": 1.0
                    },
                    "extension": {}
                  },
                  "canBeModifiedBy": "OriginOwner"
                }
              },
              "targetType": "Enemy"
            }
          ],
          "onAttackLanded": [
            {
              "$type": "ApplyModifier",
              "target": "Owner",
              "modifierName": "Abyss_Fire_FireImpulse_AddGV"
            },
            {
              "$type": "ApplyModifier",
              "modifierName": "FireImpulse_HitDelay"
            }
          ]
        },
        "FireImpulse_HitDelay": {
          "modifierName": "",
          "duration": 1.5,
          "elementDurability": 100.0,
          "onRemoved": [
            {
              "$type": "ApplyModifier",
              "target": "Owner",
              "modifierName": "Abyss_Fire_FireImpulse_ReduceGV"
            }
          ]
        },
        "Abyss_Fire_FireImpulse_AddGV": {
          "stacking": "MultipleRefresh",
          "stackingOption": {
            "abilitySpecialName": "",
            "maxModifierNumForMultipleType": 1.0
          },
          "modifierName": "",
          "duration": 0.10000000149011612,
          "elementDurability": 100.0,
          "onAdded": [
            {
              "$type": "AddGlobalValue",
              "value": 1.0,
              "key": "_ABILITY_FIREIMPULSE_HIT",
              "useLimitRange": true,
              "maxValue": 1.0,
              "minValue": 0.0
            }
          ]
        },
        "Abyss_Fire_FireImpulse_ReduceGV": {
          "stacking": "MultipleRefresh",
          "stackingOption": {
            "abilitySpecialName": "",
            "maxModifierNumForMultipleType": 1.0
          },
          "modifierName": "",
          "duration": 0.10000000149011612,
          "elementDurability": 100.0,
          "onAdded": [
            {
              "$type": "AddGlobalValue",
              "value": -1.0,
              "key": "_ABILITY_FIREIMPULSE_HIT",
              "useLimitRange": true,
              "maxValue": 1.0,
              "minValue": 0.0
            }
          ]
        }
      },
      "onAdded": [
        {
          "$type": "AttachModifier",
          "modifierName": "FireImpulse"
        }
      ]
    }
  },
  {
    "Default": {
      "$type": "ConfigAbility",
      "abilityName": "Abyss_Fire_ImpulseArea",
      "modifiers": {
        "Abyss_Fire_ImpulseArea_AddGV": {
          "stacking": "MultipleRefresh",
          "stackingOption": {
            "abilitySpecialName": "",
            "maxModifierNumForMultipleType": 1.0
          },
          "modifierName": "",
          "duration": 0.10000000149011612,
          "elementDurability": 100.0,
          "onAdded": [
            {
              "$type": "AddGlobalValue",
              "value": 1.0,
              "key": "_ABILITY_FIREIMPULSE_TARGET",
              "useLimitRange": true,
              "maxValue": 1.0,
              "minValue": 0.0
            }
          ]
        },
        "Abyss_Fire_ImpulseArea_ReduceGV": {
          "stacking": "MultipleRefresh",
          "stackingOption": {
            "abilitySpecialName": "",
            "maxModifierNumForMultipleType": 1.0
          },
          "modifierName": "",
          "duration": 0.10000000149011612,
          "elementDurability": 100.0,
          "onAdded": [
            {
              "$type": "AddGlobalValue",
              "value": -1.0,
              "key": "_ABILITY_FIREIMPULSE_TARGET",
              "useLimitRange": true,
              "maxValue": 1.0,
              "minValue": 0.0
            }
          ]
        }
      },
      "onFieldEnter": [
        {
          "$type": "ApplyModifier",
          "target": "Owner",
          "modifierName": "Abyss_Fire_ImpulseArea_AddGV"
        }
      ],
      "onFieldExit": [
        {
          "$type": "ApplyModifier",
          "target": "Owner",
          "modifierName": "Abyss_Fire_ImpulseArea_ReduceGV"
        }
      ]
    }
  },
  {
    "Default": {
      "$type": "ConfigAbility",
      "abilityName": "Abyss_Fire_BlinkEffect",
      "abilityMixins": [
        {
          "$type": "AttachToStateIDMixin",
          "stateIDs": ["Blink"],
          "modifierName": "Blink_State",
          "DGFCLAIDIFI": ""
        }
      ],
      "modifiers": {
        "Blink_State": {
          "modifierName": "",
          "elementDurability": 100.0,
          "onRemoved": [
            {
              "$type": "RemoveUniqueModifier",
              "modifierName": "UNIQUE_Blink_Shield"
            },
            {
              "$type": "RemoveUniqueModifier",
              "modifierName": "UNIQUE_Blink_Actions"
            }
          ]
        },
        "UNIQUE_Blink_Shield": {
          "modifierName": "",
          "forceTriggerWhenChangeAuthority": true,
          "elementDurability": 100.0,
          "onAdded": [
            {
              "$type": "RemoveUniqueModifier",
              "modifierName": "UNIQUE_Abyss_Fire_ElementShield_Effect"
            }
          ],
          "onRemoved": [
            {
              "$type": "TriggerAbility",
              "predicates": [
                {
                  "$type": "ByTargetGlobalValue",
                  "key": "_ABILITY_ABYSS_FIRE_ELEMENTSHIELD",
                  "value": 1.0
                }
              ],
              "abilityName": "Abyss_Fire_ElementShield_Effect"
            }
          ]
        },
        "UNIQUE_Blink_Actions": {
          "modifierName": "",
          "forceTriggerWhenChangeAuthority": true,
          "elementDurability": 100.0,
          "onAdded": [
            {
              "$type": "FireEffect",
              "predicates": [
                {
                  "$type": "ByTargetGlobalValue",
                  "key": "_ELITEAFFIX_AGILITY_ENHANCE",
                  "value": 1.0
                }
              ],
              "rotationDampTime": "Eff_Monster_Abyss_Fire_Blink_AS",
              "born": {
                "$type": "ConfigBornByTarget",
                "offset": {
                  "x": 0.0,
                  "y": 0.6499999761581421,
                  "z": 0.0
                }
              },
              "PPPDJGDDOGD": 1.0,
              "AJDILHJFNKE": -1.0
            },
            {
              "$type": "TriggerAbility",
              "predicates": [
                {
                  "$type": "ByTargetGlobalValue",
                  "key": "_ELITEAFFIX_AGILITY_ENHANCE",
                  "value": 1.0
                }
              ],
              "abilityName": "Abyss_Fire_DoBlink_Damage"
            },
            {
              "$type": "AttachModifier",
              "modifierName": "Blink_Invincible"
            },
            {
              "$type": "AttachModifier",
              "modifierName": "Blink_DenyLockOn"
            },
            {
              "$type": "TriggerSetVisible"
            },
            {
              "$type": "TriggerHideWeapon",
              "partNames": ["equip01"]
            },
            {
              "$type": "HBNEMPLJCMB",
              "hide": true
            },
            {
              "$type": "EnableHitBoxByName",
              "hitBoxNames": ["HitBox", "HeadBox"]
            },
            {
              "$type": "EnablePushColliderName",
              "pushColliderNames": ["PushCollider"]
            }
          ],
          "onRemoved": [
            {
              "$type": "EnableHitBoxByName",
              "hitBoxNames": ["HitBox", "HeadBox"],
              "setEnable": true
            },
            {
              "$type": "EnablePushColliderName",
              "pushColliderNames": ["PushCollider"],
              "setEnable": true
            },
            {
              "$type": "TriggerSetVisible",
              "KGGEDGKGLDD": true
            },
            {
              "$type": "TriggerHideWeapon",
              "KGGEDGKGLDD": true,
              "partNames": ["equip01"]
            },
            {
              "$type": "HBNEMPLJCMB"
            }
          ]
        },
        "Blink_Invincible": {
          "modifierName": "",
          "elementDurability": 100.0,
          "state": "Invincible"
        },
        "Blink_DenyLockOn": {
          "modifierName": "",
          "elementDurability": 100.0,
          "state": "DenyLockOn"
        }
      },
      "onAbilityStart": [
        {
          "$type": "ApplyModifier",
          "modifierName": "UNIQUE_Blink_Shield"
        },
        {
          "$type": "ApplyModifier",
          "modifierName": "UNIQUE_Blink_Actions"
        },
        {
          "$type": "FireEffect",
          "rotationDampTime": "Eff_Monster_Abyss_Fire_Blink_BS",
          "PPPDJGDDOGD": 1.0,
          "AJDILHJFNKE": -1.0
        },
        {
          "$type": "ClearLockTarget",
          "target": "CurLocalAvatar"
        }
      ]
    }
  },
  {
    "Default": {
      "$type": "ConfigAbility",
      "abilityName": "Abyss_Fire_BlinkPoint",
      "onAbilityStart": [
        {
          "$type": "FIFEAMMHOIC",
          "target": "SelfAttackTarget",
          "forwardAngle": 60.0,
          "minRange": 5.0,
          "maxRange": 7.0
        },
        {
          "$type": "FireEffect",
          "rotationDampTime": "Eff_Monster_Abyss_Fire_Blink",
          "born": {
            "$type": "DNEKFAOHKBC"
          },
          "PPPDJGDDOGD": 1.0,
          "AJDILHJFNKE": -1.0
        }
      ]
    }
  },
  {
    "Default": {
      "$type": "ConfigAbility",
      "abilityName": "Abyss_Fire_DoBlink",
      "onAbilityStart": [
        {
          "$type": "IFCMHHHOLCK"
        }
      ]
    }
  },
  {
    "Default": {
      "$type": "ConfigAbility",
      "abilityName": "Abyss_Fire_DoBlink_Visible",
      "onAbilityStart": [
        {
          "$type": "FireEffect",
          "rotationDampTime": "Eff_Monster_Abyss_Fire_Blink_AS",
          "born": {
            "$type": "ConfigBornByTarget",
            "offset": {
              "x": 0.0,
              "y": 0.6499999761581421,
              "z": 0.0
            }
          },
          "PPPDJGDDOGD": 1.0,
          "AJDILHJFNKE": -1.0
        },
        {
          "$type": "RemoveUniqueModifier",
          "modifierName": "UNIQUE_Blink_Actions"
        }
      ]
    }
  },
  {
    "Default": {
      "$type": "ConfigAbility",
      "abilityName": "Abyss_Fire_DoBlink_Damage",
      "onAbilityStart": [
        {
          "$type": "TriggerAttackEvent",
          "attackEvent": {
            "attackPattern": {
              "$type": "ConfigAttackCircle",
              "triggerType": "TriggerNoRepeat",
              "born": {
                "$type": "ConfigBornBySelf",
                "offset": {
                  "x": 0.0,
                  "y": 0.0,
                  "z": 0.0
                }
              },
              "height": 2.0,
              "radius": 2.5
            },
            "attackInfo": {
              "attackTag": "",
              "attenuationTag": "",
              "attenuationGroup": "default",
              "attackProperty": {
                "actorGrassSubHurtDelta": 0.6660000085830688,
                "actorWindSubHurtDelta": 0.0,
                "elementType": "Fire",
                "elementDurability": 50.0,
                "strikeType": "Default",
                "enBreak": 50.0,
                "GLKMCMDJBIK": 0.0
              },
              "hitPattern": {
                "onHitEffectName": "default",
                "hitImpulseY": "",
                "hitImpulseType": "LV2",
                "hitHaltTimeScale": 0.05000000074505806
              }
            }
          },
          "targetType": "Enemy"
        }
      ]
    }
  },
  {
    "Default": {
      "$type": "ConfigAbility",
      "abilityName": "Abyss_Fire_Blink_AS",
      "onAbilityStart": [
        {
          "$type": "RemoveUniqueModifier",
          "modifierName": "UNIQUE_Blink_Shield"
        }
      ]
    }
  },
  {
    "Default": {
      "$type": "ConfigAbility",
      "abilityName": "Abyss_Fire_ForceDefend",
      "abilityMixins": [
        {
          "$type": "LEOGLBFIELL",
          "poseIDs": [101],
          "modifierName": "ForceDefend"
        }
      ],
      "modifiers": {
        "ForceDefend": {
          "modifierName": "",
          "elementDurability": 100.0,
          "modifierMixins": [
            {
              "$type": "FMCNBDBHNHH",
              "stateIDs": ["BeHit", "BeHitThrow"],
              "defendTriggerID": "DefendTrigger",
              "defendProbability": 0.20000000298023224,
              "defendProbabilityDelta": 0.0,
              "defendTimeInterval": 8.0,
              "alwaysRecover": false,
              "KDIOGIHFGIL": 0,
              "onDefendSucceded": [
                {
                  "$type": "TriggerAbility",
                  "abilityName": "Abyss_Fire_ForceBlink"
                },
                {
                  "$type": "ClearLockTarget",
                  "target": "CurLocalAvatar"
                }
              ]
            }
          ]
        }
      }
    }
  },
  {
    "Default": {
      "$type": "ConfigAbility",
      "abilityName": "Abyss_Fire_ForceBlink",
      "abilityMixins": [
        {
          "$type": "AttachToStateIDMixin",
          "stateIDs": ["ForceBlink"],
          "modifierName": "ForceBlink_State",
          "DGFCLAIDIFI": ""
        }
      ],
      "modifiers": {
        "ForceBlink_State": {
          "modifierName": "",
          "elementDurability": 100.0,
          "onRemoved": [
            {
              "$type": "RemoveUniqueModifier",
              "modifierName": "UNIQUE_ForceBlink_Actions"
            }
          ]
        },
        "UNIQUE_ForceBlink_Actions": {
          "modifierName": "",
          "forceTriggerWhenChangeAuthority": true,
          "elementDurability": 100.0,
          "onAdded": [
            {
              "$type": "AttachModifier",
              "modifierName": "ForceBlink_Invincible"
            },
            {
              "$type": "AttachModifier",
              "modifierName": "ForceBlink_DenyLockOn"
            },
            {
              "$type": "TriggerSetVisible"
            },
            {
              "$type": "TriggerHideWeapon",
              "partNames": ["equip01"]
            },
            {
              "$type": "HBNEMPLJCMB",
              "hide": true
            },
            {
              "$type": "EnableHitBoxByName",
              "hitBoxNames": ["HitBox", "HeadBox"]
            },
            {
              "$type": "EnablePushColliderName",
              "pushColliderNames": ["PushCollider"]
            }
          ],
          "onRemoved": [
            {
              "$type": "EnableHitBoxByName",
              "hitBoxNames": ["HitBox", "HeadBox"],
              "setEnable": true
            },
            {
              "$type": "EnablePushColliderName",
              "pushColliderNames": ["PushCollider"],
              "setEnable": true
            },
            {
              "$type": "TriggerSetVisible",
              "KGGEDGKGLDD": true
            },
            {
              "$type": "TriggerHideWeapon",
              "KGGEDGKGLDD": true,
              "partNames": ["equip01"]
            },
            {
              "$type": "HBNEMPLJCMB"
            }
          ]
        },
        "ForceBlink_Invincible": {
          "modifierName": "",
          "elementDurability": 100.0,
          "state": "Invincible"
        },
        "ForceBlink_DenyLockOn": {
          "modifierName": "",
          "elementDurability": 100.0,
          "state": "DenyLockOn"
        }
      },
      "onAbilityStart": [
        {
          "$type": "RemoveUniqueModifier",
          "modifierName": "UNIQUE_Abyss_Fire_DizzyTimer"
        },
        {
          "$type": "FIFEAMMHOIC",
          "target": "SelfAttackTarget",
          "forwardAngle": 30.0,
          "minRange": 9.0,
          "maxRange": 12.0
        },
        {
          "$type": "ApplyModifier",
          "modifierName": "UNIQUE_ForceBlink_Actions"
        },
        {
          "$type": "FireEffect",
          "rotationDampTime": "Eff_Monster_Abyss_Fire_Blink_BS",
          "PPPDJGDDOGD": 1.0,
          "AJDILHJFNKE": -1.0
        }
      ]
    }
  },
  {
    "Default": {
      "$type": "ConfigAbility",
      "abilityName": "Abyss_Fire_ForceBlink_DoBlink",
      "onAbilityStart": [
        {
          "$type": "IFCMHHHOLCK"
        },
        {
          "$type": "FireEffect",
          "rotationDampTime": "Eff_Monster_Abyss_Fire_Blink_AS",
          "born": {
            "$type": "ConfigBornByAttachPoint",
            "attachPointName": "RootNode"
          },
          "PPPDJGDDOGD": 1.0,
          "AJDILHJFNKE": -1.0
        }
      ]
    }
  },
  {
    "Default": {
      "$type": "ConfigAbility",
      "abilityName": "Abyss_Fire_ForceBlink_Visible",
      "onAbilityStart": [
        {
          "$type": "RemoveUniqueModifier",
          "modifierName": "UNIQUE_ForceBlink_Actions"
        }
      ]
    }
  },
  {
    "Default": {
      "$type": "ConfigAbility",
      "abilityName": "Abyss_Fire_ForceBlink_AS",
      "onAbilityStart": [
        {
          "$type": "GFFKENEJFFB",
          "intID": "ElementState",
          "value": 1
        }
      ]
    }
  },
  {
    "Default": {
      "$type": "ConfigAbility",
      "abilityName": "Abyss_Fire_ReturnToBorn",
      "abilityMixins": [
        {
          "$type": "AttachToStateIDMixin",
          "stateIDs": ["ReturnToBorn"],
          "modifierName": "ReturnToBorn_Disappear",
          "DGFCLAIDIFI": ""
        }
      ],
      "modifiers": {
        "ReturnToBorn_Disappear": {
          "modifierName": "",
          "elementDurability": 100.0,
          "onAdded": [
            {
              "$type": "SetGlobalValue",
              "value": 1.0,
              "key": "_RETURNTOBORN_TAG_",
              "maxValue": 0.0,
              "minValue": 0.0
            },
            {
              "$type": "AttachModifier",
              "modifierName": "UNIQUE_ReturnToBorn_Shield"
            },
            {
              "$type": "AttachModifier",
              "modifierName": "UNIQUE_ReturnToBorn_Actions"
            },
            {
              "$type": "AttachModifier",
              "modifierName": "UNIQUE_ReturnToBorn_Dizzy"
            },
            {
              "$type": "FireEffect",
              "rotationDampTime": "Eff_Monster_Abyss_Fire_Blink_BS",
              "PPPDJGDDOGD": 1.0,
              "AJDILHJFNKE": -1.0
            }
          ],
          "onRemoved": [
            {
              "$type": "SetGlobalValue",
              "value": 0.0,
              "key": "_RETURNTOBORN_TAG_",
              "maxValue": 0.0,
              "minValue": 0.0
            }
          ]
        },
        "UNIQUE_ReturnToBorn_Shield": {
          "modifierName": "",
          "forceTriggerWhenChangeAuthority": true,
          "elementDurability": 100.0,
          "onAdded": [
            {
              "$type": "RemoveUniqueModifier",
              "modifierName": "UNIQUE_Abyss_Fire_ElementShield"
            },
            {
              "$type": "ResetAnimatorTrigger",
              "triggerID": "ShiledBrokenTrigger"
            },
            {
              "$type": "AttachModifier",
              "modifierName": "ReturnToBorn_Invincible"
            },
            {
              "$type": "AttachModifier",
              "modifierName": "ReturnToBorn_DenyLockOn"
            }
          ],
          "onRemoved": [
            {
              "$type": "GFFKENEJFFB",
              "intID": "ElementState",
              "value": 2
            },
            {
              "$type": "TriggerAbility",
              "abilityName": "Abyss_Fire_ElementShield_Effect"
            }
          ]
        },
        "UNIQUE_ReturnToBorn_Dizzy": {
          "modifierName": "",
          "forceTriggerWhenChangeAuthority": true,
          "elementDurability": 100.0,
          "onRemoved": [
            {
              "$type": "RemoveUniqueModifier",
              "modifierName": "UNIQUE_Abyss_Fire_DizzyTimer"
            },
            {
              "$type": "GFFKENEJFFB",
              "intID": "ElementState",
              "value": 2
            },
            {
              "$type": "TriggerAbility",
              "abilityName": "Abyss_Fire_ElementShield"
            },
            {
              "$type": "TriggerAbility",
              "abilityName": "Abyss_Fire_ElementShield_Effect"
            }
          ]
        },
        "UNIQUE_ReturnToBorn_Actions": {
          "modifierName": "",
          "forceTriggerWhenChangeAuthority": true,
          "elementDurability": 100.0,
          "onAdded": [
            {
              "$type": "TriggerSetVisible"
            },
            {
              "$type": "TriggerHideWeapon",
              "partNames": ["equip01"]
            },
            {
              "$type": "HBNEMPLJCMB",
              "hide": true
            },
            {
              "$type": "EnableHitBoxByName",
              "hitBoxNames": ["HitBox", "HeadBox", "HitBox_ElementShield"]
            },
            {
              "$type": "EnablePushColliderName",
              "pushColliderNames": [
                "PushCollider",
                "PushCollider_ElementShield"
              ]
            }
          ],
          "onRemoved": [
            {
              "$type": "TriggerSetVisible",
              "KGGEDGKGLDD": true
            },
            {
              "$type": "TriggerHideWeapon",
              "KGGEDGKGLDD": true,
              "partNames": ["equip01"]
            },
            {
              "$type": "HBNEMPLJCMB"
            },
            {
              "$type": "EnableHitBoxByName",
              "hitBoxNames": ["HitBox", "HeadBox"],
              "setEnable": true
            },
            {
              "$type": "EnablePushColliderName",
              "pushColliderNames": ["PushCollider"],
              "setEnable": true
            }
          ]
        },
        "ReturnToBorn_Invincible": {
          "modifierName": "",
          "elementDurability": 100.0,
          "state": "Invincible"
        },
        "ReturnToBorn_DenyLockOn": {
          "modifierName": "",
          "elementDurability": 100.0,
          "state": "DenyLockOn"
        }
      },
      "onAdded": [
        {
          "$type": "SetGlobalValue",
          "value": 0.0,
          "key": "_RETURNTOBORN_TAG_",
          "maxValue": 0.0,
          "minValue": 0.0
        }
      ]
    }
  },
  {
    "Default": {
      "$type": "ConfigAbility",
      "abilityName": "Abyss_Fire_ReturnToBorn_AS",
      "onAbilityStart": [
        {
          "$type": "FireEffect",
          "rotationDampTime": "Eff_Monster_Abyss_Fire_Blink_AS",
          "born": {
            "$type": "ConfigBornByTarget",
            "offset": {
              "x": 0.0,
              "y": 0.6499999761581421,
              "z": 0.0
            }
          },
          "PPPDJGDDOGD": 1.0,
          "AJDILHJFNKE": -1.0
        },
        {
          "$type": "RemoveUniqueModifier",
          "modifierName": "UNIQUE_ReturnToBorn_Dizzy"
        }
      ]
    }
  },
  {
    "Default": {
      "$type": "ConfigAbility",
      "abilityName": "Abyss_Fire_ReturnToBorn_Visible",
      "onAbilityStart": [
        {
          "$type": "RemoveUniqueModifier",
          "modifierName": "UNIQUE_ReturnToBorn_Actions"
        }
      ]
    }
  },
  {
    "Default": {
      "$type": "ConfigAbility",
      "abilityName": "Abyss_Fire_ReturnToBorn_ElementShield",
      "onAbilityStart": [
        {
          "$type": "RemoveUniqueModifier",
          "modifierName": "UNIQUE_ReturnToBorn_Shield"
        }
      ]
    }
  },
  {
    "Default": {
      "$type": "ConfigAbility",
      "abilityName": "Abyss_Fire_Cyclone",
      "abilityMixins": [
        {
          "$type": "AttachToAnimatorStateIDMixin",
          "stateIDs": ["NormalAtk"],
          "modifierName": "Normal_WeaponEffect",
          "DGFCLAIDIFI": ""
        }
      ],
      "modifiers": {
        "Normal_WeaponEffect": {
          "modifierName": "",
          "elementDurability": 100.0,
          "onAdded": [
            {
              "$type": "AttachEffect",
              "rotationDampTime": "Eff_Monster_Abyss_Fire_Normal_WeaponElement",
              "PPPDJGDDOGD": 1.0,
              "AJDILHJFNKE": -1.0
            },
            {
              "$type": "AttachEffect",
              "rotationDampTime": "Eff_Monster_Abyss_Fire_WeaponElement",
              "PPPDJGDDOGD": 1.0,
              "AJDILHJFNKE": -1.0
            }
          ]
        }
      },
      "onAbilityStart": [
        {
          "$type": "RemoveModifier",
          "modifierName": "Normal_WeaponEffect"
        },
        {
          "$type": "TriggerBullet",
          "bulletID": 42201006,
          "born": {
            "$type": "ConfigBornByTarget",
            "offset": {
              "x": 0.0,
              "y": 0.6000000238418579,
              "z": 1.5
            },
            "onGround": true,
            "direction": {
              "$type": "ConfigDirectionByAttackTarget",
              "startPoint": ""
            },
            "alongGround": true
          }
        }
      ]
    }
  },
  {
    "Default": {
      "$type": "ConfigAbility",
      "abilityName": "Abyss_Fire_Cyclone_Loop",
      "modifiers": {
        "Cyclone_Loop": {
          "modifierName": "",
          "elementType": "Fire",
          "elementDurability": 50.0,
          "onAdded": [
            {
              "$type": "AttachEffect",
              "rotationDampTime": "Eff_Monster_Abyss_Fire_Cyclone",
              "PPPDJGDDOGD": 1.0,
              "AJDILHJFNKE": -1.0
            }
          ],
          "onRemoved": [
            {
              "$type": "KillSelf"
            }
          ]
        }
      },
      "onAdded": [
        {
          "$type": "AttachModifier",
          "modifierName": "Cyclone_Loop"
        }
      ],
      "onAbilityStart": [
        {
          "$type": "RemoveModifier",
          "modifierName": "Cyclone_Loop"
        }
      ]
    }
  },
  {
    "Default": {
      "$type": "ConfigAbility",
      "abilityName": "Abyss_Fire_Cyclone_Collide",
      "onAbilityStart": [
        {
          "$type": "TriggerAttackEvent",
          "attackEvent": {
            "attackPattern": {
              "$type": "ConfigAttackSphere",
              "triggerType": "TriggerNoRepeat",
              "born": {
                "$type": "ConfigBornByCollisionPoint"
              },
              "radius": 0.25
            },
            "attackInfo": {
              "attackTag": "",
              "attenuationTag": "",
              "attenuationGroup": "default",
              "attackProperty": {
                "actorGrassSubHurtDelta": 0.5,
                "actorWindSubHurtDelta": 0.0,
                "elementType": "Fire",
                "elementDurability": 50.0,
                "strikeType": "Default",
                "enBreak": 80.0,
                "attackType": "Range",
                "GLKMCMDJBIK": 0.0
              },
              "hitPattern": {
                "onHitEffectName": "default",
                "hitImpulseY": "",
                "hitImpulseType": "LV2",
                "hitHaltTimeScale": 0.05000000074505806
              },
              "cameraShake": {
                "shakeType": "HitVector",
                "shakeRange": 0.05999999865889549,
                "shakeTime": 0.11999999731779099,
                "shakeDir": {
                  "z": 1.0
                }
              },
              "canBeModifiedBy": "OriginOwner"
            }
          },
          "targetType": "Enemy"
        }
      ]
    }
  },
  {
    "Default": {
      "$type": "ConfigAbility",
      "abilityName": "Abyss_Fire_FireEnergy",
      "abilityMixins": [
        {
          "$type": "AttachToAnimatorStateIDMixin",
          "stateIDs": ["SpecialAtk"],
          "modifierName": "UNIQUE_Special_WeaponEffect",
          "DGFCLAIDIFI": ""
        }
      ],
      "modifiers": {
        "UNIQUE_Special_WeaponEffect": {
          "modifierName": "",
          "forceTriggerWhenChangeAuthority": true,
          "elementDurability": 100.0,
          "onAdded": [
            {
              "$type": "AttachEffect",
              "rotationDampTime": "Eff_Monster_Abyss_Fire_Special_WeaponElement",
              "PPPDJGDDOGD": 1.0,
              "AJDILHJFNKE": -1.0
            },
            {
              "$type": "AttachEffect",
              "rotationDampTime": "Eff_Monster_Abyss_Fire_WeaponElement",
              "PPPDJGDDOGD": 1.0,
              "AJDILHJFNKE": -1.0
            }
          ]
        },
        "Abyss_Fire_AttackEnhance": {
          "modifierName": "",
          "duration": 4.0,
          "elementDurability": 100.0,
          "onAdded": [
            {
              "$type": "IDNGFEEBPAM",
              "boolID": "CDReset",
              "value": true
            }
          ],
          "onRemoved": [
            {
              "$type": "IDNGFEEBPAM",
              "boolID": "CDReset"
            }
          ]
        }
      },
      "onAbilityStart": [
        {
          "$type": "CreateGadget",
          "target": "SelfAttackTarget",
          "born": {
            "$type": "ConfigBornByTarget",
            "offset": {
              "x": 0.0,
              "y": 1.0,
              "z": 0.0
            },
            "onGround": true
          },
          "gadgetID": 42201003,
          "campID": 4001,
          "campTargetType": "Enemy"
        },
        {
          "$type": "CreateGadget",
          "target": "SelfAttackTarget",
          "predicates": [
            {
              "$type": "ByTargetGlobalValue",
              "key": "_ELITEAFFIX_ATTACK_ENHANCE",
              "value": 1.0,
              "forceByCaster": true
            }
          ],
          "born": {
            "$type": "ConfigBornByTarget",
            "offset": {
              "x": -4.329999923706055,
              "y": 1.0,
              "z": 7.5
            },
            "onGround": true
          },
          "gadgetID": 42201003,
          "campID": 4001,
          "campTargetType": "Enemy"
        },
        {
          "$type": "CreateGadget",
          "target": "SelfAttackTarget",
          "predicates": [
            {
              "$type": "ByTargetGlobalValue",
              "key": "_ELITEAFFIX_ATTACK_ENHANCE",
              "value": 1.0,
              "forceByCaster": true
            }
          ],
          "born": {
            "$type": "ConfigBornByTarget",
            "offset": {
              "x": 4.329999923706055,
              "y": 1.0,
              "z": 7.5
            },
            "onGround": true
          },
          "gadgetID": 42201003,
          "campID": 4001,
          "campTargetType": "Enemy"
        },
        {
          "$type": "ApplyModifier",
          "predicates": [
            {
              "$type": "ByTargetGlobalValue",
              "key": "_ELITEAFFIX_ATTACK_ENHANCE",
              "value": 1.0
            }
          ],
          "modifierName": "Abyss_Fire_AttackEnhance"
        }
      ]
    }
  },
  {
    "Default": {
      "$type": "ConfigAbility",
      "abilityName": "Abyss_Fire_FireEnergy_Surround",
      "modifiers": {
        "FireEnergy_Surround_Timer": {
          "modifierName": "",
          "duration": 1.5,
          "elementDurability": 100.0,
          "onAdded": [
            {
              "$type": "FireEffect",
              "rotationDampTime": "Eff_Monster_Abyss_Fire_Spray_BS",
              "born": {
                "$type": "ConfigBornByTarget",
                "offset": {
                  "x": 0.0,
                  "y": 1.0,
                  "z": -4.0
                },
                "onGround": true,
                "direction": {
                  "$type": "PIKKPLPCLKE",
                  "namedTransform": ""
                }
              },
              "PPPDJGDDOGD": 1.0,
              "AJDILHJFNKE": -1.0
            },
            {
              "$type": "FireEffect",
              "rotationDampTime": "Eff_Monster_Abyss_Fire_Spray_BS",
              "born": {
                "$type": "ConfigBornByTarget",
                "offset": {
                  "x": -3.4639999866485596,
                  "y": 1.0,
                  "z": 2.0
                },
                "onGround": true,
                "direction": {
                  "$type": "PIKKPLPCLKE",
                  "namedTransform": ""
                }
              },
              "PPPDJGDDOGD": 1.0,
              "AJDILHJFNKE": -1.0
            },
            {
              "$type": "FireEffect",
              "rotationDampTime": "Eff_Monster_Abyss_Fire_Spray_BS",
              "born": {
                "$type": "ConfigBornByTarget",
                "offset": {
                  "x": 3.4639999866485596,
                  "y": 1.0,
                  "z": 2.0
                },
                "onGround": true,
                "direction": {
                  "$type": "PIKKPLPCLKE",
                  "namedTransform": ""
                }
              },
              "PPPDJGDDOGD": 1.0,
              "AJDILHJFNKE": -1.0
            }
          ],
          "onRemoved": [
            {
              "$type": "RemoveUniqueModifier",
              "target": "Owner",
              "modifierName": "UNIQUE_Special_WeaponEffect"
            },
            {
              "$type": "ApplyModifier",
              "modifierName": "FireEnergy_Surround_Spray"
            },
            {
              "$type": "ApplyModifier",
              "modifierName": "FireEnergy_Surround_SprayTimer"
            }
          ]
        },
        "FireEnergy_Surround_SprayTimer": {
          "modifierName": "",
          "duration": 6.0,
          "elementDurability": 100.0,
          "thinkInterval": 1.0,
          "onThinkInterval": [
            {
              "$type": "ApplyModifier",
              "modifierName": "FireEnergy_Surround_Spray"
            }
          ]
        },
        "FireEnergy_Surround_Spray": {
          "modifierName": "",
          "duration": 0.3499999940395355,
          "elementDurability": 100.0,
          "onRemoved": [
            {
              "$type": "TriggerAbility",
              "abilityName": "Abyss_Fire_FireEnergy_Damage"
            }
          ]
        }
      },
      "onAdded": [
        {
          "$type": "ApplyModifier",
          "modifierName": "FireEnergy_Surround_Timer"
        }
      ]
    }
  },
  {
    "Default": {
      "$type": "ConfigAbility",
      "abilityName": "Abyss_Fire_FireEnergy_Damage",
      "onAbilityStart": [
        {
          "$type": "TriggerAttackEvent",
          "attackEvent": {
            "attackPattern": {
              "$type": "ConfigAttackBox",
              "triggerType": "TriggerNoRepeat",
              "born": {
                "$type": "ConfigBornBySelf",
                "offset": {
                  "x": 0.0,
                  "y": 1.0,
                  "z": -4.0
                },
                "onGround": true,
                "direction": {
                  "$type": "PIKKPLPCLKE",
                  "namedTransform": ""
                }
              },
              "size": {
                "x": 1.0,
                "y": 1.0,
                "z": 5.0
              }
            },
            "attackInfo": {
              "attackTag": "Abyss_Fire_FireEnergy",
              "attenuationTag": "Abyss_Fire_FireEnergy",
              "attenuationGroup": "Abyss_Fire_FireEnergy_Attenuation",
              "attackProperty": {
                "actorGrassSubHurtDelta": 0.6660000085830688,
                "actorWindSubHurtDelta": 0.0,
                "elementType": "Fire",
                "elementDurability": 50.0,
                "strikeType": "Default",
                "attackType": "Range",
                "GLKMCMDJBIK": 0.0
              },
              "hitPattern": {
                "onHitEffectName": "default",
                "hitImpulseY": "",
                "hitImpulseType": "LV4",
                "hitHaltTimeScale": 0.05000000074505806
              },
              "cameraShake": {
                "shakeType": "HitVector",
                "shakeRange": 0.1599999964237213,
                "shakeTime": 0.15000000596046448,
                "shakeDistance": 25.0,
                "shakeDir": {
                  "z": 1.0
                }
              },
              "canBeModifiedBy": "OriginOwner"
            }
          },
          "targetType": "Enemy"
        },
        {
          "$type": "TriggerAttackEvent",
          "attackEvent": {
            "attackPattern": {
              "$type": "ConfigAttackBox",
              "triggerType": "TriggerNoRepeat",
              "born": {
                "$type": "ConfigBornBySelf",
                "offset": {
                  "x": -3.4639999866485596,
                  "y": 1.0,
                  "z": 2.0
                },
                "onGround": true,
                "direction": {
                  "$type": "PIKKPLPCLKE",
                  "namedTransform": ""
                }
              },
              "size": {
                "x": 1.0,
                "y": 1.0,
                "z": 5.0
              }
            },
            "attackInfo": {
              "attackTag": "Abyss_Fire_FireEnergy",
              "attenuationTag": "Abyss_Fire_FireEnergy",
              "attenuationGroup": "Abyss_Fire_FireEnergy_Attenuation",
              "attackProperty": {
                "actorGrassSubHurtDelta": 0.6660000085830688,
                "actorWindSubHurtDelta": 0.0,
                "elementType": "Fire",
                "elementDurability": 50.0,
                "strikeType": "Default",
                "GLKMCMDJBIK": 0.0
              },
              "hitPattern": {
                "onHitEffectName": "default",
                "hitImpulseY": "",
                "hitImpulseType": "LV4",
                "hitHaltTimeScale": 0.05000000074505806
              },
              "cameraShake": {
                "shakeType": "HitVector",
                "shakeRange": 0.1599999964237213,
                "shakeTime": 0.15000000596046448,
                "shakeDistance": 25.0,
                "shakeDir": {
                  "z": 1.0
                }
              },
              "canBeModifiedBy": "OriginOwner"
            }
          },
          "targetType": "Enemy"
        },
        {
          "$type": "TriggerAttackEvent",
          "attackEvent": {
            "attackPattern": {
              "$type": "ConfigAttackBox",
              "triggerType": "TriggerNoRepeat",
              "born": {
                "$type": "ConfigBornBySelf",
                "offset": {
                  "x": 3.4639999866485596,
                  "y": 1.0,
                  "z": 2.0
                },
                "onGround": true,
                "direction": {
                  "$type": "PIKKPLPCLKE",
                  "namedTransform": ""
                }
              },
              "size": {
                "x": 1.0,
                "y": 1.0,
                "z": 5.0
              }
            },
            "attackInfo": {
              "attackTag": "Abyss_Fire_FireEnergy",
              "attenuationTag": "Abyss_Fire_FireEnergy",
              "attenuationGroup": "Abyss_Fire_FireEnergy_Attenuation",
              "attackProperty": {
                "actorGrassSubHurtDelta": 0.6660000085830688,
                "actorWindSubHurtDelta": 0.0,
                "elementType": "Fire",
                "elementDurability": 50.0,
                "strikeType": "Default",
                "GLKMCMDJBIK": 0.0
              },
              "hitPattern": {
                "onHitEffectName": "default",
                "hitImpulseY": "",
                "hitImpulseType": "LV4",
                "hitHaltTimeScale": 0.05000000074505806
              },
              "cameraShake": {
                "shakeType": "HitVector",
                "shakeRange": 0.1599999964237213,
                "shakeTime": 0.15000000596046448,
                "shakeDistance": 25.0,
                "shakeDir": {
                  "z": 1.0
                }
              },
              "canBeModifiedBy": "OriginOwner"
            }
          },
          "targetType": "Enemy"
        }
      ]
    }
  },
  {
    "Default": {
      "$type": "ConfigAbility",
      "abilityName": "Abyss_Fire_AnimationSteer",
      "abilityMixins": [
        {
          "$type": "IILHMBGONGM",
          "steerStateIDs": ["NormalAtk"],
          "angularSpeed": 180.0,
          "attackTrigger": "",
          "attackDistance": 12.0,
          "DGFCLAIDIFI": ""
        },
        {
          "$type": "IILHMBGONGM",
          "steerStateIDs": ["SpecialAtk"],
          "angularSpeed": 180.0,
          "attackTrigger": "",
          "attackDistance": 12.0,
          "DGFCLAIDIFI": ""
        },
        {
          "$type": "IILHMBGONGM",
          "steerStateIDs": ["RandomAction"],
          "angularSpeed": 180.0,
          "attackTrigger": "",
          "attackDistance": 12.0,
          "DGFCLAIDIFI": ""
        }
      ]
    }
  }
]
