{
  "sceneId": 20029,
  "routes": [
    {
      "localId": 1,
      "name": "Platform_001",
      "type": "Reciprocate",
      "points": [
        {
          "pos": {
            "x": -30.30917739868164,
            "y": -41.36603927612305,
            "z": -20.471786499023438
          },
          "waitTime": 4.0,
          "targetVelocity": 2.0
        },
        {
          "pos": {
            "x": -30.307151794433594,
            "y": -41.19953918457031,
            "z": -6.042798042297363
          },
          "waitTime": 2.0,
          "targetVelocity": 2.0
        },
        {
          "pos": {
            "x": -30.313053131103516,
            "y": -41.24740982055664,
            "z": 9.63875961303711
          },
          "waitTime": 4.0,
          "targetVelocity": 2.0
        }
      ],
      "rotAngleType": "ROT_ANGLE_Y",
      "_isUsePreStopMove": true
    },
    {
      "localId": 2,
      "name": "Platform_002",
      "type": "Reciprocate",
      "points": [
        {
          "pos": {
            "x": -31.783018112182617,
            "y": -48.97760009765625,
            "z": -36.667320251464844
          },
          "waitTime": 1.0,
          "targetVelocity": 2.0
        },
        {
          "pos": {
            "x": -31.84362030029297,
            "y": -48.977603912353516,
            "z": -31.78911781311035
          },
          "waitTime": 1.0,
          "targetVelocity": 2.0
        },
        {
          "pos": {
            "x": -31.698488235473633,
            "y": -48.97760772705078,
            "z": -27.269487380981445
          },
          "waitTime": 1.0,
          "targetVelocity": 2.0
        }
      ],
      "rotAngleType": "ROT_ANGLE_Y",
      "_isUsePreStopMove": true
    },
    {
      "localId": 3,
      "name": "Platform_003",
      "type": "Reciprocate",
      "points": [
        {
          "pos": {
            "x": -65.73870849609375,
            "y": -59.840476989746094,
            "z": -79.91839599609375
          },
          "waitTime": 1.0,
          "targetVelocity": 2.0
        },
        {
          "pos": {
            "x": -65.63939666748047,
            "y": -61.22883987426758,
            "z": -79.93180084228516
          },
          "waitTime": 1.0,
          "targetVelocity": 2.0
        },
        {
          "pos": {
            "x": -65.72938537597656,
            "y": -63.47136306762695,
            "z": -80.0728759765625
          },
          "waitTime": 1.0,
          "targetVelocity": 2.0
        }
      ],
      "rotAngleType": "ROT_ANGLE_Y",
      "_isUsePreStopMove": true
    },
    {
      "localId": 4,
      "name": "Platform_100",
      "type": "Reciprocate",
      "points": [
        {
          "pos": {
            "x": -92.7034683227539,
            "y": -80.3603515625,
            "z": -197.94593811035156
          },
          "waitTime": 2.0,
          "targetVelocity": 1.0
        },
        {
          "pos": {
            "x": -92.64922332763672,
            "y": -76.1597900390625,
            "z": -197.94927978515625
          },
          "waitTime": 2.0,
          "targetVelocity": 1.0
        }
      ],
      "rotAngleType": "ROT_ANGLE_Y",
      "_isUsePreStopMove": true
    },
    {
      "localId": 5,
      "name": "Platform_101",
      "type": "Reciprocate",
      "points": [
        {
          "pos": {
            "x": -74.79849243164062,
            "y": -80.70845031738281,
            "z": -213.32000732421875
          },
          "waitTime": 3.0,
          "targetVelocity": 1.0
        },
        {
          "pos": {
            "x": -74.7885971069336,
            "y": -77.9603500366211,
            "z": -213.25149536132812
          },
          "targetVelocity": 1.0
        }
      ],
      "rotAngleType": "ROT_ANGLE_Y",
      "_isUsePreStopMove": true
    },
    {
      "localId": 7,
      "name": "Platform_103",
      "type": "Reciprocate",
      "points": [
        {
          "pos": {
            "x": -62.5,
            "y": -77.92059326171875,
            "z": -213.1999969482422
          },
          "waitTime": 1.0,
          "targetVelocity": 1.0
        },
        {
          "pos": {
            "x": -62.79999923706055,
            "y": -75.22059631347656,
            "z": -213.10000610351562
          },
          "waitTime": 1.0,
          "targetVelocity": 1.0
        }
      ],
      "rotAngleType": "ROT_ANGLE_Y",
      "_isUsePreStopMove": true
    },
    {
      "localId": 8,
      "name": "Platform_104",
      "type": "Reciprocate",
      "points": [
        {
          "pos": {
            "x": -56.11591339111328,
            "y": -73.69999694824219,
            "z": -212.32359313964844
          },
          "targetVelocity": 2.0
        },
        {
          "pos": {
            "x": -55.241371154785156,
            "y": -73.69999694824219,
            "z": -209.8651123046875
          },
          "targetVelocity": 2.0
        },
        {
          "pos": {
            "x": -52.549095153808594,
            "y": -73.69999694824219,
            "z": -208.63922119140625
          },
          "targetVelocity": 2.0
        },
        {
          "pos": {
            "x": -49.41310501098633,
            "y": -73.69999694824219,
            "z": -210.47744750976562
          },
          "targetVelocity": 2.0
        },
        {
          "pos": {
            "x": -52.85013961791992,
            "y": -73.69999694824219,
            "z": -211.65481567382812
          },
          "targetVelocity": 2.0
        },
        {
          "pos": {
            "x": -56.84077835083008,
            "y": -73.69999694824219,
            "z": -207.40249633789062
          },
          "targetVelocity": 2.0
        },
        {
          "pos": {
            "x": -58.73065185546875,
            "y": -73.69999694824219,
            "z": -211.12228393554688
          },
          "targetVelocity": 2.0
        },
        {
          "pos": {
            "x": -57.79444122314453,
            "y": -73.69999694824219,
            "z": -213.1502227783203
          },
          "targetVelocity": 2.0
        },
        {
          "pos": {
            "x": -52.90379333496094,
            "y": -73.69999694824219,
            "z": -207.3112335205078
          },
          "targetVelocity": 2.0
        },
        {
          "pos": {
            "x": -55.304683685302734,
            "y": -73.69999694824219,
            "z": -213.4273681640625
          },
          "targetVelocity": 2.0
        }
      ],
      "rotAngleType": "ROT_ANGLE_Y",
      "_isUsePreStopMove": true
    },
    {
      "localId": 9,
      "name": "Platform_105",
      "type": "Reciprocate",
      "points": [
        {
          "pos": {
            "x": -51.944847106933594,
            "y": -73.69999694824219,
            "z": -210.46002197265625
          },
          "targetVelocity": 2.0
        },
        {
          "pos": {
            "x": -47.10017013549805,
            "y": -73.69999694824219,
            "z": -211.82662963867188
          },
          "targetVelocity": 2.0
        },
        {
          "pos": {
            "x": -49.554954528808594,
            "y": -73.69999694824219,
            "z": -210.34115600585938
          },
          "targetVelocity": 2.0
        },
        {
          "pos": {
            "x": -50.870967864990234,
            "y": -73.69999694824219,
            "z": -208.36776733398438
          },
          "targetVelocity": 2.0
        },
        {
          "pos": {
            "x": -48.029754638671875,
            "y": -73.69999694824219,
            "z": -207.75860595703125
          },
          "targetVelocity": 2.0
        },
        {
          "pos": {
            "x": -46.74081802368164,
            "y": -73.69999694824219,
            "z": -210.1402587890625
          },
          "targetVelocity": 2.0
        },
        {
          "pos": {
            "x": -53.36717224121094,
            "y": -73.69999694824219,
            "z": -212.611083984375
          },
          "targetVelocity": 2.0
        },
        {
          "pos": {
            "x": -51.88407516479492,
            "y": -73.69999694824219,
            "z": -207.75225830078125
          },
          "targetVelocity": 2.0
        },
        {
          "pos": {
            "x": -46.07728576660156,
            "y": -73.69999694824219,
            "z": -207.96917724609375
          },
          "targetVelocity": 2.0
        },
        {
          "pos": {
            "x": -45.107276916503906,
            "y": -73.69999694824219,
            "z": -210.91104125976562
          },
          "targetVelocity": 2.0
        }
      ],
      "rotAngleType": "ROT_ANGLE_Y",
      "_isUsePreStopMove": true
    },
    {
      "localId": 10,
      "name": "Platform_106",
      "type": "Reciprocate",
      "points": [
        {
          "pos": {
            "x": -47.189430236816406,
            "y": -73.69999694824219,
            "z": -210.76788330078125
          },
          "targetVelocity": 2.0
        },
        {
          "pos": {
            "x": -43.837711334228516,
            "y": -73.69999694824219,
            "z": -212.5234832763672
          },
          "targetVelocity": 2.0
        },
        {
          "pos": {
            "x": -38.18549346923828,
            "y": -73.69999694824219,
            "z": -210.647216796875
          },
          "targetVelocity": 2.0
        },
        {
          "pos": {
            "x": -43.68433380126953,
            "y": -73.69999694824219,
            "z": -209.91098022460938
          },
          "targetVelocity": 2.0
        },
        {
          "pos": {
            "x": -48.659908294677734,
            "y": -73.69999694824219,
            "z": -209.4512939453125
          },
          "targetVelocity": 2.0
        },
        {
          "pos": {
            "x": -46.460548400878906,
            "y": -73.69999694824219,
            "z": -206.859130859375
          },
          "targetVelocity": 2.0
        },
        {
          "pos": {
            "x": -43.3497314453125,
            "y": -73.69999694824219,
            "z": -211.2788543701172
          },
          "targetVelocity": 2.0
        },
        {
          "pos": {
            "x": -42.41387939453125,
            "y": -73.69999694824219,
            "z": -207.01779174804688
          },
          "targetVelocity": 2.0
        },
        {
          "pos": {
            "x": -40.60468292236328,
            "y": -73.69999694824219,
            "z": -209.10009765625
          },
          "targetVelocity": 2.0
        },
        {
          "pos": {
            "x": -39.983924865722656,
            "y": -73.69999694824219,
            "z": -212.94357299804688
          },
          "targetVelocity": 2.0
        },
        {
          "pos": {
            "x": -38.50447463989258,
            "y": -73.69999694824219,
            "z": -207.48886108398438
          },
          "targetVelocity": 2.0
        }
      ],
      "rotAngleType": "ROT_ANGLE_Y",
      "_isUsePreStopMove": true
    },
    {
      "localId": 11,
      "name": "114",
      "type": "Reciprocate",
      "points": [
        {
          "pos": {
            "x": 114.12846374511719,
            "y": -74.0999984741211,
            "z": -216.11732482910156
          },
          "targetVelocity": 2.0,
          "reachStop": true
        },
        {
          "pos": {
            "x": 110.22691345214844,
            "y": -74.0999984741211,
            "z": -211.71595764160156
          },
          "targetVelocity": 2.0
        },
        {
          "pos": {
            "x": 120.635009765625,
            "y": -74.0999984741211,
            "z": -211.8927459716797
          },
          "targetVelocity": 2.0
        },
        {
          "pos": {
            "x": 114.30816650390625,
            "y": -74.0999984741211,
            "z": -205.9376678466797
          },
          "targetVelocity": 2.0
        }
      ],
      "rotAngleType": "ROT_ANGLE_Y",
      "_isUsePreStopMove": true
    },
    {
      "localId": 12,
      "name": "115",
      "type": "Reciprocate",
      "points": [
        {
          "pos": {
            "x": 130.82421875,
            "y": -74.0999984741211,
            "z": -210.258544921875
          },
          "targetVelocity": 2.0,
          "reachStop": true
        },
        {
          "pos": {
            "x": 130.1795654296875,
            "y": -74.0999984741211,
            "z": -196.22515869140625
          },
          "targetVelocity": 2.0
        },
        {
          "pos": {
            "x": 116.2008056640625,
            "y": -74.0999984741211,
            "z": -197.60775756835938
          },
          "targetVelocity": 2.0
        },
        {
          "pos": {
            "x": 126.70948791503906,
            "y": -74.0999984741211,
            "z": -211.693115234375
          },
          "targetVelocity": 2.0
        }
      ],
      "rotAngleType": "ROT_ANGLE_Y",
      "_isUsePreStopMove": true
    },
    {
      "localId": 13,
      "name": "116",
      "type": "Reciprocate",
      "points": [
        {
          "pos": {
            "x": 137.79122924804688,
            "y": -74.0999984741211,
            "z": -192.63038635253906
          },
          "targetVelocity": 2.0,
          "reachStop": true
        },
        {
          "pos": {
            "x": 130.0194091796875,
            "y": -74.0999984741211,
            "z": -193.04660034179688
          },
          "targetVelocity": 2.0
        },
        {
          "pos": {
            "x": 133.15493774414062,
            "y": -74.0999984741211,
            "z": -185.35137939453125
          },
          "targetVelocity": 2.0
        },
        {
          "pos": {
            "x": 125.85852813720703,
            "y": -74.0999984741211,
            "z": -189.421875
          },
          "targetVelocity": 2.0
        }
      ],
      "rotAngleType": "ROT_ANGLE_Y",
      "_isUsePreStopMove": true
    },
    {
      "localId": 14,
      "name": "117",
      "type": "Reciprocate",
      "points": [
        {
          "pos": {
            "x": 124.505126953125,
            "y": -74.0999984741211,
            "z": -184.04318237304688
          },
          "targetVelocity": 2.0,
          "reachStop": true
        },
        {
          "pos": {
            "x": 121.64359283447266,
            "y": -74.0999984741211,
            "z": -189.86843872070312
          },
          "targetVelocity": 2.0
        },
        {
          "pos": {
            "x": 116.68404388427734,
            "y": -74.0999984741211,
            "z": -185.79449462890625
          },
          "targetVelocity": 2.0
        },
        {
          "pos": {
            "x": 113.35920715332031,
            "y": -74.0999984741211,
            "z": -191.8845672607422
          },
          "targetVelocity": 2.0
        }
      ],
      "rotAngleType": "ROT_ANGLE_Y",
      "_isUsePreStopMove": true
    },
    {
      "localId": 15,
      "name": "118",
      "type": "Reciprocate",
      "points": [
        {
          "pos": {
            "x": 106.32796478271484,
            "y": -74.0999984741211,
            "z": -208.64382934570312
          },
          "targetVelocity": 2.0,
          "reachStop": true
        },
        {
          "pos": {
            "x": 107.19198608398438,
            "y": -74.0999984741211,
            "z": -200.36659240722656
          },
          "targetVelocity": 2.0
        },
        {
          "pos": {
            "x": 112.51160430908203,
            "y": -74.0999984741211,
            "z": -202.8833465576172
          },
          "targetVelocity": 2.0
        },
        {
          "pos": {
            "x": 113.05949401855469,
            "y": -74.0999984741211,
            "z": -197.37474060058594
          },
          "targetVelocity": 2.0
        }
      ],
      "rotAngleType": "ROT_ANGLE_Y",
      "_isUsePreStopMove": true
    },
    {
      "localId": 16,
      "name": "119",
      "type": "Reciprocate",
      "points": [
        {
          "pos": {
            "x": 118.57157135009766,
            "y": -74.0999984741211,
            "z": -193.1894073486328
          },
          "targetVelocity": 2.0,
          "reachStop": true
        },
        {
          "pos": {
            "x": 112.69342803955078,
            "y": -74.0999984741211,
            "z": -194.70794677734375
          },
          "targetVelocity": 2.0
        },
        {
          "pos": {
            "x": 107.22906494140625,
            "y": -74.0999984741211,
            "z": -194.31845092773438
          },
          "targetVelocity": 2.0
        },
        {
          "pos": {
            "x": 109.65576934814453,
            "y": -74.0999984741211,
            "z": -190.15731811523438
          },
          "targetVelocity": 2.0
        }
      ],
      "rotAngleType": "ROT_ANGLE_Y",
      "_isUsePreStopMove": true
    },
    {
      "localId": 17,
      "name": "120",
      "type": "Reciprocate",
      "points": [
        {
          "pos": {
            "x": 139.24310302734375,
            "y": -74.0999984741211,
            "z": -206.94161987304688
          },
          "targetVelocity": 2.0,
          "reachStop": true
        },
        {
          "pos": {
            "x": 135.64573669433594,
            "y": -74.0999984741211,
            "z": -213.62034606933594
          },
          "targetVelocity": 2.0
        },
        {
          "pos": {
            "x": 124.47277069091797,
            "y": -74.0999984741211,
            "z": -218.91612243652344
          },
          "targetVelocity": 2.0
        }
      ],
      "rotAngleType": "ROT_ANGLE_Y",
      "_isUsePreStopMove": true
    },
    {
      "localId": 18,
      "name": "121",
      "type": "Reciprocate",
      "points": [
        {
          "pos": {
            "x": 117.47892761230469,
            "y": -92.2920150756836,
            "z": -217.1585235595703
          },
          "targetVelocity": 2.0
        },
        {
          "pos": {
            "x": 116.58421325683594,
            "y": -77.5999984741211,
            "z": -220.3534393310547
          },
          "targetVelocity": 2.0
        }
      ],
      "rotAngleType": "ROT_ANGLE_Y",
      "_isUsePreStopMove": true
    },
    {
      "localId": 19,
      "name": "122",
      "type": "Reciprocate",
      "points": [
        {
          "pos": {
            "x": 123.54308319091797,
            "y": -92.2920150756836,
            "z": -182.03720092773438
          },
          "targetVelocity": 2.0
        },
        {
          "pos": {
            "x": 123.0,
            "y": -80.5,
            "z": -182.5
          },
          "targetVelocity": 2.0
        }
      ],
      "rotAngleType": "ROT_ANGLE_Y",
      "_isUsePreStopMove": true
    },
    {
      "localId": 20,
      "name": "123",
      "type": "Reciprocate",
      "points": [
        {
          "pos": {
            "x": -83.59075164794922,
            "y": -70.9439926147461,
            "z": -200.05410766601562
          },
          "targetVelocity": 2.0
        },
        {
          "pos": {
            "x": -83.67372131347656,
            "y": -70.94400024414062,
            "z": -202.13526916503906
          },
          "targetVelocity": 2.0
        },
        {
          "pos": {
            "x": -83.76112365722656,
            "y": -70.94398498535156,
            "z": -205.4254913330078
          },
          "targetVelocity": 2.0
        },
        {
          "pos": {
            "x": -83.90094757080078,
            "y": -70.94398498535156,
            "z": -207.48350524902344
          },
          "targetVelocity": 2.0
        },
        {
          "pos": {
            "x": -82.19485473632812,
            "y": -70.94398498535156,
            "z": -205.79083251953125
          },
          "targetVelocity": 2.0
        },
        {
          "pos": {
            "x": -81.9220199584961,
            "y": -70.9439926147461,
            "z": -202.1378631591797
          },
          "targetVelocity": 2.0
        },
        {
          "pos": {
            "x": -80.9076919555664,
            "y": -70.9439926147461,
            "z": -200.1718292236328
          },
          "targetVelocity": 2.0
        },
        {
          "pos": {
            "x": -80.93679809570312,
            "y": -70.94397735595703,
            "z": -207.54388427734375
          },
          "targetVelocity": 2.0
        },
        {
          "pos": {
            "x": -78.60908508300781,
            "y": -70.9439926147461,
            "z": -202.70932006835938
          },
          "targetVelocity": 2.0
        },
        {
          "pos": {
            "x": -78.14088439941406,
            "y": -70.94398498535156,
            "z": -208.06845092773438
          },
          "targetVelocity": 2.0
        },
        {
          "pos": {
            "x": -77.32646942138672,
            "y": -70.9439926147461,
            "z": -202.48040771484375
          },
          "targetVelocity": 2.0
        },
        {
          "pos": {
            "x": -76.41949462890625,
            "y": -70.94398498535156,
            "z": -207.5648956298828
          },
          "targetVelocity": 2.0
        }
      ],
      "rotAngleType": "ROT_ANGLE_Y",
      "_isUsePreStopMove": true
    },
    {
      "localId": 21,
      "name": "Platform_102",
      "type": "Reciprocate",
      "points": [
        {
          "pos": {
            "x": -62.87218475341797,
            "y": -79.91827392578125,
            "z": -211.85662841796875
          },
          "waitTime": 1.0,
          "targetVelocity": 1.0
        },
        {
          "pos": {
            "x": -62.87013626098633,
            "y": -77.61266326904297,
            "z": -211.94619750976562
          },
          "waitTime": 1.0,
          "targetVelocity": 1.0
        }
      ],
      "rotAngleType": "ROT_ANGLE_Y",
      "_isUsePreStopMove": true
    }
  ]
}
