{
  "sceneId": 100,
  "routes": [
    {
      "localId": 910001001,
      "name": "Route_910001001",
      "type": "Reciprocate",
      "points": [
        {
          "pos": {
            "x": -42.5908203125,
            "y": 400.4006652832031,
            "z": 90.48637390136719
          },
          "waitTime": 3.0,
          "speedLevel": 2
        },
        {
          "pos": {
            "x": -38.71051025390625,
            "y": 400.0312805175781,
            "z": 93.94882202148438
          },
          "speedLevel": 2
        },
        {
          "pos": {
            "x": -35.2799072265625,
            "y": 400.0665283203125,
            "z": 96.9839859008789
          },
          "waitTime": 5.0,
          "speedLevel": 2
        }
      ],
      "rotAngleType": "ROT_ANGLE_Y",
      "isSimulateTempRouteByTime": true,
      "_isUsePreStopMove": true,
      "_isSubWaitTimeFlag": true
    },
    {
      "localId": 910001002,
      "name": "Route_910001002",
      "type": "Reciprocate",
      "points": [
        {
          "pos": {
            "x": -35.231201171875,
            "y": 400.28485107421875,
            "z": 98.55267333984375
          },
          "waitTime": 4.0,
          "speedLevel": 2
        },
        {
          "pos": {
            "x": -37.16143798828125,
            "y": 400.18084716796875,
            "z": 97.43025207519531
          },
          "speedLevel": 2
        },
        {
          "pos": {
            "x": -40.05267333984375,
            "y": 400.1227722167969,
            "z": 94.7651138305664
          },
          "speedLevel": 2
        },
        {
          "pos": {
            "x": -45.21722412109375,
            "y": 399.9415588378906,
            "z": 93.2978744506836
          },
          "waitTime": 5.0,
          "speedLevel": 2
        }
      ],
      "rotAngleType": "ROT_ANGLE_Y",
      "isSimulateTempRouteByTime": true,
      "_isUsePreStopMove": true,
      "_isSubWaitTimeFlag": true
    },
    {
      "localId": 910004002,
      "name": "Platform_910004002",
      "points": [
        {
          "pos": {
            "x": -783.2356567382812,
            "y": 390.7196350097656,
            "z": 647.9699096679688
          },
          "targetVelocity": 3.0
        },
        {
          "pos": {
            "x": -786.2881469726562,
            "y": 390.7343444824219,
            "z": 642.7915649414062
          },
          "targetVelocity": 3.0
        }
      ],
      "rotAngleType": "ROT_ANGLE_Y",
      "isSimulateTempRouteByTime": true,
      "_isUsePreStopMove": true,
      "_isSubWaitTimeFlag": true
    },
    {
      "localId": 910004006,
      "name": "Route_910004006",
      "points": [
        {
          "pos": {
            "x": -926.0628051757812,
            "y": 449.3161926269531,
            "z": 741.4435424804688
          },
          "targetVelocity": 4.5,
          "hasReachEvent": true,
          "reachStop": true
        }
      ],
      "rotAngleType": "ROT_ANGLE_Y",
      "arriveRange": 0.10000000149011612,
      "isSimulateTempRouteByTime": true,
      "_isUsePreStopMove": true,
      "_isSubWaitTimeFlag": true
    },
    {
      "localId": 910004007,
      "name": "Route_910004006",
      "points": [
        {
          "pos": {
            "x": -926.0628051757812,
            "y": 458.22698974609375,
            "z": 741.4435424804688
          },
          "targetVelocity": 4.5,
          "hasReachEvent": true,
          "reachStop": true
        }
      ],
      "rotAngleType": "ROT_ANGLE_Y",
      "arriveRange": 0.10000000149011612,
      "isSimulateTempRouteByTime": true,
      "_isUsePreStopMove": true,
      "_isSubWaitTimeFlag": true
    }
  ]
}
