{
  "sceneId": 100,
  "routes": [
    {
      "localId": 910008003,
      "name": "Platform_910008003",
      "type": "Loop",
      "points": [
        {
          "pos": {
            "x": 1052.1475830078125,
            "y": 218.0,
            "z": 771.579833984375
          },
          "targetVelocity": 4.0,
          "rotRoundReachDir": {
            "y": 99.00167846679688
          },
          "rotRoundLeaveDir": {
            "y": 99.00167846679688
          }
        },
        {
          "pos": {
            "x": 1053.0745849609375,
            "y": 218.0,
            "z": 771.4329833984375
          },
          "targetVelocity": 4.0,
          "rotRoundReachDir": {
            "y": 116.99828338623047
          },
          "rotRoundLeaveDir": {
            "y": 116.99828338623047
          }
        },
        {
          "pos": {
            "x": 1053.910888671875,
            "y": 218.0,
            "z": 771.0068969726562
          },
          "targetVelocity": 4.0,
          "rotRoundReachDir": {
            "y": 135.0
          },
          "rotRoundLeaveDir": {
            "y": 135.0
          }
        },
        {
          "pos": {
            "x": 1054.5745849609375,
            "y": 218.0,
            "z": 770.3432006835938
          },
          "targetVelocity": 4.0,
          "rotRoundReachDir": {
            "y": 152.99839782714844
          },
          "rotRoundLeaveDir": {
            "y": 152.99839782714844
          }
        },
        {
          "pos": {
            "x": 1055.000732421875,
            "y": 218.0,
            "z": 769.5068969726562
          },
          "targetVelocity": 4.0,
          "rotRoundReachDir": {
            "y": 170.9989013671875
          },
          "rotRoundLeaveDir": {
            "y": 170.9989013671875
          }
        },
        {
          "pos": {
            "x": 1055.1475830078125,
            "y": 218.0,
            "z": 768.579833984375
          },
          "targetVelocity": 4.0,
          "rotRoundReachDir": {
            "y": 189.0010986328125
          },
          "rotRoundLeaveDir": {
            "y": 189.0010986328125
          }
        },
        {
          "pos": {
            "x": 1055.000732421875,
            "y": 218.0,
            "z": 767.6527709960938
          },
          "targetVelocity": 4.0,
          "rotRoundReachDir": {
            "y": 207.00160217285156
          },
          "rotRoundLeaveDir": {
            "y": 207.00160217285156
          }
        },
        {
          "pos": {
            "x": 1054.5745849609375,
            "y": 218.0,
            "z": 766.8164672851562
          },
          "targetVelocity": 4.0,
          "rotRoundReachDir": {
            "y": 225.0
          },
          "rotRoundLeaveDir": {
            "y": 225.0
          }
        },
        {
          "pos": {
            "x": 1053.910888671875,
            "y": 218.0,
            "z": 766.1527709960938
          },
          "targetVelocity": 4.0,
          "rotRoundReachDir": {
            "y": 243.001708984375
          },
          "rotRoundLeaveDir": {
            "y": 243.001708984375
          }
        },
        {
          "pos": {
            "x": 1053.0745849609375,
            "y": 218.0,
            "z": 765.7266845703125
          },
          "targetVelocity": 4.0,
          "rotRoundReachDir": {
            "y": 260.9983215332031
          },
          "rotRoundLeaveDir": {
            "y": 260.9983215332031
          }
        },
        {
          "pos": {
            "x": 1052.1475830078125,
            "y": 218.0,
            "z": 765.579833984375
          },
          "targetVelocity": 4.0,
          "rotRoundReachDir": {
            "y": 279.0016784667969
          },
          "rotRoundLeaveDir": {
            "y": 279.0016784667969
          }
        },
        {
          "pos": {
            "x": 1051.2205810546875,
            "y": 218.0,
            "z": 765.7266845703125
          },
          "targetVelocity": 4.0,
          "rotRoundReachDir": {
            "y": 296.998291015625
          },
          "rotRoundLeaveDir": {
            "y": 296.998291015625
          }
        },
        {
          "pos": {
            "x": 1050.38427734375,
            "y": 218.0,
            "z": 766.1527709960938
          },
          "targetVelocity": 4.0,
          "rotRoundReachDir": {
            "y": 315.0
          },
          "rotRoundLeaveDir": {
            "y": 315.0
          }
        },
        {
          "pos": {
            "x": 1049.7205810546875,
            "y": 218.0,
            "z": 766.8164672851562
          },
          "targetVelocity": 4.0,
          "rotRoundReachDir": {
            "y": 332.9984130859375
          },
          "rotRoundLeaveDir": {
            "y": 332.9984130859375
          }
        },
        {
          "pos": {
            "x": 1049.29443359375,
            "y": 218.0,
            "z": 767.6527709960938
          },
          "targetVelocity": 4.0,
          "rotRoundReachDir": {
            "y": 350.9989013671875
          },
          "rotRoundLeaveDir": {
            "y": 350.9989013671875
          }
        },
        {
          "pos": {
            "x": 1049.1475830078125,
            "y": 218.0,
            "z": 768.579833984375
          },
          "targetVelocity": 4.0,
          "rotRoundReachDir": {
            "y": 9.001100540161133
          },
          "rotRoundLeaveDir": {
            "y": 9.001100540161133
          }
        },
        {
          "pos": {
            "x": 1049.29443359375,
            "y": 218.0,
            "z": 769.5068969726562
          },
          "targetVelocity": 4.0,
          "rotRoundReachDir": {
            "y": 27.00160026550293
          },
          "rotRoundLeaveDir": {
            "y": 27.00160026550293
          }
        },
        {
          "pos": {
            "x": 1049.7205810546875,
            "y": 218.0,
            "z": 770.3432006835938
          },
          "targetVelocity": 4.0,
          "rotRoundReachDir": {
            "y": 45.0
          },
          "rotRoundLeaveDir": {
            "y": 45.0
          }
        },
        {
          "pos": {
            "x": 1050.38427734375,
            "y": 218.0,
            "z": 771.0068969726562
          },
          "targetVelocity": 4.0,
          "rotRoundReachDir": {
            "y": 63.0017204284668
          },
          "rotRoundLeaveDir": {
            "y": 63.0017204284668
          }
        },
        {
          "pos": {
            "x": 1051.2205810546875,
            "y": 218.0,
            "z": 771.4329833984375
          },
          "targetVelocity": 4.0,
          "rotRoundReachDir": {
            "y": 80.99832153320312
          },
          "rotRoundLeaveDir": {
            "y": 80.99832153320312
          }
        }
      ],
      "rotType": "ROT_ROUND",
      "rotAngleType": "ROT_ANGLE_Y",
      "isSimulateTempRouteByTime": true,
      "_isUsePreStopMove": true,
      "_isSubWaitTimeFlag": true
    },
    {
      "localId": 910008004,
      "name": "Route_910008004",
      "type": "Loop",
      "points": [
        {
          "pos": {
            "x": 1120.412109375,
            "y": 265.8520812988281,
            "z": 776.6842041015625
          },
          "speedLevel": 2
        },
        {
          "pos": {
            "x": 1118.9036865234375,
            "y": 264.17266845703125,
            "z": 780.6090698242188
          },
          "speedLevel": 2
        },
        {
          "pos": {
            "x": 1117.5709228515625,
            "y": 262.31854248046875,
            "z": 785.7488403320312
          },
          "speedLevel": 2
        },
        {
          "pos": {
            "x": 1117.9794921875,
            "y": 261.6971435546875,
            "z": 787.98291015625
          },
          "speedLevel": 2
        },
        {
          "pos": {
            "x": 1119.8345947265625,
            "y": 261.49285888671875,
            "z": 789.4771728515625
          },
          "speedLevel": 2
        },
        {
          "pos": {
            "x": 1122.233154296875,
            "y": 261.97882080078125,
            "z": 789.0741577148438
          },
          "speedLevel": 2
        },
        {
          "pos": {
            "x": 1123.69580078125,
            "y": 262.6117858886719,
            "z": 787.5099487304688
          },
          "speedLevel": 2
        },
        {
          "pos": {
            "x": 1124.8333740234375,
            "y": 263.7530822753906,
            "z": 784.4744262695312
          },
          "speedLevel": 2
        },
        {
          "pos": {
            "x": 1125.607177734375,
            "y": 265.5537414550781,
            "z": 779.6289672851562
          },
          "speedLevel": 2
        },
        {
          "pos": {
            "x": 1124.927734375,
            "y": 266.4252624511719,
            "z": 777.4755249023438
          },
          "speedLevel": 2
        },
        {
          "pos": {
            "x": 1123.09814453125,
            "y": 266.5305480957031,
            "z": 775.7977294921875
          },
          "speedLevel": 2
        }
      ],
      "rotAngleType": "ROT_ANGLE_Y",
      "isSimulateTempRouteByTime": true,
      "_isUsePreStopMove": true,
      "_isSubWaitTimeFlag": true
    },
    {
      "localId": 910008005,
      "name": "Route_910008004",
      "type": "Loop",
      "points": [
        {
          "pos": {
            "x": 1121.987548828125,
            "y": 262.037353515625,
            "z": 788.631591796875
          },
          "speedLevel": 2
        },
        {
          "pos": {
            "x": 1123.3515625,
            "y": 263.1385192871094,
            "z": 785.5601196289062
          },
          "speedLevel": 2
        },
        {
          "pos": {
            "x": 1124.45361328125,
            "y": 264.749755859375,
            "z": 781.4227294921875
          },
          "speedLevel": 2
        },
        {
          "pos": {
            "x": 1124.0928955078125,
            "y": 265.6893005371094,
            "z": 778.5951538085938
          },
          "speedLevel": 2
        },
        {
          "pos": {
            "x": 1122.6539306640625,
            "y": 266.0121765136719,
            "z": 777.0022583007812
          },
          "speedLevel": 2
        },
        {
          "pos": {
            "x": 1120.978759765625,
            "y": 266.0266418457031,
            "z": 776.3347778320312
          },
          "speedLevel": 2
        },
        {
          "pos": {
            "x": 1119.75439453125,
            "y": 265.8232116699219,
            "z": 776.5938720703125
          },
          "speedLevel": 2
        },
        {
          "pos": {
            "x": 1118.50244140625,
            "y": 264.9978942871094,
            "z": 776.9642944335938
          },
          "speedLevel": 2
        },
        {
          "pos": {
            "x": 1117.0614013671875,
            "y": 264.3923645019531,
            "z": 779.2274169921875
          },
          "speedLevel": 2
        },
        {
          "pos": {
            "x": 1116.0057373046875,
            "y": 262.4225769042969,
            "z": 784.8121948242188
          },
          "speedLevel": 2
        },
        {
          "pos": {
            "x": 1117.2213134765625,
            "y": 261.4273681640625,
            "z": 788.5723266601562
          },
          "speedLevel": 2
        },
        {
          "pos": {
            "x": 1119.0301513671875,
            "y": 261.301025390625,
            "z": 789.8059692382812
          },
          "speedLevel": 2
        },
        {
          "pos": {
            "x": 1120.9755859375,
            "y": 261.507080078125,
            "z": 789.9738159179688
          },
          "speedLevel": 2
        }
      ],
      "rotAngleType": "ROT_ANGLE_Y",
      "isSimulateTempRouteByTime": true,
      "_isUsePreStopMove": true,
      "_isSubWaitTimeFlag": true
    },
    {
      "localId": 910008007,
      "name": "Platform_910008007",
      "type": "Loop",
      "points": [
        {
          "pos": {
            "x": 1198.2855224609375,
            "y": 223.0,
            "z": 704.7316284179688
          },
          "targetVelocity": 4.0,
          "rotRoundReachDir": {
            "y": 224.99903869628906
          },
          "rotRoundLeaveDir": {
            "y": 224.99903869628906
          }
        },
        {
          "pos": {
            "x": 1197.16259765625,
            "y": 222.5,
            "z": 703.6085815429688
          },
          "targetVelocity": 4.0,
          "rotRoundReachDir": {
            "y": 224.99903869628906
          },
          "rotRoundLeaveDir": {
            "y": 224.99903869628906
          }
        },
        {
          "pos": {
            "x": 1196.4554443359375,
            "y": 222.0,
            "z": 702.9014892578125
          },
          "targetVelocity": 4.0,
          "rotRoundReachDir": {
            "y": 255.00025939941406
          },
          "rotRoundLeaveDir": {
            "y": 255.00025939941406
          }
        },
        {
          "pos": {
            "x": 1194.92138671875,
            "y": 222.0,
            "z": 702.4904174804688
          },
          "targetVelocity": 4.0,
          "rotRoundReachDir": {
            "y": 255.00025939941406
          },
          "rotRoundLeaveDir": {
            "y": 255.00025939941406
          }
        },
        {
          "pos": {
            "x": 1193.9554443359375,
            "y": 222.0,
            "z": 702.2316284179688
          },
          "targetVelocity": 4.0,
          "rotRoundReachDir": {
            "y": 284.9997253417969
          },
          "rotRoundLeaveDir": {
            "y": 284.9997253417969
          }
        },
        {
          "pos": {
            "x": 1192.42138671875,
            "y": 222.0,
            "z": 702.6427001953125
          },
          "targetVelocity": 4.0,
          "rotRoundReachDir": {
            "y": 284.9997253417969
          },
          "rotRoundLeaveDir": {
            "y": 284.9997253417969
          }
        },
        {
          "pos": {
            "x": 1191.4554443359375,
            "y": 221.8000030517578,
            "z": 702.9014892578125
          },
          "targetVelocity": 4.0,
          "rotRoundReachDir": {
            "y": 315.0009460449219
          },
          "rotRoundLeaveDir": {
            "y": 315.0009460449219
          }
        },
        {
          "pos": {
            "x": 1190.33251953125,
            "y": 221.5,
            "z": 704.0245361328125
          },
          "targetVelocity": 4.0,
          "rotRoundReachDir": {
            "y": 315.0009460449219
          },
          "rotRoundLeaveDir": {
            "y": 315.0009460449219
          }
        },
        {
          "pos": {
            "x": 1189.6253662109375,
            "y": 221.39999389648438,
            "z": 704.7316284179688
          },
          "targetVelocity": 4.0,
          "rotRoundReachDir": {
            "y": 344.99896240234375
          },
          "rotRoundLeaveDir": {
            "y": 344.99896240234375
          }
        },
        {
          "pos": {
            "x": 1189.2142333984375,
            "y": 221.0,
            "z": 706.2656860351562
          },
          "targetVelocity": 4.0,
          "rotRoundReachDir": {
            "y": 344.99896240234375
          },
          "rotRoundLeaveDir": {
            "y": 344.99896240234375
          }
        },
        {
          "pos": {
            "x": 1188.9554443359375,
            "y": 220.8000030517578,
            "z": 707.2316284179688
          },
          "targetVelocity": 4.0,
          "rotRoundReachDir": {
            "y": 15.001047134399414
          },
          "rotRoundLeaveDir": {
            "y": 15.001047134399414
          }
        },
        {
          "pos": {
            "x": 1189.3665771484375,
            "y": 220.5,
            "z": 708.7656860351562
          },
          "targetVelocity": 4.0,
          "rotRoundReachDir": {
            "y": 15.001047134399414
          },
          "rotRoundLeaveDir": {
            "y": 15.001047134399414
          }
        },
        {
          "pos": {
            "x": 1189.6253662109375,
            "y": 220.39999389648438,
            "z": 709.7316284179688
          },
          "targetVelocity": 4.0,
          "rotRoundReachDir": {
            "y": 44.999046325683594
          },
          "rotRoundLeaveDir": {
            "y": 44.999046325683594
          }
        },
        {
          "pos": {
            "x": 1190.748291015625,
            "y": 220.0,
            "z": 710.8546752929688
          },
          "targetVelocity": 2.5,
          "rotRoundReachDir": {
            "y": 44.999046325683594
          },
          "rotRoundLeaveDir": {
            "y": 44.999046325683594
          }
        },
        {
          "pos": {
            "x": 1191.4554443359375,
            "y": 220.0,
            "z": 711.561767578125
          },
          "targetVelocity": 2.5,
          "rotRoundReachDir": {
            "y": 75.0002670288086
          },
          "rotRoundLeaveDir": {
            "y": 75.0002670288086
          }
        },
        {
          "pos": {
            "x": 1192.989501953125,
            "y": 220.0,
            "z": 711.9728393554688
          },
          "targetVelocity": 2.5,
          "rotRoundReachDir": {
            "y": 75.0002670288086
          },
          "rotRoundLeaveDir": {
            "y": 75.0002670288086
          }
        },
        {
          "pos": {
            "x": 1193.9554443359375,
            "y": 220.0,
            "z": 712.2316284179688
          },
          "targetVelocity": 2.5,
          "rotRoundReachDir": {
            "y": 104.99974060058594
          },
          "rotRoundLeaveDir": {
            "y": 104.99974060058594
          }
        },
        {
          "pos": {
            "x": 1195.489501953125,
            "y": 220.0,
            "z": 711.820556640625
          },
          "targetVelocity": 2.5,
          "rotRoundReachDir": {
            "y": 104.99974060058594
          },
          "rotRoundLeaveDir": {
            "y": 104.99974060058594
          }
        },
        {
          "pos": {
            "x": 1196.4554443359375,
            "y": 220.0,
            "z": 711.561767578125
          },
          "targetVelocity": 2.5,
          "rotRoundReachDir": {
            "y": 135.00096130371094
          },
          "rotRoundLeaveDir": {
            "y": 135.00096130371094
          }
        },
        {
          "pos": {
            "x": 1197.578369140625,
            "y": 220.5,
            "z": 710.438720703125
          },
          "targetVelocity": 2.5,
          "rotRoundReachDir": {
            "y": 135.00096130371094
          },
          "rotRoundLeaveDir": {
            "y": 135.00096130371094
          }
        },
        {
          "pos": {
            "x": 1198.2855224609375,
            "y": 221.0,
            "z": 709.7316284179688
          },
          "targetVelocity": 4.0,
          "rotRoundReachDir": {
            "y": 164.99896240234375
          },
          "rotRoundLeaveDir": {
            "y": 164.99896240234375
          }
        },
        {
          "pos": {
            "x": 1198.6966552734375,
            "y": 221.5,
            "z": 708.1975708007812
          },
          "targetVelocity": 4.0,
          "rotRoundReachDir": {
            "y": 164.99896240234375
          },
          "rotRoundLeaveDir": {
            "y": 164.99896240234375
          }
        },
        {
          "pos": {
            "x": 1198.9554443359375,
            "y": 222.0,
            "z": 707.2316284179688
          },
          "targetVelocity": 4.0,
          "rotRoundReachDir": {
            "y": 195.00103759765625
          },
          "rotRoundLeaveDir": {
            "y": 195.00103759765625
          }
        },
        {
          "pos": {
            "x": 1198.5443115234375,
            "y": 222.5,
            "z": 705.6975708007812
          },
          "targetVelocity": 4.0,
          "rotRoundReachDir": {
            "y": 195.00103759765625
          },
          "rotRoundLeaveDir": {
            "y": 195.00103759765625
          }
        }
      ],
      "rotType": "ROT_ROUND",
      "rotAngleType": "ROT_ANGLE_Y",
      "isSimulateTempRouteByTime": true,
      "_isUsePreStopMove": true,
      "_isSubWaitTimeFlag": true
    },
    {
      "localId": 910008008,
      "name": "Platform_910008008",
      "points": [
        {
          "pos": {
            "x": 1358.91259765625,
            "y": 214.9931182861328,
            "z": 793.9771118164062
          },
          "targetVelocity": 5.0
        },
        {
          "pos": {
            "x": 1362.6617431640625,
            "y": 215.15216064453125,
            "z": 792.744140625
          },
          "targetVelocity": 5.0
        },
        {
          "pos": {
            "x": 1366.2462158203125,
            "y": 215.4774932861328,
            "z": 792.1777954101562
          },
          "targetVelocity": 5.0
        },
        {
          "pos": {
            "x": 1370.2369384765625,
            "y": 215.92074584960938,
            "z": 792.5526123046875
          },
          "targetVelocity": 5.0,
          "hasReachEvent": true,
          "reachStop": true
        },
        {
          "pos": {
            "x": 1373.7564697265625,
            "y": 216.31509399414062,
            "z": 792.7034912109375
          },
          "targetVelocity": 6.0
        },
        {
          "pos": {
            "x": 1376.0181884765625,
            "y": 216.7490692138672,
            "z": 793.1041870117188
          },
          "targetVelocity": 6.0
        },
        {
          "pos": {
            "x": 1378.938232421875,
            "y": 217.5850372314453,
            "z": 793.5270385742188
          },
          "targetVelocity": 6.0
        },
        {
          "pos": {
            "x": 1381.7073974609375,
            "y": 218.34962463378906,
            "z": 793.4700927734375
          },
          "targetVelocity": 6.0
        },
        {
          "pos": {
            "x": 1385.87451171875,
            "y": 219.52374267578125,
            "z": 792.7814331054688
          },
          "targetVelocity": 6.0
        },
        {
          "pos": {
            "x": 1388.31103515625,
            "y": 220.1595916748047,
            "z": 791.8626098632812
          },
          "targetVelocity": 6.0
        },
        {
          "pos": {
            "x": 1390.6456298828125,
            "y": 220.4657440185547,
            "z": 790.4332885742188
          },
          "targetVelocity": 6.0
        },
        {
          "pos": {
            "x": 1393.2618408203125,
            "y": 220.9615936279297,
            "z": 789.4913940429688
          },
          "targetVelocity": 6.0
        },
        {
          "pos": {
            "x": 1396.6705322265625,
            "y": 221.83302307128906,
            "z": 789.1931762695312
          },
          "targetVelocity": 6.0
        },
        {
          "pos": {
            "x": 1398.9395751953125,
            "y": 222.3956756591797,
            "z": 789.7225952148438
          },
          "targetVelocity": 6.0
        },
        {
          "pos": {
            "x": 1401.1588134765625,
            "y": 222.916748046875,
            "z": 791.0457153320312
          },
          "targetVelocity": 6.0
        },
        {
          "pos": {
            "x": 1403.3155517578125,
            "y": 223.617431640625,
            "z": 792.7686157226562
          },
          "targetVelocity": 6.0
        },
        {
          "pos": {
            "x": 1404.97412109375,
            "y": 224.15634155273438,
            "z": 794.3690795898438
          },
          "targetVelocity": 6.0
        },
        {
          "pos": {
            "x": 1406.8572998046875,
            "y": 224.9682159423828,
            "z": 795.6460571289062
          },
          "targetVelocity": 6.0
        },
        {
          "pos": {
            "x": 1408.6522216796875,
            "y": 225.64048767089844,
            "z": 796.4143676757812
          },
          "targetVelocity": 6.0,
          "hasReachEvent": true,
          "reachStop": true
        }
      ],
      "rotAngleType": "ROT_ANGLE_Y",
      "isSimulateTempRouteByTime": true,
      "_isUsePreStopMove": true,
      "_isSubWaitTimeFlag": true
    },
    {
      "localId": 910008009,
      "name": "Platform_910008009",
      "points": [
        {
          "pos": {
            "x": 1358.4765625,
            "y": 214.196533203125,
            "z": 796.6513671875
          },
          "targetVelocity": 5.0
        },
        {
          "pos": {
            "x": 1361.0357666015625,
            "y": 214.6348419189453,
            "z": 796.4666137695312
          },
          "targetVelocity": 5.0
        },
        {
          "pos": {
            "x": 1365.465576171875,
            "y": 215.08999633789062,
            "z": 795.2833251953125
          },
          "targetVelocity": 5.0
        },
        {
          "pos": {
            "x": 1369.349609375,
            "y": 215.4901580810547,
            "z": 793.3475952148438
          },
          "targetVelocity": 5.0,
          "hasReachEvent": true,
          "reachStop": true
        },
        {
          "pos": {
            "x": 1370.5511474609375,
            "y": 215.73695373535156,
            "z": 794.4963989257812
          },
          "targetVelocity": 4.0
        },
        {
          "pos": {
            "x": 1371.944580078125,
            "y": 215.64254760742188,
            "z": 796.2149658203125
          },
          "targetVelocity": 4.0
        },
        {
          "pos": {
            "x": 1373.2288818359375,
            "y": 215.15872192382812,
            "z": 798.21142578125
          },
          "targetVelocity": 4.0
        },
        {
          "pos": {
            "x": 1373.3037109375,
            "y": 214.95335388183594,
            "z": 798.8999633789062
          },
          "targetVelocity": 4.0
        },
        {
          "pos": {
            "x": 1372.882080078125,
            "y": 214.85208129882812,
            "z": 799.7193603515625
          },
          "targetVelocity": 4.0
        },
        {
          "pos": {
            "x": 1372.1343994140625,
            "y": 214.95989990234375,
            "z": 800.3746948242188
          },
          "targetVelocity": 4.0
        },
        {
          "pos": {
            "x": 1370.8350830078125,
            "y": 215.15386962890625,
            "z": 801.8944091796875
          },
          "targetVelocity": 4.0
        },
        {
          "pos": {
            "x": 1369.630615234375,
            "y": 215.39901733398438,
            "z": 803.9169921875
          },
          "targetVelocity": 4.0
        },
        {
          "pos": {
            "x": 1369.0692138671875,
            "y": 215.43087768554688,
            "z": 805.5269165039062
          },
          "targetVelocity": 4.0
        },
        {
          "pos": {
            "x": 1368.0906982421875,
            "y": 215.44444274902344,
            "z": 806.7943725585938
          },
          "targetVelocity": 4.0
        },
        {
          "pos": {
            "x": 1366.9818115234375,
            "y": 215.4266357421875,
            "z": 807.7803955078125
          },
          "targetVelocity": 4.0
        },
        {
          "pos": {
            "x": 1365.6700439453125,
            "y": 215.39784240722656,
            "z": 808.4354858398438
          },
          "targetVelocity": 4.0
        },
        {
          "pos": {
            "x": 1364.177001953125,
            "y": 215.4727020263672,
            "z": 808.6458129882812
          },
          "targetVelocity": 4.0,
          "hasReachEvent": true,
          "reachStop": true
        }
      ],
      "rotAngleType": "ROT_ANGLE_Y",
      "isSimulateTempRouteByTime": true,
      "_isUsePreStopMove": true,
      "_isSubWaitTimeFlag": true
    },
    {
      "localId": 910008010,
      "name": "Platform_910008010",
      "points": [
        {
          "pos": {
            "x": 1356.2103271484375,
            "y": 214.0032501220703,
            "z": 793.6742553710938
          },
          "targetVelocity": 5.0
        },
        {
          "pos": {
            "x": 1358.0113525390625,
            "y": 214.19400024414062,
            "z": 791.6482543945312
          },
          "targetVelocity": 5.0
        },
        {
          "pos": {
            "x": 1362.18212890625,
            "y": 214.23561096191406,
            "z": 790.166015625
          },
          "targetVelocity": 5.0
        },
        {
          "pos": {
            "x": 1366.538818359375,
            "y": 215.1471405029297,
            "z": 790.261474609375
          },
          "targetVelocity": 5.0
        },
        {
          "pos": {
            "x": 1369.8958740234375,
            "y": 215.69273376464844,
            "z": 791.4441528320312
          },
          "targetVelocity": 5.0,
          "hasReachEvent": true,
          "reachStop": true
        },
        {
          "pos": {
            "x": 1370.865966796875,
            "y": 215.92678833007812,
            "z": 791.1356811523438
          },
          "targetVelocity": 4.0
        },
        {
          "pos": {
            "x": 1371.69921875,
            "y": 215.91180419921875,
            "z": 790.4337158203125
          },
          "targetVelocity": 4.0
        },
        {
          "pos": {
            "x": 1372.2772216796875,
            "y": 215.7389373779297,
            "z": 789.5095825195312
          },
          "targetVelocity": 4.0
        },
        {
          "pos": {
            "x": 1372.7325439453125,
            "y": 214.95372009277344,
            "z": 787.552490234375
          },
          "targetVelocity": 4.0
        },
        {
          "pos": {
            "x": 1372.56005859375,
            "y": 214.9535675048828,
            "z": 785.496826171875
          },
          "targetVelocity": 4.0
        },
        {
          "pos": {
            "x": 1372.752685546875,
            "y": 215.10000610351562,
            "z": 783.6683959960938
          },
          "targetVelocity": 4.0
        },
        {
          "pos": {
            "x": 1373.213134765625,
            "y": 215.2312469482422,
            "z": 782.6146240234375
          },
          "targetVelocity": 4.0
        },
        {
          "pos": {
            "x": 1374.086669921875,
            "y": 215.4171142578125,
            "z": 781.4947509765625
          },
          "targetVelocity": 4.0
        },
        {
          "pos": {
            "x": 1375.736328125,
            "y": 215.3211212158203,
            "z": 780.64697265625
          },
          "targetVelocity": 4.0
        },
        {
          "pos": {
            "x": 1377.20703125,
            "y": 215.13369750976562,
            "z": 780.6821899414062
          },
          "targetVelocity": 4.0,
          "hasReachEvent": true,
          "reachStop": true
        }
      ],
      "rotAngleType": "ROT_ANGLE_Y",
      "isSimulateTempRouteByTime": true,
      "_isUsePreStopMove": true,
      "_isSubWaitTimeFlag": true
    },
    {
      "localId": 910008011,
      "name": "Platform_910008011",
      "points": [
        {
          "pos": {
            "x": 1410.96875,
            "y": 225.5,
            "z": 797.11474609375
          },
          "targetVelocity": 4.5
        },
        {
          "pos": {
            "x": 1413.6304931640625,
            "y": 225.5,
            "z": 797.1641845703125
          },
          "targetVelocity": 4.5,
          "hasReachEvent": true
        },
        {
          "pos": {
            "x": 1416.210205078125,
            "y": 225.5,
            "z": 796.3463745117188
          },
          "targetVelocity": 4.5
        },
        {
          "pos": {
            "x": 1417.877197265625,
            "y": 225.5,
            "z": 795.0390625
          },
          "targetVelocity": 4.5
        },
        {
          "pos": {
            "x": 1418.683349609375,
            "y": 225.5,
            "z": 793.1536254882812
          },
          "targetVelocity": 4.5
        },
        {
          "pos": {
            "x": 1418.50634765625,
            "y": 225.5,
            "z": 790.9171142578125
          },
          "targetVelocity": 4.5
        },
        {
          "pos": {
            "x": 1419.1087646484375,
            "y": 225.5,
            "z": 789.0592651367188
          },
          "targetVelocity": 4.5,
          "hasReachEvent": true,
          "reachStop": true
        },
        {
          "pos": {
            "x": 1420.1845703125,
            "y": 225.5,
            "z": 787.5332641601562
          },
          "targetVelocity": 4.5
        },
        {
          "pos": {
            "x": 1421.8238525390625,
            "y": 225.5,
            "z": 786.6879272460938
          },
          "targetVelocity": 4.5
        },
        {
          "pos": {
            "x": 1423.5987548828125,
            "y": 225.5,
            "z": 786.6072998046875
          },
          "targetVelocity": 4.5
        },
        {
          "pos": {
            "x": 1425.30126953125,
            "y": 225.5,
            "z": 787.2281494140625
          },
          "targetVelocity": 4.5,
          "hasReachEvent": true
        },
        {
          "pos": {
            "x": 1426.748291015625,
            "y": 225.5,
            "z": 788.6838989257812
          },
          "targetVelocity": 4.5
        },
        {
          "pos": {
            "x": 1427.525146484375,
            "y": 225.5,
            "z": 790.6165161132812
          },
          "targetVelocity": 4.5
        },
        {
          "pos": {
            "x": 1427.4024658203125,
            "y": 225.5,
            "z": 792.3536987304688
          },
          "targetVelocity": 4.5
        },
        {
          "pos": {
            "x": 1426.75927734375,
            "y": 225.5,
            "z": 794.0333251953125
          },
          "targetVelocity": 4.5
        },
        {
          "pos": {
            "x": 1426.4171142578125,
            "y": 225.5,
            "z": 795.960693359375
          },
          "targetVelocity": 4.5,
          "hasReachEvent": true,
          "reachStop": true
        },
        {
          "pos": {
            "x": 1426.690185546875,
            "y": 225.5,
            "z": 797.8279418945312
          },
          "targetVelocity": 4.5
        },
        {
          "pos": {
            "x": 1428.0673828125,
            "y": 225.5,
            "z": 799.004638671875
          },
          "targetVelocity": 4.5
        },
        {
          "pos": {
            "x": 1429.509765625,
            "y": 225.5,
            "z": 799.3406372070312
          },
          "targetVelocity": 4.5
        },
        {
          "pos": {
            "x": 1431.4219970703125,
            "y": 225.5,
            "z": 798.8659057617188
          },
          "targetVelocity": 4.5
        },
        {
          "pos": {
            "x": 1432.691650390625,
            "y": 225.5,
            "z": 797.7452392578125
          },
          "targetVelocity": 4.5
        },
        {
          "pos": {
            "x": 1433.432373046875,
            "y": 225.5,
            "z": 795.9268798828125
          },
          "targetVelocity": 4.5
        },
        {
          "pos": {
            "x": 1433.416748046875,
            "y": 225.5,
            "z": 794.1739501953125
          },
          "targetVelocity": 4.5
        },
        {
          "pos": {
            "x": 1433.0,
            "y": 225.5,
            "z": 792.3274536132812
          },
          "targetVelocity": 4.5,
          "hasReachEvent": true,
          "reachStop": true
        },
        {
          "pos": {
            "x": 1435.1923828125,
            "y": 224.0,
            "z": 792.2244262695312
          },
          "targetVelocity": 3.0,
          "hasReachEvent": true
        },
        {
          "pos": {
            "x": 1438.0611572265625,
            "y": 220.0,
            "z": 792.1346435546875
          },
          "targetVelocity": 4.0
        },
        {
          "pos": {
            "x": 1442.647705078125,
            "y": 206.41290283203125,
            "z": 792.1346435546875
          },
          "targetVelocity": 10.0,
          "hasReachEvent": true,
          "reachStop": true
        }
      ],
      "rotAngleType": "ROT_ANGLE_Y",
      "isSimulateTempRouteByTime": true,
      "_isUsePreStopMove": true,
      "_isSubWaitTimeFlag": true
    },
    {
      "localId": 910008012,
      "name": "Platform_910008012",
      "points": [
        {
          "pos": {
            "x": 1365.6356201171875,
            "y": 215.20486450195312,
            "z": 810.3131713867188
          },
          "targetVelocity": 4.5
        },
        {
          "pos": {
            "x": 1367.145751953125,
            "y": 215.267578125,
            "z": 811.8552856445312
          },
          "targetVelocity": 4.5
        },
        {
          "pos": {
            "x": 1369.124755859375,
            "y": 215.28248596191406,
            "z": 812.9177856445312
          },
          "targetVelocity": 4.5
        },
        {
          "pos": {
            "x": 1371.55908203125,
            "y": 215.47328186035156,
            "z": 813.494384765625
          },
          "targetVelocity": 4.5
        },
        {
          "pos": {
            "x": 1374.2371826171875,
            "y": 215.5010986328125,
            "z": 813.5982666015625
          },
          "targetVelocity": 4.5,
          "hasReachEvent": true,
          "reachStop": true
        },
        {
          "pos": {
            "x": 1376.5545654296875,
            "y": 215.6636962890625,
            "z": 814.205078125
          },
          "targetVelocity": 4.5
        },
        {
          "pos": {
            "x": 1378.1072998046875,
            "y": 215.94931030273438,
            "z": 815.27099609375
          },
          "targetVelocity": 4.5
        },
        {
          "pos": {
            "x": 1379.096923828125,
            "y": 216.4201202392578,
            "z": 817.028076171875
          },
          "targetVelocity": 4.5
        },
        {
          "pos": {
            "x": 1379.1043701171875,
            "y": 216.9878692626953,
            "z": 819.1469116210938
          },
          "targetVelocity": 4.5
        },
        {
          "pos": {
            "x": 1378.2244873046875,
            "y": 217.39959716796875,
            "z": 820.6834716796875
          },
          "targetVelocity": 4.5
        },
        {
          "pos": {
            "x": 1376.9375,
            "y": 217.92013549804688,
            "z": 821.8798217773438
          },
          "targetVelocity": 4.5
        },
        {
          "pos": {
            "x": 1375.9027099609375,
            "y": 218.80752563476562,
            "z": 823.3255615234375
          },
          "targetVelocity": 4.5
        },
        {
          "pos": {
            "x": 1375.3221435546875,
            "y": 219.56109619140625,
            "z": 824.7498168945312
          },
          "targetVelocity": 4.5,
          "hasReachEvent": true,
          "reachStop": true
        },
        {
          "pos": {
            "x": 1377.5845947265625,
            "y": 219.019287109375,
            "z": 825.2354736328125
          },
          "targetVelocity": 4.5
        },
        {
          "pos": {
            "x": 1379.1942138671875,
            "y": 218.99986267089844,
            "z": 825.8883056640625
          },
          "targetVelocity": 4.5
        },
        {
          "pos": {
            "x": 1380.02490234375,
            "y": 218.7118377685547,
            "z": 827.4485473632812
          },
          "targetVelocity": 4.5
        },
        {
          "pos": {
            "x": 1380.0023193359375,
            "y": 218.67568969726562,
            "z": 829.2316284179688
          },
          "targetVelocity": 4.5
        },
        {
          "pos": {
            "x": 1378.9517822265625,
            "y": 218.51197814941406,
            "z": 830.4119262695312
          },
          "targetVelocity": 4.5,
          "hasReachEvent": true,
          "reachStop": true
        },
        {
          "pos": {
            "x": 1376.990234375,
            "y": 218.31088256835938,
            "z": 831.3765869140625
          },
          "targetVelocity": 4.5,
          "hasReachEvent": true,
          "reachStop": true
        }
      ],
      "rotAngleType": "ROT_ANGLE_Y",
      "isSimulateTempRouteByTime": true,
      "_isUsePreStopMove": true,
      "_isSubWaitTimeFlag": true
    },
    {
      "localId": 910008013,
      "name": "Platform_910008013",
      "points": [
        {
          "pos": {
            "x": 1378.837890625,
            "y": 215.48590087890625,
            "z": 781.0281982421875
          },
          "targetVelocity": 4.5
        },
        {
          "pos": {
            "x": 1380.53466796875,
            "y": 216.21311950683594,
            "z": 781.0205078125
          },
          "targetVelocity": 4.5
        },
        {
          "pos": {
            "x": 1382.434814453125,
            "y": 216.94500732421875,
            "z": 779.9576416015625
          },
          "targetVelocity": 4.5
        },
        {
          "pos": {
            "x": 1383.6243896484375,
            "y": 217.3138885498047,
            "z": 778.456298828125
          },
          "targetVelocity": 4.5
        },
        {
          "pos": {
            "x": 1384.2926025390625,
            "y": 217.2792510986328,
            "z": 776.5733032226562
          },
          "targetVelocity": 4.5,
          "hasReachEvent": true,
          "reachStop": true
        },
        {
          "pos": {
            "x": 1384.8985595703125,
            "y": 216.61895751953125,
            "z": 774.219482421875
          },
          "targetVelocity": 4.5
        },
        {
          "pos": {
            "x": 1385.0028076171875,
            "y": 215.72109985351562,
            "z": 772.0634155273438
          },
          "targetVelocity": 4.5
        },
        {
          "pos": {
            "x": 1385.4866943359375,
            "y": 215.2072296142578,
            "z": 770.7547607421875
          },
          "targetVelocity": 4.5
        },
        {
          "pos": {
            "x": 1386.1861572265625,
            "y": 214.6654510498047,
            "z": 769.6370849609375
          },
          "targetVelocity": 4.5,
          "hasReachEvent": true,
          "reachStop": true
        }
      ],
      "rotAngleType": "ROT_ANGLE_Y",
      "isSimulateTempRouteByTime": true,
      "_isUsePreStopMove": true,
      "_isSubWaitTimeFlag": true
    },
    {
      "localId": 910008014,
      "name": "Platform_910008014",
      "type": "Loop",
      "points": [
        {
          "pos": {
            "x": 1356.760986328125,
            "y": 214.85000610351562,
            "z": 795.6165161132812
          },
          "waitTime": 0.5,
          "targetVelocity": 0.20000000298023224
        },
        {
          "pos": {
            "x": 1356.760986328125,
            "y": 214.375,
            "z": 795.6165161132812
          },
          "waitTime": 0.5,
          "targetVelocity": 0.20000000298023224
        }
      ],
      "rotAngleType": "ROT_ANGLE_Y",
      "isSimulateTempRouteByTime": true,
      "_isUsePreStopMove": true,
      "_isSubWaitTimeFlag": true
    },
    {
      "localId": 910008015,
      "name": "Platform_910008015",
      "type": "Loop",
      "points": [
        {
          "pos": {
            "x": 1356.407958984375,
            "y": 214.0,
            "z": 796.8444213867188
          },
          "waitTime": 0.4000000059604645,
          "targetVelocity": 0.25
        },
        {
          "pos": {
            "x": 1356.407958984375,
            "y": 214.39999389648438,
            "z": 796.8444213867188
          },
          "waitTime": 0.4000000059604645,
          "targetVelocity": 0.25
        }
      ],
      "rotAngleType": "ROT_ANGLE_Y",
      "isSimulateTempRouteByTime": true,
      "_isUsePreStopMove": true,
      "_isSubWaitTimeFlag": true
    },
    {
      "localId": 910008016,
      "name": "Platform_910008016",
      "type": "Loop",
      "points": [
        {
          "pos": {
            "x": 1355.4859619140625,
            "y": 213.60000610351562,
            "z": 795.4420166015625
          },
          "waitTime": 0.30000001192092896,
          "targetVelocity": 0.20000000298023224
        },
        {
          "pos": {
            "x": 1355.4859619140625,
            "y": 214.0,
            "z": 795.4420166015625
          },
          "waitTime": 0.30000001192092896,
          "targetVelocity": 0.20000000298023224
        }
      ],
      "rotAngleType": "ROT_ANGLE_Y",
      "isSimulateTempRouteByTime": true,
      "_isUsePreStopMove": true,
      "_isSubWaitTimeFlag": true
    },
    {
      "localId": 910008017,
      "name": "Platform_910008017",
      "points": [
        {
          "pos": {
            "x": 1469.2689208984375,
            "y": 222.7322998046875,
            "z": 820.5910034179688
          },
          "targetVelocity": 4.5
        },
        {
          "pos": {
            "x": 1470.0174560546875,
            "y": 222.2344970703125,
            "z": 824.4654541015625
          },
          "targetVelocity": 4.0,
          "hasReachEvent": true,
          "reachStop": true
        }
      ],
      "rotAngleType": "ROT_ANGLE_Y",
      "isSimulateTempRouteByTime": true,
      "_isUsePreStopMove": true,
      "_isSubWaitTimeFlag": true
    },
    {
      "localId": 910008018,
      "name": "Platform_910008018",
      "points": [
        {
          "pos": {
            "x": 1403.7288818359375,
            "y": 185.5345001220703,
            "z": 792.5987548828125
          },
          "targetVelocity": 3.0
        },
        {
          "pos": {
            "x": 1388.6549072265625,
            "y": 184.17892456054688,
            "z": 792.5987548828125
          },
          "targetVelocity": 4.0
        },
        {
          "pos": {
            "x": 1378.6600341796875,
            "y": 184.82528686523438,
            "z": 792.5987548828125
          },
          "targetVelocity": 5.0
        },
        {
          "pos": {
            "x": 1371.7706298828125,
            "y": 187.1993865966797,
            "z": 792.5987548828125
          },
          "targetVelocity": 6.0
        },
        {
          "pos": {
            "x": 1368.5301513671875,
            "y": 191.2613983154297,
            "z": 792.5987548828125
          },
          "targetVelocity": 5.0
        },
        {
          "pos": {
            "x": 1367.76513671875,
            "y": 196.63438415527344,
            "z": 792.5987548828125
          },
          "targetVelocity": 6.0
        },
        {
          "pos": {
            "x": 1368.898193359375,
            "y": 200.88351440429688,
            "z": 792.2903442382812
          },
          "targetVelocity": 7.0
        },
        {
          "pos": {
            "x": 1371.3797607421875,
            "y": 201.19000244140625,
            "z": 792.5797119140625
          },
          "targetVelocity": 3.0
        },
        {
          "pos": {
            "x": 1373.07080078125,
            "y": 201.13743591308594,
            "z": 793.2383422851562
          },
          "targetVelocity": 3.0
        },
        {
          "pos": {
            "x": 1374.204345703125,
            "y": 201.0374298095703,
            "z": 793.7686767578125
          },
          "targetVelocity": 3.0
        },
        {
          "pos": {
            "x": 1375.3826904296875,
            "y": 200.93743896484375,
            "z": 794.0305786132812
          },
          "targetVelocity": 3.0,
          "hasReachEvent": true,
          "reachStop": true
        },
        {
          "pos": {
            "x": 1376.4910888671875,
            "y": 200.84046936035156,
            "z": 794.0345458984375
          },
          "targetVelocity": 2.0,
          "hasReachEvent": true,
          "reachStop": true
        }
      ],
      "rotAngleType": "ROT_ANGLE_Y",
      "isSimulateTempRouteByTime": true,
      "_isUsePreStopMove": true,
      "_isSubWaitTimeFlag": true
    },
    {
      "localId": 910008020,
      "name": "Platform_910008019",
      "points": [
        {
          "pos": {
            "x": 1183.3541259765625,
            "y": 208.0,
            "z": 728.9774169921875
          },
          "targetVelocity": 5.0,
          "reachStop": true
        },
        {
          "pos": {
            "x": 1180.491455078125,
            "y": 207.690185546875,
            "z": 731.5537109375
          },
          "targetVelocity": 10.0
        },
        {
          "pos": {
            "x": 1177.57666015625,
            "y": 207.68309020996094,
            "z": 733.1830444335938
          },
          "targetVelocity": 10.0
        },
        {
          "pos": {
            "x": 1175.375244140625,
            "y": 207.87734985351562,
            "z": 734.005615234375
          },
          "targetVelocity": 10.0
        },
        {
          "pos": {
            "x": 1173.655517578125,
            "y": 208.06790161132812,
            "z": 734.2213134765625
          },
          "targetVelocity": 10.0
        },
        {
          "pos": {
            "x": 1172.349365234375,
            "y": 208.33596801757812,
            "z": 734.1007080078125
          },
          "waitTime": 1.0,
          "targetVelocity": 10.0
        },
        {
          "pos": {
            "x": 1172.82568359375,
            "y": 208.2277374267578,
            "z": 731.721435546875
          },
          "targetVelocity": 12.0
        },
        {
          "pos": {
            "x": 1172.925537109375,
            "y": 208.4466552734375,
            "z": 729.16650390625
          },
          "targetVelocity": 12.0
        },
        {
          "pos": {
            "x": 1172.3409423828125,
            "y": 208.8649139404297,
            "z": 726.5764770507812
          },
          "targetVelocity": 12.0
        },
        {
          "pos": {
            "x": 1170.9591064453125,
            "y": 209.38455200195312,
            "z": 724.5719604492188
          },
          "targetVelocity": 12.0
        },
        {
          "pos": {
            "x": 1169.197998046875,
            "y": 209.70086669921875,
            "z": 723.3569946289062
          },
          "targetVelocity": 12.0
        },
        {
          "pos": {
            "x": 1167.8692626953125,
            "y": 210.0057373046875,
            "z": 722.93017578125
          },
          "waitTime": 2.0,
          "targetVelocity": 12.0,
          "hasReachEvent": true
        },
        {
          "pos": {
            "x": 1163.8726806640625,
            "y": 211.04376220703125,
            "z": 723.2644653320312
          },
          "targetVelocity": 15.0
        },
        {
          "pos": {
            "x": 1159.6968994140625,
            "y": 212.23577880859375,
            "z": 725.3929443359375
          },
          "targetVelocity": 15.0
        },
        {
          "pos": {
            "x": 1156.6939697265625,
            "y": 212.9667510986328,
            "z": 727.3604736328125
          },
          "targetVelocity": 15.0
        },
        {
          "pos": {
            "x": 1154.4329833984375,
            "y": 214.3687286376953,
            "z": 730.6831665039062
          },
          "targetVelocity": 15.0
        },
        {
          "pos": {
            "x": 1153.818115234375,
            "y": 216.95640563964844,
            "z": 735.9140014648438
          },
          "targetVelocity": 15.0
        },
        {
          "pos": {
            "x": 1155.6832275390625,
            "y": 227.30593872070312,
            "z": 753.0213012695312
          },
          "targetVelocity": 15.0,
          "hasReachEvent": true,
          "reachStop": true
        }
      ],
      "rotAngleType": "ROT_ANGLE_Y",
      "isSimulateTempRouteByTime": true,
      "_isUsePreStopMove": true,
      "_isSubWaitTimeFlag": true
    },
    {
      "localId": 910008021,
      "name": "Platform_910008019",
      "points": [
        {
          "pos": {
            "x": 1165.9014892578125,
            "y": 228.0,
            "z": 748.8963623046875
          },
          "waitTime": 1.0,
          "targetVelocity": 15.0
        },
        {
          "pos": {
            "x": 1156.876953125,
            "y": 227.5,
            "z": 756.6480102539062
          },
          "waitTime": 2.0,
          "targetVelocity": 18.0,
          "hasReachEvent": true
        },
        {
          "pos": {
            "x": 1153.5687255859375,
            "y": 228.0,
            "z": 748.6077880859375
          },
          "targetVelocity": 20.0
        },
        {
          "pos": {
            "x": 1148.8173828125,
            "y": 228.5,
            "z": 743.32861328125
          },
          "targetVelocity": 20.0
        },
        {
          "pos": {
            "x": 1140.99951171875,
            "y": 228.5,
            "z": 737.9331665039062
          },
          "targetVelocity": 20.0,
          "hasReachEvent": true
        },
        {
          "pos": {
            "x": 1129.722412109375,
            "y": 228.0,
            "z": 733.6968994140625
          },
          "targetVelocity": 20.0,
          "hasReachEvent": true
        },
        {
          "pos": {
            "x": 1116.348388671875,
            "y": 227.0,
            "z": 732.0442504882812
          },
          "targetVelocity": 20.0,
          "hasReachEvent": true
        },
        {
          "pos": {
            "x": 1105.6624755859375,
            "y": 226.0,
            "z": 732.5060424804688
          },
          "targetVelocity": 20.0
        },
        {
          "pos": {
            "x": 1094.5435791015625,
            "y": 225.0,
            "z": 734.9910888671875
          },
          "targetVelocity": 20.0,
          "hasReachEvent": true,
          "reachStop": true
        }
      ],
      "rotAngleType": "ROT_ANGLE_Y",
      "isSimulateTempRouteByTime": true,
      "_isUsePreStopMove": true,
      "_isSubWaitTimeFlag": true
    }
  ]
}
