[
  {
    "id": 11101,
    "name": "无锋剑",
    "type_main": "ITEM_WEAPON",
    "type_sub": "WEAPON_SWORD_ONE_HAND",
    "rank": 1,
    "img": "/image/game/genshin/weapon/UI_EquipIcon_Sword_Blunt.png"
  },
  {
    "id": 11201,
    "name": "银剑",
    "type_main": "ITEM_WEAPON",
    "type_sub": "WEAPON_SWORD_ONE_HAND",
    "rank": 2,
    "img": "/image/game/genshin/weapon/UI_EquipIcon_Sword_Silver.png"
  },
  {
    "id": 11301,
    "name": "冷刃",
    "type_main": "ITEM_WEAPON",
    "type_sub": "WEAPON_SWORD_ONE_HAND",
    "rank": 3,
    "img": "/image/game/genshin/weapon/UI_EquipIcon_Sword_Steel.png"
  },
  {
    "id": 11302,
    "name": "黎明神剑",
    "type_main": "ITEM_WEAPON",
    "type_sub": "WEAPON_SWORD_ONE_HAND",
    "rank": 3,
    "img": "/image/game/genshin/weapon/UI_EquipIcon_Sword_Dawn.png"
  },
  {
    "id": 11303,
    "name": "旅行剑",
    "type_main": "ITEM_WEAPON",
    "type_sub": "WEAPON_SWORD_ONE_HAND",
    "rank": 3,
    "img": "/image/game/genshin/weapon/UI_EquipIcon_Sword_Traveler.png"
  },
  {
    "id": 11304,
    "name": "暗铁剑",
    "type_main": "ITEM_WEAPON",
    "type_sub": "WEAPON_SWORD_ONE_HAND",
    "rank": 3,
    "img": "/image/game/genshin/weapon/UI_EquipIcon_Sword_Darker.png"
  },
  {
    "id": 11305,
    "name": "吃虎鱼刀",
    "type_main": "ITEM_WEAPON",
    "type_sub": "WEAPON_SWORD_ONE_HAND",
    "rank": 3,
    "img": "/image/game/genshin/weapon/UI_EquipIcon_Sword_Sashimi.png"
  },
  {
    "id": 11306,
    "name": "飞天御剑",
    "type_main": "ITEM_WEAPON",
    "type_sub": "WEAPON_SWORD_ONE_HAND",
    "rank": 3,
    "img": "/image/game/genshin/weapon/UI_EquipIcon_Sword_Mitsurugi.png"
  },
  {
    "id": 11401,
    "name": "西风剑",
    "type_main": "ITEM_WEAPON",
    "type_sub": "WEAPON_SWORD_ONE_HAND",
    "rank": 4,
    "img": "/image/game/genshin/weapon/UI_EquipIcon_Sword_Zephyrus.png"
  },
  {
    "id": 11402,
    "name": "笛剑",
    "type_main": "ITEM_WEAPON",
    "type_sub": "WEAPON_SWORD_ONE_HAND",
    "rank": 4,
    "img": "/image/game/genshin/weapon/UI_EquipIcon_Sword_Troupe.png"
  },
  {
    "id": 11403,
    "name": "祭礼剑",
    "type_main": "ITEM_WEAPON",
    "type_sub": "WEAPON_SWORD_ONE_HAND",
    "rank": 4,
    "img": "/image/game/genshin/weapon/UI_EquipIcon_Sword_Fossil.png"
  },
  {
    "id": 11404,
    "name": "宗室长剑",
    "type_main": "ITEM_WEAPON",
    "type_sub": "WEAPON_SWORD_ONE_HAND",
    "rank": 4,
    "img": "/image/game/genshin/weapon/UI_EquipIcon_Sword_Theocrat.png"
  },
  {
    "id": 11405,
    "name": "匣里龙吟",
    "type_main": "ITEM_WEAPON",
    "type_sub": "WEAPON_SWORD_ONE_HAND",
    "rank": 4,
    "img": "/image/game/genshin/weapon/UI_EquipIcon_Sword_Rockkiller.png"
  },
  {
    "id": 11406,
    "name": "试作斩岩",
    "type_main": "ITEM_WEAPON",
    "type_sub": "WEAPON_SWORD_ONE_HAND",
    "rank": 4,
    "img": "/image/game/genshin/weapon/UI_EquipIcon_Sword_Proto.png"
  },
  {
    "id": 11407,
    "name": "铁蜂刺",
    "type_main": "ITEM_WEAPON",
    "type_sub": "WEAPON_SWORD_ONE_HAND",
    "rank": 4,
    "img": "/image/game/genshin/weapon/UI_EquipIcon_Sword_Exotic.png"
  },
  {
    "id": 11408,
    "name": "黑岩长剑",
    "type_main": "ITEM_WEAPON",
    "type_sub": "WEAPON_SWORD_ONE_HAND",
    "rank": 4,
    "img": "/image/game/genshin/weapon/UI_EquipIcon_Sword_Blackrock.png"
  },
  {
    "id": 11409,
    "name": "黑剑",
    "type_main": "ITEM_WEAPON",
    "type_sub": "WEAPON_SWORD_ONE_HAND",
    "rank": 4,
    "img": "/image/game/genshin/weapon/UI_EquipIcon_Sword_Bloodstained.png"
  },
  {
    "id": 11410,
    "name": "暗巷闪光",
    "type_main": "ITEM_WEAPON",
    "type_sub": "WEAPON_SWORD_ONE_HAND",
    "rank": 4,
    "img": "/image/game/genshin/weapon/UI_EquipIcon_Sword_Outlaw.png"
  },
  {
    "id": 11411,
    "name": "N/A",
    "type_main": "ITEM_WEAPON",
    "type_sub": "WEAPON_SWORD_ONE_HAND",
    "rank": 4,
    "img": "/image/game/genshin/weapon/UI_EquipIcon_Sword_Blunt.png"
  },
  {
    "id": 11412,
    "name": "降临之剑",
    "type_main": "ITEM_WEAPON",
    "type_sub": "WEAPON_SWORD_ONE_HAND",
    "rank": 4,
    "img": "/image/game/genshin/weapon/UI_EquipIcon_Sword_Psalmus.png"
  },
  {
    "id": 11413,
    "name": "腐殖之剑",
    "type_main": "ITEM_WEAPON",
    "type_sub": "WEAPON_SWORD_ONE_HAND",
    "rank": 4,
    "img": "/image/game/genshin/weapon/UI_EquipIcon_Sword_Magnum.png"
  },
  {
    "id": 11414,
    "name": "天目影打刀",
    "type_main": "ITEM_WEAPON",
    "type_sub": "WEAPON_SWORD_ONE_HAND",
    "rank": 4,
    "img": "/image/game/genshin/weapon/UI_EquipIcon_Sword_Bakufu.png"
  },
  {
    "id": 11415,
    "name": "辰砂之纺锤",
    "type_main": "ITEM_WEAPON",
    "type_sub": "WEAPON_SWORD_ONE_HAND",
    "rank": 4,
    "img": "/image/game/genshin/weapon/UI_EquipIcon_Sword_Opus.png"
  },
  {
    "id": 11416,
    "name": "笼钓瓶一心",
    "type_main": "ITEM_WEAPON",
    "type_sub": "WEAPON_SWORD_ONE_HAND",
    "rank": 4,
    "img": "/image/game/genshin/weapon/UI_EquipIcon_Sword_Youtou.png"
  },
  {
    "id": 11417,
    "name": "原木刀",
    "type_main": "ITEM_WEAPON",
    "type_sub": "WEAPON_SWORD_ONE_HAND",
    "rank": 4,
    "img": "/image/game/genshin/weapon/UI_EquipIcon_Sword_Arakalari.png"
  },
  {
    "id": 11418,
    "name": "西福斯的月光",
    "type_main": "ITEM_WEAPON",
    "type_sub": "WEAPON_SWORD_ONE_HAND",
    "rank": 4,
    "img": "/image/game/genshin/weapon/UI_EquipIcon_Sword_Pleroma.png"
  },
  {
    "id": 11419,
    "name": "「一心传」名刀",
    "type_main": "ITEM_WEAPON",
    "type_sub": "WEAPON_SWORD_ONE_HAND",
    "rank": 4,
    "img": "/image/game/genshin/weapon/UI_EquipIcon_Sword_YoutouEnchanted.png"
  },
  {
    "id": 11420,
    "name": "「一心传」名刀",
    "type_main": "ITEM_WEAPON",
    "type_sub": "WEAPON_SWORD_ONE_HAND",
    "rank": 4,
    "img": "/image/game/genshin/weapon/UI_EquipIcon_Sword_YoutouShattered.png"
  },
  {
    "id": 11421,
    "name": "「一心传」名刀",
    "type_main": "ITEM_WEAPON",
    "type_sub": "WEAPON_SWORD_ONE_HAND",
    "rank": 4,
    "img": "/image/game/genshin/weapon/UI_EquipIcon_Sword_YoutouEnchanted.png"
  },
  {
    "id": 11422,
    "name": "东花坊时雨",
    "type_main": "ITEM_WEAPON",
    "type_sub": "WEAPON_SWORD_ONE_HAND",
    "rank": 4,
    "img": "/image/game/genshin/weapon/UI_EquipIcon_Sword_Kasabouzu.png"
  },
  {
    "id": 11424,
    "name": "狼牙",
    "type_main": "ITEM_WEAPON",
    "type_sub": "WEAPON_SWORD_ONE_HAND",
    "rank": 4,
    "img": "/image/game/genshin/weapon/UI_EquipIcon_Sword_Boreas.png"
  },
  {
    "id": 11425,
    "name": "海渊终曲",
    "type_main": "ITEM_WEAPON",
    "type_sub": "WEAPON_SWORD_ONE_HAND",
    "rank": 4,
    "img": "/image/game/genshin/weapon/UI_EquipIcon_Sword_Vorpal.png"
  },
  {
    "id": 11426,
    "name": "灰河渡手",
    "type_main": "ITEM_WEAPON",
    "type_sub": "WEAPON_SWORD_ONE_HAND",
    "rank": 4,
    "img": "/image/game/genshin/weapon/UI_EquipIcon_Sword_Machination.png"
  },
  {
    "id": 11427,
    "name": "船坞长剑",
    "type_main": "ITEM_WEAPON",
    "type_sub": "WEAPON_SWORD_ONE_HAND",
    "rank": 4,
    "img": "/image/game/genshin/weapon/UI_EquipIcon_Sword_Mechanic.png"
  },
  {
    "id": 11428,
    "name": "水仙十字之剑",
    "type_main": "ITEM_WEAPON",
    "type_sub": "WEAPON_SWORD_ONE_HAND",
    "rank": 4,
    "img": "/image/game/genshin/weapon/UI_EquipIcon_Sword_Purewill.png"
  },
  {
    "id": 11429,
    "name": "水仙十字之剑",
    "type_main": "ITEM_WEAPON",
    "type_sub": "WEAPON_SWORD_ONE_HAND",
    "rank": 4,
    "img": "/image/game/genshin/weapon/UI_EquipIcon_Sword_Purewill.png"
  },
  {
    "id": 11431,
    "name": "息燧之笛",
    "type_main": "ITEM_WEAPON",
    "type_sub": "WEAPON_SWORD_ONE_HAND",
    "rank": 4,
    "img": "/image/game/genshin/weapon/UI_EquipIcon_Sword_Isikhulu.png"
  },
  {
    "id": 11501,
    "name": "风鹰剑",
    "type_main": "ITEM_WEAPON",
    "type_sub": "WEAPON_SWORD_ONE_HAND",
    "rank": 5,
    "img": "/image/game/genshin/weapon/UI_EquipIcon_Sword_Falcon.png"
  },
  {
    "id": 11502,
    "name": "天空之刃",
    "type_main": "ITEM_WEAPON",
    "type_sub": "WEAPON_SWORD_ONE_HAND",
    "rank": 5,
    "img": "/image/game/genshin/weapon/UI_EquipIcon_Sword_Dvalin.png"
  },
  {
    "id": 11503,
    "name": "苍古自由之誓",
    "type_main": "ITEM_WEAPON",
    "type_sub": "WEAPON_SWORD_ONE_HAND",
    "rank": 5,
    "img": "/image/game/genshin/weapon/UI_EquipIcon_Sword_Widsith.png"
  },
  {
    "id": 11504,
    "name": "斫峰之刃",
    "type_main": "ITEM_WEAPON",
    "type_sub": "WEAPON_SWORD_ONE_HAND",
    "rank": 5,
    "img": "/image/game/genshin/weapon/UI_EquipIcon_Sword_Kunwu.png"
  },
  {
    "id": 11505,
    "name": "磐岩结绿",
    "type_main": "ITEM_WEAPON",
    "type_sub": "WEAPON_SWORD_ONE_HAND",
    "rank": 5,
    "img": "/image/game/genshin/weapon/UI_EquipIcon_Sword_Morax.png"
  },
  {
    "id": 11506,
    "name": "N/A",
    "type_main": "ITEM_WEAPON",
    "type_sub": "WEAPON_SWORD_ONE_HAND",
    "rank": 5,
    "img": "/image/game/genshin/weapon/UI_EquipIcon_Sword_Blunt.png"
  },
  {
    "id": 11507,
    "name": "N/A",
    "type_main": "ITEM_WEAPON",
    "type_sub": "WEAPON_SWORD_ONE_HAND",
    "rank": 5,
    "img": "/image/game/genshin/weapon/UI_EquipIcon_Sword_Blunt.png"
  },
  {
    "id": 11508,
    "name": "N/A",
    "type_main": "ITEM_WEAPON",
    "type_sub": "WEAPON_SWORD_ONE_HAND",
    "rank": 5,
    "img": "/image/game/genshin/weapon/UI_EquipIcon_Sword_Blunt.png"
  },
  {
    "id": 11509,
    "name": "雾切之回光",
    "type_main": "ITEM_WEAPON",
    "type_sub": "WEAPON_SWORD_ONE_HAND",
    "rank": 5,
    "img": "/image/game/genshin/weapon/UI_EquipIcon_Sword_Narukami.png"
  },
  {
    "id": 11510,
    "name": "波乱月白经津",
    "type_main": "ITEM_WEAPON",
    "type_sub": "WEAPON_SWORD_ONE_HAND",
    "rank": 5,
    "img": "/image/game/genshin/weapon/UI_EquipIcon_Sword_Amenoma.png"
  },
  {
    "id": 11511,
    "name": "圣显之钥",
    "type_main": "ITEM_WEAPON",
    "type_sub": "WEAPON_SWORD_ONE_HAND",
    "rank": 5,
    "img": "/image/game/genshin/weapon/UI_EquipIcon_Sword_Deshret.png"
  },
  {
    "id": 11512,
    "name": "裁叶萃光",
    "type_main": "ITEM_WEAPON",
    "type_sub": "WEAPON_SWORD_ONE_HAND",
    "rank": 5,
    "img": "/image/game/genshin/weapon/UI_EquipIcon_Sword_Ayus.png"
  },
  {
    "id": 11513,
    "name": "静水流涌之辉",
    "type_main": "ITEM_WEAPON",
    "type_sub": "WEAPON_SWORD_ONE_HAND",
    "rank": 5,
    "img": "/image/game/genshin/weapon/UI_EquipIcon_Sword_Regalis.png"
  },
  {
    "id": 11514,
    "name": "有乐御簾切",
    "type_main": "ITEM_WEAPON",
    "type_sub": "WEAPON_SWORD_ONE_HAND",
    "rank": 5,
    "img": "/image/game/genshin/weapon/UI_EquipIcon_Sword_Needle.png"
  },
  {
    "id": 11515,
    "name": "赦罪",
    "type_main": "ITEM_WEAPON",
    "type_sub": "WEAPON_SWORD_ONE_HAND",
    "rank": 5,
    "img": "/image/game/genshin/weapon/UI_EquipIcon_Sword_Estoc.png"
  },
  {
    "id": 12101,
    "name": "训练大剑",
    "type_main": "ITEM_WEAPON",
    "type_sub": "WEAPON_CLAYMORE",
    "rank": 1,
    "img": "/image/game/genshin/weapon/UI_EquipIcon_Claymore_Aniki.png"
  },
  {
    "id": 12201,
    "name": "佣兵重剑",
    "type_main": "ITEM_WEAPON",
    "type_sub": "WEAPON_CLAYMORE",
    "rank": 2,
    "img": "/image/game/genshin/weapon/UI_EquipIcon_Claymore_Oyaji.png"
  },
  {
    "id": 12301,
    "name": "铁影阔剑",
    "type_main": "ITEM_WEAPON",
    "type_sub": "WEAPON_CLAYMORE",
    "rank": 3,
    "img": "/image/game/genshin/weapon/UI_EquipIcon_Claymore_Glaive.png"
  },
  {
    "id": 12302,
    "name": "沐浴龙血的剑",
    "type_main": "ITEM_WEAPON",
    "type_sub": "WEAPON_CLAYMORE",
    "rank": 3,
    "img": "/image/game/genshin/weapon/UI_EquipIcon_Claymore_Siegfry.png"
  },
  {
    "id": 12303,
    "name": "白铁大剑",
    "type_main": "ITEM_WEAPON",
    "type_sub": "WEAPON_CLAYMORE",
    "rank": 3,
    "img": "/image/game/genshin/weapon/UI_EquipIcon_Claymore_Tin.png"
  },
  {
    "id": 12304,
    "name": "石英大剑",
    "type_main": "ITEM_WEAPON",
    "type_sub": "WEAPON_CLAYMORE",
    "rank": 3,
    "img": ""
  },
  {
    "id": 12305,
    "name": "以理服人",
    "type_main": "ITEM_WEAPON",
    "type_sub": "WEAPON_CLAYMORE",
    "rank": 3,
    "img": "/image/game/genshin/weapon/UI_EquipIcon_Claymore_Reasoning.png"
  },
  {
    "id": 12306,
    "name": "飞天大御剑",
    "type_main": "ITEM_WEAPON",
    "type_sub": "WEAPON_CLAYMORE",
    "rank": 3,
    "img": "/image/game/genshin/weapon/UI_EquipIcon_Claymore_Mitsurugi.png"
  },
  {
    "id": 12401,
    "name": "西风大剑",
    "type_main": "ITEM_WEAPON",
    "type_sub": "WEAPON_CLAYMORE",
    "rank": 4,
    "img": "/image/game/genshin/weapon/UI_EquipIcon_Claymore_Zephyrus.png"
  },
  {
    "id": 12402,
    "name": "钟剑",
    "type_main": "ITEM_WEAPON",
    "type_sub": "WEAPON_CLAYMORE",
    "rank": 4,
    "img": "/image/game/genshin/weapon/UI_EquipIcon_Claymore_Troupe.png"
  },
  {
    "id": 12403,
    "name": "祭礼大剑",
    "type_main": "ITEM_WEAPON",
    "type_sub": "WEAPON_CLAYMORE",
    "rank": 4,
    "img": "/image/game/genshin/weapon/UI_EquipIcon_Claymore_Fossil.png"
  },
  {
    "id": 12404,
    "name": "宗室大剑",
    "type_main": "ITEM_WEAPON",
    "type_sub": "WEAPON_CLAYMORE",
    "rank": 4,
    "img": "/image/game/genshin/weapon/UI_EquipIcon_Claymore_Theocrat.png"
  },
  {
    "id": 12405,
    "name": "雨裁",
    "type_main": "ITEM_WEAPON",
    "type_sub": "WEAPON_CLAYMORE",
    "rank": 4,
    "img": "/image/game/genshin/weapon/UI_EquipIcon_Claymore_Perdue.png"
  },
  {
    "id": 12406,
    "name": "试作古华",
    "type_main": "ITEM_WEAPON",
    "type_sub": "WEAPON_CLAYMORE",
    "rank": 4,
    "img": "/image/game/genshin/weapon/UI_EquipIcon_Claymore_Proto.png"
  },
  {
    "id": 12407,
    "name": "白影剑",
    "type_main": "ITEM_WEAPON",
    "type_sub": "WEAPON_CLAYMORE",
    "rank": 4,
    "img": "/image/game/genshin/weapon/UI_EquipIcon_Claymore_Exotic.png"
  },
  {
    "id": 12408,
    "name": "黑岩斩刀",
    "type_main": "ITEM_WEAPON",
    "type_sub": "WEAPON_CLAYMORE",
    "rank": 4,
    "img": "/image/game/genshin/weapon/UI_EquipIcon_Claymore_Blackrock.png"
  },
  {
    "id": 12409,
    "name": "螭骨剑",
    "type_main": "ITEM_WEAPON",
    "type_sub": "WEAPON_CLAYMORE",
    "rank": 4,
    "img": "/image/game/genshin/weapon/UI_EquipIcon_Claymore_Kione.png"
  },
  {
    "id": 12410,
    "name": "千岩古剑",
    "type_main": "ITEM_WEAPON",
    "type_sub": "WEAPON_CLAYMORE",
    "rank": 4,
    "img": "/image/game/genshin/weapon/UI_EquipIcon_Claymore_Lapis.png"
  },
  {
    "id": 12411,
    "name": "雪葬的星银",
    "type_main": "ITEM_WEAPON",
    "type_sub": "WEAPON_CLAYMORE",
    "rank": 4,
    "img": "/image/game/genshin/weapon/UI_EquipIcon_Claymore_Dragonfell.png"
  },
  {
    "id": 12412,
    "name": "衔珠海皇",
    "type_main": "ITEM_WEAPON",
    "type_sub": "WEAPON_CLAYMORE",
    "rank": 4,
    "img": "/image/game/genshin/weapon/UI_EquipIcon_Claymore_MillenniaTuna.png"
  },
  {
    "id": 12414,
    "name": "桂木斩长正",
    "type_main": "ITEM_WEAPON",
    "type_sub": "WEAPON_CLAYMORE",
    "rank": 4,
    "img": "/image/game/genshin/weapon/UI_EquipIcon_Claymore_Bakufu.png"
  },
  {
    "id": 12415,
    "name": "玛海菈的水色",
    "type_main": "ITEM_WEAPON",
    "type_sub": "WEAPON_CLAYMORE",
    "rank": 4,
    "img": "/image/game/genshin/weapon/UI_EquipIcon_Claymore_Pleroma.png"
  },
  {
    "id": 12416,
    "name": "恶王丸",
    "type_main": "ITEM_WEAPON",
    "type_sub": "WEAPON_CLAYMORE",
    "rank": 4,
    "img": "/image/game/genshin/weapon/UI_EquipIcon_Claymore_Maria.png"
  },
  {
    "id": 12417,
    "name": "森林王器",
    "type_main": "ITEM_WEAPON",
    "type_sub": "WEAPON_CLAYMORE",
    "rank": 4,
    "img": "/image/game/genshin/weapon/UI_EquipIcon_Claymore_Arakalari.png"
  },
  {
    "id": 12418,
    "name": "饰铁之花",
    "type_main": "ITEM_WEAPON",
    "type_sub": "WEAPON_CLAYMORE",
    "rank": 4,
    "img": "/image/game/genshin/weapon/UI_EquipIcon_Claymore_Fleurfair.png"
  },
  {
    "id": 12424,
    "name": "聊聊棒",
    "type_main": "ITEM_WEAPON",
    "type_sub": "WEAPON_CLAYMORE",
    "rank": 4,
    "img": "/image/game/genshin/weapon/UI_EquipIcon_Claymore_BeastTamer.png"
  },
  {
    "id": 12425,
    "name": "浪影阔剑",
    "type_main": "ITEM_WEAPON",
    "type_sub": "WEAPON_CLAYMORE",
    "rank": 4,
    "img": "/image/game/genshin/weapon/UI_EquipIcon_Claymore_Vorpal.png"
  },
  {
    "id": 12426,
    "name": "「究极霸王超级魔剑」",
    "type_main": "ITEM_WEAPON",
    "type_sub": "WEAPON_CLAYMORE",
    "rank": 4,
    "img": "/image/game/genshin/weapon/UI_EquipIcon_Claymore_Champion.png"
  },
  {
    "id": 12427,
    "name": "便携动力锯",
    "type_main": "ITEM_WEAPON",
    "type_sub": "WEAPON_CLAYMORE",
    "rank": 4,
    "img": "/image/game/genshin/weapon/UI_EquipIcon_Claymore_Mechanic.png"
  },
  {
    "id": 12431,
    "name": "撼地者",
    "type_main": "ITEM_WEAPON",
    "type_sub": "WEAPON_CLAYMORE",
    "rank": 4,
    "img": "/image/game/genshin/weapon/UI_EquipIcon_Claymore_Isikhulu.png"
  },
  {
    "id": 12501,
    "name": "天空之傲",
    "type_main": "ITEM_WEAPON",
    "type_sub": "WEAPON_CLAYMORE",
    "rank": 5,
    "img": "/image/game/genshin/weapon/UI_EquipIcon_Claymore_Dvalin.png"
  },
  {
    "id": 12502,
    "name": "狼的末路",
    "type_main": "ITEM_WEAPON",
    "type_sub": "WEAPON_CLAYMORE",
    "rank": 5,
    "img": "/image/game/genshin/weapon/UI_EquipIcon_Claymore_Wolfmound.png"
  },
  {
    "id": 12503,
    "name": "松籁响起之时",
    "type_main": "ITEM_WEAPON",
    "type_sub": "WEAPON_CLAYMORE",
    "rank": 5,
    "img": "/image/game/genshin/weapon/UI_EquipIcon_Claymore_Widsith.png"
  },
  {
    "id": 12504,
    "name": "无工之剑",
    "type_main": "ITEM_WEAPON",
    "type_sub": "WEAPON_CLAYMORE",
    "rank": 5,
    "img": "/image/game/genshin/weapon/UI_EquipIcon_Claymore_Kunwu.png"
  },
  {
    "id": 12505,
    "name": "N/A",
    "type_main": "ITEM_WEAPON",
    "type_sub": "WEAPON_CLAYMORE",
    "rank": 5,
    "img": "/image/game/genshin/weapon/UI_EquipIcon_Claymore_Aniki.png"
  },
  {
    "id": 12506,
    "name": "N/A",
    "type_main": "ITEM_WEAPON",
    "type_sub": "WEAPON_CLAYMORE",
    "rank": 5,
    "img": "/image/game/genshin/weapon/UI_EquipIcon_Claymore_Aniki.png"
  },
  {
    "id": 12508,
    "name": "N/A",
    "type_main": "ITEM_WEAPON",
    "type_sub": "WEAPON_CLAYMORE",
    "rank": 5,
    "img": "/image/game/genshin/weapon/UI_EquipIcon_Claymore_Aniki.png"
  },
  {
    "id": 12509,
    "name": "N/A",
    "type_main": "ITEM_WEAPON",
    "type_sub": "WEAPON_CLAYMORE",
    "rank": 5,
    "img": "/image/game/genshin/weapon/UI_EquipIcon_Claymore_Aniki.png"
  },
  {
    "id": 12510,
    "name": "赤角石溃杵",
    "type_main": "ITEM_WEAPON",
    "type_sub": "WEAPON_CLAYMORE",
    "rank": 5,
    "img": "/image/game/genshin/weapon/UI_EquipIcon_Claymore_Itadorimaru.png"
  },
  {
    "id": 12511,
    "name": "苇海信标",
    "type_main": "ITEM_WEAPON",
    "type_sub": "WEAPON_CLAYMORE",
    "rank": 5,
    "img": "/image/game/genshin/weapon/UI_EquipIcon_Claymore_Deshret.png"
  },
  {
    "id": 12512,
    "name": "裁断",
    "type_main": "ITEM_WEAPON",
    "type_sub": "WEAPON_CLAYMORE",
    "rank": 5,
    "img": "/image/game/genshin/weapon/UI_EquipIcon_Claymore_GoldenVerdict.png"
  },
  {
    "id": 12513,
    "name": "山王长牙",
    "type_main": "ITEM_WEAPON",
    "type_sub": "WEAPON_CLAYMORE",
    "rank": 5,
    "img": "/image/game/genshin/weapon/UI_EquipIcon_Claymore_EmeraldSword.png"
  },
  {
    "id": 13101,
    "name": "新手长枪",
    "type_main": "ITEM_WEAPON",
    "type_sub": "WEAPON_POLE",
    "rank": 1,
    "img": "/image/game/genshin/weapon/UI_EquipIcon_Pole_Gewalt.png"
  },
  {
    "id": 13201,
    "name": "铁尖枪",
    "type_main": "ITEM_WEAPON",
    "type_sub": "WEAPON_POLE",
    "rank": 2,
    "img": "/image/game/genshin/weapon/UI_EquipIcon_Pole_Rod.png"
  },
  {
    "id": 13301,
    "name": "白缨枪",
    "type_main": "ITEM_WEAPON",
    "type_sub": "WEAPON_POLE",
    "rank": 3,
    "img": "/image/game/genshin/weapon/UI_EquipIcon_Pole_Ruby.png"
  },
  {
    "id": 13302,
    "name": "钺矛",
    "type_main": "ITEM_WEAPON",
    "type_sub": "WEAPON_POLE",
    "rank": 3,
    "img": "/image/game/genshin/weapon/UI_EquipIcon_Pole_Halberd.png"
  },
  {
    "id": 13303,
    "name": "黑缨枪",
    "type_main": "ITEM_WEAPON",
    "type_sub": "WEAPON_POLE",
    "rank": 3,
    "img": "/image/game/genshin/weapon/UI_EquipIcon_Pole_Noire.png"
  },
  {
    "id": 13304,
    "name": "「旗杆」",
    "type_main": "ITEM_WEAPON",
    "type_sub": "WEAPON_POLE",
    "rank": 3,
    "img": ""
  },
  {
    "id": 13401,
    "name": "匣里灭辰",
    "type_main": "ITEM_WEAPON",
    "type_sub": "WEAPON_POLE",
    "rank": 4,
    "img": "/image/game/genshin/weapon/UI_EquipIcon_Pole_Stardust.png"
  },
  {
    "id": 13402,
    "name": "试作星镰",
    "type_main": "ITEM_WEAPON",
    "type_sub": "WEAPON_POLE",
    "rank": 4,
    "img": "/image/game/genshin/weapon/UI_EquipIcon_Pole_Proto.png"
  },
  {
    "id": 13403,
    "name": "流月针",
    "type_main": "ITEM_WEAPON",
    "type_sub": "WEAPON_POLE",
    "rank": 4,
    "img": "/image/game/genshin/weapon/UI_EquipIcon_Pole_Exotic.png"
  },
  {
    "id": 13404,
    "name": "黑岩刺枪",
    "type_main": "ITEM_WEAPON",
    "type_sub": "WEAPON_POLE",
    "rank": 4,
    "img": "/image/game/genshin/weapon/UI_EquipIcon_Pole_Blackrock.png"
  },
  {
    "id": 13405,
    "name": "决斗之枪",
    "type_main": "ITEM_WEAPON",
    "type_sub": "WEAPON_POLE",
    "rank": 4,
    "img": "/image/game/genshin/weapon/UI_EquipIcon_Pole_Gladiator.png"
  },
  {
    "id": 13406,
    "name": "千岩长枪",
    "type_main": "ITEM_WEAPON",
    "type_sub": "WEAPON_POLE",
    "rank": 4,
    "img": "/image/game/genshin/weapon/UI_EquipIcon_Pole_Lapis.png"
  },
  {
    "id": 13407,
    "name": "西风长枪",
    "type_main": "ITEM_WEAPON",
    "type_sub": "WEAPON_POLE",
    "rank": 4,
    "img": "/image/game/genshin/weapon/UI_EquipIcon_Pole_Zephyrus.png"
  },
  {
    "id": 13408,
    "name": "宗室猎枪",
    "type_main": "ITEM_WEAPON",
    "type_sub": "WEAPON_POLE",
    "rank": 4,
    "img": "/image/game/genshin/weapon/UI_EquipIcon_Pole_Theocrat.png"
  },
  {
    "id": 13409,
    "name": "龙脊长枪",
    "type_main": "ITEM_WEAPON",
    "type_sub": "WEAPON_POLE",
    "rank": 4,
    "img": "/image/game/genshin/weapon/UI_EquipIcon_Pole_Everfrost.png"
  },
  {
    "id": 13414,
    "name": "喜多院十文字",
    "type_main": "ITEM_WEAPON",
    "type_sub": "WEAPON_POLE",
    "rank": 4,
    "img": "/image/game/genshin/weapon/UI_EquipIcon_Pole_Bakufu.png"
  },
  {
    "id": 13415,
    "name": "「渔获」",
    "type_main": "ITEM_WEAPON",
    "type_sub": "WEAPON_POLE",
    "rank": 4,
    "img": "/image/game/genshin/weapon/UI_EquipIcon_Pole_Mori.png"
  },
  {
    "id": 13416,
    "name": "断浪长鳍",
    "type_main": "ITEM_WEAPON",
    "type_sub": "WEAPON_POLE",
    "rank": 4,
    "img": "/image/game/genshin/weapon/UI_EquipIcon_Pole_Maria.png"
  },
  {
    "id": 13417,
    "name": "贯月矢",
    "type_main": "ITEM_WEAPON",
    "type_sub": "WEAPON_POLE",
    "rank": 4,
    "img": "/image/game/genshin/weapon/UI_EquipIcon_Pole_Arakalari.png"
  },
  {
    "id": 13419,
    "name": "风信之锋",
    "type_main": "ITEM_WEAPON",
    "type_sub": "WEAPON_POLE",
    "rank": 4,
    "img": "/image/game/genshin/weapon/UI_EquipIcon_Pole_Windvane.png"
  },
  {
    "id": 13424,
    "name": "峡湾长歌",
    "type_main": "ITEM_WEAPON",
    "type_sub": "WEAPON_POLE",
    "rank": 4,
    "img": "/image/game/genshin/weapon/UI_EquipIcon_Pole_Shanty.png"
  },
  {
    "id": 13425,
    "name": "公义的酬报",
    "type_main": "ITEM_WEAPON",
    "type_sub": "WEAPON_POLE",
    "rank": 4,
    "img": "/image/game/genshin/weapon/UI_EquipIcon_Pole_Vorpal.png"
  },
  {
    "id": 13426,
    "name": "沙中伟贤的对答",
    "type_main": "ITEM_WEAPON",
    "type_sub": "WEAPON_POLE",
    "rank": 4,
    "img": "/image/game/genshin/weapon/UI_EquipIcon_Pole_Caduceus.png"
  },
  {
    "id": 13427,
    "name": "勘探钻机",
    "type_main": "ITEM_WEAPON",
    "type_sub": "WEAPON_POLE",
    "rank": 4,
    "img": "/image/game/genshin/weapon/UI_EquipIcon_Pole_Mechanic.png"
  },
  {
    "id": 13431,
    "name": "虹的行迹",
    "type_main": "ITEM_WEAPON",
    "type_sub": "WEAPON_POLE",
    "rank": 4,
    "img": "/image/game/genshin/weapon/UI_EquipIcon_Pole_Isikhulu.png"
  },
  {
    "id": 13501,
    "name": "护摩之杖",
    "type_main": "ITEM_WEAPON",
    "type_sub": "WEAPON_POLE",
    "rank": 5,
    "img": "/image/game/genshin/weapon/UI_EquipIcon_Pole_Homa.png"
  },
  {
    "id": 13502,
    "name": "天空之脊",
    "type_main": "ITEM_WEAPON",
    "type_sub": "WEAPON_POLE",
    "rank": 5,
    "img": "/image/game/genshin/weapon/UI_EquipIcon_Pole_Dvalin.png"
  },
  {
    "id": 13503,
    "name": "N/A",
    "type_main": "ITEM_WEAPON",
    "type_sub": "WEAPON_POLE",
    "rank": 5,
    "img": "/image/game/genshin/weapon/UI_EquipIcon_Pole_Gewalt.png"
  },
  {
    "id": 13504,
    "name": "贯虹之槊",
    "type_main": "ITEM_WEAPON",
    "type_sub": "WEAPON_POLE",
    "rank": 5,
    "img": "/image/game/genshin/weapon/UI_EquipIcon_Pole_Kunwu.png"
  },
  {
    "id": 13505,
    "name": "和璞鸢",
    "type_main": "ITEM_WEAPON",
    "type_sub": "WEAPON_POLE",
    "rank": 5,
    "img": "/image/game/genshin/weapon/UI_EquipIcon_Pole_Morax.png"
  },
  {
    "id": 13506,
    "name": "N/A",
    "type_main": "ITEM_WEAPON",
    "type_sub": "WEAPON_POLE",
    "rank": 5,
    "img": "/image/game/genshin/weapon/UI_EquipIcon_Pole_Gewalt.png"
  },
  {
    "id": 13507,
    "name": "息灾",
    "type_main": "ITEM_WEAPON",
    "type_sub": "WEAPON_POLE",
    "rank": 5,
    "img": "/image/game/genshin/weapon/UI_EquipIcon_Pole_Santika.png"
  },
  {
    "id": 13509,
    "name": "薙草之稻光",
    "type_main": "ITEM_WEAPON",
    "type_sub": "WEAPON_POLE",
    "rank": 5,
    "img": "/image/game/genshin/weapon/UI_EquipIcon_Pole_Narukami.png"
  },
  {
    "id": 13511,
    "name": "赤沙之杖",
    "type_main": "ITEM_WEAPON",
    "type_sub": "WEAPON_POLE",
    "rank": 5,
    "img": "/image/game/genshin/weapon/UI_EquipIcon_Pole_Deshret.png"
  },
  {
    "id": 13512,
    "name": "赤月之形",
    "type_main": "ITEM_WEAPON",
    "type_sub": "WEAPON_POLE",
    "rank": 5,
    "img": "/image/game/genshin/weapon/UI_EquipIcon_Pole_BloodMoon.png"
  },
  {
    "id": 13513,
    "name": "柔灯挽歌",
    "type_main": "ITEM_WEAPON",
    "type_sub": "WEAPON_POLE",
    "rank": 5,
    "img": "/image/game/genshin/weapon/UI_EquipIcon_Pole_Muguet.png"
  },
  {
    "id": 14101,
    "name": "学徒笔记",
    "type_main": "ITEM_WEAPON",
    "type_sub": "WEAPON_CATALYST",
    "rank": 1,
    "img": "/image/game/genshin/weapon/UI_EquipIcon_Catalyst_Apprentice.png"
  },
  {
    "id": 14201,
    "name": "口袋魔导书",
    "type_main": "ITEM_WEAPON",
    "type_sub": "WEAPON_CATALYST",
    "rank": 2,
    "img": "/image/game/genshin/weapon/UI_EquipIcon_Catalyst_Pocket.png"
  },
  {
    "id": 14301,
    "name": "魔导绪论",
    "type_main": "ITEM_WEAPON",
    "type_sub": "WEAPON_CATALYST",
    "rank": 3,
    "img": "/image/game/genshin/weapon/UI_EquipIcon_Catalyst_Intro.png"
  },
  {
    "id": 14302,
    "name": "讨龙英杰谭",
    "type_main": "ITEM_WEAPON",
    "type_sub": "WEAPON_CATALYST",
    "rank": 3,
    "img": "/image/game/genshin/weapon/UI_EquipIcon_Catalyst_Pulpfic.png"
  },
  {
    "id": 14303,
    "name": "异世界行记",
    "type_main": "ITEM_WEAPON",
    "type_sub": "WEAPON_CATALYST",
    "rank": 3,
    "img": "/image/game/genshin/weapon/UI_EquipIcon_Catalyst_Lightnov.png"
  },
  {
    "id": 14304,
    "name": "翡玉法球",
    "type_main": "ITEM_WEAPON",
    "type_sub": "WEAPON_CATALYST",
    "rank": 3,
    "img": "/image/game/genshin/weapon/UI_EquipIcon_Catalyst_Jade.png"
  },
  {
    "id": 14305,
    "name": "甲级宝珏",
    "type_main": "ITEM_WEAPON",
    "type_sub": "WEAPON_CATALYST",
    "rank": 3,
    "img": "/image/game/genshin/weapon/UI_EquipIcon_Catalyst_Phoney.png"
  },
  {
    "id": 14306,
    "name": "琥珀玥",
    "type_main": "ITEM_WEAPON",
    "type_sub": "WEAPON_CATALYST",
    "rank": 3,
    "img": ""
  },
  {
    "id": 14401,
    "name": "西风秘典",
    "type_main": "ITEM_WEAPON",
    "type_sub": "WEAPON_CATALYST",
    "rank": 4,
    "img": "/image/game/genshin/weapon/UI_EquipIcon_Catalyst_Zephyrus.png"
  },
  {
    "id": 14402,
    "name": "流浪乐章",
    "type_main": "ITEM_WEAPON",
    "type_sub": "WEAPON_CATALYST",
    "rank": 4,
    "img": "/image/game/genshin/weapon/UI_EquipIcon_Catalyst_Troupe.png"
  },
  {
    "id": 14403,
    "name": "祭礼残章",
    "type_main": "ITEM_WEAPON",
    "type_sub": "WEAPON_CATALYST",
    "rank": 4,
    "img": "/image/game/genshin/weapon/UI_EquipIcon_Catalyst_Fossil.png"
  },
  {
    "id": 14404,
    "name": "宗室秘法录",
    "type_main": "ITEM_WEAPON",
    "type_sub": "WEAPON_CATALYST",
    "rank": 4,
    "img": "/image/game/genshin/weapon/UI_EquipIcon_Catalyst_Theocrat.png"
  },
  {
    "id": 14405,
    "name": "匣里日月",
    "type_main": "ITEM_WEAPON",
    "type_sub": "WEAPON_CATALYST",
    "rank": 4,
    "img": "/image/game/genshin/weapon/UI_EquipIcon_Catalyst_Resurrection.png"
  },
  {
    "id": 14406,
    "name": "试作金珀",
    "type_main": "ITEM_WEAPON",
    "type_sub": "WEAPON_CATALYST",
    "rank": 4,
    "img": "/image/game/genshin/weapon/UI_EquipIcon_Catalyst_Proto.png"
  },
  {
    "id": 14407,
    "name": "万国诸海图谱",
    "type_main": "ITEM_WEAPON",
    "type_sub": "WEAPON_CATALYST",
    "rank": 4,
    "img": "/image/game/genshin/weapon/UI_EquipIcon_Catalyst_Exotic.png"
  },
  {
    "id": 14408,
    "name": "黑岩绯玉",
    "type_main": "ITEM_WEAPON",
    "type_sub": "WEAPON_CATALYST",
    "rank": 4,
    "img": "/image/game/genshin/weapon/UI_EquipIcon_Catalyst_Blackrock.png"
  },
  {
    "id": 14409,
    "name": "昭心",
    "type_main": "ITEM_WEAPON",
    "type_sub": "WEAPON_CATALYST",
    "rank": 4,
    "img": "/image/game/genshin/weapon/UI_EquipIcon_Catalyst_Truelens.png"
  },
  {
    "id": 14410,
    "name": "暗巷的酒与诗",
    "type_main": "ITEM_WEAPON",
    "type_sub": "WEAPON_CATALYST",
    "rank": 4,
    "img": "/image/game/genshin/weapon/UI_EquipIcon_Catalyst_Outlaw.png"
  },
  {
    "id": 14411,
    "name": "N/A",
    "type_main": "ITEM_WEAPON",
    "type_sub": "WEAPON_CATALYST",
    "rank": 4,
    "img": "/image/game/genshin/weapon/UI_EquipIcon_Catalyst_Apprentice.png"
  },
  {
    "id": 14412,
    "name": "忍冬之果",
    "type_main": "ITEM_WEAPON",
    "type_sub": "WEAPON_CATALYST",
    "rank": 4,
    "img": "/image/game/genshin/weapon/UI_EquipIcon_Catalyst_Everfrost.png"
  },
  {
    "id": 14413,
    "name": "嘟嘟可故事集",
    "type_main": "ITEM_WEAPON",
    "type_sub": "WEAPON_CATALYST",
    "rank": 4,
    "img": "/image/game/genshin/weapon/UI_EquipIcon_Catalyst_Ludiharpastum.png"
  },
  {
    "id": 14414,
    "name": "白辰之环",
    "type_main": "ITEM_WEAPON",
    "type_sub": "WEAPON_CATALYST",
    "rank": 4,
    "img": "/image/game/genshin/weapon/UI_EquipIcon_Catalyst_Bakufu.png"
  },
  {
    "id": 14415,
    "name": "证誓之明瞳",
    "type_main": "ITEM_WEAPON",
    "type_sub": "WEAPON_CATALYST",
    "rank": 4,
    "img": "/image/game/genshin/weapon/UI_EquipIcon_Catalyst_Jyanome.png"
  },
  {
    "id": 14416,
    "name": "流浪的晚星",
    "type_main": "ITEM_WEAPON",
    "type_sub": "WEAPON_CATALYST",
    "rank": 4,
    "img": "/image/game/genshin/weapon/UI_EquipIcon_Catalyst_Pleroma.png"
  },
  {
    "id": 14417,
    "name": "盈满之实",
    "type_main": "ITEM_WEAPON",
    "type_sub": "WEAPON_CATALYST",
    "rank": 4,
    "img": "/image/game/genshin/weapon/UI_EquipIcon_Catalyst_Arakalari.png"
  },
  {
    "id": 14424,
    "name": "遗祀玉珑",
    "type_main": "ITEM_WEAPON",
    "type_sub": "WEAPON_CATALYST",
    "rank": 4,
    "img": "/image/game/genshin/weapon/UI_EquipIcon_Catalyst_Yue.png"
  },
  {
    "id": 14425,
    "name": "纯水流华",
    "type_main": "ITEM_WEAPON",
    "type_sub": "WEAPON_CATALYST",
    "rank": 4,
    "img": "/image/game/genshin/weapon/UI_EquipIcon_Catalyst_Vorpal.png"
  },
  {
    "id": 14426,
    "name": "无垠蔚蓝之歌",
    "type_main": "ITEM_WEAPON",
    "type_sub": "WEAPON_CATALYST",
    "rank": 4,
    "img": "/image/game/genshin/weapon/UI_EquipIcon_Catalyst_DandelionPoem.png"
  },
  {
    "id": 14427,
    "name": "苍纹角杯",
    "type_main": "ITEM_WEAPON",
    "type_sub": "WEAPON_CATALYST",
    "rank": 4,
    "img": "/image/game/genshin/weapon/UI_EquipIcon_Catalyst_ConchSprayer.png"
  },
  {
    "id": 14431,
    "name": "木棉之环",
    "type_main": "ITEM_WEAPON",
    "type_sub": "WEAPON_CATALYST",
    "rank": 4,
    "img": "/image/game/genshin/weapon/UI_EquipIcon_Catalyst_Isikhulu.png"
  },
  {
    "id": 14501,
    "name": "天空之卷",
    "type_main": "ITEM_WEAPON",
    "type_sub": "WEAPON_CATALYST",
    "rank": 5,
    "img": "/image/game/genshin/weapon/UI_EquipIcon_Catalyst_Dvalin.png"
  },
  {
    "id": 14502,
    "name": "四风原典",
    "type_main": "ITEM_WEAPON",
    "type_sub": "WEAPON_CATALYST",
    "rank": 5,
    "img": "/image/game/genshin/weapon/UI_EquipIcon_Catalyst_Fourwinds.png"
  },
  {
    "id": 14503,
    "name": "N/A",
    "type_main": "ITEM_WEAPON",
    "type_sub": "WEAPON_CATALYST",
    "rank": 5,
    "img": "/image/game/genshin/weapon/UI_EquipIcon_Catalyst_Apprentice.png"
  },
  {
    "id": 14504,
    "name": "尘世之锁",
    "type_main": "ITEM_WEAPON",
    "type_sub": "WEAPON_CATALYST",
    "rank": 5,
    "img": "/image/game/genshin/weapon/UI_EquipIcon_Catalyst_Kunwu.png"
  },
  {
    "id": 14505,
    "name": "碧落之珑",
    "type_main": "ITEM_WEAPON",
    "type_sub": "WEAPON_CATALYST",
    "rank": 5,
    "img": "/image/game/genshin/weapon/UI_EquipIcon_Catalyst_Morax.png"
  },
  {
    "id": 14506,
    "name": "不灭月华",
    "type_main": "ITEM_WEAPON",
    "type_sub": "WEAPON_CATALYST",
    "rank": 5,
    "img": "/image/game/genshin/weapon/UI_EquipIcon_Catalyst_Kaleido.png"
  },
  {
    "id": 14508,
    "name": "N/A",
    "type_main": "ITEM_WEAPON",
    "type_sub": "WEAPON_CATALYST",
    "rank": 5,
    "img": "/image/game/genshin/weapon/UI_EquipIcon_Catalyst_Apprentice.png"
  },
  {
    "id": 14509,
    "name": "神乐之真意",
    "type_main": "ITEM_WEAPON",
    "type_sub": "WEAPON_CATALYST",
    "rank": 5,
    "img": "/image/game/genshin/weapon/UI_EquipIcon_Catalyst_Narukami.png"
  },
  {
    "id": 14511,
    "name": "千夜浮梦",
    "type_main": "ITEM_WEAPON",
    "type_sub": "WEAPON_CATALYST",
    "rank": 5,
    "img": "/image/game/genshin/weapon/UI_EquipIcon_Catalyst_Ayus.png"
  },
  {
    "id": 14512,
    "name": "图莱杜拉的回忆",
    "type_main": "ITEM_WEAPON",
    "type_sub": "WEAPON_CATALYST",
    "rank": 5,
    "img": "/image/game/genshin/weapon/UI_EquipIcon_Catalyst_Alaya.png"
  },
  {
    "id": 14513,
    "name": "金流监督",
    "type_main": "ITEM_WEAPON",
    "type_sub": "WEAPON_CATALYST",
    "rank": 5,
    "img": "/image/game/genshin/weapon/UI_EquipIcon_Catalyst_Wheatley.png"
  },
  {
    "id": 14514,
    "name": "万世流涌大典",
    "type_main": "ITEM_WEAPON",
    "type_sub": "WEAPON_CATALYST",
    "rank": 5,
    "img": "/image/game/genshin/weapon/UI_EquipIcon_Catalyst_Iudex.png"
  },
  {
    "id": 14515,
    "name": "鹤鸣余音",
    "type_main": "ITEM_WEAPON",
    "type_sub": "WEAPON_CATALYST",
    "rank": 5,
    "img": "/image/game/genshin/weapon/UI_EquipIcon_Catalyst_MountainGale.png"
  },
  {
    "id": 14516,
    "name": "冲浪时光",
    "type_main": "ITEM_WEAPON",
    "type_sub": "WEAPON_CATALYST",
    "rank": 5,
    "img": "/image/game/genshin/weapon/UI_EquipIcon_Catalyst_MechaPufferfish.png"
  },
  {
    "id": 15101,
    "name": "猎弓",
    "type_main": "ITEM_WEAPON",
    "type_sub": "WEAPON_BOW",
    "rank": 1,
    "img": "/image/game/genshin/weapon/UI_EquipIcon_Bow_Hunters.png"
  },
  {
    "id": 15201,
    "name": "历练的猎弓",
    "type_main": "ITEM_WEAPON",
    "type_sub": "WEAPON_BOW",
    "rank": 2,
    "img": "/image/game/genshin/weapon/UI_EquipIcon_Bow_Old.png"
  },
  {
    "id": 15301,
    "name": "鸦羽弓",
    "type_main": "ITEM_WEAPON",
    "type_sub": "WEAPON_BOW",
    "rank": 3,
    "img": "/image/game/genshin/weapon/UI_EquipIcon_Bow_Crowfeather.png"
  },
  {
    "id": 15302,
    "name": "神射手之誓",
    "type_main": "ITEM_WEAPON",
    "type_sub": "WEAPON_BOW",
    "rank": 3,
    "img": "/image/game/genshin/weapon/UI_EquipIcon_Bow_Arjuna.png"
  },
  {
    "id": 15303,
    "name": "反曲弓",
    "type_main": "ITEM_WEAPON",
    "type_sub": "WEAPON_BOW",
    "rank": 3,
    "img": "/image/game/genshin/weapon/UI_EquipIcon_Bow_Curve.png"
  },
  {
    "id": 15304,
    "name": "弹弓",
    "type_main": "ITEM_WEAPON",
    "type_sub": "WEAPON_BOW",
    "rank": 3,
    "img": "/image/game/genshin/weapon/UI_EquipIcon_Bow_Sling.png"
  },
  {
    "id": 15305,
    "name": "信使",
    "type_main": "ITEM_WEAPON",
    "type_sub": "WEAPON_BOW",
    "rank": 3,
    "img": "/image/game/genshin/weapon/UI_EquipIcon_Bow_Msg.png"
  },
  {
    "id": 15306,
    "name": "黑檀弓",
    "type_main": "ITEM_WEAPON",
    "type_sub": "WEAPON_BOW",
    "rank": 3,
    "img": ""
  },
  {
    "id": 15401,
    "name": "西风猎弓",
    "type_main": "ITEM_WEAPON",
    "type_sub": "WEAPON_BOW",
    "rank": 4,
    "img": "/image/game/genshin/weapon/UI_EquipIcon_Bow_Zephyrus.png"
  },
  {
    "id": 15402,
    "name": "绝弦",
    "type_main": "ITEM_WEAPON",
    "type_sub": "WEAPON_BOW",
    "rank": 4,
    "img": "/image/game/genshin/weapon/UI_EquipIcon_Bow_Troupe.png"
  },
  {
    "id": 15403,
    "name": "祭礼弓",
    "type_main": "ITEM_WEAPON",
    "type_sub": "WEAPON_BOW",
    "rank": 4,
    "img": "/image/game/genshin/weapon/UI_EquipIcon_Bow_Fossil.png"
  },
  {
    "id": 15404,
    "name": "宗室长弓",
    "type_main": "ITEM_WEAPON",
    "type_sub": "WEAPON_BOW",
    "rank": 4,
    "img": "/image/game/genshin/weapon/UI_EquipIcon_Bow_Theocrat.png"
  },
  {
    "id": 15405,
    "name": "弓藏",
    "type_main": "ITEM_WEAPON",
    "type_sub": "WEAPON_BOW",
    "rank": 4,
    "img": "/image/game/genshin/weapon/UI_EquipIcon_Bow_Recluse.png"
  },
  {
    "id": 15406,
    "name": "试作澹月",
    "type_main": "ITEM_WEAPON",
    "type_sub": "WEAPON_BOW",
    "rank": 4,
    "img": "/image/game/genshin/weapon/UI_EquipIcon_Bow_Proto.png"
  },
  {
    "id": 15407,
    "name": "钢轮弓",
    "type_main": "ITEM_WEAPON",
    "type_sub": "WEAPON_BOW",
    "rank": 4,
    "img": "/image/game/genshin/weapon/UI_EquipIcon_Bow_Exotic.png"
  },
  {
    "id": 15408,
    "name": "黑岩战弓",
    "type_main": "ITEM_WEAPON",
    "type_sub": "WEAPON_BOW",
    "rank": 4,
    "img": "/image/game/genshin/weapon/UI_EquipIcon_Bow_Blackrock.png"
  },
  {
    "id": 15409,
    "name": "苍翠猎弓",
    "type_main": "ITEM_WEAPON",
    "type_sub": "WEAPON_BOW",
    "rank": 4,
    "img": "/image/game/genshin/weapon/UI_EquipIcon_Bow_Viridescent.png"
  },
  {
    "id": 15410,
    "name": "暗巷猎手",
    "type_main": "ITEM_WEAPON",
    "type_sub": "WEAPON_BOW",
    "rank": 4,
    "img": "/image/game/genshin/weapon/UI_EquipIcon_Bow_Outlaw.png"
  },
  {
    "id": 15411,
    "name": "落霞",
    "type_main": "ITEM_WEAPON",
    "type_sub": "WEAPON_BOW",
    "rank": 4,
    "img": "/image/game/genshin/weapon/UI_EquipIcon_Bow_Fallensun.png"
  },
  {
    "id": 15412,
    "name": "幽夜华尔兹",
    "type_main": "ITEM_WEAPON",
    "type_sub": "WEAPON_BOW",
    "rank": 4,
    "img": "/image/game/genshin/weapon/UI_EquipIcon_Bow_Nachtblind.png"
  },
  {
    "id": 15413,
    "name": "风花之颂",
    "type_main": "ITEM_WEAPON",
    "type_sub": "WEAPON_BOW",
    "rank": 4,
    "img": "/image/game/genshin/weapon/UI_EquipIcon_Bow_Fleurfair.png"
  },
  {
    "id": 15414,
    "name": "破魔之弓",
    "type_main": "ITEM_WEAPON",
    "type_sub": "WEAPON_BOW",
    "rank": 4,
    "img": "/image/game/genshin/weapon/UI_EquipIcon_Bow_Bakufu.png"
  },
  {
    "id": 15415,
    "name": "掠食者",
    "type_main": "ITEM_WEAPON",
    "type_sub": "WEAPON_BOW",
    "rank": 4,
    "img": "/image/game/genshin/weapon/UI_EquipIcon_Bow_Predator.png"
  },
  {
    "id": 15416,
    "name": "曚云之月",
    "type_main": "ITEM_WEAPON",
    "type_sub": "WEAPON_BOW",
    "rank": 4,
    "img": "/image/game/genshin/weapon/UI_EquipIcon_Bow_Maria.png"
  },
  {
    "id": 15417,
    "name": "王下近侍",
    "type_main": "ITEM_WEAPON",
    "type_sub": "WEAPON_BOW",
    "rank": 4,
    "img": "/image/game/genshin/weapon/UI_EquipIcon_Bow_Arakalari.png"
  },
  {
    "id": 15418,
    "name": "竭泽",
    "type_main": "ITEM_WEAPON",
    "type_sub": "WEAPON_BOW",
    "rank": 4,
    "img": "/image/game/genshin/weapon/UI_EquipIcon_Bow_Fin.png"
  },
  {
    "id": 15419,
    "name": "鹮穿之喙",
    "type_main": "ITEM_WEAPON",
    "type_sub": "WEAPON_BOW",
    "rank": 4,
    "img": "/image/game/genshin/weapon/UI_EquipIcon_Bow_Ibis.png"
  },
  {
    "id": 15424,
    "name": "烈阳之嗣",
    "type_main": "ITEM_WEAPON",
    "type_sub": "WEAPON_BOW",
    "rank": 4,
    "img": "/image/game/genshin/weapon/UI_EquipIcon_Bow_Gurabad.png"
  },
  {
    "id": 15425,
    "name": "静谧之曲",
    "type_main": "ITEM_WEAPON",
    "type_sub": "WEAPON_BOW",
    "rank": 4,
    "img": "/image/game/genshin/weapon/UI_EquipIcon_Bow_Vorpal.png"
  },
  {
    "id": 15426,
    "name": "筑云",
    "type_main": "ITEM_WEAPON",
    "type_sub": "WEAPON_BOW",
    "rank": 4,
    "img": "/image/game/genshin/weapon/UI_EquipIcon_Bow_Ultimatum.png"
  },
  {
    "id": 15427,
    "name": "测距规",
    "type_main": "ITEM_WEAPON",
    "type_sub": "WEAPON_BOW",
    "rank": 4,
    "img": "/image/game/genshin/weapon/UI_EquipIcon_Bow_Mechanic.png"
  },
  {
    "id": 15431,
    "name": "碎链",
    "type_main": "ITEM_WEAPON",
    "type_sub": "WEAPON_BOW",
    "rank": 4,
    "img": "/image/game/genshin/weapon/UI_EquipIcon_Bow_Isikhulu.png"
  },
  {
    "id": 15501,
    "name": "天空之翼",
    "type_main": "ITEM_WEAPON",
    "type_sub": "WEAPON_BOW",
    "rank": 5,
    "img": "/image/game/genshin/weapon/UI_EquipIcon_Bow_Dvalin.png"
  },
  {
    "id": 15502,
    "name": "阿莫斯之弓",
    "type_main": "ITEM_WEAPON",
    "type_sub": "WEAPON_BOW",
    "rank": 5,
    "img": "/image/game/genshin/weapon/UI_EquipIcon_Bow_Amos.png"
  },
  {
    "id": 15503,
    "name": "终末嗟叹之诗",
    "type_main": "ITEM_WEAPON",
    "type_sub": "WEAPON_BOW",
    "rank": 5,
    "img": "/image/game/genshin/weapon/UI_EquipIcon_Bow_Widsith.png"
  },
  {
    "id": 15504,
    "name": "N/A",
    "type_main": "ITEM_WEAPON",
    "type_sub": "WEAPON_BOW",
    "rank": 5,
    "img": "/image/game/genshin/weapon/UI_EquipIcon_Bow_Hunters.png"
  },
  {
    "id": 15505,
    "name": "N/A",
    "type_main": "ITEM_WEAPON",
    "type_sub": "WEAPON_BOW",
    "rank": 5,
    "img": "/image/game/genshin/weapon/UI_EquipIcon_Bow_Hunters.png"
  },
  {
    "id": 15506,
    "name": "N/A",
    "type_main": "ITEM_WEAPON",
    "type_sub": "WEAPON_BOW",
    "rank": 5,
    "img": "/image/game/genshin/weapon/UI_EquipIcon_Bow_Hunters.png"
  },
  {
    "id": 15507,
    "name": "冬极白星",
    "type_main": "ITEM_WEAPON",
    "type_sub": "WEAPON_BOW",
    "rank": 5,
    "img": "/image/game/genshin/weapon/UI_EquipIcon_Bow_Worldbane.png"
  },
  {
    "id": 15508,
    "name": "若水",
    "type_main": "ITEM_WEAPON",
    "type_sub": "WEAPON_BOW",
    "rank": 5,
    "img": "/image/game/genshin/weapon/UI_EquipIcon_Bow_Kirin.png"
  },
  {
    "id": 15509,
    "name": "飞雷之弦振",
    "type_main": "ITEM_WEAPON",
    "type_sub": "WEAPON_BOW",
    "rank": 5,
    "img": "/image/game/genshin/weapon/UI_EquipIcon_Bow_Narukami.png"
  },
  {
    "id": 15511,
    "name": "猎人之径",
    "type_main": "ITEM_WEAPON",
    "type_sub": "WEAPON_BOW",
    "rank": 5,
    "img": "/image/game/genshin/weapon/UI_EquipIcon_Bow_Ayus.png"
  },
  {
    "id": 15512,
    "name": "最初的大魔术",
    "type_main": "ITEM_WEAPON",
    "type_sub": "WEAPON_BOW",
    "rank": 5,
    "img": "/image/game/genshin/weapon/UI_EquipIcon_Bow_Pledge.png"
  },
  {
    "id": 15513,
    "name": "白雨心弦",
    "type_main": "ITEM_WEAPON",
    "type_sub": "WEAPON_BOW",
    "rank": 5,
    "img": "/image/game/genshin/weapon/UI_EquipIcon_Bow_Arcdange.png"
  }
]