[
  // maybe miss 2.0-2.6 or no need key?
  // 2.7 by 1582421598
  {
    "mainQuestId": 1031,
    "encryptionKey": 3303136414174011
  },
  {
    "mainQuestId": 11026,
    "encryptionKey": 6382832627668464
  },
  // 2.8 by phuchptty
  {
    "mainQuestId": 40065,
    "encryptionKey": 2850973778349534
  },
  {
    "mainQuestId": 40067,
    "encryptionKey": 5623150388305012
  },
  {
    "mainQuestId": 40070,
    "encryptionKey": 3865005622692177
  },
  {
    "mainQuestId": 40073,
    "encryptionKey": 2376853844266094
  },
  {
    "mainQuestId": 40076,
    "encryptionKey": 2320676109514370
  },
  // 3.0 by WetABQ
  {
    "mainQuestId": 3006,
    "encryptionKey": 5515318060794455
  },
  {
    "mainQuestId": 3012,
    "encryptionKey": 2690561074476991
  },
  // 3.1 by BUnipendix
  {
    "mainQuestId": 3017,
    "encryptionKey": 6971018813708261
  },
  {
    "mainQuestId": 13011,
    "encryptionKey": 7063052926021205
  },
  {
    "mainQuestId": 3016,
    "encryptionKey": 8823377679488754
  },
  {
    "mainQuestId": 3021,
    "encryptionKey": 7828263898924570
  },
  {
    "mainQuestId": 40080,
    "encryptionKey": 3752791881230737
  },
  {
    "mainQuestId": 3020,
    "encryptionKey": 3668457735028873
  },
  // 3.2 by Asnxthaony
  {
    "mainQuestId": 3022,
    "encryptionKey": 1731098136837715
  },
  {
    "mainQuestId": 3028,
    "encryptionKey": 6476534441942898
  },
  // 3.3 by BUnipendix
  {
    "mainQuestId": 40090,
    "encryptionKey": 4619433776189609
  },
  {
    "mainQuestId": 3031,
    "encryptionKey": 9022022255533344
  },
  {
    "mainQuestId": 40091,
    "encryptionKey": 1887105619472354
  },
  // 3.4 by Asnxthaony
  {
    "mainQuestId": 40093,
    "encryptionKey": 1020957878910151
  },
  {
    "mainQuestId": 13022,
    "encryptionKey": 3392155838449487
  },
  // 3.5 by Asayu233
  {
    "mainQuestId": 8012,
    "encryptionKey": 5138399499418108
  },
  {
    "mainQuestId": 40099,
    "encryptionKey": 3317415676555482
  },
  // 3.6 by Asnxthaony
  {
    "mainQuestId": 13027,
    "encryptionKey": 7011940783148892
  },
  {
    "mainQuestId": 40103,
    "encryptionKey": 2291016110713471
  },
  {
    "mainQuestId": 11029,
    "encryptionKey": 8878640560529176
  },
  // 3.7 by Asayu233
  {
    "mainQuestId": 40110,
    "encryptionKey": 7542491622499622
  },
  {
    "mainQuestId": 13032,
    "encryptionKey": 1413854736885483
  },
  // 3.8 by Asayu233
  {
    "mainQuestId": 40119,
    "encryptionKey": 9543453638585564
  },
  // 4.0 by Asayu233
  {
    "mainQuestId": 4002,
    "encryptionKey": 5124947364018682
  },
  {
    "mainQuestId": 4000,
    "encryptionKey": 6977932167834334
  },
  {
    "mainQuestId": 4005,
    "encryptionKey": 4752672871344953
  },
  {
    "mainQuestId": 14002,
    "encryptionKey": 6996640668779218
  },
  // 4.1
  {
    "mainQuestId": 14006,
    "encryptionKey": 9637784902652011
  },
  {
    "mainQuestId": 4019,
    "encryptionKey": 9183447191069533
  },
  {
    "mainQuestId": 40126,
    "encryptionKey": 1298862364052129
  },
  {
    "mainQuestId": 4010,
    "encryptionKey": 8170343248395864
  },
  {
    "mainQuestId": 14009,
    "encryptionKey": 6227517550733944
  },
  // 4.2
  {
    "mainQuestId": 4024,
    "encryptionKey": 1353017463628146
  },
  {
    "mainQuestId": 4022,
    "encryptionKey": 1296761372231568
  },
  {
    "mainQuestId": 14012,
    "encryptionKey": 3442018833959466
  },
  // 4.3
  {
    "mainQuestId": 40135,
    "encryptionKey": 7643466225116397
  },
  {
    "mainQuestId": 14017,
    "encryptionKey": 7734065023182190
  },
  // 4.4
  {
    "mainQuestId": 11035,
    "encryptionKey": 3833054290528970
  },
  {
    "mainQuestId": 40141,
    "encryptionKey": 3622637126759726
  },
  // 4.5
  {
    "mainQuestId": 14022,
    "encryptionKey": 9158640187902629
  },
  // 4.6
  {
    "mainQuestId": 13038,
    "encryptionKey": 1998169752264975
  },
  {
    "mainQuestId": 14026,
    "encryptionKey": 4714295614938178
  },
  // 4.7
  {
    "mainQuestId": 14034,
    "encryptionKey": 9824816325372856
  },
  {
    "mainQuestId": 14027,
    "encryptionKey": 1893134203499976
  },
  {
    "mainQuestId": 14030,
    "encryptionKey": 9401046478399355
  },
  // 4.8
  {
    "mainQuestId": 40162,
    "encryptionKey": 9311532710940438
  },
  {
    "mainQuestId": 14039,
    "encryptionKey": 2855945556355921
  },
  // 5.0
  {
    "mainQuestId": 5001,
    "encryptionKey": 6659452093751363
  },
  {
    "mainQuestId": 5006,
    "encryptionKey": 9957859833869437
  },
  {
    "mainQuestId": 15004,
    "encryptionKey": 2176081463662665
  },
  {
    "mainQuestId": 5003,
    "encryptionKey": 6626516507698299
  },
  {
    "mainQuestId": 15010,
    "encryptionKey": 7203629296638087
  }
]
