[
  {
    "Default": {
      "$type": "ConfigAbility",
      "abilityName": "Gadget_Gear_Spray_Fire_Test",
      "abilityMixins": [
        {
          "$type": "AttachToStateIDMixin",
          "stateIDs": ["Start"],
          "modifierName": "FireSpray",
          "DGFCLAIDIFI": ""
        },
        {
          "$type": "AttachToStateIDMixin",
          "stateIDs": ["Stop"],
          "modifierName": "FireStop",
          "DGFCLAIDIFI": ""
        }
      ],
      "modifiers": {
        "FireStop": {
          "modifierName": "",
          "elementDurability": 100.0,
          "onAdded": [
            {
              "$type": "RemoveModifier",
              "modifierName": "FireSpray"
            }
          ]
        },
        "FireSpray": {
          "modifierName": "",
          "elementDurability": 100.0,
          "thinkInterval": 0.20000000298023224,
          "onAdded": [
            {
              "$type": "RemoveModifier",
              "modifierName": "FireStop"
            },
            {
              "$type": "AttachEffect",
              "rotationDampTime": "Eff_Gear_Fire_Spray",
              "PPPDJGDDOGD": 1.0,
              "AJDILHJFNKE": -1.0
            },
            {
              "$type": "AttachEffect",
              "rotationDampTime": "Eff_Gear_Fire_Spray2",
              "PPPDJGDDOGD": 1.0,
              "AJDILHJFNKE": -1.0
            },
            {
              "$type": "AttachEffect",
              "rotationDampTime": "Eff_Gear_Fire_Spray3",
              "PPPDJGDDOGD": 1.0,
              "AJDILHJFNKE": -1.0
            },
            {
              "$type": "AttachEffect",
              "rotationDampTime": "Eff_Gear_Fire_Spray4",
              "PPPDJGDDOGD": 1.0,
              "AJDILHJFNKE": -1.0
            }
          ],
          "onThinkInterval": [
            {
              "$type": "TriggerAttackEvent",
              "shieldHP": true,
              "attackEvent": {
                "attackPattern": {
                  "$type": "ConfigAttackBox",
                  "triggerType": "TriggerNoRepeat",
                  "checkHitLayerType": "Both",
                  "born": {
                    "$type": "ConfigBornByAttachPoint",
                    "attachPointName": "WeaponR"
                  },
                  "size": {
                    "x": 1.399999976158142,
                    "y": 1.399999976158142,
                    "z": 8.0
                  },
                  "muteHitBehindScene": true
                },
                "attackInfo": {
                  "attackTag": "",
                  "attenuationTag": "",
                  "attenuationGroup": "default",
                  "attackProperty": {
                    "actorGrassSubHurtDelta": 0.20000000298023224,
                    "actorWindSubHurtDelta": 0.0,
                    "elementType": "Fire",
                    "elementDurability": 30.0,
                    "strikeType": "Default",
                    "GLKMCMDJBIK": 0.0
                  },
                  "hitPattern": {
                    "onHitEffectName": "none",
                    "hitImpulseY": "",
                    "hitImpulseType": "LV1",
                    "hitHaltTimeScale": 0.2199999988079071
                  }
                }
              },
              "targetType": "Enemy"
            }
          ]
        }
      }
    }
  },
  {
    "Default": {
      "$type": "ConfigAbility",
      "abilityName": "Gadget_Gear_Spray_Fire_Single_Test",
      "modifiers": {
        "FireSpray_Single": {
          "modifierName": "",
          "duration": 10.0,
          "elementDurability": 100.0,
          "thinkInterval": 0.20000000298023224,
          "onAdded": [
            {
              "$type": "AttachEffect",
              "rotationDampTime": "Eff_Gear_Fire_Spray",
              "PPPDJGDDOGD": 1.0,
              "AJDILHJFNKE": -1.0
            },
            {
              "$type": "AttachEffect",
              "rotationDampTime": "Eff_Gear_Fire_Spray2",
              "PPPDJGDDOGD": 1.0,
              "AJDILHJFNKE": -1.0
            },
            {
              "$type": "AttachEffect",
              "rotationDampTime": "Eff_Gear_Fire_Spray3",
              "PPPDJGDDOGD": 1.0,
              "AJDILHJFNKE": -1.0
            },
            {
              "$type": "AttachEffect",
              "rotationDampTime": "Eff_Gear_Fire_Spray4",
              "PPPDJGDDOGD": 1.0,
              "AJDILHJFNKE": -1.0
            }
          ],
          "onThinkInterval": [
            {
              "$type": "TriggerAttackEvent",
              "shieldHP": true,
              "attackEvent": {
                "attackPattern": {
                  "$type": "ConfigAttackBox",
                  "triggerType": "TriggerNoRepeat",
                  "checkHitLayerType": "Both",
                  "born": {
                    "$type": "ConfigBornBySelf",
                    "offset": {
                      "x": 0.0,
                      "y": 1.0,
                      "z": 0.0
                    }
                  },
                  "size": {
                    "x": 1.399999976158142,
                    "y": 1.399999976158142,
                    "z": 8.0
                  },
                  "muteHitBehindScene": true
                },
                "attackInfo": {
                  "attackTag": "",
                  "attenuationTag": "",
                  "attenuationGroup": "default",
                  "attackProperty": {
                    "actorGrassSubHurtDelta": 0.25,
                    "actorWindSubHurtDelta": 0.0,
                    "elementType": "Fire",
                    "elementDurability": 30.0,
                    "strikeType": "Default",
                    "GLKMCMDJBIK": 0.0
                  },
                  "hitPattern": {
                    "onHitEffectName": "default",
                    "hitImpulseY": "",
                    "hitImpulseType": "LV1",
                    "hitHaltTimeScale": 0.05000000074505806
                  }
                }
              },
              "targetType": "Enemy"
            }
          ]
        }
      },
      "onAbilityStart": [
        {
          "$type": "DebugLog",
          "content": "Gadget_Gear_Spray_Fire_Single_Test"
        },
        {
          "$type": "AttachModifier",
          "modifierName": "FireSpray_Single"
        }
      ]
    }
  },
  {
    "Default": {
      "$type": "ConfigAbility",
      "abilityName": "Gadget_Gear_Spray_Ice_Single_Test",
      "modifiers": {
        "FireSpray_Single": {
          "modifierName": "",
          "duration": 10.0,
          "elementDurability": 100.0,
          "thinkInterval": 0.20000000298023224,
          "onThinkInterval": [
            {
              "$type": "TriggerAttackEvent",
              "shieldHP": true,
              "attackEvent": {
                "attackPattern": {
                  "$type": "ConfigAttackBox",
                  "triggerType": "TriggerNoRepeat",
                  "checkHitLayerType": "Both",
                  "born": {
                    "$type": "ConfigBornBySelf",
                    "offset": {
                      "x": 0.0,
                      "y": 1.0,
                      "z": 0.0
                    }
                  },
                  "size": {
                    "x": 1.399999976158142,
                    "y": 1.399999976158142,
                    "z": 8.0
                  },
                  "muteHitBehindScene": true
                },
                "attackInfo": {
                  "attackTag": "",
                  "attenuationTag": "",
                  "attenuationGroup": "default",
                  "attackProperty": {
                    "actorGrassSubHurtDelta": 0.25,
                    "actorWindSubHurtDelta": 0.0,
                    "elementType": "Ice",
                    "elementDurability": 30.0,
                    "strikeType": "Default",
                    "GLKMCMDJBIK": 0.0
                  },
                  "hitPattern": {
                    "onHitEffectName": "default",
                    "hitImpulseY": "",
                    "hitImpulseType": "LV1",
                    "hitHaltTimeScale": 0.05000000074505806
                  }
                }
              },
              "targetType": "Enemy"
            }
          ]
        }
      },
      "onAbilityStart": [
        {
          "$type": "AttachModifier",
          "modifierName": "FireSpray_Single"
        }
      ]
    }
  },
  {
    "Default": {
      "$type": "ConfigAbility",
      "abilityName": "Gear_Electric_ElectricBall_Loop",
      "modifiers": {
        "Gear_ElectricBall_Loop": {
          "modifierName": "",
          "elementType": "Electric",
          "elementDurability": 50.0,
          "onAdded": [
            {
              "$type": "AttachEffect",
              "rotationDampTime": "Eff_KanriahMech_ElectricBall_Shoot",
              "PPPDJGDDOGD": 1.0,
              "AJDILHJFNKE": -1.0
            }
          ],
          "onRemoved": [
            {
              "$type": "KillSelf"
            }
          ]
        }
      },
      "onAdded": [
        {
          "$type": "AttachModifier",
          "modifierName": "Gear_ElectricBall_Loop"
        }
      ]
    }
  }
]
