[
  {
    "Default": {
      "$type": "ConfigAbility",
      "abilityName": "TestHitAir",
      "onAbilityStart": [
        {
          "$type": "TriggerAttackEvent",
          "attackEvent": {
            "attackPattern": {
              "$type": "ConfigAttackSphere",
              "triggerType": "TriggerNoRepeat",
              "born": {
                "$type": "ConfigBornBySelf",
                "offset": {
                  "x": 0.0,
                  "y": 0.0,
                  "z": 1.0
                }
              },
              "radius": 2.0
            },
            "attackInfo": {
              "attackTag": "",
              "attenuationTag": "",
              "attenuationGroup": "default",
              "attackProperty": {
                "actorGrassSubHurtDelta": 1.0,
                "actorWindSubHurtDelta": 0.0,
                "elementType": "Rock",
                "elementDurability": 2.0,
                "GLKMCMDJBIK": 0.0
              },
              "hitPattern": {
                "onHitEffectName": "default",
                "hitImpulseY": "",
                "hitImpulseType": "LV6",
                "overrideHitImpulse": {
                  "hitLevel": "Air",
                  "IMIJMPGJOGG": 500.0,
                  "BPCDKKBKOBM": 500.0
                },
                "hitHaltTimeScale": 0.05000000074505806
              }
            }
          },
          "targetType": "All"
        }
      ]
    }
  },
  {
    "Default": {
      "$type": "ConfigAbility",
      "abilityName": "TestHitHeavy",
      "onAbilityStart": [
        {
          "$type": "TriggerAttackEvent",
          "attackEvent": {
            "attackPattern": {
              "$type": "ConfigAttackSphere",
              "triggerType": "TriggerNoRepeat",
              "born": {
                "$type": "ConfigBornBySelf",
                "offset": {
                  "x": 0.0,
                  "y": 0.0,
                  "z": 1.0
                }
              },
              "radius": 2.0
            },
            "attackInfo": {
              "attackTag": "",
              "attenuationTag": "",
              "attenuationGroup": "default",
              "attackProperty": {
                "actorGrassSubHurtDelta": 1.0,
                "actorWindSubHurtDelta": 0.0,
                "elementType": "Rock",
                "elementDurability": 2.0,
                "GLKMCMDJBIK": 0.0
              },
              "hitPattern": {
                "onHitEffectName": "default",
                "hitImpulseY": "",
                "hitImpulseType": "LV4",
                "overrideHitImpulse": {
                  "hitLevel": "Heavy",
                  "IMIJMPGJOGG": 500.0,
                  "BPCDKKBKOBM": 0.0
                },
                "hitHaltTimeScale": 0.05000000074505806
              }
            }
          },
          "targetType": "All"
        }
      ]
    }
  },
  {
    "Default": {
      "$type": "ConfigAbility",
      "abilityName": "TestHitLight",
      "onAbilityStart": [
        {
          "$type": "TriggerAttackEvent",
          "attackEvent": {
            "attackPattern": {
              "$type": "ConfigAttackSphere",
              "triggerType": "TriggerNoRepeat",
              "born": {
                "$type": "ConfigBornBySelf",
                "offset": {
                  "x": 0.0,
                  "y": 0.0,
                  "z": 1.0
                }
              },
              "radius": 2.0
            },
            "attackInfo": {
              "attackTag": "",
              "attenuationTag": "",
              "attenuationGroup": "default",
              "attackProperty": {
                "actorGrassSubHurtDelta": 1.0,
                "actorWindSubHurtDelta": 0.0,
                "elementType": "Rock",
                "elementDurability": 2.0,
                "GLKMCMDJBIK": 0.0
              },
              "hitPattern": {
                "onHitEffectName": "default",
                "hitImpulseY": "",
                "hitImpulseType": "LV2",
                "overrideHitImpulse": {
                  "hitLevel": "Light",
                  "IMIJMPGJOGG": 500.0,
                  "BPCDKKBKOBM": 0.0
                },
                "hitHaltTimeScale": 0.05000000074505806
              }
            }
          },
          "targetType": "All"
        }
      ]
    }
  },
  {
    "Default": {
      "$type": "ConfigAbility",
      "abilityName": "TestHitShake",
      "onAbilityStart": [
        {
          "$type": "TriggerAttackEvent",
          "attackEvent": {
            "attackPattern": {
              "$type": "ConfigAttackSphere",
              "triggerType": "TriggerNoRepeat",
              "born": {
                "$type": "ConfigBornBySelf",
                "offset": {
                  "x": 0.0,
                  "y": 0.0,
                  "z": 1.0
                }
              },
              "radius": 2.0
            },
            "attackInfo": {
              "attackTag": "",
              "attenuationTag": "",
              "attenuationGroup": "default",
              "attackProperty": {
                "actorGrassSubHurtDelta": 1.0,
                "actorWindSubHurtDelta": 0.0,
                "elementType": "Rock",
                "elementDurability": 2.0,
                "GLKMCMDJBIK": 0.0
              },
              "hitPattern": {
                "onHitEffectName": "default",
                "hitImpulseY": "",
                "hitImpulseType": "LV1",
                "overrideHitImpulse": {
                  "hitLevel": "Shake",
                  "IMIJMPGJOGG": 500.0,
                  "BPCDKKBKOBM": 0.0
                },
                "hitHaltTimeScale": 0.05000000074505806
              }
            }
          },
          "targetType": "All"
        }
      ]
    }
  },
  {
    "Default": {
      "$type": "ConfigAbility",
      "abilityName": "TestRock",
      "modifiers": {
        "Collision": {
          "modifierName": "",
          "duration": 30.0,
          "elementDurability": 100.0,
          "modifierMixins": [
            {
              "$type": "GGKIBPMJIJB",
              "collision": {
                "triggerType": "TriggerAlways",
                "triggerCD": 0.10000000149011612,
                "targetType": "Enemy",
                "ignoreScene": true
              },
              "minShockSpeed": 6.0,
              "onCollision": [
                {
                  "$type": "FireEffect",
                  "rotationDampTime": "Eff_Monster_Hili_None_ShieldDestroy",
                  "PPPDJGDDOGD": 1.0,
                  "AJDILHJFNKE": -1.0
                },
                {
                  "$type": "TriggerAttackEvent",
                  "attackEvent": {
                    "attackPattern": {
                      "$type": "ConfigAttackSphere",
                      "triggerType": "TriggerNoRepeat",
                      "born": {
                        "$type": "ConfigBornByCollisionPoint",
                        "offset": {
                          "x": 0.0,
                          "y": 0.0,
                          "z": 0.0
                        }
                      },
                      "radius": 1.0
                    },
                    "attackInfo": {
                      "attackTag": "",
                      "attenuationTag": "",
                      "attenuationGroup": "default",
                      "attackProperty": {
                        "actorGrassSubHurtDelta": 1.0,
                        "actorWindSubHurtDelta": 0.0,
                        "elementType": "Rock",
                        "elementDurability": 2.0,
                        "GLKMCMDJBIK": 0.0
                      },
                      "hitPattern": {
                        "onHitEffectName": "default",
                        "hitImpulseY": "",
                        "hitImpulseType": "LV3",
                        "overrideHitImpulse": {
                          "hitLevel": "Heavy",
                          "IMIJMPGJOGG": 5.0,
                          "BPCDKKBKOBM": 0.0
                        },
                        "hitHaltTimeScale": 0.05000000074505806
                      }
                    }
                  },
                  "targetType": "Enemy"
                }
              ]
            }
          ],
          "onAdded": [
            {
              "$type": "FireEffect",
              "rotationDampTime": "Eff_Element_Overload_Explode",
              "PPPDJGDDOGD": 1.0,
              "AJDILHJFNKE": -1.0
            }
          ],
          "onRemoved": [
            {
              "$type": "FireEffect",
              "rotationDampTime": "Eff_Element_Overload_Explode",
              "PPPDJGDDOGD": 1.0,
              "AJDILHJFNKE": -1.0
            }
          ]
        },
        "Weight": {
          "modifierName": "",
          "duration": 30.0,
          "elementType": "Rock",
          "elementDurability": 100.0,
          "properties": {
            "Entity_WeightRatio": 0.3499999940395355
          }
        }
      },
      "onAbilityStart": [
        {
          "$type": "ApplyModifier",
          "modifierName": "Collision"
        },
        {
          "$type": "ApplyModifier",
          "modifierName": "Weight"
        }
      ]
    }
  }
]
