[
  {
    "id": 10000002,
    "name": "Kamisato Ayaka",
    "rank": "QUALITY_ORANGE",
    "img": "/image/game/genshin/avatar/UI_AvatarIcon_Ayaka.png"
  },
  {
    "id": 10000003,
    "name": "Jean",
    "rank": "QUALITY_ORANGE",
    "img": "/image/game/genshin/avatar/UI_AvatarIcon_Qin.png"
  },
  {
    "id": 10000005,
    "name": "Reisender",
    "rank": "QUALITY_ORANGE",
    "img": "/image/game/genshin/avatar/UI_AvatarIcon_PlayerBoy.png"
  },
  {
    "id": 10000006,
    "name": "Lisa",
    "rank": "QUALITY_PURPLE",
    "img": "/image/game/genshin/avatar/UI_AvatarIcon_Lisa.png"
  },
  {
    "id": 10000007,
    "name": "Reisende",
    "rank": "QUALITY_ORANGE",
    "img": "/image/game/genshin/avatar/UI_AvatarIcon_PlayerGirl.png"
  },
  {
    "id": 10000014,
    "name": "Barbara",
    "rank": "QUALITY_PURPLE",
    "img": "/image/game/genshin/avatar/UI_AvatarIcon_Barbara.png"
  },
  {
    "id": 10000015,
    "name": "Kaeya",
    "rank": "QUALITY_PURPLE",
    "img": "/image/game/genshin/avatar/UI_AvatarIcon_Kaeya.png"
  },
  {
    "id": 10000016,
    "name": "Diluc",
    "rank": "QUALITY_ORANGE",
    "img": "/image/game/genshin/avatar/UI_AvatarIcon_Diluc.png"
  },
  {
    "id": 10000020,
    "name": "Razor",
    "rank": "QUALITY_PURPLE",
    "img": "/image/game/genshin/avatar/UI_AvatarIcon_Razor.png"
  },
  {
    "id": 10000021,
    "name": "Amber",
    "rank": "QUALITY_PURPLE",
    "img": "/image/game/genshin/avatar/UI_AvatarIcon_Ambor.png"
  },
  {
    "id": 10000022,
    "name": "Venti",
    "rank": "QUALITY_ORANGE",
    "img": "/image/game/genshin/avatar/UI_AvatarIcon_Venti.png"
  },
  {
    "id": 10000023,
    "name": "Xiangling",
    "rank": "QUALITY_PURPLE",
    "img": "/image/game/genshin/avatar/UI_AvatarIcon_Xiangling.png"
  },
  {
    "id": 10000024,
    "name": "Beidou",
    "rank": "QUALITY_PURPLE",
    "img": "/image/game/genshin/avatar/UI_AvatarIcon_Beidou.png"
  },
  {
    "id": 10000025,
    "name": "Xingqiu",
    "rank": "QUALITY_PURPLE",
    "img": "/image/game/genshin/avatar/UI_AvatarIcon_Xingqiu.png"
  },
  {
    "id": 10000026,
    "name": "Xiao",
    "rank": "QUALITY_ORANGE",
    "img": "/image/game/genshin/avatar/UI_AvatarIcon_Xiao.png"
  },
  {
    "id": 10000027,
    "name": "Ningguang",
    "rank": "QUALITY_PURPLE",
    "img": "/image/game/genshin/avatar/UI_AvatarIcon_Ningguang.png"
  },
  {
    "id": 10000029,
    "name": "Klee",
    "rank": "QUALITY_ORANGE",
    "img": "/image/game/genshin/avatar/UI_AvatarIcon_Klee.png"
  },
  {
    "id": 10000030,
    "name": "Zhongli",
    "rank": "QUALITY_ORANGE",
    "img": "/image/game/genshin/avatar/UI_AvatarIcon_Zhongli.png"
  },
  {
    "id": 10000031,
    "name": "Fischl",
    "rank": "QUALITY_PURPLE",
    "img": "/image/game/genshin/avatar/UI_AvatarIcon_Fischl.png"
  },
  {
    "id": 10000032,
    "name": "Bennett",
    "rank": "QUALITY_PURPLE",
    "img": "/image/game/genshin/avatar/UI_AvatarIcon_Bennett.png"
  },
  {
    "id": 10000033,
    "name": "Tartaglia",
    "rank": "QUALITY_ORANGE",
    "img": "/image/game/genshin/avatar/UI_AvatarIcon_Tartaglia.png"
  },
  {
    "id": 10000034,
    "name": "Noelle",
    "rank": "QUALITY_PURPLE",
    "img": "/image/game/genshin/avatar/UI_AvatarIcon_Noel.png"
  },
  {
    "id": 10000035,
    "name": "Qiqi",
    "rank": "QUALITY_ORANGE",
    "img": "/image/game/genshin/avatar/UI_AvatarIcon_Qiqi.png"
  },
  {
    "id": 10000036,
    "name": "Chongyun",
    "rank": "QUALITY_PURPLE",
    "img": "/image/game/genshin/avatar/UI_AvatarIcon_Chongyun.png"
  },
  {
    "id": 10000037,
    "name": "Ganyu",
    "rank": "QUALITY_ORANGE",
    "img": "/image/game/genshin/avatar/UI_AvatarIcon_Ganyu.png"
  },
  {
    "id": 10000038,
    "name": "Albedo",
    "rank": "QUALITY_ORANGE",
    "img": "/image/game/genshin/avatar/UI_AvatarIcon_Albedo.png"
  },
  {
    "id": 10000039,
    "name": "Diona",
    "rank": "QUALITY_PURPLE",
    "img": "/image/game/genshin/avatar/UI_AvatarIcon_Diona.png"
  },
  {
    "id": 10000041,
    "name": "Mona",
    "rank": "QUALITY_ORANGE",
    "img": "/image/game/genshin/avatar/UI_AvatarIcon_Mona.png"
  },
  {
    "id": 10000042,
    "name": "Keqing",
    "rank": "QUALITY_ORANGE",
    "img": "/image/game/genshin/avatar/UI_AvatarIcon_Keqing.png"
  },
  {
    "id": 10000043,
    "name": "Saccharose",
    "rank": "QUALITY_PURPLE",
    "img": "/image/game/genshin/avatar/UI_AvatarIcon_Sucrose.png"
  },
  {
    "id": 10000044,
    "name": "Xinyan",
    "rank": "QUALITY_PURPLE",
    "img": "/image/game/genshin/avatar/UI_AvatarIcon_Xinyan.png"
  },
  {
    "id": 10000045,
    "name": "Rosaria",
    "rank": "QUALITY_PURPLE",
    "img": "/image/game/genshin/avatar/UI_AvatarIcon_Rosaria.png"
  },
  {
    "id": 10000046,
    "name": "Hu Tao",
    "rank": "QUALITY_ORANGE",
    "img": "/image/game/genshin/avatar/UI_AvatarIcon_Hutao.png"
  },
  {
    "id": 10000047,
    "name": "Kaedehara Kazuha",
    "rank": "QUALITY_ORANGE",
    "img": "/image/game/genshin/avatar/UI_AvatarIcon_Kazuha.png"
  },
  {
    "id": 10000048,
    "name": "Yanfei",
    "rank": "QUALITY_PURPLE",
    "img": "/image/game/genshin/avatar/UI_AvatarIcon_Feiyan.png"
  },
  {
    "id": 10000049,
    "name": "Yoimiya",
    "rank": "QUALITY_ORANGE",
    "img": "/image/game/genshin/avatar/UI_AvatarIcon_Yoimiya.png"
  },
  {
    "id": 10000050,
    "name": "Thoma",
    "rank": "QUALITY_PURPLE",
    "img": "/image/game/genshin/avatar/UI_AvatarIcon_Tohma.png"
  },
  {
    "id": 10000051,
    "name": "Eula",
    "rank": "QUALITY_ORANGE",
    "img": "/image/game/genshin/avatar/UI_AvatarIcon_Eula.png"
  },
  {
    "id": 10000052,
    "name": "Shougun Raiden",
    "rank": "QUALITY_ORANGE",
    "img": "/image/game/genshin/avatar/UI_AvatarIcon_Shougun.png"
  },
  {
    "id": 10000053,
    "name": "Sayu",
    "rank": "QUALITY_PURPLE",
    "img": "/image/game/genshin/avatar/UI_AvatarIcon_Sayu.png"
  },
  {
    "id": 10000054,
    "name": "Sangonomiya Kokomi",
    "rank": "QUALITY_ORANGE",
    "img": "/image/game/genshin/avatar/UI_AvatarIcon_Kokomi.png"
  },
  {
    "id": 10000055,
    "name": "Gorou",
    "rank": "QUALITY_PURPLE",
    "img": "/image/game/genshin/avatar/UI_AvatarIcon_Gorou.png"
  },
  {
    "id": 10000056,
    "name": "Kujou Sara",
    "rank": "QUALITY_PURPLE",
    "img": "/image/game/genshin/avatar/UI_AvatarIcon_Sara.png"
  },
  {
    "id": 10000057,
    "name": "Arataki Itto",
    "rank": "QUALITY_ORANGE",
    "img": "/image/game/genshin/avatar/UI_AvatarIcon_Itto.png"
  },
  {
    "id": 10000058,
    "name": "Yae Miko",
    "rank": "QUALITY_ORANGE",
    "img": "/image/game/genshin/avatar/UI_AvatarIcon_Yae.png"
  },
  {
    "id": 10000059,
    "name": "Shikanoin Heizou",
    "rank": "QUALITY_PURPLE",
    "img": "/image/game/genshin/avatar/UI_AvatarIcon_Heizo.png"
  },
  {
    "id": 10000060,
    "name": "Yelan",
    "rank": "QUALITY_ORANGE",
    "img": "/image/game/genshin/avatar/UI_AvatarIcon_Yelan.png"
  },
  {
    "id": 10000061,
    "name": "Kirara",
    "rank": "QUALITY_PURPLE",
    "img": "/image/game/genshin/avatar/UI_AvatarIcon_Momoka.png"
  },
  {
    "id": 10000062,
    "name": "Aloy",
    "rank": "QUALITY_ORANGE_SP",
    "img": "/image/game/genshin/avatar/UI_AvatarIcon_Aloy.png"
  },
  {
    "id": 10000063,
    "name": "Shenhe",
    "rank": "QUALITY_ORANGE",
    "img": "/image/game/genshin/avatar/UI_AvatarIcon_Shenhe.png"
  },
  {
    "id": 10000064,
    "name": "Yun Jin",
    "rank": "QUALITY_PURPLE",
    "img": "/image/game/genshin/avatar/UI_AvatarIcon_Yunjin.png"
  },
  {
    "id": 10000065,
    "name": "Kuki Shinobu",
    "rank": "QUALITY_PURPLE",
    "img": "/image/game/genshin/avatar/UI_AvatarIcon_Shinobu.png"
  },
  {
    "id": 10000066,
    "name": "Kamisato Ayato",
    "rank": "QUALITY_ORANGE",
    "img": "/image/game/genshin/avatar/UI_AvatarIcon_Ayato.png"
  },
  {
    "id": 10000067,
    "name": "Collei",
    "rank": "QUALITY_PURPLE",
    "img": "/image/game/genshin/avatar/UI_AvatarIcon_Collei.png"
  },
  {
    "id": 10000068,
    "name": "Dori",
    "rank": "QUALITY_PURPLE",
    "img": "/image/game/genshin/avatar/UI_AvatarIcon_Dori.png"
  },
  {
    "id": 10000069,
    "name": "Tighnari",
    "rank": "QUALITY_ORANGE",
    "img": "/image/game/genshin/avatar/UI_AvatarIcon_Tighnari.png"
  },
  {
    "id": 10000070,
    "name": "Nilou",
    "rank": "QUALITY_ORANGE",
    "img": "/image/game/genshin/avatar/UI_AvatarIcon_Nilou.png"
  },
  {
    "id": 10000071,
    "name": "Cyno",
    "rank": "QUALITY_ORANGE",
    "img": "/image/game/genshin/avatar/UI_AvatarIcon_Cyno.png"
  },
  {
    "id": 10000072,
    "name": "Candace",
    "rank": "QUALITY_PURPLE",
    "img": "/image/game/genshin/avatar/UI_AvatarIcon_Candace.png"
  },
  {
    "id": 10000073,
    "name": "Nahida",
    "rank": "QUALITY_ORANGE",
    "img": "/image/game/genshin/avatar/UI_AvatarIcon_Nahida.png"
  },
  {
    "id": 10000074,
    "name": "Layla",
    "rank": "QUALITY_PURPLE",
    "img": "/image/game/genshin/avatar/UI_AvatarIcon_Layla.png"
  },
  {
    "id": 10000075,
    "name": "Wanderer",
    "rank": "QUALITY_ORANGE",
    "img": "/image/game/genshin/avatar/UI_AvatarIcon_Wanderer.png"
  },
  {
    "id": 10000076,
    "name": "Faruzan",
    "rank": "QUALITY_PURPLE",
    "img": "/image/game/genshin/avatar/UI_AvatarIcon_Faruzan.png"
  },
  {
    "id": 10000077,
    "name": "Yaoyao",
    "rank": "QUALITY_PURPLE",
    "img": "/image/game/genshin/avatar/UI_AvatarIcon_Yaoyao.png"
  },
  {
    "id": 10000078,
    "name": "Alhaitham",
    "rank": "QUALITY_ORANGE",
    "img": "/image/game/genshin/avatar/UI_AvatarIcon_Alhatham.png"
  },
  {
    "id": 10000079,
    "name": "Dehya",
    "rank": "QUALITY_ORANGE",
    "img": "/image/game/genshin/avatar/UI_AvatarIcon_Dehya.png"
  },
  {
    "id": 10000080,
    "name": "Mika",
    "rank": "QUALITY_PURPLE",
    "img": "/image/game/genshin/avatar/UI_AvatarIcon_Mika.png"
  },
  {
    "id": 10000081,
    "name": "Kaveh",
    "rank": "QUALITY_PURPLE",
    "img": "/image/game/genshin/avatar/UI_AvatarIcon_Kaveh.png"
  },
  {
    "id": 10000082,
    "name": "Baizhu",
    "rank": "QUALITY_ORANGE",
    "img": "/image/game/genshin/avatar/UI_AvatarIcon_Baizhuer.png"
  },
  {
    "id": 10000083,
    "name": "Lynette",
    "rank": "QUALITY_PURPLE",
    "img": "/image/game/genshin/avatar/UI_AvatarIcon_Linette.png"
  },
  {
    "id": 10000084,
    "name": "Lyney",
    "rank": "QUALITY_ORANGE",
    "img": "/image/game/genshin/avatar/UI_AvatarIcon_Liney.png"
  },
  {
    "id": 10000085,
    "name": "Fréminet",
    "rank": "QUALITY_PURPLE",
    "img": "/image/game/genshin/avatar/UI_AvatarIcon_Freminet.png"
  },
  {
    "id": 10000086,
    "name": "Wriothesley",
    "rank": "QUALITY_ORANGE",
    "img": "/image/game/genshin/avatar/UI_AvatarIcon_Wriothesley.png"
  },
  {
    "id": 10000087,
    "name": "Neuvillette",
    "rank": "QUALITY_ORANGE",
    "img": "/image/game/genshin/avatar/UI_AvatarIcon_Neuvillette.png"
  },
  {
    "id": 10000088,
    "name": "Charlotte",
    "rank": "QUALITY_PURPLE",
    "img": "/image/game/genshin/avatar/UI_AvatarIcon_Charlotte.png"
  },
  {
    "id": 10000089,
    "name": "Furina",
    "rank": "QUALITY_ORANGE",
    "img": "/image/game/genshin/avatar/UI_AvatarIcon_Furina.png"
  },
  {
    "id": 10000090,
    "name": "Chevreuse",
    "rank": "QUALITY_PURPLE",
    "img": "/image/game/genshin/avatar/UI_AvatarIcon_Chevreuse.png"
  },
  {
    "id": 10000091,
    "name": "Navia",
    "rank": "QUALITY_ORANGE",
    "img": "/image/game/genshin/avatar/UI_AvatarIcon_Navia.png"
  },
  {
    "id": 10000092,
    "name": "Gaming",
    "rank": "QUALITY_PURPLE",
    "img": "/image/game/genshin/avatar/UI_AvatarIcon_Gaming.png"
  },
  {
    "id": 10000093,
    "name": "Xianyun",
    "rank": "QUALITY_ORANGE",
    "img": "/image/game/genshin/avatar/UI_AvatarIcon_Liuyun.png"
  },
  {
    "id": 10000094,
    "name": "Chiori",
    "rank": "QUALITY_ORANGE",
    "img": "/image/game/genshin/avatar/UI_AvatarIcon_Chiori.png"
  },
  {
    "id": 10000095,
    "name": "Sigewinne",
    "rank": "QUALITY_ORANGE",
    "img": "/image/game/genshin/avatar/UI_AvatarIcon_Sigewinne.png"
  },
  {
    "id": 10000096,
    "name": "Arlecchino",
    "rank": "QUALITY_ORANGE",
    "img": "/image/game/genshin/avatar/UI_AvatarIcon_Arlecchino.png"
  },
  {
    "id": 10000097,
    "name": "Sethos",
    "rank": "QUALITY_PURPLE",
    "img": "/image/game/genshin/avatar/UI_AvatarIcon_Sethos.png"
  },
  {
    "id": 10000098,
    "name": "Clorinde",
    "rank": "QUALITY_ORANGE",
    "img": "/image/game/genshin/avatar/UI_AvatarIcon_Clorinde.png"
  },
  {
    "id": 10000099,
    "name": "Émilie",
    "rank": "QUALITY_ORANGE",
    "img": "/image/game/genshin/avatar/UI_AvatarIcon_Emilie.png"
  },
  {
    "id": 10000100,
    "name": "Kachina",
    "rank": "QUALITY_PURPLE",
    "img": "/image/game/genshin/avatar/UI_AvatarIcon_Kachina.png"
  },
  {
    "id": 10000101,
    "name": "Kinich",
    "rank": "QUALITY_ORANGE",
    "img": "/image/game/genshin/avatar/UI_AvatarIcon_Kinich.png"
  },
  {
    "id": 10000102,
    "name": "Mualani",
    "rank": "QUALITY_ORANGE",
    "img": "/image/game/genshin/avatar/UI_AvatarIcon_Mualani.png"
  }
]