[
  {
    "id": 11101,
    "name": "Stumpfes Schwert",
    "type_main": "ITEM_WEAPON",
    "type_sub": "WEAPON_SWORD_ONE_HAND",
    "rank": 1,
    "img": "/image/game/genshin/weapon/UI_EquipIcon_Sword_Blunt.png"
  },
  {
    "id": 11201,
    "name": "Silberschwert",
    "type_main": "ITEM_WEAPON",
    "type_sub": "WEAPON_SWORD_ONE_HAND",
    "rank": 2,
    "img": "/image/game/genshin/weapon/UI_EquipIcon_Sword_Silver.png"
  },
  {
    "id": 11301,
    "name": "Kühle Klinge",
    "type_main": "ITEM_WEAPON",
    "type_sub": "WEAPON_SWORD_ONE_HAND",
    "rank": 3,
    "img": "/image/game/genshin/weapon/UI_EquipIcon_Sword_Steel.png"
  },
  {
    "id": 11302,
    "name": "Schwert der Dämmerung",
    "type_main": "ITEM_WEAPON",
    "type_sub": "WEAPON_SWORD_ONE_HAND",
    "rank": 3,
    "img": "/image/game/genshin/weapon/UI_EquipIcon_Sword_Dawn.png"
  },
  {
    "id": 11303,
    "name": "Reiseschwert",
    "type_main": "ITEM_WEAPON",
    "type_sub": "WEAPON_SWORD_ONE_HAND",
    "rank": 3,
    "img": "/image/game/genshin/weapon/UI_EquipIcon_Sword_Traveler.png"
  },
  {
    "id": 11304,
    "name": "Dunkles Eisenschwert",
    "type_main": "ITEM_WEAPON",
    "type_sub": "WEAPON_SWORD_ONE_HAND",
    "rank": 3,
    "img": "/image/game/genshin/weapon/UI_EquipIcon_Sword_Darker.png"
  },
  {
    "id": 11305,
    "name": "Filetiermesser",
    "type_main": "ITEM_WEAPON",
    "type_sub": "WEAPON_SWORD_ONE_HAND",
    "rank": 3,
    "img": "/image/game/genshin/weapon/UI_EquipIcon_Sword_Sashimi.png"
  },
  {
    "id": 11306,
    "name": "Himmelsflug-Schwert",
    "type_main": "ITEM_WEAPON",
    "type_sub": "WEAPON_SWORD_ONE_HAND",
    "rank": 3,
    "img": "/image/game/genshin/weapon/UI_EquipIcon_Sword_Mitsurugi.png"
  },
  {
    "id": 11401,
    "name": "Favonius-Schwert",
    "type_main": "ITEM_WEAPON",
    "type_sub": "WEAPON_SWORD_ONE_HAND",
    "rank": 4,
    "img": "/image/game/genshin/weapon/UI_EquipIcon_Sword_Zephyrus.png"
  },
  {
    "id": 11402,
    "name": "Flöte",
    "type_main": "ITEM_WEAPON",
    "type_sub": "WEAPON_SWORD_ONE_HAND",
    "rank": 4,
    "img": "/image/game/genshin/weapon/UI_EquipIcon_Sword_Troupe.png"
  },
  {
    "id": 11403,
    "name": "Opferschwert",
    "type_main": "ITEM_WEAPON",
    "type_sub": "WEAPON_SWORD_ONE_HAND",
    "rank": 4,
    "img": "/image/game/genshin/weapon/UI_EquipIcon_Sword_Fossil.png"
  },
  {
    "id": 11404,
    "name": "Königliches Langschwert",
    "type_main": "ITEM_WEAPON",
    "type_sub": "WEAPON_SWORD_ONE_HAND",
    "rank": 4,
    "img": "/image/game/genshin/weapon/UI_EquipIcon_Sword_Theocrat.png"
  },
  {
    "id": 11405,
    "name": "Drachenschrei",
    "type_main": "ITEM_WEAPON",
    "type_sub": "WEAPON_SWORD_ONE_HAND",
    "rank": 4,
    "img": "/image/game/genshin/weapon/UI_EquipIcon_Sword_Rockkiller.png"
  },
  {
    "id": 11406,
    "name": "Steinschneider-Prototyp",
    "type_main": "ITEM_WEAPON",
    "type_sub": "WEAPON_SWORD_ONE_HAND",
    "rank": 4,
    "img": "/image/game/genshin/weapon/UI_EquipIcon_Sword_Proto.png"
  },
  {
    "id": 11407,
    "name": "Eisenstich",
    "type_main": "ITEM_WEAPON",
    "type_sub": "WEAPON_SWORD_ONE_HAND",
    "rank": 4,
    "img": "/image/game/genshin/weapon/UI_EquipIcon_Sword_Exotic.png"
  },
  {
    "id": 11408,
    "name": "Schwarzstein-Langschwert",
    "type_main": "ITEM_WEAPON",
    "type_sub": "WEAPON_SWORD_ONE_HAND",
    "rank": 4,
    "img": "/image/game/genshin/weapon/UI_EquipIcon_Sword_Blackrock.png"
  },
  {
    "id": 11409,
    "name": "Schwarzes Schwert",
    "type_main": "ITEM_WEAPON",
    "type_sub": "WEAPON_SWORD_ONE_HAND",
    "rank": 4,
    "img": "/image/game/genshin/weapon/UI_EquipIcon_Sword_Bloodstained.png"
  },
  {
    "id": 11410,
    "name": "Gassenleuchte",
    "type_main": "ITEM_WEAPON",
    "type_sub": "WEAPON_SWORD_ONE_HAND",
    "rank": 4,
    "img": "/image/game/genshin/weapon/UI_EquipIcon_Sword_Outlaw.png"
  },
  {
    "id": 11411,
    "name": "N/A",
    "type_main": "ITEM_WEAPON",
    "type_sub": "WEAPON_SWORD_ONE_HAND",
    "rank": 4,
    "img": "/image/game/genshin/weapon/UI_EquipIcon_Sword_Blunt.png"
  },
  {
    "id": 11412,
    "name": "Schwert der Niederkunft",
    "type_main": "ITEM_WEAPON",
    "type_sub": "WEAPON_SWORD_ONE_HAND",
    "rank": 4,
    "img": "/image/game/genshin/weapon/UI_EquipIcon_Sword_Psalmus.png"
  },
  {
    "id": 11413,
    "name": "Schwert der Verderbnis",
    "type_main": "ITEM_WEAPON",
    "type_sub": "WEAPON_SWORD_ONE_HAND",
    "rank": 4,
    "img": "/image/game/genshin/weapon/UI_EquipIcon_Sword_Magnum.png"
  },
  {
    "id": 11414,
    "name": "Amenoma Kageuchi",
    "type_main": "ITEM_WEAPON",
    "type_sub": "WEAPON_SWORD_ONE_HAND",
    "rank": 4,
    "img": "/image/game/genshin/weapon/UI_EquipIcon_Sword_Bakufu.png"
  },
  {
    "id": 11415,
    "name": "Zinnoberspindel",
    "type_main": "ITEM_WEAPON",
    "type_sub": "WEAPON_SWORD_ONE_HAND",
    "rank": 4,
    "img": "/image/game/genshin/weapon/UI_EquipIcon_Sword_Opus.png"
  },
  {
    "id": 11416,
    "name": "Kagotsurube Isshin",
    "type_main": "ITEM_WEAPON",
    "type_sub": "WEAPON_SWORD_ONE_HAND",
    "rank": 4,
    "img": "/image/game/genshin/weapon/UI_EquipIcon_Sword_Youtou.png"
  },
  {
    "id": 11417,
    "name": "Stammklinge",
    "type_main": "ITEM_WEAPON",
    "type_sub": "WEAPON_SWORD_ONE_HAND",
    "rank": 4,
    "img": "/image/game/genshin/weapon/UI_EquipIcon_Sword_Arakalari.png"
  },
  {
    "id": 11418,
    "name": "Mondlicht von Xiphos",
    "type_main": "ITEM_WEAPON",
    "type_sub": "WEAPON_SWORD_ONE_HAND",
    "rank": 4,
    "img": "/image/game/genshin/weapon/UI_EquipIcon_Sword_Pleroma.png"
  },
  {
    "id": 11419,
    "name": "Berühmtes Schwert der „Isshin-Schule“",
    "type_main": "ITEM_WEAPON",
    "type_sub": "WEAPON_SWORD_ONE_HAND",
    "rank": 4,
    "img": "/image/game/genshin/weapon/UI_EquipIcon_Sword_YoutouEnchanted.png"
  },
  {
    "id": 11420,
    "name": "Berühmtes Schwert der „Isshin-Schule“",
    "type_main": "ITEM_WEAPON",
    "type_sub": "WEAPON_SWORD_ONE_HAND",
    "rank": 4,
    "img": "/image/game/genshin/weapon/UI_EquipIcon_Sword_YoutouShattered.png"
  },
  {
    "id": 11421,
    "name": "Berühmtes Schwert der „Isshin-Schule“",
    "type_main": "ITEM_WEAPON",
    "type_sub": "WEAPON_SWORD_ONE_HAND",
    "rank": 4,
    "img": "/image/game/genshin/weapon/UI_EquipIcon_Sword_YoutouEnchanted.png"
  },
  {
    "id": 11422,
    "name": "Toukabou Shigure",
    "type_main": "ITEM_WEAPON",
    "type_sub": "WEAPON_SWORD_ONE_HAND",
    "rank": 4,
    "img": "/image/game/genshin/weapon/UI_EquipIcon_Sword_Kasabouzu.png"
  },
  {
    "id": 11424,
    "name": "Wolfszahn",
    "type_main": "ITEM_WEAPON",
    "type_sub": "WEAPON_SWORD_ONE_HAND",
    "rank": 4,
    "img": "/image/game/genshin/weapon/UI_EquipIcon_Sword_Boreas.png"
  },
  {
    "id": 11425,
    "name": "Finale in der Tiefe",
    "type_main": "ITEM_WEAPON",
    "type_sub": "WEAPON_SWORD_ONE_HAND",
    "rank": 4,
    "img": "/image/game/genshin/weapon/UI_EquipIcon_Sword_Vorpal.png"
  },
  {
    "id": 11426,
    "name": "Schiffer des Fleuve Cendré",
    "type_main": "ITEM_WEAPON",
    "type_sub": "WEAPON_SWORD_ONE_HAND",
    "rank": 4,
    "img": "/image/game/genshin/weapon/UI_EquipIcon_Sword_Machination.png"
  },
  {
    "id": 11427,
    "name": "Werftklinge",
    "type_main": "ITEM_WEAPON",
    "type_sub": "WEAPON_SWORD_ONE_HAND",
    "rank": 4,
    "img": "/image/game/genshin/weapon/UI_EquipIcon_Sword_Mechanic.png"
  },
  {
    "id": 11428,
    "name": "Schwert des Narzissenkreuzes",
    "type_main": "ITEM_WEAPON",
    "type_sub": "WEAPON_SWORD_ONE_HAND",
    "rank": 4,
    "img": "/image/game/genshin/weapon/UI_EquipIcon_Sword_Purewill.png"
  },
  {
    "id": 11429,
    "name": "Schwert des Narzissenkreuzes",
    "type_main": "ITEM_WEAPON",
    "type_sub": "WEAPON_SWORD_ONE_HAND",
    "rank": 4,
    "img": "/image/game/genshin/weapon/UI_EquipIcon_Sword_Purewill.png"
  },
  {
    "id": 11431,
    "name": "Ezpitzal-Flöte",
    "type_main": "ITEM_WEAPON",
    "type_sub": "WEAPON_SWORD_ONE_HAND",
    "rank": 4,
    "img": "/image/game/genshin/weapon/UI_EquipIcon_Sword_Isikhulu.png"
  },
  {
    "id": 11501,
    "name": "Windfalke",
    "type_main": "ITEM_WEAPON",
    "type_sub": "WEAPON_SWORD_ONE_HAND",
    "rank": 5,
    "img": "/image/game/genshin/weapon/UI_EquipIcon_Sword_Falcon.png"
  },
  {
    "id": 11502,
    "name": "Himmelsklinge",
    "type_main": "ITEM_WEAPON",
    "type_sub": "WEAPON_SWORD_ONE_HAND",
    "rank": 5,
    "img": "/image/game/genshin/weapon/UI_EquipIcon_Sword_Dvalin.png"
  },
  {
    "id": 11503,
    "name": "Blasser Schwur der Freiheit",
    "type_main": "ITEM_WEAPON",
    "type_sub": "WEAPON_SWORD_ONE_HAND",
    "rank": 5,
    "img": "/image/game/genshin/weapon/UI_EquipIcon_Sword_Widsith.png"
  },
  {
    "id": 11504,
    "name": "Gipfelbrecher",
    "type_main": "ITEM_WEAPON",
    "type_sub": "WEAPON_SWORD_ONE_HAND",
    "rank": 5,
    "img": "/image/game/genshin/weapon/UI_EquipIcon_Sword_Kunwu.png"
  },
  {
    "id": 11505,
    "name": "Moosgrüner Fels",
    "type_main": "ITEM_WEAPON",
    "type_sub": "WEAPON_SWORD_ONE_HAND",
    "rank": 5,
    "img": "/image/game/genshin/weapon/UI_EquipIcon_Sword_Morax.png"
  },
  {
    "id": 11506,
    "name": "Moosgrüner Fels",
    "type_main": "ITEM_WEAPON",
    "type_sub": "WEAPON_SWORD_ONE_HAND",
    "rank": 5,
    "img": "/image/game/genshin/weapon/UI_EquipIcon_Sword_Blunt.png"
  },
  {
    "id": 11507,
    "name": "Gefäß der Leere",
    "type_main": "ITEM_WEAPON",
    "type_sub": "WEAPON_SWORD_ONE_HAND",
    "rank": 5,
    "img": "/image/game/genshin/weapon/UI_EquipIcon_Sword_Blunt.png"
  },
  {
    "id": 11508,
    "name": "N/A",
    "type_main": "ITEM_WEAPON",
    "type_sub": "WEAPON_SWORD_ONE_HAND",
    "rank": 5,
    "img": "/image/game/genshin/weapon/UI_EquipIcon_Sword_Blunt.png"
  },
  {
    "id": 11509,
    "name": "Widerschein des Nebelsplitters",
    "type_main": "ITEM_WEAPON",
    "type_sub": "WEAPON_SWORD_ONE_HAND",
    "rank": 5,
    "img": "/image/game/genshin/weapon/UI_EquipIcon_Sword_Narukami.png"
  },
  {
    "id": 11510,
    "name": "Haran Geppaku Futsu",
    "type_main": "ITEM_WEAPON",
    "type_sub": "WEAPON_SWORD_ONE_HAND",
    "rank": 5,
    "img": "/image/game/genshin/weapon/UI_EquipIcon_Sword_Amenoma.png"
  },
  {
    "id": 11511,
    "name": "Khaj-Nisut-Schlüssel",
    "type_main": "ITEM_WEAPON",
    "type_sub": "WEAPON_SWORD_ONE_HAND",
    "rank": 5,
    "img": "/image/game/genshin/weapon/UI_EquipIcon_Sword_Deshret.png"
  },
  {
    "id": 11512,
    "name": "Licht der schneidenden Blätter",
    "type_main": "ITEM_WEAPON",
    "type_sub": "WEAPON_SWORD_ONE_HAND",
    "rank": 5,
    "img": "/image/game/genshin/weapon/UI_EquipIcon_Sword_Ayus.png"
  },
  {
    "id": 11513,
    "name": "Pracht des stillen Wassers",
    "type_main": "ITEM_WEAPON",
    "type_sub": "WEAPON_SWORD_ONE_HAND",
    "rank": 5,
    "img": "/image/game/genshin/weapon/UI_EquipIcon_Sword_Regalis.png"
  },
  {
    "id": 11514,
    "name": "Uraku Misugiri",
    "type_main": "ITEM_WEAPON",
    "type_sub": "WEAPON_SWORD_ONE_HAND",
    "rank": 5,
    "img": "/image/game/genshin/weapon/UI_EquipIcon_Sword_Needle.png"
  },
  {
    "id": 11515,
    "name": "Absolution",
    "type_main": "ITEM_WEAPON",
    "type_sub": "WEAPON_SWORD_ONE_HAND",
    "rank": 5,
    "img": "/image/game/genshin/weapon/UI_EquipIcon_Sword_Estoc.png"
  },
  {
    "id": 12101,
    "name": "Übungsgroßschwert",
    "type_main": "ITEM_WEAPON",
    "type_sub": "WEAPON_CLAYMORE",
    "rank": 1,
    "img": "/image/game/genshin/weapon/UI_EquipIcon_Claymore_Aniki.png"
  },
  {
    "id": 12201,
    "name": "Söldnerzweihänder",
    "type_main": "ITEM_WEAPON",
    "type_sub": "WEAPON_CLAYMORE",
    "rank": 2,
    "img": "/image/game/genshin/weapon/UI_EquipIcon_Claymore_Oyaji.png"
  },
  {
    "id": 12301,
    "name": "Eiserner Schatten",
    "type_main": "ITEM_WEAPON",
    "type_sub": "WEAPON_CLAYMORE",
    "rank": 3,
    "img": "/image/game/genshin/weapon/UI_EquipIcon_Claymore_Glaive.png"
  },
  {
    "id": 12302,
    "name": "Drachenblutschwert",
    "type_main": "ITEM_WEAPON",
    "type_sub": "WEAPON_CLAYMORE",
    "rank": 3,
    "img": "/image/game/genshin/weapon/UI_EquipIcon_Claymore_Siegfry.png"
  },
  {
    "id": 12303,
    "name": "Weißes Eisengroßschwert",
    "type_main": "ITEM_WEAPON",
    "type_sub": "WEAPON_CLAYMORE",
    "rank": 3,
    "img": "/image/game/genshin/weapon/UI_EquipIcon_Claymore_Tin.png"
  },
  {
    "id": 12304,
    "name": "Quarzgroßschwert",
    "type_main": "ITEM_WEAPON",
    "type_sub": "WEAPON_CLAYMORE",
    "rank": 3,
    "img": ""
  },
  {
    "id": 12305,
    "name": "Schlagfestes Argument",
    "type_main": "ITEM_WEAPON",
    "type_sub": "WEAPON_CLAYMORE",
    "rank": 3,
    "img": "/image/game/genshin/weapon/UI_EquipIcon_Claymore_Reasoning.png"
  },
  {
    "id": 12306,
    "name": "Himmelsflug-Großschwert",
    "type_main": "ITEM_WEAPON",
    "type_sub": "WEAPON_CLAYMORE",
    "rank": 3,
    "img": "/image/game/genshin/weapon/UI_EquipIcon_Claymore_Mitsurugi.png"
  },
  {
    "id": 12401,
    "name": "Favonius-Großschwert",
    "type_main": "ITEM_WEAPON",
    "type_sub": "WEAPON_CLAYMORE",
    "rank": 4,
    "img": "/image/game/genshin/weapon/UI_EquipIcon_Claymore_Zephyrus.png"
  },
  {
    "id": 12402,
    "name": "Glocke",
    "type_main": "ITEM_WEAPON",
    "type_sub": "WEAPON_CLAYMORE",
    "rank": 4,
    "img": "/image/game/genshin/weapon/UI_EquipIcon_Claymore_Troupe.png"
  },
  {
    "id": 12403,
    "name": "Opfergroßschwert",
    "type_main": "ITEM_WEAPON",
    "type_sub": "WEAPON_CLAYMORE",
    "rank": 4,
    "img": "/image/game/genshin/weapon/UI_EquipIcon_Claymore_Fossil.png"
  },
  {
    "id": 12404,
    "name": "Königliches Großschwert",
    "type_main": "ITEM_WEAPON",
    "type_sub": "WEAPON_CLAYMORE",
    "rank": 4,
    "img": "/image/game/genshin/weapon/UI_EquipIcon_Claymore_Theocrat.png"
  },
  {
    "id": 12405,
    "name": "Regenschnitter",
    "type_main": "ITEM_WEAPON",
    "type_sub": "WEAPON_CLAYMORE",
    "rank": 4,
    "img": "/image/game/genshin/weapon/UI_EquipIcon_Claymore_Perdue.png"
  },
  {
    "id": 12406,
    "name": "Guhua-Prototyp",
    "type_main": "ITEM_WEAPON",
    "type_sub": "WEAPON_CLAYMORE",
    "rank": 4,
    "img": "/image/game/genshin/weapon/UI_EquipIcon_Claymore_Proto.png"
  },
  {
    "id": 12407,
    "name": "Weißer Schatten",
    "type_main": "ITEM_WEAPON",
    "type_sub": "WEAPON_CLAYMORE",
    "rank": 4,
    "img": "/image/game/genshin/weapon/UI_EquipIcon_Claymore_Exotic.png"
  },
  {
    "id": 12408,
    "name": "Schwarzstein-Schneide",
    "type_main": "ITEM_WEAPON",
    "type_sub": "WEAPON_CLAYMORE",
    "rank": 4,
    "img": "/image/game/genshin/weapon/UI_EquipIcon_Claymore_Blackrock.png"
  },
  {
    "id": 12409,
    "name": "Knochenschwert",
    "type_main": "ITEM_WEAPON",
    "type_sub": "WEAPON_CLAYMORE",
    "rank": 4,
    "img": "/image/game/genshin/weapon/UI_EquipIcon_Claymore_Kione.png"
  },
  {
    "id": 12410,
    "name": "Antikes Millelithenschwert",
    "type_main": "ITEM_WEAPON",
    "type_sub": "WEAPON_CLAYMORE",
    "rank": 4,
    "img": "/image/game/genshin/weapon/UI_EquipIcon_Claymore_Lapis.png"
  },
  {
    "id": 12411,
    "name": "Unter Schnee begrabenes Sternsilber",
    "type_main": "ITEM_WEAPON",
    "type_sub": "WEAPON_CLAYMORE",
    "rank": 4,
    "img": "/image/game/genshin/weapon/UI_EquipIcon_Claymore_Dragonfell.png"
  },
  {
    "id": 12412,
    "name": "Luxuriöser Seekönig",
    "type_main": "ITEM_WEAPON",
    "type_sub": "WEAPON_CLAYMORE",
    "rank": 4,
    "img": "/image/game/genshin/weapon/UI_EquipIcon_Claymore_MillenniaTuna.png"
  },
  {
    "id": 12414,
    "name": "Katsuragikiri Nagamasa",
    "type_main": "ITEM_WEAPON",
    "type_sub": "WEAPON_CLAYMORE",
    "rank": 4,
    "img": "/image/game/genshin/weapon/UI_EquipIcon_Claymore_Bakufu.png"
  },
  {
    "id": 12415,
    "name": "Makhaira-Aquamarin",
    "type_main": "ITEM_WEAPON",
    "type_sub": "WEAPON_CLAYMORE",
    "rank": 4,
    "img": "/image/game/genshin/weapon/UI_EquipIcon_Claymore_Pleroma.png"
  },
  {
    "id": 12416,
    "name": "Akuoumaru",
    "type_main": "ITEM_WEAPON",
    "type_sub": "WEAPON_CLAYMORE",
    "rank": 4,
    "img": "/image/game/genshin/weapon/UI_EquipIcon_Claymore_Maria.png"
  },
  {
    "id": 12417,
    "name": "Waldkönigsschwert",
    "type_main": "ITEM_WEAPON",
    "type_sub": "WEAPON_CLAYMORE",
    "rank": 4,
    "img": "/image/game/genshin/weapon/UI_EquipIcon_Claymore_Arakalari.png"
  },
  {
    "id": 12418,
    "name": "Eiserne Blume",
    "type_main": "ITEM_WEAPON",
    "type_sub": "WEAPON_CLAYMORE",
    "rank": 4,
    "img": "/image/game/genshin/weapon/UI_EquipIcon_Claymore_Fleurfair.png"
  },
  {
    "id": 12424,
    "name": "Lass uns reden",
    "type_main": "ITEM_WEAPON",
    "type_sub": "WEAPON_CLAYMORE",
    "rank": 4,
    "img": "/image/game/genshin/weapon/UI_EquipIcon_Claymore_BeastTamer.png"
  },
  {
    "id": 12425,
    "name": "Gezeitenschatten",
    "type_main": "ITEM_WEAPON",
    "type_sub": "WEAPON_CLAYMORE",
    "rank": 4,
    "img": "/image/game/genshin/weapon/UI_EquipIcon_Claymore_Vorpal.png"
  },
  {
    "id": 12426,
    "name": "„Megamagisches Schwert des ultimativen Oberherrn“",
    "type_main": "ITEM_WEAPON",
    "type_sub": "WEAPON_CLAYMORE",
    "rank": 4,
    "img": "/image/game/genshin/weapon/UI_EquipIcon_Claymore_Champion.png"
  },
  {
    "id": 12427,
    "name": "Tragbare motorisierte Säge",
    "type_main": "ITEM_WEAPON",
    "type_sub": "WEAPON_CLAYMORE",
    "rank": 4,
    "img": "/image/game/genshin/weapon/UI_EquipIcon_Claymore_Mechanic.png"
  },
  {
    "id": 12431,
    "name": "Bebenmacher",
    "type_main": "ITEM_WEAPON",
    "type_sub": "WEAPON_CLAYMORE",
    "rank": 4,
    "img": "/image/game/genshin/weapon/UI_EquipIcon_Claymore_Isikhulu.png"
  },
  {
    "id": 12501,
    "name": "Stolz des Himmels",
    "type_main": "ITEM_WEAPON",
    "type_sub": "WEAPON_CLAYMORE",
    "rank": 5,
    "img": "/image/game/genshin/weapon/UI_EquipIcon_Claymore_Dvalin.png"
  },
  {
    "id": 12502,
    "name": "Wolfsgrab",
    "type_main": "ITEM_WEAPON",
    "type_sub": "WEAPON_CLAYMORE",
    "rank": 5,
    "img": "/image/game/genshin/weapon/UI_EquipIcon_Claymore_Wolfmound.png"
  },
  {
    "id": 12503,
    "name": "Kiefernklang",
    "type_main": "ITEM_WEAPON",
    "type_sub": "WEAPON_CLAYMORE",
    "rank": 5,
    "img": "/image/game/genshin/weapon/UI_EquipIcon_Claymore_Widsith.png"
  },
  {
    "id": 12504,
    "name": "Grobes Schwert",
    "type_main": "ITEM_WEAPON",
    "type_sub": "WEAPON_CLAYMORE",
    "rank": 5,
    "img": "/image/game/genshin/weapon/UI_EquipIcon_Claymore_Kunwu.png"
  },
  {
    "id": 12505,
    "name": "Urzeitliches Jadeschwert",
    "type_main": "ITEM_WEAPON",
    "type_sub": "WEAPON_CLAYMORE",
    "rank": 5,
    "img": "/image/game/genshin/weapon/UI_EquipIcon_Claymore_Aniki.png"
  },
  {
    "id": 12506,
    "name": "Anderer Verlauf",
    "type_main": "ITEM_WEAPON",
    "type_sub": "WEAPON_CLAYMORE",
    "rank": 5,
    "img": "/image/game/genshin/weapon/UI_EquipIcon_Claymore_Aniki.png"
  },
  {
    "id": 12508,
    "name": "N/A",
    "type_main": "ITEM_WEAPON",
    "type_sub": "WEAPON_CLAYMORE",
    "rank": 5,
    "img": "/image/game/genshin/weapon/UI_EquipIcon_Claymore_Aniki.png"
  },
  {
    "id": 12509,
    "name": "N/A",
    "type_main": "ITEM_WEAPON",
    "type_sub": "WEAPON_CLAYMORE",
    "rank": 5,
    "img": "/image/game/genshin/weapon/UI_EquipIcon_Claymore_Aniki.png"
  },
  {
    "id": 12510,
    "name": "Rothorn-Steinbrecher",
    "type_main": "ITEM_WEAPON",
    "type_sub": "WEAPON_CLAYMORE",
    "rank": 5,
    "img": "/image/game/genshin/weapon/UI_EquipIcon_Claymore_Itadorimaru.png"
  },
  {
    "id": 12511,
    "name": "Schilfmeer-Bake",
    "type_main": "ITEM_WEAPON",
    "type_sub": "WEAPON_CLAYMORE",
    "rank": 5,
    "img": "/image/game/genshin/weapon/UI_EquipIcon_Claymore_Deshret.png"
  },
  {
    "id": 12512,
    "name": "Urteilsspruch",
    "type_main": "ITEM_WEAPON",
    "type_sub": "WEAPON_CLAYMORE",
    "rank": 5,
    "img": "/image/game/genshin/weapon/UI_EquipIcon_Claymore_GoldenVerdict.png"
  },
  {
    "id": 12513,
    "name": "Zahn des Bergkönigs",
    "type_main": "ITEM_WEAPON",
    "type_sub": "WEAPON_CLAYMORE",
    "rank": 5,
    "img": "/image/game/genshin/weapon/UI_EquipIcon_Claymore_EmeraldSword.png"
  },
  {
    "id": 13101,
    "name": "Anfängerlanze",
    "type_main": "ITEM_WEAPON",
    "type_sub": "WEAPON_POLE",
    "rank": 1,
    "img": "/image/game/genshin/weapon/UI_EquipIcon_Pole_Gewalt.png"
  },
  {
    "id": 13201,
    "name": "Eisenlanze",
    "type_main": "ITEM_WEAPON",
    "type_sub": "WEAPON_POLE",
    "rank": 2,
    "img": "/image/game/genshin/weapon/UI_EquipIcon_Pole_Rod.png"
  },
  {
    "id": 13301,
    "name": "Weiße Quaste",
    "type_main": "ITEM_WEAPON",
    "type_sub": "WEAPON_POLE",
    "rank": 3,
    "img": "/image/game/genshin/weapon/UI_EquipIcon_Pole_Ruby.png"
  },
  {
    "id": 13302,
    "name": "Hellebarde",
    "type_main": "ITEM_WEAPON",
    "type_sub": "WEAPON_POLE",
    "rank": 3,
    "img": "/image/game/genshin/weapon/UI_EquipIcon_Pole_Halberd.png"
  },
  {
    "id": 13303,
    "name": "Schwarze Quaste",
    "type_main": "ITEM_WEAPON",
    "type_sub": "WEAPON_POLE",
    "rank": 3,
    "img": "/image/game/genshin/weapon/UI_EquipIcon_Pole_Noire.png"
  },
  {
    "id": 13304,
    "name": "Fahnenmast",
    "type_main": "ITEM_WEAPON",
    "type_sub": "WEAPON_POLE",
    "rank": 3,
    "img": ""
  },
  {
    "id": 13401,
    "name": "Drachenschreck",
    "type_main": "ITEM_WEAPON",
    "type_sub": "WEAPON_POLE",
    "rank": 4,
    "img": "/image/game/genshin/weapon/UI_EquipIcon_Pole_Stardust.png"
  },
  {
    "id": 13402,
    "name": "Sternsichel-Prototyp",
    "type_main": "ITEM_WEAPON",
    "type_sub": "WEAPON_POLE",
    "rank": 4,
    "img": "/image/game/genshin/weapon/UI_EquipIcon_Pole_Proto.png"
  },
  {
    "id": 13403,
    "name": "Mondpike",
    "type_main": "ITEM_WEAPON",
    "type_sub": "WEAPON_POLE",
    "rank": 4,
    "img": "/image/game/genshin/weapon/UI_EquipIcon_Pole_Exotic.png"
  },
  {
    "id": 13404,
    "name": "Schwarzsteinlanze",
    "type_main": "ITEM_WEAPON",
    "type_sub": "WEAPON_POLE",
    "rank": 4,
    "img": "/image/game/genshin/weapon/UI_EquipIcon_Pole_Blackrock.png"
  },
  {
    "id": 13405,
    "name": "Duelllanze",
    "type_main": "ITEM_WEAPON",
    "type_sub": "WEAPON_POLE",
    "rank": 4,
    "img": "/image/game/genshin/weapon/UI_EquipIcon_Pole_Gladiator.png"
  },
  {
    "id": 13406,
    "name": "Millelithenlanze",
    "type_main": "ITEM_WEAPON",
    "type_sub": "WEAPON_POLE",
    "rank": 4,
    "img": "/image/game/genshin/weapon/UI_EquipIcon_Pole_Lapis.png"
  },
  {
    "id": 13407,
    "name": "Favonius-Lanze",
    "type_main": "ITEM_WEAPON",
    "type_sub": "WEAPON_POLE",
    "rank": 4,
    "img": "/image/game/genshin/weapon/UI_EquipIcon_Pole_Zephyrus.png"
  },
  {
    "id": 13408,
    "name": "Königlicher Jagdspeer",
    "type_main": "ITEM_WEAPON",
    "type_sub": "WEAPON_POLE",
    "rank": 4,
    "img": "/image/game/genshin/weapon/UI_EquipIcon_Pole_Theocrat.png"
  },
  {
    "id": 13409,
    "name": "Drachengratspeer",
    "type_main": "ITEM_WEAPON",
    "type_sub": "WEAPON_POLE",
    "rank": 4,
    "img": "/image/game/genshin/weapon/UI_EquipIcon_Pole_Everfrost.png"
  },
  {
    "id": 13414,
    "name": "Kitain-Kreuzlanze",
    "type_main": "ITEM_WEAPON",
    "type_sub": "WEAPON_POLE",
    "rank": 4,
    "img": "/image/game/genshin/weapon/UI_EquipIcon_Pole_Bakufu.png"
  },
  {
    "id": 13415,
    "name": "„Der Fang“",
    "type_main": "ITEM_WEAPON",
    "type_sub": "WEAPON_POLE",
    "rank": 4,
    "img": "/image/game/genshin/weapon/UI_EquipIcon_Pole_Mori.png"
  },
  {
    "id": 13416,
    "name": "Wellenbrecherflosse",
    "type_main": "ITEM_WEAPON",
    "type_sub": "WEAPON_POLE",
    "rank": 4,
    "img": "/image/game/genshin/weapon/UI_EquipIcon_Pole_Maria.png"
  },
  {
    "id": 13417,
    "name": "Monddurchbohrer",
    "type_main": "ITEM_WEAPON",
    "type_sub": "WEAPON_POLE",
    "rank": 4,
    "img": "/image/game/genshin/weapon/UI_EquipIcon_Pole_Arakalari.png"
  },
  {
    "id": 13419,
    "name": "Spitze der klingenden Winde",
    "type_main": "ITEM_WEAPON",
    "type_sub": "WEAPON_POLE",
    "rank": 4,
    "img": "/image/game/genshin/weapon/UI_EquipIcon_Pole_Windvane.png"
  },
  {
    "id": 13424,
    "name": "Ballade der Fjorde",
    "type_main": "ITEM_WEAPON",
    "type_sub": "WEAPON_POLE",
    "rank": 4,
    "img": "/image/game/genshin/weapon/UI_EquipIcon_Pole_Shanty.png"
  },
  {
    "id": 13425,
    "name": "Rechtmäßige Belohnung",
    "type_main": "ITEM_WEAPON",
    "type_sub": "WEAPON_POLE",
    "rank": 4,
    "img": "/image/game/genshin/weapon/UI_EquipIcon_Pole_Vorpal.png"
  },
  {
    "id": 13426,
    "name": "Dialoge der Weisen der Wüste",
    "type_main": "ITEM_WEAPON",
    "type_sub": "WEAPON_POLE",
    "rank": 4,
    "img": "/image/game/genshin/weapon/UI_EquipIcon_Pole_Caduceus.png"
  },
  {
    "id": 13427,
    "name": "Erkundungsbohrer",
    "type_main": "ITEM_WEAPON",
    "type_sub": "WEAPON_POLE",
    "rank": 4,
    "img": "/image/game/genshin/weapon/UI_EquipIcon_Pole_Mechanic.png"
  },
  {
    "id": 13431,
    "name": "Spuren des Regenbogens",
    "type_main": "ITEM_WEAPON",
    "type_sub": "WEAPON_POLE",
    "rank": 4,
    "img": "/image/game/genshin/weapon/UI_EquipIcon_Pole_Isikhulu.png"
  },
  {
    "id": 13501,
    "name": "Homa-Stab",
    "type_main": "ITEM_WEAPON",
    "type_sub": "WEAPON_POLE",
    "rank": 5,
    "img": "/image/game/genshin/weapon/UI_EquipIcon_Pole_Homa.png"
  },
  {
    "id": 13502,
    "name": "Himmelsgrat",
    "type_main": "ITEM_WEAPON",
    "type_sub": "WEAPON_POLE",
    "rank": 5,
    "img": "/image/game/genshin/weapon/UI_EquipIcon_Pole_Dvalin.png"
  },
  {
    "id": 13503,
    "name": "N/A",
    "type_main": "ITEM_WEAPON",
    "type_sub": "WEAPON_POLE",
    "rank": 5,
    "img": "/image/game/genshin/weapon/UI_EquipIcon_Pole_Gewalt.png"
  },
  {
    "id": 13504,
    "name": "Regenbogenstecher",
    "type_main": "ITEM_WEAPON",
    "type_sub": "WEAPON_POLE",
    "rank": 5,
    "img": "/image/game/genshin/weapon/UI_EquipIcon_Pole_Kunwu.png"
  },
  {
    "id": 13505,
    "name": "Urzeitlicher Jadespeer",
    "type_main": "ITEM_WEAPON",
    "type_sub": "WEAPON_POLE",
    "rank": 5,
    "img": "/image/game/genshin/weapon/UI_EquipIcon_Pole_Morax.png"
  },
  {
    "id": 13506,
    "name": "Göttermörder",
    "type_main": "ITEM_WEAPON",
    "type_sub": "WEAPON_POLE",
    "rank": 5,
    "img": "/image/game/genshin/weapon/UI_EquipIcon_Pole_Gewalt.png"
  },
  {
    "id": 13507,
    "name": "Ende des Unheils",
    "type_main": "ITEM_WEAPON",
    "type_sub": "WEAPON_POLE",
    "rank": 5,
    "img": "/image/game/genshin/weapon/UI_EquipIcon_Pole_Santika.png"
  },
  {
    "id": 13509,
    "name": "Grasschnittstrahl",
    "type_main": "ITEM_WEAPON",
    "type_sub": "WEAPON_POLE",
    "rank": 5,
    "img": "/image/game/genshin/weapon/UI_EquipIcon_Pole_Narukami.png"
  },
  {
    "id": 13511,
    "name": "Stab der roten Sande",
    "type_main": "ITEM_WEAPON",
    "type_sub": "WEAPON_POLE",
    "rank": 5,
    "img": "/image/game/genshin/weapon/UI_EquipIcon_Pole_Deshret.png"
  },
  {
    "id": 13512,
    "name": "Form des scharlachroten Mondes",
    "type_main": "ITEM_WEAPON",
    "type_sub": "WEAPON_POLE",
    "rank": 5,
    "img": "/image/game/genshin/weapon/UI_EquipIcon_Pole_BloodMoon.png"
  },
  {
    "id": 13513,
    "name": "Lumidouce-Elegie",
    "type_main": "ITEM_WEAPON",
    "type_sub": "WEAPON_POLE",
    "rank": 5,
    "img": "/image/game/genshin/weapon/UI_EquipIcon_Pole_Muguet.png"
  },
  {
    "id": 14101,
    "name": "Aufzeichnungen eines Lehrlings",
    "type_main": "ITEM_WEAPON",
    "type_sub": "WEAPON_CATALYST",
    "rank": 1,
    "img": "/image/game/genshin/weapon/UI_EquipIcon_Catalyst_Apprentice.png"
  },
  {
    "id": 14201,
    "name": "Taschenzauberbuch",
    "type_main": "ITEM_WEAPON",
    "type_sub": "WEAPON_CATALYST",
    "rank": 2,
    "img": "/image/game/genshin/weapon/UI_EquipIcon_Catalyst_Pocket.png"
  },
  {
    "id": 14301,
    "name": "Magieführer",
    "type_main": "ITEM_WEAPON",
    "type_sub": "WEAPON_CATALYST",
    "rank": 3,
    "img": "/image/game/genshin/weapon/UI_EquipIcon_Catalyst_Intro.png"
  },
  {
    "id": 14302,
    "name": "Von den Heldentaten der Drachenbezwinger",
    "type_main": "ITEM_WEAPON",
    "type_sub": "WEAPON_CATALYST",
    "rank": 3,
    "img": "/image/game/genshin/weapon/UI_EquipIcon_Catalyst_Pulpfic.png"
  },
  {
    "id": 14303,
    "name": "Geschichten einer anderen Welt",
    "type_main": "ITEM_WEAPON",
    "type_sub": "WEAPON_CATALYST",
    "rank": 3,
    "img": "/image/game/genshin/weapon/UI_EquipIcon_Catalyst_Lightnov.png"
  },
  {
    "id": 14304,
    "name": "Jadekugel",
    "type_main": "ITEM_WEAPON",
    "type_sub": "WEAPON_CATALYST",
    "rank": 3,
    "img": "/image/game/genshin/weapon/UI_EquipIcon_Catalyst_Jade.png"
  },
  {
    "id": 14305,
    "name": "Zwillingsnephrit",
    "type_main": "ITEM_WEAPON",
    "type_sub": "WEAPON_CATALYST",
    "rank": 3,
    "img": "/image/game/genshin/weapon/UI_EquipIcon_Catalyst_Phoney.png"
  },
  {
    "id": 14306,
    "name": "Bernsteinkatalysator",
    "type_main": "ITEM_WEAPON",
    "type_sub": "WEAPON_CATALYST",
    "rank": 3,
    "img": ""
  },
  {
    "id": 14401,
    "name": "Favonius-Kodex",
    "type_main": "ITEM_WEAPON",
    "type_sub": "WEAPON_CATALYST",
    "rank": 4,
    "img": "/image/game/genshin/weapon/UI_EquipIcon_Catalyst_Zephyrus.png"
  },
  {
    "id": 14402,
    "name": "Landstreichernoten",
    "type_main": "ITEM_WEAPON",
    "type_sub": "WEAPON_CATALYST",
    "rank": 4,
    "img": "/image/game/genshin/weapon/UI_EquipIcon_Catalyst_Troupe.png"
  },
  {
    "id": 14403,
    "name": "Opferrituale",
    "type_main": "ITEM_WEAPON",
    "type_sub": "WEAPON_CATALYST",
    "rank": 4,
    "img": "/image/game/genshin/weapon/UI_EquipIcon_Catalyst_Fossil.png"
  },
  {
    "id": 14404,
    "name": "Königliches Zauberbuch",
    "type_main": "ITEM_WEAPON",
    "type_sub": "WEAPON_CATALYST",
    "rank": 4,
    "img": "/image/game/genshin/weapon/UI_EquipIcon_Catalyst_Theocrat.png"
  },
  {
    "id": 14405,
    "name": "Sonne und Mond",
    "type_main": "ITEM_WEAPON",
    "type_sub": "WEAPON_CATALYST",
    "rank": 4,
    "img": "/image/game/genshin/weapon/UI_EquipIcon_Catalyst_Resurrection.png"
  },
  {
    "id": 14406,
    "name": "Bernstein-Prototyp",
    "type_main": "ITEM_WEAPON",
    "type_sub": "WEAPON_CATALYST",
    "rank": 4,
    "img": "/image/game/genshin/weapon/UI_EquipIcon_Catalyst_Proto.png"
  },
  {
    "id": 14407,
    "name": "Illustrationen von Landen und Wassern",
    "type_main": "ITEM_WEAPON",
    "type_sub": "WEAPON_CATALYST",
    "rank": 4,
    "img": "/image/game/genshin/weapon/UI_EquipIcon_Catalyst_Exotic.png"
  },
  {
    "id": 14408,
    "name": "Schwarzstein-Achat",
    "type_main": "ITEM_WEAPON",
    "type_sub": "WEAPON_CATALYST",
    "rank": 4,
    "img": "/image/game/genshin/weapon/UI_EquipIcon_Catalyst_Blackrock.png"
  },
  {
    "id": 14409,
    "name": "Herzensblick",
    "type_main": "ITEM_WEAPON",
    "type_sub": "WEAPON_CATALYST",
    "rank": 4,
    "img": "/image/game/genshin/weapon/UI_EquipIcon_Catalyst_Truelens.png"
  },
  {
    "id": 14410,
    "name": "Wein und Gesang in den Gassen",
    "type_main": "ITEM_WEAPON",
    "type_sub": "WEAPON_CATALYST",
    "rank": 4,
    "img": "/image/game/genshin/weapon/UI_EquipIcon_Catalyst_Outlaw.png"
  },
  {
    "id": 14411,
    "name": "N/A",
    "type_main": "ITEM_WEAPON",
    "type_sub": "WEAPON_CATALYST",
    "rank": 4,
    "img": "/image/game/genshin/weapon/UI_EquipIcon_Catalyst_Apprentice.png"
  },
  {
    "id": 14412,
    "name": "Permafrostfrucht",
    "type_main": "ITEM_WEAPON",
    "type_sub": "WEAPON_CATALYST",
    "rank": 4,
    "img": "/image/game/genshin/weapon/UI_EquipIcon_Catalyst_Everfrost.png"
  },
  {
    "id": 14413,
    "name": "Dodoco-Geschichten",
    "type_main": "ITEM_WEAPON",
    "type_sub": "WEAPON_CATALYST",
    "rank": 4,
    "img": "/image/game/genshin/weapon/UI_EquipIcon_Catalyst_Ludiharpastum.png"
  },
  {
    "id": 14414,
    "name": "Hakushin-Ring",
    "type_main": "ITEM_WEAPON",
    "type_sub": "WEAPON_CATALYST",
    "rank": 4,
    "img": "/image/game/genshin/weapon/UI_EquipIcon_Catalyst_Bakufu.png"
  },
  {
    "id": 14415,
    "name": "Auge des Gelöbnisses",
    "type_main": "ITEM_WEAPON",
    "type_sub": "WEAPON_CATALYST",
    "rank": 4,
    "img": "/image/game/genshin/weapon/UI_EquipIcon_Catalyst_Jyanome.png"
  },
  {
    "id": 14416,
    "name": "Wandernder Abendstern",
    "type_main": "ITEM_WEAPON",
    "type_sub": "WEAPON_CATALYST",
    "rank": 4,
    "img": "/image/game/genshin/weapon/UI_EquipIcon_Catalyst_Pleroma.png"
  },
  {
    "id": 14417,
    "name": "Vollmondfrucht",
    "type_main": "ITEM_WEAPON",
    "type_sub": "WEAPON_CATALYST",
    "rank": 4,
    "img": "/image/game/genshin/weapon/UI_EquipIcon_Catalyst_Arakalari.png"
  },
  {
    "id": 14424,
    "name": "Zeremonielle Jade",
    "type_main": "ITEM_WEAPON",
    "type_sub": "WEAPON_CATALYST",
    "rank": 4,
    "img": "/image/game/genshin/weapon/UI_EquipIcon_Catalyst_Yue.png"
  },
  {
    "id": 14425,
    "name": "Fließende Reinheit",
    "type_main": "ITEM_WEAPON",
    "type_sub": "WEAPON_CATALYST",
    "rank": 4,
    "img": "/image/game/genshin/weapon/UI_EquipIcon_Catalyst_Vorpal.png"
  },
  {
    "id": 14426,
    "name": "Ballade des unendlichen Blaus",
    "type_main": "ITEM_WEAPON",
    "type_sub": "WEAPON_CATALYST",
    "rank": 4,
    "img": "/image/game/genshin/weapon/UI_EquipIcon_Catalyst_DandelionPoem.png"
  },
  {
    "id": 14427,
    "name": "Aschgraues Trinkhorn",
    "type_main": "ITEM_WEAPON",
    "type_sub": "WEAPON_CATALYST",
    "rank": 4,
    "img": "/image/game/genshin/weapon/UI_EquipIcon_Catalyst_ConchSprayer.png"
  },
  {
    "id": 14431,
    "name": "Yaxche-Ring",
    "type_main": "ITEM_WEAPON",
    "type_sub": "WEAPON_CATALYST",
    "rank": 4,
    "img": "/image/game/genshin/weapon/UI_EquipIcon_Catalyst_Isikhulu.png"
  },
  {
    "id": 14501,
    "name": "Himmelsatlas",
    "type_main": "ITEM_WEAPON",
    "type_sub": "WEAPON_CATALYST",
    "rank": 5,
    "img": "/image/game/genshin/weapon/UI_EquipIcon_Catalyst_Dvalin.png"
  },
  {
    "id": 14502,
    "name": "Gebete der Vier Winde",
    "type_main": "ITEM_WEAPON",
    "type_sub": "WEAPON_CATALYST",
    "rank": 5,
    "img": "/image/game/genshin/weapon/UI_EquipIcon_Catalyst_Fourwinds.png"
  },
  {
    "id": 14503,
    "name": "Ballade des Verlusts",
    "type_main": "ITEM_WEAPON",
    "type_sub": "WEAPON_CATALYST",
    "rank": 5,
    "img": "/image/game/genshin/weapon/UI_EquipIcon_Catalyst_Apprentice.png"
  },
  {
    "id": 14504,
    "name": "Ketten des Diesseits",
    "type_main": "ITEM_WEAPON",
    "type_sub": "WEAPON_CATALYST",
    "rank": 5,
    "img": "/image/game/genshin/weapon/UI_EquipIcon_Catalyst_Kunwu.png"
  },
  {
    "id": 14505,
    "name": "Jadesturz-Pracht",
    "type_main": "ITEM_WEAPON",
    "type_sub": "WEAPON_CATALYST",
    "rank": 5,
    "img": "/image/game/genshin/weapon/UI_EquipIcon_Catalyst_Morax.png"
  },
  {
    "id": 14506,
    "name": "Ewiger Mondschein",
    "type_main": "ITEM_WEAPON",
    "type_sub": "WEAPON_CATALYST",
    "rank": 5,
    "img": "/image/game/genshin/weapon/UI_EquipIcon_Catalyst_Kaleido.png"
  },
  {
    "id": 14508,
    "name": "N/A",
    "type_main": "ITEM_WEAPON",
    "type_sub": "WEAPON_CATALYST",
    "rank": 5,
    "img": "/image/game/genshin/weapon/UI_EquipIcon_Catalyst_Apprentice.png"
  },
  {
    "id": 14509,
    "name": "Kaguras Wahrheit",
    "type_main": "ITEM_WEAPON",
    "type_sub": "WEAPON_CATALYST",
    "rank": 5,
    "img": "/image/game/genshin/weapon/UI_EquipIcon_Catalyst_Narukami.png"
  },
  {
    "id": 14511,
    "name": "Fließende Träume von tausend Nächten",
    "type_main": "ITEM_WEAPON",
    "type_sub": "WEAPON_CATALYST",
    "rank": 5,
    "img": "/image/game/genshin/weapon/UI_EquipIcon_Catalyst_Ayus.png"
  },
  {
    "id": 14512,
    "name": "Tulaytullahs Erinnerung",
    "type_main": "ITEM_WEAPON",
    "type_sub": "WEAPON_CATALYST",
    "rank": 5,
    "img": "/image/game/genshin/weapon/UI_EquipIcon_Catalyst_Alaya.png"
  },
  {
    "id": 14513,
    "name": "Monetäre Aufsichtseinheit",
    "type_main": "ITEM_WEAPON",
    "type_sub": "WEAPON_CATALYST",
    "rank": 5,
    "img": "/image/game/genshin/weapon/UI_EquipIcon_Catalyst_Wheatley.png"
  },
  {
    "id": 14514,
    "name": "Lehre des ewigen Flusses",
    "type_main": "ITEM_WEAPON",
    "type_sub": "WEAPON_CATALYST",
    "rank": 5,
    "img": "/image/game/genshin/weapon/UI_EquipIcon_Catalyst_Iudex.png"
  },
  {
    "id": 14515,
    "name": "Widerhallender Ruf des Kranichs",
    "type_main": "ITEM_WEAPON",
    "type_sub": "WEAPON_CATALYST",
    "rank": 5,
    "img": "/image/game/genshin/weapon/UI_EquipIcon_Catalyst_MountainGale.png"
  },
  {
    "id": 14516,
    "name": "Zeit fürs Wellenreiten",
    "type_main": "ITEM_WEAPON",
    "type_sub": "WEAPON_CATALYST",
    "rank": 5,
    "img": "/image/game/genshin/weapon/UI_EquipIcon_Catalyst_MechaPufferfish.png"
  },
  {
    "id": 15101,
    "name": "Jagdbogen",
    "type_main": "ITEM_WEAPON",
    "type_sub": "WEAPON_BOW",
    "rank": 1,
    "img": "/image/game/genshin/weapon/UI_EquipIcon_Bow_Hunters.png"
  },
  {
    "id": 15201,
    "name": "Alter Jagdbogen",
    "type_main": "ITEM_WEAPON",
    "type_sub": "WEAPON_BOW",
    "rank": 2,
    "img": "/image/game/genshin/weapon/UI_EquipIcon_Bow_Old.png"
  },
  {
    "id": 15301,
    "name": "Rabenbogen",
    "type_main": "ITEM_WEAPON",
    "type_sub": "WEAPON_BOW",
    "rank": 3,
    "img": "/image/game/genshin/weapon/UI_EquipIcon_Bow_Crowfeather.png"
  },
  {
    "id": 15302,
    "name": "Eid des Scharfschützen",
    "type_main": "ITEM_WEAPON",
    "type_sub": "WEAPON_BOW",
    "rank": 3,
    "img": "/image/game/genshin/weapon/UI_EquipIcon_Bow_Arjuna.png"
  },
  {
    "id": 15303,
    "name": "Reflexbogen",
    "type_main": "ITEM_WEAPON",
    "type_sub": "WEAPON_BOW",
    "rank": 3,
    "img": "/image/game/genshin/weapon/UI_EquipIcon_Bow_Curve.png"
  },
  {
    "id": 15304,
    "name": "Steinschleuder",
    "type_main": "ITEM_WEAPON",
    "type_sub": "WEAPON_BOW",
    "rank": 3,
    "img": "/image/game/genshin/weapon/UI_EquipIcon_Bow_Sling.png"
  },
  {
    "id": 15305,
    "name": "Überbringer",
    "type_main": "ITEM_WEAPON",
    "type_sub": "WEAPON_BOW",
    "rank": 3,
    "img": "/image/game/genshin/weapon/UI_EquipIcon_Bow_Msg.png"
  },
  {
    "id": 15306,
    "name": "Ebenholzbogen",
    "type_main": "ITEM_WEAPON",
    "type_sub": "WEAPON_BOW",
    "rank": 3,
    "img": ""
  },
  {
    "id": 15401,
    "name": "Favonius-Jagdbogen",
    "type_main": "ITEM_WEAPON",
    "type_sub": "WEAPON_BOW",
    "rank": 4,
    "img": "/image/game/genshin/weapon/UI_EquipIcon_Bow_Zephyrus.png"
  },
  {
    "id": 15402,
    "name": "Der Sehnenlose",
    "type_main": "ITEM_WEAPON",
    "type_sub": "WEAPON_BOW",
    "rank": 4,
    "img": "/image/game/genshin/weapon/UI_EquipIcon_Bow_Troupe.png"
  },
  {
    "id": 15403,
    "name": "Opferbogen",
    "type_main": "ITEM_WEAPON",
    "type_sub": "WEAPON_BOW",
    "rank": 4,
    "img": "/image/game/genshin/weapon/UI_EquipIcon_Bow_Fossil.png"
  },
  {
    "id": 15404,
    "name": "Königlicher Langbogen",
    "type_main": "ITEM_WEAPON",
    "type_sub": "WEAPON_BOW",
    "rank": 4,
    "img": "/image/game/genshin/weapon/UI_EquipIcon_Bow_Theocrat.png"
  },
  {
    "id": 15405,
    "name": "Rostiger Bogen",
    "type_main": "ITEM_WEAPON",
    "type_sub": "WEAPON_BOW",
    "rank": 4,
    "img": "/image/game/genshin/weapon/UI_EquipIcon_Bow_Recluse.png"
  },
  {
    "id": 15406,
    "name": "Mondschein-Prototyp",
    "type_main": "ITEM_WEAPON",
    "type_sub": "WEAPON_BOW",
    "rank": 4,
    "img": "/image/game/genshin/weapon/UI_EquipIcon_Bow_Proto.png"
  },
  {
    "id": 15407,
    "name": "Compoundbogen",
    "type_main": "ITEM_WEAPON",
    "type_sub": "WEAPON_BOW",
    "rank": 4,
    "img": "/image/game/genshin/weapon/UI_EquipIcon_Bow_Exotic.png"
  },
  {
    "id": 15408,
    "name": "Schwarzstein-Kriegsbogen",
    "type_main": "ITEM_WEAPON",
    "type_sub": "WEAPON_BOW",
    "rank": 4,
    "img": "/image/game/genshin/weapon/UI_EquipIcon_Bow_Blackrock.png"
  },
  {
    "id": 15409,
    "name": "Grasgrüner Jagdbogen",
    "type_main": "ITEM_WEAPON",
    "type_sub": "WEAPON_BOW",
    "rank": 4,
    "img": "/image/game/genshin/weapon/UI_EquipIcon_Bow_Viridescent.png"
  },
  {
    "id": 15410,
    "name": "Gassenjäger",
    "type_main": "ITEM_WEAPON",
    "type_sub": "WEAPON_BOW",
    "rank": 4,
    "img": "/image/game/genshin/weapon/UI_EquipIcon_Bow_Outlaw.png"
  },
  {
    "id": 15411,
    "name": "Ausklingende Dämmerung",
    "type_main": "ITEM_WEAPON",
    "type_sub": "WEAPON_BOW",
    "rank": 4,
    "img": "/image/game/genshin/weapon/UI_EquipIcon_Bow_Fallensun.png"
  },
  {
    "id": 15412,
    "name": "Mitternachtswalzer",
    "type_main": "ITEM_WEAPON",
    "type_sub": "WEAPON_BOW",
    "rank": 4,
    "img": "/image/game/genshin/weapon/UI_EquipIcon_Bow_Nachtblind.png"
  },
  {
    "id": 15413,
    "name": "Windblumenode",
    "type_main": "ITEM_WEAPON",
    "type_sub": "WEAPON_BOW",
    "rank": 4,
    "img": "/image/game/genshin/weapon/UI_EquipIcon_Bow_Fleurfair.png"
  },
  {
    "id": 15414,
    "name": "Hamayumi",
    "type_main": "ITEM_WEAPON",
    "type_sub": "WEAPON_BOW",
    "rank": 4,
    "img": "/image/game/genshin/weapon/UI_EquipIcon_Bow_Bakufu.png"
  },
  {
    "id": 15415,
    "name": "Raubtier",
    "type_main": "ITEM_WEAPON",
    "type_sub": "WEAPON_BOW",
    "rank": 4,
    "img": "/image/game/genshin/weapon/UI_EquipIcon_Bow_Predator.png"
  },
  {
    "id": 15416,
    "name": "Mouun-Mond",
    "type_main": "ITEM_WEAPON",
    "type_sub": "WEAPON_BOW",
    "rank": 4,
    "img": "/image/game/genshin/weapon/UI_EquipIcon_Bow_Maria.png"
  },
  {
    "id": 15417,
    "name": "Gefolgsfrau des Königs",
    "type_main": "ITEM_WEAPON",
    "type_sub": "WEAPON_BOW",
    "rank": 4,
    "img": "/image/game/genshin/weapon/UI_EquipIcon_Bow_Arakalari.png"
  },
  {
    "id": 15418,
    "name": "Schwertfischer",
    "type_main": "ITEM_WEAPON",
    "type_sub": "WEAPON_BOW",
    "rank": 4,
    "img": "/image/game/genshin/weapon/UI_EquipIcon_Bow_Fin.png"
  },
  {
    "id": 15419,
    "name": "Durchdringer der Ibisse",
    "type_main": "ITEM_WEAPON",
    "type_sub": "WEAPON_BOW",
    "rank": 4,
    "img": "/image/game/genshin/weapon/UI_EquipIcon_Bow_Ibis.png"
  },
  {
    "id": 15424,
    "name": "Spross der flammenden Sonne",
    "type_main": "ITEM_WEAPON",
    "type_sub": "WEAPON_BOW",
    "rank": 4,
    "img": "/image/game/genshin/weapon/UI_EquipIcon_Bow_Gurabad.png"
  },
  {
    "id": 15425,
    "name": "Gesang der Stille",
    "type_main": "ITEM_WEAPON",
    "type_sub": "WEAPON_BOW",
    "rank": 4,
    "img": "/image/game/genshin/weapon/UI_EquipIcon_Bow_Vorpal.png"
  },
  {
    "id": 15426,
    "name": "Wolkenweber",
    "type_main": "ITEM_WEAPON",
    "type_sub": "WEAPON_BOW",
    "rank": 4,
    "img": "/image/game/genshin/weapon/UI_EquipIcon_Bow_Ultimatum.png"
  },
  {
    "id": 15427,
    "name": "Entfernungsmesser",
    "type_main": "ITEM_WEAPON",
    "type_sub": "WEAPON_BOW",
    "rank": 4,
    "img": "/image/game/genshin/weapon/UI_EquipIcon_Bow_Mechanic.png"
  },
  {
    "id": 15431,
    "name": "Zersprungene Ketten",
    "type_main": "ITEM_WEAPON",
    "type_sub": "WEAPON_BOW",
    "rank": 4,
    "img": "/image/game/genshin/weapon/UI_EquipIcon_Bow_Isikhulu.png"
  },
  {
    "id": 15501,
    "name": "Himmelsflügel",
    "type_main": "ITEM_WEAPON",
    "type_sub": "WEAPON_BOW",
    "rank": 5,
    "img": "/image/game/genshin/weapon/UI_EquipIcon_Bow_Dvalin.png"
  },
  {
    "id": 15502,
    "name": "Amos’ Bogen",
    "type_main": "ITEM_WEAPON",
    "type_sub": "WEAPON_BOW",
    "rank": 5,
    "img": "/image/game/genshin/weapon/UI_EquipIcon_Bow_Amos.png"
  },
  {
    "id": 15503,
    "name": "Letzter Seufzer",
    "type_main": "ITEM_WEAPON",
    "type_sub": "WEAPON_BOW",
    "rank": 5,
    "img": "/image/game/genshin/weapon/UI_EquipIcon_Bow_Widsith.png"
  },
  {
    "id": 15504,
    "name": "Kunwus Drachenschlächter",
    "type_main": "ITEM_WEAPON",
    "type_sub": "WEAPON_BOW",
    "rank": 5,
    "img": "/image/game/genshin/weapon/UI_EquipIcon_Bow_Hunters.png"
  },
  {
    "id": 15505,
    "name": "Urzeitlicher Jadebogen",
    "type_main": "ITEM_WEAPON",
    "type_sub": "WEAPON_BOW",
    "rank": 5,
    "img": "/image/game/genshin/weapon/UI_EquipIcon_Bow_Hunters.png"
  },
  {
    "id": 15506,
    "name": "Zerbrochener Spiegel",
    "type_main": "ITEM_WEAPON",
    "type_sub": "WEAPON_BOW",
    "rank": 5,
    "img": "/image/game/genshin/weapon/UI_EquipIcon_Bow_Hunters.png"
  },
  {
    "id": 15507,
    "name": "Polarstern",
    "type_main": "ITEM_WEAPON",
    "type_sub": "WEAPON_BOW",
    "rank": 5,
    "img": "/image/game/genshin/weapon/UI_EquipIcon_Bow_Worldbane.png"
  },
  {
    "id": 15508,
    "name": "Aqua Simulacra",
    "type_main": "ITEM_WEAPON",
    "type_sub": "WEAPON_BOW",
    "rank": 5,
    "img": "/image/game/genshin/weapon/UI_EquipIcon_Bow_Kirin.png"
  },
  {
    "id": 15509,
    "name": "Donnerpuls",
    "type_main": "ITEM_WEAPON",
    "type_sub": "WEAPON_BOW",
    "rank": 5,
    "img": "/image/game/genshin/weapon/UI_EquipIcon_Bow_Narukami.png"
  },
  {
    "id": 15511,
    "name": "Pfad des Jägers",
    "type_main": "ITEM_WEAPON",
    "type_sub": "WEAPON_BOW",
    "rank": 5,
    "img": "/image/game/genshin/weapon/UI_EquipIcon_Bow_Ayus.png"
  },
  {
    "id": 15512,
    "name": "Erste große Magie",
    "type_main": "ITEM_WEAPON",
    "type_sub": "WEAPON_BOW",
    "rank": 5,
    "img": "/image/game/genshin/weapon/UI_EquipIcon_Bow_Pledge.png"
  },
  {
    "id": 15513,
    "name": "Tröpfelnde Herzsaiten",
    "type_main": "ITEM_WEAPON",
    "type_sub": "WEAPON_BOW",
    "rank": 5,
    "img": "/image/game/genshin/weapon/UI_EquipIcon_Bow_Arcdange.png"
  }
]