[
  {
    "Default": {
      "$type": "ConfigAbility",
      "abilityName": "Animal_Squirrel_AIStateInitial",
      "abilityMixins": [
        {
          "$type": "EAKJOFAIAPH",
          "poseIDs": [1],
          "enterActions": [
            {
              "$type": "DOANGHCALGB",
              "skillIDs": [103, 202]
            }
          ]
        },
        {
          "$type": "EAKJOFAIAPH",
          "poseIDs": [2],
          "enterActions": [
            {
              "$type": "DOANGHCALGB",
              "skillIDs": [101, 102, 201]
            }
          ]
        }
      ]
    }
  },
  {
    "Default": {
      "$type": "ConfigAbility",
      "abilityName": "Animal_Squirrel_IntoWander",
      "onAbilityStart": [
        {
          "$type": "IDNGFEEBPAM",
          "boolID": "WanderState",
          "value": true
        }
      ]
    }
  },
  {
    "Default": {
      "$type": "ConfigAbility",
      "abilityName": "Animal_Squirrel_IntoIdle",
      "onAbilityStart": [
        {
          "$type": "IDNGFEEBPAM",
          "boolID": "WanderState"
        }
      ]
    }
  },
  {
    "Default": {
      "$type": "ConfigAbility",
      "abilityName": "Animal_Squirrel_Random",
      "abilityMixins": [
        {
          "$type": "AttachToAnimatorStateIDMixin",
          "stateIDs": ["Run", "Disappear"],
          "modifierName": "Random_MoveSpeedRatio",
          "DGFCLAIDIFI": ""
        }
      ],
      "abilitySpecials": {
        "RandomSpeed": 0.0
      },
      "modifiers": {
        "Random_MoveSpeedRatio": {
          "modifierName": "",
          "elementDurability": 100.0,
          "properties": {
            "Animator_MoveSpeedRatio": "RandomSpeed"
          }
        }
      },
      "onAdded": [
        {
          "$type": "SetRandomOverrideMapValue",
          "valueRangeMax": 0.15000000596046448,
          "valueRangeMin": -0.15000000596046448,
          "overrideMapKey": "RandomSpeed"
        }
      ]
    }
  },
  {
    "Default": {
      "$type": "ConfigAbility",
      "abilityName": "Animal_Squirrel_Disappear",
      "abilityMixins": [
        {
          "$type": "AttachToAnimatorStateIDMixin",
          "stateIDs": ["Disappear"],
          "modifierName": "DisappearTimer",
          "DGFCLAIDIFI": ""
        }
      ],
      "modifiers": {
        "DisappearTimer": {
          "modifierName": "",
          "elementDurability": 100.0,
          "onAdded": [
            {
              "$type": "AKIIMECIGKE",
              "duration": 2.0
            },
            {
              "$type": "SetAnimatorBool",
              "boolID": "Disappear",
              "value": true
            },
            {
              "$type": "KillSelf",
              "duration": 1.5,
              "killSelfType": "Disappear",
              "value": true,
              "banExp": true
            }
          ]
        }
      }
    }
  }
]
