[
  {
    "Default": {
      "$type": "ConfigAbility",
      "abilityName": "Animal_Goat_StateChange",
      "abilityMixins": [
        {
          "$type": "AOKOIIHJJPJ",
          "alertness": [2],
          "modifierName": "SetPoseFalse"
        }
      ],
      "modifiers": {
        "SetPoseFalse": {
          "modifierName": "",
          "elementDurability": 100.0,
          "onAdded": [
            {
              "$type": "IDNGFEEBPAM",
              "boolID": "LookAround"
            },
            {
              "$type": "IDNGFEEBPAM",
              "boolID": "Stretch"
            },
            {
              "$type": "IDNGFEEBPAM",
              "boolID": "AlertCrush"
            },
            {
              "$type": "HBNEMPLJCMB"
            }
          ]
        }
      }
    }
  },
  {
    "Default": {
      "$type": "ConfigAbility",
      "abilityName": "Animal_Goat_Random",
      "abilityMixins": [
        {
          "$type": "AttachToAnimatorStateIDMixin",
          "stateIDs": ["Personality_103_BS"],
          "modifierName": "Random_MoveSpeedRatio",
          "DGFCLAIDIFI": ""
        }
      ],
      "abilitySpecials": {
        "RandomTimes": 0.0
      },
      "modifiers": {
        "Random_MoveSpeedRatio": {
          "modifierName": "",
          "elementDurability": 100.0,
          "onAdded": [
            {
              "$type": "SetRandomOverrideMapValue",
              "valueRangeMax": 4.0,
              "valueRangeMin": 2.0,
              "overrideMapKey": "RandomTimes"
            },
            {
              "$type": "SetAnimatorInt",
              "intID": "LoopTimes",
              "value": "RandomTimes"
            }
          ]
        }
      }
    }
  },
  {
    "Default": {
      "$type": "ConfigAbility",
      "abilityName": "Animal_Goat_Disappear",
      "abilityMixins": [
        {
          "$type": "AttachToAnimatorStateIDMixin",
          "stateIDs": ["Disappear"],
          "modifierName": "DisappearTimer",
          "DGFCLAIDIFI": ""
        }
      ],
      "modifiers": {
        "DisappearTimer": {
          "modifierName": "",
          "elementDurability": 100.0,
          "onAdded": [
            {
              "$type": "AKIIMECIGKE",
              "duration": 3.0
            },
            {
              "$type": "HBNEMPLJCMB",
              "hide": true
            },
            {
              "$type": "SetAnimatorBool",
              "boolID": "Disappear",
              "value": true
            },
            {
              "$type": "KillSelf",
              "duration": 1.5,
              "killSelfType": "Disappear",
              "value": true,
              "banExp": true
            }
          ]
        }
      }
    }
  },
  {
    "Default": {
      "$type": "ConfigAbility",
      "abilityName": "Animal_Goat_FleeMode",
      "abilityMixins": [
        {
          "$type": "LEOGLBFIELL",
          "poseIDs": [1, 2],
          "modifierName": "FleeMode_Monitor"
        }
      ],
      "modifiers": {
        "FleeMode_Monitor": {
          "modifierName": "",
          "elementDurability": 100.0,
          "onAdded": [
            {
              "$type": "IDNGFEEBPAM",
              "boolID": "FleeMode",
              "value": true
            }
          ],
          "onBeingHit": [
            {
              "$type": "IDNGFEEBPAM",
              "boolID": "FleeMode"
            },
            {
              "$type": "Predicated",
              "target": "Target",
              "targetPredicates": [
                {
                  "$type": "ByTargetPositionToSelfPosition",
                  "logic": "GreaterOrEqual",
                  "value": 5.0,
                  "DDALGNLEHOD": ""
                }
              ],
              "successActions": [
                {
                  "$type": "IDNGFEEBPAM",
                  "boolID": "FleeMode",
                  "value": true
                }
              ]
            },
            {
              "$type": "Predicated",
              "target": "TargetOriginOwner",
              "targetPredicates": [
                {
                  "$type": "ByTargetPositionToSelfPosition",
                  "logic": "GreaterOrEqual",
                  "value": 5.0,
                  "DDALGNLEHOD": ""
                }
              ],
              "successActions": [
                {
                  "$type": "IDNGFEEBPAM",
                  "boolID": "FleeMode",
                  "value": true
                }
              ]
            },
            {
              "$type": "IDNGFEEBPAM",
              "boolID": "HitFlag",
              "value": true
            }
          ]
        }
      }
    }
  },
  {
    "Default": {
      "$type": "ConfigAbility",
      "abilityName": "Animal_Goat_CrushAtk",
      "abilityMixins": [
        {
          "$type": "IILHMBGONGM",
          "steerStateIDs": ["CrushAtk"],
          "startNormalizedTime": 0.07999999821186066,
          "endNormalizedTime": 0.6169999837875366,
          "angularSpeed": 180.0,
          "attackTrigger": "",
          "attackDistance": 1.5,
          "DGFCLAIDIFI": ""
        },
        {
          "$type": "IILHMBGONGM",
          "steerStateIDs": ["AlertCrush_BS"],
          "startNormalizedTime": 0.23999999463558197,
          "endNormalizedTime": 0.550000011920929,
          "angularSpeed": 180.0,
          "attackTrigger": "",
          "attackDistance": 1.5,
          "DGFCLAIDIFI": ""
        },
        {
          "$type": "AttachToAnimatorStateIDMixin",
          "stateIDs": ["AlertCrush_Loop"],
          "modifierName": "AlertCrush_TargetMonitor",
          "DGFCLAIDIFI": ""
        }
      ],
      "modifiers": {
        "AlertCrush_TargetMonitor": {
          "modifierName": "",
          "elementDurability": 100.0,
          "thinkInterval": 0.30000001192092896,
          "onRemoved": [
            {
              "$type": "IDNGFEEBPAM",
              "boolID": "FleeMode",
              "value": true
            }
          ],
          "onThinkInterval": [
            {
              "$type": "SetAnimatorTrigger",
              "predicates": [
                {
                  "$type": "ByTargetPositionToSelfPosition",
                  "target": "SelfAttackTarget",
                  "logic": "LesserOrEqual",
                  "value": 6.0,
                  "DDALGNLEHOD": ""
                }
              ],
              "triggerID": "AlertCrush"
            }
          ]
        }
      },
      "onAbilityStart": [
        {
          "$type": "TriggerAttackEvent",
          "attackEvent": {
            "attackPattern": {
              "$type": "ConfigAttackBox",
              "triggerType": "TriggerNoRepeat",
              "born": {
                "$type": "ConfigBornBySelf",
                "offset": {
                  "x": 0.0,
                  "y": 0.5,
                  "z": 0.0
                },
                "useRotation": true
              },
              "size": {
                "x": 1.5,
                "y": 2.0,
                "z": 2.5
              }
            },
            "attackInfo": {
              "attackTag": "",
              "attenuationTag": "",
              "attenuationGroup": "default",
              "attackProperty": {
                "actorGrassSubHurtDelta": 1.0,
                "actorWindSubHurtDelta": 0.0,
                "elementDurability": 100.0,
                "strikeType": "Blunt",
                "enBreak": 1000.0,
                "GLKMCMDJBIK": 0.0
              },
              "hitPattern": {
                "onHitEffectName": "default",
                "hitImpulseY": "",
                "hitImpulseType": "LV4",
                "canBeDefenceHalt": true
              }
            }
          },
          "targetType": "Enemy"
        },
        {
          "$type": "IDNGFEEBPAM",
          "boolID": "FleeMode",
          "value": true
        }
      ]
    }
  }
]
