[
  {
    "Default": {
      "$type": "ConfigAbility",
      "abilityName": "Animal_Pigeon_Beak_Signal_Controller",
      "abilityMixins": [
        {
          "$type": "APJKOLPHCGH",
          "stateIDs": [
            "Signal_Ayus_5s",
            "Signal_Deshret_6_25s",
            "Signal_Sarva_5_5s",
            "Signal_Dawon_6_25s",
            "Signal_miHoYo_8_5s"
          ],
          "enterActions": [
            {
              "$type": "SetAnimatorTrigger",
              "triggerID": "StartSignal",
              "mpTriggerOnRemote": true
            }
          ],
          "DGFCLAIDIFI": ""
        },
        {
          "$type": "AttachToStateIDMixin",
          "stateIDs": ["Signal_Ayus_5s"],
          "modifierName": "Signal_Ayus_Sfx",
          "DGFCLAIDIFI": ""
        },
        {
          "$type": "AttachToStateIDMixin",
          "stateIDs": ["Signal_Deshret_6_25s"],
          "modifierName": "Signal_Deshret_Sfx",
          "DGFCLAIDIFI": ""
        },
        {
          "$type": "AttachToStateIDMixin",
          "stateIDs": ["Signal_Sarva_5_5s"],
          "modifierName": "Signal_Sarva_Sfx",
          "DGFCLAIDIFI": ""
        },
        {
          "$type": "AttachToStateIDMixin",
          "stateIDs": ["Signal_Dawon_6_25s"],
          "modifierName": "Signal_Dawon_Sfx",
          "DGFCLAIDIFI": ""
        },
        {
          "$type": "AttachToStateIDMixin",
          "stateIDs": ["Signal_miHoYo_8_5s"],
          "modifierName": "Signal_miHoYo_Sfx",
          "DGFCLAIDIFI": ""
        }
      ],
      "modifiers": {
        "Signal_Ayus_Sfx": {
          "modifierName": "",
          "elementDurability": 100.0,
          "onAdded": [
            {
              "$type": "AttachEffect",
              "rotationDampTime": "Eff_Animal_Pigeon_Beak_Signal_Ayus",
              "PPPDJGDDOGD": 1.0,
              "AJDILHJFNKE": -1.0
            }
          ]
        },
        "Signal_Deshret_Sfx": {
          "modifierName": "",
          "elementDurability": 100.0,
          "onAdded": [
            {
              "$type": "AttachEffect",
              "rotationDampTime": "Eff_Animal_Pigeon_Beak_Signal_Deshret",
              "PPPDJGDDOGD": 1.0,
              "AJDILHJFNKE": -1.0
            }
          ]
        },
        "Signal_Sarva_Sfx": {
          "modifierName": "",
          "elementDurability": 100.0,
          "onAdded": [
            {
              "$type": "AttachEffect",
              "rotationDampTime": "Eff_Animal_Pigeon_Beak_Signal_Sarva",
              "PPPDJGDDOGD": 1.0,
              "AJDILHJFNKE": -1.0
            }
          ]
        },
        "Signal_Dawon_Sfx": {
          "modifierName": "",
          "elementDurability": 100.0,
          "onAdded": [
            {
              "$type": "AttachEffect",
              "rotationDampTime": "Eff_Animal_Pigeon_Beak_Signal_Dawon",
              "PPPDJGDDOGD": 1.0,
              "AJDILHJFNKE": -1.0
            }
          ]
        },
        "Signal_miHoYo_Sfx": {
          "modifierName": "",
          "elementDurability": 100.0,
          "onAdded": [
            {
              "$type": "AttachEffect",
              "rotationDampTime": "Eff_Animal_Pigeon_Beak_Signal_Mihoyo",
              "PPPDJGDDOGD": 1.0,
              "AJDILHJFNKE": -1.0
            }
          ]
        }
      }
    }
  },
  {
    "Default": {
      "$type": "ConfigAbility",
      "abilityName": "Animal_Pigeon_Beak_AwareManager",
      "abilityMixins": [
        {
          "$type": "IILHMBGONGM",
          "steerStateIDs": ["Aware"],
          "startNormalizedTime": 0.15399999916553497,
          "endNormalizedTime": 0.8690000176429749,
          "angularSpeed": 460.0,
          "attackTrigger": "",
          "facingTargetTypes": ["AwakeTarget"],
          "DGFCLAIDIFI": ""
        },
        {
          "$type": "IILHMBGONGM",
          "steerStateIDs": [
            "Joy",
            "Signal_Ayus_5s",
            "Signal_Deshret_6_25s",
            "Signal_Sarva_5_5s",
            "Signal_Dawon_6_25s",
            "Signal_miHoYo_8_5s"
          ],
          "startNormalizedTime": 0.15399999916553497,
          "endNormalizedTime": 0.8690000176429749,
          "angularSpeed": 250.0,
          "attackTrigger": "",
          "facingTargetTypes": ["AwakeTarget", "AttackTarget"],
          "DGFCLAIDIFI": ""
        }
      ]
    }
  },
  {
    "Default": {
      "$type": "ConfigAbility",
      "abilityName": "Animal_Pigeon_Beak_AIStateInitial",
      "abilityMixins": [
        {
          "$type": "EAKJOFAIAPH",
          "poseIDs": [1],
          "enterActions": [
            {
              "$type": "DOANGHCALGB",
              "skillIDs": [202]
            }
          ]
        },
        {
          "$type": "EAKJOFAIAPH",
          "poseIDs": [2],
          "enterActions": [
            {
              "$type": "DOANGHCALGB",
              "skillIDs": [301, 302, 104, 201]
            }
          ]
        }
      ]
    }
  }
]
