[
  {
    "Default": {
      "$type": "ConfigAbility",
      "abilityName": "Animal_Bird_Small_Random",
      "abilityMixins": [
        {
          "$type": "AttachToAnimatorStateIDMixin",
          "stateIDs": ["FlyDown", "TakeOff", "FlyUp", "Disappear"],
          "modifierName": "Random_MoveSpeedRatio",
          "DGFCLAIDIFI": ""
        }
      ],
      "abilitySpecials": {
        "RandomSpeed": 0.0
      },
      "modifiers": {
        "Random_MoveSpeedRatio": {
          "modifierName": "",
          "elementDurability": 100.0,
          "properties": {
            "Animator_MoveSpeedRatio": "RandomSpeed"
          }
        }
      },
      "onAdded": [
        {
          "$type": "SetRandomOverrideMapValue",
          "valueRangeMax": 0.10000000149011612,
          "valueRangeMin": -0.10000000149011612,
          "overrideMapKey": "RandomSpeed"
        }
      ]
    }
  },
  {
    "Default": {
      "$type": "ConfigAbility",
      "abilityName": "Animal_Bird_Small_FlyDown",
      "abilityMixins": [
        {
          "$type": "AttachToStateIDMixin",
          "stateIDs": ["FlyDown"],
          "modifierName": "FlyState_Down",
          "DGFCLAIDIFI": ""
        },
        {
          "$type": "AttachToAnimatorStateIDMixin",
          "stateIDs": ["Land"],
          "modifierName": "FlyDown_Land",
          "DGFCLAIDIFI": ""
        }
      ],
      "modifiers": {
        "FlyState_Down": {
          "modifierName": "",
          "elementDurability": 100.0,
          "onAdded": [
            {
              "$type": "IDNGFEEBPAM",
              "boolID": "FlyState",
              "value": true
            }
          ],
          "onRemoved": [
            {
              "$type": "IDNGFEEBPAM",
              "boolID": "FlyState"
            }
          ]
        },
        "FlyDown_Land": {
          "modifierName": "",
          "elementDurability": 100.0,
          "properties": {
            "Actor_AddGravityScale": -1.9900000095367432
          }
        }
      },
      "onAbilityStart": [
        {
          "$type": "IDNGFEEBPAM",
          "boolID": "FlyState"
        }
      ]
    }
  },
  {
    "Default": {
      "$type": "ConfigAbility",
      "abilityName": "Animal_Bird_Small_FlyUp",
      "onAbilityStart": [
        {
          "$type": "IDNGFEEBPAM",
          "boolID": "FlyState",
          "value": true
        }
      ]
    }
  },
  {
    "Default": {
      "$type": "ConfigAbility",
      "abilityName": "Animal_Bird_Small_ToWander",
      "onAbilityStart": [
        {
          "$type": "IDNGFEEBPAM",
          "boolID": "WanderState",
          "value": true
        }
      ]
    }
  },
  {
    "Default": {
      "$type": "ConfigAbility",
      "abilityName": "Animal_Bird_Small_ToIdle",
      "onAbilityStart": [
        {
          "$type": "IDNGFEEBPAM",
          "boolID": "WanderState"
        }
      ]
    }
  },
  {
    "Default": {
      "$type": "ConfigAbility",
      "abilityName": "Animal_Bird_Small_Disappear",
      "abilityMixins": [
        {
          "$type": "AttachToAnimatorStateIDMixin",
          "stateIDs": ["TakeOff", "FlyUp", "Disappear"],
          "modifierName": "CollisionControl",
          "DGFCLAIDIFI": ""
        },
        {
          "$type": "AttachToAnimatorStateIDMixin",
          "stateIDs": ["Disappear"],
          "modifierName": "DisappearTimer",
          "DGFCLAIDIFI": ""
        }
      ],
      "modifiers": {
        "CollisionControl": {
          "modifierName": "",
          "elementDurability": 100.0,
          "modifierMixins": [
            {
              "$type": "MGIHAKAHDGP",
              "NCMKEPHAKCA": ["MoveCollider"]
            }
          ],
          "onAdded": [
            {
              "$type": "EnablePushColliderName",
              "canBeHandledOnRecover": true,
              "pushColliderNames": ["PushCollider"]
            }
          ]
        },
        "DisappearTimer": {
          "modifierName": "",
          "elementDurability": 100.0,
          "onAdded": [
            {
              "$type": "AKIIMECIGKE",
              "duration": 4.0
            },
            {
              "$type": "SetAnimatorBool",
              "boolID": "Disappear",
              "value": true
            },
            {
              "$type": "KillSelf",
              "duration": 3.5,
              "killSelfType": "Disappear",
              "value": true,
              "banExp": true
            }
          ]
        }
      }
    }
  },
  {
    "Default": {
      "$type": "ConfigAbility",
      "abilityName": "Animal_Bird_Small_FlyEffect",
      "onAbilityStart": [
        {
          "$type": "FireEffect",
          "rotationDampTime": "Eff_Animal_Common_Feather",
          "born": {
            "$type": "ConfigBornByTarget",
            "offset": {
              "x": 0.0,
              "y": 0.0,
              "z": 0.0
            }
          },
          "PPPDJGDDOGD": 1.0,
          "AJDILHJFNKE": -1.0
        }
      ]
    }
  }
]
