[
  {
    "Default": {
      "$type": "ConfigAbility",
      "abilityName": "Animal_Thoarder_Weasel_Alert",
      "modifiers": {
        "SetSelfAttackTarget": {
          "modifierName": "",
          "elementDurability": 100.0,
          "onAdded": [
            {
              "$type": "SetSelfAttackTarget",
              "target": "Caster"
            }
          ]
        }
      },
      "onAdded": [
        {
          "$type": "AddGlobalValue",
          "value": 1.0,
          "key": "_IS_WEASEL",
          "useLimitRange": true,
          "maxValue": 1.0,
          "minValue": 0.0
        }
      ],
      "onAbilityStart": [
        {
          "$type": "RemoveUniqueModifier",
          "shieldHP": true,
          "modifierName": "UNIQUE_Invisible"
        },
        {
          "$type": "AttachEffect",
          "shieldHP": true,
          "rotationDampTime": "Eff_Animal_Thoarder_Weasel_Jump",
          "born": {
            "$type": "ConfigBornBySelf",
            "onGround": true
          },
          "PPPDJGDDOGD": 1.0,
          "AJDILHJFNKE": -1.0
        },
        {
          "$type": "Predicated",
          "otherTargets": {
            "$type": "FHBCCNMKPHK",
            "value": 2
          },
          "targetPredicates": [
            {
              "$type": "ByTargetGlobalValue",
              "key": "_IS_MOLE_HOLE",
              "value": 1.0
            }
          ],
          "successActions": [
            {
              "$type": "ApplyModifier",
              "target": "Target",
              "modifierName": "SetSelfAttackTarget"
            }
          ]
        }
      ]
    }
  },
  {
    "Default": {
      "$type": "ConfigAbility",
      "abilityName": "Animal_Thoarder_Weasel_Drill",
      "modifiers": {
        "UNIQUE_Blink_Actions": {
          "modifierName": "",
          "forceTriggerWhenChangeAuthority": true,
          "elementDurability": 100.0,
          "onAdded": [
            {
              "$type": "AttachModifier",
              "modifierName": "Blink_Invincible"
            },
            {
              "$type": "AttachModifier",
              "modifierName": "Blink_DenyLockOn"
            },
            {
              "$type": "TriggerSetVisible"
            },
            {
              "$type": "EnableHitBoxByName",
              "hitBoxNames": ["HitBox"]
            }
          ],
          "onRemoved": [
            {
              "$type": "EnableHitBoxByName",
              "hitBoxNames": ["HitBox"],
              "setEnable": true
            },
            {
              "$type": "TriggerSetVisible",
              "KGGEDGKGLDD": true
            }
          ]
        },
        "Blink_Invincible": {
          "modifierName": "",
          "elementDurability": 100.0,
          "state": "Invincible"
        },
        "Blink_DenyLockOn": {
          "modifierName": "",
          "elementDurability": 100.0,
          "state": "DenyLockOn"
        },
        "TriggerGadgetState": {
          "modifierName": "",
          "elementDurability": 100.0,
          "onAdded": [
            {
              "$type": "ExecuteGadgetLua",
              "param1": 203
            }
          ]
        }
      },
      "onAdded": [
        {
          "$type": "AddGlobalValue",
          "value": 1.0,
          "key": "_IS_WEASEL",
          "useLimitRange": true,
          "maxValue": 1.0,
          "minValue": 0.0
        }
      ],
      "onAbilityStart": [
        {
          "$type": "ApplyModifier",
          "modifierName": "UNIQUE_Blink_Actions"
        },
        {
          "$type": "Predicated",
          "otherTargets": {
            "$type": "FHBCCNMKPHK",
            "value": 2
          },
          "targetPredicates": [
            {
              "$type": "ByTargetGlobalValue",
              "key": "_IS_MOLE_HOLE",
              "value": 1.0
            }
          ],
          "successActions": [
            {
              "$type": "ApplyModifier",
              "target": "Target",
              "modifierName": "TriggerGadgetState"
            },
            {
              "$type": "SetAnimatorBool",
              "boolID": "Disappear",
              "value": true
            }
          ]
        },
        {
          "$type": "KillSelf",
          "killSelfType": "Disappear",
          "value": true,
          "banExp": true
        }
      ]
    }
  },
  {
    "Default": {
      "$type": "ConfigAbility",
      "abilityName": "Animal_Thoarder_Weasel_Drill_Exit",
      "modifiers": {
        "Disappear_Invincible": {
          "modifierName": "",
          "elementDurability": 100.0,
          "state": "Invincible"
        },
        "Disappear_DenyLockOn": {
          "modifierName": "",
          "elementDurability": 100.0,
          "state": "DenyLockOn"
        },
        "Disappear_Display": {
          "modifierName": "",
          "elementDurability": 100.0,
          "onAdded": [
            {
              "$type": "AttachModifier",
              "modifierName": "Disappear_Invincible"
            },
            {
              "$type": "AttachModifier",
              "modifierName": "Disappear_DenyLockOn"
            },
            {
              "$type": "TriggerSetVisible"
            },
            {
              "$type": "EnableHitBoxByName",
              "hitBoxNames": ["HitBox"]
            }
          ]
        }
      },
      "onAbilityStart": [
        {
          "$type": "ApplyModifier",
          "modifierName": "Disappear_Display"
        },
        {
          "$type": "KillSelf",
          "killSelfType": "Disappear",
          "value": true,
          "banExp": true
        }
      ]
    }
  },
  {
    "Default": {
      "$type": "ConfigAbility",
      "abilityName": "Animal_Thoarder_Weasel_Jump",
      "abilityMixins": [
        {
          "$type": "LEOGLBFIELL",
          "poseIDs": [3],
          "modifierName": "UNIQUE_Invisible"
        }
      ],
      "modifiers": {
        "Invisible": {
          "modifierName": "",
          "elementDurability": 100.0,
          "onAdded": [
            {
              "$type": "ApplyModifier",
              "modifierName": "UNIQUE_Invisible"
            }
          ]
        },
        "UNIQUE_Invisible": {
          "modifierName": "",
          "forceTriggerWhenChangeAuthority": true,
          "elementDurability": 100.0,
          "onAdded": [
            {
              "$type": "AttachModifier",
              "modifierName": "Invincible"
            },
            {
              "$type": "AttachModifier",
              "modifierName": "DenyLockOn"
            },
            {
              "$type": "TriggerSetVisible"
            },
            {
              "$type": "EnableHitBoxByName",
              "hitBoxNames": ["HitBox"]
            }
          ],
          "onRemoved": [
            {
              "$type": "EnableHitBoxByName",
              "hitBoxNames": ["HitBox"],
              "setEnable": true
            },
            {
              "$type": "TriggerSetVisible",
              "KGGEDGKGLDD": true
            }
          ]
        },
        "Invincible": {
          "modifierName": "",
          "elementDurability": 100.0,
          "state": "Invincible"
        },
        "DenyLockOn": {
          "modifierName": "",
          "elementDurability": 100.0,
          "state": "DenyLockOn"
        }
      }
    }
  },
  {
    "Default": {
      "$type": "ConfigAbility",
      "abilityName": "Animal_Thoarder_Weasel_Flee",
      "abilityMixins": [
        {
          "$type": "LEOGLBFIELL",
          "poseIDs": [901, 911],
          "modifierName": "DropMora"
        },
        {
          "$type": "AttachToAnimatorStateIDMixin",
          "stateIDs": ["Run", "Disappear", "Walk", "Standby_Walk"],
          "modifierName": "Effect",
          "DGFCLAIDIFI": ""
        },
        {
          "$type": "DIDNLIKKLLF",
          "stateIDs": ["Disappear"],
          "enterActions": [
            {
              "$type": "ApplyModifier",
              "modifierName": "Disappear"
            }
          ],
          "DGFCLAIDIFI": ""
        }
      ],
      "modifiers": {
        "Effect": {
          "modifierName": "",
          "elementDurability": 100.0,
          "onAdded": [
            {
              "$type": "AttachEffect",
              "rotationDampTime": "Eff_Animal_Thoarder_Weasel_Walk",
              "PPPDJGDDOGD": 1.0,
              "AJDILHJFNKE": -1.0
            }
          ]
        },
        "DropMora": {
          "modifierName": "",
          "elementDurability": 100.0,
          "thinkInterval": 0.5,
          "onThinkInterval": [
            {
              "$type": "MFKEIKOOFJP",
              "subfieldName": "MoraDrop"
            }
          ]
        },
        "Disappear": {
          "modifierName": "",
          "duration": 2.0,
          "elementDurability": 100.0,
          "onAdded": [
            {
              "$type": "AKIIMECIGKE",
              "duration": 3.0
            }
          ],
          "onRemoved": [
            {
              "$type": "RemoveModifier",
              "modifierName": "DropMora"
            },
            {
              "$type": "KillSelf",
              "killSelfType": "Disappear",
              "value": true,
              "banExp": true
            },
            {
              "$type": "SetAnimatorBool",
              "boolID": "Disappear",
              "value": true
            }
          ]
        }
      }
    }
  },
  {
    "Default": {
      "$type": "ConfigAbility",
      "abilityName": "Animal_Thoarder_Weasel_ToWander",
      "onAbilityStart": [
        {
          "$type": "IDNGFEEBPAM",
          "boolID": "Wander",
          "value": true
        }
      ]
    }
  },
  {
    "Default": {
      "$type": "ConfigAbility",
      "abilityName": "Animal_Thoarder_Weasel_ToIdle",
      "onAbilityStart": [
        {
          "$type": "IDNGFEEBPAM",
          "boolID": "Wander"
        }
      ]
    }
  },
  {
    "Default": {
      "$type": "ConfigAbility",
      "abilityName": "Animal_Thoarder_Weasel_State",
      "abilityMixins": [
        {
          "$type": "LEOGLBFIELL",
          "poseIDs": [1, 2, 3, 101, 102, 9],
          "modifierName": "LockHp"
        }
      ],
      "modifiers": {
        "LockHp": {
          "modifierName": "",
          "elementDurability": 100.0,
          "state": "LockHP"
        },
        "HideUIBillBoard": {
          "modifierName": "",
          "elementDurability": 100.0,
          "onAdded": [
            {
              "$type": "HBNEMPLJCMB",
              "hide": true
            }
          ]
        }
      },
      "onAdded": [
        {
          "$type": "ApplyModifier",
          "modifierName": "HideUIBillBoard"
        },
        {
          "$type": "AttachEffect",
          "predicates": [
            {
              "$type": "ByTargetGlobalValue",
              "key": "_THOARDER_WEASEL_LEVEL01",
              "value": 1.0
            }
          ],
          "rotationDampTime": "Eff_Animal_Thoarder_Weasel_Bag01",
          "PPPDJGDDOGD": 1.0,
          "AJDILHJFNKE": -1.0
        },
        {
          "$type": "AttachEffect",
          "predicates": [
            {
              "$type": "ByTargetGlobalValue",
              "key": "_THOARDER_WEASEL_LEVEL02",
              "value": 1.0
            }
          ],
          "rotationDampTime": "Eff_Animal_Thoarder_Weasel_Bag02",
          "PPPDJGDDOGD": 1.0,
          "AJDILHJFNKE": -1.0
        },
        {
          "$type": "AttachEffect",
          "predicates": [
            {
              "$type": "ByTargetGlobalValue",
              "key": "_THOARDER_WEASEL_LEVEL03",
              "value": 1.0
            }
          ],
          "rotationDampTime": "Eff_Animal_Thoarder_Weasel_Bag03",
          "PPPDJGDDOGD": 1.0,
          "AJDILHJFNKE": -1.0
        }
      ]
    }
  }
]
