[
  {
    "Default": {
      "$type": "ConfigAbility",
      "abilityName": "ActivityAbility_CrystalLink_Trigger_UltimateSkillHitDamage",
      "abilitySpecials": {
        "TriggerCD": 0.0
      },
      "modifiers": {
        "UNIQUE_Activity_CrystalLink_Trigger_UltimateSkillHitDamage": {
          "stacking": "Unique",
          "modifierName": "",
          "forceTriggerWhenChangeAuthority": true,
          "elementDurability": 100.0,
          "onAttackLanded": [
            {
              "$type": "Predicated",
              "target": "Other",
              "shieldHP": true,
              "targetPredicates": [
                {
                  "$type": "ByAttackTags",
                  "target": "Self",
                  "attackTags": ["Elemental_Burst"]
                },
                {
                  "$type": "ByHitDamage",
                  "target": "Other",
                  "damage": 0.0
                },
                {
                  "$type": "ByTargetGlobalValue",
                  "target": "Self",
                  "key": "UltimateSkillHitDamage_CDState",
                  "value": 0.0,
                  "compareType": "NoneOrEqual"
                }
              ],
              "successActions": [
                {
                  "$type": "EPIMHDNFGBE",
                  "shieldHP": true,
                  "id": 1
                },
                {
                  "$type": "AHPEKICBIIL",
                  "shieldHP": true,
                  "luaCallType": "CurGalleryControlGroup",
                  "funcName": "SLC_Add_Fever",
                  "param1": 0.0,
                  "MGAMDEHMCOL": 0.0,
                  "MMHOHAOGPLP": 0.0
                },
                {
                  "$type": "ApplyModifier",
                  "shieldHP": true,
                  "modifierName": "UNIQUE_Activity_CrystalLink_Trigger_UltimateSkillHitDamage_CD"
                }
              ]
            }
          ]
        },
        "UNIQUE_Activity_CrystalLink_Trigger_UltimateSkillHitDamage_CD": {
          "stacking": "Unique",
          "modifierName": "",
          "forceTriggerWhenChangeAuthority": true,
          "duration": "TriggerCD",
          "elementDurability": 100.0,
          "onAdded": [
            {
              "$type": "SetGlobalValue",
              "shieldHP": true,
              "value": -1.0,
              "key": "UltimateSkillHitDamage_CDState",
              "maxValue": 0.0,
              "minValue": 0.0
            }
          ],
          "onRemoved": [
            {
              "$type": "SetGlobalValue",
              "shieldHP": true,
              "value": 0.0,
              "key": "UltimateSkillHitDamage_CDState",
              "maxValue": 0.0,
              "minValue": 0.0
            }
          ]
        }
      },
      "onAdded": [
        {
          "$type": "AttachModifier",
          "modifierName": "UNIQUE_Activity_CrystalLink_Trigger_UltimateSkillHitDamage"
        }
      ],
      "isDynamicAbility": true
    }
  },
  {
    "Default": {
      "$type": "ConfigAbility",
      "abilityName": "ActivityAbility_CrystalLink_Trigger_UseSkill",
      "abilitySpecials": {
        "TriggerCD": 0.0
      },
      "modifiers": {
        "UNIQUE_Activity_CrystalLink_Trigger_UseSkill": {
          "stacking": "Unique",
          "modifierName": "",
          "forceTriggerWhenChangeAuthority": true,
          "elementDurability": 100.0,
          "modifierMixins": [
            {
              "$type": "OnAvatarUseSkillMixin",
              "onTriggerSkill": [
                {
                  "$type": "EPIMHDNFGBE",
                  "predicates": [
                    {
                      "$type": "ByTargetGlobalValue",
                      "target": "Self",
                      "key": "UseSkill_CDState",
                      "value": 0.0,
                      "compareType": "NoneOrEqual"
                    }
                  ],
                  "id": 2
                },
                {
                  "$type": "AHPEKICBIIL",
                  "predicates": [
                    {
                      "$type": "ByTargetGlobalValue",
                      "target": "Self",
                      "key": "UseSkill_CDState",
                      "value": 0.0,
                      "compareType": "NoneOrEqual"
                    }
                  ],
                  "luaCallType": "CurGalleryControlGroup",
                  "funcName": "SLC_Add_Fever",
                  "param1": 0.0,
                  "MGAMDEHMCOL": 0.0,
                  "MMHOHAOGPLP": 0.0
                },
                {
                  "$type": "ApplyModifier",
                  "modifierName": "UNIQUE_Activity_CrystalLink_Trigger_UseSkill_CD"
                }
              ],
              "clearSkillIdDelay": 0.20000000298023224
            }
          ]
        },
        "UNIQUE_Activity_CrystalLink_Trigger_UseSkill_CD": {
          "stacking": "Unique",
          "modifierName": "",
          "forceTriggerWhenChangeAuthority": true,
          "duration": "TriggerCD",
          "elementDurability": 100.0,
          "onAdded": [
            {
              "$type": "SetGlobalValue",
              "shieldHP": true,
              "value": -1.0,
              "key": "UseSkill_CDState",
              "maxValue": 0.0,
              "minValue": 0.0
            }
          ],
          "onRemoved": [
            {
              "$type": "SetGlobalValue",
              "shieldHP": true,
              "value": 0.0,
              "key": "UseSkill_CDState",
              "maxValue": 0.0,
              "minValue": 0.0
            }
          ]
        }
      },
      "onAdded": [
        {
          "$type": "AttachModifier",
          "modifierName": "UNIQUE_Activity_CrystalLink_Trigger_UseSkill"
        }
      ],
      "isDynamicAbility": true
    }
  },
  {
    "Default": {
      "$type": "ConfigAbility",
      "abilityName": "ActivityAbility_CrystalLink_Trigger_OnAvatarIn",
      "abilitySpecials": {
        "TriggerCD": 0.0
      },
      "modifiers": {
        "UNIQUE_Activity_CrystalLink_Trigger_OnAvatarIn": {
          "stacking": "Unique",
          "modifierName": "",
          "forceTriggerWhenChangeAuthority": true,
          "elementDurability": 100.0,
          "onAvatarIn": [
            {
              "$type": "EPIMHDNFGBE",
              "predicates": [
                {
                  "$type": "ByTargetGlobalValue",
                  "target": "Self",
                  "key": "OnAvatarIn_CDState",
                  "value": 0.0,
                  "compareType": "NoneOrEqual"
                }
              ],
              "id": 3
            },
            {
              "$type": "AHPEKICBIIL",
              "predicates": [
                {
                  "$type": "ByTargetGlobalValue",
                  "target": "Self",
                  "key": "OnAvatarIn_CDState",
                  "value": 0.0,
                  "compareType": "NoneOrEqual"
                }
              ],
              "luaCallType": "CurGalleryControlGroup",
              "funcName": "SLC_Add_Fever",
              "param1": 0.0,
              "MGAMDEHMCOL": 0.0,
              "MMHOHAOGPLP": 0.0
            },
            {
              "$type": "ApplyModifier",
              "modifierName": "UNIQUE_Activity_CrystalLink_Trigger_OnAvatarIn_CD"
            }
          ]
        },
        "UNIQUE_Activity_CrystalLink_Trigger_OnAvatarIn_CD": {
          "stacking": "Unique",
          "modifierName": "",
          "forceTriggerWhenChangeAuthority": true,
          "duration": "TriggerCD",
          "elementDurability": 100.0,
          "onAdded": [
            {
              "$type": "SetGlobalValue",
              "shieldHP": true,
              "value": -1.0,
              "key": "OnAvatarIn_CDState",
              "maxValue": 0.0,
              "minValue": 0.0
            }
          ],
          "onRemoved": [
            {
              "$type": "SetGlobalValue",
              "shieldHP": true,
              "value": 0.0,
              "key": "OnAvatarIn_CDState",
              "maxValue": 0.0,
              "minValue": 0.0
            }
          ]
        }
      },
      "onAdded": [
        {
          "$type": "AttachModifier",
          "modifierName": "UNIQUE_Activity_CrystalLink_Trigger_OnAvatarIn"
        }
      ],
      "isDynamicAbility": true
    }
  },
  {
    "Default": {
      "$type": "ConfigAbility",
      "abilityName": "ActivityAbility_CrystalLink_Trigger_UseSkill_Level2",
      "abilitySpecials": {
        "TriggerCD": 0.0
      },
      "modifiers": {
        "UNIQUE_Activity_CrystalLink_Trigger_UseSkill_Level2": {
          "stacking": "Unique",
          "modifierName": "",
          "forceTriggerWhenChangeAuthority": true,
          "elementDurability": 100.0,
          "modifierMixins": [
            {
              "$type": "OnAvatarUseSkillMixin",
              "onTriggerSkill": [
                {
                  "$type": "EPIMHDNFGBE",
                  "predicates": [
                    {
                      "$type": "ByTargetGlobalValue",
                      "target": "Self",
                      "key": "UseSkill_CDState",
                      "value": 0.0,
                      "compareType": "NoneOrEqual"
                    }
                  ],
                  "id": 4
                },
                {
                  "$type": "AHPEKICBIIL",
                  "predicates": [
                    {
                      "$type": "ByTargetGlobalValue",
                      "target": "Self",
                      "key": "UseSkill_CDState",
                      "value": 0.0,
                      "compareType": "NoneOrEqual"
                    }
                  ],
                  "luaCallType": "CurGalleryControlGroup",
                  "funcName": "SLC_Add_Fever",
                  "param1": 0.0,
                  "MGAMDEHMCOL": 0.0,
                  "MMHOHAOGPLP": 0.0
                },
                {
                  "$type": "ApplyModifier",
                  "modifierName": "UNIQUE_Activity_CrystalLink_Trigger_UseSkill_Level2_CD"
                }
              ],
              "clearSkillIdDelay": 0.20000000298023224
            }
          ]
        },
        "UNIQUE_Activity_CrystalLink_Trigger_UseSkill_Level2_CD": {
          "stacking": "Unique",
          "modifierName": "",
          "forceTriggerWhenChangeAuthority": true,
          "duration": "TriggerCD",
          "elementDurability": 100.0,
          "onAdded": [
            {
              "$type": "SetGlobalValue",
              "shieldHP": true,
              "value": -1.0,
              "key": "UseSkill_CDState",
              "maxValue": 0.0,
              "minValue": 0.0
            }
          ],
          "onRemoved": [
            {
              "$type": "SetGlobalValue",
              "shieldHP": true,
              "value": 0.0,
              "key": "UseSkill_CDState",
              "maxValue": 0.0,
              "minValue": 0.0
            }
          ]
        }
      },
      "onAdded": [
        {
          "$type": "AttachModifier",
          "modifierName": "UNIQUE_Activity_CrystalLink_Trigger_UseSkill_Level2"
        }
      ],
      "isDynamicAbility": true
    }
  },
  {
    "Default": {
      "$type": "ConfigAbility",
      "abilityName": "ActivityAbility_CrystalLink_Trigger_NormalAttackLanded_Counter",
      "abilitySpecials": {
        "TriggerCD": 0.0,
        "NormalAttack_MaxTime": 0.0
      },
      "modifiers": {
        "UNIQUE_Activity_CrystalLink_Trigger_NormalAttackLanded_Counter": {
          "stacking": "Unique",
          "modifierName": "",
          "forceTriggerWhenChangeAuthority": true,
          "elementDurability": 100.0,
          "onAttackLanded": [
            {
              "$type": "Predicated",
              "target": "Other",
              "targetPredicates": [
                {
                  "$type": "ByAttackTags",
                  "target": "Self",
                  "attackTags": [
                    "NormalAttack_01",
                    "NormalAttack_02",
                    "NormalAttack_03",
                    "NormalAttack_04",
                    "NormalAttack_05",
                    "NormalAttack_06"
                  ]
                },
                {
                  "$type": "ByTargetGlobalValue",
                  "target": "Self",
                  "key": "NormalAttackCounter_CDState",
                  "value": 0.0,
                  "compareType": "NoneOrEqual"
                }
              ],
              "successActions": [
                {
                  "$type": "EPIMHDNFGBE",
                  "id": 5
                },
                {
                  "$type": "AHPEKICBIIL",
                  "luaCallType": "CurGalleryControlGroup",
                  "funcName": "SLC_Add_Fever",
                  "param1": 0.0,
                  "MGAMDEHMCOL": 0.0,
                  "MMHOHAOGPLP": 0.0
                },
                {
                  "$type": "ApplyModifier",
                  "modifierName": "UNIQUE_Activity_CrystalLink_Trigger_NormalAttackLanded_Counter_CD"
                }
              ]
            }
          ]
        },
        "UNIQUE_Activity_CrystalLink_Trigger_NormalAttackLanded_Counter_CD": {
          "stacking": "Unique",
          "modifierName": "",
          "forceTriggerWhenChangeAuthority": true,
          "duration": "TriggerCD",
          "elementDurability": 100.0,
          "onAdded": [
            {
              "$type": "SetGlobalValue",
              "shieldHP": true,
              "value": -1.0,
              "key": "NormalAttackCounter_CDState",
              "maxValue": 0.0,
              "minValue": 0.0
            }
          ],
          "onRemoved": [
            {
              "$type": "SetGlobalValue",
              "shieldHP": true,
              "value": 0.0,
              "key": "NormalAttackCounter_CDState",
              "maxValue": 0.0,
              "minValue": 0.0
            }
          ]
        }
      },
      "onAdded": [
        {
          "$type": "AttachModifier",
          "modifierName": "UNIQUE_Activity_CrystalLink_Trigger_NormalAttackLanded_Counter"
        }
      ],
      "isDynamicAbility": true
    }
  },
  {
    "Default": {
      "$type": "ConfigAbility",
      "abilityName": "ActivityAbility_CrystalLink_Trigger_NormalAttackElementalDamage",
      "abilitySpecials": {
        "TriggerCD": 0.0
      },
      "modifiers": {
        "UNIQUE_Activity_CrystalLink_Trigger_NormalAttackElementalDamage": {
          "stacking": "Unique",
          "modifierName": "",
          "forceTriggerWhenChangeAuthority": true,
          "elementDurability": 100.0,
          "onAttackLanded": [
            {
              "$type": "Predicated",
              "target": "Other",
              "targetPredicates": [
                {
                  "$type": "ByAttackTags",
                  "target": "Self",
                  "attackTags": [
                    "NormalAttack_01",
                    "NormalAttack_02",
                    "NormalAttack_03",
                    "NormalAttack_04",
                    "NormalAttack_05",
                    "NormalAttack_06"
                  ]
                },
                {
                  "$type": "ByAny",
                  "predicates": [
                    {
                      "$type": "ByHitElement",
                      "element": "Fire"
                    },
                    {
                      "$type": "ByHitElement",
                      "element": "Water"
                    },
                    {
                      "$type": "ByHitElement",
                      "element": "Ice"
                    },
                    {
                      "$type": "ByHitElement",
                      "element": "Electric"
                    },
                    {
                      "$type": "ByHitElement",
                      "element": "Wind"
                    },
                    {
                      "$type": "ByHitElement",
                      "element": "Rock"
                    },
                    {
                      "$type": "ByHitElement",
                      "element": "Grass"
                    }
                  ]
                },
                {
                  "$type": "ByHitDamage",
                  "target": "Other",
                  "damage": 0.0
                },
                {
                  "$type": "ByTargetGlobalValue",
                  "target": "Self",
                  "key": "ElementalDamage_CDState",
                  "value": 0.0,
                  "compareType": "NoneOrEqual"
                }
              ],
              "successActions": [
                {
                  "$type": "EPIMHDNFGBE",
                  "id": 6
                },
                {
                  "$type": "AHPEKICBIIL",
                  "luaCallType": "CurGalleryControlGroup",
                  "funcName": "SLC_Add_Fever",
                  "param1": 0.0,
                  "MGAMDEHMCOL": 0.0,
                  "MMHOHAOGPLP": 0.0
                },
                {
                  "$type": "ApplyModifier",
                  "modifierName": "UNIQUE_Activity_CrystalLink_Trigger_NormalAttackElementalDamage_CD"
                }
              ]
            }
          ]
        },
        "UNIQUE_Activity_CrystalLink_Trigger_NormalAttackElementalDamage_CD": {
          "stacking": "Unique",
          "modifierName": "",
          "forceTriggerWhenChangeAuthority": true,
          "duration": "TriggerCD",
          "elementDurability": 100.0,
          "onAdded": [
            {
              "$type": "SetGlobalValue",
              "shieldHP": true,
              "value": -1.0,
              "key": "ElementalDamage_CDState",
              "maxValue": 0.0,
              "minValue": 0.0
            }
          ],
          "onRemoved": [
            {
              "$type": "SetGlobalValue",
              "shieldHP": true,
              "value": 0.0,
              "key": "ElementalDamage_CDState",
              "maxValue": 0.0,
              "minValue": 0.0
            }
          ]
        }
      },
      "onAdded": [
        {
          "$type": "AttachModifier",
          "modifierName": "UNIQUE_Activity_CrystalLink_Trigger_NormalAttackElementalDamage"
        }
      ],
      "isDynamicAbility": true
    }
  },
  {
    "Default": {
      "$type": "ConfigAbility",
      "abilityName": "ActivityAbility_CrystalLink_Trigger_ElectricReaction",
      "abilitySpecials": {
        "TriggerCD": 0.0
      },
      "modifiers": {
        "UNIQUE_Activity_CrystalLink_Trigger_ElectricReaction": {
          "stacking": "Unique",
          "modifierName": "",
          "forceTriggerWhenChangeAuthority": true,
          "elementDurability": 100.0,
          "modifierMixins": [
            {
              "$type": "DoActionByElementReactionMixin",
              "entityTypes": ["Monster"],
              "reactionTypes": [
                "Explode",
                "Shock",
                "Superconductor",
                "SwirlElectric"
              ],
              "actions": [
                {
                  "$type": "EPIMHDNFGBE",
                  "shieldHP": true,
                  "predicates": [
                    {
                      "$type": "ByTargetGlobalValue",
                      "target": "Self",
                      "key": "ElectricReaction_CDState",
                      "value": 0.0,
                      "compareType": "NoneOrEqual"
                    }
                  ],
                  "id": 7
                },
                {
                  "$type": "AHPEKICBIIL",
                  "shieldHP": true,
                  "predicates": [
                    {
                      "$type": "ByTargetGlobalValue",
                      "target": "Self",
                      "key": "ElectricReaction_CDState",
                      "value": 0.0,
                      "compareType": "NoneOrEqual"
                    }
                  ],
                  "luaCallType": "CurGalleryControlGroup",
                  "funcName": "SLC_Add_Fever",
                  "param1": 0.0,
                  "MGAMDEHMCOL": 0.0,
                  "MMHOHAOGPLP": 0.0
                },
                {
                  "$type": "ApplyModifier",
                  "shieldHP": true,
                  "predicates": [
                    {
                      "$type": "ByTargetGlobalValue",
                      "target": "Self",
                      "key": "ElectricReaction_CDState",
                      "value": 0.0,
                      "compareType": "NoneOrEqual"
                    }
                  ],
                  "modifierName": "UNIQUE_Activity_CrystalLink_Trigger_ElectricReaction_CD"
                }
              ]
            }
          ]
        },
        "UNIQUE_Activity_CrystalLink_Trigger_ElectricReaction_CD": {
          "stacking": "Unique",
          "modifierName": "",
          "forceTriggerWhenChangeAuthority": true,
          "duration": "TriggerCD",
          "elementDurability": 100.0,
          "onAdded": [
            {
              "$type": "SetGlobalValue",
              "shieldHP": true,
              "value": -1.0,
              "key": "ElectricReaction_CDState",
              "maxValue": 0.0,
              "minValue": 0.0
            }
          ],
          "onRemoved": [
            {
              "$type": "SetGlobalValue",
              "shieldHP": true,
              "value": 0.0,
              "key": "ElectricReaction_CDState",
              "maxValue": 0.0,
              "minValue": 0.0
            }
          ]
        }
      },
      "onAdded": [
        {
          "$type": "AttachModifier",
          "modifierName": "UNIQUE_Activity_CrystalLink_Trigger_ElectricReaction"
        }
      ],
      "isDynamicAbility": true
    }
  },
  {
    "Default": {
      "$type": "ConfigAbility",
      "abilityName": "ActivityAbility_CrystalLink_Trigger_UseSkill_Level3",
      "abilitySpecials": {
        "TriggerCD": 0.0
      },
      "modifiers": {
        "UNIQUE_Activity_CrystalLink_Trigger_UseSkill_Level3": {
          "stacking": "Unique",
          "modifierName": "",
          "forceTriggerWhenChangeAuthority": true,
          "elementDurability": 100.0,
          "modifierMixins": [
            {
              "$type": "OnAvatarUseSkillMixin",
              "onTriggerSkill": [
                {
                  "$type": "EPIMHDNFGBE",
                  "predicates": [
                    {
                      "$type": "ByTargetGlobalValue",
                      "target": "Self",
                      "key": "UseSkill_CDState",
                      "value": 0.0,
                      "compareType": "NoneOrEqual"
                    }
                  ],
                  "id": 8
                },
                {
                  "$type": "AHPEKICBIIL",
                  "predicates": [
                    {
                      "$type": "ByTargetGlobalValue",
                      "target": "Self",
                      "key": "UseSkill_CDState",
                      "value": 0.0,
                      "compareType": "NoneOrEqual"
                    }
                  ],
                  "luaCallType": "CurGalleryControlGroup",
                  "funcName": "SLC_Add_Fever",
                  "param1": 0.0,
                  "MGAMDEHMCOL": 0.0,
                  "MMHOHAOGPLP": 0.0
                },
                {
                  "$type": "ApplyModifier",
                  "modifierName": "UNIQUE_Activity_CrystalLink_Trigger_UseSkill_Level3_CD"
                }
              ],
              "clearSkillIdDelay": 0.20000000298023224
            }
          ]
        },
        "UNIQUE_Activity_CrystalLink_Trigger_UseSkill_Level3_CD": {
          "stacking": "Unique",
          "modifierName": "",
          "forceTriggerWhenChangeAuthority": true,
          "duration": "TriggerCD",
          "elementDurability": 100.0,
          "onAdded": [
            {
              "$type": "SetGlobalValue",
              "shieldHP": true,
              "value": -1.0,
              "key": "UseSkill_CDState",
              "maxValue": 0.0,
              "minValue": 0.0
            }
          ],
          "onRemoved": [
            {
              "$type": "SetGlobalValue",
              "shieldHP": true,
              "value": 0.0,
              "key": "UseSkill_CDState",
              "maxValue": 0.0,
              "minValue": 0.0
            }
          ]
        }
      },
      "onAdded": [
        {
          "$type": "AttachModifier",
          "modifierName": "UNIQUE_Activity_CrystalLink_Trigger_UseSkill_Level3"
        }
      ],
      "isDynamicAbility": true
    }
  },
  {
    "Default": {
      "$type": "ConfigAbility",
      "abilityName": "ActivityAbility_CrystalLink_Trigger_ElectricDamage",
      "abilitySpecials": {
        "TriggerCD": 0.0
      },
      "modifiers": {
        "UNIQUE_Activity_CrystalLink_Trigger_ElectricDamage": {
          "stacking": "Unique",
          "modifierName": "",
          "forceTriggerWhenChangeAuthority": true,
          "elementDurability": 100.0,
          "onAttackLanded": [
            {
              "$type": "Predicated",
              "target": "Other",
              "shieldHP": true,
              "targetPredicates": [
                {
                  "$type": "ByHitElement",
                  "element": "Electric"
                },
                {
                  "$type": "ByHitDamage",
                  "target": "Other",
                  "damage": 0.0
                },
                {
                  "$type": "ByTargetGlobalValue",
                  "target": "Self",
                  "key": "ElectricDamage_CDState",
                  "value": 0.0,
                  "compareType": "NoneOrEqual"
                }
              ],
              "successActions": [
                {
                  "$type": "EPIMHDNFGBE",
                  "shieldHP": true,
                  "id": 9
                },
                {
                  "$type": "AHPEKICBIIL",
                  "shieldHP": true,
                  "luaCallType": "CurGalleryControlGroup",
                  "funcName": "SLC_Add_Fever",
                  "param1": 0.0,
                  "MGAMDEHMCOL": 0.0,
                  "MMHOHAOGPLP": 0.0
                },
                {
                  "$type": "ApplyModifier",
                  "shieldHP": true,
                  "modifierName": "UNIQUE_Activity_CrystalLink_Trigger_ElectricDamage_CD"
                }
              ]
            }
          ]
        },
        "UNIQUE_Activity_CrystalLink_Trigger_ElectricDamage_CD": {
          "stacking": "Unique",
          "modifierName": "",
          "forceTriggerWhenChangeAuthority": true,
          "duration": "TriggerCD",
          "elementDurability": 100.0,
          "onAdded": [
            {
              "$type": "SetGlobalValue",
              "shieldHP": true,
              "value": -1.0,
              "key": "ElectricDamage_CDState",
              "maxValue": 0.0,
              "minValue": 0.0
            }
          ],
          "onRemoved": [
            {
              "$type": "SetGlobalValue",
              "shieldHP": true,
              "value": 0.0,
              "key": "ElectricDamage_CDState",
              "maxValue": 0.0,
              "minValue": 0.0
            }
          ]
        }
      },
      "onAdded": [
        {
          "$type": "AttachModifier",
          "modifierName": "UNIQUE_Activity_CrystalLink_Trigger_ElectricDamage"
        }
      ],
      "isDynamicAbility": true
    }
  },
  {
    "Default": {
      "$type": "ConfigAbility",
      "abilityName": "ActivityAbility_CrystalLink_Trigger_RockDamage",
      "abilitySpecials": {
        "TriggerCD": 0.0
      },
      "modifiers": {
        "UNIQUE_Activity_CrystalLink_Trigger_RockDamage": {
          "stacking": "Unique",
          "modifierName": "",
          "forceTriggerWhenChangeAuthority": true,
          "elementDurability": 100.0,
          "onAttackLanded": [
            {
              "$type": "Predicated",
              "target": "Other",
              "shieldHP": true,
              "targetPredicates": [
                {
                  "$type": "ByHitElement",
                  "element": "Rock"
                },
                {
                  "$type": "ByHitDamage",
                  "target": "Other",
                  "damage": 0.0
                },
                {
                  "$type": "ByTargetGlobalValue",
                  "target": "Self",
                  "key": "RockDamage_CDState",
                  "value": 0.0,
                  "compareType": "NoneOrEqual"
                }
              ],
              "successActions": [
                {
                  "$type": "EPIMHDNFGBE",
                  "shieldHP": true,
                  "id": 13
                },
                {
                  "$type": "AHPEKICBIIL",
                  "shieldHP": true,
                  "luaCallType": "CurGalleryControlGroup",
                  "funcName": "SLC_Add_Fever",
                  "param1": 0.0,
                  "MGAMDEHMCOL": 0.0,
                  "MMHOHAOGPLP": 0.0
                },
                {
                  "$type": "ApplyModifier",
                  "shieldHP": true,
                  "modifierName": "UNIQUE_Activity_CrystalLink_Trigger_RockDamage_CD"
                }
              ]
            }
          ]
        },
        "UNIQUE_Activity_CrystalLink_Trigger_RockDamage_CD": {
          "stacking": "Unique",
          "modifierName": "",
          "forceTriggerWhenChangeAuthority": true,
          "duration": "TriggerCD",
          "elementDurability": 100.0,
          "onAdded": [
            {
              "$type": "SetGlobalValue",
              "shieldHP": true,
              "value": -1.0,
              "key": "RockDamage_CDState",
              "maxValue": 0.0,
              "minValue": 0.0
            }
          ],
          "onRemoved": [
            {
              "$type": "SetGlobalValue",
              "shieldHP": true,
              "value": 0.0,
              "key": "RockDamage_CDState",
              "maxValue": 0.0,
              "minValue": 0.0
            }
          ]
        }
      },
      "onAdded": [
        {
          "$type": "AttachModifier",
          "modifierName": "UNIQUE_Activity_CrystalLink_Trigger_RockDamage"
        }
      ],
      "isDynamicAbility": true
    }
  },
  {
    "Default": {
      "$type": "ConfigAbility",
      "abilityName": "ActivityAbility_CrystalLink_Trigger_Crystallize",
      "abilitySpecials": {
        "TriggerCD": 0.0
      },
      "modifiers": {
        "UNIQUE_Activity_CrystalLink_Trigger_Crystallize": {
          "stacking": "Unique",
          "modifierName": "",
          "forceTriggerWhenChangeAuthority": true,
          "elementDurability": 100.0,
          "modifierMixins": [
            {
              "$type": "DoActionByElementReactionMixin",
              "entityTypes": ["Monster"],
              "reactionTypes": [
                "CrystallizeElectric",
                "CrystallizeFire",
                "CrystallizeIce",
                "CrystallizeWater"
              ],
              "actions": [
                {
                  "$type": "EPIMHDNFGBE",
                  "shieldHP": true,
                  "predicates": [
                    {
                      "$type": "ByTargetGlobalValue",
                      "target": "Self",
                      "key": "Crystallize_CDState",
                      "value": 0.0,
                      "compareType": "NoneOrEqual"
                    }
                  ],
                  "id": 14
                },
                {
                  "$type": "AHPEKICBIIL",
                  "shieldHP": true,
                  "predicates": [
                    {
                      "$type": "ByTargetGlobalValue",
                      "target": "Self",
                      "key": "Crystallize_CDState",
                      "value": 0.0,
                      "compareType": "NoneOrEqual"
                    }
                  ],
                  "luaCallType": "CurGalleryControlGroup",
                  "funcName": "SLC_Add_Fever",
                  "param1": 0.0,
                  "MGAMDEHMCOL": 0.0,
                  "MMHOHAOGPLP": 0.0
                },
                {
                  "$type": "ApplyModifier",
                  "shieldHP": true,
                  "predicates": [
                    {
                      "$type": "ByTargetGlobalValue",
                      "target": "Self",
                      "key": "Crystallize_CDState",
                      "value": 0.0,
                      "compareType": "NoneOrEqual"
                    }
                  ],
                  "modifierName": "UNIQUE_Activity_CrystalLink_Trigger_RockDamage_CD"
                }
              ]
            }
          ]
        },
        "UNIQUE_Activity_CrystalLink_Trigger_RockDamage_CD": {
          "stacking": "Unique",
          "modifierName": "",
          "forceTriggerWhenChangeAuthority": true,
          "duration": "TriggerCD",
          "elementDurability": 100.0,
          "onAdded": [
            {
              "$type": "SetGlobalValue",
              "shieldHP": true,
              "value": -1.0,
              "key": "Crystallize_CDState",
              "maxValue": 0.0,
              "minValue": 0.0
            }
          ],
          "onRemoved": [
            {
              "$type": "SetGlobalValue",
              "shieldHP": true,
              "value": 0.0,
              "key": "Crystallize_CDState",
              "maxValue": 0.0,
              "minValue": 0.0
            }
          ]
        }
      },
      "onAdded": [
        {
          "$type": "AttachModifier",
          "modifierName": "UNIQUE_Activity_CrystalLink_Trigger_Crystallize"
        }
      ],
      "isDynamicAbility": true
    }
  },
  {
    "Default": {
      "$type": "ConfigAbility",
      "abilityName": "ActivityAbility_CrystalLink_Trigger_RockGadgetDestroyed",
      "abilitySpecials": {
        "TriggerCD": 0.0
      },
      "modifiers": {
        "UNIQUE_Activity_CrystalLink_Trigger_RockGadgetDestroyed": {
          "stacking": "Unique",
          "modifierName": "",
          "forceTriggerWhenChangeAuthority": true,
          "elementDurability": 100.0,
          "modifierMixins": [
            {
              "$type": "DoActionByEntityKillMixin",
              "predicates": [
                {
                  "$type": "ByEntityTypes",
                  "entityTypes": ["Gadget", "Bullet", "Field"]
                },
                {
                  "$type": "ByTargetGlobalValue",
                  "key": "_COMMON_GADGET_ISSUMMON",
                  "value": 1.0
                },
                {
                  "$type": "ByTargetIsSelf",
                  "target": "TargetOriginOwner"
                }
              ],
              "actionQueue": [
                {
                  "$type": "EPIMHDNFGBE",
                  "shieldHP": true,
                  "predicates": [
                    {
                      "$type": "ByTargetGlobalValue",
                      "target": "Self",
                      "key": "BreakRockGadget_CDState",
                      "value": 0.0,
                      "compareType": "NoneOrEqual"
                    }
                  ],
                  "id": 15
                },
                {
                  "$type": "AHPEKICBIIL",
                  "shieldHP": true,
                  "predicates": [
                    {
                      "$type": "ByTargetGlobalValue",
                      "target": "Self",
                      "key": "BreakRockGadget_CDState",
                      "value": 0.0,
                      "compareType": "NoneOrEqual"
                    }
                  ],
                  "luaCallType": "CurGalleryControlGroup",
                  "funcName": "SLC_Add_Fever",
                  "param1": 0.0,
                  "MGAMDEHMCOL": 0.0,
                  "MMHOHAOGPLP": 0.0
                },
                {
                  "$type": "ApplyModifier",
                  "shieldHP": true,
                  "predicates": [
                    {
                      "$type": "ByTargetGlobalValue",
                      "target": "Self",
                      "key": "BreakRockGadget_CDState",
                      "value": 0.0,
                      "compareType": "NoneOrEqual"
                    }
                  ],
                  "modifierName": "UNIQUE_Activity_CrystalLink_Trigger_RockGadgetDestroyed_CD"
                }
              ]
            }
          ]
        },
        "UNIQUE_Activity_CrystalLink_Trigger_RockGadgetDestroyed_CD": {
          "stacking": "Unique",
          "modifierName": "",
          "forceTriggerWhenChangeAuthority": true,
          "duration": "TriggerCD",
          "elementDurability": 100.0,
          "onAdded": [
            {
              "$type": "SetGlobalValue",
              "shieldHP": true,
              "value": -1.0,
              "key": "BreakRockGadget_CDState",
              "maxValue": 0.0,
              "minValue": 0.0
            }
          ],
          "onRemoved": [
            {
              "$type": "SetGlobalValue",
              "shieldHP": true,
              "value": 0.0,
              "key": "BreakRockGadget_CDState",
              "maxValue": 0.0,
              "minValue": 0.0
            }
          ]
        }
      },
      "onAdded": [
        {
          "$type": "AttachModifier",
          "modifierName": "UNIQUE_Activity_CrystalLink_Trigger_RockGadgetDestroyed"
        }
      ],
      "isDynamicAbility": true
    }
  },
  {
    "Default": {
      "$type": "ConfigAbility",
      "abilityName": "ActivityAbility_CrystalLink_Trigger_UseSkill_Level4",
      "abilitySpecials": {
        "TriggerCD": 0.0
      },
      "modifiers": {
        "UNIQUE_Activity_CrystalLink_Trigger_UseSkill_Level4": {
          "stacking": "Unique",
          "modifierName": "",
          "forceTriggerWhenChangeAuthority": true,
          "elementDurability": 100.0,
          "modifierMixins": [
            {
              "$type": "OnAvatarUseSkillMixin",
              "onTriggerSkill": [
                {
                  "$type": "EPIMHDNFGBE",
                  "predicates": [
                    {
                      "$type": "ByTargetGlobalValue",
                      "target": "Self",
                      "key": "UseSkill_CDState",
                      "value": 0.0,
                      "compareType": "NoneOrEqual"
                    }
                  ],
                  "id": 15
                },
                {
                  "$type": "AHPEKICBIIL",
                  "predicates": [
                    {
                      "$type": "ByTargetGlobalValue",
                      "target": "Self",
                      "key": "UseSkill_CDState",
                      "value": 0.0,
                      "compareType": "NoneOrEqual"
                    }
                  ],
                  "luaCallType": "CurGalleryControlGroup",
                  "funcName": "SLC_Add_Fever",
                  "param1": 0.0,
                  "MGAMDEHMCOL": 0.0,
                  "MMHOHAOGPLP": 0.0
                },
                {
                  "$type": "ApplyModifier",
                  "modifierName": "UNIQUE_Activity_CrystalLink_Trigger_UseSkill_Level4_CD"
                }
              ],
              "clearSkillIdDelay": 0.20000000298023224
            }
          ]
        },
        "UNIQUE_Activity_CrystalLink_Trigger_UseSkill_Level4_CD": {
          "stacking": "Unique",
          "modifierName": "",
          "forceTriggerWhenChangeAuthority": true,
          "duration": "TriggerCD",
          "elementDurability": 100.0,
          "onAdded": [
            {
              "$type": "SetGlobalValue",
              "shieldHP": true,
              "value": -1.0,
              "key": "UseSkill_CDState",
              "maxValue": 0.0,
              "minValue": 0.0
            }
          ],
          "onRemoved": [
            {
              "$type": "SetGlobalValue",
              "shieldHP": true,
              "value": 0.0,
              "key": "UseSkill_CDState",
              "maxValue": 0.0,
              "minValue": 0.0
            }
          ]
        }
      },
      "onAdded": [
        {
          "$type": "AttachModifier",
          "modifierName": "UNIQUE_Activity_CrystalLink_Trigger_UseSkill_Level4"
        }
      ],
      "isDynamicAbility": true
    }
  },
  {
    "Default": {
      "$type": "ConfigAbility",
      "abilityName": "ActivityAbility_CrystalLink_Trigger_BeingHealed",
      "abilitySpecials": {
        "TriggerCD": 0.0
      },
      "modifiers": {
        "UNIQUE_Activity_CrystalLink_Trigger_BeingHealed": {
          "stacking": "Unique",
          "modifierName": "",
          "forceTriggerWhenChangeAuthority": true,
          "elementDurability": 100.0,
          "onBeingHealed": [
            {
              "$type": "Predicated",
              "shieldHP": true,
              "targetPredicates": [
                {
                  "$type": "ByTargetGlobalValue",
                  "target": "Self",
                  "key": "BeingHealed_CDState",
                  "value": 0.0,
                  "compareType": "NoneOrEqual"
                }
              ],
              "successActions": [
                {
                  "$type": "EPIMHDNFGBE",
                  "shieldHP": true,
                  "id": 10
                },
                {
                  "$type": "AHPEKICBIIL",
                  "shieldHP": true,
                  "luaCallType": "CurGalleryControlGroup",
                  "funcName": "SLC_Add_Fever",
                  "param1": 0.0,
                  "MGAMDEHMCOL": 0.0,
                  "MMHOHAOGPLP": 0.0
                },
                {
                  "$type": "ApplyModifier",
                  "shieldHP": true,
                  "modifierName": "UNIQUE_Activity_CrystalLink_Trigger_BeingHealed_CD"
                }
              ]
            }
          ]
        },
        "UNIQUE_Activity_CrystalLink_Trigger_BeingHealed_CD": {
          "stacking": "Unique",
          "modifierName": "",
          "forceTriggerWhenChangeAuthority": true,
          "duration": "TriggerCD",
          "elementDurability": 100.0,
          "onAdded": [
            {
              "$type": "SetGlobalValue",
              "shieldHP": true,
              "value": -1.0,
              "key": "BeingHealed_CDState",
              "maxValue": 0.0,
              "minValue": 0.0
            }
          ],
          "onRemoved": [
            {
              "$type": "SetGlobalValue",
              "shieldHP": true,
              "value": 0.0,
              "key": "BeingHealed_CDState",
              "maxValue": 0.0,
              "minValue": 0.0
            }
          ]
        }
      },
      "onAdded": [
        {
          "$type": "AttachModifier",
          "modifierName": "UNIQUE_Activity_CrystalLink_Trigger_BeingHealed"
        }
      ],
      "isDynamicAbility": true
    }
  },
  {
    "Default": {
      "$type": "ConfigAbility",
      "abilityName": "ActivityAbility_CrystalLink_Trigger_HPDown",
      "abilitySpecials": {
        "TriggerCD": 0.0
      },
      "modifiers": {
        "UNIQUE_Activity_CrystalLink_Trigger_HPDown": {
          "stacking": "Unique",
          "modifierName": "",
          "forceTriggerWhenChangeAuthority": true,
          "elementDurability": 100.0,
          "modifierMixins": [
            {
              "$type": "DoActionByEventMixin",
              "onEvent": "HPDown",
              "actions": [
                {
                  "$type": "EPIMHDNFGBE",
                  "shieldHP": true,
                  "predicates": [
                    {
                      "$type": "ByTargetGlobalValue",
                      "target": "Self",
                      "key": "HPDown_CDState",
                      "value": 0.0,
                      "compareType": "NoneOrEqual"
                    }
                  ],
                  "id": 11
                },
                {
                  "$type": "AHPEKICBIIL",
                  "shieldHP": true,
                  "predicates": [
                    {
                      "$type": "ByTargetGlobalValue",
                      "target": "Self",
                      "key": "HPDown_CDState",
                      "value": 0.0,
                      "compareType": "NoneOrEqual"
                    }
                  ],
                  "luaCallType": "CurGalleryControlGroup",
                  "funcName": "SLC_Add_Fever",
                  "param1": 0.0,
                  "MGAMDEHMCOL": 0.0,
                  "MMHOHAOGPLP": 0.0
                },
                {
                  "$type": "ApplyModifier",
                  "shieldHP": true,
                  "predicates": [
                    {
                      "$type": "ByTargetGlobalValue",
                      "target": "Self",
                      "key": "HPDown_CDState",
                      "value": 0.0,
                      "compareType": "NoneOrEqual"
                    }
                  ],
                  "modifierName": "UNIQUE_Activity_CrystalLink_Trigger_HPDown_CD"
                }
              ],
              "costEnergyDeltaName": ""
            }
          ]
        },
        "UNIQUE_Activity_CrystalLink_Trigger_HPDown_CD": {
          "stacking": "Unique",
          "modifierName": "",
          "forceTriggerWhenChangeAuthority": true,
          "duration": "TriggerCD",
          "elementDurability": 100.0,
          "onAdded": [
            {
              "$type": "SetGlobalValue",
              "shieldHP": true,
              "value": -1.0,
              "key": "HPDown_CDState",
              "maxValue": 0.0,
              "minValue": 0.0
            }
          ],
          "onRemoved": [
            {
              "$type": "SetGlobalValue",
              "shieldHP": true,
              "value": 0.0,
              "key": "HPDown_CDState",
              "maxValue": 0.0,
              "minValue": 0.0
            }
          ]
        }
      },
      "onAdded": [
        {
          "$type": "AttachModifier",
          "modifierName": "UNIQUE_Activity_CrystalLink_Trigger_HPDown"
        }
      ],
      "isDynamicAbility": true
    }
  },
  {
    "Default": {
      "$type": "ConfigAbility",
      "abilityName": "ActivityAbility_CrystalLink_Trigger_UseSkill_Level5",
      "abilitySpecials": {
        "TriggerCD": 0.0
      },
      "modifiers": {
        "UNIQUE_Activity_CrystalLink_Trigger_UseSkill_Level5": {
          "stacking": "Unique",
          "modifierName": "",
          "forceTriggerWhenChangeAuthority": true,
          "elementDurability": 100.0,
          "modifierMixins": [
            {
              "$type": "OnAvatarUseSkillMixin",
              "onTriggerSkill": [
                {
                  "$type": "EPIMHDNFGBE",
                  "predicates": [
                    {
                      "$type": "ByTargetGlobalValue",
                      "target": "Self",
                      "key": "UseSkill_CDState",
                      "value": 0.0,
                      "compareType": "NoneOrEqual"
                    }
                  ],
                  "id": 12
                },
                {
                  "$type": "AHPEKICBIIL",
                  "predicates": [
                    {
                      "$type": "ByTargetGlobalValue",
                      "target": "Self",
                      "key": "UseSkill_CDState",
                      "value": 0.0,
                      "compareType": "NoneOrEqual"
                    }
                  ],
                  "luaCallType": "CurGalleryControlGroup",
                  "funcName": "SLC_Add_Fever",
                  "param1": 0.0,
                  "MGAMDEHMCOL": 0.0,
                  "MMHOHAOGPLP": 0.0
                },
                {
                  "$type": "ApplyModifier",
                  "modifierName": "UNIQUE_Activity_CrystalLink_Trigger_UseSkill_Level5_CD"
                }
              ],
              "clearSkillIdDelay": 0.20000000298023224
            }
          ]
        },
        "UNIQUE_Activity_CrystalLink_Trigger_UseSkill_Level5_CD": {
          "stacking": "Unique",
          "modifierName": "",
          "forceTriggerWhenChangeAuthority": true,
          "duration": "TriggerCD",
          "elementDurability": 100.0,
          "onAdded": [
            {
              "$type": "SetGlobalValue",
              "shieldHP": true,
              "value": -1.0,
              "key": "UseSkill_CDState",
              "maxValue": 0.0,
              "minValue": 0.0
            }
          ],
          "onRemoved": [
            {
              "$type": "SetGlobalValue",
              "shieldHP": true,
              "value": 0.0,
              "key": "UseSkill_CDState",
              "maxValue": 0.0,
              "minValue": 0.0
            }
          ]
        }
      },
      "onAdded": [
        {
          "$type": "AttachModifier",
          "modifierName": "UNIQUE_Activity_CrystalLink_Trigger_UseSkill_Level5"
        }
      ],
      "isDynamicAbility": true
    }
  },
  {
    "Default": {
      "$type": "ConfigAbility",
      "abilityName": "ActivityAbility_CrystalLink_Trigger_HitFrozenTarget",
      "abilitySpecials": {
        "TriggerCD": 0.0
      },
      "modifiers": {
        "UNIQUE_Activity_CrystalLink_Trigger_HitFrozenTarget": {
          "stacking": "Unique",
          "modifierName": "",
          "forceTriggerWhenChangeAuthority": true,
          "elementDurability": 100.0,
          "onAttackLanded": [
            {
              "$type": "Predicated",
              "target": "Other",
              "shieldHP": true,
              "targetPredicates": [
                {
                  "$type": "ByHasAbilityState",
                  "abilityState": "ElementFrozen"
                },
                {
                  "$type": "ByTargetGlobalValue",
                  "target": "Self",
                  "key": "HitFrozenTarget_CDState",
                  "value": 0.0,
                  "compareType": "NoneOrEqual"
                }
              ],
              "successActions": [
                {
                  "$type": "EPIMHDNFGBE",
                  "shieldHP": true,
                  "id": 16
                },
                {
                  "$type": "AHPEKICBIIL",
                  "shieldHP": true,
                  "luaCallType": "CurGalleryControlGroup",
                  "funcName": "SLC_Add_Fever",
                  "param1": 0.0,
                  "MGAMDEHMCOL": 0.0,
                  "MMHOHAOGPLP": 0.0
                },
                {
                  "$type": "ApplyModifier",
                  "shieldHP": true,
                  "modifierName": "UNIQUE_Activity_CrystalLink_Trigger_HitFrozenTarget_CD"
                }
              ]
            }
          ]
        },
        "UNIQUE_Activity_CrystalLink_Trigger_HitFrozenTarget_CD": {
          "stacking": "Unique",
          "modifierName": "",
          "forceTriggerWhenChangeAuthority": true,
          "duration": "TriggerCD",
          "elementDurability": 100.0,
          "onAdded": [
            {
              "$type": "SetGlobalValue",
              "shieldHP": true,
              "value": -1.0,
              "key": "HitFrozenTarget_CDState",
              "maxValue": 0.0,
              "minValue": 0.0
            }
          ],
          "onRemoved": [
            {
              "$type": "SetGlobalValue",
              "shieldHP": true,
              "value": 0.0,
              "key": "HitFrozenTarget_CDState",
              "maxValue": 0.0,
              "minValue": 0.0
            }
          ]
        }
      },
      "onAdded": [
        {
          "$type": "AttachModifier",
          "modifierName": "UNIQUE_Activity_CrystalLink_Trigger_HitFrozenTarget"
        }
      ],
      "isDynamicAbility": true
    }
  },
  {
    "Default": {
      "$type": "ConfigAbility",
      "abilityName": "ActivityAbility_CrystalLink_Trigger_FrozenBroken",
      "abilitySpecials": {
        "TriggerCD": 0.0
      },
      "modifiers": {
        "UNIQUE_Activity_CrystalLink_Trigger_FrozenBroken": {
          "stacking": "Unique",
          "modifierName": "",
          "forceTriggerWhenChangeAuthority": true,
          "elementDurability": 100.0,
          "modifierMixins": [
            {
              "$type": "DoActionByElementReactionMixin",
              "entityTypes": ["Monster"],
              "reactionTypes": ["FrozenBroken"],
              "actions": [
                {
                  "$type": "EPIMHDNFGBE",
                  "shieldHP": true,
                  "predicates": [
                    {
                      "$type": "ByTargetGlobalValue",
                      "target": "Self",
                      "key": "FrozenBroken_CDState",
                      "value": 0.0,
                      "compareType": "NoneOrEqual"
                    }
                  ],
                  "id": 17
                },
                {
                  "$type": "AHPEKICBIIL",
                  "shieldHP": true,
                  "predicates": [
                    {
                      "$type": "ByTargetGlobalValue",
                      "target": "Self",
                      "key": "FrozenBroken_CDState",
                      "value": 0.0,
                      "compareType": "NoneOrEqual"
                    }
                  ],
                  "luaCallType": "CurGalleryControlGroup",
                  "funcName": "SLC_Add_Fever",
                  "param1": 0.0,
                  "MGAMDEHMCOL": 0.0,
                  "MMHOHAOGPLP": 0.0
                },
                {
                  "$type": "ApplyModifier",
                  "shieldHP": true,
                  "predicates": [
                    {
                      "$type": "ByTargetGlobalValue",
                      "target": "Self",
                      "key": "FrozenBroken_CDState",
                      "value": 0.0,
                      "compareType": "NoneOrEqual"
                    }
                  ],
                  "modifierName": "UNIQUE_Activity_CrystalLink_Trigger_FrozenBroken_CD"
                }
              ]
            }
          ]
        },
        "UNIQUE_Activity_CrystalLink_Trigger_FrozenBroken_CD": {
          "stacking": "Unique",
          "modifierName": "",
          "forceTriggerWhenChangeAuthority": true,
          "duration": "TriggerCD",
          "elementDurability": 100.0,
          "onAdded": [
            {
              "$type": "SetGlobalValue",
              "shieldHP": true,
              "value": -1.0,
              "key": "FrozenBroken_CDState",
              "maxValue": 0.0,
              "minValue": 0.0
            }
          ],
          "onRemoved": [
            {
              "$type": "SetGlobalValue",
              "shieldHP": true,
              "value": 0.0,
              "key": "FrozenBroken_CDState",
              "maxValue": 0.0,
              "minValue": 0.0
            }
          ]
        }
      },
      "onAdded": [
        {
          "$type": "AttachModifier",
          "modifierName": "UNIQUE_Activity_CrystalLink_Trigger_FrozenBroken"
        }
      ],
      "isDynamicAbility": true
    }
  },
  {
    "Default": {
      "$type": "ConfigAbility",
      "abilityName": "ActivityAbility_CrystalLink_Trigger_UseSkill_Level6",
      "abilitySpecials": {
        "TriggerCD": 0.0
      },
      "modifiers": {
        "UNIQUE_Activity_CrystalLink_Trigger_UseSkill_Level6": {
          "stacking": "Unique",
          "modifierName": "",
          "forceTriggerWhenChangeAuthority": true,
          "elementDurability": 100.0,
          "modifierMixins": [
            {
              "$type": "OnAvatarUseSkillMixin",
              "onTriggerSkill": [
                {
                  "$type": "EPIMHDNFGBE",
                  "predicates": [
                    {
                      "$type": "ByTargetGlobalValue",
                      "target": "Self",
                      "key": "UseSkill_CDState",
                      "value": 0.0,
                      "compareType": "NoneOrEqual"
                    }
                  ],
                  "id": 17
                },
                {
                  "$type": "AHPEKICBIIL",
                  "predicates": [
                    {
                      "$type": "ByTargetGlobalValue",
                      "target": "Self",
                      "key": "UseSkill_CDState",
                      "value": 0.0,
                      "compareType": "NoneOrEqual"
                    }
                  ],
                  "luaCallType": "CurGalleryControlGroup",
                  "funcName": "SLC_Add_Fever",
                  "param1": 0.0,
                  "MGAMDEHMCOL": 0.0,
                  "MMHOHAOGPLP": 0.0
                },
                {
                  "$type": "ApplyModifier",
                  "modifierName": "UNIQUE_Activity_CrystalLink_Trigger_UseSkill_Level6_CD"
                }
              ],
              "clearSkillIdDelay": 0.20000000298023224
            }
          ]
        },
        "UNIQUE_Activity_CrystalLink_Trigger_UseSkill_Level6_CD": {
          "stacking": "Unique",
          "modifierName": "",
          "forceTriggerWhenChangeAuthority": true,
          "duration": "TriggerCD",
          "elementDurability": 100.0,
          "onAdded": [
            {
              "$type": "SetGlobalValue",
              "shieldHP": true,
              "value": -1.0,
              "key": "UseSkill_CDState",
              "maxValue": 0.0,
              "minValue": 0.0
            }
          ],
          "onRemoved": [
            {
              "$type": "SetGlobalValue",
              "shieldHP": true,
              "value": 0.0,
              "key": "UseSkill_CDState",
              "maxValue": 0.0,
              "minValue": 0.0
            }
          ]
        }
      },
      "onAdded": [
        {
          "$type": "AttachModifier",
          "modifierName": "UNIQUE_Activity_CrystalLink_Trigger_UseSkill_Level6"
        }
      ],
      "isDynamicAbility": true
    }
  },
  {
    "Default": {
      "$type": "ConfigAbility",
      "abilityName": "ActivityAbility_CrystalLink_Trigger_Frozen",
      "abilitySpecials": {
        "TriggerCD": 0.0
      },
      "modifiers": {
        "UNIQUE_Activity_CrystalLink_Trigger_Frozen": {
          "stacking": "Unique",
          "modifierName": "",
          "forceTriggerWhenChangeAuthority": true,
          "elementDurability": 100.0,
          "modifierMixins": [
            {
              "$type": "DoActionByElementReactionMixin",
              "entityTypes": ["Monster"],
              "reactionTypes": ["Freeze"],
              "actions": [
                {
                  "$type": "EPIMHDNFGBE",
                  "shieldHP": true,
                  "predicates": [
                    {
                      "$type": "ByTargetGlobalValue",
                      "target": "Self",
                      "key": "Frozen_CDState",
                      "value": 0.0,
                      "compareType": "NoneOrEqual"
                    }
                  ],
                  "id": 18
                },
                {
                  "$type": "AHPEKICBIIL",
                  "shieldHP": true,
                  "predicates": [
                    {
                      "$type": "ByTargetGlobalValue",
                      "target": "Self",
                      "key": "Frozen_CDState",
                      "value": 0.0,
                      "compareType": "NoneOrEqual"
                    }
                  ],
                  "luaCallType": "CurGalleryControlGroup",
                  "funcName": "SLC_Add_Fever",
                  "param1": 0.0,
                  "MGAMDEHMCOL": 0.0,
                  "MMHOHAOGPLP": 0.0
                },
                {
                  "$type": "ApplyModifier",
                  "shieldHP": true,
                  "predicates": [
                    {
                      "$type": "ByTargetGlobalValue",
                      "target": "Self",
                      "key": "Frozen_CDState",
                      "value": 0.0,
                      "compareType": "NoneOrEqual"
                    }
                  ],
                  "modifierName": "UNIQUE_Activity_CrystalLink_Trigger_Frozen_CD"
                }
              ]
            }
          ]
        },
        "UNIQUE_Activity_CrystalLink_Trigger_Frozen_CD": {
          "stacking": "Unique",
          "modifierName": "",
          "forceTriggerWhenChangeAuthority": true,
          "duration": "TriggerCD",
          "elementDurability": 100.0,
          "onAdded": [
            {
              "$type": "SetGlobalValue",
              "shieldHP": true,
              "value": -1.0,
              "key": "Frozen_CDState",
              "maxValue": 0.0,
              "minValue": 0.0
            }
          ],
          "onRemoved": [
            {
              "$type": "SetGlobalValue",
              "shieldHP": true,
              "value": 0.0,
              "key": "Frozen_CDState",
              "maxValue": 0.0,
              "minValue": 0.0
            }
          ]
        }
      },
      "onAdded": [
        {
          "$type": "AttachModifier",
          "modifierName": "UNIQUE_Activity_CrystalLink_Trigger_Frozen"
        }
      ],
      "isDynamicAbility": true
    }
  }
]
