[
  {
    "Default": {
      "$type": "ConfigAbility",
      "abilityName": "ActivityAbility_EffigyChallenge_V5_Skill_Forbidden",
      "abilityMixins": [
        {
          "$type": "AttachModifierToSelfGlobalValueNoInitMixin",
          "globalValueKey": "SGV_EffigyChallenge_V5_FightStarted",
          "valueSteps": [-0.5, 1.5, 2.5],
          "modifierNameSteps": [
            "EffigyChallenge_V5_Skill_Forbiden_Not_Started",
            "EffigyChallenge_V5_Skill_Forbiden_Started"
          ],
          "NMCLMHFBALJ": true
        },
        {
          "$type": "AttachModifierToSelfGlobalValueNoInitMixin",
          "globalValueKey": "SGV_EffigyChallenge_V5_FightStarted",
          "valueSteps": [0.5, 1.5],
          "modifierNameSteps": ["EffigyChallenge_V5_Revive"],
          "NMCLMHFBALJ": true
        },
        {
          "$type": "CurLocalAvatarMixinV2",
          "modifierName": "UNIQUE_EffigyChallenge_V5_Immune_Avatar"
        }
      ],
      "modifiers": {
        "EffigyChallenge_V5_Revive": {
          "modifierName": "",
          "elementDurability": 100.0,
          "onAdded": [
            {
              "$type": "KLNACMAKOOI",
              "target": "CurTeamAvatars",
              "shieldHP": true,
              "CKDBFHCIJEK": 1.0,
              "cdRatio": "",
              "amountByTargetCurrentHPRatio": 1.0
            }
          ]
        },
        "EffigyChallenge_V5_Skill_Forbiden_Started": {
          "modifierName": "",
          "elementDurability": 100.0,
          "onAdded": [
            {
              "$type": "ReviveElemEnergy",
              "target": "CurTeamAvatars",
              "value": 100.0
            },
            {
              "$type": "HealHP",
              "target": "AllPlayerAvatars",
              "shieldHP": true,
              "CKDBFHCIJEK": 1.0,
              "cdRatio": ""
            },
            {
              "$type": "ModifyAvatarSkillCD",
              "target": "CurTeamAvatars",
              "skillSlot": [2, 5],
              "amountByTargetCurrentHPRatio": -1.0
            },
            {
              "$type": "EKBIAFFHLLP",
              "whiteList": [42601125]
            }
          ]
        },
        "EffigyChallenge_V5_Skill_Forbiden_Not_Started": {
          "modifierName": "",
          "elementDurability": 100.0,
          "modifierMixins": [
            {
              "$type": "BAAHKAFDLOB"
            }
          ],
          "onAdded": [
            {
              "$type": "PPDJHLBHCIK",
              "shieldHP": true,
              "canBeHandledOnRecover": true,
              "toPlayMode": "ForbidenSkillAndAttack"
            }
          ],
          "onRemoved": [
            {
              "$type": "PPDJHLBHCIK",
              "shieldHP": true,
              "canBeHandledOnRecover": true,
              "JFDCCIECAJB": "ForbidenSkillAndAttack"
            }
          ]
        },
        "UNIQUE_EffigyChallenge_V5_Immune_Avatar": {
          "modifierName": "",
          "forceTriggerWhenChangeAuthority": true,
          "elementDurability": 100.0,
          "properties": {
            "Actor_FallingDamageRatio": -1.0
          }
        }
      },
      "isDynamicAbility": true
    }
  },
  {
    "Default": {
      "$type": "ConfigAbility",
      "abilityName": "ActivityAbility_EffigyChallenge_V5_AssistBuff_Level1",
      "onAdded": [
        {
          "$type": "SetGlobalValue",
          "value": 1.0,
          "key": "_EffigyChallenge_V5_Level",
          "maxValue": 0.0,
          "minValue": 0.0
        }
      ],
      "isDynamicAbility": true
    }
  },
  {
    "Default": {
      "$type": "ConfigAbility",
      "abilityName": "ActivityAbility_EffigyChallenge_V5_AssistBuff_Level2",
      "abilityMixins": [
        {
          "$type": "AttachModifierToSelfGlobalValueNoInitMixin",
          "globalValueKey": "SGV_EffigyChallenge_V5_AssistOptionSelected_3",
          "valueSteps": [0.5, 1.5],
          "modifierNameSteps": ["EffigyChallenge_V5_Level2_Buff3"],
          "NMCLMHFBALJ": true
        }
      ],
      "abilitySpecials": {
        "CdTime": 1.5,
        "Damage_Rate": 3.0,
        "DamageSystemValue": 1.0,
        "Shield_Up": 0.6000000238418579
      },
      "modifiers": {
        "EffigyChallenge_V5_Level2_Buff3": {
          "modifierName": "",
          "elementDurability": 100.0,
          "modifierMixins": [
            {
              "$type": "EEPKCGMKKJC",
              "modifierName": "UNIQUE_Activity_EffigyChallenge_V5_Level2_ShieldUp"
            },
            {
              "$type": "CurLocalAvatarMixinV2",
              "modifierName": "UNIQUE_Activity_EffigyChallenge_V5_Level2_Impact_Wave"
            }
          ]
        },
        "UNIQUE_Activity_EffigyChallenge_V5_Level2_ShieldUp": {
          "stacking": "Unique",
          "modifierName": "",
          "forceTriggerWhenChangeAuthority": true,
          "elementDurability": 100.0,
          "properties": {
            "Actor_ShieldCostMinusRatio": "Shield_Up"
          },
          "isLimitedProperties": true
        },
        "UNIQUE_Activity_EffigyChallenge_V5_Level2_Impact_Wave": {
          "stacking": "Unique",
          "modifierName": "",
          "forceTriggerWhenChangeAuthority": true,
          "elementDurability": 100.0,
          "onAttackLanded": [
            {
              "$type": "Predicated",
              "target": "Other",
              "shieldHP": true,
              "targetPredicates": [
                {
                  "$type": "ByHasShield",
                  "target": "CurLocalAvatar",
                  "damageRatio": "All"
                },
                {
                  "$type": "ByEntityTypes",
                  "entityTypes": ["Monster"]
                },
                {
                  "$type": "ByTargetGlobalValue",
                  "target": "Team",
                  "key": "_ABILITY_EffigyChallenge_V5_Impact_Wave_CD",
                  "value": 0.0,
                  "compareType": "NoneOrEqual"
                },
                {
                  "$type": "ByNot",
                  "predicates": [
                    {
                      "$type": "ByAttackTags",
                      "attackTags": ["Activity_Buff_EffigyChallenge_V5"]
                    }
                  ]
                }
              ],
              "successActions": [
                {
                  "$type": "ApplyModifier",
                  "target": "Other",
                  "shieldHP": true,
                  "modifierName": "UNIQUE_Activity_EffigyChallenge_V5_Level2_Impact_Wave_AoeEffect"
                },
                {
                  "$type": "AttachModifier",
                  "target": "Team",
                  "shieldHP": true,
                  "modifierName": "UNIQUE_Activity_EffigyChallenge_V5_Level2_Impact_Wave_AoeCD"
                }
              ]
            }
          ]
        },
        "UNIQUE_Activity_EffigyChallenge_V5_Level2_Impact_Wave_AoeEffect": {
          "stacking": "Unique",
          "modifierName": "",
          "forceTriggerWhenChangeAuthority": true,
          "duration": 0.10000000149011612,
          "elementDurability": 100.0,
          "onAdded": [
            {
              "$type": "FireEffect",
              "shieldHP": true,
              "rotationDampTime": "Eff_Stages_GainWave_01",
              "PPPDJGDDOGD": 1.0,
              "AJDILHJFNKE": -1.0
            },
            {
              "$type": "TriggerAttackEvent",
              "target": "Applier",
              "shieldHP": true,
              "attackEvent": {
                "attackPattern": {
                  "$type": "ConfigAttackSphere",
                  "triggerType": "TriggerNoRepeat",
                  "born": {
                    "$type": "ConfigBornBySelf",
                    "useRotation": true
                  },
                  "radius": 4.0
                },
                "attackInfo": {
                  "attackTag": "Activity_Buff_EffigyChallenge_V5",
                  "attenuationTag": "",
                  "attenuationGroup": "default",
                  "attackProperty": {
                    "actorWindSubHurtDelta": 0.0,
                    "elementDurability": 0.0,
                    "ignoreAttackerProperty": true,
                    "enBreak": 0.0,
                    "attackType": "None",
                    "HMBONGBFIAP": ["Damage_Rate", "DamageSystemValue", "MUL"],
                    "trueDamage": true,
                    "ignoreModifyDamage": true,
                    "GLKMCMDJBIK": 0.0
                  },
                  "hitPattern": {
                    "onHitEffectName": "default",
                    "hitImpulseY": "",
                    "hitImpulseType": "LV2",
                    "hitHaltTimeScale": 0.019999999552965164
                  }
                }
              },
              "targetType": "Enemy"
            }
          ]
        },
        "UNIQUE_Activity_EffigyChallenge_V5_Level2_Impact_Wave_AoeCD": {
          "modifierName": "",
          "forceTriggerWhenChangeAuthority": true,
          "duration": "CdTime",
          "elementDurability": 100.0,
          "onAdded": [
            {
              "$type": "SetGlobalValue",
              "shieldHP": true,
              "value": -1.0,
              "key": "_ABILITY_EffigyChallenge_V5_Impact_Wave_CD",
              "maxValue": 0.0,
              "minValue": 0.0
            }
          ],
          "onRemoved": [
            {
              "$type": "SetGlobalValue",
              "shieldHP": true,
              "value": 0.0,
              "key": "_ABILITY_EffigyChallenge_V5_Impact_Wave_CD",
              "maxValue": 0.0,
              "minValue": 0.0
            }
          ]
        }
      },
      "onAdded": [
        {
          "$type": "GDHGMAPPGHD",
          "shieldHP": true,
          "key": "DamageSystemValue",
          "damageRatio": "ElementLevelCo"
        },
        {
          "$type": "SetGlobalValue",
          "value": 2.0,
          "key": "_EffigyChallenge_V5_Level",
          "maxValue": 0.0,
          "minValue": 0.0
        }
      ],
      "isDynamicAbility": true
    }
  },
  {
    "Default": {
      "$type": "ConfigAbility",
      "abilityName": "ActivityAbility_EffigyChallenge_V5_AssistBuff_Level3",
      "abilityMixins": [
        {
          "$type": "AttachModifierToSelfGlobalValueNoInitMixin",
          "globalValueKey": "SGV_EffigyChallenge_V5_AssistOptionSelected_3",
          "valueSteps": [0.5, 1.5],
          "modifierNameSteps": ["EffigyChallenge_V5_Level3_Buff3"],
          "NMCLMHFBALJ": true
        },
        {
          "$type": "AttachModifierToSelfGlobalValueNoInitMixin",
          "globalValueKey": "SGV_Ability_GoalStatus",
          "valueSteps": [-0.5, 0.5],
          "modifierNameSteps": [
            "EffigyChallenge_V5_Level3_Buff3_ElementReactionCounter_Handler"
          ],
          "NMCLMHFBALJ": true
        }
      ],
      "abilitySpecials": {
        "dmpUpRatio": 0.3499999940395355,
        "cdRatio": -0.4000000059604645
      },
      "modifiers": {
        "EffigyChallenge_V5_Level3_Buff3": {
          "modifierName": "",
          "elementDurability": 100.0,
          "modifierMixins": [
            {
              "$type": "AttachModifierToGlobalValueMixin",
              "otherTargets": {
                "$type": "PBLNLAENOGB",
                "tag": "ChallengeBoss"
              },
              "globalValueKey": "GV_EffigyChallenge_V5_Boss_Fall",
              "valueSteps": [0.5, 1.5],
              "modifierNameSteps": [
                "EffigyChallenge_V5_Level3_Buff3_On_Boss_Fall"
              ],
              "targetRegisterType": "RegisterAlways",
              "NMCLMHFBALJ": true
            }
          ]
        },
        "EffigyChallenge_V5_Level3_Buff3_On_Boss_Fall": {
          "modifierName": "",
          "elementDurability": 100.0,
          "modifierMixins": [
            {
              "$type": "EEPKCGMKKJC",
              "modifierName": "UNIQUE_EffigyChallenge_V5_Level3_Buff3_DMG_Up"
            }
          ]
        },
        "EffigyChallenge_V5_Level3_Buff3_ElementReactionCounter_Handler": {
          "modifierName": "",
          "elementDurability": 100.0,
          "modifierMixins": [
            {
              "$type": "AttachModifierToSelfGlobalValueNoInitMixin",
              "globalValueKey": "SGV_EffigyChallenge_V5_FightStarted",
              "valueSteps": [1.5, 2.5],
              "modifierNameSteps": [
                "EffigyChallenge_V5_Level3_Buff3_ElementReactionCounter"
              ],
              "NMCLMHFBALJ": true
            }
          ]
        },
        "EffigyChallenge_V5_Level3_Buff3_ElementReactionCounter": {
          "modifierName": "",
          "elementDurability": 100.0,
          "onAdded": [
            {
              "$type": "AttachModifier",
              "target": "CurTeamAvatars",
              "shieldHP": true,
              "modifierName": "UNIQUE_Activity_EffigyChallenge_V5_ElementReactionCounter_Handler"
            }
          ]
        },
        "UNIQUE_EffigyChallenge_V5_Level3_Buff3_DMG_Up": {
          "modifierName": "",
          "forceTriggerWhenChangeAuthority": true,
          "elementDurability": 100.0,
          "properties": {
            "Actor_AddHurtDelta": "dmpUpRatio"
          }
        },
        "UNIQUE_Activity_EffigyChallenge_V5_ElementReactionCounter_Handler": {
          "modifierName": "",
          "forceTriggerWhenChangeAuthority": true,
          "elementDurability": 100.0,
          "modifierMixins": [
            {
              "$type": "DoActionByElementReactionMixin",
              "range": 50.0,
              "entityTypes": ["Monster"],
              "reactionTypes": [
                "Explode",
                "Stream",
                "Burning",
                "Melt",
                "Freeze",
                "Shock",
                "Superconductor",
                "SwirlFire",
                "SwirlWater",
                "SwirlElectric",
                "SwirlIce",
                "CrystallizeWater",
                "CrystallizeElectric",
                "CrystallizeIce",
                "CrystallizeFire",
                "Overdose",
                "OverdoseElectric",
                "OverdoseGrass",
                "Overgrow",
                "OvergrowMushroomElectric",
                "OvergrowMushroomFire"
              ],
              "actions": [
                {
                  "$type": "AHPEKICBIIL",
                  "shieldHP": true,
                  "luaCallType": "CurGalleryControlGroup",
                  "funcName": "SLC_EffigyChallenge_V5_Level3_ElementReaction",
                  "param1": 0.0,
                  "MGAMDEHMCOL": 0.0,
                  "MMHOHAOGPLP": 0.0
                }
              ]
            }
          ]
        }
      },
      "onAdded": [
        {
          "$type": "SetGlobalValue",
          "value": 3.0,
          "key": "_EffigyChallenge_V5_Level",
          "maxValue": 0.0,
          "minValue": 0.0
        }
      ],
      "isDynamicAbility": true
    }
  },
  {
    "Default": {
      "$type": "ConfigAbility",
      "abilityName": "ActivityAbility_EffigyChallenge_V5_AssistBuff_Level4",
      "onAdded": [
        {
          "$type": "SetGlobalValue",
          "value": 4.0,
          "key": "_EffigyChallenge_V5_Level",
          "maxValue": 0.0,
          "minValue": 0.0
        }
      ],
      "isDynamicAbility": true
    }
  },
  {
    "Default": {
      "$type": "ConfigAbility",
      "abilityName": "ActivityAbility_EffigyChallenge_V5_AssistSkill",
      "abilityMixins": [
        {
          "$type": "DoActionByEventMixin",
          "onEvent": "SkillReady",
          "skillReadyID": 20096,
          "costEnergyDeltaName": ""
        },
        {
          "$type": "AttachModifierToGlobalValueMixin",
          "otherTargets": {
            "$type": "PBLNLAENOGB",
            "tag": "ChallengeBoss"
          },
          "globalValueKey": "GV_EffigyChallenge_V5_Boss_DisableButtonT",
          "valueSteps": [0.5, 1.5],
          "modifierNameSteps": ["Disable_T_Button"],
          "targetRegisterType": "RegisterAlways",
          "NMCLMHFBALJ": true
        },
        {
          "$type": "AttachModifierToGlobalValueMixin",
          "globalValueKey": "SGV_EffigyChallenge_V5_AssistOptionSelected_2",
          "valueSteps": [0.5, 1.5],
          "modifierNameSteps": ["Assist_Skill_Handle"],
          "NMCLMHFBALJ": true
        }
      ],
      "modifiers": {
        "Assist_Skill_Handle": {
          "modifierName": "",
          "elementDurability": 100.0,
          "onAdded": [
            {
              "$type": "Predicated",
              "targetPredicates": [
                {
                  "$type": "KGMHMHFHGIC",
                  "isHost": true
                }
              ],
              "successActions": [
                {
                  "$type": "FNPMFLOOCDD",
                  "value": 2000.0,
                  "key": "GV_EffigyChallenge_V5_Energy",
                  "maxValue": 0.0,
                  "minValue": 0.0
                },
                {
                  "$type": "MMEOBGGBNLK",
                  "skillID": 20096
                },
                {
                  "$type": "NPGCEEJFDEM",
                  "enable": true
                },
                {
                  "$type": "Predicated",
                  "targetPredicates": [
                    {
                      "$type": "ByTargetGlobalValue",
                      "key": "_EffigyChallenge_V5_Level",
                      "value": 1.0
                    }
                  ],
                  "successActions": [
                    {
                      "$type": "LIAKJHCLFLK"
                    },
                    {
                      "$type": "JOPEOGGIGPB",
                      "skillID": 20096,
                      "cdMin": -11.800000190734863
                    }
                  ]
                },
                {
                  "$type": "Predicated",
                  "targetPredicates": [
                    {
                      "$type": "ByTargetGlobalValue",
                      "key": "_EffigyChallenge_V5_Level",
                      "value": 4.0
                    }
                  ],
                  "successActions": [
                    {
                      "$type": "LIAKJHCLFLK"
                    },
                    {
                      "$type": "JOPEOGGIGPB",
                      "skillID": 20096,
                      "cdMin": -8.5
                    }
                  ]
                }
              ],
              "failActions": [
                {
                  "$type": "MMEOBGGBNLK"
                }
              ]
            }
          ],
          "onRemoved": [
            {
              "$type": "MMEOBGGBNLK"
            }
          ],
          "onReconnect": [
            {
              "$type": "Predicated",
              "targetPredicates": [
                {
                  "$type": "KGMHMHFHGIC",
                  "isHost": true
                }
              ],
              "successActions": [
                {
                  "$type": "MMEOBGGBNLK",
                  "skillID": 20096
                },
                {
                  "$type": "NPGCEEJFDEM",
                  "enable": true
                }
              ]
            }
          ]
        },
        "Disable_T_Button": {
          "modifierName": "",
          "elementDurability": 100.0,
          "modifierMixins": [
            {
              "$type": "LKBIMOJPJPG",
              "JJDAPDKKCAI": {
                "skillId": 20096,
                "JIFEAGNFFJP": false,
                "LLNAEPLHJMJ": false,
                "NEJEGHAFHFM": false
              }
            }
          ],
          "onAdded": [
            {
              "$type": "NPGCEEJFDEM"
            }
          ],
          "onRemoved": [
            {
              "$type": "NPGCEEJFDEM",
              "predicates": [
                {
                  "$type": "KGMHMHFHGIC",
                  "isHost": true
                }
              ],
              "enable": true
            }
          ]
        }
      },
      "onAbilityStart": [
        {
          "$type": "LIAKJHCLFLK"
        },
        {
          "$type": "AHPEKICBIIL",
          "luaCallType": "CurGalleryControlGroup",
          "funcName": "SLC_EffigyChallenge_V5_AssistSkill",
          "param1": 0.0,
          "MGAMDEHMCOL": 0.0,
          "MMHOHAOGPLP": 0.0
        },
        {
          "$type": "AddGlobalValue",
          "value": -1000.0,
          "key": "GV_EffigyChallenge_V5_Energy",
          "maxValue": 0.0,
          "minValue": 0.0
        },
        {
          "$type": "JOPEOGGIGPB",
          "predicates": [
            {
              "$type": "ByTargetGlobalValue",
              "key": "GV_EffigyChallenge_V5_Energy",
              "value": 0.0
            }
          ],
          "skillID": 20096,
          "amountByTargetCurrentHPRatio": -1.0
        }
      ],
      "isDynamicAbility": true
    }
  },
  {
    "Default": {
      "$type": "ConfigAbility",
      "abilityName": "SceneObj_Level_Common_Property_Ani_Prop_EffigyChallenge_V5_Cannon_01",
      "modifiers": {
        "Shot_Handler": {
          "modifierName": "",
          "elementDurability": 100.0,
          "modifierMixins": [
            {
              "$type": "DoActionOnGlobalValueChangeMixin",
              "globalValueKey": "SGV_EffigyChallenge_V5_AssistSkillUsed",
              "actions": [
                {
                  "$type": "Predicated",
                  "targetPredicates": [
                    {
                      "$type": "ByTargetGlobalValue",
                      "target": "Self",
                      "key": "SGV_EffigyChallenge_V5_AssistSkillUsed",
                      "value": 0.4000000059604645,
                      "compareType": "MoreThan"
                    }
                  ],
                  "successActions": [
                    {
                      "$type": "SetAnimatorTrigger",
                      "triggerID": "Shot"
                    },
                    {
                      "$type": "FireEffect",
                      "rotationDampTime": "Eff_SceneObj_GeoBombCannon_01_Shoot",
                      "born": {
                        "$type": "ConfigBornByAttachPoint",
                        "useRotation": true,
                        "attachPointName": "ShootPoint",
                        "attachPointTargetType": "Self"
                      },
                      "PPPDJGDDOGD": 1.0,
                      "AJDILHJFNKE": -1.0
                    }
                  ]
                }
              ]
            }
          ]
        }
      },
      "onAdded": [
        {
          "$type": "AttachModifier",
          "modifierName": "Shot_Handler"
        }
      ],
      "isDynamicAbility": true
    }
  },
  {
    "Default": {
      "$type": "ConfigAbility",
      "abilityName": "SceneObj_Level_Common_Property_Ani_Prop_EffigyChallenge_V5_AirWallR25_01",
      "modifiers": {
        "Eff": {
          "modifierName": "",
          "elementDurability": 100.0,
          "onAdded": [
            {
              "$type": "AttachEffect",
              "rotationDampTime": "Eff_Stage_SealBorder_BattleHalo_13",
              "PPPDJGDDOGD": 1.0,
              "AJDILHJFNKE": -1.0
            }
          ]
        }
      },
      "onAdded": [
        {
          "$type": "AttachModifier",
          "modifierName": "Eff"
        }
      ]
    }
  },
  {
    "Default": {
      "$type": "ConfigAbility",
      "abilityName": "SceneObj_Level_Common_Property_Ani_Prop_EffigyChallenge_V5_AirWallR30_01",
      "modifiers": {
        "Eff": {
          "modifierName": "",
          "elementDurability": 100.0,
          "onAdded": [
            {
              "$type": "AttachEffect",
              "rotationDampTime": "Eff_Stage_SealBorder_Test_CLX",
              "PPPDJGDDOGD": 1.0,
              "AJDILHJFNKE": -1.0
            }
          ]
        }
      },
      "onAdded": [
        {
          "$type": "AttachModifier",
          "modifierName": "Eff"
        }
      ]
    }
  },
  {
    "Default": {
      "$type": "ConfigAbility",
      "abilityName": "SceneObj_Level_Common_Property_Ani_Prop_EffigyChallenge_V5_AirWall_02",
      "abilityMixins": [
        {
          "$type": "AttachToGadgetStateMixin",
          "modifierName": "LSLockBubble_Idle"
        },
        {
          "$type": "AttachToGadgetStateMixin",
          "gadgetState": 201,
          "modifierName": "LSLockBubble_Open"
        }
      ],
      "modifiers": {
        "LSLockBubble_Idle": {
          "modifierName": "",
          "elementDurability": 100.0
        },
        "LSLockBubble_Open": {
          "modifierName": "",
          "elementDurability": 100.0,
          "onAdded": [
            {
              "$type": "CLKGEHMNIEF",
              "transformNames": ["Collider"]
            },
            {
              "$type": "KillSelf"
            }
          ]
        }
      }
    }
  },
  {
    "Default": {
      "$type": "ConfigAbility",
      "abilityName": "SceneObj_Level_Common_Property_Ani_Prop_EffigyChallengeV5_Worktop_01",
      "abilityMixins": [
        {
          "$type": "AttachModifierToGlobalValueMixin",
          "globalValueKey": "SGV_EffigyChallenge_V5_Level",
          "valueSteps": [0.5, 1.5, 2.5, 3.5, 4.5],
          "modifierNameSteps": ["Level_1", "Level_2", "Level_3", "Level_4"],
          "NMCLMHFBALJ": true
        }
      ],
      "modifiers": {
        "Level_1": {
          "modifierName": "",
          "elementDurability": 100.0,
          "onAdded": [
            {
              "$type": "PBFOIBMHLIM",
              "enable": true,
              "extraId": 3
            },
            {
              "$type": "PBFOIBMHLIM",
              "extraId": 4
            },
            {
              "$type": "PBFOIBMHLIM",
              "extraId": 5
            },
            {
              "$type": "PBFOIBMHLIM",
              "extraId": 6
            }
          ]
        },
        "Level_2": {
          "modifierName": "",
          "elementDurability": 100.0,
          "onAdded": [
            {
              "$type": "PBFOIBMHLIM",
              "extraId": 3
            },
            {
              "$type": "PBFOIBMHLIM",
              "enable": true,
              "extraId": 4
            },
            {
              "$type": "PBFOIBMHLIM",
              "extraId": 5
            },
            {
              "$type": "PBFOIBMHLIM",
              "extraId": 6
            }
          ]
        },
        "Level_3": {
          "modifierName": "",
          "elementDurability": 100.0,
          "onAdded": [
            {
              "$type": "PBFOIBMHLIM",
              "extraId": 3
            },
            {
              "$type": "PBFOIBMHLIM",
              "extraId": 4
            },
            {
              "$type": "PBFOIBMHLIM",
              "enable": true,
              "extraId": 5
            },
            {
              "$type": "PBFOIBMHLIM",
              "extraId": 6
            }
          ]
        },
        "Level_4": {
          "modifierName": "",
          "elementDurability": 100.0,
          "onAdded": [
            {
              "$type": "PBFOIBMHLIM",
              "extraId": 3
            },
            {
              "$type": "PBFOIBMHLIM",
              "extraId": 4
            },
            {
              "$type": "PBFOIBMHLIM",
              "extraId": 5
            },
            {
              "$type": "PBFOIBMHLIM",
              "enable": true,
              "extraId": 6
            }
          ]
        }
      }
    }
  },
  {
    "Default": {
      "$type": "ConfigAbility",
      "abilityName": "SceneObj_Area_Dq_Property_Ani_Prop_GreatFestivalV2Spotlight_01",
      "modifiers": {
        "ColorChangeHandler": {
          "modifierName": "",
          "elementDurability": 100.0,
          "modifierMixins": [
            {
              "$type": "DoActionOnGlobalValueChangeMixin",
              "globalValueKey": "Color_Change",
              "actions": [
                {
                  "$type": "Predicated",
                  "targetPredicates": [
                    {
                      "$type": "HNLCJOPBDLC",
                      "gadgetState": 201
                    }
                  ],
                  "successActions": [
                    {
                      "$type": "HPIDNBEGJLL",
                      "state": 202
                    }
                  ],
                  "failActions": [
                    {
                      "$type": "Predicated",
                      "targetPredicates": [
                        {
                          "$type": "HNLCJOPBDLC",
                          "gadgetState": 202
                        }
                      ],
                      "successActions": [
                        {
                          "$type": "HPIDNBEGJLL",
                          "state": 203
                        }
                      ],
                      "failActions": [
                        {
                          "$type": "HPIDNBEGJLL",
                          "state": 201
                        }
                      ]
                    }
                  ]
                }
              ]
            }
          ],
          "onAdded": [
            {
              "$type": "DebugLog",
              "content": "[GreatFestivalV2] - NightModifier - OnAdded"
            }
          ]
        },
        "Look_At_Finder": {
          "stacking": "Unique",
          "modifierName": "",
          "elementDurability": 100.0,
          "thinkInterval": 0.20000000298023224,
          "onAdded": [
            {
              "$type": "DebugLog",
              "canBeHandledOnRecover": true,
              "content": "[GreatFestivalV2] - Look_At_Finder - OnAdded"
            }
          ],
          "onThinkInterval": [
            {
              "$type": "Predicated",
              "otherTargets": {
                "$type": "FHBCCNMKPHK",
                "topLimit": 1
              },
              "predicates": [
                {
                  "$type": "NMAEFLLHEII",
                  "configIdArray": [70310547]
                },
                {
                  "$type": "ByTargetGlobalValue",
                  "key": "SGV_Aim_Order",
                  "value": 1.0
                }
              ],
              "successActions": [
                {
                  "$type": "SetTargetToTargetKey",
                  "target": "Target",
                  "targetKey": "ControlPoint"
                },
                {
                  "$type": "ApplyModifier",
                  "modifierName": "_Look_At_Target"
                },
                {
                  "$type": "DebugLog",
                  "content": "[GreatFestivalV2] - Look_At_Finder - Found"
                },
                {
                  "$type": "RemoveModifier",
                  "modifierName": "Look_At_Finder"
                }
              ]
            }
          ]
        },
        "_Look_At_Target": {
          "modifierName": "",
          "elementDurability": 100.0,
          "thinkInterval": 0.20000000298023224,
          "onAdded": [
            {
              "$type": "DebugLog",
              "canBeHandledOnRecover": true,
              "content": "[GreatFestivalV2] - _Look_At_Target - onAdded"
            },
            {
              "$type": "GPDAIGICDKI",
              "otherTargets": {
                "$type": "MKAPNKAKCPG",
                "targetKey": "ControlPoint"
              },
              "canBeHandledOnRecover": true,
              "partRootNames": ["RootNode"]
            },
            {
              "$type": "GPDAIGICDKI",
              "otherTargets": {
                "$type": "MKAPNKAKCPG",
                "targetKey": "ControlPoint"
              },
              "canBeHandledOnRecover": true,
              "partRootNames": ["Light"]
            },
            {
              "$type": "AttachModifier",
              "modifierName": "Light_Effect"
            }
          ],
          "onThinkInterval": [
            {
              "$type": "GPDAIGICDKI",
              "otherTargets": {
                "$type": "MKAPNKAKCPG",
                "targetKey": "ControlPoint"
              },
              "canBeHandledOnRecover": true,
              "partRootNames": ["RootNode"]
            },
            {
              "$type": "GPDAIGICDKI",
              "otherTargets": {
                "$type": "MKAPNKAKCPG",
                "targetKey": "ControlPoint"
              },
              "canBeHandledOnRecover": true,
              "partRootNames": ["Light"]
            }
          ],
          "onReconnect": [
            {
              "$type": "DebugLog",
              "content": "[GreatFestivalV2] - _Look_At_Target - onReconnect"
            },
            {
              "$type": "ApplyModifier",
              "modifierName": "Look_At_Finder"
            },
            {
              "$type": "RemoveModifier",
              "modifierName": "_Look_At_Target"
            }
          ]
        },
        "Light_Effect": {
          "modifierName": "",
          "elementDurability": 100.0,
          "modifierMixins": [
            {
              "$type": "APPKPNCENAH",
              "gadgetStates": [201, 202, 203],
              "modifierNames": [["_Yellow"], ["_White"], ["_Blue"]]
            }
          ],
          "onAdded": [
            {
              "$type": "AttachEffect",
              "rotationDampTime": "Eff_Area_Dq_Property_Ani_GreatFesV2_01_Light",
              "born": {
                "$type": "ConfigBornByAttachPoint",
                "useRotation": true,
                "attachPointName": "Light"
              },
              "PPPDJGDDOGD": 1.0,
              "AJDILHJFNKE": -1.0,
              "isPlatformDependent": true
            },
            {
              "$type": "Predicated",
              "targetPredicates": [
                {
                  "$type": "HNLCJOPBDLC",
                  "gadgetState": 201
                }
              ],
              "successActions": [
                {
                  "$type": "SendEffectTrigger",
                  "parameter": "GadgetState",
                  "attachPoint": "",
                  "damageRatio": "Int",
                  "value": 201,
                  "rotationDampTime": "Eff_Area_Dq_Property_Ani_GreatFesV2_01_Light",
                  "isPlatformDependent": true
                }
              ],
              "failActions": [
                {
                  "$type": "Predicated",
                  "targetPredicates": [
                    {
                      "$type": "HNLCJOPBDLC",
                      "gadgetState": 202
                    }
                  ],
                  "successActions": [
                    {
                      "$type": "SendEffectTrigger",
                      "parameter": "GadgetState",
                      "attachPoint": "",
                      "damageRatio": "Int",
                      "value": 202,
                      "rotationDampTime": "Eff_Area_Dq_Property_Ani_GreatFesV2_01_Light",
                      "isPlatformDependent": true
                    }
                  ],
                  "failActions": [
                    {
                      "$type": "SendEffectTrigger",
                      "parameter": "GadgetState",
                      "attachPoint": "",
                      "damageRatio": "Int",
                      "value": 203,
                      "rotationDampTime": "Eff_Area_Dq_Property_Ani_GreatFesV2_01_Light",
                      "isPlatformDependent": true
                    }
                  ]
                }
              ]
            }
          ]
        },
        "_White": {
          "modifierName": "",
          "elementDurability": 100.0,
          "modifierMixins": [
            {
              "$type": "GPCGHACDPIF",
              "DPAOMNELPHI": 1,
              "NLIOHMNJBAM": ""
            }
          ],
          "onAdded": [
            {
              "$type": "SendEffectTrigger",
              "canBeHandledOnRecover": true,
              "parameter": "GadgetState",
              "attachPoint": "",
              "damageRatio": "Int",
              "value": 202,
              "rotationDampTime": "Eff_Area_Dq_Property_Ani_GreatFesV2_01_Light",
              "isPlatformDependent": true
            }
          ]
        },
        "_Yellow": {
          "modifierName": "",
          "elementDurability": 100.0,
          "modifierMixins": [
            {
              "$type": "GPCGHACDPIF",
              "NLIOHMNJBAM": ""
            }
          ],
          "onAdded": [
            {
              "$type": "SendEffectTrigger",
              "canBeHandledOnRecover": true,
              "parameter": "GadgetState",
              "attachPoint": "",
              "damageRatio": "Int",
              "value": 201,
              "rotationDampTime": "Eff_Area_Dq_Property_Ani_GreatFesV2_01_Light",
              "isPlatformDependent": true
            }
          ]
        },
        "_Blue": {
          "modifierName": "",
          "elementDurability": 100.0,
          "modifierMixins": [
            {
              "$type": "GPCGHACDPIF",
              "DPAOMNELPHI": 2,
              "NLIOHMNJBAM": ""
            }
          ],
          "onAdded": [
            {
              "$type": "SendEffectTrigger",
              "canBeHandledOnRecover": true,
              "parameter": "GadgetState",
              "attachPoint": "",
              "damageRatio": "Int",
              "value": 203,
              "rotationDampTime": "Eff_Area_Dq_Property_Ani_GreatFesV2_01_Light",
              "isPlatformDependent": true
            }
          ]
        }
      },
      "onAdded": [
        {
          "$type": "FNPMFLOOCDD",
          "value": 0.0,
          "key": "_Color",
          "maxValue": 0.0,
          "minValue": 0.0
        },
        {
          "$type": "ApplyModifier",
          "modifierName": "Look_At_Finder"
        },
        {
          "$type": "ApplyModifier",
          "modifierName": "ColorChangeHandler"
        }
      ]
    }
  },
  {
    "Default": {
      "$type": "ConfigAbility",
      "abilityName": "SceneObj_Area_Dq_Property_Ani_Prop_GreatFestivalV2Spotlight_02",
      "abilityMixins": [
        {
          "$type": "AttachModifierToSelfGlobalValueNoInitMixin",
          "globalValueKey": "Disable",
          "valueSteps": [-0.5, 0.5],
          "modifierNameSteps": ["ColorLight"]
        }
      ],
      "modifiers": {
        "ColorLight": {
          "modifierName": "",
          "elementDurability": 100.0,
          "onAdded": [
            {
              "$type": "AttachEffect",
              "rotationDampTime": "Eff_Area_Dq_Property_Ani_GreatFesV2_01_Light",
              "PPPDJGDDOGD": 1.0,
              "AJDILHJFNKE": -1.0,
              "isPlatformDependent": true
            },
            {
              "$type": "AttachModifier",
              "modifierName": "_ColorDetect"
            }
          ]
        },
        "_ColorDetect": {
          "modifierName": "",
          "elementDurability": 100.0,
          "modifierMixins": [
            {
              "$type": "APPKPNCENAH",
              "gadgetStates": [201, 202, 203, 204],
              "modifierNames": [["_White"], ["_Yellow"], ["_Blue"], ["_Close"]]
            }
          ]
        },
        "_White": {
          "modifierName": "",
          "elementDurability": 100.0,
          "onAdded": [
            {
              "$type": "SendEffectTrigger",
              "parameter": "GadgetState",
              "attachPoint": "",
              "damageRatio": "Int",
              "value": 202,
              "rotationDampTime": "Eff_Area_Dq_Property_Ani_GreatFesV2_01_Light",
              "isPlatformDependent": true
            }
          ]
        },
        "_Yellow": {
          "modifierName": "",
          "elementDurability": 100.0,
          "onAdded": [
            {
              "$type": "SendEffectTrigger",
              "parameter": "GadgetState",
              "attachPoint": "",
              "damageRatio": "Int",
              "value": 201,
              "rotationDampTime": "Eff_Area_Dq_Property_Ani_GreatFesV2_01_Light",
              "isPlatformDependent": true
            }
          ]
        },
        "_Blue": {
          "modifierName": "",
          "elementDurability": 100.0,
          "onAdded": [
            {
              "$type": "SendEffectTrigger",
              "parameter": "GadgetState",
              "attachPoint": "",
              "damageRatio": "Int",
              "value": 203,
              "rotationDampTime": "Eff_Area_Dq_Property_Ani_GreatFesV2_01_Light",
              "isPlatformDependent": true
            }
          ]
        },
        "_Close": {
          "modifierName": "",
          "elementDurability": 100.0,
          "onAdded": [
            {
              "$type": "SendEffectTrigger",
              "parameter": "GadgetState",
              "attachPoint": "",
              "damageRatio": "Int",
              "value": 204,
              "rotationDampTime": "Eff_Area_Dq_Property_Ani_GreatFesV2_01_Light",
              "isPlatformDependent": true
            }
          ]
        }
      },
      "onAdded": [
        {
          "$type": "SetGlobalValue",
          "value": 0.0,
          "key": "Disable",
          "maxValue": 0.0,
          "minValue": 0.0
        }
      ]
    }
  },
  {
    "Default": {
      "$type": "ConfigAbility",
      "abilityName": "SceneObj_Area_Dq_Property_Ani_Prop_GreatFestivalV2SpotlightControl_Color",
      "abilityMixins": [
        {
          "$type": "LNEJGOMCBMO",
          "succActions": [
            {
              "$type": "ApplyModifier",
              "modifierName": "Touch_Handle"
            }
          ]
        },
        {
          "$type": "LAJKGCEELKF",
          "startTime": 6,
          "endTime": 19,
          "modifierName": "DayModifier"
        }
      ],
      "modifiers": {
        "Touch_Handle": {
          "modifierName": "",
          "duration": 0.20000000298023224,
          "elementDurability": 100.0,
          "onAdded": [
            {
              "$type": "ApplyModifier",
              "otherTargets": {
                "$type": "FHBCCNMKPHK",
                "topLimit": 1
              },
              "predicates": [
                {
                  "$type": "NMAEFLLHEII",
                  "configIdArray": [70310545]
                }
              ],
              "modifierName": "Change_Color"
            },
            {
              "$type": "HPIDNBEGJLL",
              "predicates": [
                {
                  "$type": "HNLCJOPBDLC",
                  "target": "Self"
                }
              ],
              "state": 201
            }
          ]
        },
        "Change_Color": {
          "modifierName": "",
          "duration": 0.20000000298023224,
          "elementDurability": 100.0,
          "onAdded": [
            {
              "$type": "DebugLog",
              "content": "[GreatFestivalV2] - Change_Color"
            },
            {
              "$type": "IIGGCBAOAAK",
              "value": 1.0,
              "key": "Color_Change",
              "maxValue": 0.0,
              "minValue": 0.0
            }
          ]
        },
        "DayModifier": {
          "modifierName": "",
          "elementDurability": 100.0,
          "onAdded": [
            {
              "$type": "EnableGadgetIntee"
            }
          ],
          "onRemoved": [
            {
              "$type": "EnableGadgetIntee",
              "enable": true
            }
          ]
        }
      }
    }
  },
  {
    "Default": {
      "$type": "ConfigAbility",
      "abilityName": "SceneObj_Area_Dq_Property_Ani_Prop_GreatFestivalV2SpotlightControl_EventGuide",
      "abilityMixins": [
        {
          "$type": "LAJKGCEELKF",
          "startTime": 19,
          "endTime": 6,
          "modifierName": "Eff_Handler"
        }
      ],
      "modifiers": {
        "Eff_Handler": {
          "modifierName": "",
          "elementDurability": 100.0,
          "modifierMixins": [
            {
              "$type": "AttachToGadgetStateMixin",
              "gadgetState": 201,
              "modifierName": "Eff"
            }
          ]
        },
        "Eff": {
          "modifierName": "",
          "elementDurability": 100.0,
          "onAdded": [
            {
              "$type": "AttachEffect",
              "rotationDampTime": "Eff_Quest_SiteInteract_Event",
              "PPPDJGDDOGD": 1.0,
              "AJDILHJFNKE": -1.0
            }
          ],
          "onRemoved": [
            {
              "$type": "MAHNJJFLACM",
              "followPath": "EventGuide_Disappear",
              "rotationDampTime": "Eff_Quest_SiteInteract_Event",
              "attachPoint": ""
            }
          ]
        }
      }
    }
  },
  {
    "Default": {
      "$type": "ConfigAbility",
      "abilityName": "SceneObj_Area_Dq_Property_Ani_Prop_GreatFestivalV2SpotlightControl_Direction",
      "abilityMixins": [
        {
          "$type": "LNEJGOMCBMO",
          "succActions": [
            {
              "$type": "ApplyModifier",
              "modifierName": "Touch_Handle"
            }
          ]
        }
      ],
      "modifiers": {
        "Touch_Handle": {
          "modifierName": "",
          "duration": 0.20000000298023224,
          "elementDurability": 100.0,
          "onAdded": [
            {
              "$type": "TriggerAbility",
              "otherTargets": {
                "$type": "FHBCCNMKPHK",
                "topLimit": 1
              },
              "predicates": [
                {
                  "$type": "NMAEFLLHEII",
                  "configIdArray": [70310547]
                },
                {
                  "$type": "ByTargetGlobalValue",
                  "key": "SGV_Aim_Order",
                  "value": 1.0
                }
              ],
              "abilityName": "SceneObj_Area_Dq_Property_Ani_Prop_GreatFestivalV2Spotlight_WatchPoint_01"
            },
            {
              "$type": "HPIDNBEGJLL",
              "predicates": [
                {
                  "$type": "HNLCJOPBDLC",
                  "target": "Self"
                }
              ],
              "state": 201
            }
          ]
        }
      }
    }
  },
  {
    "Default": {
      "$type": "ConfigAbility",
      "abilityName": "SceneObj_Area_Dq_Property_Ani_Prop_GreatFestivalV2Spotlight_WatchPoint_01",
      "abilityMixins": [
        {
          "$type": "AttachToGadgetStateMixin",
          "gadgetState": 201,
          "modifierName": "_Look_At_1"
        },
        {
          "$type": "AttachToGadgetStateMixin",
          "gadgetState": 202,
          "modifierName": "_Look_At_2"
        }
      ],
      "HKFPCGFFKMJ": ["_Init_Look_At"],
      "modifiers": {
        "_Init": {
          "modifierName": "",
          "elementDurability": 100.0,
          "onAdded": [
            {
              "$type": "Predicated",
              "targetPredicates": [
                {
                  "$type": "HNLCJOPBDLC",
                  "gadgetState": 201
                }
              ],
              "successActions": [
                {
                  "$type": "FNPMFLOOCDD",
                  "value": 2.0,
                  "key": "_Init_Look_At",
                  "maxValue": 0.0,
                  "minValue": 0.0
                }
              ],
              "failActions": [
                {
                  "$type": "FNPMFLOOCDD",
                  "value": 3.0,
                  "key": "_Init_Look_At",
                  "maxValue": 0.0,
                  "minValue": 0.0
                }
              ]
            },
            {
              "$type": "SetGlobalPos",
              "otherTargets": {
                "$type": "FHBCCNMKPHK"
              },
              "predicates": [
                {
                  "$type": "NMAEFLLHEII",
                  "configIdArray": [70310547]
                },
                {
                  "$type": "ByTargetGlobalValue",
                  "key": "SGV_Aim_Order",
                  "value": "_Init_Look_At"
                }
              ],
              "key": "_GreatFestivalV2_Init_BLINK_SAVED_POS",
              "born": {
                "$type": "ConfigBornByTarget"
              },
              "setTarget": false
            },
            {
              "$type": "KKNAEDPOLAC",
              "positionKey": "_GreatFestivalV2_Init_BLINK_SAVED_POS",
              "directionKey": ""
            }
          ]
        },
        "_Look_At_1": {
          "modifierName": "",
          "elementDurability": 100.0,
          "onAdded": [
            {
              "$type": "SetTargetToTargetKey",
              "otherTargets": {
                "$type": "FHBCCNMKPHK",
                "topLimit": 1
              },
              "predicates": [
                {
                  "$type": "NMAEFLLHEII",
                  "configIdArray": [70310547]
                },
                {
                  "$type": "ByTargetGlobalValue",
                  "key": "SGV_Aim_Order",
                  "value": 2.0
                }
              ],
              "targetKey": "FollowRuntimeID"
            }
          ]
        },
        "_Look_At_2": {
          "modifierName": "",
          "elementDurability": 100.0,
          "onAdded": [
            {
              "$type": "SetTargetToTargetKey",
              "otherTargets": {
                "$type": "FHBCCNMKPHK",
                "topLimit": 1
              },
              "predicates": [
                {
                  "$type": "NMAEFLLHEII",
                  "configIdArray": [70310547]
                },
                {
                  "$type": "ByTargetGlobalValue",
                  "key": "SGV_Aim_Order",
                  "value": 3.0
                }
              ],
              "targetKey": "FollowRuntimeID"
            }
          ]
        }
      },
      "onAdded": [
        {
          "$type": "ApplyModifier",
          "modifierName": "_Init"
        }
      ],
      "onAbilityStart": [
        {
          "$type": "DebugLog",
          "content": "[GreatFestivalV2] 舞台灯注视点 - 目标切换"
        },
        {
          "$type": "Predicated",
          "targetPredicates": [
            {
              "$type": "HNLCJOPBDLC",
              "gadgetState": 201
            }
          ],
          "successActions": [
            {
              "$type": "HPIDNBEGJLL",
              "state": 202
            }
          ],
          "failActions": [
            {
              "$type": "HPIDNBEGJLL",
              "state": 201
            }
          ]
        }
      ]
    }
  }
]
