[
  {
    "Default": {
      "$type": "ConfigAbility",
      "abilityName": "Activity_AkaFesPotion_Stage_1_1",
      "abilitySpecials": {
        "MaxStack": 0.0,
        "Duration": 0.0,
        "ElementMastery_Up": 0.0
      },
      "modifiers": {
        "AkaFesPotion_Stage_1_1_Driver": {
          "modifierName": "",
          "elementDurability": 100.0,
          "thinkInterval": 1.0,
          "onAdded": [
            {
              "$type": "AttachModifier",
              "target": "CurTeamAvatars",
              "shieldHP": true,
              "modifierName": "AkaFesPotion_Stage_1_1_Driver_Avatar"
            }
          ],
          "onThinkInterval": [
            {
              "$type": "AttachModifier",
              "target": "CurTeamAvatars",
              "shieldHP": true,
              "modifierName": "AkaFesPotion_Stage_1_1_Driver_Avatar"
            }
          ]
        },
        "AkaFesPotion_Stage_1_1_Driver_Avatar": {
          "stacking": "Unique",
          "modifierName": "",
          "elementDurability": 100.0,
          "onAttackLanded": [
            {
              "$type": "Predicated",
              "target": "Other",
              "shieldHP": true,
              "targetPredicates": [
                {
                  "$type": "ByEntityTypes",
                  "entityTypes": ["Monster"]
                },
                {
                  "$type": "ByTargetGlobalValue",
                  "key": "_ANIMAL_ENTITY_TYPE",
                  "value": 0.0,
                  "compareType": "NoneOrEqual"
                },
                {
                  "$type": "ByHasElement",
                  "element": "Fire"
                }
              ],
              "successActions": [
                {
                  "$type": "AddGlobalValue",
                  "target": "Team",
                  "shieldHP": true,
                  "value": 0.0,
                  "key": "_ABILITY_AkaFesPotion_Stage_1_1_Stack",
                  "useLimitRange": true,
                  "maxValue": "MaxStack",
                  "minValue": 0.0
                },
                {
                  "$type": "ApplyModifier",
                  "target": "Team",
                  "shieldHP": true,
                  "modifierName": "AkaFesPotion_Stage_1_1_EleMastery_Up_Team"
                }
              ]
            }
          ]
        },
        "AkaFesPotion_Stage_1_1_EleMastery_Up_Team": {
          "stacking": "Multiple",
          "stackingOption": {
            "abilitySpecialName": "",
            "maxModifierNumForMultipleType": "MaxStack"
          },
          "modifierName": "",
          "duration": "Duration",
          "elementDurability": 100.0,
          "onAdded": [
            {
              "$type": "AttachModifier",
              "target": "CurTeamAvatars",
              "shieldHP": true,
              "modifierName": "AkaFesPotion_Stage_1_1_EleMastery_Up_Avatar"
            }
          ]
        },
        "AkaFesPotion_Stage_1_1_EleMastery_Up_Avatar": {
          "stacking": "Multiple",
          "stackingOption": {
            "abilitySpecialName": "",
            "maxModifierNumForMultipleType": "MaxStack"
          },
          "modifierName": "",
          "elementDurability": 100.0,
          "properties": {
            "Actor_ElemMasteryDelta": "ElementMastery_Up"
          },
          "state": "AttackUp",
          "isLimitedProperties": true
        }
      },
      "onAdded": [
        {
          "$type": "AttachModifier",
          "target": "Team",
          "modifierName": "AkaFesPotion_Stage_1_1_Driver"
        }
      ],
      "onRemoved": [
        {
          "$type": "RemoveModifier",
          "target": "Team",
          "shieldHP": true,
          "modifierName": "AkaFesPotion_Stage_1_1_EleMastery_Up_Team"
        }
      ],
      "isDynamicAbility": true
    }
  },
  {
    "Default": {
      "$type": "ConfigAbility",
      "abilityName": "Activity_AkaFesPotion_Stage_1_2",
      "abilitySpecials": {
        "MaxStack": 0.0,
        "AttackRatioUp": 0.0,
        "Duration": 0.0
      },
      "modifiers": {
        "AkaFesPotion_Stage_1_2_Driver": {
          "modifierName": "",
          "elementDurability": 100.0,
          "thinkInterval": 1.0,
          "onAdded": [
            {
              "$type": "AttachModifier",
              "target": "CurTeamAvatars",
              "shieldHP": true,
              "modifierName": "AkaFesPotion_Stage_1_2_Driver_Avatar"
            }
          ],
          "onThinkInterval": [
            {
              "$type": "AttachModifier",
              "target": "CurTeamAvatars",
              "shieldHP": true,
              "modifierName": "AkaFesPotion_Stage_1_2_Driver_Avatar"
            }
          ]
        },
        "AkaFesPotion_Stage_1_2_Driver_Avatar": {
          "stacking": "Unique",
          "modifierName": "",
          "elementDurability": 100.0,
          "onBeingHit": [
            {
              "$type": "Predicated",
              "shieldHP": true,
              "targetPredicates": [
                {
                  "$type": "ByHitDamage",
                  "damage": 0.0
                }
              ],
              "successActions": [
                {
                  "$type": "AttachModifier",
                  "shieldHP": true,
                  "modifierName": "AkaFesPotion_Stage_1_2_Attack_Up_Avatar"
                }
              ]
            }
          ]
        },
        "AkaFesPotion_Stage_1_2_Attack_Up_Avatar": {
          "modifierName": "",
          "duration": "Duration",
          "elementDurability": 100.0,
          "properties": {
            "Actor_AttackRatio": "AttackRatioUp"
          },
          "state": "AttackUp",
          "isLimitedProperties": true
        }
      },
      "onAdded": [
        {
          "$type": "AttachModifier",
          "target": "Team",
          "modifierName": "AkaFesPotion_Stage_1_2_Driver"
        }
      ],
      "onRemoved": [
        {
          "$type": "RemoveModifier",
          "target": "CurTeamAvatars",
          "shieldHP": true,
          "modifierName": "AkaFesPotion_Stage_1_2_Attack_Up_Avatar"
        }
      ],
      "isDynamicAbility": true
    }
  },
  {
    "Default": {
      "$type": "ConfigAbility",
      "abilityName": "Activity_AkaFesPotion_Stage_1_3",
      "abilitySpecials": {
        "Charge_EfficiencyDelta": 0.0
      },
      "modifiers": {
        "AkaFesPotion_Stage_1_3_Driver": {
          "modifierName": "",
          "elementDurability": 100.0,
          "thinkInterval": 1.0,
          "onAdded": [
            {
              "$type": "AttachModifier",
              "target": "CurTeamAvatars",
              "shieldHP": true,
              "modifierName": "AkaFesPotion_Stage_1_3_Driver_Avatar"
            }
          ],
          "onThinkInterval": [
            {
              "$type": "AttachModifier",
              "target": "CurTeamAvatars",
              "shieldHP": true,
              "modifierName": "AkaFesPotion_Stage_1_3_Driver_Avatar"
            }
          ]
        },
        "AkaFesPotion_Stage_1_3_Driver_Avatar": {
          "stacking": "Unique",
          "modifierName": "",
          "elementDurability": 100.0,
          "properties": {
            "Actor_ChargeEfficiencyDelta": "Charge_EfficiencyDelta"
          },
          "isLimitedProperties": true
        }
      },
      "onAdded": [
        {
          "$type": "AttachModifier",
          "target": "Team",
          "modifierName": "AkaFesPotion_Stage_1_3_Driver"
        }
      ],
      "isDynamicAbility": true
    }
  },
  {
    "Default": {
      "$type": "ConfigAbility",
      "abilityName": "Activity_AkaFesPotion_Stage_1_4",
      "abilitySpecials": {
        "CDTime": 0.0
      },
      "modifiers": {
        "AkaFesPotion_Stage_1_4_Driver": {
          "modifierName": "",
          "elementDurability": 100.0,
          "modifierMixins": [
            {
              "$type": "CurLocalAvatarMixinV2",
              "modifierName": "AkaFesPotion_Stage_1_4_RocketJump_Controller"
            }
          ]
        },
        "AkaFesPotion_Stage_1_4_RocketJump_Controller": {
          "modifierName": "",
          "elementDurability": 100.0,
          "modifierMixins": [
            {
              "$type": "BKMIIIDKJPH",
              "damageRatio": "DungeonJump",
              "extention": {
                "xzMultiplier": 2.299999952316284,
                "yMultiplier": 5.0
              }
            }
          ],
          "onHittingOther": [
            {
              "$type": "Predicated",
              "target": "Other",
              "targetPredicates": [
                {
                  "$type": "ByEntityTypes",
                  "entityTypes": ["Monster"]
                },
                {
                  "$type": "ByTargetGlobalValue",
                  "key": "_ANIMAL_ENTITY_TYPE",
                  "value": 0.0,
                  "compareType": "NoneOrEqual"
                },
                {
                  "$type": "ByAttackTags",
                  "attackTags": ["FallingAttack"]
                },
                {
                  "$type": "ByTargetGlobalValue",
                  "target": "Team",
                  "key": "_ABILITY_AkaFesPotion_Stage_1_4_CD_Mark",
                  "value": 0.0,
                  "compareType": "NoneOrEqual"
                }
              ],
              "successActions": [
                {
                  "$type": "CreateGadget",
                  "target": "CurLocalAvatar",
                  "shieldHP": true,
                  "born": {
                    "$type": "ConfigBornByTarget",
                    "offset": {
                      "x": 0.0,
                      "y": 0.0,
                      "z": 0.0
                    },
                    "onGround": true,
                    "useRotation": true
                  },
                  "gadgetID": 44000560,
                  "campID": 1001,
                  "campTargetType": "Enemy"
                },
                {
                  "$type": "ApplyModifier",
                  "target": "Team",
                  "modifierName": "AkaFesPotion_Stage_1_4_CD"
                }
              ]
            }
          ]
        },
        "AkaFesPotion_Stage_1_4_CD": {
          "stacking": "Unique",
          "modifierName": "",
          "duration": "CDTime",
          "elementDurability": 100.0,
          "onAdded": [
            {
              "$type": "SetGlobalValue",
              "target": "Team",
              "shieldHP": true,
              "value": 1.0,
              "key": "_ABILITY_AkaFesPotion_Stage_1_4_CD_Mark",
              "maxValue": 0.0,
              "minValue": 0.0
            }
          ],
          "onRemoved": [
            {
              "$type": "SetGlobalValue",
              "target": "Team",
              "shieldHP": true,
              "value": 0.0,
              "key": "_ABILITY_AkaFesPotion_Stage_1_4_CD_Mark",
              "maxValue": 0.0,
              "minValue": 0.0
            }
          ]
        }
      },
      "onAdded": [
        {
          "$type": "AttachModifier",
          "target": "Team",
          "modifierName": "AkaFesPotion_Stage_1_4_Driver"
        },
        {
          "$type": "SetGlobalValue",
          "target": "Team",
          "shieldHP": true,
          "value": 0.0,
          "key": "_ABILITY_AkaFesPotion_Stage_1_4_CD_Mark",
          "maxValue": 0.0,
          "minValue": 0.0
        }
      ],
      "isDynamicAbility": true
    }
  },
  {
    "Default": {
      "$type": "ConfigAbility",
      "abilityName": "Ability_AkaFesPotion_WindZone",
      "abilitySpecials": {
        "Duration": 0.0,
        "WindStrength": 0.0
      },
      "modifiers": {
        "WindZone_Handler": {
          "modifierName": "",
          "duration": "Duration",
          "elementDurability": 100.0,
          "modifierMixins": [
            {
              "$type": "WindZoneMixin",
              "shapeName": "CircleR7",
              "born": {
                "$type": "ConfigBornBySelf",
                "offset": {
                  "x": 0.0,
                  "y": 1.0,
                  "z": 0.0
                },
                "alongGround": true,
                "useRotation": true
              },
              "strength": "WindStrength",
              "IAELBHDMINN": 1.0,
              "MMBCLAEOEFB": 1.0,
              "targetType": "All",
              "predicates": [
                {
                  "$type": "ByEntityTypes",
                  "entityTypes": ["Avatar"],
                  "reject": true
                },
                {
                  "$type": "ByTargetWeight",
                  "logic": "LesserOrEqual",
                  "BHOOHGLJDHM": 150.0
                }
              ],
              "modifierName": ""
            }
          ],
          "onAdded": [
            {
              "$type": "AttachEffect",
              "rotationDampTime": "Eff_Activity_AkaFesPotion_Wind_Zone",
              "PPPDJGDDOGD": 1.0,
              "AJDILHJFNKE": -1.0
            }
          ],
          "onRemoved": [
            {
              "$type": "KillSelf"
            }
          ]
        }
      },
      "onAdded": [
        {
          "$type": "ApplyModifier",
          "modifierName": "WindZone_Handler"
        }
      ]
    }
  },
  {
    "Default": {
      "$type": "ConfigAbility",
      "abilityName": "Activity_AkaFesPotion_Stage_2_1",
      "abilitySpecials": {
        "HP_Ratio": 0.0,
        "ElemMasteryDelta": 0.0
      },
      "modifiers": {
        "AkaFesPotion_Stage_2_1_Driver": {
          "modifierName": "",
          "elementDurability": 100.0,
          "thinkInterval": 1.0,
          "onAdded": [
            {
              "$type": "AttachModifier",
              "target": "CurTeamAvatars",
              "shieldHP": true,
              "modifierName": "AkaFesPotion_Stage_2_1_Driver_Avatar"
            }
          ],
          "onThinkInterval": [
            {
              "$type": "AttachModifier",
              "target": "CurTeamAvatars",
              "shieldHP": true,
              "modifierName": "AkaFesPotion_Stage_2_1_Driver_Avatar"
            }
          ]
        },
        "AkaFesPotion_Stage_2_1_Driver_Avatar": {
          "stacking": "Unique",
          "modifierName": "",
          "elementDurability": 100.0,
          "modifierMixins": [
            {
              "$type": "AttachModifierToPredicateMixin",
              "onEvent": "HP",
              "predicates": [
                {
                  "$type": "ByTargetHPRatio",
                  "ratio": "HP_Ratio"
                }
              ],
              "modifierName": "AkaFesPotion_Stage_2_1_MasteryUp"
            }
          ],
          "onAdded": [
            {
              "$type": "AttachModifier",
              "shieldHP": true,
              "predicates": [
                {
                  "$type": "ByTargetHPRatio",
                  "ratio": "HP_Ratio"
                }
              ],
              "modifierName": "AkaFesPotion_Stage_2_1_MasteryUp"
            }
          ]
        },
        "AkaFesPotion_Stage_2_1_MasteryUp": {
          "modifierName": "",
          "elementDurability": 100.0,
          "properties": {
            "Actor_ElemMasteryDelta": "ElemMasteryDelta"
          },
          "state": "AttackUp",
          "isLimitedProperties": true
        }
      },
      "onAdded": [
        {
          "$type": "AttachModifier",
          "target": "Team",
          "modifierName": "AkaFesPotion_Stage_2_1_Driver"
        }
      ],
      "isDynamicAbility": true
    }
  },
  {
    "Default": {
      "$type": "ConfigAbility",
      "abilityName": "Activity_AkaFesPotion_Stage_2_2",
      "abilitySpecials": {
        "HealAddDelta": 0.0,
        "Duration": 0.0,
        "AttackRatioUp": 0.0
      },
      "modifiers": {
        "AkaFesPotion_Stage_2_2_Driver": {
          "modifierName": "",
          "elementDurability": 100.0,
          "thinkInterval": 1.0,
          "onAdded": [
            {
              "$type": "AttachModifier",
              "target": "CurTeamAvatars",
              "shieldHP": true,
              "modifierName": "AkaFesPotion_Stage_2_2_Driver_Avatar"
            }
          ],
          "onThinkInterval": [
            {
              "$type": "AttachModifier",
              "target": "CurTeamAvatars",
              "shieldHP": true,
              "modifierName": "AkaFesPotion_Stage_2_2_Driver_Avatar"
            }
          ]
        },
        "AkaFesPotion_Stage_2_2_Driver_Avatar": {
          "stacking": "Unique",
          "modifierName": "",
          "elementDurability": 100.0,
          "properties": {
            "Actor_HealAddDelta": "HealAddDelta"
          },
          "onBeingHealed": [
            {
              "$type": "AttachModifier",
              "shieldHP": true,
              "modifierName": "AkaFesPotion_Stage_2_2_AttackUp"
            }
          ],
          "isLimitedProperties": true
        },
        "AkaFesPotion_Stage_2_2_AttackUp": {
          "modifierName": "",
          "duration": "Duration",
          "elementDurability": 100.0,
          "properties": {
            "Actor_AttackRatio": "AttackRatioUp"
          },
          "state": "AttackUp",
          "isLimitedProperties": true
        }
      },
      "onAdded": [
        {
          "$type": "AttachModifier",
          "target": "Team",
          "modifierName": "AkaFesPotion_Stage_2_2_Driver"
        }
      ],
      "isDynamicAbility": true
    }
  },
  {
    "Default": {
      "$type": "ConfigAbility",
      "abilityName": "Activity_AkaFesPotion_Stage_2_3",
      "abilitySpecials": {
        "ShieldCostMinusRatio": 0.0,
        "CDTime": 0.0,
        "Range": 0.0,
        "DamageSystemValue": 0.0,
        "DamageRatio": 0.0
      },
      "modifiers": {
        "AkaFesPotion_Stage_2_3_Driver": {
          "modifierName": "",
          "elementDurability": 100.0,
          "thinkInterval": 1.0,
          "onAdded": [
            {
              "$type": "AttachModifier",
              "target": "CurTeamAvatars",
              "shieldHP": true,
              "modifierName": "AkaFesPotion_Stage_2_3_Driver_Avatar"
            }
          ],
          "onThinkInterval": [
            {
              "$type": "AttachModifier",
              "target": "CurTeamAvatars",
              "shieldHP": true,
              "modifierName": "AkaFesPotion_Stage_2_3_Driver_Avatar"
            }
          ]
        },
        "AkaFesPotion_Stage_2_3_Driver_Avatar": {
          "stacking": "Unique",
          "modifierName": "",
          "elementDurability": 100.0,
          "thinkInterval": 0.25,
          "properties": {
            "Actor_ShieldCostMinusRatio": "ShieldCostMinusRatio"
          },
          "onThinkInterval": [
            {
              "$type": "ApplyModifier",
              "target": "Team",
              "predicates": [
                {
                  "$type": "PDBBDHGEDJH",
                  "target": "Self",
                  "damageRatio": "All"
                }
              ],
              "modifierName": "AkaFesPotion_Stage_2_3_Impact_Team"
            }
          ],
          "isLimitedProperties": true
        },
        "AkaFesPotion_Stage_2_3_Impact_Team": {
          "stacking": "Unique",
          "modifierName": "",
          "duration": "CDTime",
          "elementDurability": 100.0,
          "onAdded": [
            {
              "$type": "ApplyModifier",
              "target": "CurLocalAvatar",
              "shieldHP": true,
              "modifierName": "AkaFesPotion_Stage_2_3_Impact"
            }
          ]
        },
        "AkaFesPotion_Stage_2_3_Impact": {
          "stacking": "Multiple",
          "modifierName": "",
          "duration": 1.0,
          "elementDurability": 100.0,
          "onAdded": [
            {
              "$type": "TriggerAttackEvent",
              "attackEvent": {
                "attackPattern": {
                  "$type": "ConfigAttackCircle",
                  "triggerType": "TriggerNoRepeat",
                  "massiveAttackRatio": 0.30000001192092896,
                  "born": {
                    "$type": "ConfigBornBySelf",
                    "offset": {
                      "x": 0.0,
                      "y": -1.5,
                      "z": 0.0
                    },
                    "onGround": true,
                    "useRotation": true
                  },
                  "height": 6.0,
                  "radius": "Range"
                },
                "attackInfo": {
                  "attackTag": "",
                  "attenuationTag": "",
                  "attenuationGroup": "default",
                  "attackProperty": {
                    "actorWindSubHurtDelta": 0.0,
                    "elementDurability": 20.0,
                    "strikeType": "Default",
                    "enBreak": 20.0,
                    "attackType": "Range",
                    "HMBONGBFIAP": ["DamageRatio", "DamageSystemValue", "MUL"],
                    "trueDamage": true,
                    "GLKMCMDJBIK": 0.0
                  },
                  "hitPattern": {
                    "onHitEffectName": "default",
                    "hitImpulseY": "",
                    "hitImpulseType": "LV3",
                    "retreatType": "ByHitDirectionInverse",
                    "hitHaltTimeScale": 0.05000000074505806
                  }
                }
              },
              "targetType": "Enemy"
            },
            {
              "$type": "FireEffect",
              "rotationDampTime": "Eff_Activity_AkaFesPotion_Blast_R8",
              "PPPDJGDDOGD": 1.0,
              "AJDILHJFNKE": -1.0
            }
          ]
        }
      },
      "onAdded": [
        {
          "$type": "AttachModifier",
          "target": "Team",
          "modifierName": "AkaFesPotion_Stage_2_3_Driver"
        },
        {
          "$type": "GDHGMAPPGHD",
          "shieldHP": true,
          "key": "DamageSystemValue",
          "damageRatio": "ElementLevelCo"
        }
      ],
      "isDynamicAbility": true
    }
  },
  {
    "Default": {
      "$type": "ConfigAbility",
      "abilityName": "Activity_AkaFesPotion_Stage_2_4",
      "abilitySpecials": {
        "CDTime": 0.0,
        "ReviveEnergy": 0.0
      },
      "modifiers": {
        "AkaFesPotion_Stage_2_4_Driver": {
          "modifierName": "",
          "elementDurability": 100.0,
          "thinkInterval": 1.0,
          "onAdded": [
            {
              "$type": "AttachModifier",
              "target": "CurTeamAvatars",
              "shieldHP": true,
              "modifierName": "AkaFesPotion_Stage_2_4_Driver_Avatar"
            }
          ],
          "onThinkInterval": [
            {
              "$type": "AttachModifier",
              "target": "CurTeamAvatars",
              "shieldHP": true,
              "modifierName": "AkaFesPotion_Stage_2_4_Driver_Avatar"
            }
          ]
        },
        "AkaFesPotion_Stage_2_4_Driver_Avatar": {
          "stacking": "Unique",
          "modifierName": "",
          "elementDurability": 100.0,
          "modifierMixins": [
            {
              "$type": "DoActionByElementReactionMixin",
              "reactionTypes": [
                "Burning",
                "Overdose",
                "Overgrow",
                "OverdoseElectric",
                "OverdoseGrass",
                "OvergrowMushroomElectric",
                "OvergrowMushroomFire"
              ],
              "actions": [
                {
                  "$type": "ApplyModifier",
                  "shieldHP": true,
                  "modifierName": "AkaFesPotion_Stage_2_4_Revive_Energy"
                }
              ]
            }
          ]
        },
        "AkaFesPotion_Stage_2_4_Revive_Energy": {
          "stacking": "Unique",
          "modifierName": "",
          "duration": "CDTime",
          "elementDurability": 100.0,
          "onAdded": [
            {
              "$type": "ReviveElemEnergy",
              "shieldHP": true,
              "value": "ReviveEnergy"
            }
          ]
        }
      },
      "onAdded": [
        {
          "$type": "AttachModifier",
          "target": "Team",
          "modifierName": "AkaFesPotion_Stage_2_4_Driver"
        }
      ],
      "isDynamicAbility": true
    }
  },
  {
    "Default": {
      "$type": "ConfigAbility",
      "abilityName": "Activity_AkaFesPotion_Stage_3_1",
      "abilitySpecials": {
        "CDTime": 0.0
      },
      "modifiers": {
        "AkaFesPotion_Stage_3_1_Driver": {
          "modifierName": "",
          "elementDurability": 100.0,
          "modifierMixins": [
            {
              "$type": "CurLocalAvatarMixinV2",
              "modifierName": "AkaFesPotion_Stage_3_1_Driver_Avatar"
            }
          ]
        },
        "AkaFesPotion_Stage_3_1_Driver_Avatar": {
          "modifierName": "",
          "elementDurability": 100.0,
          "onHittingOther": [
            {
              "$type": "Predicated",
              "target": "Other",
              "targetPredicates": [
                {
                  "$type": "ByEntityTypes",
                  "entityTypes": ["Monster"]
                },
                {
                  "$type": "ByTargetGlobalValue",
                  "key": "_ANIMAL_ENTITY_TYPE",
                  "value": 0.0,
                  "compareType": "NoneOrEqual"
                }
              ],
              "successActions": [
                {
                  "$type": "SetGlobalPos",
                  "target": "Other",
                  "predicates": [
                    {
                      "$type": "ByTargetGlobalValue",
                      "target": "Team",
                      "key": "_ABILITY_AkaFes_3_1_CD_Mark",
                      "value": 0.0,
                      "compareType": "NoneOrEqual"
                    }
                  ],
                  "key": "_ABILITY_AkaFesPotion_3_1_WindZone_Pos",
                  "born": {
                    "$type": "ConfigBornByTarget",
                    "offset": {
                      "x": 0.0,
                      "y": 0.0,
                      "z": 0.0
                    },
                    "onGround": true,
                    "useRotation": true
                  },
                  "setTarget": false
                },
                {
                  "$type": "SetGlobalPos",
                  "shieldHP": true,
                  "predicates": [
                    {
                      "$type": "ByTargetGlobalValue",
                      "target": "Team",
                      "key": "_ABILITY_AkaFes_3_1_CD_Mark",
                      "value": 0.0,
                      "compareType": "NoneOrEqual"
                    }
                  ],
                  "key": "_ABILITY_AkaFesPotion_3_1_WindZone_Pos_Avatar",
                  "born": {
                    "$type": "ConfigBornBySelf",
                    "useRotation": true
                  }
                },
                {
                  "$type": "CopyGlobalValue",
                  "shieldHP": true,
                  "predicates": [
                    {
                      "$type": "ByTargetGlobalValue",
                      "target": "Team",
                      "key": "_ABILITY_AkaFes_3_1_CD_Mark",
                      "value": 0.0,
                      "compareType": "NoneOrEqual"
                    }
                  ],
                  "srcTarget": "Team",
                  "dstTarget": "Self",
                  "srcKey": "_ABILITY_AkaFesPotion_3_1_WindZone_Pos_0",
                  "dstKey": "_ABILITY_AkaFesPotion_3_1_WindZone_Pos_Avatar_0"
                },
                {
                  "$type": "CopyGlobalValue",
                  "shieldHP": true,
                  "predicates": [
                    {
                      "$type": "ByTargetGlobalValue",
                      "target": "Team",
                      "key": "_ABILITY_AkaFes_3_1_CD_Mark",
                      "value": 0.0,
                      "compareType": "NoneOrEqual"
                    }
                  ],
                  "srcTarget": "Team",
                  "dstTarget": "Self",
                  "srcKey": "_ABILITY_AkaFesPotion_3_1_WindZone_Pos_1",
                  "dstKey": "_ABILITY_AkaFesPotion_3_1_WindZone_Pos_Avatar_1"
                },
                {
                  "$type": "CopyGlobalValue",
                  "shieldHP": true,
                  "predicates": [
                    {
                      "$type": "ByTargetGlobalValue",
                      "target": "Team",
                      "key": "_ABILITY_AkaFes_3_1_CD_Mark",
                      "value": 0.0,
                      "compareType": "NoneOrEqual"
                    }
                  ],
                  "srcTarget": "Team",
                  "dstTarget": "Self",
                  "srcKey": "_ABILITY_AkaFesPotion_3_1_WindZone_Pos_2",
                  "dstKey": "_ABILITY_AkaFesPotion_3_1_WindZone_Pos_Avatar_2"
                },
                {
                  "$type": "CreateGadget",
                  "target": "CurLocalAvatar",
                  "shieldHP": true,
                  "predicates": [
                    {
                      "$type": "ByTargetGlobalValue",
                      "target": "Team",
                      "key": "_ABILITY_AkaFes_3_1_CD_Mark",
                      "value": 0.0,
                      "compareType": "NoneOrEqual"
                    }
                  ],
                  "born": {
                    "$type": "ConfigBornByGlobalValue",
                    "offset": {
                      "x": 0.0,
                      "y": 0.0,
                      "z": 0.0
                    },
                    "onGround": true,
                    "useRotation": true,
                    "positionKey": "_ABILITY_AkaFesPotion_3_1_WindZone_Pos_Avatar",
                    "directionKey": ""
                  },
                  "gadgetID": 44000560,
                  "campID": 1001,
                  "campTargetType": "Enemy"
                },
                {
                  "$type": "ApplyModifier",
                  "target": "Team",
                  "predicates": [
                    {
                      "$type": "ByTargetGlobalValue",
                      "target": "Team",
                      "key": "_ABILITY_AkaFes_3_1_CD_Mark",
                      "value": 0.0,
                      "compareType": "NoneOrEqual"
                    }
                  ],
                  "modifierName": "AkaFes_3_1_CD"
                }
              ]
            }
          ]
        },
        "AkaFes_3_1_CD": {
          "stacking": "Unique",
          "modifierName": "",
          "duration": "CDTime",
          "elementDurability": 100.0,
          "onAdded": [
            {
              "$type": "SetGlobalValue",
              "target": "Team",
              "shieldHP": true,
              "value": 1.0,
              "key": "_ABILITY_AkaFes_3_1_CD_Mark",
              "maxValue": 0.0,
              "minValue": 0.0
            }
          ],
          "onRemoved": [
            {
              "$type": "SetGlobalValue",
              "target": "Team",
              "shieldHP": true,
              "value": 0.0,
              "key": "_ABILITY_AkaFes_3_1_CD_Mark",
              "maxValue": 0.0,
              "minValue": 0.0
            }
          ]
        }
      },
      "onAdded": [
        {
          "$type": "AttachModifier",
          "target": "Team",
          "modifierName": "AkaFesPotion_Stage_3_1_Driver"
        }
      ],
      "isDynamicAbility": true
    }
  },
  {
    "Default": {
      "$type": "ConfigAbility",
      "abilityName": "Activity_AkaFesPotion_Stage_3_2",
      "abilitySpecials": {
        "MonsterCount": 0.0,
        "AttackRatioUp": 0.0
      },
      "modifiers": {
        "AkaFesPotion_Stage_3_2_Driver": {
          "modifierName": "",
          "elementDurability": 100.0,
          "modifierMixins": [
            {
              "$type": "CurLocalAvatarMixinV2",
              "modifierName": "AkaFesPotion_Stage_3_2_Driver_Avatar"
            }
          ]
        },
        "AkaFesPotion_Stage_3_2_Driver_Avatar": {
          "modifierName": "",
          "elementDurability": 100.0,
          "thinkInterval": 0.5,
          "onAdded": [
            {
              "$type": "SetGlobalValue",
              "target": "Caster",
              "value": 0.0,
              "key": "_ABILITY_AkaFesPotion_Stage_3_2_Monster_Count",
              "maxValue": 0.0,
              "minValue": 0.0
            },
            {
              "$type": "Predicated",
              "otherTargets": {
                "$type": "SelectTargetsByShape",
                "entityTypePriority": ["Monster"],
                "sortType": "Nearest",
                "shapeName": "CircleR40",
                "campTargetType": "Enemy",
                "doOffStage": 1.0
              },
              "targetPredicates": [
                {
                  "$type": "ByEntityTypes",
                  "entityTypes": ["Monster"]
                },
                {
                  "$type": "ByTargetGlobalValue",
                  "key": "_ANIMAL_ENTITY_TYPE",
                  "value": 0.0,
                  "compareType": "NoneOrEqual"
                }
              ],
              "successActions": [
                {
                  "$type": "AddGlobalValue",
                  "target": "Caster",
                  "value": 1.0,
                  "key": "_ABILITY_AkaFesPotion_Stage_3_2_Monster_Count",
                  "maxValue": 0.0,
                  "minValue": 0.0
                }
              ]
            },
            {
              "$type": "AttachModifier",
              "target": "Team",
              "predicates": [
                {
                  "$type": "ByTargetGlobalValue",
                  "target": "Caster",
                  "key": "_ABILITY_AkaFesPotion_Stage_3_2_Monster_Count",
                  "value": "MonsterCount",
                  "compareType": "LessAndEqual"
                }
              ],
              "modifierName": "UNIQUE_AkaFesPotion_Stage_3_2_AttackUp_Team"
            }
          ],
          "onThinkInterval": [
            {
              "$type": "SetGlobalValue",
              "target": "Caster",
              "value": 0.0,
              "key": "_ABILITY_AkaFesPotion_Stage_3_2_Monster_Count",
              "maxValue": 0.0,
              "minValue": 0.0
            },
            {
              "$type": "Predicated",
              "otherTargets": {
                "$type": "SelectTargetsByShape",
                "entityTypePriority": ["Monster"],
                "sortType": "Nearest",
                "shapeName": "CircleR40",
                "campTargetType": "Enemy",
                "doOffStage": 1.0
              },
              "targetPredicates": [
                {
                  "$type": "ByEntityTypes",
                  "entityTypes": ["Monster"]
                },
                {
                  "$type": "ByTargetGlobalValue",
                  "key": "_ANIMAL_ENTITY_TYPE",
                  "value": 0.0,
                  "compareType": "NoneOrEqual"
                }
              ],
              "successActions": [
                {
                  "$type": "AddGlobalValue",
                  "target": "Caster",
                  "value": 1.0,
                  "key": "_ABILITY_AkaFesPotion_Stage_3_2_Monster_Count",
                  "maxValue": 0.0,
                  "minValue": 0.0
                }
              ]
            },
            {
              "$type": "AttachModifier",
              "target": "Team",
              "predicates": [
                {
                  "$type": "ByTargetGlobalValue",
                  "target": "Caster",
                  "key": "_ABILITY_AkaFesPotion_Stage_3_2_Monster_Count",
                  "value": "MonsterCount",
                  "compareType": "LessAndEqual"
                }
              ],
              "modifierName": "UNIQUE_AkaFesPotion_Stage_3_2_AttackUp_Team"
            }
          ]
        },
        "UNIQUE_AkaFesPotion_Stage_3_2_AttackUp_Team": {
          "stacking": "RefreshUniqueDurability",
          "modifierName": "",
          "forceTriggerWhenChangeAuthority": true,
          "duration": 1.2000000476837158,
          "elementDurability": 100.0,
          "onAdded": [
            {
              "$type": "AttachModifier",
              "target": "CurTeamAvatars",
              "shieldHP": true,
              "modifierName": "AkaFesPotion_Stage_3_2_AttackUp_Avatar"
            }
          ]
        },
        "AkaFesPotion_Stage_3_2_AttackUp_Avatar": {
          "modifierName": "",
          "elementDurability": 100.0,
          "properties": {
            "Actor_AttackRatio": "AttackRatioUp"
          },
          "state": "AttackUp",
          "isLimitedProperties": true
        }
      },
      "onAdded": [
        {
          "$type": "AttachModifier",
          "target": "Team",
          "modifierName": "AkaFesPotion_Stage_3_2_Driver"
        }
      ],
      "isDynamicAbility": true
    }
  },
  {
    "Default": {
      "$type": "ConfigAbility",
      "abilityName": "Activity_AkaFesPotion_Stage_3_3",
      "abilitySpecials": {
        "DamageRatio": 0.0,
        "DamageSystemValue": 0.0,
        "CDTime": 0.0
      },
      "modifiers": {
        "AkaFesPotion_Stage_3_3_Driver": {
          "modifierName": "",
          "elementDurability": 100.0,
          "thinkInterval": 1.0,
          "onAdded": [
            {
              "$type": "AttachModifier",
              "target": "CurTeamAvatars",
              "shieldHP": true,
              "modifierName": "AkaFesPotion_Stage_3_3_Driver_Avatar"
            }
          ],
          "onThinkInterval": [
            {
              "$type": "AttachModifier",
              "target": "CurTeamAvatars",
              "shieldHP": true,
              "modifierName": "AkaFesPotion_Stage_3_3_Driver_Avatar"
            }
          ]
        },
        "AkaFesPotion_Stage_3_3_Driver_Avatar": {
          "stacking": "Unique",
          "modifierName": "",
          "elementDurability": 100.0,
          "onHittingOther": [
            {
              "$type": "Predicated",
              "target": "Other",
              "shieldHP": true,
              "targetPredicates": [
                {
                  "$type": "ByEntityTypes",
                  "entityTypes": ["Monster"]
                },
                {
                  "$type": "ByTargetGlobalValue",
                  "key": "_ANIMAL_ENTITY_TYPE",
                  "value": 0.0,
                  "compareType": "NoneOrEqual"
                },
                {
                  "$type": "ByTargetGlobalValue",
                  "key": "_ACTIVITY_AKAFES_ELITE_",
                  "value": 1.0
                }
              ],
              "successActions": [
                {
                  "$type": "ApplyModifier",
                  "target": "Other",
                  "shieldHP": true,
                  "predicates": [
                    {
                      "$type": "ByTargetGlobalValue",
                      "target": "Team",
                      "key": "_ABILITY_AkaFes_3_3_CD_Mark",
                      "value": 0.0,
                      "compareType": "NoneOrEqual"
                    }
                  ],
                  "modifierName": "AkaFesPotion_Stage_3_3_Damage"
                },
                {
                  "$type": "ApplyModifier",
                  "target": "Team",
                  "shieldHP": true,
                  "predicates": [
                    {
                      "$type": "ByTargetGlobalValue",
                      "target": "Team",
                      "key": "_ABILITY_AkaFes_3_3_CD_Mark",
                      "value": 0.0,
                      "compareType": "NoneOrEqual"
                    }
                  ],
                  "modifierName": "AkaFes_3_3_CD"
                }
              ]
            }
          ]
        },
        "AkaFes_3_3_CD": {
          "stacking": "Unique",
          "modifierName": "",
          "duration": "CDTime",
          "elementDurability": 100.0,
          "onAdded": [
            {
              "$type": "SetGlobalValue",
              "target": "Team",
              "shieldHP": true,
              "value": 1.0,
              "key": "_ABILITY_AkaFes_3_3_CD_Mark",
              "maxValue": 0.0,
              "minValue": 0.0
            }
          ],
          "onRemoved": [
            {
              "$type": "SetGlobalValue",
              "target": "Team",
              "shieldHP": true,
              "value": 0.0,
              "key": "_ABILITY_AkaFes_3_3_CD_Mark",
              "maxValue": 0.0,
              "minValue": 0.0
            }
          ]
        },
        "AkaFesPotion_Stage_3_3_Damage": {
          "stacking": "Multiple",
          "modifierName": "",
          "duration": 1.0,
          "elementDurability": 100.0,
          "onAdded": [
            {
              "$type": "DamageByAttackValue",
              "target": "Target",
              "born": {
                "$type": "ConfigBornByAttachPoint",
                "useRotation": true,
                "attachPointName": "Fx_ChestNode"
              },
              "attackInfo": {
                "attackTag": "",
                "attenuationTag": "",
                "attenuationGroup": "default",
                "attackProperty": {
                  "actorWindSubHurtDelta": 0.0,
                  "elementDurability": 25.0,
                  "strikeType": "Default",
                  "enBreak": 100.0,
                  "attackType": "Melee",
                  "HMBONGBFIAP": ["DamageRatio", "DamageSystemValue", "MUL"],
                  "trueDamage": true,
                  "GLKMCMDJBIK": 0.0
                },
                "hitPattern": {
                  "onHitEffectName": "",
                  "hitImpulseY": "",
                  "hitImpulseType": "LV3",
                  "hitHaltTimeScale": 0.009999999776482582
                }
              }
            },
            {
              "$type": "FireEffect",
              "rotationDampTime": "Eff_Weapon_Blast_R30",
              "PPPDJGDDOGD": 1.0,
              "AJDILHJFNKE": -1.0
            }
          ]
        }
      },
      "onAdded": [
        {
          "$type": "GDHGMAPPGHD",
          "shieldHP": true,
          "key": "DamageSystemValue",
          "damageRatio": "ElementLevelCo"
        },
        {
          "$type": "AttachModifier",
          "target": "Team",
          "modifierName": "AkaFesPotion_Stage_3_3_Driver"
        }
      ],
      "isDynamicAbility": true
    }
  },
  {
    "Default": {
      "$type": "ConfigAbility",
      "abilityName": "Activity_AkaFesPotion_Stage_3_4",
      "abilitySpecials": {
        "DamageRatio": 0.0,
        "DamageSystemValue": 0.0
      },
      "modifiers": {
        "AkaFesPotion_Stage_3_4_Driver": {
          "modifierName": "",
          "elementDurability": 100.0,
          "thinkInterval": 1.0,
          "onAdded": [
            {
              "$type": "AttachModifier",
              "target": "CurTeamAvatars",
              "shieldHP": true,
              "modifierName": "AkaFesPotion_Stage_3_4_Driver_Avatar"
            }
          ],
          "onThinkInterval": [
            {
              "$type": "AttachModifier",
              "target": "CurTeamAvatars",
              "shieldHP": true,
              "modifierName": "AkaFesPotion_Stage_3_4_Driver_Avatar"
            }
          ]
        },
        "AkaFesPotion_Stage_3_4_Driver_Avatar": {
          "stacking": "Unique",
          "modifierName": "",
          "elementDurability": 100.0,
          "modifierMixins": [
            {
              "$type": "MFCOIAIMHEL",
              "detectWindow": 0.5,
              "onKill": [
                {
                  "$type": "Predicated",
                  "target": "Other",
                  "shieldHP": true,
                  "targetPredicates": [
                    {
                      "$type": "ByEntityTypes",
                      "entityTypes": ["Monster"]
                    },
                    {
                      "$type": "ByTargetGlobalValue",
                      "key": "_ANIMAL_ENTITY_TYPE",
                      "value": 0.0,
                      "compareType": "NoneOrEqual"
                    },
                    {
                      "$type": "ByTargetGlobalValue",
                      "key": "_ACTIVITY_AKAFES_NORMAL_",
                      "value": 1.0
                    }
                  ],
                  "successActions": [
                    {
                      "$type": "SetGlobalPos",
                      "target": "Other",
                      "shieldHP": true,
                      "key": "_ABILITY_AkaFes_3_4_Attack_Pos",
                      "born": {
                        "$type": "ConfigBornByTarget",
                        "useRotation": true
                      },
                      "setTarget": false
                    },
                    {
                      "$type": "SetGlobalPos",
                      "shieldHP": true,
                      "key": "_ABILITY_AkaFes_3_4_Attack_Pos_Avatar",
                      "born": {
                        "$type": "ConfigBornBySelf",
                        "offset": {
                          "x": 0.0,
                          "y": 0.0,
                          "z": 0.0
                        },
                        "useRotation": true
                      }
                    },
                    {
                      "$type": "CopyGlobalValue",
                      "shieldHP": true,
                      "srcTarget": "Team",
                      "dstTarget": "Self",
                      "srcKey": "_ABILITY_AkaFes_3_4_Attack_Pos_0",
                      "dstKey": "_ABILITY_AkaFes_3_4_Attack_Pos_Avatar_0"
                    },
                    {
                      "$type": "CopyGlobalValue",
                      "shieldHP": true,
                      "srcTarget": "Team",
                      "dstTarget": "Self",
                      "srcKey": "_ABILITY_AkaFes_3_4_Attack_Pos_1",
                      "dstKey": "_ABILITY_AkaFes_3_4_Attack_Pos_Avatar_1"
                    },
                    {
                      "$type": "CopyGlobalValue",
                      "shieldHP": true,
                      "srcTarget": "Team",
                      "dstTarget": "Self",
                      "srcKey": "_ABILITY_AkaFes_3_4_Attack_Pos_2",
                      "dstKey": "_ABILITY_AkaFes_3_4_Attack_Pos_Avatar_2"
                    },
                    {
                      "$type": "TriggerAttackEvent",
                      "shieldHP": true,
                      "attackEvent": {
                        "attackPattern": {
                          "$type": "ConfigAttackCircle",
                          "triggerType": "TriggerNoRepeat",
                          "massiveAttackRatio": 0.30000001192092896,
                          "born": {
                            "$type": "ConfigBornByGlobalValue",
                            "offset": {
                              "x": 0.0,
                              "y": -1.5,
                              "z": 0.0
                            },
                            "onGround": true,
                            "useRotation": true,
                            "positionKey": "_ABILITY_AkaFes_3_4_Attack_Pos_Avatar",
                            "directionKey": ""
                          },
                          "height": 6.0,
                          "radius": 10.0
                        },
                        "attackInfo": {
                          "attackTag": "",
                          "attenuationTag": "",
                          "attenuationGroup": "default",
                          "attackProperty": {
                            "actorWindSubHurtDelta": 0.0,
                            "elementDurability": 20.0,
                            "strikeType": "Default",
                            "enBreak": 20.0,
                            "attackType": "Range",
                            "HMBONGBFIAP": [
                              "DamageRatio",
                              "DamageSystemValue",
                              "MUL"
                            ],
                            "trueDamage": true,
                            "GLKMCMDJBIK": 0.0
                          },
                          "hitPattern": {
                            "onHitEffectName": "default",
                            "hitImpulseY": "",
                            "hitImpulseType": "LV3",
                            "retreatType": "ByHitDirectionInverse",
                            "hitHaltTimeScale": 0.05000000074505806
                          }
                        }
                      },
                      "targetType": "Enemy"
                    },
                    {
                      "$type": "FireEffect",
                      "rotationDampTime": "Eff_Activity_AkaFesPotion_Blast_R8",
                      "born": {
                        "$type": "ConfigBornByGlobalValue",
                        "useRotation": true,
                        "positionKey": "_ABILITY_AkaFes_3_4_Attack_Pos_Avatar",
                        "directionKey": ""
                      },
                      "PPPDJGDDOGD": 1.0,
                      "AJDILHJFNKE": -1.0
                    }
                  ]
                }
              ]
            }
          ]
        }
      },
      "onAdded": [
        {
          "$type": "GDHGMAPPGHD",
          "shieldHP": true,
          "key": "DamageSystemValue",
          "damageRatio": "ElementLevelCo"
        },
        {
          "$type": "AttachModifier",
          "target": "Team",
          "modifierName": "AkaFesPotion_Stage_3_4_Driver"
        }
      ],
      "isDynamicAbility": true
    }
  },
  {
    "Default": {
      "$type": "ConfigAbility",
      "abilityName": "Activity_AkaFesArchitect_Invincible",
      "modifiers": {
        "AkaFesArchitect_Team_Ban_SwitchBurst_Button": {
          "modifierName": "",
          "elementDurability": 100.0,
          "thinkInterval": 1.0,
          "modifierMixins": [
            {
              "$type": "BAAHKAFDLOB"
            }
          ],
          "onAdded": [
            {
              "$type": "AttachModifier",
              "target": "CurTeamAvatars",
              "shieldHP": true,
              "modifierName": "AkaFesArchitect_Avatar_Invincible"
            }
          ],
          "onThinkInterval": [
            {
              "$type": "AttachModifier",
              "target": "CurTeamAvatars",
              "shieldHP": true,
              "modifierName": "AkaFesArchitect_Avatar_Invincible"
            }
          ]
        },
        "AkaFesArchitect_Avatar_Invincible": {
          "modifierName": "",
          "duration": 5.0,
          "elementDurability": 100.0,
          "modifierMixins": [
            {
              "$type": "KAIOONFFNHC",
              "slotType": "Slot2"
            },
            {
              "$type": "KAIOONFFNHC",
              "slotType": "Slot5"
            }
          ],
          "onAdded": [
            {
              "$type": "AttachModifier",
              "shieldHP": true,
              "modifierName": "GhostToEmeny"
            },
            {
              "$type": "AttachModifier",
              "shieldHP": true,
              "modifierName": "GhostToAllied"
            },
            {
              "$type": "AttachModifier",
              "shieldHP": true,
              "modifierName": "DenyLock"
            },
            {
              "$type": "AttachModifier",
              "shieldHP": true,
              "modifierName": "Invincible"
            }
          ]
        },
        "DenyLock": {
          "modifierName": "",
          "elementDurability": 100.0,
          "state": "DenyLockOn",
          "onAdded": [
            {
              "$type": "AttachAbilityStateResistance",
              "resistanceListID": 11002
            }
          ]
        },
        "Invincible": {
          "modifierName": "",
          "elementDurability": 100.0,
          "modifierMixins": [
            {
              "$type": "CIBMLJJLANN",
              "excludeForces": ["WindZoneType"]
            }
          ],
          "state": "Invincible"
        },
        "GhostToAllied": {
          "modifierName": "",
          "elementDurability": 100.0,
          "state": "IsGhostToAllied"
        },
        "GhostToEmeny": {
          "modifierName": "",
          "elementDurability": 100.0,
          "state": "IsGhostToEnemy"
        }
      },
      "onAdded": [
        {
          "$type": "AttachModifier",
          "target": "Team",
          "shieldHP": true,
          "modifierName": "AkaFesArchitect_Team_Ban_SwitchBurst_Button"
        }
      ],
      "isDynamicAbility": true
    }
  },
  {
    "Default": {
      "$type": "ConfigAbility",
      "abilityName": "Activity_Gadget_AkaFesPotion_Fire_Debuff_Driver",
      "abilityMixins": [
        {
          "$type": "AttachToGadgetStateMixin",
          "modifierName": "Default_0"
        },
        {
          "$type": "AttachToGadgetStateMixin",
          "gadgetState": 201,
          "modifierName": "Phase1_Delay"
        }
      ],
      "abilitySpecials": {
        "Timmer": 0.0,
        "Fire_Durability": 0.0,
        "Dot_Timer": 0.0,
        "Dot_Duration": 0.0,
        "DamageRatio": 0.0,
        "DamageSystemValue": 0.0
      },
      "modifiers": {
        "Default_0": {
          "modifierName": "",
          "elementDurability": 100.0,
          "onAdded": [
            {
              "$type": "RemoveModifier",
              "modifierName": "Phase1"
            }
          ]
        },
        "RemoveDebuff": {
          "modifierName": "",
          "duration": 1.0,
          "elementDurability": 100.0,
          "onAdded": [
            {
              "$type": "RemoveModifier",
              "target": "CurTeamAvatars",
              "modifierName": "Fire_Damge"
            }
          ]
        },
        "Phase1_Delay": {
          "modifierName": "",
          "duration": 3.0,
          "elementDurability": 100.0,
          "onRemoved": [
            {
              "$type": "ApplyModifier",
              "modifierName": "Phase1"
            }
          ]
        },
        "Attach_Fire_Damge": {
          "modifierName": "",
          "duration": 0.5,
          "elementDurability": 100.0,
          "onAdded": [
            {
              "$type": "ApplyModifier",
              "target": "CurTeamAvatars",
              "modifierName": "Fire_Damge"
            }
          ]
        },
        "Phase1": {
          "modifierName": "",
          "elementDurability": 100.0,
          "thinkInterval": "Timmer",
          "onAdded": [
            {
              "$type": "FireEffect",
              "rotationDampTime": "Eff_Ground_FireFog_01_Up",
              "PPPDJGDDOGD": 1.0,
              "AJDILHJFNKE": -1.0
            },
            {
              "$type": "ApplyModifier",
              "otherTargets": {
                "$type": "SelectTargetsByShape",
                "shapeName": "CircleR30",
                "campTargetType": "AllExceptSelf",
                "doOffStage": 1.0
              },
              "predicates": [
                {
                  "$type": "ByEntityTypes",
                  "entityTypes": ["Avatar"]
                }
              ],
              "modifierName": "Attach_Fire_Damge"
            }
          ],
          "onRemoved": [
            {
              "$type": "ApplyModifier",
              "target": "AllTeams",
              "modifierName": "RemoveDebuff"
            }
          ],
          "onThinkInterval": [
            {
              "$type": "FireEffect",
              "rotationDampTime": "Eff_Ground_FireFog_01_Up",
              "PPPDJGDDOGD": 1.0,
              "AJDILHJFNKE": -1.0
            },
            {
              "$type": "ApplyModifier",
              "otherTargets": {
                "$type": "SelectTargetsByShape",
                "shapeName": "CircleR30",
                "campTargetType": "AllExceptSelf",
                "doOffStage": 1.0
              },
              "predicates": [
                {
                  "$type": "ByEntityTypes",
                  "entityTypes": ["Avatar"]
                }
              ],
              "modifierName": "Attach_Fire_Damge"
            }
          ]
        },
        "Fire_Damge": {
          "modifierName": "",
          "duration": "Dot_Duration",
          "elementType": "Fire",
          "elementDurability": "Fire_Durability",
          "thinkInterval": "Dot_Timer",
          "onAdded": [
            {
              "$type": "AttachEffect",
              "rotationDampTime": "Eff_Element_Fire_Level_01",
              "PPPDJGDDOGD": 1.0,
              "AJDILHJFNKE": -1.0
            },
            {
              "$type": "GDHGMAPPGHD",
              "key": "DamageSystemValue",
              "damageRatio": "ElementLevelCo"
            }
          ],
          "onThinkInterval": [
            {
              "$type": "DamageByAttackValue",
              "target": "CurLocalAvatar",
              "attackInfo": {
                "attackTag": "",
                "attenuationTag": "",
                "attenuationGroup": "default",
                "attackProperty": {
                  "actorGrassSubHurtDelta": 0.0,
                  "actorWindSubHurtDelta": 0.0,
                  "elementType": "Fire",
                  "elementDurability": 50.0,
                  "ignoreAttackerProperty": true,
                  "enBreak": 0.0,
                  "HMBONGBFIAP": ["DamageRatio", "DamageSystemValue", "MUL"],
                  "trueDamage": true,
                  "GLKMCMDJBIK": 0.0
                },
                "hitPattern": {
                  "onHitEffectName": "none",
                  "hitImpulseY": "",
                  "hitImpulseType": "LV0",
                  "hitHaltTimeScale": 0.05000000074505806
                }
              }
            }
          ]
        }
      },
      "onAdded": [
        {
          "$type": "GDHGMAPPGHD",
          "shieldHP": true,
          "key": "DamageSystemValue",
          "damageRatio": "ElementLevelCo"
        }
      ]
    }
  }
]
