[
  {
    "Default": {
      "$type": "ConfigAbility",
      "abilityName": "ActivityAbility_ArenaChallengeV4_0_1",
      "abilitySpecials": {
        "Duration": 0.0,
        "AddHurtRatio": 0.0,
        "MaxStack": 0.0
      },
      "modifiers": {
        "UNIQUE_ArenaChallengeV4_0_1_Driver": {
          "stacking": "Unique",
          "modifierName": "",
          "forceTriggerWhenChangeAuthority": true,
          "elementDurability": 100.0,
          "modifierMixins": [
            {
              "$type": "DoActionByEventMixin",
              "onEvent": "HPDown",
              "actions": [
                {
                  "$type": "ApplyModifier",
                  "shieldHP": true,
                  "modifierName": "ArenaChallengeV4_0_1_Elemental_DamageUp"
                }
              ],
              "costEnergyDeltaName": ""
            }
          ]
        },
        "ArenaChallengeV4_0_1_Elemental_DamageUp": {
          "stacking": "MultipleAllRefresh",
          "stackingOption": {
            "abilitySpecialName": "",
            "maxModifierNumForMultipleType": "MaxStack"
          },
          "modifierName": "",
          "duration": "Duration",
          "elementDurability": 100.0,
          "properties": {
            "Actor_PhysicalAddHurtDelta": "AddHurtRatio",
            "Actor_FireAddHurtDelta": "AddHurtRatio",
            "Actor_ElecAddHurtDelta": "AddHurtRatio",
            "Actor_WaterAddHurtDelta": "AddHurtRatio",
            "Actor_GrassAddHurtDelta": "AddHurtRatio",
            "Actor_WindAddHurtDelta": "AddHurtRatio",
            "Actor_IceAddHurtDelta": "AddHurtRatio",
            "Actor_RockAddHurtDelta": "AddHurtRatio"
          },
          "state": "AttackUp",
          "isLimitedProperties": true
        }
      },
      "onAdded": [
        {
          "$type": "AttachModifier",
          "modifierName": "UNIQUE_ArenaChallengeV4_0_1_Driver"
        }
      ],
      "isDynamicAbility": true
    }
  },
  {
    "Default": {
      "$type": "ConfigAbility",
      "abilityName": "ActivityAbility_ArenaChallengeV4_0_2",
      "abilitySpecials": {
        "Duration": 0.0,
        "DefenceDown_Ratio": 0.0
      },
      "modifiers": {
        "UNIQUE_ArenaChallengeV4_0_2_Driver": {
          "stacking": "Unique",
          "modifierName": "",
          "forceTriggerWhenChangeAuthority": true,
          "elementDurability": 100.0,
          "modifierMixins": [
            {
              "$type": "DoActionByElementReactionMixin",
              "range": 40.0,
              "entityTypes": ["Monster"],
              "reactionTypes": [
                "Burning",
                "Overdose",
                "Overgrow",
                "OverdoseElectric",
                "OverdoseGrass",
                "OvergrowMushroomElectric",
                "OvergrowMushroomFire"
              ],
              "actions": [
                {
                  "$type": "ApplyModifier",
                  "target": "Other",
                  "shieldHP": true,
                  "modifierName": "UNIQUE_ArenaChallengeV4_0_DefenceDown"
                }
              ]
            }
          ],
          "onHittingOther": [
            {
              "$type": "Predicated",
              "target": "Other",
              "shieldHP": true,
              "targetPredicates": [
                {
                  "$type": "ByAttackTags",
                  "attackTags": [
                    "OverGrowDamage",
                    "OverGrow_Fire_Damage",
                    "OverGrow_Electric_Damage"
                  ]
                },
                {
                  "$type": "ByEntityTypes",
                  "entityTypes": ["Monster"]
                },
                {
                  "$type": "ByTargetGlobalValue",
                  "key": "_ANIMAL_ENTITY_TYPE",
                  "value": 0.0,
                  "compareType": "NoneOrEqual"
                }
              ],
              "successActions": [
                {
                  "$type": "ApplyModifier",
                  "target": "Other",
                  "shieldHP": true,
                  "modifierName": "UNIQUE_ArenaChallengeV4_0_DefenceDown"
                }
              ]
            }
          ]
        },
        "UNIQUE_ArenaChallengeV4_0_DefenceDown": {
          "stacking": "RefreshUniqueDurability",
          "modifierName": "",
          "forceTriggerWhenChangeAuthority": true,
          "duration": "Duration",
          "elementDurability": 100.0,
          "properties": {
            "Actor_DefenceRatio": [0.0, 1.0, "DefenceDown_Ratio", "MUL", "SUB"]
          },
          "state": "DefenseDown"
        }
      },
      "onAdded": [
        {
          "$type": "AttachModifier",
          "modifierName": "UNIQUE_ArenaChallengeV4_0_2_Driver"
        }
      ],
      "isDynamicAbility": true
    }
  },
  {
    "Default": {
      "$type": "ConfigAbility",
      "abilityName": "ActivityAbility_ArenaChallengeV4_0_3",
      "abilitySpecials": {
        "SteamUpRatio": 0.0,
        "ElectricUpRatio": 0.0,
        "SwirlWaterUpRatio": 0.0,
        "Duration": 0.0,
        "AttackUpRatio": 0.0
      },
      "modifiers": {
        "UNIQUE_ArenaChallengeV4_0_3_Driver": {
          "stacking": "Unique",
          "modifierName": "",
          "forceTriggerWhenChangeAuthority": true,
          "elementDurability": 100.0,
          "modifierMixins": [
            {
              "$type": "DoActionByElementReactionMixin",
              "range": 40.0,
              "entityTypes": ["Monster"],
              "reactionTypes": ["Freeze"],
              "actions": [
                {
                  "$type": "TriggerAbility",
                  "shieldHP": true,
                  "abilityName": "ActivityAbility_ArenaChallengeV4_0_3"
                }
              ]
            }
          ],
          "properties": {
            "Actor_ElemReactSteamDelta": "SteamUpRatio",
            "Actor_ElemReactElectricDelta": "ElectricUpRatio"
          },
          "state": "AttackUp",
          "isLimitedProperties": true
        },
        "ArenaChallengeV4_0_3_AttackUp": {
          "modifierName": "",
          "duration": "Duration",
          "elementDurability": 100.0,
          "properties": {
            "Actor_AttackRatio": "AttackUpRatio"
          },
          "isLimitedProperties": true
        }
      },
      "onAdded": [
        {
          "$type": "AttachModifier",
          "modifierName": "UNIQUE_ArenaChallengeV4_0_3_Driver"
        }
      ],
      "onAbilityStart": [
        {
          "$type": "AttachModifier",
          "shieldHP": true,
          "modifierName": "ArenaChallengeV4_0_3_AttackUp"
        }
      ],
      "isDynamicAbility": true
    }
  },
  {
    "Default": {
      "$type": "ConfigAbility",
      "abilityName": "ActivityAbility_ArenaChallengeV4_0_4",
      "abilitySpecials": {
        "BurstDamageUpRatio": 0.0,
        "Charge_EfficiencyDelta": 0.0
      },
      "modifiers": {
        "UNIQUE_ArenaChallengeV4_0_4_Driver": {
          "stacking": "Unique",
          "modifierName": "",
          "forceTriggerWhenChangeAuthority": true,
          "elementDurability": 100.0,
          "modifierMixins": [
            {
              "$type": "ModifyDamageMixin",
              "attackTags": ["Elemental_Burst"],
              "actorWindSubHurtDelta": "BurstDamageUpRatio"
            }
          ],
          "properties": {
            "Actor_ChargeEfficiencyDelta": "Charge_EfficiencyDelta"
          },
          "state": "AttackUp",
          "isLimitedProperties": true
        }
      },
      "onAdded": [
        {
          "$type": "AttachModifier",
          "modifierName": "UNIQUE_ArenaChallengeV4_0_4_Driver"
        }
      ],
      "isDynamicAbility": true
    }
  },
  {
    "Default": {
      "$type": "ConfigAbility",
      "abilityName": "ActivityAbility_ArenaChallengeV4_0_5",
      "abilitySpecials": {
        "AttackSpeedRatio": 0.0,
        "ImapctCD": 0.0,
        "DamageSystemValue": 0.0,
        "DamageRatio": 0.0
      },
      "modifiers": {
        "UNIQUE_ArenaChallengeV4_0_5_Driver": {
          "stacking": "Unique",
          "modifierName": "",
          "forceTriggerWhenChangeAuthority": true,
          "elementDurability": 100.0,
          "properties": {
            "Animator_AttackSpeedRatio": "AttackSpeedRatio"
          },
          "state": "AttackUp",
          "onHittingOther": [
            {
              "$type": "GDHGMAPPGHD",
              "shieldHP": true,
              "key": "DamageSystemValue",
              "damageRatio": "ElementLevelCo"
            },
            {
              "$type": "Predicated",
              "target": "Other",
              "shieldHP": true,
              "targetPredicates": [
                {
                  "$type": "ByAttackTags",
                  "attackTags": ["ExtraAttack", "FallingAttack"]
                },
                {
                  "$type": "ByEntityTypes",
                  "entityTypes": ["Monster"]
                },
                {
                  "$type": "ByTargetGlobalValue",
                  "key": "_ANIMAL_ENTITY_TYPE",
                  "value": 0.0,
                  "compareType": "NoneOrEqual"
                },
                {
                  "$type": "ByTargetGlobalValue",
                  "target": "Team",
                  "key": "_ABILITY_ArenaChallengeV4_0_5_CD_Mark",
                  "value": 0.0,
                  "compareType": "NoneOrEqual"
                }
              ],
              "successActions": [
                {
                  "$type": "ApplyModifier",
                  "target": "Team",
                  "shieldHP": true,
                  "modifierName": "UNIQUE_ArenaChallengeV4_0_5_CD"
                },
                {
                  "$type": "SetGlobalPos",
                  "target": "Other",
                  "shieldHP": true,
                  "key": "_ABILITY_ArenaChallengeV4_0_5_Pos",
                  "born": {
                    "$type": "ConfigBornByTarget",
                    "onGround": true,
                    "onGroundRaycastUpDist": 3.0,
                    "useRotation": true
                  },
                  "setTarget": false
                },
                {
                  "$type": "TriggerAttackEvent",
                  "shieldHP": true,
                  "attackEvent": {
                    "attackPattern": {
                      "$type": "ConfigAttackCircle",
                      "triggerType": "TriggerNoRepeat",
                      "massiveAttackRatio": 0.30000001192092896,
                      "born": {
                        "$type": "ConfigBornByGlobalValue",
                        "useRotation": true,
                        "positionKey": "_ABILITY_ArenaChallengeV4_0_5_Pos",
                        "directionKey": ""
                      },
                      "height": 6.0,
                      "radius": 8.0
                    },
                    "attackInfo": {
                      "attackTag": "",
                      "attenuationTag": "",
                      "attenuationGroup": "default",
                      "attackProperty": {
                        "actorWindSubHurtDelta": 0.0,
                        "elementDurability": 20.0,
                        "strikeType": "Default",
                        "enBreak": 20.0,
                        "attackType": "Range",
                        "HMBONGBFIAP": [
                          "DamageRatio",
                          "DamageSystemValue",
                          "MUL"
                        ],
                        "trueDamage": true,
                        "GLKMCMDJBIK": 0.0
                      },
                      "hitPattern": {
                        "onHitEffectName": "default",
                        "hitImpulseY": "",
                        "hitImpulseType": "LV3",
                        "retreatType": "ByHitDirectionInverse",
                        "hitHaltTimeScale": 0.05000000074505806
                      }
                    }
                  },
                  "targetType": "Enemy"
                },
                {
                  "$type": "FireEffect",
                  "shieldHP": true,
                  "rotationDampTime": "Eff_Activity_AkaFesPotion_Blast_R8",
                  "born": {
                    "$type": "ConfigBornByGlobalValue",
                    "useRotation": true,
                    "positionKey": "_ABILITY_ArenaChallengeV4_0_5_Pos",
                    "directionKey": ""
                  },
                  "PPPDJGDDOGD": 1.0,
                  "AJDILHJFNKE": -1.0
                }
              ]
            }
          ],
          "isLimitedProperties": true
        },
        "UNIQUE_ArenaChallengeV4_0_5_CD": {
          "modifierName": "",
          "forceTriggerWhenChangeAuthority": true,
          "duration": "ImapctCD",
          "elementDurability": 100.0,
          "onAdded": [
            {
              "$type": "SetGlobalValue",
              "shieldHP": true,
              "value": 1.0,
              "key": "_ABILITY_ArenaChallengeV4_0_5_CD_Mark",
              "maxValue": 0.0,
              "minValue": 0.0
            }
          ],
          "onRemoved": [
            {
              "$type": "SetGlobalValue",
              "shieldHP": true,
              "value": 0.0,
              "key": "_ABILITY_ArenaChallengeV4_0_5_CD_Mark",
              "maxValue": 0.0,
              "minValue": 0.0
            }
          ]
        }
      },
      "onAdded": [
        {
          "$type": "GDHGMAPPGHD",
          "shieldHP": true,
          "key": "DamageSystemValue",
          "damageRatio": "ElementLevelCo"
        },
        {
          "$type": "AttachModifier",
          "modifierName": "UNIQUE_ArenaChallengeV4_0_5_Driver"
        }
      ],
      "isDynamicAbility": true
    }
  },
  {
    "Default": {
      "$type": "ConfigAbility",
      "abilityName": "ActivityAbility_ArenaChallengeV4_0_6",
      "abilitySpecials": {
        "HealedUpRatio": 0.0,
        "MaxStack": 0.0,
        "AttackUpRatio": 0.0,
        "buffDuration": 0.0
      },
      "modifiers": {
        "UNIQUE_ArenaChallengeV4_0_6_Driver": {
          "stacking": "Unique",
          "modifierName": "",
          "forceTriggerWhenChangeAuthority": true,
          "elementDurability": 100.0,
          "properties": {
            "Actor_HealedAddDelta": "HealedUpRatio"
          },
          "onBeingHealed": [
            {
              "$type": "AttachModifier",
              "shieldHP": true,
              "modifierName": "ArenaChallengeV4_0_6_AttackUp"
            }
          ],
          "isLimitedProperties": true
        },
        "ArenaChallengeV4_0_6_AttackUp": {
          "stacking": "MultipleAllRefresh",
          "stackingOption": {
            "abilitySpecialName": "",
            "maxModifierNumForMultipleType": "MaxStack"
          },
          "modifierName": "",
          "duration": "buffDuration",
          "elementDurability": 100.0,
          "properties": {
            "Actor_AttackRatio": "AttackUpRatio"
          },
          "state": "AttackUp",
          "isLimitedProperties": true
        }
      },
      "onAdded": [
        {
          "$type": "AttachModifier",
          "modifierName": "UNIQUE_ArenaChallengeV4_0_6_Driver"
        }
      ],
      "isDynamicAbility": true
    }
  }
]
