[
  {
    "Default": {
      "$type": "MoleMole.Config.GNKCLKNDOAK",
      "abilityName": "Activity_AcrobaticsBattle_Lv0_LevelBuff_Team",
      "PIDAPNFJNDF": [
        {
          "$type": "MoleMole.Config.AttachModifierToSelfGlobalValueNoInitMixin",
          "globalValueKey": "_AcrobaticsBattle_Fever",
          "FJEPHJNDEAI": [-0.5, 0.5, 1.5],
          "IJEPHCMOAPE": [
            "Blank",
            "Activity_AcrobaticsBattle_Lv0_FeverBuff_Handler"
          ],
          "BMNOPNNALIB": true
        }
      ],
      "BFBDNNJCDLH": {
        "Activity_AcrobaticsBattle_Lv0_FeverBuff_Handler": {
          "modifierName": "",
          "duration": 100.0,
          "JPIFFPJJEMK": [
            {
              "$type": "MoleMole.Config.LocalAvatarsMixin",
              "modifierName": "Activity_AcrobaticsBattle_Lv0_FeverBuff_Avatar"
            }
          ],
          "OAOGLLGGJPD": [
            {
              "$type": "MoleMole.Config.CameraScreenEffect",
              "canBeHandledOnRecover": true,
              "muteRemoteAction": true,
              "enable": true,
              "effectName": "Eff_UI_AcrobaticsBattle_Screen_01"
            }
          ],
          "MINFJCDAIBB": [
            {
              "$type": "MoleMole.Config.ServerLuaTriggerEvent",
              "doOffStage": true,
              "MECCMJIFJKG": "CurGalleryControlGroup",
              "FBPFAJFIFCG": "StopFeverBuff",
              "param1": 0.0,
              "maxValue": 0.0,
              "GBOGNIOMAGM": 0.0
            },
            {
              "$type": "MoleMole.Config.CameraScreenEffect",
              "canBeHandledOnRecover": true,
              "muteRemoteAction": true,
              "effectName": "Eff_UI_AcrobaticsBattle_Screen_01"
            }
          ]
        },
        "Activity_AcrobaticsBattle_Lv0_FeverBuff_Avatar": {
          "modifierName": "",
          "duration": 100.0,
          "OAOGLLGGJPD": [
            {
              "$type": "MoleMole.Config.SetGlobalValue",
              "doOffStage": true,
              "value": 1.0,
              "key": "_ABILITY_Activity_AcrobaticsBattle_FeverBuff_Mark",
              "maxValue": 0.0,
              "GCEOGBJIFCP": 0.0
            }
          ],
          "MINFJCDAIBB": [
            {
              "$type": "MoleMole.Config.SetGlobalValue",
              "doOffStage": true,
              "value": 0.0,
              "key": "_ABILITY_Activity_AcrobaticsBattle_FeverBuff_Mark",
              "maxValue": 0.0,
              "GCEOGBJIFCP": 0.0
            }
          ]
        },
        "Blank": {
          "modifierName": "",
          "duration": 100.0
        }
      },
      "LLNGCHGGPLC": true
    }
  },
  {
    "Default": {
      "$type": "MoleMole.Config.GNKCLKNDOAK",
      "abilityName": "Activity_AcrobaticsBattle_Lv0_LevelBuff_Avatar",
      "BFBDNNJCDLH": {
        "Activity_AcrobaticsBattle_Lv0_LevelBuff_GrandHandler": {
          "modifierName": "",
          "duration": 100.0,
          "JPIFFPJJEMK": [
            {
              "$type": "MoleMole.Config.ThinkIntervalMixin",
              "BNJENAIMDPL": 0.20000000298023224,
              "PJKELBNICOI": [
                {
                  "$type": "MoleMole.Config.ApplyModifier",
                  "otherTargets": {
                    "$type": "DOMPKGOHKNB",
                    "shapeName": "CircleR30",
                    "FAMCBLCIFCJ": "AllExceptSelf",
                    "CONEFMBNECE": 1.0
                  },
                  "predicates": [
                    {
                      "$type": "DLLOJMFICPG",
                      "JBEIOINCLFB": ["Monster"]
                    },
                    {
                      "$type": "OFEHCLIGCND",
                      "predicates": [
                        {
                          "$type": "PAAOHLFCAOA"
                        }
                      ]
                    }
                  ],
                  "modifierName": "UNIQUE_Activity_AcrobaticsBattle_Lv0_LevelBuff_KillHandler"
                }
              ]
            }
          ]
        },
        "UNIQUE_Activity_AcrobaticsBattle_Lv0_LevelBuff_KillHandler": {
          "EODJPKICNGG": "RefreshUniqueDurability",
          "modifierName": "",
          "LLIJGLMEHFK": true,
          "duration": 0.5,
          "duration": 100.0,
          "DOFDCKKDGHL": [
            {
              "$type": "MoleMole.Config.Predicated",
              "doOffStage": true,
              "CKBKOCJPJMM": [
                {
                  "$type": "IPGGGPIJONN",
                  "key": "SGV_AcrobaticsBattle_isElite",
                  "value": 1.0
                }
              ],
              "successActions": [
                {
                  "$type": "MoleMole.Config.ApplyModifier",
                  "MLDBFKEGPEF": "Team",
                  "modifierName": "Activity_AcrobaticsBattle_SLCEliteNotify"
                }
              ],
              "failActions": [
                {
                  "$type": "MoleMole.Config.ApplyModifier",
                  "MLDBFKEGPEF": "Team",
                  "modifierName": "Activity_AcrobaticsBattle_SLCNotify"
                }
              ]
            }
          ]
        },
        "Activity_AcrobaticsBattle_SLCEliteNotify": {
          "EODJPKICNGG": "Multiple",
          "modifierName": "",
          "duration": 0.30000001192092896,
          "duration": 100.0,
          "OAOGLLGGJPD": [
            {
              "$type": "MoleMole.Config.ServerLuaTriggerEvent",
              "doOffStage": true,
              "MECCMJIFJKG": "CurGalleryControlGroup",
              "FBPFAJFIFCG": "KillMonster",
              "EPFBIHBJPAH": 1,
              "param1": 1.0,
              "maxValue": 0.0,
              "GBOGNIOMAGM": 0.0
            }
          ]
        },
        "Activity_AcrobaticsBattle_SLCNotify": {
          "EODJPKICNGG": "Multiple",
          "modifierName": "",
          "duration": 0.30000001192092896,
          "duration": 100.0,
          "OAOGLLGGJPD": [
            {
              "$type": "MoleMole.Config.ServerLuaTriggerEvent",
              "doOffStage": true,
              "MECCMJIFJKG": "CurGalleryControlGroup",
              "FBPFAJFIFCG": "KillMonster",
              "EPFBIHBJPAH": 1,
              "param1": 0.0,
              "maxValue": 0.0,
              "GBOGNIOMAGM": 0.0
            }
          ]
        },
        "Blank": {
          "modifierName": "",
          "duration": 100.0
        }
      },
      "OAOGLLGGJPD": [
        {
          "$type": "MoleMole.Config.AttachModifier",
          "modifierName": "Activity_AcrobaticsBattle_Lv0_LevelBuff_GrandHandler"
        }
      ],
      "LLNGCHGGPLC": true
    }
  },
  {
    "Default": {
      "$type": "MoleMole.Config.GNKCLKNDOAK",
      "abilityName": "Activity_AcrobaticsBattle_Lv0_LevelBuff_Monster",
      "BFBDNNJCDLH": {
        "UNIQUE_Activity_AcrobaticsBattle_Lv0_LevelBuff_MonsterKillHandler": {
          "EODJPKICNGG": "RefreshUniqueDurability",
          "modifierName": "",
          "LLIJGLMEHFK": true,
          "duration": 100.0,
          "DOFDCKKDGHL": [
            {
              "$type": "MoleMole.Config.CreateGadget",
              "doOffStage": true,
              "predicates": [
                {
                  "$type": "IPGGGPIJONN",
                  "MLDBFKEGPEF": "Caster",
                  "key": "_ABILITY_Activity_AcrobaticsBattle_SpecifyKillMark",
                  "value": 0.0,
                  "compareType": "NoneOrEqual"
                }
              ],
              "gadgetID": 44000601,
              "campID": 1001,
              "FAMCBLCIFCJ": "Enemy"
            }
          ]
        }
      },
      "OAOGLLGGJPD": [
        {
          "$type": "MoleMole.Config.AttachModifier",
          "predicates": [
            {
              "$type": "OFEHCLIGCND",
              "predicates": [
                {
                  "$type": "PAAOHLFCAOA"
                }
              ]
            }
          ],
          "modifierName": "UNIQUE_Activity_AcrobaticsBattle_Lv0_LevelBuff_MonsterKillHandler"
        }
      ],
      "LLNGCHGGPLC": true
    }
  },
  {
    "Default": {
      "$type": "MoleMole.Config.GNKCLKNDOAK",
      "abilityName": "SkillObj_Activity_AcrobaticsBattle_Lv0",
      "BFBDNNJCDLH": {
        "SkillObj_Activity_AcrobaticsBattle_Lv0": {
          "modifierName": "",
          "duration": 100.0,
          "OAOGLLGGJPD": [
            {
              "$type": "MoleMole.Config.ServerLuaTriggerEvent",
              "doOffStage": true,
              "MECCMJIFJKG": "CurGalleryControlGroup",
              "FBPFAJFIFCG": "KillMonster",
              "EPFBIHBJPAH": 1,
              "param1": 0.0,
              "maxValue": 0.0,
              "GBOGNIOMAGM": 0.0
            },
            {
              "$type": "MoleMole.Config.DebugLog",
              "doOffStage": true,
              "KNKPIGLBMEP": "!!!!!!!!!onKill_Normal!!!!!!!!!"
            }
          ]
        }
      },
      "OAOGLLGGJPD": [
        {
          "$type": "MoleMole.Config.ApplyModifier",
          "modifierName": "SkillObj_Activity_AcrobaticsBattle_Lv0"
        }
      ]
    }
  },
  {
    "Default": {
      "$type": "MoleMole.Config.GNKCLKNDOAK",
      "abilityName": "SkillObj_Activity_AcrobaticsBattle_KillCall",
      "BFBDNNJCDLH": {
        "SkillObj_Activity_AcrobaticsBattle_KillCall": {
          "modifierName": "",
          "duration": 100.0,
          "OAOGLLGGJPD": [
            {
              "$type": "MoleMole.Config.ServerLuaTriggerEvent",
              "doOffStage": true,
              "MECCMJIFJKG": "CurGalleryControlGroup",
              "FBPFAJFIFCG": "KillMonster",
              "EPFBIHBJPAH": 1,
              "param1": 1.0,
              "maxValue": 0.0,
              "GBOGNIOMAGM": 0.0
            },
            {
              "$type": "MoleMole.Config.DebugLog",
              "doOffStage": true,
              "KNKPIGLBMEP": "!!!!!!!!!onKill_Specify!!!!!!!!!"
            }
          ]
        }
      },
      "OAOGLLGGJPD": [
        {
          "$type": "MoleMole.Config.ApplyModifier",
          "modifierName": "SkillObj_Activity_AcrobaticsBattle_KillCall"
        }
      ]
    }
  },
  {
    "Default": {
      "$type": "MoleMole.Config.GNKCLKNDOAK",
      "abilityName": "Activity_AcrobaticsBattle_Lv1_LevelBuff_Avatar",
      "PIDAPNFJNDF": [
        {
          "$type": "MoleMole.Config.AttachModifierToSelfGlobalValueMixin",
          "globalValueKey": "_ABILITY_Activity_AcrobaticsBattle_FeverBuff_Mark",
          "KADKJMOFOLI": 0.0,
          "FJEPHJNDEAI": [-0.5, 0.5, 1.5],
          "IJEPHCMOAPE": [
            "Blank",
            "Activity_AcrobaticsBattle_Lv1_FeverBuff_Handler"
          ]
        }
      ],
      "LLLCANIGIOE": {
        "Buff_Duration": 0.0,
        "Kill_Window": 0.0,
        "ElemMasteryDelta": 0.0,
        "CDTime": 0.0
      },
      "BFBDNNJCDLH": {
        "Activity_AcrobaticsBattle_Lv1_LevelBuff_GrandHandler": {
          "modifierName": "",
          "duration": 100.0,
          "JPIFFPJJEMK": [
            {
              "$type": "MoleMole.Config.DoActionByElementReactionMixin",
              "JBEIOINCLFB": ["Monster"],
              "NDAGPIMPPKE": ["Explode"],
              "actions": [
                {
                  "$type": "MoleMole.Config.TriggerAbility",
                  "MLDBFKEGPEF": "AllPlayerAvatars",
                  "doOffStage": true,
                  "predicates": [
                    {
                      "$type": "BKCFCDOEENL",
                      "logic": "LesserOrEqual",
                      "value": 40.0,
                      "EGBKHFGDFLF": ""
                    }
                  ],
                  "abilityName": "Activity_AcrobaticsBattle_Lv1_LevelBuff_Avatar"
                },
                {
                  "$type": "MoleMole.Config.ApplyModifier",
                  "MLDBFKEGPEF": "Target",
                  "doOffStage": true,
                  "modifierName": "UNIQUE_Activity_AcrobaticsBattle_Lv1_LevelBuff_KillHandler"
                }
              ]
            }
          ]
        },
        "UNIQUE_Activity_AcrobaticsBattle_Lv1_LevelBuff": {
          "EODJPKICNGG": "RefreshUniqueDurability",
          "modifierName": "",
          "LLIJGLMEHFK": true,
          "duration": "Buff_Duration",
          "duration": 100.0,
          "EPKCPIKGJOJ": {
            "Actor_ElemMasteryDelta": "ElemMasteryDelta"
          },
          "state": "AttackUp",
          "MLEHCOACPPM": true
        },
        "UNIQUE_Activity_AcrobaticsBattle_Lv1_LevelBuff_KillHandler": {
          "EODJPKICNGG": "RefreshUniqueDurability",
          "modifierName": "",
          "LLIJGLMEHFK": true,
          "duration": "Kill_Window",
          "duration": 100.0,
          "OAOGLLGGJPD": [
            {
              "$type": "MoleMole.Config.SetGlobalValue",
              "doOffStage": true,
              "value": 1.0,
              "key": "_ABILITY_Activity_AcrobaticsBattle_SpecifyKillMark",
              "maxValue": 0.0,
              "GCEOGBJIFCP": 0.0
            }
          ],
          "MINFJCDAIBB": [
            {
              "$type": "MoleMole.Config.SetGlobalValue",
              "doOffStage": true,
              "value": 0.0,
              "key": "_ABILITY_Activity_AcrobaticsBattle_SpecifyKillMark",
              "maxValue": 0.0,
              "GCEOGBJIFCP": 0.0
            }
          ],
          "DOFDCKKDGHL": [
            {
              "$type": "MoleMole.Config.CreateGadget",
              "doOffStage": true,
              "gadgetID": 44000602,
              "campID": 1001,
              "FAMCBLCIFCJ": "Enemy"
            }
          ]
        },
        "Activity_AcrobaticsBattle_Lv1_FeverBuff_Handler": {
          "modifierName": "",
          "duration": 100.0,
          "JPIFFPJJEMK": [
            {
              "$type": "MoleMole.Config.DoActionByElementReactionMixin",
              "JBEIOINCLFB": ["Monster"],
              "NDAGPIMPPKE": ["Explode"],
              "actions": [
                {
                  "$type": "MoleMole.Config.ApplyModifier",
                  "MLDBFKEGPEF": "Target",
                  "doOffStage": true,
                  "predicates": [
                    {
                      "$type": "IPGGGPIJONN",
                      "MLDBFKEGPEF": "Team",
                      "key": "_ABILITY_Activity_AcrobaticsBattle_Lv1_FeverBuff_CD",
                      "value": 0.0,
                      "compareType": "NoneOrEqual"
                    }
                  ],
                  "modifierName": "Activity_AcrobaticsBattle_Lv1_FeverBuff"
                },
                {
                  "$type": "MoleMole.Config.ApplyModifier",
                  "MLDBFKEGPEF": "Team",
                  "doOffStage": true,
                  "predicates": [
                    {
                      "$type": "IPGGGPIJONN",
                      "MLDBFKEGPEF": "Team",
                      "key": "_ABILITY_Activity_AcrobaticsBattle_Lv1_FeverBuff_CD",
                      "value": 0.0,
                      "compareType": "NoneOrEqual"
                    }
                  ],
                  "modifierName": "Activity_AcrobaticsBattle_Lv1_FeverBuff_CD"
                }
              ]
            }
          ]
        },
        "Activity_AcrobaticsBattle_Lv1_FeverBuff": {
          "modifierName": "",
          "duration": 0.5,
          "duration": 100.0,
          "OAOGLLGGJPD": [
            {
              "$type": "MoleMole.Config.SetGlobalPos",
              "MLDBFKEGPEF": "Team",
              "key": "_ABILITY_Activity_AcrobaticsBattle_Lv1_FeverBuff_Pos",
              "born": {
                "$type": "KPFCCIOJAMK",
                "useRotation": true
              }
            },
            {
              "$type": "MoleMole.Config.ApplyModifier",
              "MLDBFKEGPEF": "Team",
              "doOffStage": true,
              "modifierName": "Activity_AcrobaticsBattle_Lv1_FeverBuff_WindZone"
            }
          ]
        },
        "Activity_AcrobaticsBattle_Lv1_FeverBuff_WindZone": {
          "modifierName": "",
          "duration": 0.5,
          "duration": 100.0,
          "OAOGLLGGJPD": [
            {
              "$type": "MoleMole.Config.CreateGadget",
              "doOffStage": true,
              "born": {
                "$type": "IPPOJFGKJFD",
                "CINDHKBGJMG": "_ABILITY_Activity_AcrobaticsBattle_Lv1_FeverBuff_Pos",
                "DLKPHEEBIKB": ""
              },
              "gadgetID": 44000597,
              "campID": 1001,
              "FAMCBLCIFCJ": "Enemy"
            }
          ]
        },
        "Activity_AcrobaticsBattle_Lv1_FeverBuff_CD": {
          "EODJPKICNGG": "Unique",
          "modifierName": "",
          "duration": "CDTime",
          "duration": 100.0,
          "OAOGLLGGJPD": [
            {
              "$type": "MoleMole.Config.SetGlobalValue",
              "doOffStage": true,
              "value": 1.0,
              "key": "_ABILITY_Activity_AcrobaticsBattle_Lv1_FeverBuff_CD",
              "maxValue": 0.0,
              "GCEOGBJIFCP": 0.0
            }
          ],
          "MINFJCDAIBB": [
            {
              "$type": "MoleMole.Config.SetGlobalValue",
              "doOffStage": true,
              "value": 0.0,
              "key": "_ABILITY_Activity_AcrobaticsBattle_Lv1_FeverBuff_CD",
              "maxValue": 0.0,
              "GCEOGBJIFCP": 0.0
            }
          ]
        },
        "Blank": {
          "modifierName": "",
          "duration": 100.0
        }
      },
      "OAOGLLGGJPD": [
        {
          "$type": "MoleMole.Config.AttachModifier",
          "modifierName": "Activity_AcrobaticsBattle_Lv1_LevelBuff_GrandHandler"
        }
      ],
      "EIIHGJGFDHC": [
        {
          "$type": "MoleMole.Config.ApplyModifier",
          "doOffStage": true,
          "modifierName": "UNIQUE_Activity_AcrobaticsBattle_Lv1_LevelBuff"
        }
      ],
      "LLNGCHGGPLC": true
    }
  },
  {
    "Default": {
      "$type": "MoleMole.Config.GNKCLKNDOAK",
      "abilityName": "SkillObj_Activity_AcrobaticsBattle_Lv1",
      "LLLCANIGIOE": {
        "WindZoneTime": 0.0
      },
      "BFBDNNJCDLH": {
        "SkillObj_Activity_AcrobaticsBattle_Lv1": {
          "modifierName": "",
          "duration": "WindZoneTime",
          "duration": 100.0,
          "JPIFFPJJEMK": [
            {
              "$type": "MoleMole.Config.WindZoneMixin",
              "shapeName": "CircleR7_5H10",
              "EOMPGKIBGJM": 6.0,
              "BBMDKFPBGFD": 2.0,
              "innerRadius": 0.0,
              "targetType": "Enemy",
              "predicates": [
                {
                  "$type": "DLLOJMFICPG",
                  "JBEIOINCLFB": ["Monster"]
                },
                {
                  "$type": "FJAPHCAOEOL",
                  "logic": "LesserOrEqual",
                  "LPIJBCBFBGE": 250.0
                }
              ],
              "modifierName": ""
            }
          ],
          "OAOGLLGGJPD": [
            {
              "$type": "MoleMole.Config.AttachEffect",
              "effectPattern": "Eff_Activity_V4.2_RainBowPrince_WindRing",
              "scale": 2.0,
              "effectTempleteID": -1.0
            }
          ]
        }
      },
      "OAOGLLGGJPD": [
        {
          "$type": "MoleMole.Config.ApplyModifier",
          "modifierName": "SkillObj_Activity_AcrobaticsBattle_Lv1"
        }
      ]
    }
  },
  {
    "Default": {
      "$type": "MoleMole.Config.GNKCLKNDOAK",
      "abilityName": "Activity_AcrobaticsBattle_Lv2_LevelBuff_Avatar",
      "PIDAPNFJNDF": [
        {
          "$type": "MoleMole.Config.AttachModifierToSelfGlobalValueMixin",
          "globalValueKey": "_ABILITY_Activity_AcrobaticsBattle_Lv2_LevelBuff_ExplodeCount",
          "KADKJMOFOLI": 0.0,
          "FJEPHJNDEAI": [-0.5, 0.5, 1.5, 2.5, 3.5, 4.5, 5.5],
          "IJEPHCMOAPE": [
            "Blank",
            "Activity_AcrobaticsBattle_Lv2_LevelBuff_Count1",
            "Activity_AcrobaticsBattle_Lv2_LevelBuff_Count2",
            "Activity_AcrobaticsBattle_Lv2_LevelBuff_Count3",
            "Activity_AcrobaticsBattle_Lv2_LevelBuff_Count4",
            "Activity_AcrobaticsBattle_Lv2_LevelBuff_Count5"
          ]
        },
        {
          "$type": "MoleMole.Config.AttachModifierToGlobalValueMixin",
          "globalValueKey": "_ABILITY_Activity_AcrobaticsBattle_FeverBuff_Mark",
          "FJEPHJNDEAI": [-0.5, 0.5, 1.5],
          "IJEPHCMOAPE": [
            "Blank",
            "UNIQUE_Activity_AcrobaticsBattle_Lv2_FeverBuff_Handler"
          ]
        }
      ],
      "LLLCANIGIOE": {
        "Debuff_SubHurtDelta": 0.0,
        "Buff_AddHurtDelta": 0.0,
        "FeverBuffRatio": 0.0,
        "BuffDuration": 0.0,
        "Kill_Window": 0.0
      },
      "BFBDNNJCDLH": {
        "Activity_AcrobaticsBattle_Lv2_LevelBuff_GrandHandler": {
          "modifierName": "",
          "duration": 100.0,
          "JPIFFPJJEMK": [
            {
              "$type": "MoleMole.Config.DoActionByElementReactionMixin",
              "JBEIOINCLFB": ["Monster"],
              "NDAGPIMPPKE": ["Explode"],
              "actions": [
                {
                  "$type": "MoleMole.Config.TriggerAbility",
                  "MLDBFKEGPEF": "AllPlayerAvatars",
                  "doOffStage": true,
                  "predicates": [
                    {
                      "$type": "BKCFCDOEENL",
                      "logic": "LesserOrEqual",
                      "value": 40.0,
                      "EGBKHFGDFLF": ""
                    }
                  ],
                  "abilityName": "Activity_AcrobaticsBattle_Lv2_LevelBuff_Avatar"
                },
                {
                  "$type": "MoleMole.Config.ApplyModifier",
                  "MLDBFKEGPEF": "Target",
                  "doOffStage": true,
                  "modifierName": "UNIQUE_Activity_AcrobaticsBattle_Lv2_LevelBuff_KillHandler"
                }
              ]
            }
          ]
        },
        "UNIQUE_Activity_AcrobaticsBattle_Lv2_LevelBuff_LifeHandler": {
          "EODJPKICNGG": "MultipleAllRefresh",
          "MPHEFFBDDNI": {
            "DFCKOFNNADO": "",
            "PDBIGMFIALF": 5.0
          },
          "modifierName": "",
          "LLIJGLMEHFK": true,
          "duration": "BuffDuration",
          "duration": 100.0,
          "OAOGLLGGJPD": [
            {
              "$type": "MoleMole.Config.AddGlobalValue",
              "doOffStage": true,
              "value": 1.0,
              "key": "_ABILITY_Activity_AcrobaticsBattle_Lv2_LevelBuff_ExplodeCount",
              "HPICGAMGEGA": true,
              "maxValue": 5.0,
              "GCEOGBJIFCP": 0.0
            }
          ],
          "MINFJCDAIBB": [
            {
              "$type": "MoleMole.Config.SetGlobalValue",
              "doOffStage": true,
              "value": 0.0,
              "key": "_ABILITY_Activity_AcrobaticsBattle_Lv2_LevelBuff_ExplodeCount",
              "maxValue": 0.0,
              "GCEOGBJIFCP": 0.0
            }
          ]
        },
        "UNIQUE_Activity_AcrobaticsBattle_Lv2_FeverBuff_Handler": {
          "EODJPKICNGG": "Unique",
          "modifierName": "",
          "LLIJGLMEHFK": true,
          "duration": 100.0,
          "JPIFFPJJEMK": [
            {
              "$type": "MoleMole.Config.AttachModifierToSelfGlobalValueMixin",
              "globalValueKey": "_ABILITY_Activity_AcrobaticsBattle_Lv2_LevelBuff_ExplodeCount",
              "KADKJMOFOLI": 0.0,
              "FJEPHJNDEAI": [-0.5, 0.5, 1.5, 2.5, 3.5, 4.5, 5.5],
              "IJEPHCMOAPE": [
                "Blank",
                "Activity_AcrobaticsBattle_Lv2_FeverBuff_Count1",
                "Activity_AcrobaticsBattle_Lv2_FeverBuff_Count2",
                "Activity_AcrobaticsBattle_Lv2_FeverBuff_Count3",
                "Activity_AcrobaticsBattle_Lv2_FeverBuff_Count4",
                "Activity_AcrobaticsBattle_Lv2_FeverBuff_Count5"
              ]
            }
          ]
        },
        "Activity_AcrobaticsBattle_Lv2_LevelBuff_Count1": {
          "modifierName": "",
          "duration": 100.0,
          "EPKCPIKGJOJ": {
            "Actor_FireAddHurtDelta": "Buff_AddHurtDelta",
            "Actor_ElecAddHurtDelta": "Buff_AddHurtDelta"
          },
          "state": "AttackUp",
          "MLEHCOACPPM": true
        },
        "Activity_AcrobaticsBattle_Lv2_LevelBuff_Count2": {
          "modifierName": "",
          "duration": 100.0,
          "EPKCPIKGJOJ": {
            "Actor_FireAddHurtDelta": ["Buff_AddHurtDelta", 2.0, "MUL"],
            "Actor_ElecAddHurtDelta": ["Buff_AddHurtDelta", 2.0, "MUL"]
          },
          "state": "AttackUp",
          "MLEHCOACPPM": true
        },
        "Activity_AcrobaticsBattle_Lv2_LevelBuff_Count3": {
          "modifierName": "",
          "duration": 100.0,
          "EPKCPIKGJOJ": {
            "Actor_FireAddHurtDelta": ["Buff_AddHurtDelta", 3.0, "MUL"],
            "Actor_ElecAddHurtDelta": ["Buff_AddHurtDelta", 3.0, "MUL"]
          },
          "state": "AttackUp",
          "MLEHCOACPPM": true
        },
        "Activity_AcrobaticsBattle_Lv2_LevelBuff_Count4": {
          "modifierName": "",
          "duration": 100.0,
          "EPKCPIKGJOJ": {
            "Actor_FireAddHurtDelta": ["Buff_AddHurtDelta", 4.0, "MUL"],
            "Actor_ElecAddHurtDelta": ["Buff_AddHurtDelta", 4.0, "MUL"]
          },
          "state": "AttackUp",
          "MLEHCOACPPM": true
        },
        "Activity_AcrobaticsBattle_Lv2_LevelBuff_Count5": {
          "modifierName": "",
          "duration": 100.0,
          "EPKCPIKGJOJ": {
            "Actor_FireAddHurtDelta": ["Buff_AddHurtDelta", 5.0, "MUL"],
            "Actor_ElecAddHurtDelta": ["Buff_AddHurtDelta", 5.0, "MUL"]
          },
          "state": "AttackUp",
          "MLEHCOACPPM": true
        },
        "Activity_AcrobaticsBattle_Lv2_FeverBuff_Count1": {
          "modifierName": "",
          "duration": 100.0,
          "EPKCPIKGJOJ": {
            "Actor_FireAddHurtDelta": [
              "Buff_AddHurtDelta",
              "FeverBuffRatio",
              "MUL"
            ],
            "Actor_ElecAddHurtDelta": [
              "Buff_AddHurtDelta",
              "FeverBuffRatio",
              "MUL"
            ]
          },
          "state": "AttackUp",
          "MLEHCOACPPM": true
        },
        "Activity_AcrobaticsBattle_Lv2_FeverBuff_Count2": {
          "modifierName": "",
          "duration": 100.0,
          "EPKCPIKGJOJ": {
            "Actor_FireAddHurtDelta": [
              "Buff_AddHurtDelta",
              "FeverBuffRatio",
              "MUL",
              2.0,
              "MUL"
            ],
            "Actor_ElecAddHurtDelta": [
              "Buff_AddHurtDelta",
              "FeverBuffRatio",
              "MUL",
              2.0,
              "MUL"
            ]
          },
          "state": "AttackUp",
          "MLEHCOACPPM": true
        },
        "Activity_AcrobaticsBattle_Lv2_FeverBuff_Count3": {
          "modifierName": "",
          "duration": 100.0,
          "EPKCPIKGJOJ": {
            "Actor_FireAddHurtDelta": [
              "Buff_AddHurtDelta",
              "FeverBuffRatio",
              "MUL",
              3.0,
              "MUL"
            ],
            "Actor_ElecAddHurtDelta": [
              "Buff_AddHurtDelta",
              "FeverBuffRatio",
              "MUL",
              3.0,
              "MUL"
            ]
          },
          "state": "AttackUp",
          "MLEHCOACPPM": true
        },
        "Activity_AcrobaticsBattle_Lv2_FeverBuff_Count4": {
          "modifierName": "",
          "duration": 100.0,
          "EPKCPIKGJOJ": {
            "Actor_FireAddHurtDelta": [
              "Buff_AddHurtDelta",
              "FeverBuffRatio",
              "MUL",
              4.0,
              "MUL"
            ],
            "Actor_ElecAddHurtDelta": [
              "Buff_AddHurtDelta",
              "FeverBuffRatio",
              "MUL",
              4.0,
              "MUL"
            ]
          },
          "state": "AttackUp",
          "MLEHCOACPPM": true
        },
        "Activity_AcrobaticsBattle_Lv2_FeverBuff_Count5": {
          "modifierName": "",
          "duration": 100.0,
          "EPKCPIKGJOJ": {
            "Actor_FireAddHurtDelta": [
              "Buff_AddHurtDelta",
              "FeverBuffRatio",
              "MUL",
              5.0,
              "MUL"
            ],
            "Actor_ElecAddHurtDelta": [
              "Buff_AddHurtDelta",
              "FeverBuffRatio",
              "MUL",
              5.0,
              "MUL"
            ]
          },
          "state": "AttackUp",
          "MLEHCOACPPM": true
        },
        "UNIQUE_Activity_AcrobaticsBattle_Lv2_LevelBuff_KillHandler": {
          "EODJPKICNGG": "RefreshUniqueDurability",
          "modifierName": "",
          "LLIJGLMEHFK": true,
          "duration": "Kill_Window",
          "duration": 100.0,
          "OAOGLLGGJPD": [
            {
              "$type": "MoleMole.Config.SetGlobalValue",
              "doOffStage": true,
              "value": 1.0,
              "key": "_ABILITY_Activity_AcrobaticsBattle_SpecifyKillMark",
              "maxValue": 0.0,
              "GCEOGBJIFCP": 0.0
            }
          ],
          "MINFJCDAIBB": [
            {
              "$type": "MoleMole.Config.SetGlobalValue",
              "doOffStage": true,
              "value": 0.0,
              "key": "_ABILITY_Activity_AcrobaticsBattle_SpecifyKillMark",
              "maxValue": 0.0,
              "GCEOGBJIFCP": 0.0
            }
          ],
          "DOFDCKKDGHL": [
            {
              "$type": "MoleMole.Config.CreateGadget",
              "doOffStage": true,
              "gadgetID": 44000602,
              "campID": 1001,
              "FAMCBLCIFCJ": "Enemy"
            }
          ]
        },
        "Blank": {
          "modifierName": "",
          "duration": 100.0
        }
      },
      "OAOGLLGGJPD": [
        {
          "$type": "MoleMole.Config.AttachModifier",
          "modifierName": "Activity_AcrobaticsBattle_Lv2_LevelBuff_GrandHandler"
        }
      ],
      "EIIHGJGFDHC": [
        {
          "$type": "MoleMole.Config.ApplyModifier",
          "doOffStage": true,
          "modifierName": "UNIQUE_Activity_AcrobaticsBattle_Lv2_LevelBuff_LifeHandler"
        }
      ],
      "LLNGCHGGPLC": true
    }
  },
  {
    "Default": {
      "$type": "MoleMole.Config.GNKCLKNDOAK",
      "abilityName": "Activity_AcrobaticsBattle_Lv3_LevelBuff_Avatar",
      "PIDAPNFJNDF": [
        {
          "$type": "MoleMole.Config.AttachModifierToSelfGlobalValueMixin",
          "globalValueKey": "_ABILITY_Activity_AcrobaticsBattle_FeverBuff_Mark",
          "KADKJMOFOLI": 0.0,
          "FJEPHJNDEAI": [-0.5, 0.5, 1.5],
          "IJEPHCMOAPE": [
            "Blank",
            "Activity_AcrobaticsBattle_Lv3_FeverBuff_Handler"
          ]
        }
      ],
      "LLLCANIGIOE": {
        "ElemAddHurtDelta": 0.0
      },
      "BFBDNNJCDLH": {
        "Activity_AcrobaticsBattle_Lv3_LevelBuff_GrandHandler": {
          "modifierName": "",
          "duration": 100.0,
          "EPKCPIKGJOJ": {
            "Actor_ElecAddHurtDelta": "ElemAddHurtDelta",
            "Actor_WaterAddHurtDelta": "ElemAddHurtDelta"
          },
          "MLEHCOACPPM": true
        },
        "Activity_AcrobaticsBattle_Lv3_FeverBuff_Handler": {
          "modifierName": "",
          "duration": 100.0,
          "OAOGLLGGJPD": [
            {
              "$type": "MoleMole.Config.SetGlobalValue",
              "MLDBFKEGPEF": "Team",
              "doOffStage": true,
              "value": 1.0,
              "key": "_ABILITY_Activity_AcrobaticsBattle_Lv3_FeverMark",
              "maxValue": 0.0,
              "GCEOGBJIFCP": 0.0
            }
          ],
          "MINFJCDAIBB": [
            {
              "$type": "MoleMole.Config.SetGlobalValue",
              "MLDBFKEGPEF": "Team",
              "doOffStage": true,
              "value": 0.0,
              "key": "_ABILITY_Activity_AcrobaticsBattle_Lv3_FeverMark",
              "maxValue": 0.0,
              "GCEOGBJIFCP": 0.0
            }
          ]
        },
        "Blank": {
          "modifierName": "",
          "duration": 100.0
        }
      },
      "OAOGLLGGJPD": [
        {
          "$type": "MoleMole.Config.AttachModifier",
          "modifierName": "Activity_AcrobaticsBattle_Lv3_LevelBuff_GrandHandler"
        }
      ],
      "LLNGCHGGPLC": true
    }
  },
  {
    "Default": {
      "$type": "MoleMole.Config.GNKCLKNDOAK",
      "abilityName": "Activity_AcrobaticsBattle_Lv3_LevelBuff_Monster",
      "LLLCANIGIOE": {
        "Kill_Window": 0.0
      },
      "BFBDNNJCDLH": {
        "UNIQUE_Activity_AcrobaticsBattle_Lv3_LevelBuff_EnemyHandler": {
          "EODJPKICNGG": "Unique",
          "modifierName": "",
          "LLIJGLMEHFK": true,
          "duration": 100.0,
          "JPIFFPJJEMK": [
            {
              "$type": "MoleMole.Config.AttachToAbilityStateMixin",
              "abilityStates": ["ElementShock"],
              "modifierName": "UNIQUE_Activity_AcrobaticsBattle_Lv3_LevelBuff_EnemyShock"
            }
          ]
        },
        "UNIQUE_Activity_AcrobaticsBattle_Lv3_LevelBuff_EnemyShock": {
          "modifierName": "",
          "LLIJGLMEHFK": true,
          "duration": 100.0,
          "BNJENAIMDPL": 0.5,
          "OAOGLLGGJPD": [
            {
              "$type": "MoleMole.Config.ApplyModifier",
              "modifierName": "UNIQUE_Activity_AcrobaticsBattle_Lv3_KillHandler"
            }
          ],
          "PJKELBNICOI": [
            {
              "$type": "MoleMole.Config.ApplyModifier",
              "modifierName": "UNIQUE_Activity_AcrobaticsBattle_Lv3_KillHandler"
            }
          ]
        },
        "UNIQUE_Activity_AcrobaticsBattle_Lv3_KillHandler": {
          "EODJPKICNGG": "RefreshUniqueDurability",
          "modifierName": "",
          "LLIJGLMEHFK": true,
          "duration": "Kill_Window",
          "duration": 100.0,
          "OAOGLLGGJPD": [
            {
              "$type": "MoleMole.Config.SetGlobalValue",
              "doOffStage": true,
              "value": 1.0,
              "key": "_ABILITY_Activity_AcrobaticsBattle_SpecifyKillMark",
              "maxValue": 0.0,
              "GCEOGBJIFCP": 0.0
            }
          ],
          "MINFJCDAIBB": [
            {
              "$type": "MoleMole.Config.SetGlobalValue",
              "doOffStage": true,
              "value": 0.0,
              "key": "_ABILITY_Activity_AcrobaticsBattle_SpecifyKillMark",
              "maxValue": 0.0,
              "GCEOGBJIFCP": 0.0
            }
          ],
          "DOFDCKKDGHL": [
            {
              "$type": "MoleMole.Config.CreateGadget",
              "doOffStage": true,
              "gadgetID": 44000602,
              "campID": 1001,
              "FAMCBLCIFCJ": "Enemy"
            },
            {
              "$type": "MoleMole.Config.SetGlobalPos",
              "MLDBFKEGPEF": "Team",
              "doOffStage": true,
              "predicates": [
                {
                  "$type": "IPGGGPIJONN",
                  "MLDBFKEGPEF": "Team",
                  "key": "_ABILITY_Activity_AcrobaticsBattle_Lv3_FeverMark",
                  "value": 1.0
                }
              ],
              "key": "_ABILITY_Activity_AcrobaticsBattle_Lv3_FeverBuff_Pos",
              "born": {
                "$type": "KPFCCIOJAMK",
                "useRotation": true
              }
            },
            {
              "$type": "MoleMole.Config.ApplyModifier",
              "MLDBFKEGPEF": "Team",
              "doOffStage": true,
              "predicates": [
                {
                  "$type": "IPGGGPIJONN",
                  "MLDBFKEGPEF": "Team",
                  "key": "_ABILITY_Activity_AcrobaticsBattle_Lv3_FeverMark",
                  "value": 1.0
                }
              ],
              "modifierName": "Activity_AcrobaticsBattle_Lv3_KillDamage"
            }
          ]
        },
        "Activity_AcrobaticsBattle_Lv3_KillDamage": {
          "EODJPKICNGG": "Multiple",
          "modifierName": "",
          "duration": 0.5,
          "duration": 100.0,
          "OAOGLLGGJPD": [
            {
              "$type": "MoleMole.Config.CreateGadget",
              "doOffStage": true,
              "born": {
                "$type": "IPPOJFGKJFD",
                "CINDHKBGJMG": "_ABILITY_Activity_AcrobaticsBattle_Lv3_FeverBuff_Pos",
                "DLKPHEEBIKB": ""
              },
              "gadgetID": 44000598,
              "campID": 1001,
              "FAMCBLCIFCJ": "Enemy"
            }
          ]
        }
      },
      "OAOGLLGGJPD": [
        {
          "$type": "MoleMole.Config.AttachModifier",
          "modifierName": "UNIQUE_Activity_AcrobaticsBattle_Lv3_LevelBuff_EnemyHandler"
        }
      ],
      "LLNGCHGGPLC": true
    }
  },
  {
    "Default": {
      "$type": "MoleMole.Config.GNKCLKNDOAK",
      "abilityName": "SkillObj_Activity_AcrobaticsBattle_Lv3",
      "LLLCANIGIOE": {
        "DamageSystemValue": 0.0,
        "damageExtra": 0.0
      },
      "BFBDNNJCDLH": {
        "SkillObj_Activity_AcrobaticsBattle_Lv3": {
          "modifierName": "",
          "duration": 0.5,
          "duration": 100.0,
          "OAOGLLGGJPD": [
            {
              "$type": "MoleMole.Config.FireEffect",
              "doOffStage": true,
              "effectPattern": "Eff_Avatar_ShockWave_Expand",
              "scale": 2.0,
              "effectTempleteID": -1.0
            },
            {
              "$type": "MoleMole.Config.TriggerAttackEvent",
              "doOffStage": true,
              "attackEvent": {
                "attackPattern": {
                  "$type": "IJCIPLFIDAK",
                  "triggerType": "TriggerNoRepeat",
                  "born": {
                    "$type": "IPPOJFGKJFD",
                    "CINDHKBGJMG": "_ABILITY_Activity_AcrobaticsBattle_Lv3_FeverBuff_Pos",
                    "DLKPHEEBIKB": ""
                  },
                  "MFGGJCPPBGA": 7.5
                },
                "attackInfo": {
                  "attackTag": "",
                  "attenuationTag": "",
                  "attenuationGroup": "default",
                  "attackProperty": {
                    "damagePercentageRatio": 0.0,
                    "duration": 25.0,
                    "ignoreAttackerProperty": true,
                    "strikeType": "Default",
                    "enBreak": 20.0,
                    "attackType": "Range",
                    "damageExtra": ["damageExtra", "DamageSystemValue", "MUL"],
                    "trueDamage": true,
                    "ignoreModifyDamage": true,
                    "damagePercentage": 0.0
                  },
                  "hitPattern": {
                    "onHitEffectName": "default",
                    "hitImpulseY": "",
                    "hitImpulseType": "LV2",
                    "hitHaltTimeScale": 0.009999999776482582
                  }
                }
              },
              "targetType": "Enemy"
            }
          ]
        }
      },
      "OAOGLLGGJPD": [
        {
          "$type": "MoleMole.Config.SetSystemValueToOverrideMap",
          "key": "DamageSystemValue",
          "KPGKDHAFHFE": "ElementLevelCo"
        },
        {
          "$type": "MoleMole.Config.ApplyModifier",
          "modifierName": "SkillObj_Activity_AcrobaticsBattle_Lv3"
        }
      ]
    }
  },
  {
    "Default": {
      "$type": "MoleMole.Config.GNKCLKNDOAK",
      "abilityName": "Activity_AcrobaticsBattle_Lv4_LevelBuff_Avatar",
      "PIDAPNFJNDF": [
        {
          "$type": "MoleMole.Config.AttachModifierToSelfGlobalValueMixin",
          "globalValueKey": "_ABILITY_Activity_AcrobaticsBattle_FeverBuff_Mark",
          "KADKJMOFOLI": 0.0,
          "FJEPHJNDEAI": [-0.5, 0.5, 1.5],
          "IJEPHCMOAPE": [
            "Blank",
            "Activity_AcrobaticsBattle_Lv4_FeverBuff_Handler"
          ]
        }
      ],
      "LLLCANIGIOE": {
        "AddHurtDelta": 0.0,
        "CDTime": 0.0
      },
      "BFBDNNJCDLH": {
        "Activity_AcrobaticsBattle_Lv4_LevelBuff_TeamHandler": {
          "modifierName": "",
          "duration": 100.0,
          "JPIFFPJJEMK": [
            {
              "$type": "MoleMole.Config.AttachModifierToSelfGlobalValueMixin",
              "globalValueKey": "_ABILITY_Activity_AcrobaticsBattle_Lv4_LevelBuff_Count",
              "KADKJMOFOLI": 0.0,
              "FJEPHJNDEAI": [-0.5, 2.5, 99.5],
              "IJEPHCMOAPE": [
                "Blank",
                "Activity_AcrobaticsBattle_Lv4_LevelBuff_BuffHandler"
              ]
            }
          ]
        },
        "Activity_AcrobaticsBattle_Lv4_LevelBuff_BuffHandler": {
          "modifierName": "",
          "duration": 100.0,
          "OAOGLLGGJPD": [
            {
              "$type": "MoleMole.Config.AttachModifier",
              "MLDBFKEGPEF": "AllPlayerAvatars",
              "doOffStage": true,
              "predicates": [
                {
                  "$type": "BKCFCDOEENL",
                  "logic": "LesserOrEqual",
                  "value": 40.0,
                  "EGBKHFGDFLF": ""
                }
              ],
              "modifierName": "UNIQUE_Activity_AcrobaticsBattle_Lv4_LevelBuff"
            }
          ]
        },
        "UNIQUE_Activity_AcrobaticsBattle_Lv4_LevelBuff": {
          "modifierName": "",
          "LLIJGLMEHFK": true,
          "duration": 100.0,
          "EPKCPIKGJOJ": {
            "Actor_AddHurtDelta": "AddHurtDelta"
          },
          "state": "AttackUp",
          "MLEHCOACPPM": true
        },
        "Activity_AcrobaticsBattle_Lv4_FeverBuff_Handler": {
          "modifierName": "",
          "duration": 100.0,
          "IODJJGGBAGG": [
            {
              "$type": "MoleMole.Config.Predicated",
              "MLDBFKEGPEF": "Other",
              "doOffStage": true,
              "CKBKOCJPJMM": [
                {
                  "$type": "DLLOJMFICPG",
                  "JBEIOINCLFB": ["Monster"]
                },
                {
                  "$type": "IPGGGPIJONN",
                  "key": "_ANIMAL_ENTITY_TYPE",
                  "value": 0.0,
                  "compareType": "NoneOrEqual"
                },
                {
                  "$type": "IPGGGPIJONN",
                  "MLDBFKEGPEF": "Team",
                  "key": "_ABILITY_Activity_AcrobaticsBattle_Lv4_FeverBuff_CD",
                  "value": 0.0,
                  "compareType": "NoneOrEqual"
                }
              ],
              "successActions": [
                {
                  "$type": "MoleMole.Config.ApplyModifier",
                  "MLDBFKEGPEF": "Target",
                  "doOffStage": true,
                  "modifierName": "Activity_AcrobaticsBattle_Lv4_FeverBuff_Pre"
                },
                {
                  "$type": "MoleMole.Config.ApplyModifier",
                  "MLDBFKEGPEF": "Team",
                  "doOffStage": true,
                  "modifierName": "Activity_AcrobaticsBattle_Lv4_FeverBuff_CD"
                }
              ]
            }
          ]
        },
        "Activity_AcrobaticsBattle_Lv4_FeverBuff_Pre": {
          "modifierName": "",
          "duration": 0.5,
          "duration": 100.0,
          "OAOGLLGGJPD": [
            {
              "$type": "MoleMole.Config.SetGlobalPos",
              "MLDBFKEGPEF": "Team",
              "key": "_ABILITY_Activity_AcrobaticsBattle_Lv4_FeverBuff_Pos",
              "born": {
                "$type": "KPFCCIOJAMK",
                "useRotation": true
              }
            },
            {
              "$type": "MoleMole.Config.ApplyModifier",
              "MLDBFKEGPEF": "Team",
              "doOffStage": true,
              "modifierName": "Activity_AcrobaticsBattle_Lv4_FeverBuff"
            }
          ]
        },
        "Activity_AcrobaticsBattle_Lv4_FeverBuff": {
          "modifierName": "",
          "duration": 0.5,
          "duration": 100.0,
          "OAOGLLGGJPD": [
            {
              "$type": "MoleMole.Config.CreateGadget",
              "doOffStage": true,
              "born": {
                "$type": "IPPOJFGKJFD",
                "CINDHKBGJMG": "_ABILITY_Activity_AcrobaticsBattle_Lv4_FeverBuff_Pos",
                "DLKPHEEBIKB": ""
              },
              "gadgetID": 44000599,
              "campID": 1001,
              "FAMCBLCIFCJ": "Enemy"
            }
          ]
        },
        "Activity_AcrobaticsBattle_Lv4_FeverBuff_CD": {
          "EODJPKICNGG": "Unique",
          "modifierName": "",
          "duration": "CDTime",
          "duration": 100.0,
          "OAOGLLGGJPD": [
            {
              "$type": "MoleMole.Config.SetGlobalValue",
              "doOffStage": true,
              "value": 1.0,
              "key": "_ABILITY_Activity_AcrobaticsBattle_Lv4_FeverBuff_CD",
              "maxValue": 0.0,
              "GCEOGBJIFCP": 0.0
            }
          ],
          "MINFJCDAIBB": [
            {
              "$type": "MoleMole.Config.SetGlobalValue",
              "doOffStage": true,
              "value": 0.0,
              "key": "_ABILITY_Activity_AcrobaticsBattle_Lv4_FeverBuff_CD",
              "maxValue": 0.0,
              "GCEOGBJIFCP": 0.0
            }
          ]
        },
        "Blank": {
          "modifierName": "",
          "duration": 100.0
        }
      },
      "OAOGLLGGJPD": [
        {
          "$type": "MoleMole.Config.AttachModifier",
          "MLDBFKEGPEF": "Team",
          "modifierName": "Activity_AcrobaticsBattle_Lv4_LevelBuff_TeamHandler"
        }
      ],
      "LLNGCHGGPLC": true
    }
  },
  {
    "Default": {
      "$type": "MoleMole.Config.GNKCLKNDOAK",
      "abilityName": "SkillObj_Activity_AcrobaticsBattle_Lv4",
      "LLLCANIGIOE": {
        "DamageSystemValue": 0.0,
        "damageExtra": 0.0
      },
      "BFBDNNJCDLH": {
        "SkillObj_Activity_AcrobaticsBattle_Lv4": {
          "modifierName": "",
          "duration": 0.5,
          "duration": 100.0,
          "OAOGLLGGJPD": [
            {
              "$type": "MoleMole.Config.FireEffect",
              "doOffStage": true,
              "effectPattern": "Eff_Avatar_ShockWave_BigSize_Wind",
              "scale": 1.2999999523162842,
              "effectTempleteID": -1.0
            },
            {
              "$type": "MoleMole.Config.TriggerAttackEvent",
              "doOffStage": true,
              "attackEvent": {
                "attackPattern": {
                  "$type": "IJCIPLFIDAK",
                  "triggerType": "TriggerNoRepeat",
                  "MFGGJCPPBGA": 7.5
                },
                "attackInfo": {
                  "attackTag": "",
                  "attenuationTag": "",
                  "attenuationGroup": "default",
                  "attackProperty": {
                    "damagePercentageRatio": 0.0,
                    "elementType": "Wind",
                    "duration": 25.0,
                    "ignoreAttackerProperty": true,
                    "strikeType": "Default",
                    "enBreak": 20.0,
                    "attackType": "Range",
                    "damageExtra": ["damageExtra", "DamageSystemValue", "MUL"],
                    "trueDamage": true,
                    "ignoreModifyDamage": true,
                    "damagePercentage": 0.0
                  },
                  "hitPattern": {
                    "onHitEffectName": "default",
                    "hitImpulseY": "",
                    "hitImpulseType": "LV2",
                    "hitHaltTimeScale": 0.009999999776482582
                  }
                }
              },
              "targetType": "Enemy"
            }
          ]
        }
      },
      "OAOGLLGGJPD": [
        {
          "$type": "MoleMole.Config.SetSystemValueToOverrideMap",
          "key": "DamageSystemValue",
          "KPGKDHAFHFE": "ElementLevelCo"
        },
        {
          "$type": "MoleMole.Config.ApplyModifier",
          "modifierName": "SkillObj_Activity_AcrobaticsBattle_Lv4"
        }
      ]
    }
  },
  {
    "Default": {
      "$type": "MoleMole.Config.GNKCLKNDOAK",
      "abilityName": "Activity_AcrobaticsBattle_Lv4_LevelBuff_Monster",
      "LLLCANIGIOE": {
        "Kill_Window": 0.0
      },
      "BFBDNNJCDLH": {
        "UNIQUE_Activity_AcrobaticsBattle_Lv4_LevelBuff_EnemyHandler": {
          "EODJPKICNGG": "Unique",
          "modifierName": "",
          "LLIJGLMEHFK": true,
          "duration": 100.0,
          "JPIFFPJJEMK": [
            {
              "$type": "MoleMole.Config.AttachToAbilityStateMixin",
              "abilityStates": ["ElementShock"],
              "modifierName": "UNIQUE_Activity_AcrobaticsBattle_Lv4_LevelBuff_EnemyShock"
            }
          ]
        },
        "UNIQUE_Activity_AcrobaticsBattle_Lv4_LevelBuff_EnemyShock": {
          "modifierName": "",
          "LLIJGLMEHFK": true,
          "duration": 100.0,
          "BNJENAIMDPL": 0.5,
          "OAOGLLGGJPD": [
            {
              "$type": "MoleMole.Config.ApplyModifier",
              "modifierName": "Activity_AcrobaticsBattle_Lv4_KillHandler"
            },
            {
              "$type": "MoleMole.Config.ApplyModifier",
              "MLDBFKEGPEF": "Team",
              "modifierName": "Activity_AcrobaticsBattle_Lv4_KillHandler_Team"
            }
          ],
          "PJKELBNICOI": [
            {
              "$type": "MoleMole.Config.ApplyModifier",
              "modifierName": "Activity_AcrobaticsBattle_Lv4_KillHandler"
            },
            {
              "$type": "MoleMole.Config.ApplyModifier",
              "MLDBFKEGPEF": "Team",
              "modifierName": "Activity_AcrobaticsBattle_Lv4_KillHandler_Team"
            }
          ]
        },
        "Activity_AcrobaticsBattle_Lv4_KillHandler": {
          "modifierName": "",
          "duration": 1.5,
          "duration": 100.0,
          "OAOGLLGGJPD": [
            {
              "$type": "MoleMole.Config.SetGlobalValue",
              "doOffStage": true,
              "value": 1.0,
              "key": "_ABILITY_Activity_AcrobaticsBattle_SpecifyKillMark",
              "maxValue": 0.0,
              "GCEOGBJIFCP": 0.0
            }
          ],
          "MINFJCDAIBB": [
            {
              "$type": "MoleMole.Config.SetGlobalValue",
              "doOffStage": true,
              "value": 0.0,
              "key": "_ABILITY_Activity_AcrobaticsBattle_SpecifyKillMark",
              "maxValue": 0.0,
              "GCEOGBJIFCP": 0.0
            }
          ],
          "DOFDCKKDGHL": [
            {
              "$type": "MoleMole.Config.CreateGadget",
              "doOffStage": true,
              "gadgetID": 44000602,
              "campID": 1001,
              "FAMCBLCIFCJ": "Enemy"
            }
          ],
          "NBHCMBFNFOJ": true
        },
        "Activity_AcrobaticsBattle_Lv4_KillHandler_Team": {
          "modifierName": "",
          "duration": 1.5,
          "duration": 100.0,
          "OAOGLLGGJPD": [
            {
              "$type": "MoleMole.Config.AddGlobalValue",
              "doOffStage": true,
              "value": 1.0,
              "key": "_ABILITY_Activity_AcrobaticsBattle_Lv4_LevelBuff_Count",
              "HPICGAMGEGA": true,
              "maxValue": 99.0,
              "GCEOGBJIFCP": 0.0
            }
          ],
          "MINFJCDAIBB": [
            {
              "$type": "MoleMole.Config.AddGlobalValue",
              "doOffStage": true,
              "value": -1.0,
              "key": "_ABILITY_Activity_AcrobaticsBattle_Lv4_LevelBuff_Count",
              "HPICGAMGEGA": true,
              "maxValue": 99.0,
              "GCEOGBJIFCP": 0.0
            }
          ],
          "NBHCMBFNFOJ": true
        }
      },
      "OAOGLLGGJPD": [
        {
          "$type": "MoleMole.Config.AttachModifier",
          "modifierName": "UNIQUE_Activity_AcrobaticsBattle_Lv4_LevelBuff_EnemyHandler"
        }
      ],
      "LLNGCHGGPLC": true
    }
  },
  {
    "Default": {
      "$type": "MoleMole.Config.GNKCLKNDOAK",
      "abilityName": "Activity_AcrobaticsBattle_Lv5_LevelBuff_Avatar",
      "PIDAPNFJNDF": [
        {
          "$type": "MoleMole.Config.AttachModifierToSelfGlobalValueMixin",
          "globalValueKey": "_ABILITY_Activity_AcrobaticsBattle_FeverBuff_Mark",
          "KADKJMOFOLI": 0.0,
          "FJEPHJNDEAI": [-0.5, 0.5, 1.5],
          "IJEPHCMOAPE": ["Blank", "Activity_AcrobaticsBattle_Lv5_LevelBuff"]
        }
      ],
      "LLLCANIGIOE": {
        "CriticalHurtDelta": 0.0
      },
      "BFBDNNJCDLH": {
        "Activity_AcrobaticsBattle_Lv5_LevelBuff": {
          "modifierName": "",
          "duration": 100.0,
          "EPKCPIKGJOJ": {
            "Actor_CriticalHurtDelta": "CriticalHurtDelta"
          },
          "state": "AttackUp",
          "MLEHCOACPPM": true
        },
        "Blank": {
          "modifierName": "",
          "duration": 100.0
        }
      },
      "LLNGCHGGPLC": true
    }
  },
  {
    "Default": {
      "$type": "MoleMole.Config.GNKCLKNDOAK",
      "abilityName": "Activity_AcrobaticsBattle_Lv5_LevelBuff_Monster",
      "LLLCANIGIOE": {
        "DefenceRatio": 0.0,
        "Kill_Window": 0.0
      },
      "BFBDNNJCDLH": {
        "UNIQUE_Activity_AcrobaticsBattle_Lv5_LevelBuff_EnemyHandler": {
          "EODJPKICNGG": "Unique",
          "modifierName": "",
          "LLIJGLMEHFK": true,
          "duration": 100.0,
          "JPIFFPJJEMK": [
            {
              "$type": "MoleMole.Config.AttachToAbilityStateMixin",
              "abilityStates": ["ElementFreeze"],
              "modifierName": "UNIQUE_Activity_AcrobaticsBattle_Lv5_LevelBuff_EnemyFreeze"
            }
          ]
        },
        "UNIQUE_Activity_AcrobaticsBattle_Lv5_LevelBuff_EnemyFreeze": {
          "modifierName": "",
          "LLIJGLMEHFK": true,
          "duration": 100.0,
          "BNJENAIMDPL": 0.5,
          "OAOGLLGGJPD": [
            {
              "$type": "MoleMole.Config.ApplyModifier",
              "modifierName": "UNIQUE_Activity_AcrobaticsBattle_Lv5_KillHandler"
            }
          ],
          "PJKELBNICOI": [
            {
              "$type": "MoleMole.Config.ApplyModifier",
              "modifierName": "UNIQUE_Activity_AcrobaticsBattle_Lv5_KillHandler"
            }
          ]
        },
        "UNIQUE_Activity_AcrobaticsBattle_Lv5_KillHandler": {
          "EODJPKICNGG": "RefreshUniqueDurability",
          "modifierName": "",
          "LLIJGLMEHFK": true,
          "duration": "Kill_Window",
          "duration": 100.0,
          "EPKCPIKGJOJ": {
            "Actor_DefenceRatio": "DefenceRatio"
          },
          "state": "DefenseDown",
          "OAOGLLGGJPD": [
            {
              "$type": "MoleMole.Config.SetGlobalValue",
              "doOffStage": true,
              "value": 1.0,
              "key": "_ABILITY_Activity_AcrobaticsBattle_SpecifyKillMark",
              "maxValue": 0.0,
              "GCEOGBJIFCP": 0.0
            }
          ],
          "MINFJCDAIBB": [
            {
              "$type": "MoleMole.Config.SetGlobalValue",
              "doOffStage": true,
              "value": 0.0,
              "key": "_ABILITY_Activity_AcrobaticsBattle_SpecifyKillMark",
              "maxValue": 0.0,
              "GCEOGBJIFCP": 0.0
            }
          ],
          "DOFDCKKDGHL": [
            {
              "$type": "MoleMole.Config.CreateGadget",
              "doOffStage": true,
              "gadgetID": 44000602,
              "campID": 1001,
              "FAMCBLCIFCJ": "Enemy"
            }
          ],
          "MLEHCOACPPM": true
        }
      },
      "OAOGLLGGJPD": [
        {
          "$type": "MoleMole.Config.AttachModifier",
          "modifierName": "UNIQUE_Activity_AcrobaticsBattle_Lv5_LevelBuff_EnemyHandler"
        }
      ],
      "LLNGCHGGPLC": true
    }
  },
  {
    "Default": {
      "$type": "MoleMole.Config.GNKCLKNDOAK",
      "abilityName": "Activity_AcrobaticsBattle_Lv6_LevelBuff_Avatar",
      "PIDAPNFJNDF": [
        {
          "$type": "MoleMole.Config.AttachModifierToSelfGlobalValueMixin",
          "globalValueKey": "_ABILITY_Activity_AcrobaticsBattle_FeverBuff_Mark",
          "KADKJMOFOLI": 0.0,
          "FJEPHJNDEAI": [-0.5, 0.5, 1.5],
          "IJEPHCMOAPE": [
            "Blank",
            "Activity_AcrobaticsBattle_Lv6_FeverBuff_Handler"
          ]
        }
      ],
      "BFBDNNJCDLH": {
        "Activity_AcrobaticsBattle_Lv6_FeverBuff_Handler": {
          "modifierName": "",
          "duration": 100.0,
          "OAOGLLGGJPD": [
            {
              "$type": "MoleMole.Config.SetGlobalValue",
              "MLDBFKEGPEF": "Team",
              "doOffStage": true,
              "value": 1.0,
              "key": "_ABILITY_Activity_AcrobaticsBattle_Lv6_FeverMark",
              "maxValue": 0.0,
              "GCEOGBJIFCP": 0.0
            }
          ],
          "MINFJCDAIBB": [
            {
              "$type": "MoleMole.Config.SetGlobalValue",
              "MLDBFKEGPEF": "Team",
              "doOffStage": true,
              "value": 0.0,
              "key": "_ABILITY_Activity_AcrobaticsBattle_Lv6_FeverMark",
              "maxValue": 0.0,
              "GCEOGBJIFCP": 0.0
            }
          ]
        },
        "Blank": {
          "modifierName": "",
          "duration": 100.0
        }
      },
      "LLNGCHGGPLC": true
    }
  },
  {
    "Default": {
      "$type": "MoleMole.Config.GNKCLKNDOAK",
      "abilityName": "Activity_AcrobaticsBattle_Lv6_LevelBuff_Monster",
      "PIDAPNFJNDF": [
        {
          "$type": "MoleMole.Config.AttachModifierToGlobalValueMixin",
          "KAPNONCKOJH": "Team",
          "globalValueKey": "_ABILITY_Activity_AcrobaticsBattle_Lv6_FeverMark",
          "FJEPHJNDEAI": [-0.5, 0.5, 1.5],
          "IJEPHCMOAPE": [
            "Blank",
            "UNIQUE_Activity_AcrobaticsBattle_Lv6_FeverBuff_EnemyHandler"
          ]
        }
      ],
      "LLLCANIGIOE": {
        "SubHurtDelta": 0.0,
        "Kill_Window": 0.0,
        "LoseHpRatio": 0.0
      },
      "BFBDNNJCDLH": {
        "UNIQUE_Activity_AcrobaticsBattle_Lv6_LevelBuff_EnemyHandler": {
          "EODJPKICNGG": "Unique",
          "modifierName": "",
          "LLIJGLMEHFK": true,
          "duration": 100.0,
          "JPIFFPJJEMK": [
            {
              "$type": "MoleMole.Config.AttachToAbilityStateMixin",
              "abilityStates": ["ElementFreeze"],
              "modifierName": "UNIQUE_Activity_AcrobaticsBattle_Lv6_LevelBuff_EnemyFreeze"
            }
          ]
        },
        "UNIQUE_Activity_AcrobaticsBattle_Lv6_FeverBuff_EnemyHandler": {
          "EODJPKICNGG": "Unique",
          "modifierName": "",
          "LLIJGLMEHFK": true,
          "duration": 100.0,
          "JPIFFPJJEMK": [
            {
              "$type": "MoleMole.Config.AttachToAbilityStateMixin",
              "abilityStates": ["ElementFreeze"],
              "modifierName": "UNIQUE_Activity_AcrobaticsBattle_Lv6_FeverBuff_EnemyFreeze"
            }
          ]
        },
        "UNIQUE_Activity_AcrobaticsBattle_Lv6_LevelBuff_EnemyFreeze": {
          "modifierName": "",
          "LLIJGLMEHFK": true,
          "duration": 100.0,
          "BNJENAIMDPL": 0.5,
          "JPIFFPJJEMK": [
            {
              "$type": "MoleMole.Config.AttachModifierToSelfGlobalValueMixin",
              "globalValueKey": "_ABILITY_Activity_AcrobaticsBattle_Lv6_LevelBuff_FreezeCount",
              "KADKJMOFOLI": 0.0,
              "FJEPHJNDEAI": [-0.5, 2.9000000953674316, 3.5],
              "IJEPHCMOAPE": [
                "Blank",
                "Activity_AcrobaticsBattle_Lv6_LevelBuff_EnemyLoseHp"
              ]
            }
          ],
          "OAOGLLGGJPD": [
            {
              "$type": "MoleMole.Config.ApplyModifier",
              "modifierName": "UNIQUE_Activity_AcrobaticsBattle_Lv6_KillHandler"
            }
          ],
          "PJKELBNICOI": [
            {
              "$type": "MoleMole.Config.ApplyModifier",
              "modifierName": "UNIQUE_Activity_AcrobaticsBattle_Lv6_KillHandler"
            },
            {
              "$type": "MoleMole.Config.AddGlobalValue",
              "doOffStage": true,
              "value": 0.5,
              "key": "_ABILITY_Activity_AcrobaticsBattle_Lv6_LevelBuff_FreezeCount",
              "HPICGAMGEGA": true,
              "maxValue": 3.0,
              "GCEOGBJIFCP": 0.0
            }
          ]
        },
        "UNIQUE_Activity_AcrobaticsBattle_Lv6_FeverBuff_EnemyFreeze": {
          "modifierName": "",
          "LLIJGLMEHFK": true,
          "duration": 100.0,
          "BNJENAIMDPL": 0.5,
          "OAOGLLGGJPD": [
            {
              "$type": "MoleMole.Config.ApplyModifier",
              "modifierName": "UNIQUE_Activity_AcrobaticsBattle_Lv6_FeverBuff"
            }
          ],
          "PJKELBNICOI": [
            {
              "$type": "MoleMole.Config.ApplyModifier",
              "modifierName": "UNIQUE_Activity_AcrobaticsBattle_Lv6_FeverBuff"
            }
          ]
        },
        "UNIQUE_Activity_AcrobaticsBattle_Lv6_KillHandler": {
          "EODJPKICNGG": "RefreshUniqueDurability",
          "modifierName": "",
          "LLIJGLMEHFK": true,
          "duration": "Kill_Window",
          "duration": 100.0,
          "OAOGLLGGJPD": [
            {
              "$type": "MoleMole.Config.SetGlobalValue",
              "doOffStage": true,
              "value": 1.0,
              "key": "_ABILITY_Activity_AcrobaticsBattle_SpecifyKillMark",
              "maxValue": 0.0,
              "GCEOGBJIFCP": 0.0
            }
          ],
          "MINFJCDAIBB": [
            {
              "$type": "MoleMole.Config.SetGlobalValue",
              "doOffStage": true,
              "value": 0.0,
              "key": "_ABILITY_Activity_AcrobaticsBattle_SpecifyKillMark",
              "maxValue": 0.0,
              "GCEOGBJIFCP": 0.0
            }
          ],
          "DOFDCKKDGHL": [
            {
              "$type": "MoleMole.Config.CreateGadget",
              "doOffStage": true,
              "gadgetID": 44000602,
              "campID": 1001,
              "FAMCBLCIFCJ": "Enemy"
            }
          ]
        },
        "UNIQUE_Activity_AcrobaticsBattle_Lv6_FeverBuff": {
          "EODJPKICNGG": "RefreshUniqueDurability",
          "modifierName": "",
          "LLIJGLMEHFK": true,
          "duration": "Kill_Window",
          "duration": 100.0,
          "EPKCPIKGJOJ": {
            "Actor_SubHurtDelta": "SubHurtDelta"
          },
          "state": "DefenseDown",
          "MLEHCOACPPM": true
        },
        "Activity_AcrobaticsBattle_Lv6_LevelBuff_EnemyLoseHp": {
          "modifierName": "",
          "duration": 100.0,
          "OAOGLLGGJPD": [
            {
              "$type": "MoleMole.Config.LoseHP",
              "doOffStage": true,
              "LHENKJCLGMH": "LoseHpRatio",
              "FPFOCIEFDCM": true,
              "CDCKBPMMPLL": true,
              "CNHEAJCMHPI": ""
            },
            {
              "$type": "MoleMole.Config.SetGlobalValue",
              "doOffStage": true,
              "value": 0.0,
              "key": "_ABILITY_Activity_AcrobaticsBattle_Lv6_LevelBuff_FreezeCount",
              "maxValue": 0.0,
              "GCEOGBJIFCP": 0.0
            }
          ]
        },
        "Blank": {
          "modifierName": "",
          "duration": 100.0
        }
      },
      "OAOGLLGGJPD": [
        {
          "$type": "MoleMole.Config.AttachModifier",
          "modifierName": "UNIQUE_Activity_AcrobaticsBattle_Lv6_LevelBuff_EnemyHandler"
        }
      ],
      "LLNGCHGGPLC": true
    }
  },
  {
    "Default": {
      "$type": "MoleMole.Config.GNKCLKNDOAK",
      "abilityName": "Activity_AcrobaticsBattle_Lv7_LevelBuff_Avatar",
      "PIDAPNFJNDF": [
        {
          "$type": "MoleMole.Config.AttachModifierToSelfGlobalValueMixin",
          "globalValueKey": "_ABILITY_Activity_AcrobaticsBattle_FeverBuff_Mark",
          "KADKJMOFOLI": 0.0,
          "FJEPHJNDEAI": [-0.5, 0.5, 1.5],
          "IJEPHCMOAPE": [
            "Blank",
            "Activity_AcrobaticsBattle_Lv7_FeverBuff_Handler"
          ]
        }
      ],
      "LLLCANIGIOE": {
        "ElemAddHurtDelta": 0.0,
        "Kill_Window": 0.0,
        "CDTime": 0.0
      },
      "BFBDNNJCDLH": {
        "Activity_AcrobaticsBattle_Lv7_LevelBuff_GrandHandler": {
          "modifierName": "",
          "duration": 100.0,
          "JPIFFPJJEMK": [
            {
              "$type": "MoleMole.Config.DoActionByElementReactionMixin",
              "JBEIOINCLFB": ["Monster"],
              "NDAGPIMPPKE": ["Melt"],
              "actions": [
                {
                  "$type": "MoleMole.Config.ApplyModifier",
                  "MLDBFKEGPEF": "Target",
                  "doOffStage": true,
                  "predicates": [
                    {
                      "$type": "OFEHCLIGCND",
                      "predicates": [
                        {
                          "$type": "PAAOHLFCAOA"
                        }
                      ]
                    }
                  ],
                  "modifierName": "UNIQUE_Activity_AcrobaticsBattle_Lv7_LevelBuff_KillHandler"
                }
              ]
            }
          ],
          "EPKCPIKGJOJ": {
            "Actor_IceAddHurtDelta": "ElemAddHurtDelta",
            "Actor_FireAddHurtDelta": "ElemAddHurtDelta"
          },
          "MLEHCOACPPM": true
        },
        "UNIQUE_Activity_AcrobaticsBattle_Lv7_LevelBuff_KillHandler": {
          "EODJPKICNGG": "RefreshUniqueDurability",
          "modifierName": "",
          "LLIJGLMEHFK": true,
          "duration": "Kill_Window",
          "duration": 100.0,
          "OAOGLLGGJPD": [
            {
              "$type": "MoleMole.Config.SetGlobalValue",
              "doOffStage": true,
              "value": 1.0,
              "key": "_ABILITY_Activity_AcrobaticsBattle_SpecifyKillMark",
              "maxValue": 0.0,
              "GCEOGBJIFCP": 0.0
            }
          ],
          "MINFJCDAIBB": [
            {
              "$type": "MoleMole.Config.SetGlobalValue",
              "doOffStage": true,
              "value": 0.0,
              "key": "_ABILITY_Activity_AcrobaticsBattle_SpecifyKillMark",
              "maxValue": 0.0,
              "GCEOGBJIFCP": 0.0
            }
          ],
          "DOFDCKKDGHL": [
            {
              "$type": "MoleMole.Config.CreateGadget",
              "doOffStage": true,
              "gadgetID": 44000602,
              "campID": 1001,
              "FAMCBLCIFCJ": "Enemy"
            }
          ]
        },
        "Activity_AcrobaticsBattle_Lv7_FeverBuff_Handler": {
          "modifierName": "",
          "duration": 100.0,
          "IODJJGGBAGG": [
            {
              "$type": "MoleMole.Config.Predicated",
              "MLDBFKEGPEF": "Other",
              "doOffStage": true,
              "CKBKOCJPJMM": [
                {
                  "$type": "DLLOJMFICPG",
                  "JBEIOINCLFB": ["Monster"]
                },
                {
                  "$type": "IPGGGPIJONN",
                  "key": "_ANIMAL_ENTITY_TYPE",
                  "value": 0.0,
                  "compareType": "NoneOrEqual"
                },
                {
                  "$type": "IPGGGPIJONN",
                  "MLDBFKEGPEF": "Team",
                  "key": "_ABILITY_Activity_AcrobaticsBattle_Lv7_FeverBuff_CD",
                  "value": 0.0,
                  "compareType": "NoneOrEqual"
                }
              ],
              "successActions": [
                {
                  "$type": "MoleMole.Config.ApplyModifier",
                  "MLDBFKEGPEF": "Target",
                  "doOffStage": true,
                  "modifierName": "Activity_AcrobaticsBattle_Lv7_FeverBuff_Pre"
                },
                {
                  "$type": "MoleMole.Config.ApplyModifier",
                  "MLDBFKEGPEF": "Team",
                  "doOffStage": true,
                  "modifierName": "Activity_AcrobaticsBattle_Lv7_FeverBuff_CD"
                }
              ]
            }
          ]
        },
        "Activity_AcrobaticsBattle_Lv7_FeverBuff_Pre": {
          "modifierName": "",
          "duration": 0.5,
          "duration": 100.0,
          "OAOGLLGGJPD": [
            {
              "$type": "MoleMole.Config.SetGlobalPos",
              "MLDBFKEGPEF": "Team",
              "key": "_ABILITY_Activity_AcrobaticsBattle_Lv7_FeverBuff_Pos",
              "born": {
                "$type": "KPFCCIOJAMK",
                "useRotation": true
              }
            },
            {
              "$type": "MoleMole.Config.ApplyModifier",
              "MLDBFKEGPEF": "Team",
              "doOffStage": true,
              "modifierName": "Activity_AcrobaticsBattle_Lv7_FeverBuff"
            }
          ]
        },
        "Activity_AcrobaticsBattle_Lv7_FeverBuff": {
          "modifierName": "",
          "duration": 0.5,
          "duration": 100.0,
          "OAOGLLGGJPD": [
            {
              "$type": "MoleMole.Config.CreateGadget",
              "doOffStage": true,
              "born": {
                "$type": "IPPOJFGKJFD",
                "CINDHKBGJMG": "_ABILITY_Activity_AcrobaticsBattle_Lv7_FeverBuff_Pos",
                "DLKPHEEBIKB": ""
              },
              "gadgetID": 44000600,
              "campID": 1001,
              "FAMCBLCIFCJ": "Enemy"
            }
          ]
        },
        "Activity_AcrobaticsBattle_Lv7_FeverBuff_CD": {
          "EODJPKICNGG": "Unique",
          "modifierName": "",
          "duration": "CDTime",
          "duration": 100.0,
          "OAOGLLGGJPD": [
            {
              "$type": "MoleMole.Config.SetGlobalValue",
              "doOffStage": true,
              "value": 1.0,
              "key": "_ABILITY_Activity_AcrobaticsBattle_Lv7_FeverBuff_CD",
              "maxValue": 0.0,
              "GCEOGBJIFCP": 0.0
            }
          ],
          "MINFJCDAIBB": [
            {
              "$type": "MoleMole.Config.SetGlobalValue",
              "doOffStage": true,
              "value": 0.0,
              "key": "_ABILITY_Activity_AcrobaticsBattle_Lv7_FeverBuff_CD",
              "maxValue": 0.0,
              "GCEOGBJIFCP": 0.0
            }
          ]
        },
        "Blank": {
          "modifierName": "",
          "duration": 100.0
        }
      },
      "OAOGLLGGJPD": [
        {
          "$type": "MoleMole.Config.AttachModifier",
          "modifierName": "Activity_AcrobaticsBattle_Lv7_LevelBuff_GrandHandler"
        }
      ],
      "LLNGCHGGPLC": true
    }
  },
  {
    "Default": {
      "$type": "MoleMole.Config.GNKCLKNDOAK",
      "abilityName": "SkillObj_Activity_AcrobaticsBattle_Lv7",
      "LLLCANIGIOE": {
        "DamageSystemValue": 0.0,
        "damageExtra": 0.0
      },
      "BFBDNNJCDLH": {
        "SkillObj_Activity_AcrobaticsBattle_Lv7": {
          "modifierName": "",
          "duration": 0.5,
          "duration": 100.0,
          "OAOGLLGGJPD": [
            {
              "$type": "MoleMole.Config.FireEffect",
              "doOffStage": true,
              "effectPattern": "Eff_Avatar_ShockWave_BigSize_Fire",
              "scale": 1.899999976158142,
              "effectTempleteID": -1.0
            },
            {
              "$type": "MoleMole.Config.TriggerAttackEvent",
              "doOffStage": true,
              "attackEvent": {
                "attackPattern": {
                  "$type": "IJCIPLFIDAK",
                  "triggerType": "TriggerNoRepeat",
                  "MFGGJCPPBGA": 7.5
                },
                "attackInfo": {
                  "attackTag": "",
                  "attenuationTag": "",
                  "attenuationGroup": "default",
                  "attackProperty": {
                    "damagePercentageRatio": 0.0,
                    "elementType": "Fire",
                    "duration": 25.0,
                    "ignoreAttackerProperty": true,
                    "strikeType": "Default",
                    "enBreak": 20.0,
                    "attackType": "Range",
                    "damageExtra": ["damageExtra", "DamageSystemValue", "MUL"],
                    "trueDamage": true,
                    "ignoreModifyDamage": true,
                    "damagePercentage": 0.0
                  },
                  "hitPattern": {
                    "onHitEffectName": "default",
                    "hitImpulseY": "",
                    "hitImpulseType": "LV2",
                    "hitHaltTimeScale": 0.009999999776482582
                  }
                }
              },
              "targetType": "Enemy"
            }
          ]
        }
      },
      "OAOGLLGGJPD": [
        {
          "$type": "MoleMole.Config.SetSystemValueToOverrideMap",
          "key": "DamageSystemValue",
          "KPGKDHAFHFE": "ElementLevelCo"
        },
        {
          "$type": "MoleMole.Config.ApplyModifier",
          "modifierName": "SkillObj_Activity_AcrobaticsBattle_Lv7"
        }
      ]
    }
  },
  {
    "Default": {
      "$type": "MoleMole.Config.GNKCLKNDOAK",
      "abilityName": "Activity_AcrobaticsBattle_Lv8_LevelBuff_Avatar",
      "PIDAPNFJNDF": [
        {
          "$type": "MoleMole.Config.AttachModifierToSelfGlobalValueMixin",
          "globalValueKey": "_ABILITY_Activity_AcrobaticsBattle_FeverBuff_Mark",
          "KADKJMOFOLI": 0.0,
          "FJEPHJNDEAI": [-0.5, 0.5, 1.5],
          "IJEPHCMOAPE": [
            "Blank",
            "Activity_AcrobaticsBattle_Lv8_FeverBuff_Handler"
          ]
        },
        {
          "$type": "MoleMole.Config.AttachModifierToGlobalValueMixin",
          "KAPNONCKOJH": "Team",
          "globalValueKey": "_ABILITY_Activity_AcrobaticsBattle_Lv8_LevelBuff_BuffWindow_Mark",
          "FJEPHJNDEAI": [-0.5, 0.5, 1.5],
          "IJEPHCMOAPE": [
            "Blank",
            "UNIQUE_Activity_AcrobaticsBattle_Lv8_LevelBuff_BuffHandler"
          ]
        }
      ],
      "LLLCANIGIOE": {
        "MeltAddHurt": 0.0,
        "Kill_Window": 0.0
      },
      "BFBDNNJCDLH": {
        "Activity_AcrobaticsBattle_Lv8_LevelBuff_GrandHandler": {
          "modifierName": "",
          "duration": 100.0,
          "JPIFFPJJEMK": [
            {
              "$type": "MoleMole.Config.DoActionByElementReactionMixin",
              "JBEIOINCLFB": ["Monster"],
              "NDAGPIMPPKE": ["Melt"],
              "actions": [
                {
                  "$type": "MoleMole.Config.ApplyModifier",
                  "MLDBFKEGPEF": "Target",
                  "doOffStage": true,
                  "modifierName": "UNIQUE_Activity_AcrobaticsBattle_Lv8_LevelBuff_KillHandler"
                }
              ]
            }
          ]
        },
        "UNIQUE_Activity_AcrobaticsBattle_Lv8_LevelBuff_KillHandler": {
          "EODJPKICNGG": "RefreshUniqueDurability",
          "modifierName": "",
          "LLIJGLMEHFK": true,
          "duration": "Kill_Window",
          "duration": 100.0,
          "OAOGLLGGJPD": [
            {
              "$type": "MoleMole.Config.SetGlobalValue",
              "doOffStage": true,
              "value": 1.0,
              "key": "_ABILITY_Activity_AcrobaticsBattle_SpecifyKillMark",
              "maxValue": 0.0,
              "GCEOGBJIFCP": 0.0
            }
          ],
          "MINFJCDAIBB": [
            {
              "$type": "MoleMole.Config.SetGlobalValue",
              "doOffStage": true,
              "value": 0.0,
              "key": "_ABILITY_Activity_AcrobaticsBattle_SpecifyKillMark",
              "maxValue": 0.0,
              "GCEOGBJIFCP": 0.0
            }
          ],
          "DOFDCKKDGHL": [
            {
              "$type": "MoleMole.Config.CreateGadget",
              "doOffStage": true,
              "gadgetID": 44000602,
              "campID": 1001,
              "FAMCBLCIFCJ": "Enemy"
            }
          ]
        },
        "UNIQUE_Activity_AcrobaticsBattle_Lv8_LevelBuff_BuffHandler": {
          "EODJPKICNGG": "RefreshUniqueDurability",
          "modifierName": "",
          "LLIJGLMEHFK": true,
          "duration": 100.0,
          "JPIFFPJJEMK": [
            {
              "$type": "MoleMole.Config.ModifyDamageMixin",
              "AJGLAJPHEPD": true,
              "damagePercentageRatio": "MeltAddHurt",
              "predicates": [
                {
                  "$type": "MIPKJILPPCP",
                  "NJPOIJLMAFI": "Fire"
                },
                {
                  "$type": "KIHJDAIGJPH",
                  "NJPOIJLMAFI": "Ice"
                }
              ]
            },
            {
              "$type": "MoleMole.Config.ModifyDamageMixin",
              "AJGLAJPHEPD": true,
              "damagePercentageRatio": "MeltAddHurt",
              "predicates": [
                {
                  "$type": "MIPKJILPPCP",
                  "NJPOIJLMAFI": "Ice"
                },
                {
                  "$type": "KIHJDAIGJPH",
                  "NJPOIJLMAFI": "Fire"
                }
              ]
            }
          ],
          "state": "AttackUp"
        },
        "Activity_AcrobaticsBattle_Lv8_FeverBuff_Handler": {
          "modifierName": "",
          "duration": 100.0,
          "OAOGLLGGJPD": [
            {
              "$type": "MoleMole.Config.SetGlobalValue",
              "MLDBFKEGPEF": "Team",
              "doOffStage": true,
              "value": 1.0,
              "key": "_ABILITY_Activity_AcrobaticsBattle_Lv8_FeverMark",
              "maxValue": 0.0,
              "GCEOGBJIFCP": 0.0
            }
          ],
          "MINFJCDAIBB": [
            {
              "$type": "MoleMole.Config.SetGlobalValue",
              "MLDBFKEGPEF": "Team",
              "doOffStage": true,
              "value": 0.0,
              "key": "_ABILITY_Activity_AcrobaticsBattle_Lv8_FeverMark",
              "maxValue": 0.0,
              "GCEOGBJIFCP": 0.0
            }
          ]
        },
        "Blank": {
          "modifierName": "",
          "duration": 100.0
        }
      },
      "OAOGLLGGJPD": [
        {
          "$type": "MoleMole.Config.AttachModifier",
          "modifierName": "Activity_AcrobaticsBattle_Lv8_LevelBuff_GrandHandler"
        }
      ],
      "LLNGCHGGPLC": true
    }
  },
  {
    "Default": {
      "$type": "MoleMole.Config.GNKCLKNDOAK",
      "abilityName": "Activity_AcrobaticsBattle_Lv8_LevelBuff_Monster",
      "PIDAPNFJNDF": [
        {
          "$type": "MoleMole.Config.AttachModifierToGlobalValueMixin",
          "KAPNONCKOJH": "Team",
          "globalValueKey": "_ABILITY_Activity_AcrobaticsBattle_Lv8_FeverMark",
          "FJEPHJNDEAI": [-0.5, 0.5, 1.5],
          "IJEPHCMOAPE": [
            "Blank",
            "UNIQUE_Activity_AcrobaticsBattle_Lv8_FeverBuff_EnemyHandler"
          ]
        }
      ],
      "LLLCANIGIOE": {
        "HPRatio": 0.0,
        "SubHurtDelta": 0.0,
        "TwiceKillWindow": 0.0,
        "BuffDuration": 0.0
      },
      "BFBDNNJCDLH": {
        "UNIQUE_Activity_AcrobaticsBattle_Lv8_LevelBuff_EnemyHandler": {
          "modifierName": "",
          "LLIJGLMEHFK": true,
          "duration": 100.0,
          "DOFDCKKDGHL": [
            {
              "$type": "MoleMole.Config.Predicated",
              "MLDBFKEGPEF": "Team",
              "doOffStage": true,
              "CKBKOCJPJMM": [
                {
                  "$type": "IPGGGPIJONN",
                  "key": "_ABILITY_Activity_AcrobaticsBattle_Lv8_LevelBuff_TwiceKillWindow_Mark",
                  "value": 1.0
                }
              ],
              "successActions": [
                {
                  "$type": "MoleMole.Config.ApplyModifier",
                  "MLDBFKEGPEF": "Team",
                  "doOffStage": true,
                  "modifierName": "UNIQUE_Activity_AcrobaticsBattle_Lv8_LevelBuff_BuffGrandHandler"
                },
                {
                  "$type": "MoleMole.Config.RemoveUniqueModifier",
                  "MLDBFKEGPEF": "Team",
                  "doOffStage": true,
                  "modifierName": "UNIQUE_Activity_AcrobaticsBattle_Lv8_LevelBuff_TeamHandler"
                }
              ],
              "failActions": [
                {
                  "$type": "MoleMole.Config.ApplyModifier",
                  "MLDBFKEGPEF": "Team",
                  "doOffStage": true,
                  "modifierName": "UNIQUE_Activity_AcrobaticsBattle_Lv8_LevelBuff_TeamHandler"
                }
              ]
            }
          ]
        },
        "UNIQUE_Activity_AcrobaticsBattle_Lv8_LevelBuff_BuffGrandHandler": {
          "EODJPKICNGG": "RefreshUniqueDurability",
          "modifierName": "",
          "LLIJGLMEHFK": true,
          "duration": "BuffDuration",
          "duration": 100.0,
          "OAOGLLGGJPD": [
            {
              "$type": "MoleMole.Config.SetGlobalValue",
              "doOffStage": true,
              "value": 1.0,
              "key": "_ABILITY_Activity_AcrobaticsBattle_Lv8_LevelBuff_BuffWindow_Mark",
              "maxValue": 0.0,
              "GCEOGBJIFCP": 0.0
            }
          ],
          "MINFJCDAIBB": [
            {
              "$type": "MoleMole.Config.SetGlobalValue",
              "doOffStage": true,
              "value": 0.0,
              "key": "_ABILITY_Activity_AcrobaticsBattle_Lv8_LevelBuff_BuffWindow_Mark",
              "maxValue": 0.0,
              "GCEOGBJIFCP": 0.0
            }
          ]
        },
        "UNIQUE_Activity_AcrobaticsBattle_Lv8_LevelBuff_TeamHandler": {
          "EODJPKICNGG": "RefreshUniqueDurability",
          "modifierName": "",
          "LLIJGLMEHFK": true,
          "duration": 4.0,
          "duration": 100.0,
          "OAOGLLGGJPD": [
            {
              "$type": "MoleMole.Config.SetGlobalValue",
              "doOffStage": true,
              "value": 1.0,
              "key": "_ABILITY_Activity_AcrobaticsBattle_Lv8_LevelBuff_TwiceKillWindow_Mark",
              "maxValue": 0.0,
              "GCEOGBJIFCP": 0.0
            }
          ],
          "MINFJCDAIBB": [
            {
              "$type": "MoleMole.Config.SetGlobalValue",
              "doOffStage": true,
              "value": 0.0,
              "key": "_ABILITY_Activity_AcrobaticsBattle_Lv8_LevelBuff_TwiceKillWindow_Mark",
              "maxValue": 0.0,
              "GCEOGBJIFCP": 0.0
            }
          ],
          "NBHCMBFNFOJ": true
        },
        "UNIQUE_Activity_AcrobaticsBattle_Lv8_FeverBuff_EnemyHandler": {
          "modifierName": "",
          "LLIJGLMEHFK": true,
          "duration": 100.0,
          "BNJENAIMDPL": 1.0,
          "OAOGLLGGJPD": [
            {
              "$type": "MoleMole.Config.AttachModifier",
              "predicates": [
                {
                  "$type": "FKDMDGDJPMH",
                  "logic": "Lesser",
                  "APHCOIOECMN": "HPRatio"
                }
              ],
              "modifierName": "UNIQUE_Activity_AcrobaticsBattle_Lv8_FeverBuff"
            },
            {
              "$type": "MoleMole.Config.RemoveUniqueModifier",
              "predicates": [
                {
                  "$type": "FKDMDGDJPMH",
                  "logic": "GreaterOrEqual",
                  "APHCOIOECMN": "HPRatio"
                }
              ],
              "modifierName": "UNIQUE_Activity_AcrobaticsBattle_Lv8_FeverBuff"
            }
          ],
          "PJKELBNICOI": [
            {
              "$type": "MoleMole.Config.AttachModifier",
              "predicates": [
                {
                  "$type": "FKDMDGDJPMH",
                  "logic": "Lesser",
                  "APHCOIOECMN": "HPRatio"
                }
              ],
              "modifierName": "UNIQUE_Activity_AcrobaticsBattle_Lv8_FeverBuff"
            },
            {
              "$type": "MoleMole.Config.RemoveUniqueModifier",
              "predicates": [
                {
                  "$type": "FKDMDGDJPMH",
                  "logic": "GreaterOrEqual",
                  "APHCOIOECMN": "HPRatio"
                }
              ],
              "modifierName": "UNIQUE_Activity_AcrobaticsBattle_Lv8_FeverBuff"
            }
          ]
        },
        "UNIQUE_Activity_AcrobaticsBattle_Lv8_FeverBuff": {
          "modifierName": "",
          "LLIJGLMEHFK": true,
          "duration": 100.0,
          "EPKCPIKGJOJ": {
            "Actor_SubHurtDelta": "SubHurtDelta"
          },
          "state": "DefenseDown",
          "MLEHCOACPPM": true
        }
      },
      "OAOGLLGGJPD": [
        {
          "$type": "MoleMole.Config.AttachModifier",
          "modifierName": "UNIQUE_Activity_AcrobaticsBattle_Lv8_LevelBuff_EnemyHandler"
        }
      ],
      "LLNGCHGGPLC": true
    }
  }
]
