[
  {
    "Default": {
      "$type": "ConfigAbility",
      "abilityName": "ActivityAbility_Rogue_Shikishogun",
      "abilityMixins": [
        {
          "$type": "CFBEHIHGLMG",
          "modifierName": "UNIQUE_Ability_Rogue_Shikishogun_EffectHandler",
          "attachPriority": "ActivityEvent"
        }
      ],
      "modifiers": {
        "UNIQUE_Ability_Rogue_Shikishogun_EffectHandler": {
          "modifierName": "",
          "forceTriggerWhenChangeAuthority": true,
          "elementDurability": 100.0,
          "onAdded": [
            {
              "$type": "AttachEffect",
              "rotationDampTime": "Eff_Activity_Shikishogun",
              "PPPDJGDDOGD": 1.0,
              "AJDILHJFNKE": -1.0
            }
          ]
        }
      },
      "onAbilityStart": [
        {
          "$type": "SendEffectTrigger",
          "parameter": "Skill01",
          "attachPoint": "",
          "rotationDampTime": "Eff_Activity_Shikishogun"
        }
      ],
      "isDynamicAbility": true
    }
  }
]
