[
  {
    "Default": {
      "$type": "ConfigAbility",
      "abilityName": "ActivityAbility_AvatarImmobilize_Invincible",
      "modifiers": {
        "Activity_AvatarImmobilize_Immobilize_Handler": {
          "modifierName": "",
          "elementDurability": 100.0,
          "modifierMixins": [
            {
              "$type": "AttachToAnimatorStateIDMixin",
              "stateIDs": ["Standby"],
              "modifierName": "UNIQUE_Activity_AvatarImmobilize_Immobilize",
              "DGFCLAIDIFI": ""
            }
          ]
        },
        "UNIQUE_Activity_AvatarImmobilize_Invincible": {
          "stacking": "Unique",
          "modifierName": "",
          "forceTriggerWhenChangeAuthority": true,
          "elementDurability": 100.0,
          "state": "LockHP"
        },
        "UNIQUE_Activity_AvatarImmobilize_Immobilize": {
          "stacking": "Unique",
          "modifierName": "",
          "forceTriggerWhenChangeAuthority": true,
          "elementDurability": 100.0,
          "state": "ElementDeadTime"
        }
      },
      "onAdded": [
        {
          "$type": "SetAnimatorTrigger",
          "triggerID": "DropDownLit"
        },
        {
          "$type": "AttachModifier",
          "modifierName": "UNIQUE_Activity_AvatarImmobilize_Invincible"
        },
        {
          "$type": "AttachModifier",
          "modifierName": "Activity_AvatarImmobilize_Immobilize_Handler"
        }
      ],
      "isDynamicAbility": true
    }
  }
]
