[
  {
    "Default": {
      "$type": "ConfigAbility",
      "abilityName": "ActivityAbility_SmashSandWorm_CatalystAddHurt",
      "abilitySpecials": {
        "CatalystAddHurt_P1_Damage": 0.0
      },
      "modifiers": {
        "UNIQUE_SmashSandWorm_CatalystAddHurt": {
          "stacking": "Unique",
          "modifierName": "",
          "forceTriggerWhenChangeAuthority": true,
          "elementDurability": 100.0,
          "properties": {
            "Actor_AddHurtDelta": "CatalystAddHurt_P1_Damage"
          },
          "isLimitedProperties": true
        }
      },
      "onAdded": [
        {
          "$type": "AttachModifier",
          "predicates": [
            {
              "$type": "BGMAGODJEMF",
              "featureTagIDs": [1054]
            }
          ],
          "modifierName": "UNIQUE_SmashSandWorm_CatalystAddHurt"
        }
      ],
      "isDynamicAbility": true
    }
  },
  {
    "Default": {
      "$type": "ConfigAbility",
      "abilityName": "ActivityAbility_SmashSandWorm_AtkDamageUp",
      "abilitySpecials": {
        "AtkDamageUpRatio": 0.0
      },
      "modifiers": {
        "UNIQUE_ActivityAbility_SmashSandWorm_NormalAtkDamageUp": {
          "stacking": "Unique",
          "modifierName": "",
          "forceTriggerWhenChangeAuthority": true,
          "elementDurability": 100.0,
          "modifierMixins": [
            {
              "$type": "ModifyDamageMixin",
              "attackTags": [
                "NormalAttack_01",
                "NormalAttack_02",
                "NormalAttack_03",
                "NormalAttack_04",
                "NormalAttack_05",
                "NormalAttack_06",
                "ExtraAttack",
                "FallingAttack"
              ],
              "actorWindSubHurtDelta": "AtkDamageUpRatio"
            }
          ]
        }
      },
      "onAdded": [
        {
          "$type": "AttachModifier",
          "modifierName": "UNIQUE_ActivityAbility_SmashSandWorm_NormalAtkDamageUp"
        }
      ],
      "isDynamicAbility": true
    }
  },
  {
    "Default": {
      "$type": "ConfigAbility",
      "abilityName": "ActivityAbility_SmashSandWorm_ElemMasteryDeltaUp",
      "abilitySpecials": {
        "ElemMasteryDelta": 0.0
      },
      "modifiers": {
        "UNIQUE_Activity_SmashSandWorm_ElemMasteryDeltaUp": {
          "stacking": "Unique",
          "modifierName": "",
          "forceTriggerWhenChangeAuthority": true,
          "elementDurability": 100.0,
          "properties": {
            "Actor_ElemMasteryDelta": "ElemMasteryDelta"
          }
        }
      },
      "onAdded": [
        {
          "$type": "AttachModifier",
          "modifierName": "UNIQUE_Activity_SmashSandWorm_ElemMasteryDeltaUp"
        }
      ],
      "isDynamicAbility": true
    }
  },
  {
    "Default": {
      "$type": "ConfigAbility",
      "abilityName": "ActivityAbility_SmashSandWorm_AtkSpeedUp",
      "abilitySpecials": {
        "AttackSpeedUpRate": 0.0
      },
      "modifiers": {
        "UNIQUE_ActivityAbility_SmashSandWorm_AtkSpeedUp_Effect": {
          "stacking": "Unique",
          "modifierName": "",
          "forceTriggerWhenChangeAuthority": true,
          "elementDurability": 100.0,
          "properties": {
            "Animator_AttackSpeedRatio": "AttackSpeedUpRate"
          },
          "isLimitedProperties": true
        }
      },
      "onAdded": [
        {
          "$type": "AttachModifier",
          "predicates": [
            {
              "$type": "GPKOPAOMILE",
              "target": "Self",
              "weaponTypes": [
                "WEAPON_CLAYMORE",
                "WEAPON_POLE",
                "WEAPON_SWORD_ONE_HAND"
              ]
            }
          ],
          "modifierName": "UNIQUE_ActivityAbility_SmashSandWorm_AtkSpeedUp_Effect"
        }
      ],
      "isDynamicAbility": true
    }
  },
  {
    "Default": {
      "$type": "ConfigAbility",
      "abilityName": "ActivityAbility_SmashSandWorm_ElementalBurstDamageUp",
      "abilitySpecials": {
        "ElementalBurstDamageUpRate": 0.0
      },
      "modifiers": {
        "UNIQUE_ActivityAbility_SmashSandWorm_ElementalBurstDamageUp": {
          "stacking": "Unique",
          "modifierName": "",
          "forceTriggerWhenChangeAuthority": true,
          "elementDurability": 100.0,
          "modifierMixins": [
            {
              "$type": "ModifyDamageMixin",
              "attackTags": ["Elemental_Burst"],
              "actorWindSubHurtDelta": "ElementalBurstDamageUpRate"
            }
          ]
        }
      },
      "onAdded": [
        {
          "$type": "AttachModifier",
          "modifierName": "UNIQUE_ActivityAbility_SmashSandWorm_ElementalBurstDamageUp"
        }
      ],
      "isDynamicAbility": true
    }
  },
  {
    "Default": {
      "$type": "ConfigAbility",
      "abilityName": "ActivityAbility_SmashSandWorm_FallingTriggerCJB",
      "abilityMixins": [
        {
          "$type": "AttachModifierToSelfGlobalValueNoInitMixin",
          "globalValueKey": "_HAS_FallingAttack",
          "valueSteps": [-0.5, 0.5, 1.5],
          "modifierNameSteps": [
            "Blank",
            "UNIQUE_Activity_SmashSandWorm_FallingTriggerCJB_TeamHandler"
          ]
        }
      ],
      "abilitySpecials": {
        "DamageSystemValue": 0.0,
        "Dot_Damage": 0.0,
        "CdTime": 0.0
      },
      "modifiers": {
        "Blank": {
          "modifierName": "",
          "elementDurability": 100.0
        },
        "UNIQUE_Activity_SmashSandWorm_FallingTriggerCJB_TeamHandler": {
          "stacking": "Unique",
          "modifierName": "",
          "forceTriggerWhenChangeAuthority": true,
          "elementDurability": 100.0,
          "modifierMixins": [
            {
              "$type": "CurLocalAvatarMixinV2",
              "modifierName": "UNIQUE_Activity_SmashSandWorm_FallingTriggerCJB_AvatarHandler"
            }
          ]
        },
        "UNIQUE_Activity_SmashSandWorm_FallingTriggerCJB_AvatarHandler": {
          "stacking": "Unique",
          "modifierName": "",
          "forceTriggerWhenChangeAuthority": true,
          "elementDurability": 100.0,
          "modifierMixins": [
            {
              "$type": "APJKOLPHCGH",
              "stateIDs": [
                "FallingAnthem_AS_1",
                "Katana_FallingAnthem_AS_1",
                "ElementalArt_FallingAttack_Strike"
              ],
              "enterActions": [
                {
                  "$type": "ApplyModifier",
                  "shieldHP": true,
                  "modifierName": "UNIQUE_Activity_SmashSandWorm_FallingTriggerCJB_Handler"
                }
              ],
              "DGFCLAIDIFI": ""
            }
          ]
        },
        "UNIQUE_Activity_SmashSandWorm_FallingTriggerCJB_Handler": {
          "modifierName": "",
          "forceTriggerWhenChangeAuthority": true,
          "duration": 0.30000001192092896,
          "elementDurability": 100.0,
          "onRemoved": [
            {
              "$type": "Predicated",
              "targetPredicates": [
                {
                  "$type": "ByTargetGlobalValue",
                  "target": "Team",
                  "key": "_SmashSandWorm_FallingTriggerCD",
                  "value": 0.0,
                  "compareType": "NoneOrEqual"
                }
              ],
              "successActions": [
                {
                  "$type": "ApplyModifier",
                  "target": "Team",
                  "modifierName": "UNIQUE_Activity_SmashSandWorm_FallingTriggerCJB_CD_Handler"
                },
                {
                  "$type": "ApplyModifier",
                  "shieldHP": true,
                  "modifierName": "UNIQUE_Activity_SmashSandWorm_FallingTriggerCJB_Effect"
                }
              ]
            }
          ]
        },
        "UNIQUE_Activity_SmashSandWorm_FallingTriggerCJB_Effect": {
          "modifierName": "",
          "forceTriggerWhenChangeAuthority": true,
          "duration": 0.20000000298023224,
          "elementDurability": 100.0,
          "onAdded": [
            {
              "$type": "FireEffect",
              "shieldHP": true,
              "rotationDampTime": "Eff_Stages_SwirlDoField_DoAttack_02",
              "born": {
                "$type": "ConfigBornByTarget"
              },
              "PPPDJGDDOGD": 1.0,
              "AJDILHJFNKE": -1.0
            },
            {
              "$type": "TriggerAttackEvent",
              "shieldHP": true,
              "attackEvent": {
                "attackPattern": {
                  "$type": "ConfigAttackSphere",
                  "triggerType": "TriggerNoRepeat",
                  "born": {
                    "$type": "ConfigBornBySelf",
                    "useRotation": true
                  },
                  "radius": 10.0
                },
                "attackInfo": {
                  "attackTag": "",
                  "attenuationTag": "",
                  "attenuationGroup": "default",
                  "attackProperty": {
                    "actorWindSubHurtDelta": 0.0,
                    "elementDurability": 0.0,
                    "ignoreAttackerProperty": true,
                    "enBreak": 25.0,
                    "attackType": "Melee",
                    "HMBONGBFIAP": ["Dot_Damage", "DamageSystemValue", "MUL"],
                    "trueDamage": true,
                    "ignoreModifyDamage": true,
                    "GLKMCMDJBIK": 0.0
                  },
                  "hitPattern": {
                    "onHitEffectName": "default",
                    "hitImpulseY": "",
                    "hitImpulseType": "LV2",
                    "hitHaltTimeScale": 0.019999999552965164
                  }
                }
              },
              "targetType": "Enemy"
            },
            {
              "$type": "SetGlobalValue",
              "target": "Team",
              "shieldHP": true,
              "value": 0.0,
              "key": "_HAS_FallingAttack",
              "maxValue": 0.0,
              "minValue": 0.0
            }
          ]
        },
        "UNIQUE_Activity_SmashSandWorm_FallingTriggerCJB_CD_Handler": {
          "modifierName": "",
          "forceTriggerWhenChangeAuthority": true,
          "duration": "CdTime",
          "elementDurability": 100.0,
          "onAdded": [
            {
              "$type": "SetGlobalValue",
              "shieldHP": true,
              "value": -1.0,
              "key": "_SmashSandWorm_FallingTriggerCD",
              "maxValue": 0.0,
              "minValue": 0.0
            }
          ],
          "onRemoved": [
            {
              "$type": "SetGlobalValue",
              "shieldHP": true,
              "value": 0.0,
              "key": "_SmashSandWorm_FallingTriggerCD",
              "maxValue": 0.0,
              "minValue": 0.0
            }
          ]
        }
      },
      "onAdded": [
        {
          "$type": "GDHGMAPPGHD",
          "shieldHP": true,
          "key": "DamageSystemValue",
          "damageRatio": "ElementLevelCo"
        },
        {
          "$type": "SetGlobalValue",
          "value": 0.0,
          "key": "_SmashSandWorm_FallingTriggerCD",
          "maxValue": 0.0,
          "minValue": 0.0
        }
      ],
      "isDynamicAbility": true
    }
  },
  {
    "Default": {
      "$type": "ConfigAbility",
      "abilityName": "ActivityAbility_SmashSandWorm_SandWormScreenEffect",
      "abilityMixins": [
        {
          "$type": "AttachModifierToSelfGlobalValueNoInitMixin",
          "globalValueKey": "_HAS_SandWorm_ScreenEffect",
          "valueSteps": [-0.5, 0.5, 1.5],
          "modifierNameSteps": [
            "Blank",
            "UNIQUE_Activity_SandWorm_ScreenEffect_TeamHandler"
          ]
        }
      ],
      "modifiers": {
        "Blank": {
          "modifierName": "",
          "elementDurability": 100.0
        },
        "UNIQUE_Activity_SandWorm_ScreenEffect_TeamHandler": {
          "stacking": "Unique",
          "modifierName": "",
          "forceTriggerWhenChangeAuthority": true,
          "elementDurability": 100.0,
          "onAdded": [
            {
              "$type": "NBFEIIOBAPA",
              "enable": true,
              "effectName": "Eff_UI_SandwormCannon_ScreenEffect"
            }
          ],
          "onRemoved": [
            {
              "$type": "NBFEIIOBAPA",
              "effectName": "Eff_UI_SandwormCannon_ScreenEffect"
            }
          ]
        },
        "Charging_Decider": {
          "modifierName": "",
          "elementDurability": 100.0,
          "thinkInterval": 1.0,
          "onThinkInterval": [
            {
              "$type": "MCOBFPMHMHJ",
              "luaCallType": "CurGalleryControlGroup",
              "sourceName": "ChargingValDecider",
              "param1": 0.0,
              "MGAMDEHMCOL": 0.0,
              "MMHOHAOGPLP": 0.0
            }
          ]
        }
      },
      "onAdded": [
        {
          "$type": "AttachModifier",
          "modifierName": "Charging_Decider"
        },
        {
          "$type": "NBFEIIOBAPA",
          "effectName": "Eff_UI_SandwormCannon_ScreenEffect"
        }
      ],
      "onRemoved": [
        {
          "$type": "NBFEIIOBAPA",
          "effectName": "Eff_UI_SandwormCannon_ScreenEffect"
        }
      ],
      "isDynamicAbility": true
    }
  }
]
