[
  {
    "Default": {
      "$type": "ConfigAbility",
      "abilityName": "ActivityAbility_InstableSpray_TestAbility",
      "isDynamicAbility": true
    }
  },
  {
    "Default": {
      "$type": "ConfigAbility",
      "abilityName": "ActivityAbility_InstableSpray_FireDamageUp",
      "abilityMixins": [
        {
          "$type": "CurLocalAvatarMixinV2",
          "modifierName": "UNIQUE_Activity_InstableSpray_FireDamageUp_Handler"
        }
      ],
      "abilitySpecials": {
        "FireDamageUp": 0.0
      },
      "modifiers": {
        "UNIQUE_Activity_InstableSpray_FireDamageUp_Handler": {
          "stacking": "Unique",
          "modifierName": "",
          "forceTriggerWhenChangeAuthority": true,
          "elementDurability": 100.0,
          "modifierMixins": [
            {
              "$type": "AttachModifierToGlobalValueMixin",
              "globalValueTarget": "Team",
              "globalValueKey": "SGV_FIRE_BUFF",
              "valueSteps": [0.5, 1.5],
              "modifierNameSteps": [
                "UNIQUE_Activity_InstableSpray_FireDamageUp"
              ]
            }
          ]
        },
        "UNIQUE_Activity_InstableSpray_FireDamageUp": {
          "stacking": "Unique",
          "modifierName": "",
          "forceTriggerWhenChangeAuthority": true,
          "elementDurability": 100.0,
          "properties": {
            "Actor_FireAddHurtDelta": "FireDamageUp"
          }
        }
      },
      "isDynamicAbility": true
    }
  },
  {
    "Default": {
      "$type": "ConfigAbility",
      "abilityName": "ActivityAbility_InstableSpray_GrassDamageUp",
      "abilityMixins": [
        {
          "$type": "CurLocalAvatarMixinV2",
          "modifierName": "UNIQUE_Activity_InstableSpray_GrassDamageUp_Handler"
        }
      ],
      "abilitySpecials": {
        "GrassDamageUp": 0.0
      },
      "modifiers": {
        "UNIQUE_Activity_InstableSpray_GrassDamageUp_Handler": {
          "stacking": "Unique",
          "modifierName": "",
          "forceTriggerWhenChangeAuthority": true,
          "elementDurability": 100.0,
          "modifierMixins": [
            {
              "$type": "AttachModifierToGlobalValueMixin",
              "globalValueTarget": "Team",
              "globalValueKey": "SGV_GRASS_BUFF",
              "valueSteps": [0.5, 1.5],
              "modifierNameSteps": [
                "UNIQUE_Activity_InstableSpray_GrassDamageUp"
              ]
            }
          ]
        },
        "UNIQUE_Activity_InstableSpray_GrassDamageUp": {
          "stacking": "Unique",
          "modifierName": "",
          "forceTriggerWhenChangeAuthority": true,
          "elementDurability": 100.0,
          "properties": {
            "Actor_GrassAddHurtDelta": "GrassDamageUp"
          }
        }
      },
      "isDynamicAbility": true
    }
  },
  {
    "Default": {
      "$type": "ConfigAbility",
      "abilityName": "ActivityAbility_InstableSpray_ElecDamageUp",
      "abilityMixins": [
        {
          "$type": "CurLocalAvatarMixinV2",
          "modifierName": "UNIQUE_Activity_InstableSpray_ElecDamageUp_Handler"
        }
      ],
      "abilitySpecials": {
        "ElecDamageUp": 0.0
      },
      "modifiers": {
        "UNIQUE_Activity_InstableSpray_ElecDamageUp_Handler": {
          "stacking": "Unique",
          "modifierName": "",
          "forceTriggerWhenChangeAuthority": true,
          "elementDurability": 100.0,
          "modifierMixins": [
            {
              "$type": "AttachModifierToGlobalValueMixin",
              "globalValueTarget": "Team",
              "globalValueKey": "SGV_ELEC_BUFF",
              "valueSteps": [0.5, 1.5],
              "modifierNameSteps": [
                "UNIQUE_Activity_InstableSpray_ElecDamageUp"
              ]
            }
          ]
        },
        "UNIQUE_Activity_InstableSpray_ElecDamageUp": {
          "stacking": "Unique",
          "modifierName": "",
          "forceTriggerWhenChangeAuthority": true,
          "elementDurability": 100.0,
          "properties": {
            "Actor_ElecAddHurtDelta": "ElecDamageUp"
          }
        }
      },
      "isDynamicAbility": true
    }
  },
  {
    "Default": {
      "$type": "ConfigAbility",
      "abilityName": "ActivityAbility_InstableSpray_WaterDamageUp",
      "abilityMixins": [
        {
          "$type": "CurLocalAvatarMixinV2",
          "modifierName": "UNIQUE_Activity_InstableSpray_WaterDamageUp_Handler"
        }
      ],
      "abilitySpecials": {
        "WaterDamageUp": 0.0
      },
      "modifiers": {
        "UNIQUE_Activity_InstableSpray_WaterDamageUp_Handler": {
          "stacking": "Unique",
          "modifierName": "",
          "forceTriggerWhenChangeAuthority": true,
          "elementDurability": 100.0,
          "modifierMixins": [
            {
              "$type": "AttachModifierToGlobalValueMixin",
              "globalValueTarget": "Team",
              "globalValueKey": "SGV_WATER_BUFF",
              "valueSteps": [0.5, 1.5],
              "modifierNameSteps": [
                "UNIQUE_Activity_InstableSpray_WaterDamageUp"
              ]
            }
          ]
        },
        "UNIQUE_Activity_InstableSpray_WaterDamageUp": {
          "stacking": "Unique",
          "modifierName": "",
          "forceTriggerWhenChangeAuthority": true,
          "elementDurability": 100.0,
          "properties": {
            "Actor_WaterAddHurtDelta": "WaterDamageUp"
          }
        }
      },
      "isDynamicAbility": true
    }
  },
  {
    "Default": {
      "$type": "ConfigAbility",
      "abilityName": "ActivityAbility_InstableSpray_IceDamageUp",
      "abilityMixins": [
        {
          "$type": "CurLocalAvatarMixinV2",
          "modifierName": "UNIQUE_Activity_InstableSpray_IceDamageUp_Handler"
        }
      ],
      "abilitySpecials": {
        "IceDamageUp": 0.0
      },
      "modifiers": {
        "UNIQUE_Activity_InstableSpray_IceDamageUp_Handler": {
          "stacking": "Unique",
          "modifierName": "",
          "forceTriggerWhenChangeAuthority": true,
          "elementDurability": 100.0,
          "modifierMixins": [
            {
              "$type": "AttachModifierToGlobalValueMixin",
              "globalValueTarget": "Team",
              "globalValueKey": "SGV_ICE_BUFF",
              "valueSteps": [0.5, 1.5],
              "modifierNameSteps": ["UNIQUE_Activity_InstableSpray_IceDamageUp"]
            }
          ]
        },
        "UNIQUE_Activity_InstableSpray_IceDamageUp": {
          "stacking": "Unique",
          "modifierName": "",
          "forceTriggerWhenChangeAuthority": true,
          "elementDurability": 100.0,
          "properties": {
            "Actor_IceAddHurtDelta": "IceDamageUp"
          }
        }
      },
      "isDynamicAbility": true
    }
  },
  {
    "Default": {
      "$type": "ConfigAbility",
      "abilityName": "ActivityAbility_InstableSpray_PhysicalDamageUp",
      "abilityMixins": [
        {
          "$type": "CurLocalAvatarMixinV2",
          "modifierName": "UNIQUE_Activity_InstableSpray_PhysicalDamageUp_Handler"
        }
      ],
      "abilitySpecials": {
        "PhysicalDamageUp": 0.0
      },
      "modifiers": {
        "UNIQUE_Activity_InstableSpray_PhysicalDamageUp_Handler": {
          "stacking": "Unique",
          "modifierName": "",
          "forceTriggerWhenChangeAuthority": true,
          "elementDurability": 100.0,
          "modifierMixins": [
            {
              "$type": "AttachModifierToGlobalValueMixin",
              "globalValueTarget": "Team",
              "globalValueKey": "SGV_PHYISICAL_BUFF",
              "valueSteps": [0.5, 1.5],
              "modifierNameSteps": [
                "UNIQUE_Activity_InstableSpray_PhysicalDamageUp"
              ]
            }
          ]
        },
        "UNIQUE_Activity_InstableSpray_PhysicalDamageUp": {
          "stacking": "Unique",
          "modifierName": "",
          "forceTriggerWhenChangeAuthority": true,
          "elementDurability": 100.0,
          "properties": {
            "Actor_PhysicalAddHurtDelta": "PhysicalDamageUp"
          }
        }
      },
      "isDynamicAbility": true
    }
  },
  {
    "Default": {
      "$type": "ConfigAbility",
      "abilityName": "ActivityAbility_InstableSpray_ElemMasteryUp",
      "abilityMixins": [
        {
          "$type": "EEPKCGMKKJC",
          "modifierName": "UNIQUE_Activity_InstableSpray_ElemMasteryUp_Handler"
        }
      ],
      "abilitySpecials": {
        "ElemMasteryUp": 0.0
      },
      "modifiers": {
        "UNIQUE_Activity_InstableSpray_ElemMasteryUp_Handler": {
          "stacking": "Unique",
          "modifierName": "",
          "forceTriggerWhenChangeAuthority": true,
          "elementDurability": 100.0,
          "modifierMixins": [
            {
              "$type": "AttachModifierToGlobalValueMixin",
              "globalValueTarget": "Team",
              "globalValueKey": "SGV_ElEMMASTERY_UP",
              "valueSteps": [0.5, 1.5],
              "modifierNameSteps": [
                "UNIQUE_Activity_InstableSpray_ElemMasteryUp"
              ]
            }
          ]
        },
        "UNIQUE_Activity_InstableSpray_ElemMasteryUp": {
          "stacking": "Unique",
          "modifierName": "",
          "forceTriggerWhenChangeAuthority": true,
          "elementDurability": 100.0,
          "properties": {
            "Actor_ElemMasteryDelta": "ElemMasteryUp"
          }
        }
      },
      "isDynamicAbility": true
    }
  },
  {
    "Default": {
      "$type": "ConfigAbility",
      "abilityName": "ActivityAbility_InstableSpray_GrassReaction_ElemResistance_Down",
      "abilityMixins": [
        {
          "$type": "CurLocalAvatarMixinV2",
          "modifierName": "UNIQUE_Activity_InstableSpray_GrassReaction_ElemResistance_Down_Handler"
        }
      ],
      "abilitySpecials": {
        "SubHurtDownRate": 0.0,
        "SubHurtDownDuration": 0.0
      },
      "modifiers": {
        "UNIQUE_Activity_InstableSpray_GrassReaction_ElemResistance_Down_Handler": {
          "stacking": "Unique",
          "modifierName": "",
          "forceTriggerWhenChangeAuthority": true,
          "elementDurability": 100.0,
          "modifierMixins": [
            {
              "$type": "AttachModifierToGlobalValueMixin",
              "globalValueTarget": "Team",
              "globalValueKey": "SGV_ELEM_DOWN",
              "valueSteps": [0.5, 1.5],
              "modifierNameSteps": [
                "UNIQUE_Activity_InstableSpray_GrassReaction_ElemResistance_Down_Decision_Reaction"
              ]
            }
          ]
        },
        "UNIQUE_Activity_InstableSpray_GrassReaction_ElemResistance_Down_Decision_Reaction": {
          "stacking": "Unique",
          "modifierName": "",
          "forceTriggerWhenChangeAuthority": true,
          "elementDurability": 100.0,
          "modifierMixins": [
            {
              "$type": "DoActionByElementReactionMixin",
              "range": 30.0,
              "entityTypes": ["Monster"],
              "reactionTypes": [
                "Burned",
                "Overdose",
                "OverdoseGrass",
                "OverdoseElectric"
              ],
              "actions": [
                {
                  "$type": "ApplyModifier",
                  "target": "Other",
                  "shieldHP": true,
                  "modifierName": "UNIQUE_Activity_InstableSpray_GrassReaction_ElemResistance_Down"
                }
              ]
            }
          ],
          "onAttackLanded": [
            {
              "$type": "Predicated",
              "target": "Other",
              "shieldHP": true,
              "predicates": [
                {
                  "$type": "ByAttackTags",
                  "target": "Self",
                  "attackTags": [
                    "OverGrowDamage",
                    "OverGrow_Electric_Damage",
                    "OverGrow_Fire_Damage"
                  ]
                },
                {
                  "$type": "ByEntityTypes",
                  "entityTypes": ["Monster"]
                },
                {
                  "$type": "ByTargetGlobalValue",
                  "key": "_ANIMAL_ENTITY_TYPE",
                  "value": 0.0,
                  "compareType": "NoneOrEqual"
                }
              ],
              "successActions": [
                {
                  "$type": "ApplyModifier",
                  "target": "Other",
                  "shieldHP": true,
                  "modifierName": "UNIQUE_Activity_InstableSpray_GrassReaction_ElemResistance_Down"
                }
              ]
            }
          ]
        },
        "UNIQUE_Activity_InstableSpray_GrassReaction_ElemResistance_Down": {
          "stacking": "MultipleAllRefresh",
          "stackingOption": {
            "abilitySpecialName": "",
            "maxModifierNumForMultipleType": 1.0,
            "enableMixedUnique": true
          },
          "modifierName": "",
          "forceTriggerWhenChangeAuthority": true,
          "duration": "SubHurtDownDuration",
          "elementDurability": 100.0,
          "properties": {
            "Actor_FireSubHurtDelta": [
              0.0,
              1.0,
              "SubHurtDownRate",
              "MUL",
              "SUB"
            ],
            "Actor_ElecSubHurtDelta": [
              0.0,
              1.0,
              "SubHurtDownRate",
              "MUL",
              "SUB"
            ],
            "Actor_WaterSubHurtDelta": [
              0.0,
              1.0,
              "SubHurtDownRate",
              "MUL",
              "SUB"
            ],
            "Actor_GrassSubHurtDelta": [
              0.0,
              1.0,
              "SubHurtDownRate",
              "MUL",
              "SUB"
            ],
            "Actor_WindSubHurtDelta": [
              0.0,
              1.0,
              "SubHurtDownRate",
              "MUL",
              "SUB"
            ],
            "Actor_IceSubHurtDelta": [
              0.0,
              1.0,
              "SubHurtDownRate",
              "MUL",
              "SUB"
            ],
            "Actor_RockSubHurtDelta": [
              0.0,
              1.0,
              "SubHurtDownRate",
              "MUL",
              "SUB"
            ]
          }
        }
      },
      "isDynamicAbility": true
    }
  },
  {
    "Default": {
      "$type": "ConfigAbility",
      "abilityName": "ActivityAbility_InstableSpray_AttackUp",
      "abilityMixins": [
        {
          "$type": "EEPKCGMKKJC",
          "modifierName": "UNIQUE_Activity_InstableSpray_AttackUp_Handler"
        }
      ],
      "abilitySpecials": {
        "AttackUp": 0.0
      },
      "modifiers": {
        "UNIQUE_Activity_InstableSpray_AttackUp_Handler": {
          "stacking": "Unique",
          "modifierName": "",
          "forceTriggerWhenChangeAuthority": true,
          "elementDurability": 100.0,
          "modifierMixins": [
            {
              "$type": "AttachModifierToGlobalValueMixin",
              "globalValueTarget": "Team",
              "globalValueKey": "SGV_ATK_UP",
              "valueSteps": [0.5, 1.5],
              "modifierNameSteps": ["UNIQUE_Activity_InstableSpray_AttackUp"]
            }
          ]
        },
        "UNIQUE_Activity_InstableSpray_AttackUp": {
          "stacking": "Unique",
          "modifierName": "",
          "forceTriggerWhenChangeAuthority": true,
          "elementDurability": 100.0,
          "properties": {
            "Actor_AttackRatio": "AttackUp"
          }
        }
      },
      "isDynamicAbility": true
    }
  },
  {
    "Default": {
      "$type": "ConfigAbility",
      "abilityName": "ActivityAbility_InstableSpray_ElecReaction_ReviveEnergy",
      "abilityMixins": [
        {
          "$type": "CurLocalAvatarMixinV2",
          "modifierName": "UNIQUE_Activity_InstableSpray_ElecReaction_ReviveEnergy_Handler"
        }
      ],
      "abilitySpecials": {
        "ReviveValue": 0.0,
        "ReviveInterval": 0.0
      },
      "modifiers": {
        "UNIQUE_Activity_InstableSpray_ElecReaction_ReviveEnergy_Handler": {
          "stacking": "Unique",
          "modifierName": "",
          "forceTriggerWhenChangeAuthority": true,
          "elementDurability": 100.0,
          "modifierMixins": [
            {
              "$type": "AttachModifierToGlobalValueMixin",
              "globalValueTarget": "Team",
              "globalValueKey": "SGV_REVIVE_ENERGY",
              "valueSteps": [0.5, 1.5],
              "modifierNameSteps": [
                "UNIQUE_Activity_InstableSpray_ElecReaction_ReviveEnergy"
              ]
            }
          ]
        },
        "UNIQUE_Activity_InstableSpray_ElecReaction_ReviveEnergy": {
          "stacking": "Unique",
          "modifierName": "",
          "forceTriggerWhenChangeAuthority": true,
          "elementDurability": 100.0,
          "modifierMixins": [
            {
              "$type": "DoActionByElementReactionMixin",
              "range": 30.0,
              "entityTypes": ["Monster"],
              "reactionTypes": [
                "Shock",
                "SwirlElectric",
                "Superconductor",
                "Explode",
                "Overdose",
                "OverdoseElectric",
                "OvergrowMushroomElectric"
              ],
              "actions": [
                {
                  "$type": "ReviveElemEnergy",
                  "predicates": [
                    {
                      "$type": "ByTargetGlobalValue",
                      "target": "Team",
                      "key": "ReviveState",
                      "value": 0.0,
                      "compareType": "NoneOrEqual"
                    }
                  ],
                  "value": "ReviveValue"
                },
                {
                  "$type": "FireEffect",
                  "predicates": [
                    {
                      "$type": "ByTargetGlobalValue",
                      "target": "Team",
                      "key": "ReviveState",
                      "value": 0.0,
                      "compareType": "NoneOrEqual"
                    }
                  ],
                  "rotationDampTime": "Eff_Weapon_ExtraElementBall",
                  "PPPDJGDDOGD": 1.0,
                  "AJDILHJFNKE": -1.0
                },
                {
                  "$type": "ApplyModifier",
                  "target": "Team",
                  "shieldHP": true,
                  "modifierName": "UNIQUE_Activity_InstableSpray_ElecReaction_ReviveEnergy_CD"
                }
              ]
            }
          ]
        },
        "UNIQUE_Activity_InstableSpray_ElecReaction_ReviveEnergy_CD": {
          "stacking": "Unique",
          "modifierName": "",
          "forceTriggerWhenChangeAuthority": true,
          "duration": "ReviveInterval",
          "elementDurability": 100.0,
          "onAdded": [
            {
              "$type": "SetGlobalValue",
              "target": "Team",
              "value": -1.0,
              "key": "ReviveState",
              "maxValue": 0.0,
              "minValue": 0.0
            }
          ],
          "onRemoved": [
            {
              "$type": "SetGlobalValue",
              "target": "Team",
              "value": 0.0,
              "key": "ReviveState",
              "maxValue": 0.0,
              "minValue": 0.0
            }
          ]
        }
      },
      "isDynamicAbility": true
    }
  },
  {
    "Default": {
      "$type": "ConfigAbility",
      "abilityName": "ActivityAbility_InstableSpray_Frozen_DefenceDown",
      "abilityMixins": [
        {
          "$type": "CurLocalAvatarMixinV2",
          "modifierName": "UNIQUE_Activity_InstableSpray_Frozen_DefenceDown_Handler"
        }
      ],
      "abilitySpecials": {
        "FrozenDefenceDownRate": 0.0,
        "FrozenDefenceDownDuration": 0.0
      },
      "modifiers": {
        "UNIQUE_Activity_InstableSpray_Frozen_DefenceDown_Handler": {
          "stacking": "Unique",
          "modifierName": "",
          "forceTriggerWhenChangeAuthority": true,
          "elementDurability": 100.0,
          "modifierMixins": [
            {
              "$type": "AttachModifierToGlobalValueMixin",
              "globalValueTarget": "Team",
              "globalValueKey": "SGV_FROZEN_DEFDOWN",
              "valueSteps": [0.5, 1.5],
              "modifierNameSteps": [
                "UNIQUE_Activity_InstableSpray_Frozen_DefenceDown"
              ]
            }
          ]
        },
        "UNIQUE_Activity_InstableSpray_Frozen_DefenceDown": {
          "stacking": "Unique",
          "modifierName": "",
          "forceTriggerWhenChangeAuthority": true,
          "elementDurability": 100.0,
          "modifierMixins": [
            {
              "$type": "DoActionByElementReactionMixin",
              "range": 30.0,
              "entityTypes": ["Monster"],
              "reactionTypes": ["Freeze"],
              "actions": [
                {
                  "$type": "ApplyModifier",
                  "target": "Other",
                  "shieldHP": true,
                  "modifierName": "UNIQUE_Activity_InstableSpray_EnermyDefenceDown"
                }
              ]
            }
          ]
        },
        "UNIQUE_Activity_InstableSpray_EnermyDefenceDown": {
          "stacking": "MultipleAllRefresh",
          "stackingOption": {
            "abilitySpecialName": "",
            "maxModifierNumForMultipleType": 1.0,
            "enableMixedUnique": true
          },
          "modifierName": "",
          "forceTriggerWhenChangeAuthority": true,
          "duration": "FrozenDefenceDownDuration",
          "elementDurability": 100.0,
          "properties": {
            "Actor_DefenceRatio": [
              0.0,
              1.0,
              "FrozenDefenceDownRate",
              "MUL",
              "SUB"
            ]
          },
          "state": "DefenseDown",
          "isLimitedProperties": true
        }
      },
      "isDynamicAbility": true
    }
  },
  {
    "Default": {
      "$type": "ConfigAbility",
      "abilityName": "ActivityAbility_InstableSpray_Frozen_DamageUp",
      "abilityMixins": [
        {
          "$type": "EEPKCGMKKJC",
          "modifierName": "UNIQUE_Activity_InstableSpray_Frozen_DamageUp_Handler"
        }
      ],
      "abilitySpecials": {
        "DamageUpValue": 0.0
      },
      "modifiers": {
        "UNIQUE_Activity_InstableSpray_Frozen_DamageUp_Handler": {
          "stacking": "Unique",
          "modifierName": "",
          "forceTriggerWhenChangeAuthority": true,
          "elementDurability": 100.0,
          "modifierMixins": [
            {
              "$type": "AttachModifierToGlobalValueMixin",
              "globalValueTarget": "Team",
              "globalValueKey": "SGV_FROZEN_DAMAGEUP",
              "valueSteps": [0.5, 1.5],
              "modifierNameSteps": [
                "UNIQUE_Activity_InstableSpray_Frozen_DamageUp"
              ]
            }
          ]
        },
        "UNIQUE_Activity_InstableSpray_Frozen_DamageUp": {
          "stacking": "Unique",
          "modifierName": "",
          "forceTriggerWhenChangeAuthority": true,
          "elementDurability": 100.0,
          "modifierMixins": [
            {
              "$type": "ModifyDamageMixin",
              "ignoreEventInfo": true,
              "actorWindSubHurtDelta": "DamageUpValue",
              "predicates": [
                {
                  "$type": "ByHasAbilityState",
                  "abilityState": "ElementFrozen"
                }
              ]
            }
          ]
        }
      },
      "isDynamicAbility": true
    }
  },
  {
    "Default": {
      "$type": "ConfigAbility",
      "abilityName": "ActivityAbility_InstableSpray_Steam_Impact",
      "abilityMixins": [
        {
          "$type": "CurLocalAvatarMixinV2",
          "modifierName": "UNIQUE_Activity_InstableSpray_Steam_Impact_Handler"
        }
      ],
      "abilitySpecials": {
        "ImpactDamageSystemValue": 0.0,
        "ImpactDamage": 0.0,
        "ImpactInterval": 0.0
      },
      "modifiers": {
        "UNIQUE_Activity_InstableSpray_Steam_Impact_Handler": {
          "stacking": "Unique",
          "modifierName": "",
          "forceTriggerWhenChangeAuthority": true,
          "elementDurability": 100.0,
          "modifierMixins": [
            {
              "$type": "AttachModifierToGlobalValueMixin",
              "globalValueTarget": "Team",
              "globalValueKey": "SGV_STEAM_IMPACT",
              "valueSteps": [0.5, 1.5],
              "modifierNameSteps": [
                "UNIQUE_Activity_InstableSpray_Steam_Impact"
              ]
            }
          ]
        },
        "UNIQUE_Activity_InstableSpray_Steam_Impact": {
          "stacking": "Unique",
          "modifierName": "",
          "forceTriggerWhenChangeAuthority": true,
          "elementDurability": 100.0,
          "modifierMixins": [
            {
              "$type": "DoActionByElementReactionMixin",
              "range": 30.0,
              "entityTypes": ["Monster"],
              "reactionTypes": ["Stream", "Melt"],
              "actions": [
                {
                  "$type": "Predicated",
                  "target": "Other",
                  "shieldHP": true,
                  "targetPredicates": [
                    {
                      "$type": "ByTargetGlobalValue",
                      "target": "Team",
                      "key": "ImpactState_Steam",
                      "value": 0.0,
                      "compareType": "NoneOrEqual"
                    }
                  ],
                  "successActions": [
                    {
                      "$type": "ApplyModifier",
                      "target": "Other",
                      "shieldHP": true,
                      "modifierName": "Activity_InstableSpray_Steam_Impact_Handler_Delay"
                    },
                    {
                      "$type": "ApplyModifier",
                      "target": "Team",
                      "shieldHP": true,
                      "modifierName": "UNIQUE_Activity_InstableSpray_Steam_Impact_CD"
                    }
                  ]
                }
              ]
            }
          ]
        },
        "Activity_InstableSpray_Steam_Impact_Handler_Delay": {
          "modifierName": "",
          "duration": 0.05000000074505806,
          "elementDurability": 100.0,
          "onAdded": [
            {
              "$type": "FireEffect",
              "rotationDampTime": "Eff_EnergyDisk_ElementalBurst_Wave_R40",
              "PPPDJGDDOGD": 1.0,
              "AJDILHJFNKE": -1.0
            },
            {
              "$type": "TriggerAttackEvent",
              "target": "Applier",
              "attackEvent": {
                "attackPattern": {
                  "$type": "ConfigAttackSphere",
                  "triggerType": "TriggerNoRepeat",
                  "born": {
                    "$type": "ConfigBornBySelf"
                  },
                  "radius": 4.0
                },
                "attackInfo": {
                  "attackTag": "",
                  "attenuationTag": "",
                  "attenuationGroup": "default",
                  "attackProperty": {
                    "actorWindSubHurtDelta": 0.0,
                    "elementDurability": 0.0,
                    "ignoreAttackerProperty": true,
                    "enBreak": 0.0,
                    "attackType": "Melee",
                    "HMBONGBFIAP": [
                      "ImpactDamage",
                      "ImpactDamageSystemValue",
                      "MUL"
                    ],
                    "trueDamage": true,
                    "ignoreModifyDamage": true,
                    "GLKMCMDJBIK": 0.0
                  },
                  "hitPattern": {
                    "onHitEffectName": "default",
                    "hitImpulseY": "",
                    "hitImpulseType": "LV2",
                    "hitHaltTimeScale": 0.019999999552965164
                  },
                  "canBeModifiedBy": "OriginOwner"
                }
              },
              "targetType": "Enemy"
            }
          ]
        },
        "UNIQUE_Activity_InstableSpray_Steam_Impact_CD": {
          "stacking": "Unique",
          "modifierName": "",
          "forceTriggerWhenChangeAuthority": true,
          "duration": "ImpactInterval",
          "elementDurability": 100.0,
          "onAdded": [
            {
              "$type": "SetGlobalValue",
              "target": "Team",
              "shieldHP": true,
              "value": -1.0,
              "key": "ImpactState_Steam",
              "maxValue": 0.0,
              "minValue": 0.0
            }
          ],
          "onRemoved": [
            {
              "$type": "SetGlobalValue",
              "target": "Team",
              "shieldHP": true,
              "value": 0.0,
              "key": "ImpactState_Steam",
              "maxValue": 0.0,
              "minValue": 0.0
            }
          ]
        }
      },
      "onAdded": [
        {
          "$type": "GDHGMAPPGHD",
          "key": "ImpactDamageSystemValue",
          "damageRatio": "ElementLevelCo"
        }
      ],
      "isDynamicAbility": true
    }
  },
  {
    "Default": {
      "$type": "ConfigAbility",
      "abilityName": "ActivityAbility_InstableSpray_Melt_Impact",
      "abilityMixins": [
        {
          "$type": "EEPKCGMKKJC",
          "modifierName": "UNIQUE_Activity_InstableSpray_Melt_Impact_Handler"
        }
      ],
      "abilitySpecials": {
        "ImpactDamageSystemValue": 0.0,
        "ImpactDamage": 0.0,
        "ImpactInterval": 0.0
      },
      "modifiers": {
        "UNIQUE_Activity_InstableSpray_Melt_Impact_Handler": {
          "stacking": "Unique",
          "modifierName": "",
          "forceTriggerWhenChangeAuthority": true,
          "elementDurability": 100.0,
          "modifierMixins": [
            {
              "$type": "AttachModifierToGlobalValueMixin",
              "globalValueTarget": "Team",
              "globalValueKey": "SGV_MELT_IMPACT",
              "valueSteps": [0.5, 1.5],
              "modifierNameSteps": ["UNIQUE_Activity_InstableSpray_Melt_Impact"]
            }
          ]
        },
        "UNIQUE_Activity_InstableSpray_Melt_Impact": {
          "stacking": "Unique",
          "modifierName": "",
          "forceTriggerWhenChangeAuthority": true,
          "elementDurability": 100.0,
          "modifierMixins": [
            {
              "$type": "DoActionByElementReactionMixin",
              "range": 30.0,
              "entityTypes": ["Monster"],
              "reactionTypes": ["Melt"],
              "actions": [
                {
                  "$type": "Predicated",
                  "target": "Other",
                  "shieldHP": true,
                  "targetPredicates": [
                    {
                      "$type": "ByTargetGlobalValue",
                      "target": "Team",
                      "key": "ImpactState_Steam",
                      "value": 0.0,
                      "compareType": "NoneOrEqual"
                    }
                  ],
                  "successActions": [
                    {
                      "$type": "ApplyModifier",
                      "target": "Target",
                      "shieldHP": true,
                      "modifierName": "Activity_InstableSpray_Melt_Impact_Handler_Delay"
                    },
                    {
                      "$type": "ApplyModifier",
                      "target": "Team",
                      "shieldHP": true,
                      "modifierName": "UNIQUE_Activity_InstableSpray_Melt_Impact_CD"
                    }
                  ]
                }
              ]
            }
          ]
        },
        "Activity_InstableSpray_Melt_Impact_Handler_Delay": {
          "modifierName": "",
          "duration": 0.05000000074505806,
          "elementDurability": 100.0,
          "onAdded": [
            {
              "$type": "FireEffect",
              "rotationDampTime": "Eff_EnergyDisk_ElementalBurst_Wave_R40",
              "PPPDJGDDOGD": 1.0,
              "AJDILHJFNKE": -1.0
            },
            {
              "$type": "TriggerAttackEvent",
              "target": "Applier",
              "attackEvent": {
                "attackPattern": {
                  "$type": "ConfigAttackSphere",
                  "triggerType": "TriggerNoRepeat",
                  "born": {
                    "$type": "ConfigBornBySelf"
                  },
                  "radius": 4.0
                },
                "attackInfo": {
                  "attackTag": "",
                  "attenuationTag": "",
                  "attenuationGroup": "default",
                  "attackProperty": {
                    "actorWindSubHurtDelta": 0.0,
                    "elementDurability": 0.0,
                    "ignoreAttackerProperty": true,
                    "enBreak": 0.0,
                    "attackType": "Melee",
                    "HMBONGBFIAP": [
                      "ImpactDamage",
                      "ImpactDamageSystemValue",
                      "MUL"
                    ],
                    "trueDamage": true,
                    "ignoreModifyDamage": true,
                    "GLKMCMDJBIK": 0.0
                  },
                  "hitPattern": {
                    "onHitEffectName": "default",
                    "hitImpulseY": "",
                    "hitImpulseType": "LV2",
                    "hitHaltTimeScale": 0.019999999552965164
                  },
                  "canBeModifiedBy": "OriginOwner"
                }
              },
              "targetType": "Enemy"
            }
          ]
        },
        "UNIQUE_Activity_InstableSpray_Melt_Impact_CD": {
          "stacking": "Unique",
          "modifierName": "",
          "forceTriggerWhenChangeAuthority": true,
          "duration": "ImpactInterval",
          "elementDurability": 100.0,
          "onAdded": [
            {
              "$type": "SetGlobalValue",
              "target": "Team",
              "shieldHP": true,
              "value": -1.0,
              "key": "ImpactInterval",
              "maxValue": 0.0,
              "minValue": 0.0
            }
          ],
          "onRemoved": [
            {
              "$type": "SetGlobalValue",
              "target": "Team",
              "shieldHP": true,
              "value": 0.0,
              "key": "ImpactInterval",
              "maxValue": 0.0,
              "minValue": 0.0
            }
          ]
        }
      },
      "onAdded": [
        {
          "$type": "GDHGMAPPGHD",
          "key": "ImpactDamageSystemValue",
          "damageRatio": "ElementLevelCo"
        }
      ],
      "isDynamicAbility": true
    }
  },
  {
    "Default": {
      "$type": "ConfigAbility",
      "abilityName": "ActivityAbility_InstableSpray_CriticalUp",
      "abilityMixins": [
        {
          "$type": "EEPKCGMKKJC",
          "modifierName": "UNIQUE_Activity_InstableSpray_CriticalUp_Handler"
        }
      ],
      "abilitySpecials": {
        "CriticalUp": 0.0
      },
      "modifiers": {
        "UNIQUE_Activity_InstableSpray_CriticalUp_Handler": {
          "stacking": "Unique",
          "modifierName": "",
          "forceTriggerWhenChangeAuthority": true,
          "elementDurability": 100.0,
          "modifierMixins": [
            {
              "$type": "AttachModifierToGlobalValueMixin",
              "globalValueTarget": "Team",
              "globalValueKey": "SGV_CRITICAL_UP",
              "valueSteps": [0.5, 1.5],
              "modifierNameSteps": ["UNIQUE_Activity_InstableSpray_CriticalUp"]
            }
          ]
        },
        "UNIQUE_Activity_InstableSpray_CriticalUp": {
          "stacking": "Unique",
          "modifierName": "",
          "forceTriggerWhenChangeAuthority": true,
          "elementDurability": 100.0,
          "properties": {
            "Actor_CriticalDelta": "CriticalUp"
          }
        }
      },
      "isDynamicAbility": true
    }
  },
  {
    "Default": {
      "$type": "ConfigAbility",
      "abilityName": "ActivityAbility_InstableSpray_CriticalHurtUp",
      "abilityMixins": [
        {
          "$type": "EEPKCGMKKJC",
          "modifierName": "UNIQUE_Activity_InstableSpray_CriticalHurtUp_Handler"
        }
      ],
      "abilitySpecials": {
        "CriticalHurtUp": 0.0
      },
      "modifiers": {
        "UNIQUE_Activity_InstableSpray_CriticalHurtUp_Handler": {
          "stacking": "Unique",
          "modifierName": "",
          "forceTriggerWhenChangeAuthority": true,
          "elementDurability": 100.0,
          "modifierMixins": [
            {
              "$type": "AttachModifierToGlobalValueMixin",
              "globalValueTarget": "Team",
              "globalValueKey": "SGV_CRITICAL_HURT_UP",
              "valueSteps": [0.5, 1.5],
              "modifierNameSteps": [
                "UNIQUE_Activity_InstableSpray_CriticalHurtUp"
              ]
            }
          ]
        },
        "UNIQUE_Activity_InstableSpray_CriticalHurtUp": {
          "stacking": "Unique",
          "modifierName": "",
          "forceTriggerWhenChangeAuthority": true,
          "elementDurability": 100.0,
          "properties": {
            "Actor_CriticalHurtDelta": "CriticalHurtUp"
          }
        }
      },
      "isDynamicAbility": true
    }
  },
  {
    "Default": {
      "$type": "ConfigAbility",
      "abilityName": "ActivityAbility_InstableSpray_NormalAttack",
      "abilityMixins": [
        {
          "$type": "CurLocalAvatarMixinV2",
          "modifierName": "UNIQUE_Activity_InstableSpray_NormalAttack_Handler"
        }
      ],
      "abilitySpecials": {
        "NormalAttack": 0.0
      },
      "modifiers": {
        "UNIQUE_Activity_InstableSpray_NormalAttack_Handler": {
          "stacking": "Unique",
          "modifierName": "",
          "forceTriggerWhenChangeAuthority": true,
          "elementDurability": 100.0,
          "modifierMixins": [
            {
              "$type": "AttachModifierToGlobalValueMixin",
              "globalValueTarget": "Team",
              "globalValueKey": "SGV_NORMAL_ATTACK",
              "valueSteps": [0.5, 1.5],
              "modifierNameSteps": [
                "UNIQUE_Activity_InstableSpray_NormalAttack"
              ]
            }
          ]
        },
        "UNIQUE_Activity_InstableSpray_NormalAttack": {
          "stacking": "Unique",
          "modifierName": "",
          "forceTriggerWhenChangeAuthority": true,
          "elementDurability": 100.0,
          "modifierMixins": [
            {
              "$type": "ModifyDamageMixin",
              "attackTags": [
                "NormalAttack",
                "NormalAttack_01",
                "NormalAttack_02",
                "NormalAttack_03",
                "NormalAttack_04",
                "NormalAttack_05",
                "NormalAttack_06"
              ],
              "actorWindSubHurtDelta": "NormalAttack"
            }
          ],
          "isLimitedProperties": true
        }
      },
      "isDynamicAbility": true
    }
  },
  {
    "Default": {
      "$type": "ConfigAbility",
      "abilityName": "ActivityAbility_InstableSpray_ExtraAttack",
      "abilityMixins": [
        {
          "$type": "CurLocalAvatarMixinV2",
          "modifierName": "UNIQUE_Activity_InstableSpray_ExtraAttack_Handler"
        }
      ],
      "abilitySpecials": {
        "ExtraAttack": 0.0
      },
      "modifiers": {
        "UNIQUE_Activity_InstableSpray_ExtraAttack_Handler": {
          "stacking": "Unique",
          "modifierName": "",
          "forceTriggerWhenChangeAuthority": true,
          "elementDurability": 100.0,
          "modifierMixins": [
            {
              "$type": "AttachModifierToGlobalValueMixin",
              "globalValueTarget": "Team",
              "globalValueKey": "SGV_EXTRA_ATTACK",
              "valueSteps": [0.5, 1.5],
              "modifierNameSteps": ["UNIQUE_Activity_InstableSpray_ExtraAttack"]
            }
          ]
        },
        "UNIQUE_Activity_InstableSpray_ExtraAttack": {
          "stacking": "Unique",
          "modifierName": "",
          "forceTriggerWhenChangeAuthority": true,
          "elementDurability": 100.0,
          "modifierMixins": [
            {
              "$type": "ModifyDamageMixin",
              "attackTags": [
                "ExtraAttack",
                "ExtraAttack1",
                "ExtraAttack2",
                "ExtraAttack3",
                "ExtraAttack_BS",
                "ExtraAttack_Charge"
              ],
              "actorWindSubHurtDelta": "ExtraAttack"
            }
          ],
          "isLimitedProperties": true
        }
      },
      "isDynamicAbility": true
    }
  },
  {
    "Default": {
      "$type": "ConfigAbility",
      "abilityName": "ActivityAbility_InstableSpray_ElementalArt",
      "abilityMixins": [
        {
          "$type": "CurLocalAvatarMixinV2",
          "modifierName": "UNIQUE_Activity_InstableSpray_ElementalArt_Handler"
        }
      ],
      "abilitySpecials": {
        "ImpactDamageSystemValue": 0.0,
        "ImpactDamage": 0.0,
        "ImpactInterval": 0.0
      },
      "modifiers": {
        "UNIQUE_Activity_InstableSpray_ElementalArt_Handler": {
          "stacking": "Unique",
          "modifierName": "",
          "forceTriggerWhenChangeAuthority": true,
          "elementDurability": 100.0,
          "modifierMixins": [
            {
              "$type": "AttachModifierToGlobalValueMixin",
              "globalValueTarget": "Team",
              "globalValueKey": "SGV_ELEMENTAL_ART",
              "valueSteps": [0.5, 1.5],
              "modifierNameSteps": [
                "UNIQUE_Activity_InstableSpray_ElementalArt"
              ]
            }
          ]
        },
        "UNIQUE_Activity_InstableSpray_ElementalArt": {
          "stacking": "Unique",
          "modifierName": "",
          "forceTriggerWhenChangeAuthority": true,
          "elementDurability": 100.0,
          "modifierMixins": [
            {
              "$type": "OnAvatarUseSkillMixin",
              "onTriggerSkill": [
                {
                  "$type": "Predicated",
                  "target": "Other",
                  "shieldHP": true,
                  "targetPredicates": [
                    {
                      "$type": "ByTargetGlobalValue",
                      "target": "Team",
                      "key": "ImpactState_SkillAttack",
                      "value": 0.0,
                      "compareType": "NoneOrEqual"
                    }
                  ],
                  "successActions": [
                    {
                      "$type": "ApplyModifier",
                      "modifierName": "Activity_InstableSpray_Elemental_Art_Impact_Handler_Delay"
                    },
                    {
                      "$type": "ApplyModifier",
                      "target": "Team",
                      "modifierName": "UNIQUE_Activity_InstableSpray_Elemental_Art_Impact_CD"
                    }
                  ]
                }
              ]
            }
          ],
          "isLimitedProperties": true
        },
        "Activity_InstableSpray_Elemental_Art_Impact_Handler_Delay": {
          "modifierName": "",
          "duration": 0.05000000074505806,
          "elementDurability": 100.0,
          "onAdded": [
            {
              "$type": "FireEffect",
              "rotationDampTime": "Eff_EnergyDisk_ElementalBurst_Wave_R40",
              "PPPDJGDDOGD": 1.0,
              "AJDILHJFNKE": -1.0
            },
            {
              "$type": "TriggerAttackEvent",
              "attackEvent": {
                "attackPattern": {
                  "$type": "ConfigAttackSphere",
                  "triggerType": "TriggerNoRepeat",
                  "born": {
                    "$type": "ConfigBornBySelf"
                  },
                  "radius": 4.0
                },
                "attackInfo": {
                  "attackTag": "",
                  "attenuationTag": "",
                  "attenuationGroup": "default",
                  "attackProperty": {
                    "actorWindSubHurtDelta": 0.0,
                    "elementDurability": 0.0,
                    "ignoreAttackerProperty": true,
                    "enBreak": 0.0,
                    "attackType": "Melee",
                    "HMBONGBFIAP": [
                      "ImpactDamage",
                      "ImpactDamageSystemValue",
                      "MUL"
                    ],
                    "trueDamage": true,
                    "ignoreModifyDamage": true,
                    "GLKMCMDJBIK": 0.0
                  },
                  "hitPattern": {
                    "onHitEffectName": "default",
                    "hitImpulseY": "",
                    "hitImpulseType": "LV2",
                    "hitHaltTimeScale": 0.019999999552965164
                  },
                  "canBeModifiedBy": "OriginOwner"
                }
              },
              "targetType": "Enemy"
            }
          ]
        },
        "UNIQUE_Activity_InstableSpray_Elemental_Art_Impact_CD": {
          "stacking": "Unique",
          "modifierName": "",
          "forceTriggerWhenChangeAuthority": true,
          "duration": "ImpactInterval",
          "elementDurability": 100.0,
          "onAdded": [
            {
              "$type": "SetGlobalValue",
              "target": "Team",
              "shieldHP": true,
              "value": -1.0,
              "key": "ImpactState_SkillAttack",
              "maxValue": 0.0,
              "minValue": 0.0
            }
          ],
          "onRemoved": [
            {
              "$type": "SetGlobalValue",
              "target": "Team",
              "shieldHP": true,
              "value": 0.0,
              "key": "ImpactState_SkillAttack",
              "maxValue": 0.0,
              "minValue": 0.0
            }
          ]
        }
      },
      "onAdded": [
        {
          "$type": "GDHGMAPPGHD",
          "key": "ImpactDamageSystemValue",
          "damageRatio": "ElementLevelCo"
        }
      ],
      "isDynamicAbility": true
    }
  },
  {
    "Default": {
      "$type": "ConfigAbility",
      "abilityName": "ActivityAbility_InstableSpray_FallingAttack_Impact",
      "abilityMixins": [
        {
          "$type": "CurLocalAvatarMixinV2",
          "modifierName": "UNIQUE_Activity_InstableSpray_FallingAttack_Impact_Handler"
        }
      ],
      "abilitySpecials": {
        "ImpactDamageSystemValue": 0.0,
        "ImpactDamage": 0.0,
        "ImpactInterval": 0.0
      },
      "modifiers": {
        "UNIQUE_Activity_InstableSpray_FallingAttack_Impact_Handler": {
          "stacking": "Unique",
          "modifierName": "",
          "forceTriggerWhenChangeAuthority": true,
          "elementDurability": 100.0,
          "modifierMixins": [
            {
              "$type": "AttachModifierToGlobalValueMixin",
              "globalValueTarget": "Team",
              "globalValueKey": "SGV_FALL_IMPACT",
              "valueSteps": [0.5, 1.5],
              "modifierNameSteps": [
                "UNIQUE_Activity_InstableSpray_FallingAttack_Impact"
              ]
            }
          ]
        },
        "UNIQUE_Activity_InstableSpray_FallingAttack_Impact": {
          "stacking": "Unique",
          "modifierName": "",
          "forceTriggerWhenChangeAuthority": true,
          "elementDurability": 100.0,
          "modifierMixins": [
            {
              "$type": "APJKOLPHCGH",
              "stateIDs": ["FallingAnthem_AS_1", "FallingAnthem_AS_2"],
              "enterActions": [
                {
                  "$type": "Predicated",
                  "target": "Other",
                  "shieldHP": true,
                  "targetPredicates": [
                    {
                      "$type": "ByTargetGlobalValue",
                      "target": "Team",
                      "key": "ImpactState_FallingAttack",
                      "value": 0.0,
                      "compareType": "NoneOrEqual"
                    }
                  ],
                  "successActions": [
                    {
                      "$type": "ApplyModifier",
                      "modifierName": "Activity_InstableSpray_FallingAttack_Impact_Handler_Delay"
                    },
                    {
                      "$type": "ApplyModifier",
                      "target": "Team",
                      "modifierName": "UNIQUE_Activity_InstableSpray_FallingAttack_Impact_CD"
                    }
                  ]
                }
              ],
              "DGFCLAIDIFI": ""
            }
          ],
          "onAdded": [
            {
              "$type": "EnableRocketJump",
              "shieldHP": true,
              "canBeHandledOnRecover": true,
              "damageRatio": "DungeonJump",
              "enable": true,
              "extention": {
                "xzMultiplier": 2.0,
                "yMultiplier": 3.0
              }
            }
          ],
          "onRemoved": [
            {
              "$type": "EnableRocketJump",
              "shieldHP": true,
              "damageRatio": "DungeonJump"
            }
          ],
          "onAvatarIn": [
            {
              "$type": "EnableRocketJump",
              "shieldHP": true,
              "canBeHandledOnRecover": true,
              "damageRatio": "DungeonJump",
              "enable": true,
              "extention": {
                "xzMultiplier": 2.0,
                "yMultiplier": 3.0
              }
            }
          ]
        },
        "Activity_InstableSpray_FallingAttack_Impact_Handler_Delay": {
          "modifierName": "",
          "duration": 0.05000000074505806,
          "elementDurability": 100.0,
          "onAdded": [
            {
              "$type": "FireEffect",
              "rotationDampTime": "Eff_EnergyDisk_ElementalBurst_Wave_R40",
              "PPPDJGDDOGD": 1.0,
              "AJDILHJFNKE": -1.0
            },
            {
              "$type": "TriggerAttackEvent",
              "attackEvent": {
                "attackPattern": {
                  "$type": "ConfigAttackSphere",
                  "triggerType": "TriggerNoRepeat",
                  "born": {
                    "$type": "ConfigBornBySelf"
                  },
                  "radius": 4.0
                },
                "attackInfo": {
                  "attackTag": "",
                  "attenuationTag": "",
                  "attenuationGroup": "default",
                  "attackProperty": {
                    "actorWindSubHurtDelta": 0.0,
                    "elementDurability": 0.0,
                    "ignoreAttackerProperty": true,
                    "enBreak": 0.0,
                    "attackType": "Melee",
                    "HMBONGBFIAP": [
                      "ImpactDamage",
                      "ImpactDamageSystemValue",
                      "MUL"
                    ],
                    "trueDamage": true,
                    "ignoreModifyDamage": true,
                    "GLKMCMDJBIK": 0.0
                  },
                  "hitPattern": {
                    "onHitEffectName": "default",
                    "hitImpulseY": "",
                    "hitImpulseType": "LV2",
                    "hitHaltTimeScale": 0.019999999552965164
                  },
                  "canBeModifiedBy": "OriginOwner"
                }
              },
              "targetType": "Enemy"
            }
          ]
        },
        "UNIQUE_Activity_InstableSpray_FallingAttack_Impact_CD": {
          "stacking": "Unique",
          "modifierName": "",
          "forceTriggerWhenChangeAuthority": true,
          "duration": "ImpactInterval",
          "elementDurability": 100.0,
          "onAdded": [
            {
              "$type": "SetGlobalValue",
              "target": "Team",
              "shieldHP": true,
              "value": -1.0,
              "key": "ImpactState_FallingAttack",
              "maxValue": 0.0,
              "minValue": 0.0
            }
          ],
          "onRemoved": [
            {
              "$type": "SetGlobalValue",
              "target": "Team",
              "shieldHP": true,
              "value": 0.0,
              "key": "ImpactState_FallingAttack",
              "maxValue": 0.0,
              "minValue": 0.0
            }
          ]
        }
      },
      "onAdded": [
        {
          "$type": "GDHGMAPPGHD",
          "key": "ImpactDamageSystemValue",
          "damageRatio": "ElementLevelCo"
        }
      ],
      "isDynamicAbility": true
    }
  },
  {
    "Default": {
      "$type": "ConfigAbility",
      "abilityName": "ActivityAbility_InstableSpray_ElemAddHurt_Up",
      "abilityMixins": [
        {
          "$type": "EEPKCGMKKJC",
          "modifierName": "UNIQUE_Activity_InstableSpray_ElemAddHurt_Up_Handler"
        }
      ],
      "abilitySpecials": {
        "ElemAddHurtUpRatio": 0.0
      },
      "modifiers": {
        "UNIQUE_Activity_InstableSpray_ElemAddHurt_Up_Handler": {
          "stacking": "Unique",
          "modifierName": "",
          "forceTriggerWhenChangeAuthority": true,
          "elementDurability": 100.0,
          "modifierMixins": [
            {
              "$type": "AttachModifierToGlobalValueMixin",
              "globalValueTarget": "Team",
              "globalValueKey": "SGV_ElEM_UP",
              "valueSteps": [0.5, 1.5],
              "modifierNameSteps": [
                "UNIQUE_Activity_InstableSpray_ElemAddHurt_Up"
              ]
            }
          ]
        },
        "UNIQUE_Activity_InstableSpray_ElemAddHurt_Up": {
          "stacking": "Unique",
          "modifierName": "",
          "forceTriggerWhenChangeAuthority": true,
          "elementDurability": 100.0,
          "properties": {
            "Actor_FireAddHurtDelta": "ElemAddHurtUpRatio",
            "Actor_IceAddHurtDelta": "ElemAddHurtUpRatio",
            "Actor_WaterAddHurtDelta": "ElemAddHurtUpRatio",
            "Actor_ElecAddHurtDelta": "ElemAddHurtUpRatio",
            "Actor_GrassAddHurtDelta": "ElemAddHurtUpRatio",
            "Actor_RockAddHurtDelta": "ElemAddHurtUpRatio",
            "Actor_WindAddHurtDelta": "ElemAddHurtUpRatio"
          }
        }
      },
      "isDynamicAbility": true
    }
  },
  {
    "Default": {
      "$type": "ConfigAbility",
      "abilityName": "ActivityAbility_InstableSpray_SpeedUp",
      "abilityMixins": [
        {
          "$type": "EEPKCGMKKJC",
          "modifierName": "UNIQUE_Activity_InstableSpray_SpeedUp_Handler"
        }
      ],
      "abilitySpecials": {
        "AtkSpeedUpRatio": 0.0
      },
      "modifiers": {
        "UNIQUE_Activity_InstableSpray_SpeedUp_Handler": {
          "stacking": "Unique",
          "modifierName": "",
          "forceTriggerWhenChangeAuthority": true,
          "elementDurability": 100.0,
          "modifierMixins": [
            {
              "$type": "AttachModifierToGlobalValueMixin",
              "globalValueTarget": "Team",
              "globalValueKey": "SGV_SPEED_UP",
              "valueSteps": [0.5, 1.5],
              "modifierNameSteps": ["UNIQUE_Activity_InstableSpray_SpeedUp"]
            }
          ]
        },
        "UNIQUE_Activity_InstableSpray_SpeedUp": {
          "stacking": "Unique",
          "modifierName": "",
          "forceTriggerWhenChangeAuthority": true,
          "elementDurability": 100.0,
          "properties": {
            "Animator_AttackSpeedRatio": "AtkSpeedUpRatio"
          },
          "isLimitedProperties": true
        }
      },
      "isDynamicAbility": true
    }
  }
]
