[
  {
    "Default": {
      "$type": "ConfigAbility",
      "abilityName": "Activity_Hachi_TeamAbility",
      "abilityMixins": [
        {
          "$type": "AttachModifierToSelfGlobalValueNoInitMixin",
          "globalValueKey": "SGV_CAN_CLEAR_THREAT",
          "valueSteps": [-0.5, 0.5],
          "modifierNameSteps": ["Blank"]
        }
      ],
      "modifiers": {
        "IsInHachiSneak": {
          "modifierName": "",
          "elementDurability": 100.0
        },
        "PlayerDieHandle": {
          "modifierName": "",
          "elementDurability": 100.0,
          "onKill": [
            {
              "$type": "AHPEKICBIIL",
              "shieldHP": true,
              "luaCallType": "CurChallengeGroup",
              "funcName": "SLC_PlayerDie_DuringQuest",
              "param1": 0.0,
              "MGAMDEHMCOL": 0.0,
              "MMHOHAOGPLP": 0.0
            }
          ]
        },
        "Blank": {
          "modifierName": "",
          "elementDurability": 100.0
        }
      },
      "onAdded": [
        {
          "$type": "AttachModifier",
          "modifierName": "IsInHachiSneak"
        },
        {
          "$type": "AttachModifier",
          "target": "AllPlayerAvatars",
          "modifierName": "PlayerDieHandle"
        }
      ]
    }
  }
]
