[
  {
    "Default": {
      "$type": "ConfigAbility",
      "abilityName": "ActivityAbility_EnergyDisk_Purple_HealthyDamage_V2",
      "abilitySpecials": {
        "DamageLow": 0.0,
        "DamageHigh": 0.0,
        "DamageSystemValue": 0.0,
        "CDTime": 0.0
      },
      "modifiers": {
        "UNIQUE_EnergyDisk_Purple_HealthyDamage": {
          "modifierName": "",
          "forceTriggerWhenChangeAuthority": true,
          "elementDurability": 100.0,
          "onAttackLanded": [
            {
              "$type": "Predicated",
              "target": "Other",
              "targetPredicates": [
                {
                  "$type": "ByEntityTypes",
                  "entityTypes": ["Monster"]
                },
                {
                  "$type": "ByTargetGlobalValue",
                  "target": "Team",
                  "key": "_EnergyDisk_Purple_HealthyDamage_CD",
                  "value": 0.0,
                  "compareType": "NoneOrEqual"
                }
              ],
              "successActions": [
                {
                  "$type": "Predicated",
                  "target": "Other",
                  "targetPredicates": [
                    {
                      "$type": "ByTargetHPRatio",
                      "target": "Caster",
                      "logic": "Lesser",
                      "ratio": 0.9900000095367432
                    }
                  ],
                  "successActions": [
                    {
                      "$type": "AttachModifier",
                      "target": "Other",
                      "modifierName": "UNIQUE_EnergyDisk_Purple_HealthyDamage_AOE_LowHp"
                    },
                    {
                      "$type": "AttachModifier",
                      "target": "Team",
                      "modifierName": "UNIQUE_EnergyDisk_Purple_HealthyDamage_CDHandler"
                    }
                  ],
                  "failActions": [
                    {
                      "$type": "AttachModifier",
                      "target": "Other",
                      "modifierName": "UNIQUE_EnergyDisk_Purple_HealthyDamage_AOE_HighHp"
                    },
                    {
                      "$type": "AttachModifier",
                      "target": "Team",
                      "modifierName": "UNIQUE_EnergyDisk_Purple_HealthyDamage_CDHandler"
                    }
                  ]
                }
              ]
            }
          ]
        },
        "UNIQUE_EnergyDisk_Purple_HealthyDamage_AOE_HighHp": {
          "modifierName": "",
          "forceTriggerWhenChangeAuthority": true,
          "duration": 0.10000000149011612,
          "elementDurability": 100.0,
          "onAdded": [
            {
              "$type": "FireEffect",
              "rotationDampTime": "Eff_EnergyDisk_ElementalBurst_Wave_R40",
              "PPPDJGDDOGD": 1.0,
              "AJDILHJFNKE": -1.0
            },
            {
              "$type": "TriggerAttackEvent",
              "target": "Caster",
              "attackEvent": {
                "attackPattern": {
                  "$type": "ConfigAttackSphere",
                  "triggerType": "TriggerNoRepeat",
                  "born": {
                    "$type": "ConfigBornBySelf"
                  },
                  "radius": 4.0
                },
                "attackInfo": {
                  "attackTag": "",
                  "attenuationTag": "",
                  "attenuationGroup": "default",
                  "attackProperty": {
                    "actorWindSubHurtDelta": 0.0,
                    "elementDurability": 0.0,
                    "ignoreAttackerProperty": true,
                    "enBreak": 0.0,
                    "attackType": "Melee",
                    "HMBONGBFIAP": ["DamageHigh", "DamageSystemValue", "MUL"],
                    "trueDamage": true,
                    "ignoreModifyDamage": true,
                    "GLKMCMDJBIK": 0.0
                  },
                  "hitPattern": {
                    "onHitEffectName": "default",
                    "hitImpulseY": "",
                    "hitImpulseType": "LV1",
                    "hitHaltTimeScale": 0.019999999552965164
                  },
                  "canBeModifiedBy": "OriginOwner"
                }
              },
              "targetType": "Enemy"
            }
          ]
        },
        "UNIQUE_EnergyDisk_Purple_HealthyDamage_AOE_LowHp": {
          "modifierName": "",
          "forceTriggerWhenChangeAuthority": true,
          "duration": 0.10000000149011612,
          "elementDurability": 100.0,
          "onAdded": [
            {
              "$type": "FireEffect",
              "rotationDampTime": "Eff_EnergyDisk_ElementalBurst_Wave_R40",
              "PPPDJGDDOGD": 1.0,
              "AJDILHJFNKE": -1.0
            },
            {
              "$type": "TriggerAttackEvent",
              "target": "Caster",
              "attackEvent": {
                "attackPattern": {
                  "$type": "ConfigAttackSphere",
                  "triggerType": "TriggerNoRepeat",
                  "born": {
                    "$type": "ConfigBornBySelf"
                  },
                  "radius": 4.0
                },
                "attackInfo": {
                  "attackTag": "",
                  "attenuationTag": "",
                  "attenuationGroup": "default",
                  "attackProperty": {
                    "actorWindSubHurtDelta": 0.0,
                    "elementDurability": 0.0,
                    "ignoreAttackerProperty": true,
                    "enBreak": 0.0,
                    "attackType": "Melee",
                    "HMBONGBFIAP": ["DamageLow", "DamageSystemValue", "MUL"],
                    "trueDamage": true,
                    "ignoreModifyDamage": true,
                    "GLKMCMDJBIK": 0.0
                  },
                  "hitPattern": {
                    "onHitEffectName": "default",
                    "hitImpulseY": "",
                    "hitImpulseType": "LV1",
                    "hitHaltTimeScale": 0.019999999552965164
                  },
                  "canBeModifiedBy": "OriginOwner"
                }
              },
              "targetType": "Enemy"
            }
          ]
        },
        "UNIQUE_EnergyDisk_Purple_HealthyDamage_CDHandler": {
          "modifierName": "",
          "forceTriggerWhenChangeAuthority": true,
          "duration": "CDTime",
          "elementDurability": 100.0,
          "onAdded": [
            {
              "$type": "SetGlobalValue",
              "target": "Team",
              "value": -1.0,
              "key": "_EnergyDisk_Purple_HealthyDamage_CD",
              "maxValue": 0.0,
              "minValue": 0.0
            }
          ],
          "onRemoved": [
            {
              "$type": "SetGlobalValue",
              "target": "Team",
              "value": 0.0,
              "key": "_EnergyDisk_Purple_HealthyDamage_CD",
              "maxValue": 0.0,
              "minValue": 0.0
            }
          ]
        }
      },
      "onAdded": [
        {
          "$type": "AttachModifier",
          "modifierName": "UNIQUE_EnergyDisk_Purple_HealthyDamage"
        },
        {
          "$type": "GDHGMAPPGHD",
          "shieldHP": true,
          "key": "DamageSystemValue",
          "damageRatio": "ElementLevelCo"
        }
      ],
      "isDynamicAbility": true
    }
  },
  {
    "Default": {
      "$type": "ConfigAbility",
      "abilityName": "ActivityAbility_EnergyDisk_Purple_Berserker_V2",
      "abilitySpecials": {
        "Rate": 0.0,
        "AttackSpeed_Rate": 0.0,
        "ReviveTime": 0.0
      },
      "modifiers": {
        "UNIQUE_EnergyDisk_Purple_Berserker_RecoveryLayers": {
          "modifierName": "",
          "forceTriggerWhenChangeAuthority": true,
          "elementDurability": 100.0,
          "thinkInterval": "ReviveTime",
          "onThinkInterval": [
            {
              "$type": "AddGlobalValue",
              "value": 1.0,
              "key": "_ABILITY_EnergyDisk_Purple_AttackBuffLevel",
              "useLimitRange": true,
              "maxValue": 5.0,
              "minValue": 0.0
            }
          ]
        },
        "UNIQUE_EnergyDisk_Purple_Berserker": {
          "modifierName": "",
          "forceTriggerWhenChangeAuthority": true,
          "elementDurability": 100.0,
          "modifierMixins": [
            {
              "$type": "AttachModifierToSelfGlobalValueMixin",
              "globalValueKey": "_ABILITY_EnergyDisk_Purple_AttackBuffLevel",
              "gvInTalk": 5.0,
              "valueSteps": [-1.5, -0.5, 0.5, 1.5, 2.5, 3.5, 4.5, 5.5],
              "modifierNameSteps": [
                "UNIQUE_EnergyDisk_Purple_Berserker_ResetTimer",
                "UNIQUE_EnergyDisk_Purple_BerserkerBuff0",
                "UNIQUE_EnergyDisk_Purple_BerserkerBuff1",
                "UNIQUE_EnergyDisk_Purple_BerserkerBuff2",
                "UNIQUE_EnergyDisk_Purple_BerserkerBuff3",
                "UNIQUE_EnergyDisk_Purple_BerserkerBuff4",
                "UNIQUE_EnergyDisk_Purple_BerserkerBuff5"
              ]
            }
          ],
          "onAdded": [
            {
              "$type": "AttachModifier",
              "modifierName": "UNIQUE_EnergyDisk_Purple_Berserker_Handler"
            }
          ]
        },
        "UNIQUE_EnergyDisk_Purple_Berserker_Handler": {
          "modifierName": "",
          "forceTriggerWhenChangeAuthority": true,
          "elementDurability": 100.0,
          "onBeingHit": [
            {
              "$type": "ApplyModifier",
              "predicates": [
                {
                  "$type": "ByHitDamage",
                  "damage": 0.0
                }
              ],
              "modifierName": "UNIQUE_EnergyDisk_Purple_Berserker_ResetCD"
            }
          ]
        },
        "UNIQUE_EnergyDisk_Purple_Berserker_ResetCD": {
          "stacking": "Unique",
          "modifierName": "",
          "forceTriggerWhenChangeAuthority": true,
          "duration": 1.0,
          "elementDurability": 100.0,
          "onAdded": [
            {
              "$type": "AddGlobalValue",
              "value": -1.0,
              "key": "_ABILITY_EnergyDisk_Purple_AttackBuffLevel",
              "useLimitRange": true,
              "maxValue": 5.0,
              "minValue": -1.0
            },
            {
              "$type": "DebugLog",
              "content": "受击触发globalvalue变更"
            }
          ]
        },
        "UNIQUE_EnergyDisk_Purple_Berserker_ResetTimer": {
          "modifierName": "",
          "forceTriggerWhenChangeAuthority": true,
          "elementDurability": 100.0,
          "thinkInterval": 0.30000001192092896
        },
        "UNIQUE_EnergyDisk_Purple_BerserkerBuff0": {
          "modifierName": "",
          "forceTriggerWhenChangeAuthority": true,
          "elementDurability": 100.0,
          "onAdded": [
            {
              "$type": "SetGlobalValue",
              "value": 0.0,
              "key": "_ABILITY_EnergyDisk_Purple_AttackBuffLevel",
              "maxValue": 0.0,
              "minValue": 0.0
            }
          ]
        },
        "UNIQUE_EnergyDisk_Purple_BerserkerBuff1": {
          "modifierName": "",
          "forceTriggerWhenChangeAuthority": true,
          "elementDurability": 100.0,
          "modifierMixins": [
            {
              "$type": "ModifyDamageMixin",
              "attackTags": [
                "NormalAttack_01",
                "NormalAttack_02",
                "NormalAttack_03",
                "NormalAttack_04",
                "NormalAttack_05",
                "NormalAttack_06"
              ],
              "actorWindSubHurtDelta": ["Rate", 1.0, "MUL"]
            }
          ],
          "onAdded": [
            {
              "$type": "FireEffect",
              "rotationDampTime": "Eff_EnergyDisk_ExtraAtkKill01",
              "PPPDJGDDOGD": 1.0,
              "AJDILHJFNKE": -1.0
            }
          ]
        },
        "UNIQUE_EnergyDisk_Purple_BerserkerBuff2": {
          "modifierName": "",
          "forceTriggerWhenChangeAuthority": true,
          "elementDurability": 100.0,
          "modifierMixins": [
            {
              "$type": "ModifyDamageMixin",
              "attackTags": [
                "NormalAttack_01",
                "NormalAttack_02",
                "NormalAttack_03",
                "NormalAttack_04",
                "NormalAttack_05",
                "NormalAttack_06"
              ],
              "actorWindSubHurtDelta": ["Rate", 2.0, "MUL"]
            }
          ],
          "onAdded": [
            {
              "$type": "FireEffect",
              "rotationDampTime": "Eff_EnergyDisk_ExtraAtkKill02",
              "PPPDJGDDOGD": 1.0,
              "AJDILHJFNKE": -1.0
            }
          ]
        },
        "UNIQUE_EnergyDisk_Purple_BerserkerBuff3": {
          "modifierName": "",
          "forceTriggerWhenChangeAuthority": true,
          "elementDurability": 100.0,
          "modifierMixins": [
            {
              "$type": "ModifyDamageMixin",
              "attackTags": [
                "NormalAttack_01",
                "NormalAttack_02",
                "NormalAttack_03",
                "NormalAttack_04",
                "NormalAttack_05",
                "NormalAttack_06"
              ],
              "actorWindSubHurtDelta": ["Rate", 3.0, "MUL"]
            }
          ],
          "onAdded": [
            {
              "$type": "FireEffect",
              "rotationDampTime": "Eff_EnergyDisk_ExtraAtkKill03",
              "PPPDJGDDOGD": 1.0,
              "AJDILHJFNKE": -1.0
            }
          ]
        },
        "UNIQUE_EnergyDisk_Purple_BerserkerBuff4": {
          "modifierName": "",
          "forceTriggerWhenChangeAuthority": true,
          "elementDurability": 100.0,
          "modifierMixins": [
            {
              "$type": "ModifyDamageMixin",
              "attackTags": [
                "NormalAttack_01",
                "NormalAttack_02",
                "NormalAttack_03",
                "NormalAttack_04",
                "NormalAttack_05",
                "NormalAttack_06"
              ],
              "actorWindSubHurtDelta": ["Rate", 4.0, "MUL"]
            }
          ],
          "onAdded": [
            {
              "$type": "FireEffect",
              "rotationDampTime": "Eff_EnergyDisk_ExtraAtkKill04",
              "PPPDJGDDOGD": 1.0,
              "AJDILHJFNKE": -1.0
            }
          ]
        },
        "UNIQUE_EnergyDisk_Purple_BerserkerBuff5": {
          "modifierName": "",
          "forceTriggerWhenChangeAuthority": true,
          "elementDurability": 100.0,
          "modifierMixins": [
            {
              "$type": "ModifyDamageMixin",
              "attackTags": [
                "NormalAttack_01",
                "NormalAttack_02",
                "NormalAttack_03",
                "NormalAttack_04",
                "NormalAttack_05",
                "NormalAttack_06"
              ],
              "actorWindSubHurtDelta": ["Rate", 5.0, "MUL"]
            }
          ],
          "properties": {
            "Animator_AttackSpeedRatio": "AttackSpeed_Rate"
          },
          "onAdded": [
            {
              "$type": "FireEffect",
              "rotationDampTime": "Eff_EnergyDisk_ExtraAtkKill05",
              "PPPDJGDDOGD": 1.0,
              "AJDILHJFNKE": -1.0
            }
          ],
          "isLimitedProperties": true
        }
      },
      "onAdded": [
        {
          "$type": "AttachModifier",
          "modifierName": "UNIQUE_EnergyDisk_Purple_Berserker"
        },
        {
          "$type": "AttachModifier",
          "modifierName": "UNIQUE_EnergyDisk_Purple_Berserker_RecoveryLayers"
        }
      ],
      "isDynamicAbility": true
    }
  },
  {
    "Default": {
      "$type": "ConfigAbility",
      "abilityName": "ActivityAbility_EnergyDisk_Purple_PickupTriggerAOE_V2",
      "abilitySpecials": {
        "DamageRate": 0.0,
        "CDTime": 0.0,
        "RockAddHurt": 0.0,
        "Bufftime": 0.0
      },
      "modifiers": {
        "UNIQUE_EnergyDisk_Purple_PickupTriggerAOE_Total": {
          "stacking": "Unique",
          "modifierName": "",
          "forceTriggerWhenChangeAuthority": true,
          "elementDurability": 100.0,
          "modifierMixins": [
            {
              "$type": "AttachModifierToSelfGlobalValueMixin",
              "globalValueTarget": "MPLevel",
              "globalValueKey": "_Ability_PickupTriggerAOE_CD",
              "gvInTalk": 0.0,
              "valueSteps": [-1.5, -0.5, 0.5],
              "modifierNameSteps": [
                "UNIQUE_EnergyDisk_PickupTriggerAOE_Cd",
                "Blank"
              ]
            }
          ]
        },
        "Blank": {
          "modifierName": "",
          "elementDurability": 100.0
        },
        "UNIQUE_EnergyDisk_PickupTriggerAOE_CD_Change_MPLEVEL": {
          "modifierName": "",
          "forceTriggerWhenChangeAuthority": true,
          "duration": 0.10000000149011612,
          "elementDurability": 100.0,
          "onAdded": [
            {
              "$type": "SetGlobalValue",
              "target": "MPLevel",
              "value": -1.0,
              "key": "_Ability_PickupTriggerAOE_CD",
              "maxValue": 0.0,
              "minValue": 0.0
            }
          ]
        },
        "UNIQUE_EnergyDisk_Purple_PickupTriggerAOE": {
          "modifierName": "",
          "forceTriggerWhenChangeAuthority": true,
          "elementDurability": 100.0,
          "modifierMixins": [
            {
              "$type": "PGLKGBLKEHF",
              "elementTypes": [
                "Fire",
                "Water",
                "Grass",
                "Electric",
                "Ice",
                "Wind",
                "Rock"
              ],
              "actions": [
                {
                  "$type": "Predicated",
                  "target": "MPLevel",
                  "targetPredicates": [
                    {
                      "$type": "ByTargetGlobalValue",
                      "key": "_Ability_PickupTriggerAOE_CD",
                      "value": 0.0
                    }
                  ],
                  "successActions": [
                    {
                      "$type": "ApplyModifier",
                      "modifierName": "UNIQUE_EnergyDisk_Purple_PickupTriggerAOE_Effect"
                    },
                    {
                      "$type": "ApplyModifier",
                      "target": "MPLevel",
                      "modifierName": "UNIQUE_EnergyDisk_PickupTriggerAOE_CD_Change_MPLEVEL"
                    }
                  ]
                }
              ]
            }
          ]
        },
        "UNIQUE_EnergyDisk_Purple_PickupTriggerAOE_Effect": {
          "modifierName": "",
          "forceTriggerWhenChangeAuthority": true,
          "duration": 0.10000000149011612,
          "elementDurability": 100.0,
          "onAdded": [
            {
              "$type": "FireEffect",
              "rotationDampTime": "Eff_EnergyDisk_ElementalBurst_Wave_R40",
              "PPPDJGDDOGD": 1.0,
              "AJDILHJFNKE": -1.0
            }
          ],
          "onRemoved": [
            {
              "$type": "TriggerAttackEvent",
              "attackEvent": {
                "attackPattern": {
                  "$type": "ConfigAttackSphere",
                  "triggerType": "TriggerNoRepeat",
                  "born": {
                    "$type": "ConfigBornBySelf"
                  },
                  "radius": 4.0
                },
                "attackInfo": {
                  "attackTag": "",
                  "attenuationTag": "",
                  "attenuationGroup": "default",
                  "attackProperty": {
                    "actorGrassSubHurtDelta": "DamageRate",
                    "actorWindSubHurtDelta": 0.0,
                    "elementDurability": 0.0,
                    "strikeType": "Slash",
                    "enBreak": 25.0,
                    "attackType": "Melee",
                    "GLKMCMDJBIK": 0.0
                  },
                  "hitPattern": {
                    "onHitEffectName": "default",
                    "hitImpulseY": "",
                    "hitImpulseType": "LV1",
                    "hitHaltTimeScale": 0.019999999552965164
                  }
                }
              },
              "targetType": "Enemy"
            },
            {
              "$type": "ApplyModifier",
              "target": "AllPlayerAvatars",
              "modifierName": "UNIQUE_EnergyDisk_Purple_PickupTriggerAOE_BuffAvatarEffect"
            }
          ]
        },
        "UNIQUE_EnergyDisk_Purple_PickupTriggerAOE_BuffAvatarEffect": {
          "modifierName": "",
          "forceTriggerWhenChangeAuthority": true,
          "duration": "Bufftime",
          "elementDurability": 100.0,
          "properties": {
            "Actor_RockAddHurtDelta": "RockAddHurt"
          }
        },
        "UNIQUE_EnergyDisk_PickupTriggerAOE_Cd": {
          "modifierName": "",
          "forceTriggerWhenChangeAuthority": true,
          "elementDurability": 100.0,
          "thinkInterval": "CDTime",
          "onThinkInterval": [
            {
              "$type": "SetGlobalValue",
              "target": "MPLevel",
              "value": 0.0,
              "key": "_Ability_PickupTriggerAOE_CD",
              "maxValue": 0.0,
              "minValue": 0.0
            }
          ]
        }
      },
      "onAdded": [
        {
          "$type": "ApplyModifier",
          "target": "MPLevel",
          "modifierName": "UNIQUE_EnergyDisk_Purple_PickupTriggerAOE_Total"
        },
        {
          "$type": "ApplyModifier",
          "modifierName": "UNIQUE_EnergyDisk_Purple_PickupTriggerAOE"
        }
      ],
      "isDynamicAbility": true
    }
  },
  {
    "Default": {
      "$type": "ConfigAbility",
      "abilityName": "ActivityAbility_EnergyDisk_Purple_ElementBurst_Count3Wave_V2",
      "abilitySpecials": {
        "Bufftime": 0.0,
        "Delta": 0.0,
        "ElementBurst_Wave_Damage": 0.0,
        "LevelEntity_Count3Wave_SystemValue": 0.0
      },
      "modifiers": {
        "UNIQUE_EnergyDisk_Purple_ElementBurst_Count3Wave_MPLevel_Init": {
          "modifierName": "",
          "forceTriggerWhenChangeAuthority": true,
          "elementDurability": 100.0,
          "onAdded": [
            {
              "$type": "SetGlobalValue",
              "target": "MPLevel",
              "value": 0.0,
              "key": "_ABILITY_ElementBurst_Layer",
              "maxValue": 0.0,
              "minValue": 0.0
            }
          ]
        },
        "UNIQUE_Purple_ElementBurst_Count3Wave_Handler": {
          "modifierName": "",
          "forceTriggerWhenChangeAuthority": true,
          "elementDurability": 100.0,
          "modifierMixins": [
            {
              "$type": "OnAvatarUseSkillMixin",
              "onTriggerUltimateSkill": [
                {
                  "$type": "ApplyModifier",
                  "target": "MPLevel",
                  "modifierName": "UNIQUE_EnergyDisk_ElementBurst_AddLayer"
                },
                {
                  "$type": "ApplyModifier",
                  "target": "MPLevel",
                  "modifierName": "UNIQUE_EnergyDisk_ElementBurst_Layer_Reset_MPLEVEL"
                },
                {
                  "$type": "Predicated",
                  "target": "MPLevel",
                  "targetPredicates": [
                    {
                      "$type": "ByTargetGlobalValue",
                      "key": "_ABILITY_ElementBurst_Layer",
                      "value": 4.0,
                      "compareType": "MoreThanAndEqual"
                    }
                  ],
                  "successActions": [
                    {
                      "$type": "ApplyModifier",
                      "modifierName": "UNIQUE_ElementBurst_Count3Wave_3_Extra_Effect"
                    }
                  ]
                }
              ],
              "clearSkillIdDelay": 0.20000000298023224
            },
            {
              "$type": "AttachModifierToSelfGlobalValueMixin",
              "globalValueTarget": "MPLevel",
              "globalValueKey": "_ABILITY_ElementBurst_Layer",
              "gvInTalk": 0.0,
              "valueSteps": [-0.5, 0.5, 1.5, 2.5, 100.0],
              "modifierNameSteps": [
                "UNIQUE_ElementBurst_Count3Wave_0",
                "UNIQUE_UNIQUE_ElementBurst_Count3Wave_1_Effect",
                "UNIQUE_UNIQUE_ElementBurst_Count3Wave_2_Effect",
                "UNIQUE_UNIQUE_ElementBurst_Count3Wave_3_Effect"
              ]
            }
          ]
        },
        "UNIQUE_ElementBurst_Count3Wave_0": {
          "modifierName": "",
          "forceTriggerWhenChangeAuthority": true,
          "elementDurability": 100.0
        },
        "UNIQUE_UNIQUE_ElementBurst_Count3Wave_1_Effect": {
          "modifierName": "",
          "forceTriggerWhenChangeAuthority": true,
          "elementDurability": 100.0,
          "properties": {
            "Actor_ElemMasteryDelta": ["Delta", 1.0, "MUL"]
          },
          "isLimitedProperties": true
        },
        "UNIQUE_UNIQUE_ElementBurst_Count3Wave_2_Effect": {
          "modifierName": "",
          "forceTriggerWhenChangeAuthority": true,
          "elementDurability": 100.0,
          "properties": {
            "Actor_ElemMasteryDelta": ["Delta", 2.0, "MUL"]
          },
          "isLimitedProperties": true
        },
        "UNIQUE_UNIQUE_ElementBurst_Count3Wave_3_Effect": {
          "modifierName": "",
          "forceTriggerWhenChangeAuthority": true,
          "elementDurability": 100.0,
          "properties": {
            "Actor_ElemMasteryDelta": ["Delta", 3.0, "MUL"]
          },
          "isLimitedProperties": true
        },
        "UNIQUE_ElementBurst_Count3Wave_3_Extra_Effect": {
          "modifierName": "",
          "forceTriggerWhenChangeAuthority": true,
          "duration": 0.30000001192092896,
          "elementDurability": 100.0,
          "onAdded": [
            {
              "$type": "DebugLog",
              "content": "进入冲击波技能效果逻辑！"
            },
            {
              "$type": "FireEffect",
              "rotationDampTime": "Eff_EnergyDisk_ElementalBurst_Wave_R40",
              "PPPDJGDDOGD": 1.0,
              "AJDILHJFNKE": -1.0
            },
            {
              "$type": "TriggerAttackEvent",
              "attackEvent": {
                "attackPattern": {
                  "$type": "ConfigAttackSphere",
                  "triggerType": "TriggerNoRepeat",
                  "born": {
                    "$type": "ConfigBornBySelf"
                  },
                  "radius": 4.0
                },
                "attackInfo": {
                  "attackTag": "",
                  "attenuationTag": "",
                  "attenuationGroup": "default",
                  "attackProperty": {
                    "actorWindSubHurtDelta": 0.0,
                    "elementDurability": 0.0,
                    "ignoreAttackerProperty": true,
                    "enBreak": 0.0,
                    "attackType": "Melee",
                    "HMBONGBFIAP": [
                      "ElementBurst_Wave_Damage",
                      "LevelEntity_Count3Wave_SystemValue",
                      "MUL"
                    ],
                    "trueDamage": true,
                    "ignoreModifyDamage": true,
                    "GLKMCMDJBIK": 0.0
                  },
                  "hitPattern": {
                    "onHitEffectName": "default",
                    "hitImpulseY": "",
                    "hitImpulseType": "LV1",
                    "hitHaltTimeScale": 0.019999999552965164
                  },
                  "canBeModifiedBy": "OriginOwner"
                }
              },
              "targetType": "Enemy"
            }
          ]
        },
        "UNIQUE_EnergyDisk_ElementBurst_AddLayer": {
          "stacking": "Unique",
          "modifierName": "",
          "forceTriggerWhenChangeAuthority": true,
          "duration": 0.10000000149011612,
          "elementDurability": 100.0,
          "onAdded": [
            {
              "$type": "AddGlobalValue",
              "target": "MPLevel",
              "value": 1.0,
              "key": "_ABILITY_ElementBurst_Layer",
              "maxValue": 0.0,
              "minValue": 0.0
            }
          ]
        },
        "UNIQUE_EnergyDisk_ElementBurst_Layer_Reset_MPLEVEL": {
          "modifierName": "",
          "forceTriggerWhenChangeAuthority": true,
          "duration": 0.10000000149011612,
          "elementDurability": 100.0,
          "onAdded": [
            {
              "$type": "DebugLog",
              "content": "刷新时间"
            },
            {
              "$type": "RemoveUniqueModifier",
              "target": "MPLevel",
              "modifierName": "UNIQUE_EnergyDisk_ElementBurst_Layer_Reset_MPLEVEL_Time"
            },
            {
              "$type": "ApplyModifier",
              "target": "MPLevel",
              "modifierName": "UNIQUE_EnergyDisk_ElementBurst_Layer_Reset_MPLEVEL_Time"
            }
          ]
        },
        "UNIQUE_EnergyDisk_ElementBurst_Layer_Reset_MPLEVEL_Time": {
          "modifierName": "",
          "forceTriggerWhenChangeAuthority": true,
          "elementDurability": 100.0,
          "thinkInterval": "Bufftime",
          "onThinkInterval": [
            {
              "$type": "SetGlobalValue",
              "target": "MPLevel",
              "value": 0.0,
              "key": "_ABILITY_ElementBurst_Layer",
              "maxValue": 0.0,
              "minValue": 0.0
            },
            {
              "$type": "DebugLog",
              "content": "重置为0"
            }
          ]
        }
      },
      "onAdded": [
        {
          "$type": "ApplyModifier",
          "target": "MPLevel",
          "modifierName": "UNIQUE_EnergyDisk_Purple_ElementBurst_Count3Wave_MPLevel_Init"
        },
        {
          "$type": "GDHGMAPPGHD",
          "key": "LevelEntity_Count3Wave_SystemValue",
          "damageRatio": "ElementLevelCo"
        },
        {
          "$type": "ApplyModifier",
          "modifierName": "UNIQUE_Purple_ElementBurst_Count3Wave_Handler"
        }
      ],
      "isDynamicAbility": true
    }
  },
  {
    "Default": {
      "$type": "ConfigAbility",
      "abilityName": "ActivityAbility_EnergyDisk_Purple_ElementBurstTriggerWave_V2",
      "abilitySpecials": {
        "Purple_Damage": 0.0,
        "CDTime": 0.0
      },
      "modifiers": {
        "UNIQUE_EnergyDisk_ElementBurstTriggerWave_FireEffect": {
          "modifierName": "",
          "forceTriggerWhenChangeAuthority": true,
          "elementDurability": 100.0,
          "thinkInterval": 0.5,
          "onThinkInterval": [
            {
              "$type": "Predicated",
              "targetPredicates": [
                {
                  "$type": "ByIsCombat"
                }
              ],
              "successActions": [
                {
                  "$type": "AttachModifier",
                  "modifierName": "UNIQUE_EnergyDisk_ElementBurstTriggerWave_FireEffect_Effect"
                }
              ],
              "failActions": [
                {
                  "$type": "RemoveUniqueModifier",
                  "modifierName": "UNIQUE_EnergyDisk_ElementBurstTriggerWave_FireEffect_Effect"
                }
              ]
            }
          ]
        },
        "UNIQUE_EnergyDisk_ElementBurstTriggerWave_FireEffect_Effect": {
          "stacking": "Unique",
          "modifierName": "",
          "forceTriggerWhenChangeAuthority": true,
          "elementDurability": 100.0,
          "onAdded": [
            {
              "$type": "AttachEffect",
              "rotationDampTime": "Eff_EnergyDisk_ElementalBurst_Trigger",
              "born": {
                "$type": "ConfigBornByTarget",
                "offset": {
                  "x": 0.0,
                  "y": 2.0,
                  "z": 0.0
                }
              },
              "PPPDJGDDOGD": 1.0,
              "AJDILHJFNKE": -1.0
            }
          ]
        },
        "UNIQUE_EnergyDisk_ElementBurstTriggerWave_Handler": {
          "modifierName": "",
          "forceTriggerWhenChangeAuthority": true,
          "elementDurability": 100.0,
          "modifierMixins": [
            {
              "$type": "OnAvatarUseSkillMixin",
              "onTriggerUltimateSkill": [
                {
                  "$type": "Predicated",
                  "target": "MPLevel",
                  "targetPredicates": [
                    {
                      "$type": "ByTargetGlobalValue",
                      "key": "_Ability_EnergyDisk_ElementBurstTriggerWave_CD",
                      "value": 0.0,
                      "compareType": "NoneOrEqual"
                    }
                  ],
                  "successActions": [
                    {
                      "$type": "ApplyModifier",
                      "target": "AllPlayerAvatars",
                      "modifierName": "UNIQUE_EnergyDisk_ElementBurstTriggerWave_Effect"
                    },
                    {
                      "$type": "ApplyModifier",
                      "target": "MPLevel",
                      "modifierName": "UNIQUE_EnergyDisk_ElementBurstTriggerWave_CD_Change_MPLEVEL"
                    }
                  ]
                }
              ],
              "clearSkillIdDelay": 0.20000000298023224
            }
          ]
        },
        "UNIQUE_EnergyDisk_ElementBurstTriggerWave_CD_Change_MPLEVEL": {
          "modifierName": "",
          "forceTriggerWhenChangeAuthority": true,
          "duration": 2.0,
          "elementDurability": 100.0,
          "onAdded": [
            {
              "$type": "SetGlobalValue",
              "target": "MPLevel",
              "value": -1.0,
              "key": "_Ability_EnergyDisk_ElementBurstTriggerWave_CD",
              "maxValue": 0.0,
              "minValue": 0.0
            }
          ],
          "onRemoved": [
            {
              "$type": "SetGlobalValue",
              "target": "MPLevel",
              "value": 0.0,
              "key": "_Ability_EnergyDisk_ElementBurstTriggerWave_CD",
              "maxValue": 0.0,
              "minValue": 0.0
            }
          ]
        },
        "UNIQUE_EnergyDisk_ElementBurstTriggerWave_Effect": {
          "modifierName": "",
          "forceTriggerWhenChangeAuthority": true,
          "duration": 0.20000000298023224,
          "elementDurability": 100.0,
          "onAdded": [
            {
              "$type": "TriggerAttackEvent",
              "attackEvent": {
                "attackPattern": {
                  "$type": "ConfigAttackSphere",
                  "triggerType": "TriggerNoRepeat",
                  "born": {
                    "$type": "ConfigBornBySelf"
                  },
                  "radius": 4.0
                },
                "attackInfo": {
                  "attackTag": "",
                  "attenuationTag": "",
                  "attenuationGroup": "default",
                  "attackProperty": {
                    "actorGrassSubHurtDelta": "Purple_Damage",
                    "actorWindSubHurtDelta": 0.0,
                    "elementDurability": 0.0,
                    "enBreak": 25.0,
                    "attackType": "Melee",
                    "GLKMCMDJBIK": 0.0
                  },
                  "hitPattern": {
                    "onHitEffectName": "default",
                    "hitImpulseY": "",
                    "hitImpulseType": "LV1",
                    "hitHaltTimeScale": 0.019999999552965164
                  }
                }
              },
              "targetType": "Enemy"
            },
            {
              "$type": "FireEffect",
              "rotationDampTime": "Eff_EnergyDisk_ElementalBurst_Wave_R40",
              "PPPDJGDDOGD": 1.0,
              "AJDILHJFNKE": -1.0
            }
          ]
        }
      },
      "onAdded": [
        {
          "$type": "AttachModifier",
          "modifierName": "UNIQUE_EnergyDisk_ElementBurstTriggerWave_Handler"
        },
        {
          "$type": "AttachModifier",
          "modifierName": "UNIQUE_EnergyDisk_ElementBurstTriggerWave_FireEffect"
        }
      ],
      "isDynamicAbility": true
    }
  },
  {
    "Default": {
      "$type": "ConfigAbility",
      "abilityName": "ActivityAbility_EnergyDisk_Blue_ElementDmgUpAfterCrystalShield_V2",
      "abilitySpecials": {
        "time": 0.0,
        "Rate": 0.0
      },
      "modifiers": {
        "UNIQUE_EnergyDisk_Blue_ElementDmgUpAfterCrystalShield": {
          "modifierName": "",
          "forceTriggerWhenChangeAuthority": true,
          "elementDurability": 100.0,
          "modifierMixins": [
            {
              "$type": "PGLKGBLKEHF",
              "elementTypes": [
                "Fire",
                "Water",
                "Grass",
                "Electric",
                "Ice",
                "Wind",
                "Rock"
              ],
              "actions": [
                {
                  "$type": "AttachModifier",
                  "modifierName": "UNIQUE_Relic_ElementDmgUpAfterCrystalShield_BuffEffect"
                }
              ]
            }
          ]
        },
        "UNIQUE_Relic_ElementDmgUpAfterCrystalShield_BuffEffect": {
          "modifierName": "",
          "forceTriggerWhenChangeAuthority": true,
          "duration": "time",
          "elementDurability": 100.0,
          "properties": {
            "Actor_FireAddHurtDelta": "Rate",
            "Actor_WaterAddHurtDelta": "Rate",
            "Actor_GrassAddHurtDelta": "Rate",
            "Actor_ElecAddHurtDelta": "Rate",
            "Actor_IceAddHurtDelta": "Rate",
            "Actor_WindAddHurtDelta": "Rate",
            "Actor_RockAddHurtDelta": "Rate"
          },
          "state": "AttackUp"
        }
      },
      "onAdded": [
        {
          "$type": "AttachModifier",
          "modifierName": "UNIQUE_EnergyDisk_Blue_ElementDmgUpAfterCrystalShield"
        }
      ],
      "isDynamicAbility": true
    }
  },
  {
    "Default": {
      "$type": "ConfigAbility",
      "abilityName": "ActivityAbility_EnergyDisk_Blue_ElementBurst_NormalAtkUp_V2",
      "abilitySpecials": {
        "time": 0.0,
        "Rate": 0.0
      },
      "modifiers": {
        "UNIQUE_EnergyDisk_Blue_ElementBurst_NormalAtkUp": {
          "modifierName": "",
          "forceTriggerWhenChangeAuthority": true,
          "elementDurability": 100.0,
          "onAttackLanded": [
            {
              "$type": "Predicated",
              "target": "Target",
              "targetPredicates": [
                {
                  "$type": "ByAttackTags",
                  "attackTags": ["Elemental_Burst"]
                }
              ],
              "successActions": [
                {
                  "$type": "AttachModifier",
                  "modifierName": "UNIQUE_EnergyDisk_NormalAttackUp"
                },
                {
                  "$type": "DebugLog",
                  "content": "元素爆发命中后触发了"
                }
              ]
            }
          ]
        },
        "UNIQUE_EnergyDisk_NormalAttackUp": {
          "modifierName": "",
          "forceTriggerWhenChangeAuthority": true,
          "duration": "time",
          "elementDurability": 100.0,
          "modifierMixins": [
            {
              "$type": "ModifyDamageMixin",
              "attackTags": [
                "NormalAttack_01",
                "NormalAttack_02",
                "NormalAttack_03",
                "NormalAttack_04",
                "NormalAttack_05",
                "NormalAttack_06"
              ],
              "actorWindSubHurtDelta": "Rate"
            }
          ],
          "state": "AttackUp"
        }
      },
      "onAdded": [
        {
          "$type": "AttachModifier",
          "modifierName": "UNIQUE_EnergyDisk_Blue_ElementBurst_NormalAtkUp"
        }
      ],
      "isDynamicAbility": true
    }
  },
  {
    "Default": {
      "$type": "ConfigAbility",
      "abilityName": "ActivityAbility_EnergyDisk_Blue_HasShield_NormalAtkUp_V2",
      "abilityMixins": [
        {
          "$type": "AttachModifierToPredicateMixin",
          "damageRatio": "Current",
          "predicates": [
            {
              "$type": "ByHasShield",
              "damageRatio": "All"
            }
          ],
          "modifierName": "UNIQUE_EnergyDisk_HasShield_NormalAtkUp"
        }
      ],
      "abilitySpecials": {
        "Bufftime": 0.0,
        "Rate": 0.0
      },
      "modifiers": {
        "UNIQUE_EnergyDisk_HasShield_NormalAtkUp": {
          "modifierName": "",
          "forceTriggerWhenChangeAuthority": true,
          "elementDurability": 100.0,
          "onAttackLanded": [
            {
              "$type": "Predicated",
              "target": "Target",
              "targetPredicates": [
                {
                  "$type": "ByEntityTypes",
                  "entityTypes": ["Monster"]
                },
                {
                  "$type": "ByAttackTags",
                  "attackTags": [
                    "NormalAttack_01",
                    "NormalAttack_02",
                    "NormalAttack_03",
                    "NormalAttack_04",
                    "NormalAttack_05",
                    "NormalAttack_06"
                  ]
                }
              ],
              "successActions": [
                {
                  "$type": "ApplyModifier",
                  "modifierName": "UNIQUE_EnergyDisk_HasShield_NormalAtkUp_Effect"
                }
              ]
            }
          ]
        },
        "UNIQUE_EnergyDisk_HasShield_NormalAtkUp_Effect": {
          "stacking": "MultipleRefresh",
          "stackingOption": {
            "abilitySpecialName": "",
            "maxModifierNumForMultipleType": 5.0
          },
          "modifierName": "",
          "forceTriggerWhenChangeAuthority": true,
          "duration": "Bufftime",
          "elementDurability": 100.0,
          "properties": {
            "Actor_AttackRatio": "Rate"
          },
          "onAdded": [
            {
              "$type": "DebugLog",
              "content": "有护盾时的普攻命中后的buff效果层"
            }
          ],
          "isLimitedProperties": true
        }
      },
      "isDynamicAbility": true
    }
  },
  {
    "Default": {
      "$type": "ConfigAbility",
      "abilityName": "ActivityAbility_EnergyDisk_Blue_ExtraAtkKill_Attract_V2",
      "abilitySpecials": {
        "CDTime": 0.0
      },
      "modifiers": {
        "UNIQUE_EnergyDisk_Blue_ExtraAtkKill_Attract_Total": {
          "stacking": "Unique",
          "modifierName": "",
          "forceTriggerWhenChangeAuthority": true,
          "elementDurability": 100.0,
          "modifierMixins": [
            {
              "$type": "AttachModifierToSelfGlobalValueMixin",
              "globalValueTarget": "MPLevel",
              "globalValueKey": "_Ability_EnergyDisk_ExtraAtkKill_Attract_CD",
              "gvInTalk": 0.0,
              "valueSteps": [-1.5, -0.5, 0.5],
              "modifierNameSteps": [
                "UNIQUE_EnergyDisk_ExtraAtkKill_Attract_Cd",
                "Blank"
              ]
            }
          ]
        },
        "Blank": {
          "modifierName": "",
          "elementDurability": 100.0
        },
        "UNIQUE_EnergyDisk_ExtraAtkKill_Attract_Cd": {
          "modifierName": "",
          "forceTriggerWhenChangeAuthority": true,
          "elementDurability": 100.0,
          "thinkInterval": "CDTime",
          "onThinkInterval": [
            {
              "$type": "SetGlobalValue",
              "target": "MPLevel",
              "value": 0.0,
              "key": "_Ability_EnergyDisk_ExtraAtkKill_Attract_CD",
              "maxValue": 0.0,
              "minValue": 0.0
            }
          ]
        },
        "UNIQUE_EnergyDisk_ExtraAtkKill_Attract_Handler": {
          "modifierName": "",
          "forceTriggerWhenChangeAuthority": true,
          "elementDurability": 100.0,
          "modifierMixins": [
            {
              "$type": "MFCOIAIMHEL",
              "attackTags": ["ExtraAttack"],
              "detectWindow": 0.6000000238418579,
              "onKill": [
                {
                  "$type": "Predicated",
                  "target": "Other",
                  "targetPredicates": [
                    {
                      "$type": "ByEntityTypes",
                      "entityTypes": ["Monster"]
                    }
                  ],
                  "successActions": [
                    {
                      "$type": "DebugLog",
                      "content": "重击击杀触发"
                    },
                    {
                      "$type": "Predicated",
                      "target": "MPLevel",
                      "targetPredicates": [
                        {
                          "$type": "ByTargetGlobalValue",
                          "key": "_Ability_EnergyDisk_ExtraAtkKill_Attract_CD",
                          "value": 0.0
                        }
                      ],
                      "successActions": [
                        {
                          "$type": "ApplyModifier",
                          "modifierName": "UNIQUE_EnergyDisk_Blue_ExtraAtkKill_Attract_CreateGadget"
                        },
                        {
                          "$type": "ApplyModifier",
                          "target": "MPLevel",
                          "modifierName": "UNIQUE_EnergyDisk_ExtraAtkKill_Attract_CD_Change_MPLEVEL"
                        }
                      ]
                    }
                  ]
                }
              ]
            }
          ]
        },
        "UNIQUE_EnergyDisk_ExtraAtkKill_Attract_CD_Change_MPLEVEL": {
          "modifierName": "",
          "forceTriggerWhenChangeAuthority": true,
          "duration": 0.10000000149011612,
          "elementDurability": 100.0,
          "onAdded": [
            {
              "$type": "SetGlobalValue",
              "target": "MPLevel",
              "value": -1.0,
              "key": "_Ability_EnergyDisk_ExtraAtkKill_Attract_CD",
              "maxValue": 0.0,
              "minValue": 0.0
            }
          ]
        },
        "UNIQUE_EnergyDisk_Blue_ExtraAtkKill_Attract_CreateGadget": {
          "stacking": "Unique",
          "modifierName": "",
          "forceTriggerWhenChangeAuthority": true,
          "duration": 0.30000001192092896,
          "elementDurability": 100.0,
          "onAdded": [
            {
              "$type": "CreateGadget",
              "born": {
                "$type": "ConfigBornBySelf",
                "offset": {
                  "x": 0.0,
                  "y": 0.0,
                  "z": 5.0
                },
                "onGround": true
              },
              "gadgetID": 44000303,
              "campID": 1001,
              "campTargetType": "Enemy"
            }
          ]
        }
      },
      "onAdded": [
        {
          "$type": "AttachModifier",
          "target": "MPLevel",
          "modifierName": "UNIQUE_EnergyDisk_Blue_ExtraAtkKill_Attract_Total"
        },
        {
          "$type": "ApplyModifier",
          "modifierName": "UNIQUE_EnergyDisk_ExtraAtkKill_Attract_Handler"
        }
      ],
      "isDynamicAbility": true
    }
  },
  {
    "Default": {
      "$type": "ConfigAbility",
      "abilityName": "Avatar_EnergyDisk_WindBlackHole_GadgetV2",
      "abilitySpecials": {
        "BlackHole_Gadget_Damage": 5.0
      },
      "modifiers": {
        "WindBlackHole_Gadget_Pre": {
          "modifierName": "",
          "duration": 0.3400000035762787,
          "elementDurability": 100.0,
          "onAdded": [
            {
              "$type": "FireEffect",
              "rotationDampTime": "Eff_EnergyDisk_ExtraAtkAttract",
              "PPPDJGDDOGD": 1.0,
              "AJDILHJFNKE": -1.0
            }
          ],
          "onRemoved": [
            {
              "$type": "ApplyModifier",
              "modifierName": "WindBlackHole_Gadget_Handler"
            }
          ]
        },
        "WindBlackHole_Gadget_Handler": {
          "modifierName": "",
          "elementDurability": 100.0,
          "onAdded": [
            {
              "$type": "ApplyModifier",
              "modifierName": "WindBlackHole_Gadget_WindZone"
            },
            {
              "$type": "TriggerAttackEvent",
              "attackEvent": {
                "attackPattern": {
                  "$type": "ConfigAttackCircle",
                  "triggerType": "TriggerNoRepeat",
                  "born": {
                    "$type": "ConfigBornBySelf",
                    "offset": {
                      "x": 0.0,
                      "y": -3.0,
                      "z": 0.0
                    }
                  },
                  "height": 6.0,
                  "radius": 6.0
                },
                "attackInfo": {
                  "attackTag": "",
                  "attenuationTag": "",
                  "attenuationGroup": "default",
                  "attackProperty": {
                    "actorGrassSubHurtDelta": "BlackHole_Gadget_Damage",
                    "actorWindSubHurtDelta": 0.0,
                    "elementDurability": 0.0,
                    "strikeType": "Default",
                    "enBreak": 25.0,
                    "GLKMCMDJBIK": 0.0
                  },
                  "hitPattern": {
                    "onHitEffectName": "default",
                    "hitImpulseY": "",
                    "hitImpulseType": "LV2",
                    "hitHaltTimeScale": 0.05000000074505806
                  }
                }
              },
              "targetType": "Enemy"
            }
          ]
        },
        "WindBlackHole_Gadget_WindZone": {
          "modifierName": "",
          "duration": 0.30000001192092896,
          "elementDurability": 100.0,
          "modifierMixins": [
            {
              "$type": "WindZoneMixin",
              "shapeName": "CircleR6",
              "born": {
                "$type": "ConfigBornBySelf",
                "offset": {
                  "x": 0.0,
                  "y": 1.0,
                  "z": 0.0
                }
              },
              "strength": 4.0,
              "IAELBHDMINN": 2.0,
              "MMBCLAEOEFB": 1.0,
              "targetType": "All",
              "predicates": [
                {
                  "$type": "ByEntityTypes",
                  "entityTypes": ["Avatar"],
                  "reject": true
                }
              ],
              "modifierName": ""
            }
          ]
        }
      },
      "onAdded": [
        {
          "$type": "ApplyModifier",
          "modifierName": "WindBlackHole_Gadget_Pre"
        }
      ]
    }
  },
  {
    "Default": {
      "$type": "ConfigAbility",
      "abilityName": "ActivityAbility_EnergyDisk_Blue_MonsterNumAtkDefUp_V2",
      "abilitySpecials": {
        "Count": 0.0,
        "Rate": 0.0,
        "Atk": 0.0,
        "Def": 0.0,
        "Now_Count": 0.0
      },
      "modifiers": {
        "UNIQUE_EnergyDisk_Blue_MonsterNumAtkDefUp": {
          "modifierName": "",
          "forceTriggerWhenChangeAuthority": true,
          "elementDurability": 100.0,
          "thinkInterval": 2.0,
          "onThinkInterval": [
            {
              "$type": "Predicated",
              "targetPredicates": [
                {
                  "$type": "ByIsCombat"
                }
              ],
              "successActions": [
                {
                  "$type": "ApplyModifier",
                  "modifierName": "UNIQUE_EnergyDisk_Count_Timer"
                },
                {
                  "$type": "SetGlobalValue",
                  "value": 0.0,
                  "key": "_ABILITY_EnergyDisk_MonsterNumAtkDefUp_Enemy_Count",
                  "maxValue": 0.0,
                  "minValue": 0.0
                },
                {
                  "$type": "ApplyModifier",
                  "otherTargets": {
                    "$type": "SelectTargetsByShape",
                    "sortType": "Nearest",
                    "shapeName": "CircleR8",
                    "campTargetType": "Enemy",
                    "doOffStage": 1.0
                  },
                  "predicates": [
                    {
                      "$type": "ByEntityTypes",
                      "entityTypes": ["Monster"]
                    }
                  ],
                  "modifierName": "MonsterNumAtkDefUp_CountAdd"
                }
              ],
              "failActions": [
                {
                  "$type": "SetGlobalValue",
                  "shieldHP": true,
                  "value": 0.0,
                  "key": "_ABILITY_EnergyDisk_MonsterNumAtkDefUp_Enemy",
                  "maxValue": 0.0,
                  "minValue": 0.0
                }
              ]
            }
          ]
        },
        "MonsterNumAtkDefUp_CountAdd": {
          "modifierName": "",
          "duration": 0.10000000149011612,
          "elementDurability": 100.0,
          "onAdded": [
            {
              "$type": "ApplyModifier",
              "target": "Caster",
              "modifierName": "MonsterNumAtkDefUp_CountAdd_Effect"
            }
          ]
        },
        "MonsterNumAtkDefUp_CountAdd_Effect": {
          "stacking": "MultipleRefresh",
          "modifierName": "",
          "duration": 0.009999999776482582,
          "elementDurability": 100.0,
          "onAdded": [
            {
              "$type": "AddGlobalValue",
              "value": 1.0,
              "key": "_ABILITY_EnergyDisk_MonsterNumAtkDefUp_Enemy_Count",
              "maxValue": 0.0,
              "minValue": 0.0
            }
          ]
        },
        "UNIQUE_EnergyDisk_Count_Timer": {
          "modifierName": "",
          "forceTriggerWhenChangeAuthority": true,
          "duration": 0.10000000149011612,
          "elementDurability": 100.0,
          "onAdded": [
            {
              "$type": "SetGlobalValueToOverrideMap",
              "shieldHP": true,
              "globalValueKey": "_ABILITY_EnergyDisk_MonsterNumAtkDefUp_Enemy_Count",
              "overrideMapKey": "Now_Count"
            },
            {
              "$type": "SetGlobalValue",
              "shieldHP": true,
              "value": "Now_Count",
              "key": "_ABILITY_EnergyDisk_MonsterNumAtkDefUp_Enemy",
              "maxValue": 0.0,
              "minValue": 0.0
            }
          ]
        },
        "MonsterNumAtkDefUp_BuffEffect": {
          "modifierName": "",
          "elementDurability": 100.0,
          "properties": {
            "Actor_AttackRatio": "Atk",
            "Actor_DefenceRatio": "Def"
          },
          "state": "AttackUp"
        },
        "UNIQUE_MonsterNumAtkDefUp_MoveBuff": {
          "modifierName": "",
          "forceTriggerWhenChangeAuthority": true,
          "duration": 0.30000001192092896,
          "elementDurability": 100.0,
          "onAdded": [
            {
              "$type": "RemoveModifier",
              "modifierName": "MonsterNumAtkDefUp_BuffEffect"
            }
          ]
        },
        "EnergyDisk_Blue_MonsterNumAtkDefUp_Mixin": {
          "modifierName": "",
          "elementDurability": 100.0,
          "modifierMixins": [
            {
              "$type": "AttachModifierToSelfGlobalValueMixin",
              "globalValueKey": "_ABILITY_EnergyDisk_MonsterNumAtkDefUp_Enemy",
              "gvInTalk": 0.0,
              "valueSteps": [0.5, 2.5, 999.0],
              "modifierNameSteps": [
                "MonsterNumAtkDefUp_BuffEffect",
                "UNIQUE_MonsterNumAtkDefUp_MoveBuff"
              ]
            }
          ]
        }
      },
      "onAdded": [
        {
          "$type": "AttachModifier",
          "modifierName": "UNIQUE_EnergyDisk_Blue_MonsterNumAtkDefUp"
        },
        {
          "$type": "AttachModifier",
          "modifierName": "EnergyDisk_Blue_MonsterNumAtkDefUp_Mixin"
        },
        {
          "$type": "SetGlobalValue",
          "shieldHP": true,
          "value": 0.0,
          "key": "_ABILITY_EnergyDisk_MonsterNumAtkDefUp_Enemy",
          "maxValue": 0.0,
          "minValue": 0.0
        },
        {
          "$type": "SetGlobalValue",
          "shieldHP": true,
          "value": 0.0,
          "key": "_ABILITY_EnergyDisk_MonsterNumAtkDefUp_Enemy_Count",
          "maxValue": 0.0,
          "minValue": 0.0
        }
      ],
      "isDynamicAbility": true
    }
  },
  {
    "Default": {
      "$type": "ConfigAbility",
      "abilityName": "ActivityAbility_EnergyDisk_Blue_ExtraAtkKillMonster_V2",
      "abilitySpecials": {
        "Damage": 0.0,
        "DamageSystemValue": 0.0,
        "CDTime": 0.0,
        "HPRatio": 0.0
      },
      "modifiers": {
        "UNIQUE_EnergyDisk_Blue_ExtraAtkKillMonster_Total": {
          "stacking": "Unique",
          "modifierName": "",
          "forceTriggerWhenChangeAuthority": true,
          "elementDurability": 100.0,
          "modifierMixins": [
            {
              "$type": "AttachModifierToSelfGlobalValueMixin",
              "globalValueTarget": "MPLevel",
              "globalValueKey": "_Ability_EnergyDisk_ExtraAtkKillMonster_CD",
              "gvInTalk": 0.0,
              "valueSteps": [-1.5, -0.5, 0.5],
              "modifierNameSteps": [
                "UNIQUE_EnergyDisk_ExtraAtkKillMonster_Cd",
                "Blank"
              ]
            }
          ]
        },
        "Blank": {
          "modifierName": "",
          "elementDurability": 100.0
        },
        "UNIQUE_EnergyDisk_Blue_ExtraAtkKillMonster_Handler": {
          "modifierName": "",
          "forceTriggerWhenChangeAuthority": true,
          "elementDurability": 100.0,
          "onAttackLanded": [
            {
              "$type": "Predicated",
              "target": "Other",
              "targetPredicates": [
                {
                  "$type": "ByEntityTypes",
                  "entityTypes": ["Monster"]
                },
                {
                  "$type": "ByAttackTags",
                  "attackTags": ["ExtraAttack"]
                },
                {
                  "$type": "ByTargetHPRatio",
                  "logic": "Lesser",
                  "ratio": "HPRatio"
                }
              ],
              "successActions": [
                {
                  "$type": "ApplyModifier",
                  "target": "Target",
                  "modifierName": "EnergyDisk_ExtraAtkKillMonster_Monster"
                }
              ]
            }
          ]
        },
        "EnergyDisk_ExtraAtkKillMonster_Monster": {
          "stacking": "MultipleRefresh",
          "modifierName": "",
          "duration": 0.10000000149011612,
          "elementDurability": 100.0,
          "onAdded": [
            {
              "$type": "Predicated",
              "target": "MPLevel",
              "targetPredicates": [
                {
                  "$type": "ByTargetGlobalValue",
                  "key": "_Ability_EnergyDisk_ExtraAtkKillMonster_CD",
                  "value": 0.0
                }
              ],
              "successActions": [
                {
                  "$type": "FireEffect",
                  "rotationDampTime": "Eff_EnergyDisk_ExtraAtkWave",
                  "born": {
                    "$type": "ConfigBornByTarget"
                  },
                  "PPPDJGDDOGD": 1.0,
                  "AJDILHJFNKE": -1.0
                },
                {
                  "$type": "DamageByAttackValue",
                  "attackInfo": {
                    "attackTag": "",
                    "attenuationTag": "",
                    "attenuationGroup": "default",
                    "attackProperty": {
                      "actorWindSubHurtDelta": 0.0,
                      "elementDurability": 100.0,
                      "ignoreAttackerProperty": true,
                      "strikeType": "Default",
                      "enBreak": 50.0,
                      "HMBONGBFIAP": ["Damage", "DamageSystemValue", "MUL"],
                      "trueDamage": true,
                      "ignoreModifyDamage": true,
                      "GLKMCMDJBIK": 0.0
                    },
                    "hitPattern": {
                      "onHitEffectName": "default",
                      "hitImpulseY": "",
                      "hitImpulseType": "Default",
                      "hitHaltTimeScale": 0.009999999776482582
                    }
                  }
                },
                {
                  "$type": "ApplyModifier",
                  "target": "MPLevel",
                  "modifierName": "UNIQUE_EnergyDisk_ExtraAtkKill_CD_Change_MPLEVEL"
                }
              ]
            }
          ]
        },
        "UNIQUE_EnergyDisk_ExtraAtkKill_CD_Change_MPLEVEL": {
          "modifierName": "",
          "forceTriggerWhenChangeAuthority": true,
          "duration": 0.10000000149011612,
          "elementDurability": 100.0,
          "onAdded": [
            {
              "$type": "SetGlobalValue",
              "target": "MPLevel",
              "value": -1.0,
              "key": "_Ability_EnergyDisk_ExtraAtkKillMonster_CD",
              "maxValue": 0.0,
              "minValue": 0.0
            }
          ]
        },
        "UNIQUE_EnergyDisk_ExtraAtkKillMonster_Cd": {
          "modifierName": "",
          "forceTriggerWhenChangeAuthority": true,
          "elementDurability": 100.0,
          "thinkInterval": "CDTime",
          "onThinkInterval": [
            {
              "$type": "SetGlobalValue",
              "target": "MPLevel",
              "value": 0.0,
              "key": "_Ability_EnergyDisk_ExtraAtkKillMonster_CD",
              "maxValue": 0.0,
              "minValue": 0.0
            }
          ]
        }
      },
      "onAdded": [
        {
          "$type": "GDHGMAPPGHD",
          "shieldHP": true,
          "key": "DamageSystemValue",
          "damageRatio": "ElementLevelCo"
        },
        {
          "$type": "ApplyModifier",
          "target": "MPLevel",
          "modifierName": "UNIQUE_EnergyDisk_Blue_ExtraAtkKillMonster_Total"
        },
        {
          "$type": "ApplyModifier",
          "modifierName": "UNIQUE_EnergyDisk_Blue_ExtraAtkKillMonster_Handler"
        }
      ],
      "isDynamicAbility": true
    }
  },
  {
    "Default": {
      "$type": "ConfigAbility",
      "abilityName": "ActivityAbility_EnergyDisk_Blue_BuffAfterCrystalShield_V2",
      "abilitySpecials": {
        "CDtime": 0.0
      },
      "modifiers": {
        "UNIQUE_EnergyDisk_Purple_BuffAfterCrystalShield_Total": {
          "stacking": "Unique",
          "modifierName": "",
          "forceTriggerWhenChangeAuthority": true,
          "elementDurability": 100.0,
          "modifierMixins": [
            {
              "$type": "AttachModifierToSelfGlobalValueMixin",
              "globalValueTarget": "MPLevel",
              "globalValueKey": "_Ability_BuffAfterCrystalShield_CD",
              "gvInTalk": 0.0,
              "valueSteps": [-1.5, -0.5, 0.5],
              "modifierNameSteps": [
                "UNIQUE_EnergyDisk_BuffAfterCrystalShield_Cd",
                "Blank"
              ]
            }
          ]
        },
        "Blank": {
          "modifierName": "",
          "elementDurability": 100.0
        },
        "UNIQUE_EnergyDisk_BuffAfterCrystalShield_CD_Change_MPLEVEL": {
          "modifierName": "",
          "forceTriggerWhenChangeAuthority": true,
          "duration": 0.10000000149011612,
          "elementDurability": 100.0,
          "onAdded": [
            {
              "$type": "SetGlobalValue",
              "target": "MPLevel",
              "value": -1.0,
              "key": "_Ability_BuffAfterCrystalShield_CD",
              "maxValue": 0.0,
              "minValue": 0.0
            }
          ]
        },
        "UNIQUE_EnergyDisk_Blue_BuffAfterCrystalShield": {
          "modifierName": "",
          "forceTriggerWhenChangeAuthority": true,
          "elementDurability": 100.0,
          "modifierMixins": [
            {
              "$type": "PGLKGBLKEHF",
              "elementTypes": [
                "Fire",
                "Water",
                "Wind",
                "Ice",
                "Rock",
                "Grass",
                "Electric"
              ],
              "actions": [
                {
                  "$type": "Predicated",
                  "target": "MPLevel",
                  "targetPredicates": [
                    {
                      "$type": "ByTargetGlobalValue",
                      "key": "_Ability_BuffAfterCrystalShield_CD",
                      "value": 0.0
                    }
                  ],
                  "successActions": [
                    {
                      "$type": "ApplyModifier",
                      "target": "AllPlayerAvatars",
                      "modifierName": "UNIQUE_BuffAfterCrystalShield_BuffEffect"
                    },
                    {
                      "$type": "ApplyModifier",
                      "target": "MPLevel",
                      "modifierName": "UNIQUE_EnergyDisk_BuffAfterCrystalShield_CD_Change_MPLEVEL"
                    }
                  ]
                }
              ]
            }
          ]
        },
        "UNIQUE_BuffAfterCrystalShield_BuffEffect": {
          "stacking": "Unique",
          "modifierName": "",
          "forceTriggerWhenChangeAuthority": true,
          "duration": 0.10000000149011612,
          "elementDurability": 100.0,
          "onAdded": [
            {
              "$type": "FireEffect",
              "rotationDampTime": "Eff_Weapon_ExtraElementBall",
              "PPPDJGDDOGD": 1.0,
              "AJDILHJFNKE": -1.0
            },
            {
              "$type": "ReviveElemEnergy",
              "shieldHP": true,
              "value": 2.0
            }
          ]
        },
        "UNIQUE_EnergyDisk_BuffAfterCrystalShield_Cd": {
          "modifierName": "",
          "forceTriggerWhenChangeAuthority": true,
          "elementDurability": 100.0,
          "thinkInterval": "CDtime",
          "onThinkInterval": [
            {
              "$type": "SetGlobalValue",
              "target": "MPLevel",
              "value": 0.0,
              "key": "_Ability_BuffAfterCrystalShield_CD",
              "maxValue": 0.0,
              "minValue": 0.0
            }
          ]
        }
      },
      "onAdded": [
        {
          "$type": "ApplyModifier",
          "target": "MPLevel",
          "modifierName": "UNIQUE_EnergyDisk_Purple_BuffAfterCrystalShield_Total"
        },
        {
          "$type": "AttachModifier",
          "modifierName": "UNIQUE_EnergyDisk_Blue_BuffAfterCrystalShield"
        }
      ],
      "isDynamicAbility": true
    }
  },
  {
    "Default": {
      "$type": "ConfigAbility",
      "abilityName": "ActivityAbility_EnergyDisk_Blue_AddElementBurstLevel_V2",
      "modifiers": {
        "UNIQUE_EnergyDisk_Blue_AddElementBurstLevel": {
          "modifierName": "",
          "forceTriggerWhenChangeAuthority": true,
          "elementDurability": 100.0
        }
      },
      "onAdded": [
        {
          "$type": "AttachModifier",
          "modifierName": "UNIQUE_EnergyDisk_Blue_AddElementBurstLevel"
        }
      ],
      "isDynamicAbility": true
    }
  },
  {
    "Default": {
      "$type": "ConfigAbility",
      "abilityName": "ActivityAbility_EnergyDisk_Blue_KillAOEMonster_V2",
      "modifiers": {
        "UNIQUE_EnergyDisk_Blue_KillAOEMonster": {
          "modifierName": "",
          "forceTriggerWhenChangeAuthority": true,
          "elementDurability": 100.0,
          "modifierMixins": [
            {
              "$type": "MFCOIAIMHEL",
              "detectWindow": 0.6000000238418579,
              "onKill": [
                {
                  "$type": "Predicated",
                  "target": "Other",
                  "targetPredicates": [
                    {
                      "$type": "ByEntityTypes",
                      "entityTypes": ["Monster"]
                    }
                  ],
                  "successActions": [
                    {
                      "$type": "CreateGadget",
                      "target": "Other",
                      "born": {
                        "$type": "ConfigBornByTarget"
                      },
                      "gadgetID": 44000302,
                      "campID": 1001,
                      "campTargetType": "Enemy"
                    }
                  ]
                }
              ]
            }
          ]
        }
      },
      "onAdded": [
        {
          "$type": "AttachModifier",
          "modifierName": "UNIQUE_EnergyDisk_Blue_KillAOEMonster"
        }
      ],
      "isDynamicAbility": true
    }
  },
  {
    "Default": {
      "$type": "ConfigAbility",
      "abilityName": "EnergyDisk_KillAOEMonster_GadgetV2",
      "abilitySpecials": {
        "Delay": 1.0,
        "Damage": 20.0,
        "DamageSystemValue": 0.0
      },
      "modifiers": {
        "SprintAreaAttack": {
          "modifierName": "",
          "duration": "Delay",
          "elementDurability": 100.0,
          "onAdded": [
            {
              "$type": "AttachEffect",
              "rotationDampTime": "Eff_Stages_GainWave_Stay",
              "born": {
                "$type": "ConfigBornByTarget"
              },
              "PPPDJGDDOGD": 1.0,
              "AJDILHJFNKE": -1.0
            }
          ],
          "onRemoved": [
            {
              "$type": "FireEffect",
              "rotationDampTime": "Eff_Stages_GainWave_01",
              "born": {
                "$type": "ConfigBornByTarget"
              },
              "PPPDJGDDOGD": 1.0,
              "AJDILHJFNKE": -1.0
            },
            {
              "$type": "TriggerAttackEvent",
              "target": "OriginOwner",
              "attackEvent": {
                "attackPattern": {
                  "$type": "ConfigAttackSphere",
                  "triggerType": "TriggerNoRepeat",
                  "born": {
                    "$type": "ConfigBornBySelf"
                  },
                  "radius": 4.0
                },
                "attackInfo": {
                  "attackTag": "",
                  "attenuationTag": "",
                  "attenuationGroup": "default",
                  "attackProperty": {
                    "actorWindSubHurtDelta": 0.0,
                    "elementDurability": 100.0,
                    "ignoreAttackerProperty": true,
                    "HMBONGBFIAP": ["Damage", "DamageSystemValue", "MUL"],
                    "trueDamage": true,
                    "ignoreModifyDamage": true,
                    "GLKMCMDJBIK": 0.0
                  },
                  "hitPattern": {
                    "onHitEffectName": "",
                    "hitImpulseY": "",
                    "hitImpulseType": "LV2",
                    "hitHaltTimeScale": 0.05000000074505806
                  },
                  "cameraShake": {}
                }
              },
              "targetType": "Enemy"
            }
          ]
        }
      },
      "onAdded": [
        {
          "$type": "ApplyModifier",
          "modifierName": "SprintAreaAttack"
        },
        {
          "$type": "GDHGMAPPGHD",
          "shieldHP": true,
          "key": "DamageSystemValue",
          "damageRatio": "ElementLevelCo"
        }
      ],
      "isDynamicAbility": true
    }
  },
  {
    "Default": {
      "$type": "ConfigAbility",
      "abilityName": "ActivityAbility_EnergyDisk_Green_PhysicalHurtUp_V2",
      "abilitySpecials": {
        "EnergyDisk_PhysicalAddHurtDelta": 0.0
      },
      "modifiers": {
        "EnergyDisk_Green_PhysicalHurtUp": {
          "modifierName": "",
          "elementDurability": 100.0,
          "properties": {
            "Actor_PhysicalAddHurtDelta": "EnergyDisk_PhysicalAddHurtDelta"
          },
          "isLimitedProperties": true
        }
      },
      "onAdded": [
        {
          "$type": "AttachModifier",
          "modifierName": "EnergyDisk_Green_PhysicalHurtUp"
        }
      ],
      "isDynamicAbility": true
    }
  },
  {
    "Default": {
      "$type": "ConfigAbility",
      "abilityName": "ActivityAbility_EnergyDisk_Green_BurstDamageUp_V2",
      "abilitySpecials": {
        "Burst_Rate": 0.0
      },
      "modifiers": {
        "UNIQUE_EnergyDisk_Green_BurstDamageUp": {
          "modifierName": "",
          "forceTriggerWhenChangeAuthority": true,
          "elementDurability": 100.0,
          "modifierMixins": [
            {
              "$type": "ModifyDamageMixin",
              "attackTags": ["Elemental_Burst"],
              "actorWindSubHurtDelta": "Burst_Rate"
            }
          ],
          "isLimitedProperties": true
        }
      },
      "onAdded": [
        {
          "$type": "ApplyModifier",
          "modifierName": "UNIQUE_EnergyDisk_Green_BurstDamageUp"
        }
      ],
      "isDynamicAbility": true
    }
  },
  {
    "Default": {
      "$type": "ConfigAbility",
      "abilityName": "ActivityAbility_EnergyDisk_Green_ElemMasteryDeltaUp_V2",
      "abilitySpecials": {
        "EnergyDisk_ElemMasteryDelta": 0.0
      },
      "modifiers": {
        "EnergyDisk_Green_ElemMasteryDeltaUp": {
          "modifierName": "",
          "elementDurability": 100.0,
          "properties": {
            "Actor_ElemMasteryDelta": "EnergyDisk_ElemMasteryDelta"
          },
          "reduceDurablityIgnoreTimeScale": true
        }
      },
      "onAdded": [
        {
          "$type": "AttachModifier",
          "modifierName": "EnergyDisk_Green_ElemMasteryDeltaUp"
        }
      ],
      "isDynamicAbility": true
    }
  },
  {
    "Default": {
      "$type": "ConfigAbility",
      "abilityName": "ActivityAbility_EnergyDisk_Green_DefUp_V2",
      "abilitySpecials": {
        "Actor_ShieldCostMinusRatio": 0.0
      },
      "modifiers": {
        "UNIQUE_EnergyDisk_Green_DefUp": {
          "modifierName": "",
          "forceTriggerWhenChangeAuthority": true,
          "elementDurability": 100.0,
          "properties": {
            "Actor_ShieldCostMinusRatio": "Actor_ShieldCostMinusRatio"
          },
          "isLimitedProperties": true
        }
      },
      "onAdded": [
        {
          "$type": "AttachModifier",
          "modifierName": "UNIQUE_EnergyDisk_Green_DefUp"
        }
      ],
      "isDynamicAbility": true
    }
  },
  {
    "Default": {
      "$type": "ConfigAbility",
      "abilityName": "ActivityAbility_EnergyDisk_Green_ExtraAtkUp_V2",
      "abilityMixins": [
        {
          "$type": "ModifyDamageMixin",
          "attackTags": [
            "NormalAttack_01",
            "NormalAttack_02",
            "NormalAttack_03",
            "NormalAttack_04",
            "NormalAttack_05",
            "NormalAttack_06"
          ],
          "actorWindSubHurtDelta": "NormalAttack_Rate"
        }
      ],
      "abilitySpecials": {
        "NormalAttack_Rate": 0.0
      },
      "isDynamicAbility": true
    }
  },
  {
    "Default": {
      "$type": "ConfigAbility",
      "abilityName": "ActivityAbility_EnergyDisk_Green_ThumpDamageUp_V2",
      "abilitySpecials": {
        "EnergyDisk_ExtraAtk_damRatio": 0.0
      },
      "modifiers": {
        "UNIQUE_EnergyDisk_Green_ThumpDamageUp": {
          "stacking": "Unique",
          "modifierName": "",
          "forceTriggerWhenChangeAuthority": true,
          "elementDurability": 100.0,
          "modifierMixins": [
            {
              "$type": "ModifyDamageMixin",
              "attackTags": ["ExtraAttack"],
              "actorWindSubHurtDelta": "EnergyDisk_ExtraAtk_damRatio"
            }
          ],
          "isLimitedProperties": true
        }
      },
      "onAdded": [
        {
          "$type": "ApplyModifier",
          "modifierName": "UNIQUE_EnergyDisk_Green_ThumpDamageUp"
        }
      ],
      "isDynamicAbility": true
    }
  },
  {
    "Default": {
      "$type": "ConfigAbility",
      "abilityName": "ActivityAbility_EnergyDisk_Purple_BurstDamageUp_V2",
      "abilitySpecials": {
        "Bufftime": 0.0,
        "BurstDamageUp": 0.0,
        "AttackSpeed_Ratio": 0.0
      },
      "modifiers": {
        "EnergyDisk_Purple_BurstDamageUp_Handler": {
          "modifierName": "",
          "elementDurability": 100.0,
          "modifierMixins": [
            {
              "$type": "OnAvatarUseSkillMixin",
              "onTriggerUltimateSkill": [
                {
                  "$type": "ApplyModifier",
                  "target": "MPLevel",
                  "modifierName": "EnergyDisk_ElementBurst_Layer_AddGV_MPLevel"
                },
                {
                  "$type": "ApplyModifier",
                  "target": "MPLevel",
                  "modifierName": "UNIQUE_EnergyDisk_ElementBurst_Layer_Reset_MPLEVEL_V2"
                }
              ],
              "clearSkillIdDelay": 0.20000000298023224
            }
          ]
        },
        "EnergyDisk_ElementBurst_Layer_AddGV_MPLevel": {
          "modifierName": "",
          "duration": 0.10000000149011612,
          "elementDurability": 100.0,
          "onAdded": [
            {
              "$type": "AddGlobalValue",
              "target": "MPLevel",
              "value": 1.0,
              "key": "_ABILITY_EnergyDisk_Purple_BurstLevel",
              "useLimitRange": true,
              "maxValue": 5.0,
              "minValue": 0.0
            }
          ]
        },
        "UNIQUE_EnergyDisk_Purple_BurstDamageUp_MPLevelHandler": {
          "modifierName": "",
          "forceTriggerWhenChangeAuthority": true,
          "elementDurability": 100.0,
          "modifierMixins": [
            {
              "$type": "AttachModifierToSelfGlobalValueMixin",
              "globalValueTarget": "MPLevel",
              "globalValueKey": "_ABILITY_EnergyDisk_Purple_BurstLevel",
              "gvInTalk": 0.0,
              "valueSteps": [-0.5, 0.5, 1.5, 2.5, 3.5, 4.5, 10.5],
              "modifierNameSteps": [
                "Blank",
                "EnergyDisk_ElementBurst_BurstDamageUp_Layer01",
                "EnergyDisk_ElementBurst_BurstDamageUp_Layer02",
                "EnergyDisk_ElementBurst_BurstDamageUp_Layer03",
                "EnergyDisk_ElementBurst_BurstDamageUp_Layer04",
                "EnergyDisk_ElementBurst_BurstDamageUp_Layer05"
              ]
            }
          ]
        },
        "Blank": {
          "modifierName": "",
          "elementDurability": 100.0
        },
        "EnergyDisk_ElementBurst_BurstDamageUp_Layer01": {
          "modifierName": "",
          "elementDurability": 100.0,
          "modifierMixins": [
            {
              "$type": "ModifyDamageMixin",
              "attackTags": ["Elemental_Burst"],
              "actorWindSubHurtDelta": "BurstDamageUp"
            }
          ]
        },
        "EnergyDisk_ElementBurst_BurstDamageUp_Layer02": {
          "modifierName": "",
          "elementDurability": 100.0,
          "modifierMixins": [
            {
              "$type": "ModifyDamageMixin",
              "attackTags": ["Elemental_Burst"],
              "actorWindSubHurtDelta": ["BurstDamageUp", 2.0, "MUL"]
            }
          ]
        },
        "EnergyDisk_ElementBurst_BurstDamageUp_Layer03": {
          "modifierName": "",
          "elementDurability": 100.0,
          "modifierMixins": [
            {
              "$type": "ModifyDamageMixin",
              "attackTags": ["Elemental_Burst"],
              "actorWindSubHurtDelta": ["BurstDamageUp", 3.0, "MUL"]
            }
          ]
        },
        "EnergyDisk_ElementBurst_BurstDamageUp_Layer04": {
          "modifierName": "",
          "elementDurability": 100.0,
          "modifierMixins": [
            {
              "$type": "ModifyDamageMixin",
              "attackTags": ["Elemental_Burst"],
              "actorWindSubHurtDelta": ["BurstDamageUp", 4.0, "MUL"]
            }
          ]
        },
        "EnergyDisk_ElementBurst_BurstDamageUp_Layer05": {
          "modifierName": "",
          "elementDurability": 100.0,
          "modifierMixins": [
            {
              "$type": "ModifyDamageMixin",
              "attackTags": ["Elemental_Burst"],
              "actorWindSubHurtDelta": ["BurstDamageUp", 5.0, "MUL"]
            }
          ],
          "properties": {
            "Animator_AttackSpeedRatio": "AttackSpeed_Ratio"
          }
        },
        "UNIQUE_EnergyDisk_ElementBurst_Layer_Reset_MPLEVEL_V2": {
          "modifierName": "",
          "forceTriggerWhenChangeAuthority": true,
          "duration": 0.10000000149011612,
          "elementDurability": 100.0,
          "onAdded": [
            {
              "$type": "DebugLog",
              "content": "刷新时间"
            },
            {
              "$type": "RemoveUniqueModifier",
              "target": "MPLevel",
              "modifierName": "UNIQUE_EnergyDisk_ElementBurst_Layer_Reset_MPLEVEL_Time_V2"
            },
            {
              "$type": "ApplyModifier",
              "target": "MPLevel",
              "modifierName": "UNIQUE_EnergyDisk_ElementBurst_Layer_Reset_MPLEVEL_Time_V2"
            }
          ]
        },
        "UNIQUE_EnergyDisk_ElementBurst_Layer_Reset_MPLEVEL_Time_V2": {
          "modifierName": "",
          "forceTriggerWhenChangeAuthority": true,
          "elementDurability": 100.0,
          "thinkInterval": "Bufftime",
          "onThinkInterval": [
            {
              "$type": "SetGlobalValue",
              "target": "MPLevel",
              "value": 0.0,
              "key": "_ABILITY_EnergyDisk_Purple_BurstLevel",
              "maxValue": 0.0,
              "minValue": 0.0
            },
            {
              "$type": "DebugLog",
              "content": "重置为0"
            }
          ]
        }
      },
      "onAdded": [
        {
          "$type": "AttachModifier",
          "modifierName": "EnergyDisk_Purple_BurstDamageUp_Handler"
        },
        {
          "$type": "ApplyModifier",
          "modifierName": "UNIQUE_EnergyDisk_Purple_BurstDamageUp_MPLevelHandler"
        }
      ],
      "isDynamicAbility": true
    }
  },
  {
    "Default": {
      "$type": "ConfigAbility",
      "abilityName": "ActivityAbility_EnergyDisk_Blue_ShockCdMinus_V2",
      "abilitySpecials": {
        "CD_Interval": 0.0,
        "CD_Minus": 0.0
      },
      "modifiers": {
        "EnergyDisk_Blue_ShockCdMinus": {
          "modifierName": "",
          "elementDurability": 100.0,
          "modifierMixins": [
            {
              "$type": "DoActionByElementReactionMixin",
              "entityTypes": ["Monster"],
              "reactionTypes": ["Shock"],
              "actions": [
                {
                  "$type": "AttachModifier",
                  "target": "Team",
                  "modifierName": "UNIQUE_EnergyDisk_Blue_ShockCdMinus_OnTeam"
                }
              ]
            }
          ]
        },
        "UNIQUE_EnergyDisk_Blue_ShockCdMinus_OnTeam": {
          "stacking": "Unique",
          "modifierName": "",
          "forceTriggerWhenChangeAuthority": true,
          "duration": "CD_Interval",
          "elementDurability": 100.0,
          "onAdded": [
            {
              "$type": "ModifyAvatarSkillCD",
              "target": "CurTeamAvatars",
              "shieldHP": true,
              "skillSlot": [5],
              "cdMin": [0.0, 1.0, "CD_Minus", "MUL", "SUB"]
            }
          ]
        }
      },
      "onAdded": [
        {
          "$type": "AttachModifier",
          "modifierName": "EnergyDisk_Blue_ShockCdMinus"
        }
      ],
      "isDynamicAbility": true
    }
  }
]
