[
  {
    "Default": {
      "$type": "ConfigAbility",
      "abilityName": "ActivityAbility_ArenaChallenge_TestAbility",
      "isDynamicAbility": true
    }
  },
  {
    "Default": {
      "$type": "ConfigAbility",
      "abilityName": "ActivityAbility_ArenaChallenge_UltimateSkillDamageUp",
      "abilityMixins": [
        {
          "$type": "AttachModifierToGlobalValueMixin",
          "globalValueTarget": "Team",
          "globalValueKey": "SGV_CHANGE_STAGE",
          "valueSteps": [-0.5, 0.5, 1.5],
          "modifierNameSteps": [
            "UNIQUE_Activity_ArenaChallenge_UltimateSkillDamageUp_LV1",
            "UNIQUE_Activity_ArenaChallenge_UltimateSkillDamageUp_LV2"
          ]
        }
      ],
      "abilitySpecials": {
        "DamageUpRatio": 0.0,
        "DamageUpRatioLV2": 0.0
      },
      "modifiers": {
        "UNIQUE_Activity_ArenaChallenge_UltimateSkillDamageUp_LV1": {
          "stacking": "Unique",
          "modifierName": "",
          "forceTriggerWhenChangeAuthority": true,
          "elementDurability": 100.0,
          "modifierMixins": [
            {
              "$type": "ModifyDamageMixin",
              "attackTags": ["Elemental_Burst"],
              "actorWindSubHurtDelta": "DamageUpRatio"
            }
          ]
        },
        "UNIQUE_Activity_ArenaChallenge_UltimateSkillDamageUp_LV2": {
          "stacking": "Unique",
          "modifierName": "",
          "forceTriggerWhenChangeAuthority": true,
          "elementDurability": 100.0,
          "modifierMixins": [
            {
              "$type": "ModifyDamageMixin",
              "attackTags": ["Elemental_Burst"],
              "actorWindSubHurtDelta": "DamageUpRatioLV2"
            }
          ]
        }
      },
      "isDynamicAbility": true
    }
  },
  {
    "Default": {
      "$type": "ConfigAbility",
      "abilityName": "ActivityAbility_ArenaChallenge_ReviveEnergy",
      "abilityMixins": [
        {
          "$type": "AttachModifierToGlobalValueMixin",
          "globalValueTarget": "Team",
          "globalValueKey": "SGV_CHANGE_STAGE",
          "valueSteps": [0.5, 1.5],
          "modifierNameSteps": ["UNIQUE_Activity_ArenaChallenge_ReviveEnergy"]
        }
      ],
      "abilitySpecials": {
        "ReviveInterval": 0.0,
        "EnergyValue": 0.0
      },
      "modifiers": {
        "UNIQUE_Activity_ArenaChallenge_ReviveEnergy": {
          "stacking": "Unique",
          "modifierName": "",
          "forceTriggerWhenChangeAuthority": true,
          "elementDurability": 100.0,
          "thinkInterval": "ReviveInterval",
          "onThinkInterval": [
            {
              "$type": "ReviveElemEnergy",
              "target": "AllPlayerAvatars",
              "value": "EnergyValue"
            }
          ],
          "isLimitedProperties": true
        }
      },
      "isDynamicAbility": true
    }
  },
  {
    "Default": {
      "$type": "ConfigAbility",
      "abilityName": "ActivityAbility_ArenaChallenge_TriggerUltimateSkill",
      "modifiers": {
        "UNIQUE_Activity_ArenaChallenge_TriggerUltimateSkill": {
          "stacking": "Unique",
          "modifierName": "",
          "forceTriggerWhenChangeAuthority": true,
          "elementDurability": 100.0,
          "modifierMixins": [
            {
              "$type": "OnAvatarUseSkillMixin",
              "onTriggerUltimateSkill": [
                {
                  "$type": "AHPEKICBIIL",
                  "luaCallType": "CurGalleryControlGroup",
                  "funcName": "SLC_State_Condition_Complete",
                  "param1": 0.0,
                  "MGAMDEHMCOL": 0.0,
                  "MMHOHAOGPLP": 0.0
                }
              ],
              "clearSkillIdDelay": 0.20000000298023224
            }
          ]
        }
      },
      "onAdded": [
        {
          "$type": "AttachModifier",
          "modifierName": "UNIQUE_Activity_ArenaChallenge_TriggerUltimateSkill"
        }
      ],
      "isDynamicAbility": true
    }
  },
  {
    "Default": {
      "$type": "ConfigAbility",
      "abilityName": "ActivityAbility_ArenaChallenge_Steam_Melt_DamageUp",
      "abilitySpecials": {
        "SteamDamageUp": 0.0,
        "MeltDamageUp": 0.0
      },
      "modifiers": {
        "UNIQUE_Activity_ArenaChallenge_Steam_Melt_DamageUp": {
          "stacking": "Unique",
          "modifierName": "",
          "forceTriggerWhenChangeAuthority": true,
          "elementDurability": 100.0,
          "properties": {
            "Actor_ElemReactSteamDelta": "SteamDamageUp",
            "Actor_ElemReactMeltDelta": "MeltDamageUp"
          },
          "isLimitedProperties": true
        }
      },
      "onAdded": [
        {
          "$type": "AttachModifier",
          "modifierName": "UNIQUE_Activity_ArenaChallenge_Steam_Melt_DamageUp"
        }
      ],
      "isDynamicAbility": true
    }
  },
  {
    "Default": {
      "$type": "ConfigAbility",
      "abilityName": "ActivityAbility_ArenaChallenge_Purple_After_Steam_Melt",
      "abilityMixins": [
        {
          "$type": "AttachModifierToGlobalValueMixin",
          "globalValueTarget": "Team",
          "globalValueKey": "SGV_CHANGE_STAGE",
          "valueSteps": [0.5, 1.5],
          "modifierNameSteps": [
            "UNIQUE_Activity_ArenaChallenge_Purple_After_Steam_Melt"
          ]
        }
      ],
      "abilitySpecials": {
        "GenerateCDTime": 0.0,
        "GeneratePurpleState": 0.0,
        "PurpleDamageValue": 0.0,
        "ImpactDamageSystemValue": 0.0
      },
      "modifiers": {
        "UNIQUE_Activity_ArenaChallenge_Purple_After_Steam_Melt": {
          "stacking": "Unique",
          "modifierName": "",
          "forceTriggerWhenChangeAuthority": true,
          "elementDurability": 100.0,
          "modifierMixins": [
            {
              "$type": "DoActionByElementReactionMixin",
              "range": 40.0,
              "entityTypes": ["Monster"],
              "reactionTypes": ["Stream", "Melt"],
              "actions": [
                {
                  "$type": "Predicated",
                  "target": "Other",
                  "shieldHP": true,
                  "targetPredicates": [
                    {
                      "$type": "ByTargetGlobalValue",
                      "target": "Team",
                      "key": "GeneratePurpleState",
                      "value": 0.0,
                      "compareType": "NoneOrEqual"
                    }
                  ],
                  "successActions": [
                    {
                      "$type": "ApplyModifier",
                      "target": "Target",
                      "shieldHP": true,
                      "modifierName": "Activity_ArenaChallenge_Purple_After_Steam_Melt_GeneratePurple_Delay"
                    },
                    {
                      "$type": "ApplyModifier",
                      "target": "Team",
                      "shieldHP": true,
                      "modifierName": "UNIQUE_Activity_ArenaChallenge_Purple_After_Steam_Melt_CD"
                    }
                  ]
                }
              ]
            }
          ]
        },
        "Activity_ArenaChallenge_Purple_After_Steam_Melt_GeneratePurple_Delay": {
          "modifierName": "",
          "duration": 0.05000000074505806,
          "elementDurability": 100.0,
          "onAdded": [
            {
              "$type": "FireEffect",
              "rotationDampTime": "Eff_EnergyDisk_ElementalBurst_Wave_R40",
              "PPPDJGDDOGD": 1.0,
              "AJDILHJFNKE": -1.0
            },
            {
              "$type": "TriggerAttackEvent",
              "target": "Caster",
              "attackEvent": {
                "attackPattern": {
                  "$type": "ConfigAttackSphere",
                  "triggerType": "TriggerNoRepeat",
                  "born": {
                    "$type": "ConfigBornBySelf"
                  },
                  "radius": 4.0
                },
                "attackInfo": {
                  "attackTag": "",
                  "attenuationTag": "",
                  "attenuationGroup": "default",
                  "attackProperty": {
                    "actorWindSubHurtDelta": 0.0,
                    "elementDurability": 0.0,
                    "ignoreAttackerProperty": true,
                    "enBreak": 0.0,
                    "attackType": "Melee",
                    "HMBONGBFIAP": [
                      "PurpleDamageValue",
                      "ImpactDamageSystemValue",
                      "MUL"
                    ],
                    "trueDamage": true,
                    "ignoreModifyDamage": true,
                    "GLKMCMDJBIK": 0.0
                  },
                  "hitPattern": {
                    "onHitEffectName": "default",
                    "hitImpulseY": "",
                    "hitImpulseType": "LV2",
                    "hitHaltTimeScale": 0.019999999552965164
                  },
                  "canBeModifiedBy": "OriginOwner"
                }
              },
              "targetType": "Enemy"
            }
          ]
        },
        "UNIQUE_Activity_ArenaChallenge_Purple_After_Steam_Melt_CD": {
          "stacking": "Unique",
          "modifierName": "",
          "forceTriggerWhenChangeAuthority": true,
          "duration": "GenerateCDTime",
          "elementDurability": 100.0,
          "onAdded": [
            {
              "$type": "SetGlobalValue",
              "value": -1.0,
              "key": "GeneratePurpleState",
              "maxValue": 0.0,
              "minValue": 0.0
            }
          ],
          "onRemoved": [
            {
              "$type": "SetGlobalValue",
              "value": 0.0,
              "key": "GeneratePurpleState",
              "maxValue": 0.0,
              "minValue": 0.0
            }
          ]
        }
      },
      "onAdded": [
        {
          "$type": "GDHGMAPPGHD",
          "shieldHP": true,
          "key": "ImpactDamageSystemValue",
          "damageRatio": "ElementLevelCo"
        }
      ],
      "isDynamicAbility": true
    }
  },
  {
    "Default": {
      "$type": "ConfigAbility",
      "abilityName": "ActivityAbility_ArenaChallenge_TriggerReact_Steam_Melt",
      "abilitySpecials": {
        "Steam_Melt_CD": 0.0
      },
      "modifiers": {
        "UNIQUE_Activity_ArenaChallenge_TriggerReact_Steam_Melt": {
          "stacking": "Unique",
          "modifierName": "",
          "forceTriggerWhenChangeAuthority": true,
          "elementDurability": 100.0,
          "modifierMixins": [
            {
              "$type": "DoActionByElementReactionMixin",
              "range": 40.0,
              "entityTypes": ["Monster"],
              "reactionTypes": ["Stream", "Melt"],
              "actions": [
                {
                  "$type": "AHPEKICBIIL",
                  "shieldHP": true,
                  "predicates": [
                    {
                      "$type": "ByTargetGlobalValue",
                      "target": "Team",
                      "key": "Steam_Melt_CDState",
                      "value": 0.0,
                      "compareType": "NoneOrEqual"
                    }
                  ],
                  "luaCallType": "CurGalleryControlGroup",
                  "funcName": "SLC_State_Condition_Complete",
                  "param1": 0.0,
                  "MGAMDEHMCOL": 0.0,
                  "MMHOHAOGPLP": 0.0
                },
                {
                  "$type": "ApplyModifier",
                  "target": "Team",
                  "shieldHP": true,
                  "modifierName": "UNIQUE_Activity_ArenaChallenge_TriggerReact_Steam_Melt_CD"
                }
              ]
            }
          ]
        },
        "UNIQUE_Activity_ArenaChallenge_TriggerReact_Steam_Melt_CD": {
          "stacking": "Unique",
          "modifierName": "",
          "forceTriggerWhenChangeAuthority": true,
          "duration": "Steam_Melt_CD",
          "elementDurability": 100.0,
          "onAdded": [
            {
              "$type": "SetGlobalValue",
              "target": "Team",
              "value": -1.0,
              "key": "Steam_Melt_CDState",
              "maxValue": 0.0,
              "minValue": 0.0
            }
          ],
          "onRemoved": [
            {
              "$type": "SetGlobalValue",
              "target": "Team",
              "value": 0.0,
              "key": "Steam_Melt_CDState",
              "maxValue": 0.0,
              "minValue": 0.0
            }
          ]
        }
      },
      "onAdded": [
        {
          "$type": "AttachModifier",
          "modifierName": "UNIQUE_Activity_ArenaChallenge_TriggerReact_Steam_Melt"
        }
      ],
      "isDynamicAbility": true
    }
  },
  {
    "Default": {
      "$type": "ConfigAbility",
      "abilityName": "ActivityAbility_ArenaChallenge_ElectricReact_EnermyDefenceDown",
      "abilitySpecials": {
        "DefenceDownDuration": 0.0,
        "DefecnceDownRatio": 0.0,
        "DefecnceDownRatio_LV2": 0.0
      },
      "modifiers": {
        "UNIQUE_Activity_ArenaChallenge_ElectricReact_EnermyDefenceDown_Decision_ElectricReact": {
          "stacking": "Unique",
          "modifierName": "",
          "forceTriggerWhenChangeAuthority": true,
          "elementDurability": 100.0,
          "modifierMixins": [
            {
              "$type": "DoActionByElementReactionMixin",
              "range": 40.0,
              "entityTypes": ["Monster"],
              "reactionTypes": [
                "Superconductor",
                "Shock",
                "Explode",
                "SwirlElectric"
              ],
              "actions": [
                {
                  "$type": "Predicated",
                  "target": "Other",
                  "shieldHP": true,
                  "predicates": [
                    {
                      "$type": "ByTargetGlobalValue",
                      "target": "Team",
                      "key": "SGV_CHANGE_STAGE",
                      "value": 1.0
                    }
                  ],
                  "successActions": [
                    {
                      "$type": "ApplyModifier",
                      "target": "Other",
                      "shieldHP": true,
                      "modifierName": "UNIQUE_Activity_ArenaChallenge_ElectricReact_EnermyDefenceDown_Action_DefenceDown_LV2"
                    }
                  ]
                },
                {
                  "$type": "Predicated",
                  "target": "Other",
                  "shieldHP": true,
                  "predicates": [
                    {
                      "$type": "ByTargetGlobalValue",
                      "target": "Team",
                      "key": "SGV_CHANGE_STAGE",
                      "value": 0.0,
                      "compareType": "NoneOrEqual"
                    }
                  ],
                  "successActions": [
                    {
                      "$type": "ApplyModifier",
                      "target": "Other",
                      "shieldHP": true,
                      "modifierName": "UNIQUE_Activity_ArenaChallenge_ElectricReact_EnermyDefenceDown_Action_DefenceDown_LV1"
                    }
                  ]
                }
              ]
            }
          ]
        },
        "UNIQUE_Activity_ArenaChallenge_ElectricReact_EnermyDefenceDown_Action_DefenceDown_LV1": {
          "stacking": "MultipleAllRefresh",
          "stackingOption": {
            "abilitySpecialName": "",
            "maxModifierNumForMultipleType": 1.0,
            "enableMixedUnique": true
          },
          "modifierName": "",
          "forceTriggerWhenChangeAuthority": true,
          "duration": "DefenceDownDuration",
          "elementDurability": 100.0,
          "properties": {
            "Actor_DefenceRatio": [0.0, 1.0, "DefecnceDownRatio", "MUL", "SUB"]
          },
          "state": "DefenseDown"
        },
        "UNIQUE_Activity_ArenaChallenge_ElectricReact_EnermyDefenceDown_Action_DefenceDown_LV2": {
          "stacking": "MultipleAllRefresh",
          "stackingOption": {
            "abilitySpecialName": "",
            "maxModifierNumForMultipleType": 1.0,
            "enableMixedUnique": true
          },
          "modifierName": "",
          "forceTriggerWhenChangeAuthority": true,
          "duration": "DefenceDownDuration",
          "elementDurability": 100.0,
          "properties": {
            "Actor_DefenceRatio": [
              0.0,
              1.0,
              "DefecnceDownRatio_LV2",
              "MUL",
              "SUB"
            ]
          },
          "state": "DefenseDown",
          "onAdded": [
            {
              "$type": "RemoveUniqueModifier",
              "modifierName": "UNIQUE_Activity_ArenaChallenge_ElectricReact_EnermyDefenceDown_Action_DefenceDown_LV1"
            }
          ]
        }
      },
      "onAdded": [
        {
          "$type": "AttachModifier",
          "modifierName": "UNIQUE_Activity_ArenaChallenge_ElectricReact_EnermyDefenceDown_Decision_ElectricReact"
        }
      ],
      "isDynamicAbility": true
    }
  },
  {
    "Default": {
      "$type": "ConfigAbility",
      "abilityName": "ActivityAbility_ArenaChallenge_ElectricReact_GenerateEnergyBall",
      "abilityMixins": [
        {
          "$type": "AttachModifierToGlobalValueMixin",
          "globalValueTarget": "Team",
          "globalValueKey": "SGV_CHANGE_STAGE",
          "valueSteps": [0.5, 1.5],
          "modifierNameSteps": [
            "UNIQUE_Activity_ArenaChallenge_ElectricReact_GenerateEnergyBall"
          ]
        }
      ],
      "abilitySpecials": {
        "EnergyBall_CD": 0.0
      },
      "modifiers": {
        "UNIQUE_Activity_ArenaChallenge_ElectricReact_GenerateEnergyBall": {
          "stacking": "Unique",
          "modifierName": "",
          "forceTriggerWhenChangeAuthority": true,
          "elementDurability": 100.0,
          "modifierMixins": [
            {
              "$type": "DoActionByElementReactionMixin",
              "range": 40.0,
              "entityTypes": ["Monster"],
              "reactionTypes": [
                "Superconductor",
                "Electric",
                "Explode",
                "SwirlElectric"
              ],
              "actions": [
                {
                  "$type": "GenerateElemBall",
                  "target": "CurLocalAvatar",
                  "shieldHP": true,
                  "predicates": [
                    {
                      "$type": "ByTargetGlobalValue",
                      "target": "Team",
                      "key": "EnergyBall_CDState",
                      "value": 0.0,
                      "compareType": "NoneOrEqual"
                    }
                  ],
                  "configID": 2024,
                  "born": {
                    "$type": "ConfigBornByTarget",
                    "offset": {
                      "x": 0.0,
                      "y": 0.0,
                      "z": -0.5
                    },
                    "bornRandom": {
                      "$type": "BornRandomFromCenter",
                      "minRandomRange": 1.0,
                      "maxRandomRange": 2.0
                    }
                  },
                  "hpRatio": 1.0,
                  "baseEnergy": 6.0
                },
                {
                  "$type": "FireEffect",
                  "predicates": [
                    {
                      "$type": "ByTargetGlobalValue",
                      "target": "Team",
                      "key": "EnergyBall_CDState",
                      "value": 0.0,
                      "compareType": "NoneOrEqual"
                    }
                  ],
                  "rotationDampTime": "Eff_Weapon_ExtraElementBall",
                  "PPPDJGDDOGD": 1.0,
                  "AJDILHJFNKE": -1.0
                },
                {
                  "$type": "ApplyModifier",
                  "target": "Team",
                  "shieldHP": true,
                  "modifierName": "UNIQUE_Activity_ArenaChallenge_ElectricReact_GenerateEnergyBall_CD"
                }
              ]
            }
          ]
        },
        "UNIQUE_Activity_ArenaChallenge_ElectricReact_GenerateEnergyBall_CD": {
          "stacking": "Unique",
          "modifierName": "",
          "forceTriggerWhenChangeAuthority": true,
          "duration": "EnergyBall_CD",
          "elementDurability": 100.0,
          "onAdded": [
            {
              "$type": "SetGlobalValue",
              "target": "Team",
              "value": -1.0,
              "key": "EnergyBall_CDState",
              "maxValue": 0.0,
              "minValue": 0.0
            }
          ],
          "onRemoved": [
            {
              "$type": "SetGlobalValue",
              "target": "Team",
              "value": 0.0,
              "key": "EnergyBall_CDState",
              "maxValue": 0.0,
              "minValue": 0.0
            }
          ]
        }
      },
      "isDynamicAbility": true
    }
  },
  {
    "Default": {
      "$type": "ConfigAbility",
      "abilityName": "ActivityAbility_ArenaChallenge_TriggerReact_Electric",
      "abilitySpecials": {
        "ElectricReact_CD": 0.0
      },
      "modifiers": {
        "UNIQUE_Activity_ArenaChallenge_TriggerReact_Electric": {
          "stacking": "Unique",
          "modifierName": "",
          "forceTriggerWhenChangeAuthority": true,
          "elementDurability": 100.0,
          "modifierMixins": [
            {
              "$type": "DoActionByElementReactionMixin",
              "range": 40.0,
              "entityTypes": ["Monster"],
              "reactionTypes": [
                "Superconductor",
                "Explode",
                "Electric",
                "SwirlElectric"
              ],
              "actions": [
                {
                  "$type": "AHPEKICBIIL",
                  "shieldHP": true,
                  "predicates": [
                    {
                      "$type": "ByTargetGlobalValue",
                      "target": "Team",
                      "key": "ElectricReact_CDState",
                      "value": 0.0,
                      "compareType": "NoneOrEqual"
                    }
                  ],
                  "luaCallType": "CurGalleryControlGroup",
                  "funcName": "SLC_State_Condition_Complete",
                  "param1": 0.0,
                  "MGAMDEHMCOL": 0.0,
                  "MMHOHAOGPLP": 0.0
                },
                {
                  "$type": "ApplyModifier",
                  "target": "Team",
                  "shieldHP": true,
                  "modifierName": "UNIQUE_Activity_ArenaChallenge_TriggerReact_Electric_CD"
                }
              ]
            }
          ]
        },
        "UNIQUE_Activity_ArenaChallenge_TriggerReact_Electric_CD": {
          "stacking": "Unique",
          "modifierName": "",
          "forceTriggerWhenChangeAuthority": true,
          "duration": "ElectricReact_CD",
          "elementDurability": 100.0,
          "onAdded": [
            {
              "$type": "SetGlobalValue",
              "target": "Team",
              "value": -1.0,
              "key": "ElectricReact_CDState",
              "maxValue": 0.0,
              "minValue": 0.0
            }
          ],
          "onRemoved": [
            {
              "$type": "SetGlobalValue",
              "target": "Team",
              "value": 0.0,
              "key": "ElectricReact_CDState",
              "maxValue": 0.0,
              "minValue": 0.0
            }
          ]
        }
      },
      "onAdded": [
        {
          "$type": "AttachModifier",
          "modifierName": "UNIQUE_Activity_ArenaChallenge_TriggerReact_Electric"
        }
      ],
      "isDynamicAbility": true
    }
  },
  {
    "Default": {
      "$type": "ConfigAbility",
      "abilityName": "ActivityAbility_ArenaChallenge_SwirlReact_DamageUp",
      "abilityMixins": [
        {
          "$type": "EEPKCGMKKJC",
          "modifierName": "UNIQUE_Activity_ArenaChallenge_SwirlReact_DamageUp_Decision_SwirlReact"
        },
        {
          "$type": "AttachModifierToGlobalValueMixin",
          "globalValueTarget": "Team",
          "globalValueKey": "IsTriggerSwirlReact",
          "valueSteps": [0.5, 1.5],
          "modifierNameSteps": [
            "UNIQUE_Activity_ArenaChallenge_SwirlReact_DamageUp_Action_Timer_Handler"
          ]
        }
      ],
      "abilitySpecials": {
        "DamageUpDuration": 0.0,
        "DamageUpRatio": 0.0,
        "DamageUpRatio_LV2": 0.0,
        "DamageUpState": 0.0
      },
      "modifiers": {
        "UNIQUE_Activity_ArenaChallenge_SwirlReact_DamageUp_Decision_SwirlReact": {
          "stacking": "Unique",
          "modifierName": "",
          "forceTriggerWhenChangeAuthority": true,
          "elementDurability": 100.0,
          "modifierMixins": [
            {
              "$type": "DoActionByElementReactionMixin",
              "range": 40.0,
              "entityTypes": ["Monster"],
              "reactionTypes": [
                "SwirlFire",
                "SwirlIce",
                "SwirlWater",
                "SwirlElectric"
              ],
              "actions": [
                {
                  "$type": "SetGlobalValue",
                  "target": "Team",
                  "shieldHP": true,
                  "value": 1.0,
                  "key": "IsTriggerSwirlReact",
                  "maxValue": 0.0,
                  "minValue": 0.0
                }
              ]
            }
          ],
          "onAdded": [
            {
              "$type": "TriggerAbility",
              "target": "Team",
              "shieldHP": true,
              "abilityName": "ActivityAbility_ArenaChallenge_SwirlReact_DamageUp"
            }
          ]
        },
        "UNIQUE_Activity_ArenaChallenge_SwirlReact_DamageUp_Action_Timer_Handler": {
          "stacking": "Unique",
          "modifierName": "",
          "forceTriggerWhenChangeAuthority": true,
          "duration": 0.10000000149011612,
          "elementDurability": 100.0,
          "onAdded": [
            {
              "$type": "ApplyModifier",
              "target": "Team",
              "modifierName": "UNIQUE_Activity_ArenaChallenge_SwirlReact_DamageUp_Action_Timer"
            }
          ],
          "onRemoved": [
            {
              "$type": "SetGlobalValue",
              "target": "Team",
              "value": 0.0,
              "key": "IsTriggerSwirlReact",
              "maxValue": 0.0,
              "minValue": 0.0
            }
          ]
        },
        "UNIQUE_Activity_ArenaChallenge_SwirlReact_DamageUp_Action_Timer": {
          "modifierName": "",
          "forceTriggerWhenChangeAuthority": true,
          "duration": "DamageUpDuration",
          "elementDurability": 100.0,
          "onAdded": [
            {
              "$type": "SetOverrideMapValue",
              "value": 1.0,
              "overrideMapKey": "DamageUpState",
              "maxValue": 0.0,
              "minValue": 0.0
            },
            {
              "$type": "TriggerAbility",
              "target": "Team",
              "abilityName": "ActivityAbility_ArenaChallenge_SwirlReact_DamageUp"
            }
          ],
          "onRemoved": [
            {
              "$type": "SetOverrideMapValue",
              "value": 0.0,
              "overrideMapKey": "DamageUpState",
              "maxValue": 0.0,
              "minValue": 0.0
            },
            {
              "$type": "TriggerAbility",
              "target": "Team",
              "abilityName": "ActivityAbility_ArenaChallenge_SwirlReact_DamageUp"
            }
          ]
        },
        "UNIQUE_Activity_ArenaChallenge_SwirlReact_DamageUp_Action_DamageUp_LV1": {
          "stacking": "Unique",
          "modifierName": "",
          "forceTriggerWhenChangeAuthority": true,
          "elementDurability": 100.0,
          "modifierMixins": [
            {
              "$type": "ModifyDamageMixin",
              "ignoreEventInfo": true,
              "actorWindSubHurtDelta": ["DamageUpRatio", "DamageUpState", "MUL"]
            }
          ]
        },
        "UNIQUE_Activity_ArenaChallenge_SwirlReact_DamageUp_Action_DamageUp_LV2": {
          "stacking": "Unique",
          "modifierName": "",
          "forceTriggerWhenChangeAuthority": true,
          "elementDurability": 100.0,
          "modifierMixins": [
            {
              "$type": "ModifyDamageMixin",
              "ignoreEventInfo": true,
              "actorWindSubHurtDelta": [
                "DamageUpRatio_LV2",
                "DamageUpState",
                "MUL"
              ]
            }
          ]
        }
      },
      "onAdded": [
        {
          "$type": "SetGlobalValue",
          "target": "Team",
          "value": 0.0,
          "key": "IsTriggerSwirlReact",
          "maxValue": 0.0,
          "minValue": 0.0
        },
        {
          "$type": "SetOverrideMapValue",
          "value": 0.0,
          "overrideMapKey": "DamageUpState",
          "maxValue": 0.0,
          "minValue": 0.0
        }
      ],
      "onRemoved": [
        {
          "$type": "RemoveUniqueModifier",
          "target": "CurTeamAvatars",
          "modifierName": "UNIQUE_Activity_ArenaChallenge_SwirlReact_DamageUp_Action_DamageUp_LV2"
        },
        {
          "$type": "RemoveUniqueModifier",
          "target": "CurTeamAvatars",
          "modifierName": "UNIQUE_Activity_ArenaChallenge_SwirlReact_DamageUp_Action_DamageUp_LV1"
        }
      ],
      "onAbilityStart": [
        {
          "$type": "Predicated",
          "shieldHP": true,
          "predicates": [
            {
              "$type": "ByTargetGlobalValue",
              "target": "Team",
              "key": "SGV_CHANGE_STAGE",
              "value": 1.0
            }
          ],
          "successActions": [
            {
              "$type": "RemoveUniqueModifier",
              "target": "CurTeamAvatars",
              "shieldHP": true,
              "modifierName": "UNIQUE_Activity_ArenaChallenge_SwirlReact_DamageUp_Action_DamageUp_LV2"
            },
            {
              "$type": "RemoveUniqueModifier",
              "target": "CurTeamAvatars",
              "shieldHP": true,
              "modifierName": "UNIQUE_Activity_ArenaChallenge_SwirlReact_DamageUp_Action_DamageUp_LV1"
            },
            {
              "$type": "ApplyModifier",
              "target": "CurTeamAvatars",
              "shieldHP": true,
              "modifierName": "UNIQUE_Activity_ArenaChallenge_SwirlReact_DamageUp_Action_DamageUp_LV2"
            }
          ]
        },
        {
          "$type": "Predicated",
          "shieldHP": true,
          "predicates": [
            {
              "$type": "ByTargetGlobalValue",
              "target": "Team",
              "key": "SGV_CHANGE_STAGE",
              "value": 0.0,
              "compareType": "NoneOrEqual"
            }
          ],
          "successActions": [
            {
              "$type": "RemoveUniqueModifier",
              "target": "CurTeamAvatars",
              "shieldHP": true,
              "modifierName": "UNIQUE_Activity_ArenaChallenge_SwirlReact_DamageUp_Action_DamageUp_LV2"
            },
            {
              "$type": "RemoveUniqueModifier",
              "target": "CurTeamAvatars",
              "shieldHP": true,
              "modifierName": "UNIQUE_Activity_ArenaChallenge_SwirlReact_DamageUp_Action_DamageUp_LV1"
            },
            {
              "$type": "ApplyModifier",
              "target": "CurTeamAvatars",
              "shieldHP": true,
              "modifierName": "UNIQUE_Activity_ArenaChallenge_SwirlReact_DamageUp_Action_DamageUp_LV1"
            }
          ]
        }
      ],
      "isDynamicAbility": true
    }
  },
  {
    "Default": {
      "$type": "ConfigAbility",
      "abilityName": "ActivityAbility_ArenaChallenge_SwirlReact_GenerateEnergyBall",
      "abilityMixins": [
        {
          "$type": "AttachModifierToGlobalValueMixin",
          "globalValueTarget": "Team",
          "globalValueKey": "SGV_CHANGE_STAGE",
          "valueSteps": [0.5, 1.5],
          "modifierNameSteps": [
            "UNIQUE_Activity_ArenaChallenge_SwirlReact_GenerateEnergyBall"
          ]
        }
      ],
      "abilitySpecials": {
        "EnergyBall_CD": 0.0
      },
      "modifiers": {
        "UNIQUE_Activity_ArenaChallenge_SwirlReact_GenerateEnergyBall": {
          "stacking": "Unique",
          "modifierName": "",
          "forceTriggerWhenChangeAuthority": true,
          "elementDurability": 100.0,
          "modifierMixins": [
            {
              "$type": "DoActionByElementReactionMixin",
              "range": 40.0,
              "entityTypes": ["Monster"],
              "reactionTypes": [
                "SwirlFire",
                "SwirlElectric",
                "SwirlWater",
                "SwirlIce"
              ],
              "actions": [
                {
                  "$type": "GenerateElemBall",
                  "target": "CurLocalAvatar",
                  "shieldHP": true,
                  "predicates": [
                    {
                      "$type": "ByTargetGlobalValue",
                      "target": "Team",
                      "key": "EnergyBall_CDState",
                      "value": 0.0,
                      "compareType": "NoneOrEqual"
                    }
                  ],
                  "configID": 2024,
                  "born": {
                    "$type": "ConfigBornByTarget",
                    "offset": {
                      "x": 0.0,
                      "y": 0.0,
                      "z": -0.5
                    },
                    "bornRandom": {
                      "$type": "BornRandomFromCenter",
                      "minRandomRange": 1.0,
                      "maxRandomRange": 2.0
                    }
                  },
                  "hpRatio": 1.0,
                  "baseEnergy": 6.0
                },
                {
                  "$type": "FireEffect",
                  "predicates": [
                    {
                      "$type": "ByTargetGlobalValue",
                      "target": "Team",
                      "key": "EnergyBall_CDState",
                      "value": 0.0,
                      "compareType": "NoneOrEqual"
                    }
                  ],
                  "rotationDampTime": "Eff_Weapon_ExtraElementBall",
                  "PPPDJGDDOGD": 1.0,
                  "AJDILHJFNKE": -1.0
                },
                {
                  "$type": "ApplyModifier",
                  "target": "Team",
                  "shieldHP": true,
                  "modifierName": "UNIQUE_Activity_ArenaChallenge_SwirlReact_GenerateEnergyBall_CD"
                }
              ]
            }
          ]
        },
        "UNIQUE_Activity_ArenaChallenge_SwirlReact_GenerateEnergyBall_CD": {
          "stacking": "Unique",
          "modifierName": "",
          "forceTriggerWhenChangeAuthority": true,
          "duration": "EnergyBall_CD",
          "elementDurability": 100.0,
          "onAdded": [
            {
              "$type": "SetGlobalValue",
              "target": "Team",
              "value": -1.0,
              "key": "EnergyBall_CDState",
              "maxValue": 0.0,
              "minValue": 0.0
            }
          ],
          "onRemoved": [
            {
              "$type": "SetGlobalValue",
              "target": "Team",
              "value": 0.0,
              "key": "EnergyBall_CDState",
              "maxValue": 0.0,
              "minValue": 0.0
            }
          ]
        }
      },
      "isDynamicAbility": true
    }
  },
  {
    "Default": {
      "$type": "ConfigAbility",
      "abilityName": "ActivityAbility_ArenaChallenge_TriggerReact_Swirl",
      "abilitySpecials": {
        "SwirlReact_CD": 0.0
      },
      "modifiers": {
        "UNIQUE_Activity_ArenaChallenge_TriggerReact_Swirl": {
          "stacking": "Unique",
          "modifierName": "",
          "forceTriggerWhenChangeAuthority": true,
          "elementDurability": 100.0,
          "modifierMixins": [
            {
              "$type": "DoActionByElementReactionMixin",
              "range": 40.0,
              "entityTypes": ["Monster"],
              "reactionTypes": [
                "SwirlElectric",
                "SwirlFire",
                "SwirlIce",
                "SwirlWater"
              ],
              "actions": [
                {
                  "$type": "AHPEKICBIIL",
                  "shieldHP": true,
                  "predicates": [
                    {
                      "$type": "ByTargetGlobalValue",
                      "target": "Team",
                      "key": "SwirlReact_CDState",
                      "value": 0.0,
                      "compareType": "NoneOrEqual"
                    }
                  ],
                  "luaCallType": "CurGalleryControlGroup",
                  "funcName": "SLC_State_Condition_Complete",
                  "param1": 0.0,
                  "MGAMDEHMCOL": 0.0,
                  "MMHOHAOGPLP": 0.0
                },
                {
                  "$type": "ApplyModifier",
                  "target": "Team",
                  "shieldHP": true,
                  "modifierName": "UNIQUE_Activity_ArenaChallenge_TriggerReact_SwirlReact_CD"
                }
              ]
            }
          ]
        },
        "UNIQUE_Activity_ArenaChallenge_TriggerReact_SwirlReact_CD": {
          "stacking": "Unique",
          "modifierName": "",
          "forceTriggerWhenChangeAuthority": true,
          "duration": "SwirlReact_CD",
          "elementDurability": 100.0,
          "onAdded": [
            {
              "$type": "SetGlobalValue",
              "target": "Team",
              "value": -1.0,
              "key": "SwirlReact_CDState",
              "maxValue": 0.0,
              "minValue": 0.0
            }
          ],
          "onRemoved": [
            {
              "$type": "SetGlobalValue",
              "target": "Team",
              "value": 0.0,
              "key": "SwirlReact_CDState",
              "maxValue": 0.0,
              "minValue": 0.0
            }
          ]
        }
      },
      "onAdded": [
        {
          "$type": "AttachModifier",
          "modifierName": "UNIQUE_Activity_ArenaChallenge_TriggerReact_Swirl"
        }
      ],
      "isDynamicAbility": true
    }
  },
  {
    "Default": {
      "$type": "ConfigAbility",
      "abilityName": "ActivityAbility_ArenaChallenge_Claymore_DamageUp",
      "abilityMixins": [
        {
          "$type": "AttachModifierToPredicateMixin",
          "predicates": [
            {
              "$type": "GPKOPAOMILE",
              "target": "Self",
              "weaponTypes": ["WEAPON_CLAYMORE"]
            }
          ],
          "modifierName": "UNIQUE_Activity_ArenaChallenge_Claymore_DamageUp"
        }
      ],
      "abilitySpecials": {
        "ClaymoreDamageUpRatio": 0.0
      },
      "modifiers": {
        "UNIQUE_Activity_ArenaChallenge_Claymore_DamageUp": {
          "stacking": "Unique",
          "modifierName": "",
          "forceTriggerWhenChangeAuthority": true,
          "elementDurability": 100.0,
          "modifierMixins": [
            {
              "$type": "ModifyDamageMixin",
              "ignoreEventInfo": true,
              "actorWindSubHurtDelta": "ClaymoreDamageUpRatio"
            }
          ]
        }
      },
      "isDynamicAbility": true
    }
  },
  {
    "Default": {
      "$type": "ConfigAbility",
      "abilityName": "ActivityAbility_ArenaChallenge_Claymore_AtkSpeedUp",
      "abilityMixins": [
        {
          "$type": "AttachModifierToGlobalValueMixin",
          "globalValueTarget": "Team",
          "globalValueKey": "SGV_CHANGE_STAGE",
          "valueSteps": [0.5, 1.5],
          "modifierNameSteps": [
            "UNIQUE_Activity_ArenaChallenge_Claymore_AtkSpeedUp_Decision_WeaponType"
          ]
        }
      ],
      "abilitySpecials": {
        "AtkSpeedUpRatio": 0.0
      },
      "modifiers": {
        "UNIQUE_Activity_ArenaChallenge_Claymore_AtkSpeedUp_Decision_WeaponType": {
          "stacking": "Unique",
          "modifierName": "",
          "forceTriggerWhenChangeAuthority": true,
          "elementDurability": 100.0,
          "modifierMixins": [
            {
              "$type": "AttachModifierToPredicateMixin",
              "predicates": [
                {
                  "$type": "GPKOPAOMILE",
                  "target": "Self",
                  "weaponTypes": ["WEAPON_CLAYMORE"]
                }
              ],
              "modifierName": "UNIQUE_Activity_ArenaChallenge_Claymore_AtkSpeedUp"
            }
          ]
        },
        "UNIQUE_Activity_ArenaChallenge_Claymore_AtkSpeedUp": {
          "stacking": "Unique",
          "modifierName": "",
          "forceTriggerWhenChangeAuthority": true,
          "elementDurability": 100.0,
          "properties": {
            "Animator_AttackSpeedRatio": "AtkSpeedUpRatio"
          }
        }
      },
      "isDynamicAbility": true
    }
  },
  {
    "Default": {
      "$type": "ConfigAbility",
      "abilityName": "ActivityAbility_ArenaChallenge_Claymore_AtkLand",
      "abilityMixins": [
        {
          "$type": "AttachModifierToPredicateMixin",
          "predicates": [
            {
              "$type": "GPKOPAOMILE",
              "target": "Self",
              "weaponTypes": ["WEAPON_CLAYMORE"]
            }
          ],
          "modifierName": "UNIQUE_Activity_ArenaChallenge_Claymore_AtkLand"
        }
      ],
      "abilitySpecials": {
        "Claymore_AtkLand_CD": 0.0
      },
      "modifiers": {
        "UNIQUE_Activity_ArenaChallenge_Claymore_AtkLand": {
          "stacking": "Unique",
          "modifierName": "",
          "forceTriggerWhenChangeAuthority": true,
          "elementDurability": 100.0,
          "onAttackLanded": [
            {
              "$type": "Predicated",
              "target": "Other",
              "shieldHP": true,
              "targetPredicates": [
                {
                  "$type": "ByHitDamage",
                  "damage": 0.0
                },
                {
                  "$type": "ByTargetGlobalValue",
                  "target": "Team",
                  "key": "Claymore_AtkLand_CDState",
                  "value": 0.0,
                  "compareType": "NoneOrEqual"
                }
              ],
              "successActions": [
                {
                  "$type": "AHPEKICBIIL",
                  "shieldHP": true,
                  "luaCallType": "CurGalleryControlGroup",
                  "funcName": "SLC_State_Condition_Complete",
                  "param1": 0.0,
                  "MGAMDEHMCOL": 0.0,
                  "MMHOHAOGPLP": 0.0
                },
                {
                  "$type": "ApplyModifier",
                  "target": "Team",
                  "shieldHP": true,
                  "modifierName": "UNIQUE_Activity_ArenaChallenge_Claymore_AtkLand_CD"
                }
              ]
            }
          ]
        },
        "UNIQUE_Activity_ArenaChallenge_Claymore_AtkLand_CD": {
          "stacking": "Unique",
          "modifierName": "",
          "forceTriggerWhenChangeAuthority": true,
          "duration": "Claymore_AtkLand_CD",
          "elementDurability": 100.0,
          "onAdded": [
            {
              "$type": "SetGlobalValue",
              "target": "Team",
              "value": -1.0,
              "key": "Claymore_AtkLand_CDState",
              "maxValue": 0.0,
              "minValue": 0.0
            }
          ],
          "onRemoved": [
            {
              "$type": "SetGlobalValue",
              "target": "Team",
              "value": 0.0,
              "key": "Claymore_AtkLand_CDState",
              "maxValue": 0.0,
              "minValue": 0.0
            }
          ]
        }
      },
      "isDynamicAbility": true
    }
  },
  {
    "Default": {
      "$type": "ConfigAbility",
      "abilityName": "ActivityAbility_ArenaChallenge_NormalAtkDamageUp",
      "abilityMixins": [
        {
          "$type": "AttachModifierToGlobalValueMixin",
          "globalValueTarget": "Team",
          "globalValueKey": "SGV_CHANGE_STAGE",
          "valueSteps": [-0.5, 0.5, 1.5],
          "modifierNameSteps": [
            "UNIQUE_ActivityAbility_ArenaChallenge_NormalAtkDamageUp_LV1",
            "UNIQUE_ActivityAbility_ArenaChallenge_NormalAtkDamageUp_LV2"
          ]
        }
      ],
      "abilitySpecials": {
        "NormalAtkDamageUpRatio": 0.0,
        "NormalAtkDamageUpRatio_LV2": 0.0
      },
      "modifiers": {
        "UNIQUE_ActivityAbility_ArenaChallenge_NormalAtkDamageUp_LV1": {
          "stacking": "Unique",
          "modifierName": "",
          "forceTriggerWhenChangeAuthority": true,
          "elementDurability": 100.0,
          "modifierMixins": [
            {
              "$type": "ModifyDamageMixin",
              "attackTags": [
                "NormalAttack_01",
                "NormalAttack_02",
                "NormalAttack_03",
                "NormalAttack_04",
                "NormalAttack_05",
                "NormalAttack_06"
              ],
              "actorWindSubHurtDelta": "NormalAtkDamageUpRatio"
            }
          ]
        },
        "UNIQUE_ActivityAbility_ArenaChallenge_NormalAtkDamageUp_LV2": {
          "stacking": "Unique",
          "modifierName": "",
          "forceTriggerWhenChangeAuthority": true,
          "elementDurability": 100.0,
          "modifierMixins": [
            {
              "$type": "ModifyDamageMixin",
              "attackTags": [
                "NormalAttack_01",
                "NormalAttack_02",
                "NormalAttack_03",
                "NormalAttack_04",
                "NormalAttack_05",
                "NormalAttack_06"
              ],
              "actorWindSubHurtDelta": "NormalAtkDamageUpRatio_LV2"
            }
          ]
        }
      },
      "isDynamicAbility": true
    }
  },
  {
    "Default": {
      "$type": "ConfigAbility",
      "abilityName": "ActivityAbility_ArenaChallenge_NormalAttackLand_ReviveEnergy",
      "abilityMixins": [
        {
          "$type": "AttachModifierToGlobalValueMixin",
          "globalValueTarget": "Team",
          "globalValueKey": "SGV_CHANGE_STAGE",
          "valueSteps": [0.5, 1.5],
          "modifierNameSteps": [
            "UNIQUE_Activity_ArenaChallenge_NormalAttackLand_ReviveEnergy"
          ]
        }
      ],
      "abilitySpecials": {
        "ReviveEnergyAmount": 0.0,
        "ReviveEnergyCD": 0.0
      },
      "modifiers": {
        "UNIQUE_Activity_ArenaChallenge_NormalAttackLand_ReviveEnergy": {
          "stacking": "Unique",
          "modifierName": "",
          "forceTriggerWhenChangeAuthority": true,
          "elementDurability": 100.0,
          "onAttackLanded": [
            {
              "$type": "Predicated",
              "target": "Other",
              "targetPredicates": [
                {
                  "$type": "ByAttackTags",
                  "target": "Self",
                  "attackTags": [
                    "NormalAttack_01",
                    "NormalAttack_02",
                    "NormalAttack_03",
                    "NormalAttack_04",
                    "NormalAttack_05",
                    "NormalAttack_06"
                  ]
                },
                {
                  "$type": "ByHitDamage",
                  "damage": 0.0
                },
                {
                  "$type": "ByTargetGlobalValue",
                  "target": "Team",
                  "key": "ReviveEnergyCDState",
                  "value": 0.0,
                  "compareType": "NoneOrEqual"
                }
              ],
              "successActions": [
                {
                  "$type": "ReviveElemEnergy",
                  "target": "AllPlayerAvatars",
                  "predicatesForeach": [
                    {
                      "$type": "ByTargetType",
                      "targetType": "Caster",
                      "isTarget": false,
                      "ALBJEAMOFLG": ""
                    }
                  ],
                  "value": "ReviveEnergyAmount"
                },
                {
                  "$type": "ApplyModifier",
                  "target": "Team",
                  "modifierName": "UNIQUE_Activity_ArenaChallenge_NormalAttackLand_ReviveEnergy_CD"
                }
              ]
            }
          ]
        },
        "UNIQUE_Activity_ArenaChallenge_NormalAttackLand_ReviveEnergy_CD": {
          "stacking": "Unique",
          "modifierName": "",
          "forceTriggerWhenChangeAuthority": true,
          "duration": "ReviveEnergyCD",
          "elementDurability": 100.0,
          "onAdded": [
            {
              "$type": "SetGlobalValue",
              "target": "Team",
              "value": -1.0,
              "key": "ReviveEnergyCDState",
              "maxValue": 0.0,
              "minValue": 0.0
            }
          ],
          "onRemoved": [
            {
              "$type": "SetGlobalValue",
              "target": "Team",
              "value": 0.0,
              "key": "ReviveEnergyCDState",
              "maxValue": 0.0,
              "minValue": 0.0
            }
          ]
        }
      },
      "isDynamicAbility": true
    }
  },
  {
    "Default": {
      "$type": "ConfigAbility",
      "abilityName": "ActivityAbility_ArenaChallenge_NormalAtkDamageLand",
      "abilitySpecials": {
        "NormalAttackLand_CD": 0.0
      },
      "modifiers": {
        "UNIQUE_ActivityAbility_ArenaChallenge_NormalAtkDamageLand": {
          "stacking": "Unique",
          "modifierName": "",
          "forceTriggerWhenChangeAuthority": true,
          "elementDurability": 100.0,
          "onAttackLanded": [
            {
              "$type": "Predicated",
              "target": "Other",
              "targetPredicates": [
                {
                  "$type": "ByAttackTags",
                  "target": "Self",
                  "attackTags": [
                    "NormalAttack_01",
                    "NormalAttack_02",
                    "NormalAttack_03",
                    "NormalAttack_04",
                    "NormalAttack_05",
                    "NormalAttack_06"
                  ]
                },
                {
                  "$type": "ByHitDamage",
                  "damage": 0.0
                },
                {
                  "$type": "ByTargetGlobalValue",
                  "target": "Team",
                  "key": "NormalAttackLand_CDState",
                  "value": 0.0,
                  "compareType": "NoneOrEqual"
                }
              ],
              "successActions": [
                {
                  "$type": "AHPEKICBIIL",
                  "luaCallType": "CurGalleryControlGroup",
                  "funcName": "SLC_State_Condition_Complete",
                  "param1": 0.0,
                  "MGAMDEHMCOL": 0.0,
                  "MMHOHAOGPLP": 0.0
                },
                {
                  "$type": "ApplyModifier",
                  "target": "Team",
                  "modifierName": "UNIQUE_Activity_ArenaChallenge_NormalAttackLand_CD"
                }
              ]
            }
          ]
        },
        "UNIQUE_Activity_ArenaChallenge_NormalAttackLand_CD": {
          "stacking": "Unique",
          "modifierName": "",
          "forceTriggerWhenChangeAuthority": true,
          "duration": "NormalAttackLand_CD",
          "elementDurability": 100.0,
          "onAdded": [
            {
              "$type": "SetGlobalValue",
              "target": "Team",
              "value": -1.0,
              "key": "NormalAttackLand_CDState",
              "maxValue": 0.0,
              "minValue": 0.0
            }
          ],
          "onRemoved": [
            {
              "$type": "SetGlobalValue",
              "target": "Team",
              "value": 0.0,
              "key": "NormalAttackLand_CDState",
              "maxValue": 0.0,
              "minValue": 0.0
            }
          ]
        }
      },
      "onAdded": [
        {
          "$type": "AttachModifier",
          "modifierName": "UNIQUE_ActivityAbility_ArenaChallenge_NormalAtkDamageLand"
        }
      ],
      "isDynamicAbility": true
    }
  },
  {
    "Default": {
      "$type": "ConfigAbility",
      "abilityName": "ActivityAbility_ArenaChallenge_HitFrozenTarget_DamageUp",
      "abilitySpecials": {
        "DamageUpRate_Frozen": 0.0
      },
      "modifiers": {
        "UNIQUE_Activity_ArenaChallenge_HitFrozenTarget_DamageUp": {
          "stacking": "Unique",
          "modifierName": "",
          "forceTriggerWhenChangeAuthority": true,
          "elementDurability": 100.0,
          "modifierMixins": [
            {
              "$type": "ModifyDamageMixin",
              "ignoreEventInfo": true,
              "actorWindSubHurtDelta": "DamageUpRate_Frozen",
              "predicates": [
                {
                  "$type": "ByHasAbilityState",
                  "abilityState": "ElementFrozen"
                }
              ]
            }
          ],
          "isLimitedProperties": true
        }
      },
      "onAdded": [
        {
          "$type": "AttachModifier",
          "modifierName": "UNIQUE_Activity_ArenaChallenge_HitFrozenTarget_DamageUp"
        }
      ],
      "isDynamicAbility": true
    }
  },
  {
    "Default": {
      "$type": "ConfigAbility",
      "abilityName": "ActivityAbility_ArenaChallenge_FrozenReact_DefenceDown",
      "abilityMixins": [
        {
          "$type": "AttachModifierToGlobalValueMixin",
          "globalValueTarget": "Team",
          "globalValueKey": "SGV_CHANGE_STAGE",
          "valueSteps": [0.5, 1.5],
          "modifierNameSteps": [
            "UNIQUE_Activity_ArenaChallenge_FrozenReact_DefenceDown_Decision_FrozenReact"
          ]
        }
      ],
      "abilitySpecials": {
        "FrozenDefenceDownRate": 0.0,
        "FrozenDuration": 0.0
      },
      "modifiers": {
        "UNIQUE_Activity_ArenaChallenge_FrozenReact_DefenceDown_Decision_FrozenReact": {
          "stacking": "Unique",
          "modifierName": "",
          "forceTriggerWhenChangeAuthority": true,
          "elementDurability": 100.0,
          "modifierMixins": [
            {
              "$type": "DoActionByElementReactionMixin",
              "range": 40.0,
              "entityTypes": ["Monster"],
              "reactionTypes": ["Freeze"],
              "actions": [
                {
                  "$type": "ApplyModifier",
                  "target": "Other",
                  "shieldHP": true,
                  "modifierName": "UNIQUE_Activity_ArenaChallenge_FrozenReact_DefenceDown"
                }
              ]
            }
          ]
        },
        "UNIQUE_Activity_ArenaChallenge_FrozenReact_DefenceDown": {
          "stacking": "Unique",
          "modifierName": "",
          "forceTriggerWhenChangeAuthority": true,
          "duration": "FrozenDuration",
          "elementDurability": 100.0,
          "properties": {
            "Actor_DefenceRatio": [
              0.0,
              1.0,
              "FrozenDefenceDownRate",
              "MUL",
              "SUB"
            ]
          },
          "state": "DefenseDown",
          "isLimitedProperties": true
        }
      },
      "isDynamicAbility": true
    }
  },
  {
    "Default": {
      "$type": "ConfigAbility",
      "abilityName": "ActivityAbility_ArenaChallenge_TriggerReact_Freeze",
      "abilitySpecials": {
        "Freeze_CD": 0.0
      },
      "modifiers": {
        "UNIQUE_Activity_ArenaChallenge_TriggerReact_Freeze": {
          "stacking": "Unique",
          "modifierName": "",
          "forceTriggerWhenChangeAuthority": true,
          "elementDurability": 100.0,
          "modifierMixins": [
            {
              "$type": "DoActionByElementReactionMixin",
              "range": 40.0,
              "entityTypes": ["Monster"],
              "reactionTypes": ["Freeze"],
              "actions": [
                {
                  "$type": "AHPEKICBIIL",
                  "shieldHP": true,
                  "predicates": [
                    {
                      "$type": "ByTargetGlobalValue",
                      "target": "Team",
                      "key": "Freeze_CDState",
                      "value": 0.0,
                      "compareType": "NoneOrEqual"
                    }
                  ],
                  "luaCallType": "CurGalleryControlGroup",
                  "funcName": "SLC_State_Condition_Complete",
                  "param1": 0.0,
                  "MGAMDEHMCOL": 0.0,
                  "MMHOHAOGPLP": 0.0
                },
                {
                  "$type": "ApplyModifier",
                  "target": "Team",
                  "shieldHP": true,
                  "modifierName": "UNIQUE_Activity_ArenaChallenge_TriggerReact_Freeze_CD"
                }
              ]
            }
          ]
        },
        "UNIQUE_Activity_ArenaChallenge_TriggerReact_Freeze_CD": {
          "stacking": "Unique",
          "modifierName": "",
          "forceTriggerWhenChangeAuthority": true,
          "duration": "Freeze_CD",
          "elementDurability": 100.0,
          "onAdded": [
            {
              "$type": "SetGlobalValue",
              "target": "Team",
              "value": -1.0,
              "key": "Freeze_CDState",
              "maxValue": 0.0,
              "minValue": 0.0
            }
          ],
          "onRemoved": [
            {
              "$type": "SetGlobalValue",
              "target": "Team",
              "value": 0.0,
              "key": "Freeze_CDState",
              "maxValue": 0.0,
              "minValue": 0.0
            }
          ]
        }
      },
      "onAdded": [
        {
          "$type": "AttachModifier",
          "modifierName": "UNIQUE_Activity_ArenaChallenge_TriggerReact_Freeze"
        }
      ],
      "isDynamicAbility": true
    }
  }
]
