[
  {
    "Default": {
      "$type": "ConfigAbility",
      "abilityName": "ActivityAbility_CrystalLink_Action_FireDamageUp",
      "abilityMixins": [
        {
          "$type": "AttachModifierToSelfGlobalValueMixin",
          "globalValueKey": "FireDamageUpLevel",
          "gvInTalk": 0.0,
          "valueSteps": [-0.5, 0.5, 1.5, 2.5, 3.5],
          "modifierNameSteps": [
            "Blank",
            "UNIQUE_Activity_CrystalLink_Action_FireDamageUp_level0",
            "UNIQUE_Activity_CrystalLink_Action_FireDamageUp_level1",
            "UNIQUE_Activity_CrystalLink_Action_FireDamageUp_level2"
          ]
        }
      ],
      "abilitySpecials": {
        "FireDamageUpRate1": 0.0,
        "FireDamageUpRate2": 0.0,
        "FireDamageUpRate3": 0.0,
        "BuffDuration": 0.0
      },
      "modifiers": {
        "Blank": {
          "modifierName": "",
          "elementDurability": 100.0
        },
        "UNIQUE_Activity_CrystalLink_Action_FireDamageUp_level0": {
          "stacking": "Unique",
          "modifierName": "",
          "forceTriggerWhenChangeAuthority": true,
          "elementDurability": 100.0,
          "properties": {
            "Actor_FireAddHurtDelta": "FireDamageUpRate1"
          },
          "isLimitedProperties": true
        },
        "UNIQUE_Activity_CrystalLink_Action_FireDamageUp_level1": {
          "stacking": "Unique",
          "modifierName": "",
          "forceTriggerWhenChangeAuthority": true,
          "elementDurability": 100.0,
          "properties": {
            "Actor_FireAddHurtDelta": "FireDamageUpRate2"
          },
          "isLimitedProperties": true
        },
        "UNIQUE_Activity_CrystalLink_Action_FireDamageUp_level2": {
          "stacking": "Unique",
          "modifierName": "",
          "forceTriggerWhenChangeAuthority": true,
          "elementDurability": 100.0,
          "properties": {
            "Actor_FireAddHurtDelta": "FireDamageUpRate3"
          },
          "isLimitedProperties": true
        },
        "Activity_CrystalLink_Action_FireDamageUp_Timer_handler_0": {
          "modifierName": "",
          "duration": "BuffDuration",
          "elementDurability": 100.0,
          "onAdded": [
            {
              "$type": "AddGlobalValue",
              "shieldHP": true,
              "value": 1.0,
              "key": "FireDamageUpLevel",
              "useLimitRange": true,
              "maxValue": 3.0,
              "minValue": 0.0
            }
          ],
          "onRemoved": [
            {
              "$type": "AddGlobalValue",
              "shieldHP": true,
              "value": -1.0,
              "key": "FireDamageUpLevel",
              "useLimitRange": true,
              "maxValue": 3.0,
              "minValue": 0.0
            }
          ]
        },
        "Activity_CrystalLink_Action_FireDamageUp_Timer_handler_1": {
          "modifierName": "",
          "duration": "BuffDuration",
          "elementDurability": 100.0,
          "onAdded": [
            {
              "$type": "AddGlobalValue",
              "shieldHP": true,
              "value": 1.0,
              "key": "FireDamageUpLevel",
              "useLimitRange": true,
              "maxValue": 3.0,
              "minValue": 0.0
            }
          ],
          "onRemoved": [
            {
              "$type": "AddGlobalValue",
              "shieldHP": true,
              "value": -1.0,
              "key": "FireDamageUpLevel",
              "useLimitRange": true,
              "maxValue": 3.0,
              "minValue": 0.0
            }
          ]
        },
        "Activity_CrystalLink_Action_FireDamageUp_Timer_handler_2": {
          "modifierName": "",
          "duration": "BuffDuration",
          "elementDurability": 100.0,
          "onAdded": [
            {
              "$type": "AddGlobalValue",
              "shieldHP": true,
              "value": 1.0,
              "key": "FireDamageUpLevel",
              "useLimitRange": true,
              "maxValue": 3.0,
              "minValue": 0.0
            }
          ],
          "onRemoved": [
            {
              "$type": "AddGlobalValue",
              "shieldHP": true,
              "value": -1.0,
              "key": "FireDamageUpLevel",
              "useLimitRange": true,
              "maxValue": 3.0,
              "minValue": 0.0
            }
          ]
        }
      },
      "onAbilityStart": [
        {
          "$type": "HHIHDCIIEJA",
          "shieldHP": true,
          "modifierName": "Activity_CrystalLink_Action_FireDamageUp_Timer_handler",
          "id": 19
        }
      ],
      "isDynamicAbility": true
    }
  },
  {
    "Default": {
      "$type": "ConfigAbility",
      "abilityName": "ActivityAbility_CrystalLink_Action_ExtraAttackDamageUp",
      "abilityMixins": [
        {
          "$type": "AttachModifierToSelfGlobalValueMixin",
          "globalValueKey": "ExtraAtkDamageUpLevel",
          "gvInTalk": 0.0,
          "valueSteps": [-0.5, 0.5, 1.5, 2.5, 3.5],
          "modifierNameSteps": [
            "Blank",
            "UNIQUE_Activity_CrystalLink_Action_ExtraAttackDamageUp_level0",
            "UNIQUE_Activity_CrystalLink_Action_ExtraAttackDamageUp_level1",
            "UNIQUE_Activity_CrystalLink_Action_ExtraAttackDamageUp_level2"
          ]
        }
      ],
      "abilitySpecials": {
        "ExtraAttackDamageUpRate1": 0.0,
        "ExtraAttackDamageUpRate2": 0.0,
        "ExtraAttackDamageUpRate3": 0.0,
        "BuffDuration": 0.0
      },
      "modifiers": {
        "Blank": {
          "modifierName": "",
          "elementDurability": 100.0
        },
        "UNIQUE_Activity_CrystalLink_Action_ExtraAttackDamageUp_level0": {
          "stacking": "Unique",
          "modifierName": "",
          "forceTriggerWhenChangeAuthority": true,
          "elementDurability": 100.0,
          "modifierMixins": [
            {
              "$type": "ModifyDamageMixin",
              "attackTags": ["ExtraAttack"],
              "actorWindSubHurtDelta": "ExtraAttackDamageUpRate1"
            }
          ],
          "isLimitedProperties": true
        },
        "UNIQUE_Activity_CrystalLink_Action_ExtraAttackDamageUp_level1": {
          "stacking": "Unique",
          "modifierName": "",
          "forceTriggerWhenChangeAuthority": true,
          "elementDurability": 100.0,
          "modifierMixins": [
            {
              "$type": "ModifyDamageMixin",
              "attackTags": ["ExtraAttack"],
              "actorWindSubHurtDelta": "ExtraAttackDamageUpRate2"
            }
          ],
          "isLimitedProperties": true
        },
        "UNIQUE_Activity_CrystalLink_Action_ExtraAttackDamageUp_level2": {
          "stacking": "Unique",
          "modifierName": "",
          "forceTriggerWhenChangeAuthority": true,
          "elementDurability": 100.0,
          "modifierMixins": [
            {
              "$type": "ModifyDamageMixin",
              "attackTags": ["ExtraAttack"],
              "actorWindSubHurtDelta": "ExtraAttackDamageUpRate3"
            }
          ],
          "isLimitedProperties": true
        },
        "Activity_CrystalLink_Action_ExtraAttackDamageUp_Timer_handler_0": {
          "modifierName": "",
          "duration": "BuffDuration",
          "elementDurability": 100.0,
          "onAdded": [
            {
              "$type": "AddGlobalValue",
              "shieldHP": true,
              "value": 1.0,
              "key": "ExtraAtkDamageUpLevel",
              "useLimitRange": true,
              "maxValue": 3.0,
              "minValue": 0.0
            }
          ],
          "onRemoved": [
            {
              "$type": "AddGlobalValue",
              "shieldHP": true,
              "value": -1.0,
              "key": "ExtraAtkDamageUpLevel",
              "useLimitRange": true,
              "maxValue": 3.0,
              "minValue": 0.0
            }
          ]
        },
        "Activity_CrystalLink_Action_ExtraAttackDamageUp_Timer_handler_1": {
          "modifierName": "",
          "duration": "BuffDuration",
          "elementDurability": 100.0,
          "onAdded": [
            {
              "$type": "AddGlobalValue",
              "shieldHP": true,
              "value": 1.0,
              "key": "ExtraAtkDamageUpLevel",
              "useLimitRange": true,
              "maxValue": 3.0,
              "minValue": 0.0
            }
          ],
          "onRemoved": [
            {
              "$type": "AddGlobalValue",
              "shieldHP": true,
              "value": -1.0,
              "key": "ExtraAtkDamageUpLevel",
              "useLimitRange": true,
              "maxValue": 3.0,
              "minValue": 0.0
            }
          ]
        },
        "Activity_CrystalLink_Action_ExtraAttackDamageUp_Timer_handler_2": {
          "modifierName": "",
          "duration": "BuffDuration",
          "elementDurability": 100.0,
          "onAdded": [
            {
              "$type": "AddGlobalValue",
              "shieldHP": true,
              "value": 1.0,
              "key": "ExtraAtkDamageUpLevel",
              "useLimitRange": true,
              "maxValue": 3.0,
              "minValue": 0.0
            }
          ],
          "onRemoved": [
            {
              "$type": "AddGlobalValue",
              "shieldHP": true,
              "value": -1.0,
              "key": "ExtraAtkDamageUpLevel",
              "useLimitRange": true,
              "maxValue": 3.0,
              "minValue": 0.0
            }
          ]
        }
      },
      "onAbilityStart": [
        {
          "$type": "HHIHDCIIEJA",
          "shieldHP": true,
          "modifierName": "Activity_CrystalLink_Action_ExtraAttackDamageUp_Timer_handler",
          "id": 20
        }
      ],
      "isDynamicAbility": true
    }
  },
  {
    "Default": {
      "$type": "ConfigAbility",
      "abilityName": "ActivityAbility_CrystalLink_Action_IncreaseAttackRatio",
      "abilityMixins": [
        {
          "$type": "AttachModifierToSelfGlobalValueMixin",
          "globalValueKey": "AttackRatioUpLevel",
          "gvInTalk": 0.0,
          "valueSteps": [-0.5, 0.5, 1.5, 2.5, 3.5],
          "modifierNameSteps": [
            "Blank",
            "UNIQUE_Activity_CrystalLink_Action_IncreaseAttackRatio_level0",
            "UNIQUE_Activity_CrystalLink_Action_IncreaseAttackRatio_level1",
            "UNIQUE_Activity_CrystalLink_Action_IncreaseAttackRatio_level2"
          ]
        }
      ],
      "abilitySpecials": {
        "AttackRatioUpValue1": 0.0,
        "AttackRatioUpValue2": 0.0,
        "AttackRatioUpValue3": 0.0,
        "BuffDuration": 0.0
      },
      "modifiers": {
        "Blank": {
          "modifierName": "",
          "elementDurability": 100.0
        },
        "UNIQUE_Activity_CrystalLink_Action_IncreaseAttackRatio_level0": {
          "stacking": "Unique",
          "modifierName": "",
          "forceTriggerWhenChangeAuthority": true,
          "elementDurability": 100.0,
          "properties": {
            "Actor_AttackRatio": "AttackRatioUpValue1"
          },
          "isLimitedProperties": true
        },
        "UNIQUE_Activity_CrystalLink_Action_IncreaseAttackRatio_level1": {
          "stacking": "Unique",
          "modifierName": "",
          "forceTriggerWhenChangeAuthority": true,
          "elementDurability": 100.0,
          "properties": {
            "Actor_AttackRatio": "AttackRatioUpValue2"
          },
          "isLimitedProperties": true
        },
        "UNIQUE_Activity_CrystalLink_Action_IncreaseAttackRatio_level2": {
          "stacking": "Unique",
          "modifierName": "",
          "forceTriggerWhenChangeAuthority": true,
          "elementDurability": 100.0,
          "properties": {
            "Actor_AttackRatio": "AttackRatioUpValue3"
          },
          "isLimitedProperties": true
        },
        "Activity_CrystalLink_Action_IncreaseAttackRatio_Timer_handler_0": {
          "modifierName": "",
          "duration": "BuffDuration",
          "elementDurability": 100.0,
          "onAdded": [
            {
              "$type": "AddGlobalValue",
              "shieldHP": true,
              "value": 1.0,
              "key": "AttackRatioUpLevel",
              "useLimitRange": true,
              "maxValue": 3.0,
              "minValue": 0.0
            }
          ],
          "onRemoved": [
            {
              "$type": "AddGlobalValue",
              "shieldHP": true,
              "value": -1.0,
              "key": "AttackRatioUpLevel",
              "useLimitRange": true,
              "maxValue": 3.0,
              "minValue": 0.0
            }
          ]
        },
        "Activity_CrystalLink_Action_IncreaseAttackRatio_Timer_handler_1": {
          "modifierName": "",
          "duration": "BuffDuration",
          "elementDurability": 100.0,
          "onAdded": [
            {
              "$type": "AddGlobalValue",
              "shieldHP": true,
              "value": 1.0,
              "key": "AttackRatioUpLevel",
              "useLimitRange": true,
              "maxValue": 3.0,
              "minValue": 0.0
            }
          ],
          "onRemoved": [
            {
              "$type": "AddGlobalValue",
              "shieldHP": true,
              "value": -1.0,
              "key": "AttackRatioUpLevel",
              "useLimitRange": true,
              "maxValue": 3.0,
              "minValue": 0.0
            }
          ]
        },
        "Activity_CrystalLink_Action_IncreaseAttackRatio_Timer_handler_2": {
          "modifierName": "",
          "duration": "BuffDuration",
          "elementDurability": 100.0,
          "onAdded": [
            {
              "$type": "AddGlobalValue",
              "shieldHP": true,
              "value": 1.0,
              "key": "AttackRatioUpLevel",
              "useLimitRange": true,
              "maxValue": 3.0,
              "minValue": 0.0
            }
          ],
          "onRemoved": [
            {
              "$type": "AddGlobalValue",
              "shieldHP": true,
              "value": -1.0,
              "key": "AttackRatioUpLevel",
              "useLimitRange": true,
              "maxValue": 3.0,
              "minValue": 0.0
            }
          ]
        }
      },
      "onAbilityStart": [
        {
          "$type": "HHIHDCIIEJA",
          "shieldHP": true,
          "modifierName": "Activity_CrystalLink_Action_IncreaseAttackRatio_Timer_handler",
          "id": 21
        }
      ],
      "isDynamicAbility": true
    }
  },
  {
    "Default": {
      "$type": "ConfigAbility",
      "abilityName": "ActivityAbility_CrystalLink_Action_WindDamageUp",
      "abilityMixins": [
        {
          "$type": "AttachModifierToSelfGlobalValueMixin",
          "globalValueKey": "WindDamageUpLevel",
          "gvInTalk": 0.0,
          "valueSteps": [-0.5, 0.5, 1.5, 2.5, 3.5],
          "modifierNameSteps": [
            "Blank",
            "UNIQUE_Activity_CrystalLink_Action_WindDamageUp_level0",
            "UNIQUE_Activity_CrystalLink_Action_WindDamageUp_level1",
            "UNIQUE_Activity_CrystalLink_Action_WindDamageUp_level2"
          ]
        }
      ],
      "abilitySpecials": {
        "WindDamageUpRate1": 0.0,
        "WindDamageUpRate2": 0.0,
        "WindDamageUpRate3": 0.0,
        "BuffDuration": 0.0
      },
      "modifiers": {
        "Blank": {
          "modifierName": "",
          "elementDurability": 100.0
        },
        "UNIQUE_Activity_CrystalLink_Action_WindDamageUp_level0": {
          "stacking": "Unique",
          "modifierName": "",
          "forceTriggerWhenChangeAuthority": true,
          "elementDurability": 100.0,
          "properties": {
            "Actor_WindAddHurtDelta": "WindDamageUpRate1"
          },
          "isLimitedProperties": true
        },
        "UNIQUE_Activity_CrystalLink_Action_WindDamageUp_level1": {
          "stacking": "Unique",
          "modifierName": "",
          "forceTriggerWhenChangeAuthority": true,
          "elementDurability": 100.0,
          "properties": {
            "Actor_WindAddHurtDelta": "WindDamageUpRate2"
          },
          "isLimitedProperties": true
        },
        "UNIQUE_Activity_CrystalLink_Action_WindDamageUp_level2": {
          "stacking": "Unique",
          "modifierName": "",
          "forceTriggerWhenChangeAuthority": true,
          "elementDurability": 100.0,
          "properties": {
            "Actor_WindAddHurtDelta": "WindDamageUpRate3"
          },
          "isLimitedProperties": true
        },
        "Activity_CrystalLink_Action_WindDamageUp_Timer_handler_0": {
          "modifierName": "",
          "duration": "BuffDuration",
          "elementDurability": 100.0,
          "onAdded": [
            {
              "$type": "AddGlobalValue",
              "shieldHP": true,
              "value": 1.0,
              "key": "WindDamageUpLevel",
              "useLimitRange": true,
              "maxValue": 3.0,
              "minValue": 0.0
            }
          ],
          "onRemoved": [
            {
              "$type": "AddGlobalValue",
              "shieldHP": true,
              "value": -1.0,
              "key": "WindDamageUpLevel",
              "useLimitRange": true,
              "maxValue": 3.0,
              "minValue": 0.0
            }
          ]
        },
        "Activity_CrystalLink_Action_WindDamageUp_Timer_handler_1": {
          "modifierName": "",
          "duration": "BuffDuration",
          "elementDurability": 100.0,
          "onAdded": [
            {
              "$type": "AddGlobalValue",
              "shieldHP": true,
              "value": 1.0,
              "key": "WindDamageUpLevel",
              "useLimitRange": true,
              "maxValue": 3.0,
              "minValue": 0.0
            }
          ],
          "onRemoved": [
            {
              "$type": "AddGlobalValue",
              "shieldHP": true,
              "value": -1.0,
              "key": "WindDamageUpLevel",
              "useLimitRange": true,
              "maxValue": 3.0,
              "minValue": 0.0
            }
          ]
        },
        "Activity_CrystalLink_Action_WindDamageUp_Timer_handler_2": {
          "modifierName": "",
          "duration": "BuffDuration",
          "elementDurability": 100.0,
          "onAdded": [
            {
              "$type": "AddGlobalValue",
              "shieldHP": true,
              "value": 1.0,
              "key": "WindDamageUpLevel",
              "useLimitRange": true,
              "maxValue": 3.0,
              "minValue": 0.0
            }
          ],
          "onRemoved": [
            {
              "$type": "AddGlobalValue",
              "shieldHP": true,
              "value": -1.0,
              "key": "WindDamageUpLevel",
              "useLimitRange": true,
              "maxValue": 3.0,
              "minValue": 0.0
            }
          ]
        }
      },
      "onAbilityStart": [
        {
          "$type": "HHIHDCIIEJA",
          "shieldHP": true,
          "modifierName": "Activity_CrystalLink_Action_WindDamageUp_Timer_handler",
          "id": 22
        }
      ],
      "isDynamicAbility": true
    }
  },
  {
    "Default": {
      "$type": "ConfigAbility",
      "abilityName": "ActivityAbility_CrystalLink_Action_AttackbonusCriticalUp",
      "abilityMixins": [
        {
          "$type": "AttachModifierToSelfGlobalValueMixin",
          "globalValueKey": "BonusCriticalUpLevel",
          "gvInTalk": 0.0,
          "valueSteps": [-0.5, 0.5, 1.5, 2.5, 3.5],
          "modifierNameSteps": [
            "Blank",
            "UNIQUE_Activity_CrystalLink_Action_AttackbonusCriticalUp_level0",
            "UNIQUE_Activity_CrystalLink_Action_AttackbonusCriticalUp_level1",
            "UNIQUE_Activity_CrystalLink_Action_AttackbonusCriticalUp_level2"
          ]
        }
      ],
      "abilitySpecials": {
        "bonusCriticalUpRate1": 0.0,
        "bonusCriticalUpRate2": 0.0,
        "bonusCriticalUpRate3": 0.0,
        "BuffDuration": 0.0
      },
      "modifiers": {
        "Blank": {
          "modifierName": "",
          "elementDurability": 100.0
        },
        "UNIQUE_Activity_CrystalLink_Action_AttackbonusCriticalUp_level0": {
          "stacking": "Unique",
          "modifierName": "",
          "forceTriggerWhenChangeAuthority": true,
          "elementDurability": 100.0,
          "modifierMixins": [
            {
              "$type": "ModifyDamageMixin",
              "attackTags": [
                "NormalAttack_01",
                "NormalAttack_02",
                "NormalAttack_03",
                "NormalAttack_04",
                "NormalAttack_05",
                "NormalAttack_06",
                "ExtraAttack",
                "FallingAttack"
              ],
              "actorWindSubHurtDelta": 0.0,
              "actorElementReactionCriticalHurtDelta": "bonusCriticalUpRate1"
            }
          ],
          "isLimitedProperties": true
        },
        "UNIQUE_Activity_CrystalLink_Action_AttackbonusCriticalUp_level1": {
          "stacking": "Unique",
          "modifierName": "",
          "forceTriggerWhenChangeAuthority": true,
          "elementDurability": 100.0,
          "modifierMixins": [
            {
              "$type": "ModifyDamageMixin",
              "attackTags": [
                "NormalAttack_01",
                "NormalAttack_02",
                "NormalAttack_03",
                "NormalAttack_04",
                "NormalAttack_05",
                "NormalAttack_06",
                "ExtraAttack",
                "FallingAttack"
              ],
              "actorWindSubHurtDelta": 0.0,
              "actorElementReactionCriticalHurtDelta": "bonusCriticalUpRate2"
            }
          ],
          "isLimitedProperties": true
        },
        "UNIQUE_Activity_CrystalLink_Action_AttackbonusCriticalUp_level2": {
          "stacking": "Unique",
          "modifierName": "",
          "forceTriggerWhenChangeAuthority": true,
          "elementDurability": 100.0,
          "modifierMixins": [
            {
              "$type": "ModifyDamageMixin",
              "attackTags": [
                "NormalAttack_01",
                "NormalAttack_02",
                "NormalAttack_03",
                "NormalAttack_04",
                "NormalAttack_05",
                "NormalAttack_06",
                "ExtraAttack",
                "FallingAttack"
              ],
              "actorWindSubHurtDelta": 0.0,
              "actorElementReactionCriticalHurtDelta": "bonusCriticalUpRate3"
            }
          ],
          "isLimitedProperties": true
        },
        "Activity_CrystalLink_Action_AttackbonusCriticalUp_Timer_handler_0": {
          "modifierName": "",
          "duration": "BuffDuration",
          "elementDurability": 100.0,
          "onAdded": [
            {
              "$type": "AddGlobalValue",
              "shieldHP": true,
              "value": 1.0,
              "key": "BonusCriticalUpLevel",
              "useLimitRange": true,
              "maxValue": 3.0,
              "minValue": 0.0
            }
          ],
          "onRemoved": [
            {
              "$type": "AddGlobalValue",
              "shieldHP": true,
              "value": -1.0,
              "key": "BonusCriticalUpLevel",
              "useLimitRange": true,
              "maxValue": 3.0,
              "minValue": 0.0
            }
          ]
        },
        "Activity_CrystalLink_Action_AttackbonusCriticalUp_Timer_handler_1": {
          "modifierName": "",
          "duration": "BuffDuration",
          "elementDurability": 100.0,
          "onAdded": [
            {
              "$type": "AddGlobalValue",
              "shieldHP": true,
              "value": 1.0,
              "key": "BonusCriticalUpLevel",
              "useLimitRange": true,
              "maxValue": 3.0,
              "minValue": 0.0
            }
          ],
          "onRemoved": [
            {
              "$type": "AddGlobalValue",
              "shieldHP": true,
              "value": -1.0,
              "key": "BonusCriticalUpLevel",
              "useLimitRange": true,
              "maxValue": 3.0,
              "minValue": 0.0
            }
          ]
        },
        "Activity_CrystalLink_Action_AttackbonusCriticalUp_Timer_handler_2": {
          "modifierName": "",
          "duration": "BuffDuration",
          "elementDurability": 100.0,
          "onAdded": [
            {
              "$type": "AddGlobalValue",
              "shieldHP": true,
              "value": 1.0,
              "key": "BonusCriticalUpLevel",
              "useLimitRange": true,
              "maxValue": 3.0,
              "minValue": 0.0
            }
          ],
          "onRemoved": [
            {
              "$type": "AddGlobalValue",
              "shieldHP": true,
              "value": -1.0,
              "key": "BonusCriticalUpLevel",
              "useLimitRange": true,
              "maxValue": 3.0,
              "minValue": 0.0
            }
          ]
        }
      },
      "onAbilityStart": [
        {
          "$type": "HHIHDCIIEJA",
          "shieldHP": true,
          "modifierName": "Activity_CrystalLink_Action_AttackbonusCriticalUp_Timer_handler",
          "id": 23
        }
      ],
      "isDynamicAbility": true
    }
  },
  {
    "Default": {
      "$type": "ConfigAbility",
      "abilityName": "ActivityAbility_CrystalLink_Action_IncreaseAttackRatio_Level2",
      "abilityMixins": [
        {
          "$type": "AttachModifierToSelfGlobalValueMixin",
          "globalValueKey": "AttackRatioUpLevel",
          "gvInTalk": 0.0,
          "valueSteps": [-0.5, 0.5, 1.5, 2.5, 3.5],
          "modifierNameSteps": [
            "Blank",
            "UNIQUE_Activity_CrystalLink_Action_IncreaseAttackRatio_Level2_level0",
            "UNIQUE_Activity_CrystalLink_Action_IncreaseAttackRatio_Level2_level1",
            "UNIQUE_Activity_CrystalLink_Action_IncreaseAttackRatio_Level2_level2"
          ]
        }
      ],
      "abilitySpecials": {
        "AttackRatioUpValue1": 0.0,
        "AttackRatioUpValue2": 0.0,
        "AttackRatioUpValue3": 0.0,
        "BuffDuration": 0.0
      },
      "modifiers": {
        "Blank": {
          "modifierName": "",
          "elementDurability": 100.0
        },
        "UNIQUE_Activity_CrystalLink_Action_IncreaseAttackRatio_Level2_level0": {
          "stacking": "Unique",
          "modifierName": "",
          "forceTriggerWhenChangeAuthority": true,
          "elementDurability": 100.0,
          "properties": {
            "Actor_AttackRatio": "AttackRatioUpValue1"
          },
          "isLimitedProperties": true
        },
        "UNIQUE_Activity_CrystalLink_Action_IncreaseAttackRatio_Level2_level1": {
          "stacking": "Unique",
          "modifierName": "",
          "forceTriggerWhenChangeAuthority": true,
          "elementDurability": 100.0,
          "properties": {
            "Actor_AttackRatio": "AttackRatioUpValue2"
          },
          "isLimitedProperties": true
        },
        "UNIQUE_Activity_CrystalLink_Action_IncreaseAttackRatio_Level2_level2": {
          "stacking": "Unique",
          "modifierName": "",
          "forceTriggerWhenChangeAuthority": true,
          "elementDurability": 100.0,
          "properties": {
            "Actor_AttackRatio": "AttackRatioUpValue3"
          },
          "isLimitedProperties": true
        },
        "Activity_CrystalLink_Action_IncreaseAttackRatio_Level2_Timer_handler_0": {
          "modifierName": "",
          "duration": "BuffDuration",
          "elementDurability": 100.0,
          "onAdded": [
            {
              "$type": "AddGlobalValue",
              "shieldHP": true,
              "value": 1.0,
              "key": "AttackRatioUpLevel",
              "useLimitRange": true,
              "maxValue": 3.0,
              "minValue": 0.0
            }
          ],
          "onRemoved": [
            {
              "$type": "AddGlobalValue",
              "shieldHP": true,
              "value": -1.0,
              "key": "AttackRatioUpLevel",
              "useLimitRange": true,
              "maxValue": 3.0,
              "minValue": 0.0
            }
          ]
        },
        "Activity_CrystalLink_Action_IncreaseAttackRatio_Level2_Timer_handler_1": {
          "modifierName": "",
          "duration": "BuffDuration",
          "elementDurability": 100.0,
          "onAdded": [
            {
              "$type": "AddGlobalValue",
              "shieldHP": true,
              "value": 1.0,
              "key": "AttackRatioUpLevel",
              "useLimitRange": true,
              "maxValue": 3.0,
              "minValue": 0.0
            }
          ],
          "onRemoved": [
            {
              "$type": "AddGlobalValue",
              "shieldHP": true,
              "value": -1.0,
              "key": "AttackRatioUpLevel",
              "useLimitRange": true,
              "maxValue": 3.0,
              "minValue": 0.0
            }
          ]
        },
        "Activity_CrystalLink_Action_IncreaseAttackRatio_Level2_Timer_handler_2": {
          "modifierName": "",
          "duration": "BuffDuration",
          "elementDurability": 100.0,
          "onAdded": [
            {
              "$type": "AddGlobalValue",
              "shieldHP": true,
              "value": 1.0,
              "key": "AttackRatioUpLevel",
              "useLimitRange": true,
              "maxValue": 3.0,
              "minValue": 0.0
            }
          ],
          "onRemoved": [
            {
              "$type": "AddGlobalValue",
              "shieldHP": true,
              "value": -1.0,
              "key": "AttackRatioUpLevel",
              "useLimitRange": true,
              "maxValue": 3.0,
              "minValue": 0.0
            }
          ]
        }
      },
      "onAbilityStart": [
        {
          "$type": "HHIHDCIIEJA",
          "shieldHP": true,
          "modifierName": "Activity_CrystalLink_Action_IncreaseAttackRatio_Level2_Timer_handler",
          "id": 24
        }
      ],
      "isDynamicAbility": true
    }
  },
  {
    "Default": {
      "$type": "ConfigAbility",
      "abilityName": "ActivityAbility_CrystalLink_Action_AllElementDamageUp",
      "abilityMixins": [
        {
          "$type": "AttachModifierToSelfGlobalValueMixin",
          "globalValueKey": "AllElementDamageUpLevel",
          "gvInTalk": 0.0,
          "valueSteps": [-0.5, 0.5, 1.5, 2.5, 3.5],
          "modifierNameSteps": [
            "Blank",
            "UNIQUE_Activity_CrystalLink_Action_AllElementDamageUp_level0",
            "UNIQUE_Activity_CrystalLink_Action_AllElementDamageUp_level1",
            "UNIQUE_Activity_CrystalLink_Action_AllElementDamageUp_level2"
          ]
        }
      ],
      "abilitySpecials": {
        "AllElementalDamageUpRate1": 0.0,
        "AllElementalDamageUpRate2": 0.0,
        "AllElementalDamageUpRate3": 0.0,
        "BuffDuration": 0.0
      },
      "modifiers": {
        "Blank": {
          "modifierName": "",
          "elementDurability": 100.0
        },
        "UNIQUE_Activity_CrystalLink_Action_AllElementDamageUp_level0": {
          "stacking": "Unique",
          "modifierName": "",
          "forceTriggerWhenChangeAuthority": true,
          "elementDurability": 100.0,
          "properties": {
            "Actor_FireAddHurtDelta": "AllElementalDamageUpRate1",
            "Actor_WaterAddHurtDelta": "AllElementalDamageUpRate1",
            "Actor_GrassAddHurtDelta": "AllElementalDamageUpRate1",
            "Actor_ElecAddHurtDelta": "AllElementalDamageUpRate1",
            "Actor_IceAddHurtDelta": "AllElementalDamageUpRate1",
            "Actor_WindAddHurtDelta": "AllElementalDamageUpRate1",
            "Actor_RockAddHurtDelta": "AllElementalDamageUpRate1"
          },
          "isLimitedProperties": true
        },
        "UNIQUE_Activity_CrystalLink_Action_AllElementDamageUp_level1": {
          "stacking": "Unique",
          "modifierName": "",
          "forceTriggerWhenChangeAuthority": true,
          "elementDurability": 100.0,
          "properties": {
            "Actor_FireAddHurtDelta": "AllElementalDamageUpRate2",
            "Actor_WaterAddHurtDelta": "AllElementalDamageUpRate2",
            "Actor_GrassAddHurtDelta": "AllElementalDamageUpRate2",
            "Actor_ElecAddHurtDelta": "AllElementalDamageUpRate2",
            "Actor_IceAddHurtDelta": "AllElementalDamageUpRate2",
            "Actor_WindAddHurtDelta": "AllElementalDamageUpRate2",
            "Actor_RockAddHurtDelta": "AllElementalDamageUpRate2"
          },
          "isLimitedProperties": true
        },
        "UNIQUE_Activity_CrystalLink_Action_AllElementDamageUp_level2": {
          "stacking": "Unique",
          "modifierName": "",
          "forceTriggerWhenChangeAuthority": true,
          "elementDurability": 100.0,
          "properties": {
            "Actor_FireAddHurtDelta": "AllElementalDamageUpRate3",
            "Actor_WaterAddHurtDelta": "AllElementalDamageUpRate3",
            "Actor_GrassAddHurtDelta": "AllElementalDamageUpRate3",
            "Actor_ElecAddHurtDelta": "AllElementalDamageUpRate3",
            "Actor_IceAddHurtDelta": "AllElementalDamageUpRate3",
            "Actor_WindAddHurtDelta": "AllElementalDamageUpRate3",
            "Actor_RockAddHurtDelta": "AllElementalDamageUpRate3"
          },
          "isLimitedProperties": true
        },
        "Activity_CrystalLink_Action_AllElementDamageUp_Timer_handler_0": {
          "modifierName": "",
          "duration": "BuffDuration",
          "elementDurability": 100.0,
          "onAdded": [
            {
              "$type": "AddGlobalValue",
              "shieldHP": true,
              "value": 1.0,
              "key": "AllElementDamageUpLevel",
              "useLimitRange": true,
              "maxValue": 3.0,
              "minValue": 0.0
            }
          ],
          "onRemoved": [
            {
              "$type": "AddGlobalValue",
              "shieldHP": true,
              "value": -1.0,
              "key": "AllElementDamageUpLevel",
              "useLimitRange": true,
              "maxValue": 3.0,
              "minValue": 0.0
            }
          ]
        },
        "Activity_CrystalLink_Action_AllElementDamageUp_Timer_handler_1": {
          "modifierName": "",
          "duration": "BuffDuration",
          "elementDurability": 100.0,
          "onAdded": [
            {
              "$type": "AddGlobalValue",
              "shieldHP": true,
              "value": 1.0,
              "key": "AllElementDamageUpLevel",
              "useLimitRange": true,
              "maxValue": 3.0,
              "minValue": 0.0
            }
          ],
          "onRemoved": [
            {
              "$type": "AddGlobalValue",
              "shieldHP": true,
              "value": -1.0,
              "key": "AllElementDamageUpLevel",
              "useLimitRange": true,
              "maxValue": 3.0,
              "minValue": 0.0
            }
          ]
        },
        "Activity_CrystalLink_Action_AllElementDamageUp_Timer_handler_2": {
          "modifierName": "",
          "duration": "BuffDuration",
          "elementDurability": 100.0,
          "onAdded": [
            {
              "$type": "AddGlobalValue",
              "shieldHP": true,
              "value": 1.0,
              "key": "AllElementDamageUpLevel",
              "useLimitRange": true,
              "maxValue": 3.0,
              "minValue": 0.0
            }
          ],
          "onRemoved": [
            {
              "$type": "AddGlobalValue",
              "shieldHP": true,
              "value": -1.0,
              "key": "AllElementDamageUpLevel",
              "useLimitRange": true,
              "maxValue": 3.0,
              "minValue": 0.0
            }
          ]
        }
      },
      "onAbilityStart": [
        {
          "$type": "HHIHDCIIEJA",
          "shieldHP": true,
          "modifierName": "Activity_CrystalLink_Action_AllElementDamageUp_Timer_handler",
          "id": 25
        }
      ],
      "isDynamicAbility": true
    }
  },
  {
    "Default": {
      "$type": "ConfigAbility",
      "abilityName": "ActivityAbility_CrystalLink_Action_ElementalBurstDamageUp",
      "abilityMixins": [
        {
          "$type": "AttachModifierToSelfGlobalValueMixin",
          "globalValueKey": "ElementalBurslDamageUpLevel",
          "gvInTalk": 0.0,
          "valueSteps": [-0.5, 0.5, 1.5, 2.5, 3.5],
          "modifierNameSteps": [
            "Blank",
            "UNIQUE_Activity_CrystalLink_Action_ElementalBurstDamageUp_level0",
            "UNIQUE_Activity_CrystalLink_Action_ElementalBurstDamageUp_level1",
            "UNIQUE_Activity_CrystalLink_Action_ElementalBurstDamageUp_level2"
          ]
        }
      ],
      "abilitySpecials": {
        "ElementalBurstDamageUpLevel1": 0.0,
        "ElementalBurstDamageUpLevel2": 0.0,
        "ElementalBurstDamageUpLevel3": 0.0,
        "BuffDuration": 0.0
      },
      "modifiers": {
        "Blank": {
          "modifierName": "",
          "elementDurability": 100.0
        },
        "UNIQUE_Activity_CrystalLink_Action_ElementalBurstDamageUp_level0": {
          "stacking": "Unique",
          "modifierName": "",
          "forceTriggerWhenChangeAuthority": true,
          "elementDurability": 100.0,
          "modifierMixins": [
            {
              "$type": "ModifyDamageMixin",
              "attackTags": ["Elemental_Burst"],
              "actorWindSubHurtDelta": "ElementalBurstDamageUpLevel1"
            }
          ],
          "isLimitedProperties": true
        },
        "UNIQUE_Activity_CrystalLink_Action_ElementalBurstDamageUp_level1": {
          "stacking": "Unique",
          "modifierName": "",
          "forceTriggerWhenChangeAuthority": true,
          "elementDurability": 100.0,
          "modifierMixins": [
            {
              "$type": "ModifyDamageMixin",
              "attackTags": ["Elemental_Burst"],
              "actorWindSubHurtDelta": "ElementalBurstDamageUpLevel2"
            }
          ],
          "isLimitedProperties": true
        },
        "UNIQUE_Activity_CrystalLink_Action_ElementalBurstDamageUp_level2": {
          "stacking": "Unique",
          "modifierName": "",
          "forceTriggerWhenChangeAuthority": true,
          "elementDurability": 100.0,
          "modifierMixins": [
            {
              "$type": "ModifyDamageMixin",
              "attackTags": ["Elemental_Burst"],
              "actorWindSubHurtDelta": "ElementalBurstDamageUpLevel3"
            }
          ],
          "isLimitedProperties": true
        },
        "Activity_CrystalLink_Action_ElementalBurstDamageUp_Timer_handler_0": {
          "modifierName": "",
          "duration": "BuffDuration",
          "elementDurability": 100.0,
          "onAdded": [
            {
              "$type": "AddGlobalValue",
              "shieldHP": true,
              "value": 1.0,
              "key": "ElementalBurslDamageUpLevel",
              "useLimitRange": true,
              "maxValue": 3.0,
              "minValue": 0.0
            }
          ],
          "onRemoved": [
            {
              "$type": "AddGlobalValue",
              "shieldHP": true,
              "value": -1.0,
              "key": "ElementalBurslDamageUpLevel",
              "useLimitRange": true,
              "maxValue": 3.0,
              "minValue": 0.0
            }
          ],
          "isLimitedProperties": true
        },
        "Activity_CrystalLink_Action_ElementalBurstDamageUp_Timer_handler_1": {
          "modifierName": "",
          "duration": "BuffDuration",
          "elementDurability": 100.0,
          "onAdded": [
            {
              "$type": "AddGlobalValue",
              "shieldHP": true,
              "value": 1.0,
              "key": "ElementalBurslDamageUpLevel",
              "useLimitRange": true,
              "maxValue": 3.0,
              "minValue": 0.0
            }
          ],
          "onRemoved": [
            {
              "$type": "AddGlobalValue",
              "shieldHP": true,
              "value": -1.0,
              "key": "ElementalBurslDamageUpLevel",
              "useLimitRange": true,
              "maxValue": 3.0,
              "minValue": 0.0
            }
          ]
        },
        "Activity_CrystalLink_Action_ElementalBurstDamageUp_Timer_handler_2": {
          "modifierName": "",
          "duration": "BuffDuration",
          "elementDurability": 100.0,
          "onAdded": [
            {
              "$type": "AddGlobalValue",
              "shieldHP": true,
              "value": 1.0,
              "key": "ElementalBurslDamageUpLevel",
              "useLimitRange": true,
              "maxValue": 3.0,
              "minValue": 0.0
            }
          ],
          "onRemoved": [
            {
              "$type": "AddGlobalValue",
              "shieldHP": true,
              "value": -1.0,
              "key": "ElementalBurslDamageUpLevel",
              "useLimitRange": true,
              "maxValue": 3.0,
              "minValue": 0.0
            }
          ]
        }
      },
      "onAbilityStart": [
        {
          "$type": "HHIHDCIIEJA",
          "shieldHP": true,
          "modifierName": "Activity_CrystalLink_Action_ElementalBurstDamageUp_Timer_handler",
          "id": 26
        }
      ],
      "isDynamicAbility": true
    }
  },
  {
    "Default": {
      "$type": "ConfigAbility",
      "abilityName": "ActivityAbility_CrystalLink_Action_IncreaseCritical",
      "abilityMixins": [
        {
          "$type": "AttachModifierToSelfGlobalValueMixin",
          "globalValueKey": "CriticalUpLevel",
          "gvInTalk": 0.0,
          "valueSteps": [-0.5, 0.5, 1.5, 2.5, 3.5],
          "modifierNameSteps": [
            "Blank",
            "UNIQUE_Activity_CrystalLink_Action_IncreaseCritical_level0",
            "UNIQUE_Activity_CrystalLink_Action_IncreaseCritical_level1",
            "UNIQUE_Activity_CrystalLink_Action_IncreaseCritical_level2"
          ]
        }
      ],
      "abilitySpecials": {
        "CriticalUpValue1": 0.0,
        "CriticalUpValue2": 0.0,
        "CriticalUpValue3": 0.0,
        "BuffDuration": 0.0
      },
      "modifiers": {
        "Blank": {
          "modifierName": "",
          "elementDurability": 100.0
        },
        "UNIQUE_Activity_CrystalLink_Action_IncreaseCritical_level0": {
          "stacking": "Unique",
          "modifierName": "",
          "forceTriggerWhenChangeAuthority": true,
          "elementDurability": 100.0,
          "properties": {
            "Actor_CriticalDelta": "CriticalUpValue1"
          },
          "isLimitedProperties": true
        },
        "UNIQUE_Activity_CrystalLink_Action_IncreaseCritical_level1": {
          "stacking": "Unique",
          "modifierName": "",
          "forceTriggerWhenChangeAuthority": true,
          "elementDurability": 100.0,
          "properties": {
            "Actor_CriticalDelta": "CriticalUpValue2"
          },
          "isLimitedProperties": true
        },
        "UNIQUE_Activity_CrystalLink_Action_IncreaseCritical_level2": {
          "stacking": "Unique",
          "modifierName": "",
          "forceTriggerWhenChangeAuthority": true,
          "elementDurability": 100.0,
          "properties": {
            "Actor_CriticalDelta": "CriticalUpValue3"
          },
          "isLimitedProperties": true
        },
        "Activity_CrystalLink_Action_IncreaseCritical_Timer_handler_0": {
          "modifierName": "",
          "duration": "BuffDuration",
          "elementDurability": 100.0,
          "onAdded": [
            {
              "$type": "AddGlobalValue",
              "shieldHP": true,
              "value": 1.0,
              "key": "CriticalUpLevel",
              "useLimitRange": true,
              "maxValue": 3.0,
              "minValue": 0.0
            }
          ],
          "onRemoved": [
            {
              "$type": "AddGlobalValue",
              "shieldHP": true,
              "value": -1.0,
              "key": "CriticalUpLevel",
              "useLimitRange": true,
              "maxValue": 3.0,
              "minValue": 0.0
            }
          ]
        },
        "Activity_CrystalLink_Action_IncreaseCritical_Timer_handler_1": {
          "modifierName": "",
          "duration": "BuffDuration",
          "elementDurability": 100.0,
          "onAdded": [
            {
              "$type": "AddGlobalValue",
              "shieldHP": true,
              "value": 1.0,
              "key": "CriticalUpLevel",
              "useLimitRange": true,
              "maxValue": 3.0,
              "minValue": 0.0
            }
          ],
          "onRemoved": [
            {
              "$type": "AddGlobalValue",
              "shieldHP": true,
              "value": -1.0,
              "key": "CriticalUpLevel",
              "useLimitRange": true,
              "maxValue": 3.0,
              "minValue": 0.0
            }
          ]
        },
        "Activity_CrystalLink_Action_IncreaseCritical_Timer_handler_2": {
          "modifierName": "",
          "duration": "BuffDuration",
          "elementDurability": 100.0,
          "onAdded": [
            {
              "$type": "AddGlobalValue",
              "shieldHP": true,
              "value": 1.0,
              "key": "CriticalUpLevel",
              "useLimitRange": true,
              "maxValue": 3.0,
              "minValue": 0.0
            }
          ],
          "onRemoved": [
            {
              "$type": "AddGlobalValue",
              "shieldHP": true,
              "value": -1.0,
              "key": "CriticalUpLevel",
              "useLimitRange": true,
              "maxValue": 3.0,
              "minValue": 0.0
            }
          ]
        }
      },
      "onAbilityStart": [
        {
          "$type": "HHIHDCIIEJA",
          "shieldHP": true,
          "modifierName": "Activity_CrystalLink_Action_IncreaseCritical_Timer_handler",
          "id": 27
        }
      ],
      "isDynamicAbility": true
    }
  },
  {
    "Default": {
      "$type": "ConfigAbility",
      "abilityName": "ActivityAbility_CrystalLink_Action_IncreaseIceDamage",
      "abilityMixins": [
        {
          "$type": "AttachModifierToSelfGlobalValueMixin",
          "globalValueKey": "IncreaseIceDamageLevel",
          "gvInTalk": 0.0,
          "valueSteps": [-0.5, 0.5, 1.5, 2.5, 3.5],
          "modifierNameSteps": [
            "Blank",
            "UNIQUE_Activity_CrystalLink_Action_IncreaseIceDamage_level0",
            "UNIQUE_Activity_CrystalLink_Action_IncreaseIceDamage_level1",
            "UNIQUE_Activity_CrystalLink_Action_IncreaseIceDamage_level2"
          ]
        }
      ],
      "abilitySpecials": {
        "IceDamageUpRate1": 0.0,
        "IceDamageUpRate2": 0.0,
        "IceDamageUpRate3": 0.0,
        "BuffDuration": 0.0
      },
      "modifiers": {
        "Blank": {
          "modifierName": "",
          "elementDurability": 100.0
        },
        "UNIQUE_Activity_CrystalLink_Action_IncreaseIceDamage_level0": {
          "stacking": "Unique",
          "modifierName": "",
          "forceTriggerWhenChangeAuthority": true,
          "elementDurability": 100.0,
          "properties": {
            "Actor_IceAddHurtDelta": "IceDamageUpRate1"
          },
          "isLimitedProperties": true
        },
        "UNIQUE_Activity_CrystalLink_Action_IncreaseIceDamage_level1": {
          "stacking": "Unique",
          "modifierName": "",
          "forceTriggerWhenChangeAuthority": true,
          "elementDurability": 100.0,
          "properties": {
            "Actor_IceAddHurtDelta": "IceDamageUpRate2"
          },
          "isLimitedProperties": true
        },
        "UNIQUE_Activity_CrystalLink_Action_IncreaseIceDamage_level2": {
          "stacking": "Unique",
          "modifierName": "",
          "forceTriggerWhenChangeAuthority": true,
          "elementDurability": 100.0,
          "properties": {
            "Actor_IceAddHurtDelta": "IceDamageUpRate3"
          },
          "isLimitedProperties": true
        },
        "Activity_CrystalLink_Action_IncreaseIceDamage_Timer_handler_0": {
          "modifierName": "",
          "duration": "BuffDuration",
          "elementDurability": 100.0,
          "onAdded": [
            {
              "$type": "AddGlobalValue",
              "shieldHP": true,
              "value": 1.0,
              "key": "IncreaseIceDamageLevel",
              "useLimitRange": true,
              "maxValue": 3.0,
              "minValue": 0.0
            }
          ],
          "onRemoved": [
            {
              "$type": "AddGlobalValue",
              "shieldHP": true,
              "value": -1.0,
              "key": "IncreaseIceDamageLevel",
              "useLimitRange": true,
              "maxValue": 3.0,
              "minValue": 0.0
            }
          ]
        },
        "Activity_CrystalLink_Action_IncreaseIceDamage_Timer_handler_1": {
          "modifierName": "",
          "duration": "BuffDuration",
          "elementDurability": 100.0,
          "onAdded": [
            {
              "$type": "AddGlobalValue",
              "shieldHP": true,
              "value": 1.0,
              "key": "IncreaseIceDamageLevel",
              "useLimitRange": true,
              "maxValue": 3.0,
              "minValue": 0.0
            }
          ],
          "onRemoved": [
            {
              "$type": "AddGlobalValue",
              "shieldHP": true,
              "value": -1.0,
              "key": "IncreaseIceDamageLevel",
              "useLimitRange": true,
              "maxValue": 3.0,
              "minValue": 0.0
            }
          ]
        },
        "Activity_CrystalLink_Action_IncreaseIceDamage_Timer_handler_2": {
          "modifierName": "",
          "duration": "BuffDuration",
          "elementDurability": 100.0,
          "onAdded": [
            {
              "$type": "AddGlobalValue",
              "shieldHP": true,
              "value": 1.0,
              "key": "IncreaseIceDamageLevel",
              "useLimitRange": true,
              "maxValue": 3.0,
              "minValue": 0.0
            }
          ],
          "onRemoved": [
            {
              "$type": "AddGlobalValue",
              "shieldHP": true,
              "value": -1.0,
              "key": "IncreaseIceDamageLevel",
              "useLimitRange": true,
              "maxValue": 3.0,
              "minValue": 0.0
            }
          ]
        }
      },
      "onAbilityStart": [
        {
          "$type": "HHIHDCIIEJA",
          "shieldHP": true,
          "modifierName": "Activity_CrystalLink_Action_IncreaseIceDamage_Timer_handler",
          "id": 31
        }
      ],
      "isDynamicAbility": true
    }
  },
  {
    "Default": {
      "$type": "ConfigAbility",
      "abilityName": "ActivityAbility_CrystalLink_Action_IncreaseFrozen",
      "abilityMixins": [
        {
          "$type": "AttachModifierToSelfGlobalValueMixin",
          "globalValueKey": "IncreaseFrozenDamageLevel",
          "gvInTalk": 0.0,
          "valueSteps": [-0.5, 0.5, 1.5, 2.5, 3.5],
          "modifierNameSteps": [
            "Blank",
            "UNIQUE_Activity_CrystalLink_Action_IncreaseFrozen_level0",
            "UNIQUE_Activity_CrystalLink_Action_IncreaseFrozen_level1",
            "UNIQUE_Activity_CrystalLink_Action_IncreaseFrozen_level2"
          ]
        }
      ],
      "abilitySpecials": {
        "FrozenDamageUpRate1": 0.0,
        "FrozenDamageUpRate2": 0.0,
        "FrozenDamageUpRate3": 0.0,
        "BuffDuration": 0.0
      },
      "modifiers": {
        "Blank": {
          "modifierName": "",
          "elementDurability": 100.0
        },
        "UNIQUE_Activity_CrystalLink_Action_IncreaseFrozen_level0": {
          "stacking": "Unique",
          "modifierName": "",
          "forceTriggerWhenChangeAuthority": true,
          "elementDurability": 100.0,
          "modifierMixins": [
            {
              "$type": "ModifyDamageMixin",
              "ignoreEventInfo": true,
              "actorWindSubHurtDelta": "FrozenDamageUpRate1",
              "predicates": [
                {
                  "$type": "ByHasAbilityState",
                  "abilityState": "ElementFrozen"
                }
              ]
            }
          ],
          "isLimitedProperties": true
        },
        "UNIQUE_Activity_CrystalLink_Action_IncreaseFrozen_level1": {
          "stacking": "Unique",
          "modifierName": "",
          "forceTriggerWhenChangeAuthority": true,
          "elementDurability": 100.0,
          "modifierMixins": [
            {
              "$type": "ModifyDamageMixin",
              "ignoreEventInfo": true,
              "actorWindSubHurtDelta": "FrozenDamageUpRate2",
              "predicates": [
                {
                  "$type": "ByHasAbilityState",
                  "abilityState": "ElementFrozen"
                }
              ]
            }
          ],
          "isLimitedProperties": true
        },
        "UNIQUE_Activity_CrystalLink_Action_IncreaseFrozen_level2": {
          "stacking": "Unique",
          "modifierName": "",
          "forceTriggerWhenChangeAuthority": true,
          "elementDurability": 100.0,
          "modifierMixins": [
            {
              "$type": "ModifyDamageMixin",
              "ignoreEventInfo": true,
              "actorWindSubHurtDelta": "FrozenDamageUpRate3",
              "predicates": [
                {
                  "$type": "ByHasAbilityState",
                  "abilityState": "ElementFrozen"
                }
              ]
            }
          ],
          "isLimitedProperties": true
        },
        "Activity_CrystalLink_Action_IncreaseFrozen_Timer_handler_0": {
          "modifierName": "",
          "duration": "BuffDuration",
          "elementDurability": 100.0,
          "onAdded": [
            {
              "$type": "AddGlobalValue",
              "shieldHP": true,
              "value": 1.0,
              "key": "IncreaseFrozenDamageLevel",
              "useLimitRange": true,
              "maxValue": 3.0,
              "minValue": 0.0
            }
          ],
          "onRemoved": [
            {
              "$type": "AddGlobalValue",
              "shieldHP": true,
              "value": -1.0,
              "key": "IncreaseFrozenDamageLevel",
              "useLimitRange": true,
              "maxValue": 3.0,
              "minValue": 0.0
            }
          ]
        },
        "Activity_CrystalLink_Action_IncreaseFrozen_Timer_handler_1": {
          "modifierName": "",
          "duration": "BuffDuration",
          "elementDurability": 100.0,
          "onAdded": [
            {
              "$type": "AddGlobalValue",
              "shieldHP": true,
              "value": 1.0,
              "key": "IncreaseFrozenDamageLevel",
              "useLimitRange": true,
              "maxValue": 3.0,
              "minValue": 0.0
            }
          ],
          "onRemoved": [
            {
              "$type": "AddGlobalValue",
              "shieldHP": true,
              "value": -1.0,
              "key": "IncreaseFrozenDamageLevel",
              "useLimitRange": true,
              "maxValue": 3.0,
              "minValue": 0.0
            }
          ]
        },
        "Activity_CrystalLink_Action_IncreaseFrozen_Timer_handler_2": {
          "modifierName": "",
          "duration": "BuffDuration",
          "elementDurability": 100.0,
          "onAdded": [
            {
              "$type": "AddGlobalValue",
              "shieldHP": true,
              "value": 1.0,
              "key": "IncreaseFrozenDamageLevel",
              "useLimitRange": true,
              "maxValue": 3.0,
              "minValue": 0.0
            }
          ],
          "onRemoved": [
            {
              "$type": "AddGlobalValue",
              "shieldHP": true,
              "value": -1.0,
              "key": "IncreaseFrozenDamageLevel",
              "useLimitRange": true,
              "maxValue": 3.0,
              "minValue": 0.0
            }
          ]
        }
      },
      "onAbilityStart": [
        {
          "$type": "HHIHDCIIEJA",
          "shieldHP": true,
          "modifierName": "Activity_CrystalLink_Action_IncreaseFrozen_Timer_handler",
          "id": 32
        }
      ],
      "isDynamicAbility": true
    }
  },
  {
    "Default": {
      "$type": "ConfigAbility",
      "abilityName": "ActivityAbility_CrystalLink_Action_ElementalBurstDamageUp_Level4",
      "abilityMixins": [
        {
          "$type": "AttachModifierToSelfGlobalValueMixin",
          "globalValueKey": "ElementalBurslDamageUpLevel_Level4",
          "gvInTalk": 0.0,
          "valueSteps": [-0.5, 0.5, 1.5, 2.5, 3.5],
          "modifierNameSteps": [
            "Blank",
            "UNIQUE_Activity_CrystalLink_Action_ElementalBurstDamageUp_Level4_level0",
            "UNIQUE_Activity_CrystalLink_Action_ElementalBurstDamageUp_Level4_level1",
            "UNIQUE_Activity_CrystalLink_Action_ElementalBurstDamageUp_Level4_level2"
          ]
        }
      ],
      "abilitySpecials": {
        "ElementalBurstDamageUpLevel1": 0.0,
        "ElementalBurstDamageUpLevel2": 0.0,
        "ElementalBurstDamageUpLevel3": 0.0,
        "BuffDuration": 0.0
      },
      "modifiers": {
        "Blank": {
          "modifierName": "",
          "elementDurability": 100.0
        },
        "UNIQUE_Activity_CrystalLink_Action_ElementalBurstDamageUp_Level4_level0": {
          "stacking": "Unique",
          "modifierName": "",
          "forceTriggerWhenChangeAuthority": true,
          "elementDurability": 100.0,
          "modifierMixins": [
            {
              "$type": "ModifyDamageMixin",
              "attackTags": ["Elemental_Burst"],
              "actorWindSubHurtDelta": "ElementalBurstDamageUpLevel1"
            }
          ],
          "isLimitedProperties": true
        },
        "UNIQUE_Activity_CrystalLink_Action_ElementalBurstDamageUp_Level4_level1": {
          "stacking": "Unique",
          "modifierName": "",
          "forceTriggerWhenChangeAuthority": true,
          "elementDurability": 100.0,
          "modifierMixins": [
            {
              "$type": "ModifyDamageMixin",
              "attackTags": ["Elemental_Burst"],
              "actorWindSubHurtDelta": "ElementalBurstDamageUpLevel2"
            }
          ],
          "isLimitedProperties": true
        },
        "UNIQUE_Activity_CrystalLink_Action_ElementalBurstDamageUp_Level4_level2": {
          "stacking": "Unique",
          "modifierName": "",
          "forceTriggerWhenChangeAuthority": true,
          "elementDurability": 100.0,
          "modifierMixins": [
            {
              "$type": "ModifyDamageMixin",
              "attackTags": ["Elemental_Burst"],
              "actorWindSubHurtDelta": "ElementalBurstDamageUpLevel3"
            }
          ],
          "isLimitedProperties": true
        },
        "Activity_CrystalLink_Action_ElementalBurstDamageUp_Level4_Timer_handler_0": {
          "modifierName": "",
          "duration": "BuffDuration",
          "elementDurability": 100.0,
          "onAdded": [
            {
              "$type": "AddGlobalValue",
              "shieldHP": true,
              "value": 1.0,
              "key": "ElementalBurslDamageUpLevel_Level4",
              "useLimitRange": true,
              "maxValue": 3.0,
              "minValue": 0.0
            }
          ],
          "onRemoved": [
            {
              "$type": "AddGlobalValue",
              "shieldHP": true,
              "value": -1.0,
              "key": "ElementalBurslDamageUpLevel_Level4",
              "useLimitRange": true,
              "maxValue": 3.0,
              "minValue": 0.0
            }
          ],
          "isLimitedProperties": true
        },
        "Activity_CrystalLink_Action_ElementalBurstDamageUp_Level4_Timer_handler_1": {
          "modifierName": "",
          "duration": "BuffDuration",
          "elementDurability": 100.0,
          "onAdded": [
            {
              "$type": "AddGlobalValue",
              "shieldHP": true,
              "value": 1.0,
              "key": "ElementalBurslDamageUpLevel_Level4",
              "useLimitRange": true,
              "maxValue": 3.0,
              "minValue": 0.0
            }
          ],
          "onRemoved": [
            {
              "$type": "AddGlobalValue",
              "shieldHP": true,
              "value": -1.0,
              "key": "ElementalBurslDamageUpLevel_Level4",
              "useLimitRange": true,
              "maxValue": 3.0,
              "minValue": 0.0
            }
          ]
        },
        "Activity_CrystalLink_Action_ElementalBurstDamageUp_Level4_Timer_handler_2": {
          "modifierName": "",
          "duration": "BuffDuration",
          "elementDurability": 100.0,
          "onAdded": [
            {
              "$type": "AddGlobalValue",
              "shieldHP": true,
              "value": 1.0,
              "key": "ElementalBurslDamageUpLevel_Level4",
              "useLimitRange": true,
              "maxValue": 3.0,
              "minValue": 0.0
            }
          ],
          "onRemoved": [
            {
              "$type": "AddGlobalValue",
              "shieldHP": true,
              "value": -1.0,
              "key": "ElementalBurslDamageUpLevel_Level4",
              "useLimitRange": true,
              "maxValue": 3.0,
              "minValue": 0.0
            }
          ]
        }
      },
      "onAbilityStart": [
        {
          "$type": "HHIHDCIIEJA",
          "shieldHP": true,
          "modifierName": "Activity_CrystalLink_Action_ElementalBurstDamageUp_Level4_Timer_handler",
          "id": 33
        }
      ],
      "isDynamicAbility": true
    }
  },
  {
    "Default": {
      "$type": "ConfigAbility",
      "abilityName": "ActivityAbility_CrystalLink_Action_GrassDamageUp",
      "abilityMixins": [
        {
          "$type": "AttachModifierToSelfGlobalValueMixin",
          "globalValueKey": "GrassDamageUpLevel",
          "gvInTalk": 0.0,
          "valueSteps": [-0.5, 0.5, 1.5, 2.5, 3.5],
          "modifierNameSteps": [
            "Blank",
            "UNIQUE_Activity_CrystalLink_Action_GrassDamageUp_level0",
            "UNIQUE_Activity_CrystalLink_Action_GrassDamageUp_level1",
            "UNIQUE_Activity_CrystalLink_Action_GrassDamageUp_level2"
          ]
        }
      ],
      "abilitySpecials": {
        "GrassDamageUpRate1": 0.0,
        "GrassDamageUpRate2": 0.0,
        "GrassDamageUpRate3": 0.0,
        "BuffDuration": 0.0
      },
      "modifiers": {
        "Blank": {
          "modifierName": "",
          "elementDurability": 100.0
        },
        "UNIQUE_Activity_CrystalLink_Action_GrassDamageUp_level0": {
          "stacking": "Unique",
          "modifierName": "",
          "forceTriggerWhenChangeAuthority": true,
          "elementDurability": 100.0,
          "properties": {
            "Actor_GrassAddHurtDelta": "GrassDamageUpRate1"
          },
          "isLimitedProperties": true
        },
        "UNIQUE_Activity_CrystalLink_Action_GrassDamageUp_level1": {
          "stacking": "Unique",
          "modifierName": "",
          "forceTriggerWhenChangeAuthority": true,
          "elementDurability": 100.0,
          "properties": {
            "Actor_GrassAddHurtDelta": "GrassDamageUpRate2"
          },
          "isLimitedProperties": true
        },
        "UNIQUE_Activity_CrystalLink_Action_GrassDamageUp_level2": {
          "stacking": "Unique",
          "modifierName": "",
          "forceTriggerWhenChangeAuthority": true,
          "elementDurability": 100.0,
          "properties": {
            "Actor_GrassAddHurtDelta": "GrassDamageUpRate3"
          },
          "isLimitedProperties": true
        },
        "Activity_CrystalLink_Action_GrassDamageUp_Timer_handler_0": {
          "modifierName": "",
          "duration": "BuffDuration",
          "elementDurability": 100.0,
          "onAdded": [
            {
              "$type": "AddGlobalValue",
              "shieldHP": true,
              "value": 1.0,
              "key": "GrassDamageUpLevel",
              "useLimitRange": true,
              "maxValue": 3.0,
              "minValue": 0.0
            }
          ],
          "onRemoved": [
            {
              "$type": "AddGlobalValue",
              "shieldHP": true,
              "value": -1.0,
              "key": "GrassDamageUpLevel",
              "useLimitRange": true,
              "maxValue": 3.0,
              "minValue": 0.0
            }
          ]
        },
        "Activity_CrystalLink_Action_GrassDamageUp_Timer_handler_1": {
          "modifierName": "",
          "duration": "BuffDuration",
          "elementDurability": 100.0,
          "onAdded": [
            {
              "$type": "AddGlobalValue",
              "shieldHP": true,
              "value": 1.0,
              "key": "GrassDamageUpLevel",
              "useLimitRange": true,
              "maxValue": 3.0,
              "minValue": 0.0
            }
          ],
          "onRemoved": [
            {
              "$type": "AddGlobalValue",
              "shieldHP": true,
              "value": -1.0,
              "key": "GrassDamageUpLevel",
              "useLimitRange": true,
              "maxValue": 3.0,
              "minValue": 0.0
            }
          ]
        },
        "Activity_CrystalLink_Action_GrassDamageUp_Timer_handler_2": {
          "modifierName": "",
          "duration": "BuffDuration",
          "elementDurability": 100.0,
          "onAdded": [
            {
              "$type": "AddGlobalValue",
              "shieldHP": true,
              "value": 1.0,
              "key": "GrassDamageUpLevel",
              "useLimitRange": true,
              "maxValue": 3.0,
              "minValue": 0.0
            }
          ],
          "onRemoved": [
            {
              "$type": "AddGlobalValue",
              "shieldHP": true,
              "value": -1.0,
              "key": "GrassDamageUpLevel",
              "useLimitRange": true,
              "maxValue": 3.0,
              "minValue": 0.0
            }
          ]
        }
      },
      "onAbilityStart": [
        {
          "$type": "HHIHDCIIEJA",
          "shieldHP": true,
          "modifierName": "Activity_CrystalLink_Action_GrassDamageUp_Timer_handler",
          "id": 34
        }
      ],
      "isDynamicAbility": true
    }
  },
  {
    "Default": {
      "$type": "ConfigAbility",
      "abilityName": "ActivityAbility_CrystalLink_Action_ElemMasteryUp",
      "abilityMixins": [
        {
          "$type": "AttachModifierToSelfGlobalValueMixin",
          "globalValueKey": "ElemMasteryUpLevel",
          "gvInTalk": 0.0,
          "valueSteps": [-0.5, 0.5, 1.5, 2.5, 3.5],
          "modifierNameSteps": [
            "Blank",
            "UNIQUE_Activity_CrystalLink_Action_ElemMasteryUp_level0",
            "UNIQUE_Activity_CrystalLink_Action_ElemMasteryUp_level1",
            "UNIQUE_Activity_CrystalLink_Action_ElemMasteryUp_level2"
          ]
        }
      ],
      "abilitySpecials": {
        "ElemMasteryUpValue1": 0.0,
        "ElemMasteryUpValue2": 0.0,
        "ElemMasteryUpValue3": 0.0,
        "BuffDuration": 0.0
      },
      "modifiers": {
        "Blank": {
          "modifierName": "",
          "elementDurability": 100.0
        },
        "UNIQUE_Activity_CrystalLink_Action_ElemMasteryUp_level0": {
          "stacking": "Unique",
          "modifierName": "",
          "forceTriggerWhenChangeAuthority": true,
          "elementDurability": 100.0,
          "properties": {
            "Actor_ElemMasteryDelta": "ElemMasteryUpValue1"
          },
          "isLimitedProperties": true
        },
        "UNIQUE_Activity_CrystalLink_Action_ElemMasteryUp_level1": {
          "stacking": "Unique",
          "modifierName": "",
          "forceTriggerWhenChangeAuthority": true,
          "elementDurability": 100.0,
          "properties": {
            "Actor_ElemMasteryDelta": "ElemMasteryUpValue2"
          },
          "isLimitedProperties": true
        },
        "UNIQUE_Activity_CrystalLink_Action_ElemMasteryUp_level2": {
          "stacking": "Unique",
          "modifierName": "",
          "forceTriggerWhenChangeAuthority": true,
          "elementDurability": 100.0,
          "properties": {
            "Actor_ElemMasteryDelta": "ElemMasteryUpValue3"
          },
          "isLimitedProperties": true
        },
        "Activity_CrystalLink_Action_ElemMasteryUp_Timer_handler_0": {
          "modifierName": "",
          "duration": "BuffDuration",
          "elementDurability": 100.0,
          "onAdded": [
            {
              "$type": "AddGlobalValue",
              "shieldHP": true,
              "value": 1.0,
              "key": "ElemMasteryUpLevel",
              "useLimitRange": true,
              "maxValue": 3.0,
              "minValue": 0.0
            }
          ],
          "onRemoved": [
            {
              "$type": "AddGlobalValue",
              "shieldHP": true,
              "value": -1.0,
              "key": "ElemMasteryUpLevel",
              "useLimitRange": true,
              "maxValue": 3.0,
              "minValue": 0.0
            }
          ]
        },
        "Activity_CrystalLink_Action_ElemMasteryUp_Timer_handler_1": {
          "modifierName": "",
          "duration": "BuffDuration",
          "elementDurability": 100.0,
          "onAdded": [
            {
              "$type": "AddGlobalValue",
              "shieldHP": true,
              "value": 1.0,
              "key": "ElemMasteryUpLevel",
              "useLimitRange": true,
              "maxValue": 3.0,
              "minValue": 0.0
            }
          ],
          "onRemoved": [
            {
              "$type": "AddGlobalValue",
              "shieldHP": true,
              "value": -1.0,
              "key": "ElemMasteryUpLevel",
              "useLimitRange": true,
              "maxValue": 3.0,
              "minValue": 0.0
            }
          ]
        },
        "Activity_CrystalLink_Action_ElemMasteryUp_Timer_handler_2": {
          "modifierName": "",
          "duration": "BuffDuration",
          "elementDurability": 100.0,
          "onAdded": [
            {
              "$type": "AddGlobalValue",
              "shieldHP": true,
              "value": 1.0,
              "key": "ElemMasteryUpLevel",
              "useLimitRange": true,
              "maxValue": 3.0,
              "minValue": 0.0
            }
          ],
          "onRemoved": [
            {
              "$type": "AddGlobalValue",
              "shieldHP": true,
              "value": -1.0,
              "key": "ElemMasteryUpLevel",
              "useLimitRange": true,
              "maxValue": 3.0,
              "minValue": 0.0
            }
          ]
        }
      },
      "onAbilityStart": [
        {
          "$type": "HHIHDCIIEJA",
          "shieldHP": true,
          "modifierName": "Activity_CrystalLink_Action_ElemMasteryUp_Timer_handler",
          "id": 35
        }
      ],
      "isDynamicAbility": true
    }
  },
  {
    "Default": {
      "$type": "ConfigAbility",
      "abilityName": "ActivityAbility_CrystalLink_Action_NormalAtkDamageUp",
      "abilityMixins": [
        {
          "$type": "AttachModifierToSelfGlobalValueMixin",
          "globalValueKey": "NormalAtkDamageLevel",
          "gvInTalk": 0.0,
          "valueSteps": [-0.5, 0.5, 1.5, 2.5, 3.5],
          "modifierNameSteps": [
            "Blank",
            "UNIQUE_Activity_CrystalLink_Action_NormalAtkDamageUp_level0",
            "UNIQUE_Activity_CrystalLink_Action_NormalAtkDamageUp_level1",
            "UNIQUE_Activity_CrystalLink_Action_NormalAtkDamageUp_level2"
          ]
        }
      ],
      "abilitySpecials": {
        "NormalAttackUpRate1": 0.0,
        "NormalAttackUpRate2": 0.0,
        "NormalAttackUpRate3": 0.0,
        "BuffDuration": 0.0
      },
      "modifiers": {
        "Blank": {
          "modifierName": "",
          "elementDurability": 100.0
        },
        "UNIQUE_Activity_CrystalLink_Action_NormalAtkDamageUp_level0": {
          "stacking": "Unique",
          "modifierName": "",
          "forceTriggerWhenChangeAuthority": true,
          "elementDurability": 100.0,
          "modifierMixins": [
            {
              "$type": "ModifyDamageMixin",
              "attackTags": [
                "NormalAttack_01",
                "NormalAttack_02",
                "NormalAttack_03",
                "NormalAttack_04",
                "NormalAttack_05",
                "NormalAttack_06"
              ],
              "actorWindSubHurtDelta": "NormalAttackUpRate1"
            }
          ],
          "isLimitedProperties": true
        },
        "UNIQUE_Activity_CrystalLink_Action_NormalAtkDamageUp_level1": {
          "stacking": "Unique",
          "modifierName": "",
          "forceTriggerWhenChangeAuthority": true,
          "elementDurability": 100.0,
          "modifierMixins": [
            {
              "$type": "ModifyDamageMixin",
              "attackTags": [
                "NormalAttack_01",
                "NormalAttack_02",
                "NormalAttack_03",
                "NormalAttack_04",
                "NormalAttack_05",
                "NormalAttack_06"
              ],
              "actorWindSubHurtDelta": "NormalAttackUpRate2"
            }
          ],
          "isLimitedProperties": true
        },
        "UNIQUE_Activity_CrystalLink_Action_NormalAtkDamageUp_level2": {
          "stacking": "Unique",
          "modifierName": "",
          "forceTriggerWhenChangeAuthority": true,
          "elementDurability": 100.0,
          "modifierMixins": [
            {
              "$type": "ModifyDamageMixin",
              "attackTags": [
                "NormalAttack_01",
                "NormalAttack_02",
                "NormalAttack_03",
                "NormalAttack_04",
                "NormalAttack_05",
                "NormalAttack_06"
              ],
              "actorWindSubHurtDelta": "NormalAttackUpRate3"
            }
          ],
          "isLimitedProperties": true
        },
        "Activity_CrystalLink_Action_NormalAtkDamageUp_Timer_handler_0": {
          "modifierName": "",
          "duration": "BuffDuration",
          "elementDurability": 100.0,
          "onAdded": [
            {
              "$type": "AddGlobalValue",
              "shieldHP": true,
              "value": 1.0,
              "key": "NormalAtkDamageLevel",
              "useLimitRange": true,
              "maxValue": 3.0,
              "minValue": 0.0
            }
          ],
          "onRemoved": [
            {
              "$type": "AddGlobalValue",
              "shieldHP": true,
              "value": -1.0,
              "key": "NormalAtkDamageLevel",
              "useLimitRange": true,
              "maxValue": 3.0,
              "minValue": 0.0
            }
          ]
        },
        "Activity_CrystalLink_Action_NormalAtkDamageUp_Timer_handler_1": {
          "modifierName": "",
          "duration": "BuffDuration",
          "elementDurability": 100.0,
          "onAdded": [
            {
              "$type": "AddGlobalValue",
              "shieldHP": true,
              "value": 1.0,
              "key": "NormalAtkDamageLevel",
              "useLimitRange": true,
              "maxValue": 3.0,
              "minValue": 0.0
            }
          ],
          "onRemoved": [
            {
              "$type": "AddGlobalValue",
              "shieldHP": true,
              "value": -1.0,
              "key": "NormalAtkDamageLevel",
              "useLimitRange": true,
              "maxValue": 3.0,
              "minValue": 0.0
            }
          ]
        },
        "Activity_CrystalLink_Action_NormalAtkDamageUp_Timer_handler_2": {
          "modifierName": "",
          "duration": "BuffDuration",
          "elementDurability": 100.0,
          "onAdded": [
            {
              "$type": "AddGlobalValue",
              "shieldHP": true,
              "value": 1.0,
              "key": "NormalAtkDamageLevel",
              "useLimitRange": true,
              "maxValue": 3.0,
              "minValue": 0.0
            }
          ],
          "onRemoved": [
            {
              "$type": "AddGlobalValue",
              "shieldHP": true,
              "value": -1.0,
              "key": "NormalAtkDamageLevel",
              "useLimitRange": true,
              "maxValue": 3.0,
              "minValue": 0.0
            }
          ]
        }
      },
      "onAbilityStart": [
        {
          "$type": "HHIHDCIIEJA",
          "shieldHP": true,
          "modifierName": "Activity_CrystalLink_Action_NormalAtkDamageUp_Timer_handler",
          "id": 36
        }
      ],
      "isDynamicAbility": true
    }
  },
  {
    "Default": {
      "$type": "ConfigAbility",
      "abilityName": "ActivityAbility_CrystalLink_Action_ElectricDamageUp",
      "abilityMixins": [
        {
          "$type": "AttachModifierToSelfGlobalValueMixin",
          "globalValueKey": "ElectricDamageUpLevel",
          "gvInTalk": 0.0,
          "valueSteps": [-0.5, 0.5, 1.5, 2.5, 3.5],
          "modifierNameSteps": [
            "Blank",
            "UNIQUE_Activity_CrystalLink_Action_ElectricDamageUp_level0",
            "UNIQUE_Activity_CrystalLink_Action_ElectricDamageUp_level1",
            "UNIQUE_Activity_CrystalLink_Action_ElectricDamageUp_level2"
          ]
        }
      ],
      "abilitySpecials": {
        "ElecDamageUpRate1": 0.0,
        "ElecDamageUpRate2": 0.0,
        "ElecDamageUpRate3": 0.0,
        "BuffDuration": 0.0
      },
      "modifiers": {
        "Blank": {
          "modifierName": "",
          "elementDurability": 100.0
        },
        "UNIQUE_Activity_CrystalLink_Action_ElectricDamageUp_level0": {
          "stacking": "Unique",
          "modifierName": "",
          "forceTriggerWhenChangeAuthority": true,
          "elementDurability": 100.0,
          "properties": {
            "Actor_ElecAddHurtDelta": "ElecDamageUpRate1"
          },
          "isLimitedProperties": true
        },
        "UNIQUE_Activity_CrystalLink_Action_ElectricDamageUp_level1": {
          "stacking": "Unique",
          "modifierName": "",
          "forceTriggerWhenChangeAuthority": true,
          "elementDurability": 100.0,
          "properties": {
            "Actor_ElecAddHurtDelta": "ElecDamageUpRate2"
          },
          "isLimitedProperties": true
        },
        "UNIQUE_Activity_CrystalLink_Action_ElectricDamageUp_level2": {
          "stacking": "Unique",
          "modifierName": "",
          "forceTriggerWhenChangeAuthority": true,
          "elementDurability": 100.0,
          "properties": {
            "Actor_ElecAddHurtDelta": "ElecDamageUpRate3"
          },
          "isLimitedProperties": true
        },
        "Activity_CrystalLink_Action_ElectricDamageUp_Timer_handler_0": {
          "modifierName": "",
          "duration": "BuffDuration",
          "elementDurability": 100.0,
          "onAdded": [
            {
              "$type": "AddGlobalValue",
              "shieldHP": true,
              "value": 1.0,
              "key": "ElectricDamageUpLevel",
              "useLimitRange": true,
              "maxValue": 3.0,
              "minValue": 0.0
            }
          ],
          "onRemoved": [
            {
              "$type": "AddGlobalValue",
              "shieldHP": true,
              "value": -1.0,
              "key": "ElectricDamageUpLevel",
              "useLimitRange": true,
              "maxValue": 3.0,
              "minValue": 0.0
            }
          ]
        },
        "Activity_CrystalLink_Action_ElectricDamageUp_Timer_handler_1": {
          "modifierName": "",
          "duration": "BuffDuration",
          "elementDurability": 100.0,
          "onAdded": [
            {
              "$type": "AddGlobalValue",
              "shieldHP": true,
              "value": 1.0,
              "key": "ElectricDamageUpLevel",
              "useLimitRange": true,
              "maxValue": 3.0,
              "minValue": 0.0
            }
          ],
          "onRemoved": [
            {
              "$type": "AddGlobalValue",
              "shieldHP": true,
              "value": -1.0,
              "key": "ElectricDamageUpLevel",
              "useLimitRange": true,
              "maxValue": 3.0,
              "minValue": 0.0
            }
          ]
        },
        "Activity_CrystalLink_Action_ElectricDamageUp_Timer_handler_2": {
          "modifierName": "",
          "duration": "BuffDuration",
          "elementDurability": 100.0,
          "onAdded": [
            {
              "$type": "AddGlobalValue",
              "shieldHP": true,
              "value": 1.0,
              "key": "ElectricDamageUpLevel",
              "useLimitRange": true,
              "maxValue": 3.0,
              "minValue": 0.0
            }
          ],
          "onRemoved": [
            {
              "$type": "AddGlobalValue",
              "shieldHP": true,
              "value": -1.0,
              "key": "ElectricDamageUpLevel",
              "useLimitRange": true,
              "maxValue": 3.0,
              "minValue": 0.0
            }
          ]
        }
      },
      "onAbilityStart": [
        {
          "$type": "HHIHDCIIEJA",
          "shieldHP": true,
          "modifierName": "Activity_CrystalLink_Action_ElectricDamageUp_Timer_handler",
          "id": 28
        }
      ],
      "isDynamicAbility": true
    }
  },
  {
    "Default": {
      "$type": "ConfigAbility",
      "abilityName": "ActivityAbility_CrystalLink_Action_ElemMasteryUp_Level6",
      "abilityMixins": [
        {
          "$type": "AttachModifierToSelfGlobalValueMixin",
          "globalValueKey": "ElemMasteryUpLevel_2",
          "gvInTalk": 0.0,
          "valueSteps": [-0.5, 0.5, 1.5, 2.5, 3.5],
          "modifierNameSteps": [
            "Blank",
            "UNIQUE_Activity_CrystalLink_Action_ElemMasteryUp_Level6_level0",
            "UNIQUE_Activity_CrystalLink_Action_ElemMasteryUp_Level6_level1",
            "UNIQUE_Activity_CrystalLink_Action_ElemMasteryUp_Level6_level2"
          ]
        }
      ],
      "abilitySpecials": {
        "ElemMasteryUpValue1": 0.0,
        "ElemMasteryUpValue2": 0.0,
        "ElemMasteryUpValue3": 0.0,
        "BuffDuration": 0.0
      },
      "modifiers": {
        "Blank": {
          "modifierName": "",
          "elementDurability": 100.0
        },
        "UNIQUE_Activity_CrystalLink_Action_ElemMasteryUp_Level6_level0": {
          "stacking": "Unique",
          "modifierName": "",
          "forceTriggerWhenChangeAuthority": true,
          "elementDurability": 100.0,
          "properties": {
            "Actor_ElemMasteryDelta": "ElemMasteryUpValue1"
          },
          "isLimitedProperties": true
        },
        "UNIQUE_Activity_CrystalLink_Action_ElemMasteryUp_Level6_level1": {
          "stacking": "Unique",
          "modifierName": "",
          "forceTriggerWhenChangeAuthority": true,
          "elementDurability": 100.0,
          "properties": {
            "Actor_ElemMasteryDelta": "ElemMasteryUpValue2"
          },
          "isLimitedProperties": true
        },
        "UNIQUE_Activity_CrystalLink_Action_ElemMasteryUp_Level6_level2": {
          "stacking": "Unique",
          "modifierName": "",
          "forceTriggerWhenChangeAuthority": true,
          "elementDurability": 100.0,
          "properties": {
            "Actor_ElemMasteryDelta": "ElemMasteryUpValue3"
          },
          "isLimitedProperties": true
        },
        "Activity_CrystalLink_Action_ElemMasteryUp_Level6_Timer_handler_0": {
          "modifierName": "",
          "duration": "BuffDuration",
          "elementDurability": 100.0,
          "onAdded": [
            {
              "$type": "AddGlobalValue",
              "shieldHP": true,
              "value": 1.0,
              "key": "ElemMasteryUpLevel_2",
              "useLimitRange": true,
              "maxValue": 3.0,
              "minValue": 0.0
            }
          ],
          "onRemoved": [
            {
              "$type": "AddGlobalValue",
              "shieldHP": true,
              "value": -1.0,
              "key": "ElemMasteryUpLevel_2",
              "useLimitRange": true,
              "maxValue": 3.0,
              "minValue": 0.0
            }
          ]
        },
        "Activity_CrystalLink_Action_ElemMasteryUp_Level6_Timer_handler_1": {
          "modifierName": "",
          "duration": "BuffDuration",
          "elementDurability": 100.0,
          "onAdded": [
            {
              "$type": "AddGlobalValue",
              "shieldHP": true,
              "value": 1.0,
              "key": "ElemMasteryUpLevel_2",
              "useLimitRange": true,
              "maxValue": 3.0,
              "minValue": 0.0
            }
          ],
          "onRemoved": [
            {
              "$type": "AddGlobalValue",
              "shieldHP": true,
              "value": -1.0,
              "key": "ElemMasteryUpLevel_2",
              "useLimitRange": true,
              "maxValue": 3.0,
              "minValue": 0.0
            }
          ]
        },
        "Activity_CrystalLink_Action_ElemMasteryUp_Level6_Timer_handler_2": {
          "modifierName": "",
          "duration": "BuffDuration",
          "elementDurability": 100.0,
          "onAdded": [
            {
              "$type": "AddGlobalValue",
              "shieldHP": true,
              "value": 1.0,
              "key": "ElemMasteryUpLevel_2",
              "useLimitRange": true,
              "maxValue": 3.0,
              "minValue": 0.0
            }
          ],
          "onRemoved": [
            {
              "$type": "AddGlobalValue",
              "shieldHP": true,
              "value": -1.0,
              "key": "ElemMasteryUpLevel_2",
              "useLimitRange": true,
              "maxValue": 3.0,
              "minValue": 0.0
            }
          ]
        }
      },
      "onAbilityStart": [
        {
          "$type": "HHIHDCIIEJA",
          "shieldHP": true,
          "modifierName": "Activity_CrystalLink_Action_ElemMasteryUp_Level6_Timer_handler",
          "id": 29
        }
      ],
      "isDynamicAbility": true
    }
  },
  {
    "Default": {
      "$type": "ConfigAbility",
      "abilityName": "ActivityAbility_CrystalLink_Action_GainEnergy",
      "abilityMixins": [
        {
          "$type": "AttachModifierToSelfGlobalValueMixin",
          "globalValueKey": "GainEnergyLevel",
          "gvInTalk": 0.0,
          "valueSteps": [-0.5, 0.5, 1.5, 2.5, 3.5],
          "modifierNameSteps": [
            "Blank",
            "UNIQUE_Activity_CrystalLink_Action_GainEnergyLevel_level0",
            "UNIQUE_Activity_CrystalLink_Action_GainEnergyLevel_level1",
            "UNIQUE_Activity_CrystalLink_Action_GainEnergyLevel_level2"
          ]
        }
      ],
      "abilitySpecials": {
        "GainEnergyLevel1": 0.0,
        "GainEnergyLevel2": 0.0,
        "GainEnergyLevel3": 0.0,
        "BuffDuration": 0.0
      },
      "modifiers": {
        "Blank": {
          "modifierName": "",
          "elementDurability": 100.0
        },
        "UNIQUE_Activity_CrystalLink_Action_GainEnergyLevel_level0": {
          "stacking": "Unique",
          "modifierName": "",
          "forceTriggerWhenChangeAuthority": true,
          "elementDurability": 100.0,
          "thinkInterval": 1.0,
          "onThinkInterval": [
            {
              "$type": "ReviveElemEnergy",
              "shieldHP": true,
              "value": "GainEnergyLevel1"
            }
          ]
        },
        "UNIQUE_Activity_CrystalLink_Action_GainEnergyLevel_level1": {
          "stacking": "Unique",
          "modifierName": "",
          "forceTriggerWhenChangeAuthority": true,
          "elementDurability": 100.0,
          "thinkInterval": 1.0,
          "onThinkInterval": [
            {
              "$type": "ReviveElemEnergy",
              "shieldHP": true,
              "value": "GainEnergyLevel2"
            }
          ]
        },
        "UNIQUE_Activity_CrystalLink_Action_GainEnergyLevel_level2": {
          "stacking": "Unique",
          "modifierName": "",
          "forceTriggerWhenChangeAuthority": true,
          "elementDurability": 100.0,
          "thinkInterval": 1.0,
          "onThinkInterval": [
            {
              "$type": "ReviveElemEnergy",
              "shieldHP": true,
              "value": "GainEnergyLevel3"
            }
          ]
        },
        "Activity_CrystalLink_Action_GainEnergyLevel_Timer_handler_0": {
          "modifierName": "",
          "duration": "BuffDuration",
          "elementDurability": 100.0,
          "onAdded": [
            {
              "$type": "AddGlobalValue",
              "shieldHP": true,
              "value": 1.0,
              "key": "GainEnergyLevel",
              "useLimitRange": true,
              "maxValue": 3.0,
              "minValue": 0.0
            }
          ],
          "onRemoved": [
            {
              "$type": "AddGlobalValue",
              "shieldHP": true,
              "value": -1.0,
              "key": "GainEnergyLevel",
              "useLimitRange": true,
              "maxValue": 3.0,
              "minValue": 0.0
            }
          ]
        },
        "Activity_CrystalLink_Action_GainEnergyLevel_Timer_handler_1": {
          "modifierName": "",
          "duration": "BuffDuration",
          "elementDurability": 100.0,
          "onAdded": [
            {
              "$type": "AddGlobalValue",
              "shieldHP": true,
              "value": 1.0,
              "key": "GainEnergyLevel",
              "useLimitRange": true,
              "maxValue": 3.0,
              "minValue": 0.0
            }
          ],
          "onRemoved": [
            {
              "$type": "AddGlobalValue",
              "shieldHP": true,
              "value": -1.0,
              "key": "GainEnergyLevel",
              "useLimitRange": true,
              "maxValue": 3.0,
              "minValue": 0.0
            }
          ]
        },
        "Activity_CrystalLink_Action_GainEnergyLevel_Timer_handler_2": {
          "modifierName": "",
          "duration": "BuffDuration",
          "elementDurability": 100.0,
          "onAdded": [
            {
              "$type": "AddGlobalValue",
              "shieldHP": true,
              "value": 1.0,
              "key": "GainEnergyLevel",
              "useLimitRange": true,
              "maxValue": 3.0,
              "minValue": 0.0
            }
          ],
          "onRemoved": [
            {
              "$type": "AddGlobalValue",
              "shieldHP": true,
              "value": -1.0,
              "key": "GainEnergyLevel",
              "useLimitRange": true,
              "maxValue": 3.0,
              "minValue": 0.0
            }
          ]
        }
      },
      "onAbilityStart": [
        {
          "$type": "HHIHDCIIEJA",
          "shieldHP": true,
          "modifierName": "Activity_CrystalLink_Action_GainEnergyLevel_Timer_handler",
          "id": 30
        }
      ],
      "isDynamicAbility": true
    }
  }
]
