[
  {
    "Default": {
      "$type": "ConfigAbility",
      "abilityName": "Activity_MultiAvatar_Potion_Phase_1_1",
      "abilitySpecials": {
        "ElementMastery_Up": 0.0
      },
      "modifiers": {
        "MultiAvatar_Potion_Phase_1_1_Driver_Team": {
          "modifierName": "",
          "elementDurability": 100.0,
          "thinkInterval": 1.0,
          "onAdded": [
            {
              "$type": "AttachModifier",
              "target": "CurTeamAvatars",
              "shieldHP": true,
              "modifierName": "MultiAvatar_Potion_Phase_1_1_Avatar"
            }
          ],
          "onThinkInterval": [
            {
              "$type": "AttachModifier",
              "target": "CurTeamAvatars",
              "shieldHP": true,
              "modifierName": "MultiAvatar_Potion_Phase_1_1_Avatar"
            }
          ]
        },
        "MultiAvatar_Potion_Phase_1_1_Avatar": {
          "stacking": "Unique",
          "modifierName": "",
          "elementDurability": 100.0,
          "properties": {
            "Actor_ElemMasteryDelta": "ElementMastery_Up"
          },
          "state": "AttackUp",
          "isLimitedProperties": true
        }
      },
      "onAdded": [
        {
          "$type": "AttachModifier",
          "target": "Team",
          "modifierName": "MultiAvatar_Potion_Phase_1_1_Driver_Team"
        }
      ],
      "isDynamicAbility": true
    }
  },
  {
    "Default": {
      "$type": "ConfigAbility",
      "abilityName": "Activity_MultiAvatar_Potion_Phase_1_2",
      "abilitySpecials": {
        "Duration": 0.0,
        "SubHurtRatio": 0.0
      },
      "modifiers": {
        "MultiAvatar_Potion_Phase_1_2_Driver_Team": {
          "modifierName": "",
          "elementDurability": 100.0,
          "thinkInterval": 1.0,
          "onAdded": [
            {
              "$type": "AttachModifier",
              "target": "CurTeamAvatars",
              "shieldHP": true,
              "modifierName": "MultiAvatar_Potion_Phase_1_2_Avatar"
            }
          ],
          "onThinkInterval": [
            {
              "$type": "AttachModifier",
              "target": "CurTeamAvatars",
              "shieldHP": true,
              "modifierName": "MultiAvatar_Potion_Phase_1_2_Avatar"
            }
          ]
        },
        "MultiAvatar_Potion_Phase_1_2_Avatar": {
          "stacking": "Unique",
          "modifierName": "",
          "elementDurability": 100.0,
          "modifierMixins": [
            {
              "$type": "DoActionByElementReactionMixin",
              "entityTypes": ["Monster"],
              "reactionTypes": [
                "Burning",
                "Overdose",
                "Overgrow",
                "OverdoseElectric",
                "OverdoseGrass",
                "OvergrowMushroomElectric",
                "OvergrowMushroomFire"
              ],
              "actions": [
                {
                  "$type": "ApplyModifier",
                  "target": "Other",
                  "shieldHP": true,
                  "modifierName": "UNIQUE_MultiAvatar_Potion_Phase_1_2_SubHurt"
                }
              ]
            }
          ],
          "onHittingOther": [
            {
              "$type": "Predicated",
              "target": "Other",
              "shieldHP": true,
              "targetPredicates": [
                {
                  "$type": "ByAttackTags",
                  "attackTags": [
                    "OverGrowDamage",
                    "OverGrow_Fire_Damage",
                    "OverGrow_Electric_Damage"
                  ]
                },
                {
                  "$type": "ByEntityTypes",
                  "entityTypes": ["Monster"]
                },
                {
                  "$type": "ByTargetGlobalValue",
                  "key": "_ANIMAL_ENTITY_TYPE",
                  "value": 0.0,
                  "compareType": "NoneOrEqual"
                }
              ],
              "successActions": [
                {
                  "$type": "ApplyModifier",
                  "target": "Other",
                  "shieldHP": true,
                  "modifierName": "UNIQUE_MultiAvatar_Potion_Phase_1_2_SubHurt"
                }
              ]
            }
          ]
        },
        "UNIQUE_MultiAvatar_Potion_Phase_1_2_SubHurt": {
          "stacking": "RefreshUniqueDurability",
          "modifierName": "",
          "forceTriggerWhenChangeAuthority": true,
          "duration": "Duration",
          "elementDurability": 100.0,
          "properties": {
            "Actor_PhysicalSubHurtDelta": "SubHurtRatio",
            "Actor_FireSubHurtDelta": "SubHurtRatio",
            "Actor_ElecSubHurtDelta": "SubHurtRatio",
            "Actor_WaterSubHurtDelta": "SubHurtRatio",
            "Actor_GrassSubHurtDelta": "SubHurtRatio",
            "Actor_WindSubHurtDelta": "SubHurtRatio",
            "Actor_IceSubHurtDelta": "SubHurtRatio",
            "Actor_RockSubHurtDelta": "SubHurtRatio"
          },
          "state": "DefenseDown",
          "isLimitedProperties": true
        }
      },
      "onAdded": [
        {
          "$type": "AttachModifier",
          "target": "Team",
          "modifierName": "MultiAvatar_Potion_Phase_1_2_Driver_Team"
        }
      ],
      "isDynamicAbility": true
    }
  },
  {
    "Default": {
      "$type": "ConfigAbility",
      "abilityName": "Activity_MultiAvatar_Potion_Phase_1_3",
      "abilitySpecials": {
        "ImpactCD": 0.0,
        "DamageRatio": 0.0,
        "DamageSystemValue": 0.0
      },
      "modifiers": {
        "MultiAvatar_Potion_Phase_1_3_Driver_Team": {
          "modifierName": "",
          "elementDurability": 100.0,
          "thinkInterval": 1.0,
          "onAdded": [
            {
              "$type": "AttachModifier",
              "target": "CurTeamAvatars",
              "shieldHP": true,
              "modifierName": "MultiAvatar_Potion_Phase_1_3_Avatar"
            }
          ],
          "onThinkInterval": [
            {
              "$type": "AttachModifier",
              "target": "CurTeamAvatars",
              "shieldHP": true,
              "modifierName": "MultiAvatar_Potion_Phase_1_3_Avatar"
            }
          ]
        },
        "MultiAvatar_Potion_Phase_1_3_Avatar": {
          "stacking": "Unique",
          "modifierName": "",
          "elementDurability": 100.0,
          "modifierMixins": [
            {
              "$type": "DoActionByElementReactionMixin",
              "entityTypes": ["Monster"],
              "reactionTypes": [
                "Burning",
                "Overdose",
                "Overgrow",
                "OverdoseElectric",
                "OverdoseGrass",
                "OvergrowMushroomElectric",
                "OvergrowMushroomFire"
              ],
              "actions": [
                {
                  "$type": "SetGlobalPos",
                  "target": "Other",
                  "shieldHP": true,
                  "predicates": [
                    {
                      "$type": "ByTargetGlobalValue",
                      "target": "Team",
                      "key": "_ABILITY_MultiAvatar_Potion_Phase_1_3_CD_Mark",
                      "value": 0.0,
                      "compareType": "NoneOrEqual"
                    }
                  ],
                  "key": "_ABILITY_MultiAvatar_Potion_Phase_1_3_Impact_Pos_Team",
                  "born": {
                    "$type": "ConfigBornByTarget",
                    "offset": {
                      "x": 0.0,
                      "y": 0.0,
                      "z": 0.0
                    },
                    "onGround": true,
                    "useRotation": true
                  },
                  "setTarget": false
                },
                {
                  "$type": "Predicated",
                  "shieldHP": true,
                  "predicates": [
                    {
                      "$type": "ByTargetGlobalValue",
                      "target": "Team",
                      "key": "_ABILITY_MultiAvatar_Potion_Phase_1_3_CD_Mark",
                      "value": 0.0,
                      "compareType": "NoneOrEqual"
                    }
                  ],
                  "targetPredicates": [
                    {
                      "$type": "ByTargetGlobalValue",
                      "target": "Team",
                      "key": "_ABILITY_MultiAvatar_Potion_Phase_1_3_CD_Mark",
                      "value": 0.0,
                      "compareType": "NoneOrEqual"
                    }
                  ],
                  "successActions": [
                    {
                      "$type": "ApplyModifier",
                      "target": "Team",
                      "shieldHP": true,
                      "modifierName": "UNIQUE_MultiAvatar_Potion_Phase_1_3_Impact_TeamCD"
                    },
                    {
                      "$type": "CopyGlobalValue",
                      "shieldHP": true,
                      "srcTarget": "Team",
                      "dstTarget": "Self",
                      "srcKey": "_ABILITY_MultiAvatar_Potion_Phase_1_3_Impact_Pos_Team_0",
                      "dstKey": "_ABILITY_MultiAvatar_Potion_Phase_1_3_Impact_Pos_Avatar_0"
                    },
                    {
                      "$type": "CopyGlobalValue",
                      "shieldHP": true,
                      "srcTarget": "Team",
                      "dstTarget": "Self",
                      "srcKey": "_ABILITY_MultiAvatar_Potion_Phase_1_3_Impact_Pos_Team_1",
                      "dstKey": "_ABILITY_MultiAvatar_Potion_Phase_1_3_Impact_Pos_Avatar_1"
                    },
                    {
                      "$type": "CopyGlobalValue",
                      "shieldHP": true,
                      "srcTarget": "Team",
                      "dstTarget": "Self",
                      "srcKey": "_ABILITY_MultiAvatar_Potion_Phase_1_3_Impact_Pos_Team_2",
                      "dstKey": "_ABILITY_MultiAvatar_Potion_Phase_1_3_Impact_Pos_Avatar_2"
                    },
                    {
                      "$type": "TriggerAttackEvent",
                      "shieldHP": true,
                      "attackEvent": {
                        "attackPattern": {
                          "$type": "ConfigAttackCircle",
                          "triggerType": "TriggerNoRepeat",
                          "massiveAttackRatio": 0.30000001192092896,
                          "born": {
                            "$type": "ConfigBornByGlobalValue",
                            "offset": {
                              "x": 0.0,
                              "y": 0.0,
                              "z": 0.0
                            },
                            "onGround": true,
                            "useRotation": true,
                            "positionKey": "_ABILITY_MultiAvatar_Potion_Phase_1_3_Impact_Pos_Avatar",
                            "directionKey": ""
                          },
                          "height": 6.0,
                          "radius": 10.0
                        },
                        "attackInfo": {
                          "attackTag": "",
                          "attenuationTag": "",
                          "attenuationGroup": "default",
                          "attackProperty": {
                            "actorWindSubHurtDelta": 0.0,
                            "elementDurability": 20.0,
                            "strikeType": "Default",
                            "enBreak": 20.0,
                            "attackType": "Range",
                            "HMBONGBFIAP": [
                              "DamageRatio",
                              "DamageSystemValue",
                              "MUL"
                            ],
                            "trueDamage": true,
                            "GLKMCMDJBIK": 0.0
                          },
                          "hitPattern": {
                            "onHitEffectName": "default",
                            "hitImpulseY": "",
                            "hitImpulseType": "LV3",
                            "retreatType": "ByHitDirectionInverse",
                            "hitHaltTimeScale": 0.05000000074505806
                          }
                        }
                      },
                      "targetType": "Enemy"
                    },
                    {
                      "$type": "FireEffect",
                      "shieldHP": true,
                      "rotationDampTime": "Eff_Activity_AkaFesPotion_Blast_R8",
                      "born": {
                        "$type": "ConfigBornByGlobalValue",
                        "useRotation": true,
                        "positionKey": "_ABILITY_MultiAvatar_Potion_Phase_1_3_Impact_Pos_Avatar",
                        "directionKey": ""
                      },
                      "PPPDJGDDOGD": 1.0,
                      "AJDILHJFNKE": -1.0
                    }
                  ]
                }
              ]
            }
          ],
          "onAdded": [
            {
              "$type": "GDHGMAPPGHD",
              "shieldHP": true,
              "key": "DamageSystemValue",
              "damageRatio": "ElementLevelCo"
            }
          ],
          "onHittingOther": [
            {
              "$type": "Predicated",
              "target": "Other",
              "shieldHP": true,
              "targetPredicates": [
                {
                  "$type": "ByAttackTags",
                  "attackTags": [
                    "OverGrowDamage",
                    "OverGrow_Fire_Damage",
                    "OverGrow_Electric_Damage"
                  ]
                },
                {
                  "$type": "ByEntityTypes",
                  "entityTypes": ["Monster"]
                },
                {
                  "$type": "ByTargetGlobalValue",
                  "key": "_ANIMAL_ENTITY_TYPE",
                  "value": 0.0,
                  "compareType": "NoneOrEqual"
                }
              ],
              "successActions": [
                {
                  "$type": "SetGlobalPos",
                  "target": "Other",
                  "shieldHP": true,
                  "predicates": [
                    {
                      "$type": "ByTargetGlobalValue",
                      "target": "Team",
                      "key": "_ABILITY_MultiAvatar_Potion_Phase_1_3_CD_Mark",
                      "value": 0.0,
                      "compareType": "NoneOrEqual"
                    }
                  ],
                  "key": "_ABILITY_MultiAvatar_Potion_Phase_1_3_Impact_Pos_Team",
                  "born": {
                    "$type": "ConfigBornByTarget",
                    "offset": {
                      "x": 0.0,
                      "y": 0.0,
                      "z": 0.0
                    },
                    "onGround": true,
                    "useRotation": true
                  },
                  "setTarget": false
                },
                {
                  "$type": "Predicated",
                  "shieldHP": true,
                  "predicates": [
                    {
                      "$type": "ByTargetGlobalValue",
                      "target": "Team",
                      "key": "_ABILITY_MultiAvatar_Potion_Phase_1_3_CD_Mark",
                      "value": 0.0,
                      "compareType": "NoneOrEqual"
                    }
                  ],
                  "successActions": [
                    {
                      "$type": "ApplyModifier",
                      "target": "Team",
                      "shieldHP": true,
                      "modifierName": "UNIQUE_MultiAvatar_Potion_Phase_1_3_Impact_TeamCD"
                    },
                    {
                      "$type": "SetGlobalPos",
                      "shieldHP": true,
                      "key": "_ABILITY_MultiAvatar_Potion_Phase_1_3_Impact_Pos_Avatar",
                      "born": {
                        "$type": "ConfigBornBySelf",
                        "useRotation": true
                      }
                    },
                    {
                      "$type": "CopyGlobalValue",
                      "shieldHP": true,
                      "srcTarget": "Team",
                      "dstTarget": "Self",
                      "srcKey": "_ABILITY_MultiAvatar_Potion_Phase_1_3_Impact_Pos_Team_0",
                      "dstKey": "_ABILITY_MultiAvatar_Potion_Phase_1_3_Impact_Pos_Avatar_0"
                    },
                    {
                      "$type": "CopyGlobalValue",
                      "shieldHP": true,
                      "srcTarget": "Team",
                      "dstTarget": "Self",
                      "srcKey": "_ABILITY_MultiAvatar_Potion_Phase_1_3_Impact_Pos_Team_1",
                      "dstKey": "_ABILITY_MultiAvatar_Potion_Phase_1_3_Impact_Pos_Avatar_1"
                    },
                    {
                      "$type": "CopyGlobalValue",
                      "shieldHP": true,
                      "srcTarget": "Team",
                      "dstTarget": "Self",
                      "srcKey": "_ABILITY_MultiAvatar_Potion_Phase_1_3_Impact_Pos_Team_2",
                      "dstKey": "_ABILITY_MultiAvatar_Potion_Phase_1_3_Impact_Pos_Avatar_2"
                    },
                    {
                      "$type": "TriggerAttackEvent",
                      "shieldHP": true,
                      "attackEvent": {
                        "attackPattern": {
                          "$type": "ConfigAttackCircle",
                          "triggerType": "TriggerNoRepeat",
                          "massiveAttackRatio": 0.30000001192092896,
                          "born": {
                            "$type": "ConfigBornByGlobalValue",
                            "offset": {
                              "x": 0.0,
                              "y": 0.0,
                              "z": 0.0
                            },
                            "onGround": true,
                            "useRotation": true,
                            "positionKey": "_ABILITY_MultiAvatar_Potion_Phase_1_3_Impact_Pos_Avatar",
                            "directionKey": ""
                          },
                          "height": 6.0,
                          "radius": 10.0
                        },
                        "attackInfo": {
                          "attackTag": "",
                          "attenuationTag": "",
                          "attenuationGroup": "default",
                          "attackProperty": {
                            "actorWindSubHurtDelta": 0.0,
                            "elementDurability": 20.0,
                            "strikeType": "Default",
                            "enBreak": 20.0,
                            "attackType": "Range",
                            "HMBONGBFIAP": [
                              "DamageRatio",
                              "DamageSystemValue",
                              "MUL"
                            ],
                            "trueDamage": true,
                            "GLKMCMDJBIK": 0.0
                          },
                          "hitPattern": {
                            "onHitEffectName": "default",
                            "hitImpulseY": "",
                            "hitImpulseType": "LV3",
                            "retreatType": "ByHitDirectionInverse",
                            "hitHaltTimeScale": 0.05000000074505806
                          }
                        }
                      },
                      "targetType": "Enemy"
                    },
                    {
                      "$type": "FireEffect",
                      "rotationDampTime": "Eff_Activity_AkaFesPotion_Blast_R8",
                      "born": {
                        "$type": "ConfigBornByGlobalValue",
                        "offset": {
                          "x": 0.0,
                          "y": 0.0,
                          "z": 0.0
                        },
                        "onGround": true,
                        "useRotation": true,
                        "positionKey": "_ABILITY_MultiAvatar_Potion_Phase_1_3_Impact_Pos_Avatar",
                        "directionKey": ""
                      },
                      "PPPDJGDDOGD": 1.0,
                      "AJDILHJFNKE": -1.0
                    }
                  ]
                }
              ]
            }
          ]
        },
        "UNIQUE_MultiAvatar_Potion_Phase_1_3_Impact_TeamCD": {
          "stacking": "Unique",
          "modifierName": "",
          "forceTriggerWhenChangeAuthority": true,
          "duration": "ImpactCD",
          "elementDurability": 100.0,
          "onAdded": [
            {
              "$type": "SetGlobalValue",
              "target": "Team",
              "shieldHP": true,
              "value": 1.0,
              "key": "_ABILITY_MultiAvatar_Potion_Phase_1_3_CD_Mark",
              "maxValue": 0.0,
              "minValue": 0.0
            }
          ],
          "onRemoved": [
            {
              "$type": "SetGlobalValue",
              "target": "Team",
              "shieldHP": true,
              "value": 0.0,
              "key": "_ABILITY_MultiAvatar_Potion_Phase_1_3_CD_Mark",
              "maxValue": 0.0,
              "minValue": 0.0
            }
          ]
        }
      },
      "onAdded": [
        {
          "$type": "AttachModifier",
          "target": "Team",
          "modifierName": "MultiAvatar_Potion_Phase_1_3_Driver_Team"
        }
      ],
      "isDynamicAbility": true
    }
  },
  {
    "Default": {
      "$type": "ConfigAbility",
      "abilityName": "Activity_MultiAvatar_Potion_Phase_2_1",
      "abilitySpecials": {
        "MaxHPRatio": 0.0
      },
      "modifiers": {
        "MultiAvatar_Potion_Phase_2_1_Driver_Team": {
          "modifierName": "",
          "elementDurability": 100.0,
          "thinkInterval": 1.0,
          "onAdded": [
            {
              "$type": "AttachModifier",
              "target": "CurTeamAvatars",
              "shieldHP": true,
              "modifierName": "MultiAvatar_Potion_Phase_2_1_Avatar"
            }
          ],
          "onThinkInterval": [
            {
              "$type": "AttachModifier",
              "target": "CurTeamAvatars",
              "shieldHP": true,
              "modifierName": "MultiAvatar_Potion_Phase_2_1_Avatar"
            }
          ]
        },
        "MultiAvatar_Potion_Phase_2_1_Avatar": {
          "stacking": "Unique",
          "modifierName": "",
          "elementDurability": 100.0,
          "properties": {
            "Actor_MaxHPRatio": "MaxHPRatio"
          },
          "isLimitedProperties": true
        }
      },
      "onAdded": [
        {
          "$type": "AttachModifier",
          "target": "Team",
          "modifierName": "MultiAvatar_Potion_Phase_2_1_Driver_Team"
        }
      ],
      "isDynamicAbility": true
    }
  },
  {
    "Default": {
      "$type": "ConfigAbility",
      "abilityName": "Activity_MultiAvatar_Potion_Phase_2_2",
      "abilitySpecials": {
        "HP_Ratio": 0.0,
        "Critical_Ratio": 0.0,
        "CriticalHurt_Ratio": 0.0
      },
      "modifiers": {
        "MultiAvatar_Potion_Phase_2_2_Driver_Team": {
          "modifierName": "",
          "elementDurability": 100.0,
          "thinkInterval": 1.0,
          "onAdded": [
            {
              "$type": "AttachModifier",
              "target": "CurTeamAvatars",
              "shieldHP": true,
              "modifierName": "MultiAvatar_Potion_Phase_2_2_Avatar"
            }
          ],
          "onThinkInterval": [
            {
              "$type": "AttachModifier",
              "target": "CurTeamAvatars",
              "shieldHP": true,
              "modifierName": "MultiAvatar_Potion_Phase_2_2_Avatar"
            }
          ]
        },
        "MultiAvatar_Potion_Phase_2_2_Avatar": {
          "stacking": "Unique",
          "modifierName": "",
          "elementDurability": 100.0,
          "modifierMixins": [
            {
              "$type": "AttachModifierToPredicateMixin",
              "onEvent": "HP",
              "predicates": [
                {
                  "$type": "ByTargetHPRatio",
                  "ratio": "HP_Ratio"
                }
              ],
              "modifierName": "MultiAvatar_Potion_Phase_2_2_Avatar_CritBuff"
            }
          ],
          "onAdded": [
            {
              "$type": "AttachModifier",
              "shieldHP": true,
              "predicates": [
                {
                  "$type": "ByTargetHPRatio",
                  "ratio": "HP_Ratio"
                }
              ],
              "modifierName": "MultiAvatar_Potion_Phase_2_2_Avatar_CritBuff"
            }
          ]
        },
        "MultiAvatar_Potion_Phase_2_2_Avatar_CritBuff": {
          "modifierName": "",
          "elementDurability": 100.0,
          "properties": {
            "Actor_CriticalExtraDelta": "Critical_Ratio",
            "Actor_CriticalHurtExtraDelta": "CriticalHurt_Ratio"
          },
          "state": "AttackUp",
          "isLimitedProperties": true
        }
      },
      "onAdded": [
        {
          "$type": "AttachModifier",
          "target": "Team",
          "modifierName": "MultiAvatar_Potion_Phase_2_2_Driver_Team"
        }
      ],
      "isDynamicAbility": true
    }
  },
  {
    "Default": {
      "$type": "ConfigAbility",
      "abilityName": "Activity_MultiAvatar_Potion_Phase_2_3",
      "abilitySpecials": {
        "ImpactCD": 0.0,
        "DamageRatio": 0.0,
        "DamageSystemValue": 0.0
      },
      "modifiers": {
        "MultiAvatar_Potion_Phase_2_3_Driver_Team": {
          "modifierName": "",
          "elementDurability": 100.0,
          "thinkInterval": 1.0,
          "onAdded": [
            {
              "$type": "AttachModifier",
              "target": "CurTeamAvatars",
              "shieldHP": true,
              "modifierName": "MultiAvatar_Potion_Phase_2_3_Avatar"
            }
          ],
          "onThinkInterval": [
            {
              "$type": "AttachModifier",
              "target": "CurTeamAvatars",
              "shieldHP": true,
              "modifierName": "MultiAvatar_Potion_Phase_2_3_Avatar"
            }
          ]
        },
        "MultiAvatar_Potion_Phase_2_3_Avatar": {
          "stacking": "Unique",
          "modifierName": "",
          "elementDurability": 100.0,
          "thinkInterval": 0.25,
          "onAdded": [
            {
              "$type": "GDHGMAPPGHD",
              "shieldHP": true,
              "key": "DamageSystemValue",
              "damageRatio": "ElementLevelCo"
            }
          ],
          "onBeingHealed": [
            {
              "$type": "ApplyModifier",
              "target": "Team",
              "modifierName": "MultiAvatar_Potion_Phase_2_3_Impact_Team"
            }
          ],
          "onThinkInterval": [
            {
              "$type": "ApplyModifier",
              "target": "Team",
              "predicates": [
                {
                  "$type": "PDBBDHGEDJH",
                  "target": "Self",
                  "damageRatio": "All"
                }
              ],
              "modifierName": "MultiAvatar_Potion_Phase_2_3_Impact_Team"
            }
          ],
          "isLimitedProperties": true
        },
        "MultiAvatar_Potion_Phase_2_3_Impact_Team": {
          "stacking": "Unique",
          "modifierName": "",
          "duration": "ImpactCD",
          "elementDurability": 100.0,
          "onAdded": [
            {
              "$type": "ApplyModifier",
              "target": "CurLocalAvatar",
              "shieldHP": true,
              "modifierName": "MultiAvatar_Potion_Phase_2_3_Impact"
            }
          ]
        },
        "MultiAvatar_Potion_Phase_2_3_Impact": {
          "stacking": "Multiple",
          "modifierName": "",
          "duration": 1.0,
          "elementDurability": 100.0,
          "onAdded": [
            {
              "$type": "TriggerAttackEvent",
              "attackEvent": {
                "attackPattern": {
                  "$type": "ConfigAttackCircle",
                  "triggerType": "TriggerNoRepeat",
                  "massiveAttackRatio": 0.30000001192092896,
                  "born": {
                    "$type": "ConfigBornBySelf",
                    "offset": {
                      "x": 0.0,
                      "y": 0.0,
                      "z": 0.0
                    },
                    "onGround": true,
                    "useRotation": true
                  },
                  "height": 6.0,
                  "radius": 10.0
                },
                "attackInfo": {
                  "attackTag": "",
                  "attenuationTag": "",
                  "attenuationGroup": "default",
                  "attackProperty": {
                    "actorWindSubHurtDelta": 0.0,
                    "elementDurability": 20.0,
                    "strikeType": "Default",
                    "enBreak": 20.0,
                    "attackType": "Range",
                    "HMBONGBFIAP": ["DamageRatio", "DamageSystemValue", "MUL"],
                    "trueDamage": true,
                    "GLKMCMDJBIK": 0.0
                  },
                  "hitPattern": {
                    "onHitEffectName": "default",
                    "hitImpulseY": "",
                    "hitImpulseType": "LV3",
                    "retreatType": "ByHitDirectionInverse",
                    "hitHaltTimeScale": 0.05000000074505806
                  }
                }
              },
              "targetType": "Enemy"
            },
            {
              "$type": "FireEffect",
              "rotationDampTime": "Eff_Activity_AkaFesPotion_Blast_R8",
              "PPPDJGDDOGD": 1.0,
              "AJDILHJFNKE": -1.0
            }
          ]
        }
      },
      "onAdded": [
        {
          "$type": "AttachModifier",
          "target": "Team",
          "modifierName": "MultiAvatar_Potion_Phase_2_3_Driver_Team"
        }
      ],
      "isDynamicAbility": true
    }
  },
  {
    "Default": {
      "$type": "ConfigAbility",
      "abilityName": "Activity_MultiAvatar_Potion_Phase_3_1",
      "abilitySpecials": {
        "Charge_EfficiencyDelta": 0.0
      },
      "modifiers": {
        "MultiAvatar_Potion_Phase_3_1_Driver_Team": {
          "modifierName": "",
          "elementDurability": 100.0,
          "thinkInterval": 1.0,
          "onAdded": [
            {
              "$type": "AttachModifier",
              "target": "CurTeamAvatars",
              "shieldHP": true,
              "modifierName": "MultiAvatar_Potion_Phase_3_1_Avatar"
            }
          ],
          "onThinkInterval": [
            {
              "$type": "AttachModifier",
              "target": "CurTeamAvatars",
              "shieldHP": true,
              "modifierName": "MultiAvatar_Potion_Phase_3_1_Avatar"
            }
          ]
        },
        "MultiAvatar_Potion_Phase_3_1_Avatar": {
          "stacking": "Unique",
          "modifierName": "",
          "elementDurability": 100.0,
          "properties": {
            "Actor_ChargeEfficiencyDelta": "Charge_EfficiencyDelta"
          },
          "isLimitedProperties": true
        }
      },
      "onAdded": [
        {
          "$type": "AttachModifier",
          "target": "Team",
          "modifierName": "MultiAvatar_Potion_Phase_3_1_Driver_Team"
        }
      ],
      "isDynamicAbility": true
    }
  },
  {
    "Default": {
      "$type": "ConfigAbility",
      "abilityName": "Activity_MultiAvatar_Potion_Phase_3_2",
      "abilitySpecials": {
        "BurstDamageUpRatio": 0.0,
        "BuffDuration": 0.0,
        "Element_DamgeUpRatio": 0.0
      },
      "modifiers": {
        "MultiAvatar_Potion_Phase_3_2_Driver_Team": {
          "modifierName": "",
          "elementDurability": 100.0,
          "thinkInterval": 1.0,
          "onAdded": [
            {
              "$type": "AttachModifier",
              "target": "CurTeamAvatars",
              "shieldHP": true,
              "modifierName": "MultiAvatar_Potion_Phase_3_2_Avatar"
            }
          ],
          "onThinkInterval": [
            {
              "$type": "AttachModifier",
              "target": "CurTeamAvatars",
              "shieldHP": true,
              "modifierName": "MultiAvatar_Potion_Phase_3_2_Avatar"
            }
          ]
        },
        "MultiAvatar_Potion_Phase_3_2_Avatar": {
          "stacking": "Unique",
          "modifierName": "",
          "elementDurability": 100.0,
          "modifierMixins": [
            {
              "$type": "ModifyDamageMixin",
              "attackTags": ["Elemental_Burst"],
              "actorWindSubHurtDelta": "BurstDamageUpRatio"
            },
            {
              "$type": "OnAvatarUseSkillMixin",
              "onTriggerUltimateSkill": [
                {
                  "$type": "AttachModifier",
                  "target": "Team",
                  "shieldHP": true,
                  "modifierName": "MultiAvatar_Potion_Phase_3_2_BurstBuff_Team"
                }
              ],
              "clearSkillIdDelay": 0.20000000298023224
            }
          ]
        },
        "MultiAvatar_Potion_Phase_3_2_BurstBuff_Team": {
          "stacking": "MultipleAllRefresh",
          "stackingOption": {
            "abilitySpecialName": "",
            "maxModifierNumForMultipleType": 3.0
          },
          "modifierName": "",
          "duration": "BuffDuration",
          "elementDurability": 100.0,
          "onAdded": [
            {
              "$type": "AttachModifier",
              "target": "CurTeamAvatars",
              "shieldHP": true,
              "modifierName": "MultiAvatar_Potion_Phase_3_2_BurstBuff_Avatar"
            }
          ]
        },
        "MultiAvatar_Potion_Phase_3_2_BurstBuff_Avatar": {
          "stacking": "Multiple",
          "modifierName": "",
          "elementDurability": 100.0,
          "properties": {
            "Actor_WaterAddHurtDelta": "Element_DamgeUpRatio",
            "Actor_FireAddHurtDelta": "Element_DamgeUpRatio",
            "Actor_ElecAddHurtDelta": "Element_DamgeUpRatio",
            "Actor_GrassAddHurtDelta": "Element_DamgeUpRatio",
            "Actor_WindAddHurtDelta": "Element_DamgeUpRatio",
            "Actor_IceAddHurtDelta": "Element_DamgeUpRatio",
            "Actor_RockAddHurtDelta": "Element_DamgeUpRatio"
          },
          "isLimitedProperties": true
        }
      },
      "onAdded": [
        {
          "$type": "AttachModifier",
          "target": "Team",
          "modifierName": "MultiAvatar_Potion_Phase_3_2_Driver_Team"
        }
      ],
      "isDynamicAbility": true
    }
  },
  {
    "Default": {
      "$type": "ConfigAbility",
      "abilityName": "Activity_MultiAvatar_Potion_Phase_3_3",
      "abilitySpecials": {
        "DamageRatio": 0.0,
        "DamageSystemValue": 0.0,
        "ImpactCD": 0.0
      },
      "modifiers": {
        "MultiAvatar_Potion_Phase_3_3_Driver_Team": {
          "modifierName": "",
          "elementDurability": 100.0,
          "thinkInterval": 1.0,
          "onAdded": [
            {
              "$type": "AttachModifier",
              "target": "CurTeamAvatars",
              "shieldHP": true,
              "modifierName": "MultiAvatar_Potion_Phase_3_3_Avatar"
            }
          ],
          "onThinkInterval": [
            {
              "$type": "AttachModifier",
              "target": "CurTeamAvatars",
              "shieldHP": true,
              "modifierName": "MultiAvatar_Potion_Phase_3_3_Avatar"
            }
          ]
        },
        "MultiAvatar_Potion_Phase_3_3_Avatar": {
          "stacking": "Unique",
          "modifierName": "",
          "elementDurability": 100.0,
          "onAdded": [
            {
              "$type": "GDHGMAPPGHD",
              "shieldHP": true,
              "key": "DamageSystemValue",
              "damageRatio": "ElementLevelCo"
            }
          ],
          "onHittingOther": [
            {
              "$type": "Predicated",
              "target": "Other",
              "shieldHP": true,
              "targetPredicates": [
                {
                  "$type": "ByAttackTags",
                  "attackTags": ["Elemental_Burst"]
                },
                {
                  "$type": "ByEntityTypes",
                  "entityTypes": ["Monster"]
                },
                {
                  "$type": "ByTargetGlobalValue",
                  "key": "_ANIMAL_ENTITY_TYPE",
                  "value": 0.0,
                  "compareType": "NoneOrEqual"
                }
              ],
              "successActions": [
                {
                  "$type": "SetGlobalPos",
                  "target": "Other",
                  "shieldHP": true,
                  "predicates": [
                    {
                      "$type": "ByTargetGlobalValue",
                      "target": "Self",
                      "key": "_ABILITY_MultiAvatar_Potion_Phase_3_3_ImpactCD",
                      "value": 0.0,
                      "compareType": "NoneOrEqual"
                    }
                  ],
                  "key": "_ABILITY_MultiAvatar_Potion_Phase_3_3_Pos",
                  "born": {
                    "$type": "ConfigBornByTarget",
                    "offset": {
                      "x": 0.0,
                      "y": 0.0,
                      "z": 0.0
                    },
                    "onGround": true,
                    "useRotation": true
                  },
                  "setTarget": false
                },
                {
                  "$type": "SetGlobalPos",
                  "shieldHP": true,
                  "predicates": [
                    {
                      "$type": "ByTargetGlobalValue",
                      "target": "Self",
                      "key": "_ABILITY_MultiAvatar_Potion_Phase_3_3_ImpactCD",
                      "value": 0.0,
                      "compareType": "NoneOrEqual"
                    }
                  ],
                  "key": "_ABILITY_MultiAvatar_Potion_Phase_3_3_Pos_Avatar",
                  "born": {
                    "$type": "ConfigBornBySelf",
                    "useRotation": true
                  }
                },
                {
                  "$type": "CopyGlobalValue",
                  "shieldHP": true,
                  "predicates": [
                    {
                      "$type": "ByTargetGlobalValue",
                      "target": "Self",
                      "key": "_ABILITY_MultiAvatar_Potion_Phase_3_3_ImpactCD",
                      "value": 0.0,
                      "compareType": "NoneOrEqual"
                    }
                  ],
                  "srcTarget": "Team",
                  "dstTarget": "Self",
                  "srcKey": "_ABILITY_MultiAvatar_Potion_Phase_3_3_Pos_0",
                  "dstKey": "_ABILITY_MultiAvatar_Potion_Phase_3_3_Pos_Avatar_0"
                },
                {
                  "$type": "CopyGlobalValue",
                  "shieldHP": true,
                  "predicates": [
                    {
                      "$type": "ByTargetGlobalValue",
                      "target": "Self",
                      "key": "_ABILITY_MultiAvatar_Potion_Phase_3_3_ImpactCD",
                      "value": 0.0,
                      "compareType": "NoneOrEqual"
                    }
                  ],
                  "srcTarget": "Team",
                  "dstTarget": "Self",
                  "srcKey": "_ABILITY_MultiAvatar_Potion_Phase_3_3_Pos_1",
                  "dstKey": "_ABILITY_MultiAvatar_Potion_Phase_3_3_Pos_Avatar_1"
                },
                {
                  "$type": "CopyGlobalValue",
                  "shieldHP": true,
                  "predicates": [
                    {
                      "$type": "ByTargetGlobalValue",
                      "target": "Self",
                      "key": "_ABILITY_MultiAvatar_Potion_Phase_3_3_ImpactCD",
                      "value": 0.0,
                      "compareType": "NoneOrEqual"
                    }
                  ],
                  "srcTarget": "Team",
                  "dstTarget": "Self",
                  "srcKey": "_ABILITY_MultiAvatar_Potion_Phase_3_3_Pos_2",
                  "dstKey": "_ABILITY_MultiAvatar_Potion_Phase_3_3_Pos_Avatar_2"
                },
                {
                  "$type": "TriggerAttackEvent",
                  "shieldHP": true,
                  "predicates": [
                    {
                      "$type": "ByTargetGlobalValue",
                      "target": "Self",
                      "key": "_ABILITY_MultiAvatar_Potion_Phase_3_3_ImpactCD",
                      "value": 0.0,
                      "compareType": "NoneOrEqual"
                    }
                  ],
                  "attackEvent": {
                    "attackPattern": {
                      "$type": "ConfigAttackCircle",
                      "triggerType": "TriggerNoRepeat",
                      "massiveAttackRatio": 0.30000001192092896,
                      "born": {
                        "$type": "ConfigBornByGlobalValue",
                        "offset": {
                          "x": 0.0,
                          "y": 0.0,
                          "z": 0.0
                        },
                        "onGround": true,
                        "useRotation": true,
                        "positionKey": "_ABILITY_MultiAvatar_Potion_Phase_3_3_Pos_Avatar",
                        "directionKey": ""
                      },
                      "height": 6.0,
                      "radius": 10.0
                    },
                    "attackInfo": {
                      "attackTag": "",
                      "attenuationTag": "",
                      "attenuationGroup": "default",
                      "attackProperty": {
                        "actorWindSubHurtDelta": 0.0,
                        "elementDurability": 0.0,
                        "strikeType": "Default",
                        "enBreak": 20.0,
                        "attackType": "Range",
                        "HMBONGBFIAP": [
                          "DamageRatio",
                          "DamageSystemValue",
                          "MUL"
                        ],
                        "trueDamage": true,
                        "GLKMCMDJBIK": 0.0
                      },
                      "hitPattern": {
                        "onHitEffectName": "default",
                        "hitImpulseY": "",
                        "hitImpulseType": "LV3",
                        "retreatType": "ByHitDirectionInverse",
                        "hitHaltTimeScale": 0.05000000074505806
                      }
                    }
                  },
                  "targetType": "Enemy"
                },
                {
                  "$type": "FireEffect",
                  "shieldHP": true,
                  "predicates": [
                    {
                      "$type": "ByTargetGlobalValue",
                      "target": "Self",
                      "key": "_ABILITY_MultiAvatar_Potion_Phase_3_3_ImpactCD",
                      "value": 0.0,
                      "compareType": "NoneOrEqual"
                    }
                  ],
                  "rotationDampTime": "Eff_Activity_AkaFesPotion_Blast_R8",
                  "born": {
                    "$type": "ConfigBornByGlobalValue",
                    "offset": {
                      "x": 0.0,
                      "y": 0.0,
                      "z": 0.0
                    },
                    "onGround": true,
                    "useRotation": true,
                    "positionKey": "_ABILITY_MultiAvatar_Potion_Phase_3_3_Pos_Avatar",
                    "directionKey": ""
                  },
                  "PPPDJGDDOGD": 1.0,
                  "AJDILHJFNKE": -1.0
                },
                {
                  "$type": "ApplyModifier",
                  "shieldHP": true,
                  "modifierName": "MultiAvatar_Potion_Phase_3_3_Avatar_Impact"
                }
              ]
            }
          ]
        },
        "MultiAvatar_Potion_Phase_3_3_Avatar_Impact": {
          "stacking": "Unique",
          "modifierName": "",
          "duration": "ImpactCD",
          "elementDurability": 100.0,
          "onAdded": [
            {
              "$type": "SetGlobalValue",
              "shieldHP": true,
              "value": 1.0,
              "key": "_ABILITY_MultiAvatar_Potion_Phase_3_3_ImpactCD",
              "maxValue": 0.0,
              "minValue": 0.0
            }
          ],
          "onRemoved": [
            {
              "$type": "SetGlobalValue",
              "shieldHP": true,
              "value": 0.0,
              "key": "_ABILITY_MultiAvatar_Potion_Phase_3_3_ImpactCD",
              "maxValue": 0.0,
              "minValue": 0.0
            }
          ]
        }
      },
      "onAdded": [
        {
          "$type": "AttachModifier",
          "target": "Team",
          "modifierName": "MultiAvatar_Potion_Phase_3_3_Driver_Team"
        }
      ],
      "isDynamicAbility": true
    }
  },
  {
    "Default": {
      "$type": "ConfigAbility",
      "abilityName": "Activity_MultiAvatar_Potion_Phase_4_1",
      "abilitySpecials": {
        "AttackUpRatio": 0.0
      },
      "modifiers": {
        "MultiAvatar_Potion_Phase_4_1_Driver_Team": {
          "modifierName": "",
          "elementDurability": 100.0,
          "thinkInterval": 1.0,
          "onAdded": [
            {
              "$type": "AttachModifier",
              "target": "CurTeamAvatars",
              "shieldHP": true,
              "modifierName": "MultiAvatar_Potion_Phase_4_1_Avatar"
            }
          ],
          "onThinkInterval": [
            {
              "$type": "AttachModifier",
              "target": "CurTeamAvatars",
              "shieldHP": true,
              "modifierName": "MultiAvatar_Potion_Phase_4_1_Avatar"
            }
          ]
        },
        "MultiAvatar_Potion_Phase_4_1_Avatar": {
          "stacking": "Unique",
          "modifierName": "",
          "elementDurability": 100.0,
          "properties": {
            "Actor_AttackRatio": "AttackUpRatio"
          },
          "state": "AttackUp",
          "isLimitedProperties": true
        }
      },
      "onAdded": [
        {
          "$type": "AttachModifier",
          "target": "Team",
          "modifierName": "MultiAvatar_Potion_Phase_4_1_Driver_Team"
        }
      ],
      "isDynamicAbility": true
    }
  },
  {
    "Default": {
      "$type": "ConfigAbility",
      "abilityName": "Activity_MultiAvatar_Potion_Phase_4_2",
      "abilitySpecials": {
        "DamageUpRatio": 0.0,
        "BuffDuration": 0.0,
        "CritUp": 0.0,
        "CritHurtUp": 0.0
      },
      "modifiers": {
        "MultiAvatar_Potion_Phase_4_2_Driver_Team": {
          "modifierName": "",
          "elementDurability": 100.0,
          "thinkInterval": 1.0,
          "onAdded": [
            {
              "$type": "AttachModifier",
              "target": "CurTeamAvatars",
              "shieldHP": true,
              "modifierName": "MultiAvatar_Potion_Phase_4_2_Avatar"
            }
          ],
          "onThinkInterval": [
            {
              "$type": "AttachModifier",
              "target": "CurTeamAvatars",
              "shieldHP": true,
              "modifierName": "MultiAvatar_Potion_Phase_4_2_Avatar"
            }
          ]
        },
        "MultiAvatar_Potion_Phase_4_2_Avatar": {
          "stacking": "Unique",
          "modifierName": "",
          "elementDurability": 100.0,
          "modifierMixins": [
            {
              "$type": "ModifyDamageMixin",
              "attackTags": [
                "NormalAttack_01",
                "NormalAttack_02",
                "NormalAttack_03",
                "NormalAttack_04",
                "NormalAttack_05",
                "NormalAttack_06",
                "ExtraAttack",
                "FallingAttack"
              ],
              "actorWindSubHurtDelta": "DamageUpRatio",
              "predicates": [
                {
                  "$type": "ByEntityTypes",
                  "entityTypes": ["Monster"]
                }
              ]
            },
            {
              "$type": "OnAvatarUseSkillMixin",
              "onTriggerSkill": [
                {
                  "$type": "AttachModifier",
                  "modifierName": "MultiAvatar_Potion_Phase_4_2_CritBuff_Avatar"
                }
              ],
              "onTriggerUltimateSkill": [
                {
                  "$type": "AttachModifier",
                  "modifierName": "MultiAvatar_Potion_Phase_4_2_CritBuff_Avatar"
                }
              ],
              "clearSkillIdDelay": 0.20000000298023224
            }
          ]
        },
        "MultiAvatar_Potion_Phase_4_2_CritBuff_Avatar": {
          "modifierName": "",
          "duration": "BuffDuration",
          "elementDurability": 100.0,
          "modifierMixins": [
            {
              "$type": "ModifyDamageMixin",
              "attackTags": [
                "NormalAttack_01",
                "NormalAttack_02",
                "NormalAttack_03",
                "NormalAttack_04",
                "NormalAttack_05",
                "NormalAttack_06",
                "ExtraAttack",
                "FallingAttack"
              ],
              "actorWindSubHurtDelta": 0.0,
              "AIGBINPINKE": "CritUp",
              "actorElementReactionCriticalHurtDelta": 0.0
            }
          ],
          "state": "AttackUp"
        }
      },
      "onAdded": [
        {
          "$type": "AttachModifier",
          "target": "Team",
          "modifierName": "MultiAvatar_Potion_Phase_4_2_Driver_Team"
        }
      ],
      "isDynamicAbility": true
    }
  },
  {
    "Default": {
      "$type": "ConfigAbility",
      "abilityName": "Activity_MultiAvatar_Potion_Phase_4_3",
      "abilitySpecials": {
        "DamageRatio_Normal": 0.0,
        "DamageRatio_Extra": 0.0,
        "DamageSystemValue": 0.0,
        "NormalCD": 0.0,
        "ExtraCD": 0.0
      },
      "modifiers": {
        "MultiAvatar_Potion_Phase_4_3_Driver_Team": {
          "modifierName": "",
          "elementDurability": 100.0,
          "thinkInterval": 1.0,
          "onAdded": [
            {
              "$type": "AttachModifier",
              "target": "CurTeamAvatars",
              "shieldHP": true,
              "modifierName": "MultiAvatar_Potion_Phase_4_3_Avatar"
            }
          ],
          "onThinkInterval": [
            {
              "$type": "AttachModifier",
              "target": "CurTeamAvatars",
              "shieldHP": true,
              "modifierName": "MultiAvatar_Potion_Phase_4_3_Avatar"
            }
          ]
        },
        "MultiAvatar_Potion_Phase_4_3_Avatar": {
          "stacking": "Unique",
          "modifierName": "",
          "elementDurability": 100.0,
          "onAdded": [
            {
              "$type": "GDHGMAPPGHD",
              "shieldHP": true,
              "key": "DamageSystemValue",
              "damageRatio": "ElementLevelCo"
            }
          ],
          "onHittingOther": [
            {
              "$type": "Predicated",
              "target": "Other",
              "shieldHP": true,
              "targetPredicates": [
                {
                  "$type": "ByAttackTags",
                  "attackTags": [
                    "NormalAttack_01",
                    "NormalAttack_02",
                    "NormalAttack_03",
                    "NormalAttack_04",
                    "NormalAttack_05",
                    "NormalAttack_06"
                  ]
                },
                {
                  "$type": "ByEntityTypes",
                  "entityTypes": ["Monster"]
                },
                {
                  "$type": "ByTargetGlobalValue",
                  "key": "_ANIMAL_ENTITY_TYPE",
                  "value": 0.0,
                  "compareType": "NoneOrEqual"
                },
                {
                  "$type": "ByTargetGlobalValue",
                  "target": "Team",
                  "key": "_ABILITY_MultiAvatar_Potion_Phase_4_3_NormalCD",
                  "value": 0.0,
                  "compareType": "NoneOrEqual"
                }
              ],
              "successActions": [
                {
                  "$type": "ApplyModifier",
                  "target": "Other",
                  "shieldHP": true,
                  "modifierName": "MultiAvatar_Potion_Phase_4_3_Damage_Normal"
                },
                {
                  "$type": "ApplyModifier",
                  "target": "Team",
                  "shieldHP": true,
                  "modifierName": "MultiAvatar_Potion_Phase_4_3_Normal_CD"
                }
              ]
            },
            {
              "$type": "Predicated",
              "target": "Other",
              "shieldHP": true,
              "targetPredicates": [
                {
                  "$type": "ByAttackTags",
                  "attackTags": ["ExtraAttack", "FallingAttack"]
                },
                {
                  "$type": "ByEntityTypes",
                  "entityTypes": ["Monster"]
                },
                {
                  "$type": "ByTargetGlobalValue",
                  "key": "_ANIMAL_ENTITY_TYPE",
                  "value": 0.0,
                  "compareType": "NoneOrEqual"
                },
                {
                  "$type": "ByTargetGlobalValue",
                  "target": "Team",
                  "key": "_ABILITY_MultiAvatar_Potion_Phase_4_3_ExtraCD",
                  "value": 0.0,
                  "compareType": "NoneOrEqual"
                }
              ],
              "successActions": [
                {
                  "$type": "SetGlobalPos",
                  "target": "Other",
                  "key": "_ABILITY_MultiAvatar_Potion_Phase_4_3_Pos",
                  "born": {
                    "$type": "ConfigBornByTarget",
                    "offset": {
                      "x": 0.0,
                      "y": 0.0,
                      "z": 0.0
                    },
                    "onGround": true,
                    "useRotation": true
                  },
                  "setTarget": false
                },
                {
                  "$type": "SetGlobalPos",
                  "shieldHP": true,
                  "key": "_ABILITY_MultiAvatar_Potion_Phase_4_3_Pos_Avatar",
                  "born": {
                    "$type": "ConfigBornBySelf",
                    "useRotation": true
                  }
                },
                {
                  "$type": "CopyGlobalValue",
                  "shieldHP": true,
                  "srcTarget": "Team",
                  "dstTarget": "Self",
                  "srcKey": "_ABILITY_MultiAvatar_Potion_Phase_4_3_Pos_0",
                  "dstKey": "_ABILITY_MultiAvatar_Potion_Phase_4_3_Pos_Avatar_0"
                },
                {
                  "$type": "CopyGlobalValue",
                  "shieldHP": true,
                  "srcTarget": "Team",
                  "dstTarget": "Self",
                  "srcKey": "_ABILITY_MultiAvatar_Potion_Phase_4_3_Pos_1",
                  "dstKey": "_ABILITY_MultiAvatar_Potion_Phase_4_3_Pos_Avatar_1"
                },
                {
                  "$type": "CopyGlobalValue",
                  "shieldHP": true,
                  "srcTarget": "Team",
                  "dstTarget": "Self",
                  "srcKey": "_ABILITY_MultiAvatar_Potion_Phase_4_3_Pos_2",
                  "dstKey": "_ABILITY_MultiAvatar_Potion_Phase_4_3_Pos_Avatar_2"
                },
                {
                  "$type": "ApplyModifier",
                  "shieldHP": true,
                  "modifierName": "MultiAvatar_Potion_Phase_4_3_Damage_Extra"
                },
                {
                  "$type": "ApplyModifier",
                  "target": "Team",
                  "shieldHP": true,
                  "modifierName": "MultiAvatar_Potion_Phase_4_3_Extra_CD"
                }
              ]
            }
          ]
        },
        "MultiAvatar_Potion_Phase_4_3_Normal_CD": {
          "stacking": "Unique",
          "modifierName": "",
          "duration": "NormalCD",
          "elementDurability": 100.0,
          "onAdded": [
            {
              "$type": "SetGlobalValue",
              "shieldHP": true,
              "value": 1.0,
              "key": "_ABILITY_MultiAvatar_Potion_Phase_4_3_NormalCD",
              "maxValue": 0.0,
              "minValue": 0.0
            }
          ],
          "onRemoved": [
            {
              "$type": "SetGlobalValue",
              "shieldHP": true,
              "value": 0.0,
              "key": "_ABILITY_MultiAvatar_Potion_Phase_4_3_NormalCD",
              "maxValue": 0.0,
              "minValue": 0.0
            }
          ]
        },
        "MultiAvatar_Potion_Phase_4_3_Extra_CD": {
          "stacking": "Unique",
          "modifierName": "",
          "duration": "ExtraCD",
          "elementDurability": 100.0,
          "onAdded": [
            {
              "$type": "SetGlobalValue",
              "shieldHP": true,
              "value": 1.0,
              "key": "_ABILITY_MultiAvatar_Potion_Phase_4_3_ExtraCD",
              "maxValue": 0.0,
              "minValue": 0.0
            }
          ],
          "onRemoved": [
            {
              "$type": "SetGlobalValue",
              "shieldHP": true,
              "value": 0.0,
              "key": "_ABILITY_MultiAvatar_Potion_Phase_4_3_ExtraCD",
              "maxValue": 0.0,
              "minValue": 0.0
            }
          ]
        },
        "MultiAvatar_Potion_Phase_4_3_Damage_Normal": {
          "stacking": "Multiple",
          "modifierName": "",
          "duration": 1.0,
          "elementDurability": 100.0,
          "onAdded": [
            {
              "$type": "DamageByAttackValue",
              "target": "Target",
              "born": {
                "$type": "ConfigBornByAttachPoint",
                "useRotation": true,
                "attachPointName": "Fx_ChestNode"
              },
              "attackInfo": {
                "attackTag": "",
                "attenuationTag": "",
                "attenuationGroup": "default",
                "attackProperty": {
                  "actorWindSubHurtDelta": 0.0,
                  "elementDurability": 25.0,
                  "strikeType": "Default",
                  "enBreak": 100.0,
                  "attackType": "Melee",
                  "HMBONGBFIAP": [
                    "DamageRatio_Normal",
                    "DamageSystemValue",
                    "MUL"
                  ],
                  "trueDamage": true,
                  "GLKMCMDJBIK": 0.0
                },
                "hitPattern": {
                  "onHitEffectName": "",
                  "hitImpulseY": "",
                  "hitImpulseType": "LV3",
                  "hitHaltTimeScale": 0.009999999776482582
                }
              }
            },
            {
              "$type": "FireEffect",
              "rotationDampTime": "Eff_Weapon_Blast_R30",
              "PPPDJGDDOGD": 1.0,
              "AJDILHJFNKE": -1.0
            }
          ]
        },
        "MultiAvatar_Potion_Phase_4_3_Damage_Extra": {
          "stacking": "Multiple",
          "modifierName": "",
          "duration": 1.0,
          "elementDurability": 100.0,
          "onAdded": [
            {
              "$type": "TriggerAttackEvent",
              "shieldHP": true,
              "attackEvent": {
                "attackPattern": {
                  "$type": "ConfigAttackCircle",
                  "triggerType": "TriggerNoRepeat",
                  "massiveAttackRatio": 0.30000001192092896,
                  "born": {
                    "$type": "ConfigBornByGlobalValue",
                    "offset": {
                      "x": 0.0,
                      "y": 0.0,
                      "z": 0.0
                    },
                    "onGround": true,
                    "useRotation": true,
                    "positionKey": "_ABILITY_MultiAvatar_Potion_Phase_4_3_Pos_Avatar",
                    "directionKey": ""
                  },
                  "height": 6.0,
                  "radius": 10.0
                },
                "attackInfo": {
                  "attackTag": "",
                  "attenuationTag": "",
                  "attenuationGroup": "default",
                  "attackProperty": {
                    "actorWindSubHurtDelta": 0.0,
                    "elementDurability": 0.0,
                    "strikeType": "Default",
                    "enBreak": 20.0,
                    "attackType": "Range",
                    "HMBONGBFIAP": [
                      "DamageRatio_Extra",
                      "DamageSystemValue",
                      "MUL"
                    ],
                    "trueDamage": true,
                    "GLKMCMDJBIK": 0.0
                  },
                  "hitPattern": {
                    "onHitEffectName": "default",
                    "hitImpulseY": "",
                    "hitImpulseType": "LV3",
                    "retreatType": "ByHitDirectionInverse",
                    "hitHaltTimeScale": 0.05000000074505806
                  }
                }
              },
              "targetType": "Enemy"
            },
            {
              "$type": "FireEffect",
              "shieldHP": true,
              "rotationDampTime": "Eff_Activity_AkaFesPotion_Blast_R8",
              "born": {
                "$type": "ConfigBornByGlobalValue",
                "offset": {
                  "x": 0.0,
                  "y": 0.0,
                  "z": 0.0
                },
                "onGround": true,
                "useRotation": true,
                "positionKey": "_ABILITY_MultiAvatar_Potion_Phase_4_3_Pos_Avatar",
                "directionKey": ""
              },
              "PPPDJGDDOGD": 1.0,
              "AJDILHJFNKE": -1.0
            }
          ]
        }
      },
      "onAdded": [
        {
          "$type": "AttachModifier",
          "target": "Team",
          "modifierName": "MultiAvatar_Potion_Phase_4_3_Driver_Team"
        }
      ],
      "isDynamicAbility": true
    }
  },
  {
    "Default": {
      "$type": "ConfigAbility",
      "abilityName": "Activity_MultiAvatar_Potion_Phase_5_1",
      "abilitySpecials": {
        "AttackUpRatio": 0.0
      },
      "modifiers": {
        "MultiAvatar_Potion_Phase_5_1_Driver_Team": {
          "modifierName": "",
          "elementDurability": 100.0,
          "thinkInterval": 1.0,
          "onAdded": [
            {
              "$type": "AttachModifier",
              "target": "CurTeamAvatars",
              "shieldHP": true,
              "modifierName": "MultiAvatar_Potion_Phase_5_1_Avatar"
            }
          ],
          "onThinkInterval": [
            {
              "$type": "AttachModifier",
              "target": "CurTeamAvatars",
              "shieldHP": true,
              "modifierName": "MultiAvatar_Potion_Phase_5_1_Avatar"
            }
          ]
        },
        "MultiAvatar_Potion_Phase_5_1_Avatar": {
          "stacking": "Unique",
          "modifierName": "",
          "elementDurability": 100.0,
          "properties": {
            "Actor_AttackRatio": "AttackUpRatio"
          },
          "state": "AttackUp",
          "isLimitedProperties": true
        }
      },
      "onAdded": [
        {
          "$type": "AttachModifier",
          "target": "Team",
          "modifierName": "MultiAvatar_Potion_Phase_5_1_Driver_Team"
        }
      ],
      "isDynamicAbility": true
    }
  },
  {
    "Default": {
      "$type": "ConfigAbility",
      "abilityName": "Activity_MultiAvatar_Potion_Phase_5_2",
      "abilitySpecials": {
        "AttackUpRatio": 0.0,
        "DefenceRatio": 0.0,
        "DebuffDuration": 0.0
      },
      "modifiers": {
        "MultiAvatar_Potion_Phase_5_2_Driver_Team": {
          "modifierName": "",
          "elementDurability": 100.0,
          "thinkInterval": 1.0,
          "onAdded": [
            {
              "$type": "AttachModifier",
              "target": "CurTeamAvatars",
              "shieldHP": true,
              "modifierName": "MultiAvatar_Potion_Phase_5_2_Avatar"
            }
          ],
          "onThinkInterval": [
            {
              "$type": "AttachModifier",
              "target": "CurTeamAvatars",
              "shieldHP": true,
              "modifierName": "MultiAvatar_Potion_Phase_5_2_Avatar"
            }
          ]
        },
        "MultiAvatar_Potion_Phase_5_2_Avatar": {
          "stacking": "Unique",
          "modifierName": "",
          "elementDurability": 100.0,
          "modifierMixins": [
            {
              "$type": "DoActionByElementReactionMixin",
              "entityTypes": ["Monster"],
              "reactionTypes": [
                "SwirlFire",
                "SwirlWater",
                "SwirlElectric",
                "SwirlIce"
              ],
              "actions": [
                {
                  "$type": "ApplyModifier",
                  "target": "Other",
                  "shieldHP": true,
                  "modifierName": "UNIQUE_MultiAvatar_Potion_Phase_5_2_DefenceRatio"
                }
              ]
            }
          ],
          "onHittingOther": [
            {
              "$type": "Predicated",
              "target": "Other",
              "shieldHP": true,
              "targetPredicates": [
                {
                  "$type": "ByAttackTags",
                  "attackTags": [
                    "Swirl_FireDamage",
                    "Swirl_WaterDamage",
                    "Swirl_ElectricDamage",
                    "Swirl_IceDamage",
                    "Self_Swirl_FireDamage",
                    "Self_Swirl_WaterDamage",
                    "Self_Swirl_ElectricDamage",
                    "Self_Swirl_IceDamage"
                  ]
                },
                {
                  "$type": "ByEntityTypes",
                  "entityTypes": ["Monster"]
                },
                {
                  "$type": "ByTargetGlobalValue",
                  "key": "_ANIMAL_ENTITY_TYPE",
                  "value": 0.0,
                  "compareType": "NoneOrEqual"
                }
              ],
              "successActions": [
                {
                  "$type": "ApplyModifier",
                  "target": "Other",
                  "shieldHP": true,
                  "modifierName": "UNIQUE_MultiAvatar_Potion_Phase_5_2_DefenceRatio"
                }
              ]
            }
          ]
        },
        "UNIQUE_MultiAvatar_Potion_Phase_5_2_DefenceRatio": {
          "stacking": "RefreshUniqueDurability",
          "modifierName": "",
          "forceTriggerWhenChangeAuthority": true,
          "duration": "DebuffDuration",
          "elementDurability": 100.0,
          "properties": {
            "Actor_DefenceRatio": "DefenceRatio"
          },
          "state": "DefenseDown",
          "isLimitedProperties": true
        }
      },
      "onAdded": [
        {
          "$type": "AttachModifier",
          "target": "Team",
          "modifierName": "MultiAvatar_Potion_Phase_5_2_Driver_Team"
        }
      ],
      "isDynamicAbility": true
    }
  },
  {
    "Default": {
      "$type": "ConfigAbility",
      "abilityName": "Activity_MultiAvatar_Potion_Phase_5_3",
      "abilitySpecials": {
        "ImpactCD": 0.0,
        "DamageRatio": 0.0,
        "DamageSystemValue": 0.0
      },
      "modifiers": {
        "MultiAvatar_Potion_Phase_5_3_Driver_Team": {
          "modifierName": "",
          "elementDurability": 100.0,
          "thinkInterval": 1.0,
          "onAdded": [
            {
              "$type": "AttachModifier",
              "target": "CurTeamAvatars",
              "shieldHP": true,
              "modifierName": "MultiAvatar_Potion_Phase_5_3_Avatar"
            }
          ],
          "onThinkInterval": [
            {
              "$type": "AttachModifier",
              "target": "CurTeamAvatars",
              "shieldHP": true,
              "modifierName": "MultiAvatar_Potion_Phase_5_3_Avatar"
            }
          ]
        },
        "MultiAvatar_Potion_Phase_5_3_Avatar": {
          "stacking": "Unique",
          "modifierName": "",
          "elementDurability": 100.0,
          "modifierMixins": [
            {
              "$type": "DoActionByElementReactionMixin",
              "entityTypes": ["Monster"],
              "reactionTypes": [
                "SwirlFire",
                "SwirlWater",
                "SwirlElectric",
                "SwirlIce"
              ],
              "actions": [
                {
                  "$type": "SetGlobalPos",
                  "target": "Other",
                  "shieldHP": true,
                  "predicates": [
                    {
                      "$type": "ByTargetGlobalValue",
                      "target": "Team",
                      "key": "_ABILITY_MultiAvatar_Potion_Phase_5_3_CD",
                      "value": 0.0,
                      "compareType": "NoneOrEqual"
                    }
                  ],
                  "key": "_ABILITY_MultiAvatar_Potion_Phase_5_3_Pos",
                  "born": {
                    "$type": "ConfigBornByTarget",
                    "offset": {
                      "x": 0.0,
                      "y": 0.0,
                      "z": 0.0
                    },
                    "onGround": true,
                    "useRotation": true
                  },
                  "setTarget": false
                },
                {
                  "$type": "SetGlobalPos",
                  "shieldHP": true,
                  "predicates": [
                    {
                      "$type": "ByTargetGlobalValue",
                      "target": "Team",
                      "key": "_ABILITY_MultiAvatar_Potion_Phase_5_3_CD",
                      "value": 0.0,
                      "compareType": "NoneOrEqual"
                    }
                  ],
                  "key": "_ABILITY_MultiAvatar_Potion_Phase_5_3_Pos_Avatar",
                  "born": {
                    "$type": "ConfigBornBySelf",
                    "useRotation": true
                  }
                },
                {
                  "$type": "CopyGlobalValue",
                  "shieldHP": true,
                  "predicates": [
                    {
                      "$type": "ByTargetGlobalValue",
                      "target": "Team",
                      "key": "_ABILITY_MultiAvatar_Potion_Phase_5_3_CD",
                      "value": 0.0,
                      "compareType": "NoneOrEqual"
                    }
                  ],
                  "srcTarget": "Team",
                  "dstTarget": "Self",
                  "srcKey": "_ABILITY_MultiAvatar_Potion_Phase_5_3_Pos_0",
                  "dstKey": "_ABILITY_MultiAvatar_Potion_Phase_5_3_Pos_Avatar_0"
                },
                {
                  "$type": "CopyGlobalValue",
                  "shieldHP": true,
                  "predicates": [
                    {
                      "$type": "ByTargetGlobalValue",
                      "target": "Team",
                      "key": "_ABILITY_MultiAvatar_Potion_Phase_5_3_CD",
                      "value": 0.0,
                      "compareType": "NoneOrEqual"
                    }
                  ],
                  "srcTarget": "Team",
                  "dstTarget": "Self",
                  "srcKey": "_ABILITY_MultiAvatar_Potion_Phase_5_3_Pos_1",
                  "dstKey": "_ABILITY_MultiAvatar_Potion_Phase_5_3_Pos_Avatar_1"
                },
                {
                  "$type": "CopyGlobalValue",
                  "shieldHP": true,
                  "predicates": [
                    {
                      "$type": "ByTargetGlobalValue",
                      "target": "Team",
                      "key": "_ABILITY_MultiAvatar_Potion_Phase_5_3_CD",
                      "value": 0.0,
                      "compareType": "NoneOrEqual"
                    }
                  ],
                  "srcTarget": "Team",
                  "dstTarget": "Self",
                  "srcKey": "_ABILITY_MultiAvatar_Potion_Phase_5_3_Pos_2",
                  "dstKey": "_ABILITY_MultiAvatar_Potion_Phase_5_3_Pos_Avatar_2"
                },
                {
                  "$type": "TriggerAttackEvent",
                  "shieldHP": true,
                  "predicates": [
                    {
                      "$type": "ByTargetGlobalValue",
                      "target": "Team",
                      "key": "_ABILITY_MultiAvatar_Potion_Phase_5_3_CD",
                      "value": 0.0,
                      "compareType": "NoneOrEqual"
                    }
                  ],
                  "attackEvent": {
                    "attackPattern": {
                      "$type": "ConfigAttackCircle",
                      "triggerType": "TriggerNoRepeat",
                      "massiveAttackRatio": 0.30000001192092896,
                      "born": {
                        "$type": "ConfigBornByGlobalValue",
                        "offset": {
                          "x": 0.0,
                          "y": 0.0,
                          "z": 0.0
                        },
                        "onGround": true,
                        "useRotation": true,
                        "positionKey": "_ABILITY_MultiAvatar_Potion_Phase_5_3_Pos_Avatar",
                        "directionKey": ""
                      },
                      "height": 6.0,
                      "radius": 10.0
                    },
                    "attackInfo": {
                      "attackTag": "",
                      "attenuationTag": "",
                      "attenuationGroup": "default",
                      "attackProperty": {
                        "actorWindSubHurtDelta": 0.0,
                        "elementDurability": 0.0,
                        "strikeType": "Default",
                        "enBreak": 20.0,
                        "attackType": "Range",
                        "HMBONGBFIAP": [
                          "DamageRatio",
                          "DamageSystemValue",
                          "MUL"
                        ],
                        "trueDamage": true,
                        "GLKMCMDJBIK": 0.0
                      },
                      "hitPattern": {
                        "onHitEffectName": "default",
                        "hitImpulseY": "",
                        "hitImpulseType": "LV3",
                        "retreatType": "ByHitDirectionInverse",
                        "hitHaltTimeScale": 0.05000000074505806
                      }
                    }
                  },
                  "targetType": "Enemy"
                },
                {
                  "$type": "FireEffect",
                  "shieldHP": true,
                  "predicates": [
                    {
                      "$type": "ByTargetGlobalValue",
                      "target": "Team",
                      "key": "_ABILITY_MultiAvatar_Potion_Phase_5_3_CD",
                      "value": 0.0,
                      "compareType": "NoneOrEqual"
                    }
                  ],
                  "rotationDampTime": "Eff_Activity_AkaFesPotion_Blast_R8",
                  "born": {
                    "$type": "ConfigBornByGlobalValue",
                    "offset": {
                      "x": 0.0,
                      "y": 0.0,
                      "z": 0.0
                    },
                    "onGround": true,
                    "useRotation": true,
                    "positionKey": "_ABILITY_MultiAvatar_Potion_Phase_5_3_Pos_Avatar",
                    "directionKey": ""
                  },
                  "PPPDJGDDOGD": 1.0,
                  "AJDILHJFNKE": -1.0
                },
                {
                  "$type": "ApplyModifier",
                  "target": "Team",
                  "shieldHP": true,
                  "predicates": [
                    {
                      "$type": "ByTargetGlobalValue",
                      "target": "Team",
                      "key": "_ABILITY_MultiAvatar_Potion_Phase_5_3_CD",
                      "value": 0.0,
                      "compareType": "NoneOrEqual"
                    }
                  ],
                  "modifierName": "UNIQUE_MultiAvatar_Potion_Phase_5_3_CD"
                }
              ]
            }
          ],
          "onAdded": [
            {
              "$type": "GDHGMAPPGHD",
              "shieldHP": true,
              "key": "DamageSystemValue",
              "damageRatio": "ElementLevelCo"
            }
          ]
        },
        "UNIQUE_MultiAvatar_Potion_Phase_5_3_CD": {
          "stacking": "Unique",
          "modifierName": "",
          "forceTriggerWhenChangeAuthority": true,
          "duration": "ImpactCD",
          "elementDurability": 100.0,
          "onAdded": [
            {
              "$type": "SetGlobalValue",
              "shieldHP": true,
              "value": 1.0,
              "key": "_ABILITY_MultiAvatar_Potion_Phase_5_3_CD",
              "maxValue": 0.0,
              "minValue": 0.0
            }
          ],
          "onRemoved": [
            {
              "$type": "SetGlobalValue",
              "shieldHP": true,
              "value": 0.0,
              "key": "_ABILITY_MultiAvatar_Potion_Phase_5_3_CD",
              "maxValue": 0.0,
              "minValue": 0.0
            }
          ]
        }
      },
      "onAdded": [
        {
          "$type": "AttachModifier",
          "target": "Team",
          "modifierName": "MultiAvatar_Potion_Phase_5_3_Driver_Team"
        }
      ],
      "isDynamicAbility": true
    }
  }
]
