[
  {
    "Default": {
      "$type": "ConfigAbility",
      "abilityName": "ActivityAbility_FreminetLoseHpWQ",
      "abilitySpecials": {
        "LoseHPInterval": 1.0,
        "SafeHPRatio": 0.10000000149011612,
        "LoseHPRatio_Default": 0.019999999552965164,
        "LoseHPRatio_1": 0.02500000037252903,
        "LoseHPRatio_2": 0.029999999329447746,
        "LoseHPRatio_3": 0.03500000014901161,
        "LoseHPRatio_4": 0.03999999910593033,
        "LoseHPRatio_5": 0.04500000178813934,
        "LoseHPRatio_Max": 0.05000000074505806
      },
      "modifiers": {
        "UNIQUE_FreminetLoseHpWQ_Handler": {
          "modifierName": "",
          "forceTriggerWhenChangeAuthority": true,
          "elementDurability": 100.0,
          "thinkInterval": "LoseHPInterval",
          "onAdded": [
            {
              "$type": "AttachEffect",
              "rotationDampTime": "Eff_FreminetLoseHp_Loop",
              "PPPDJGDDOGD": 1.0,
              "AJDILHJFNKE": -1.0
            }
          ],
          "onThinkInterval": [
            {
              "$type": "ApplyModifier",
              "modifierName": "FreminetLoseHpWQ_Effect_Handler"
            },
            {
              "$type": "AddGlobalValue",
              "value": 0.5,
              "key": "_ABILITY_FreminetLoseHpWQ_LowHPTriggerLoseHP_Layer",
              "useLimitRange": true,
              "maxValue": 6.0,
              "minValue": 0.0
            }
          ]
        },
        "FreminetLoseHpWQ_Effect_Handler": {
          "modifierName": "",
          "duration": 0.10000000149011612,
          "elementDurability": 100.0,
          "onAdded": [
            {
              "$type": "Predicated",
              "targetPredicates": [
                {
                  "$type": "ByTargetGlobalValue",
                  "key": "_ABILITY_FreminetLoseHpWQ_LowHPTriggerLoseHP_Layer",
                  "value": 0.0
                }
              ],
              "successActions": [
                {
                  "$type": "LoseHP",
                  "CKDBFHCIJEK": "LoseHPRatio_Default",
                  "lethal": false,
                  "BJKGFBGEFPB": ""
                },
                {
                  "$type": "Predicated",
                  "targetPredicates": [
                    {
                      "$type": "ByTargetHPRatio",
                      "logic": "LesserOrEqual",
                      "ratio": "SafeHPRatio"
                    }
                  ],
                  "successActions": [
                    {
                      "$type": "MOEGJKJDPMB",
                      "targetAlias": "4008",
                      "valueString": "FreminetLoseHpWQ"
                    }
                  ]
                }
              ]
            },
            {
              "$type": "Predicated",
              "targetPredicates": [
                {
                  "$type": "ByTargetGlobalValue",
                  "key": "_ABILITY_FreminetLoseHpWQ_LowHPTriggerLoseHP_Layer",
                  "value": 0.5
                }
              ],
              "successActions": [
                {
                  "$type": "LoseHP",
                  "CKDBFHCIJEK": "LoseHPRatio_Default",
                  "lethal": false,
                  "BJKGFBGEFPB": ""
                },
                {
                  "$type": "Predicated",
                  "targetPredicates": [
                    {
                      "$type": "ByTargetHPRatio",
                      "logic": "LesserOrEqual",
                      "ratio": "SafeHPRatio"
                    }
                  ],
                  "successActions": [
                    {
                      "$type": "MOEGJKJDPMB",
                      "targetAlias": "4008",
                      "valueString": "FreminetLoseHpWQ"
                    }
                  ]
                }
              ]
            },
            {
              "$type": "Predicated",
              "targetPredicates": [
                {
                  "$type": "ByTargetGlobalValue",
                  "key": "_ABILITY_FreminetLoseHpWQ_LowHPTriggerLoseHP_Layer",
                  "value": 1.0
                }
              ],
              "successActions": [
                {
                  "$type": "LoseHP",
                  "CKDBFHCIJEK": "LoseHPRatio_1",
                  "lethal": false,
                  "BJKGFBGEFPB": ""
                },
                {
                  "$type": "Predicated",
                  "targetPredicates": [
                    {
                      "$type": "ByTargetHPRatio",
                      "logic": "LesserOrEqual",
                      "ratio": "SafeHPRatio"
                    }
                  ],
                  "successActions": [
                    {
                      "$type": "MOEGJKJDPMB",
                      "targetAlias": "4008",
                      "valueString": "FreminetLoseHpWQ"
                    }
                  ]
                }
              ]
            },
            {
              "$type": "Predicated",
              "targetPredicates": [
                {
                  "$type": "ByTargetGlobalValue",
                  "key": "_ABILITY_FreminetLoseHpWQ_LowHPTriggerLoseHP_Layer",
                  "value": 1.5
                }
              ],
              "successActions": [
                {
                  "$type": "LoseHP",
                  "CKDBFHCIJEK": "LoseHPRatio_1",
                  "lethal": false,
                  "BJKGFBGEFPB": ""
                },
                {
                  "$type": "Predicated",
                  "targetPredicates": [
                    {
                      "$type": "ByTargetHPRatio",
                      "logic": "LesserOrEqual",
                      "ratio": "SafeHPRatio"
                    }
                  ],
                  "successActions": [
                    {
                      "$type": "MOEGJKJDPMB",
                      "targetAlias": "4008",
                      "valueString": "FreminetLoseHpWQ"
                    }
                  ]
                }
              ]
            },
            {
              "$type": "Predicated",
              "targetPredicates": [
                {
                  "$type": "ByTargetGlobalValue",
                  "key": "_ABILITY_FreminetLoseHpWQ_LowHPTriggerLoseHP_Layer",
                  "value": 2.0
                }
              ],
              "successActions": [
                {
                  "$type": "LoseHP",
                  "CKDBFHCIJEK": "LoseHPRatio_2",
                  "lethal": false,
                  "BJKGFBGEFPB": ""
                },
                {
                  "$type": "Predicated",
                  "targetPredicates": [
                    {
                      "$type": "ByTargetHPRatio",
                      "logic": "LesserOrEqual",
                      "ratio": "SafeHPRatio"
                    }
                  ],
                  "successActions": [
                    {
                      "$type": "MOEGJKJDPMB",
                      "targetAlias": "4008",
                      "valueString": "FreminetLoseHpWQ"
                    }
                  ]
                }
              ]
            },
            {
              "$type": "Predicated",
              "targetPredicates": [
                {
                  "$type": "ByTargetGlobalValue",
                  "key": "_ABILITY_FreminetLoseHpWQ_LowHPTriggerLoseHP_Layer",
                  "value": 2.5
                }
              ],
              "successActions": [
                {
                  "$type": "LoseHP",
                  "CKDBFHCIJEK": "LoseHPRatio_2",
                  "lethal": false,
                  "BJKGFBGEFPB": ""
                },
                {
                  "$type": "Predicated",
                  "targetPredicates": [
                    {
                      "$type": "ByTargetHPRatio",
                      "logic": "LesserOrEqual",
                      "ratio": "SafeHPRatio"
                    }
                  ],
                  "successActions": [
                    {
                      "$type": "MOEGJKJDPMB",
                      "targetAlias": "4008",
                      "valueString": "FreminetLoseHpWQ"
                    }
                  ]
                }
              ]
            },
            {
              "$type": "Predicated",
              "targetPredicates": [
                {
                  "$type": "ByTargetGlobalValue",
                  "key": "_ABILITY_FreminetLoseHpWQ_LowHPTriggerLoseHP_Layer",
                  "value": 3.0
                }
              ],
              "successActions": [
                {
                  "$type": "LoseHP",
                  "CKDBFHCIJEK": "LoseHPRatio_3",
                  "lethal": false,
                  "BJKGFBGEFPB": ""
                },
                {
                  "$type": "Predicated",
                  "targetPredicates": [
                    {
                      "$type": "ByTargetHPRatio",
                      "logic": "LesserOrEqual",
                      "ratio": "SafeHPRatio"
                    }
                  ],
                  "successActions": [
                    {
                      "$type": "MOEGJKJDPMB",
                      "targetAlias": "4008",
                      "valueString": "FreminetLoseHpWQ"
                    }
                  ]
                }
              ]
            },
            {
              "$type": "Predicated",
              "targetPredicates": [
                {
                  "$type": "ByTargetGlobalValue",
                  "key": "_ABILITY_FreminetLoseHpWQ_LowHPTriggerLoseHP_Layer",
                  "value": 3.5
                }
              ],
              "successActions": [
                {
                  "$type": "LoseHP",
                  "CKDBFHCIJEK": "LoseHPRatio_3",
                  "lethal": false,
                  "BJKGFBGEFPB": ""
                },
                {
                  "$type": "Predicated",
                  "targetPredicates": [
                    {
                      "$type": "ByTargetHPRatio",
                      "logic": "LesserOrEqual",
                      "ratio": "SafeHPRatio"
                    }
                  ],
                  "successActions": [
                    {
                      "$type": "MOEGJKJDPMB",
                      "targetAlias": "4008",
                      "valueString": "FreminetLoseHpWQ"
                    }
                  ]
                }
              ]
            },
            {
              "$type": "Predicated",
              "targetPredicates": [
                {
                  "$type": "ByTargetGlobalValue",
                  "key": "_ABILITY_FreminetLoseHpWQ_LowHPTriggerLoseHP_Layer",
                  "value": 4.0
                }
              ],
              "successActions": [
                {
                  "$type": "LoseHP",
                  "CKDBFHCIJEK": "LoseHPRatio_4",
                  "lethal": false,
                  "BJKGFBGEFPB": ""
                },
                {
                  "$type": "Predicated",
                  "targetPredicates": [
                    {
                      "$type": "ByTargetHPRatio",
                      "logic": "LesserOrEqual",
                      "ratio": "SafeHPRatio"
                    }
                  ],
                  "successActions": [
                    {
                      "$type": "MOEGJKJDPMB",
                      "targetAlias": "4008",
                      "valueString": "FreminetLoseHpWQ"
                    }
                  ]
                }
              ]
            },
            {
              "$type": "Predicated",
              "targetPredicates": [
                {
                  "$type": "ByTargetGlobalValue",
                  "key": "_ABILITY_FreminetLoseHpWQ_LowHPTriggerLoseHP_Layer",
                  "value": 4.5
                }
              ],
              "successActions": [
                {
                  "$type": "LoseHP",
                  "CKDBFHCIJEK": "LoseHPRatio_4",
                  "lethal": false,
                  "BJKGFBGEFPB": ""
                },
                {
                  "$type": "Predicated",
                  "targetPredicates": [
                    {
                      "$type": "ByTargetHPRatio",
                      "logic": "LesserOrEqual",
                      "ratio": "SafeHPRatio"
                    }
                  ],
                  "successActions": [
                    {
                      "$type": "MOEGJKJDPMB",
                      "targetAlias": "4008",
                      "valueString": "FreminetLoseHpWQ"
                    }
                  ]
                }
              ]
            },
            {
              "$type": "Predicated",
              "targetPredicates": [
                {
                  "$type": "ByTargetGlobalValue",
                  "key": "_ABILITY_FreminetLoseHpWQ_LowHPTriggerLoseHP_Layer",
                  "value": 5.0
                }
              ],
              "successActions": [
                {
                  "$type": "LoseHP",
                  "CKDBFHCIJEK": "LoseHPRatio_5",
                  "lethal": false,
                  "BJKGFBGEFPB": ""
                },
                {
                  "$type": "Predicated",
                  "targetPredicates": [
                    {
                      "$type": "ByTargetHPRatio",
                      "logic": "LesserOrEqual",
                      "ratio": "SafeHPRatio"
                    }
                  ],
                  "successActions": [
                    {
                      "$type": "MOEGJKJDPMB",
                      "targetAlias": "4008",
                      "valueString": "FreminetLoseHpWQ"
                    }
                  ]
                }
              ]
            },
            {
              "$type": "Predicated",
              "targetPredicates": [
                {
                  "$type": "ByTargetGlobalValue",
                  "key": "_ABILITY_FreminetLoseHpWQ_LowHPTriggerLoseHP_Layer",
                  "value": 5.5
                }
              ],
              "successActions": [
                {
                  "$type": "LoseHP",
                  "CKDBFHCIJEK": "LoseHPRatio_5",
                  "lethal": false,
                  "BJKGFBGEFPB": ""
                },
                {
                  "$type": "Predicated",
                  "targetPredicates": [
                    {
                      "$type": "ByTargetHPRatio",
                      "logic": "LesserOrEqual",
                      "ratio": "SafeHPRatio"
                    }
                  ],
                  "successActions": [
                    {
                      "$type": "MOEGJKJDPMB",
                      "targetAlias": "4008",
                      "valueString": "FreminetLoseHpWQ"
                    }
                  ]
                }
              ]
            },
            {
              "$type": "Predicated",
              "targetPredicates": [
                {
                  "$type": "ByTargetGlobalValue",
                  "key": "_ABILITY_FreminetLoseHpWQ_LowHPTriggerLoseHP_Layer",
                  "value": 6.0
                }
              ],
              "successActions": [
                {
                  "$type": "LoseHP",
                  "CKDBFHCIJEK": "LoseHPRatio_Max",
                  "lethal": false,
                  "BJKGFBGEFPB": ""
                },
                {
                  "$type": "Predicated",
                  "targetPredicates": [
                    {
                      "$type": "ByTargetHPRatio",
                      "logic": "LesserOrEqual",
                      "ratio": "SafeHPRatio"
                    }
                  ],
                  "successActions": [
                    {
                      "$type": "MOEGJKJDPMB",
                      "targetAlias": "4008",
                      "valueString": "FreminetLoseHpWQ"
                    }
                  ]
                }
              ]
            }
          ]
        }
      },
      "onAdded": [
        {
          "$type": "SetGlobalValue",
          "target": "Team",
          "shieldHP": true,
          "value": 0.0,
          "key": "_ABILITY_FreminetLoseHpWQ_LowHPTriggerLoseHP_Layer",
          "maxValue": 0.0,
          "minValue": 0.0
        },
        {
          "$type": "AttachModifier",
          "target": "CurTeamAvatars",
          "modifierName": "UNIQUE_FreminetLoseHpWQ_Handler"
        }
      ],
      "isDynamicAbility": true
    }
  }
]
