[
  {
    "Default": {
      "$type": "ConfigAbility",
      "abilityName": "ActivityAbility_TeamMultipleDamage",
      "abilitySpecials": {
        "DamageUpRatio": 0.0
      },
      "modifiers": {
        "UNIQUE_TeamMultipleDamage_Team": {
          "stacking": "Unique",
          "modifierName": "",
          "forceTriggerWhenChangeAuthority": true,
          "elementDurability": 100.0,
          "onAdded": [
            {
              "$type": "AttachModifier",
              "target": "CurTeamAvatars",
              "modifierName": "UNIQUE_TeamMultipleDamage_DamageUpRatio"
            }
          ]
        },
        "UNIQUE_TeamMultipleDamage_DamageUpRatio": {
          "modifierName": "",
          "forceTriggerWhenChangeAuthority": true,
          "elementDurability": 100.0,
          "modifierMixins": [
            {
              "$type": "ModifyDamageMixin",
              "ignoreEventInfo": true,
              "actorWindSubHurtDelta": "DamageUpRatio"
            }
          ],
          "state": "AttackUp"
        }
      },
      "onAdded": [
        {
          "$type": "AttachModifier",
          "target": "Team",
          "modifierName": "UNIQUE_TeamMultipleDamage_Team"
        }
      ],
      "isDynamicAbility": true
    }
  }
]
