{
  "common": {
    "effectAttachShape": {
      "$type": "FJNPJANPGGC",
      "mesh": "EffectMesh"
    },
    "mass": 300.0,
    "viewSize": 2.5,
    "disableTickDistance": 200.0,
    "reconnectSupport": true,
    "recoverByInitPose": true
  },
  "model": {
    "bornEffect": "",
    "attachEffect": "",
    "canBakeMesh": false,
    "BKPFGNPLDNJ": ""
  },
  "dither": {
    "normalBetweenCamera": {
      "detectDitherRange": 2.0
    }
  },
  "combat": {
    "property": {
      "endureType": "Monster_Boss_Other",
      "weight": 20000.0
    },
    "beHit": {
      "hitBloodEffect": ""
    },
    "combatLock": {
      "lockShape": "CircleLockEnemy",
      "lockType": "Avatar&Monster_Lv4"
    },
    "die": {
      "hasAnimatorDie": true,
      "dieForceDisappearTime": 0.0,
      "dieDisappearEffect": "",
      "muteHitBox": true,
      "dieDenyLockOn": true,
      "dieIsGhostToEnemy": true,
      "dieIgnoreTriggerBullet": true,
      "muteBillboard": true,
      "mutePushCollider": true
    },
    "animEvents": {
      "NormalAtk1": {
        "attackPattern": {
          "$type": "ConfigAttackCircle",
          "triggerType": "TriggerNoRepeat",
          "born": {
            "$type": "ConfigBornBySelf",
            "offset": {
              "x": -0.5,
              "y": 0.0,
              "z": 2.0
            }
          },
          "radius": 1.0
        },
        "attackInfo": {
          "attackTag": "",
          "attenuationTag": "",
          "attenuationGroup": "default",
          "attackProperty": {
            "actorGrassSubHurtDelta": 1.0,
            "actorWindSubHurtDelta": 0.0,
            "elementType": "Water",
            "elementDurability": 25.0,
            "strikeType": "Blunt",
            "enBreak": 200.0,
            "GLKMCMDJBIK": 0.0
          },
          "hitPattern": {
            "onHitEffectName": "default",
            "hitImpulseY": "",
            "hitImpulseType": "LV2"
          },
          "cameraShake": {
            "shakeRange": 0.4000000059604645,
            "shakeTime": 0.15000000596046448,
            "shakeDistance": 30.0
          }
        }
      }
    }
  },
  "abilities": [
    {
      "abilityID": "",
      "abilityName": "Monster_Narcissusborn_Underling_Born",
      "abilityOverride": ""
    },
    {
      "abilityID": "",
      "abilityName": "Monster_Narcissusborn_Underling_KillSelf",
      "abilityOverride": ""
    },
    {
      "abilityID": "",
      "abilityName": "Monster_Narcissusborn_Underling_RemoveLine",
      "abilityOverride": ""
    },
    {
      "abilityID": "",
      "abilityName": "Monster_Narcissusborn_Underling_ShootAttack",
      "abilityOverride": ""
    },
    {
      "abilityID": "",
      "abilityName": "Monster_Common_WaterMuteHurt",
      "abilityOverride": ""
    }
  ],
  "stateLayers": {
    "defaultLayer": {
      "$type": "GBGJJIIEMBD",
      "layerIndexName": "",
      "CPAANEIJCGD": "",
      "stateIDs": {
        "Born": {
          "$type": "NEDIFAKEGCO",
          "animatorStates": {
            "Born": []
          }
        },
        "Alert": {
          "$type": "NEDIFAKEGCO",
          "animatorStates": {
            "Alert": []
          }
        },
        "NormalIdle": {
          "$type": "NEDIFAKEGCO",
          "animatorStates": {
            "Standby": [],
            "StandbyFree": []
          },
          "canDoSkill": true,
          "canSyncMove": true,
          "resetAnimatorTriggerOnExit": ["DoSkill"],
          "canSteer": true,
          "autoSteer": true
        },
        "NormalMove": {
          "$type": "NEDIFAKEGCO",
          "animatorStates": {
            "Walk": []
          },
          "canDoSkill": true,
          "canSyncMove": true,
          "resetAnimatorTriggerOnExit": ["DoSkill"],
          "canSteer": true
        },
        "NormalAttack": {
          "$type": "NEDIFAKEGCO",
          "animatorStates": {
            "NormalAttack": [
              "Monster_Narcissusborn_Underling_NormalAttack",
              "Audio_Monster_Narcissusborn_Underling_Small_NormalAttack"
            ]
          },
          "resetAnimatorTriggerOnExit": ["DoSkill"],
          "canSteer": true
        },
        "ShootAttack": {
          "$type": "NEDIFAKEGCO",
          "animatorStates": {
            "ShootAttack": [
              "Monster_Narcissusborn_Underling_ShootAttack",
              "Audio_Monster_Narcissusborn_Underling_Small_ShootAttack"
            ]
          },
          "resetAnimatorTriggerOnExit": ["DoSkill"],
          "canSteer": true
        },
        "Die": {
          "$type": "NEDIFAKEGCO",
          "animatorStates": {
            "Die": ["Monster_Narcissusborn_Underling_Die"],
            "DieByAbsorb": []
          },
          "resetAnimatorTriggerOnEnter": ["BeHit", "DoSkill", "BeHit"]
        },
        "Hit_H": {
          "$type": "NEDIFAKEGCO",
          "animatorStates": {
            "BeAbsorbIdle": ["Monster_Narcissusborn_Underling_BeAbsorbed"]
          },
          "resetAnimatorTriggerOnEnter": ["BeHit", "DoSkill", "BeHit"]
        }
      }
    },
    "HitLayer": {
      "$type": "GBGJJIIEMBD",
      "layerIndex": 1,
      "layerIndexName": "HitLayer",
      "CPAANEIJCGD": "",
      "stateIDs": {
        "NoHit": {
          "$type": "NEDIFAKEGCO",
          "priority": -1,
          "animatorStates": {
            "NoHit": []
          }
        },
        "Hit_Shake": {
          "$type": "NEDIFAKEGCO",
          "priority": -1,
          "animatorStates": {
            "Hit_Shake": []
          }
        },
        "BeAbsorbed": {
          "$type": "NEDIFAKEGCO",
          "priority": -1,
          "animatorStates": {
            "BeAbsorbed": []
          }
        },
        "BeAbsorbed_Loop": {
          "$type": "NEDIFAKEGCO",
          "priority": -1,
          "animatorStates": {
            "BeAbsorbed_Loop": []
          }
        }
      }
    },
    "AbsorbLayer": {
      "$type": "GBGJJIIEMBD",
      "layerIndex": 2,
      "layerIndexName": "AbsorbLayer",
      "CPAANEIJCGD": "",
      "stateIDs": {
        "BeAbsorbEnd": {
          "$type": "NEDIFAKEGCO",
          "priority": -1,
          "animatorStates": {
            "BeAbsorbEnd": [
              "Monster_Narcissusborn_Underling_KillSelf",
              "Audio_Monster_Narcissusborn_Underling_Small_BeAbsorbEnd"
            ]
          }
        },
        "NoInAbsorb": {
          "$type": "NEDIFAKEGCO",
          "priority": -1,
          "animatorStates": {
            "NoInAbsorb": []
          }
        },
        "InAbsorbDie": {
          "$type": "NEDIFAKEGCO",
          "priority": -1,
          "animatorStates": {
            "InAbsorbDie": ["Monster_Narcissusborn_Underling_Die"]
          }
        }
      }
    }
  },
  "billboard": {
    "$type": "DNGNMAJBCNP",
    "attachPoint": "BillboardAttach",
    "offset": {
      "y": 0.5
    },
    "radiusOffset": 1.0,
    "enableSelfAdapt": true,
    "showHPBar": true,
    "size": "Small"
  },
  "initialPoses": {
    "Default": {
      "initialPoseID": 101,
      "initialPoseParams": {}
    }
  },
  "aibeta": {
    "enable": true,
    "moveSetting": {
      "useNavMesh": false,
      "navMeshAgentName": "Undead01"
    },
    "sensing": {
      "settings": {
        "DefaultSetting": {
          "viewRange": 40.0,
          "viewPanoramic": true,
          "feelRange": 40.0
        }
      }
    },
    "threat": {
      "GHIJMOKOLMB": "",
      "clearThreatTargetDistance": 70.0,
      "clearThreatEdgeDistance": 2.0,
      "viewThreatGrow": 35.0,
      "threatDecreaseSpeed": 1.0,
      "resistTauntLevel": "Monster_TauntLevel_4"
    },
    "defendArea": {
      "defendRange": 100.0
    },
    "skills": {
      "1": {
        "name": "OnAlert",
        "skillType": "OnAlert",
        "faceTarget": true,
        "publicCDGroup": "",
        "ignoreGCD": true,
        "triggerGCD": false,
        "HHAGODJIAPE": "",
        "stateIDs": ["Alert"],
        "skillQueryingTime": 3.0,
        "flagTargetReachable": "10",
        "flagSelfOnTemplateCollider": "01",
        "flagSelfInZone": "10",
        "flagTargetInZone": "11"
      },
      "401": {
        "name": "NormalAttack",
        "priority": 3,
        "castCondition": {
          "pose": [201],
          "pickRangeMax": 5.0
        },
        "cd": 2.5,
        "cdUpperRange": 1.0,
        "initialCD": 2.5,
        "publicCDGroup": "",
        "HHAGODJIAPE": "",
        "stateIDs": ["NormalAttack"],
        "flagTargetReachable": "11",
        "flagSelfOnTemplateCollider": "11",
        "flagSelfInZone": "11",
        "flagTargetInZone": "11"
      },
      "501": {
        "name": "ShootAttack",
        "priority": 3,
        "castCondition": {
          "pose": [201],
          "pickRangeMax": 30.0
        },
        "cd": 4.0,
        "cdUpperRange": 1.0,
        "initialCD": 2.5,
        "publicCDGroup": "",
        "HHAGODJIAPE": "",
        "stateIDs": ["ShootAttack"],
        "flagTargetReachable": "11",
        "flagSelfOnTemplateCollider": "11",
        "flagSelfInZone": "11",
        "flagTargetInZone": "11"
      }
    },
    "birdCirclingTactic": [
      {
        "$type": "KACCHOLJDNK",
        "enable": true,
        "condition": {
          "pose": [201]
        },
        "JMCOBEPDIGM": {
          "HKJODDGJPHA": 50.0,
          "GGEBMFHFBPO": 10.0,
          "MNPDDAKDHGK": ""
        }
      }
    ]
  },
  "inputKeys": [
    {
      "keyID": 301,
      "inputKeyCode": 257,
      "abilityName": ""
    },
    {
      "keyID": 401,
      "inputKeyCode": 258,
      "abilityName": ""
    },
    {
      "keyID": 501,
      "inputKeyCode": 259,
      "abilityName": ""
    },
    {
      "keyID": 502,
      "inputKeyCode": 260,
      "abilityName": ""
    },
    {
      "keyID": 601,
      "inputKeyCode": 261,
      "abilityName": ""
    },
    {
      "keyID": 701,
      "inputKeyCode": 262,
      "abilityName": ""
    },
    {
      "keyID": 801,
      "inputKeyCode": 263,
      "abilityName": ""
    },
    {
      "keyID": 901,
      "inputKeyCode": 264,
      "abilityName": ""
    },
    {
      "keyID": 902,
      "inputKeyCode": 265,
      "abilityName": ""
    }
  ],
  "move": {
    "$type": "IPNMJMHDMPF",
    "handleCombatTaskImmediately": true,
    "moveOnWater": true,
    "destroyRockWhenInit": true,
    "yawSpeedRatio": 0.75,
    "velocityRatio": 0.75,
    "positionModifyExtra": true,
    "rotationModifyExtra": true,
    "PKHOMJHFAEE": "RootNode"
  },
  "audio": {
    "overrideEmitterName": "",
    "animAudio": {
      "onTransitionIn": [
        {
          "currentStateName": "",
          "audioEvent": {
            "text": ""
          }
        }
      ],
      "onTransitionOut": [
        {
          "currentStateName": "",
          "audioEvent": {
            "text": ""
          }
        }
      ]
    }
  }
}
