{
  "common": {
    "effectAttachShape": {
      "$type": "FJNPJANPGGC",
      "mesh": "EffectMesh"
    },
    "mass": 10000.0,
    "height": 4.099999904632568,
    "viewSize": 1.600000023841858,
    "shadowViewSizeRatio": 2.4000000953674316,
    "affectedByWorld": true,
    "checkInSurface": true,
    "disableTickDistance": 1000.0,
    "useGrassDisplacement": true,
    "reconnectSupport": true,
    "recoverByInitPose": true
  },
  "headControl": {
    "$type": "KPIPDEBDPIH",
    "useHeadControl": true,
    "maxYawDegree": 100.0,
    "maxPitchDegree": 80.0,
    "speed": 1.75,
    "weightSpeed": 1.0,
    "animStates": ["Standby", "ElectronCharge", "ElectronChargeWeak"]
  },
  "specialPoint": {
    "elementAbsorb": "RootNode",
    "elementPendant": "",
    "elementDrop": "AimPoint",
    "bulletAim": "AimPoint",
    "hitPoints": ["PearlPoint", "Ankle", "Elbow", "Hip", "Neck", "BodyCenter"],
    "selectedPoints": ["Neck", "Hip", "BodyCenter", "PearlPoint"],
    "ignoreTransform": true,
    "selectedPointRadius": 0.8999999761581421
  },
  "model": {
    "bornEffect": "",
    "attachEffect": "",
    "BKPFGNPLDNJ": ""
  },
  "dither": {
    "showDitherDuration": 0.10000000149011612
  },
  "globalValue": {
    "serverGlobalValues": [
      "SGV_EffigyChallenge_V5_AssistOptionSelected_1",
      "SGV_EffigyChallenge_V5_AssistOptionSelected_2",
      "SGV_EffigyChallenge_V5_AssistOptionSelected_3",
      "SGV_EffigyChallenge_V5_AssistOptionSelected_4",
      "SGV_EffigyChallenge_V5_AssistOptionSelectedCount",
      "SGV_EffigyChallenge_V5_AssistSkillUsed"
    ]
  },
  "combat": {
    "property": {
      "endureType": "Monster_Demiboss_Other",
      "weight": 250.0
    },
    "beHit": {
      "hitBloodEffect": "",
      "blendShake": {
        "$type": "HNNFKJBHGCC",
        "shakeFlagMap": [
          {
            "shakeFlag": 1.0,
            "hitBoxNames": ["HeadHitBox", "BodyHitBox", "PearlHitBox"]
          },
          {
            "hitBoxNames": ["TailHitBox"]
          },
          {
            "shakeFlag": 0.6000000238418579,
            "hitBoxNames": ["BasicHitBox"]
          }
        ]
      }
    },
    "combatLock": {
      "lockShape": "CircleLockEnemy",
      "lockType": "Avatar&Monster_Lv4"
    },
    "die": {
      "hasAnimatorDie": true,
      "dieEndTime": 3.5,
      "dieDisappearEffect": "",
      "muteHitBox": true,
      "dieDenyLockOn": true,
      "dieIsGhostToEnemy": true,
      "dieIgnoreTriggerBullet": true,
      "muteBillboard": true,
      "mutePushCollider": true
    },
    "animEvents": {
      "AE_TailWhip01": {
        "attackPattern": {
          "$type": "ConfigAttackCircle",
          "triggerType": "TriggerNoRepeat",
          "born": {
            "$type": "ConfigBornBySelf",
            "offset": {
              "x": 0.8500000238418579,
              "y": 0.0,
              "z": -0.7699999809265137
            }
          },
          "height": 2.4000000953674316,
          "fanAngle": 220.0,
          "radius": 6.199999809265137
        },
        "attackInfo": {
          "attackTag": "",
          "attenuationTag": "",
          "attenuationGroup": "default",
          "attackProperty": {
            "actorGrassSubHurtDelta": 0.6000000238418579,
            "actorWindSubHurtDelta": 0.0,
            "elementType": "Electric",
            "elementDurability": 25.0,
            "strikeType": "Blunt",
            "enBreak": 120.0,
            "attackType": "Melee",
            "GLKMCMDJBIK": 0.0
          },
          "hitPattern": {
            "onHitEffectName": "default",
            "hitImpulseY": "",
            "hitImpulseType": "",
            "overrideHitImpulse": {
              "hitLevel": "Heavy",
              "IMIJMPGJOGG": 500.0
            },
            "hitHaltTime": 0.05999999865889549,
            "hitHaltTimeScale": 0.07000000029802322
          }
        }
      },
      "AE_TailWhip02_1": {
        "attackPattern": {
          "$type": "ConfigAttackBox",
          "triggerType": "TriggerNoRepeat",
          "born": {
            "$type": "ConfigBornBySelf",
            "offset": {
              "x": -0.6299999952316284,
              "y": 5.699999809265137,
              "z": -2.440000057220459
            },
            "direction": {
              "$type": "ConfigDirectionByDefault",
              "angleOffsetCorrect": {
                "x": 54.12200164794922,
                "y": -25.518999099731445,
                "z": 8.835000038146973
              }
            }
          },
          "size": {
            "x": 10.079999923706055,
            "y": 2.9000000953674316,
            "z": 8.84000015258789
          }
        },
        "attackInfo": {
          "attackTag": "",
          "attenuationTag": "SeaHorse_Primo_HitProtection",
          "attenuationGroup": "SeaHorse_Primo_HitProtection",
          "attackProperty": {
            "actorGrassSubHurtDelta": 0.6000000238418579,
            "actorWindSubHurtDelta": 0.0,
            "elementType": "Electric",
            "elementDurability": 25.0,
            "strikeType": "Blunt",
            "enBreak": 120.0,
            "attackType": "Melee",
            "GLKMCMDJBIK": 0.0
          },
          "hitPattern": {
            "onHitEffectName": "default",
            "hitImpulseY": "",
            "hitImpulseType": "",
            "overrideHitImpulse": {
              "hitLevel": "Air",
              "IMIJMPGJOGG": 450.0,
              "BPCDKKBKOBM": 620.0
            },
            "hitHaltTime": 0.05000000074505806,
            "hitHaltTimeScale": 0.07999999821186066
          }
        }
      },
      "AE_TailWhip02_2": {
        "attackPattern": {
          "$type": "ConfigAttackBox",
          "triggerType": "TriggerNoRepeat",
          "born": {
            "$type": "ConfigBornBySelf",
            "offset": {
              "x": 2.25,
              "y": 3.180000066757202,
              "z": -3.0399999618530273
            },
            "direction": {
              "$type": "ConfigDirectionByDefault",
              "angleOffsetCorrect": {
                "x": 19.937999725341797,
                "y": -18.461999893188477,
                "z": -49.207000732421875
              }
            }
          },
          "size": {
            "x": 7.204999923706055,
            "y": 2.569999933242798,
            "z": 8.84000015258789
          }
        },
        "attackInfo": {
          "attackTag": "",
          "attenuationTag": "SeaHorse_Primo_HitProtection",
          "attenuationGroup": "SeaHorse_Primo_HitProtection",
          "attackProperty": {
            "actorGrassSubHurtDelta": 0.5,
            "actorWindSubHurtDelta": 0.0,
            "elementType": "Electric",
            "elementDurability": 25.0,
            "strikeType": "Blunt",
            "enBreak": 180.0,
            "attackType": "Melee",
            "GLKMCMDJBIK": 0.0
          },
          "hitPattern": {
            "onHitEffectName": "default",
            "hitImpulseY": "",
            "hitImpulseType": "",
            "overrideHitImpulse": {
              "hitLevel": "Air",
              "IMIJMPGJOGG": 500.0,
              "BPCDKKBKOBM": 100.0
            },
            "hitHaltTime": 0.03999999910593033,
            "hitHaltTimeScale": 0.07999999821186066
          }
        }
      },
      "AE_TailWhip01_NoElement": {
        "attackPattern": {
          "$type": "ConfigAttackCircle",
          "triggerType": "TriggerNoRepeat",
          "born": {
            "$type": "ConfigBornBySelf",
            "offset": {
              "x": 0.8500000238418579,
              "y": 0.0,
              "z": -0.7699999809265137
            }
          },
          "height": 2.4000000953674316,
          "fanAngle": 220.0,
          "radius": 6.199999809265137
        },
        "attackInfo": {
          "attackTag": "",
          "attenuationTag": "",
          "attenuationGroup": "default",
          "attackProperty": {
            "actorGrassSubHurtDelta": 0.5,
            "actorWindSubHurtDelta": 0.0,
            "elementDurability": 100.0,
            "strikeType": "Blunt",
            "enBreak": 120.0,
            "attackType": "Melee",
            "GLKMCMDJBIK": 0.0
          },
          "hitPattern": {
            "onHitEffectName": "default",
            "hitImpulseY": "",
            "hitImpulseType": "",
            "overrideHitImpulse": {
              "hitLevel": "Heavy",
              "IMIJMPGJOGG": 420.0
            },
            "hitHaltTime": 0.05999999865889549,
            "hitHaltTimeScale": 0.07000000029802322
          }
        }
      },
      "AE_TailWhip02_1_NoElement": {
        "attackPattern": {
          "$type": "ConfigAttackBox",
          "triggerType": "TriggerNoRepeat",
          "born": {
            "$type": "ConfigBornBySelf",
            "offset": {
              "x": -0.6299999952316284,
              "y": 5.699999809265137,
              "z": -2.440000057220459
            },
            "direction": {
              "$type": "ConfigDirectionByDefault",
              "angleOffsetCorrect": {
                "x": 54.12200164794922,
                "y": -25.518999099731445,
                "z": 8.835000038146973
              }
            }
          },
          "size": {
            "x": 10.079999923706055,
            "y": 2.9000000953674316,
            "z": 8.84000015258789
          }
        },
        "attackInfo": {
          "attackTag": "",
          "attenuationTag": "SeaHorse_Primo_HitProtection",
          "attenuationGroup": "SeaHorse_Primo_HitProtection",
          "attackProperty": {
            "actorGrassSubHurtDelta": 0.5,
            "actorWindSubHurtDelta": 0.0,
            "elementDurability": 100.0,
            "strikeType": "Blunt",
            "enBreak": 120.0,
            "attackType": "Melee",
            "GLKMCMDJBIK": 0.0
          },
          "hitPattern": {
            "onHitEffectName": "default",
            "hitImpulseY": "",
            "hitImpulseType": "",
            "overrideHitImpulse": {
              "hitLevel": "Air",
              "IMIJMPGJOGG": 400.0,
              "BPCDKKBKOBM": 520.0
            },
            "hitHaltTime": 0.05000000074505806,
            "hitHaltTimeScale": 0.07999999821186066
          }
        }
      },
      "AE_TailWhip02_2_NoElement": {
        "attackPattern": {
          "$type": "ConfigAttackBox",
          "triggerType": "TriggerNoRepeat",
          "born": {
            "$type": "ConfigBornBySelf",
            "offset": {
              "x": 2.25,
              "y": 3.180000066757202,
              "z": -3.0399999618530273
            },
            "direction": {
              "$type": "ConfigDirectionByDefault",
              "angleOffsetCorrect": {
                "x": 19.937999725341797,
                "y": -18.461999893188477,
                "z": -49.207000732421875
              }
            }
          },
          "size": {
            "x": 7.204999923706055,
            "y": 2.569999933242798,
            "z": 8.84000015258789
          }
        },
        "attackInfo": {
          "attackTag": "",
          "attenuationTag": "SeaHorse_Primo_HitProtection",
          "attenuationGroup": "SeaHorse_Primo_HitProtection",
          "attackProperty": {
            "actorGrassSubHurtDelta": 0.4000000059604645,
            "actorWindSubHurtDelta": 0.0,
            "elementDurability": 100.0,
            "strikeType": "Blunt",
            "enBreak": 180.0,
            "attackType": "Melee",
            "GLKMCMDJBIK": 0.0
          },
          "hitPattern": {
            "onHitEffectName": "default",
            "hitImpulseY": "",
            "hitImpulseType": "",
            "overrideHitImpulse": {
              "hitLevel": "Air",
              "IMIJMPGJOGG": 450.0,
              "BPCDKKBKOBM": 80.0
            },
            "hitHaltTime": 0.03999999910593033,
            "hitHaltTimeScale": 0.07999999821186066
          }
        }
      },
      "AE_LeapingStab_1": {
        "attackPattern": {
          "$type": "ConfigAttackCircle",
          "triggerType": "TriggerNoRepeat",
          "height": 2.0,
          "radius": 8.5
        },
        "attackInfo": {
          "attackTag": "",
          "attenuationTag": "",
          "attenuationGroup": "default",
          "attackProperty": {
            "actorGrassSubHurtDelta": 0.949999988079071,
            "actorWindSubHurtDelta": 0.0,
            "elementType": "Electric",
            "elementDurability": 25.0,
            "strikeType": "Blunt",
            "enBreak": 250.0,
            "attackType": "Melee",
            "GLKMCMDJBIK": 0.0
          },
          "hitPattern": {
            "onHitEffectName": "default",
            "hitImpulseY": "",
            "hitImpulseType": "",
            "overrideHitImpulse": {
              "hitLevel": "Air",
              "IMIJMPGJOGG": 300.0,
              "BPCDKKBKOBM": 1050.0
            }
          },
          "forceCameraShake": true,
          "cameraShake": {
            "shakeType": "CustomVector",
            "shakeRange": 1.600000023841858,
            "shakeTime": 0.15000000596046448,
            "shakeDistance": 35.0,
            "shakeDir": {
              "y": -1.0
            },
            "extension": {
              "baseCycle": 0.15000000596046448
            }
          }
        }
      },
      "AE_LeapingStab_2": {
        "attackPattern": {
          "$type": "ConfigAttackCircle",
          "triggerType": "TriggerNoRepeat",
          "height": 0.5,
          "radius": 8.5
        },
        "attackInfo": {
          "attackTag": "",
          "attenuationTag": "SeaHorse_Primo_HitProtection",
          "attenuationGroup": "SeaHorse_Primo_HitProtection",
          "attackProperty": {
            "actorGrassSubHurtDelta": 0.5,
            "actorWindSubHurtDelta": 0.0,
            "elementType": "Electric",
            "elementDurability": 25.0,
            "strikeType": "Blunt",
            "enBreak": 250.0,
            "attackType": "Melee",
            "GLKMCMDJBIK": 0.0
          },
          "hitPattern": {
            "onHitEffectName": "default",
            "hitImpulseY": "",
            "hitImpulseType": "",
            "overrideHitImpulse": {
              "hitLevel": "Air",
              "IMIJMPGJOGG": 300.0,
              "BPCDKKBKOBM": 560.0
            }
          },
          "forceCameraShake": true,
          "cameraShake": {
            "shakeType": "CustomVector",
            "shakeRange": 1.2000000476837158,
            "shakeTime": 0.20000000298023224,
            "shakeDistance": 35.0,
            "shakeDir": {
              "y": 1.0
            },
            "extension": {
              "baseCycle": 0.23999999463558197,
              "cycleDamping": 0.4000000059604645
            }
          }
        }
      },
      "AE_ShieldRecover": {
        "attackPattern": {
          "$type": "ConfigAttackCircle",
          "triggerType": "TriggerNoRepeat",
          "height": 3.0,
          "radius": 6.5
        },
        "attackInfo": {
          "attackTag": "",
          "attenuationTag": "",
          "attenuationGroup": "default",
          "attackProperty": {
            "actorGrassSubHurtDelta": 0.8999999761581421,
            "actorWindSubHurtDelta": 0.0,
            "elementType": "Electric",
            "elementDurability": 25.0,
            "strikeType": "Blunt",
            "enBreak": 250.0,
            "attackType": "Melee",
            "GLKMCMDJBIK": 0.0
          },
          "hitPattern": {
            "onHitEffectName": "default",
            "hitImpulseY": "",
            "hitImpulseType": "",
            "overrideHitImpulse": {
              "hitLevel": "Air",
              "IMIJMPGJOGG": 300.0,
              "BPCDKKBKOBM": 560.0
            }
          },
          "forceCameraShake": true,
          "cameraShake": {
            "shakeRange": 0.699999988079071,
            "shakeTime": 0.30000001192092896,
            "shakeDistance": 35.0,
            "extension": {
              "baseCycle": 0.36000001430511475,
              "cycleDamping": 0.4000000059604645
            }
          }
        }
      },
      "AE_AnnihilationEndingAttack": {
        "attackPattern": {
          "$type": "ConfigAttackSphere",
          "triggerType": "TriggerNoRepeat",
          "born": {
            "$type": "ConfigBornBySelf",
            "offset": {
              "z": 0.30000001192092896
            },
            "useRotation": true
          },
          "radius": 7.5
        },
        "attackInfo": {
          "attackTag": "",
          "attenuationTag": "",
          "attenuationGroup": "default",
          "attackProperty": {
            "actorGrassSubHurtDelta": 0.0,
            "actorWindSubHurtDelta": 0.0,
            "elementDurability": 100.0,
            "enBreak": 250.0,
            "GLKMCMDJBIK": 0.0
          },
          "hitPattern": {
            "onHitEffectName": "default",
            "hitImpulseY": "",
            "hitImpulseType": "",
            "overrideHitImpulse": {
              "hitLevel": "Heavy",
              "IMIJMPGJOGG": 460.0
            }
          },
          "cameraShake": {
            "shakeRange": 0.30000001192092896,
            "shakeTime": 0.25,
            "extension": {
              "baseCycle": 0.25,
              "cycleDamping": 0.20000000298023224
            }
          }
        }
      }
    }
  },
  "abilities": [
    {
      "abilityID": "",
      "abilityName": "FauneAbyssale_SeaHorse_Primo_BossEvent_PearlStateManager",
      "abilityOverride": ""
    },
    {
      "abilityID": "",
      "abilityName": "FauneAbyssale_SeaHorse_Primo_BossEvent_Annihilation",
      "abilityOverride": ""
    },
    {
      "abilityID": "",
      "abilityName": "FauneAbyssale_SeaHorse_Primo_BossEvent_CameraManager",
      "abilityOverride": ""
    },
    {
      "abilityID": "",
      "abilityName": "FauneAbyssale_SeaHorse_Primo_BossEvent_FlyPoseManager",
      "abilityOverride": ""
    },
    {
      "abilityID": "",
      "abilityName": "FauneAbyssale_SeaHorse_Primo_FishBarrage",
      "abilityOverride": ""
    },
    {
      "abilityID": "",
      "abilityName": "FauneAbyssale_SeaHorse_Primo_ThunderStrike",
      "abilityOverride": ""
    },
    {
      "abilityID": "",
      "abilityName": "FauneAbyssale_SeaHorse_Primo_BossEvent_TileLogic",
      "abilityOverride": ""
    },
    {
      "abilityID": "",
      "abilityName": "FauneAbyssale_SeaHorse_Primo_ElectronCharge_CreateTile",
      "abilityOverride": ""
    },
    {
      "abilityID": "",
      "abilityName": "FauneAbyssale_SeaHorse_Primo_FreePoseFishVFX",
      "abilityOverride": ""
    },
    {
      "abilityID": "",
      "abilityName": "FauneAbyssale_SeaHorse_Primo_PushCollider_Enable",
      "abilityOverride": ""
    },
    {
      "abilityID": "",
      "abilityName": "FauneAbyssale_SeaHorse_Primo_PushCollider_Disable",
      "abilityOverride": ""
    },
    {
      "abilityID": "",
      "abilityName": "FauneAbyssale_SeaHorse_Primo_BasicHitBox_Enable",
      "abilityOverride": ""
    },
    {
      "abilityID": "",
      "abilityName": "FauneAbyssale_SeaHorse_Primo_BasicHitBox_Disable",
      "abilityOverride": ""
    },
    {
      "abilityID": "",
      "abilityName": "FauneAbyssale_SeaHorse_Primo_DistanceCalculation",
      "abilityOverride": ""
    },
    {
      "abilityID": "",
      "abilityName": "FauneAbyssale_SeaHorse_Primo_DistanceCalculation_Weak",
      "abilityOverride": ""
    },
    {
      "abilityID": "",
      "abilityName": "FauneAbyssale_SeaHorse_Primo_ElectronCharge_Far_DistanceCalculation",
      "abilityOverride": ""
    },
    {
      "abilityID": "",
      "abilityName": "FauneAbyssale_SeaHorse_Primo_Annihilation_DistanceCalculation",
      "abilityOverride": ""
    },
    {
      "abilityID": "",
      "abilityName": "FauneAbyssale_SeaHorse_Primo_ElectronCharge_RemoveDummyBullet",
      "abilityOverride": ""
    },
    {
      "abilityID": "",
      "abilityName": "FauneAbyssale_SeaHorse_Primo_ElectronCharge_CreateDummyBullet_Electric",
      "abilityOverride": ""
    },
    {
      "abilityID": "",
      "abilityName": "FauneAbyssale_SeaHorse_Primo_ElectronCharge_CreateDummyBullet_Physic",
      "abilityOverride": ""
    },
    {
      "abilityID": "",
      "abilityName": "FauneAbyssale_SeaHorse_Primo_BossEvent_Alert",
      "abilityOverride": ""
    },
    {
      "abilityID": "",
      "abilityName": "FauneAbyssale_SeaHorse_Primo_Rock_Crasher_Handler",
      "abilityOverride": ""
    },
    {
      "abilityID": "",
      "abilityName": "Monster_BossEvent_CommonProcess",
      "abilityOverride": ""
    },
    {
      "abilityID": "",
      "abilityName": "FauneAbyssale_SeaHorse_Primo_BossEvent_Shuttle",
      "abilityOverride": ""
    },
    {
      "abilityID": "",
      "abilityName": "FauneAbyssale_SeaHorse_Primo_BossEvent_Shuttle_2",
      "abilityOverride": ""
    },
    {
      "abilityID": "",
      "abilityName": "FauneAbyssale_SeaHorse_Primo_BossEvent_Shuttle_3",
      "abilityOverride": ""
    },
    {
      "abilityID": "",
      "abilityName": "FauneAbyssale_SeaHorse_Primo_BossEvent_CreateThunderTrap",
      "abilityOverride": ""
    },
    {
      "abilityID": "",
      "abilityName": "FauneAbyssale_SeaHorse_Primo_BossEvent_DragonExterminator",
      "abilityOverride": ""
    }
  ],
  "stateLayers": {
    "defaultLayer": {
      "$type": "GBGJJIIEMBD",
      "layerIndexName": "",
      "CPAANEIJCGD": "",
      "stateIDs": {
        "Born": {
          "$type": "NEDIFAKEGCO",
          "animatorStates": {
            "Born": []
          }
        },
        "Standby": {
          "$type": "NEDIFAKEGCO",
          "animatorStates": {
            "Standby": []
          },
          "canDoSkill": true,
          "canSyncMove": true,
          "resetAnimatorTriggerOnEnter": ["DoSkill"],
          "resetAnimatorTriggerOnExit": ["DoSkill"],
          "canSteer": true,
          "GGODGEGHPJD": true
        },
        "BeHit": {
          "$type": "NEDIFAKEGCO",
          "animatorStates": {
            "Hit_L": [
              "Audio_Monster_FauneAbyssale_SeaHorse_Primo_Electric_Hit_L"
            ]
          },
          "resetAnimatorTriggerOnEnter": ["BeHit"],
          "airMoveFollowAnimation": true
        },
        "Die": {
          "$type": "NEDIFAKEGCO",
          "animatorStates": {
            "DieLand": [
              "FauneAbyssale_SeaHorse_Primo_Die",
              "Audio_Monster_FauneAbyssale_SeaHorse_Primo_Electric_Die_Land"
            ],
            "DieHigh": [
              "FauneAbyssale_SeaHorse_Primo_Die",
              "Audio_Monster_FauneAbyssale_SeaHorse_Primo_Electric_Die_High"
            ]
          },
          "resetAnimatorTriggerOnEnter": ["DoSkill", "BeHit"],
          "setAnimatorBoolean": [
            {
              "name": "DieShader"
            }
          ]
        },
        "Personality01": {
          "$type": "NEDIFAKEGCO",
          "animatorStates": {
            "Personality01": [
              "Audio_Monster_FauneAbyssale_SeaHorse_Primo_Electric_Personality01"
            ]
          },
          "canDoSkill": true
        },
        "Alert": {
          "$type": "NEDIFAKEGCO",
          "animatorStates": {
            "Alert": [
              "FauneAbyssale_SeaHorse_Primo_BossEvent_Alert",
              "Audio_Monster_FauneAbyssale_SeaHorse_Primo_Electric_Alert"
            ]
          },
          "resetAnimatorTriggerOnExit": ["DoSkill"]
        },
        "Annihilation_BS": {
          "$type": "NEDIFAKEGCO",
          "animatorStates": {
            "Annihilation_BS": [
              "FauneAbyssale_SeaHorse_Primo_Annihilation_BS_VFX",
              "Audio_Monster_FauneAbyssale_SeaHorse_Primo_Electric_Annihilation_BS"
            ]
          },
          "resetAnimatorTriggerOnEnter": ["EndAnnihilation"],
          "setAnimatorBoolean": [
            {
              "name": "PearlCharge"
            }
          ],
          "setAnimatorFloat": [
            {
              "name": "FlyPose",
              "value": 1.0
            }
          ]
        },
        "Annihilation_Jump": {
          "$type": "NEDIFAKEGCO",
          "animatorStates": {
            "Annihilation_Jump": [
              "FauneAbyssale_SeaHorse_Primo_Annihilation_Jump_VFX",
              "Audio_Monster_FauneAbyssale_SeaHorse_Primo_Electric_Annihilation_Jump"
            ],
            "Annihilation_FarJump": [
              "FauneAbyssale_SeaHorse_Primo_Annihilation_FarJump_VFX",
              "Audio_Monster_FauneAbyssale_SeaHorse_Primo_Electric_Annihilation_FarJump"
            ]
          },
          "cullingModelAlwaysAnimate": true,
          "setAnimatorBoolean": [
            {
              "name": "PearlCharge"
            }
          ],
          "setAnimatorFloat": [
            {
              "name": "FlyPose",
              "normalizeEnd": 0.15000000596046448,
              "value": 1.0
            },
            {
              "name": "FlyPose",
              "normalizeStart": 0.15000000596046448,
              "value": 2.0
            }
          ],
          "forceSetAirMove": true
        },
        "Annihilation_JumpEnd": {
          "$type": "NEDIFAKEGCO",
          "animatorStates": {
            "Annihilation_JumpEnd": [
              "FauneAbyssale_SeaHorse_Primo_Annihilation_JumpEnd",
              "Audio_Monster_FauneAbyssale_SeaHorse_Primo_Electric_Annihilation_JumpEnd"
            ]
          },
          "cullingModelAlwaysAnimate": true,
          "setAnimatorBoolean": [
            {
              "name": "PearlCharge"
            }
          ],
          "setAnimatorFloat": [
            {
              "name": "FlyPose",
              "value": 2.0
            }
          ],
          "forceSetAirMove": true
        },
        "Annihilation_Cast": {
          "$type": "NEDIFAKEGCO",
          "animatorStates": {
            "Annihilation_Cast": [
              "FauneAbyssale_SeaHorse_Primo_Annihilation_Cast",
              "Audio_Monster_FauneAbyssale_SeaHorse_Primo_Electric_Annihilation_Cast"
            ]
          },
          "cullingModelAlwaysAnimate": true,
          "setAnimatorBoolean": [
            {
              "name": "PearlCharge"
            }
          ],
          "setAnimatorFloat": [
            {
              "name": "FlyPose",
              "value": 2.0
            }
          ],
          "forceSetAirMove": true
        },
        "Annihilation_Loop": {
          "$type": "NEDIFAKEGCO",
          "animatorStates": {
            "Annihilation_Loop": [
              "FauneAbyssale_SeaHorse_Primo_Annihilation_Loop_Sync"
            ]
          },
          "resetAnimatorTriggerOnEnter": ["EndAnnihilation"],
          "setAnimatorBoolean": [
            {
              "name": "PearlCharge"
            }
          ],
          "setAnimatorFloat": [
            {
              "name": "FlyPose",
              "value": 2.0
            }
          ],
          "forceSetAirMove": true
        },
        "Annihilation_AS": {
          "$type": "NEDIFAKEGCO",
          "animatorStates": {
            "Annihilation_AS": [
              "FauneAbyssale_SeaHorse_Primo_Annihilation_AS",
              "Audio_Monster_FauneAbyssale_SeaHorse_Primo_Electric_Annihilation_AS"
            ]
          },
          "setAnimatorBoolean": [
            {
              "name": "PearlCharge"
            }
          ],
          "setAnimatorFloat": [
            {
              "name": "FlyPose",
              "normalizeEnd": 0.3100000023841858,
              "value": 2.0
            },
            {
              "name": "FlyPose",
              "normalizeStart": 0.3100000023841858,
              "normalizeEnd": 0.6349999904632568,
              "value": 1.0
            },
            {
              "name": "FlyPose",
              "normalizeStart": 0.6349999904632568
            }
          ],
          "forceSetAirMove": true
        },
        "Stun": {
          "$type": "NEDIFAKEGCO",
          "animatorStates": {
            "StunLow": [
              "Audio_Monster_FauneAbyssale_SeaHorse_Primo_Electric_Stun_Ground"
            ],
            "StunGround": [
              "Audio_Monster_FauneAbyssale_SeaHorse_Primo_Electric_Stun_Ground"
            ],
            "Stun_AS": [
              "Audio_Monster_FauneAbyssale_SeaHorse_Primo_Electric_Stun_AS"
            ]
          },
          "addEndure": 0.0010000000474974513,
          "setAnimatorFloat": [
            {
              "name": "FlyPose"
            }
          ],
          "canSteer": true,
          "followAnimRotation": true
        },
        "StunHigh": {
          "$type": "NEDIFAKEGCO",
          "animatorStates": {
            "StunHigh": [
              "Audio_Monster_FauneAbyssale_SeaHorse_Primo_Electric_Die_High"
            ]
          },
          "addEndure": 0.0010000000474974513,
          "setAnimatorFloat": [
            {
              "name": "FlyPose",
              "normalizeEnd": 0.4000000059604645,
              "value": 2.0
            },
            {
              "name": "FlyPose",
              "normalizeStart": 0.4000000059604645
            }
          ],
          "canSteer": true,
          "followAnimRotation": true
        },
        "FishBarrage": {
          "$type": "NEDIFAKEGCO",
          "animatorStates": {
            "FishBarrage": [
              "FauneAbyssale_SeaHorse_Primo_FishBarrage_Trigger",
              "Audio_Monster_FauneAbyssale_SeaHorse_Primo_Electric_FishBarrage"
            ]
          },
          "cullingModelAlwaysAnimate": true,
          "setAnimatorBoolean": [
            {
              "name": "PearlCharge",
              "normalizeEnd": 0.6600000262260437
            }
          ],
          "setAnimatorFloat": [
            {
              "name": "FlyPose"
            }
          ]
        },
        "ElectronCharge_BS": {
          "$type": "NEDIFAKEGCO",
          "animatorStates": {
            "ElectronCharge_BS": [
              "FauneAbyssale_SeaHorse_Primo_ElectronCharge_Electric_BS",
              "Audio_Monster_FauneAbyssale_SeaHorse_Primo_ElectronCharge_BS"
            ],
            "ElectronChargeWeak_BS": [
              "FauneAbyssale_SeaHorse_Primo_ElectronCharge_Physic_BS",
              "Audio_Monster_FauneAbyssale_SeaHorse_Primo_ElectronWeak_BS"
            ]
          },
          "setAnimatorBoolean": [
            {
              "name": "PearlCharge"
            }
          ],
          "setAnimatorFloat": [
            {
              "name": "FlyPose",
              "normalizeEnd": 0.3100000023841858
            },
            {
              "name": "FlyPose",
              "normalizeStart": 0.3100000023841858,
              "normalizeEnd": 0.6349999904632568,
              "value": 1.0
            },
            {
              "name": "FlyPose",
              "normalizeStart": 0.6349999904632568
            }
          ],
          "canSteer": true,
          "followAnimRotation": true
        },
        "ElectronCharge": {
          "$type": "NEDIFAKEGCO",
          "animatorStates": {
            "ElectronCharge": [
              "FauneAbyssale_SeaHorse_Primo_ElectronCharge_Electric",
              "FauneAbyssale_SeaHorse_Primo_ElectronCharge_CreateTile",
              "Audio_Monster_FauneAbyssale_SeaHorse_Primo_ElectronCharge"
            ]
          },
          "setAnimatorBoolean": [
            {
              "name": "PearlCharge"
            }
          ],
          "setAnimatorFloat": [
            {
              "name": "FlyPose"
            }
          ],
          "canSteer": true,
          "followAnimRotation": true
        },
        "ElectronChargeShortCombo": {
          "$type": "NEDIFAKEGCO",
          "animatorStates": {
            "ElectronChargeShortCombo": [
              "FauneAbyssale_SeaHorse_Primo_BossEvent_ElectronChargeShortCombo",
              "FauneAbyssale_SeaHorse_Primo_ElectronCharge_CreateTile",
              "Audio_Monster_FauneAbyssale_SeaHorse_Primo_ElectronCharge"
            ]
          },
          "setAnimatorBoolean": [
            {
              "name": "PearlCharge"
            }
          ],
          "setAnimatorFloat": [
            {
              "name": "FlyPose"
            }
          ],
          "canSteer": true,
          "followAnimRotation": true
        },
        "ElectronChargeWeak": {
          "$type": "NEDIFAKEGCO",
          "animatorStates": {
            "ElectronChargeWeak": [
              "FauneAbyssale_SeaHorse_Primo_ElectronCharge_Physic",
              "Audio_Monster_FauneAbyssale_SeaHorse_Primo_ElectronWeak"
            ]
          },
          "setAnimatorFloat": [
            {
              "name": "FlyPose"
            }
          ],
          "canSteer": true,
          "followAnimRotation": true
        },
        "TailWhip01": {
          "$type": "NEDIFAKEGCO",
          "animatorStates": {
            "TailWhip01": [
              "FauneAbyssale_SeaHorse_Primo_TailWhip01",
              "Audio_Monster_FauneAbyssale_SeaHorse_Primo_Electric_TailWhip01"
            ]
          },
          "setAnimatorBoolean": [
            {
              "name": "PearlCharge",
              "normalizeEnd": 0.5600000023841858
            }
          ],
          "setAnimatorFloat": [
            {
              "name": "FlyPose"
            }
          ]
        },
        "TailWhipTrans": {
          "$type": "NEDIFAKEGCO",
          "animatorStates": {
            "TailWhipTrans": [
              "Audio_Monster_FauneAbyssale_SeaHorse_Primo_Electric_TailWhipTrans"
            ]
          },
          "setAnimatorBoolean": [
            {
              "name": "PearlCharge"
            }
          ],
          "setAnimatorFloat": [
            {
              "name": "FlyPose"
            }
          ]
        },
        "TailWhip02": {
          "$type": "NEDIFAKEGCO",
          "animatorStates": {
            "TailWhip02": [
              "FauneAbyssale_SeaHorse_Primo_TailWhip02",
              "Audio_Monster_FauneAbyssale_SeaHorse_Primo_Electric_TailWhip02"
            ]
          },
          "setAnimatorBoolean": [
            {
              "name": "PearlCharge",
              "normalizeEnd": 0.6100000143051147
            }
          ],
          "setAnimatorFloat": [
            {
              "name": "FlyPose",
              "normalizeEnd": 0.25
            },
            {
              "name": "FlyPose",
              "normalizeStart": 0.25,
              "normalizeEnd": 0.3100000023841858,
              "value": 1.0
            },
            {
              "name": "FlyPose",
              "normalizeStart": 0.3100000023841858
            }
          ]
        },
        "ThunderStrike": {
          "$type": "NEDIFAKEGCO",
          "animatorStates": {
            "ThunderStrike": [
              "FauneAbyssale_SeaHorse_Primo_BossEvent_ThunderStrikeNew_Trigger",
              "Audio_Monster_FauneAbyssale_SeaHorse_Primo_Electric_ThunderStrike"
            ]
          },
          "setAnimatorBoolean": [
            {
              "name": "PearlCharge"
            }
          ],
          "setAnimatorFloat": [
            {
              "name": "FlyPose"
            }
          ]
        },
        "LeapingStab_01": {
          "$type": "NEDIFAKEGCO",
          "animatorStates": {
            "LeapingStab_01": [
              "Audio_Monster_FauneAbyssale_SeaHorse_Primo_Electric_LeapingStab_01"
            ]
          },
          "setAnimatorBoolean": [
            {
              "name": "PearlCharge"
            }
          ],
          "setAnimatorFloat": [
            {
              "name": "FlyPose"
            }
          ],
          "forceSetAirMove": true
        },
        "LeapingStab_02": {
          "$type": "NEDIFAKEGCO",
          "animatorStates": {
            "LeapingStab_02": [
              "FauneAbyssale_SeaHorse_Primo_LeapingStab_02_VFX",
              "Audio_Monster_FauneAbyssale_SeaHorse_Primo_Electric_LeapingStab_02"
            ]
          },
          "setAnimatorBoolean": [
            {
              "name": "PearlCharge"
            }
          ],
          "setAnimatorFloat": [
            {
              "name": "FlyPose",
              "value": 1.0
            }
          ],
          "forceSetAirMove": true
        },
        "LeapingStab_03": {
          "$type": "NEDIFAKEGCO",
          "animatorStates": {
            "LeapingStab_03": [
              "FauneAbyssale_SeaHorse_Primo_BossEvent_LeapingStab_Rush",
              "Audio_Monster_FauneAbyssale_SeaHorse_Primo_Electric_LeapingStab_03"
            ]
          },
          "cullingModelAlwaysAnimate": true,
          "setAnimatorBoolean": [
            {
              "name": "PearlCharge"
            }
          ],
          "setAnimatorFloat": [
            {
              "name": "FlyPose",
              "value": 2.0
            }
          ],
          "forceSetAirMove": true
        },
        "LeapingStab_AS": {
          "$type": "NEDIFAKEGCO",
          "animatorStates": {
            "LeapingStab_AS": [
              "FauneAbyssale_SeaHorse_Primo_LeapingStab_Attack",
              "Audio_Monster_FauneAbyssale_SeaHorse_Primo_Electric_LeapingStab_AS"
            ]
          },
          "setAnimatorBoolean": [
            {
              "name": "PearlCharge",
              "normalizeEnd": 0.5
            }
          ],
          "setAnimatorFloat": [
            {
              "name": "FlyPose"
            }
          ]
        },
        "ShieldRecover": {
          "$type": "NEDIFAKEGCO",
          "animatorStates": {
            "ShieldRecover": [
              "FauneAbyssale_SeaHorse_Primo_BossEvent_ShieldRecover",
              "Audio_Monster_FauneAbyssale_SeaHorse_Primo_Electric_ShieldRecover"
            ]
          },
          "addEndure": 0.0,
          "setAnimatorFloat": [
            {
              "name": "FlyPose"
            }
          ]
        },
        "Shuttle": {
          "$type": "NEDIFAKEGCO",
          "animatorStates": {
            "Shuttle": [
              "FauneAbyssale_SeaHorse_Primo_BossEvent_Shuttle",
              "Audio_FauneAbyssale_SeaHorse_Primo_Shuttle"
            ]
          },
          "setAnimatorFloat": [
            {
              "name": "FlyPose",
              "normalizeEnd": 0.3400000035762787
            },
            {
              "name": "FlyPose",
              "normalizeStart": 0.3400000035762787,
              "value": 1.0
            }
          ]
        }
      }
    }
  },
  "billboard": {
    "$type": "DNGNMAJBCNP",
    "attachPoint": "BillboardAttach",
    "offset": {
      "y": 0.10000000149011612
    },
    "radiusOffset": 1.0,
    "enableSelfAdapt": true,
    "showHPBar": true,
    "size": "Grand"
  },
  "initialPoses": {
    "Default": {
      "initialPoseID": 1
    },
    "BossEvent": {
      "initialPoseID": 1001
    }
  },
  "aibeta": {
    "enable": true,
    "moveSetting": {
      "navMeshAgentName": "Undead01"
    },
    "sensing": {
      "settings": {
        "DefaultSetting": {
          "viewRange": 25.0,
          "feelRange": 25.0
        },
        "NeverCombat": {
          "enableVision": false,
          "hearAttractionRange": 0.0,
          "feelRange": 0.0
        }
      },
      "templates": {
        "DefaultTemplate": {
          "DefaultPoses": "DefaultSetting"
        },
        "NeverCombatTemplate": {
          "DefaultPoses": "NeverCombat"
        }
      }
    },
    "neurons": {
      "DefaultSetting": ["HIT"],
      "NeverCombat": []
    },
    "threat": {
      "GHIJMOKOLMB": "",
      "clearThreatTargetDistance": 70.0,
      "clearThreatEdgeDistance": 2.0,
      "clearThreatByTargetOutOfZone": true,
      "viewThreatGrow": 35.0,
      "threatDecreaseSpeed": 100.0,
      "resistTauntLevel": "Monster_TauntLevel_4",
      "forceAlertByDefendArea": true
    },
    "defendArea": {
      "defendRange": 50.0
    },
    "skillGroupCDConfigs": [
      {
        "skillGroupCDID": 1,
        "skillGroupCDTime": 16.0
      },
      {
        "skillGroupCDID": 2,
        "skillGroupCDTime": 31.0
      },
      {
        "skillGroupCDID": 3,
        "skillGroupCDTime": 9999.0
      },
      {
        "skillGroupCDID": 4,
        "skillGroupCDTime": 7.0
      }
    ],
    "skills": {
      "101": {
        "name": "Alert",
        "skillType": "OnAlert",
        "publicCDGroup": "",
        "ignoreGCD": true,
        "triggerGCD": false,
        "HHAGODJIAPE": "",
        "stateIDs": ["Alert"],
        "skillQueryingTime": 3.0,
        "flagTargetReachable": "10",
        "flagSelfOnTemplateCollider": "01",
        "flagSelfInZone": "10",
        "flagTargetInZone": "11"
      },
      "102": {
        "name": "AlertConfirm",
        "priority": 1,
        "castCondition": {
          "pose": [1002]
        },
        "publicCDGroup": "",
        "ignoreGCD": true,
        "triggerGCD": false,
        "triggerCDOnFail": false,
        "HHAGODJIAPE": "",
        "stateIDs": ["Alert"],
        "skillQueryingTime": 3.0,
        "flagTargetReachable": "11",
        "flagSelfOnTemplateCollider": "11",
        "flagSelfInZone": "11",
        "flagTargetInZone": "11"
      },
      "201": {
        "name": "FishBarrage",
        "priority": 4,
        "castCondition": {
          "pose": [1, 2]
        },
        "cd": 15.0,
        "cdUpperRange": 5.0,
        "initialCD": 16.0,
        "publicCDGroup": "",
        "skillGroupCDID": 1,
        "HHAGODJIAPE": "",
        "stateIDs": ["FishBarrage"],
        "flagTargetReachable": "11",
        "flagSelfOnTemplateCollider": "01",
        "flagSelfInZone": "10",
        "flagTargetInZone": "11"
      },
      "902": {
        "name": "Shuttle_Opening",
        "priority": 2,
        "castCondition": {
          "pose": [1, 2],
          "pickRangeMax": 6.0
        },
        "cd": 9999.0,
        "publicCDGroup": "",
        "ignoreGCD": true,
        "triggerGCD": false,
        "skillGroupCDID": 3,
        "HHAGODJIAPE": "",
        "stateIDs": ["Shuttle"],
        "flagTargetReachable": "11",
        "flagSelfOnTemplateCollider": "01",
        "flagSelfInZone": "10",
        "flagTargetInZone": "11"
      },
      "203": {
        "name": "FishBarrage_AllPity",
        "castCondition": {
          "pose": [1, 2]
        },
        "publicCDGroup": "",
        "HHAGODJIAPE": "",
        "stateIDs": ["FishBarrage"],
        "flagTargetReachable": "11",
        "flagSelfOnTemplateCollider": "01",
        "flagSelfInZone": "10",
        "flagTargetInZone": "11"
      },
      "301": {
        "name": "ElectronCharge",
        "priority": 3,
        "castCondition": {
          "pose": [1, 2],
          "maxTargetAngleXZ": 135.0,
          "pickRangeMin": 5.75,
          "pickRangeMax": 12.300000190734863
        },
        "cd": 31.0,
        "initialCD": 10.0,
        "publicCDGroup": "",
        "skillGroupCDID": 2,
        "HHAGODJIAPE": "",
        "stateIDs": [
          "ElectronCharge_BS",
          "ElectronCharge",
          "FishBarrage",
          "LeapingStab_01",
          "LeapingStab_02",
          "LeapingStab_03",
          "LeapingStab_AS"
        ],
        "flagTargetReachable": "11",
        "flagSelfOnTemplateCollider": "01",
        "flagSelfInZone": "10",
        "flagTargetInZone": "11"
      },
      "302": {
        "name": "ElectronCharge_Pity",
        "priority": 2,
        "castCondition": {
          "pose": [1, 2],
          "maxTargetAngleXZ": 135.0,
          "pickRangeMax": 15.0
        },
        "cd": 45.0,
        "initialCD": 25.0,
        "publicCDGroup": "",
        "ignoreGCD": true,
        "skillGroupCDID": 2,
        "HHAGODJIAPE": "",
        "stateIDs": [
          "ElectronCharge_BS",
          "ElectronCharge",
          "FishBarrage",
          "LeapingStab_01",
          "LeapingStab_02",
          "LeapingStab_03",
          "LeapingStab_AS"
        ],
        "flagTargetReachable": "11",
        "flagSelfOnTemplateCollider": "01",
        "flagSelfInZone": "10",
        "flagTargetInZone": "11"
      },
      "303": {
        "name": "ElectronCharge_Far",
        "priority": 4,
        "castCondition": {
          "pose": [1, 2],
          "maxTargetAngleXZ": 135.0,
          "pickRangeMin": 15.0
        },
        "cd": 10.0,
        "initialCD": 10.0,
        "publicCDGroup": "",
        "ignoreGCD": true,
        "skillGroupCDID": 4,
        "HHAGODJIAPE": "",
        "stateIDs": [
          "ElectronCharge_BS",
          "ElectronCharge",
          "FishBarrage",
          "LeapingStab_01",
          "LeapingStab_02",
          "LeapingStab_03",
          "LeapingStab_AS"
        ],
        "flagTargetReachable": "11",
        "flagSelfOnTemplateCollider": "01",
        "flagSelfInZone": "10",
        "flagTargetInZone": "11"
      },
      "311": {
        "name": "ElectronChargeWeak",
        "priority": 3,
        "castCondition": {
          "pose": [3],
          "maxTargetAngleXZ": 135.0,
          "pickRangeMin": 1.5,
          "pickRangeMax": 12.0
        },
        "cd": 25.0,
        "initialCD": 10.0,
        "publicCDGroup": "",
        "skillGroupCDID": 2,
        "HHAGODJIAPE": "",
        "stateIDs": ["ElectronCharge_BS", "ElectronChargeWeak", "TailWhip02"],
        "flagTargetReachable": "11",
        "flagSelfOnTemplateCollider": "01",
        "flagSelfInZone": "10",
        "flagTargetInZone": "11"
      },
      "401": {
        "name": "TailWhip-A",
        "priority": 3,
        "castCondition": {
          "pose": [1, 2, 3],
          "maxTargetAngleXZ": 90.0,
          "pickRangeMax": 7.5
        },
        "cd": 17.5,
        "initialCD": 5.0,
        "publicCDGroup": "",
        "HHAGODJIAPE": "",
        "stateIDs": ["TailWhip01", "TailWhip02", "TailWhipTrans"],
        "flagTargetReachable": "11",
        "flagSelfOnTemplateCollider": "01",
        "flagSelfInZone": "10",
        "flagTargetInZone": "11"
      },
      "411": {
        "name": "TailWhip-B",
        "priority": 3,
        "castCondition": {
          "pose": [1, 2, 3],
          "pickRangeMax": 7.5
        },
        "cd": 17.0,
        "initialCD": 5.0,
        "publicCDGroup": "",
        "HHAGODJIAPE": "",
        "stateIDs": ["TailWhip02"],
        "flagTargetReachable": "11",
        "flagSelfOnTemplateCollider": "01",
        "flagSelfInZone": "10",
        "flagTargetInZone": "11"
      },
      "601": {
        "name": "ThunderStrike",
        "priority": 3,
        "castCondition": {
          "pose": [1, 2]
        },
        "cd": 10.0,
        "initialCD": 5.0,
        "publicCDGroup": "",
        "triggerGCD": false,
        "triggerCDOnFail": false,
        "HHAGODJIAPE": "",
        "stateIDs": ["ThunderStrike"],
        "flagTargetReachable": "11",
        "flagSelfOnTemplateCollider": "01",
        "flagSelfInZone": "10",
        "flagTargetInZone": "11"
      },
      "701": {
        "name": "LeapingStab",
        "priority": 2,
        "castCondition": {
          "pose": [1, 2],
          "pickRangeMin": 11.0,
          "pickRangeMax": 25.0
        },
        "cd": 28.0,
        "initialCD": 20.0,
        "publicCDGroup": "",
        "ignoreGCD": true,
        "HHAGODJIAPE": "",
        "stateIDs": [
          "LeapingStab_01",
          "LeapingStab_02",
          "LeapingStab_03",
          "LeapingStab_AS"
        ],
        "flagTargetReachable": "11",
        "flagSelfOnTemplateCollider": "01",
        "flagSelfInZone": "10",
        "flagTargetInZone": "11"
      },
      "702": {
        "name": "LeapingStab_Pity",
        "priority": 2,
        "castCondition": {
          "pose": [1, 2],
          "pickRangeMin": 4.0
        },
        "cd": 31.0,
        "initialCD": 30.0,
        "publicCDGroup": "",
        "skillGroupCDID": 2,
        "HHAGODJIAPE": "",
        "stateIDs": [
          "LeapingStab_01",
          "LeapingStab_02",
          "LeapingStab_03",
          "LeapingStab_AS"
        ],
        "flagTargetReachable": "11",
        "flagSelfOnTemplateCollider": "01",
        "flagSelfInZone": "10",
        "flagTargetInZone": "11"
      },
      "703": {
        "name": "LeapingStab_Opening",
        "priority": 2,
        "castCondition": {
          "pose": [1, 2],
          "pickRangeMin": 6.0
        },
        "cd": 9999.0,
        "publicCDGroup": "",
        "ignoreGCD": true,
        "triggerGCD": false,
        "skillGroupCDID": 3,
        "HHAGODJIAPE": "",
        "stateIDs": [
          "LeapingStab_01",
          "LeapingStab_02",
          "LeapingStab_03",
          "LeapingStab_AS"
        ],
        "flagTargetReachable": "11",
        "flagSelfOnTemplateCollider": "01",
        "flagSelfInZone": "10",
        "flagTargetInZone": "11"
      },
      "704": {
        "name": "LeapingStab_Far",
        "priority": 4,
        "castCondition": {
          "pose": [1, 2],
          "pickRangeMin": 12.0,
          "pickRangeMax": 21.0
        },
        "cd": 20.0,
        "initialCD": 10.0,
        "publicCDGroup": "",
        "ignoreGCD": true,
        "skillGroupCDID": 4,
        "HHAGODJIAPE": "",
        "stateIDs": [
          "LeapingStab_01",
          "LeapingStab_02",
          "LeapingStab_03",
          "LeapingStab_AS"
        ],
        "flagTargetReachable": "11",
        "flagSelfOnTemplateCollider": "01",
        "flagSelfInZone": "10",
        "flagTargetInZone": "11"
      },
      "555": {
        "name": "Annihilation",
        "priority": 1,
        "castCondition": {
          "pose": [2]
        },
        "publicCDGroup": "",
        "ignoreGCD": true,
        "triggerGCD": false,
        "triggerCDOnFail": false,
        "HHAGODJIAPE": "",
        "stateIDs": [
          "Annihilation_BS",
          "Annihilation_Jump",
          "Annihilation_JumpEnd",
          "Annihilation_Cast",
          "Annihilation_Loop",
          "Annihilation_AS"
        ],
        "flagTargetReachable": "11",
        "flagSelfOnTemplateCollider": "11",
        "flagSelfInZone": "11",
        "flagTargetInZone": "11"
      },
      "801": {
        "name": "ShieldRecover",
        "castCondition": {
          "pose": [4]
        },
        "publicCDGroup": "",
        "ignoreGCD": true,
        "triggerGCD": false,
        "triggerCDOnFail": false,
        "HHAGODJIAPE": "",
        "stateIDs": ["ShieldRecover"],
        "flagTargetReachable": "11",
        "flagSelfOnTemplateCollider": "11",
        "flagSelfInZone": "11",
        "flagTargetInZone": "11"
      },
      "901": {
        "name": "Shuttle",
        "priority": 3,
        "castCondition": {
          "pose": [1, 2]
        },
        "cd": 20.0,
        "cdUpperRange": 10.0,
        "initialCD": 16.0,
        "publicCDGroup": "",
        "skillGroupCDID": 1,
        "HHAGODJIAPE": "",
        "stateIDs": ["Shuttle"],
        "flagTargetReachable": "11",
        "flagSelfOnTemplateCollider": "01",
        "flagSelfInZone": "10",
        "flagTargetInZone": "11"
      }
    },
    "skillGCD": 1.2999999523162842,
    "birdCirclingTactic": [
      {
        "$type": "NNJKLGNPMNN",
        "enable": true,
        "JMCOBEPDIGM": {
          "ANLAAGAMIKF": 0,
          "JFMIFLNBKMJ": 0.05000000074505806,
          "DHGJDIPNDHH": 1.0,
          "MNPDDAKDHGK": "",
          "GJDMDHIBCME": ""
        }
      }
    ]
  },
  "inputKeys": [
    {
      "keyID": 901,
      "inputKeyCode": 257,
      "abilityName": ""
    },
    {
      "keyID": 301,
      "inputKeyCode": 258,
      "abilityName": ""
    },
    {
      "keyID": 401,
      "inputKeyCode": 259,
      "abilityName": ""
    },
    {
      "keyID": 411,
      "inputKeyCode": 260,
      "abilityName": ""
    },
    {
      "keyID": 601,
      "inputKeyCode": 261,
      "abilityName": ""
    },
    {
      "keyID": 701,
      "inputKeyCode": 262,
      "abilityName": ""
    },
    {
      "keyID": 801,
      "inputKeyCode": 263,
      "abilityName": ""
    },
    {
      "keyID": 311,
      "inputKeyCode": 264,
      "abilityName": ""
    },
    {
      "keyID": 555,
      "inputKeyCode": 265,
      "abilityName": ""
    },
    {
      "keyID": 201,
      "inputKeyCode": 266,
      "abilityName": ""
    },
    {
      "inputKeyCode": 267,
      "abilityName": "FauneAbyssale_SeaHorse_Primo_BossEvent_PearlStateManager"
    }
  ],
  "move": {
    "$type": "IPNMJMHDMPF",
    "yawSpeedRatio": 1.600000023841858,
    "positionModifyExtra": true,
    "PKHOMJHFAEE": "RootNode"
  },
  "cameraAdjustMap": {
    "default": {
      "$type": "NJCCPGFPIHI",
      "priority": 2.0,
      "enterRadius": 0.05000000074505806,
      "exitRadius": 0.05999999865889549,
      "heightAdjust": 0.5,
      "fov": 45.29999923706055,
      "zoom": 8.5,
      "sphericalY": 5.0,
      "lockSphericalY": false,
      "sphericalYUp": 75.0,
      "sphericalYDown": 85.0,
      "autoTurnStartMin": 150.0,
      "autoTurnStartMax": 150.0,
      "autoTurnEndMin": 180.0,
      "autoTurnEndMax": 180.0,
      "enterShape": "",
      "exitShape": "",
      "enableSafeEnterExit": true,
      "enableHandleResetBackward": true,
      "dieDelayExitTime": 2.5
    },
    "BasicView": {
      "$type": "NJCCPGFPIHI",
      "priority": 2.0,
      "heightAdjust": 0.5,
      "fov": 45.29999923706055,
      "zoom": 8.5,
      "sphericalY": 5.0,
      "lockSphericalY": false,
      "sphericalYUp": 75.0,
      "sphericalYDown": 85.0,
      "autoTurnStartMin": 150.0,
      "autoTurnStartMax": 150.0,
      "autoTurnEndMin": 180.0,
      "autoTurnEndMax": 180.0,
      "enterShape": "CircleLockEnemyR50H30HC",
      "exitShape": "CircleLockEnemyR55H30HC",
      "enableHandleResetBackward": true,
      "dieDelayExitTime": 2.5
    },
    "AnnihilationView": {
      "$type": "NJCCPGFPIHI",
      "priority": 2.0,
      "heightAdjust": 1.5499999523162842,
      "fov": 46.5,
      "zoom": 12.5,
      "sphericalY": -18.0,
      "lockSphericalY": false,
      "sphericalYUp": 80.0,
      "sphericalYDown": 60.0,
      "enterShape": "CircleLockEnemyR50H30HC",
      "exitShape": "CircleLockEnemyR55H30HC",
      "enableSafeEnterExit": true,
      "enableHandleResetBackward": true,
      "blendDuration": 1.2000000476837158
    },
    "ShieldRecoverView": {
      "$type": "NJCCPGFPIHI",
      "priority": 2.0,
      "heightAdjust": 0.5,
      "fov": 40.0,
      "zoom": 6.5,
      "sphericalY": 5.0,
      "lockSphericalY": false,
      "sphericalYUp": 80.0,
      "sphericalYDown": 80.0,
      "autoTurnStartMin": 150.0,
      "autoTurnStartMax": 150.0,
      "autoTurnEndMin": 180.0,
      "autoTurnEndMax": 180.0,
      "enterShape": "CircleLockEnemyR50H30HC",
      "exitShape": "CircleLockEnemyR55H30HC",
      "enableSafeEnterExit": true,
      "enableHandleResetBackward": true,
      "blendDuration": 7.0
    },
    "LeapingStabView": {
      "$type": "NJCCPGFPIHI",
      "priority": 2.0,
      "heightAdjust": 1.25,
      "fov": 50.0,
      "zoom": 11.0,
      "sphericalY": 5.0,
      "lockSphericalY": false,
      "sphericalYUp": 75.0,
      "sphericalYDown": 85.0,
      "autoTurnStartMin": 120.0,
      "autoTurnStartMax": 150.0,
      "autoTurnEndMin": 180.0,
      "autoTurnEndMax": 180.0,
      "enterShape": "CircleLockEnemyR50H30HC",
      "exitShape": "CircleLockEnemyR55H30HC",
      "enableSafeEnterExit": true,
      "enableHandleResetBackward": true,
      "blendDuration": 0.6000000238418579
    },
    "StunFocus": {
      "$type": "NLDOMMCPFHD",
      "priority": 3.0,
      "heightAdjust": 1.0,
      "fov": 44.0,
      "enterShape": "CircleLockEnemyR50H30HC",
      "exitShape": "CircleLockEnemyR55H30HC",
      "enableSafeEnterExit": true,
      "enableHandleResetBackward": true,
      "blendDuration": 0.4000000059604645,
      "lockPoint": "RootNode",
      "forwardMaxAngle": 10.0,
      "forwardMaxAngleExtra": 180.0,
      "forwardAdjustMinSpeed": 360.0,
      "forwardAdjustMaxSpeed": 480.0,
      "enemyWeight": 0.009999999776482582,
      "zoomMin": 8.0,
      "enemyPosTolerateRange": 2.0,
      "enableHandleInput": true,
      "fixDuration": 0.4000000059604645,
      "enableInterruptByInput": true
    }
  }
}
