{
  "common": {
    "effectAttachShape": {
      "$type": "FJNPJANPGGC",
      "mesh": "EffectMesh"
    },
    "mass": 10000.0,
    "height": 2.0,
    "viewSize": 1.5,
    "affectedByWorld": true,
    "checkInSurface": true,
    "useGrassDisplacement": true,
    "clearAnimatorOnSetLightDeactive": true,
    "clearAIOnSetLightDeactive": true,
    "recoverByInitPose": true
  },
  "model": {
    "bornEffect": "",
    "attachEffect": "",
    "canBakeMesh": false,
    "BKPFGNPLDNJ": ""
  },
  "dither": {
    "showDitherDuration": 2.0
  },
  "combat": {
    "property": {
      "endureType": "Monster_Demiboss_Humanoid",
      "weight": 125.0
    },
    "beHit": {
      "hitBloodEffect": ""
    },
    "combatLock": {
      "lockShape": "CircleLockEnemy",
      "lockType": "Avatar&Monster_Lv4"
    },
    "die": {
      "hasAnimatorDie": true,
      "dieEndTime": 2.0,
      "dieForceDisappearTime": 4.5,
      "dieDisappearEffect": "Eff_Death_Common",
      "dieShaderData": "MonsterDie",
      "muteHitBox": true,
      "dieDenyLockOn": true,
      "dieIsGhostToEnemy": true,
      "dieIgnoreTriggerBullet": true,
      "muteBillboard": true,
      "mutePushCollider": true
    },
    "animEvents": {
      "MeleeAttack01Normal": {
        "attackPattern": {
          "$type": "ConfigAttackBox",
          "triggerType": "TriggerNoRepeat",
          "born": {
            "$type": "ConfigBornBySelf",
            "offset": {
              "x": 0.0,
              "y": 1.0,
              "z": 0.0
            }
          },
          "size": {
            "x": 1.7999999523162842,
            "y": 1.7999999523162842,
            "z": 2.299999952316284
          }
        },
        "attackInfo": {
          "attackTag": "",
          "attenuationTag": "",
          "attenuationGroup": "default",
          "attackProperty": {
            "actorGrassSubHurtDelta": 0.699999988079071,
            "actorWindSubHurtDelta": 0.0,
            "elementDurability": 100.0,
            "strikeType": "Blunt",
            "enBreak": 150.0,
            "attackType": "Melee",
            "GLKMCMDJBIK": 0.0
          },
          "hitPattern": {
            "onHitEffectName": "default",
            "hitImpulseY": "",
            "hitImpulseType": "LV4"
          }
        }
      },
      "MeleeAttack01Decay": {
        "attackPattern": {
          "$type": "ConfigAttackBox",
          "triggerType": "TriggerNoRepeat",
          "born": {
            "$type": "ConfigBornBySelf",
            "offset": {
              "x": 0.0,
              "y": 1.0,
              "z": 0.0
            }
          },
          "size": {
            "x": 2.200000047683716,
            "y": 2.200000047683716,
            "z": 2.799999952316284
          }
        },
        "attackInfo": {
          "attackTag": "",
          "attenuationTag": "",
          "attenuationGroup": "default",
          "attackProperty": {
            "actorGrassSubHurtDelta": 0.8500000238418579,
            "actorWindSubHurtDelta": 0.0,
            "elementDurability": 100.0,
            "strikeType": "Blunt",
            "enBreak": 150.0,
            "attackType": "Melee",
            "GLKMCMDJBIK": 0.0
          },
          "hitPattern": {
            "onHitEffectName": "default",
            "hitImpulseY": "",
            "hitImpulseType": "LV5"
          }
        }
      }
    }
  },
  "abilities": [
    {
      "abilityID": "",
      "abilityName": "Monster_Fungus_Amanita_FungusStateManager",
      "abilityOverride": ""
    },
    {
      "abilityID": "",
      "abilityName": "Monster_Fungus_Alert",
      "abilityOverride": ""
    },
    {
      "abilityID": "",
      "abilityName": "Monster_Fungus_Amanita_Du_Anudatta_Water_Steer",
      "abilityOverride": ""
    },
    {
      "abilityID": "",
      "abilityName": "Monster_Fungus_Amanita_Du_Anudatta_Water_ShootNormal",
      "abilityOverride": ""
    },
    {
      "abilityID": "",
      "abilityName": "Monster_Fungus_Amanita_Du_Anudatta_Water_ShootDecay",
      "abilityOverride": ""
    },
    {
      "abilityID": "",
      "abilityName": "Monster_Fungus_Amanita_Du_Anudatta_Water_HeavyShootNormal",
      "abilityOverride": ""
    },
    {
      "abilityID": "",
      "abilityName": "Monster_Fungus_Amanita_Du_Anudatta_Water_HeavyShootDecay",
      "abilityOverride": ""
    },
    {
      "abilityID": "",
      "abilityName": "Monster_Fungus_Amanita_Du_Anudatta_Water_StepShootHandler",
      "abilityOverride": ""
    }
  ],
  "stateLayers": {
    "defaultLayer": {
      "$type": "GBGJJIIEMBD",
      "layerIndexName": "",
      "CPAANEIJCGD": "",
      "stateIDs": {
        "NormalIdle": {
          "$type": "NEDIFAKEGCO",
          "animatorStates": {
            "Standby": [],
            "StandbyFree": []
          },
          "canDoSkill": true,
          "canSyncMove": true,
          "resetAnimatorTriggerOnEnter": ["StepShootTrigger"],
          "resetAnimatorTriggerOnExit": ["DoSkill"],
          "canSteer": true
        },
        "NormalMove": {
          "$type": "NEDIFAKEGCO",
          "animatorStates": {
            "WalkForward_BS": ["Audio_Monster_Fungus_Amanita_Du_WalkBack"],
            "WalkForward": ["Audio_Monster_Fungus_Amanita_Du_WalkBack"],
            "WalkBack_BS": ["Audio_Monster_Fungus_Amanita_Du_WalkBack"],
            "WalkBack": ["Audio_Monster_Fungus_Amanita_Du_WalkBack"],
            "WalkFree": ["Audio_Monster_Fungus_Amanita_Du_Walk"],
            "Run_BS": [],
            "Run": ["Audio_Monster_Fungus_Amanita_Du_Run"]
          },
          "canDoSkill": true,
          "canSyncMove": true,
          "resetAnimatorTriggerOnEnter": ["StepShootTrigger"],
          "resetAnimatorTriggerOnExit": ["DoSkill"],
          "canSteer": true
        },
        "Step": {
          "$type": "NEDIFAKEGCO",
          "animatorStates": {
            "WalkLeft": [
              "Monster_Fungus_Amanita_Du_SideStep",
              "Audio_Monster_Fungus_Amanita_Du_WalkLR"
            ],
            "WalkRight": [
              "Monster_Fungus_Amanita_Du_SideStep",
              "Audio_Monster_Fungus_Amanita_Du_WalkLR"
            ]
          },
          "canSyncMove": true,
          "resetAnimatorTriggerOnEnter": ["StepShootTrigger"],
          "resetAnimatorTriggerOnExit": ["DoSkill"],
          "canSteer": true
        },
        "BeHit": {
          "$type": "NEDIFAKEGCO",
          "animatorStates": {
            "Hit_H": ["Audio_Monster_Fungus_Amanita_Hit_H"],
            "Hit_L": []
          },
          "canSyncMove": true,
          "resetAnimatorTriggerOnEnter": ["BeHit"],
          "resetAnimatorTriggerOnExit": ["DoSkill"],
          "airMoveFollowAnimation": true
        },
        "BeHitThrow": {
          "$type": "NEDIFAKEGCO",
          "animatorStates": {
            "HitThrow": [],
            "HitThrowDrop": [],
            "HitThrowToGround": [
              "Audio_Monster_Fungus_Amanita_Du_hitThrowToGround"
            ]
          },
          "resetAnimatorTriggerOnEnter": ["BeHit", "HitAir2HitDrop"],
          "resetAnimatorTriggerOnExit": ["DoSkill"],
          "remoteForceCloseAirMove": true
        },
        "Struggle": {
          "$type": "NEDIFAKEGCO",
          "animatorStates": {
            "Struggle": []
          },
          "resetAnimatorTriggerOnEnter": ["BeHit", "HitAir2HitDrop"],
          "resetAnimatorTriggerOnExit": ["DoSkill"]
        },
        "Die": {
          "$type": "NEDIFAKEGCO",
          "animatorStates": {
            "Die": [
              "Monster_Fungus_Amanita_Du_Die",
              "Audio_Monster_Fungus_Amanita_Du_Die"
            ],
            "AirDie": ["Monster_Fungus_Amanita_Du_Die"]
          }
        },
        "Born": {
          "$type": "NEDIFAKEGCO",
          "animatorStates": {
            "Born": []
          },
          "resetAnimatorTriggerOnExit": ["DoSkill"]
        },
        "Warning": {
          "$type": "NEDIFAKEGCO",
          "animatorStates": {
            "Warning": [
              "Monster_Fungus_Amanita_Du_Alert",
              "Audio_Monster_Fungus_Amanita_Du_Anudatta_Water_Warning"
            ]
          },
          "resetAnimatorTriggerOnExit": ["BeHit", "DoSkill"],
          "canSteer": true
        },
        "MeleeAttackNormal_BS": {
          "$type": "NEDIFAKEGCO",
          "animatorStates": {
            "MeleeAttack01Normal_BS": [
              "Audio_Monster_Fungus_Amanita_Du_Anudatta_Water_MeleeAttack01_BS"
            ]
          },
          "resetAnimatorTriggerOnExit": ["BeHit", "DoSkill"],
          "canSteer": true
        },
        "MeleeAttackOverdose_BS": {
          "$type": "NEDIFAKEGCO",
          "animatorStates": {
            "MeleeAttack01Overdose_BS": [
              "Audio_Monster_Fungus_Amanita_Du_Anudatta_Water_MeleeAttack01_BS"
            ]
          },
          "resetAnimatorTriggerOnExit": ["BeHit", "DoSkill"],
          "canSteer": true
        },
        "MeleeAttackDecay_BS": {
          "$type": "NEDIFAKEGCO",
          "animatorStates": {
            "MeleeAttack01Decay_BS": [
              "Audio_Monster_Fungus_Amanita_Du_Anudatta_Water_MeleeAttack01_BS"
            ]
          },
          "resetAnimatorTriggerOnExit": ["BeHit", "DoSkill"],
          "canSteer": true
        },
        "MeleeAttack_Attack": {
          "$type": "NEDIFAKEGCO",
          "animatorStates": {
            "MeleeAttack01Normal_Attack": [
              "Monster_Fungus_Amanita_Du_Anudatta_Water_MeleeAttack01Normal_Attack",
              "Audio_Monster_Fungus_Amanita_Du_Anudatta_Water_MeleeAttack01_Attack"
            ],
            "MeleeAttack01Overdose_Attack": [
              "Monster_Fungus_Amanita_Du_Anudatta_Water_MeleeAttack01Normal_Attack",
              "Audio_Monster_Fungus_Amanita_Du_Anudatta_Water_MeleeAttack01_Attack"
            ],
            "MeleeAttack01Decay_Attack": [
              "Monster_Fungus_Amanita_Du_Anudatta_Water_MeleeAttack01Decay_Attack",
              "Audio_Monster_Fungus_Amanita_Du_Anudatta_Water_MeleeAttack01Decay_Attack"
            ]
          },
          "resetAnimatorTriggerOnExit": ["BeHit", "DoSkill"],
          "canSteer": true
        },
        "MeleeAttack_AS": {
          "$type": "NEDIFAKEGCO",
          "animatorStates": {
            "MeleeAttack01Normal_AS": [
              "Audio_Monster_Fungus_Amanita_Du_Anudatta_Water_MeleeAttack01_AS"
            ],
            "MeleeAttack01Overdose_AS": [
              "Audio_Monster_Fungus_Amanita_Du_Anudatta_Water_MeleeAttack01_AS"
            ],
            "MeleeAttack01Decay_AS": [
              "Audio_Monster_Fungus_Amanita_Du_Anudatta_Water_MeleeAttack01_AS"
            ]
          },
          "resetAnimatorTriggerOnExit": ["BeHit", "DoSkill"],
          "canSteer": true
        },
        "ShootNormal_BS": {
          "$type": "NEDIFAKEGCO",
          "animatorStates": {
            "ShootNormal_BS": [
              "Audio_Monster_Fungus_Amanita_Du_Anudatta_Water_Shoot_BS"
            ]
          },
          "resetAnimatorTriggerOnExit": ["BeHit", "DoSkill"],
          "canSteer": true
        },
        "ShootOverdose_BS": {
          "$type": "NEDIFAKEGCO",
          "animatorStates": {
            "ShootOverdose_BS": [
              "Audio_Monster_Fungus_Amanita_Du_Anudatta_Water_Shoot_BS"
            ]
          },
          "resetAnimatorTriggerOnExit": ["BeHit", "DoSkill"],
          "canSteer": true
        },
        "ShootDecay_BS": {
          "$type": "NEDIFAKEGCO",
          "animatorStates": {
            "ShootDecay_BS": [
              "Audio_Monster_Fungus_Amanita_Du_Anudatta_Water_Shoot_BS"
            ]
          },
          "resetAnimatorTriggerOnExit": ["BeHit", "DoSkill"],
          "canSteer": true
        },
        "Shoot_Attack": {
          "$type": "NEDIFAKEGCO",
          "animatorStates": {
            "ShootNormal_Attack": [
              "Monster_Fungus_Amanita_Du_Anudatta_Water_ShootNormal_Attack",
              "Audio_Monster_Fungus_Amanita_Du_Anudatta_Water_Shoot_Attack"
            ],
            "ShootOverdose_Attack01": [
              "Monster_Fungus_Amanita_Du_Anudatta_Water_ShootNormal_Attack",
              "Audio_Monster_Fungus_Amanita_Du_Anudatta_Water_Shoot_Attack"
            ],
            "ShootOverdose_Attack02": [
              "Monster_Fungus_Amanita_Du_Anudatta_Water_ShootNormal_Attack",
              "Audio_Monster_Fungus_Amanita_Du_Anudatta_Water_Shoot_Attack"
            ],
            "ShootOverdose_Attack03": [
              "Monster_Fungus_Amanita_Du_Anudatta_Water_ShootNormal_Attack",
              "Audio_Monster_Fungus_Amanita_Du_Anudatta_Water_Shoot_Attack"
            ],
            "ShootDecay_Attack": [
              "Monster_Fungus_Amanita_Du_Anudatta_Water_ShootDecay_Attack",
              "Audio_Monster_Fungus_Amanita_Du_Anudatta_Water_Shoot_Attack"
            ]
          },
          "resetAnimatorTriggerOnExit": ["BeHit", "DoSkill"],
          "canSteer": true
        },
        "Shoot_AS": {
          "$type": "NEDIFAKEGCO",
          "animatorStates": {
            "ShootNormal_AS": [
              "Audio_Monster_Fungus_Amanita_Du_Anudatta_Water_Shoot_AS"
            ],
            "ShootOverdose_AS": [
              "Audio_Monster_Fungus_Amanita_Du_Anudatta_Water_Shoot_AS"
            ],
            "ShootDecay_AS": [
              "Audio_Monster_Fungus_Amanita_Du_Anudatta_Water_Shoot_AS"
            ]
          },
          "resetAnimatorTriggerOnExit": ["BeHit", "DoSkill"],
          "canSteer": true
        },
        "HeavyShootNormal_BS": {
          "$type": "NEDIFAKEGCO",
          "animatorStates": {
            "HeavyShootNormal_BS": [
              "Monster_Fungus_Amanita_Du_Anudatta_Water_HeavyShootNormal_BS",
              "Audio_Monster_Fungus_Amanita_Du_Anudatta_Water_HeavyShoot_BS"
            ]
          },
          "resetAnimatorTriggerOnExit": ["BeHit", "DoSkill"],
          "canSteer": true
        },
        "HeavyShootOverdose_BS": {
          "$type": "NEDIFAKEGCO",
          "animatorStates": {
            "HeavyShootOverdose_BS": [
              "Monster_Fungus_Amanita_Du_Anudatta_Water_HeavyShootNormal_BS",
              "Audio_Monster_Fungus_Amanita_Du_Anudatta_Water_HeavyShoot_BS"
            ]
          },
          "resetAnimatorTriggerOnExit": ["BeHit", "DoSkill"],
          "canSteer": true
        },
        "HeavyShootDecay_BS": {
          "$type": "NEDIFAKEGCO",
          "animatorStates": {
            "HeavyShootDecay_BS": [
              "Monster_Fungus_Amanita_Du_Anudatta_Water_HeavyShootDecay_BS",
              "Audio_Monster_Fungus_Amanita_Du_Anudatta_Water_HeavyShoot_BS"
            ]
          },
          "resetAnimatorTriggerOnExit": ["BeHit", "DoSkill"],
          "canSteer": true
        },
        "HeavyShoot_Attack": {
          "$type": "NEDIFAKEGCO",
          "animatorStates": {
            "HeavyShootNormal_Attack": [
              "Monster_Fungus_Amanita_Du_Anudatta_Water_HeavyShootNormal_Attack",
              "Audio_Monster_Fungus_Amanita_Du_Anudatta_Water_HeavyShoot_Attack"
            ],
            "HeavyShootOverdose_Attack": [
              "Monster_Fungus_Amanita_Du_Anudatta_Water_HeavyShootNormal_Attack",
              "Audio_Monster_Fungus_Amanita_Du_Anudatta_Water_HeavyShoot_Attack"
            ],
            "HeavyShootDecay_Attack": [
              "Monster_Fungus_Amanita_Du_Anudatta_Water_HeavyShootDecay_Attack",
              "Audio_Monster_Fungus_Amanita_Du_Anudatta_Water_HeavyShoot_Attack"
            ]
          },
          "resetAnimatorTriggerOnExit": ["BeHit", "DoSkill"]
        },
        "HeavyShoot_AS": {
          "$type": "NEDIFAKEGCO",
          "animatorStates": {
            "HeavyShootNormal_AS": [
              "Audio_Monster_Fungus_Amanita_Du_Anudatta_Water_HeavyShoot_AS"
            ],
            "HeavyShootOverdose_AS": [
              "Audio_Monster_Fungus_Amanita_Du_Anudatta_Water_HeavyShoot_AS"
            ],
            "HeavyShootDecay_AS": [
              "Audio_Monster_Fungus_Amanita_Du_Anudatta_Water_HeavyShoot_AS"
            ]
          },
          "resetAnimatorTriggerOnExit": ["BeHit", "DoSkill"],
          "canSteer": true
        },
        "Taunt": {
          "$type": "NEDIFAKEGCO",
          "animatorStates": {
            "Taunt01": [
              "Monster_Fungus_Amanita_Du_Taunt",
              "Audio_Monster_Fungus_Amanita_Du_Taunt01"
            ]
          },
          "resetAnimatorTriggerOnExit": ["BeHit", "DoSkill"],
          "canSteer": true
        },
        "StepShoot_BS": {
          "$type": "NEDIFAKEGCO",
          "animatorStates": {
            "LeftStep_Shoot_BS": [
              "Audio_Monster_Fungus_Amanita_Du_Anudatta_Water_StepShoot_BS"
            ],
            "RightStep_Shoot_BS": [
              "Audio_Monster_Fungus_Amanita_Du_Anudatta_Water_StepShoot_BS"
            ]
          },
          "resetAnimatorTriggerOnExit": ["BeHit", "DoSkill"],
          "canSteer": true
        },
        "StepShoot": {
          "$type": "NEDIFAKEGCO",
          "animatorStates": {
            "LeftStep_Shoot_Attack": [
              "Monster_Fungus_Amanita_Du_Anudatta_Water_LeftStep_Shoot_Attack",
              "Audio_Monster_Fungus_Amanita_Du_Anudatta_Water_StepShoot_Attack"
            ],
            "LeftStep_Shoot_AS": [],
            "RightStep_Shoot_Attack": [
              "Monster_Fungus_Amanita_Du_Anudatta_Water_RightStep_Shoot_Attack",
              "Audio_Monster_Fungus_Amanita_Du_Anudatta_Water_StepShoot_Attack"
            ],
            "RightStep_Shoot_AS": []
          },
          "resetAnimatorTriggerOnExit": ["BeHit", "DoSkill"],
          "canSteer": true
        },
        "Dance": {
          "$type": "NEDIFAKEGCO",
          "animatorStates": {
            "Dance": [
              "Monster_Fungus_Amanita_Du_Dance",
              "Audio_Monster_Fungus_Amanita_Du_Dance"
            ]
          },
          "canDoSkill": true,
          "resetAnimatorTriggerOnExit": ["BeHit", "DoSkill"],
          "canSteer": true
        },
        "Tease": {
          "$type": "NEDIFAKEGCO",
          "animatorStates": {
            "Tease": [
              "Monster_Fungus_Amanita_Du_Tease",
              "Audio_Monster_Fungus_Amanita_Du_Tease"
            ]
          },
          "canDoSkill": true,
          "resetAnimatorTriggerOnExit": ["BeHit", "DoSkill"],
          "canSteer": true
        },
        "Absorb": {
          "$type": "NEDIFAKEGCO",
          "animatorStates": {
            "Absorb": [
              "Monster_Fungus_Amanita_Du_Absorb",
              "Audio_Monster_Fungus_Amanita_Du_Absorb"
            ]
          },
          "canDoSkill": true,
          "resetAnimatorTriggerOnExit": ["BeHit", "DoSkill"],
          "canSteer": true
        },
        "TestMove": {
          "$type": "NEDIFAKEGCO",
          "animatorStates": {
            "TestMoveForward": [],
            "TestMoveBack": [],
            "TestLeftStep": [],
            "TestRightStep": [],
            "TestRun": [],
            "TestLeftStepToShoot": [],
            "TestRightStepToShoot": []
          },
          "cullingModelAlwaysAnimate": true,
          "resetAnimatorTriggerOnEnter": ["DoSkill"],
          "resetAnimatorTriggerOnExit": ["BeHit", "DoSkill"]
        }
      }
    }
  },
  "billboard": {
    "$type": "DNGNMAJBCNP",
    "attachPoint": "BillboardAttach",
    "offset": {
      "y": 0.5
    },
    "radiusOffset": 1.0,
    "enableSelfAdapt": true,
    "showHPBar": true,
    "size": "Big"
  },
  "initialPoses": {
    "Default": {
      "initialPoseID": 101
    },
    "Dance": {
      "initialPoseID": 102,
      "initialPoseParams": {
        "boolParams": {
          "Dance": "true"
        }
      }
    },
    "Tease": {
      "initialPoseID": 103,
      "initialPoseParams": {
        "boolParams": {
          "Tease": "true"
        }
      }
    },
    "Absorb": {
      "initialPoseID": 104,
      "initialPoseParams": {
        "boolParams": {
          "Absorb": "true"
        }
      }
    }
  },
  "aibeta": {
    "enable": true,
    "moveSetting": {
      "navMeshAgentName": "Undead01"
    },
    "sensing": {
      "settings": {
        "DefaultSetting": {
          "viewRange": 22.0,
          "feelRange": 8.75
        },
        "NoSensing": {
          "enableVision": false,
          "hearAttractionRange": 0.0,
          "feelRange": 0.0
        }
      },
      "templates": {
        "DefaultTemplate": {
          "DefaultPoses": "DefaultSetting"
        },
        "NoSensing": {
          "DefaultPoses": "NoSensing"
        }
      }
    },
    "threat": {
      "GHIJMOKOLMB": "",
      "clearThreatTargetDistance": 30.0,
      "clearThreatEdgeDistance": 5.0,
      "clearThreatTimerByDistance": 2.0,
      "viewAttenuation": [
        {
          "x": 12.0,
          "y": 1.0
        },
        {
          "x": 20.0,
          "y": 0.5
        }
      ]
    },
    "defendArea": {
      "defendRange": 50.0
    },
    "skills": {
      "100": {
        "name": "OnAlert",
        "skillType": "OnAlert",
        "faceTarget": true,
        "publicCDGroup": "",
        "triggerGCD": false,
        "HHAGODJIAPE": "",
        "stateIDs": ["Warning"],
        "skillQueryingTime": 3.0,
        "flagTargetReachable": "10",
        "flagSelfOnTemplateCollider": "01",
        "flagSelfInZone": "10",
        "flagTargetInZone": "11"
      },
      "102": {
        "name": "Dance",
        "skillType": "Free",
        "castCondition": {
          "pose": [102]
        },
        "cd": 10.0,
        "cdUpperRange": 10.0,
        "initialCD": 5.0,
        "initialCDUpperRange": 10.0,
        "publicCDGroup": "",
        "triggerGCD": false,
        "HHAGODJIAPE": "",
        "stateIDs": ["Dance"],
        "skillQueryingTime": 3.0,
        "flagTargetReachable": "10",
        "flagSelfOnTemplateCollider": "01",
        "flagSelfInZone": "10",
        "flagTargetInZone": "11"
      },
      "103": {
        "name": "Tease",
        "skillType": "Free",
        "castCondition": {
          "pose": [103]
        },
        "cd": 10.0,
        "cdUpperRange": 10.0,
        "initialCD": 5.0,
        "initialCDUpperRange": 10.0,
        "publicCDGroup": "",
        "triggerGCD": false,
        "HHAGODJIAPE": "",
        "stateIDs": ["Tease"],
        "skillQueryingTime": 3.0,
        "flagTargetReachable": "10",
        "flagSelfOnTemplateCollider": "01",
        "flagSelfInZone": "10",
        "flagTargetInZone": "11"
      },
      "104": {
        "name": "Absorb",
        "skillType": "Free",
        "castCondition": {
          "pose": [104]
        },
        "cd": 10.0,
        "cdUpperRange": 10.0,
        "initialCD": 5.0,
        "initialCDUpperRange": 10.0,
        "publicCDGroup": "",
        "triggerGCD": false,
        "HHAGODJIAPE": "",
        "stateIDs": ["Absorb"],
        "skillQueryingTime": 3.0,
        "flagTargetReachable": "10",
        "flagSelfOnTemplateCollider": "01",
        "flagSelfInZone": "10",
        "flagTargetInZone": "11"
      },
      "301": {
        "name": "MeleeAttackNormal",
        "castCondition": {
          "pose": [301],
          "pickRangeMax": 4.0
        },
        "cd": 5.0,
        "initialCD": 5.0,
        "publicCDGroup": "",
        "HHAGODJIAPE": "",
        "stateIDs": ["MeleeAttack_AS", "MeleeAttackNormal_BS"],
        "flagTargetReachable": "11",
        "flagSelfOnTemplateCollider": "01",
        "flagSelfInZone": "11",
        "flagTargetInZone": "11"
      },
      "311": {
        "name": "MeleeAttackOverdose",
        "castCondition": {
          "pose": [311],
          "pickRangeMax": 4.0
        },
        "cd": 5.0,
        "initialCD": 5.0,
        "publicCDGroup": "",
        "HHAGODJIAPE": "",
        "stateIDs": ["MeleeAttack_AS", "MeleeAttackOverdose_BS"],
        "flagTargetReachable": "11",
        "flagSelfOnTemplateCollider": "01",
        "flagSelfInZone": "11",
        "flagTargetInZone": "11"
      },
      "321": {
        "name": "MeleeAttackDecay",
        "castCondition": {
          "pose": [321],
          "pickRangeMax": 4.0
        },
        "cd": 5.0,
        "publicCDGroup": "",
        "HHAGODJIAPE": "",
        "stateIDs": ["MeleeAttack_AS", "MeleeAttackDecay_BS"],
        "flagTargetReachable": "11",
        "flagSelfOnTemplateCollider": "01",
        "flagSelfInZone": "11",
        "flagTargetInZone": "11"
      },
      "501": {
        "name": "ShootNormal",
        "combatSkillType": "RangedAttack",
        "castCondition": {
          "pose": [301],
          "needReInitCD": true,
          "pickRangeMax": 10.0
        },
        "cd": 2.0,
        "cdUpperRange": 5.0,
        "initialCD": 2.0,
        "initialCDUpperRange": 5.0,
        "publicCDGroup": "Fungus_RangedAttack",
        "HHAGODJIAPE": "",
        "stateIDs": ["Shoot", "ShootNormal_BS"],
        "flagTargetReachable": "11",
        "flagSelfOnTemplateCollider": "01",
        "flagSelfInZone": "11",
        "flagTargetInZone": "11"
      },
      "511": {
        "name": "ShootOverdose",
        "combatSkillType": "RangedAttack",
        "castCondition": {
          "pose": [311],
          "needReInitCD": true,
          "pickRangeMax": 10.0
        },
        "cd": 2.0,
        "cdUpperRange": 5.0,
        "initialCD": 2.0,
        "initialCDUpperRange": 5.0,
        "publicCDGroup": "Fungus_RangedAttack",
        "HHAGODJIAPE": "",
        "stateIDs": ["Shoot", "ShootOverdose_BS"],
        "flagTargetReachable": "11",
        "flagSelfOnTemplateCollider": "01",
        "flagSelfInZone": "11",
        "flagTargetInZone": "11"
      },
      "521": {
        "name": "ShootDecay",
        "combatSkillType": "RangedAttack",
        "castCondition": {
          "pose": [321],
          "needReInitCD": true,
          "pickRangeMax": 10.0
        },
        "cd": 1.0,
        "cdUpperRange": 2.0,
        "initialCD": 1.0,
        "initialCDUpperRange": 1.0,
        "publicCDGroup": "Fungus_RangedAttack",
        "HHAGODJIAPE": "",
        "stateIDs": ["Shoot", "ShootDecay_BS"],
        "flagTargetReachable": "11",
        "flagSelfOnTemplateCollider": "01",
        "flagSelfInZone": "11",
        "flagTargetInZone": "11"
      },
      "502": {
        "name": "HeavyShootNormal",
        "combatSkillType": "RangedAttack",
        "castCondition": {
          "pose": [301],
          "needReInitCD": true,
          "pickRangeMin": 6.0,
          "pickRangeMax": 20.0
        },
        "cd": 10.0,
        "cdUpperRange": 5.0,
        "initialCD": 10.0,
        "initialCDUpperRange": 5.0,
        "publicCDGroup": "Fungus_RangedAttack",
        "HHAGODJIAPE": "",
        "stateIDs": ["HeavyShoot", "HeavyShootNormal_BS"],
        "flagTargetReachable": "11",
        "flagSelfOnTemplateCollider": "01",
        "flagSelfInZone": "11",
        "flagTargetInZone": "11"
      },
      "512": {
        "name": "HeavyShootOverdose",
        "combatSkillType": "RangedAttack",
        "castCondition": {
          "pose": [311],
          "needReInitCD": true,
          "pickRangeMin": 6.0,
          "pickRangeMax": 20.0
        },
        "cd": 10.0,
        "cdUpperRange": 5.0,
        "initialCD": 10.0,
        "initialCDUpperRange": 5.0,
        "publicCDGroup": "Fungus_RangedAttack",
        "HHAGODJIAPE": "",
        "stateIDs": ["HeavyShoot", "HeavyShootOverdose_BS"],
        "flagTargetReachable": "11",
        "flagSelfOnTemplateCollider": "01",
        "flagSelfInZone": "11",
        "flagTargetInZone": "11"
      },
      "522": {
        "name": "HeavyShootDecay",
        "combatSkillType": "RangedAttack",
        "castCondition": {
          "pose": [321],
          "needReInitCD": true,
          "pickRangeMax": 20.0
        },
        "cd": 2.0,
        "cdUpperRange": 5.0,
        "initialCD": 2.0,
        "initialCDUpperRange": 5.0,
        "publicCDGroup": "Fungus_RangedAttack",
        "HHAGODJIAPE": "",
        "stateIDs": ["HeavyShoot", "HeavyShootDecay_BS"],
        "flagTargetReachable": "11",
        "flagSelfOnTemplateCollider": "01",
        "flagSelfInZone": "11",
        "flagTargetInZone": "11"
      },
      "509": {
        "name": "Taunt01",
        "castCondition": {
          "pose": [301, 311],
          "needReInitCD": true,
          "pickRangeMin": 6.0,
          "pickRangeMax": 20.0
        },
        "cd": 8.0,
        "cdUpperRange": 24.0,
        "initialCD": 5.5,
        "initialCDUpperRange": 12.0,
        "publicCDGroup": "",
        "triggerGCD": false,
        "HHAGODJIAPE": "",
        "stateIDs": ["Taunt"],
        "flagTargetReachable": "11",
        "flagSelfOnTemplateCollider": "01",
        "flagSelfInZone": "11",
        "flagTargetInZone": "11"
      }
    },
    "skillGCD": 5.0,
    "birdCirclingTactic": [
      {
        "$type": "EPHBMLFODKF",
        "enable": true,
        "condition": {
          "pose": [301, 311]
        },
        "JMCOBEPDIGM": {
          "rangeMin": 6.5,
          "rangeMax": 18.0,
          "JOJBOHEDBHC": 0.0,
          "AFILKAGDAHN": 1.0,
          "BFJBDDIIFOI": {
            "LLICGJHIGME": 0.0,
            "IDEFILBHNAP": 0.10000000149011612,
            "IBLIPJPNOGC": 0.20000000298023224
          },
          "NAOBMNGDKHL": "1111",
          "JCNIJOAIGII": "1111",
          "MNPDDAKDHGK": ""
        }
      },
      {
        "$type": "KACCHOLJDNK",
        "enable": true,
        "condition": {
          "pose": [301, 311, 321]
        },
        "JMCOBEPDIGM": {
          "KHDFDAAAPEI": 10.0,
          "HKJODDGJPHA": 50.0,
          "GGEBMFHFBPO": 10.0,
          "KFFGCIMPNMJ": 17.0,
          "MNPDDAKDHGK": ""
        }
      },
      {
        "$type": "NNJKLGNPMNN",
        "enable": true,
        "JMCOBEPDIGM": {
          "MNPDDAKDHGK": "",
          "GJDMDHIBCME": ""
        }
      },
      {
        "$type": "FPELBIJFGCE",
        "enable": true,
        "condition": {
          "pose": [101]
        },
        "JMCOBEPDIGM": {
          "KPNDPKIOPJM": 3.0,
          "PINAFKEDDLL": 1.5,
          "ANMPOPEBDIA": 15.0,
          "GMJFIMFFOEL": 3.75,
          "CHCPFDMADEI": 7.5,
          "MNPDDAKDHGK": ""
        }
      }
    ]
  },
  "inputKeys": [
    {
      "keyID": 301,
      "inputKeyCode": 257,
      "abilityName": ""
    },
    {
      "keyID": 501,
      "inputKeyCode": 258,
      "abilityName": ""
    },
    {
      "keyID": 502,
      "inputKeyCode": 259,
      "abilityName": ""
    },
    {
      "keyID": 100,
      "inputKeyCode": 260,
      "abilityName": ""
    },
    {
      "keyID": 511,
      "inputKeyCode": 261,
      "abilityName": ""
    },
    {
      "keyID": 512,
      "inputKeyCode": 262,
      "abilityName": ""
    },
    {
      "keyID": 321,
      "inputKeyCode": 263,
      "abilityName": ""
    },
    {
      "keyID": 521,
      "inputKeyCode": 264,
      "abilityName": ""
    },
    {
      "keyID": 522,
      "inputKeyCode": 265,
      "abilityName": ""
    },
    {
      "keyID": 9997,
      "inputKeyCode": 266,
      "abilityName": ""
    },
    {
      "keyID": 9998,
      "inputKeyCode": 267,
      "abilityName": ""
    },
    {
      "keyID": 9999,
      "inputKeyCode": 268,
      "abilityName": ""
    },
    {
      "keyID": 904,
      "inputKeyCode": 269,
      "abilityName": ""
    },
    {
      "keyID": 905,
      "inputKeyCode": 270,
      "abilityName": ""
    },
    {
      "keyID": 906,
      "inputKeyCode": 271,
      "abilityName": ""
    },
    {
      "keyID": 907,
      "inputKeyCode": 272,
      "abilityName": ""
    },
    {
      "keyID": 509,
      "inputKeyCode": 273,
      "abilityName": ""
    },
    {
      "keyID": 104,
      "inputKeyCode": 274,
      "abilityName": ""
    }
  ],
  "move": {
    "$type": "IPNMJMHDMPF",
    "facingMove": "FourDirection",
    "PKHOMJHFAEE": "RootNode"
  },
  "audio": {
    "overrideEmitterName": "",
    "animAudio": {
      "onTransitionIn": [
        {
          "currentStateName": "",
          "audioEvent": {
            "text": ""
          }
        }
      ],
      "onTransitionOut": [
        {
          "currentStateName": "Absorb",
          "audioEvent": {
            "text": "Stop_sfx_monster_Fungus_Amanita_Du_Anudatta_Water_absorb"
          }
        },
        {
          "currentStateName": "Tease",
          "audioEvent": {
            "text": "Stop_sfx_monster_Fungus_Amanita_Du_Anudatta_Water_tease"
          }
        }
      ]
    }
  }
}
