{
  "common": {
    "effectAttachShape": {
      "$type": "FJNPJANPGGC",
      "mesh": "EffectMesh"
    },
    "mass": 20.0,
    "height": 0.800000011920929,
    "affectedByWorld": true,
    "checkInSurface": true,
    "canTriggerElementReactionText": false,
    "clearAnimatorOnSetLightDeactive": true,
    "clearAIOnSetLightDeactive": true,
    "recoverByInitPose": true
  },
  "model": {
    "bornEffect": "",
    "attachEffect": "",
    "canBakeMesh": false,
    "BKPFGNPLDNJ": ""
  },
  "combat": {
    "property": {
      "endureType": "Monster_Minion",
      "weight": 30.0,
      "isInvincible": true
    },
    "beHit": {
      "hitBloodEffect": "",
      "muteAllHitText": true
    },
    "combatLock": {
      "lockShape": "CircleLockEnemy",
      "denyLockOn": true,
      "lockType": "Default"
    },
    "die": {
      "dieEndTime": 0.009999999776482582,
      "dieForceDisappearTime": 10.0,
      "dieDisappearEffect": "Eff_Animal_Common_Die"
    }
  },
  "stateLayers": {
    "defaultLayer": {
      "$type": "GBGJJIIEMBD",
      "layerIndexName": "",
      "CPAANEIJCGD": "",
      "stateIDs": {
        "Born": {
          "$type": "NEDIFAKEGCO",
          "animatorStates": {
            "Born": []
          },
          "resetAnimatorTriggerOnExit": ["DoSkill"]
        },
        "NormalIdle": {
          "$type": "NEDIFAKEGCO",
          "animatorStates": {
            "Standby": []
          },
          "canSyncMove": true,
          "resetAnimatorTriggerOnExit": ["DoSkill"]
        },
        "NormalMove": {
          "$type": "NEDIFAKEGCO",
          "animatorStates": {
            "Walk": ["Animal_Fishable_Maritime_Walk"],
            "Run": ["Animal_Fishable_Maritime_Run"],
            "PoseAdjust": []
          },
          "canSyncMove": true,
          "resetAnimatorTriggerOnExit": ["DoSkill"],
          "canSteer": true
        },
        "Turn": {
          "$type": "NEDIFAKEGCO",
          "animatorStates": {
            "Turn_Walk": ["Animal_Fishable_Maritime_Walk"],
            "Turn_Run": ["Animal_Fishable_Maritime_Turn_Run"]
          },
          "canSyncMove": true,
          "resetAnimatorTriggerOnExit": ["DoSkill"],
          "canSteer": true
        },
        "BeHit": {
          "$type": "NEDIFAKEGCO",
          "animatorStates": {
            "Hit_L": []
          },
          "resetAnimatorTriggerOnEnter": ["BeHit"],
          "resetAnimatorTriggerOnExit": ["DoSkill"]
        },
        "Die": {
          "$type": "NEDIFAKEGCO",
          "animatorStates": {
            "Die": ["Animal_Fish_Die"]
          }
        }
      }
    }
  },
  "initialPoses": {
    "Default": {},
    "InFishTank": {
      "initialPoseID": 201,
      "initialPoseParams": {
        "boolParams": {
          "InFishTank": "true"
        }
      }
    }
  },
  "aibeta": {
    "enable": true,
    "friendliness": 1,
    "decisionArchetype": "Animal_Homeworld",
    "moveSetting": {
      "moveCategory": "Water",
      "useNavMesh": false,
      "navMeshAgentName": "Undead01",
      "length": 2.049999952316284
    },
    "sensing": {
      "settings": {
        "DefaultSetting": {
          "enableVision": false,
          "feelRange": 6.5
        },
        "InFishTank": {
          "enableVision": false,
          "hearAttractionRange": 7.5,
          "feelRange": 0.0
        }
      },
      "templates": {
        "DefaultTemplate": {
          "DefaultPoses": "DefaultSetting",
          "201": "InFishTank"
        }
      }
    },
    "neurons": {
      "DefaultSetting": ["HIT"]
    },
    "threat": {
      "GHIJMOKOLMB": "",
      "clearThreatTargetDistance": 10.0,
      "clearThreatByTargetOutOfZone": true,
      "clearThreatTimerByDistance": 0.800000011920929,
      "clearThreatTimerByTargetOutOfZone": 1.0,
      "viewThreatGrow": 75.0,
      "feelThreatGrow": 1000.0,
      "threatBroadcastRange": 5.0
    },
    "defendArea": {
      "defendRange": 14.0
    },
    "ui": {
      "hasDirectionIndicator": false,
      "HMNNBFDEHLG": ""
    },
    "profiling": {
      "lodStrategy": "MinorAnimal",
      "moveCullingLevel": 3
    },
    "birdCirclingTactic": [
      {
        "$type": "ODHNBPJLGHF",
        "enable": true,
        "nerveTrigger": ["HIT"],
        "JMCOBEPDIGM": {
          "NBENNEKDIIA": 2.0,
          "cd": 1.0,
          "triggerDistance": 1.0,
          "MMGOBGGLBJO": 360.0,
          "EMNPEHPCDLB": 4,
          "CMDFDIPMGKI": 5,
          "KAIGBDPLNMO": 0.5,
          "BMIEPFCPFGN": 2.0,
          "IAGJBJHKMBF": true,
          "MNPDDAKDHGK": ""
        },
        "PIOCBHLFLJP": {
          "201": {
            "NBENNEKDIIA": 1.399999976158142,
            "cd": 0.4000000059604645,
            "triggerDistance": 200.0,
            "MMGOBGGLBJO": 360.0,
            "EMNPEHPCDLB": 7,
            "CMDFDIPMGKI": 8,
            "KAIGBDPLNMO": 0.15000000596046448,
            "BMIEPFCPFGN": 0.20999999344348907,
            "IAGJBJHKMBF": true,
            "BENICHJBDCH": 3.5,
            "MNPDDAKDHGK": ""
          }
        }
      },
      {
        "$type": "LLGJGHDNKGM",
        "enable": true,
        "condition": {
          "pose": [201]
        },
        "JMCOBEPDIGM": {
          "EHHLKOFMEGA": -25.0,
          "HHDBEKAMBGC": 25.0,
          "NBENNEKDIIA": 0.4000000059604645
        }
      },
      {
        "$type": "NNJKLGNPMNN"
      },
      {
        "$type": "FPELBIJFGCE",
        "enable": true,
        "GNBDAEHGLHI": [0, 1, 2],
        "JMCOBEPDIGM": {
          "NBENNEKDIIA": 0.5,
          "ANMPOPEBDIA": 20.0,
          "GMJFIMFFOEL": 3.200000047683716,
          "CHCPFDMADEI": 6.400000095367432,
          "MNPDDAKDHGK": ""
        },
        "PIOCBHLFLJP": {
          "201": {
            "NBENNEKDIIA": 0.4000000059604645,
            "KPNDPKIOPJM": 8.5,
            "PINAFKEDDLL": 4.0,
            "ANMPOPEBDIA": 5.0,
            "GMJFIMFFOEL": 0.36000001430511475,
            "CHCPFDMADEI": 2.0,
            "MNPDDAKDHGK": ""
          }
        }
      }
    ]
  },
  "move": {
    "$type": "IPNMJMHDMPF",
    "moveOnGround": false,
    "moveOnWater": true,
    "moveOnWaterDepth": 0.5,
    "PKHOMJHFAEE": "RootNode"
  },
  "animal": {
    "hasAbility": false,
    "tickAbilityElement": false,
    "hasCharacterRenderering": false
  }
}
