{
  "common": {
    "effectAttachShape": {
      "$type": "FJNPJANPGGC",
      "mesh": "EffectMesh"
    },
    "mass": 500.0,
    "height": 1.75,
    "viewSize": 1.0800000429153442,
    "affectedByWorld": true,
    "checkInSurface": true,
    "scale": 1.25,
    "useGrassDisplacement": true
  },
  "headControl": {
    "$type": "KPIPDEBDPIH",
    "useHeadControl": true,
    "maxYawDegree": 80.0,
    "maxPitchDegree": 30.0,
    "animStates": [
      "NormalIdle/Standby",
      "NormalMove/WalkForward",
      "NormalMove/WalkBack",
      "NormalMove/WalkRight",
      "NormalMove/WalkLeft",
      "NormalMove/Run",
      "Turn/TurnLeft",
      "Turn/TurnRight"
    ]
  },
  "model": {
    "bornEffect": "Eff_Monster_Common_Born",
    "attachEffect": "",
    "BKPFGNPLDNJ": ""
  },
  "dither": {
    "showDitherDuration": 1.0
  },
  "combat": {
    "property": {
      "endureType": "Monster_Grunt_Humanoid",
      "weight": 75.0
    },
    "beHit": {
      "hitBloodEffect": ""
    },
    "combatLock": {
      "lockShape": "CircleLockEnemy",
      "lockType": "Avatar&Monster_Lv4"
    },
    "die": {
      "hasAnimatorDie": true,
      "dieEndTime": 2.5,
      "dieForceDisappearTime": 1.5,
      "dieDisappearEffect": "Eff_Death_Avatar_Common",
      "dieShaderData": "AvatarDie",
      "useRagDoll": true,
      "ragDollDieEndTimeDelay": 1.25,
      "muteHitBox": true,
      "dieDenyLockOn": true,
      "dieIsGhostToEnemy": true,
      "dieIgnoreTriggerBullet": true,
      "muteBillboard": true,
      "mutePushCollider": true
    },
    "animEvents": {
      "Atk01": {
        "attackPattern": {
          "$type": "ConfigAttackBox",
          "triggerType": "TriggerNoRepeat",
          "born": {
            "$type": "ConfigBornBySelf",
            "offset": {
              "x": 0.20000000298023224,
              "y": 1.0,
              "z": 0.5
            }
          },
          "size": {
            "x": 0.5,
            "y": 0.5,
            "z": 4.0
          }
        },
        "attackInfo": {
          "attackTag": "",
          "attenuationTag": "",
          "attenuationGroup": "default",
          "attackProperty": {
            "actorGrassSubHurtDelta": 1.0,
            "actorWindSubHurtDelta": 0.0,
            "elementDurability": 100.0,
            "strikeType": "Pierce",
            "enBreak": 50.0,
            "attackType": "Melee",
            "GLKMCMDJBIK": 0.0
          },
          "hitPattern": {
            "onHitEffectName": "default",
            "hitImpulseY": "",
            "hitImpulseType": "LV4",
            "hitHaltTimeScale": 0.009999999776482582
          }
        }
      },
      "Atk02": {
        "attackPattern": {
          "$type": "ConfigAttackCircle",
          "triggerType": "TriggerNoRepeat",
          "born": {
            "$type": "ConfigBornBySelf",
            "offset": {
              "x": 0.0,
              "y": 0.0,
              "z": 0.5
            },
            "direction": {
              "$type": "ConfigDirectionByDefault",
              "angleOffset": {
                "x": 0.0,
                "y": -30.0,
                "z": 0.0
              }
            }
          },
          "fanAngle": 90.0,
          "radius": 3.0
        },
        "attackInfo": {
          "attackTag": "",
          "attenuationTag": "",
          "attenuationGroup": "default",
          "attackProperty": {
            "actorGrassSubHurtDelta": 1.0,
            "actorWindSubHurtDelta": 0.0,
            "elementDurability": 100.0,
            "strikeType": "Slash",
            "enBreak": 50.0,
            "attackType": "Melee",
            "GLKMCMDJBIK": 0.0
          },
          "hitPattern": {
            "onHitEffectName": "default",
            "hitImpulseY": "",
            "hitImpulseType": "LV4",
            "hitHaltTimeScale": 0.009999999776482582
          }
        }
      },
      "WildSlam01": {
        "attackPattern": {
          "$type": "ConfigAttackBox",
          "triggerType": "TriggerNoRepeat",
          "born": {
            "$type": "ConfigBornBySelf",
            "offset": {
              "x": 0.20000000298023224,
              "y": 1.2999999523162842,
              "z": 0.5
            }
          },
          "size": {
            "x": 0.5,
            "y": 0.8500000238418579,
            "z": 3.5
          }
        },
        "attackInfo": {
          "attackTag": "",
          "attenuationTag": "",
          "attenuationGroup": "default",
          "attackProperty": {
            "actorGrassSubHurtDelta": 1.0,
            "actorWindSubHurtDelta": 0.0,
            "elementDurability": 100.0,
            "strikeType": "Slash",
            "enBreak": 100.0,
            "GLKMCMDJBIK": 0.0
          },
          "hitPattern": {
            "onHitEffectName": "default",
            "hitImpulseY": "",
            "hitImpulseType": "LV4",
            "hitHaltTime": 0.05999999865889549,
            "hitHaltTimeScale": 0.009999999776482582
          }
        }
      },
      "WildSlam02": {
        "attackPattern": {
          "$type": "ConfigAttackBox",
          "triggerType": "TriggerNoRepeat",
          "born": {
            "$type": "ConfigBornBySelf",
            "offset": {
              "x": 0.20000000298023224,
              "y": 1.2999999523162842,
              "z": 0.5
            }
          },
          "size": {
            "x": 0.5,
            "y": 0.8500000238418579,
            "z": 3.5
          }
        },
        "attackInfo": {
          "attackTag": "",
          "attenuationTag": "",
          "attenuationGroup": "default",
          "attackProperty": {
            "actorGrassSubHurtDelta": 1.0,
            "actorWindSubHurtDelta": 0.0,
            "elementDurability": 100.0,
            "strikeType": "Slash",
            "enBreak": 100.0,
            "attackType": "Melee",
            "GLKMCMDJBIK": 0.0
          },
          "hitPattern": {
            "onHitEffectName": "default",
            "hitImpulseY": "",
            "hitImpulseType": "LV4"
          }
        }
      },
      "WildSlam03": {
        "attackPattern": {
          "$type": "ConfigAttackBox",
          "triggerType": "TriggerNoRepeat",
          "born": {
            "$type": "ConfigBornBySelf",
            "offset": {
              "x": 0.20000000298023224,
              "y": 1.2999999523162842,
              "z": 0.5
            }
          },
          "size": {
            "x": 0.5,
            "y": 0.8500000238418579,
            "z": 3.5
          }
        },
        "attackInfo": {
          "attackTag": "",
          "attenuationTag": "",
          "attenuationGroup": "default",
          "attackProperty": {
            "actorGrassSubHurtDelta": 1.0,
            "actorWindSubHurtDelta": 0.0,
            "elementDurability": 100.0,
            "strikeType": "Slash",
            "enBreak": 100.0,
            "attackType": "Melee",
            "GLKMCMDJBIK": 0.0
          },
          "hitPattern": {
            "onHitEffectName": "default",
            "hitImpulseY": "",
            "hitImpulseType": "LV4"
          }
        }
      }
    }
  },
  "equipController": {
    "sheathPoint": "",
    "attachPoints": {
      "equip01": "WeaponR",
      "equip02": "WeaponL"
    }
  },
  "abilities": [
    {
      "abilityID": "SteerAttack",
      "abilityName": "Human_Male_Pole_SteerAttack",
      "abilityOverride": ""
    },
    {
      "abilityID": "SteerMove",
      "abilityName": "Millelith_SteerMove",
      "abilityOverride": ""
    },
    {
      "abilityID": "Attack01_RushMove01",
      "abilityName": "Human_Male_Pole_Attack01_RushMove01",
      "abilityOverride": ""
    },
    {
      "abilityID": "Attack02_RushMove01",
      "abilityName": "Human_Male_Pole_Attack02_RushMove01",
      "abilityOverride": ""
    },
    {
      "abilityID": "WildSlam_RushMove01",
      "abilityName": "Human_Male_Pole_WildSlam_RushMove01",
      "abilityOverride": ""
    },
    {
      "abilityID": "WildSlam_RushMove02",
      "abilityName": "Human_Male_Pole_WildSlam_RushMove02",
      "abilityOverride": ""
    },
    {
      "abilityID": "WildSlam_RushMove03",
      "abilityName": "Human_Male_Pole_WildSlam_RushMove03",
      "abilityOverride": ""
    },
    {
      "abilityID": "Order01",
      "abilityName": "Human_Male_Pole_Order01",
      "abilityOverride": ""
    },
    {
      "abilityID": "Order02",
      "abilityName": "Human_Male_Pole_Order02",
      "abilityOverride": ""
    },
    {
      "abilityID": "Order03",
      "abilityName": "Human_Male_Pole_Order03",
      "abilityOverride": ""
    },
    {
      "abilityID": "PoseDecider",
      "abilityName": "Human_Male_Pole_PoseDecider",
      "abilityOverride": ""
    },
    {
      "abilityID": "EndureModifier",
      "abilityName": "Monster_Millelith_EndureModifier",
      "abilityOverride": ""
    },
    {
      "abilityID": "AuxWeaponTrans",
      "abilityName": "Monster_Millelith_Pole_Male_AuxWeaponTrans",
      "abilityOverride": ""
    }
  ],
  "stateLayers": {
    "defaultLayer": {
      "$type": "GBGJJIIEMBD",
      "layerIndexName": "",
      "CPAANEIJCGD": "",
      "stateIDs": {
        "NormalIdle": {
          "$type": "NEDIFAKEGCO",
          "animatorStates": {
            "Standby": [],
            "Born": []
          },
          "canDoSkill": true,
          "canSyncMove": true,
          "resetAnimatorTriggerOnExit": ["DoSkill"]
        },
        "NormalMove": {
          "$type": "NEDIFAKEGCO",
          "animatorStates": {
            "WalkForward": ["Audio_Monster_Ahigaru_01_Walk"],
            "WalkBack": ["Audio_Monster_Ahigaru_01_Walk"],
            "WalkRight": ["Audio_Monster_Ahigaru_01_Walk"],
            "WalkLeft": ["Audio_Monster_Ahigaru_01_Walk"],
            "Run": ["Audio_Monster_Ahigaru_01_Run"]
          },
          "canDoSkill": true,
          "canSyncMove": true,
          "resetAnimatorTriggerOnExit": ["DoSkill"],
          "canSteer": true
        },
        "Turn": {
          "$type": "NEDIFAKEGCO",
          "animatorStates": {
            "TurnLeft": ["Audio_Monster_Ahigaru_01_Walk"],
            "TurnRight": ["Audio_Monster_Ahigaru_01_Walk"]
          },
          "canDoSkill": true,
          "canSyncMove": true,
          "resetAnimatorTriggerOnExit": ["DoSkill"],
          "canSteer": true
        },
        "BeHit": {
          "$type": "NEDIFAKEGCO",
          "animatorStates": {
            "Hit_L": ["Audio_Monster_Ahigaru_02_Hit_L"],
            "Hit_H": ["Audio_Monster_Ahigaru_02_Hit_H"],
            "DHit": []
          },
          "resetAnimatorTriggerOnEnter": ["BeHit"],
          "resetAnimatorTriggerOnExit": ["DoSkill"]
        },
        "BeHitThrow": {
          "$type": "NEDIFAKEGCO",
          "animatorStates": {
            "HitThrow": ["Audio_Monster_Ahigaru_02_HitThrow"],
            "HitThrowDrop": [],
            "HitThrowToGround": ["Audio_Monster_Ahigaru_02_HitThrowToGround"]
          },
          "resetAnimatorTriggerOnEnter": ["BeHit", "HitAir2HitDrop"],
          "resetAnimatorTriggerOnExit": ["DoSkill"]
        },
        "Struggle": {
          "$type": "NEDIFAKEGCO",
          "animatorStates": {
            "Struggle": []
          },
          "resetAnimatorTriggerOnEnter": ["BeHit", "HitAir2HitDrop"],
          "resetAnimatorTriggerOnExit": ["DoSkill"]
        },
        "Die": {
          "$type": "NEDIFAKEGCO",
          "animatorStates": {
            "Die1": ["Audio_Monster_Ahigaru_02_Die"],
            "Die2": ["Audio_Monster_Ahigaru_02_Die"],
            "SwimDie": ["Audio_Monster_Thoarder_NoWeapon_SwimDie"],
            "SwimDie_AS": ["Audio_Monster_Thoarder_NoWeapon_SwimDie"]
          }
        },
        "Die_RagDoll": {
          "$type": "NEDIFAKEGCO",
          "animatorStates": {
            "AirDie": []
          },
          "enableRagDoll": true
        },
        "Life_Alert": {
          "$type": "NEDIFAKEGCO",
          "animatorStates": {
            "Alert": ["Audio_Monster_Ahigaru_02_Alert"]
          },
          "resetAnimatorTriggerOnExit": ["BeHit", "DoSkill"]
        },
        "Life_Warning": {
          "$type": "NEDIFAKEGCO",
          "animatorStates": {
            "Warning": [
              "Monster_Undead01_Warning",
              "Audio_Monster_Ahigaru_02_Alert"
            ]
          },
          "resetAnimatorTriggerOnExit": ["BeHit", "DoSkill"]
        },
        "Attack01": {
          "$type": "NEDIFAKEGCO",
          "animatorStates": {
            "Attack01": [
              "Monster_Human_Male_Pole_AttackDaoqi01",
              "Audio_Monster_Ahigaru_02_Attack01"
            ]
          },
          "resetAnimatorTriggerOnExit": ["BeHit", "DoSkill"]
        },
        "Attack02": {
          "$type": "NEDIFAKEGCO",
          "animatorStates": {
            "Attack02": [
              "Monster_Human_Male_Pole_AttackDaoqi02",
              "Audio_Monster_Ahigaru_02_Attack02"
            ]
          },
          "massRatio": 20.0,
          "resetAnimatorTriggerOnExit": ["BeHit", "DoSkill"]
        },
        "WildSlam": {
          "$type": "NEDIFAKEGCO",
          "animatorStates": {
            "WildSlam": [
              "Monster_Human_Male_Pole_WildSlamDaoqi",
              "Audio_Monster_Ahigaru_02_WildSlam"
            ]
          },
          "addEndure": 0.6000000238418579,
          "resetAnimatorTriggerOnExit": ["BeHit", "DoSkill"]
        },
        "Taunt": {
          "$type": "NEDIFAKEGCO",
          "animatorStates": {
            "Taunt_1": ["Audio_Monster_Ahigaru_02_Taunt1"],
            "Taunt_2": ["Audio_Monster_Ahigaru_02_Taunt2"]
          },
          "resetAnimatorTriggerOnExit": ["BeHit", "DoSkill"]
        },
        "BackSprint": {
          "$type": "NEDIFAKEGCO",
          "animatorStates": {
            "BackSprint": [
              "Monster_Human_Male_Pole_BackSprint",
              "Audio_Monster_Ahigaru_02_BackSprint"
            ]
          },
          "resetAnimatorTriggerOnExit": ["BeHit", "DoSkill"]
        },
        "BackSprintAttack_BS": {
          "$type": "NEDIFAKEGCO",
          "animatorStates": {
            "BackSprintAttack_BS": [
              "Monster_Human_Male_Pole_BackSprint",
              "Audio_Monster_Ahigaru_02_BackSprint"
            ]
          },
          "resetAnimatorTriggerOnExit": ["BeHit", "DoSkill"]
        },
        "BackSprintAttack": {
          "$type": "NEDIFAKEGCO",
          "animatorStates": {
            "BackSprintAttack_Attack01": [
              "Monster_Human_Male_Pole_AttackDaoqi01",
              "Audio_Monster_Ahigaru_02_Attack01"
            ],
            "BackSprintAttack_Attack02": [
              "Monster_Human_Male_Pole_AttackDaoqi01",
              "Audio_Monster_Ahigaru_02_Attack01"
            ],
            "BackSprintAttack_Attack03": [
              "Monster_Human_Male_Pole_AttackDaoqi01",
              "Audio_Monster_Ahigaru_02_Attack01"
            ]
          },
          "resetAnimatorTriggerOnExit": ["BeHit", "DoSkill"]
        },
        "BackSprintOrder_BS": {
          "$type": "NEDIFAKEGCO",
          "animatorStates": {
            "BackSprintOrder_BS": [
              "Monster_Human_Male_Pole_BackSprint",
              "Audio_Monster_Ahigaru_02_BackSprint"
            ]
          },
          "resetAnimatorTriggerOnExit": ["BeHit", "DoSkill"]
        },
        "Order": {
          "$type": "NEDIFAKEGCO",
          "animatorStates": {
            "Order01": [
              "Monster_Human_Male_Pole_Order01",
              "Audio_Monster_Ahigaru_02_Order01"
            ],
            "Order02": [
              "Monster_Human_Male_Pole_Order02",
              "Audio_Monster_Ahigaru_02_Order02"
            ]
          },
          "resetAnimatorTriggerOnExit": ["BeHit", "DoSkill"]
        },
        "BackSprintOrder": {
          "$type": "NEDIFAKEGCO",
          "animatorStates": {
            "BackSprintOrder": [
              "Monster_Human_Male_Pole_Order01",
              "Audio_Monster_Ahigaru_02_Order02"
            ]
          },
          "resetAnimatorTriggerOnExit": ["BeHit", "DoSkill"]
        },
        "SurroundOrder": {
          "$type": "NEDIFAKEGCO",
          "animatorStates": {
            "SurroundOrder": ["Monster_Human_Male_Pole_Order01"]
          },
          "resetAnimatorTriggerOnExit": ["BeHit", "DoSkill"]
        }
      }
    }
  },
  "billboard": {
    "$type": "DNGNMAJBCNP",
    "attachPoint": "BillboardAttach",
    "offset": {
      "x": -0.05000000074505806
    },
    "offsetType": "Character",
    "radiusOffset": 0.25,
    "showHPBar": true
  },
  "initialPoses": {
    "Default": {}
  },
  "aibeta": {
    "enable": true,
    "moveSetting": {
      "navMeshAgentName": "Undead01",
      "almostReachedDistanceRun": 1.5
    },
    "sensing": {
      "settings": {
        "DefaultSetting": {
          "feelRange": 8.0
        },
        "HighAlert": {
          "viewRange": 40.0,
          "feelRange": 10.0
        }
      },
      "templates": {
        "DefaultTemplate": {
          "DefaultPoses": "DefaultSetting"
        },
        "HighAlertTemplate": {
          "DefaultPoses": "HighAlert"
        }
      }
    },
    "neurons": {
      "DefaultSetting": ["HIT"]
    },
    "threat": {
      "GHIJMOKOLMB": "",
      "clearThreatByLostPath": true,
      "clearThreatByTargetOutOfZone": true,
      "clearThreatTimerByDistance": 3.0,
      "viewAttenuation": [
        {
          "x": 10.0,
          "y": 2.0
        },
        {
          "x": 15.0,
          "y": 0.800000011920929
        },
        {
          "x": 20.0,
          "y": 0.5
        },
        {
          "x": 25.0,
          "y": 0.30000001192092896
        },
        {
          "x": 30.0,
          "y": 0.20000000298023224
        }
      ]
    },
    "defendArea": {},
    "profiling": {},
    "skillGroupCDConfigs": [
      {
        "skillGroupCDID": 1,
        "skillGroupCDTime": 7.0
      },
      {
        "skillGroupCDID": 2,
        "skillGroupCDTime": 9.0
      },
      {
        "skillGroupCDID": 3,
        "skillGroupCDTime": 6.0
      },
      {
        "skillGroupCDID": 4,
        "skillGroupCDTime": 12.0
      }
    ],
    "skills": {
      "101": {
        "name": "OnAlert",
        "skillType": "OnAlert",
        "faceTarget": true,
        "publicCDGroup": "",
        "ignoreGCD": true,
        "triggerGCD": false,
        "HHAGODJIAPE": "",
        "stateIDs": ["Life_Warning"],
        "skillQueryingTime": 3.0,
        "flagTargetReachable": "10",
        "flagSelfOnTemplateCollider": "01",
        "flagSelfInZone": "10",
        "flagTargetInZone": "11"
      },
      "210": {
        "name": "Attack01",
        "combatSkillType": "MeleeAttack",
        "enableSkillPrepare": true,
        "castCondition": {
          "pose": [1001],
          "maxTargetAngleXZ": 60.0,
          "pickRangeMin": 2.0,
          "pickRangeMax": 15.0,
          "castRangeMax": 3.5
        },
        "cd": 3.0,
        "cdUpperRange": 1.0,
        "initialCD": 3.0,
        "publicCDGroup": "",
        "skillGroupCDID": 3,
        "HHAGODJIAPE": "",
        "stateIDs": ["Attack01"],
        "flagTargetReachable": "10",
        "flagSelfOnTemplateCollider": "01",
        "flagSelfInZone": "11",
        "flagTargetInZone": "11"
      },
      "211": {
        "name": "Attack01_WithSoldier",
        "combatSkillType": "MeleeAttack",
        "enableSkillPrepare": true,
        "castCondition": {
          "pose": [1002],
          "maxTargetAngleXZ": 60.0,
          "pickRangeMin": 2.0,
          "pickRangeMax": 15.0,
          "castRangeMax": 3.5
        },
        "cd": 9.0,
        "cdUpperRange": 1.0,
        "initialCD": 9.0,
        "initialCDUpperRange": 4.0,
        "publicCDGroup": "",
        "skillGroupCDID": 4,
        "HHAGODJIAPE": "",
        "stateIDs": ["Attack01"],
        "flagTargetReachable": "10",
        "flagSelfOnTemplateCollider": "01",
        "flagSelfInZone": "11",
        "flagTargetInZone": "11"
      },
      "220": {
        "name": "Attack02",
        "priority": 3,
        "enableSkillPrepare": true,
        "castCondition": {
          "pose": [1001],
          "maxTargetAngleXZ": 60.0,
          "pickRangeMax": 4.0,
          "castRangeMax": 3.5
        },
        "cd": 3.0,
        "cdUpperRange": 1.0,
        "initialCD": 3.0,
        "publicCDGroup": "meleeAttack_long",
        "skillGroupCDID": 3,
        "HHAGODJIAPE": "",
        "stateIDs": ["Attack02"],
        "flagTargetReachable": "10",
        "flagSelfOnTemplateCollider": "01",
        "flagSelfInZone": "11",
        "flagTargetInZone": "11"
      },
      "221": {
        "name": "Attack02_WithSoldier",
        "priority": 3,
        "enableSkillPrepare": true,
        "castCondition": {
          "pose": [1002],
          "maxTargetAngleXZ": 60.0,
          "pickRangeMax": 4.0,
          "castRangeMax": 3.5
        },
        "cd": 5.0,
        "cdUpperRange": 1.0,
        "initialCD": 9.0,
        "initialCDUpperRange": 4.0,
        "publicCDGroup": "meleeAttack_long",
        "skillGroupCDID": 4,
        "HHAGODJIAPE": "",
        "stateIDs": ["Attack02"],
        "flagTargetReachable": "10",
        "flagSelfOnTemplateCollider": "01",
        "flagSelfInZone": "11",
        "flagTargetInZone": "11"
      },
      "230": {
        "name": "WildSlam",
        "priority": 2,
        "enableSkillPrepare": true,
        "castCondition": {
          "pose": [1001],
          "maxTargetAngleXZ": 90.0,
          "pickRangeMin": 3.0,
          "pickRangeMax": 20.0,
          "castRangeMin": 1.5,
          "castRangeMax": 3.5
        },
        "cd": 10.0,
        "cdUpperRange": 5.0,
        "initialCD": 10.0,
        "publicCDGroup": "meleeAttack_long",
        "HHAGODJIAPE": "",
        "stateIDs": ["WildSlam"],
        "flagTargetReachable": "10",
        "flagSelfOnTemplateCollider": "01",
        "flagSelfInZone": "11",
        "flagTargetInZone": "11"
      },
      "231": {
        "name": "WildSlam_WithSoldier",
        "priority": 2,
        "enableSkillPrepare": true,
        "castCondition": {
          "pose": [1002],
          "maxTargetAngleXZ": 90.0,
          "pickRangeMin": 3.0,
          "pickRangeMax": 20.0,
          "castRangeMin": 1.5,
          "castRangeMax": 3.5
        },
        "cd": 15.0,
        "cdUpperRange": 5.0,
        "initialCD": 15.0,
        "publicCDGroup": "meleeAttack_long",
        "skillGroupCDID": 4,
        "HHAGODJIAPE": "",
        "stateIDs": ["WildSlam"],
        "flagTargetReachable": "10",
        "flagSelfOnTemplateCollider": "01",
        "flagSelfInZone": "11",
        "flagTargetInZone": "11"
      },
      "401": {
        "name": "BackSprint",
        "priority": 2,
        "faceTarget": true,
        "castCondition": {
          "pose": [1001, 1002],
          "maxTargetAngleY": 45.0,
          "pickRangeMax": 2.0
        },
        "cd": 2.0,
        "cdUpperRange": 2.0,
        "publicCDGroup": "RandomAction",
        "ignoreGCD": true,
        "triggerGCD": false,
        "skillGroupCDID": 1,
        "HHAGODJIAPE": "",
        "stateIDs": ["BackSprint"],
        "flagTargetReachable": "10",
        "flagSelfOnTemplateCollider": "01",
        "flagSelfInZone": "11",
        "flagTargetInZone": "11"
      },
      "402": {
        "name": "BackSprintAttack",
        "priority": 2,
        "faceTarget": true,
        "castCondition": {
          "pose": [1001, 1002],
          "maxTargetAngleY": 45.0,
          "pickRangeMax": 2.0
        },
        "cd": 2.0,
        "cdUpperRange": 2.0,
        "initialCD": 10.0,
        "publicCDGroup": "RandomAction",
        "ignoreGCD": true,
        "triggerGCD": false,
        "skillGroupCDID": 1,
        "HHAGODJIAPE": "",
        "stateIDs": ["BackSprintAttack_BS", "BackSprintAttack"],
        "flagTargetReachable": "10",
        "flagSelfOnTemplateCollider": "01",
        "flagSelfInZone": "11",
        "flagTargetInZone": "11"
      },
      "501": {
        "name": "Order01",
        "priority": 2,
        "faceTarget": true,
        "castCondition": {
          "pose": [1002],
          "maxTargetAngleY": 45.0,
          "pickRangeMin": 1.0,
          "pickRangeMax": 30.0
        },
        "cd": 5.0,
        "cdUpperRange": 3.0,
        "publicCDGroup": "RandomAction",
        "skillGroupCDID": 2,
        "HHAGODJIAPE": "",
        "stateIDs": ["Order"],
        "flagTargetReachable": "10",
        "flagSelfOnTemplateCollider": "01",
        "flagSelfInZone": "11",
        "flagTargetInZone": "11"
      },
      "901": {
        "name": "Taunt",
        "priority": 2,
        "faceTarget": true,
        "castCondition": {
          "pose": [1001],
          "maxTargetAngleY": 45.0,
          "pickRangeMin": 8.0,
          "pickRangeMax": 30.0
        },
        "cd": 5.0,
        "cdUpperRange": 5.0,
        "initialCD": 6.0,
        "publicCDGroup": "RandomAction",
        "HHAGODJIAPE": "",
        "stateIDs": ["Taunt"],
        "flagTargetReachable": "10",
        "flagSelfOnTemplateCollider": "01",
        "flagSelfInZone": "11",
        "flagTargetInZone": "11"
      }
    },
    "skillGCD": 3.0,
    "birdCirclingTactic": [
      {
        "$type": "EPHBMLFODKF",
        "enable": true,
        "condition": {
          "pose": [1001, 1002]
        },
        "JMCOBEPDIGM": {
          "rangeMin": 3.0,
          "rangeMax": 7.0,
          "BFJBDDIIFOI": {
            "LLICGJHIGME": 2.0,
            "IDEFILBHNAP": 0.0,
            "IBLIPJPNOGC": 0.0
          },
          "NAOBMNGDKHL": "1111",
          "JCNIJOAIGII": "1111",
          "MNPDDAKDHGK": ""
        },
        "PIOCBHLFLJP": {
          "1002": {
            "rangeMin": 5.5,
            "rangeMax": 8.5,
            "BFJBDDIIFOI": {
              "LLICGJHIGME": 2.0,
              "IDEFILBHNAP": 0.0,
              "IBLIPJPNOGC": 0.0
            },
            "NAOBMNGDKHL": "1111",
            "JCNIJOAIGII": "1111",
            "MNPDDAKDHGK": ""
          }
        }
      },
      {
        "$type": "JAFNBBGAPPO",
        "condition": {
          "pose": [1001]
        },
        "JMCOBEPDIGM": {
          "NBENNEKDIIA": 3.0,
          "cd": 2.5,
          "CJNOBGEGKFL": 2.5,
          "KEIFBBGKGPN": 4.5,
          "EPMAMGJCELL": 4.0
        }
      },
      {
        "$type": "OJOBEDCMGKM",
        "enable": true,
        "condition": {
          "pose": [1]
        }
      },
      {
        "$type": "KACCHOLJDNK",
        "enable": true,
        "condition": {
          "pose": [1001, 1002]
        },
        "JMCOBEPDIGM": {
          "KHDFDAAAPEI": 10.0,
          "HKJODDGJPHA": 50.0,
          "GGEBMFHFBPO": 8.5,
          "KFFGCIMPNMJ": 0.0,
          "MNPDDAKDHGK": ""
        }
      },
      {
        "$type": "HGJGHLOFFHM",
        "enable": true,
        "JMCOBEPDIGM": {}
      },
      {
        "$type": "NNJKLGNPMNN",
        "enable": true,
        "JMCOBEPDIGM": {
          "MNPDDAKDHGK": "",
          "GJDMDHIBCME": ""
        }
      },
      {
        "$type": "FPELBIJFGCE",
        "enable": true,
        "condition": {
          "pose": [1]
        },
        "JMCOBEPDIGM": {
          "KPNDPKIOPJM": 3.0,
          "PINAFKEDDLL": 1.5,
          "ANMPOPEBDIA": 15.0,
          "GMJFIMFFOEL": 3.75,
          "CHCPFDMADEI": 7.5,
          "MNPDDAKDHGK": ""
        }
      }
    ]
  },
  "inputKeys": [
    {
      "keyID": 210,
      "inputKeyCode": 257,
      "abilityName": ""
    },
    {
      "keyID": 220,
      "inputKeyCode": 258,
      "abilityName": ""
    },
    {
      "keyID": 230,
      "inputKeyCode": 259,
      "abilityName": ""
    },
    {
      "keyID": 401,
      "inputKeyCode": 260,
      "abilityName": ""
    },
    {
      "keyID": 501,
      "inputKeyCode": 261,
      "abilityName": ""
    },
    {
      "keyID": 502,
      "inputKeyCode": 262,
      "abilityName": ""
    },
    {
      "keyID": 902,
      "inputKeyCode": 263,
      "abilityName": ""
    }
  ],
  "move": {
    "$type": "IPNMJMHDMPF",
    "facingMove": "FourDirection",
    "PKHOMJHFAEE": "RootNode"
  },
  "audio": {
    "overrideEmitterName": "",
    "animAudio": {},
    "disableEvent": {
      "text": ""
    },
    "destroyEvent": {
      "text": ""
    },
    "randomVariantSwitchGroup": {
      "text": ""
    },
    "randomVariantSwitchValues": [
      {
        "text": ""
      }
    ]
  }
}
