{
  "common": {
    "effectAttachShape": {
      "$type": "FJNPJANPGGC",
      "mesh": "EffectMesh"
    },
    "mass": 80.0,
    "height": 0.6000000238418579,
    "viewSize": 1.75,
    "affectedByWorld": true,
    "checkInSurface": true,
    "clearAnimatorOnSetLightDeactive": true,
    "clearAIOnSetLightDeactive": true
  },
  "headControl": {
    "$type": "KPIPDEBDPIH",
    "useHeadControl": true,
    "maxPitchDegree": 45.0
  },
  "model": {
    "bornEffect": "",
    "attachEffect": "",
    "canBakeMesh": false,
    "BKPFGNPLDNJ": ""
  },
  "dither": {
    "showDitherDuration": 2.0
  },
  "combat": {
    "property": {
      "endureType": "Monster_Grunt_Humanoid",
      "weight": 80.0
    },
    "beHit": {
      "hitBloodEffect": ""
    },
    "combatLock": {
      "lockShape": "CircleLockEnemy",
      "lockType": "Avatar&Monster_Lv4"
    },
    "die": {
      "dieEndTime": 0.20000000298023224,
      "dieForceDisappearTime": 1.0,
      "dieDisappearEffect": "",
      "dieShaderData": "MonsterDie",
      "muteHitBox": true,
      "dieDenyLockOn": true,
      "dieIsGhostToEnemy": true,
      "dieIgnoreTriggerBullet": true,
      "muteBillboard": true,
      "mutePushCollider": true
    }
  },
  "abilities": [
    {
      "abilityID": "",
      "abilityName": "Monster_Sylph_SpecialState",
      "abilityOverride": ""
    },
    {
      "abilityID": "",
      "abilityName": "Monster_Sylph_Activated_FaceChange",
      "abilityOverride": ""
    },
    {
      "abilityID": "",
      "abilityName": "Monster_Sylph_Wind_PoseHandler",
      "abilityOverride": ""
    },
    {
      "abilityID": "",
      "abilityName": "Monster_Sylph_Wind_PoseAction",
      "abilityOverride": ""
    },
    {
      "abilityID": "",
      "abilityName": "Monster_Sylph_Wind_Steer",
      "abilityOverride": ""
    },
    {
      "abilityID": "",
      "abilityName": "Monster_Sylph_Wind_ExitBattle",
      "abilityOverride": ""
    },
    {
      "abilityID": "",
      "abilityName": "Monster_Common_WindMuteHurt",
      "abilityOverride": ""
    },
    {
      "abilityID": "",
      "abilityName": "Monster_Sylph_Wind_WindBullet_First",
      "abilityOverride": ""
    },
    {
      "abilityID": "",
      "abilityName": "Monster_Sylph_Wind_WindBullet_Second",
      "abilityOverride": ""
    },
    {
      "abilityID": "",
      "abilityName": "Monster_Sylph_Wind_FlyHor",
      "abilityOverride": ""
    },
    {
      "abilityID": "",
      "abilityName": "Monster_Sylph_Wind_FlyHigh",
      "abilityOverride": ""
    },
    {
      "abilityID": "",
      "abilityName": "Monster_Sylph_Wind_Deathrattle",
      "abilityOverride": ""
    },
    {
      "abilityID": "",
      "abilityName": "Monster_Sylph_Wind_Activated_AirGun",
      "abilityOverride": ""
    },
    {
      "abilityID": "",
      "abilityName": "Monster_Sylph_Wind_Activated_Deathrattle",
      "abilityOverride": ""
    },
    {
      "abilityID": "",
      "abilityName": "Monster_Sylph_FlyHit",
      "abilityOverride": ""
    },
    {
      "abilityID": "",
      "abilityName": "Monster_Sylph_AlertnessTag",
      "abilityOverride": ""
    }
  ],
  "stateLayers": {
    "defaultLayer": {
      "$type": "GBGJJIIEMBD",
      "layerIndexName": "",
      "CPAANEIJCGD": "",
      "stateIDs": {
        "Born": {
          "$type": "NEDIFAKEGCO",
          "animatorStates": {
            "Born": ["Monster_Sylph_Born"]
          },
          "canSyncMove": true,
          "resetAnimatorTriggerOnExit": ["DoSkill"]
        },
        "NormalIdle": {
          "$type": "NEDIFAKEGCO",
          "animatorStates": {
            "StandbyFree": [],
            "Standby": []
          },
          "canDoSkill": true,
          "canSyncMove": true,
          "resetAnimatorTriggerOnExit": ["DoSkill"],
          "canSteer": true
        },
        "Activated_Standby": {
          "$type": "NEDIFAKEGCO",
          "animatorStates": {
            "Activated_Standby": []
          },
          "canDoSkill": true,
          "canSyncMove": true,
          "resetAnimatorTriggerOnExit": ["DoSkill"],
          "canSteer": true
        },
        "NormalMove": {
          "$type": "NEDIFAKEGCO",
          "animatorStates": {
            "Activated_Fly": [],
            "Walk": [],
            "Activated_Walk": []
          },
          "canDoSkill": true,
          "canSyncMove": true,
          "resetAnimatorTriggerOnExit": ["DoSkill"],
          "setAnimatorFloat": [
            {
              "name": "FlyMotionHor",
              "normalizeEnd": 0.0
            },
            {
              "name": "FlyMotionVer",
              "normalizeEnd": 0.0
            }
          ],
          "canSteer": true
        },
        "NormalFly": {
          "$type": "NEDIFAKEGCO",
          "animatorStates": {
            "Fly": []
          },
          "canDoSkill": true,
          "canSyncMove": true,
          "resetAnimatorTriggerOnExit": ["DoSkill"],
          "setAnimatorFloat": [
            {
              "name": "FlyMotionHor",
              "normalizeEnd": 0.0
            },
            {
              "name": "FlyMotionVer",
              "normalizeEnd": 0.0
            }
          ],
          "canSteer": true,
          "blendMove": "BlendMove"
        },
        "HitThrow": {
          "$type": "NEDIFAKEGCO",
          "animatorStates": {
            "HitThrow": []
          },
          "canSyncMove": true,
          "resetAnimatorTriggerOnEnter": ["BeHit"],
          "remoteForceCloseAirMove": true,
          "airMoveFollowAnimation": true
        },
        "HitThrowDrop": {
          "$type": "NEDIFAKEGCO",
          "animatorStates": {
            "HitThrowDrop": []
          },
          "canSyncMove": true,
          "remoteForceCloseAirMove": true,
          "airMoveFollowAnimation": true
        },
        "HitThrowToGround": {
          "$type": "NEDIFAKEGCO",
          "animatorStates": {
            "HitThrowToGround": []
          },
          "canSyncMove": true,
          "resetAnimatorTriggerOnExit": ["DoSkill"],
          "remoteForceCloseAirMove": true,
          "airMoveFollowAnimation": true
        },
        "Struggle": {
          "$type": "NEDIFAKEGCO",
          "animatorStates": {
            "Struggle": []
          },
          "resetAnimatorTriggerOnEnter": ["BeHit", "HitAir2HitDrop"],
          "resetAnimatorTriggerOnExit": ["DoSkill"]
        },
        "BeHit": {
          "$type": "NEDIFAKEGCO",
          "animatorStates": {
            "Activated_Hit_H": []
          },
          "canSyncMove": true,
          "resetAnimatorTriggerOnEnter": ["BeHit"],
          "resetAnimatorTriggerOnExit": ["DoSkill"],
          "airMoveFollowAnimation": true
        },
        "Die": {
          "$type": "NEDIFAKEGCO",
          "animatorStates": {
            "Die": [],
            "Activated_Die": []
          }
        },
        "SpecialState": {
          "$type": "NEDIFAKEGCO",
          "animatorStates": {
            "RandomAction01": [],
            "RandomAction02": []
          },
          "canSyncMove": true,
          "resetAnimatorTriggerOnExit": ["BeHit", "DoSkill"]
        },
        "Warning": {
          "$type": "NEDIFAKEGCO",
          "animatorStates": {
            "Warning": [
              "Monster_Sylph_Wind_Warning",
              "Audio_Sylph_Wind_Warning"
            ]
          },
          "canSyncMove": true,
          "resetAnimatorTriggerOnExit": ["BeHit", "DoSkill"],
          "canSteer": true
        },
        "WindBullet": {
          "$type": "NEDIFAKEGCO",
          "animatorStates": {
            "WindBullet": [
              "Monster_Sylph_Wind_WindBullet",
              "Audio_Sylph_Wind_WindBullet"
            ]
          },
          "canSyncMove": true,
          "resetAnimatorTriggerOnExit": ["BeHit", "DoSkill"],
          "canSteer": true
        },
        "FlyHor_BS": {
          "$type": "NEDIFAKEGCO",
          "animatorStates": {
            "FlyHor_BS": ["Audio_Sylph_Wind_FlyHor_BS"]
          },
          "canSyncMove": true,
          "resetAnimatorTriggerOnExit": ["BeHit", "DoSkill"],
          "canSteer": true
        },
        "FlyHor_Loop": {
          "$type": "NEDIFAKEGCO",
          "animatorStates": {
            "FlyHor_Loop": ["Monster_Sylph_Wind_FlyHor"]
          },
          "canSyncMove": true,
          "resetAnimatorTriggerOnExit": ["BeHit", "DoSkill"],
          "canSteer": true
        },
        "FlyHor_AS": {
          "$type": "NEDIFAKEGCO",
          "animatorStates": {
            "FlyHor_AS": ["Audio_Sylph_Wind_FlyHor_AS"]
          },
          "canSyncMove": true,
          "resetAnimatorTriggerOnExit": ["BeHit", "DoSkill"]
        },
        "FlyHigh": {
          "$type": "NEDIFAKEGCO",
          "animatorStates": {
            "FlyHigh": [
              "Monster_Sylph_Wind_FlyHigh",
              "Audio_Sylph_Wind_FlyHigh"
            ]
          },
          "canSyncMove": true,
          "resetAnimatorTriggerOnExit": ["BeHit", "DoSkill"]
        },
        "Deathrattle": {
          "$type": "NEDIFAKEGCO",
          "animatorStates": {
            "Deathrattle": ["Monster_Sylph_Die"]
          },
          "canSyncMove": true,
          "resetAnimatorTriggerOnExit": ["BeHit", "DoSkill"]
        },
        "Activated": {
          "$type": "NEDIFAKEGCO",
          "animatorStates": {
            "Activated_BS": [
              "Monster_Sylph_Wind_Activated_Transform",
              "Audio_Sylph_Wind_Activated_BS"
            ],
            "Activated_AS": ["Audio_Sylph_Wind_Activated_AS"]
          },
          "canSyncMove": true,
          "resetAnimatorTriggerOnExit": ["BeHit", "DoSkill"]
        },
        "Activated_AirGun": {
          "$type": "NEDIFAKEGCO",
          "animatorStates": {
            "Activated_AirGun": [
              "Monster_Sylph_Wind_Activated_AirGun",
              "Audio_Sylph_Wind_Activated_AirGun"
            ]
          },
          "canSyncMove": true,
          "resetAnimatorTriggerOnExit": ["BeHit", "DoSkill"],
          "canSteer": true
        },
        "Activated_Deathrattle": {
          "$type": "NEDIFAKEGCO",
          "animatorStates": {
            "Activated_Deathrattle": []
          },
          "canSyncMove": true,
          "resetAnimatorTriggerOnExit": ["BeHit", "DoSkill"]
        },
        "Unactivated": {
          "$type": "NEDIFAKEGCO",
          "animatorStates": {
            "Unactivated": ["Audio_Sylph_Rock_Unactivated"]
          },
          "canSyncMove": true,
          "resetAnimatorTriggerOnExit": ["BeHit", "DoSkill"]
        }
      }
    }
  },
  "face": {
    "characterName": "Sylph_03",
    "baseFaceAnimation": "Default",
    "intervalFaceAnimation": "Blink",
    "minInterval": 1.5,
    "maxInterval": 5.5
  },
  "billboard": {
    "$type": "DNGNMAJBCNP",
    "attachPoint": "BillboardAttach",
    "offset": {
      "y": 0.5
    },
    "radiusOffset": 1.0,
    "enableSelfAdapt": true,
    "showHPBar": true
  },
  "initialPoses": {
    "Default": {
      "initialPoseID": 101
    }
  },
  "aibeta": {
    "enable": true,
    "moveSetting": {
      "useNavMesh": false,
      "navMeshAgentName": "Undead01"
    },
    "sensing": {
      "settings": {
        "DefaultSetting": {
          "viewRange": 22.0,
          "feelRange": 8.75
        }
      },
      "templates": {
        "DefaultTemplate": {
          "DefaultPoses": "DefaultSetting"
        }
      }
    },
    "threat": {
      "GHIJMOKOLMB": "",
      "clearThreatTargetDistance": 30.0,
      "clearThreatEdgeDistance": 5.0,
      "clearThreatTimerByDistance": 2.0,
      "viewAttenuation": [
        {
          "x": 12.0,
          "y": 1.0
        },
        {
          "x": 20.0,
          "y": 0.5
        }
      ]
    },
    "defendArea": {
      "defendRange": 50.0
    },
    "fly": {
      "enable": true,
      "floatingPoses": [101, 201, 301, 211, 311, 901]
    },
    "skills": {
      "100": {
        "name": "OnAlert",
        "skillType": "OnAlert",
        "faceTarget": true,
        "publicCDGroup": "",
        "triggerGCD": false,
        "HHAGODJIAPE": "",
        "stateIDs": ["Warning"],
        "skillQueryingTime": 3.0,
        "flagTargetReachable": "10",
        "flagSelfOnTemplateCollider": "01",
        "flagSelfInZone": "10",
        "flagTargetInZone": "11"
      },
      "201": {
        "name": "WindBullet",
        "priority": 2,
        "castCondition": {
          "pose": [201],
          "pickRangeMin": 5.5,
          "pickRangeMax": 22.0,
          "pickRangeYMax": 1.0,
          "castRangeMin": 5.5,
          "castRangeMax": 22.0
        },
        "cd": 5.0,
        "cdUpperRange": 2.5,
        "publicCDGroup": "",
        "HHAGODJIAPE": "",
        "stateIDs": ["WindBullet"],
        "flagTargetReachable": "11",
        "flagSelfOnTemplateCollider": "01",
        "flagSelfInZone": "11",
        "flagTargetInZone": "11"
      },
      "401": {
        "name": "FlyHigh",
        "priority": 2,
        "castCondition": {
          "pose": [201],
          "pickRangeMax": 3.5,
          "pickRangeYMax": 0.800000011920929,
          "castRangeMax": 3.5
        },
        "cd": 5.0,
        "publicCDGroup": "",
        "HHAGODJIAPE": "",
        "stateIDs": ["FlyHigh"],
        "flagTargetReachable": "11",
        "flagSelfOnTemplateCollider": "01",
        "flagSelfInZone": "11",
        "flagTargetInZone": "11"
      },
      "501": {
        "name": "Activated_AirGun",
        "castCondition": {
          "pose": [301],
          "pickRangeMax": 9.5,
          "pickRangeYMax": 1.0,
          "castRangeMax": 8.5
        },
        "cd": 3.0,
        "publicCDGroup": "",
        "HHAGODJIAPE": "",
        "stateIDs": ["Activated_AirGun"],
        "flagTargetReachable": "11",
        "flagSelfOnTemplateCollider": "01",
        "flagSelfInZone": "11",
        "flagTargetInZone": "11"
      },
      "601": {
        "name": "Activated",
        "priority": 1,
        "castCondition": {
          "pose": [301]
        },
        "cd": 999999.0,
        "initialCD": 9999999.0,
        "publicCDGroup": "",
        "HHAGODJIAPE": "",
        "stateIDs": ["Activated"],
        "flagTargetReachable": "11",
        "flagSelfOnTemplateCollider": "01",
        "flagSelfInZone": "11",
        "flagTargetInZone": "11"
      },
      "701": {
        "name": "Deathrattle",
        "priority": 1,
        "castCondition": {
          "pose": [211]
        },
        "publicCDGroup": "",
        "HHAGODJIAPE": "",
        "stateIDs": ["Deathrattle"],
        "flagTargetReachable": "11",
        "flagSelfOnTemplateCollider": "01",
        "flagSelfInZone": "11",
        "flagTargetInZone": "11"
      },
      "801": {
        "name": "Activated_Deathrattle",
        "priority": 1,
        "castCondition": {
          "pose": [311]
        },
        "publicCDGroup": "",
        "HHAGODJIAPE": "",
        "stateIDs": ["Activated_Deathrattle"],
        "flagTargetReachable": "11",
        "flagSelfOnTemplateCollider": "01",
        "flagSelfInZone": "11",
        "flagTargetInZone": "11"
      }
    },
    "skillGCD": 3.5,
    "birdCirclingTactic": [
      {
        "$type": "NNJKLGNPMNN",
        "enable": true,
        "JMCOBEPDIGM": {
          "ACOBCFCMBOC": "Spacial",
          "MNPDDAKDHGK": "",
          "GJDMDHIBCME": ""
        }
      },
      {
        "$type": "DGNJLJKOKEE",
        "enable": true,
        "condition": {
          "pose": [201, 301]
        },
        "JMCOBEPDIGM": {
          "ANLAAGAMIKF": 2,
          "HJODGEKLAAK": 0.0,
          "CFBKFJKHEEH": 1.0,
          "MNPDDAKDHGK": ""
        },
        "PIOCBHLFLJP": {
          "301": {
            "HJODGEKLAAK": -1.0,
            "CFBKFJKHEEH": 0.5,
            "MNPDDAKDHGK": ""
          }
        }
      },
      {
        "$type": "EPPOBBAEPED",
        "enable": true,
        "condition": {
          "pose": [201, 301]
        },
        "JMCOBEPDIGM": {
          "ANLAAGAMIKF": 2,
          "FAKGFIDPCFL": 13.5,
          "GHCEDMEHKLN": 3.5,
          "ONFAMCFCNFM": 0.0,
          "KLODEFMNFIC": 1.0,
          "MNPDDAKDHGK": "",
          "GJDMDHIBCME": ""
        },
        "PIOCBHLFLJP": {
          "301": {
            "ANLAAGAMIKF": 2,
            "GHCEDMEHKLN": 5.0,
            "ONFAMCFCNFM": 0.0,
            "KLODEFMNFIC": 0.3499999940395355,
            "MNPDDAKDHGK": "",
            "GJDMDHIBCME": ""
          }
        }
      },
      {
        "$type": "MNBBAPLOENP",
        "enable": true,
        "condition": {
          "pose": [201]
        },
        "JMCOBEPDIGM": {
          "ANLAAGAMIKF": 2,
          "GOMIFCDDDLF": 0.0,
          "JCPAFNBJDEN": 13.5,
          "JOJBOHEDBHC": 3.0,
          "AFILKAGDAHN": 6.5,
          "OMHBOLPFEPM": 1.5,
          "BJIEHJIOICI": 3.0,
          "FPNBEHAAJOL": {
            "LLICGJHIGME": 0.0,
            "IDEFILBHNAP": 0.20000000298023224,
            "OJLPFPNFMDJ": 0.4000000059604645,
            "AKMJKEIJEHM": 2.0,
            "PELOBMPBAJF": 4.0,
            "BLOIJOGPILM": 2.0,
            "GNFCHLHAPNI": 4.0,
            "DDIPMLEHIJP": 1.0,
            "PIJHGEOHOOO": 0.5,
            "OCMLCHDANPJ": 2.0
          },
          "MNPDDAKDHGK": "",
          "GJDMDHIBCME": ""
        }
      },
      {
        "$type": "HMHOIHCBIOJ",
        "enable": true,
        "condition": {
          "pose": [101]
        },
        "JMCOBEPDIGM": {
          "KPNDPKIOPJM": 5.0,
          "PINAFKEDDLL": 3.0,
          "HIGLILIOAHE": 0.30000001192092896,
          "AMIIPPJEIPM": 1.0,
          "ANMPOPEBDIA": 12.0,
          "GMJFIMFFOEL": 4.0,
          "CHCPFDMADEI": 7.5,
          "OIOFLJIDENF": true,
          "MNPDDAKDHGK": "",
          "GJDMDHIBCME": ""
        }
      }
    ]
  },
  "inputKeys": [
    {
      "keyID": 100,
      "inputKeyCode": 257,
      "abilityName": ""
    },
    {
      "keyID": 201,
      "inputKeyCode": 258,
      "abilityName": ""
    },
    {
      "keyID": 301,
      "inputKeyCode": 259,
      "abilityName": ""
    },
    {
      "keyID": 401,
      "inputKeyCode": 260,
      "abilityName": ""
    },
    {
      "keyID": 501,
      "inputKeyCode": 261,
      "abilityName": ""
    },
    {
      "keyID": 601,
      "inputKeyCode": 262,
      "abilityName": ""
    },
    {
      "keyID": 701,
      "inputKeyCode": 263,
      "abilityName": ""
    },
    {
      "keyID": 801,
      "inputKeyCode": 264,
      "abilityName": ""
    }
  ],
  "move": {
    "$type": "IPNMJMHDMPF",
    "velocityForce": {
      "excludeForces": ["RetreatAirType"]
    },
    "handleCombatTaskImmediately": true,
    "moveOnWater": true,
    "facingMove": "AirBlend",
    "airFacingMove": "AirBlend",
    "monsterSizeType": "SlimeType",
    "yawSpeedRatio": 2.0,
    "PKHOMJHFAEE": "RootNode"
  },
  "audio": {
    "overrideEmitterName": "",
    "animAudio": {
      "onTransitionIn": [
        {
          "currentStateName": "",
          "audioEvent": {
            "text": ""
          }
        }
      ],
      "onTransitionOut": [
        {
          "currentStateName": "",
          "audioEvent": {
            "text": ""
          }
        }
      ]
    }
  }
}
