{
  "common": {
    "effectAttachShape": {
      "$type": "FJNPJANPGGC",
      "mesh": "EffectMesh"
    },
    "mass": 10000.0,
    "height": 2.700000047683716,
    "modelHeight": 2.700000047683716,
    "viewSize": 1.5,
    "affectedByWorld": true,
    "checkInSurface": true,
    "scale": 1.100000023841858,
    "useGrassDisplacement": true,
    "clearAIOnSetLightDeactive": true,
    "reconnectSupport": true,
    "recoverByInitPose": true
  },
  "headControl": {
    "$type": "KPIPDEBDPIH",
    "useHeadControl": true,
    "maxYawDegree": 30.0,
    "maxPitchDegree": 10.0,
    "animStates": [
      "NormalIdle/Standby",
      "NormalMove/WalkForward",
      "NormalMove/WalkBack",
      "NormalMove/WalkRight",
      "NormalMove/WalkLeft",
      "NormalMove/Run",
      "Turn/TurnLeft",
      "Turn/TurnRight"
    ]
  },
  "model": {
    "bornEffect": "Eff_Monster_Common_Born",
    "attachEffect": "",
    "BKPFGNPLDNJ": ""
  },
  "dither": {
    "showDitherDuration": 2.0
  },
  "combat": {
    "property": {
      "endureType": "Monster_Demiboss_Humanoid",
      "weight": 150.0
    },
    "beHit": {
      "hitBloodEffect": ""
    },
    "combatLock": {
      "lockShape": "CircleLockEnemy",
      "lockType": "Avatar&Monster_Lv4"
    },
    "die": {
      "hasAnimatorDie": true,
      "dieEndTime": 2.0,
      "dieForceDisappearTime": 8.0,
      "dieDisappearEffect": "",
      "dieShaderData": "EremiteSandDie",
      "dieShaderEnableDurationTime": 1.0,
      "muteHitBox": true,
      "dieDenyLockOn": true,
      "dieIsGhostToEnemy": true,
      "dieIgnoreTriggerBullet": true,
      "muteBillboard": true,
      "mutePushCollider": true
    },
    "animEvents": {
      "NormalAttack01": {
        "attackPattern": {
          "$type": "ConfigAttackCircle",
          "triggerType": "TriggerNoRepeat",
          "born": {
            "$type": "ConfigBornBySelf",
            "offset": {
              "x": -1.2000000476837158,
              "y": 0.0,
              "z": 1.0
            }
          },
          "height": 1.2000000476837158,
          "fanAngle": 180.0,
          "radius": 4.0
        },
        "attackInfo": {
          "attackTag": "",
          "attenuationTag": "",
          "attenuationGroup": "default",
          "attackProperty": {
            "actorGrassSubHurtDelta": 0.75,
            "actorWindSubHurtDelta": 0.0,
            "elementType": "Rock",
            "elementDurability": 25.0,
            "strikeType": "Slash",
            "enBreak": 200.0,
            "attackType": "Melee",
            "GLKMCMDJBIK": 0.0
          },
          "hitPattern": {
            "onHitEffectName": "default",
            "hitImpulseY": "",
            "hitImpulseType": "LV4",
            "canBeDefenceHalt": true
          }
        }
      },
      "NormalAttack02": {
        "attackPattern": {
          "$type": "ConfigAttackBox",
          "triggerType": "TriggerNoRepeat",
          "born": {
            "$type": "ConfigBornBySelf",
            "offset": {
              "x": 0.0,
              "y": 1.0,
              "z": 1.2000000476837158
            }
          },
          "size": {
            "x": 1.5,
            "y": 1.5,
            "z": 5.0
          }
        },
        "attackInfo": {
          "attackTag": "",
          "attenuationTag": "",
          "attenuationGroup": "default",
          "attackProperty": {
            "actorGrassSubHurtDelta": 0.75,
            "actorWindSubHurtDelta": 0.0,
            "elementType": "Rock",
            "elementDurability": 25.0,
            "strikeType": "Blunt",
            "enBreak": 100.0,
            "attackType": "Melee",
            "GLKMCMDJBIK": 0.0
          },
          "hitPattern": {
            "onHitEffectName": "default",
            "hitImpulseY": "",
            "hitImpulseType": "LV4",
            "canBeDefenceHalt": true
          }
        }
      },
      "NormalAttack03": {
        "attackPattern": {
          "$type": "ConfigAttackBox",
          "triggerType": "TriggerNoRepeat",
          "born": {
            "$type": "ConfigBornBySelf",
            "offset": {
              "x": 0.0,
              "y": 0.0,
              "z": 1.0
            }
          },
          "size": {
            "x": 3.0,
            "y": 4.0,
            "z": 2.0
          }
        },
        "attackInfo": {
          "attackTag": "",
          "attenuationTag": "",
          "attenuationGroup": "default",
          "attackProperty": {
            "actorGrassSubHurtDelta": 0.5,
            "actorWindSubHurtDelta": 0.0,
            "elementType": "Rock",
            "elementDurability": 25.0,
            "strikeType": "Blunt",
            "enBreak": 10000.0,
            "attackType": "Melee",
            "GLKMCMDJBIK": 0.0
          },
          "hitPattern": {
            "onHitEffectName": "default",
            "hitImpulseY": "",
            "hitImpulseType": "LV4",
            "canBeDefenceHalt": true
          }
        }
      },
      "MeleeAttack01_01": {
        "attackPattern": {
          "$type": "ConfigAttackCircle",
          "triggerType": "TriggerNoRepeat",
          "born": {
            "$type": "ConfigBornBySelf",
            "offset": {
              "x": 0.0,
              "y": 1.0,
              "z": 1.0
            }
          },
          "height": 1.7999999523162842,
          "radius": 4.0
        },
        "attackInfo": {
          "attackTag": "",
          "attenuationTag": "",
          "attenuationGroup": "default",
          "attackProperty": {
            "actorGrassSubHurtDelta": 0.5,
            "actorWindSubHurtDelta": 0.0,
            "elementType": "Rock",
            "elementDurability": 25.0,
            "strikeType": "Slash",
            "enBreak": 200.0,
            "attackType": "Melee",
            "GLKMCMDJBIK": 0.0
          },
          "hitPattern": {
            "onHitEffectName": "default",
            "hitImpulseY": "",
            "hitImpulseType": "LV3",
            "canBeDefenceHalt": true
          }
        }
      },
      "MeleeAttack01_02": {
        "attackPattern": {
          "$type": "ConfigAttackCircle",
          "triggerType": "TriggerNoRepeat",
          "born": {
            "$type": "ConfigBornBySelf",
            "offset": {
              "x": 0.0,
              "y": 0.0,
              "z": 1.0
            }
          },
          "height": 3.0,
          "fanAngle": 180.0,
          "radius": 3.5
        },
        "attackInfo": {
          "attackTag": "",
          "attenuationTag": "",
          "attenuationGroup": "default",
          "attackProperty": {
            "actorGrassSubHurtDelta": 0.75,
            "actorWindSubHurtDelta": 0.0,
            "elementType": "Rock",
            "elementDurability": 25.0,
            "strikeType": "Slash",
            "enBreak": 200.0,
            "attackType": "Melee",
            "GLKMCMDJBIK": 0.0
          },
          "hitPattern": {
            "onHitEffectName": "default",
            "hitImpulseY": "",
            "hitImpulseType": "LV5",
            "canBeDefenceHalt": true
          },
          "cameraShake": {
            "shakeType": "CustomVector",
            "shakeRange": 0.10000000149011612,
            "shakeTime": 0.10000000149011612,
            "shakeDistance": 30.0,
            "shakeDir": {
              "y": 1.0,
              "z": 1.0
            }
          }
        }
      },
      "SlamAttack01": {
        "attackPattern": {
          "$type": "ConfigAttackCircle",
          "triggerType": "TriggerNoRepeat",
          "born": {
            "$type": "ConfigBornBySelf",
            "offset": {
              "x": 0.0,
              "y": 0.0,
              "z": 0.4000000059604645
            }
          },
          "height": 2.200000047683716,
          "radius": 4.0
        },
        "attackInfo": {
          "attackTag": "",
          "attenuationTag": "",
          "attenuationGroup": "default",
          "attackProperty": {
            "actorGrassSubHurtDelta": 1.0,
            "actorWindSubHurtDelta": 0.0,
            "elementType": "Rock",
            "elementDurability": 50.0,
            "strikeType": "Blunt",
            "enBreak": 100.0,
            "attackType": "Melee",
            "GLKMCMDJBIK": 0.0
          },
          "hitPattern": {
            "onHitEffectName": "default",
            "hitImpulseY": "",
            "hitImpulseType": "LV5",
            "canBeDefenceHalt": true
          },
          "cameraShake": {
            "shakeType": "CustomVector",
            "shakeRange": 0.10000000149011612,
            "shakeTime": 0.10000000149011612,
            "shakeDistance": 30.0,
            "shakeDir": {
              "y": 1.0,
              "z": 1.0
            }
          }
        }
      }
    },
    "summon": {
      "summonTags": [
        {
          "summonTag": 25110101,
          "name": "Gator_Eremite_Rock_01",
          "copyOwnerThreatList": true,
          "useSummonThreatList": true
        }
      ]
    }
  },
  "equipController": {
    "sheathPoint": "",
    "attachPoints": {
      "equip01": "WeaponR",
      "equip02": "WeaponL"
    }
  },
  "abilities": [
    {
      "abilityID": "FightControl",
      "abilityName": "Monster_Eremite_Male_Strong_Katar_FightControl",
      "abilityOverride": ""
    },
    {
      "abilityID": "StreeController",
      "abilityName": "Monster_Eremite_Male_Strong_Katar_StreeController",
      "abilityOverride": ""
    },
    {
      "abilityID": "Improve",
      "abilityName": "Monster_Eremite_Male_Strong_Katar_Improve",
      "abilityOverride": ""
    },
    {
      "abilityID": "Summon",
      "abilityName": "Monster_Eremite_Male_Strong_Katar_Summon",
      "abilityOverride": ""
    },
    {
      "abilityID": "LoopEffect",
      "abilityName": "Monster_Eremite_Male_Strong_Katar_Improve_LoopEffect",
      "abilityOverride": ""
    },
    {
      "abilityID": "Weak",
      "abilityName": "Monster_Eremite_Male_Strong_Katar_Weak",
      "abilityOverride": ""
    },
    {
      "abilityID": "SlamAtk01_Damage",
      "abilityName": "Monster_Eremite_Male_Strong_Katar_SlamAtk01_Damage",
      "abilityOverride": ""
    },
    {
      "abilityID": "RockBomb",
      "abilityName": "Monster_Eremite_Male_Strong_Katar_RockBomb",
      "abilityOverride": ""
    },
    {
      "abilityID": "Block",
      "abilityName": "Monster_Eremite_Male_Strong_Katar_Block",
      "abilityOverride": ""
    },
    {
      "abilityID": "ReturnToBorn",
      "abilityName": "Monster_Eremite_Male_Strong_Katar_ReturnToBorn",
      "abilityOverride": ""
    },
    {
      "abilityID": "ImproveShader",
      "abilityName": "Monster_Eremite_Male_Strong_Katar_ImproveShader",
      "abilityOverride": ""
    },
    {
      "abilityID": "ControlShader",
      "abilityName": "Monster_Eremite_Male_Strong_Katar_ControlShader",
      "abilityOverride": ""
    },
    {
      "abilityID": "ControlShader",
      "abilityName": "Monster_Eremite_Male_Strong_Katar_SlamAtk01_MoveControl",
      "abilityOverride": ""
    }
  ],
  "stateLayers": {
    "defaultLayer": {
      "$type": "GBGJJIIEMBD",
      "layerIndexName": "",
      "CPAANEIJCGD": "",
      "stateIDs": {
        "NormalIdle": {
          "$type": "NEDIFAKEGCO",
          "animatorStates": {
            "Standby": [],
            "Born": []
          },
          "canDoSkill": true,
          "canSyncMove": true,
          "resetAnimatorTriggerOnExit": ["DoSkill"]
        },
        "Standby_Weak": {
          "$type": "NEDIFAKEGCO",
          "animatorStates": {
            "Standby_Weak": []
          },
          "canDoSkill": true,
          "canSyncMove": true,
          "massRatio": 20.0,
          "resetAnimatorTriggerOnEnter": ["Recover"],
          "resetAnimatorTriggerOnExit": ["DoSkill"]
        },
        "NormalMove": {
          "$type": "NEDIFAKEGCO",
          "animatorStates": {
            "WalkForward": [
              "Audio_Monster_Eremite_male_Strong_Katar_Rock_Walk"
            ],
            "WalkBack": ["Audio_Monster_Eremite_male_Strong_Katar_Rock_Walk"],
            "WalkRight": ["Audio_Monster_Eremite_male_Strong_Katar_Rock_Turn"],
            "WalkLeft": ["Audio_Monster_Eremite_male_Strong_Katar_Rock_Turn"],
            "Run": []
          },
          "canDoSkill": true,
          "canSyncMove": true,
          "resetAnimatorTriggerOnExit": ["DoSkill"],
          "canSteer": true
        },
        "Turn": {
          "$type": "NEDIFAKEGCO",
          "animatorStates": {
            "TurnLeft": ["Audio_Monster_Eremite_male_Strong_Katar_Rock_Turn"],
            "TurnRight": ["Audio_Monster_Eremite_male_Strong_Katar_Rock_Turn"]
          },
          "canDoSkill": true,
          "canSyncMove": true,
          "resetAnimatorTriggerOnExit": ["DoSkill"],
          "canSteer": true
        },
        "BeHit": {
          "$type": "NEDIFAKEGCO",
          "animatorStates": {
            "Hit_L": [],
            "Hit_H": ["Audio_Monster_Eremite_male_Strong_Katar_Rock_Hit_H"]
          },
          "resetAnimatorTriggerOnEnter": ["BeHit"],
          "resetAnimatorTriggerOnExit": ["DoSkill"]
        },
        "BeHitThrow": {
          "$type": "NEDIFAKEGCO",
          "animatorStates": {
            "HitThrow": [],
            "HitThrowDrop": []
          },
          "resetAnimatorTriggerOnEnter": ["BeHit", "HitAir2HitDrop"],
          "resetAnimatorTriggerOnExit": ["DoSkill", "BeHit"],
          "setAnimatorBoolean": [
            {
              "name": "AirDie"
            }
          ]
        },
        "BeHitThrowToStandby": {
          "$type": "NEDIFAKEGCO",
          "animatorStates": {
            "HitThrowToGround": [
              "Audio_Monster_Eremite_male_Strong_Katar_Rock_HitThrowToGround"
            ]
          },
          "resetAnimatorTriggerOnEnter": ["BeHit", "HitAir2HitDrop"],
          "resetAnimatorTriggerOnExit": ["DoSkill", "BeHit"],
          "setAnimatorBoolean": [
            {
              "name": "AirDie",
              "normalizeEnd": 0.6200000047683716
            }
          ]
        },
        "Struggle": {
          "$type": "NEDIFAKEGCO",
          "animatorStates": {
            "Struggle": []
          },
          "resetAnimatorTriggerOnEnter": ["BeHit", "HitAir2HitDrop"],
          "resetAnimatorTriggerOnExit": ["DoSkill"]
        },
        "Die": {
          "$type": "NEDIFAKEGCO",
          "animatorStates": {
            "Die1": [
              "Monster_Eremite_Male_Strong_Katar_Die",
              "Audio_Monster_Eremite_male_Strong_Katar_Rock_Die_NoVo"
            ],
            "Die2": [
              "Monster_Eremite_Male_Strong_Katar_Die",
              "Audio_Monster_Eremite_male_Strong_Katar_Rock_Die_NoVo"
            ],
            "SwimDie_BS": [],
            "SwimDie": ["Monster_Eremite_SwimDie"],
            "SwimDie_AS": []
          },
          "resetAnimatorTriggerOnEnter": ["DoSkill"]
        },
        "Die_RagDoll": {
          "$type": "NEDIFAKEGCO",
          "animatorStates": {
            "AirDie": ["Monster_Eremite_AirDie"]
          },
          "resetAnimatorTriggerOnEnter": ["DoSkill"]
        },
        "Alert": {
          "$type": "NEDIFAKEGCO",
          "animatorStates": {
            "Alert": [
              "Monster_Eremite_Male_Strong_Katar_Rock_Alert",
              "Audio_Monster_Eremite_male_Strong_Katar_Rock_Alert_NoVo"
            ]
          },
          "addEndure": 0.0,
          "massRatio": 20.0,
          "resetAnimatorTriggerOnExit": ["BeHit", "DoSkill"],
          "autoSteer": true
        },
        "SheathWeapon": {
          "$type": "NEDIFAKEGCO",
          "animatorStates": {
            "SheathWeapon": [
              "Monster_Eremite_Male_Strong_Katar_Rock_ReturnToBorn",
              "Audio_Monster_Eremite_male_Strong_Katar_Rock_SheathWeapon"
            ]
          },
          "addEndure": 0.0,
          "massRatio": 20.0,
          "resetAnimatorTriggerOnEnter": ["SheathWeaponTrigger"],
          "resetAnimatorTriggerOnExit": [
            "BeHit",
            "DoSkill",
            "SheathWeaponTrigger"
          ]
        },
        "Improve": {
          "$type": "NEDIFAKEGCO",
          "animatorStates": {
            "Improve": [
              "Monster_Eremite_Male_Strong_Katar_Improve",
              "Audio_Monster_Eremite_male_Strong_Katar_Rock_Improve_NoVo"
            ]
          },
          "addEndure": 0.0,
          "massRatio": 20.0,
          "resetAnimatorTriggerOnEnter": ["ForceImprove"],
          "resetAnimatorTriggerOnExit": ["BeHit", "DoSkill", "ForceImprove"]
        },
        "Weak": {
          "$type": "NEDIFAKEGCO",
          "animatorStates": {
            "Weak_BS": [
              "Audio_Monster_Eremite_male_Strong_Katar_Rock_Weak_BS_NoVo"
            ],
            "Weak_AS": ["Audio_Monster_Eremite_male_Strong_Katar_Rock_Weak_AS"]
          },
          "addEndure": 0.0,
          "massRatio": 20.0,
          "resetAnimatorTriggerOnEnter": ["Weak", "Recover"],
          "resetAnimatorTriggerOnExit": ["BeHit", "DoSkill", "Weak", "Recover"]
        },
        "Control": {
          "$type": "NEDIFAKEGCO",
          "animatorStates": {
            "Control": [
              "Monster_Eremite_Male_Strong_Katar_Rock_Control",
              "Audio_Monster_Eremite_male_Strong_Katar_Rock_Control"
            ]
          },
          "canDoSkill": true,
          "resetAnimatorTriggerOnExit": ["BeHit", "DoSkill"],
          "canSteer": true
        },
        "Rest": {
          "$type": "NEDIFAKEGCO",
          "animatorStates": {
            "Rest": []
          },
          "canDoSkill": true,
          "resetAnimatorTriggerOnExit": ["BeHit", "DoSkill"],
          "canSteer": true
        },
        "NormalAtk01": {
          "$type": "NEDIFAKEGCO",
          "animatorStates": {
            "NormalAtk01": [
              "Monster_Eremite_Male_Strong_Katar_NormalAtk01",
              "Audio_Monster_Eremite_male_Strong_Katar_Rock_NormalAtk01"
            ]
          },
          "addEndure": 0.0,
          "massRatio": 20.0,
          "resetAnimatorTriggerOnExit": ["BeHit", "DoSkill"],
          "canSteer": true
        },
        "NormalAtk02": {
          "$type": "NEDIFAKEGCO",
          "animatorStates": {
            "NormalAtk02": [
              "Monster_Eremite_Male_Strong_Katar_NormalAtk02",
              "Audio_Monster_Eremite_male_Strong_Katar_Rock_NormalAtk02"
            ]
          },
          "addEndure": 0.0,
          "massRatio": 20.0,
          "resetAnimatorTriggerOnExit": ["BeHit", "DoSkill"],
          "canSteer": true
        },
        "NormalAtk03_End": {
          "$type": "NEDIFAKEGCO",
          "animatorStates": {
            "NormalAtk03_End": [
              "Monster_Eremite_Male_Strong_Katar_Rock_NormalAtk03_End",
              "Audio_Monster_Eremite_male_Strong_Katar_Rock_NormalAtk03_End"
            ]
          },
          "addEndure": 0.0,
          "massRatio": 20.0,
          "resetAnimatorTriggerOnExit": ["BeHit", "DoSkill"],
          "canSteer": true
        },
        "NormalAtk03": {
          "$type": "NEDIFAKEGCO",
          "animatorStates": {
            "NormalAtk03": [
              "Monster_Eremite_Male_Strong_Katar_RockBomb",
              "Audio_Monster_Eremite_male_Strong_Katar_Rock_NormalAtk03_NoVo"
            ]
          },
          "addEndure": 0.0,
          "massRatio": 20.0,
          "resetAnimatorTriggerOnExit": ["BeHit", "DoSkill"],
          "canSteer": true
        },
        "ImproveNormalAtk01": {
          "$type": "NEDIFAKEGCO",
          "animatorStates": {
            "ImproveNormalAtk01": [
              "Monster_Eremite_Male_Strong_Katar_ImproveNormalAtk01",
              "Audio_Monster_Eremite_male_Strong_Katar_Rock_NormalAtk01"
            ]
          },
          "addEndure": 0.0,
          "resetAnimatorTriggerOnExit": ["BeHit", "DoSkill"],
          "canSteer": true
        },
        "ImproveNormalAtk02": {
          "$type": "NEDIFAKEGCO",
          "animatorStates": {
            "ImproveNormalAtk02": [
              "Monster_Eremite_Male_Strong_Katar_ImproveNormalAtk02",
              "Audio_Monster_Eremite_male_Strong_Katar_Rock_NormalAtk02"
            ]
          },
          "resetAnimatorTriggerOnExit": ["BeHit", "DoSkill"],
          "canSteer": true
        },
        "MeleeAttack01_BS": {
          "$type": "NEDIFAKEGCO",
          "animatorStates": {
            "MeleeAttack01_BS": [
              "Monster_Eremite_Male_Strong_Katar_MeleeAtk01_BS",
              "Audio_Monster_Eremite_male_Strong_Katar_Rock_MeleeAttack01_BS"
            ]
          },
          "addEndure": 0.0,
          "resetAnimatorTriggerOnExit": ["BeHit", "DoSkill"],
          "canSteer": true
        },
        "MeleeAttack01_Loop": {
          "$type": "NEDIFAKEGCO",
          "animatorStates": {
            "MeleeAttack01_Loop": [
              "Monster_Eremite_Male_Strong_Katar_MeleeAtk01_Loop"
            ]
          },
          "addEndure": 0.0,
          "resetAnimatorTriggerOnExit": ["BeHit", "DoSkill"],
          "canSteer": true
        },
        "MeleeAttack01_AS": {
          "$type": "NEDIFAKEGCO",
          "animatorStates": {
            "MeleeAttack01_AS": [
              "Monster_Eremite_Male_Strong_Katar_MeleeAtk01_AS",
              "Audio_Monster_Eremite_male_Strong_Katar_Rock_MeleeAttack01_AS"
            ]
          },
          "addEndure": 0.0,
          "resetAnimatorTriggerOnExit": ["BeHit", "DoSkill"],
          "canSteer": true
        },
        "SlamAttack01": {
          "$type": "NEDIFAKEGCO",
          "animatorStates": {
            "SlamAttack01": [
              "Monster_Eremite_Male_Strong_Katar_SlamAttack01",
              "Audio_Monster_Eremite_male_Strong_Katar_Rock_SlamAttack01_NoVo"
            ]
          },
          "addEndure": 0.0,
          "massRatio": 20.0,
          "resetAnimatorTriggerOnExit": ["BeHit", "DoSkill"],
          "canSteer": true
        },
        "DefendBS": {
          "$type": "NEDIFAKEGCO",
          "animatorStates": {
            "DefendBS": [
              "Monster_Eremite_Male_Strong_Katar_Rock_DefendBS",
              "Audio_Monster_Eremite_male_Strong_Katar_Rock_DefendBS"
            ]
          },
          "addEndure": 0.0,
          "resetAnimatorTriggerOnExit": ["BeHit", "DoSkill", "DefendHit"],
          "canSteer": true
        },
        "DefendLoop": {
          "$type": "NEDIFAKEGCO",
          "animatorStates": {
            "DefendLoop": []
          },
          "resetAnimatorTriggerOnExit": ["DoSkill", "DefendHit", "DefendBreak"],
          "canSteer": true
        },
        "DefendHit": {
          "$type": "NEDIFAKEGCO",
          "animatorStates": {
            "DefendHit": [
              "Audio_Monster_Eremite_male_Strong_Katar_Rock_DefendHit"
            ]
          },
          "resetAnimatorTriggerOnEnter": ["DefendHit"],
          "resetAnimatorTriggerOnExit": ["DefendBreak"],
          "canSteer": true
        },
        "DefendAS": {
          "$type": "NEDIFAKEGCO",
          "animatorStates": {
            "DefendAS": [
              "Audio_Monster_Eremite_male_Strong_Katar_Rock_DefendAS"
            ]
          },
          "resetAnimatorTriggerOnExit": ["BeHit", "DoSkill"],
          "canSteer": true
        },
        "DefendBreak": {
          "$type": "NEDIFAKEGCO",
          "animatorStates": {
            "DefendBreak": [
              "Monster_Eremite_Male_Strong_Katar_Rock_DefendBreak",
              "Audio_Monster_Eremite_male_Strong_Katar_Rock_DefendBreak"
            ]
          },
          "resetAnimatorTriggerOnEnter": ["DefendBreak"],
          "resetAnimatorTriggerOnExit": ["DoSkill"],
          "canSteer": true
        }
      }
    }
  },
  "billboard": {
    "$type": "DNGNMAJBCNP",
    "attachPoint": "BillboardAttach",
    "offset": {
      "x": -0.3499999940395355
    },
    "offsetType": "Character",
    "showHPBar": true,
    "size": "Big"
  },
  "initialPoses": {
    "Default": {}
  },
  "aibeta": {
    "enable": true,
    "moveSetting": {
      "navMeshAgentName": "Undead01",
      "almostReachedDistanceRun": 1.5
    },
    "aiCombat": {
      "combatRole": "FIGHTER"
    },
    "sensing": {
      "settings": {
        "DefaultSetting": {
          "feelRange": 8.0
        },
        "HighAlert": {
          "viewRange": 40.0,
          "feelRange": 10.0
        },
        "LowAlert": {
          "viewRange": 15.0,
          "feelRange": 6.0
        },
        "NeverCombat": {
          "enableVision": false,
          "hearAttractionRange": 0.0,
          "feelRange": 0.0
        }
      },
      "templates": {
        "DefaultTemplate": {
          "DefaultPoses": "DefaultSetting"
        },
        "NeverCombatTemplate": {
          "DefaultPoses": "NeverCombat"
        },
        "HighAlert": {
          "DefaultPoses": "HighAlert"
        },
        "LowAlert": {
          "DefaultPoses": "LowAlert"
        }
      }
    },
    "neurons": {
      "DefaultSetting": ["HIT"],
      "NeverCombat": []
    },
    "threat": {
      "GHIJMOKOLMB": "",
      "clearThreatTargetDistance": 30.0,
      "clearThreatEdgeDistance": 3.5,
      "clearThreatTimerByDistance": 1.75,
      "viewThreatGrow": 35.0,
      "feelThreatGrow": 100.0,
      "threatDecreaseSpeed": 10.0,
      "viewAttenuation": [
        {
          "x": 10.0,
          "y": 2.0
        },
        {
          "x": 15.0,
          "y": 0.800000011920929
        },
        {
          "x": 20.0,
          "y": 0.5
        },
        {
          "x": 25.0,
          "y": 0.30000001192092896
        },
        {
          "x": 30.0,
          "y": 0.20000000298023224
        }
      ],
      "resistTauntLevel": "Monster_TauntLevel_3"
    },
    "defendArea": {
      "defendRange": 50.0
    },
    "profiling": {},
    "network": {
      "syncSkill": true
    },
    "skillGroupCDConfigs": [
      {
        "skillGroupCDID": 1,
        "skillGroupCDTime": 1.0
      },
      {
        "skillGroupCDID": 2,
        "skillGroupCDTime": 2.0
      },
      {
        "skillGroupCDID": 3,
        "skillGroupCDTime": 3.0
      },
      {
        "skillGroupCDID": 4,
        "skillGroupCDTime": 25.0
      }
    ],
    "skills": {
      "101": {
        "name": "OnAlert",
        "skillType": "OnAlert",
        "publicCDGroup": "",
        "ignoreGCD": true,
        "triggerGCD": false,
        "HHAGODJIAPE": "",
        "stateIDs": ["Alert"],
        "skillQueryingTime": 3.0,
        "flagTargetReachable": "10",
        "flagSelfOnTemplateCollider": "01",
        "flagSelfInZone": "10",
        "flagTargetInZone": "11"
      },
      "201": {
        "name": "NormalAtk",
        "castCondition": {
          "pose": [101],
          "pickRangeMax": 8.0
        },
        "cd": 6.0,
        "cdUpperRange": 2.0,
        "publicCDGroup": "",
        "ignoreGCD": true,
        "skillGroupCDID": 3,
        "HHAGODJIAPE": "",
        "stateIDs": ["NormalAtk01", "NormalAtk02", "NormalAtk03_End"],
        "flagTargetReachable": "10",
        "flagSelfOnTemplateCollider": "01",
        "flagSelfInZone": "11",
        "flagTargetInZone": "11"
      },
      "202": {
        "name": "NormalAtk03",
        "castCondition": {
          "pose": [101, 201, 102],
          "pickRangeMax": 20.0
        },
        "cd": 10.0,
        "cdUpperRange": 2.0,
        "publicCDGroup": "",
        "skillGroupCDID": 3,
        "HHAGODJIAPE": "",
        "stateIDs": ["NormalAtk03"],
        "flagTargetReachable": "11",
        "flagSelfOnTemplateCollider": "01",
        "flagSelfInZone": "11",
        "flagTargetInZone": "11"
      },
      "211": {
        "name": "SlamAttack01",
        "priority": 2,
        "castCondition": {
          "pose": [101],
          "pickRangeMax": 15.0,
          "castRangeMax": 15.0
        },
        "cd": 15.0,
        "cdUpperRange": 2.0,
        "initialCD": 5.0,
        "initialCDUpperRange": 2.0,
        "publicCDGroup": "",
        "HHAGODJIAPE": "",
        "stateIDs": ["SlamAttack01"],
        "flagTargetReachable": "10",
        "flagSelfOnTemplateCollider": "01",
        "flagSelfInZone": "11",
        "flagTargetInZone": "11"
      },
      "221": {
        "name": "MeleeAttack01",
        "castCondition": {
          "pose": [101],
          "pickRangeMax": 15.0,
          "castRangeMax": 15.0
        },
        "cd": 15.0,
        "cdUpperRange": 2.0,
        "initialCD": 5.0,
        "initialCDUpperRange": 2.0,
        "publicCDGroup": "",
        "HHAGODJIAPE": "",
        "stateIDs": [
          "MeleeAttack01_BS",
          "MeleeAttack01_Loop",
          "MeleeAttack01_AS"
        ],
        "flagTargetReachable": "10",
        "flagSelfOnTemplateCollider": "01",
        "flagSelfInZone": "10",
        "flagTargetInZone": "11"
      },
      "301": {
        "name": "Break",
        "castCondition": {
          "pose": [201],
          "pickRangeMax": 3.0
        },
        "cd": 15.0,
        "cdUpperRange": 2.0,
        "publicCDGroup": "",
        "ignoreGCD": true,
        "triggerGCD": false,
        "HHAGODJIAPE": "",
        "stateIDs": [
          "DefendBS",
          "DefendLoop",
          "DefendAS",
          "DefendHit",
          "DefendBreak"
        ],
        "flagTargetReachable": "10",
        "flagSelfOnTemplateCollider": "01",
        "flagSelfInZone": "11",
        "flagTargetInZone": "11"
      },
      "311": {
        "name": "ImproveNormalAtk01",
        "castCondition": {
          "pose": [102, 201],
          "pickRangeMax": 4.0
        },
        "cd": 6.0,
        "cdUpperRange": 2.0,
        "publicCDGroup": "",
        "skillGroupCDID": 3,
        "HHAGODJIAPE": "",
        "stateIDs": ["ImproveNormalAtk01"],
        "flagTargetReachable": "10",
        "flagSelfOnTemplateCollider": "01",
        "flagSelfInZone": "11",
        "flagTargetInZone": "11"
      },
      "401": {
        "name": "Improve",
        "priority": 1,
        "castCondition": {
          "pose": [111]
        },
        "cd": 4.0,
        "publicCDGroup": "",
        "ignoreGCD": true,
        "triggerGCD": false,
        "triggerCDOnFail": false,
        "HHAGODJIAPE": "",
        "stateIDs": ["Improve"],
        "skillQueryingTime": 3.0,
        "flagTargetReachable": "11",
        "flagSelfOnTemplateCollider": "11",
        "flagSelfInZone": "11",
        "flagTargetInZone": "11"
      },
      "9001": {
        "name": "Control",
        "skillType": "Free",
        "castCondition": {
          "pose": [2, 1]
        },
        "cd": 100.0,
        "cdUpperRange": 35.0,
        "initialCD": 25.0,
        "initialCDUpperRange": 10.0,
        "publicCDGroup": "",
        "ignoreGCD": true,
        "triggerGCD": false,
        "skillGroupCDID": 4,
        "HHAGODJIAPE": "",
        "stateIDs": ["Control"],
        "skillQueryingTime": 10.0,
        "flagTargetReachable": "10",
        "flagSelfOnTemplateCollider": "01",
        "flagSelfInZone": "10",
        "flagTargetInZone": "11"
      },
      "9002": {
        "name": "Rest",
        "skillType": "Free",
        "castCondition": {
          "pose": [2, 1]
        },
        "cd": 100.0,
        "cdUpperRange": 35.0,
        "initialCD": 25.0,
        "initialCDUpperRange": 10.0,
        "publicCDGroup": "",
        "ignoreGCD": true,
        "triggerGCD": false,
        "skillGroupCDID": 4,
        "HHAGODJIAPE": "",
        "stateIDs": ["Rest"],
        "skillQueryingTime": 10.0,
        "flagTargetReachable": "10",
        "flagSelfOnTemplateCollider": "01",
        "flagSelfInZone": "10",
        "flagTargetInZone": "11"
      }
    },
    "birdCirclingTactic": [
      {
        "$type": "EPHBMLFODKF",
        "enable": true,
        "condition": {
          "pose": [101, 201, 102]
        },
        "JMCOBEPDIGM": {
          "rangeMax": 15.0,
          "ALIBHHJHHMN": 1.2000000476837158,
          "OMHBOLPFEPM": 1.0,
          "BFJBDDIIFOI": {
            "LLICGJHIGME": 2.0,
            "IDEFILBHNAP": 6.0,
            "IBLIPJPNOGC": 0.5,
            "AEBLMKFNCDG": 3.0,
            "IGLIBIOEGBB": 3.0
          },
          "NAOBMNGDKHL": "1111",
          "JCNIJOAIGII": "1111",
          "MNPDDAKDHGK": ""
        },
        "PIOCBHLFLJP": {
          "201": {
            "rangeMin": 0.0,
            "rangeMax": 20.0,
            "JOJBOHEDBHC": 1.5,
            "ALIBHHJHHMN": 1.2000000476837158,
            "OMHBOLPFEPM": 1.0,
            "BFJBDDIIFOI": {
              "LLICGJHIGME": 0.0,
              "IDEFILBHNAP": 0.5,
              "IBLIPJPNOGC": 3.0,
              "AEBLMKFNCDG": 3.0,
              "IGLIBIOEGBB": 3.0
            },
            "NAOBMNGDKHL": "1111",
            "JCNIJOAIGII": "1111",
            "MNPDDAKDHGK": ""
          },
          "102": {
            "rangeMin": 0.0,
            "rangeMax": 20.0,
            "JOJBOHEDBHC": 1.5,
            "ALIBHHJHHMN": 1.2000000476837158,
            "OMHBOLPFEPM": 1.0,
            "BFJBDDIIFOI": {
              "LLICGJHIGME": 0.0,
              "IDEFILBHNAP": 0.5,
              "IBLIPJPNOGC": 3.0,
              "AEBLMKFNCDG": 3.0,
              "IGLIBIOEGBB": 3.0
            },
            "NAOBMNGDKHL": "1111",
            "JCNIJOAIGII": "1111",
            "MNPDDAKDHGK": ""
          }
        }
      },
      {
        "$type": "OJOBEDCMGKM",
        "enable": true,
        "condition": {
          "pose": [1]
        }
      },
      {
        "$type": "KACCHOLJDNK",
        "enable": true,
        "condition": {
          "pose": [101, 201]
        },
        "JMCOBEPDIGM": {
          "ANLAAGAMIKF": 1,
          "KHDFDAAAPEI": 8.0,
          "HKJODDGJPHA": 99.0,
          "GGEBMFHFBPO": 4.0,
          "KFFGCIMPNMJ": 0.0,
          "MNPDDAKDHGK": ""
        },
        "PIOCBHLFLJP": {
          "201": {
            "ANLAAGAMIKF": 1,
            "HKJODDGJPHA": 99.0,
            "GGEBMFHFBPO": 20.0,
            "KFFGCIMPNMJ": 0.0,
            "MNPDDAKDHGK": ""
          }
        }
      },
      {
        "$type": "NNJKLGNPMNN",
        "enable": true,
        "JMCOBEPDIGM": {
          "ANLAAGAMIKF": 1,
          "MNPDDAKDHGK": "",
          "GJDMDHIBCME": ""
        }
      },
      {
        "$type": "FPELBIJFGCE",
        "enable": true,
        "condition": {
          "pose": [1]
        },
        "JMCOBEPDIGM": {
          "NBENNEKDIIA": 1.0,
          "KPNDPKIOPJM": 5.0,
          "PINAFKEDDLL": 2.5,
          "ANMPOPEBDIA": 15.0,
          "GMJFIMFFOEL": 4.0,
          "CHCPFDMADEI": 6.0,
          "MNPDDAKDHGK": ""
        }
      }
    ]
  },
  "inputKeys": [
    {
      "keyID": 201,
      "inputKeyCode": 257,
      "abilityName": ""
    },
    {
      "keyID": 202,
      "inputKeyCode": 258,
      "abilityName": ""
    },
    {
      "keyID": 211,
      "inputKeyCode": 259,
      "abilityName": ""
    },
    {
      "keyID": 221,
      "inputKeyCode": 260,
      "abilityName": ""
    },
    {
      "keyID": 9001,
      "inputKeyCode": 261,
      "abilityName": ""
    },
    {
      "keyID": 301,
      "inputKeyCode": 262,
      "abilityName": ""
    },
    {
      "keyID": 311,
      "inputKeyCode": 263,
      "abilityName": ""
    },
    {
      "keyID": 312,
      "inputKeyCode": 264,
      "abilityName": ""
    },
    {
      "keyID": 401,
      "inputKeyCode": 265,
      "abilityName": ""
    }
  ],
  "move": {
    "$type": "IPNMJMHDMPF",
    "facingMove": "FourDirection",
    "monsterSizeType": "StoopType",
    "positionModifyExtra": true,
    "PKHOMJHFAEE": "RootNode"
  },
  "audio": {
    "overrideEmitterName": "",
    "animAudio": {
      "onTransitionIn": [
        {
          "currentStateName": "MeleeAttack01_Loop",
          "audioEvent": {
            "text": "Play_sfx_monster_Eremite_male_Strong_Katar_Rock_meleeAttack01_Loop"
          },
          "otherStateNames": ["MeleeAttack01_Loop"],
          "usage": "Except"
        }
      ],
      "onTransitionOut": [
        {
          "currentStateName": "MeleeAttack01_Loop",
          "audioEvent": {
            "text": "Stop_sfx_monster_Eremite_male_Strong_Katar_Rock_meleeAttack01_Loop"
          },
          "otherStateNames": ["MeleeAttack01_Loop"],
          "usage": "Except"
        },
        {
          "currentStateName": "Control",
          "audioEvent": {
            "text": "Stop_sfx_monster_Eremite_male_Strong_Katar_Rock_control"
          },
          "otherStateNames": ["Control"]
        }
      ]
    }
  }
}
