{
  "common": {
    "effectAttachShape": {
      "$type": "FJNPJANPGGC",
      "mesh": "EffectMesh"
    },
    "mass": 150.0,
    "height": 3.0,
    "modelHeight": 4.0,
    "viewSize": 2.0,
    "affectedByWorld": true,
    "checkInSurface": true,
    "useGrassDisplacement": true,
    "reconnectSupport": true,
    "recoverByInitPose": true
  },
  "model": {
    "bornEffect": "",
    "attachEffect": "",
    "BKPFGNPLDNJ": ""
  },
  "dither": {
    "showDitherDuration": 2.0
  },
  "combat": {
    "property": {
      "endureType": "Monster_Grunt_Other",
      "weight": 150.0
    },
    "beHit": {
      "hitBloodEffect": ""
    },
    "combatLock": {
      "lockShape": "CircleLockEnemy",
      "lockType": "Avatar&Monster_Lv4"
    },
    "die": {
      "hasAnimatorDie": true,
      "dieForceDisappearTime": 2.0,
      "dieDisappearEffect": "Eff_Death_Common",
      "dieShaderData": "MonsterDie",
      "muteHitBox": true,
      "dieDenyLockOn": true,
      "dieIsGhostToEnemy": true,
      "dieIgnoreTriggerBullet": true,
      "muteBillboard": true,
      "mutePushCollider": true
    },
    "animEvents": {
      "MeleeAttack01": {
        "attackPattern": {
          "$type": "ConfigAttackCircle",
          "triggerType": "TriggerNoRepeat",
          "born": {
            "$type": "ConfigBornBySelf",
            "offset": {
              "x": 0.5,
              "y": 0.0,
              "z": 0.0
            }
          },
          "height": 2.5,
          "fanAngle": 200.0,
          "radius": 4.5
        },
        "attackInfo": {
          "attackTag": "",
          "attenuationTag": "",
          "attenuationGroup": "default",
          "attackProperty": {
            "actorGrassSubHurtDelta": 0.6000000238418579,
            "actorWindSubHurtDelta": 0.0,
            "elementDurability": 100.0,
            "strikeType": "Blunt",
            "enBreak": 100.0,
            "attackType": "Melee",
            "GLKMCMDJBIK": 0.0
          },
          "hitPattern": {
            "onHitEffectName": "default",
            "hitImpulseY": "",
            "hitImpulseType": "LV3"
          }
        }
      },
      "MeleeAttack02": {
        "attackPattern": {
          "$type": "ConfigAttackBox",
          "triggerType": "TriggerNoRepeat",
          "born": {
            "$type": "ConfigBornBySelf",
            "offset": {
              "x": 0.0,
              "y": 3.0,
              "z": 0.5
            }
          },
          "size": {
            "x": 2.25,
            "y": 6.0,
            "z": 7.5
          }
        },
        "attackInfo": {
          "attackTag": "",
          "attenuationTag": "",
          "attenuationGroup": "default",
          "attackProperty": {
            "actorGrassSubHurtDelta": 0.6000000238418579,
            "actorWindSubHurtDelta": 0.0,
            "elementDurability": 100.0,
            "strikeType": "Blunt",
            "enBreak": 100.0,
            "attackType": "Melee",
            "GLKMCMDJBIK": 0.0
          },
          "hitPattern": {
            "onHitEffectName": "default",
            "hitImpulseY": "",
            "hitImpulseType": "LV3"
          }
        }
      },
      "MeleeAttack03": {
        "attackPattern": {
          "$type": "ConfigAttackCircle",
          "triggerType": "TriggerNoRepeat",
          "born": {
            "$type": "ConfigBornBySelf",
            "offset": {
              "x": 0.0,
              "y": 0.0,
              "z": 0.6000000238418579
            }
          },
          "height": 2.5,
          "radius": 5.0
        },
        "attackInfo": {
          "attackTag": "",
          "attenuationTag": "",
          "attenuationGroup": "default",
          "attackProperty": {
            "actorGrassSubHurtDelta": 0.6000000238418579,
            "actorWindSubHurtDelta": 0.0,
            "elementDurability": 100.0,
            "strikeType": "Blunt",
            "enBreak": 100.0,
            "attackType": "Melee",
            "GLKMCMDJBIK": 0.0
          },
          "hitPattern": {
            "onHitEffectName": "default",
            "hitImpulseY": "",
            "hitImpulseType": "LV4"
          }
        }
      }
    }
  },
  "equipController": {
    "sheathPoint": "",
    "attachPoints": {
      "equip01": "EquipNode"
    }
  },
  "abilities": [
    {
      "abilityID": "",
      "abilityName": "Monster_Ovacua_Common_OuterRingManager",
      "abilityOverride": ""
    },
    {
      "abilityID": "",
      "abilityName": "Monster_Ovacua_Common_OuterRing_Show",
      "abilityOverride": ""
    },
    {
      "abilityID": "",
      "abilityName": "Monster_Ovacua_Common_OuterRing_Hide",
      "abilityOverride": ""
    },
    {
      "abilityID": "",
      "abilityName": "Monster_Ovacua_Common_OuterRing_Idle",
      "abilityOverride": ""
    },
    {
      "abilityID": "",
      "abilityName": "Monster_Ovacua_Common_ReturnToBorn",
      "abilityOverride": ""
    },
    {
      "abilityID": "",
      "abilityName": "Monster_Ovacua_Common_Steer",
      "abilityOverride": ""
    },
    {
      "abilityID": "",
      "abilityName": "Monster_Ovacua_Common_Shader_Growth_On",
      "abilityOverride": ""
    },
    {
      "abilityID": "",
      "abilityName": "Monster_Ovacua_Common_Shader_Growth_Off",
      "abilityOverride": ""
    },
    {
      "abilityID": "",
      "abilityName": "Monster_Ovacua_SkillSetManager",
      "abilityOverride": ""
    },
    {
      "abilityID": "",
      "abilityName": "Monster_Ovacua_Common_UIBillboardManager",
      "abilityOverride": ""
    },
    {
      "abilityID": "",
      "abilityName": "Monster_Ovacua_Common_UIBillboard_MoveToLowPosition",
      "abilityOverride": ""
    },
    {
      "abilityID": "",
      "abilityName": "Monster_Ovacua_Chaos_01_Steer",
      "abilityOverride": ""
    },
    {
      "abilityID": "",
      "abilityName": "Monster_Ovacua_Chaos_01_GrowthState",
      "abilityOverride": ""
    },
    {
      "abilityID": "",
      "abilityName": "Monster_Ovacua_Chaos_01_GrowthState_Off",
      "abilityOverride": ""
    },
    {
      "abilityID": "",
      "abilityName": "Monster_Ovacua_Chaos_OuterRing_Chaos_Idle01",
      "abilityOverride": ""
    },
    {
      "abilityID": "",
      "abilityName": "Monster_Ovacua_Common_OuterRing_Alert",
      "abilityOverride": ""
    },
    {
      "abilityID": "",
      "abilityName": "Monster_Ovacua_Common_Shoot01_Big",
      "abilityOverride": ""
    },
    {
      "abilityID": "",
      "abilityName": "Monster_Ovacua_Chaos_01_Growth_Shoot",
      "abilityOverride": ""
    },
    {
      "abilityID": "",
      "abilityName": "Monster_Ovacua_Chaos_01_GrowthState",
      "abilityOverride": ""
    },
    {
      "abilityID": "",
      "abilityName": "Monster_Ovacua_Chaos_01_GrowthState_Off",
      "abilityOverride": ""
    },
    {
      "abilityID": "",
      "abilityName": "Monster_Ovacua_Order_01_HeavyShoot",
      "abilityOverride": ""
    }
  ],
  "stateLayers": {
    "defaultLayer": {
      "$type": "GBGJJIIEMBD",
      "layerIndexName": "",
      "CPAANEIJCGD": "",
      "stateIDs": {
        "Born": {
          "$type": "NEDIFAKEGCO",
          "animatorStates": {
            "Born": []
          },
          "canSyncMove": true,
          "resetAnimatorTriggerOnExit": ["DoSkill"]
        },
        "NormalIdle": {
          "$type": "NEDIFAKEGCO",
          "animatorStates": {
            "Standby": [
              "Monster_Ovacua_Common_OuterRing_Show",
              "Monster_Ovacua_Chaos_ClearGrowthState"
            ]
          },
          "canDoSkill": true,
          "canSyncMove": true,
          "resetAnimatorTriggerOnExit": ["DoSkill"],
          "canSteer": true
        },
        "Faint": {
          "$type": "NEDIFAKEGCO",
          "animatorStates": {
            "Faint": [
              "Monster_Ovacua_Common_OuterRing_Hide",
              "Monster_Ovacua_Common_Growth_Faint"
            ]
          },
          "canDoSkill": true,
          "canSyncMove": true,
          "resetAnimatorTriggerOnExit": ["DoSkill"],
          "canSteer": true
        },
        "NormalMove": {
          "$type": "NEDIFAKEGCO",
          "animatorStates": {
            "WalkForward": [],
            "WalkBack": [],
            "WalkLeft": [],
            "WalkRight": []
          },
          "canDoSkill": true,
          "canSyncMove": true,
          "resetAnimatorTriggerOnExit": ["DoSkill"],
          "canSteer": true
        },
        "BeHit": {
          "$type": "NEDIFAKEGCO",
          "animatorStates": {
            "Hit_H": ["Audio_Monster_Ovacua_Hit"]
          },
          "canSyncMove": true,
          "resetAnimatorTriggerOnEnter": ["BeHit"],
          "resetAnimatorTriggerOnExit": ["DoSkill"],
          "airMoveFollowAnimation": true
        },
        "BeHitThrow": {
          "$type": "NEDIFAKEGCO",
          "animatorStates": {
            "HitThrow": ["Audio_Monster_Ovacua_Hit"],
            "HitThrowDrop": [],
            "HitThrowToGround": []
          },
          "resetAnimatorTriggerOnEnter": ["BeHit", "HitAir2HitDrop"],
          "resetAnimatorTriggerOnExit": ["DoSkill"]
        },
        "Struggle": {
          "$type": "NEDIFAKEGCO",
          "animatorStates": {
            "Struggle": []
          },
          "resetAnimatorTriggerOnEnter": ["BeHit", "HitAir2HitDrop"],
          "resetAnimatorTriggerOnExit": ["DoSkill"]
        },
        "Die": {
          "$type": "NEDIFAKEGCO",
          "animatorStates": {
            "Die": [
              "Monster_Ovacua_Common_Die",
              "Monster_Ovacua_Chaos_ClearGrowthState",
              "Audio_Monster_Ovacua_Die"
            ]
          },
          "resetAnimatorTriggerOnEnter": ["DoSkill"]
        },
        "Warning": {
          "$type": "NEDIFAKEGCO",
          "animatorStates": {
            "Warning": [
              "Monster_Ovacua_Common_Alert",
              "Audio_Monster_Ovacua_Chaos_Warning"
            ]
          },
          "canSyncMove": true,
          "resetAnimatorTriggerOnExit": ["BeHit", "DoSkill"],
          "canSteer": true
        },
        "IdleFree01": {
          "$type": "NEDIFAKEGCO",
          "animatorStates": {
            "Chaos_Idle01": [
              "Monster_Ovacua_Chaos_Chaos_Idle01",
              "Audio_Monster_Ovacua_Chaos_Idle"
            ]
          },
          "canSyncMove": true,
          "resetAnimatorTriggerOnExit": ["BeHit", "DoSkill"],
          "canSteer": true
        },
        "MeleeAttack01_BS": {
          "$type": "NEDIFAKEGCO",
          "animatorStates": {
            "MeleeAttack01_BS": [
              "Monster_Ovacua_Common_MeleeAttack_01_BS",
              "Audio_Monster_Ovacua_MeleeAttack_01"
            ]
          },
          "addEndure": 0.20000000298023224,
          "resetAnimatorTriggerOnExit": ["BeHit", "DoSkill"],
          "canSteer": true
        },
        "MeleeAttack01_BS02": {
          "$type": "NEDIFAKEGCO",
          "animatorStates": {
            "MeleeAttack01_BS02": []
          },
          "addEndure": 0.20000000298023224,
          "resetAnimatorTriggerOnExit": ["BeHit", "DoSkill"],
          "canSteer": true
        },
        "MeleeAttack01": {
          "$type": "NEDIFAKEGCO",
          "animatorStates": {
            "MeleeAttack01": ["Monster_Ovacua_Common_MeleeAttack_01"]
          },
          "addEndure": 0.20000000298023224,
          "resetAnimatorTriggerOnExit": ["BeHit", "DoSkill"],
          "canSteer": true
        },
        "MeleeAttack02_BS": {
          "$type": "NEDIFAKEGCO",
          "animatorStates": {
            "MeleeAttack02_BS": [
              "Monster_Ovacua_Common_MeleeAttack_02_BS",
              "Audio_Monster_Ovacua_MeleeAttack_02"
            ]
          },
          "addEndure": 0.20000000298023224,
          "resetAnimatorTriggerOnExit": ["BeHit", "DoSkill"],
          "canSteer": true
        },
        "MeleeAttack02_BS02": {
          "$type": "NEDIFAKEGCO",
          "animatorStates": {
            "MeleeAttack02_BS02": []
          },
          "addEndure": 0.20000000298023224,
          "resetAnimatorTriggerOnExit": ["BeHit", "DoSkill"],
          "canSteer": true
        },
        "MeleeAttack02": {
          "$type": "NEDIFAKEGCO",
          "animatorStates": {
            "MeleeAttack02": ["Monster_Ovacua_Common_MeleeAttack_02"]
          },
          "addEndure": 0.20000000298023224,
          "resetAnimatorTriggerOnExit": ["BeHit", "DoSkill"],
          "canSteer": true
        },
        "MeleeAttack03_BS": {
          "$type": "NEDIFAKEGCO",
          "animatorStates": {
            "MeleeAttack03_BS": [
              "Monster_Ovacua_Common_MeleeAttack_03_BS",
              "Audio_Monster_Ovacua_MeleeAttack_03"
            ]
          },
          "addEndure": 0.20000000298023224,
          "resetAnimatorTriggerOnExit": ["BeHit", "DoSkill"],
          "canSteer": true
        },
        "MeleeAttack03_BS02": {
          "$type": "NEDIFAKEGCO",
          "animatorStates": {
            "MeleeAttack03_BS02": []
          },
          "addEndure": 0.20000000298023224,
          "resetAnimatorTriggerOnExit": ["BeHit", "DoSkill"],
          "canSteer": true
        },
        "MeleeAttack03": {
          "$type": "NEDIFAKEGCO",
          "animatorStates": {
            "MeleeAttack03": ["Monster_Ovacua_Common_MeleeAttack_03"]
          },
          "addEndure": 0.20000000298023224,
          "resetAnimatorTriggerOnExit": ["BeHit", "DoSkill"],
          "canSteer": true
        },
        "Shoot01": {
          "$type": "NEDIFAKEGCO",
          "animatorStates": {
            "Shoot01": [
              "Monster_Ovacua_Common_Shoot01_Big",
              "Audio_Monster_Ovacua_Shoot"
            ]
          },
          "addEndure": 0.20000000298023224,
          "resetAnimatorTriggerOnExit": ["BeHit", "DoSkill"],
          "canSteer": true
        },
        "Chaos_HeavyShoot": {
          "$type": "NEDIFAKEGCO",
          "animatorStates": {
            "Chaos_HeavyShoot": [
              "Monster_Ovacua_Order_01_HeavyShoot01",
              "Audio_Monster_Ovacua_HeavyShoot"
            ]
          },
          "addEndure": 0.20000000298023224,
          "resetAnimatorTriggerOnExit": ["BeHit", "DoSkill"],
          "canSteer": true
        },
        "Chaos_Growth": {
          "$type": "NEDIFAKEGCO",
          "animatorStates": {
            "Chaos_Growth_BS": [
              "Monster_Ovacua_Chaos_01_Growth_BS",
              "Audio_Monster_Ovacua_Chaos_Growth_BS"
            ],
            "Chaos_Growth_Loop": [
              "Monster_Ovacua_Chaos_01_Growth_Loop",
              "Audio_Monster_Ovacua_Chaos_Growth_Loop"
            ],
            "Chaos_Growth_AS": [
              "Monster_Ovacua_Chaos_01_Growth_AS",
              "Audio_Monster_Ovacua_Chaos_Growth_AS"
            ]
          },
          "addEndure": 0.0,
          "resetAnimatorTriggerOnExit": ["BeHit", "DoSkill"],
          "canSteer": true
        },
        "Growth_Break": {
          "$type": "NEDIFAKEGCO",
          "animatorStates": {
            "Growth_Break": [
              "Monster_Ovacua_Chaos_01_Growth_Break",
              "Audio_Monster_Ovacua_Chaos_Growth_Break",
              "Monster_Ovacua_Common_Growth_Faint_BS"
            ]
          },
          "addEndure": 0.0,
          "resetAnimatorTriggerOnExit": ["BeHit", "DoSkill"],
          "canSteer": true
        },
        "Growth_Faint_AS": {
          "$type": "NEDIFAKEGCO",
          "animatorStates": {
            "Growth_Faint_AS": [
              "Monster_Ovacua_Chaos_01_Growth_Faint_AS",
              "Audio_Monster_Ovacua_Growth_Faint_AS"
            ]
          },
          "addEndure": 0.0,
          "resetAnimatorTriggerOnExit": ["BeHit", "DoSkill"],
          "canSteer": true
        },
        "ReturnToBorn": {
          "$type": "NEDIFAKEGCO",
          "animatorStates": {
            "ReturnToBorn_BS": [
              "Monster_Ovacua_Common_01_ReturnToBorn_BS",
              "Monster_Ovacua_Chaos_ClearGrowthState",
              "Audio_Monster_Ovacua_ReturnToBorn_BS"
            ],
            "ReturnToBorn_Loop": ["Monster_Ovacua_Chaos_ClearGrowthState"],
            "ReturnToBorn_AS": [
              "Monster_Ovacua_Common_01_ReturnToBorn_AS",
              "Monster_Ovacua_Chaos_ClearGrowthState",
              "Audio_Monster_Ovacua_ReturnToBorn_AS"
            ]
          },
          "cullingModelAlwaysAnimate": true,
          "resetAnimatorTriggerOnExit": ["BeHit", "DoSkill"]
        }
      }
    }
  },
  "billboard": {
    "$type": "DNGNMAJBCNP",
    "attachPoint": "BillboardAttach",
    "offset": {
      "y": 1.2000000476837158
    },
    "radiusOffset": 1.0,
    "enableSelfAdapt": true,
    "showHPBar": true,
    "size": "Big"
  },
  "initialPoses": {
    "Default": {
      "initialPoseID": 101
    }
  },
  "aibeta": {
    "enable": true,
    "moveSetting": {
      "navMeshAgentName": "Undead01"
    },
    "sensing": {
      "settings": {
        "DefaultSetting": {
          "viewRange": 22.0,
          "feelRange": 8.75
        }
      },
      "templates": {
        "DefaultTemplate": {
          "DefaultPoses": "DefaultSetting"
        }
      }
    },
    "threat": {
      "GHIJMOKOLMB": "",
      "clearThreatTargetDistance": 30.0,
      "clearThreatEdgeDistance": 5.0,
      "clearThreatByTargetOutOfZone": true,
      "clearThreatTimerByDistance": 2.0,
      "viewAttenuation": [
        {
          "x": 12.0,
          "y": 1.0
        },
        {
          "x": 20.0,
          "y": 0.5
        }
      ]
    },
    "defendArea": {
      "defendRange": 50.0
    },
    "skillSetting": {
      "skillEliteSet": {
        "1": [402],
        "2": [403]
      }
    },
    "skills": {
      "100": {
        "name": "OnAlert",
        "skillType": "OnAlert",
        "castCondition": {
          "pose": [100]
        },
        "publicCDGroup": "",
        "triggerGCD": false,
        "HHAGODJIAPE": "",
        "stateIDs": ["Warning"],
        "skillQueryingTime": 4.0,
        "flagTargetReachable": "10",
        "flagSelfOnTemplateCollider": "01",
        "flagSelfInZone": "10",
        "flagTargetInZone": "11"
      },
      "12": {
        "name": "IdleFree01",
        "skillType": "Free",
        "castCondition": {
          "pose": [100]
        },
        "cd": 15.0,
        "initialCD": 15.0,
        "publicCDGroup": "",
        "triggerGCD": false,
        "HHAGODJIAPE": "",
        "stateIDs": ["IdleFree01"],
        "skillQueryingTime": 3.0,
        "flagTargetReachable": "10",
        "flagSelfOnTemplateCollider": "01",
        "flagSelfInZone": "10",
        "flagTargetInZone": "11"
      },
      "101": {
        "name": "MeleeAttack01",
        "combatSkillType": "MeleeAttack",
        "castCondition": {
          "pose": [101],
          "pickRangeMax": 8.0
        },
        "cd": 5.0,
        "initialCD": 5.0,
        "publicCDGroup": "",
        "HHAGODJIAPE": "",
        "stateIDs": [
          "MeleeAttack01_BS",
          "MeleeAttack01_BS02",
          "MeleeAttack01",
          "MeleeAttack02_BS",
          "MeleeAttack02_BS02",
          "MeleeAttack02",
          "MeleeAttack03_BS",
          "MeleeAttack03_BS02",
          "MeleeAttack03"
        ],
        "flagTargetReachable": "10",
        "flagSelfOnTemplateCollider": "01",
        "flagSelfInZone": "11",
        "flagTargetInZone": "11"
      },
      "201": {
        "name": "Shoot01",
        "combatSkillType": "RangedAttack",
        "castCondition": {
          "pose": [101],
          "pickRangeMax": 16.0
        },
        "cd": 5.0,
        "initialCD": 5.0,
        "publicCDGroup": "",
        "HHAGODJIAPE": "",
        "stateIDs": ["Shoot01"],
        "flagTargetReachable": "11",
        "flagSelfOnTemplateCollider": "01",
        "flagSelfInZone": "11",
        "flagTargetInZone": "11"
      },
      "301": {
        "name": "Chaos_HeavyShoot",
        "combatSkillType": "RangedAttack",
        "castCondition": {
          "pose": [101],
          "pickRangeMax": 16.0
        },
        "cd": 10.0,
        "initialCD": 10.0,
        "publicCDGroup": "",
        "HHAGODJIAPE": "",
        "stateIDs": ["Chaos_HeavyShoot"],
        "flagTargetReachable": "11",
        "flagSelfOnTemplateCollider": "01",
        "flagSelfInZone": "11",
        "flagTargetInZone": "11"
      },
      "402": {
        "name": "Chaos_Growth",
        "combatSkillType": "RangedAttack",
        "castCondition": {
          "pose": [101],
          "needReInitCD": true,
          "pickRangeMax": 16.0
        },
        "cd": 35.0,
        "initialCD": 10.0,
        "publicCDGroup": "Ovacua_Growth",
        "HHAGODJIAPE": "",
        "stateIDs": ["Chaos_Growth"],
        "flagTargetReachable": "11",
        "flagSelfOnTemplateCollider": "01",
        "flagSelfInZone": "11",
        "flagTargetInZone": "11"
      },
      "403": {
        "name": "Chaos_Growth",
        "priority": 1,
        "castCondition": {
          "pose": [101],
          "needReInitCD": true,
          "pickRangeMax": 16.0
        },
        "cd": 35.0,
        "publicCDGroup": "",
        "HHAGODJIAPE": "",
        "stateIDs": ["Chaos_Growth"],
        "flagTargetReachable": "11",
        "flagSelfOnTemplateCollider": "01",
        "flagSelfInZone": "11",
        "flagTargetInZone": "11"
      },
      "421": {
        "name": "Growth_Faint_AS",
        "priority": 1,
        "castCondition": {
          "pose": [102],
          "needReInitCD": true
        },
        "initialCD": 15.0,
        "publicCDGroup": "",
        "HHAGODJIAPE": "",
        "stateIDs": ["Growth_Faint_AS"],
        "skillQueryingTime": 4.0,
        "flagTargetReachable": "11",
        "flagSelfOnTemplateCollider": "11",
        "flagSelfInZone": "11",
        "flagTargetInZone": "11"
      }
    },
    "skillGCD": 3.5,
    "birdCirclingTactic": [
      {
        "$type": "EPHBMLFODKF",
        "enable": true,
        "condition": {
          "pose": [101]
        },
        "JMCOBEPDIGM": {
          "rangeMin": 8.0,
          "rangeMax": 12.0,
          "JOJBOHEDBHC": 0.0,
          "AFILKAGDAHN": 0.0,
          "BFJBDDIIFOI": {
            "LLICGJHIGME": 0.0,
            "IDEFILBHNAP": 0.0,
            "IBLIPJPNOGC": 0.0,
            "AEBLMKFNCDG": 0.5,
            "IGLIBIOEGBB": 0.5
          },
          "NAOBMNGDKHL": "1111",
          "JCNIJOAIGII": "1111",
          "MNPDDAKDHGK": ""
        }
      },
      {
        "$type": "MCDGOJLCMBM",
        "enable": true,
        "JMCOBEPDIGM": {
          "DMGAHPPFMPK": 1.0,
          "FLENLLDBFGP": 1.0,
          "MNPDDAKDHGK": "",
          "GJDMDHIBCME": ""
        }
      },
      {
        "$type": "KACCHOLJDNK",
        "enable": true,
        "condition": {
          "pose": [101]
        },
        "JMCOBEPDIGM": {
          "ANLAAGAMIKF": 1,
          "NBENNEKDIIA": 0.10000000149011612,
          "KHDFDAAAPEI": 16.0,
          "HKJODDGJPHA": 50.0,
          "GGEBMFHFBPO": 10.0,
          "KFFGCIMPNMJ": 12.0,
          "MNPDDAKDHGK": ""
        }
      },
      {
        "$type": "NNJKLGNPMNN",
        "enable": true
      }
    ]
  },
  "inputKeys": [
    {
      "keyID": 100,
      "inputKeyCode": 257,
      "abilityName": ""
    },
    {
      "keyID": 12,
      "inputKeyCode": 258,
      "abilityName": ""
    },
    {
      "keyID": 101,
      "inputKeyCode": 259,
      "abilityName": ""
    },
    {
      "keyID": 201,
      "inputKeyCode": 260,
      "abilityName": ""
    },
    {
      "keyID": 301,
      "inputKeyCode": 261,
      "abilityName": ""
    },
    {
      "keyID": 302,
      "inputKeyCode": 262,
      "abilityName": ""
    },
    {
      "keyID": 401,
      "inputKeyCode": 263,
      "abilityName": ""
    },
    {
      "keyID": 402,
      "inputKeyCode": 264,
      "abilityName": ""
    },
    {
      "keyID": 901,
      "inputKeyCode": 265,
      "abilityName": ""
    },
    {
      "keyID": 902,
      "inputKeyCode": 266,
      "abilityName": ""
    }
  ],
  "move": {
    "$type": "IPNMJMHDMPF",
    "handleCombatTaskImmediately": true,
    "moveOnWater": true,
    "facingMove": "FourDirection",
    "airFacingMove": "AirBlend3D",
    "monsterSizeType": "SlimeType",
    "PKHOMJHFAEE": "RootNode"
  },
  "audio": {
    "overrideEmitterName": "",
    "animAudio": {
      "onTransitionIn": [
        {
          "currentStateName": "Standby",
          "audioEvent": {
            "text": "Play_Sfx_Monster_Ovacua_Standby_Chaos_LP"
          },
          "otherStateNames": [
            "Standby",
            "WalkForward",
            "WalkBack",
            "WalkLeft",
            "WalkRight"
          ],
          "usage": "Except"
        },
        {
          "currentStateName": "Faint",
          "audioEvent": {
            "text": "Play_Sfx_Monster_Ovacua_Chaos_Growth_Faint_LP"
          },
          "otherStateNames": ["Faint"],
          "usage": "Except"
        },
        {
          "currentStateName": "WalkForward",
          "audioEvent": {
            "text": "Play_Sfx_Monster_Ovacua_Standby_Chaos_LP"
          },
          "otherStateNames": [
            "Standby",
            "WalkForward",
            "WalkBack",
            "WalkLeft",
            "WalkRight"
          ],
          "usage": "Except"
        },
        {
          "currentStateName": "WalkBack",
          "audioEvent": {
            "text": "Play_Sfx_Monster_Ovacua_Standby_Chaos_LP"
          },
          "otherStateNames": [
            "Standby",
            "WalkForward",
            "WalkBack",
            "WalkLeft",
            "WalkRight"
          ],
          "usage": "Except"
        },
        {
          "currentStateName": "WalkLeft",
          "audioEvent": {
            "text": "Play_Sfx_Monster_Ovacua_Standby_Chaos_LP"
          },
          "otherStateNames": [
            "Standby",
            "WalkForward",
            "WalkBack",
            "WalkLeft",
            "WalkRight"
          ],
          "usage": "Except"
        },
        {
          "currentStateName": "WalkRight",
          "audioEvent": {
            "text": "Play_Sfx_Monster_Ovacua_Standby_Chaos_LP"
          },
          "otherStateNames": [
            "Standby",
            "WalkForward",
            "WalkBack",
            "WalkLeft",
            "WalkRight"
          ],
          "usage": "Except"
        }
      ],
      "onTransitionOut": [
        {
          "currentStateName": "Standby",
          "audioEvent": {
            "text": "Stop_Sfx_Monster_Ovacua_Standby_Chaos_LP"
          },
          "otherStateNames": [
            "Standby",
            "WalkForward",
            "WalkBack",
            "WalkLeft",
            "WalkRight"
          ],
          "usage": "Except"
        },
        {
          "currentStateName": "Faint",
          "audioEvent": {
            "text": "Stop_Sfx_Monster_Ovacua_Chaos_Growth_Faint_LP"
          },
          "otherStateNames": ["Faint"],
          "usage": "Except"
        },
        {
          "currentStateName": "WalkForward",
          "audioEvent": {
            "text": "Stop_Sfx_Monster_Ovacua_Standby_Chaos_LP"
          },
          "otherStateNames": [
            "Standby",
            "WalkForward",
            "WalkBack",
            "WalkLeft",
            "WalkRight"
          ],
          "usage": "Except"
        },
        {
          "currentStateName": "WalkBack",
          "audioEvent": {
            "text": "Stop_Sfx_Monster_Ovacua_Standby_Chaos_LP"
          },
          "otherStateNames": [
            "Standby",
            "WalkForward",
            "WalkBack",
            "WalkLeft",
            "WalkRight"
          ],
          "usage": "Except"
        },
        {
          "currentStateName": "WalkLeft",
          "audioEvent": {
            "text": "Stop_Sfx_Monster_Ovacua_Standby_Chaos_LP"
          },
          "otherStateNames": [
            "Standby",
            "WalkForward",
            "WalkBack",
            "WalkLeft",
            "WalkRight"
          ],
          "usage": "Except"
        },
        {
          "currentStateName": "WalkRight",
          "audioEvent": {
            "text": "Stop_Sfx_Monster_Ovacua_Standby_Chaos_LP"
          },
          "otherStateNames": [
            "Standby",
            "WalkForward",
            "WalkBack",
            "WalkLeft",
            "WalkRight"
          ],
          "usage": "Except"
        }
      ]
    }
  }
}
