{
  "common": {
    "effectAttachShape": {
      "$type": "FJNPJANPGGC",
      "mesh": "EffectMesh"
    },
    "mass": 40.0,
    "height": 1.399999976158142,
    "viewSize": 1.100000023841858,
    "scale": 1.2000000476837158,
    "reconnectSupport": true,
    "recoverByInitPose": true
  },
  "model": {
    "bornEffect": "",
    "attachEffect": "",
    "BKPFGNPLDNJ": ""
  },
  "dither": {
    "showDitherDuration": 2.0
  },
  "combat": {
    "property": {
      "endureType": "Monster_Slime",
      "weight": 60.0
    },
    "beHit": {
      "hitBloodEffect": ""
    },
    "combatLock": {
      "lockShape": "CircleLockEnemy",
      "lockType": "Avatar&Monster_Lv4"
    },
    "die": {
      "hasAnimatorDie": true,
      "fallWhenAirDie": false,
      "dieEndTime": 2.0,
      "dieForceDisappearTime": 3.0,
      "dieDisappearEffect": "Eff_Death_InWater_Common",
      "dieDisappearEffectDelay": 0.11999999731779099,
      "dieShaderData": "MonsterDieInWater",
      "dieShaderEnableDurationTime": 0.800000011920929,
      "dieModelFadeDelay": 0.30000001192092896,
      "muteHitBox": true,
      "dieDenyLockOn": true,
      "dieIsGhostToEnemy": true,
      "dieIgnoreTriggerBullet": true,
      "muteBillboard": true,
      "mutePushCollider": true
    },
    "animEvents": {
      "NormalAttack": {
        "attackPattern": {
          "$type": "ConfigAttackCircle",
          "triggerType": "TriggerNoRepeat",
          "born": {
            "$type": "ConfigBornBySelf",
            "offset": {
              "x": 0.0,
              "y": -0.8999999761581421,
              "z": 0.0
            }
          },
          "height": 2.799999952316284,
          "fanAngle": 160.0,
          "radius": 2.75
        },
        "attackInfo": {
          "attackTag": "",
          "attenuationTag": "",
          "attenuationGroup": "default",
          "attackProperty": {
            "actorGrassSubHurtDelta": 1.0,
            "actorWindSubHurtDelta": 0.0,
            "elementDurability": 100.0,
            "strikeType": "Blunt",
            "enBreak": 50.0,
            "GLKMCMDJBIK": 0.0
          },
          "hitPattern": {
            "onHitEffectName": "default",
            "hitImpulseY": "",
            "hitImpulseType": "LV1"
          },
          "cameraShake": {
            "shakeRange": 1.0,
            "shakeTime": 0.15000000596046448,
            "shakeDistance": 15.0
          }
        }
      },
      "AE_EnergyPhase_1": {
        "attackPattern": {
          "$type": "ConfigAttackBox",
          "triggerType": "TriggerNoRepeat",
          "born": {
            "$type": "ConfigBornBySelf",
            "offset": {
              "y": 0.6000000238418579
            }
          },
          "size": {
            "x": 0.4699999988079071,
            "y": 0.4699999988079071,
            "z": 4.0
          }
        },
        "attackInfo": {
          "attackTag": "",
          "attenuationTag": "Octopus_EnergyPhase",
          "attenuationGroup": "Sandworm_Stage02_TailVerticalShootBullet",
          "attackProperty": {
            "actorGrassSubHurtDelta": 0.8600000143051147,
            "actorWindSubHurtDelta": 0.0,
            "elementType": "Water",
            "elementDurability": 25.0,
            "strikeType": "Default",
            "enBreak": 50.0,
            "attackType": "Range",
            "GLKMCMDJBIK": 0.0
          },
          "hitPattern": {
            "onHitEffectName": "default",
            "hitImpulseY": "",
            "hitImpulseType": "LV1"
          }
        }
      },
      "AE_EnergyPhase_2": {
        "attackPattern": {
          "$type": "ConfigAttackBox",
          "triggerType": "TriggerNoRepeat",
          "born": {
            "$type": "ConfigBornBySelf",
            "offset": {
              "y": 0.6000000238418579
            }
          },
          "size": {
            "x": 0.4699999988079071,
            "y": 0.4699999988079071,
            "z": 8.0
          }
        },
        "attackInfo": {
          "attackTag": "",
          "attenuationTag": "Octopus_EnergyPhase",
          "attenuationGroup": "Sandworm_Stage02_TailVerticalShootBullet",
          "attackProperty": {
            "actorGrassSubHurtDelta": 0.8600000143051147,
            "actorWindSubHurtDelta": 0.0,
            "elementType": "Water",
            "elementDurability": 25.0,
            "strikeType": "Default",
            "enBreak": 50.0,
            "attackType": "Range",
            "GLKMCMDJBIK": 0.0
          },
          "hitPattern": {
            "onHitEffectName": "default",
            "hitImpulseY": "",
            "hitImpulseType": "LV1"
          }
        }
      },
      "AE_EnergyPhase_3": {
        "attackPattern": {
          "$type": "ConfigAttackBox",
          "triggerType": "TriggerNoRepeat",
          "born": {
            "$type": "ConfigBornBySelf",
            "offset": {
              "y": 0.6000000238418579
            }
          },
          "size": {
            "x": 0.4699999988079071,
            "y": 0.4699999988079071,
            "z": 12.0
          }
        },
        "attackInfo": {
          "attackTag": "",
          "attenuationTag": "Octopus_EnergyPhase",
          "attenuationGroup": "Sandworm_Stage02_TailVerticalShootBullet",
          "attackProperty": {
            "actorGrassSubHurtDelta": 0.8600000143051147,
            "actorWindSubHurtDelta": 0.0,
            "elementType": "Water",
            "elementDurability": 25.0,
            "strikeType": "Default",
            "enBreak": 50.0,
            "attackType": "Range",
            "GLKMCMDJBIK": 0.0
          },
          "hitPattern": {
            "onHitEffectName": "default",
            "hitImpulseY": "",
            "hitImpulseType": "LV1"
          }
        }
      },
      "AE_EnergyPhase_4": {
        "attackPattern": {
          "$type": "ConfigAttackBox",
          "triggerType": "TriggerNoRepeat",
          "born": {
            "$type": "ConfigBornBySelf",
            "offset": {
              "y": 0.6000000238418579
            }
          },
          "size": {
            "x": 0.4699999988079071,
            "y": 0.4699999988079071,
            "z": 15.199999809265137
          }
        },
        "attackInfo": {
          "attackTag": "",
          "attenuationTag": "Octopus_EnergyPhase",
          "attenuationGroup": "Sandworm_Stage02_TailVerticalShootBullet",
          "attackProperty": {
            "actorGrassSubHurtDelta": 0.8600000143051147,
            "actorWindSubHurtDelta": 0.0,
            "elementType": "Water",
            "elementDurability": 25.0,
            "strikeType": "Default",
            "enBreak": 50.0,
            "attackType": "Range",
            "GLKMCMDJBIK": 0.0
          },
          "hitPattern": {
            "onHitEffectName": "default",
            "hitImpulseY": "",
            "hitImpulseType": "LV1"
          }
        }
      }
    }
  },
  "abilities": [
    {
      "abilityID": "",
      "abilityName": "FauneAbyssale_Universal_UnderwaterSettings",
      "abilityOverride": ""
    },
    {
      "abilityID": "",
      "abilityName": "FauneAbyssale_Octopus_AttackSteer",
      "abilityOverride": ""
    },
    {
      "abilityID": "",
      "abilityName": "FauneAbyssale_ResetPoseParam",
      "abilityOverride": ""
    }
  ],
  "stateLayers": {
    "defaultLayer": {
      "$type": "GBGJJIIEMBD",
      "layerIndexName": "",
      "CPAANEIJCGD": "",
      "stateIDs": {
        "Born": {
          "$type": "NEDIFAKEGCO",
          "animatorStates": {
            "Born": []
          },
          "canDoSkill": true,
          "resetAnimatorTriggerOnExit": ["DoSkill"]
        },
        "NormalIdle": {
          "$type": "NEDIFAKEGCO",
          "animatorStates": {
            "Standby": []
          },
          "canDoSkill": true,
          "canSyncMove": true,
          "resetAnimatorTriggerOnExit": ["DoSkill"]
        },
        "NormalFly": {
          "$type": "NEDIFAKEGCO",
          "animatorStates": {
            "Walk": []
          },
          "canDoSkill": true,
          "canSyncMove": true,
          "resetAnimatorTriggerOnExit": ["DoSkill"],
          "setAnimatorFloat": [
            {
              "name": "FlyMotionHor",
              "normalizeEnd": 0.0
            },
            {
              "name": "FlyMotionVer",
              "normalizeEnd": 0.0
            }
          ],
          "canSteer": true
        },
        "BeHit": {
          "$type": "NEDIFAKEGCO",
          "animatorStates": {
            "Hit_H": ["Audio_Monster_FauneAbyssale_Octopus_Larva_01_Hit_H"]
          },
          "resetAnimatorTriggerOnEnter": ["BeHit"],
          "airMoveFollowAnimation": true
        },
        "BeAbsorb": {
          "$type": "NEDIFAKEGCO",
          "animatorStates": {
            "BeAbsorb": []
          },
          "resetAnimatorTriggerOnEnter": ["BeHit", "BeAbsorbed"],
          "airMoveFollowAnimation": true
        },
        "Die": {
          "$type": "NEDIFAKEGCO",
          "animatorStates": {
            "Die": [
              "FauneAbyssale_Octopus_Larva_Die",
              "Audio_Monster_FauneAbyssale_Octopus_Larva_01_Die"
            ]
          },
          "resetAnimatorTriggerOnEnter": ["BeHit", "DoSkill"]
        },
        "Alert": {
          "$type": "NEDIFAKEGCO",
          "animatorStates": {
            "Alert": [
              "FauneAbyssale_Common_Alert",
              "Audio_Monster_FauneAbyssale_Octopus_Larva_01_Alert"
            ]
          },
          "resetAnimatorTriggerOnExit": ["BeHit", "DoSkill"]
        },
        "NormalAttack": {
          "$type": "NEDIFAKEGCO",
          "animatorStates": {
            "NormalAttack": [
              "FauneAbyssale_Octopus_Larva_NormalAttack",
              "Audio_Monster_FauneAbyssale_Octopus_Larva_01_NormalAttack"
            ]
          },
          "resetAnimatorTriggerOnExit": ["DoSkill"]
        },
        "FireEnergy": {
          "$type": "NEDIFAKEGCO",
          "animatorStates": {
            "FireEnergy": [
              "FauneAbyssale_Octopus_Larva_FireEnergy",
              "Audio_Monster_FauneAbyssale_Octopus_Larva_01_FireEnergy"
            ],
            "FireEnergy_AS": [
              "Audio_Monster_FauneAbyssale_Octopus_Larva_01_FireEnergy_AS"
            ]
          },
          "resetAnimatorTriggerOnExit": ["DoSkill"]
        },
        "Taunt01": {
          "$type": "NEDIFAKEGCO",
          "animatorStates": {
            "Taunt01": ["Audio_Monster_FauneAbyssale_Octopus_Larva_01_Taunt01"]
          },
          "canDoSkill": true,
          "resetAnimatorTriggerOnExit": ["DoSkill"]
        },
        "Taunt02": {
          "$type": "NEDIFAKEGCO",
          "animatorStates": {
            "Taunt02": ["Audio_Monster_FauneAbyssale_Octopus_Larva_01_Taunt02"]
          },
          "resetAnimatorTriggerOnExit": ["DoSkill"]
        },
        "Turn": {
          "$type": "NEDIFAKEGCO",
          "animatorStates": {
            "Turn": ["Audio_Monster_FauneAbyssale_Octopus_Larva_01_Turn"]
          },
          "resetAnimatorTriggerOnExit": ["DoSkill"]
        },
        "Dancing": {
          "$type": "NEDIFAKEGCO",
          "animatorStates": {
            "Dancing": ["Audio_Monster_FauneAbyssale_Octopus_Larva_01_Dancing"]
          },
          "canDoSkill": true,
          "canSyncMove": true,
          "forceSetAirMove": true,
          "airMoveFollowAnimation": true
        },
        "Sleep": {
          "$type": "NEDIFAKEGCO",
          "animatorStates": {
            "Sleep_BS": [
              "Audio_Monster_FauneAbyssale_Octopus_Larva_01_Sleep_BS"
            ],
            "Sleep_Loop": [],
            "Sleep_AS": [
              "Audio_Monster_FauneAbyssale_Octopus_Larva_01_Sleep_AS"
            ]
          },
          "canDoSkill": true,
          "canSyncMove": true
        },
        "Enjoy": {
          "$type": "NEDIFAKEGCO",
          "animatorStates": {
            "Enjoy": ["Audio_Monster_FauneAbyssale_Octopus_Larva_01_Enjoy"]
          },
          "canDoSkill": true,
          "resetAnimatorTriggerOnExit": ["DoSkill"]
        }
      }
    }
  },
  "billboard": {
    "$type": "DNGNMAJBCNP",
    "attachPoint": "BillboardAttach",
    "offset": {
      "y": -0.30000001192092896
    },
    "offsetType": "Character",
    "radiusOffset": 0.4000000059604645,
    "enableSelfAdapt": true,
    "showHPBar": true,
    "forceShowDistance": 15.0
  },
  "initialPoses": {
    "Default": {
      "initialPoseParams": {
        "intParams": {
          "FreePoseMark": "1"
        },
        "boolParams": {
          "DisableWhenReturnToBorn": "false"
        }
      }
    },
    "MuteAll": {
      "initialPoseID": 2,
      "initialPoseParams": {
        "intParams": {
          "FreePoseMark": "2"
        },
        "boolParams": {
          "DisableWhenReturnToBorn": "false"
        }
      }
    },
    "FreeSleeping": {
      "initialPoseID": 1000,
      "initialPoseParams": {
        "intParams": {
          "FreePoseMark": "1001"
        },
        "boolParams": {
          "DynamicSleep": "true",
          "DisableWhenReturnToBorn": "true"
        }
      }
    },
    "AlwaysSleeping": {
      "initialPoseID": 1001,
      "initialPoseParams": {
        "intParams": {
          "FreePoseMark": "1001"
        },
        "boolParams": {
          "DynamicSleep": "false",
          "DisableWhenReturnToBorn": "true"
        }
      }
    },
    "Dancing": {
      "initialPoseID": 1002,
      "initialPoseParams": {
        "intParams": {
          "FreePoseMark": "1002"
        },
        "boolParams": {
          "DisableWhenReturnToBorn": "true"
        }
      }
    }
  },
  "aibeta": {
    "enable": true,
    "moveSetting": {
      "moveCategory": "Dive",
      "useNavMesh": false,
      "useToTheMoon": true,
      "navMeshAgentName": "Undead01"
    },
    "sensing": {
      "settings": {
        "DefaultSetting": {
          "viewRange": 25.0,
          "horizontalFov": 150.0,
          "verticalFov": 100.0,
          "hearAttractionRange": 5.0,
          "feelRange": 0.0
        },
        "NeverCombat": {
          "enableVision": false,
          "hearAttractionRange": 0.0,
          "feelRange": 0.0
        },
        "NormalAlert": {
          "viewPanoramic": true,
          "hearAttractionRange": 5.0,
          "feelRange": 17.5
        }
      },
      "templates": {
        "DefaultTemplate": {
          "DefaultPoses": "DefaultSetting",
          "101": "NormalAlert",
          "1001": "NeverCombat"
        },
        "NeverCombatTemplate": {
          "DefaultPoses": "NeverCombat",
          "101": "NormalAlert"
        },
        "NormalAlertTemplate": {
          "DefaultPoses": "NormalAlert",
          "101": "NormalAlert",
          "1001": "DefaultSetting"
        }
      }
    },
    "neurons": {
      "DefaultSetting": ["HIT"],
      "NeverCombat": []
    },
    "threat": {
      "GHIJMOKOLMB": "",
      "clearThreatTargetDistance": 25.0,
      "viewThreatGrow": 25.0,
      "feelThreatGrow": 150.0,
      "threatDecreaseSpeed": 45.0,
      "threatBroadcastRange": 8.0,
      "viewAttenuation": [
        {
          "x": 4.5,
          "y": 1.0
        },
        {
          "x": 8.0,
          "y": 0.5
        },
        {
          "x": 15.0,
          "y": 0.20000000298023224
        },
        {
          "x": 22.5,
          "y": 0.10000000149011612
        }
      ]
    },
    "defendArea": {
      "defendRange": 120.0
    },
    "fly": {
      "enable": true,
      "IPJLPEHKCJA": [0, 1, 2, 101, 901, 1001, 1002]
    },
    "poseControl": {
      "items": [
        {
          "minTime": 40.0,
          "maxTime": 80.0,
          "poseID": 1,
          "randomPose": [1001],
          "switchOnlyInCanDoSkillState": true
        },
        {
          "minTime": 40.0,
          "maxTime": 80.0,
          "poseID": 1001,
          "randomPose": [1],
          "switchOnlyInCanDoSkillState": true
        }
      ]
    },
    "skillGroupCDConfigs": [
      {
        "skillGroupCDID": 1,
        "skillGroupCDTime": 13.5
      }
    ],
    "skills": {
      "101": {
        "name": "Alert",
        "skillType": "OnAlert",
        "faceTarget": true,
        "publicCDGroup": "",
        "ignoreGCD": true,
        "HHAGODJIAPE": "",
        "stateIDs": ["Alert"],
        "skillQueryingTime": 3.0,
        "flagTargetReachable": "10",
        "flagSelfOnTemplateCollider": "01",
        "flagSelfInZone": "10",
        "flagTargetInZone": "11"
      },
      "201": {
        "name": "NormalAttack",
        "priority": 2,
        "castCondition": {
          "pose": [101],
          "BNLDGHLANLI": [2],
          "maxTargetAngleXZ": 90.0,
          "maxTargetAngleY": 30.0,
          "pickRangeMax": 5.0,
          "pickRangeYMax": 3.0
        },
        "cd": 3.0,
        "initialCD": 2.5,
        "publicCDGroup": "",
        "HHAGODJIAPE": "",
        "stateIDs": ["NormalAttack"],
        "flagTargetReachable": "11",
        "flagSelfOnTemplateCollider": "11",
        "flagSelfInZone": "10",
        "flagTargetInZone": "11"
      },
      "202": {
        "name": "NormalAttack_Pity",
        "priority": 4,
        "castCondition": {
          "pose": [101],
          "BNLDGHLANLI": [2],
          "maxTargetAngleXZ": 70.0,
          "pickRangeMax": 9.0
        },
        "cd": 20.0,
        "publicCDGroup": "",
        "HHAGODJIAPE": "",
        "stateIDs": ["NormalAttack"],
        "flagTargetReachable": "11",
        "flagSelfOnTemplateCollider": "11",
        "flagSelfInZone": "10",
        "flagTargetInZone": "11"
      },
      "401": {
        "name": "FireEnergy",
        "priority": 2,
        "castCondition": {
          "pose": [101],
          "BNLDGHLANLI": [2],
          "maxTargetAngleXZ": 90.0,
          "maxTargetAngleY": 30.0,
          "pickRangeMin": 2.5,
          "pickRangeMax": 12.5
        },
        "cd": 4.0,
        "cdUpperRange": 10.0,
        "initialCD": 1.5,
        "initialCDUpperRange": 1.5,
        "publicCDGroup": "",
        "HHAGODJIAPE": "",
        "stateIDs": ["FireEnergy"],
        "flagTargetReachable": "11",
        "flagSelfOnTemplateCollider": "11",
        "flagSelfInZone": "10",
        "flagTargetInZone": "11"
      },
      "901": {
        "name": "Turn",
        "priority": 1,
        "castCondition": {
          "pose": [101],
          "BNLDGHLANLI": [0, 1, 2],
          "minTargetAngleXZ": 70.0,
          "maxTargetAngleXZ": 180.0
        },
        "publicCDGroup": "",
        "ignoreGCD": true,
        "triggerGCD": false,
        "HHAGODJIAPE": "",
        "stateIDs": ["Turn"],
        "flagTargetReachable": "11",
        "flagSelfOnTemplateCollider": "11",
        "flagSelfInZone": "10",
        "flagTargetInZone": "11"
      },
      "902": {
        "name": "Taunt02_Battle",
        "castCondition": {
          "pose": [101],
          "BNLDGHLANLI": [0, 1, 2],
          "pickRangeMax": 15.0
        },
        "cdUpperRange": 15.0,
        "initialCD": 5.0,
        "publicCDGroup": "",
        "skillGroupCDID": 1,
        "HHAGODJIAPE": "",
        "stateIDs": ["Taunt02"],
        "flagTargetReachable": "11",
        "flagSelfOnTemplateCollider": "11",
        "flagSelfInZone": "10",
        "flagTargetInZone": "11"
      },
      "9001": {
        "name": "Enjoy",
        "skillType": "Free",
        "castCondition": {
          "pose": [1]
        },
        "cd": 12.0,
        "cdUpperRange": 15.0,
        "initialCD": 5.0,
        "initialCDUpperRange": 10.0,
        "publicCDGroup": "",
        "skillGroupCDID": 1,
        "HHAGODJIAPE": "",
        "stateIDs": ["Enjoy"],
        "flagTargetReachable": "10",
        "flagSelfOnTemplateCollider": "01",
        "flagSelfInZone": "10",
        "flagTargetInZone": "11"
      },
      "9002": {
        "name": "Taunt01",
        "skillType": "Free",
        "castCondition": {
          "pose": [1]
        },
        "cd": 12.0,
        "cdUpperRange": 15.0,
        "initialCD": 5.0,
        "initialCDUpperRange": 10.0,
        "publicCDGroup": "",
        "skillGroupCDID": 1,
        "HHAGODJIAPE": "",
        "stateIDs": ["Taunt01"],
        "flagTargetReachable": "10",
        "flagSelfOnTemplateCollider": "01",
        "flagSelfInZone": "10",
        "flagTargetInZone": "11"
      },
      "9003": {
        "name": "Taunt02",
        "skillType": "Free",
        "castCondition": {
          "pose": [1]
        },
        "cd": 12.0,
        "cdUpperRange": 15.0,
        "initialCD": 5.0,
        "initialCDUpperRange": 10.0,
        "publicCDGroup": "",
        "skillGroupCDID": 1,
        "HHAGODJIAPE": "",
        "stateIDs": ["Taunt02"],
        "flagTargetReachable": "10",
        "flagSelfOnTemplateCollider": "01",
        "flagSelfInZone": "10",
        "flagTargetInZone": "11"
      }
    },
    "skillGCD": 3.0,
    "birdCirclingTactic": [
      {
        "$type": "NNJKLGNPMNN",
        "enable": true,
        "JMCOBEPDIGM": {
          "ANLAAGAMIKF": 1,
          "ACOBCFCMBOC": "Spacial",
          "MNPDDAKDHGK": "",
          "GJDMDHIBCME": ""
        }
      },
      {
        "$type": "EPPOBBAEPED",
        "enable": true,
        "condition": {
          "pose": [101]
        },
        "JMCOBEPDIGM": {
          "FAKGFIDPCFL": 9.0,
          "GHCEDMEHKLN": 7.0,
          "ONFAMCFCNFM": 0.0,
          "KLODEFMNFIC": 1.5,
          "MNPDDAKDHGK": "",
          "GJDMDHIBCME": ""
        }
      },
      {
        "$type": "MCDGOJLCMBM",
        "enable": true,
        "JMCOBEPDIGM": {
          "ACOBCFCMBOC": "Spacial",
          "MNPDDAKDHGK": "",
          "GJDMDHIBCME": ""
        }
      },
      {
        "$type": "COLLJLNKMLC",
        "enable": true,
        "JMCOBEPDIGM": {
          "ANLAAGAMIKF": 1,
          "MNPDDAKDHGK": "",
          "GJDMDHIBCME": "",
          "ACOBCFCMBOC": "Spacial",
          "PLLHMGHOAPB": "",
          "KPIJNGFNAEF": "",
          "GDPHPLKJGAJ": "",
          "KKKOAABEHEP": ""
        }
      },
      {
        "$type": "MJJFBALNDCH",
        "enable": true,
        "JMCOBEPDIGM": {
          "ANLAAGAMIKF": 1,
          "DDFIKIJKKOE": true,
          "MNPDDAKDHGK": "",
          "GJDMDHIBCME": ""
        }
      }
    ]
  },
  "inputKeys": [
    {
      "keyID": 201,
      "inputKeyCode": 257,
      "abilityName": ""
    },
    {
      "keyID": 401,
      "inputKeyCode": 258,
      "abilityName": ""
    }
  ],
  "move": {
    "$type": "IPNMJMHDMPF",
    "velocityForce": {
      "excludeForces": ["RetreatType", "RetreatAirType"]
    },
    "initWithGroundHitCheckV2": false,
    "OGBEFBMLJJI": true,
    "monsterSizeType": "SlimeType",
    "yawSpeedRatio": 6.0,
    "PKHOMJHFAEE": "RootNode",
    "JNAPCJLHJDO": true
  },
  "audio": {
    "overrideEmitterName": "",
    "animAudio": {
      "onTransitionIn": [
        {
          "currentStateName": "Walk",
          "audioEvent": {
            "text": "Play_Sfx_Monster_FauneAbyssale_Octopus_Larva_01_Walk_LP"
          },
          "otherStateNames": ["Walk"],
          "usage": "Except"
        },
        {
          "currentStateName": "Sleep_Loop",
          "audioEvent": {
            "text": "Play_Sfx_Monster_FauneAbyssale_Octopus_Larva_01_Sleep_Loop_LP"
          },
          "otherStateNames": ["Sleep_Loop"],
          "usage": "Except"
        }
      ],
      "onTransitionOut": [
        {
          "currentStateName": "Walk",
          "audioEvent": {
            "text": "Stop_Sfx_Monster_FauneAbyssale_Octopus_Larva_01_Walk_LP"
          },
          "otherStateNames": ["Walk"],
          "usage": "Except"
        },
        {
          "currentStateName": "Sleep_Loop",
          "audioEvent": {
            "text": "Stop_Sfx_Monster_FauneAbyssale_Octopus_Larva_01_Sleep_Loop_LP"
          },
          "otherStateNames": ["Sleep_Loop"],
          "usage": "Except"
        }
      ]
    }
  }
}
