{
  "common": {
    "effectAttachShape": {
      "$type": "FJNPJANPGGC",
      "mesh": "EffectMesh"
    },
    "mass": 30.0,
    "affectedByWorld": true,
    "checkInSurface": true,
    "scale": 1.2000000476837158,
    "useGrassDisplacement": true
  },
  "headControl": {
    "$type": "KPIPDEBDPIH",
    "useHeadControl": true,
    "animStates": [
      "NormalIdle/Standby",
      "NormalMove/WalkForward",
      "NormalMove/WalkBack",
      "NormalMove/WalkRight",
      "NormalMove/WalkLeft",
      "NormalMove/Run",
      "Turn/TurnLeft",
      "Turn/TurnRight"
    ]
  },
  "model": {
    "bornEffect": "Eff_Monster_Common_Born",
    "attachEffect": "",
    "BKPFGNPLDNJ": ""
  },
  "combat": {
    "property": {
      "endureType": "Monster_Minion",
      "weight": 75.0
    },
    "beHit": {
      "hitBloodEffect": ""
    },
    "combatLock": {
      "lockShape": "CircleLockEnemy",
      "lockType": "Avatar&Monster_Lv4"
    },
    "die": {
      "hasAnimatorDie": true,
      "dieEndTime": 2.0,
      "dieForceDisappearTime": 4.0,
      "dieDisappearEffect": "Eff_Death_Common",
      "dieShaderData": "MonsterDie",
      "useRagDoll": true,
      "muteHitBox": true,
      "dieDenyLockOn": true,
      "dieIsGhostToEnemy": true,
      "dieIgnoreTriggerBullet": true,
      "muteBillboard": true,
      "mutePushCollider": true
    },
    "animEvents": {
      "AtkNo": {
        "attackPattern": {
          "$type": "ConfigAttackCircle",
          "triggerType": "TriggerNoRepeat",
          "born": {
            "$type": "ConfigBornBySelf",
            "offset": {
              "x": 0.0,
              "y": 0.0,
              "z": -0.5
            }
          },
          "fanAngle": 60.0,
          "radius": 1.5
        },
        "attackInfo": {
          "attackTag": "",
          "attenuationTag": "",
          "attenuationGroup": "default",
          "attackProperty": {
            "actorGrassSubHurtDelta": 0.3330000042915344,
            "actorWindSubHurtDelta": 0.0,
            "elementDurability": 100.0,
            "strikeType": "Blunt",
            "attackType": "Melee",
            "GLKMCMDJBIK": 0.0
          },
          "hitPattern": {
            "onHitEffectName": "default",
            "hitImpulseY": "",
            "hitImpulseType": "LV2",
            "hitHaltTimeScale": 0.009999999776482582
          }
        }
      }
    }
  },
  "equipController": {
    "sheathPoint": "",
    "attachPoints": {
      "equip01": "WeaponR",
      "equip02": "WeaponL"
    }
  },
  "abilities": [
    {
      "abilityID": "Alert",
      "abilityName": "Hili_None_Alert",
      "abilityOverride": "",
      "lightWeightRemove": true
    },
    {
      "abilityID": "AwakeAlert",
      "abilityName": "Hili_None_AwakeAlert",
      "abilityOverride": "",
      "lightWeightRemove": true
    },
    {
      "abilityID": "FireArrow",
      "abilityName": "Hili_Electric_ShootArrow_WithRandom",
      "abilityOverride": ""
    },
    {
      "abilityID": "ThrowPebble",
      "abilityName": "Hili_None_ThrowPebble",
      "abilityOverride": ""
    },
    {
      "abilityID": "Hili_None_SpecialsState_Weapon",
      "abilityName": "Hili_None_SpecialsState_Weapon",
      "abilityOverride": "",
      "lightWeightRemove": true
    },
    {
      "abilityID": "SpecialsState_AIStateInitial",
      "abilityName": "Hili_None_SpecialsState_AIStateInitial",
      "abilityOverride": "",
      "lightWeightRemove": true
    },
    {
      "abilityID": "EquipFlagManager",
      "abilityName": "Hili_None_EquipFlagManager",
      "abilityOverride": ""
    },
    {
      "abilityID": "Hili_ActionPointRegister",
      "abilityName": "Hili_None_ActionPointRegister",
      "abilityOverride": "",
      "lightWeightRemove": true
    },
    {
      "abilityID": "TurnToSleep",
      "abilityName": "Hili_None_TurnToSleep",
      "abilityOverride": "",
      "lightWeightRemove": true
    },
    {
      "abilityID": "OutOfSleep",
      "abilityName": "Hili_None_OutOfSleep",
      "abilityOverride": "",
      "lightWeightRemove": true
    },
    {
      "abilityID": "TurnToSit",
      "abilityName": "Hili_None_TurnToSit",
      "abilityOverride": "",
      "lightWeightRemove": true
    },
    {
      "abilityID": "OutOfSit",
      "abilityName": "Hili_None_OutOfSit",
      "abilityOverride": "",
      "lightWeightRemove": true
    },
    {
      "abilityID": "TurnToPractice",
      "abilityName": "Hili_None_TurnToPractice",
      "abilityOverride": "",
      "lightWeightRemove": true
    },
    {
      "abilityID": "OutOfPractice",
      "abilityName": "Hili_None_OutOfPractice",
      "abilityOverride": "",
      "lightWeightRemove": true
    },
    {
      "abilityID": "",
      "abilityName": "Hili_None_SpecialsState_HideWeapon",
      "abilityOverride": "",
      "lightWeightRemove": true
    }
  ],
  "stateLayers": {
    "defaultLayer": {
      "$type": "GBGJJIIEMBD",
      "layerIndexName": "",
      "CPAANEIJCGD": "",
      "stateIDs": {
        "NormalIdle": {
          "$type": "NEDIFAKEGCO",
          "animatorStates": {
            "Standby": [],
            "Born": []
          },
          "canDoSkill": true,
          "canSyncMove": true,
          "resetAnimatorTriggerOnExit": ["DoSkill"]
        },
        "NormalMove": {
          "$type": "NEDIFAKEGCO",
          "animatorStates": {
            "WalkForward": ["Audio_Hili_Walk"],
            "WalkBack": ["Audio_Hili_Walk"],
            "WalkRight": ["Audio_Hili_Walk"],
            "WalkLeft": ["Audio_Hili_Walk"],
            "Run": ["Audio_Hili_Run"]
          },
          "canDoSkill": true,
          "canSyncMove": true,
          "resetAnimatorTriggerOnExit": ["DoSkill"],
          "canSteer": true
        },
        "Turn": {
          "$type": "NEDIFAKEGCO",
          "animatorStates": {
            "TurnLeft": ["Audio_Hili_Walk"],
            "TurnRight": ["Audio_Hili_Walk"]
          },
          "canDoSkill": true,
          "canSyncMove": true,
          "resetAnimatorTriggerOnExit": ["DoSkill"],
          "canSteer": true,
          "autoSteer": true
        },
        "BeHit": {
          "$type": "NEDIFAKEGCO",
          "animatorStates": {
            "Hit_L": ["Audio_Hili_Hit_L"],
            "Hit_H": ["Audio_Hili_Hit_H"]
          },
          "resetAnimatorTriggerOnEnter": ["BeHit"],
          "resetAnimatorTriggerOnExit": ["DoSkill"]
        },
        "BeHitThrow": {
          "$type": "NEDIFAKEGCO",
          "animatorStates": {
            "HitThrow": ["Audio_Hili_Hit_Throw"],
            "HitThrowDrop": [],
            "HitThrowToGround": ["Audio_Hili_Hit_ThrowToGround"]
          },
          "resetAnimatorTriggerOnEnter": ["BeHit", "HitAir2HitDrop"],
          "resetAnimatorTriggerOnExit": ["DoSkill"]
        },
        "Die": {
          "$type": "NEDIFAKEGCO",
          "animatorStates": {
            "SwimDie": ["Monster_Hili_None_Die", "Audio_Hili_SwimDie"],
            "SwimDie_AS": ["Audio_Hili_SwimDie"]
          }
        },
        "Die_RagDoll": {
          "$type": "NEDIFAKEGCO",
          "animatorStates": {
            "Die1": ["Monster_Hili_None_Die", "Audio_Hili_Die1"],
            "Die2": ["Monster_Hili_None_Die", "Audio_Hili_Die2"],
            "AirDie": ["Monster_Hili_None_Die", "Audio_Hili_Die1"]
          },
          "enableRagDoll": true
        },
        "Struggle": {
          "$type": "NEDIFAKEGCO",
          "animatorStates": {
            "Struggle": []
          },
          "resetAnimatorTriggerOnEnter": ["BeHit", "HitAir2HitDrop"],
          "resetAnimatorTriggerOnExit": ["DoSkill"]
        },
        "Life_Alert": {
          "$type": "NEDIFAKEGCO",
          "animatorStates": {
            "Alert": []
          },
          "resetAnimatorTriggerOnExit": ["BeHit", "DoSkill"]
        },
        "Life_Warning": {
          "$type": "NEDIFAKEGCO",
          "animatorStates": {
            "Warning": [
              "Monster_Undead01_Warning",
              "Monster_Hili_None_Alert",
              "Audio_Hili_Warning"
            ]
          },
          "resetAnimatorTriggerOnExit": ["BeHit", "DoSkill"]
        },
        "Life_Talk": {
          "$type": "NEDIFAKEGCO",
          "animatorStates": {
            "Talk_Sit": []
          },
          "canDoSkill": true,
          "resetAnimatorTriggerOnExit": ["BeHit", "DoSkill"]
        },
        "TurnToSit": {
          "$type": "NEDIFAKEGCO",
          "animatorStates": {
            "TurnToSit": ["Monster_Hili_None_TurnToSit"]
          },
          "canDoSkill": true,
          "resetAnimatorTriggerOnExit": ["BeHit", "DoSkill"]
        },
        "OutOfSit": {
          "$type": "NEDIFAKEGCO",
          "animatorStates": {
            "OutOfSit": ["Monster_Hili_None_OutOfSit"]
          },
          "canDoSkill": true,
          "resetAnimatorTriggerOnExit": ["BeHit", "DoSkill"]
        },
        "Sit": {
          "$type": "NEDIFAKEGCO",
          "animatorStates": {
            "Sit": []
          },
          "canDoSkill": true,
          "canSyncMove": true,
          "resetAnimatorTriggerOnExit": ["DoSkill"]
        },
        "SitFree01": {
          "$type": "NEDIFAKEGCO",
          "animatorStates": {
            "SitFree01": []
          },
          "canDoSkill": true,
          "resetAnimatorTriggerOnExit": ["BeHit", "DoSkill"]
        },
        "TurnToSleep": {
          "$type": "NEDIFAKEGCO",
          "animatorStates": {
            "TurnToSleep": ["Monster_Hili_None_TurnToSleep"]
          },
          "canDoSkill": true,
          "resetAnimatorTriggerOnExit": ["BeHit", "DoSkill"]
        },
        "OutOfSleep": {
          "$type": "NEDIFAKEGCO",
          "animatorStates": {
            "OutOfSleep": ["Monster_Hili_None_OutOfSleep"]
          },
          "canDoSkill": true,
          "resetAnimatorTriggerOnExit": ["BeHit", "DoSkill"]
        },
        "Sleep": {
          "$type": "NEDIFAKEGCO",
          "animatorStates": {
            "Sleep": ["Audio_Hili_Sleep"]
          },
          "canDoSkill": true,
          "canSyncMove": true,
          "resetAnimatorTriggerOnExit": ["DoSkill"]
        },
        "SleepFree01": {
          "$type": "NEDIFAKEGCO",
          "animatorStates": {
            "SleepFree01": []
          },
          "canDoSkill": true,
          "resetAnimatorTriggerOnExit": ["BeHit", "DoSkill"]
        },
        "SleepFree02": {
          "$type": "NEDIFAKEGCO",
          "animatorStates": {
            "SleepFree02": []
          },
          "canDoSkill": true,
          "resetAnimatorTriggerOnExit": ["BeHit", "DoSkill"]
        },
        "SleepFree03": {
          "$type": "NEDIFAKEGCO",
          "animatorStates": {
            "SleepFree03": []
          },
          "canDoSkill": true,
          "resetAnimatorTriggerOnExit": ["BeHit", "DoSkill"]
        },
        "TurnToPractice": {
          "$type": "NEDIFAKEGCO",
          "animatorStates": {
            "TurnToPractice": ["Monster_Hili_None_TurnToPractice"]
          },
          "canDoSkill": true,
          "resetAnimatorTriggerOnExit": ["BeHit", "DoSkill"]
        },
        "OutOfPractice": {
          "$type": "NEDIFAKEGCO",
          "animatorStates": {
            "OutOfPractice": ["Monster_Hili_None_OutOfPractice"]
          },
          "canDoSkill": true,
          "resetAnimatorTriggerOnExit": ["BeHit", "DoSkill"]
        },
        "Practice": {
          "$type": "NEDIFAKEGCO",
          "animatorStates": {
            "Practice": []
          },
          "canDoSkill": true,
          "canSyncMove": true,
          "resetAnimatorTriggerOnExit": ["DoSkill"]
        },
        "Practice_Action": {
          "$type": "NEDIFAKEGCO",
          "animatorStates": {
            "Practice_NoWeapon": ["Audio_Hili_Practice_NoWeapon"],
            "Practice_NoWeapon_Back": [],
            "Practice_Sword": ["Audio_Hili_Practice_Sword"],
            "Practice_Sword_Back": [],
            "Practice_Shoot_Aim": [],
            "Practice_Shoot_Attack": []
          },
          "canDoSkill": true,
          "canSyncMove": true,
          "resetAnimatorTriggerOnExit": ["DoSkill"]
        },
        "Life_AwakeAlertBS": {
          "$type": "NEDIFAKEGCO",
          "animatorStates": {
            "AwakeAlert_BS": ["Monster_Hili_None_AwakeAlert"]
          },
          "resetAnimatorTriggerOnExit": ["BeHit", "DoSkill", "AwakeAlert"]
        },
        "Life_AwakeAlertAS": {
          "$type": "NEDIFAKEGCO",
          "animatorStates": {
            "AwakeAlert_AS": []
          },
          "canDoSkill": true,
          "resetAnimatorTriggerOnExit": ["BeHit", "DoSkill"]
        },
        "NoWeapon_Attack": {
          "$type": "NEDIFAKEGCO",
          "animatorStates": {
            "NoWeapon_Attack": [
              "Monster_Hili_None_NoWeaponAttack",
              "Audio_Hili_NormalAtk"
            ]
          },
          "resetAnimatorTriggerOnExit": ["BeHit", "DoSkill"]
        },
        "Aim": {
          "$type": "NEDIFAKEGCO",
          "animatorStates": {
            "Aim": []
          },
          "resetAnimatorTriggerOnExit": ["BeHit", "DoSkill"]
        },
        "Shoot": {
          "$type": "NEDIFAKEGCO",
          "animatorStates": {
            "Attack": [
              "Monster_Hili_Fire_Shoot_WithRandom",
              "Audio_Hili_Shoot_Atk"
            ]
          },
          "resetAnimatorTriggerOnExit": ["BeHit", "DoSkill"]
        },
        "ThrowPebble": {
          "$type": "NEDIFAKEGCO",
          "animatorStates": {
            "ThrowPebble": [
              "Monster_Hili_None_ThrowPebble",
              "Audio_Hili_ThrowPebble"
            ]
          },
          "resetAnimatorTriggerOnExit": ["BeHit", "DoSkill"]
        },
        "LearnBox": {
          "$type": "NEDIFAKEGCO",
          "animatorStates": {
            "LearnBox": []
          },
          "canDoSkill": true,
          "canSyncMove": true,
          "resetAnimatorTriggerOnExit": ["DoSkill"]
        },
        "Life_LearnBox": {
          "$type": "NEDIFAKEGCO",
          "animatorStates": {
            "Boxing": []
          },
          "canDoSkill": true,
          "resetAnimatorTriggerOnExit": ["BeHit", "DoSkill"]
        }
      }
    }
  },
  "billboard": {
    "$type": "DNGNMAJBCNP",
    "attachPoint": "BillboardAttach",
    "offset": {
      "x": -0.05000000074505806
    },
    "offsetType": "Character",
    "radiusOffset": 0.25,
    "showHPBar": true
  },
  "initialPoses": {
    "Default": {},
    "CrossBow_Fixed": {
      "initialPoseID": 32,
      "initialPoseParams": {
        "boolParams": {
          "CrossBow_Fixed": "true"
        }
      }
    },
    "Sleep": {
      "initialPoseID": 9002,
      "initialPoseParams": {
        "boolParams": {
          "Sleep": "true"
        }
      }
    },
    "Sit": {
      "initialPoseID": 9003,
      "initialPoseParams": {
        "boolParams": {
          "Sit": "true"
        }
      }
    },
    "Practice": {
      "initialPoseID": 9013,
      "initialPoseParams": {
        "boolParams": {
          "Practice": "true"
        }
      }
    },
    "LearnBox": {
      "initialPoseID": 9018,
      "initialPoseParams": {
        "boolParams": {
          "LearnBox": "true"
        }
      }
    }
  },
  "aibeta": {
    "enable": true,
    "sensing": {
      "settings": {
        "DefaultSetting": {
          "feelRange": 8.0
        },
        "HighAlert": {
          "viewRange": 40.0,
          "feelRange": 10.0
        },
        "Sleep": {
          "viewRange": 0.0,
          "feelRange": 3.0
        },
        "Sit": {
          "viewRange": 10.0
        },
        "HighFeel": {
          "viewRange": 40.0,
          "feelRange": 20.0
        },
        "LearnBox": {
          "viewRange": 10.0
        }
      },
      "templates": {
        "DefaultTemplate": {
          "DefaultPoses": "DefaultSetting",
          "9002": "Sleep",
          "9003": "Sit"
        },
        "HighAlertTemplate": {
          "DefaultPoses": "HighAlert",
          "9002": "Sleep",
          "9003": "Sit"
        },
        "HighFeelTemplate": {
          "DefaultPoses": "HighFeel",
          "9002": "Sleep",
          "9003": "Sit"
        }
      }
    },
    "neurons": {
      "DefaultSetting": ["HIT"],
      "Sleep": ["HIT", "ASLEEP", "AWAKE"],
      "Sit": ["HIT", "SIT"],
      "Practice": ["HIT", "TRAIN"]
    },
    "threat": {
      "GHIJMOKOLMB": "",
      "clearThreatByLostPath": true,
      "clearThreatTimerByDistance": 3.0,
      "viewAttenuation": [
        {
          "x": 10.0,
          "y": 2.0
        },
        {
          "x": 15.0,
          "y": 0.800000011920929
        },
        {
          "x": 20.0,
          "y": 0.5
        },
        {
          "x": 25.0,
          "y": 0.30000001192092896
        },
        {
          "x": 30.0,
          "y": 0.20000000298023224
        }
      ]
    },
    "defendArea": {},
    "profiling": {
      "staticPoses": [9002, 9003]
    },
    "skills": {
      "103": {
        "name": "OnAlert",
        "skillType": "OnAlert",
        "faceTarget": true,
        "publicCDGroup": "",
        "ignoreGCD": true,
        "triggerGCD": false,
        "HHAGODJIAPE": "",
        "stateIDs": ["Life_Warning"],
        "skillQueryingTime": 3.0,
        "flagTargetReachable": "10",
        "flagSelfOnTemplateCollider": "01",
        "flagSelfInZone": "10",
        "flagTargetInZone": "11"
      },
      "104": {
        "name": "OnAlert",
        "skillType": "OnNerve",
        "faceTarget": true,
        "castCondition": {
          "pose": [9003, 9003, 9013, 9018]
        },
        "publicCDGroup": "",
        "triggerGCD": false,
        "HHAGODJIAPE": "",
        "stateIDs": ["Life_Warning"],
        "skillQueryingTime": 3.0,
        "flagTargetReachable": "10",
        "flagSelfOnTemplateCollider": "01",
        "flagSelfInZone": "10",
        "flagTargetInZone": "11",
        "nerveTrigger": ["HIT"]
      },
      "123": {
        "name": "Talk_Sit",
        "skillType": "Free",
        "castCondition": {
          "pose": [9003]
        },
        "cd": 15.0,
        "cdUpperRange": 25.0,
        "initialCD": 15.0,
        "initialCDUpperRange": 25.0,
        "publicCDGroup": "",
        "HHAGODJIAPE": "",
        "stateIDs": ["Life_Talk"],
        "flagTargetReachable": "10",
        "flagSelfOnTemplateCollider": "01",
        "flagSelfInZone": "10",
        "flagTargetInZone": "11"
      },
      "201": {
        "name": "NoWeapon_Attack",
        "combatSkillType": "MeleeAttack",
        "enableSkillPrepare": true,
        "castCondition": {
          "pose": [101],
          "pickRangeMin": 0.25,
          "pickRangeMax": 5.0,
          "castRangeMin": 1.25,
          "castRangeMax": 1.75
        },
        "cd": 2.5,
        "publicCDGroup": "",
        "HHAGODJIAPE": "",
        "stateIDs": ["NoWeapon_Attack"],
        "flagTargetReachable": "10",
        "flagSelfOnTemplateCollider": "01",
        "flagSelfInZone": "10",
        "flagTargetInZone": "11"
      },
      "202": {
        "name": "NoWeapon_Attack",
        "combatSkillType": "MeleeAttack",
        "castCondition": {
          "pose": [101],
          "pickRangeMax": 1.75
        },
        "cd": 2.5,
        "publicCDGroup": "",
        "HHAGODJIAPE": "",
        "stateIDs": ["NoWeapon_Attack"],
        "flagTargetReachable": "10",
        "flagSelfOnTemplateCollider": "01",
        "flagSelfInZone": "01",
        "flagTargetInZone": "11"
      },
      "601": {
        "name": "RangedAttack",
        "combatSkillType": "RangedAttack",
        "faceTarget": true,
        "castCondition": {
          "pose": [301, 302],
          "pickRangeMin": 7.5,
          "pickRangeMax": 45.0
        },
        "cd": 5.0,
        "cdUpperRange": 2.0,
        "publicCDGroup": "",
        "HHAGODJIAPE": "",
        "stateIDs": ["Aim", "Shoot"],
        "flagTargetReachable": "11",
        "flagSelfOnTemplateCollider": "11",
        "flagSelfInZone": "11",
        "flagTargetInZone": "11"
      },
      "602": {
        "name": "RangedAttack",
        "combatSkillType": "RangedAttack",
        "faceTarget": true,
        "castCondition": {
          "pose": [301, 302],
          "pickRangeMax": 7.5
        },
        "cd": 1.0,
        "cdUpperRange": 2.0,
        "publicCDGroup": "",
        "HHAGODJIAPE": "",
        "stateIDs": ["Aim", "Shoot"],
        "flagTargetReachable": "11",
        "flagSelfOnTemplateCollider": "11",
        "flagSelfInZone": "11",
        "flagTargetInZone": "11"
      },
      "111": {
        "name": "TurnToSleep",
        "skillType": "ActionPoint",
        "castCondition": {
          "pose": [1, 31, 32]
        },
        "publicCDGroup": "",
        "triggerGCD": false,
        "HHAGODJIAPE": "",
        "stateIDs": ["TurnToSleep"],
        "skillQueryingTime": 3.0,
        "flagTargetReachable": "10",
        "flagSelfOnTemplateCollider": "01",
        "flagSelfInZone": "10",
        "flagTargetInZone": "11"
      },
      "112": {
        "name": "OutOfSleep",
        "skillType": "OnNerve",
        "castCondition": {
          "pose": [9002]
        },
        "publicCDGroup": "",
        "triggerGCD": false,
        "HHAGODJIAPE": "",
        "stateIDs": ["OutOfSleep"],
        "skillQueryingTime": 3.0,
        "flagTargetReachable": "10",
        "flagSelfOnTemplateCollider": "01",
        "flagSelfInZone": "10",
        "flagTargetInZone": "11",
        "nerveTrigger": ["AWAKE"]
      },
      "124": {
        "name": "SleepFree01",
        "skillType": "Free",
        "castCondition": {
          "pose": [9002]
        },
        "cd": 15.0,
        "cdUpperRange": 25.0,
        "initialCD": 15.0,
        "initialCDUpperRange": 25.0,
        "publicCDGroup": "",
        "HHAGODJIAPE": "",
        "stateIDs": ["SleepFree01"],
        "flagTargetReachable": "10",
        "flagSelfOnTemplateCollider": "01",
        "flagSelfInZone": "10",
        "flagTargetInZone": "11"
      },
      "125": {
        "name": "SleepFree02",
        "skillType": "Free",
        "castCondition": {
          "pose": [9002]
        },
        "cd": 15.0,
        "cdUpperRange": 25.0,
        "initialCD": 15.0,
        "initialCDUpperRange": 25.0,
        "publicCDGroup": "",
        "HHAGODJIAPE": "",
        "stateIDs": ["SleepFree02"],
        "flagTargetReachable": "10",
        "flagSelfOnTemplateCollider": "01",
        "flagSelfInZone": "10",
        "flagTargetInZone": "11"
      },
      "126": {
        "name": "SleepFree03",
        "skillType": "Free",
        "castCondition": {
          "pose": [9002]
        },
        "cd": 15.0,
        "cdUpperRange": 25.0,
        "initialCD": 15.0,
        "initialCDUpperRange": 25.0,
        "publicCDGroup": "",
        "HHAGODJIAPE": "",
        "stateIDs": ["SleepFree03"],
        "flagTargetReachable": "10",
        "flagSelfOnTemplateCollider": "01",
        "flagSelfInZone": "10",
        "flagTargetInZone": "11"
      },
      "121": {
        "name": "TurnToSit",
        "skillType": "ActionPoint",
        "castCondition": {
          "pose": [1, 31, 32]
        },
        "publicCDGroup": "",
        "triggerGCD": false,
        "HHAGODJIAPE": "",
        "stateIDs": ["TurnToSit"],
        "skillQueryingTime": 3.0,
        "flagTargetReachable": "10",
        "flagSelfOnTemplateCollider": "01",
        "flagSelfInZone": "10",
        "flagTargetInZone": "11"
      },
      "122": {
        "name": "OutOfSit",
        "skillType": "OnNerve",
        "castCondition": {
          "pose": [9003]
        },
        "publicCDGroup": "",
        "triggerGCD": false,
        "HHAGODJIAPE": "",
        "stateIDs": ["OutOfSit"],
        "skillQueryingTime": 3.0,
        "flagTargetReachable": "10",
        "flagSelfOnTemplateCollider": "01",
        "flagSelfInZone": "10",
        "flagTargetInZone": "11",
        "nerveTrigger": ["AWAKE"]
      },
      "127": {
        "name": "SitFree01",
        "skillType": "Free",
        "castCondition": {
          "pose": [9003]
        },
        "cd": 15.0,
        "cdUpperRange": 15.0,
        "initialCD": 15.0,
        "initialCDUpperRange": 15.0,
        "publicCDGroup": "",
        "HHAGODJIAPE": "",
        "stateIDs": ["SitFree01"],
        "flagTargetReachable": "10",
        "flagSelfOnTemplateCollider": "01",
        "flagSelfInZone": "10",
        "flagTargetInZone": "11"
      },
      "1001": {
        "name": "TurnToPractice",
        "skillType": "ActionPoint",
        "castCondition": {
          "pose": [1, 31, 32]
        },
        "publicCDGroup": "",
        "triggerGCD": false,
        "HHAGODJIAPE": "",
        "stateIDs": ["TurnToPractice"],
        "skillQueryingTime": 3.0,
        "flagTargetReachable": "10",
        "flagSelfOnTemplateCollider": "01",
        "flagSelfInZone": "10",
        "flagTargetInZone": "11"
      },
      "1002": {
        "name": "OutOfPractice",
        "skillType": "OnNerve",
        "castCondition": {
          "pose": [9013]
        },
        "publicCDGroup": "",
        "triggerGCD": false,
        "HHAGODJIAPE": "",
        "stateIDs": ["OutOfPractice"],
        "skillQueryingTime": 3.0,
        "flagTargetReachable": "10",
        "flagSelfOnTemplateCollider": "01",
        "flagSelfInZone": "10",
        "flagTargetInZone": "11",
        "nerveTrigger": ["ASLEEP", "WEATHER_BAD"]
      },
      "1011": {
        "name": "Practice",
        "skillType": "Free",
        "castCondition": {
          "pose": [9013]
        },
        "cd": 3.0,
        "cdUpperRange": 5.0,
        "initialCD": 3.0,
        "publicCDGroup": "",
        "HHAGODJIAPE": "",
        "stateIDs": ["Practice_Action"],
        "flagTargetReachable": "10",
        "flagSelfOnTemplateCollider": "01",
        "flagSelfInZone": "10",
        "flagTargetInZone": "11"
      },
      "1801": {
        "name": "Life_LearnBox",
        "skillType": "Free",
        "castCondition": {
          "pose": [9018]
        },
        "cd": 10.5,
        "cdUpperRange": 7.5,
        "initialCD": 4.0,
        "initialCDUpperRange": 10.0,
        "publicCDGroup": "",
        "HHAGODJIAPE": "",
        "stateIDs": ["Life_LearnBox"],
        "flagTargetReachable": "10",
        "flagSelfOnTemplateCollider": "01",
        "flagSelfInZone": "10",
        "flagTargetInZone": "11"
      }
    },
    "birdCirclingTactic": [
      {
        "$type": "EPHBMLFODKF",
        "enable": true,
        "condition": {
          "pose": [101, 301]
        },
        "JMCOBEPDIGM": {
          "rangeMin": 5.0,
          "rangeMax": 50.0,
          "BFJBDDIIFOI": {
            "IDEFILBHNAP": 0.0,
            "IBLIPJPNOGC": 0.0,
            "AEBLMKFNCDG": 0.0,
            "IGLIBIOEGBB": 0.0
          },
          "NAOBMNGDKHL": "1111",
          "JCNIJOAIGII": "1111",
          "MNPDDAKDHGK": ""
        },
        "PIOCBHLFLJP": {
          "101": {
            "rangeMin": 5.0,
            "rangeMax": 30.0,
            "BFJBDDIIFOI": {
              "IDEFILBHNAP": 0.0,
              "IBLIPJPNOGC": 0.0,
              "AEBLMKFNCDG": 0.20000000298023224,
              "IGLIBIOEGBB": 0.20000000298023224
            },
            "NAOBMNGDKHL": "1111",
            "JCNIJOAIGII": "1111",
            "MNPDDAKDHGK": ""
          }
        }
      },
      {
        "$type": "HGJGHLOFFHM",
        "enable": true,
        "JMCOBEPDIGM": {
          "INNFLICONNE": [
            {
              "pointType": "SleepPoint",
              "detectDistance": 15.0,
              "pose": [1, 31, 32],
              "nerveTrigger": ["ASLEEP"],
              "skillID": 111
            },
            {
              "pointType": "SitPoint",
              "detectDistance": 15.0,
              "pose": [1, 31, 32],
              "nerveTrigger": ["SIT"],
              "skillID": 121
            },
            {
              "pointType": "TrainingPoint",
              "detectDistance": 15.0,
              "pose": [1, 31, 32],
              "nerveTrigger": ["TRAIN"],
              "skillID": 1001
            }
          ]
        }
      },
      {
        "$type": "NNJKLGNPMNN",
        "enable": true,
        "JMCOBEPDIGM": {
          "MNPDDAKDHGK": "",
          "GJDMDHIBCME": ""
        }
      },
      {
        "$type": "FPELBIJFGCE",
        "enable": true,
        "condition": {
          "pose": [1, 31]
        },
        "JMCOBEPDIGM": {
          "KPNDPKIOPJM": 5.0,
          "PINAFKEDDLL": 2.0,
          "ANMPOPEBDIA": 15.0,
          "GMJFIMFFOEL": 5.0,
          "CHCPFDMADEI": 7.5,
          "MNPDDAKDHGK": ""
        }
      }
    ]
  },
  "inputKeys": [
    {
      "keyID": 201,
      "inputKeyCode": 257,
      "abilityName": ""
    },
    {
      "keyID": 601,
      "inputKeyCode": 258,
      "abilityName": ""
    },
    {
      "keyID": 501,
      "inputKeyCode": 259,
      "abilityName": ""
    },
    {
      "keyID": 111,
      "inputKeyCode": 260,
      "abilityName": ""
    },
    {
      "keyID": 121,
      "inputKeyCode": 261,
      "abilityName": ""
    }
  ],
  "move": {
    "$type": "IPNMJMHDMPF",
    "facingMove": "FourDirection",
    "monsterSizeType": "StoopType",
    "PKHOMJHFAEE": "RootNode"
  },
  "audio": {
    "overrideEmitterName": "",
    "animAudio": {
      "onTransitionIn": [
        {
          "currentStateName": "OutOfBuild",
          "audioEvent": {
            "text": "Stop_sfx_monster_hili_build"
          }
        },
        {
          "currentStateName": "Alert",
          "audioEvent": {
            "text": "Stop_sfx_monster_hili_build"
          }
        },
        {
          "currentStateName": "BeHit",
          "audioEvent": {
            "text": "Stop_sfx_monster_hili_build"
          }
        },
        {
          "currentStateName": "Die",
          "audioEvent": {
            "text": "Stop_sfx_monster_hili_build"
          }
        },
        {
          "currentStateName": "Die1",
          "audioEvent": {
            "text": "Stop_sfx_monster_hili_build"
          }
        },
        {
          "currentStateName": "Die2",
          "audioEvent": {
            "text": "Stop_sfx_monster_hili_build"
          }
        },
        {
          "currentStateName": "OutOfMake",
          "audioEvent": {
            "text": "Stop_sfx_monster_hili_build"
          }
        },
        {
          "currentStateName": "Practice_Sword_Back",
          "audioEvent": {
            "text": "Play_sfx_monster_hili_practice_back"
          }
        },
        {
          "currentStateName": "Practice_NoWeapon_Back",
          "audioEvent": {
            "text": "Play_sfx_monster_hili_practice_back"
          }
        },
        {
          "currentStateName": "Practice_Shoot_Aim",
          "audioEvent": {
            "text": "Play_sfx_monster_hili_practice_shoot_aim"
          }
        },
        {
          "currentStateName": "Dance",
          "audioEvent": {
            "text": "Play_sfx_monster_hili_dance"
          }
        },
        {
          "currentStateName": "OutOfDance",
          "audioEvent": {
            "text": "Stop_sfx_monster_hili_dance"
          }
        },
        {
          "currentStateName": "SurroundFree01_Club",
          "audioEvent": {
            "text": "Play_sfx_monster_hili_dance"
          }
        },
        {
          "currentStateName": "SurroundFree01_NoWeapon",
          "audioEvent": {
            "text": "Play_sfx_monster_hili_dance"
          }
        },
        {
          "currentStateName": "OutOfSurround",
          "audioEvent": {
            "text": "Stop_sfx_monster_hili_dance"
          }
        },
        {
          "currentStateName": "Alert",
          "audioEvent": {
            "text": "Stop_sfx_monster_hili_dance"
          }
        },
        {
          "currentStateName": "BeHit",
          "audioEvent": {
            "text": "Stop_sfx_monster_hili_dance"
          }
        },
        {
          "currentStateName": "Die",
          "audioEvent": {
            "text": "Stop_sfx_monster_hili_dance"
          }
        },
        {
          "currentStateName": "Die1",
          "audioEvent": {
            "text": "Stop_sfx_monster_hili_dance"
          }
        },
        {
          "currentStateName": "Die2",
          "audioEvent": {
            "text": "Stop_sfx_monster_hili_dance"
          }
        },
        {
          "currentStateName": "ThreatFree01_NoWeapon",
          "audioEvent": {
            "text": "Play_sfx_monster_hili_dance"
          }
        },
        {
          "currentStateName": "ThreatFree02_NoWeapon",
          "audioEvent": {
            "text": "Play_sfx_monster_hili_dance"
          }
        },
        {
          "currentStateName": "ThreatFree01_Club",
          "audioEvent": {
            "text": "Play_sfx_monster_hili_dance"
          }
        },
        {
          "currentStateName": "ThreatFree02_Club",
          "audioEvent": {
            "text": "Play_sfx_monster_hili_dance"
          }
        },
        {
          "currentStateName": "OutOfThreat",
          "audioEvent": {
            "text": "Stop_sfx_monster_hili_dance"
          }
        }
      ],
      "onTransitionOut": [
        {
          "currentStateName": "Make",
          "audioEvent": {
            "text": "Stop_sfx_monster_hili_build"
          }
        },
        {
          "currentStateName": "Build",
          "audioEvent": {
            "text": "Stop_sfx_monster_hili_build"
          }
        },
        {
          "currentStateName": "Practice_Sword",
          "audioEvent": {
            "text": "Stop_sfx_monster_hili_practice_sword"
          }
        },
        {
          "currentStateName": "Practice_NoWeapon",
          "audioEvent": {
            "text": "Stop_sfx_monster_hili_practice_sword"
          }
        },
        {
          "currentStateName": "Practice_Sword_Back",
          "audioEvent": {
            "text": "Stop_sfx_monster_hili_practice_back"
          }
        },
        {
          "currentStateName": "Practice_NoWeapon_Back",
          "audioEvent": {
            "text": "Stop_sfx_monster_hili_practice_back"
          }
        },
        {
          "currentStateName": "Practice_Shoot_Aim",
          "audioEvent": {
            "text": "Stop_sfx_monster_hili_practice_shoot_aim"
          },
          "otherStateNames": ["Practice_Shoot_Attack"],
          "usage": "Except"
        },
        {
          "currentStateName": "Practice_Shoot_Attack",
          "audioEvent": {
            "text": "Stop_sfx_monster_hili_practice_shoot_aim"
          }
        },
        {
          "currentStateName": "Dance",
          "audioEvent": {
            "text": "Stop_sfx_monster_hili_dance"
          }
        },
        {
          "currentStateName": "SurroundFree01_Club",
          "audioEvent": {
            "text": "Stop_sfx_monster_hili_dance"
          }
        },
        {
          "currentStateName": "SurroundFree01_NoWeapon",
          "audioEvent": {
            "text": "Stop_sfx_monster_hili_dance"
          }
        },
        {
          "currentStateName": "ThreatFree01_NoWeapon",
          "audioEvent": {
            "text": "Stop_sfx_monster_hili_dance"
          }
        },
        {
          "currentStateName": "ThreatFree02_NoWeapon",
          "audioEvent": {
            "text": "Stop_sfx_monster_hili_dance"
          }
        },
        {
          "currentStateName": "ThreatFree01_Club",
          "audioEvent": {
            "text": "Stop_sfx_monster_hili_dance"
          }
        },
        {
          "currentStateName": "ThreatFree02_Club",
          "audioEvent": {
            "text": "Stop_sfx_monster_hili_dance"
          }
        }
      ]
    },
    "disableEvent": {
      "text": "Stop_sfx_monster_hili_dance"
    },
    "destroyEvent": {
      "text": "Stop_sfx_monster_hili_dance"
    }
  }
}
