{
  "common": {
    "effectAttachShape": {
      "$type": "FJNPJANPGGC",
      "mesh": "EffectMesh"
    },
    "mass": 10000.0,
    "height": 1.0,
    "viewSize": 1.5,
    "affectedByWorld": true,
    "checkInSurface": true,
    "scale": 1.350000023841858,
    "useGrassDisplacement": true,
    "clearAIOnSetLightDeactive": true,
    "reconnectSupport": true,
    "recoverByInitPose": true
  },
  "headControl": {
    "$type": "KPIPDEBDPIH",
    "useHeadControl": true,
    "maxYawDegree": 60.0,
    "maxPitchDegree": 30.0,
    "speed": 3.0,
    "animStates": [
      "NormalIdle/Standby",
      "NormalIdle/Born",
      "NormalMove/WalkForward",
      "NormalMove/WalkBack",
      "NormalMove/Run"
    ]
  },
  "model": {
    "bornEffect": "",
    "attachEffect": "",
    "canBakeMesh": false,
    "BKPFGNPLDNJ": ""
  },
  "dither": {
    "showDitherDuration": 2.0
  },
  "combat": {
    "property": {
      "endureType": "Monster_Demiboss_Other",
      "weight": 10000.0
    },
    "beHit": {
      "hitBloodEffect": ""
    },
    "combatLock": {
      "lockShape": "CircleLockEnemy",
      "lockType": "Avatar&Monster_Lv4"
    },
    "die": {
      "hasAnimatorDie": true,
      "dieEndTime": 0.15000000596046448,
      "dieForceDisappearTime": 0.20000000298023224,
      "dieDisappearEffect": "Eff_Monster_Gator_Eremite_Rock_Die",
      "dieDisappearEffectDelay": 0.15000000596046448,
      "muteHitBox": true,
      "dieDenyLockOn": true,
      "dieIsGhostToEnemy": true,
      "dieIgnoreTriggerBullet": true,
      "muteBillboard": true,
      "mutePushCollider": true
    },
    "animEvents": {
      "MeleeAttack01": {
        "attackPattern": {
          "$type": "ConfigAttackBox",
          "triggerType": "TriggerNoRepeat",
          "born": {
            "$type": "ConfigBornBySelf",
            "offset": {
              "x": 0.0,
              "y": 0.6000000238418579,
              "z": -0.75
            }
          },
          "size": {
            "x": 1.0,
            "y": 2.0,
            "z": 3.0
          }
        },
        "attackInfo": {
          "attackTag": "",
          "attenuationTag": "",
          "attenuationGroup": "default",
          "attackProperty": {
            "actorGrassSubHurtDelta": 0.5,
            "actorWindSubHurtDelta": 0.0,
            "elementType": "Rock",
            "elementDurability": 25.0,
            "strikeType": "Pierce",
            "enBreak": 100.0,
            "attackType": "Melee",
            "GLKMCMDJBIK": 0.0
          },
          "hitPattern": {
            "onHitEffectName": "default",
            "hitImpulseY": "",
            "hitImpulseType": "LV4",
            "canBeDefenceHalt": true
          }
        }
      },
      "MoveAttack01_01": {
        "attackPattern": {
          "$type": "ConfigAttackCircle",
          "triggerType": "TriggerNoRepeat",
          "born": {
            "$type": "ConfigBornBySelf",
            "offset": {
              "x": 0.0,
              "y": 0.0,
              "z": 0.0
            }
          },
          "height": 3.5,
          "radius": 4.0
        },
        "attackInfo": {
          "attackTag": "",
          "attenuationTag": "",
          "attenuationGroup": "default",
          "attackProperty": {
            "actorGrassSubHurtDelta": 0.75,
            "actorWindSubHurtDelta": 0.0,
            "elementType": "Rock",
            "elementDurability": 25.0,
            "strikeType": "Pierce",
            "enBreak": 10000.0,
            "attackType": "Melee",
            "GLKMCMDJBIK": 0.0
          },
          "hitPattern": {
            "onHitEffectName": "default",
            "hitImpulseY": "",
            "hitImpulseType": "LV4",
            "canBeDefenceHalt": true
          }
        }
      },
      "MoveAttack01_02": {
        "attackPattern": {
          "$type": "ConfigAttackCircle",
          "triggerType": "TriggerNoRepeat",
          "born": {
            "$type": "ConfigBornBySelf",
            "offset": {
              "x": 0.0,
              "y": 0.0,
              "z": 0.0
            }
          },
          "height": 3.5,
          "radius": 5.0
        },
        "attackInfo": {
          "attackTag": "",
          "attenuationTag": "",
          "attenuationGroup": "default",
          "attackProperty": {
            "actorGrassSubHurtDelta": 0.75,
            "actorWindSubHurtDelta": 0.0,
            "elementType": "Rock",
            "elementDurability": 50.0,
            "strikeType": "Blunt",
            "enBreak": 1000.0,
            "attackType": "Melee",
            "GLKMCMDJBIK": 0.0
          },
          "hitPattern": {
            "onHitEffectName": "default",
            "hitImpulseY": "",
            "hitImpulseType": "LV5",
            "canBeDefenceHalt": true
          }
        }
      }
    }
  },
  "abilities": [
    {
      "abilityID": "SteerControl",
      "abilityName": "Monster_Gator_Eremite_Rock_SteerControl",
      "abilityOverride": ""
    },
    {
      "abilityID": "StateControl",
      "abilityName": "Monster_Gator_Eremite_Rock_StateControl",
      "abilityOverride": ""
    },
    {
      "abilityID": "RangeAttack",
      "abilityName": "Monster_Gator_Eremite_Rock_RangeAttack",
      "abilityOverride": ""
    },
    {
      "abilityID": "TailAttack",
      "abilityName": "Monster_Gator_Eremite_Rock_TailAttack",
      "abilityOverride": ""
    },
    {
      "abilityID": "UnderGroundAttack_BS",
      "abilityName": "Monster_Gator_Eremite_Rock_UnderGroundAttack_BS",
      "abilityOverride": ""
    },
    {
      "abilityID": "TailAttack",
      "abilityName": "Monster_Gator_Eremite_Rock_UnderGroundAttack_FindBlinkPoint",
      "abilityOverride": ""
    },
    {
      "abilityID": "DoBlink",
      "abilityName": "Monster_Gator_Eremite_Rock_UnderGroundAttack_DoBlink",
      "abilityOverride": ""
    },
    {
      "abilityID": "DamageForUnderGround",
      "abilityName": "Monster_Gator_Eremite_Rock_UnderGroundAttack_DamageForUnderGround",
      "abilityOverride": ""
    },
    {
      "abilityID": "DamageForDrop",
      "abilityName": "Monster_Gator_Eremite_Rock_UnderGroundAttack_DamageForDrop",
      "abilityOverride": ""
    },
    {
      "abilityID": "MeleeAttack",
      "abilityName": "Monster_Gator_Eremite_Rock_MeleeAttack",
      "abilityOverride": ""
    },
    {
      "abilityID": "Die",
      "abilityName": "Monster_Gator_Eremite_Rock_Die",
      "abilityOverride": ""
    }
  ],
  "stateLayers": {
    "defaultLayer": {
      "$type": "GBGJJIIEMBD",
      "layerIndexName": "",
      "CPAANEIJCGD": "",
      "stateIDs": {
        "NormalIdle": {
          "$type": "NEDIFAKEGCO",
          "animatorStates": {
            "Born": [],
            "Standby": []
          },
          "canDoSkill": true,
          "canSyncMove": true,
          "resetAnimatorTriggerOnExit": ["DoSkill"]
        },
        "Alert": {
          "$type": "NEDIFAKEGCO",
          "animatorStates": {
            "Alert": [
              "Monster_Gator_Eremite_Rock_Alert",
              "Audio_Monster_Gator_Eremite_Rock_Alert"
            ]
          },
          "canSyncMove": true,
          "resetAnimatorTriggerOnExit": ["DoSkill"],
          "canSteer": true,
          "followAnimRotation": true
        },
        "NormalMove": {
          "$type": "NEDIFAKEGCO",
          "animatorStates": {
            "WalkForward": ["Audio_Monster_Gator_Eremite_Rock_Walk"],
            "WalkBack": ["Audio_Monster_Gator_Eremite_Rock_TurnBack"],
            "Run": ["Audio_Monster_Gator_Eremite_Rock_Walk"]
          },
          "canDoSkill": true,
          "canSyncMove": true,
          "resetAnimatorTriggerOnExit": ["DoSkill"],
          "canSteer": true
        },
        "NoTurn": {
          "$type": "NEDIFAKEGCO",
          "animatorStates": {
            "NoTurn": []
          },
          "canSyncMove": true,
          "resetAnimatorTriggerOnExit": ["DoSkill"],
          "canSteer": true
        },
        "TurnLeft": {
          "$type": "NEDIFAKEGCO",
          "animatorStates": {
            "TurnLeft": ["Audio_Monster_Gator_Eremite_Rock_Turn"]
          },
          "canSyncMove": true,
          "resetAnimatorTriggerOnExit": ["DoSkill"],
          "canSteer": true,
          "followAnimRotation": true
        },
        "TurnRight": {
          "$type": "NEDIFAKEGCO",
          "animatorStates": {
            "TurnRight": ["Audio_Monster_Gator_Eremite_Rock_Turn"]
          },
          "canSyncMove": true,
          "resetAnimatorTriggerOnExit": ["DoSkill"],
          "canSteer": true,
          "followAnimRotation": true
        },
        "TurnBack": {
          "$type": "NEDIFAKEGCO",
          "animatorStates": {
            "TurnBack": ["Audio_Monster_Gator_Eremite_Rock_TurnBack"]
          },
          "canSyncMove": true,
          "resetAnimatorTriggerOnExit": ["DoSkill"],
          "canSteer": true,
          "followAnimRotation": true
        },
        "BeHit": {
          "$type": "NEDIFAKEGCO",
          "animatorStates": {
            "Hit_L": ["Audio_Monster_Gator_Eremite_Rock_Hit_L"]
          },
          "resetAnimatorTriggerOnEnter": ["BeHit"],
          "resetAnimatorTriggerOnExit": ["DoSkill"]
        },
        "Die": {
          "$type": "NEDIFAKEGCO",
          "animatorStates": {
            "Die": ["Monster_Gator_Eremite_Rock_Die"]
          }
        },
        "NormalAttack01": {
          "$type": "NEDIFAKEGCO",
          "animatorStates": {
            "NormalAttack01": [
              "Monster_Gator_Eremite_Rock_RangeAttack_01",
              "Audio_Monster_Gator_Eremite_Rock_NormalAttack01"
            ]
          },
          "resetAnimatorTriggerOnExit": ["BeHit", "DoSkill"],
          "canSteer": true
        },
        "NormalAttack02": {
          "$type": "NEDIFAKEGCO",
          "animatorStates": {
            "NormalAttack02": [
              "Monster_Gator_Eremite_Rock_TailAttack_01",
              "Audio_Monster_Gator_Eremite_Rock_NormalAttack02"
            ]
          },
          "resetAnimatorTriggerOnExit": ["BeHit", "DoSkill"],
          "canSteer": true
        },
        "MeleeAttack01_BS": {
          "$type": "NEDIFAKEGCO",
          "animatorStates": {
            "MeleeAttack01_BS": [
              "Audio_Monster_Gator_Eremite_Rock_MeleeAttack01_BS"
            ]
          },
          "resetAnimatorTriggerOnExit": ["BeHit", "DoSkill"],
          "canSteer": true
        },
        "MeleeAttack01_Loop": {
          "$type": "NEDIFAKEGCO",
          "animatorStates": {
            "MeleeAttack01_Loop": [
              "Audio_Monster_Gator_Eremite_Rock_MeleeAttack01_Loop"
            ]
          },
          "resetAnimatorTriggerOnExit": ["BeHit", "DoSkill"],
          "canSteer": true
        },
        "MeleeAttack01_AS": {
          "$type": "NEDIFAKEGCO",
          "animatorStates": {
            "MeleeAttack01_AS": [
              "Audio_Monster_Gator_Eremite_Rock_MeleeAttack01_AS"
            ]
          },
          "resetAnimatorTriggerOnExit": ["BeHit", "DoSkill"],
          "canSteer": true
        },
        "UnderGroundAttack_BS": {
          "$type": "NEDIFAKEGCO",
          "animatorStates": {
            "UnderGroundAttack_BS": [
              "Monster_Gator_Eremite_Rock_UnderGroundAttack_01_BS",
              "Audio_Monster_Gator_Eremite_Rock_underGroundAttack_BS"
            ]
          },
          "addEndure": 0.0,
          "resetAnimatorTriggerOnExit": ["BeHit", "DoSkill"],
          "canSteer": true
        },
        "UnderGroundAttack_Loop": {
          "$type": "NEDIFAKEGCO",
          "animatorStates": {
            "UnderGroundAttack_Loop": [
              "Monster_Gator_Eremite_Rock_UnderGroundAttack_01_Loop"
            ]
          },
          "addEndure": 0.0,
          "resetAnimatorTriggerOnExit": ["BeHit", "DoSkill"],
          "canSteer": true
        },
        "UnderGroundAttack_AS": {
          "$type": "NEDIFAKEGCO",
          "animatorStates": {
            "UnderGroundAttack_AS": [
              "Monster_Gator_Eremite_Rock_UnderGroundAttack_01_AS",
              "Audio_Monster_Gator_Eremite_Rock_underGroundAttack_AS"
            ]
          },
          "addEndure": 0.0,
          "resetAnimatorTriggerOnExit": ["BeHit", "DoSkill"],
          "canSteer": true
        }
      }
    }
  },
  "billboard": {
    "$type": "DNGNMAJBCNP",
    "attachPoint": "BillboardAttach",
    "offset": {
      "x": -0.3499999940395355,
      "y": 0.5
    },
    "offsetType": "Character",
    "showHPBar": true,
    "size": "Big"
  },
  "initialPoses": {
    "Default": {
      "initialPoseID": 1
    }
  },
  "aibeta": {
    "enable": true,
    "moveSetting": {
      "navMeshAgentName": "Undead01"
    },
    "sensing": {
      "settings": {
        "DefaultSetting": {
          "feelRange": 8.0
        }
      }
    },
    "threat": {
      "GHIJMOKOLMB": "",
      "clearThreatEdgeDistance": 3.5,
      "clearThreatTimerByDistance": 1.75,
      "viewThreatGrow": 35.0,
      "feelThreatGrow": 100.0,
      "threatDecreaseSpeed": 10.0,
      "resistTauntLevel": "Monster_TauntLevel_3"
    },
    "defendArea": {
      "defendRange": 70.0
    },
    "skillGroupCDConfigs": [
      {
        "skillGroupCDID": 2,
        "skillGroupCDTime": 8.0
      },
      {
        "skillGroupCDID": 3,
        "skillGroupCDTime": 15.0
      }
    ],
    "skills": {
      "101": {
        "name": "OnAlert",
        "skillType": "OnAlert",
        "publicCDGroup": "",
        "ignoreGCD": true,
        "triggerGCD": false,
        "HHAGODJIAPE": "",
        "stateIDs": ["Alert"],
        "flagTargetReachable": "10",
        "flagSelfOnTemplateCollider": "01",
        "flagSelfInZone": "10",
        "flagTargetInZone": "11"
      },
      "201": {
        "name": "NormalAttack01",
        "castCondition": {
          "pose": [101],
          "pickRangeMax": 5.0
        },
        "cd": 3.0,
        "cdUpperRange": 3.0,
        "publicCDGroup": "",
        "HHAGODJIAPE": "",
        "stateIDs": ["NormalAttack01"],
        "flagTargetReachable": "10",
        "flagSelfOnTemplateCollider": "01",
        "flagSelfInZone": "10",
        "flagTargetInZone": "11"
      },
      "211": {
        "name": "NormalAttack02",
        "castCondition": {
          "pose": [101],
          "pickRangeMax": 10.0
        },
        "cd": 20.0,
        "cdUpperRange": 5.0,
        "initialCD": 7.0,
        "initialCDUpperRange": 5.0,
        "publicCDGroup": "",
        "triggerCDOnStart": true,
        "HHAGODJIAPE": "",
        "stateIDs": ["NormalAttack02"],
        "flagTargetReachable": "11",
        "flagSelfOnTemplateCollider": "01",
        "flagSelfInZone": "11",
        "flagTargetInZone": "11"
      },
      "221": {
        "name": "MoveAttack01",
        "priority": 1,
        "castCondition": {
          "pose": [101],
          "pickRangeMax": 25.0
        },
        "cd": 20.0,
        "cdUpperRange": 5.0,
        "initialCD": 5.0,
        "initialCDUpperRange": 5.0,
        "publicCDGroup": "Eremite_ComboAttack",
        "HHAGODJIAPE": "",
        "stateIDs": [
          "UnderGroundAttack_Loop",
          "UnderGroundAttack_BS",
          "UnderGroundAttack_AS"
        ],
        "flagTargetReachable": "10",
        "flagSelfOnTemplateCollider": "01",
        "flagSelfInZone": "10",
        "flagTargetInZone": "11"
      },
      "231": {
        "name": "MeleeAttack01",
        "castCondition": {
          "pose": [101],
          "pickRangeMin": 5.0,
          "pickRangeMax": 12.0
        },
        "cd": 8.0,
        "cdUpperRange": 5.0,
        "publicCDGroup": "",
        "HHAGODJIAPE": "",
        "stateIDs": [
          "MeleeAttack01_Loop",
          "MeleeAttack01_BS",
          "MeleeAttack01_AS"
        ],
        "flagTargetReachable": "10",
        "flagSelfOnTemplateCollider": "01",
        "flagSelfInZone": "10",
        "flagTargetInZone": "11"
      }
    },
    "skillGCD": 2.0,
    "birdCirclingTactic": [
      {
        "$type": "EPHBMLFODKF",
        "enable": true,
        "condition": {
          "pose": [101]
        },
        "JMCOBEPDIGM": {
          "rangeMin": 5.0,
          "rangeMax": 15.0,
          "ALIBHHJHHMN": 1.600000023841858,
          "BFJBDDIIFOI": {
            "IDEFILBHNAP": 4.0,
            "IBLIPJPNOGC": 1.5,
            "AEBLMKFNCDG": 0.0,
            "IGLIBIOEGBB": 0.0
          },
          "NAOBMNGDKHL": "1111",
          "JCNIJOAIGII": "1111",
          "MNPDDAKDHGK": ""
        }
      },
      {
        "$type": "KACCHOLJDNK",
        "enable": true,
        "condition": {
          "pose": [101]
        },
        "JMCOBEPDIGM": {
          "KHDFDAAAPEI": 10.0,
          "HKJODDGJPHA": 99.0,
          "KFFGCIMPNMJ": 6.0,
          "MNPDDAKDHGK": ""
        }
      },
      {
        "$type": "NNJKLGNPMNN"
      },
      {
        "$type": "FPELBIJFGCE"
      }
    ]
  },
  "inputKeys": [
    {
      "keyID": 201,
      "inputKeyCode": 258,
      "abilityName": ""
    },
    {
      "keyID": 211,
      "inputKeyCode": 259,
      "abilityName": ""
    },
    {
      "keyID": 221,
      "inputKeyCode": 260,
      "abilityName": ""
    },
    {
      "keyID": 231,
      "inputKeyCode": 261,
      "abilityName": ""
    }
  ],
  "move": {
    "$type": "IPNMJMHDMPF",
    "velocityForce": {
      "excludeForces": ["RetreatAirType"]
    },
    "facingMove": "ForwardBackward",
    "destroyRockWhenInit": true,
    "positionModifyExtra": true,
    "PKHOMJHFAEE": "RootNode"
  },
  "audio": {
    "overrideEmitterName": "",
    "animAudio": {
      "onTransitionIn": [
        {
          "currentStateName": "MeleeAttack01_Loop",
          "audioEvent": {
            "text": "Play_sfx_monster_Gator_Eremite_Rock_meleeAttack01_Loop"
          },
          "otherStateNames": ["MeleeAttack01_Loop"],
          "usage": "Except"
        }
      ],
      "onTransitionOut": [
        {
          "currentStateName": "MeleeAttack01_Loop",
          "audioEvent": {
            "text": "Stop_sfx_monster_Gator_Eremite_Rock_meleeAttack01_Loop"
          },
          "otherStateNames": ["MeleeAttack01_Loop"],
          "usage": "Except"
        }
      ]
    }
  }
}
