{
  "common": {
    "effectAttachShape": {
      "$type": "FJNPJANPGGC",
      "mesh": "EffectMesh"
    },
    "mass": 150.0,
    "height": 1.7999999523162842,
    "modelHeight": 1.7999999523162842,
    "viewSize": 1.5,
    "affectedByWorld": true,
    "checkInSurface": true,
    "scale": 1.2000000476837158,
    "disableTickDistance": 200.0,
    "shouldPauseAnimatorBeforeReady": true,
    "useGrassDisplacement": true,
    "reconnectSupport": true,
    "recoverByInitPose": true
  },
  "model": {
    "bornEffect": "Eff_Monster_Common_Born",
    "attachEffect": "",
    "canBakeMesh": false,
    "BKPFGNPLDNJ": ""
  },
  "dither": {
    "showDitherDuration": 2.0
  },
  "combat": {
    "property": {
      "endureType": "Monster_Minion",
      "weight": 150.0
    },
    "beHit": {
      "hitBloodEffect": ""
    },
    "combatLock": {
      "lockShape": "CircleLockEnemy",
      "lockType": "Avatar&Monster_Lv4"
    },
    "die": {
      "hasAnimatorDie": true,
      "dieEndTime": 2.0,
      "dieForceDisappearTime": 2.0,
      "dieDisappearEffect": "Eff_Death_Common",
      "dieShaderData": "MonsterDie",
      "ragDollDieEndTimeDelay": 0.800000011920929,
      "muteHitBox": true,
      "dieDenyLockOn": true,
      "dieIsGhostToEnemy": true,
      "dieIgnoreTriggerBullet": true,
      "muteBillboard": true,
      "mutePushCollider": true
    }
  },
  "abilities": [
    {
      "abilityID": "Monster_MachinaIustitia_Probe_HitSpecial",
      "abilityName": "Monster_MachinaIustitia_Probe_HitSpecial",
      "abilityOverride": ""
    },
    {
      "abilityID": "Monster_MachinaIustitia_CoilHanler",
      "abilityName": "Monster_MachinaIustitia_CoilHanler",
      "abilityOverride": ""
    },
    {
      "abilityID": "Monster_MachinaIustitia_Probe_RepairPose",
      "abilityName": "Monster_MachinaIustitia_Probe_RepairPose",
      "abilityOverride": ""
    },
    {
      "abilityID": "Monster_MachinaIustitia_Probe_CoilEffect",
      "abilityName": "Monster_MachinaIustitia_Probe_CoilEffect",
      "abilityOverride": ""
    },
    {
      "abilityID": "Monster_MachinaIustitia_Recover_Effect_Pneuma",
      "abilityName": "Monster_MachinaIustitia_Recover_Effect_Pneuma",
      "abilityOverride": ""
    },
    {
      "abilityID": "Monster_MachinaIustitia_Recover_Effect_Ousia",
      "abilityName": "Monster_MachinaIustitia_Recover_Effect_Ousia",
      "abilityOverride": ""
    },
    {
      "abilityID": "Monster_MachinaIustitia_Probe_Pose",
      "abilityName": "Monster_MachinaIustitia_Probe_Pose",
      "abilityOverride": ""
    },
    {
      "abilityID": "Monster_MachinaIustitia_Probe_Recover_Ousia",
      "abilityName": "Monster_MachinaIustitia_Probe_Recover_Ousia",
      "abilityOverride": ""
    },
    {
      "abilityID": "Monster_MachinaIustitia_Probe_RecoverEffect_Pneuma",
      "abilityName": "Monster_MachinaIustitia_Probe_RecoverEffect_Pneuma",
      "abilityOverride": ""
    },
    {
      "abilityID": "Monster_MachinaIustitia_Probe_Recover_Pneuma",
      "abilityName": "Monster_MachinaIustitia_Probe_Recover_Pneuma",
      "abilityOverride": ""
    },
    {
      "abilityID": "Monster_MachinaIustitia_Probe_RecoverEffect_Ousia",
      "abilityName": "Monster_MachinaIustitia_Probe_RecoverEffect_Ousia",
      "abilityOverride": ""
    },
    {
      "abilityID": "Monster_MachinaIustitia_Assimilator_Steer_Handle",
      "abilityName": "Monster_MachinaIustitia_Assimilator_Steer_Handle",
      "abilityOverride": ""
    },
    {
      "abilityID": "MvM_MachinaIustitia_Assimilator_NormalAttack01",
      "abilityName": "MvM_MachinaIustitia_Assimilator_NormalAttack01",
      "abilityOverride": ""
    },
    {
      "abilityID": "MvM_MachinaIustitia_Assimilator_MeleeAttack01",
      "abilityName": "MvM_MachinaIustitia_Assimilator_MeleeAttack01",
      "abilityOverride": ""
    },
    {
      "abilityID": "",
      "abilityName": "Activity_V4_7_MvM_CommonThreatObject",
      "abilityOverride": ""
    }
  ],
  "stateLayers": {
    "defaultLayer": {
      "$type": "GBGJJIIEMBD",
      "layerIndexName": "",
      "CPAANEIJCGD": "",
      "stateIDs": {
        "NormalIdle": {
          "$type": "NEDIFAKEGCO",
          "animatorStates": {
            "Standby": [],
            "PneumaStandby": [],
            "Born": []
          },
          "canDoSkill": true,
          "canSyncMove": true,
          "cullingModelAlwaysAnimate": true,
          "resetAnimatorTriggerOnExit": ["DoSkill"]
        },
        "NormalMove": {
          "$type": "NEDIFAKEGCO",
          "animatorStates": {
            "Run": []
          },
          "canDoSkill": true,
          "canSyncMove": true,
          "cullingModelAlwaysAnimate": true,
          "resetAnimatorTriggerOnExit": ["DoSkill"],
          "canSteer": true
        },
        "Turn": {
          "$type": "NEDIFAKEGCO",
          "animatorStates": {
            "TurnLeft": [],
            "TurnRight": [],
            "NoTurn": []
          },
          "canDoSkill": true,
          "canSyncMove": true,
          "cullingModelAlwaysAnimate": true,
          "resetAnimatorTriggerOnExit": ["DoSkill"],
          "canSteer": true
        },
        "BeHit": {
          "$type": "NEDIFAKEGCO",
          "animatorStates": {
            "Hit_H": ["Audio_Monster_MachinaIustitia_Assimilator_Hit_H"]
          },
          "resetAnimatorTriggerOnEnter": ["BeHit"],
          "resetAnimatorTriggerOnExit": ["DoSkill"]
        },
        "Overload": {
          "$type": "NEDIFAKEGCO",
          "animatorStates": {
            "PneumaOverload": [
              "Audio_Monster_MachinaIustitia_Assimilator_Overload"
            ],
            "OusiaOverload": [
              "Audio_Monster_MachinaIustitia_Assimilator_Overload"
            ]
          },
          "resetAnimatorTriggerOnEnter": ["BeHit"],
          "resetAnimatorTriggerOnExit": ["DoSkill"]
        },
        "Die": {
          "$type": "NEDIFAKEGCO",
          "animatorStates": {
            "Die": ["Audio_Monster_MachinaIustitia_Assimilator_Die"]
          },
          "resetAnimatorTriggerOnEnter": ["DoSkill"]
        },
        "Die_RagDoll": {
          "$type": "NEDIFAKEGCO",
          "animatorStates": {
            "Die_RagDoll": []
          },
          "resetAnimatorTriggerOnEnter": ["DoSkill"]
        },
        "NormalAttack01": {
          "$type": "NEDIFAKEGCO",
          "animatorStates": {
            "NormalAttack01": [
              "Audio_Monster_MachinaIustitia_Assimilator_NormalAttack"
            ]
          },
          "addEndure": 0.0,
          "resetAnimatorTriggerOnExit": ["BeHit", "DoSkill"],
          "handleAnimatorStateImmediately": true,
          "canSteer": true,
          "followAnimRotation": true
        },
        "MeleeAttack01_BS": {
          "$type": "NEDIFAKEGCO",
          "animatorStates": {
            "MeleeAttack01_BS": [
              "Audio_Monster_MachinaIustitia_Assimilator_MeleeAttack01_BS"
            ]
          },
          "cullingModelAlwaysAnimate": true,
          "addEndure": 0.0,
          "resetAnimatorTriggerOnExit": ["BeHit", "DoSkill"]
        },
        "MeleeAttack01_Loop": {
          "$type": "NEDIFAKEGCO",
          "animatorStates": {
            "MeleeAttack01_Loop": [
              "MvM_MachinaIustitia_Assimilator_MeleeAttack01"
            ]
          },
          "cullingModelAlwaysAnimate": true,
          "addEndure": 0.0,
          "resetAnimatorTriggerOnExit": ["BeHit", "DoSkill"],
          "canSteer": true
        },
        "MeleeAttack01_AS": {
          "$type": "NEDIFAKEGCO",
          "animatorStates": {
            "MeleeAttack01_AS": [
              "Audio_Monster_MachinaIustitia_Assimilator_MeleeAttack01_AS"
            ]
          },
          "cullingModelAlwaysAnimate": true,
          "addEndure": 0.0,
          "resetAnimatorTriggerOnExit": ["BeHit", "DoSkill"],
          "canSteer": true
        }
      }
    }
  },
  "billboard": {
    "$type": "DNGNMAJBCNP",
    "attachPoint": "BillboardAttach",
    "offsetType": "Character",
    "radiusOffset": 1.0,
    "showHPBar": true,
    "size": "Big"
  },
  "initialPoses": {
    "Default": {
      "initialPoseID": 1
    },
    "Defend": {
      "initialPoseID": 999,
      "initialPoseParams": {
        "intParams": {
          "LevelType": "1"
        }
      }
    }
  },
  "aibeta": {
    "enable": true,
    "sensing": {
      "settings": {
        "DefaultSetting": {
          "viewRange": 15.0,
          "viewPanoramic": true,
          "feelRange": 15.0
        }
      },
      "templates": {
        "DefaultTemplate": {
          "DefaultPoses": "DefaultSetting"
        }
      }
    },
    "neurons": {
      "DefaultSetting": ["HIT", "FEAR"],
      "NeverCombat": []
    },
    "threat": {
      "GHIJMOKOLMB": "",
      "clearThreatTargetDistance": 100.0,
      "clearThreatEdgeDistance": 3.5,
      "clearThreatTimerByDistance": 1.75,
      "LHDJAIFLCOE": true,
      "viewThreatGrow": 35.0,
      "feelThreatGrow": 1000.0,
      "threatDecreaseSpeed": 5.0,
      "threatBroadcastRange": 0.0,
      "viewAttenuation": [
        {
          "x": 15.0,
          "y": 10.0
        },
        {
          "x": 200.0
        }
      ],
      "IIOLFCGEIHN": true,
      "APJJOOLHDAA": ["_MVM_ATTACK_TARGET"],
      "auxScoreChangeTargetCD": 0.5,
      "targetDistanceScoreSystem": {
        "weight": 100,
        "value": 100.0,
        "max": 100.0,
        "enable": true
      }
    },
    "defendArea": {
      "defendRange": 100.0
    },
    "command": {
      "enable": true,
      "HDFMIBIKJCO": true
    },
    "profiling": {},
    "skillSetting": {},
    "skills": {
      "201": {
        "name": "NormalAttack01",
        "combatSkillType": "MeleeAttack",
        "priority": 3,
        "castCondition": {
          "pose": [101, 102, 201],
          "pickRangeMax": 3.0
        },
        "cd": 2.0,
        "publicCDGroup": "",
        "triggerCDOnStart": true,
        "HHAGODJIAPE": "",
        "stateIDs": ["NormalAttack01"],
        "skillQueryingTime": 3.0,
        "flagTargetReachable": "11",
        "flagSelfOnTemplateCollider": "11",
        "flagSelfInZone": "11",
        "flagTargetInZone": "11"
      },
      "401": {
        "name": "MeleeAttack01",
        "combatSkillType": "MeleeAttack",
        "priority": 3,
        "castCondition": {
          "pose": [201],
          "pickRangeMax": 12.0
        },
        "cd": 8.0,
        "publicCDGroup": "",
        "triggerCDOnStart": true,
        "HHAGODJIAPE": "",
        "stateIDs": [
          "MeleeAttack01_BS",
          "MeleeAttack01_Loop",
          "MeleeAttack01_AS"
        ],
        "skillQueryingTime": 3.0,
        "flagTargetReachable": "11",
        "flagSelfOnTemplateCollider": "11",
        "flagSelfInZone": "11",
        "flagTargetInZone": "11"
      }
    },
    "skillGCD": 0.0,
    "target": {
      "defaultTargetPrioritys": ["COMMAND", "THREAT"]
    },
    "birdCirclingTactic": [
      {
        "$type": "KACCHOLJDNK",
        "enable": true,
        "condition": {
          "pose": [101, 102, 201, 301]
        },
        "JMCOBEPDIGM": {
          "KHDFDAAAPEI": 3.0,
          "HKJODDGJPHA": 99.0,
          "MNPDDAKDHGK": ""
        }
      },
      {
        "$type": "MCDGOJLCMBM",
        "JMCOBEPDIGM": {
          "MNPDDAKDHGK": "",
          "GJDMDHIBCME": ""
        }
      },
      {
        "$type": "COLLJLNKMLC",
        "JMCOBEPDIGM": {
          "MNPDDAKDHGK": "",
          "GJDMDHIBCME": "",
          "BBPDJAFOGPF": true,
          "PLLHMGHOAPB": "",
          "KPIJNGFNAEF": "",
          "GDPHPLKJGAJ": "",
          "KKKOAABEHEP": ""
        }
      },
      {
        "$type": "NNJKLGNPMNN",
        "enable": true,
        "condition": {
          "pose": [901, 902]
        },
        "JMCOBEPDIGM": {
          "MNPDDAKDHGK": "",
          "GJDMDHIBCME": "",
          "IAJDAHDAEFP": true,
          "OILAIKJEIGB": false
        }
      }
    ]
  },
  "inputKeys": [
    {
      "keyID": 201,
      "inputKeyCode": 257,
      "abilityName": ""
    },
    {
      "keyID": 301,
      "inputKeyCode": 258,
      "abilityName": ""
    },
    {
      "keyID": 401,
      "inputKeyCode": 259,
      "abilityName": ""
    },
    {
      "keyID": 501,
      "inputKeyCode": 260,
      "abilityName": ""
    },
    {
      "keyID": 511,
      "inputKeyCode": 261,
      "abilityName": ""
    }
  ],
  "move": {
    "$type": "IPNMJMHDMPF",
    "velocityForce": {
      "excludeForces": ["RetreatAirType"]
    },
    "handleCombatTaskImmediately": true,
    "facingMove": "ForwardBackward",
    "yawSpeedRatio": 0.800000011920929,
    "PKHOMJHFAEE": "RootNode"
  },
  "audio": {
    "overrideEmitterName": "",
    "animAudio": {
      "onTransitionIn": [
        {
          "currentStateName": "Dig",
          "audioEvent": {
            "text": "Play_Sfx_Monster_MachinaIustitia_Assimilator_Dig_LP"
          },
          "otherStateNames": ["Dig"],
          "usage": "Except"
        },
        {
          "currentStateName": "WalkForward",
          "audioEvent": {
            "text": "Play_Sfx_Monster_MachinaIustitia_Assimilator_Roll_LP"
          },
          "otherStateNames": ["WalkForward"],
          "usage": "Except"
        },
        {
          "currentStateName": "WalkBack",
          "audioEvent": {
            "text": "Play_Sfx_Monster_MachinaIustitia_Assimilator_Roll_LP"
          },
          "otherStateNames": ["WalkBack"],
          "usage": "Except"
        },
        {
          "currentStateName": "Run",
          "audioEvent": {
            "text": "Play_Sfx_Monster_MachinaIustitia_Assimilator_Roll_LP"
          },
          "otherStateNames": ["Run"],
          "usage": "Except"
        },
        {
          "currentStateName": "TurnLeft",
          "audioEvent": {
            "text": "Play_Sfx_Monster_MachinaIustitia_Assimilator_Roll_LP"
          },
          "otherStateNames": ["TurnLeft", "TurnRight"],
          "usage": "Except"
        },
        {
          "currentStateName": "TurnRight",
          "audioEvent": {
            "text": "Play_Sfx_Monster_MachinaIustitia_Assimilator_Roll_LP"
          },
          "otherStateNames": ["TurnRight", "TurnLeft"],
          "usage": "Except"
        },
        {
          "currentStateName": "MeleeAttack01_Loop",
          "audioEvent": {
            "text": "Play_Sfx_Monster_MachinaIustitia_Assimilator_MeleeAttack01_Loop_LP"
          },
          "otherStateNames": ["MeleeAttack01_Loop"],
          "usage": "Except"
        }
      ],
      "onTransitionOut": [
        {
          "currentStateName": "Dig",
          "audioEvent": {
            "text": "Stop_Sfx_Monster_MachinaIustitia_Assimilator_Dig_LP"
          },
          "otherStateNames": ["Dig"],
          "usage": "Except"
        },
        {
          "currentStateName": "WalkForward",
          "audioEvent": {
            "text": "Stop_Sfx_Monster_MachinaIustitia_Assimilator_Roll_LP"
          },
          "otherStateNames": ["WalkForward"],
          "usage": "Except"
        },
        {
          "currentStateName": "WalkBack",
          "audioEvent": {
            "text": "Stop_Sfx_Monster_MachinaIustitia_Assimilator_Roll_LP"
          },
          "otherStateNames": ["WalkBack"],
          "usage": "Except"
        },
        {
          "currentStateName": "Run",
          "audioEvent": {
            "text": "Stop_Sfx_Monster_MachinaIustitia_Assimilator_Roll_LP"
          },
          "otherStateNames": ["Run"],
          "usage": "Except"
        },
        {
          "currentStateName": "TurnLeft",
          "audioEvent": {
            "text": "Stop_Sfx_Monster_MachinaIustitia_Assimilator_Roll_LP"
          },
          "otherStateNames": ["TurnLeft", "TurnRight"],
          "usage": "Except"
        },
        {
          "currentStateName": "TurnRight",
          "audioEvent": {
            "text": "Stop_Sfx_Monster_MachinaIustitia_Assimilator_Roll_LP"
          },
          "otherStateNames": ["TurnLeft", "TurnRight"],
          "usage": "Except"
        },
        {
          "currentStateName": "MeleeAttack01_Loop",
          "audioEvent": {
            "text": "Stop_Sfx_Monster_MachinaIustitia_Assimilator_MeleeAttack01_Loop_LP"
          },
          "otherStateNames": ["MeleeAttack01_Loop"],
          "usage": "Except"
        }
      ]
    }
  }
}
