{
  "common": {
    "effectAttachShape": {
      "$type": "FJNPJANPGGC",
      "mesh": "EffectMesh"
    },
    "mass": 500.0,
    "height": 1.2000000476837158,
    "modelHeight": 0.4000000059604645,
    "viewSize": 2.0,
    "shadowViewSizeRatio": 0.5,
    "affectedByWorld": true,
    "checkInSurface": true,
    "scale": 4.0,
    "useGrassDisplacement": true,
    "enableCrashDamage": false
  },
  "model": {
    "bornEffect": "",
    "attachEffect": "",
    "canBakeMesh": false,
    "BKPFGNPLDNJ": ""
  },
  "dither": {
    "startDitherAction": {
      "enable": true
    }
  },
  "combat": {
    "property": {
      "endureType": "Monster_Grunt_Other",
      "weight": 100.0
    },
    "beHit": {
      "hitBloodEffect": "",
      "hitAutoRedirect": false
    },
    "combatLock": {
      "lockShape": "CircleLockEnemy",
      "lockType": "Avatar&Monster_Lv4"
    },
    "die": {
      "fallWhenAirDie": false,
      "dieEndTime": 2.0,
      "dieForceDisappearTime": 8.0,
      "dieDisappearEffect": "",
      "muteHitBox": true,
      "dieDenyLockOn": true,
      "dieIsGhostToEnemy": true,
      "dieIgnoreTriggerBullet": true,
      "muteBillboard": true,
      "mutePushCollider": true
    },
    "animEvents": {
      "NormalAtk": {
        "attackPattern": {
          "$type": "ConfigAttackCircle",
          "triggerType": "TriggerNoRepeat",
          "born": {
            "$type": "ConfigBornBySelf",
            "offset": {
              "x": 0.0,
              "y": 0.0,
              "z": 0.0
            }
          },
          "height": 3.0,
          "radius": 2.0
        },
        "attackInfo": {
          "attackTag": "",
          "attenuationTag": "",
          "attenuationGroup": "default",
          "attackProperty": {
            "actorGrassSubHurtDelta": 0.5,
            "actorWindSubHurtDelta": 0.0,
            "elementType": "Wind",
            "elementDurability": 50.0,
            "strikeType": "Blunt",
            "enBreak": 80.0,
            "attackType": "Melee",
            "GLKMCMDJBIK": 0.0
          },
          "hitPattern": {
            "onHitEffectName": "default",
            "hitImpulseY": "",
            "hitImpulseType": "LV4",
            "hitHaltTimeScale": 0.009999999776482582
          }
        }
      },
      "CompressAtk": {
        "attackPattern": {
          "$type": "ConfigAttackCircle",
          "triggerType": "TriggerNoRepeat",
          "born": {
            "$type": "ConfigBornBySelf",
            "offset": {
              "x": 0.0,
              "y": 0.0,
              "z": 0.0
            }
          },
          "radius": 1.75
        },
        "attackInfo": {
          "attackTag": "",
          "attenuationTag": "",
          "attenuationGroup": "default",
          "attackProperty": {
            "actorGrassSubHurtDelta": 1.0,
            "actorWindSubHurtDelta": 0.0,
            "elementType": "Wind",
            "elementDurability": 100.0,
            "strikeType": "Blunt",
            "enBreak": 100.0,
            "attackType": "Melee",
            "GLKMCMDJBIK": 0.0
          },
          "hitPattern": {
            "onHitEffectName": "default",
            "hitImpulseY": "",
            "hitImpulseType": "LV4",
            "hitHaltTimeScale": 0.009999999776482582
          }
        }
      }
    }
  },
  "equipController": {
    "sheathPoint": "",
    "attachPoints": {
      "equip01": "WeaponR",
      "equip02": "WeaponL"
    }
  },
  "abilities": [
    {
      "abilityID": "GravityAdjust",
      "abilityName": "Slime_Wind_03_GravityAdjust",
      "abilityOverride": ""
    },
    {
      "abilityID": "Die",
      "abilityName": "Slime_Wind_03_Die",
      "abilityOverride": ""
    },
    {
      "abilityID": "Die_Dither",
      "abilityName": "Slime_Wind_Die_Dither",
      "abilityOverride": ""
    },
    {
      "abilityID": "InAir",
      "abilityName": "Slime_Wind_03_InAir",
      "abilityOverride": ""
    },
    {
      "abilityID": "HitThrowToGround",
      "abilityName": "Slime_Wind_03_HitThrowToGround",
      "abilityOverride": ""
    },
    {
      "abilityID": "CompressAttack",
      "abilityName": "Slime_Wind_03_CompressAttack",
      "abilityOverride": ""
    },
    {
      "abilityID": "AirAtk_Tirgger",
      "abilityName": "Slime_Wind_AirAtk_Tirgger",
      "abilityOverride": ""
    },
    {
      "abilityID": "AirAtk",
      "abilityName": "Slime_Wind_AirAtk",
      "abilityOverride": ""
    },
    {
      "abilityID": "AnimationSteer",
      "abilityName": "Slime_Wind_AnimationSteer",
      "abilityOverride": ""
    },
    {
      "abilityID": "BlowUpToGround",
      "abilityName": "Slime_Wind_BlowUpToGround",
      "abilityOverride": ""
    },
    {
      "abilityID": "TargetAltitude_Charge",
      "abilityName": "Slime_Wind_TargetAltitude_Charge",
      "abilityOverride": ""
    },
    {
      "abilityID": "JumpAttack",
      "abilityName": "Slime_Wind_03_JumpAttack",
      "abilityOverride": ""
    },
    {
      "abilityID": "WindMuteHurt",
      "abilityName": "Monster_Common_WindMuteHurt",
      "abilityOverride": ""
    }
  ],
  "stateLayers": {
    "defaultLayer": {
      "$type": "GBGJJIIEMBD",
      "layerIndexName": "",
      "CPAANEIJCGD": "",
      "stateIDs": {
        "Born": {
          "$type": "NEDIFAKEGCO",
          "animatorStates": {
            "Born": ["Monster_Slime_Born_03", "Audio_Slime_03_Born"]
          },
          "canSyncMove": true,
          "resetAnimatorTriggerOnExit": ["DoSkill"]
        },
        "NormalIdle": {
          "$type": "NEDIFAKEGCO",
          "animatorStates": {
            "Standby": []
          },
          "canDoSkill": true,
          "canSyncMove": true,
          "resetAnimatorTriggerOnExit": ["DoSkill"]
        },
        "Turn": {
          "$type": "NEDIFAKEGCO",
          "animatorStates": {
            "Turn": ["Audio_Slime_03_Run"]
          },
          "canDoSkill": true,
          "canSyncMove": true,
          "resetAnimatorTriggerOnExit": ["DoSkill"]
        },
        "NormalMove": {
          "$type": "NEDIFAKEGCO",
          "animatorStates": {
            "Walk": ["Audio_Slime_03_Walk"],
            "Run": ["Audio_Slime_03_Run"]
          },
          "canDoSkill": true,
          "canSyncMove": true,
          "resetAnimatorTriggerOnExit": ["DoSkill"],
          "canSteer": true
        },
        "BeHit": {
          "$type": "NEDIFAKEGCO",
          "animatorStates": {
            "Hit_L": ["Monster_Slime_BeHit", "Audio_Slime_03_Hit_L"],
            "Hit_H": ["Monster_Slime_BeHit", "Audio_Slime_03_Hit_H"]
          },
          "resetAnimatorTriggerOnEnter": ["BeHit"],
          "resetAnimatorTriggerOnExit": ["DoSkill"]
        },
        "BeHitThrow": {
          "$type": "NEDIFAKEGCO",
          "animatorStates": {
            "HitThrow": [
              "Monster_Slime_Wind_HitThrow",
              "Monster_Slime_BeHit",
              "Audio_Slime_03_HitThrow"
            ],
            "HitThrowDrop": [],
            "HitThrowToGround": [
              "Monster_Slime_Wind_03_HitThrowToGround",
              "Monster_Slime_ThrowToGround_03",
              "Audio_Slime_03_HitThrowToGround"
            ]
          },
          "resetAnimatorTriggerOnEnter": ["BeHit", "HitAir2HitDrop"],
          "resetAnimatorTriggerOnExit": ["DoSkill"]
        },
        "BlowUp": {
          "$type": "NEDIFAKEGCO",
          "animatorStates": {
            "HitThrowDrop_BlowUp": [],
            "HitThrowDrop_InAir": [
              "Monster_Slime_Wind_HitThrowDrop_InAir",
              "Audio_Slime_Wind_03_HitThrowDrop_InAir"
            ],
            "HitThrowDrop_InAir_Long": [
              "Monster_Slime_Wind_HitThrowDrop_InAir",
              "Audio_Slime_Wind_03_HitThrowDrop_InAir"
            ],
            "BlowUpToGround": [
              "Monster_Slime_Wind_BlowUpToGround",
              "Monster_Slime_Wind_BlowUp"
            ]
          },
          "canSyncMove": true,
          "resetAnimatorTriggerOnEnter": ["BeHit", "HitAir2HitDrop"],
          "resetAnimatorTriggerOnExit": ["DoSkill"],
          "gravityAdjustScale": -2.0,
          "forceSetAirMove": true
        },
        "Struggle": {
          "$type": "NEDIFAKEGCO",
          "animatorStates": {
            "Struggle": []
          },
          "resetAnimatorTriggerOnEnter": ["BeHit", "HitAir2HitDrop"],
          "resetAnimatorTriggerOnExit": ["DoSkill"]
        },
        "Die": {
          "$type": "NEDIFAKEGCO",
          "animatorStates": {
            "Die": [
              "Monster_Slime_Die",
              "Monster_Slime_Wind_03_Die",
              "Audio_Slime_Wind_03_Die"
            ],
            "SwimDie": ["Monster_Slime_Die", "Monster_Slime_Wind_03_SwimDie"]
          }
        },
        "Warning": {
          "$type": "NEDIFAKEGCO",
          "animatorStates": {
            "Warning": ["Monster_Slime_Warning"]
          },
          "resetAnimatorTriggerOnExit": ["BeHit", "DoSkill"]
        },
        "NormalAttack": {
          "$type": "NEDIFAKEGCO",
          "animatorStates": {
            "NormalAttack": [
              "Monster_Slime_Wind_03_NormalAttack",
              "Audio_Slime_03_NormalAtk"
            ]
          },
          "resetAnimatorTriggerOnExit": ["BeHit", "DoSkill"]
        },
        "CompressAttack": {
          "$type": "NEDIFAKEGCO",
          "animatorStates": {
            "CompressAttack_BS": [
              "Monster_Slime_Wind_03_CompressAttack_BS",
              "Audio_Slime_Wind_03_CompressAttack"
            ],
            "CompressAttack": ["Monster_Slime_Wind_03_CompressAttack"],
            "CompressAttack_AS": ["Monster_Slime_Wind_03_CompressAttack_AS"]
          },
          "addEndure": 0.4000000059604645,
          "resetAnimatorTriggerOnExit": ["BeHit", "DoSkill"]
        },
        "JumpAttack": {
          "$type": "NEDIFAKEGCO",
          "animatorStates": {
            "JumpAttack": [
              "Monster_Slime_Wind_JumpAttack",
              "Audio_Slime_Wind_03_JumpAttack"
            ],
            "JumpAttack_BlowUp": ["Audio_Slime_Wind_03_JumpAttack"]
          },
          "cullingModelAlwaysAnimate": true,
          "addEndure": 0.4000000059604645,
          "resetAnimatorTriggerOnExit": ["BeHit", "DoSkill"],
          "remoteForceUseAnimatorVel": true
        }
      }
    }
  },
  "face": {
    "characterName": "Slime_01",
    "baseFaceAnimation": "Default",
    "intervalFaceAnimation": "Blink",
    "minInterval": 1.5,
    "maxInterval": 5.5
  },
  "billboard": {
    "$type": "DNGNMAJBCNP",
    "attachPoint": "BillboardAttach",
    "offset": {
      "y": 0.30000001192092896
    },
    "radiusOffset": 1.0,
    "showHPBar": true,
    "size": "Big"
  },
  "initialPoses": {
    "Default": {}
  },
  "aibeta": {
    "enable": true,
    "sensing": {
      "settings": {
        "DefaultSetting": {
          "viewRange": 20.0,
          "feelRange": 8.0
        },
        "NeverCombat": {
          "enableVision": false,
          "hearAttractionRange": 0.0,
          "feelRange": 0.0
        }
      },
      "templates": {
        "DefaultTemplate": {
          "DefaultPoses": "DefaultSetting"
        },
        "NeverCombatTemplate": {
          "DefaultPoses": "NeverCombat"
        }
      }
    },
    "neurons": {
      "DefaultSetting": ["HIT"],
      "NeverCombat": []
    },
    "threat": {
      "GHIJMOKOLMB": "",
      "clearThreatTargetDistance": 30.0,
      "clearThreatEdgeDistance": 2.5,
      "clearThreatTimerByDistance": 2.5,
      "viewAttenuation": [
        {
          "x": 12.0,
          "y": 1.0
        },
        {
          "x": 20.0,
          "y": 0.5
        }
      ]
    },
    "fly": {
      "enable": true,
      "floatingPoses": [103]
    },
    "skills": {
      "100": {
        "name": "OnAlert",
        "skillType": "OnAlert",
        "faceTarget": true,
        "publicCDGroup": "",
        "triggerGCD": false,
        "HHAGODJIAPE": "",
        "stateIDs": ["Warning"],
        "skillQueryingTime": 3.0,
        "flagTargetReachable": "10",
        "flagSelfOnTemplateCollider": "01",
        "flagSelfInZone": "10",
        "flagTargetInZone": "11"
      },
      "301": {
        "name": "NormalAttack",
        "combatSkillType": "MeleeAttack",
        "castCondition": {
          "pose": [101],
          "pickRangeMax": 2.25
        },
        "cd": 2.0,
        "cdUpperRange": 3.0,
        "publicCDGroup": "",
        "HHAGODJIAPE": "",
        "stateIDs": ["NormalAttack"],
        "flagTargetReachable": "10",
        "flagSelfOnTemplateCollider": "01",
        "flagSelfInZone": "10",
        "flagTargetInZone": "11"
      },
      "302": {
        "name": "NormalAttack",
        "combatSkillType": "MeleeAttack",
        "castCondition": {
          "pose": [101],
          "pickRangeMax": 2.25
        },
        "cd": 2.0,
        "cdUpperRange": 3.0,
        "publicCDGroup": "",
        "HHAGODJIAPE": "",
        "stateIDs": ["NormalAttack"],
        "flagTargetReachable": "10",
        "flagSelfOnTemplateCollider": "01",
        "flagSelfInZone": "01",
        "flagTargetInZone": "11"
      },
      "401": {
        "name": "CompressAttack",
        "priority": 1,
        "castCondition": {
          "pose": [101],
          "pickRangeMin": 7.0,
          "pickRangeMax": 15.0
        },
        "cd": 7.5,
        "cdUpperRange": 7.5,
        "initialCD": 5.0,
        "initialCDUpperRange": 5.0,
        "publicCDGroup": "meleeAttack_long",
        "HHAGODJIAPE": "",
        "stateIDs": ["CompressAttack"],
        "flagTargetReachable": "10",
        "flagSelfOnTemplateCollider": "01",
        "flagSelfInZone": "10",
        "flagTargetInZone": "11"
      },
      "501": {
        "name": "JumpAttack",
        "priority": 2,
        "castCondition": {
          "pose": [101],
          "pickRangeMax": 25.0
        },
        "cd": 7.5,
        "cdUpperRange": 7.5,
        "initialCD": 2.0,
        "initialCDUpperRange": 3.0,
        "publicCDGroup": "meleeAttack_long",
        "HHAGODJIAPE": "",
        "stateIDs": ["JumpAttack"],
        "flagTargetReachable": "10",
        "flagSelfOnTemplateCollider": "01",
        "flagSelfInZone": "10",
        "flagTargetInZone": "11"
      },
      "502": {
        "name": "JumpAttack",
        "priority": 2,
        "castCondition": {
          "pose": [101],
          "pickRangeMax": 25.0
        },
        "cd": 7.5,
        "cdUpperRange": 7.5,
        "initialCD": 2.0,
        "initialCDUpperRange": 3.0,
        "publicCDGroup": "meleeAttack_long",
        "HHAGODJIAPE": "",
        "stateIDs": ["JumpAttack"],
        "flagTargetReachable": "10",
        "flagSelfOnTemplateCollider": "01",
        "flagSelfInZone": "01",
        "flagTargetInZone": "11"
      },
      "503": {
        "name": "JumpAttack",
        "priority": 2,
        "castCondition": {
          "pose": [101],
          "pickRangeMax": 25.0
        },
        "cd": 7.5,
        "cdUpperRange": 7.5,
        "initialCD": 2.0,
        "initialCDUpperRange": 3.0,
        "publicCDGroup": "meleeAttack_long",
        "HHAGODJIAPE": "",
        "stateIDs": ["JumpAttack"],
        "flagTargetReachable": "01",
        "flagSelfOnTemplateCollider": "01",
        "flagSelfInZone": "10",
        "flagTargetInZone": "11"
      },
      "504": {
        "name": "JumpAttack",
        "priority": 2,
        "castCondition": {
          "pose": [101],
          "pickRangeMax": 25.0
        },
        "cd": 7.5,
        "cdUpperRange": 7.5,
        "initialCD": 2.0,
        "initialCDUpperRange": 3.0,
        "publicCDGroup": "meleeAttack_long",
        "HHAGODJIAPE": "",
        "stateIDs": ["JumpAttack"],
        "flagTargetReachable": "01",
        "flagSelfOnTemplateCollider": "01",
        "flagSelfInZone": "01",
        "flagTargetInZone": "11"
      }
    },
    "skillGCD": 3.0,
    "birdCirclingTactic": [
      {
        "$type": "KACCHOLJDNK",
        "enable": true,
        "condition": {
          "pose": [101]
        },
        "JMCOBEPDIGM": {
          "KHDFDAAAPEI": 10.0,
          "HKJODDGJPHA": 50.0,
          "GGEBMFHFBPO": 7.5,
          "FLPMDIAJDKL": false,
          "MNPDDAKDHGK": ""
        }
      },
      {
        "$type": "NNJKLGNPMNN",
        "enable": true
      },
      {
        "$type": "DGNJLJKOKEE",
        "enable": true,
        "condition": {
          "pose": [103]
        },
        "JMCOBEPDIGM": {
          "HJODGEKLAAK": 0.0,
          "CFBKFJKHEEH": 99.0,
          "MNPDDAKDHGK": ""
        }
      },
      {
        "$type": "FPELBIJFGCE",
        "enable": true,
        "JMCOBEPDIGM": {
          "KPNDPKIOPJM": 10.0,
          "PINAFKEDDLL": 3.0,
          "ANMPOPEBDIA": 15.0,
          "GMJFIMFFOEL": 2.5,
          "CHCPFDMADEI": 7.5,
          "MNPDDAKDHGK": ""
        }
      }
    ]
  },
  "inputKeys": [
    {
      "keyID": 401,
      "inputKeyCode": 257,
      "abilityName": ""
    },
    {
      "keyID": 301,
      "inputKeyCode": 258,
      "abilityName": ""
    },
    {
      "keyID": 501,
      "inputKeyCode": 259,
      "abilityName": ""
    }
  ],
  "move": {
    "$type": "IPNMJMHDMPF",
    "monsterSizeType": "SlimeType",
    "PKHOMJHFAEE": "RootNode"
  },
  "audio": {
    "overrideEmitterName": "",
    "animAudio": {
      "onTransitionIn": [
        {
          "currentStateName": "NormalAttack",
          "audioEvent": {
            "text": "Play_sfx_monster_slime_03_wind_jumpAtk_alert"
          }
        }
      ],
      "onTransitionOut": [
        {
          "currentStateName": "JumpAttack",
          "audioEvent": {
            "text": "Stop_sfx_monster_slime_03_wind_jumpAtk_start"
          }
        },
        {
          "currentStateName": "CompressAttack_BS",
          "audioEvent": {
            "text": "Stop_sfx_monster_slime_02_wind_compressAtk"
          },
          "otherStateNames": ["CompressAttack"],
          "usage": "Except"
        },
        {
          "currentStateName": "CompressAttack",
          "audioEvent": {
            "text": "Stop_sfx_monster_slime_02_wind_compressAtk"
          },
          "otherStateNames": ["CompressAttack_AS"],
          "usage": "Except"
        }
      ]
    }
  }
}
