{
  "common": {
    "effectAttachShape": {
      "$type": "FJNPJANPGGC",
      "mesh": "EffectMesh"
    },
    "mass": 10000.0,
    "height": 2.0,
    "modelHeight": 1.7999999523162842,
    "viewSize": 1.5,
    "affectedByWorld": true,
    "checkInSurface": true,
    "scale": 1.100000023841858,
    "useGrassDisplacement": true,
    "clearAIOnSetLightDeactive": true,
    "reconnectSupport": true,
    "recoverByInitPose": true
  },
  "headControl": {
    "$type": "KPIPDEBDPIH",
    "useHeadControl": true,
    "maxYawDegree": 20.0,
    "maxPitchDegree": 5.0,
    "animStates": [
      "NormalIdle/Standby",
      "NormalMove/WalkForward",
      "NormalMove/WalkBack",
      "NormalMove/WalkRight",
      "NormalMove/WalkLeft",
      "NormalMove/Run",
      "Turn/TurnLeft",
      "Turn/TurnRight"
    ]
  },
  "model": {
    "bornEffect": "Eff_Monster_Common_Born",
    "attachEffect": "",
    "BKPFGNPLDNJ": ""
  },
  "dither": {
    "showDitherDuration": 1.0
  },
  "combat": {
    "property": {
      "endureType": "Monster_Demiboss_Humanoid",
      "weight": 80.0
    },
    "beHit": {
      "hitBloodEffect": ""
    },
    "combatLock": {
      "lockShape": "CircleLockEnemy",
      "lockType": "Avatar&Monster_Lv4"
    },
    "die": {
      "hasAnimatorDie": true,
      "dieEndTime": 2.0,
      "dieForceDisappearTime": 8.0,
      "dieDisappearEffect": "",
      "dieShaderData": "EremiteSandDie",
      "dieShaderEnableDurationTime": 1.0,
      "muteHitBox": true,
      "dieDenyLockOn": true,
      "dieIsGhostToEnemy": true,
      "dieIgnoreTriggerBullet": true,
      "muteBillboard": true,
      "mutePushCollider": true
    },
    "animEvents": {
      "NormalAtk01": {
        "attackPattern": {
          "$type": "ConfigAttackBox",
          "triggerType": "TriggerNoRepeat",
          "born": {
            "$type": "ConfigBornBySelf",
            "offset": {
              "x": 0.0,
              "y": 1.0,
              "z": 0.4000000059604645
            }
          },
          "size": {
            "x": 1.600000023841858,
            "y": 3.0,
            "z": 2.5
          }
        },
        "attackInfo": {
          "attackTag": "",
          "attenuationTag": "",
          "attenuationGroup": "default",
          "attackProperty": {
            "actorGrassSubHurtDelta": 0.800000011920929,
            "actorWindSubHurtDelta": 0.0,
            "elementType": "Grass",
            "elementDurability": 25.0,
            "strikeType": "Slash",
            "enBreak": 100.0,
            "attackType": "Melee",
            "GLKMCMDJBIK": 0.0
          },
          "hitPattern": {
            "onHitEffectName": "default",
            "hitImpulseY": "",
            "hitImpulseType": "LV3",
            "canBeDefenceHalt": true
          }
        }
      },
      "NormalAtk02": {
        "attackPattern": {
          "$type": "ConfigAttackBox",
          "triggerType": "TriggerNoRepeat",
          "born": {
            "$type": "ConfigBornBySelf",
            "offset": {
              "x": 0.0,
              "y": 1.0,
              "z": 0.4000000059604645
            }
          },
          "size": {
            "x": 2.0,
            "y": 2.5,
            "z": 1.7999999523162842
          }
        },
        "attackInfo": {
          "attackTag": "",
          "attenuationTag": "",
          "attenuationGroup": "default",
          "attackProperty": {
            "actorGrassSubHurtDelta": 1.0,
            "actorWindSubHurtDelta": 0.0,
            "elementType": "Grass",
            "elementDurability": 25.0,
            "strikeType": "Slash",
            "enBreak": 100.0,
            "attackType": "Melee",
            "GLKMCMDJBIK": 0.0
          },
          "hitPattern": {
            "onHitEffectName": "default",
            "hitImpulseY": "",
            "hitImpulseType": "LV4",
            "canBeDefenceHalt": true
          }
        }
      },
      "NormalAtk03_01": {
        "attackPattern": {
          "$type": "ConfigAttackCircle",
          "triggerType": "TriggerNoRepeat",
          "born": {
            "$type": "ConfigBornBySelf",
            "offset": {
              "x": 0.0,
              "y": 0.0,
              "z": 0.0
            }
          },
          "height": 2.200000047683716,
          "radius": 2.200000047683716
        },
        "attackInfo": {
          "attackTag": "",
          "attenuationTag": "",
          "attenuationGroup": "default",
          "attackProperty": {
            "actorGrassSubHurtDelta": 0.3499999940395355,
            "actorWindSubHurtDelta": 0.0,
            "elementType": "Grass",
            "elementDurability": 25.0,
            "strikeType": "Slash",
            "enBreak": 100.0,
            "attackType": "Melee",
            "GLKMCMDJBIK": 0.0
          },
          "hitPattern": {
            "onHitEffectName": "default",
            "hitImpulseY": "",
            "hitImpulseType": "LV3",
            "canBeDefenceHalt": true
          }
        }
      },
      "NormalAtk03_02": {
        "attackPattern": {
          "$type": "ConfigAttackCircle",
          "triggerType": "TriggerNoRepeat",
          "born": {
            "$type": "ConfigBornBySelf",
            "offset": {
              "x": 0.0,
              "y": 0.0,
              "z": 0.0
            }
          },
          "height": 2.200000047683716,
          "fanAngle": 180.0,
          "radius": 2.0
        },
        "attackInfo": {
          "attackTag": "",
          "attenuationTag": "",
          "attenuationGroup": "default",
          "attackProperty": {
            "actorGrassSubHurtDelta": 0.5,
            "actorWindSubHurtDelta": 0.0,
            "elementType": "Grass",
            "elementDurability": 25.0,
            "strikeType": "Slash",
            "enBreak": 100.0,
            "attackType": "Melee",
            "GLKMCMDJBIK": 0.0
          },
          "hitPattern": {
            "onHitEffectName": "default",
            "hitImpulseY": "",
            "hitImpulseType": "LV4",
            "canBeDefenceHalt": true
          }
        }
      },
      "BlinkAttack01": {
        "attackPattern": {
          "$type": "ConfigAttackBox",
          "triggerType": "TriggerNoRepeat",
          "born": {
            "$type": "ConfigBornBySelf",
            "offset": {
              "x": 0.0,
              "y": 1.0,
              "z": 0.4000000059604645
            }
          },
          "size": {
            "x": 2.0,
            "y": 2.5,
            "z": 1.7999999523162842
          }
        },
        "attackInfo": {
          "attackTag": "",
          "attenuationTag": "",
          "attenuationGroup": "default",
          "attackProperty": {
            "actorGrassSubHurtDelta": 1.0,
            "actorWindSubHurtDelta": 0.0,
            "elementType": "Grass",
            "elementDurability": 25.0,
            "strikeType": "Slash",
            "enBreak": 100.0,
            "attackType": "Melee",
            "GLKMCMDJBIK": 0.0
          },
          "hitPattern": {
            "onHitEffectName": "default",
            "hitImpulseY": "",
            "hitImpulseType": "LV5",
            "canBeDefenceHalt": true
          }
        }
      }
    },
    "summon": {
      "summonTags": [
        {
          "summonTag": 25110401,
          "name": "Chrysopelea_Eremite_Grass_01",
          "copyOwnerThreatList": true,
          "useSummonThreatList": true
        }
      ]
    }
  },
  "equipController": {
    "sheathPoint": "",
    "attachPoints": {
      "equip01": "WeaponR",
      "equip02": "WeaponL"
    }
  },
  "abilities": [
    {
      "abilityID": "SteerControl",
      "abilityName": "Monster_Eremite_Female_Standard_Dancer_StreeController",
      "abilityOverride": ""
    },
    {
      "abilityID": "FightControl",
      "abilityName": "Monster_Eremite_Female_Standard_Dancer_FightControl",
      "abilityOverride": ""
    },
    {
      "abilityID": "Improve",
      "abilityName": "Monster_Eremite_Female_Standard_Dancer_Improve",
      "abilityOverride": ""
    },
    {
      "abilityID": "Summon",
      "abilityName": "Monster_Eremite_Female_Standard_Dancer_Summon",
      "abilityOverride": ""
    },
    {
      "abilityID": "LoopEffect",
      "abilityName": "Monster_Eremite_Female_Standard_Dancer_Improve_LoopEffect",
      "abilityOverride": ""
    },
    {
      "abilityID": "Weak",
      "abilityName": "Monster_Eremite_Female_Standard_Dancer_Weak",
      "abilityOverride": ""
    },
    {
      "abilityID": "ReturnToBorn",
      "abilityName": "Monster_Eremite_Female_Standard_Dancer_ReturnToBorn",
      "abilityOverride": ""
    },
    {
      "abilityID": "Alert",
      "abilityName": "Monster_Eremite_Female_Standard_Dancer_Alert",
      "abilityOverride": ""
    },
    {
      "abilityID": "FindBlinkPoint",
      "abilityName": "Monster_Eremite_Female_Standard_Dancer_FindBlinkPoint",
      "abilityOverride": ""
    },
    {
      "abilityID": "Invisable",
      "abilityName": "Monster_Eremite_Female_Standard_Dancer_Invisable",
      "abilityOverride": ""
    },
    {
      "abilityID": "DoBlink",
      "abilityName": "Monster_Eremite_Female_Standard_Dancer_DoBlink",
      "abilityOverride": ""
    },
    {
      "abilityID": "Visable",
      "abilityName": "Monster_Eremite_Female_Standard_Dancer_Visable",
      "abilityOverride": ""
    },
    {
      "abilityID": "_WeaponHide",
      "abilityName": "Monster_Eremite_Female_Standard_Dancer_WeaponHide",
      "abilityOverride": ""
    },
    {
      "abilityID": "WeaponUnHide",
      "abilityName": "Monster_Eremite_Female_Standard_Dancer_WeaponUnHide",
      "abilityOverride": ""
    },
    {
      "abilityID": "RangeAttack01",
      "abilityName": "Monster_Eremite_Female_Standard_Dancer_RangeAttack01",
      "abilityOverride": ""
    },
    {
      "abilityID": "BoomerangLogic_Killed",
      "abilityName": "Monster_Eremite_Female_Standard_Dancer_BoomerangLogic_Killed",
      "abilityOverride": ""
    },
    {
      "abilityID": "TriggerWheelSurround",
      "abilityName": "Monster_Eremite_Female_Standard_Dancer_TriggerWheelSurround",
      "abilityOverride": ""
    },
    {
      "abilityID": "TriggerWheelSurround",
      "abilityName": "Monster_Eremite_Female_Standard_Dancer_WheelSurround_Killed",
      "abilityOverride": ""
    },
    {
      "abilityID": "TrapAlert",
      "abilityName": "Monster_Eremite_Female_Standard_Dancer_TrapAlert",
      "abilityOverride": ""
    },
    {
      "abilityID": "WeaponEffect_Open",
      "abilityName": "Monster_Eremite_Female_Standard_Dancer_WeaponEffect_Open",
      "abilityOverride": ""
    },
    {
      "abilityID": "WeaponEffect_Close",
      "abilityName": "Monster_Eremite_Female_Standard_Dancer_WeaponEffect_Close",
      "abilityOverride": ""
    },
    {
      "abilityID": "FindBlinkPoint_Away",
      "abilityName": "Monster_Eremite_Female_Standard_Dancer_FindBlinkPoint_Away",
      "abilityOverride": ""
    }
  ],
  "stateLayers": {
    "defaultLayer": {
      "$type": "GBGJJIIEMBD",
      "layerIndexName": "",
      "CPAANEIJCGD": "",
      "stateIDs": {
        "NormalIdle": {
          "$type": "NEDIFAKEGCO",
          "animatorStates": {
            "Standby": [],
            "Born": []
          },
          "canDoSkill": true,
          "canSyncMove": true,
          "resetAnimatorTriggerOnExit": ["DoSkill"]
        },
        "Standby_Weak": {
          "$type": "NEDIFAKEGCO",
          "animatorStates": {
            "Standby_Weak": []
          },
          "canDoSkill": true,
          "canSyncMove": true,
          "resetAnimatorTriggerOnEnter": ["Recover"],
          "resetAnimatorTriggerOnExit": ["DoSkill"]
        },
        "Swing": {
          "$type": "NEDIFAKEGCO",
          "animatorStates": {
            "Swing": []
          },
          "canDoSkill": true,
          "addEndure": 0.0,
          "resetAnimatorTriggerOnExit": ["DoSkill"]
        },
        "NormalMove": {
          "$type": "NEDIFAKEGCO",
          "animatorStates": {
            "WalkForward": [
              "Audio_Monster_Eremite_Female_Standard_Dancer_Grass_Walk"
            ],
            "WalkBack": [
              "Audio_Monster_Eremite_Female_Standard_Dancer_Grass_Walk"
            ],
            "WalkRight": [
              "Audio_Monster_Eremite_Female_Standard_Dancer_Grass_Walk"
            ],
            "WalkLeft": [
              "Audio_Monster_Eremite_Female_Standard_Dancer_Grass_Walk"
            ],
            "Run": []
          },
          "canDoSkill": true,
          "canSyncMove": true,
          "resetAnimatorTriggerOnExit": ["DoSkill"],
          "canSteer": true
        },
        "Turn": {
          "$type": "NEDIFAKEGCO",
          "animatorStates": {
            "TurnLeft": [
              "Audio_Monster_Eremite_Female_Standard_Dancer_Grass_Walk"
            ],
            "TurnRight": [
              "Audio_Monster_Eremite_Female_Standard_Dancer_Grass_Walk"
            ]
          },
          "canDoSkill": true,
          "canSyncMove": true,
          "resetAnimatorTriggerOnExit": ["DoSkill"],
          "canSteer": true
        },
        "BeHit": {
          "$type": "NEDIFAKEGCO",
          "animatorStates": {
            "Hit_L": [],
            "Hit_H": [
              "Audio_Monster_Eremite_Female_Standard_Dancer_Grass_Hit_H"
            ]
          },
          "resetAnimatorTriggerOnEnter": ["BeHit"],
          "resetAnimatorTriggerOnExit": ["DoSkill"]
        },
        "BeHitThrow": {
          "$type": "NEDIFAKEGCO",
          "animatorStates": {
            "HitThrow": [],
            "HitThrowDrop": []
          },
          "resetAnimatorTriggerOnEnter": ["BeHit", "HitAir2HitDrop"],
          "resetAnimatorTriggerOnExit": ["DoSkill", "BeHit"],
          "setAnimatorBoolean": [
            {
              "name": "AirDie"
            }
          ]
        },
        "BeHitThrowToStandby": {
          "$type": "NEDIFAKEGCO",
          "animatorStates": {
            "HitThrowToGround": [
              "Audio_Monster_Eremite_Female_Standard_Dancer_Grass_HitThrowToGround"
            ]
          },
          "resetAnimatorTriggerOnEnter": ["BeHit", "HitAir2HitDrop"],
          "resetAnimatorTriggerOnExit": ["DoSkill", "BeHit"],
          "setAnimatorBoolean": [
            {
              "name": "AirDie",
              "normalizeEnd": 0.6200000047683716
            }
          ]
        },
        "Struggle": {
          "$type": "NEDIFAKEGCO",
          "animatorStates": {
            "Struggle": []
          },
          "resetAnimatorTriggerOnEnter": ["BeHit", "HitAir2HitDrop"],
          "resetAnimatorTriggerOnExit": ["DoSkill"]
        },
        "Die": {
          "$type": "NEDIFAKEGCO",
          "animatorStates": {
            "Die1": [
              "Monster_Eremite_Female_Standard_Dancer_Die",
              "Audio_Monster_Eremite_Female_Standard_Dancer_Grass_Die1"
            ],
            "Die2": [
              "Monster_Eremite_Female_Standard_Dancer_Die",
              "Audio_Monster_Eremite_Female_Standard_Dancer_Grass_Die1"
            ],
            "SwinDie_BS": [],
            "SwimDie": ["Monster_Eremite_SwimDie"],
            "SwimDie_AS": []
          },
          "resetAnimatorTriggerOnEnter": ["DoSkill", "ComboTrigger"]
        },
        "Die_RagDoll": {
          "$type": "NEDIFAKEGCO",
          "animatorStates": {
            "AirDie": ["Monster_Eremite_AirDie"]
          },
          "resetAnimatorTriggerOnEnter": ["DoSkill", "ComboTrigger"]
        },
        "Alert": {
          "$type": "NEDIFAKEGCO",
          "animatorStates": {
            "Alert": [
              "Monster_Eremite_Female_Standard_Dancer_Alert",
              "Audio_Monster_Eremite_Female_Standard_Dancer_Grass_Alert"
            ]
          },
          "addEndure": 0.0,
          "massRatio": 20.0,
          "resetAnimatorTriggerOnExit": ["BeHit", "DoSkill"],
          "autoSteer": true
        },
        "SheathWeapon": {
          "$type": "NEDIFAKEGCO",
          "animatorStates": {
            "SheathWeapon": [
              "Monster_Eremite_Female_Standard_Dancer_ReturnToBorn",
              "Audio_Monster_Eremite_Female_Standard_Dancer_Grass_SheathWeapon"
            ]
          },
          "addEndure": 0.0,
          "massRatio": 20.0,
          "resetAnimatorTriggerOnEnter": ["SheathWeaponTrigger"],
          "resetAnimatorTriggerOnExit": [
            "BeHit",
            "DoSkill",
            "SheathWeaponTrigger"
          ]
        },
        "Improve": {
          "$type": "NEDIFAKEGCO",
          "animatorStates": {
            "Improve": [
              "Monster_Eremite_Female_Standard_Dancer_Improve",
              "Audio_Monster_Eremite_Female_Standard_Dancer_Grass_Improve"
            ]
          },
          "addEndure": 0.0,
          "massRatio": 20.0,
          "resetAnimatorTriggerOnEnter": ["ForceImprove"],
          "resetAnimatorTriggerOnExit": ["BeHit", "DoSkill", "ForceImprove"]
        },
        "Weak": {
          "$type": "NEDIFAKEGCO",
          "animatorStates": {
            "Weak_BS": [
              "Audio_Monster_Eremite_Female_Standard_Dancer_Grass_Weak_BS"
            ],
            "Weak_AS": [
              "Audio_Monster_Eremite_Female_Standard_Dancer_Grass_Weak_AS"
            ]
          },
          "addEndure": 0.0,
          "massRatio": 20.0,
          "resetAnimatorTriggerOnEnter": ["Weak"],
          "resetAnimatorTriggerOnExit": ["BeHit", "DoSkill", "Weak", "Recover"]
        },
        "NormalAttack01": {
          "$type": "NEDIFAKEGCO",
          "animatorStates": {
            "NormalAttack01": [
              "Monster_Eremite_Female_Standard_Dancer_NormalAttack01",
              "Audio_Monster_Eremite_Female_Standard_Dancer_Grass_NormalAtk01"
            ]
          },
          "canSyncMove": true,
          "addEndure": 0.10000000149011612,
          "resetAnimatorTriggerOnExit": ["BeHit", "DoSkill"],
          "canSteer": true
        },
        "NormalAttack01_01": {
          "$type": "NEDIFAKEGCO",
          "animatorStates": {
            "NormalAttack01_01": [
              "Monster_Eremite_Female_Standard_Dancer_NormalAttack01_01",
              "Audio_Monster_Eremite_Female_Standard_Dancer_Grass_NormalAtk01_01"
            ]
          },
          "canSyncMove": true,
          "addEndure": 0.10000000149011612,
          "resetAnimatorTriggerOnExit": ["BeHit", "DoSkill"],
          "canSteer": true
        },
        "NormalAttack01_02": {
          "$type": "NEDIFAKEGCO",
          "animatorStates": {
            "NormalAttack01_02": [
              "Monster_Eremite_Female_Standard_Dancer_NormalAttack01_02",
              "Audio_Monster_Eremite_Female_Standard_Dancer_Grass_NormalAtk01_02"
            ]
          },
          "canSyncMove": true,
          "addEndure": 0.10000000149011612,
          "resetAnimatorTriggerOnExit": ["BeHit", "DoSkill"],
          "canSteer": true
        },
        "MeleeAttack01": {
          "$type": "NEDIFAKEGCO",
          "animatorStates": {
            "MeleeAttack01": [
              "Monster_Eremite_Female_Standard_Dancer_MeleeAttack01",
              "Audio_Monster_Eremite_Female_Standard_Dancer_Grass_MeleeAttack_01"
            ]
          },
          "canSyncMove": true,
          "addEndure": 0.0,
          "resetAnimatorTriggerOnExit": ["BeHit", "DoSkill"],
          "canSteer": true
        },
        "RangeAttack01": {
          "$type": "NEDIFAKEGCO",
          "animatorStates": {
            "RangeAttack01": [
              "Monster_Eremite_Female_Standard_Dancer_RangeAttack01",
              "Audio_Monster_Eremite_Female_Standard_Dancer_Grass_RangeAttac01"
            ]
          },
          "addEndure": 0.0,
          "resetAnimatorTriggerOnExit": ["BeHit", "DoSkill"],
          "canSteer": true
        },
        "ComboAttack01": {
          "$type": "NEDIFAKEGCO",
          "animatorStates": {
            "ComboAttack01": [
              "Monster_Eremite_Female_Standard_Dancer_ComboAttack01",
              "Audio_Monster_Eremite_Female_Standard_Dancer_Grass_ComboAttack01"
            ]
          },
          "addEndure": 0.0,
          "resetAnimatorTriggerOnEnter": ["ComboTrigger"],
          "resetAnimatorTriggerOnExit": ["BeHit", "DoSkill"]
        },
        "Blink": {
          "$type": "NEDIFAKEGCO",
          "animatorStates": {
            "Blink": [
              "Monster_Eremite_Female_Standard_Dancer_Blink",
              "Audio_Monster_Eremite_Female_Standard_Dancer_Grass_Blink"
            ]
          },
          "addEndure": 0.0,
          "resetAnimatorTriggerOnExit": ["BeHit", "DoSkill"],
          "canSteer": true
        },
        "Improve_Blink": {
          "$type": "NEDIFAKEGCO",
          "animatorStates": {
            "Improve_Blink": [
              "Monster_Eremite_Female_Standard_Dancer_Improve_Blink",
              "Audio_Monster_Eremite_Female_Standard_Dancer_Grass_Blink"
            ]
          },
          "addEndure": 0.0,
          "resetAnimatorTriggerOnExit": ["BeHit", "DoSkill"],
          "canSteer": true
        },
        "BlinkAttack01": {
          "$type": "NEDIFAKEGCO",
          "animatorStates": {
            "BlinkAttack01": [
              "Monster_Eremite_Female_Standard_Dancer_BlinkAttack01",
              "Audio_Monster_Eremite_Female_Standard_Dancer_Grass_BlinkAttack01"
            ]
          },
          "canSyncMove": true,
          "addEndure": 0.0,
          "resetAnimatorTriggerOnExit": ["BeHit", "DoSkill"],
          "canSteer": true
        },
        "Blink_RangeAttack01": {
          "$type": "NEDIFAKEGCO",
          "animatorStates": {
            "Blink_RangeAttack01": [
              "Monster_Eremite_Female_Standard_Dancer_RangeAttack01",
              "Audio_Monster_Eremite_Female_Standard_Dancer_Grass_RangeAttac01"
            ]
          },
          "addEndure": 0.0,
          "resetAnimatorTriggerOnExit": ["BeHit", "DoSkill"],
          "canSteer": true
        },
        "Personality01": {
          "$type": "NEDIFAKEGCO",
          "animatorStates": {
            "Personality01": [
              "Audio_Monster_Eremite_Female_Standard_Dancer_Grass_Personality01"
            ]
          },
          "canDoSkill": true,
          "addEndure": 0.0,
          "resetAnimatorTriggerOnExit": ["BeHit", "DoSkill"],
          "canSteer": true
        },
        "Personality02": {
          "$type": "NEDIFAKEGCO",
          "animatorStates": {
            "Personality02": [
              "Monster_Eremite_Female_Standard_Dancer_Personality02",
              "Audio_Monster_Eremite_Female_Standard_Dancer_Grass_Personality02"
            ]
          },
          "canDoSkill": true,
          "addEndure": 0.0,
          "resetAnimatorTriggerOnExit": ["BeHit", "DoSkill"],
          "canSteer": true
        }
      }
    }
  },
  "billboard": {
    "$type": "DNGNMAJBCNP",
    "attachPoint": "BillboardAttach",
    "offset": {
      "x": -0.3499999940395355
    },
    "offsetType": "Character",
    "showHPBar": true,
    "size": "Big"
  },
  "initialPoses": {
    "Default": {
      "initialPoseID": 1
    },
    "Swing": {
      "initialPoseID": 9001,
      "initialPoseParams": {
        "intParams": {
          "FreePoseMark": "9001"
        }
      }
    }
  },
  "aibeta": {
    "enable": true,
    "moveSetting": {
      "navMeshAgentName": "Undead01",
      "almostReachedDistanceRun": 1.5
    },
    "aiCombat": {
      "combatRole": "FIGHTER"
    },
    "sensing": {
      "settings": {
        "DefaultSetting": {
          "feelRange": 8.0
        },
        "HighAlert": {
          "viewRange": 40.0,
          "feelRange": 10.0
        },
        "LowAlert": {
          "viewRange": 15.0,
          "feelRange": 6.0
        },
        "NeverCombat": {
          "enableVision": false,
          "hearAttractionRange": 0.0,
          "feelRange": 0.0
        }
      },
      "templates": {
        "DefaultTemplate": {
          "DefaultPoses": "DefaultSetting"
        },
        "NeverCombatTemplate": {
          "DefaultPoses": "NeverCombat"
        },
        "HighAlert": {
          "DefaultPoses": "HighAlert"
        },
        "LowAlert": {
          "DefaultPoses": "LowAlert"
        }
      }
    },
    "neurons": {
      "DefaultSetting": ["HIT"]
    },
    "threat": {
      "GHIJMOKOLMB": "",
      "clearThreatTargetDistance": 30.0,
      "clearThreatEdgeDistance": 3.5,
      "clearThreatTimerByDistance": 1.75,
      "viewThreatGrow": 35.0,
      "feelThreatGrow": 100.0,
      "threatDecreaseSpeed": 10.0,
      "viewAttenuation": [
        {
          "x": 10.0,
          "y": 2.0
        },
        {
          "x": 15.0,
          "y": 0.800000011920929
        },
        {
          "x": 20.0,
          "y": 0.5
        },
        {
          "x": 25.0,
          "y": 0.30000001192092896
        },
        {
          "x": 30.0,
          "y": 0.20000000298023224
        }
      ],
      "resistTauntLevel": "Monster_TauntLevel_3"
    },
    "defendArea": {
      "defendRange": 50.0
    },
    "profiling": {},
    "network": {
      "syncSkill": true
    },
    "skillGroupCDConfigs": [
      {
        "skillGroupCDID": 1,
        "skillGroupCDTime": 1.0
      },
      {
        "skillGroupCDID": 2,
        "skillGroupCDTime": 2.0
      },
      {
        "skillGroupCDID": 3,
        "skillGroupCDTime": 3.0
      },
      {
        "skillGroupCDID": 4,
        "skillGroupCDTime": 25.0
      }
    ],
    "skills": {
      "101": {
        "name": "OnAlert",
        "skillType": "OnAlert",
        "faceTarget": true,
        "castCondition": {
          "pose": [1, 9001]
        },
        "publicCDGroup": "",
        "ignoreGCD": true,
        "triggerGCD": false,
        "HHAGODJIAPE": "",
        "stateIDs": ["Alert"],
        "skillQueryingTime": 3.0,
        "flagTargetReachable": "10",
        "flagSelfOnTemplateCollider": "01",
        "flagSelfInZone": "10",
        "flagTargetInZone": "11"
      },
      "102": {
        "name": "OnAlert",
        "skillType": "OnNerve",
        "faceTarget": true,
        "castCondition": {
          "pose": [1, 9001]
        },
        "publicCDGroup": "",
        "ignoreGCD": true,
        "triggerGCD": false,
        "HHAGODJIAPE": "",
        "stateIDs": ["Alert"],
        "skillQueryingTime": 3.0,
        "flagTargetReachable": "10",
        "flagSelfOnTemplateCollider": "01",
        "flagSelfInZone": "10",
        "flagTargetInZone": "11",
        "nerveTrigger": ["HIT"]
      },
      "201": {
        "name": "NormalAttack01",
        "castCondition": {
          "pose": [101],
          "pickRangeMax": 5.0
        },
        "cd": 10.0,
        "cdUpperRange": 2.0,
        "publicCDGroup": "",
        "triggerCDOnStart": true,
        "skillGroupCDID": 3,
        "HHAGODJIAPE": "",
        "stateIDs": ["NormalAttack01"],
        "flagTargetReachable": "10",
        "flagSelfOnTemplateCollider": "01",
        "flagSelfInZone": "11",
        "flagTargetInZone": "11"
      },
      "202": {
        "name": "NormalAttack01_02",
        "castCondition": {
          "pose": [101, 201, 102],
          "pickRangeMax": 5.0
        },
        "cd": 5.0,
        "cdUpperRange": 2.0,
        "publicCDGroup": "",
        "triggerCDOnStart": true,
        "skillGroupCDID": 3,
        "HHAGODJIAPE": "",
        "stateIDs": ["NormalAttack01_01", "NormalAttack01_02"],
        "flagTargetReachable": "10",
        "flagSelfOnTemplateCollider": "01",
        "flagSelfInZone": "11",
        "flagTargetInZone": "11"
      },
      "211": {
        "name": "RangeAttack01",
        "castCondition": {
          "pose": [101],
          "pickRangeMin": 5.0,
          "pickRangeMax": 16.0
        },
        "cd": 5.0,
        "cdUpperRange": 2.0,
        "initialCD": 3.0,
        "publicCDGroup": "",
        "HHAGODJIAPE": "",
        "stateIDs": ["RangeAttack01"],
        "flagTargetReachable": "11",
        "flagSelfOnTemplateCollider": "11",
        "flagSelfInZone": "11",
        "flagTargetInZone": "11"
      },
      "221": {
        "name": "MeleeAttack01",
        "priority": 2,
        "castCondition": {
          "pose": [101],
          "pickRangeMax": 8.0
        },
        "cd": 15.0,
        "cdUpperRange": 2.0,
        "initialCD": 5.0,
        "publicCDGroup": "",
        "skillGroupCDID": 3,
        "HHAGODJIAPE": "",
        "stateIDs": ["MeleeAttack01"],
        "flagTargetReachable": "10",
        "flagSelfOnTemplateCollider": "01",
        "flagSelfInZone": "11",
        "flagTargetInZone": "11"
      },
      "231": {
        "name": "BlinkAttack01",
        "castCondition": {
          "pose": [101],
          "pickRangeMin": 7.0,
          "pickRangeMax": 25.0
        },
        "cd": 10.0,
        "cdUpperRange": 3.0,
        "initialCD": 5.0,
        "initialCDUpperRange": 3.0,
        "publicCDGroup": "",
        "ignoreGCD": true,
        "triggerGCD": false,
        "triggerCDOnStart": true,
        "HHAGODJIAPE": "",
        "stateIDs": ["Blink", "BlinkAttack01"],
        "flagTargetReachable": "11",
        "flagSelfOnTemplateCollider": "11",
        "flagSelfInZone": "11",
        "flagTargetInZone": "11"
      },
      "301": {
        "name": "Improve_Blink",
        "priority": 2,
        "castCondition": {
          "pose": [201, 102],
          "pickRangeMax": 3.0
        },
        "cd": 10.0,
        "cdUpperRange": 3.0,
        "initialCD": 5.0,
        "initialCDUpperRange": 3.0,
        "publicCDGroup": "",
        "HHAGODJIAPE": "",
        "stateIDs": ["Improve_Blink", "Blink_RangeAttack01"],
        "flagTargetReachable": "11",
        "flagSelfOnTemplateCollider": "11",
        "flagSelfInZone": "11",
        "flagTargetInZone": "11"
      },
      "302": {
        "name": "Improve_Blink",
        "priority": 2,
        "castCondition": {
          "pose": [201, 102],
          "pickRangeMin": 20.0,
          "pickRangeMax": 50.0
        },
        "cd": 10.0,
        "cdUpperRange": 3.0,
        "initialCD": 5.0,
        "initialCDUpperRange": 3.0,
        "publicCDGroup": "",
        "HHAGODJIAPE": "",
        "stateIDs": ["Improve_Blink", "Blink_RangeAttack01"],
        "flagTargetReachable": "11",
        "flagSelfOnTemplateCollider": "11",
        "flagSelfInZone": "11",
        "flagTargetInZone": "11"
      },
      "311": {
        "name": "Improve_RangeAttack01",
        "castCondition": {
          "pose": [201, 102],
          "pickRangeMax": 16.0
        },
        "cd": 6.0,
        "cdUpperRange": 2.0,
        "publicCDGroup": "",
        "skillGroupCDID": 3,
        "HHAGODJIAPE": "",
        "stateIDs": ["RangeAttack01"],
        "flagTargetReachable": "10",
        "flagSelfOnTemplateCollider": "01",
        "flagSelfInZone": "11",
        "flagTargetInZone": "11"
      },
      "401": {
        "name": "Improve",
        "priority": 2,
        "castCondition": {
          "pose": [111]
        },
        "cd": 10.0,
        "publicCDGroup": "",
        "ignoreGCD": true,
        "triggerGCD": false,
        "triggerCDOnFail": false,
        "HHAGODJIAPE": "",
        "stateIDs": ["Improve"],
        "skillQueryingTime": 3.0,
        "flagTargetReachable": "11",
        "flagSelfOnTemplateCollider": "11",
        "flagSelfInZone": "11",
        "flagTargetInZone": "11"
      },
      "9001": {
        "name": "Personality01",
        "skillType": "Free",
        "castCondition": {
          "pose": [2, 1]
        },
        "cd": 100.0,
        "cdUpperRange": 35.0,
        "initialCD": 25.0,
        "initialCDUpperRange": 10.0,
        "publicCDGroup": "",
        "ignoreGCD": true,
        "triggerGCD": false,
        "skillGroupCDID": 4,
        "HHAGODJIAPE": "",
        "stateIDs": ["Personality01"],
        "skillQueryingTime": 10.0,
        "flagTargetReachable": "10",
        "flagSelfOnTemplateCollider": "01",
        "flagSelfInZone": "10",
        "flagTargetInZone": "11"
      },
      "9002": {
        "name": "Personality02",
        "skillType": "Free",
        "castCondition": {
          "pose": [2, 1]
        },
        "cd": 100.0,
        "cdUpperRange": 35.0,
        "initialCD": 25.0,
        "initialCDUpperRange": 10.0,
        "publicCDGroup": "",
        "ignoreGCD": true,
        "triggerGCD": false,
        "skillGroupCDID": 4,
        "HHAGODJIAPE": "",
        "stateIDs": ["Personality02"],
        "skillQueryingTime": 10.0,
        "flagTargetReachable": "10",
        "flagSelfOnTemplateCollider": "01",
        "flagSelfInZone": "10",
        "flagTargetInZone": "11"
      }
    },
    "skillGCD": 1.5,
    "birdCirclingTactic": [
      {
        "$type": "EPHBMLFODKF",
        "enable": true,
        "condition": {
          "pose": [101, 102, 201]
        },
        "JMCOBEPDIGM": {
          "rangeMax": 15.0,
          "ALIBHHJHHMN": 1.2000000476837158,
          "OMHBOLPFEPM": 1.0,
          "BFJBDDIIFOI": {
            "LLICGJHIGME": 2.0,
            "IDEFILBHNAP": 6.0,
            "IBLIPJPNOGC": 0.5,
            "AEBLMKFNCDG": 3.0,
            "IGLIBIOEGBB": 3.0
          },
          "NAOBMNGDKHL": "1111",
          "JCNIJOAIGII": "1111",
          "MNPDDAKDHGK": ""
        },
        "PIOCBHLFLJP": {
          "201": {
            "rangeMin": 0.0,
            "rangeMax": 14.0,
            "AFILKAGDAHN": 1.5,
            "ALIBHHJHHMN": 1.5,
            "OMHBOLPFEPM": 1.0,
            "BFJBDDIIFOI": {
              "LLICGJHIGME": 0.0,
              "IDEFILBHNAP": 0.5,
              "IBLIPJPNOGC": 4.0,
              "AEBLMKFNCDG": 2.0,
              "IGLIBIOEGBB": 2.0
            },
            "NAOBMNGDKHL": "1111",
            "JCNIJOAIGII": "1111",
            "MNPDDAKDHGK": ""
          },
          "102": {
            "rangeMin": 0.0,
            "rangeMax": 14.0,
            "AFILKAGDAHN": 1.5,
            "ALIBHHJHHMN": 1.5,
            "OMHBOLPFEPM": 1.0,
            "BFJBDDIIFOI": {
              "LLICGJHIGME": 0.0,
              "IDEFILBHNAP": 0.5,
              "IBLIPJPNOGC": 4.0,
              "AEBLMKFNCDG": 2.0,
              "IGLIBIOEGBB": 2.0
            },
            "NAOBMNGDKHL": "1111",
            "JCNIJOAIGII": "1111",
            "MNPDDAKDHGK": ""
          }
        }
      },
      {
        "$type": "OJOBEDCMGKM",
        "enable": true,
        "condition": {
          "pose": [1]
        }
      },
      {
        "$type": "KACCHOLJDNK",
        "enable": true,
        "condition": {
          "pose": [101]
        },
        "JMCOBEPDIGM": {
          "ANLAAGAMIKF": 1,
          "HKJODDGJPHA": 99.0,
          "GGEBMFHFBPO": 20.0,
          "KFFGCIMPNMJ": 0.0,
          "MNPDDAKDHGK": ""
        }
      },
      {
        "$type": "NNJKLGNPMNN",
        "enable": true,
        "JMCOBEPDIGM": {
          "ANLAAGAMIKF": 0,
          "JFMIFLNBKMJ": 1.0,
          "DHGJDIPNDHH": 1.5,
          "MNPDDAKDHGK": "",
          "GJDMDHIBCME": ""
        }
      },
      {
        "$type": "FPELBIJFGCE",
        "enable": true,
        "condition": {
          "pose": [1]
        },
        "JMCOBEPDIGM": {
          "KPNDPKIOPJM": 8.0,
          "PINAFKEDDLL": 5.0,
          "ANMPOPEBDIA": 15.0,
          "GMJFIMFFOEL": 3.5,
          "CHCPFDMADEI": 9.5,
          "MNPDDAKDHGK": ""
        }
      }
    ]
  },
  "inputKeys": [
    {
      "keyID": 201,
      "inputKeyCode": 257,
      "abilityName": ""
    },
    {
      "keyID": 202,
      "inputKeyCode": 258,
      "abilityName": ""
    },
    {
      "keyID": 211,
      "inputKeyCode": 259,
      "abilityName": ""
    },
    {
      "keyID": 221,
      "inputKeyCode": 261,
      "abilityName": ""
    },
    {
      "keyID": 231,
      "inputKeyCode": 262,
      "abilityName": ""
    },
    {
      "keyID": 301,
      "inputKeyCode": 263,
      "abilityName": ""
    },
    {
      "keyID": 401,
      "inputKeyCode": 264,
      "abilityName": ""
    },
    {
      "keyID": 9002,
      "inputKeyCode": 265,
      "abilityName": ""
    }
  ],
  "move": {
    "$type": "IPNMJMHDMPF",
    "facingMove": "FourDirection",
    "monsterSizeType": "StoopType",
    "positionModifyExtra": true,
    "PKHOMJHFAEE": "RootNode"
  }
}
