{
  "common": {
    "effectAttachShape": {
      "$type": "FJNPJANPGGC",
      "mesh": "EffectMesh"
    },
    "mass": 10000.0,
    "height": 2.700000047683716,
    "modelHeight": 2.700000047683716,
    "viewSize": 1.600000023841858,
    "affectedByWorld": true,
    "checkInSurface": true,
    "scale": 0.8999999761581421,
    "useGrassDisplacement": true,
    "clearAnimatorOnSetLightDeactive": true,
    "clearAIOnSetLightDeactive": true
  },
  "headControl": {
    "$type": "KPIPDEBDPIH",
    "useHeadControl": true,
    "maxYawDegree": 20.0,
    "maxPitchDegree": 5.0,
    "animStates": [
      "NormalIdle/Standby",
      "NormalMove/WalkForward",
      "NormalMove/WalkBack",
      "NormalMove/WalkRight",
      "NormalMove/WalkLeft",
      "TurnLeft/TurnLeft",
      "TurnRight/TurnRight"
    ]
  },
  "dither": {
    "showDitherDuration": 2.0
  },
  "combat": {
    "property": {
      "endureType": "Monster_Grunt_Humanoid",
      "weight": 120.0
    },
    "beHit": {
      "hitBloodEffect": ""
    },
    "combatLock": {
      "lockShape": "CircleLockEnemy",
      "lockType": "Avatar&Monster_Lv4"
    },
    "die": {
      "hasAnimatorDie": true,
      "dieEndTime": 2.5,
      "dieForceDisappearTime": 3.0,
      "dieDisappearEffect": "Eff_Death_Avatar_Common",
      "dieShaderData": "AvatarDie",
      "muteHitBox": true,
      "dieDenyLockOn": true,
      "dieIsGhostToEnemy": true,
      "muteBillboard": true,
      "mutePushCollider": true
    },
    "animEvents": {
      "MeleeAtk": {
        "attackPattern": {
          "$type": "ConfigAttackBox",
          "triggerType": "TriggerNoRepeat",
          "ignoreMassive": true,
          "born": {
            "$type": "ConfigBornBySelf",
            "offset": {
              "x": 0.0,
              "y": 1.5,
              "z": 0.5
            }
          },
          "size": {
            "x": 2.0,
            "y": 2.5,
            "z": 3.5
          }
        },
        "attackInfo": {
          "attackTag": "",
          "attenuationTag": "",
          "attenuationGroup": "default",
          "attackProperty": {
            "actorGrassSubHurtDelta": 0.699999988079071,
            "actorWindSubHurtDelta": 0.0,
            "elementDurability": 50.0,
            "strikeType": "Slash",
            "enBreak": 50.0,
            "attackType": "Melee",
            "GLKMCMDJBIK": 0.0
          },
          "hitPattern": {
            "onHitEffectName": "default",
            "hitImpulseY": "",
            "hitImpulseType": "LV4",
            "canBeDefenceHalt": true
          }
        }
      },
      "JumpAtk": {
        "attackPattern": {
          "$type": "ConfigAttackBox",
          "triggerType": "TriggerNoRepeat",
          "ignoreMassive": true,
          "born": {
            "$type": "ConfigBornBySelf",
            "offset": {
              "x": 0.0,
              "y": 1.5,
              "z": 0.0
            }
          },
          "size": {
            "x": 2.5,
            "y": 3.0,
            "z": 4.0
          }
        },
        "attackInfo": {
          "attackTag": "",
          "attenuationTag": "",
          "attenuationGroup": "default",
          "attackProperty": {
            "actorGrassSubHurtDelta": 1.2000000476837158,
            "actorWindSubHurtDelta": 0.0,
            "elementDurability": 50.0,
            "strikeType": "Blunt",
            "enBreak": 100.0,
            "attackType": "Melee",
            "GLKMCMDJBIK": 0.0
          },
          "hitPattern": {
            "onHitEffectName": "default",
            "hitImpulseY": "",
            "hitImpulseType": "LV5",
            "canBeDefenceHalt": true
          },
          "forceCameraShake": true,
          "cameraShake": {
            "shakeType": "CustomVector",
            "shakeRange": 0.30000001192092896,
            "shakeTime": 0.10000000149011612,
            "shakeDir": {
              "y": 1.0
            }
          }
        }
      },
      "MeleeAtk1": {
        "attackPattern": {
          "$type": "ConfigAttackBox",
          "triggerType": "TriggerNoRepeat",
          "ignoreMassive": true,
          "born": {
            "$type": "ConfigBornBySelf",
            "offset": {
              "x": 0.0,
              "y": 1.5,
              "z": 0.0
            }
          },
          "size": {
            "x": 2.0,
            "y": 2.5,
            "z": 2.5
          }
        },
        "attackInfo": {
          "attackTag": "",
          "attenuationTag": "",
          "attenuationGroup": "default",
          "attackProperty": {
            "actorGrassSubHurtDelta": 0.800000011920929,
            "actorWindSubHurtDelta": 0.0,
            "elementDurability": 100.0,
            "strikeType": "Slash",
            "enBreak": 50.0,
            "attackType": "Melee",
            "GLKMCMDJBIK": 0.0
          },
          "hitPattern": {
            "onHitEffectName": "default",
            "hitImpulseY": "",
            "hitImpulseType": "LV3",
            "canBeDefenceHalt": true
          }
        }
      },
      "MeleeAtk2": {
        "attackPattern": {
          "$type": "ConfigAttackBox",
          "triggerType": "TriggerNoRepeat",
          "ignoreMassive": true,
          "born": {
            "$type": "ConfigBornBySelf",
            "offset": {
              "x": 0.0,
              "y": 1.5,
              "z": 0.0
            }
          },
          "size": {
            "x": 2.0,
            "y": 2.5,
            "z": 2.5
          }
        },
        "attackInfo": {
          "attackTag": "",
          "attenuationTag": "",
          "attenuationGroup": "default",
          "attackProperty": {
            "actorGrassSubHurtDelta": 0.800000011920929,
            "actorWindSubHurtDelta": 0.0,
            "elementDurability": 100.0,
            "strikeType": "Slash",
            "enBreak": 100.0,
            "attackType": "Melee",
            "GLKMCMDJBIK": 0.0
          },
          "hitPattern": {
            "onHitEffectName": "default",
            "hitImpulseY": "",
            "hitImpulseType": "LV3",
            "canBeDefenceHalt": true
          }
        }
      },
      "RushAtk": {
        "attackPattern": {
          "$type": "ConfigAttackBox",
          "triggerType": "TriggerNoRepeat",
          "ignoreMassive": true,
          "born": {
            "$type": "ConfigBornBySelf",
            "offset": {
              "x": 0.0,
              "y": 1.5,
              "z": -3.0
            }
          },
          "size": {
            "x": 2.0,
            "y": 2.5,
            "z": 12.0
          }
        },
        "attackInfo": {
          "attackTag": "",
          "attenuationTag": "",
          "attenuationGroup": "Regisvine_Common",
          "attackProperty": {
            "actorGrassSubHurtDelta": 1.2000000476837158,
            "actorWindSubHurtDelta": 0.0,
            "elementDurability": 100.0,
            "strikeType": "Slash",
            "enBreak": 50.0,
            "attackType": "Melee",
            "GLKMCMDJBIK": 0.0
          },
          "hitPattern": {
            "onHitEffectName": "default",
            "hitImpulseY": "",
            "hitImpulseType": "LV4",
            "retreatType": "ByHitDirection",
            "canBeDefenceHalt": true
          }
        }
      },
      "ChargeAttack": {
        "attackPattern": {
          "$type": "ConfigAttackBox",
          "triggerType": "TriggerNoRepeat",
          "ignoreMassive": true,
          "born": {
            "$type": "ConfigBornBySelf",
            "offset": {
              "x": 0.0,
              "y": 1.5,
              "z": -0.5
            }
          },
          "size": {
            "x": 4.0,
            "y": 3.0,
            "z": 4.0
          }
        },
        "attackInfo": {
          "attackTag": "Monster_BladeMaster_BeBlockAttack",
          "attenuationTag": "",
          "attenuationGroup": "default",
          "attackProperty": {
            "actorGrassSubHurtDelta": 0.8500000238418579,
            "actorWindSubHurtDelta": 0.0,
            "elementDurability": 50.0,
            "strikeType": "Slash",
            "enBreak": 100.0,
            "attackType": "Melee",
            "GLKMCMDJBIK": 0.0
          },
          "hitPattern": {
            "onHitEffectName": "default",
            "hitImpulseY": "",
            "hitImpulseType": "LV4",
            "retreatType": "ByHitDirection",
            "canBeDefenceHalt": true
          }
        }
      },
      "PowerAtk1_1": {
        "attackPattern": {
          "$type": "ConfigAttackBox",
          "triggerType": "TriggerNoRepeat",
          "ignoreMassive": true,
          "born": {
            "$type": "ConfigBornBySelf",
            "offset": {
              "x": 0.0,
              "y": 1.25,
              "z": 0.0
            }
          },
          "size": {
            "x": 1.2000000476837158,
            "y": 2.5,
            "z": 3.5
          }
        },
        "attackInfo": {
          "attackTag": "",
          "attenuationTag": "",
          "attenuationGroup": "default",
          "attackProperty": {
            "actorGrassSubHurtDelta": 0.4000000059604645,
            "actorWindSubHurtDelta": 0.0,
            "elementDurability": 50.0,
            "strikeType": "Slash",
            "enBreak": 100.0,
            "attackType": "Melee",
            "GLKMCMDJBIK": 0.0
          },
          "hitPattern": {
            "onHitEffectName": "default",
            "hitImpulseY": "",
            "hitImpulseType": "LV4",
            "retreatType": "ByHitDirection",
            "canBeDefenceHalt": true
          }
        }
      },
      "PowerAtk1_2": {
        "attackPattern": {
          "$type": "ConfigAttackBox",
          "triggerType": "TriggerNoRepeat",
          "ignoreMassive": true,
          "born": {
            "$type": "ConfigBornBySelf",
            "offset": {
              "x": 0.0,
              "y": 1.25,
              "z": 0.0
            }
          },
          "size": {
            "x": 2.5,
            "y": 2.5,
            "z": 3.700000047683716
          }
        },
        "attackInfo": {
          "attackTag": "",
          "attenuationTag": "",
          "attenuationGroup": "default",
          "attackProperty": {
            "actorGrassSubHurtDelta": 0.800000011920929,
            "actorWindSubHurtDelta": 0.0,
            "elementDurability": 50.0,
            "strikeType": "Slash",
            "enBreak": 100.0,
            "attackType": "Melee",
            "GLKMCMDJBIK": 0.0
          },
          "hitPattern": {
            "onHitEffectName": "default",
            "hitImpulseY": "",
            "hitImpulseType": "LV4",
            "retreatType": "ByHitDirection",
            "canBeDefenceHalt": true
          }
        }
      },
      "PowerAtk2": {
        "attackPattern": {
          "$type": "ConfigAttackBox",
          "triggerType": "TriggerNoRepeat",
          "ignoreMassive": true,
          "born": {
            "$type": "ConfigBornBySelf",
            "offset": {
              "x": 0.0,
              "y": 1.25,
              "z": 0.0
            }
          },
          "size": {
            "x": 2.5,
            "y": 2.5,
            "z": 3.5
          }
        },
        "attackInfo": {
          "attackTag": "",
          "attenuationTag": "",
          "attenuationGroup": "default",
          "attackProperty": {
            "actorGrassSubHurtDelta": 0.6000000238418579,
            "actorWindSubHurtDelta": 0.0,
            "elementDurability": 50.0,
            "strikeType": "Slash",
            "enBreak": 100.0,
            "attackType": "Melee",
            "GLKMCMDJBIK": 0.0
          },
          "hitPattern": {
            "onHitEffectName": "default",
            "hitImpulseY": "",
            "hitImpulseType": "LV4",
            "retreatType": "ByHitDirection",
            "canBeDefenceHalt": true
          }
        }
      },
      "BurstAttack": {
        "attackPattern": {
          "$type": "ConfigAttackBox",
          "triggerType": "TriggerNoRepeat",
          "ignoreMassive": true,
          "born": {
            "$type": "ConfigBornBySelf",
            "offset": {
              "x": 0.0,
              "y": 1.0,
              "z": -2.0
            }
          },
          "size": {
            "x": 2.0,
            "y": 2.5,
            "z": 7.5
          }
        },
        "attackInfo": {
          "attackTag": "",
          "attenuationTag": "BladeMaster_BurstAttack_Hatamoto",
          "attenuationGroup": "Monster_Tartaglia_Attenuation_1",
          "attackProperty": {
            "actorGrassSubHurtDelta": 1.0,
            "actorWindSubHurtDelta": 0.0,
            "elementDurability": 50.0,
            "strikeType": "Slash",
            "enBreak": 100.0,
            "attackType": "Melee",
            "GLKMCMDJBIK": 0.0
          },
          "hitPattern": {
            "onHitEffectName": "default",
            "hitImpulseY": "",
            "hitImpulseType": "LV5",
            "retreatType": "ByHitDirection",
            "canBeDefenceHalt": true
          }
        }
      }
    }
  },
  "equipController": {
    "sheathPoint": "",
    "attachPoints": {
      "equip01": "WeaponR",
      "equip02": "WeaponL"
    }
  },
  "abilities": [
    {
      "abilityID": "",
      "abilityName": "Monster_Samurai_Ronin_Alert",
      "abilityOverride": ""
    },
    {
      "abilityID": "",
      "abilityName": "Monster_Samurai_Ronin_01_Steer",
      "abilityOverride": ""
    },
    {
      "abilityID": "",
      "abilityName": "Monster_Samurai_Ronin_01_RushAttack",
      "abilityOverride": ""
    },
    {
      "abilityID": "",
      "abilityName": "Monster_Samurai_Ronin_ForceDodge",
      "abilityOverride": ""
    },
    {
      "abilityID": "",
      "abilityName": "Monster_Samurai_Ronin_OutOfBattle",
      "abilityOverride": ""
    },
    {
      "abilityID": "",
      "abilityName": "Monster_Samurai_Ronin_PowderAttack",
      "abilityOverride": ""
    },
    {
      "abilityID": "",
      "abilityName": "Monster_Samurai_Ronin_Shoot",
      "abilityOverride": ""
    },
    {
      "abilityID": "",
      "abilityName": "Monster_Samurai_Hatamoto_Block",
      "abilityOverride": ""
    },
    {
      "abilityID": "",
      "abilityName": "Monster_Samurai_Hatamoto_BurstAttack",
      "abilityOverride": ""
    },
    {
      "abilityID": "",
      "abilityName": "Monster_Samurai_Ronin_SevenBlade_Affix",
      "abilityOverride": ""
    },
    {
      "abilityID": "",
      "abilityName": "Monster_Samurai_Ronin_BladeMaster_WeaponSpecialDie",
      "abilityOverride": ""
    },
    {
      "abilityID": "",
      "abilityName": "Monster_Samurai_Hatamoto_BladeMasterTwo_PowerCombo",
      "abilityOverride": ""
    },
    {
      "abilityID": "",
      "abilityName": "Monster_Samurai_Hatamoto_DefendBreak",
      "abilityOverride": ""
    }
  ],
  "stateLayers": {
    "defaultLayer": {
      "$type": "GBGJJIIEMBD",
      "layerIndexName": "",
      "CPAANEIJCGD": "",
      "stateIDs": {
        "NormalIdle": {
          "$type": "NEDIFAKEGCO",
          "animatorStates": {
            "Standby": [],
            "Born": []
          },
          "canDoSkill": true,
          "canSyncMove": true,
          "resetAnimatorTriggerOnExit": ["DoSkill"]
        },
        "Turn": {
          "$type": "NEDIFAKEGCO",
          "animatorStates": {
            "TurnLeft": [],
            "TurnRight": []
          },
          "canDoSkill": true,
          "canSyncMove": true,
          "resetAnimatorTriggerOnExit": ["DoSkill"]
        },
        "NormalMove": {
          "$type": "NEDIFAKEGCO",
          "animatorStates": {
            "WalkForward": ["Audio_Samurai_Hatamoto_03_Walk"],
            "WalkBack": ["Audio_Samurai_Hatamoto_03_Walk"],
            "WalkRight": ["Audio_Samurai_Hatamoto_03_Walk"],
            "WalkLeft": ["Audio_Samurai_Hatamoto_03_Walk"],
            "WalkFree": ["Audio_Samurai_Hatamoto_03_Walk"]
          },
          "canDoSkill": true,
          "canSyncMove": true,
          "resetAnimatorTriggerOnExit": ["DoSkill"],
          "canSteer": true
        },
        "BeHit": {
          "$type": "NEDIFAKEGCO",
          "animatorStates": {
            "Hit_L": [],
            "Hit_H": []
          },
          "resetAnimatorTriggerOnEnter": ["BeHit"],
          "resetAnimatorTriggerOnExit": ["DoSkill"]
        },
        "Run": {
          "$type": "NEDIFAKEGCO",
          "animatorStates": {
            "Run": [
              "Monster_Samurai_Ronin_FootStep",
              "Audio_Samurai_Hatamoto_03_Run"
            ]
          },
          "canDoSkill": true,
          "canSyncMove": true,
          "resetAnimatorTriggerOnExit": ["DoSkill"],
          "canSteer": true
        },
        "RunFree": {
          "$type": "NEDIFAKEGCO",
          "animatorStates": {
            "RunFree": [
              "Monster_Samurai_Ronin_FootStep",
              "Audio_Samurai_Hatamoto_03_Run"
            ]
          },
          "canDoSkill": true,
          "canSyncMove": true,
          "resetAnimatorTriggerOnExit": ["DoSkill"],
          "canSteer": true
        },
        "BeHitThrow": {
          "$type": "NEDIFAKEGCO",
          "animatorStates": {
            "HitThrow": [],
            "HitThrowDrop": [],
            "HitThrowToGround": ["Audio_Samurai_Hatamoto_03_HitThrowToGround"]
          },
          "resetAnimatorTriggerOnEnter": ["BeHit", "HitAir2HitDrop"],
          "resetAnimatorTriggerOnExit": ["DoSkill"]
        },
        "Struggle": {
          "$type": "NEDIFAKEGCO",
          "animatorStates": {
            "Struggle": []
          },
          "resetAnimatorTriggerOnEnter": ["BeHit", "HitAir2HitDrop"],
          "resetAnimatorTriggerOnExit": ["DoSkill"]
        },
        "Die": {
          "$type": "NEDIFAKEGCO",
          "animatorStates": {
            "Die": [
              "Monster_Samurai_Ronin_Die",
              "Audio_Samurai_Hatamoto_03_Die"
            ],
            "SwimDie": [],
            "SwimDie_AS": []
          }
        },
        "Die_RagDoll": {
          "$type": "NEDIFAKEGCO",
          "animatorStates": {
            "AirDie": ["Monster_Skirmisher_Male_Strong_Gloves_Wind_Die"]
          },
          "enableRagDoll": true
        },
        "Alert": {
          "$type": "NEDIFAKEGCO",
          "animatorStates": {
            "Alert": [
              "Monster_Samurai_Ronin_Alert",
              "Audio_Samurai_Hatamoto_03_Alert"
            ]
          },
          "resetAnimatorTriggerOnExit": ["BeHit", "DoSkill"],
          "canSteer": true
        },
        "MeleeAtk1": {
          "$type": "NEDIFAKEGCO",
          "animatorStates": {
            "MeleeAttack1": [
              "Monster_Samurai_Ronin_MeleeAttack01",
              "Audio_Samurai_Hatamoto_03_MeleeAtk1"
            ]
          },
          "resetAnimatorTriggerOnEnter": ["DoSkill"],
          "resetAnimatorTriggerOnExit": ["BeHit", "DoSkill"],
          "canSteer": true
        },
        "MeleeAtk2": {
          "$type": "NEDIFAKEGCO",
          "animatorStates": {
            "MeleeAttack2": [
              "Monster_Samurai_Ronin_MeleeAttack02",
              "Audio_Samurai_Hatamoto_03_MeleeAtk2"
            ]
          },
          "resetAnimatorTriggerOnEnter": ["DoSkill"],
          "resetAnimatorTriggerOnExit": ["BeHit", "DoSkill"],
          "canSteer": true
        },
        "RushAtk": {
          "$type": "NEDIFAKEGCO",
          "animatorStates": {
            "RushAtk": [
              "Monster_Samurai_Ronin_RushAtk",
              "Audio_Samurai_Hatamoto_03_RushAtk"
            ]
          },
          "resetAnimatorTriggerOnExit": ["BeHit", "DoSkill"],
          "canSteer": true
        },
        "BurstAttack": {
          "$type": "NEDIFAKEGCO",
          "animatorStates": {
            "BurstAttack": [
              "Monster_Samurai_Hatamoto_BurstAttack_BladeMaster",
              "Audio_Samurai_Hatamoto_03_BurstAtk"
            ],
            "Combo_BurstAttack": [
              "Monster_Samurai_Hatamoto_BurstAttack_BladeMaster",
              "Audio_Samurai_Hatamoto_03_BurstAtk"
            ]
          },
          "resetAnimatorTriggerOnExit": ["BeHit", "DoSkill"],
          "canSteer": true
        },
        "BurstAttack_Voice": {
          "$type": "NEDIFAKEGCO",
          "animatorStates": {
            "BurstAttack_Voice": [
              "Monster_Samurai_Hatamoto_BurstAttack_BladeMaster",
              "Audio_Samurai_Hatamoto_03_BurstAtk_Voice"
            ]
          },
          "resetAnimatorTriggerOnExit": ["BeHit", "DoSkill"],
          "canSteer": true
        },
        "Shoot": {
          "$type": "NEDIFAKEGCO",
          "animatorStates": {
            "Shoot": [
              "Monster_Samurai_Ronin_Shoot",
              "Audio_Samurai_Hatamoto_03_Shoot"
            ]
          },
          "resetAnimatorTriggerOnExit": ["BeHit", "DoSkill"],
          "canSteer": true
        },
        "ChargeAttack": {
          "$type": "NEDIFAKEGCO",
          "animatorStates": {
            "ChargeAttack": [
              "Monster_Samurai_Hatamoto_BladeMaster2_ChargeAtk",
              "Audio_Samurai_Hatamoto_03_ChargeAtk"
            ]
          },
          "resetAnimatorTriggerOnExit": ["BeHit", "DoSkill"],
          "canSteer": true
        },
        "PowerAtk1": {
          "$type": "NEDIFAKEGCO",
          "animatorStates": {
            "PowerAtk1": [
              "Monster_Samurai_Hatamoto_PowerAttack1",
              "Audio_Samurai_Hatamoto_PowerAtk1"
            ]
          },
          "resetAnimatorTriggerOnExit": ["BeHit", "DoSkill"],
          "canSteer": true
        },
        "PowerAtk1_Combo": {
          "$type": "NEDIFAKEGCO",
          "animatorStates": {
            "PowerAtk1_Combo": [
              "Monster_Samurai_Hatamoto_PowerAttack1",
              "Audio_Samurai_Hatamoto_PowerAtk1"
            ]
          },
          "resetAnimatorTriggerOnExit": ["BeHit", "DoSkill"],
          "canSteer": true
        },
        "PowerAtk2": {
          "$type": "NEDIFAKEGCO",
          "animatorStates": {
            "PowerAtk2": [
              "Monster_Samurai_Hatamoto_PowerAttack1",
              "Audio_Samurai_Hatamoto_03_PowerAtk2"
            ]
          },
          "resetAnimatorTriggerOnExit": ["BeHit", "DoSkill"],
          "canSteer": true
        },
        "Breaked": {
          "$type": "NEDIFAKEGCO",
          "animatorStates": {
            "Breaked": []
          },
          "resetAnimatorTriggerOnExit": ["BeHit", "DoSkill"],
          "canSteer": true
        },
        "Dodge": {
          "$type": "NEDIFAKEGCO",
          "animatorStates": {
            "Dodge": ["Audio_Samurai_Hatamoto_03_Dodge"]
          },
          "resetAnimatorTriggerOnExit": ["BeHit", "DoSkill"],
          "canSteer": true
        },
        "Provoke": {
          "$type": "NEDIFAKEGCO",
          "animatorStates": {
            "Provoke": [
              "Monster_Samurai_Hatamoto_Provoke_Shield",
              "Audio_Samurai_Hatamoto_03_Provoke"
            ]
          },
          "resetAnimatorTriggerOnExit": ["BeHit", "DoSkill"],
          "canSteer": true
        },
        "DefendBS": {
          "$type": "NEDIFAKEGCO",
          "animatorStates": {
            "Defend_BS1": ["Audio_Samurai_Hatamoto_03_Defend_BS1"],
            "Defend_BS2": ["Audio_Samurai_Hatamoto_03_Defend_BS2"]
          },
          "resetAnimatorTriggerOnEnter": ["DefendHit", "BlockBreak"],
          "resetAnimatorTriggerOnExit": ["BeHit", "DoSkill"],
          "canSteer": true
        },
        "DefendLoop": {
          "$type": "NEDIFAKEGCO",
          "animatorStates": {
            "Defend_Loop1": [],
            "Defend_Loop2": []
          },
          "resetAnimatorTriggerOnExit": ["BeHit", "DoSkill"],
          "canSteer": true
        },
        "DefendHit": {
          "$type": "NEDIFAKEGCO",
          "animatorStates": {
            "Defend_Hit1": ["Audio_Samurai_Hatamoto_03_Defend_Hit"],
            "Defend_Hit2": ["Audio_Samurai_Hatamoto_03_Defend_Hit"]
          },
          "resetAnimatorTriggerOnExit": ["BeHit", "DoSkill"],
          "canSteer": true
        },
        "DefendAS": {
          "$type": "NEDIFAKEGCO",
          "animatorStates": {
            "Defend_AS1": ["Audio_Samurai_Hatamoto_03_Defend_AS1"],
            "Defend_AS2": ["Audio_Samurai_Hatamoto_03_Defend_AS2"]
          },
          "resetAnimatorTriggerOnExit": ["BeHit", "DoSkill"],
          "canSteer": true
        },
        "DefendBreak": {
          "$type": "NEDIFAKEGCO",
          "animatorStates": {
            "Defend_Break1": ["Audio_Samurai_Hatamoto_03_Defend_Break1"],
            "Defend_Break2": ["Audio_Samurai_Hatamoto_03_Defend_Break2"]
          },
          "resetAnimatorTriggerOnExit": ["BeHit", "DoSkill"],
          "canSteer": true
        },
        "OutOfBattle": {
          "$type": "NEDIFAKEGCO",
          "animatorStates": {
            "OutOfBattle": ["Audio_Samurai_Hatamoto_03_OutOfBattel"]
          },
          "resetAnimatorTriggerOnExit": ["BeHit", "DoSkill"]
        },
        "CrazyAtk": {
          "$type": "NEDIFAKEGCO",
          "animatorStates": {
            "CrazyAtk": [
              "Monster_Samurai_Hatamoto_CrazyAtk",
              "Audio_Samurai_Hatamoto_03_CrazyAtk"
            ]
          },
          "resetAnimatorTriggerOnExit": ["BeHit", "DoSkill"]
        },
        "CrazyAtk_Voice": {
          "$type": "NEDIFAKEGCO",
          "animatorStates": {
            "CrazyAtk_Voice": [
              "Monster_Samurai_Hatamoto_CrazyAtk",
              "Audio_Samurai_Hatamoto_03_CrazyAtk_Voice"
            ]
          },
          "resetAnimatorTriggerOnExit": ["BeHit", "DoSkill"]
        },
        "MeleeAttack1_Crazy": {
          "$type": "NEDIFAKEGCO",
          "animatorStates": {
            "MeleeAttack1_Crazy": [
              "Monster_Samurai_Kairagi_MeleeAttack1",
              "Audio_Samurai_Hatamoto_03_MeleeAtk1_Crazy"
            ]
          },
          "resetAnimatorTriggerOnExit": ["BeHit", "DoSkill"]
        },
        "MeleeAttack2_Crazy": {
          "$type": "NEDIFAKEGCO",
          "animatorStates": {
            "MeleeAttack2_Crazy": [
              "Monster_Samurai_Kairagi_MeleeAttack2",
              "Audio_Samurai_Hatamoto_03_MeleeAtk2_Crazy"
            ]
          },
          "resetAnimatorTriggerOnExit": ["BeHit", "DoSkill"]
        },
        "MeleeAttack2_2_Crazy": {
          "$type": "NEDIFAKEGCO",
          "animatorStates": {
            "MeleeAttack2_2_Crazy": [
              "Monster_Samurai_Hatamoto_PowerAttack2",
              "Audio_Samurai_Hatamoto_03_MeleeAttack2_2_Crazy"
            ]
          },
          "resetAnimatorTriggerOnExit": ["BeHit", "DoSkill"]
        },
        "CrazyAtk_JumpAtk": {
          "$type": "NEDIFAKEGCO",
          "animatorStates": {
            "CrazyAtk_JumpAtk": [
              "Monster_Samurai_Kairagi_JumpAttack",
              "Audio_Samurai_Hatamoto_03_CrazyAtk_JumpAtk"
            ]
          },
          "resetAnimatorTriggerOnExit": ["BeHit", "DoSkill"]
        },
        "CrazyAtk_JumpAtk_ASAtk": {
          "$type": "NEDIFAKEGCO",
          "animatorStates": {
            "CrazyAtk_JumpAtk_ASAtk": [
              "Monster_Samurai_Hatamoto_PowerAttack1",
              "Audio_Samurai_Hatamoto_03_CrazyAtk_JumpAtk_ASAtk"
            ]
          },
          "resetAnimatorTriggerOnExit": ["BeHit", "DoSkill"]
        }
      }
    }
  },
  "billboard": {
    "$type": "DNGNMAJBCNP",
    "attachPoint": "BillboardAttach",
    "offsetType": "Character",
    "showHPBar": true,
    "forceShowDistance": 50.0
  },
  "initialPoses": {
    "Default": {
      "initialPoseID": 1
    }
  },
  "aibeta": {
    "enable": true,
    "sensing": {
      "settings": {
        "DefaultSetting": {
          "viewRange": 25.0,
          "feelRange": 10.0
        },
        "NeverCombat": {
          "enableVision": false,
          "hearAttractionRange": 0.0,
          "feelRange": 0.0
        }
      },
      "templates": {
        "DefaultTemplate": {
          "DefaultPoses": "DefaultSetting"
        },
        "NeverCombatTemplate": {
          "DefaultPoses": "NeverCombat"
        }
      }
    },
    "neurons": {
      "DefaultSetting": ["HIT"],
      "NeverCombat": []
    },
    "threat": {
      "GHIJMOKOLMB": "",
      "clearThreatTargetDistance": 100.0,
      "clearThreatByLostPath": true,
      "clearThreatTimerByLostPath": 11.0,
      "viewAttenuation": [
        {
          "x": 10.0,
          "y": 2.0
        },
        {
          "x": 15.0,
          "y": 0.800000011920929
        },
        {
          "x": 20.0,
          "y": 0.5
        },
        {
          "x": 25.0,
          "y": 0.30000001192092896
        },
        {
          "x": 30.0,
          "y": 0.20000000298023224
        }
      ],
      "resistTauntLevel": "Monster_TauntLevel_2"
    },
    "defendArea": {
      "defendRange": 100.0
    },
    "skillGroupCDConfigs": [
      {
        "skillGroupCDID": 0,
        "skillGroupCDTime": 10.0
      },
      {
        "skillGroupCDID": 1,
        "skillGroupCDTime": 10.0
      },
      {
        "skillGroupCDID": 2,
        "skillGroupCDTime": 15.0
      }
    ],
    "skillSetting": {
      "skillEliteSet": {
        "1": [101, 201],
        "2": [801]
      }
    },
    "skills": {
      "1": {
        "name": "OnAlert",
        "skillType": "OnAlert",
        "faceTarget": true,
        "publicCDGroup": "",
        "ignoreGCD": true,
        "triggerGCD": false,
        "HHAGODJIAPE": "",
        "stateIDs": ["Alert"],
        "skillQueryingTime": 3.0,
        "flagTargetReachable": "10",
        "flagSelfOnTemplateCollider": "01",
        "flagSelfInZone": "10",
        "flagTargetInZone": "11"
      },
      "101": {
        "name": "MeleeAtk1",
        "priority": 4,
        "enableSkillPrepare": true,
        "skillPrepareTimeout": 3.0,
        "castCondition": {
          "pose": [101],
          "maxTargetAngleXZ": 90.0,
          "pickRangeMax": 7.0,
          "castRangeMax": 1.0
        },
        "cd": 1.0,
        "cdUpperRange": 2.0,
        "publicCDGroup": "",
        "HHAGODJIAPE": "",
        "stateIDs": ["MeleeAtk1"],
        "flagTargetReachable": "10",
        "flagSelfOnTemplateCollider": "01",
        "flagSelfInZone": "10",
        "flagTargetInZone": "11"
      },
      "201": {
        "name": "MeleeAtk2",
        "priority": 4,
        "enableSkillPrepare": true,
        "skillPrepareTimeout": 3.0,
        "castCondition": {
          "pose": [101],
          "maxTargetAngleXZ": 90.0,
          "pickRangeMax": 7.0,
          "castRangeMax": 1.0
        },
        "cd": 1.0,
        "cdUpperRange": 2.0,
        "publicCDGroup": "",
        "HHAGODJIAPE": "",
        "stateIDs": ["MeleeAtk2"],
        "skillQueryingTime": 2.0,
        "flagTargetReachable": "10",
        "flagSelfOnTemplateCollider": "01",
        "flagSelfInZone": "10",
        "flagTargetInZone": "11"
      },
      "601": {
        "name": "ChargeAttack",
        "priority": 1,
        "skillPrepareTimeout": 3.0,
        "castCondition": {
          "pose": [101],
          "maxTargetAngleXZ": 90.0,
          "pickRangeMax": 8.0,
          "castRangeMax": 3.0
        },
        "cd": 10.0,
        "cdUpperRange": 5.0,
        "initialCD": 2.0,
        "publicCDGroup": "",
        "HHAGODJIAPE": "",
        "stateIDs": ["ChargeAttack"],
        "skillQueryingTime": 2.0,
        "flagTargetReachable": "10",
        "flagSelfOnTemplateCollider": "01",
        "flagSelfInZone": "10",
        "flagTargetInZone": "11"
      },
      "701": {
        "name": "PowerAtk1",
        "priority": 2,
        "skillPrepareTimeout": 3.0,
        "castCondition": {
          "pose": [101],
          "needReInitCD": true,
          "pickRangeMax": 8.0,
          "castRangeMax": 1.0
        },
        "cd": 7.0,
        "publicCDGroup": "",
        "HHAGODJIAPE": "",
        "stateIDs": ["PowerAtk1", "PowerAtk1_Combo", "PowerAtk2"],
        "skillQueryingTime": 2.0,
        "flagTargetReachable": "11",
        "flagSelfOnTemplateCollider": "01",
        "flagSelfInZone": "11",
        "flagTargetInZone": "11"
      },
      "801": {
        "name": "PowerAtk2",
        "priority": 1,
        "enableSkillPrepare": true,
        "skillPrepareTimeout": 2.0,
        "castCondition": {
          "pose": [101],
          "maxTargetAngleXZ": 90.0,
          "pickRangeMin": 5.0,
          "pickRangeMax": 10.0,
          "castRangeMax": 5.0
        },
        "cd": 5.0,
        "cdUpperRange": 5.0,
        "initialCD": 1.0,
        "publicCDGroup": "",
        "HHAGODJIAPE": "",
        "stateIDs": ["CrazyAtk_JumpAtk", "CrazyAtk_JumpAtk_ASAtk"],
        "skillQueryingTime": 2.0,
        "flagTargetReachable": "10",
        "flagSelfOnTemplateCollider": "01",
        "flagSelfInZone": "10",
        "flagTargetInZone": "11"
      }
    },
    "skillGCD": 3.0,
    "birdCirclingTactic": [
      {
        "$type": "EPHBMLFODKF",
        "enable": true,
        "condition": {
          "pose": [101, 103, 102, 104]
        },
        "JMCOBEPDIGM": {
          "rangeMin": 0.0,
          "rangeMax": 5.0,
          "JOJBOHEDBHC": 2.0,
          "AFILKAGDAHN": 3.0,
          "ALIBHHJHHMN": 1.0,
          "OMHBOLPFEPM": 1.0,
          "BFJBDDIIFOI": {
            "LLICGJHIGME": 0.0,
            "IDEFILBHNAP": 0.0,
            "IBLIPJPNOGC": 0.0
          },
          "NAOBMNGDKHL": "1111",
          "JCNIJOAIGII": "1111",
          "MNPDDAKDHGK": ""
        }
      },
      {
        "$type": "KACCHOLJDNK",
        "enable": true,
        "condition": {
          "pose": [101, 103, 102, 104]
        },
        "JMCOBEPDIGM": {
          "KHDFDAAAPEI": 10.0,
          "HKJODDGJPHA": 99.0,
          "GGEBMFHFBPO": 3.0,
          "KFFGCIMPNMJ": 0.0,
          "MNPDDAKDHGK": ""
        }
      },
      {
        "$type": "NNJKLGNPMNN",
        "enable": true,
        "JMCOBEPDIGM": {
          "OJGLKPBCLGB": 5.0,
          "MNPDDAKDHGK": "",
          "GJDMDHIBCME": ""
        }
      },
      {
        "$type": "FPELBIJFGCE",
        "condition": {
          "pose": [1]
        },
        "JMCOBEPDIGM": {
          "KPNDPKIOPJM": 5.0,
          "PINAFKEDDLL": 2.5,
          "ANMPOPEBDIA": 15.0,
          "GMJFIMFFOEL": 5.0,
          "CHCPFDMADEI": 7.5,
          "MNPDDAKDHGK": ""
        }
      }
    ]
  },
  "inputKeys": [
    {
      "keyID": 101,
      "inputKeyCode": 257,
      "abilityName": ""
    },
    {
      "keyID": 201,
      "inputKeyCode": 258,
      "abilityName": ""
    },
    {
      "keyID": 701,
      "inputKeyCode": 259,
      "abilityName": ""
    },
    {
      "keyID": 801,
      "inputKeyCode": 260,
      "abilityName": ""
    },
    {
      "keyID": 501,
      "inputKeyCode": 261,
      "abilityName": ""
    },
    {
      "keyID": 601,
      "inputKeyCode": 262,
      "abilityName": ""
    },
    {
      "keyID": 701,
      "inputKeyCode": 263,
      "abilityName": ""
    },
    {
      "keyID": 801,
      "inputKeyCode": 264,
      "abilityName": ""
    },
    {
      "keyID": 901,
      "inputKeyCode": 265,
      "abilityName": ""
    },
    {
      "keyID": 1002,
      "inputKeyCode": 266,
      "abilityName": ""
    },
    {
      "keyID": 1003,
      "inputKeyCode": 267,
      "abilityName": ""
    },
    {
      "keyID": 1004,
      "inputKeyCode": 268,
      "abilityName": ""
    },
    {
      "keyID": 1011,
      "inputKeyCode": 269,
      "abilityName": ""
    },
    {
      "keyID": 10000,
      "inputKeyCode": 270,
      "abilityName": ""
    },
    {
      "keyID": 402,
      "inputKeyCode": 271,
      "abilityName": ""
    }
  ],
  "move": {
    "$type": "IPNMJMHDMPF",
    "facingMove": "FourDirection",
    "monsterSizeType": "NormalHumanoidType",
    "PKHOMJHFAEE": "RootNode"
  },
  "audio": {
    "overrideEmitterName": "",
    "animAudio": {
      "onTransitionIn": [
        {
          "currentStateName": "Weak_Loop",
          "audioEvent": {
            "text": "Play_sfx_monster_gloves_wind_weak_Loop"
          }
        },
        {
          "currentStateName": "Block_Loop",
          "audioEvent": {
            "text": "Play_sfx_monster_gloves_wind_block_Loop"
          }
        }
      ],
      "onTransitionOut": [
        {
          "currentStateName": "Weak_Loop",
          "audioEvent": {
            "text": "Stop_sfx_monster_gloves_wind_weak_Loop"
          }
        },
        {
          "currentStateName": "Block_Loop",
          "audioEvent": {
            "text": "Stop_sfx_monster_gloves_wind_block_Loop"
          }
        }
      ]
    },
    "disableEvent": {
      "text": ""
    },
    "destroyEvent": {
      "text": ""
    }
  }
}
