{
  "common": {
    "effectAttachShape": {
      "$type": "FJNPJANPGGC",
      "mesh": "EffectMesh"
    },
    "mass": 30.0,
    "height": 1.600000023841858,
    "modelHeight": 1.7000000476837158,
    "affectedByWorld": true,
    "checkInSurface": true,
    "useGrassDisplacement": true
  },
  "headControl": {
    "$type": "KPIPDEBDPIH",
    "useHeadControl": true,
    "maxYawDegree": 75.0,
    "maxPitchDegree": 30.0,
    "animStates": [
      "NormalIdle/Standby",
      "NormalMove/WalkForward",
      "NormalMove/WalkBack",
      "NormalMove/WalkRight",
      "NormalMove/WalkLeft",
      "NormalMove/Run",
      "Turn/TurnLeft",
      "Turn/TurnRight"
    ]
  },
  "model": {
    "bornEffect": "Eff_Monster_Common_Born",
    "attachEffect": "",
    "BKPFGNPLDNJ": ""
  },
  "dither": {
    "showDitherDuration": 1.0
  },
  "combat": {
    "property": {
      "endureType": "Monster_Minion",
      "weight": 80.0
    },
    "beHit": {
      "hitBloodEffect": ""
    },
    "combatLock": {
      "lockShape": "CircleLockEnemy",
      "lockType": "Avatar&Monster_Lv4"
    },
    "die": {
      "hasAnimatorDie": true,
      "dieEndTime": 4.0,
      "dieForceDisappearTime": 15.0,
      "dieDisappearEffect": "",
      "useRagDoll": true,
      "ragDollDieEndTimeDelay": 15.0,
      "muteHitBox": true,
      "dieDenyLockOn": true,
      "dieIsGhostToEnemy": true,
      "dieIgnoreTriggerBullet": true,
      "muteBillboard": true,
      "mutePushCollider": true
    },
    "animEvents": {
      "NormalAtk": {
        "attackPattern": {
          "$type": "ConfigAttackCircle",
          "triggerType": "TriggerNoRepeat",
          "born": {
            "$type": "ConfigBornBySelf",
            "offset": {
              "x": 0.0,
              "y": 0.0,
              "z": 0.0
            }
          },
          "fanAngle": 90.0,
          "radius": 1.75
        },
        "attackInfo": {
          "attackTag": "",
          "attenuationTag": "",
          "attenuationGroup": "default",
          "attackProperty": {
            "actorGrassSubHurtDelta": 1.0,
            "actorWindSubHurtDelta": 0.0,
            "elementDurability": 100.0,
            "strikeType": "Blunt",
            "enBreak": 100.0,
            "attackType": "Melee",
            "GLKMCMDJBIK": 0.0
          },
          "hitPattern": {
            "onHitEffectName": "default",
            "hitImpulseY": "",
            "hitImpulseType": "LV5"
          },
          "cameraShake": {
            "shakeType": "HitVector",
            "shakeRange": 0.20000000298023224,
            "shakeTime": 0.15000000596046448,
            "shakeDistance": 25.0,
            "shakeDir": {
              "x": -1.0,
              "y": -0.30000001192092896
            }
          }
        }
      }
    }
  },
  "equipController": {
    "sheathPoint": "",
    "attachPoints": {
      "equip01": "WeaponR",
      "equip02": "WeaponL"
    }
  },
  "abilities": [
    {
      "abilityID": "Alert",
      "abilityName": "Thoarder_Alert",
      "abilityOverride": ""
    },
    {
      "abilityID": "SteerAttack",
      "abilityName": "Thoarder_Male_NoWeapon_SteerAttack",
      "abilityOverride": ""
    },
    {
      "abilityID": "ThrowBomb_Water",
      "abilityName": "Thoarder_Male_NoWeapon_ThrowBomb_Water",
      "abilityOverride": ""
    },
    {
      "abilityID": "ThrowBomb_Water_BombManager",
      "abilityName": "Thoarder_Male_NoWeapon_ThrowBomb_Water_BombManager",
      "abilityOverride": ""
    },
    {
      "abilityID": "SteerMove",
      "abilityName": "Thoarder_SteerMove",
      "abilityOverride": ""
    },
    {
      "abilityID": "SpecialsState_Weapon",
      "abilityName": "Thoarder_SpecialsState_Weapon",
      "abilityOverride": ""
    }
  ],
  "stateLayers": {
    "defaultLayer": {
      "$type": "GBGJJIIEMBD",
      "layerIndexName": "",
      "CPAANEIJCGD": "",
      "stateIDs": {
        "NormalIdle": {
          "$type": "NEDIFAKEGCO",
          "animatorStates": {
            "Standby": ["Audio_Monster_Thoarder_NoWeapon_Standby"],
            "Born": []
          },
          "canDoSkill": true,
          "canSyncMove": true,
          "resetAnimatorTriggerOnExit": ["DoSkill"]
        },
        "NormalMove": {
          "$type": "NEDIFAKEGCO",
          "animatorStates": {
            "WalkForward": ["Audio_Monster_Thoarder_NoWeapon_Walk"],
            "WalkBack": ["Audio_Monster_Thoarder_NoWeapon_Walk"],
            "WalkRight": ["Audio_Monster_Thoarder_NoWeapon_Walk"],
            "WalkLeft": ["Audio_Monster_Thoarder_NoWeapon_Walk"],
            "Run": ["Audio_Monster_Thoarder_NoWeapon_Run"]
          },
          "canDoSkill": true,
          "canSyncMove": true,
          "resetAnimatorTriggerOnExit": ["DoSkill"],
          "canSteer": true
        },
        "Turn": {
          "$type": "NEDIFAKEGCO",
          "animatorStates": {
            "TurnLeft": ["Audio_Monster_Thoarder_NoWeapon_Walk"],
            "TurnRight": ["Audio_Monster_Thoarder_NoWeapon_Walk"]
          },
          "canDoSkill": true,
          "canSyncMove": true,
          "resetAnimatorTriggerOnExit": ["DoSkill"],
          "canSteer": true
        },
        "BeHit": {
          "$type": "NEDIFAKEGCO",
          "animatorStates": {
            "Hit_L": ["Audio_Monster_Thoarder_NoWeapon_Normal_Hit_L"],
            "Hit_H": ["Audio_Monster_Thoarder_NoWeapon_Normal_Hit_H"],
            "DHit": []
          },
          "resetAnimatorTriggerOnEnter": ["BeHit"],
          "resetAnimatorTriggerOnExit": ["DoSkill"]
        },
        "BeHitThrow": {
          "$type": "NEDIFAKEGCO",
          "animatorStates": {
            "HitThrow": ["Audio_Monster_Thoarder_NoWeapon_Normal_HitThrow"],
            "HitThrowDrop": [],
            "HitThrowToGround": [
              "Audio_Monster_Thoarder_NoWeapon_Normal_HitThrowToGround"
            ]
          },
          "resetAnimatorTriggerOnEnter": ["BeHit", "HitAir2HitDrop"],
          "resetAnimatorTriggerOnExit": ["DoSkill"]
        },
        "Struggle": {
          "$type": "NEDIFAKEGCO",
          "animatorStates": {
            "Struggle": []
          },
          "resetAnimatorTriggerOnEnter": ["BeHit", "HitAir2HitDrop"],
          "resetAnimatorTriggerOnExit": ["DoSkill"]
        },
        "Die": {
          "$type": "NEDIFAKEGCO",
          "animatorStates": {
            "Die1": [
              "Monster_Thoarder_Male_NoWeapon_Die",
              "Audio_Monster_Thoarder_NoWeapon_Normal_Die"
            ],
            "Die2": [
              "Monster_Thoarder_Male_NoWeapon_Die",
              "Audio_Monster_Thoarder_NoWeapon_Normal_Die"
            ],
            "SwimDie": ["Audio_Monster_Thoarder_NoWeapon_SwimDie"],
            "SwimDie_AS": [
              "Monster_Thoarder_Common_SwimDie",
              "Audio_Monster_Thoarder_NoWeapon_SwimDie"
            ]
          }
        },
        "Die_RagDoll": {
          "$type": "NEDIFAKEGCO",
          "animatorStates": {
            "AirDie": [
              "Monster_Thoarder_Common_AirDie",
              "Audio_Monster_Thoarder_NoWeapon_Normal_Die"
            ]
          },
          "enableRagDoll": true
        },
        "Life_Alert": {
          "$type": "NEDIFAKEGCO",
          "animatorStates": {
            "Alert": ["Audio_Monster_Thoarder_NoWeapon_Normal_Alert"]
          },
          "resetAnimatorTriggerOnExit": ["BeHit", "DoSkill"]
        },
        "Life_Warning": {
          "$type": "NEDIFAKEGCO",
          "animatorStates": {
            "Warning": [
              "Monster_Undead01_Warning",
              "Monster_Thoarder_Alert",
              "Audio_Monster_Thoarder_NoWeapon_Normal_Alert"
            ],
            "Alert_Armed": [
              "Monster_Undead01_Warning",
              "Monster_Thoarder_Alert",
              "Audio_Monster_Thoarder_NoWeapon_Normal_Alert"
            ]
          },
          "resetAnimatorTriggerOnExit": ["BeHit", "DoSkill"]
        },
        "NormalAtk": {
          "$type": "NEDIFAKEGCO",
          "animatorStates": {
            "NormalAtk": [
              "Monster_Thoarder_Male_NoWeapon_NormalAtk",
              "Audio_Monster_Thoarder_NoWeapon_Normal_NormalAtk"
            ]
          },
          "resetAnimatorTriggerOnExit": ["BeHit", "DoSkill"]
        },
        "ThrowBomb_BS": {
          "$type": "NEDIFAKEGCO",
          "animatorStates": {
            "ThrowBomb_BS": [
              "Monster_Thoarder_Male_NoWeapon_BombThrow_Water_BS",
              "Monster_Thoarder_Male_NoWeapon_BombThrow_Water_Throw",
              "Audio_Monster_Thoarder_NoWeapon_Normal_ThrowingBottle_Water"
            ]
          },
          "resetAnimatorTriggerOnExit": ["BeHit", "DoSkill"]
        },
        "ThrowBomb_Throw": {
          "$type": "NEDIFAKEGCO",
          "animatorStates": {
            "ThrowBomb_Throw": []
          },
          "resetAnimatorTriggerOnExit": ["BeHit", "DoSkill"]
        },
        "Armed": {
          "$type": "NEDIFAKEGCO",
          "animatorStates": {
            "Armed": []
          },
          "canDoSkill": true,
          "resetAnimatorTriggerOnExit": ["BeHit", "DoSkill"]
        },
        "Think": {
          "$type": "NEDIFAKEGCO",
          "animatorStates": {
            "Think": []
          },
          "canDoSkill": true,
          "resetAnimatorTriggerOnExit": ["BeHit", "DoSkill"]
        },
        "Search": {
          "$type": "NEDIFAKEGCO",
          "animatorStates": {
            "Search": []
          },
          "canDoSkill": true,
          "resetAnimatorTriggerOnExit": ["BeHit", "DoSkill"]
        },
        "Sit": {
          "$type": "NEDIFAKEGCO",
          "animatorStates": {
            "Sit": []
          },
          "canDoSkill": true,
          "resetAnimatorTriggerOnExit": ["BeHit", "DoSkill"]
        },
        "Sleep": {
          "$type": "NEDIFAKEGCO",
          "animatorStates": {
            "Sleep": []
          },
          "canDoSkill": true,
          "resetAnimatorTriggerOnExit": ["BeHit", "DoSkill"]
        },
        "Chat": {
          "$type": "NEDIFAKEGCO",
          "animatorStates": {
            "Chat": []
          },
          "canDoSkill": true,
          "resetAnimatorTriggerOnExit": ["BeHit", "DoSkill"]
        },
        "ChatFree01": {
          "$type": "NEDIFAKEGCO",
          "animatorStates": {
            "ChatFree01_BS": [],
            "ChatFree01_Loop": [],
            "ChatFree01_AS": []
          },
          "canDoSkill": true,
          "resetAnimatorTriggerOnExit": ["BeHit", "DoSkill"]
        },
        "Threat": {
          "$type": "NEDIFAKEGCO",
          "animatorStates": {
            "Threat": []
          },
          "canDoSkill": true,
          "resetAnimatorTriggerOnExit": ["BeHit", "DoSkill"]
        },
        "ThreatFree01": {
          "$type": "NEDIFAKEGCO",
          "animatorStates": {
            "ThreatFree01": []
          },
          "canDoSkill": true,
          "resetAnimatorTriggerOnExit": ["BeHit", "DoSkill"]
        },
        "Laugh": {
          "$type": "NEDIFAKEGCO",
          "animatorStates": {
            "Laugh": []
          },
          "canDoSkill": true,
          "resetAnimatorTriggerOnExit": ["BeHit", "DoSkill"]
        },
        "LaughFree01": {
          "$type": "NEDIFAKEGCO",
          "animatorStates": {
            "LaughFree01": []
          },
          "canDoSkill": true,
          "resetAnimatorTriggerOnExit": ["BeHit", "DoSkill"]
        }
      }
    }
  },
  "billboard": {
    "$type": "DNGNMAJBCNP",
    "attachPoint": "BillboardAttach",
    "offset": {
      "x": -0.05000000074505806
    },
    "offsetType": "Character",
    "radiusOffset": 0.25,
    "showHPBar": true
  },
  "initialPoses": {
    "Default": {},
    "FixedPos": {
      "initialPoseID": 2,
      "initialPoseParams": {
        "boolParams": {
          "FixedPos": "true"
        }
      }
    },
    "FixedPosArmed": {
      "initialPoseID": 3,
      "initialPoseParams": {
        "boolParams": {
          "FixedPosArmed": "true"
        }
      }
    },
    "Armed": {
      "initialPoseID": 4,
      "initialPoseParams": {
        "boolParams": {
          "Armed": "true"
        }
      }
    },
    "Think": {
      "initialPoseID": 9002,
      "initialPoseParams": {
        "boolParams": {
          "Think": "true"
        }
      }
    },
    "Search": {
      "initialPoseID": 9003,
      "initialPoseParams": {
        "boolParams": {
          "Search": "true"
        }
      }
    },
    "Sit": {
      "initialPoseID": 9004,
      "initialPoseParams": {
        "boolParams": {
          "Sit": "true"
        }
      }
    },
    "Sleep": {
      "initialPoseID": 9005,
      "initialPoseParams": {
        "boolParams": {
          "Sleep": "true"
        }
      }
    },
    "Chat": {
      "initialPoseID": 9006,
      "initialPoseParams": {
        "boolParams": {
          "Chat": "true"
        }
      }
    },
    "Threat": {
      "initialPoseID": 9007,
      "initialPoseParams": {
        "boolParams": {
          "Threat": "true"
        }
      }
    },
    "Laugh": {
      "initialPoseID": 9009,
      "initialPoseParams": {
        "boolParams": {
          "Laugh": "true"
        }
      }
    }
  },
  "aibeta": {
    "enable": true,
    "moveSetting": {
      "navMeshAgentName": "Undead01",
      "almostReachedDistanceRun": 1.5
    },
    "sensing": {
      "settings": {
        "DefaultSetting": {
          "feelRange": 8.0
        },
        "HighAlert": {
          "viewRange": 40.0,
          "feelRange": 10.0
        },
        "LowAlert": {
          "viewRange": 10.0
        },
        "Sleep": {
          "viewRange": 0.0,
          "feelRange": 3.0
        }
      },
      "templates": {
        "DefaultTemplate": {
          "DefaultPoses": "DefaultSetting",
          "9002": "LowAlert",
          "9003": "LowAlert",
          "9004": "LowAlert",
          "9005": "Sleep",
          "9006": "LowAlert",
          "9007": "LowAlert",
          "9009": "LowAlert"
        },
        "HighAlertTemplate": {
          "DefaultPoses": "HighAlert",
          "9002": "DefaultSetting",
          "9003": "DefaultSetting",
          "9004": "DefaultSetting",
          "9005": "Sleep",
          "9006": "DefaultSetting",
          "9007": "DefaultSetting",
          "9009": "DefaultSetting"
        }
      }
    },
    "neurons": {
      "DefaultSetting": ["HIT"]
    },
    "threat": {
      "GHIJMOKOLMB": "",
      "clearThreatByLostPath": true,
      "clearThreatTimerByDistance": 3.0,
      "viewAttenuation": [
        {
          "x": 10.0,
          "y": 2.0
        },
        {
          "x": 15.0,
          "y": 0.800000011920929
        },
        {
          "x": 20.0,
          "y": 0.5
        },
        {
          "x": 25.0,
          "y": 0.30000001192092896
        },
        {
          "x": 30.0,
          "y": 0.20000000298023224
        }
      ]
    },
    "defendArea": {},
    "profiling": {},
    "skillGroupCDConfigs": [
      {
        "skillGroupCDID": 1,
        "skillGroupCDTime": 7.0
      },
      {
        "skillGroupCDID": 2,
        "skillGroupCDTime": 3.0
      },
      {
        "skillGroupCDID": 3,
        "skillGroupCDTime": 3.0
      }
    ],
    "skills": {
      "101": {
        "name": "OnAlert",
        "skillType": "OnAlert",
        "faceTarget": true,
        "castCondition": {
          "pose": [1, 2, 9002, 9003, 9004, 9005, 9006, 9009]
        },
        "publicCDGroup": "",
        "ignoreGCD": true,
        "triggerGCD": false,
        "HHAGODJIAPE": "",
        "stateIDs": ["Life_Warning"],
        "skillQueryingTime": 3.0,
        "flagTargetReachable": "10",
        "flagSelfOnTemplateCollider": "01",
        "flagSelfInZone": "10",
        "flagTargetInZone": "11"
      },
      "103": {
        "name": "OnAlert_Armed",
        "skillType": "OnAlert",
        "faceTarget": true,
        "castCondition": {
          "pose": [3, 4, 9007]
        },
        "publicCDGroup": "",
        "ignoreGCD": true,
        "triggerGCD": false,
        "HHAGODJIAPE": "",
        "stateIDs": ["Life_Warning"],
        "skillQueryingTime": 3.0,
        "flagTargetReachable": "10",
        "flagSelfOnTemplateCollider": "01",
        "flagSelfInZone": "10",
        "flagTargetInZone": "11"
      },
      "201": {
        "name": "NoWeapon_Attack",
        "combatSkillType": "MeleeAttack",
        "priority": 2,
        "castCondition": {
          "pose": [1001, 1002],
          "pickRangeMax": 3.0,
          "castRangeMax": 3.0
        },
        "cd": 3.5,
        "publicCDGroup": "",
        "ignoreGCD": true,
        "triggerGCD": false,
        "HHAGODJIAPE": "",
        "stateIDs": ["NormalAtk"],
        "flagTargetReachable": "10",
        "flagSelfOnTemplateCollider": "01",
        "flagSelfInZone": "10",
        "flagTargetInZone": "11"
      },
      "304": {
        "name": "ThrowBomb",
        "combatSkillType": "RangedAttack",
        "castCondition": {
          "pose": [1001, 1002],
          "pickRangeMin": 3.0,
          "pickRangeMax": 15.0,
          "castRangeMin": 2.25,
          "castRangeMax": 10.0
        },
        "cd": 3.5,
        "publicCDGroup": "",
        "skillGroupCDID": 3,
        "HHAGODJIAPE": "",
        "stateIDs": ["ThrowBomb_BS", "ThrowBomb_Throw"],
        "flagTargetReachable": "10",
        "flagSelfOnTemplateCollider": "01",
        "flagSelfInZone": "10",
        "flagTargetInZone": "11"
      },
      "305": {
        "name": "ThrowBomb",
        "combatSkillType": "RangedAttack",
        "castCondition": {
          "pose": [1001, 1002],
          "castRangeMax": 15.0
        },
        "cd": 3.5,
        "publicCDGroup": "",
        "skillGroupCDID": 3,
        "HHAGODJIAPE": "",
        "stateIDs": ["ThrowBomb_BS", "ThrowBomb_Throw"],
        "flagTargetReachable": "01",
        "flagSelfOnTemplateCollider": "01",
        "flagSelfInZone": "10",
        "flagTargetInZone": "11"
      },
      "90061": {
        "name": "ChatFree01",
        "skillType": "Free",
        "castCondition": {
          "pose": [9006]
        },
        "cd": 6.0,
        "cdUpperRange": 15.0,
        "initialCD": 5.0,
        "initialCDUpperRange": 6.0,
        "publicCDGroup": "",
        "HHAGODJIAPE": "",
        "stateIDs": ["ChatFree01"],
        "flagTargetReachable": "10",
        "flagSelfOnTemplateCollider": "01",
        "flagSelfInZone": "10",
        "flagTargetInZone": "11"
      },
      "90071": {
        "name": "ThreatFree01",
        "skillType": "Free",
        "castCondition": {
          "pose": [9007]
        },
        "cd": 6.0,
        "cdUpperRange": 15.0,
        "initialCD": 5.0,
        "initialCDUpperRange": 5.0,
        "publicCDGroup": "",
        "HHAGODJIAPE": "",
        "stateIDs": ["ThreatFree01"],
        "flagTargetReachable": "10",
        "flagSelfOnTemplateCollider": "01",
        "flagSelfInZone": "10",
        "flagTargetInZone": "11"
      },
      "90091": {
        "name": "LaughFree01",
        "skillType": "Free",
        "castCondition": {
          "pose": [9009]
        },
        "cd": 5.0,
        "cdUpperRange": 5.0,
        "initialCD": 3.0,
        "initialCDUpperRange": 5.0,
        "publicCDGroup": "",
        "HHAGODJIAPE": "",
        "stateIDs": ["LaughFree01"],
        "flagTargetReachable": "10",
        "flagSelfOnTemplateCollider": "01",
        "flagSelfInZone": "10",
        "flagTargetInZone": "11"
      }
    },
    "skillGCD": 3.0,
    "birdCirclingTactic": [
      {
        "$type": "EPHBMLFODKF",
        "enable": true,
        "condition": {
          "pose": [1001]
        },
        "JMCOBEPDIGM": {
          "rangeMin": 7.0,
          "rangeMax": 10.0,
          "BFJBDDIIFOI": {
            "IDEFILBHNAP": 0.0,
            "IBLIPJPNOGC": 0.0,
            "AEBLMKFNCDG": 5.0,
            "IGLIBIOEGBB": 5.0
          },
          "NAOBMNGDKHL": "1111",
          "JCNIJOAIGII": "1111",
          "MNPDDAKDHGK": ""
        }
      },
      {
        "$type": "OJOBEDCMGKM",
        "enable": true,
        "condition": {
          "pose": [1, 4]
        }
      },
      {
        "$type": "KACCHOLJDNK",
        "enable": true,
        "condition": {
          "pose": [1001]
        },
        "JMCOBEPDIGM": {
          "ANLAAGAMIKF": 1,
          "HKJODDGJPHA": 50.0,
          "GGEBMFHFBPO": 10.0,
          "KFFGCIMPNMJ": 15.0,
          "MNPDDAKDHGK": ""
        }
      },
      {
        "$type": "NNJKLGNPMNN",
        "enable": true,
        "JMCOBEPDIGM": {
          "MNPDDAKDHGK": "",
          "GJDMDHIBCME": ""
        }
      },
      {
        "$type": "FPELBIJFGCE",
        "enable": true,
        "condition": {
          "pose": [1, 4]
        },
        "JMCOBEPDIGM": {
          "KPNDPKIOPJM": 3.0,
          "PINAFKEDDLL": 1.5,
          "ANMPOPEBDIA": 15.0,
          "GMJFIMFFOEL": 3.75,
          "CHCPFDMADEI": 7.5,
          "MNPDDAKDHGK": ""
        }
      }
    ]
  },
  "inputKeys": [
    {
      "keyID": 201,
      "inputKeyCode": 257,
      "abilityName": ""
    },
    {
      "keyID": 304,
      "inputKeyCode": 258,
      "abilityName": ""
    }
  ],
  "move": {
    "$type": "IPNMJMHDMPF",
    "facingMove": "FourDirection",
    "monsterSizeType": "StoopType",
    "PKHOMJHFAEE": "RootNode"
  },
  "audio": {
    "overrideEmitterName": "",
    "animAudio": {},
    "disableEvent": {
      "text": ""
    },
    "destroyEvent": {
      "text": ""
    },
    "randomVariantSwitchGroup": {
      "text": ""
    },
    "randomVariantSwitchValues": [
      {
        "text": ""
      }
    ]
  }
}
