{
  "common": {
    "effectAttachShape": {
      "$type": "FJNPJANPGGC",
      "mesh": "EffectMesh"
    },
    "mass": 1000.0,
    "height": 1.7999999523162842,
    "modelHeight": 1.7999999523162842,
    "viewSize": 1.149999976158142,
    "affectedByWorld": true,
    "checkInSurface": true,
    "scale": 1.149999976158142,
    "useGrassDisplacement": true,
    "reconnectSupport": true,
    "recoverByInitPose": true
  },
  "headControl": {
    "$type": "KPIPDEBDPIH",
    "useHeadControl": true,
    "maxYawDegree": 90.0,
    "maxPitchDegree": 25.0,
    "animStates": [
      "NormalIdle/Standby",
      "BossStand_Idle/BossStand_Idle",
      "NormalMove/WalkForward",
      "NormalMove/WalkBack",
      "NormalMove/WalkRight",
      "NormalMove/WalkLeft",
      "NormalMove/Run",
      "Turn/TurnLeft",
      "Turn/TurnRight",
      "Aware/Aware"
    ]
  },
  "model": {
    "bornEffect": "",
    "attachEffect": "",
    "canBakeMesh": false,
    "BKPFGNPLDNJ": ""
  },
  "dither": {
    "showDitherDuration": 1.0
  },
  "combat": {
    "property": {
      "endureType": "Monster_Boss_Other",
      "weight": 300.0
    },
    "beHit": {
      "hitBloodEffect": ""
    },
    "combatLock": {
      "lockShape": "CircleLockEnemy",
      "lockType": "Avatar&Monster_Lv4"
    },
    "die": {
      "hasAnimatorDie": true,
      "dieForceDisappearTime": 8.0,
      "dieDisappearEffect": "",
      "dieShaderData": "MonsterWayobDie",
      "dieShaderEnableDurationTime": 0.0,
      "ragDollDieEndTimeDelay": 8.0,
      "muteHitBox": true,
      "dieDenyLockOn": true,
      "dieIsGhostToEnemy": true,
      "dieIgnoreTriggerBullet": true,
      "muteBillboard": true,
      "mutePushCollider": true
    },
    "animEvents": {
      "AE_MeleeAtk01": {
        "attackPattern": {
          "$type": "ConfigAttackCircle",
          "triggerType": "TriggerNoRepeat",
          "born": {
            "$type": "ConfigBornBySelf",
            "offset": {
              "x": 0.30000001192092896,
              "y": 0.0,
              "z": 0.5
            }
          },
          "height": 2.0999999046325684,
          "fanAngle": 260.0,
          "radius": 1.600000023841858
        },
        "attackInfo": {
          "attackTag": "",
          "attenuationTag": "",
          "attenuationGroup": "default",
          "attackProperty": {
            "actorGrassSubHurtDelta": 0.5,
            "actorWindSubHurtDelta": 0.0,
            "elementDurability": 100.0,
            "strikeType": "Blunt",
            "enBreak": 200.0,
            "GLKMCMDJBIK": 0.0
          },
          "hitPattern": {
            "onHitEffectName": "default",
            "hitImpulseY": "",
            "hitImpulseType": "LV4"
          }
        }
      },
      "AE_MeleeAtk02_01": {
        "attackPattern": {
          "$type": "ConfigAttackCircle",
          "triggerType": "TriggerNoRepeat",
          "born": {
            "$type": "ConfigBornBySelf",
            "offset": {
              "x": 0.0,
              "y": 0.0,
              "z": 1.5
            }
          },
          "height": 1.7999999523162842,
          "radius": 2.0
        },
        "attackInfo": {
          "attackTag": "",
          "attenuationTag": "",
          "attenuationGroup": "default",
          "attackProperty": {
            "actorGrassSubHurtDelta": 0.699999988079071,
            "actorWindSubHurtDelta": 0.0,
            "elementDurability": 100.0,
            "strikeType": "Blunt",
            "enBreak": 200.0,
            "GLKMCMDJBIK": 0.0
          },
          "hitPattern": {
            "onHitEffectName": "default",
            "hitImpulseY": "",
            "hitImpulseType": "LV4"
          }
        }
      },
      "UltAtk01": {
        "attackPattern": {
          "$type": "ConfigAttackCircle",
          "triggerType": "TriggerNoRepeat",
          "born": {
            "$type": "ConfigBornBySelf",
            "offset": {
              "x": 0.0,
              "y": 0.0,
              "z": 0.5
            }
          },
          "height": 2.5,
          "radius": 4.5
        },
        "attackInfo": {
          "attackTag": "",
          "attenuationTag": "",
          "attenuationGroup": "default",
          "attackProperty": {
            "actorGrassSubHurtDelta": 0.800000011920929,
            "actorWindSubHurtDelta": 0.0,
            "elementType": "Grass",
            "elementDurability": 25.0,
            "strikeType": "Blunt",
            "enBreak": 200.0,
            "GLKMCMDJBIK": 0.0
          },
          "hitPattern": {
            "onHitEffectName": "default",
            "hitImpulseY": "",
            "hitImpulseType": "LV4"
          }
        }
      }
    }
  },
  "equipController": {
    "sheathPoint": "",
    "attachPoints": {
      "equip01": "WeaponR",
      "equip02": "WeaponL"
    }
  },
  "abilities": [
    {
      "abilityID": "",
      "abilityName": "Monster_Tribalwarrior_Female_Standard_Launcher_HookWalker_Steer",
      "abilityOverride": ""
    },
    {
      "abilityID": "",
      "abilityName": "Monster_Tribalwarrior_Female_Standard_Launcher_HookWalker_RangedAttack02",
      "abilityOverride": ""
    },
    {
      "abilityID": "",
      "abilityName": "Monster_Tribalwarrior_Female_Standard_Launcher_HookWalker_RangedAttack01",
      "abilityOverride": ""
    },
    {
      "abilityID": "",
      "abilityName": "Monster_Tribalwarrior_Female_Standard_Launcher_HookWalker_TribalUltLine",
      "abilityOverride": ""
    },
    {
      "abilityID": "",
      "abilityName": "Monster_Tribalwarrior_Female_Standard_Launcher_HookWalker_TribalUlt",
      "abilityOverride": ""
    },
    {
      "abilityID": "",
      "abilityName": "Monster_Tribalwarrior_Female_Standard_Launcher_HookWalker_LeftLine",
      "abilityOverride": ""
    },
    {
      "abilityID": "",
      "abilityName": "Monster_Tribalwarrior_Female_Standard_Launcher_HookWalker_RightLine",
      "abilityOverride": ""
    },
    {
      "abilityID": "",
      "abilityName": "Monster_Tribalwarrior_Female_Standard_Launcher_HookWalker_AirState",
      "abilityOverride": ""
    },
    {
      "abilityID": "",
      "abilityName": "Monster_Tribalwarrior_Female_Standard_Launcher_HookWalker_CreateHookPoint",
      "abilityOverride": ""
    },
    {
      "abilityID": "",
      "abilityName": "Monster_Tribalwarrior_Female_Standard_Launcher_HookWalker_InAir",
      "abilityOverride": ""
    },
    {
      "abilityID": "",
      "abilityName": "Monster_Tribalwarrior_Female_Standard_Launcher_HookWalker_HookLine",
      "abilityOverride": ""
    },
    {
      "abilityID": "",
      "abilityName": "Monster_Tribalwarrior_Female_Standard_Launcher_HookWalker_InAirHook",
      "abilityOverride": ""
    },
    {
      "abilityID": "",
      "abilityName": "Monster_Tribalwarrior_Female_Standard_Launcher_HookWalker_InAirAtk",
      "abilityOverride": ""
    }
  ],
  "stateLayers": {
    "defaultLayer": {
      "$type": "GBGJJIIEMBD",
      "layerIndexName": "",
      "CPAANEIJCGD": "",
      "stateIDs": {
        "NormalIdle": {
          "$type": "NEDIFAKEGCO",
          "animatorStates": {
            "Standby": [],
            "StandbyFree": []
          },
          "canDoSkill": true,
          "canSyncMove": true,
          "resetAnimatorTriggerOnExit": ["DoSkill"]
        },
        "InAir_Idle": {
          "$type": "NEDIFAKEGCO",
          "animatorStates": {
            "InAir_Idle": []
          },
          "canDoSkill": true,
          "canSyncMove": true,
          "resetAnimatorTriggerOnExit": ["DoSkill"],
          "canSteer": true
        },
        "NormalBorn": {
          "$type": "NEDIFAKEGCO",
          "animatorStates": {
            "Born": []
          },
          "canDoSkill": true,
          "resetAnimatorTriggerOnExit": ["DoSkill"]
        },
        "NormalMove": {
          "$type": "NEDIFAKEGCO",
          "animatorStates": {
            "WalkForward": [
              "Audio_Monster_Tribalwarrior_Female_Standard_Launcher_Hookwalker_WalkForward"
            ],
            "WalkBack": [
              "Audio_Monster_Tribalwarrior_Female_Standard_Launcher_Hookwalker_WalkBack"
            ],
            "WalkRight": [
              "Audio_Monster_Tribalwarrior_Female_Standard_Launcher_Hookwalker_WalkL"
            ],
            "WalkLeft": [
              "Audio_Monster_Tribalwarrior_Female_Standard_Launcher_Hookwalker_WalkL"
            ],
            "Run": [
              "Audio_Monster_Tribalwarrior_Female_Standard_Launcher_Hookwalker_Run"
            ]
          },
          "canDoSkill": true,
          "canSyncMove": true,
          "resetAnimatorTriggerOnExit": ["DoSkill"],
          "canSteer": true
        },
        "Turn": {
          "$type": "NEDIFAKEGCO",
          "animatorStates": {
            "TurnLeft": [
              "Audio_Monster_Tribalwarrior_Female_Standard_Launcher_Hookwalker_WalkL"
            ],
            "TurnRight": [
              "Audio_Monster_Tribalwarrior_Female_Standard_Launcher_Hookwalker_WalkL"
            ]
          },
          "canDoSkill": true,
          "canSyncMove": true,
          "resetAnimatorTriggerOnExit": ["DoSkill"],
          "canSteer": true,
          "autoSteer": true
        },
        "BeHitThrow": {
          "$type": "NEDIFAKEGCO",
          "animatorStates": {
            "HitThrow": [],
            "HitThrowDrop": []
          },
          "resetAnimatorTriggerOnEnter": ["BeHit", "HitAir2HitDrop", "Drop"],
          "resetAnimatorTriggerOnExit": ["DoSkill", "BeHit"],
          "setAnimatorBoolean": [
            {
              "name": "AirDie"
            }
          ]
        },
        "BeHitThrowToStandby": {
          "$type": "NEDIFAKEGCO",
          "animatorStates": {
            "HitThrowToGround": [
              "Audio_Monster_Tribalwarrior_Female_Standard_Launcher_Hookwalker_HitThrowToGround",
              "Audio_Monster_Natlan_TribalWarrior_Female_launcher_hookwalker_HitThrow_VO"
            ]
          },
          "resetAnimatorTriggerOnEnter": ["BeHit", "HitAir2HitDrop"],
          "resetAnimatorTriggerOnExit": ["DoSkill", "BeHit"],
          "setAnimatorBoolean": [
            {
              "name": "AirDie",
              "normalizeEnd": 0.4000000059604645
            }
          ]
        },
        "Die": {
          "$type": "NEDIFAKEGCO",
          "animatorStates": {
            "Die1": [
              "Monster_Tribalwarrior_Female_Standard_Launcher_Die",
              "Audio_Monster_Tribalwarrior_Female_Standard_Launcher_Hookwalker_Die"
            ],
            "Die2": [
              "Monster_Tribalwarrior_Female_Standard_Launcher_Die",
              "Audio_Monster_Tribalwarrior_Female_Standard_Launcher_Hookwalker_Die",
              "Audio_Monster_Natlan_TribalWarrior_Female_launcher_hookwalker_SpecialDie_01_VO"
            ],
            "SwimDie_BS": [],
            "SwimDie": [],
            "SwimDie_AS": []
          },
          "resetAnimatorTriggerOnEnter": ["DoSkill"]
        },
        "Die_RagDoll": {
          "$type": "NEDIFAKEGCO",
          "animatorStates": {
            "AirDie": [
              "Monster_Tribalwarrior_Female_Standard_Launcher_Die",
              "Audio_Monster_Natlan_TribalWarrior_Female_launcher_hookwalker_SpecialDie_01_VO"
            ]
          }
        },
        "Alert": {
          "$type": "NEDIFAKEGCO",
          "animatorStates": {
            "Alert": [
              "Monster_Eremite_Clear_FreePoseMark",
              "Monster_Undead01_Warning",
              "Audio_Monster_Tribalwarrior_Female_Standard_Launcher_Hookwalker_Alert",
              "Audio_Monster_Natlan_TribalWarrior_Female_launcher_hookwalker_SpecialAlert_01_VO"
            ]
          },
          "addEndure": 0.0,
          "resetAnimatorTriggerOnEnter": ["DoSkill"],
          "resetAnimatorTriggerOnExit": ["DoSkill"]
        },
        "MeleeAttack01": {
          "$type": "NEDIFAKEGCO",
          "animatorStates": {
            "MeleeAttack01": [
              "Monster_Tribalwarrior_Female_Standard_Launcher_HookWalker_MeleeAttack01",
              "Audio_Monster_Tribalwarrior_Female_Standard_Launcher_Hookwalker_MeleeAttack01",
              "Audio_Monster_Natlan_TribalWarrior_Female_launcher_hookwalker_meleeAtk_01_VO"
            ]
          },
          "resetAnimatorTriggerOnEnter": ["DoSkill"],
          "resetAnimatorTriggerOnExit": ["DoSkill"]
        },
        "MeleeAttack02": {
          "$type": "NEDIFAKEGCO",
          "animatorStates": {
            "MeleeAttack02": [
              "Monster_Tribalwarrior_Female_Standard_Launcher_HookWalker_MeleeAttack02",
              "Audio_Monster_Tribalwarrior_Female_Standard_Launcher_Hookwalker_MeleeAttack02"
            ]
          },
          "resetAnimatorTriggerOnEnter": ["DoSkill"],
          "resetAnimatorTriggerOnExit": ["DoSkill"]
        },
        "RangedAttack_BS": {
          "$type": "NEDIFAKEGCO",
          "animatorStates": {
            "RangedAttack_BS": [
              "Audio_Monster_Tribalwarrior_Female_Standard_Launcher_Hookwalker_RangedAttack_BS"
            ]
          },
          "resetAnimatorTriggerOnEnter": ["DoSkill"],
          "resetAnimatorTriggerOnExit": ["DoSkill"]
        },
        "RangedAttack02_BS": {
          "$type": "NEDIFAKEGCO",
          "animatorStates": {
            "RangedAttack02_BS": [
              "Audio_Monster_Tribalwarrior_Female_Standard_Launcher_Hookwalker_RangedAttack_BS"
            ]
          },
          "resetAnimatorTriggerOnEnter": ["DoSkill"],
          "resetAnimatorTriggerOnExit": ["DoSkill"]
        },
        "RangedAttack_SideStepLeft": {
          "$type": "NEDIFAKEGCO",
          "animatorStates": {
            "RangedAttack_SideStepLeft": [
              "Monster_Tribalwarrior_Female_Standard_Launcher_HookWalker_LeftLine",
              "Audio_Monster_Tribalwarrior_Female_Standard_Launcher_Hookwalker_RangedAttack_SideStep"
            ]
          },
          "resetAnimatorTriggerOnEnter": ["DoSkill"],
          "resetAnimatorTriggerOnExit": ["DoSkill"]
        },
        "RangedAttack_SideStepRight": {
          "$type": "NEDIFAKEGCO",
          "animatorStates": {
            "RangedAttack_SideStepRight": [
              "Monster_Tribalwarrior_Female_Standard_Launcher_HookWalker_RightLine",
              "Audio_Monster_Tribalwarrior_Female_Standard_Launcher_Hookwalker_RangedAttack_SideStep"
            ]
          },
          "resetAnimatorTriggerOnEnter": ["DoSkill"],
          "resetAnimatorTriggerOnExit": ["DoSkill"]
        },
        "RangedAttack02": {
          "$type": "NEDIFAKEGCO",
          "animatorStates": {
            "RangedAttack02": [
              "Monster_Tribalwarrior_Female_Standard_Launcher_HookWalker_RangedAttack02",
              "Audio_Monster_Tribalwarrior_Female_Standard_Launcher_Hookwalker_RangedAttack02"
            ]
          },
          "resetAnimatorTriggerOnEnter": ["DoSkill"],
          "resetAnimatorTriggerOnExit": ["DoSkill"]
        },
        "RangedAttack01": {
          "$type": "NEDIFAKEGCO",
          "animatorStates": {
            "RangedAttack01": [
              "Monster_Tribalwarrior_Female_Standard_Launcher_HookWalker_RangedAttack01",
              "Audio_Monster_Tribalwarrior_Female_Standard_Launcher_Hookwalker_RangedAttack01"
            ]
          },
          "resetAnimatorTriggerOnEnter": ["DoSkill"],
          "resetAnimatorTriggerOnExit": ["DoSkill"]
        },
        "RangedAttack_Reload": {
          "$type": "NEDIFAKEGCO",
          "animatorStates": {
            "RangedAttack_Reload": [
              "Monster_Tribalwarrior_Female_Standard_Launcher_Hookwalker_RangedAttack01_Reload",
              "Audio_Monster_Tribalwarrior_Female_Standard_Launcher_Hookwalker_RangedAttack_Reload"
            ]
          },
          "resetAnimatorTriggerOnEnter": ["DoSkill"],
          "resetAnimatorTriggerOnExit": ["DoSkill"]
        },
        "RangedAttack_AS": {
          "$type": "NEDIFAKEGCO",
          "animatorStates": {
            "RangedAttack_AS": [
              "Audio_Monster_Tribalwarrior_Female_Standard_Launcher_Hookwalker_RangedAttack_AS"
            ]
          },
          "resetAnimatorTriggerOnEnter": ["DoSkill"],
          "resetAnimatorTriggerOnExit": ["DoSkill"]
        },
        "TribalUlt": {
          "$type": "NEDIFAKEGCO",
          "animatorStates": {
            "TribalUlt": [
              "Monster_Tribalwarrior_Female_Standard_Launcher_HookWalker_TribalUlt",
              "Monster_Tribalwarrior_Female_Standard_Launcher_HookWalker_CreateHookPoint",
              "Audio_Monster_Tribalwarrior_Female_Standard_Launcher_Hookwalker_TribalUlt",
              "Audio_Monster_Natlan_TribalWarrior_Female_launcher_hookwalker_TribalUlt_01_VO"
            ]
          },
          "resetAnimatorTriggerOnEnter": ["DoSkill"],
          "resetAnimatorTriggerOnExit": ["DoSkill"]
        },
        "InAir": {
          "$type": "NEDIFAKEGCO",
          "animatorStates": {
            "InAir": [
              "Monster_Tribalwarrior_Female_Standard_Launcher_HookWalker_InAir",
              "Audio_Monster_Tribalwarrior_Female_Standard_Launcher_Hookwalker_InAir"
            ]
          },
          "resetAnimatorTriggerOnEnter": ["DoSkill"],
          "resetAnimatorTriggerOnExit": ["DoSkill"]
        },
        "InAirAtk_BS": {
          "$type": "NEDIFAKEGCO",
          "animatorStates": {
            "InAirAtk_BS": []
          },
          "resetAnimatorTriggerOnEnter": ["DoSkill"],
          "resetAnimatorTriggerOnExit": ["DoSkill"],
          "canSteer": true
        },
        "InAirAtk_Loop": {
          "$type": "NEDIFAKEGCO",
          "animatorStates": {
            "InAirAtk_Loop": [
              "Monster_Tribalwarrior_Female_Standard_Launcher_HookWalker_InAirAtk"
            ]
          },
          "resetAnimatorTriggerOnEnter": ["DoSkill", "InAirAtkStop"],
          "resetAnimatorTriggerOnExit": ["DoSkill"],
          "canSteer": true
        },
        "InAirAtk_AS": {
          "$type": "NEDIFAKEGCO",
          "animatorStates": {
            "InAirAtk_AS": []
          },
          "resetAnimatorTriggerOnEnter": ["DoSkill"],
          "resetAnimatorTriggerOnExit": ["DoSkill"],
          "canSteer": true
        },
        "ToGround_BS": {
          "$type": "NEDIFAKEGCO",
          "animatorStates": {
            "ToGround_BS": []
          },
          "resetAnimatorTriggerOnEnter": ["DoSkill", "HitAir2HitDrop"],
          "resetAnimatorTriggerOnExit": ["DoSkill"]
        },
        "ToGround_AS": {
          "$type": "NEDIFAKEGCO",
          "animatorStates": {
            "ToGround_AS": [
              "Audio_Monster_Tribalwarrior_Female_Standard_Launcher_Hookwalker_ToGround_AS"
            ]
          },
          "resetAnimatorTriggerOnEnter": ["DoSkill", "HitAir2HitDrop"],
          "resetAnimatorTriggerOnExit": ["DoSkill"]
        },
        "InAirHook": {
          "$type": "NEDIFAKEGCO",
          "animatorStates": {
            "InAirHook": [
              "Monster_Tribalwarrior_Female_Standard_Launcher_HookWalker_InAirHook",
              "Audio_Monster_Tribalwarrior_Female_Standard_Launcher_Hookwalker_InAirHook"
            ]
          },
          "resetAnimatorTriggerOnEnter": ["DoSkill"],
          "resetAnimatorTriggerOnExit": ["DoSkill"]
        }
      }
    }
  },
  "billboard": {
    "$type": "DNGNMAJBCNP",
    "attachPoint": "BillboardAttach",
    "offset": {
      "x": -0.05000000074505806
    },
    "offsetType": "Character",
    "radiusOffset": 0.25,
    "showDistance": 50.0,
    "showHPBar": true,
    "forceShowDistance": 15.0
  },
  "initialPoses": {
    "Default": {}
  },
  "aibeta": {
    "enable": true,
    "moveSetting": {
      "navMeshAgentName": "Undead01",
      "almostReachedDistanceRun": 1.5
    },
    "sensing": {
      "settings": {
        "DefaultSetting": {
          "enableVision": false,
          "viewRange": 20.0,
          "feelRange": 10.0
        }
      },
      "templates": {
        "DefaultTemplate": {
          "DefaultPoses": "DefaultSetting"
        }
      }
    },
    "neurons": {
      "DefaultSetting": ["HIT"],
      "NeverCombat": []
    },
    "threat": {
      "GHIJMOKOLMB": "",
      "clearThreatTargetDistance": 100.0,
      "clearThreatEdgeDistance": 5.0,
      "clearThreatTimerByDistance": 5.0,
      "viewThreatGrow": 20.0,
      "resistTauntLevel": "Monster_TauntLevel_5",
      "forceAlertByDefendArea": true
    },
    "defendArea": {
      "defendRange": 22.5
    },
    "fly": {
      "enable": true,
      "floatingPoses": [201]
    },
    "network": {
      "syncSkill": true,
      "resetHpOnSpawn": false
    },
    "skillGroupCDConfigs": [
      {
        "skillGroupCDID": 1,
        "skillGroupCDTime": 3.0
      }
    ],
    "skills": {
      "1": {
        "name": "OnAlert",
        "skillType": "OnAlert",
        "canUseCombatSkillCondition": true,
        "faceTarget": true,
        "publicCDGroup": "",
        "ignoreGCD": true,
        "triggerGCD": false,
        "HHAGODJIAPE": "",
        "stateIDs": ["Alert"],
        "skillQueryingTime": 3.0,
        "flagTargetReachable": "11",
        "flagSelfOnTemplateCollider": "11",
        "flagSelfInZone": "11",
        "flagTargetInZone": "11"
      },
      "101": {
        "name": "MeleeAttack",
        "combatSkillType": "MeleeAttack",
        "priority": 3,
        "castCondition": {
          "pose": [101],
          "pickRangeMax": 4.0
        },
        "cd": 2.5,
        "cdUpperRange": 2.0,
        "publicCDGroup": "",
        "ignoreGCD": true,
        "HHAGODJIAPE": "",
        "stateIDs": ["MeleeAttack01", "MeleeAttack02"],
        "flagTargetReachable": "11",
        "flagSelfOnTemplateCollider": "11",
        "flagSelfInZone": "11",
        "flagTargetInZone": "11"
      },
      "201": {
        "name": "RangedAttack01",
        "combatSkillType": "RangedAttack",
        "priority": 3,
        "castCondition": {
          "pose": [101],
          "pickRangeMin": 5.0,
          "pickRangeMax": 20.0
        },
        "cd": 10.0,
        "cdUpperRange": 6.0,
        "publicCDGroup": "",
        "HHAGODJIAPE": "",
        "stateIDs": [
          "RangedAttack_BS",
          "RangedAttack_Reload",
          "RangedAttack01",
          "RangedAttack_AS"
        ],
        "flagTargetReachable": "11",
        "flagSelfOnTemplateCollider": "11",
        "flagSelfInZone": "11",
        "flagTargetInZone": "11"
      },
      "301": {
        "name": "RangedAttack_SideStepLeft",
        "combatSkillType": "MeleeAttack",
        "priority": 3,
        "castCondition": {
          "pose": [101],
          "pickRangeMax": 10.0,
          "DECNNMAFEAP": true,
          "FJHPBNNBOMA": true,
          "HNGCJBLCPOE": 0.10000000149011612
        },
        "cd": 5.0,
        "publicCDGroup": "",
        "ignoreGCD": true,
        "ignoreDynamicCD": true,
        "HHAGODJIAPE": "",
        "stateIDs": [
          "RangedAttack_SideStepLeft",
          "RangedAttack02_BS",
          "RangedAttack02",
          "RangedAttack_AS"
        ],
        "flagTargetReachable": "11",
        "flagSelfOnTemplateCollider": "11",
        "flagSelfInZone": "11",
        "flagTargetInZone": "11"
      },
      "302": {
        "name": "RangedAttack_SideStepRight",
        "combatSkillType": "MeleeAttack",
        "priority": 3,
        "castCondition": {
          "pose": [101],
          "pickRangeMax": 10.0,
          "DECNNMAFEAP": true,
          "FJHPBNNBOMA": true,
          "HCMJEEPGPJE": -0.10000000149011612
        },
        "cd": 5.0,
        "publicCDGroup": "",
        "ignoreGCD": true,
        "ignoreDynamicCD": true,
        "HHAGODJIAPE": "",
        "stateIDs": [
          "RangedAttack_SideStepRight",
          "RangedAttack02_BS",
          "RangedAttack02",
          "RangedAttack_AS"
        ],
        "flagTargetReachable": "11",
        "flagSelfOnTemplateCollider": "11",
        "flagSelfInZone": "11",
        "flagTargetInZone": "11"
      },
      "401": {
        "name": "TribalUlt",
        "combatSkillType": "MeleeAttack",
        "priority": 1,
        "castCondition": {
          "pose": [101]
        },
        "cd": 999999.0,
        "publicCDGroup": "",
        "ignoreGCD": true,
        "triggerCDOnFail": false,
        "HHAGODJIAPE": "",
        "stateIDs": ["TribalUlt"],
        "flagTargetReachable": "11",
        "flagSelfOnTemplateCollider": "11",
        "flagSelfInZone": "11",
        "flagTargetInZone": "11"
      },
      "402": {
        "name": "TribalUlt",
        "combatSkillType": "MeleeAttack",
        "priority": 1,
        "castCondition": {
          "pose": [101],
          "needReInitCD": true
        },
        "cd": 20.0,
        "initialCD": 27.5,
        "initialCDUpperRange": 5.0,
        "publicCDGroup": "",
        "ignoreGCD": true,
        "triggerCDOnFail": false,
        "HHAGODJIAPE": "",
        "stateIDs": ["TribalUlt"],
        "flagTargetReachable": "11",
        "flagSelfOnTemplateCollider": "11",
        "flagSelfInZone": "11",
        "flagTargetInZone": "11"
      },
      "501": {
        "name": "InAir",
        "combatSkillType": "RangedAttack",
        "priority": 2,
        "castCondition": {
          "pose": [101],
          "globalValues": ["_HOOKPOINT_COUNT_"],
          "globalValuesTargetType": "SELF"
        },
        "cd": 999999.0,
        "publicCDGroup": "",
        "ignoreGCD": true,
        "triggerCDOnFail": false,
        "skillGroupCDID": 1,
        "HHAGODJIAPE": "",
        "stateIDs": ["InAir"],
        "flagTargetReachable": "11",
        "flagSelfOnTemplateCollider": "11",
        "flagSelfInZone": "11",
        "flagTargetInZone": "11"
      },
      "502": {
        "name": "InAir",
        "combatSkillType": "RangedAttack",
        "priority": 2,
        "castCondition": {
          "pose": [101],
          "needReInitCD": true,
          "globalValues": ["_HOOKPOINT_COUNT_"],
          "globalValuesTargetType": "SELF"
        },
        "cd": 20.0,
        "initialCD": 27.5,
        "initialCDUpperRange": 5.0,
        "publicCDGroup": "",
        "ignoreGCD": true,
        "triggerCDOnFail": false,
        "skillGroupCDID": 1,
        "HHAGODJIAPE": "",
        "stateIDs": ["InAir"],
        "flagTargetReachable": "11",
        "flagSelfOnTemplateCollider": "11",
        "flagSelfInZone": "11",
        "flagTargetInZone": "11"
      },
      "601": {
        "name": "InAirAtk",
        "combatSkillType": "RangedAttack",
        "priority": 3,
        "castCondition": {
          "pose": [201]
        },
        "cd": 1.5,
        "publicCDGroup": "",
        "ignoreGCD": true,
        "HHAGODJIAPE": "",
        "stateIDs": ["InAirAtk_BS", "InAirAtk_Loop", "InAirAtk_AS"],
        "flagTargetReachable": "10",
        "flagSelfOnTemplateCollider": "11",
        "flagSelfInZone": "11",
        "flagTargetInZone": "11"
      },
      "701": {
        "name": "Drop",
        "combatSkillType": "RangedAttack",
        "priority": 1,
        "castCondition": {
          "pose": [201],
          "needReInitCD": true
        },
        "cd": 20.0,
        "initialCD": 32.5,
        "initialCDUpperRange": 12.5,
        "publicCDGroup": "",
        "ignoreGCD": true,
        "triggerCDOnFail": false,
        "skillGroupCDID": 1,
        "HHAGODJIAPE": "",
        "stateIDs": ["ToGround_BS", "ToGround_AS"],
        "flagTargetReachable": "10",
        "flagSelfOnTemplateCollider": "11",
        "flagSelfInZone": "11",
        "flagTargetInZone": "11"
      },
      "801": {
        "name": "InAirHook",
        "combatSkillType": "RangedAttack",
        "priority": 2,
        "castCondition": {
          "pose": [201],
          "needReInitCD": true,
          "globalValues": ["_HOOKPOINT_AIR_COUNT_"],
          "globalValuesTargetType": "SELF"
        },
        "cd": 3.0,
        "cdUpperRange": 9.0,
        "initialCD": 3.0,
        "initialCDUpperRange": 9.0,
        "publicCDGroup": "",
        "ignoreGCD": true,
        "triggerCDOnFail": false,
        "skillGroupCDID": 1,
        "HHAGODJIAPE": "",
        "stateIDs": ["InAirHook"],
        "flagTargetReachable": "10",
        "flagSelfOnTemplateCollider": "11",
        "flagSelfInZone": "11",
        "flagTargetInZone": "11"
      }
    },
    "target": {
      "defaultTargetPrioritys": ["THREAT"]
    },
    "birdCirclingTactic": [
      {
        "$type": "EPHBMLFODKF",
        "enable": true,
        "condition": {
          "pose": [101]
        },
        "JMCOBEPDIGM": {
          "rangeMax": 12.5,
          "BFJBDDIIFOI": {
            "LLICGJHIGME": 1.2000000476837158,
            "IDEFILBHNAP": 0.30000001192092896,
            "IBLIPJPNOGC": 0.30000001192092896,
            "AEBLMKFNCDG": 3.0,
            "IGLIBIOEGBB": 3.0
          },
          "NAOBMNGDKHL": "1111",
          "JCNIJOAIGII": "1111",
          "MNPDDAKDHGK": ""
        }
      },
      {
        "$type": "KACCHOLJDNK",
        "enable": true,
        "condition": {
          "pose": [101]
        },
        "JMCOBEPDIGM": {
          "HKJODDGJPHA": 50.0,
          "GGEBMFHFBPO": 12.5,
          "KFFGCIMPNMJ": 15.0,
          "MNPDDAKDHGK": ""
        }
      }
    ]
  },
  "inputKeys": [
    {
      "keyID": 101,
      "inputKeyCode": 257,
      "abilityName": ""
    },
    {
      "keyID": 201,
      "inputKeyCode": 258,
      "abilityName": ""
    },
    {
      "keyID": 301,
      "inputKeyCode": 259,
      "abilityName": ""
    },
    {
      "keyID": 302,
      "inputKeyCode": 260,
      "abilityName": ""
    },
    {
      "keyID": 401,
      "inputKeyCode": 261,
      "abilityName": ""
    },
    {
      "keyID": 501,
      "inputKeyCode": 262,
      "abilityName": ""
    },
    {
      "keyID": 601,
      "inputKeyCode": 263,
      "abilityName": ""
    },
    {
      "keyID": 701,
      "inputKeyCode": 264,
      "abilityName": ""
    },
    {
      "keyID": 801,
      "inputKeyCode": 265,
      "abilityName": ""
    }
  ],
  "move": {
    "$type": "IPNMJMHDMPF",
    "facingMove": "FourDirection",
    "monsterSizeType": "StoopType",
    "PKHOMJHFAEE": "RootNode"
  },
  "audio": {
    "overrideEmitterName": "",
    "animAudio": {},
    "behaviours": [
      {
        "$type": "BILJOKAHFPL",
        "coolDown": 5.0,
        "BGIEINMDECM": {
          "$type": "IFGMCBBGLDI",
          "LIHPNFLLKDA": {
            "$type": "LFOALDLDGDN"
          },
          "ACMFKGCEPBN": {
            "$type": "IFGMCBBGLDI",
            "LIHPNFLLKDA": {
              "$type": "EAIMKFLEHCC"
            },
            "ACMFKGCEPBN": {
              "$type": "JOPFGOEOKPH",
              "target": {
                "$type": "OJKONELIJJC"
              }
            }
          }
        },
        "onKill": [
          {
            "$type": "DELPJNMAIHM",
            "OPEMPFCFHMO": "__DefaultSync__",
            "action": {
              "$type": "CPBMHBHJPKE",
              "eventName": {
                "text": "Play_vo_monster_natlan_tribalWarrior_Female_launcher_hookwalker_SpecialKillAvatar_01"
              }
            }
          }
        ]
      }
    ]
  }
}
