{
  "common": {
    "effectAttachShape": {
      "$type": "FJNPJANPGGC",
      "mesh": "Body"
    },
    "mass": 10000.0,
    "height": 3.0,
    "affectedByWorld": true,
    "checkInSurface": true,
    "scale": 1.2000000476837158,
    "clearAnimatorOnSetLightDeactive": true,
    "clearAIOnSetLightDeactive": true
  },
  "model": {
    "bornEffect": "",
    "attachEffect": "",
    "canBakeMesh": false,
    "BKPFGNPLDNJ": ""
  },
  "dither": {
    "showDitherDuration": 2.0,
    "normalBetweenCamera": {
      "detectDitherRange": 0.0
    }
  },
  "combat": {
    "property": {
      "endureType": "Monster_Boss_Other",
      "weight": 300.0
    },
    "beHit": {
      "hitBloodEffect": "",
      "hitAutoRedirect": false
    },
    "combatLock": {
      "lockShape": "CircleLockEnemy",
      "lockType": "Avatar&Monster_Lv4"
    },
    "die": {
      "dieEndTime": 1.0,
      "dieForceDisappearTime": 4.0,
      "dieDisappearEffect": "",
      "dieDisappearEffectDelay": 1.0,
      "muteHitBox": true,
      "dieDenyLockOn": true,
      "dieIsGhostToEnemy": true,
      "dieIgnoreTriggerBullet": true,
      "muteBillboard": true,
      "mutePushCollider": true
    },
    "animEvents": {
      "AtkL01": {
        "attackPattern": {
          "$type": "ConfigAttackCircle",
          "triggerType": "TriggerNoRepeat",
          "born": {
            "$type": "ConfigBornBySelf",
            "offset": {
              "x": 0.0,
              "y": 0.0,
              "z": 0.0
            }
          },
          "height": 5.0,
          "fanAngle": 180.0,
          "radius": 7.0
        },
        "attackInfo": {
          "attackTag": "",
          "attenuationTag": "",
          "attenuationGroup": "default",
          "attackProperty": {
            "actorGrassSubHurtDelta": 1.0,
            "actorWindSubHurtDelta": 0.0,
            "elementType": "Fire",
            "elementDurability": 50.0,
            "strikeType": "Blunt",
            "enBreak": 200.0,
            "attackType": "Melee",
            "GLKMCMDJBIK": 0.0
          },
          "hitPattern": {
            "onHitEffectName": "default",
            "hitImpulseY": "",
            "hitImpulseType": "LV5",
            "hitHaltTimeScale": 0.009999999776482582
          },
          "forceCameraShake": true,
          "cameraShake": {
            "shakeRange": 1.0,
            "shakeTime": 0.30000001192092896,
            "shakeDistance": 30.0
          }
        }
      },
      "AtkBurning01": {
        "attackPattern": {
          "$type": "ConfigAttackBox",
          "triggerType": "TriggerNoRepeat",
          "born": {
            "$type": "ConfigBornByTarget",
            "offset": {
              "x": 0.0,
              "y": 2.5,
              "z": 2.5
            }
          },
          "size": {
            "x": 3.0,
            "y": 5.0,
            "z": 7.0
          }
        },
        "attackInfo": {
          "attackTag": "Effigy_Fire_MultiAtk1",
          "attenuationTag": "",
          "attenuationGroup": "default",
          "attackProperty": {
            "actorGrassSubHurtDelta": 1.0,
            "actorWindSubHurtDelta": 0.0,
            "elementType": "Fire",
            "elementDurability": 50.0,
            "strikeType": "Blunt",
            "enBreak": 200.0,
            "attackType": "Melee",
            "GLKMCMDJBIK": 0.0
          },
          "hitPattern": {
            "onHitEffectName": "default",
            "hitImpulseY": "",
            "hitImpulseType": "LV5",
            "hitHaltTimeScale": 0.009999999776482582
          },
          "forceCameraShake": true,
          "cameraShake": {
            "shakeRange": 1.0,
            "shakeTime": 0.30000001192092896,
            "shakeDistance": 30.0
          }
        }
      },
      "AtkBurning02_01": {
        "attackPattern": {
          "$type": "ConfigAttackCircle",
          "triggerType": "TriggerNoRepeat",
          "born": {
            "$type": "ConfigBornBySelf",
            "offset": {
              "x": 0.0,
              "y": 1.5,
              "z": 0.0
            }
          },
          "height": 5.0,
          "radius": 3.0
        },
        "attackInfo": {
          "attackTag": "Effigy_Fire_MultiAtk2",
          "attenuationTag": "",
          "attenuationGroup": "default",
          "attackProperty": {
            "actorGrassSubHurtDelta": 1.0,
            "actorWindSubHurtDelta": 0.0,
            "elementType": "Fire",
            "elementDurability": 50.0,
            "strikeType": "Blunt",
            "enBreak": 200.0,
            "attackType": "Melee",
            "GLKMCMDJBIK": 0.0
          },
          "hitPattern": {
            "onHitEffectName": "default",
            "hitImpulseY": "",
            "hitImpulseType": "LV4",
            "hitHaltTimeScale": 0.009999999776482582
          }
        }
      },
      "AtkBurning02_02": {
        "attackPattern": {
          "$type": "ConfigAttackCircle",
          "triggerType": "TriggerNoRepeat",
          "born": {
            "$type": "ConfigBornBySelf",
            "offset": {
              "x": 0.0,
              "y": 0.0,
              "z": 3.5
            }
          },
          "height": 5.0,
          "radius": 5.0
        },
        "attackInfo": {
          "attackTag": "Effigy_Fire_MultiAtk2",
          "attenuationTag": "",
          "attenuationGroup": "default",
          "attackProperty": {
            "actorGrassSubHurtDelta": 1.0,
            "actorWindSubHurtDelta": 0.0,
            "elementType": "Fire",
            "elementDurability": 50.0,
            "strikeType": "Blunt",
            "enBreak": 200.0,
            "attackType": "Melee",
            "GLKMCMDJBIK": 0.0
          },
          "hitPattern": {
            "onHitEffectName": "default",
            "hitImpulseY": "",
            "hitImpulseType": "LV5",
            "hitHaltTimeScale": 0.009999999776482582
          },
          "forceCameraShake": true,
          "cameraShake": {
            "shakeRange": 1.0,
            "shakeTime": 0.30000001192092896,
            "shakeDistance": 30.0
          }
        }
      },
      "AtkBurning03": {
        "attackPattern": {
          "$type": "ConfigAttackCircle",
          "triggerType": "TriggerNoRepeat",
          "born": {
            "$type": "ConfigBornBySelf",
            "offset": {
              "x": 0.0,
              "y": 0.0,
              "z": 0.0
            }
          },
          "height": 5.0,
          "radius": 5.0
        },
        "attackInfo": {
          "attackTag": "Effigy_Fire_MultiAtk3",
          "attenuationTag": "",
          "attenuationGroup": "default",
          "attackProperty": {
            "actorGrassSubHurtDelta": 1.0,
            "actorWindSubHurtDelta": 0.0,
            "elementType": "Fire",
            "elementDurability": 50.0,
            "strikeType": "Blunt",
            "enBreak": 200.0,
            "attackType": "Melee",
            "GLKMCMDJBIK": 0.0
          },
          "hitPattern": {
            "onHitEffectName": "default",
            "hitImpulseY": "",
            "hitImpulseType": "LV5",
            "hitHaltTimeScale": 0.009999999776482582
          },
          "forceCameraShake": true,
          "cameraShake": {
            "shakeRange": 1.0,
            "shakeTime": 0.30000001192092896,
            "shakeDistance": 30.0
          }
        }
      },
      "AtkBurning03_02": {
        "attackPattern": {
          "$type": "ConfigAttackCircle",
          "triggerType": "TriggerNoRepeat",
          "born": {
            "$type": "ConfigBornBySelf",
            "offset": {
              "x": 0.0,
              "y": 0.0,
              "z": 0.0
            }
          },
          "height": 5.0,
          "radius": 4.0
        },
        "attackInfo": {
          "attackTag": "Effigy_Fire_MultiAtk3",
          "attenuationTag": "",
          "attenuationGroup": "default",
          "attackProperty": {
            "actorGrassSubHurtDelta": 0.33000001311302185,
            "actorWindSubHurtDelta": 0.0,
            "elementType": "Fire",
            "elementDurability": 50.0,
            "strikeType": "Blunt",
            "enBreak": 50.0,
            "attackType": "Melee",
            "GLKMCMDJBIK": 0.0
          },
          "hitPattern": {
            "onHitEffectName": "default",
            "hitImpulseY": "",
            "hitImpulseType": "LV3",
            "hitHaltTimeScale": 0.009999999776482582
          }
        }
      },
      "DiveCrush": {
        "attackPattern": {
          "$type": "ConfigAttackCircle",
          "triggerType": "TriggerNoRepeat",
          "born": {
            "$type": "ConfigBornBySelf",
            "offset": {
              "x": 0.0,
              "y": 0.0,
              "z": 0.0
            }
          },
          "height": 2.0,
          "radius": 7.0
        },
        "attackInfo": {
          "attackTag": "",
          "attenuationTag": "Burning_DiveCrush",
          "attenuationGroup": "Effigy_Fire_DiveCrush",
          "attackProperty": {
            "actorGrassSubHurtDelta": 1.0,
            "actorWindSubHurtDelta": 0.0,
            "elementType": "Fire",
            "elementDurability": 50.0,
            "strikeType": "Blunt",
            "enBreak": 200.0,
            "attackType": "Melee",
            "GLKMCMDJBIK": 0.0
          },
          "hitPattern": {
            "onHitEffectName": "default",
            "hitImpulseY": "",
            "hitImpulseType": "LV6",
            "hitHaltTimeScale": 0.009999999776482582
          },
          "forceCameraShake": true,
          "cameraShake": {
            "shakeRange": 1.0,
            "shakeTime": 0.30000001192092896,
            "shakeDistance": 30.0
          }
        }
      },
      "AtkBurning01_Elite": {
        "attackPattern": {
          "$type": "ConfigAttackBox",
          "triggerType": "TriggerNoRepeat",
          "born": {
            "$type": "ConfigBornByTarget",
            "offset": {
              "x": 0.0,
              "y": 2.5,
              "z": 2.5
            }
          },
          "size": {
            "x": 3.0,
            "y": 5.0,
            "z": 7.0
          }
        },
        "attackInfo": {
          "attackTag": "Effigy_Fire_MultiAtk1",
          "attenuationTag": "Effigy_Fire_Elite_MultiAtk1",
          "attenuationGroup": "Effigy_Fire_Elite_MultiAtk1",
          "attackProperty": {
            "actorGrassSubHurtDelta": 1.0,
            "actorWindSubHurtDelta": 0.0,
            "elementType": "Fire",
            "elementDurability": 50.0,
            "strikeType": "Blunt",
            "enBreak": 200.0,
            "attackType": "Melee",
            "GLKMCMDJBIK": 0.0
          },
          "hitPattern": {
            "onHitEffectName": "default",
            "hitImpulseY": "",
            "hitImpulseType": "LV5",
            "hitHaltTimeScale": 0.009999999776482582
          },
          "forceCameraShake": true,
          "cameraShake": {
            "shakeRange": 1.0,
            "shakeTime": 0.30000001192092896,
            "shakeDistance": 30.0
          }
        }
      },
      "AtkBurning01_Extra_Elite": {
        "attackPattern": {
          "$type": "ConfigAttackBox",
          "triggerType": "TriggerNoRepeat",
          "born": {
            "$type": "ConfigBornByTarget",
            "offset": {
              "x": 0.0,
              "y": 2.0,
              "z": 2.0
            }
          },
          "size": {
            "x": 8.0,
            "y": 10.0,
            "z": 5.800000190734863
          }
        },
        "attackInfo": {
          "attackTag": "Effigy_Fire_MultiAtk1",
          "attenuationTag": "Effigy_Fire_Elite_MultiAtk1",
          "attenuationGroup": "Effigy_Fire_Elite_MultiAtk1",
          "attackProperty": {
            "actorGrassSubHurtDelta": 1.0,
            "actorWindSubHurtDelta": 0.0,
            "elementType": "Fire",
            "elementDurability": 50.0,
            "strikeType": "Blunt",
            "enBreak": 200.0,
            "attackType": "Melee",
            "GLKMCMDJBIK": 0.0
          },
          "hitPattern": {
            "onHitEffectName": "default",
            "hitImpulseY": "",
            "hitImpulseType": "LV5",
            "hitHaltTimeScale": 0.009999999776482582
          },
          "forceCameraShake": true,
          "cameraShake": {
            "shakeRange": 1.0,
            "shakeTime": 0.30000001192092896,
            "shakeDistance": 30.0
          }
        }
      },
      "AtkBurning02_01_Elite": {
        "attackPattern": {
          "$type": "ConfigAttackCircle",
          "triggerType": "TriggerNoRepeat",
          "born": {
            "$type": "ConfigBornBySelf",
            "offset": {
              "x": 0.0,
              "y": 0.0,
              "z": 0.0
            }
          },
          "height": 5.0,
          "radius": 5.5
        },
        "attackInfo": {
          "attackTag": "Effigy_Fire_MultiAtk2",
          "attenuationTag": "",
          "attenuationGroup": "default",
          "attackProperty": {
            "actorGrassSubHurtDelta": 1.0,
            "actorWindSubHurtDelta": 0.0,
            "elementType": "Fire",
            "elementDurability": 50.0,
            "strikeType": "Blunt",
            "enBreak": 200.0,
            "attackType": "Melee",
            "GLKMCMDJBIK": 0.0
          },
          "hitPattern": {
            "onHitEffectName": "default",
            "hitImpulseY": "",
            "hitImpulseType": "LV4",
            "hitHaltTimeScale": 0.009999999776482582
          }
        }
      },
      "AtkBurning03_Elite": {
        "attackPattern": {
          "$type": "ConfigAttackCircle",
          "triggerType": "TriggerNoRepeat",
          "born": {
            "$type": "ConfigBornBySelf",
            "offset": {
              "x": 0.0,
              "y": 0.0,
              "z": 0.0
            }
          },
          "height": 5.0,
          "radius": 8.0
        },
        "attackInfo": {
          "attackTag": "Effigy_Fire_MultiAtk3",
          "attenuationTag": "",
          "attenuationGroup": "default",
          "attackProperty": {
            "actorGrassSubHurtDelta": 1.0,
            "actorWindSubHurtDelta": 0.0,
            "elementType": "Fire",
            "elementDurability": 50.0,
            "strikeType": "Blunt",
            "enBreak": 200.0,
            "attackType": "Melee",
            "GLKMCMDJBIK": 0.0
          },
          "hitPattern": {
            "onHitEffectName": "default",
            "hitImpulseY": "",
            "hitImpulseType": "LV5",
            "hitHaltTimeScale": 0.009999999776482582
          },
          "forceCameraShake": true,
          "cameraShake": {
            "shakeRange": 1.0,
            "shakeTime": 0.30000001192092896,
            "shakeDistance": 30.0
          }
        }
      },
      "AtkBurning03_02_Elite": {
        "attackPattern": {
          "$type": "ConfigAttackCircle",
          "triggerType": "TriggerNoRepeat",
          "born": {
            "$type": "ConfigBornBySelf",
            "offset": {
              "x": 0.0,
              "y": 0.0,
              "z": 0.0
            }
          },
          "height": 5.0,
          "radius": 8.0
        },
        "attackInfo": {
          "attackTag": "Effigy_Fire_MultiAtk3",
          "attenuationTag": "",
          "attenuationGroup": "default",
          "attackProperty": {
            "actorGrassSubHurtDelta": 0.33000001311302185,
            "actorWindSubHurtDelta": 0.0,
            "elementType": "Fire",
            "elementDurability": 50.0,
            "strikeType": "Blunt",
            "enBreak": 50.0,
            "attackType": "Melee",
            "GLKMCMDJBIK": 0.0
          },
          "hitPattern": {
            "onHitEffectName": "default",
            "hitImpulseY": "",
            "hitImpulseType": "LV3",
            "hitHaltTimeScale": 0.009999999776482582
          }
        }
      }
    }
  },
  "abilities": [
    {
      "abilityID": "Monster_Effigy_Fire_StandyEffect",
      "abilityName": "Monster_Effigy_Fire_StandyEffect",
      "abilityOverride": ""
    },
    {
      "abilityID": "Monster_Effigy_Fire_FightingPoseManager",
      "abilityName": "Monster_Effigy_Fire_FightingPoseManager",
      "abilityOverride": ""
    },
    {
      "abilityID": "Monster_Effigy_Fire_ShieldAndCore",
      "abilityName": "Monster_Effigy_Fire_ShieldAndCore",
      "abilityOverride": ""
    },
    {
      "abilityID": "Monster_Effigy_Fire_SetShieldOn",
      "abilityName": "Monster_Effigy_Fire_SetShieldOn",
      "abilityOverride": ""
    },
    {
      "abilityID": "Monster_Effigy_Fire_SetShieldOff",
      "abilityName": "Monster_Effigy_Fire_SetShieldOff",
      "abilityOverride": ""
    },
    {
      "abilityID": "Monster_Effigy_Fire_Steer",
      "abilityName": "Monster_Effigy_Fire_Steer",
      "abilityOverride": ""
    },
    {
      "abilityID": "Monster_Effigy_Electric_ShaderState1ToState2",
      "abilityName": "Monster_Effigy_Electric_ShaderState1ToState2",
      "abilityOverride": ""
    },
    {
      "abilityID": "Monster_Effigy_Electric_ShaderState2ToState1",
      "abilityName": "Monster_Effigy_Electric_ShaderState2ToState1",
      "abilityOverride": ""
    },
    {
      "abilityID": "Monster_Effigy_Fire_RandomMove",
      "abilityName": "Monster_Effigy_Fire_RandomMove",
      "abilityOverride": ""
    },
    {
      "abilityID": "Monster_Effigy_Fire_CombatMoveLogic",
      "abilityName": "Monster_Effigy_Fire_CombatMoveLogic",
      "abilityOverride": ""
    },
    {
      "abilityID": "Monster_Effigy_Fire_RushMove",
      "abilityName": "Monster_Effigy_Fire_RushMove",
      "abilityOverride": ""
    },
    {
      "abilityID": "Monster_Effigy_Fire_Ignite",
      "abilityName": "Monster_Effigy_Fire_Ignite",
      "abilityOverride": ""
    },
    {
      "abilityID": "Monster_Effigy_Fire_HideEnergyCore",
      "abilityName": "Monster_Effigy_Fire_HideEnergyCore",
      "abilityOverride": ""
    },
    {
      "abilityID": "Monster_Effigy_Fire_ShowEnergyCore",
      "abilityName": "Monster_Effigy_Fire_ShowEnergyCore",
      "abilityOverride": ""
    },
    {
      "abilityID": "Monster_Effigy_Fire_SetCoreOutRender",
      "abilityName": "Monster_Effigy_Fire_SetCoreOutRender",
      "abilityOverride": ""
    },
    {
      "abilityID": "Monster_Effigy_Fire_ReturnToBorn",
      "abilityName": "Monster_Effigy_Fire_ReturnToBorn",
      "abilityOverride": ""
    },
    {
      "abilityID": "Monster_Effigy_Fire_BlinkStart",
      "abilityName": "Monster_Effigy_Fire_BlinkStart",
      "abilityOverride": ""
    },
    {
      "abilityID": "Monster_Effigy_Fire_FindBlinkPoint",
      "abilityName": "Monster_Effigy_Fire_FindBlinkPoint",
      "abilityOverride": ""
    },
    {
      "abilityID": "Monster_Effigy_Fire_Blink",
      "abilityName": "Monster_Effigy_Fire_Blink",
      "abilityOverride": ""
    },
    {
      "abilityID": "Monster_Effigy_Fire_BlinkAS",
      "abilityName": "Monster_Effigy_Fire_BlinkAS",
      "abilityOverride": ""
    },
    {
      "abilityID": "Monster_Effigy_Fire_FindBlinkPoint_Chase",
      "abilityName": "Monster_Effigy_Fire_FindBlinkPoint_Chase",
      "abilityOverride": ""
    },
    {
      "abilityID": "Monster_Effigy_Ice_FindBlinkPointRandom",
      "abilityName": "Monster_Effigy_Ice_FindBlinkPointRandom",
      "abilityOverride": ""
    },
    {
      "abilityID": "Monster_Effigy_Fire_RangeAtk",
      "abilityName": "Monster_Effigy_Fire_RangeAtk",
      "abilityOverride": ""
    },
    {
      "abilityID": "Monster_Effigy_Fire_FirePillarStrike",
      "abilityName": "Monster_Effigy_Fire_FirePillarStrike",
      "abilityOverride": ""
    },
    {
      "abilityID": "Monster_Effigy_Fire_Burning_RollingCharge",
      "abilityName": "Monster_Effigy_Fire_Burning_RollingCharge",
      "abilityOverride": ""
    },
    {
      "abilityID": "Monster_Effigy_Fire_Burning_MultiFire",
      "abilityName": "Monster_Effigy_Fire_Burning_MultiFire",
      "abilityOverride": ""
    },
    {
      "abilityID": "Monster_Effigy_Fire_Burning_DiveCrush_Wave01",
      "abilityName": "Monster_Effigy_Fire_Burning_DiveCrush_Wave01",
      "abilityOverride": ""
    },
    {
      "abilityID": "Monster_Effigy_Fire_Burning_DiveCrush_Wave02",
      "abilityName": "Monster_Effigy_Fire_Burning_DiveCrush_Wave02",
      "abilityOverride": ""
    },
    {
      "abilityID": "Monster_Effigy_Fire_Burning_DiveCrush_Wave03",
      "abilityName": "Monster_Effigy_Fire_Burning_DiveCrush_Wave03",
      "abilityOverride": ""
    },
    {
      "abilityID": "Monster_Effigy_Fire_Burning_MeleeAttack",
      "abilityName": "Monster_Effigy_Fire_Burning_MeleeAttack",
      "abilityOverride": ""
    },
    {
      "abilityID": "Monster_Effigy_Fire_Burning_UltimateExplode",
      "abilityName": "Monster_Effigy_Fire_Burning_UltimateExplode",
      "abilityOverride": ""
    },
    {
      "abilityID": "Monster_Effigy_Fire_Burning_SceneTypeCheck",
      "abilityName": "Monster_Effigy_Fire_Burning_SceneTypeCheck",
      "abilityOverride": ""
    },
    {
      "abilityID": "Monster_Effigy_Fire_Burning_OutOfDefendAreaCheck",
      "abilityName": "Monster_Effigy_Fire_Burning_OutOfDefendAreaCheck",
      "abilityOverride": ""
    },
    {
      "abilityID": "Monster_Common_FireMuteHurt",
      "abilityName": "Monster_Common_FireMuteHurt",
      "abilityOverride": ""
    },
    {
      "abilityID": "",
      "abilityName": "Monster_Effigy_Fire_EliteSet",
      "abilityOverride": ""
    },
    {
      "abilityID": "",
      "abilityName": "Monster_Effigy_Fire_Elite_FireDebuff",
      "abilityOverride": ""
    },
    {
      "abilityID": "",
      "abilityName": "Monster_Effigy_Fire_Burning_DiveCrush_Blink_1",
      "abilityOverride": ""
    },
    {
      "abilityID": "",
      "abilityName": "Monster_Effigy_Fire_Burning_DiveCrush_Blink_2",
      "abilityOverride": ""
    },
    {
      "abilityID": "",
      "abilityName": "Monster_Effigy_Fire_Burning_DiveCrush_Blink_3",
      "abilityOverride": ""
    },
    {
      "abilityID": "",
      "abilityName": "Monster_Effigy_Fire_Burning_MeleeAttack_02_Elite",
      "abilityOverride": ""
    }
  ],
  "stateLayers": {
    "defaultLayer": {
      "$type": "GBGJJIIEMBD",
      "layerIndexName": "",
      "CPAANEIJCGD": "",
      "stateIDs": {
        "Born": {
          "$type": "NEDIFAKEGCO",
          "animatorStates": {
            "Born": []
          },
          "canDoSkill": true,
          "canSyncMove": true,
          "resetAnimatorTriggerOnEnter": ["DoSkill", "ToShaderState2"],
          "resetAnimatorTriggerOnExit": ["DoSkill", "ToShaderState1"]
        },
        "StandbyCooldown_BS": {
          "$type": "NEDIFAKEGCO",
          "animatorStates": {
            "StandbyCooldown_BS": ["Monster_Effigy_Fire_MoveLogic"]
          },
          "canSyncMove": true,
          "cullingModelAlwaysAnimate": true,
          "resetAnimatorTriggerOnEnter": [
            "DoSkill",
            "ToShaderState2",
            "StepInWaterHaltTrigger",
            "OutOfDefendAreaTrigger"
          ],
          "resetAnimatorTriggerOnExit": ["ToShaderState1"]
        },
        "StandbyCooldown_AS": {
          "$type": "NEDIFAKEGCO",
          "animatorStates": {
            "StandbyCooldown_AS": []
          },
          "canDoSkill": true,
          "canSyncMove": true,
          "cullingModelAlwaysAnimate": true,
          "resetAnimatorTriggerOnEnter": [
            "ToShaderState2",
            "StepInWaterHaltTrigger",
            "OutOfDefendAreaTrigger"
          ],
          "resetAnimatorTriggerOnExit": ["DoSkill", "ToShaderState1"]
        },
        "StandbyBurning_BS": {
          "$type": "NEDIFAKEGCO",
          "animatorStates": {
            "StandbyBurning_BS": ["Monster_Effigy_Fire_MoveLogic"]
          },
          "canDoSkill": true,
          "canSyncMove": true,
          "cullingModelAlwaysAnimate": true,
          "resetAnimatorTriggerOnEnter": [
            "DoSkill",
            "ToShaderState2",
            "StepInWaterHaltTrigger",
            "OutOfDefendAreaTrigger"
          ],
          "resetAnimatorTriggerOnExit": ["ToShaderState1"]
        },
        "StandbyBurning_AS": {
          "$type": "NEDIFAKEGCO",
          "animatorStates": {
            "StandbyBurning_AS": []
          },
          "canDoSkill": true,
          "canSyncMove": true,
          "cullingModelAlwaysAnimate": true,
          "resetAnimatorTriggerOnEnter": [
            "ToShaderState2",
            "StepInWaterHaltTrigger",
            "OutOfDefendAreaTrigger"
          ],
          "resetAnimatorTriggerOnExit": ["DoSkill", "ToShaderState1"]
        },
        "StandbyFree": {
          "$type": "NEDIFAKEGCO",
          "animatorStates": {
            "StandbyFree": []
          },
          "canDoSkill": true,
          "canSyncMove": true,
          "cullingModelAlwaysAnimate": true,
          "resetAnimatorTriggerOnEnter": [
            "DoSkill",
            "ToShaderState2",
            "StepInWaterHaltTrigger",
            "OutOfDefendAreaTrigger"
          ],
          "resetAnimatorTriggerOnExit": ["DoSkill", "ToShaderState1"]
        },
        "Die": {
          "$type": "NEDIFAKEGCO",
          "animatorStates": {
            "Die": ["Monster_Effigy_Fire_Die"],
            "SwimDie": ["Monster_Effigy_Fire_Die"]
          }
        },
        "Warning": {
          "$type": "NEDIFAKEGCO",
          "animatorStates": {
            "Warning": ["Audio_Effigy_Fire_Warning"]
          },
          "resetAnimatorTriggerOnExit": ["BeHit", "DoSkill", "ToShaderState1"]
        },
        "BeHit": {
          "$type": "NEDIFAKEGCO",
          "animatorStates": {
            "Hit_L": [],
            "Hit_H": []
          },
          "resetAnimatorTriggerOnEnter": ["BeHit"],
          "resetAnimatorTriggerOnExit": ["DoSkill", "ToShaderState1"]
        },
        "BeHitThrow": {
          "$type": "NEDIFAKEGCO",
          "animatorStates": {
            "HitThrow": [],
            "HitThrowDrop": [],
            "HitThrowToGround": []
          },
          "resetAnimatorTriggerOnEnter": ["BeHit", "HitAir2HitDrop"],
          "resetAnimatorTriggerOnExit": ["DoSkill", "ToShaderState1"]
        },
        "RushAway": {
          "$type": "NEDIFAKEGCO",
          "animatorStates": {
            "RushAway_BS": []
          },
          "canSyncMove": true,
          "cullingModelAlwaysAnimate": true,
          "resetAnimatorTriggerOnEnter": [
            "StepInWaterHaltTrigger",
            "OutOfDefendAreaTrigger"
          ],
          "resetAnimatorTriggerOnExit": [
            "BeHit",
            "DoSkill",
            "StepInWaterHaltTrigger",
            "OutOfDefendAreaTrigger"
          ],
          "canSteer": true
        },
        "RushAway_AS": {
          "$type": "NEDIFAKEGCO",
          "animatorStates": {
            "RushAway_AS": ["Audio_Effigy_Fire_RushAway_AS"]
          },
          "canDoSkill": true,
          "canSyncMove": true,
          "cullingModelAlwaysAnimate": true,
          "resetAnimatorTriggerOnExit": ["BeHit", "DoSkill"],
          "canSteer": true
        },
        "Return": {
          "$type": "NEDIFAKEGCO",
          "animatorStates": {
            "Return": [
              "Monster_Effigy_Fire_BlinkReturn",
              "Audio_Effigy_Fire_ReturnToBorn_Blink"
            ]
          },
          "canDoSkill": true,
          "canSyncMove": true,
          "cullingModelAlwaysAnimate": true,
          "resetAnimatorTriggerOnExit": ["BeHit", "DoSkill"],
          "canSteer": true
        },
        "SingleAtk": {
          "$type": "NEDIFAKEGCO",
          "animatorStates": {
            "SingleAtk": [
              "Monster_Effigy_Fire_SingleAtk",
              "Audio_Effigy_Fire_SingleAtk"
            ],
            "SingleAtk_CoreOutLoop": [],
            "SingleAtk_CoreOutAS": [
              "Monster_Effigy_Fire_SingleAtk_CoreOutAS",
              "Audio_Effigy_Fire_SingleAtk_CoreOutAS"
            ]
          },
          "cullingModelAlwaysAnimate": true,
          "resetAnimatorTriggerOnEnter": ["RushAwayTrigger"],
          "resetAnimatorTriggerOnExit": ["BeHit", "DoSkill"]
        },
        "SingleAtk_Rush": {
          "$type": "NEDIFAKEGCO",
          "animatorStates": {
            "SingleAtk_Rush": []
          },
          "canSyncMove": true,
          "cullingModelAlwaysAnimate": true,
          "resetAnimatorTriggerOnExit": [
            "BeHit",
            "DoSkill",
            "SingleAtk_RushStop"
          ],
          "canSteer": true
        },
        "RangeAtk": {
          "$type": "NEDIFAKEGCO",
          "animatorStates": {
            "RangeAtk_BS1": ["Audio_Effigy_Fire_RangeAtk_BS"],
            "RangeAtk_BS2": ["Monster_Effigy_Fire_RangeAtk_BS"],
            "RangeAtk_Loop1": ["Monster_Effigy_Fire_RangeAtk_Loop"],
            "RangeAtk_Loop2": [],
            "RangeAtk_AS": [
              "Monster_Effigy_Fire_RangeAtk_AS",
              "Audio_Effigy_Fire_RangeAtk_AS"
            ]
          },
          "cullingModelAlwaysAnimate": true,
          "resetAnimatorTriggerOnEnter": ["RushAwayTrigger"],
          "resetAnimatorTriggerOnExit": ["BeHit", "DoSkill"],
          "canSteer": true
        },
        "FirePillarStrike": {
          "$type": "NEDIFAKEGCO",
          "animatorStates": {
            "FirePillarStrike_BS01": [
              "Monster_Effigy_Fire_FirePillarStrike_BS01",
              "Audio_Effigy_Fire_FirePillarStrike_BS"
            ],
            "FirePillarStrike_BS02": [
              "Monster_Effigy_Fire_FirePillarStrike_BS01",
              "Audio_Effigy_Fire_FirePillarStrike_BS"
            ],
            "FirePillarStrike_BS03": [
              "Monster_Effigy_Fire_FirePillarStrike_BS01",
              "Audio_Effigy_Fire_FirePillarStrike_BS"
            ],
            "FirePillarStrike_CoreExpose1": [],
            "FirePillarStrike_CoreExpose2": [],
            "FirePillarStrike_Reform": [
              "Monster_Effigy_Fire_Reform",
              "Audio_Effigy_Fire_FirePillarStrike_Reform"
            ]
          },
          "cullingModelAlwaysAnimate": true,
          "resetAnimatorTriggerOnEnter": ["RushAwayTrigger"],
          "resetAnimatorTriggerOnExit": ["BeHit", "DoSkill"],
          "canSteer": true
        },
        "Ignite": {
          "$type": "NEDIFAKEGCO",
          "animatorStates": {
            "Ignite_Blink": [
              "Monster_Effigy_Fire_BlinkReborn",
              "Audio_Effigy_Fire_ReturnToBorn_Blink"
            ],
            "Ignite_BS": ["Audio_Effigy_Fire_Ignite_BS"],
            "Ignite_Loop": [],
            "Ignite_BS02": [
              "Monster_Effigy_Fire_Ignite_BS02",
              "Audio_Effigy_Fire_Ignite_BS02"
            ],
            "Ignite_AS": [
              "Monster_Effigy_Fire_Ignite_AS",
              "Audio_Effigy_Fire_Ignite_AS"
            ],
            "Ignite_Success": [
              "Monster_Effigy_Fire_Ignite_Success",
              "Audio_Effigy_Fire_Ignite_Success"
            ]
          },
          "cullingModelAlwaysAnimate": true,
          "resetAnimatorTriggerOnEnter": [
            "RushAwayTrigger",
            "StopIgniteTrigger"
          ],
          "resetAnimatorTriggerOnExit": ["BeHit", "DoSkill"],
          "canSteer": true
        },
        "Burning_RollingCharge_BS": {
          "$type": "NEDIFAKEGCO",
          "animatorStates": {
            "Burning_RollingCharge_BS": [
              "Monster_Effigy_Fire_Burning_RollingCharge_BS",
              "Audio_Effigy_Fire_Burnning_RolingCharge_BS"
            ]
          },
          "cullingModelAlwaysAnimate": true,
          "resetAnimatorTriggerOnEnter": ["RushAwayTrigger"],
          "resetAnimatorTriggerOnExit": ["BeHit", "DoSkill"],
          "canSteer": true
        },
        "Burning_RollingCharge_Aiming": {
          "$type": "NEDIFAKEGCO",
          "animatorStates": {
            "Burning_RollingCharge_Aiming": [
              "Audio_Effigy_Fire_Burnning_RolingCharge_Aiming"
            ]
          },
          "cullingModelAlwaysAnimate": true,
          "resetAnimatorTriggerOnEnter": ["RushAwayTrigger"],
          "resetAnimatorTriggerOnExit": ["BeHit", "DoSkill"],
          "canSteer": true
        },
        "Burning_RollingCharge_Loop": {
          "$type": "NEDIFAKEGCO",
          "animatorStates": {
            "Burning_RollingCharge_Loop1": [
              "Monster_Effigy_Fire_Burning_RollingCharge_Loop"
            ],
            "Burning_RollingCharge_Loop2": [
              "Monster_Effigy_Fire_Burning_RollingCharge_Loop"
            ],
            "Burning_RollingCharge_Loop3": [
              "Monster_Effigy_Fire_Burning_RollingCharge_Loop"
            ]
          },
          "cullingModelAlwaysAnimate": true,
          "resetAnimatorTriggerOnEnter": ["RushAwayTrigger"],
          "resetAnimatorTriggerOnExit": ["BeHit", "DoSkill"],
          "canSteer": true
        },
        "Burning_RollingCharge_Turning": {
          "$type": "NEDIFAKEGCO",
          "animatorStates": {
            "Burning_RollingCharge_Turning1": [
              "Monster_Effigy_Fire_Burning_RollingCharge_Loop"
            ],
            "Burning_RollingCharge_Turning2": [
              "Monster_Effigy_Fire_Burning_RollingCharge_Loop"
            ]
          },
          "cullingModelAlwaysAnimate": true,
          "resetAnimatorTriggerOnEnter": ["RushAwayTrigger"],
          "resetAnimatorTriggerOnExit": ["BeHit", "DoSkill"],
          "canSteer": true
        },
        "Burning_RollingCharge_AS": {
          "$type": "NEDIFAKEGCO",
          "animatorStates": {
            "Burning_RollingCharge_AS": [
              "Monster_Effigy_Fire_Burning_RollingCharge_AS",
              "Audio_Effigy_Fire_Burnning_RolingCharge_AS"
            ]
          },
          "canDoSkill": true,
          "cullingModelAlwaysAnimate": true,
          "resetAnimatorTriggerOnEnter": [
            "RushAwayTrigger",
            "StepInWaterHaltTrigger",
            "OutOfDefendAreaTrigger"
          ],
          "resetAnimatorTriggerOnExit": [
            "BeHit",
            "DoSkill",
            "StepInWaterHaltTrigger",
            "OutOfDefendAreaTrigger"
          ],
          "canSteer": true
        },
        "Burning_RollingCharge_Return": {
          "$type": "NEDIFAKEGCO",
          "animatorStates": {
            "Burning_RollingCharge_Return": [
              "Monster_Effigy_Fire_BlinkReturn",
              "Audio_Effigy_Fire_ReturnToBorn_Blink"
            ]
          },
          "canDoSkill": true,
          "canSyncMove": true,
          "cullingModelAlwaysAnimate": true,
          "resetAnimatorTriggerOnEnter": [
            "RushAwayTrigger",
            "StepInWaterHaltTrigger",
            "OutOfDefendAreaTrigger"
          ],
          "resetAnimatorTriggerOnExit": ["BeHit", "DoSkill"],
          "canSteer": true
        },
        "Burning_MeleeAttack01": {
          "$type": "NEDIFAKEGCO",
          "animatorStates": {
            "Burning_MeleeAttack01": [
              "Monster_Effigy_Fire_Burning_MeleeAttack01",
              "Audio_Effigy_Fire_Burnning_MeleeAtk01"
            ],
            "Burning_MeleeAttack01_Pause": []
          },
          "cullingModelAlwaysAnimate": true,
          "resetAnimatorTriggerOnEnter": ["RushAwayTrigger"],
          "resetAnimatorTriggerOnExit": ["BeHit", "DoSkill"],
          "canSteer": true
        },
        "Burning_MeleeAttack02": {
          "$type": "NEDIFAKEGCO",
          "animatorStates": {
            "Burning_MeleeAttack02": [
              "Monster_Effigy_Fire_Burning_MeleeAttack02",
              "Audio_Effigy_Fire_Burnning_MeleeAtk02"
            ],
            "Burning_MeleeAttack02_Pause": [
              "Monster_Effigy_Fire_Burning_MeleeAttack02_Pause"
            ]
          },
          "cullingModelAlwaysAnimate": true,
          "resetAnimatorTriggerOnEnter": ["RushAwayTrigger"],
          "resetAnimatorTriggerOnExit": ["BeHit", "DoSkill"],
          "canSteer": true
        },
        "Burning_MeleeAttack03": {
          "$type": "NEDIFAKEGCO",
          "animatorStates": {
            "Burning_MeleeAttack03": [
              "Monster_Effigy_Fire_Burning_MeleeAttack03",
              "Audio_Effigy_Fire_Burnning_MeleeAtk03"
            ]
          },
          "cullingModelAlwaysAnimate": true,
          "resetAnimatorTriggerOnEnter": ["RushAwayTrigger"],
          "resetAnimatorTriggerOnExit": ["BeHit", "DoSkill"],
          "canSteer": true
        },
        "Burning_DiveCrush": {
          "$type": "NEDIFAKEGCO",
          "animatorStates": {
            "Burning_DiveCrush": [
              "Monster_Effigy_Fire_Burning_DiveCrush",
              "Audio_Effigy_Fire_Burnning_DiveCrush"
            ]
          },
          "cullingModelAlwaysAnimate": true,
          "resetAnimatorTriggerOnEnter": ["RushAwayTrigger"],
          "resetAnimatorTriggerOnExit": ["BeHit", "DoSkill"],
          "canSteer": true
        },
        "Burning_MultiFire": {
          "$type": "NEDIFAKEGCO",
          "animatorStates": {
            "Burning_MultiFire_BS": [
              "Monster_Effigy_Fire_Burning_MultiFire_BS",
              "Audio_Effigy_Fire_Burnning_MultiFire_BS"
            ],
            "Burning_MultiFire_Loop": [
              "Monster_Effigy_Fire_Burning_MultiFire_Loop",
              "Audio_Effigy_Fire_Burnning_MultiFire_Loop"
            ],
            "Burning_MultiFire_AS": [
              "Monster_Effigy_Fire_Burning_MultiFire_AS",
              "Audio_Effigy_Fire_Burnning_MultiFire_AS"
            ]
          },
          "cullingModelAlwaysAnimate": true,
          "resetAnimatorTriggerOnEnter": ["RushAwayTrigger"],
          "resetAnimatorTriggerOnExit": ["BeHit", "DoSkill"],
          "canSteer": true
        },
        "Burning_UltimateExplode": {
          "$type": "NEDIFAKEGCO",
          "animatorStates": {
            "Burning_UltimateExplode_Blink": [
              "Monster_Effigy_Fire_BlinkReborn",
              "Audio_Effigy_Fire_ReturnToBorn_Blink"
            ],
            "Burning_UltimateExplode_BS": [
              "Audio_Effigy_Fire_Burnning_UltimateExplode_BS"
            ],
            "Burning_UltimateExplode_Loop": [
              "Monster_Effigy_Fire_Burning_UltimateExplode_Loop"
            ],
            "Burning_UltimateExplode_Explode": [
              "Monster_Effigy_Fire_Burning_UltimateExplode_Explode",
              "Audio_Effigy_Fire_Burnning_UltimateExplode_Explode"
            ]
          },
          "cullingModelAlwaysAnimate": true,
          "resetAnimatorTriggerOnEnter": ["RushAwayTrigger"],
          "resetAnimatorTriggerOnExit": ["BeHit", "DoSkill"],
          "canSteer": true
        },
        "Burning_Extinct": {
          "$type": "NEDIFAKEGCO",
          "animatorStates": {
            "Burning_Extinct": [
              "Monster_Effigy_Fire_Burning_Extinct",
              "Audio_Effigy_Fire_Burning_Extinct"
            ]
          },
          "cullingModelAlwaysAnimate": true,
          "resetAnimatorTriggerOnEnter": ["RushAwayTrigger"],
          "resetAnimatorTriggerOnExit": ["BeHit", "DoSkill"],
          "canSteer": true
        },
        "ReturnToBorn": {
          "$type": "NEDIFAKEGCO",
          "animatorStates": {
            "ReturnToBorn": [],
            "ReturnToBorn_Blink": [
              "Monster_Effigy_Fire_ReturnToBorn",
              "Audio_Effigy_Fire_ReturnToBorn_Blink"
            ],
            "ReturnToBorn_AS": []
          },
          "canSyncMove": true,
          "cullingModelAlwaysAnimate": true,
          "resetAnimatorTriggerOnExit": ["BeHit", "DoSkill"]
        },
        "Burning_MeleeAttack01_Elite": {
          "$type": "NEDIFAKEGCO",
          "animatorStates": {
            "Burning_MeleeAttack01_Elite": [
              "Monster_Effigy_Fire_Burning_MeleeAttack01_Elite",
              "Audio_Effigy_Fire_Burnning_MeleeAtk01"
            ],
            "Burning_MeleeAttack01_Pause_Elite": []
          },
          "cullingModelAlwaysAnimate": true,
          "resetAnimatorTriggerOnEnter": ["RushAwayTrigger"],
          "resetAnimatorTriggerOnExit": ["BeHit", "DoSkill"],
          "canSteer": true
        },
        "Burning_MeleeAttack02_Elite": {
          "$type": "NEDIFAKEGCO",
          "animatorStates": {
            "Burning_MeleeAttack02_Elite": [
              "Monster_Effigy_Fire_Burning_MeleeAttack02_Elite",
              "Audio_Effigy_Fire_Burnning_MeleeAtk02_Elite"
            ],
            "Burning_MeleeAttack02_Pause_Elite": [
              "Monster_Effigy_Fire_Burning_MeleeAttack02_Pause_Elite"
            ]
          },
          "cullingModelAlwaysAnimate": true,
          "resetAnimatorTriggerOnEnter": ["RushAwayTrigger"],
          "resetAnimatorTriggerOnExit": ["BeHit", "DoSkill"],
          "canSteer": true
        },
        "Burning_MeleeAttack03_Elite": {
          "$type": "NEDIFAKEGCO",
          "animatorStates": {
            "Burning_MeleeAttack03_Elite": [
              "Monster_Effigy_Fire_Burning_MeleeAttack03_Elite",
              "Audio_Effigy_Fire_Burnning_MeleeAtk03"
            ]
          },
          "cullingModelAlwaysAnimate": true,
          "resetAnimatorTriggerOnEnter": ["RushAwayTrigger"],
          "resetAnimatorTriggerOnExit": ["BeHit", "DoSkill"],
          "canSteer": true
        },
        "Burning_DiveCrush_Elite": {
          "$type": "NEDIFAKEGCO",
          "animatorStates": {
            "Burning_DiveCrush_1": [
              "Monster_Effigy_Fire_Burning_DiveCrush",
              "Audio_Effigy_Fire_Burnning_DiveCrush"
            ],
            "Burning_DiveCrush_2": [
              "Monster_Effigy_Fire_Burning_DiveCrush",
              "Audio_Effigy_Fire_Burnning_DiveCrush"
            ],
            "Burning_DiveCrush_3": [
              "Monster_Effigy_Fire_Burning_DiveCrush",
              "Audio_Effigy_Fire_Burnning_DiveCrush"
            ]
          },
          "cullingModelAlwaysAnimate": true,
          "resetAnimatorTriggerOnEnter": ["RushAwayTrigger"],
          "resetAnimatorTriggerOnExit": ["BeHit", "DoSkill"],
          "canSteer": true
        },
        "Burning_DiveCrush_Blink_Elite": {
          "$type": "NEDIFAKEGCO",
          "animatorStates": {
            "Burning_DiveCrush_Blink_1": [
              "Monster_Effigy_Fire_Burning_DiveCrush_Blink_1",
              "Audio_Effigy_Fire_ReturnToBorn_Blink"
            ],
            "Burning_DiveCrush_Blink_2": [
              "Monster_Effigy_Fire_Burning_DiveCrush_Blink_2",
              "Audio_Effigy_Fire_ReturnToBorn_Blink"
            ],
            "Burning_DiveCrush_Blink_3": [
              "Monster_Effigy_Fire_Burning_DiveCrush_Blink_3",
              "Audio_Effigy_Fire_ReturnToBorn_Blink"
            ]
          },
          "canSyncMove": true,
          "cullingModelAlwaysAnimate": true,
          "resetAnimatorTriggerOnExit": ["BeHit", "DoSkill"]
        }
      }
    }
  },
  "partControl": {
    "parts": [
      {
        "$type": "INCPGKCDCIO",
        "angularSpeed": 3600.0,
        "partRootName": "ReviveSkillDirection",
        "forwardBy": "Parent",
        "forwardByTransName": "",
        "limitHorizontal": 360.0,
        "limitVertical": 0.0
      }
    ]
  },
  "billboard": {
    "$type": "DNGNMAJBCNP",
    "attachPoint": "BillboardAttach",
    "offset": {
      "y": 1.5
    },
    "radiusOffset": 1.0,
    "enableSelfAdapt": true,
    "showHPBar": true,
    "size": "Big"
  },
  "initialPoses": {
    "Default": {}
  },
  "aibeta": {
    "enable": true,
    "moveSetting": {
      "useNavMesh": false,
      "navMeshAgentName": "Undead01"
    },
    "sensing": {
      "settings": {
        "DefaultSetting": {
          "viewRange": 15.0,
          "viewPanoramic": true,
          "feelRange": 7.5
        }
      },
      "templates": {
        "DefaultTemplate": {
          "DefaultPoses": "DefaultSetting"
        }
      }
    },
    "threat": {
      "GHIJMOKOLMB": "",
      "clearThreatTargetDistance": 70.0,
      "clearThreatEdgeDistance": 70.0,
      "clearThreatByTargetOutOfZone": true,
      "clearThreatTimerByTargetOutOfZone": 7.0,
      "viewThreatGrow": 35.0,
      "threatDecreaseSpeed": 100.0,
      "resistTauntLevel": "Monster_TauntLevel_4"
    },
    "defendArea": {
      "defendRange": 50.0
    },
    "profiling": {
      "lodStrategy": "Best"
    },
    "skillGroupCDConfigs": [
      {
        "skillGroupCDID": 2,
        "skillGroupCDTime": 15.0
      }
    ],
    "skillSetting": {
      "skillEliteSet": {
        "1": [241, 311, 321, 331, 341, 351],
        "2": [242, 312, 322, 332, 342, 352]
      }
    },
    "skills": {
      "100": {
        "name": "OnAlert",
        "skillType": "OnAlert",
        "faceTarget": true,
        "castCondition": {
          "pose": [1, 101, 201]
        },
        "publicCDGroup": "",
        "triggerGCD": false,
        "HHAGODJIAPE": "",
        "stateIDs": ["Warning"],
        "skillQueryingTime": 4.0,
        "flagTargetReachable": "10",
        "flagSelfOnTemplateCollider": "01",
        "flagSelfInZone": "10",
        "flagTargetInZone": "11"
      },
      "211": {
        "name": "SingleAtk",
        "castCondition": {
          "pose": [101],
          "needReInitCD": true,
          "pickRangeMax": 8.0
        },
        "cd": 5.0,
        "initialCD": 15.0,
        "publicCDGroup": "",
        "skillGroupCDID": 2,
        "HHAGODJIAPE": "",
        "stateIDs": ["SingleAtk"],
        "skillQueryingTime": 4.0,
        "flagTargetReachable": "11",
        "flagSelfOnTemplateCollider": "01",
        "flagSelfInZone": "10",
        "flagTargetInZone": "11"
      },
      "221": {
        "name": "RangeAtk",
        "priority": 3,
        "castCondition": {
          "pose": [101],
          "needReInitCD": true,
          "pickRangeMin": 5.0,
          "pickRangeMax": 50.0
        },
        "cd": 5.0,
        "initialCD": 15.0,
        "publicCDGroup": "",
        "skillGroupCDID": 2,
        "HHAGODJIAPE": "",
        "stateIDs": ["RangeAtk"],
        "skillQueryingTime": 4.0,
        "flagTargetReachable": "10",
        "flagSelfOnTemplateCollider": "01",
        "flagSelfInZone": "10",
        "flagTargetInZone": "10"
      },
      "241": {
        "name": "Ignite",
        "priority": 4,
        "castCondition": {
          "pose": [101],
          "needReInitCD": true,
          "pickRangeMax": 50.0
        },
        "cd": 15.0,
        "initialCD": 1.0,
        "publicCDGroup": "",
        "ignoreGCD": true,
        "triggerGCD": false,
        "triggerCDOnFail": false,
        "HHAGODJIAPE": "",
        "stateIDs": ["FirePillarStrike", "Ignite"],
        "skillQueryingTime": 4.0,
        "flagTargetReachable": "10",
        "flagSelfOnTemplateCollider": "01",
        "flagSelfInZone": "10",
        "flagTargetInZone": "10"
      },
      "242": {
        "name": "Ignite",
        "priority": 4,
        "castCondition": {
          "pose": [101],
          "needReInitCD": true,
          "pickRangeMax": 50.0
        },
        "cd": 15.0,
        "initialCD": 1.0,
        "publicCDGroup": "",
        "ignoreGCD": true,
        "triggerGCD": false,
        "triggerCDOnFail": false,
        "HHAGODJIAPE": "",
        "stateIDs": ["FirePillarStrike", "Ignite"],
        "skillQueryingTime": 4.0,
        "flagTargetReachable": "10",
        "flagSelfOnTemplateCollider": "01",
        "flagSelfInZone": "10",
        "flagTargetInZone": "10"
      },
      "311": {
        "name": "Burning_RollingCharge",
        "castCondition": {
          "pose": [201],
          "needReInitCD": true,
          "pickRangeMax": 50.0,
          "skillAnchorRangeMax": 20.0
        },
        "cd": 14.0,
        "initialCD": 1.0,
        "publicCDGroup": "",
        "skillGroupCDID": 3,
        "HHAGODJIAPE": "",
        "stateIDs": [
          "Burning_RollingCharge_BS",
          "Burning_RollingCharge_Aiming",
          "Burning_RollingCharge_Loop",
          "Burning_RollingCharge_Turning",
          "Burning_RollingCharge_AS",
          "Burning_RollingCharge_Return"
        ],
        "flagTargetReachable": "10",
        "flagSelfOnTemplateCollider": "01",
        "flagSelfInZone": "10",
        "flagTargetInZone": "11"
      },
      "312": {
        "name": "Burning_RollingCharge",
        "priority": 2,
        "castCondition": {
          "pose": [201],
          "needReInitCD": true,
          "pickRangeMax": 50.0
        },
        "cd": 45.0,
        "initialCD": 5.0,
        "publicCDGroup": "",
        "skillGroupCDID": 2,
        "HHAGODJIAPE": "",
        "stateIDs": [
          "Burning_RollingCharge_BS",
          "Burning_RollingCharge_Aiming",
          "Burning_RollingCharge_Loop",
          "Burning_RollingCharge_Turning",
          "Burning_RollingCharge_AS",
          "Burning_RollingCharge_Return"
        ],
        "flagTargetReachable": "11",
        "flagSelfOnTemplateCollider": "01",
        "flagSelfInZone": "10",
        "flagTargetInZone": "11"
      },
      "321": {
        "name": "Burning_MeleeAttack",
        "castCondition": {
          "pose": [201],
          "pickRangeMax": 15.0,
          "skillAnchorRangeMax": 20.0
        },
        "cd": 10.0,
        "publicCDGroup": "",
        "skillGroupCDID": 3,
        "HHAGODJIAPE": "",
        "stateIDs": [
          "Burning_MeleeAttack01",
          "Burning_MeleeAttack02",
          "Burning_MeleeAttack03"
        ],
        "skillQueryingTime": 4.0,
        "flagTargetReachable": "11",
        "flagSelfOnTemplateCollider": "01",
        "flagSelfInZone": "10",
        "flagTargetInZone": "11"
      },
      "322": {
        "name": "Burning_MeleeAttack",
        "priority": 3,
        "castCondition": {
          "pose": [201],
          "pickRangeMax": 20.0,
          "skillAnchorRangeMax": 20.0
        },
        "cd": 20.0,
        "initialCD": 3.0,
        "publicCDGroup": "",
        "skillGroupCDID": 3,
        "HHAGODJIAPE": "",
        "stateIDs": [
          "Burning_MeleeAttack01_Elite",
          "Burning_MeleeAttack02_Elite",
          "Burning_MeleeAttack03_Elite"
        ],
        "skillQueryingTime": 4.0,
        "flagTargetReachable": "11",
        "flagSelfOnTemplateCollider": "01",
        "flagSelfInZone": "10",
        "flagTargetInZone": "11"
      },
      "331": {
        "name": "Burning_DiveCrush",
        "castCondition": {
          "pose": [201],
          "pickRangeMax": 12.0,
          "skillAnchorRangeMax": 25.0
        },
        "cd": 10.0,
        "publicCDGroup": "",
        "skillGroupCDID": 3,
        "HHAGODJIAPE": "",
        "stateIDs": ["Burning_DiveCrush"],
        "skillQueryingTime": 4.0,
        "flagTargetReachable": "11",
        "flagSelfOnTemplateCollider": "01",
        "flagSelfInZone": "10",
        "flagTargetInZone": "11"
      },
      "332": {
        "name": "Burning_DiveCrush",
        "priority": 2,
        "castCondition": {
          "pose": [201]
        },
        "cd": 60.0,
        "initialCD": 15.0,
        "publicCDGroup": "",
        "HHAGODJIAPE": "",
        "stateIDs": ["Burning_DiveCrush"],
        "skillQueryingTime": 4.0,
        "flagTargetReachable": "11",
        "flagSelfOnTemplateCollider": "01",
        "flagSelfInZone": "10",
        "flagTargetInZone": "11"
      },
      "341": {
        "name": "Burning_MultiFire",
        "castCondition": {
          "pose": [201],
          "pickRangeMin": 12.0,
          "pickRangeMax": 50.0
        },
        "cd": 6.0,
        "publicCDGroup": "",
        "skillGroupCDID": 3,
        "HHAGODJIAPE": "",
        "stateIDs": ["Burning_MultiFire"],
        "flagTargetReachable": "11",
        "flagSelfOnTemplateCollider": "01",
        "flagSelfInZone": "10",
        "flagTargetInZone": "11"
      },
      "342": {
        "name": "Burning_MultiFire",
        "priority": 4,
        "castCondition": {
          "pose": [201]
        },
        "cd": 15.0,
        "publicCDGroup": "",
        "skillGroupCDID": 3,
        "HHAGODJIAPE": "",
        "stateIDs": ["Burning_MultiFire"],
        "flagTargetReachable": "11",
        "flagSelfOnTemplateCollider": "01",
        "flagSelfInZone": "10",
        "flagTargetInZone": "11"
      },
      "351": {
        "name": "Burning_UltimateExplode",
        "castCondition": {
          "pose": [201],
          "needReInitCD": true,
          "pickRangeMax": 50.0
        },
        "cd": 45.0,
        "initialCD": 45.0,
        "publicCDGroup": "",
        "skillGroupCDID": 3,
        "HHAGODJIAPE": "",
        "stateIDs": ["Burning_UltimateExplode"],
        "flagTargetReachable": "11",
        "flagSelfOnTemplateCollider": "01",
        "flagSelfInZone": "10",
        "flagTargetInZone": "11"
      },
      "352": {
        "name": "Burning_UltimateExplode",
        "priority": 2,
        "castCondition": {
          "pose": [201],
          "needReInitCD": true,
          "pickRangeMax": 50.0
        },
        "cd": 45.0,
        "initialCD": 30.0,
        "publicCDGroup": "",
        "skillGroupCDID": 3,
        "HHAGODJIAPE": "",
        "stateIDs": ["Burning_UltimateExplode"],
        "flagTargetReachable": "11",
        "flagSelfOnTemplateCollider": "01",
        "flagSelfInZone": "10",
        "flagTargetInZone": "11"
      },
      "501": {
        "name": "Return",
        "priority": 1,
        "castCondition": {
          "pose": [201],
          "skillAnchorRangeMin": 27.0,
          "skillAnchorRangeMax": 99.0
        },
        "cd": 5.0,
        "initialCD": 5.0,
        "publicCDGroup": "",
        "HHAGODJIAPE": "",
        "stateIDs": ["Return"],
        "skillQueryingTime": 4.0,
        "flagTargetReachable": "11",
        "flagSelfOnTemplateCollider": "01",
        "flagSelfInZone": "11",
        "flagTargetInZone": "11"
      }
    },
    "skillGCD": 1.5,
    "birdCirclingTactic": [
      {
        "$type": "NNJKLGNPMNN",
        "enable": true,
        "condition": {
          "pose": [1, 101, 201]
        },
        "JMCOBEPDIGM": {
          "ANLAAGAMIKF": 0,
          "JFMIFLNBKMJ": 3.0,
          "DHGJDIPNDHH": 3.5,
          "MNPDDAKDHGK": "",
          "GJDMDHIBCME": ""
        }
      }
    ]
  },
  "inputKeys": [
    {
      "keyID": 211,
      "inputKeyCode": 257,
      "abilityName": ""
    },
    {
      "keyID": 221,
      "inputKeyCode": 258,
      "abilityName": ""
    },
    {
      "keyID": 231,
      "inputKeyCode": 259,
      "abilityName": ""
    },
    {
      "keyID": 242,
      "inputKeyCode": 260,
      "abilityName": ""
    },
    {
      "keyID": 311,
      "inputKeyCode": 261,
      "abilityName": ""
    },
    {
      "keyID": 322,
      "inputKeyCode": 262,
      "abilityName": ""
    },
    {
      "keyID": 332,
      "inputKeyCode": 263,
      "abilityName": ""
    },
    {
      "keyID": 342,
      "inputKeyCode": 264,
      "abilityName": ""
    },
    {
      "keyID": 351,
      "inputKeyCode": 265,
      "abilityName": ""
    },
    {
      "keyID": 241,
      "inputKeyCode": 266,
      "abilityName": ""
    },
    {
      "keyID": 321,
      "inputKeyCode": 267,
      "abilityName": ""
    },
    {
      "keyID": 331,
      "inputKeyCode": 268,
      "abilityName": ""
    },
    {
      "keyID": 341,
      "inputKeyCode": 269,
      "abilityName": ""
    }
  ],
  "move": {
    "$type": "IPNMJMHDMPF",
    "positionModifyState": "None",
    "destroyRockWhenInit": true,
    "PKHOMJHFAEE": "RootNode"
  },
  "audio": {
    "overrideEmitterName": "",
    "animAudio": {
      "onTransitionIn": [
        {
          "currentStateName": "StandbyCooldown_BS",
          "audioEvent": {
            "text": "Play_sfx_monster_effigy_fire_standByCoolDown_BS_lp"
          }
        },
        {
          "currentStateName": "StandbyCooldown_AS",
          "audioEvent": {
            "text": "Play_sfx_monster_effigy_fire_standByCoolDown_AS_lp"
          }
        },
        {
          "currentStateName": "StandbyBurning_BS",
          "audioEvent": {
            "text": "Play_sfx_monster_effigy_fire_standByBurning_loop"
          }
        },
        {
          "currentStateName": "StandbyBurning_AS",
          "audioEvent": {
            "text": "Play_sfx_monster_effigy_fire_standByBurning_loop"
          }
        },
        {
          "currentStateName": "RushAway_BS",
          "audioEvent": {
            "text": "Play_sfx_monster_effigy_fire_rushAeay_BS_lp"
          }
        },
        {
          "currentStateName": "ReturnToBorn",
          "audioEvent": {
            "text": "Play_sfx_monster_effigy_fire_returnToBorn_loop"
          }
        },
        {
          "currentStateName": "StandbyFree",
          "audioEvent": {
            "text": "Play_sfx_monster_effigy_fire_returnToBorn_AS_loop"
          }
        },
        {
          "currentStateName": "RangeAtk_Loop1",
          "audioEvent": {
            "text": "Play_sfx_monster_effigy_fire_rangeAtk_loop"
          }
        },
        {
          "currentStateName": "RangeAtk_Loop2",
          "audioEvent": {
            "text": "Play_sfx_monster_effigy_fire_rangeAtk_loop"
          }
        },
        {
          "currentStateName": "Ignite_Loop",
          "audioEvent": {
            "text": "Play_sfx_monster_effigy_fire_ignite_loop"
          }
        },
        {
          "currentStateName": "Burning_UltimateExplode_Loop",
          "audioEvent": {
            "text": "Play_sfx_monster_effigy_fire_burning_ultimateExplode_loop"
          }
        },
        {
          "currentStateName": "Burning_RollingCharge_Loop1",
          "audioEvent": {
            "text": "Play_sfx_monster_effigy_fire_burning_rollingCharge_loop"
          }
        },
        {
          "currentStateName": "Burning_RollingCharge_Loop2",
          "audioEvent": {
            "text": "Play_sfx_monster_effigy_fire_burning_rollingCharge_loop"
          }
        },
        {
          "currentStateName": "Burning_RollingCharge_Loop3",
          "audioEvent": {
            "text": "Play_sfx_monster_effigy_fire_burning_rollingCharge_loop"
          }
        },
        {
          "currentStateName": "Burning_RollingCharge_Turning1",
          "audioEvent": {
            "text": "Play_sfx_monster_effigy_fire_burning_rollingCharge_loop"
          }
        },
        {
          "currentStateName": "Burning_RollingCharge_Turning2",
          "audioEvent": {
            "text": "Play_sfx_monster_effigy_fire_burning_rollingCharge_loop"
          }
        },
        {
          "currentStateName": "Burning_MeleeAttack01_Pause",
          "audioEvent": {
            "text": "Play_sfx_monster_effigy_fire_burning_meleeAtk_pause_lp"
          }
        },
        {
          "currentStateName": "Burning_MeleeAttack02_Pause",
          "audioEvent": {
            "text": "Play_sfx_monster_effigy_fire_burning_meleeAtk_pause_lp"
          }
        },
        {
          "currentStateName": "ReturnToBorn_AS",
          "audioEvent": {
            "text": "Play_sfx_monster_effigy_fire_returnToBorn_AS_loop"
          }
        }
      ],
      "onTransitionOut": [
        {
          "currentStateName": "StandbyCooldown_BS",
          "audioEvent": {
            "text": "Stop_sfx_monster_effigy_fire_standByCoolDown_BS_lp"
          },
          "usage": "Except"
        },
        {
          "currentStateName": "StandbyCooldown_AS",
          "audioEvent": {
            "text": "Stop_sfx_monster_effigy_fire_standByCoolDown_AS_lp"
          },
          "usage": "Except"
        },
        {
          "currentStateName": "StandbyBurning_BS",
          "audioEvent": {
            "text": "Stop_sfx_monster_effigy_fire_standByBurning_loop"
          },
          "usage": "Except"
        },
        {
          "currentStateName": "StandbyBurning_AS",
          "audioEvent": {
            "text": "Stop_sfx_monster_effigy_fire_standByBurning_loop"
          },
          "usage": "Except"
        },
        {
          "currentStateName": "RushAway_BS",
          "audioEvent": {
            "text": "Stop_sfx_monster_effigy_fire_rushAeay_BS_lp"
          },
          "usage": "Except"
        },
        {
          "currentStateName": "ReturnToBorn",
          "audioEvent": {
            "text": "Stop_sfx_monster_effigy_fire_returnToBorn_loop"
          },
          "usage": "Except"
        },
        {
          "currentStateName": "StandbyFree",
          "audioEvent": {
            "text": "Stop_sfx_monster_effigy_fire_returnToBorn_AS_loop"
          },
          "usage": "Except"
        },
        {
          "currentStateName": "RangeAtk_Loop1",
          "audioEvent": {
            "text": "Stop_sfx_monster_effigy_fire_rangeAtk_loop"
          },
          "usage": "Except"
        },
        {
          "currentStateName": "RangeAtk_Loop2",
          "audioEvent": {
            "text": "Stop_sfx_monster_effigy_fire_rangeAtk_loop"
          }
        },
        {
          "currentStateName": "Ignite_Loop",
          "audioEvent": {
            "text": "Stop_sfx_monster_effigy_fire_ignite_loop"
          }
        },
        {
          "currentStateName": "Burning_UltimateExplode_Loop",
          "audioEvent": {
            "text": "Stop_sfx_monster_effigy_fire_burning_ultimateExplode_loop"
          }
        },
        {
          "currentStateName": "Burning_RollingCharge_Loop1",
          "audioEvent": {
            "text": "Stop_sfx_monster_effigy_fire_burning_rollingCharge_loop"
          }
        },
        {
          "currentStateName": "Burning_RollingCharge_Loop2",
          "audioEvent": {
            "text": "Stop_sfx_monster_effigy_fire_burning_rollingCharge_loop"
          }
        },
        {
          "currentStateName": "Burning_RollingCharge_Loop3",
          "audioEvent": {
            "text": "Stop_sfx_monster_effigy_fire_burning_rollingCharge_loop"
          }
        },
        {
          "currentStateName": "Burning_RollingCharge_Turning1",
          "audioEvent": {
            "text": "Stop_sfx_monster_effigy_fire_burning_rollingCharge_loop"
          }
        },
        {
          "currentStateName": "Burning_RollingCharge_Turning2",
          "audioEvent": {
            "text": "Stop_sfx_monster_effigy_fire_burning_rollingCharge_loop"
          }
        },
        {
          "currentStateName": "Burning_MeleeAttack01_Pause",
          "audioEvent": {
            "text": "Stop_sfx_monster_effigy_fire_burning_meleeAtk_pause_lp"
          }
        },
        {
          "currentStateName": "Burning_MeleeAttack02_Pause",
          "audioEvent": {
            "text": "Stop_sfx_monster_effigy_fire_burning_meleeAtk_pause_lp"
          },
          "usage": "Except"
        },
        {
          "currentStateName": "ReturnToBorn_AS",
          "audioEvent": {
            "text": "Stop_sfx_monster_effigy_fire_returnToBorn_AS_loop"
          }
        }
      ]
    }
  },
  "cameraAdjustMap": {
    "default": {
      "$type": "NJCCPGFPIHI",
      "priority": 1.0,
      "enterRadius": 30.0,
      "exitRadius": 35.0,
      "heightAdjust": 0.75,
      "fov": 45.0,
      "zoom": 8.0,
      "sphericalY": 10.0,
      "lockSphericalY": false,
      "sphericalYUp": 10.0,
      "sphericalYDown": 10.0,
      "autoTurnEndMin": 120.0,
      "autoTurnEndMax": 170.0,
      "enterShape": "CircleR30",
      "exitShape": "CircleR35"
    }
  }
}
