{
  "common": {
    "effectAttachShape": {
      "$type": "FJNPJANPGGC",
      "mesh": "EffectMesh"
    },
    "mass": 10000.0,
    "height": 2.4000000953674316,
    "modelHeight": 2.1500000953674316,
    "viewSize": 1.7000000476837158,
    "affectedByWorld": true,
    "checkInSurface": true,
    "scale": 1.1699999570846558,
    "disableTickDistance": 200.0,
    "useGrassDisplacement": true,
    "clearAIOnSetLightDeactive": true,
    "reconnectSupport": true,
    "recoverByInitPose": true
  },
  "headControl": {
    "$type": "KPIPDEBDPIH",
    "useHeadControl": true,
    "maxYawDegree": 20.0,
    "maxPitchDegree": 5.0,
    "animStates": [
      "NormalIdle/Standby",
      "NormalMove/WalkForward",
      "NormalMove/WalkBack",
      "NormalMove/WalkRight",
      "NormalMove/WalkLeft",
      "NormalMove/ShieldWalkForward",
      "NormalMove/ShieldWalkBack",
      "NormalMove/ShieldWalkRight",
      "NormalMove/ShieldWalkLeft",
      "NormalMove/Run",
      "TurnLeft/TurnLeft",
      "TurnRight/TurnRight"
    ]
  },
  "model": {
    "bornEffect": "",
    "attachEffect": "",
    "canBakeMesh": false,
    "BKPFGNPLDNJ": ""
  },
  "dither": {
    "showDitherDuration": 1.0
  },
  "combat": {
    "property": {
      "endureType": "Monster_Demiboss_Humanoid",
      "weight": 150.0
    },
    "beHit": {
      "hitBloodEffect": ""
    },
    "combatLock": {
      "lockShape": "CircleLockEnemy",
      "lockType": "Avatar&Monster_Lv4"
    },
    "die": {
      "hasAnimatorDie": true,
      "dieEndTime": 2.5,
      "dieForceDisappearTime": 2.5,
      "dieDisappearEffect": "Eff_Death_Abyss_Common",
      "dieShaderData": "MonsterDie",
      "muteHitBox": true,
      "dieDenyLockOn": true,
      "dieIsGhostToEnemy": true,
      "dieIgnoreTriggerBullet": true,
      "muteBillboard": true,
      "mutePushCollider": true
    },
    "animEvents": {
      "AE_NormalAttack_01": {
        "attackPattern": {
          "$type": "ConfigAttackBox",
          "triggerType": "TriggerNoRepeat",
          "born": {
            "$type": "ConfigBornBySelf",
            "offset": {
              "x": 0.27000001072883606,
              "y": 2.3166000843048096,
              "z": 1.6380000114440918
            },
            "direction": {
              "$type": "ConfigDirectionByDefault",
              "angleOffsetCorrect": {
                "x": 0.0,
                "y": -31.73900032043457,
                "z": -12.770000457763672
              }
            }
          },
          "size": {
            "x": 2.5999999046325684,
            "y": 5.570000171661377,
            "z": 3.799999952316284
          }
        },
        "attackInfo": {
          "attackTag": "Darkwraith_Rock_Normal",
          "attenuationTag": "",
          "attenuationGroup": "default",
          "attackProperty": {
            "actorGrassSubHurtDelta": 0.699999988079071,
            "actorWindSubHurtDelta": 0.0,
            "elementDurability": 100.0,
            "strikeType": "Blunt",
            "enBreak": 100.0,
            "GLKMCMDJBIK": 0.0
          },
          "hitPattern": {
            "onHitEffectName": "default",
            "hitImpulseY": "",
            "hitImpulseType": "LV3",
            "hitHaltTime": 0.07000000029802322,
            "hitHaltTimeScale": 0.05000000074505806
          },
          "forceCameraShake": true,
          "cameraShake": {
            "shakeType": "CustomVector",
            "shakeRange": 0.4000000059604645,
            "shakeTime": 0.05000000074505806,
            "shakeDir": {
              "y": 1.0
            }
          }
        }
      },
      "AE_NormalAttack_02": {
        "attackPattern": {
          "$type": "ConfigAttackCircle",
          "triggerType": "TriggerNoRepeat",
          "born": {
            "$type": "ConfigBornBySelf",
            "offset": {
              "x": -0.5,
              "y": 0.0,
              "z": 0.5
            }
          },
          "height": 2.0,
          "fanAngle": 200.0,
          "radius": 4.300000190734863
        },
        "attackInfo": {
          "attackTag": "Darkwraith_Rock_Normal",
          "attenuationTag": "",
          "attenuationGroup": "default",
          "attackProperty": {
            "actorGrassSubHurtDelta": 0.8500000238418579,
            "actorWindSubHurtDelta": 0.0,
            "elementDurability": 100.0,
            "strikeType": "Blunt",
            "enBreak": 150.0,
            "GLKMCMDJBIK": 0.0
          },
          "hitPattern": {
            "onHitEffectName": "default",
            "hitImpulseY": "",
            "hitImpulseType": "LV4",
            "hitHaltTime": 0.07000000029802322,
            "hitHaltTimeScale": 0.05000000074505806
          }
        }
      },
      "AE_NormalAttack_03": {
        "attackPattern": {
          "$type": "ConfigAttackBox",
          "triggerType": "TriggerNoRepeat",
          "born": {
            "$type": "ConfigBornBySelf",
            "offset": {
              "x": -0.25999999046325684,
              "y": 1.0499999523162842,
              "z": 1.4900000095367432
            }
          },
          "size": {
            "x": 2.799999952316284,
            "y": 3.200000047683716,
            "z": 2.799999952316284
          }
        },
        "attackInfo": {
          "attackTag": "Darkwraith_Rock_Normal",
          "attenuationTag": "",
          "attenuationGroup": "default",
          "attackProperty": {
            "actorGrassSubHurtDelta": 1.0,
            "actorWindSubHurtDelta": 0.0,
            "elementDurability": 100.0,
            "strikeType": "Blunt",
            "enBreak": 200.0,
            "GLKMCMDJBIK": 0.0
          },
          "hitPattern": {
            "onHitEffectName": "default",
            "hitImpulseY": "",
            "hitImpulseType": "LV5",
            "retreatType": "ByAttackerForward"
          },
          "forceCameraShake": true,
          "cameraShake": {
            "shakeType": "CustomVector",
            "shakeRange": 0.6000000238418579,
            "shakeTime": 0.07000000029802322,
            "shakeDir": {
              "y": 1.0
            }
          }
        }
      },
      "AE_ShieldAttack": {
        "attackPattern": {
          "$type": "ConfigAttackBox",
          "triggerType": "TriggerNoRepeat",
          "born": {
            "$type": "ConfigBornBySelf",
            "offset": {
              "x": -0.44999998807907104,
              "y": 1.5,
              "z": 1.350000023841858
            }
          },
          "size": {
            "x": 2.5,
            "y": 3.0,
            "z": 1.600000023841858
          }
        },
        "attackInfo": {
          "attackTag": "Darkwraith_Rock_Normal",
          "attenuationTag": "",
          "attenuationGroup": "default",
          "attackProperty": {
            "actorGrassSubHurtDelta": 1.0,
            "actorWindSubHurtDelta": 0.0,
            "elementDurability": 100.0,
            "strikeType": "Blunt",
            "enBreak": 200.0,
            "attackType": "Melee",
            "GLKMCMDJBIK": 0.0
          },
          "hitPattern": {
            "onHitEffectName": "default",
            "hitImpulseY": "",
            "hitImpulseType": "",
            "overrideHitImpulse": {
              "hitLevel": "Air",
              "IMIJMPGJOGG": 850.0,
              "BPCDKKBKOBM": 550.0
            },
            "retreatType": "ByAttackerForward"
          },
          "cameraShake": {
            "shakeType": "CustomVector",
            "shakeRange": 1.899999976158142,
            "shakeTime": 0.25,
            "shakeDir": {
              "z": 1.0
            },
            "extension": {
              "baseCycle": 0.23999999463558197
            }
          }
        }
      },
      "AE_WhirlAttack_01": {
        "attackPattern": {
          "$type": "ConfigAttackCircle",
          "triggerType": "TriggerNoRepeat",
          "born": {
            "$type": "ConfigBornBySelf",
            "offset": {
              "x": -0.10000000149011612,
              "z": 0.15000000596046448
            }
          },
          "height": 2.200000047683716,
          "fanAngle": 270.0,
          "radius": 4.360000133514404
        },
        "attackInfo": {
          "attackTag": "Darkwraith_Rock_Normal",
          "attenuationTag": "",
          "attenuationGroup": "default",
          "attackProperty": {
            "actorGrassSubHurtDelta": 0.75,
            "actorWindSubHurtDelta": 0.0,
            "elementDurability": 100.0,
            "strikeType": "Blunt",
            "enBreak": 100.0,
            "attackType": "Melee",
            "GLKMCMDJBIK": 0.0
          },
          "hitPattern": {
            "onHitEffectName": "default",
            "hitImpulseY": "",
            "hitImpulseType": "LV3"
          }
        }
      },
      "AE_WhirlAttack_02": {
        "attackPattern": {
          "$type": "ConfigAttackCircle",
          "triggerType": "TriggerNoRepeat",
          "born": {
            "$type": "ConfigBornBySelf",
            "offset": {
              "x": -0.44999998807907104,
              "z": -0.5
            }
          },
          "height": 2.200000047683716,
          "fanAngle": 270.0,
          "radius": 5.409999847412109
        },
        "attackInfo": {
          "attackTag": "Darkwraith_Rock_Normal",
          "attenuationTag": "",
          "attenuationGroup": "default",
          "attackProperty": {
            "actorGrassSubHurtDelta": 0.8500000238418579,
            "actorWindSubHurtDelta": 0.0,
            "elementDurability": 100.0,
            "strikeType": "Blunt",
            "enBreak": 200.0,
            "attackType": "Melee",
            "GLKMCMDJBIK": 0.0
          },
          "hitPattern": {
            "onHitEffectName": "default",
            "hitImpulseY": "",
            "hitImpulseType": "LV4"
          }
        }
      },
      "AE_RageAttack01_01": {
        "attackPattern": {
          "$type": "ConfigAttackCircle",
          "triggerType": "TriggerNoRepeat",
          "born": {
            "$type": "ConfigBornBySelf",
            "offset": {
              "x": -0.11999999731779099,
              "z": 0.800000011920929
            }
          },
          "height": 2.200000047683716,
          "fanAngle": 270.0,
          "radius": 4.400000095367432
        },
        "attackInfo": {
          "attackTag": "",
          "attenuationTag": "Darkwraith_Fat_Rock_Whirlwind",
          "attenuationGroup": "Darkwraith_Fat_Rock_Whirlwind",
          "attackProperty": {
            "actorGrassSubHurtDelta": 0.800000011920929,
            "actorWindSubHurtDelta": 0.0,
            "elementType": "Rock",
            "elementDurability": 50.0,
            "strikeType": "Blunt",
            "enBreak": 200.0,
            "attackType": "Melee",
            "GLKMCMDJBIK": 0.0
          },
          "hitPattern": {
            "onHitEffectName": "default",
            "hitImpulseY": "",
            "hitImpulseType": "LV6"
          }
        }
      },
      "AE_RageAttack01_02": {
        "attackPattern": {
          "$type": "ConfigAttackCircle",
          "triggerType": "TriggerNoRepeat",
          "born": {
            "$type": "ConfigBornBySelf",
            "offset": {
              "x": -0.4000000059604645,
              "z": 0.5400000214576721
            }
          },
          "height": 2.200000047683716,
          "fanAngle": 270.0,
          "radius": 5.300000190734863
        },
        "attackInfo": {
          "attackTag": "",
          "attenuationTag": "",
          "attenuationGroup": "default",
          "attackProperty": {
            "actorGrassSubHurtDelta": 1.0,
            "actorWindSubHurtDelta": 0.0,
            "elementType": "Rock",
            "elementDurability": 50.0,
            "strikeType": "Blunt",
            "enBreak": 200.0,
            "attackType": "Melee",
            "GLKMCMDJBIK": 0.0
          },
          "hitPattern": {
            "onHitEffectName": "default",
            "hitImpulseY": "",
            "hitImpulseType": "LV6"
          }
        }
      },
      "AE_RageAttack02": {
        "attackPattern": {
          "$type": "ConfigAttackBox",
          "triggerType": "TriggerNoRepeat",
          "born": {
            "$type": "ConfigBornBySelf",
            "offset": {
              "x": -0.30000001192092896,
              "y": 1.5,
              "z": 0.41999998688697815
            }
          },
          "size": {
            "x": 3.5999999046325684,
            "y": 5.0,
            "z": 4.519999980926514
          }
        },
        "attackInfo": {
          "attackTag": "",
          "attenuationTag": "",
          "attenuationGroup": "default",
          "attackProperty": {
            "actorGrassSubHurtDelta": 1.0,
            "actorWindSubHurtDelta": 0.0,
            "elementType": "Rock",
            "elementDurability": 50.0,
            "strikeType": "Blunt",
            "enBreak": 200.0,
            "attackType": "Melee",
            "GLKMCMDJBIK": 0.0
          },
          "hitPattern": {
            "onHitEffectName": "default",
            "hitImpulseY": "",
            "hitImpulseType": "LV5"
          }
        }
      }
    }
  },
  "equipController": {
    "sheathPoint": "",
    "attachPoints": {
      "equip01": "WeaponR",
      "equip02": "WeaponL"
    }
  },
  "abilities": [
    {
      "abilityID": "",
      "abilityName": "Darkwraith_Fat_Rock_Steer",
      "abilityOverride": ""
    },
    {
      "abilityID": "",
      "abilityName": "Darkwraith_Fat_Rock_Distance_Calc",
      "abilityOverride": ""
    },
    {
      "abilityID": "",
      "abilityName": "Darkwraith_Fat_Rock_Rampage_Controller",
      "abilityOverride": ""
    },
    {
      "abilityID": "",
      "abilityName": "Darkwraith_Fat_Rock_HitShield",
      "abilityOverride": ""
    },
    {
      "abilityID": "",
      "abilityName": "Darkwraith_Fat_Rock_SwitchToShield",
      "abilityOverride": ""
    },
    {
      "abilityID": "",
      "abilityName": "Darkwraith_Fat_Rock_SwitchToDualWielding",
      "abilityOverride": ""
    },
    {
      "abilityID": "",
      "abilityName": "Monster_ForlornVessel_BeHeal",
      "abilityOverride": ""
    },
    {
      "abilityID": "",
      "abilityName": "Monster_Darkwraith_Common_Crystallization_ForJSLY",
      "abilityOverride": ""
    },
    {
      "abilityID": "",
      "abilityName": "Monster_Darkwraith_Fat_Rock_Crystallization_ForJSLY",
      "abilityOverride": ""
    }
  ],
  "stateLayers": {
    "defaultLayer": {
      "$type": "GBGJJIIEMBD",
      "layerIndexName": "",
      "CPAANEIJCGD": "",
      "stateIDs": {
        "NormalIdle": {
          "$type": "NEDIFAKEGCO",
          "animatorStates": {
            "Standby": [],
            "Born": []
          },
          "canDoSkill": true,
          "canSyncMove": true,
          "resetAnimatorTriggerOnExit": ["DoSkill"]
        },
        "NormalMove": {
          "$type": "NEDIFAKEGCO",
          "animatorStates": {
            "WalkForward": ["Audio_Monster_Darkwraith_Fat_Rock_01_Walk"],
            "WalkBack": ["Audio_Monster_Darkwraith_Fat_Rock_01_Walk"],
            "WalkRight": ["Audio_Monster_Darkwraith_Fat_Rock_01_Walk"],
            "WalkLeft": ["Audio_Monster_Darkwraith_Fat_Rock_01_Walk"],
            "ShieldWalkForward": ["Audio_Monster_Darkwraith_Fat_Rock_01_Walk"],
            "ShieldWalkBack": ["Audio_Monster_Darkwraith_Fat_Rock_01_Walk"],
            "ShieldWalkRight": ["Audio_Monster_Darkwraith_Fat_Rock_01_Walk"],
            "ShieldWalkLeft": ["Audio_Monster_Darkwraith_Fat_Rock_01_Walk"],
            "Run": ["Audio_Monster_Darkwraith_Fat_Rock_01_Run"]
          },
          "canDoSkill": true,
          "canSyncMove": true,
          "resetAnimatorTriggerOnExit": ["DoSkill"],
          "canSteer": true
        },
        "Turn": {
          "$type": "NEDIFAKEGCO",
          "animatorStates": {
            "TurnLeft": ["Audio_Monster_Darkwraith_Fat_Rock_01_Walk"],
            "TurnRight": ["Audio_Monster_Darkwraith_Fat_Rock_01_Walk"]
          },
          "canDoSkill": true,
          "canSyncMove": true,
          "resetAnimatorTriggerOnExit": ["DoSkill"],
          "canSteer": true
        },
        "BeHit": {
          "$type": "NEDIFAKEGCO",
          "animatorStates": {
            "Hit_L": [],
            "Hit_H": ["Audio_Monster_Darkwraith_Fat_Rock_01_Hit_H"]
          },
          "resetAnimatorTriggerOnEnter": ["BeHit"],
          "resetAnimatorTriggerOnExit": ["DoSkill"]
        },
        "BeHitThrow": {
          "$type": "NEDIFAKEGCO",
          "animatorStates": {
            "HitThrow": ["Audio_Monster_Darkwraith_Fat_Rock_01_HitThrow"],
            "HitThrowDrop": [],
            "HitThrowToGround": [
              "Audio_Monster_Darkwraith_Fat_Rock_01_HitThrowToGround"
            ]
          },
          "resetAnimatorTriggerOnEnter": ["BeHit", "HitAir2HitDrop"],
          "resetAnimatorTriggerOnExit": ["DoSkill"]
        },
        "Struggle": {
          "$type": "NEDIFAKEGCO",
          "animatorStates": {
            "Struggle": []
          },
          "resetAnimatorTriggerOnEnter": ["BeHit", "HitAir2HitDrop"],
          "resetAnimatorTriggerOnExit": ["DoSkill"]
        },
        "Die": {
          "$type": "NEDIFAKEGCO",
          "animatorStates": {
            "Die": ["Audio_Monster_Darkwraith_Fat_Rock_01_Die"],
            "ShieldDie": ["Audio_Monster_Darkwraith_Fat_Rock_01_ShieldDie"],
            "SwimDie": [],
            "AirDie": []
          },
          "resetAnimatorTriggerOnEnter": ["DoSkill"]
        },
        "Alert": {
          "$type": "NEDIFAKEGCO",
          "animatorStates": {
            "Alert": ["Audio_Monster_Darkwraith_Fat_Rock_01_Alert"]
          }
        },
        "Alert_Turn": {
          "$type": "NEDIFAKEGCO",
          "animatorStates": {
            "Alert_TurnRight": ["Audio_Monster_Darkwraith_Fat_Rock_01_Walk"],
            "Alert_TurnLeft": ["Audio_Monster_Darkwraith_Fat_Rock_01_Walk"]
          }
        },
        "Personality_9001": {
          "$type": "NEDIFAKEGCO",
          "animatorStates": {
            "Personality_9001": [
              "Audio_Monster_Darkwraith_Fat_Rock_01_Personality9001"
            ]
          },
          "canDoSkill": true
        },
        "Personality_9002": {
          "$type": "NEDIFAKEGCO",
          "animatorStates": {
            "Personality_9002": []
          },
          "canDoSkill": true
        },
        "SwitchToShield": {
          "$type": "NEDIFAKEGCO",
          "animatorStates": {
            "RunToShield_AS": [
              "Monster_Darkwraith_Fat_Rock_SwitchToShield",
              "Audio_Monster_Darkwraith_Fat_Rock_01_RunToShield_AS"
            ],
            "SwitchToShieldInPlace": [
              "Monster_Darkwraith_Fat_Rock_SwitchToShieldInPlace",
              "Audio_Monster_Darkwraith_Fat_Rock_01_SwitchToShieldInPlace"
            ]
          },
          "addEndure": 0.0,
          "resetAnimatorTriggerOnExit": ["BeHit", "DoSkill"],
          "canSteer": true
        },
        "RunToShield": {
          "$type": "NEDIFAKEGCO",
          "animatorStates": {
            "RunToShield_BS": [
              "Monster_Darkwraith_Fat_Rock_SwitchToShield_BS",
              "Audio_Monster_Darkwraith_Fat_Rock_01_RunToShield_BS"
            ],
            "RunToShield_BS_Run": [
              "Audio_Monster_Darkwraith_Fat_Rock_01_RunToShield_Run"
            ],
            "RunToShield_Loop": ["Audio_Monster_Darkwraith_Fat_Rock_01_Run"]
          },
          "canSyncMove": true,
          "addEndure": 0.0,
          "resetAnimatorTriggerOnExit": ["BeHit", "DoSkill"],
          "canSteer": true
        },
        "SwitchToDualWielding": {
          "$type": "NEDIFAKEGCO",
          "animatorStates": {
            "ExitToDualWielding": [
              "Monster_Darkwraith_Fat_Rock_SwitchToDualWielding",
              "Audio_Monster_Darkwraith_Fat_Rock_01_SwitchToDualWielding"
            ],
            "SwitchToDualWielding": [
              "Monster_Darkwraith_Fat_Rock_SwitchToDualWielding",
              "Audio_Monster_Darkwraith_Fat_Rock_01_SwitchToDualWielding"
            ]
          }
        },
        "NormalAttack_01": {
          "$type": "NEDIFAKEGCO",
          "animatorStates": {
            "NormalAttack_01": [
              "Monster_Darkwraith_Fat_Rock_NormalAttack_01",
              "Audio_Monster_Darkwraith_Fat_Rock_01_NormalAttack_1"
            ]
          },
          "setAnimatorFloat": [
            {
              "name": "WeaponType",
              "value": 2.0
            }
          ]
        },
        "NormalAttack_02": {
          "$type": "NEDIFAKEGCO",
          "animatorStates": {
            "NormalAttack_02": [
              "Monster_Darkwraith_Fat_Rock_NormalAttack_02",
              "Audio_Monster_Darkwraith_Fat_Rock_01_NormalAttack_2"
            ],
            "NormalAttack_02_AS": [
              "Audio_Monster_Darkwraith_Fat_Rock_01_NormalAttack_2_AS"
            ]
          },
          "setAnimatorFloat": [
            {
              "name": "WeaponType",
              "value": 1.0
            }
          ]
        },
        "NormalAttack_03": {
          "$type": "NEDIFAKEGCO",
          "animatorStates": {
            "NormalAttack_03": [
              "Monster_Darkwraith_Fat_Rock_NormalAttack_03",
              "Audio_Monster_Darkwraith_Fat_Rock_01_NormalAttack_3"
            ]
          },
          "setAnimatorFloat": [
            {
              "name": "WeaponType",
              "value": 1.0
            }
          ]
        },
        "ShieldAttack_BS": {
          "$type": "NEDIFAKEGCO",
          "animatorStates": {
            "ShieldAttack_BS": [
              "Monster_Darkwraith_Fat_Rock_ShieldAttack_BS",
              "Audio_Monster_Darkwraith_Fat_Rock_01_ShieldAttack_BS"
            ]
          }
        },
        "ShieldAttack": {
          "$type": "NEDIFAKEGCO",
          "animatorStates": {
            "ShieldAttack": [
              "Monster_Darkwraith_Fat_Rock_ShieldAttack",
              "Audio_Monster_Darkwraith_Fat_Rock_01_ShieldAttack_Hit"
            ]
          },
          "setAnimatorFloat": [
            {
              "name": "WeaponType",
              "value": 2.0
            }
          ]
        },
        "ShieldAttack_AS": {
          "$type": "NEDIFAKEGCO",
          "animatorStates": {
            "ShieldAttack_AS": [
              "Monster_Darkwraith_Fat_Rock_ShieldAttack_AS",
              "Audio_Monster_Darkwraith_Fat_Rock_01_ShieldAttack_AS"
            ]
          },
          "resetAnimatorTriggerOnExit": ["BeHit", "DoSkill"]
        },
        "WhirlAttack": {
          "$type": "NEDIFAKEGCO",
          "animatorStates": {
            "WhirlAttack": [
              "Monster_Darkwraith_Fat_Rock_WhirlAttack",
              "Monster_Darkwraith_Fat_Rock_WhirlAttack_VFX",
              "Audio_Monster_Darkwraith_Fat_Rock_01_WhirlAttack"
            ]
          },
          "addEndure": 0.0,
          "setAnimatorFloat": [
            {
              "name": "WeaponType",
              "value": 3.0
            }
          ]
        },
        "HitShield": {
          "$type": "NEDIFAKEGCO",
          "animatorStates": {
            "HitShieldL": ["Audio_Monster_Darkwraith_Fat_Rock_01_HitShield"],
            "HitShieldR": ["Audio_Monster_Darkwraith_Fat_Rock_01_HitShield"],
            "HitShieldRage": [
              "Monster_Darkwraith_Fat_Rock_HitShieldRage",
              "Audio_Monster_Darkwraith_Fat_Rock_01_HitShield_Rage"
            ],
            "RageBS": [
              "Monster_Darkwraith_Fat_Rock_RageBS",
              "Audio_Monster_Darkwraith_Fat_Rock_01_Rage_BS"
            ]
          },
          "addEndure": 0.0,
          "resetAnimatorTriggerOnExit": ["BeHit", "DoSkill", "HitShield"]
        },
        "RageAttack": {
          "$type": "NEDIFAKEGCO",
          "animatorStates": {
            "RageAttack01_Trans": [
              "Audio_Monster_Darkwraith_Fat_Rock_01_RageAttack01_Trans"
            ],
            "RageAttack01_SelfTrans": [
              "Audio_Monster_Darkwraith_Fat_Rock_01_RageAttack01_SelfTrans"
            ],
            "RageAttack02_Trans": [
              "Audio_Monster_Darkwraith_Fat_Rock_01_RageAttack02_Trans"
            ]
          },
          "resetAnimatorTriggerOnExit": ["BeHit", "DoSkill"]
        },
        "RageAttack01_BS": {
          "$type": "NEDIFAKEGCO",
          "animatorStates": {
            "RageAttack01_BS": ["Monster_Darkwraith_Fat_Rock_RageAttack01_01"]
          }
        },
        "RageAttack01_Loop": {
          "$type": "NEDIFAKEGCO",
          "animatorStates": {
            "RageAttack01_Loop": ["Monster_Darkwraith_Fat_Rock_RageAttack01_02"]
          }
        },
        "RageAttack01_AS": {
          "$type": "NEDIFAKEGCO",
          "animatorStates": {
            "RageAttack01_AS1": [
              "Monster_Darkwraith_Fat_Rock_RageAttack01_03",
              "Audio_Monster_Darkwraith_Fat_Rock_01_RageAttack01_AS1"
            ]
          }
        },
        "RageAttack02": {
          "$type": "NEDIFAKEGCO",
          "animatorStates": {
            "RageAttack02": [
              "Monster_Darkwraith_Fat_Rock_RageAttack02",
              "Monster_Darkwraith_Fat_Rock_RageAttack02_VFX",
              "Audio_Monster_Darkwraith_Fat_Rock_01_RageAttack02"
            ]
          }
        },
        "RageAttack_Exit": {
          "$type": "NEDIFAKEGCO",
          "animatorStates": {
            "RageAttack01_AS2": ["Monster_Darkwraith_Fat_Rock_RageAttack01_AS"],
            "RageAttack02_AS": []
          }
        },
        "Crystallization": {
          "$type": "NEDIFAKEGCO",
          "animatorStates": {
            "Crystallization": []
          },
          "canDoSkill": true,
          "canSyncMove": true,
          "resetAnimatorTriggerOnExit": ["DoSkill"]
        },
        "Alert_Crystallization": {
          "$type": "NEDIFAKEGCO",
          "animatorStates": {
            "Alert_Crystallization": []
          },
          "cullingModelAlwaysAnimate": true,
          "resetAnimatorTriggerOnEnter": ["BeHit"],
          "resetAnimatorTriggerOnExit": ["DoSkill"]
        },
        "RageAtk_BS_Crystallization": {
          "$type": "NEDIFAKEGCO",
          "animatorStates": {
            "RageAtk_BS_Crystallization": [
              "Monster_Darkwraith_Fat_Rock_RageBS",
              "Audio_Monster_Darkwraith_Fat_Rock_01_Rage_BS"
            ]
          },
          "resetAnimatorTriggerOnExit": ["BeHit", "DoSkill"]
        }
      }
    }
  },
  "billboard": {
    "$type": "DNGNMAJBCNP",
    "attachPoint": "BillboardAttach",
    "offset": {
      "y": -0.20000000298023224
    },
    "offsetType": "Character",
    "radiusOffset": 0.5,
    "showHPBar": true,
    "size": "Big"
  },
  "initialPoses": {
    "Default": {},
    "Crystallization": {
      "initialPoseID": 9003,
      "initialPoseParams": {
        "boolParams": {
          "Crystallization": "true"
        }
      }
    }
  },
  "aibeta": {
    "enable": true,
    "moveSetting": {
      "navMeshAgentName": "Undead01",
      "almostReachedDistanceRun": 1.5
    },
    "aiCombat": {
      "combatRole": "FIGHTER"
    },
    "buddySetting": {
      "enable": true,
      "buddyFeatureTagIDs": [4013, 4014]
    },
    "sensing": {
      "settings": {
        "DefaultSetting": {
          "viewRange": 25.0,
          "feelRange": 10.0
        },
        "Crystallization": {
          "enableVision": false,
          "hearAttractionRange": 0.0,
          "feelRange": 0.0
        }
      },
      "templates": {
        "DefaultTemplate": {
          "DefaultPoses": "DefaultSetting"
        },
        "Crystallization": {
          "DefaultPoses": "DefaultSetting",
          "9003": "Crystallization"
        }
      }
    },
    "neurons": {
      "DefaultSetting": ["HIT"],
      "Crystallization": []
    },
    "threat": {
      "GHIJMOKOLMB": "",
      "clearThreatByLostPath": true,
      "clearThreatTimerByLostPath": 20.0,
      "viewAttenuation": [
        {
          "x": 10.0,
          "y": 2.0
        },
        {
          "x": 15.0,
          "y": 0.800000011920929
        },
        {
          "x": 20.0,
          "y": 0.5
        },
        {
          "x": 25.0,
          "y": 0.30000001192092896
        },
        {
          "x": 30.0,
          "y": 0.20000000298023224
        }
      ],
      "resistTauntLevel": "Monster_TauntLevel_2"
    },
    "defendArea": {
      "defendRange": 50.0
    },
    "skillGroupCDConfigs": [
      {
        "skillGroupCDID": 1,
        "skillGroupCDTime": 11.0
      },
      {
        "skillGroupCDID": 2,
        "skillGroupCDTime": 21.0
      },
      {
        "skillGroupCDID": 3,
        "skillGroupCDTime": 13.0
      }
    ],
    "skills": {
      "101": {
        "name": "OnAlert",
        "skillType": "OnAlert",
        "faceTarget": true,
        "castCondition": {
          "pose": [1]
        },
        "publicCDGroup": "",
        "ignoreGCD": true,
        "triggerGCD": false,
        "HHAGODJIAPE": "",
        "stateIDs": ["Alert"],
        "skillQueryingTime": 3.0,
        "flagTargetReachable": "10",
        "flagSelfOnTemplateCollider": "01",
        "flagSelfInZone": "10",
        "flagTargetInZone": "11"
      },
      "211": {
        "name": "SwitchToDualWielding",
        "priority": 1,
        "castCondition": {
          "pose": [200]
        },
        "publicCDGroup": "",
        "ignoreGCD": true,
        "triggerGCD": false,
        "HHAGODJIAPE": "",
        "stateIDs": ["SwitchToDualWielding"],
        "flagTargetReachable": "11",
        "flagSelfOnTemplateCollider": "11",
        "flagSelfInZone": "11",
        "flagTargetInZone": "11"
      },
      "212": {
        "name": "SwitchToDualWielding",
        "skillType": "Free",
        "priority": 1,
        "castCondition": {
          "pose": [200]
        },
        "publicCDGroup": "",
        "ignoreGCD": true,
        "triggerGCD": false,
        "HHAGODJIAPE": "",
        "stateIDs": ["SwitchToDualWielding"],
        "flagTargetReachable": "10",
        "flagSelfOnTemplateCollider": "01",
        "flagSelfInZone": "10",
        "flagTargetInZone": "11"
      },
      "301": {
        "name": "NormalAttack",
        "combatSkillType": "MeleeAttack",
        "priority": 2,
        "castCondition": {
          "pose": [101],
          "maxTargetAngleXZ": 150.0,
          "pickRangeMax": 4.75
        },
        "cd": 13.0,
        "publicCDGroup": "",
        "skillGroupCDID": 1,
        "HHAGODJIAPE": "",
        "stateIDs": [
          "NormalAttack_01",
          "NormalAttack_02",
          "NormalAttack_03",
          "RageAttack",
          "RageAttack01_BS",
          "RageAttack01_Loop",
          "RageAttack01_AS",
          "RageAttack02",
          "RageAttack_Exit",
          "HitShield"
        ],
        "flagTargetReachable": "11",
        "flagSelfOnTemplateCollider": "11",
        "flagSelfInZone": "11",
        "flagTargetInZone": "11"
      },
      "302": {
        "name": "NormalAttack",
        "combatSkillType": "MeleeAttack",
        "priority": 3,
        "enableSkillPrepare": true,
        "skillPrepareTimeout": 4.0,
        "skillPrepareGiveUp": true,
        "castCondition": {
          "pose": [101],
          "pickRangeMin": 6.0,
          "pickRangeMax": 15.0,
          "castRangeMax": 6.0
        },
        "cd": 13.0,
        "publicCDGroup": "",
        "skillGroupCDID": 1,
        "HHAGODJIAPE": "",
        "stateIDs": [
          "NormalAttack_01",
          "NormalAttack_02",
          "NormalAttack_03",
          "RageAttack",
          "RageAttack01_BS",
          "RageAttack01_Loop",
          "RageAttack01_AS",
          "RageAttack02",
          "RageAttack_Exit",
          "HitShield"
        ],
        "flagTargetReachable": "10",
        "flagSelfOnTemplateCollider": "11",
        "flagSelfInZone": "11",
        "flagTargetInZone": "11"
      },
      "401": {
        "name": "WhirlAttack",
        "combatSkillType": "MeleeAttack",
        "priority": 2,
        "castCondition": {
          "pose": [101],
          "pickRangeMax": 5.0
        },
        "cd": 22.0,
        "cdUpperRange": 6.0,
        "initialCD": 7.0,
        "publicCDGroup": "",
        "skillGroupCDID": 2,
        "HHAGODJIAPE": "",
        "stateIDs": [
          "WhirlAttack",
          "RageAttack",
          "RageAttack01_BS",
          "RageAttack01_Loop",
          "RageAttack01_AS",
          "RageAttack02",
          "RageAttack_Exit",
          "HitShield"
        ],
        "flagTargetReachable": "11",
        "flagSelfOnTemplateCollider": "11",
        "flagSelfInZone": "11",
        "flagTargetInZone": "11"
      },
      "402": {
        "name": "WhirlAttack",
        "combatSkillType": "MeleeAttack",
        "priority": 3,
        "enableSkillPrepare": true,
        "skillPrepareTimeout": 4.0,
        "skillPrepareGiveUp": true,
        "castCondition": {
          "pose": [101],
          "pickRangeMin": 6.0,
          "pickRangeMax": 15.0,
          "castRangeMax": 6.0
        },
        "cd": 22.0,
        "cdUpperRange": 6.0,
        "initialCD": 7.0,
        "publicCDGroup": "",
        "skillGroupCDID": 2,
        "HHAGODJIAPE": "",
        "stateIDs": [
          "WhirlAttack",
          "RageAttack",
          "RageAttack01_BS",
          "RageAttack01_Loop",
          "RageAttack01_AS",
          "RageAttack02",
          "RageAttack_Exit",
          "HitShield"
        ],
        "flagTargetReachable": "10",
        "flagSelfOnTemplateCollider": "11",
        "flagSelfInZone": "11",
        "flagTargetInZone": "11"
      },
      "501": {
        "name": "ShieldAttack",
        "combatSkillType": "MeleeAttack",
        "priority": 2,
        "castCondition": {
          "pose": [101],
          "maxTargetAngleXZ": 90.0,
          "pickRangeMax": 4.75
        },
        "cd": 17.0,
        "publicCDGroup": "",
        "skillGroupCDID": 3,
        "HHAGODJIAPE": "",
        "stateIDs": [
          "ShieldAttack_BS",
          "ShieldAttack",
          "ShieldAttack_AS",
          "RageAttack",
          "RageAttack01_BS",
          "RageAttack01_Loop",
          "RageAttack01_AS",
          "RageAttack02",
          "RageAttack_Exit",
          "HitShield"
        ],
        "flagTargetReachable": "11",
        "flagSelfOnTemplateCollider": "11",
        "flagSelfInZone": "11",
        "flagTargetInZone": "11"
      },
      "502": {
        "name": "ShieldAttack",
        "combatSkillType": "MeleeAttack",
        "priority": 3,
        "enableSkillPrepare": true,
        "skillPrepareTimeout": 4.0,
        "skillPrepareGiveUp": true,
        "castCondition": {
          "pose": [101],
          "pickRangeMin": 6.0,
          "pickRangeMax": 15.0,
          "castRangeMax": 6.0
        },
        "cd": 17.0,
        "publicCDGroup": "",
        "skillGroupCDID": 3,
        "HHAGODJIAPE": "",
        "stateIDs": [
          "ShieldAttack_BS",
          "ShieldAttack",
          "ShieldAttack_AS",
          "RageAttack",
          "RageAttack01_BS",
          "RageAttack01_Loop",
          "RageAttack01_AS",
          "RageAttack02",
          "RageAttack_Exit",
          "HitShield"
        ],
        "flagTargetReachable": "10",
        "flagSelfOnTemplateCollider": "11",
        "flagSelfInZone": "11",
        "flagTargetInZone": "11"
      },
      "601": {
        "name": "WhirlAttack",
        "combatSkillType": "MeleeAttack",
        "priority": 2,
        "castCondition": {
          "pose": [301],
          "pickRangeMax": 5.0
        },
        "cd": 22.0,
        "cdUpperRange": 6.0,
        "initialCD": 7.0,
        "publicCDGroup": "",
        "skillGroupCDID": 2,
        "HHAGODJIAPE": "",
        "stateIDs": [
          "RageAtk_BS_Crystallization",
          "WhirlAttack",
          "RageAttack",
          "RageAttack01_BS",
          "RageAttack01_Loop",
          "RageAttack01_AS",
          "RageAttack02",
          "RageAttack_Exit",
          "HitShield"
        ],
        "flagTargetReachable": "11",
        "flagSelfOnTemplateCollider": "11",
        "flagSelfInZone": "11",
        "flagTargetInZone": "11"
      },
      "602": {
        "name": "WhirlAttack",
        "combatSkillType": "MeleeAttack",
        "priority": 3,
        "enableSkillPrepare": true,
        "skillPrepareTimeout": 4.0,
        "skillPrepareGiveUp": true,
        "castCondition": {
          "pose": [301],
          "pickRangeMin": 6.0,
          "pickRangeMax": 15.0,
          "castRangeMax": 6.0
        },
        "cd": 22.0,
        "cdUpperRange": 6.0,
        "initialCD": 7.0,
        "publicCDGroup": "",
        "skillGroupCDID": 2,
        "HHAGODJIAPE": "",
        "stateIDs": [
          "RageAtk_BS_Crystallization",
          "WhirlAttack",
          "RageAttack",
          "RageAttack01_BS",
          "RageAttack01_Loop",
          "RageAttack01_AS",
          "RageAttack02",
          "RageAttack_Exit",
          "HitShield"
        ],
        "flagTargetReachable": "10",
        "flagSelfOnTemplateCollider": "11",
        "flagSelfInZone": "11",
        "flagTargetInZone": "11"
      },
      "611": {
        "name": "NormalAttack",
        "combatSkillType": "MeleeAttack",
        "priority": 2,
        "castCondition": {
          "pose": [301],
          "maxTargetAngleXZ": 150.0,
          "pickRangeMax": 4.75
        },
        "cd": 13.0,
        "publicCDGroup": "",
        "skillGroupCDID": 1,
        "HHAGODJIAPE": "",
        "stateIDs": [
          "RageAtk_BS_Crystallization",
          "NormalAttack_01",
          "NormalAttack_02",
          "NormalAttack_03",
          "RageAttack",
          "RageAttack01_BS",
          "RageAttack01_Loop",
          "RageAttack01_AS",
          "RageAttack02",
          "RageAttack_Exit",
          "HitShield"
        ],
        "flagTargetReachable": "11",
        "flagSelfOnTemplateCollider": "11",
        "flagSelfInZone": "11",
        "flagTargetInZone": "11"
      },
      "612": {
        "name": "NormalAttack",
        "combatSkillType": "MeleeAttack",
        "priority": 3,
        "enableSkillPrepare": true,
        "skillPrepareTimeout": 4.0,
        "skillPrepareGiveUp": true,
        "castCondition": {
          "pose": [301],
          "pickRangeMin": 6.0,
          "pickRangeMax": 15.0,
          "castRangeMax": 6.0
        },
        "cd": 13.0,
        "publicCDGroup": "",
        "skillGroupCDID": 1,
        "HHAGODJIAPE": "",
        "stateIDs": [
          "RageAtk_BS_Crystallization",
          "NormalAttack_01",
          "NormalAttack_02",
          "NormalAttack_03",
          "RageAttack",
          "RageAttack01_BS",
          "RageAttack01_Loop",
          "RageAttack01_AS",
          "RageAttack02",
          "RageAttack_Exit",
          "HitShield"
        ],
        "flagTargetReachable": "10",
        "flagSelfOnTemplateCollider": "11",
        "flagSelfInZone": "11",
        "flagTargetInZone": "11"
      },
      "9001": {
        "name": "Personality_9001",
        "skillType": "Free",
        "castCondition": {
          "pose": [1]
        },
        "initialCD": 2.0,
        "initialCDUpperRange": 5.0,
        "publicCDGroup": "",
        "ignoreGCD": true,
        "triggerGCD": false,
        "skillGroupCDID": 1,
        "HHAGODJIAPE": "",
        "stateIDs": ["Personality_9001"],
        "flagTargetReachable": "10",
        "flagSelfOnTemplateCollider": "01",
        "flagSelfInZone": "10",
        "flagTargetInZone": "11"
      },
      "9002": {
        "name": "Personality_9002",
        "skillType": "Free",
        "castCondition": {
          "pose": [1]
        },
        "initialCD": 2.0,
        "initialCDUpperRange": 5.0,
        "publicCDGroup": "",
        "ignoreGCD": true,
        "triggerGCD": false,
        "skillGroupCDID": 1,
        "HHAGODJIAPE": "",
        "stateIDs": ["Personality_9002"],
        "flagTargetReachable": "10",
        "flagSelfOnTemplateCollider": "01",
        "flagSelfInZone": "10",
        "flagTargetInZone": "11"
      }
    },
    "skillGCD": 1.75,
    "birdCirclingTactic": [
      {
        "$type": "BCHFFJNLKAF",
        "enable": true,
        "condition": {
          "pose": [101, 102, 100, 200, 201, 202]
        },
        "JMCOBEPDIGM": {
          "KCNGOEKFOJO": 5.25,
          "OGBHGGLKCMI": 5.0,
          "BBMHOEENECN": 1.5,
          "DMGAHPPFMPK": 0.30000001192092896,
          "MADPLKLMBPE": {
            "IFEEGAGMMKN": 4.0,
            "IAAHEMBHLFH": 80.0
          },
          "NAPENIMMJJK": 14.0,
          "MEELEKIICCM": {
            "buddyScoring": {
              "distFactor": -1.0,
              "roleScores": [0.0, 0.0, 2.0, 4.0]
            }
          }
        }
      },
      {
        "$type": "EPHBMLFODKF",
        "enable": true,
        "condition": {
          "pose": [101, 301]
        },
        "JMCOBEPDIGM": {
          "rangeMax": 5.0,
          "BFJBDDIIFOI": {
            "LLICGJHIGME": 1.5,
            "AEBLMKFNCDG": 3.0,
            "IGLIBIOEGBB": 1.5
          },
          "NAOBMNGDKHL": "1111",
          "JCNIJOAIGII": "1111",
          "MNPDDAKDHGK": ""
        }
      },
      {
        "$type": "KACCHOLJDNK",
        "enable": true,
        "condition": {
          "pose": [101, 301]
        },
        "JMCOBEPDIGM": {
          "NBENNEKDIIA": 5.0,
          "KHDFDAAAPEI": 10.0,
          "GGEBMFHFBPO": 4.5,
          "KFFGCIMPNMJ": 6.0,
          "MNPDDAKDHGK": ""
        }
      },
      {
        "$type": "NNJKLGNPMNN",
        "enable": true,
        "JMCOBEPDIGM": {
          "MNPDDAKDHGK": "",
          "GJDMDHIBCME": ""
        }
      },
      {
        "$type": "FPELBIJFGCE",
        "enable": true,
        "condition": {
          "pose": [1]
        },
        "JMCOBEPDIGM": {
          "NBENNEKDIIA": 1.0,
          "KPNDPKIOPJM": 12.0,
          "PINAFKEDDLL": 7.0,
          "ANMPOPEBDIA": 13.0,
          "GMJFIMFFOEL": 4.0,
          "CHCPFDMADEI": 6.0,
          "MNPDDAKDHGK": ""
        }
      }
    ]
  },
  "inputKeys": [
    {
      "keyID": 211,
      "inputKeyCode": 258,
      "abilityName": ""
    },
    {
      "keyID": 301,
      "inputKeyCode": 259,
      "abilityName": ""
    },
    {
      "keyID": 401,
      "inputKeyCode": 260,
      "abilityName": ""
    },
    {
      "keyID": 501,
      "inputKeyCode": 261,
      "abilityName": ""
    }
  ],
  "move": {
    "$type": "IPNMJMHDMPF",
    "facingMove": "FourDirection",
    "monsterSizeType": "StrongHumanoidType",
    "positionModifyState": "Walk",
    "yawSpeedRatio": 3.75,
    "PKHOMJHFAEE": "RootNode"
  },
  "audio": {
    "overrideEmitterName": "",
    "animAudio": {
      "onTransitionIn": [
        {
          "currentStateName": "RageAttack01_Loop",
          "audioEvent": {
            "text": "Play_sfx_monster_Darkwraith_Fat_Rock_01_rageAttack01_Loop"
          },
          "otherStateNames": ["RageAttack01_Loop"],
          "usage": "Except"
        },
        {
          "currentStateName": "RageAttack01_BS",
          "audioEvent": {
            "text": "Play_sfx_monster_Darkwraith_Fat_Rock_01_rageAttack01_BS"
          },
          "otherStateNames": ["RageAttack01_SelfTrans", "RageAttack02_Trans"],
          "usage": "Except"
        },
        {
          "currentStateName": "RageAttack01_SelfTrans",
          "audioEvent": {
            "text": "Stop_sfx_monster_Darkwraith_Fat_Rock_01_rageAttack01_AS1"
          }
        },
        {
          "currentStateName": "RageAttack01_Trans",
          "audioEvent": {
            "text": "Stop_sfx_monster_Darkwraith_Fat_Rock_01_rageAttack01_AS1"
          }
        },
        {
          "currentStateName": "RageAttack02_Trans",
          "audioEvent": {
            "text": "Stop_sfx_monster_Darkwraith_Fat_Rock_01_rageAttack02"
          }
        }
      ],
      "onTransitionOut": [
        {
          "currentStateName": "RageAttack01_Loop",
          "audioEvent": {
            "text": "Stop_sfx_monster_Darkwraith_Fat_Rock_01_rageAttack01_Loop"
          },
          "otherStateNames": ["RageAttack01_Loop"],
          "usage": "Except"
        }
      ]
    }
  }
}
