{
  "common": {
    "effectAttachShape": {
      "$type": "FJNPJANPGGC",
      "mesh": "EffectMesh"
    },
    "mass": 1000000.0,
    "height": 8.0,
    "affectedByWorld": true,
    "checkInSurface": true,
    "clearAIOnSetLightDeactive": true,
    "reconnectSupport": true,
    "recoverByInitPose": true
  },
  "specialPoint": {
    "elementAbsorb": "RootNode",
    "elementPendant": "",
    "elementDrop": "RootNode",
    "bulletAim": "Fruit",
    "selectedPoints": ["Fruit", "Core", "RootNode"]
  },
  "combat": {
    "property": {
      "endureType": "Monster_Boss_Other",
      "weight": 300.0
    },
    "beHit": {
      "hitBloodEffect": "",
      "muteAllHitEffect": true,
      "blendShake": {
        "$type": "HNNFKJBHGCC",
        "shakeFlagMap": [
          {
            "hitBoxNames": ["HitBox_Core_Lockable"]
          },
          {
            "hitBoxNames": ["HitBox_Core_Critical"]
          },
          {
            "shakeFlag": 0.20000000298023224,
            "hitBoxNames": ["HitBox_Core"]
          },
          {
            "shakeFlag": 0.20000000298023224,
            "hitBoxNames": ["HitBox_Core_Critical_Lockable"]
          },
          {
            "shakeFlag": 0.4000000059604645,
            "hitBoxNames": ["HitBox_Base"]
          },
          {
            "shakeFlag": 0.6000000238418579,
            "hitBoxNames": ["HitBox_Fruit"]
          },
          {
            "shakeFlag": 0.800000011920929,
            "hitBoxNames": ["HitBox_BranchL"]
          },
          {
            "shakeFlag": 1.0,
            "hitBoxNames": ["HitBox_BranchR"]
          }
        ]
      }
    },
    "combatLock": {
      "lockShape": "CircleLockEnemy",
      "lockType": "Avatar&Monster_Lv4"
    },
    "die": {
      "hasAnimatorDie": true,
      "dieEndTime": 2.0,
      "dieForceDisappearTime": 4.0,
      "dieDisappearEffect": "Eff_Death_Common",
      "dieShaderData": "MonsterDie",
      "muteHitBox": true,
      "dieDenyLockOn": true,
      "dieIsGhostToEnemy": true,
      "dieIgnoreTriggerBullet": true,
      "muteBillboard": true,
      "mutePushCollider": true
    },
    "animEvents": {
      "MeleeAtk_Wave": {
        "attackPattern": {
          "$type": "ConfigAttackBox",
          "triggerType": "TriggerNoRepeat",
          "born": {
            "$type": "ConfigBornByTarget",
            "offset": {
              "x": 0.0,
              "y": 1.0,
              "z": 2.5
            }
          },
          "size": {
            "x": 4.0,
            "y": 2.0,
            "z": 4.0
          }
        },
        "attackInfo": {
          "attackTag": "",
          "attenuationTag": "",
          "attenuationGroup": "default",
          "attackProperty": {
            "actorGrassSubHurtDelta": 1.0,
            "actorWindSubHurtDelta": 0.0,
            "elementType": "Electric",
            "elementDurability": 100.0,
            "strikeType": "Blunt",
            "enBreak": 200.0,
            "attackType": "Melee",
            "GLKMCMDJBIK": 0.0
          },
          "hitPattern": {
            "onHitEffectName": "default",
            "hitImpulseY": "",
            "hitImpulseType": "LV5",
            "hitHaltTimeScale": 0.009999999776482582
          },
          "forceCameraShake": true,
          "cameraShake": {
            "shakeType": "CustomVector",
            "shakeRange": 1.0,
            "shakeTime": 0.15000000596046448,
            "shakeDistance": 25.0,
            "shakeDir": {
              "y": -1.0
            }
          }
        }
      },
      "MeleeAtk02": {
        "attackPattern": {
          "$type": "ConfigAttackCircle",
          "triggerType": "TriggerNoRepeat",
          "born": {
            "$type": "ConfigBornBySelf",
            "offset": {
              "x": 0.0,
              "y": 0.0,
              "z": 0.0
            },
            "direction": {
              "$type": "ConfigDirectionByEntity",
              "angleOffset": {
                "x": 0.0,
                "y": 270.0,
                "z": 0.0
              }
            }
          },
          "height": 6.0,
          "fanAngle": 210.0,
          "radius": 9.0
        },
        "attackInfo": {
          "attackTag": "",
          "attenuationTag": "",
          "attenuationGroup": "default",
          "attackProperty": {
            "actorGrassSubHurtDelta": 0.75,
            "actorWindSubHurtDelta": 0.0,
            "elementType": "Electric",
            "elementDurability": 100.0,
            "strikeType": "Default",
            "enBreak": 200.0,
            "attackType": "Melee",
            "GLKMCMDJBIK": 0.0
          },
          "hitPattern": {
            "onHitEffectName": "default",
            "hitImpulseY": "",
            "hitImpulseType": "LV5",
            "hitHaltTimeScale": 0.009999999776482582
          },
          "forceCameraShake": true,
          "cameraShake": {
            "shakeType": "CustomVector",
            "shakeRange": 3.0,
            "shakeTime": 0.15000000596046448,
            "shakeDistance": 25.0,
            "shakeDir": {
              "x": 1.0
            }
          }
        }
      },
      "MeleeAtk02_Reverse": {
        "attackPattern": {
          "$type": "ConfigAttackCircle",
          "triggerType": "TriggerNoRepeat",
          "born": {
            "$type": "ConfigBornBySelf",
            "offset": {
              "x": 0.0,
              "y": 0.0,
              "z": 0.0
            },
            "direction": {
              "$type": "ConfigDirectionByEntity",
              "angleOffset": {
                "x": 0.0,
                "y": -270.0,
                "z": 0.0
              }
            }
          },
          "height": 6.0,
          "fanAngle": 210.0,
          "radius": 9.0
        },
        "attackInfo": {
          "attackTag": "",
          "attenuationTag": "",
          "attenuationGroup": "default",
          "attackProperty": {
            "actorGrassSubHurtDelta": 0.75,
            "actorWindSubHurtDelta": 0.0,
            "elementType": "Electric",
            "elementDurability": 100.0,
            "strikeType": "Blunt",
            "enBreak": 200.0,
            "attackType": "Melee",
            "GLKMCMDJBIK": 0.0
          },
          "hitPattern": {
            "onHitEffectName": "default",
            "hitImpulseY": "",
            "hitImpulseType": "LV5",
            "hitHaltTimeScale": 0.009999999776482582
          },
          "forceCameraShake": true,
          "cameraShake": {
            "shakeType": "CustomVector",
            "shakeRange": 1.5,
            "shakeTime": 0.30000001192092896,
            "shakeDistance": 25.0,
            "shakeDir": {
              "x": -1.0
            }
          }
        }
      },
      "MeleeAtk03": {
        "attackPattern": {
          "$type": "ConfigAttackCircle",
          "triggerType": "TriggerNoRepeat",
          "born": {
            "$type": "ConfigBornBySelf",
            "offset": {
              "x": 0.0,
              "y": 0.0,
              "z": 0.0
            }
          },
          "height": 6.0,
          "radius": 10.0
        },
        "attackInfo": {
          "attackTag": "",
          "attenuationTag": "Regisvine_MeleeAttack03",
          "attenuationGroup": "Regisvine_Common",
          "attackProperty": {
            "actorGrassSubHurtDelta": 0.75,
            "actorWindSubHurtDelta": 0.0,
            "elementType": "Electric",
            "elementDurability": 100.0,
            "strikeType": "Blunt",
            "enBreak": 200.0,
            "GLKMCMDJBIK": 0.0
          },
          "hitPattern": {
            "onHitEffectName": "default",
            "hitImpulseY": "",
            "hitImpulseType": "LV5",
            "hitHaltTimeScale": 0.009999999776482582
          },
          "forceCameraShake": true,
          "cameraShake": {
            "shakeType": "CustomVector",
            "shakeRange": 1.0,
            "shakeTime": 0.15000000596046448,
            "shakeDistance": 25.0,
            "shakeDir": {
              "y": -1.0
            }
          }
        }
      },
      "RevengeAtk_Begin": {
        "attackPattern": {
          "$type": "ConfigAttackBox",
          "triggerType": "TriggerNoRepeat",
          "born": {
            "$type": "ConfigBornBySelf",
            "offset": {
              "x": 3.0,
              "y": 1.0,
              "z": -1.5
            },
            "direction": {
              "$type": "ConfigDirectionByEntity",
              "angleOffset": {
                "x": 0.0,
                "y": 90.0,
                "z": 0.0
              }
            }
          },
          "size": {
            "x": 6.0,
            "y": 2.0,
            "z": 8.0
          }
        },
        "attackInfo": {
          "attackTag": "",
          "attenuationTag": "",
          "attenuationGroup": "default",
          "attackProperty": {
            "actorGrassSubHurtDelta": 0.75,
            "actorWindSubHurtDelta": 0.0,
            "elementType": "Electric",
            "elementDurability": 100.0,
            "strikeType": "Blunt",
            "enBreak": 200.0,
            "GLKMCMDJBIK": 0.0
          },
          "hitPattern": {
            "onHitEffectName": "default",
            "hitImpulseY": "",
            "hitImpulseType": "LV5",
            "hitHaltTimeScale": 0.009999999776482582
          },
          "forceCameraShake": true,
          "cameraShake": {
            "shakeType": "CustomVector",
            "shakeRange": 1.0,
            "shakeTime": 0.15000000596046448,
            "shakeDistance": 25.0,
            "shakeDir": {
              "y": -1.0
            }
          }
        }
      },
      "RevengeAtk": {
        "attackPattern": {
          "$type": "ConfigAttackCircle",
          "triggerType": "TriggerNoRepeat",
          "born": {
            "$type": "ConfigBornBySelf",
            "offset": {
              "x": 0.0,
              "y": 0.0,
              "z": 0.0
            },
            "direction": {
              "$type": "ConfigDirectionByEntity",
              "angleOffset": {
                "x": 0.0,
                "y": 0.0,
                "z": 0.0
              }
            }
          },
          "height": 6.0,
          "radius": 12.5
        },
        "attackInfo": {
          "attackTag": "",
          "attenuationTag": "",
          "attenuationGroup": "default",
          "attackProperty": {
            "actorGrassSubHurtDelta": 0.75,
            "actorWindSubHurtDelta": 0.0,
            "elementType": "Electric",
            "elementDurability": 100.0,
            "strikeType": "Default",
            "enBreak": 200.0,
            "GLKMCMDJBIK": 0.0
          },
          "hitPattern": {
            "onHitEffectName": "default",
            "hitImpulseY": "",
            "hitImpulseType": "LV5",
            "hitHaltTimeScale": 0.009999999776482582
          },
          "forceCameraShake": true,
          "cameraShake": {
            "shakeType": "CustomVector",
            "shakeRange": 1.0,
            "shakeTime": 1.0,
            "shakeDistance": 25.0,
            "shakeDir": {
              "x": 1.0
            }
          }
        }
      },
      "MeleeCmbo01_Begin": {
        "attackPattern": {
          "$type": "ConfigAttackBox",
          "triggerType": "TriggerNoRepeat",
          "born": {
            "$type": "ConfigBornBySelf",
            "offset": {
              "x": -2.0,
              "y": 0.0,
              "z": 3.0
            },
            "direction": {
              "$type": "ConfigDirectionByEntity",
              "angleOffset": {
                "x": 0.0,
                "y": 270.0,
                "z": 0.0
              }
            }
          },
          "size": {
            "x": 4.0,
            "y": 2.0,
            "z": 6.0
          }
        },
        "attackInfo": {
          "attackTag": "",
          "attenuationTag": "",
          "attenuationGroup": "default",
          "attackProperty": {
            "actorGrassSubHurtDelta": 0.75,
            "actorWindSubHurtDelta": 0.0,
            "elementType": "Electric",
            "elementDurability": 100.0,
            "strikeType": "Blunt",
            "enBreak": 200.0,
            "attackType": "Melee",
            "GLKMCMDJBIK": 0.0
          },
          "hitPattern": {
            "onHitEffectName": "default",
            "hitImpulseY": "",
            "hitImpulseType": "LV5",
            "hitHaltTimeScale": 0.009999999776482582
          },
          "forceCameraShake": true,
          "cameraShake": {
            "shakeType": "CustomVector",
            "shakeRange": 1.0,
            "shakeTime": 0.15000000596046448,
            "shakeDistance": 25.0,
            "shakeDir": {
              "y": -1.0
            }
          }
        }
      },
      "MeleeCmbo01": {
        "attackPattern": {
          "$type": "ConfigAttackCircle",
          "triggerType": "TriggerNoRepeat",
          "born": {
            "$type": "ConfigBornBySelf",
            "offset": {
              "x": 0.0,
              "y": 0.0,
              "z": 0.0
            },
            "direction": {
              "$type": "ConfigDirectionByEntity",
              "angleOffset": {
                "x": 0.0,
                "y": 15.0,
                "z": 0.0
              }
            }
          },
          "height": 6.0,
          "fanAngle": 150.0,
          "radius": 10.0
        },
        "attackInfo": {
          "attackTag": "",
          "attenuationTag": "",
          "attenuationGroup": "default",
          "attackProperty": {
            "actorGrassSubHurtDelta": 0.75,
            "actorWindSubHurtDelta": 0.0,
            "elementType": "Electric",
            "elementDurability": 100.0,
            "strikeType": "Blunt",
            "enBreak": 200.0,
            "attackType": "Melee",
            "GLKMCMDJBIK": 0.0
          },
          "hitPattern": {
            "onHitEffectName": "default",
            "hitImpulseY": "",
            "hitImpulseType": "LV5",
            "hitHaltTimeScale": 0.009999999776482582
          },
          "forceCameraShake": true,
          "cameraShake": {
            "shakeType": "CustomVector",
            "shakeRange": 1.0,
            "shakeTime": 0.5,
            "shakeDistance": 25.0,
            "shakeDir": {
              "x": -1.0
            }
          }
        }
      },
      "MeleeCmbo02_Begin": {
        "attackPattern": {
          "$type": "ConfigAttackBox",
          "triggerType": "TriggerNoRepeat",
          "born": {
            "$type": "ConfigBornBySelf",
            "offset": {
              "x": 1.5,
              "y": 0.0,
              "z": 2.5
            },
            "direction": {
              "$type": "ConfigDirectionByEntity",
              "angleOffset": {
                "x": 0.0,
                "y": 90.0,
                "z": 0.0
              }
            }
          },
          "size": {
            "x": 4.0,
            "y": 2.0,
            "z": 6.0
          }
        },
        "attackInfo": {
          "attackTag": "",
          "attenuationTag": "",
          "attenuationGroup": "default",
          "attackProperty": {
            "actorGrassSubHurtDelta": 0.75,
            "actorWindSubHurtDelta": 0.0,
            "elementType": "Electric",
            "elementDurability": 100.0,
            "strikeType": "Blunt",
            "enBreak": 200.0,
            "attackType": "Melee",
            "GLKMCMDJBIK": 0.0
          },
          "hitPattern": {
            "onHitEffectName": "default",
            "hitImpulseY": "",
            "hitImpulseType": "LV5",
            "hitHaltTimeScale": 0.009999999776482582
          },
          "forceCameraShake": true,
          "cameraShake": {
            "shakeType": "CustomVector",
            "shakeRange": 1.0,
            "shakeTime": 0.15000000596046448,
            "shakeDistance": 25.0,
            "shakeDir": {
              "y": -1.0
            }
          }
        }
      },
      "MeleeCmbo02": {
        "attackPattern": {
          "$type": "ConfigAttackCircle",
          "triggerType": "TriggerNoRepeat",
          "born": {
            "$type": "ConfigBornBySelf",
            "offset": {
              "x": 0.0,
              "y": 0.0,
              "z": 0.0
            },
            "direction": {
              "$type": "ConfigDirectionByEntity",
              "angleOffset": {
                "x": 0.0,
                "y": 330.0,
                "z": 0.0
              }
            }
          },
          "height": 6.0,
          "fanAngle": 180.0,
          "radius": 10.0
        },
        "attackInfo": {
          "attackTag": "",
          "attenuationTag": "",
          "attenuationGroup": "default",
          "attackProperty": {
            "actorGrassSubHurtDelta": 0.75,
            "actorWindSubHurtDelta": 0.0,
            "elementType": "Electric",
            "elementDurability": 100.0,
            "strikeType": "Blunt",
            "enBreak": 200.0,
            "attackType": "Melee",
            "GLKMCMDJBIK": 0.0
          },
          "hitPattern": {
            "onHitEffectName": "default",
            "hitImpulseY": "",
            "hitImpulseType": "LV5",
            "hitHaltTimeScale": 0.009999999776482582
          },
          "forceCameraShake": true,
          "cameraShake": {
            "shakeType": "CustomVector",
            "shakeRange": 1.0,
            "shakeTime": 0.5,
            "shakeDistance": 25.0,
            "shakeDir": {
              "x": -1.0
            }
          }
        }
      },
      "MeleeCmbo03": {
        "attackPattern": {
          "$type": "ConfigAttackBox",
          "triggerType": "TriggerNoRepeat",
          "born": {
            "$type": "ConfigBornByTarget",
            "offset": {
              "x": 0.0,
              "y": 1.0,
              "z": 3.0
            }
          },
          "size": {
            "x": 4.0,
            "y": 2.0,
            "z": 5.0
          }
        },
        "attackInfo": {
          "attackTag": "",
          "attenuationTag": "",
          "attenuationGroup": "default",
          "attackProperty": {
            "actorGrassSubHurtDelta": 0.75,
            "actorWindSubHurtDelta": 0.0,
            "elementType": "Electric",
            "elementDurability": 100.0,
            "strikeType": "Blunt",
            "enBreak": 200.0,
            "attackType": "Range",
            "GLKMCMDJBIK": 0.0
          },
          "hitPattern": {
            "onHitEffectName": "default",
            "hitImpulseY": "",
            "hitImpulseType": "LV5",
            "hitHaltTimeScale": 0.009999999776482582
          },
          "forceCameraShake": true,
          "cameraShake": {
            "shakeType": "CustomVector",
            "shakeRange": 1.0,
            "shakeTime": 1.0,
            "shakeDistance": 25.0,
            "shakeDir": {
              "y": -1.0
            }
          }
        }
      },
      "LaserAttack01_Nearly": {
        "attackPattern": {
          "$type": "ConfigAttackCircle",
          "triggerType": "TriggerNoRepeat",
          "born": {
            "$type": "ConfigBornBySelf",
            "offset": {
              "x": 1.5,
              "y": 0.0,
              "z": 2.5
            },
            "direction": {
              "$type": "ConfigDirectionByEntity",
              "angleOffset": {
                "x": 0.0,
                "y": -20.0,
                "z": 0.0
              }
            }
          },
          "height": 1.5,
          "fanAngle": 160.0,
          "radius": 7.0,
          "MMBCLAEOEFB": 0.0
        },
        "attackInfo": {
          "attackTag": "Regisvine_Electric_LarserAttack",
          "attenuationTag": "",
          "attenuationGroup": "default",
          "attackProperty": {
            "actorGrassSubHurtDelta": 0.75,
            "actorWindSubHurtDelta": 0.0,
            "elementType": "Electric",
            "elementDurability": 30.0,
            "strikeType": "Default",
            "enBreak": 5000.0,
            "attackType": "Range",
            "GLKMCMDJBIK": 0.0
          },
          "hitPattern": {
            "onHitEffectName": "default",
            "hitImpulseY": "",
            "hitImpulseType": "LV4",
            "hitHaltTimeScale": 0.009999999776482582
          }
        }
      },
      "LaserAttack02_Nearly": {
        "attackPattern": {
          "$type": "ConfigAttackCircle",
          "triggerType": "TriggerNoRepeat",
          "born": {
            "$type": "ConfigBornBySelf",
            "offset": {
              "x": 1.5,
              "y": 0.0,
              "z": 2.5
            },
            "direction": {
              "$type": "ConfigDirectionByEntity",
              "angleOffset": {
                "x": 0.0,
                "y": 20.0,
                "z": 0.0
              }
            }
          },
          "height": 1.5,
          "fanAngle": 160.0,
          "radius": 7.0,
          "MMBCLAEOEFB": 0.0
        },
        "attackInfo": {
          "attackTag": "Regisvine_Electric_LarserAttack",
          "attenuationTag": "",
          "attenuationGroup": "default",
          "attackProperty": {
            "actorGrassSubHurtDelta": 0.75,
            "actorWindSubHurtDelta": 0.0,
            "elementType": "Electric",
            "elementDurability": 30.0,
            "strikeType": "Default",
            "enBreak": 5000.0,
            "attackType": "Range",
            "GLKMCMDJBIK": 0.0
          },
          "hitPattern": {
            "onHitEffectName": "default",
            "hitImpulseY": "",
            "hitImpulseType": "LV4",
            "hitHaltTimeScale": 0.009999999776482582
          }
        }
      }
    }
  },
  "abilities": [
    {
      "abilityID": "AlertLogic",
      "abilityName": "Monster_Regisvine_Electric_AlertLogic",
      "abilityOverride": ""
    },
    {
      "abilityID": "FreeState",
      "abilityName": "Monster_Regisvine_Electric_StateControl",
      "abilityOverride": ""
    },
    {
      "abilityID": "Faint_ShaderChange",
      "abilityName": "Regisvine_Electric_Faint_ShaderChange",
      "abilityOverride": ""
    },
    {
      "abilityID": "DamageManager",
      "abilityName": "Monster_Regisvine_Electric_DamageManager",
      "abilityOverride": ""
    },
    {
      "abilityID": "FruitCoverManager",
      "abilityName": "Monster_Regisvine_FruitCoverManager",
      "abilityOverride": ""
    },
    {
      "abilityID": "SteerAttack",
      "abilityName": "Monster_Regisvine_Electric_SteerAttack",
      "abilityOverride": ""
    },
    {
      "abilityID": "ReturnToBorn",
      "abilityName": "Monster_Regisvine_Electric_ReturnToBorn",
      "abilityOverride": ""
    },
    {
      "abilityID": "UsingSkillManager",
      "abilityName": "Monster_Regisvine_UsingSkillManager",
      "abilityOverride": ""
    },
    {
      "abilityID": "TriggerUseSkill",
      "abilityName": "Monster_Regisvine_TriggerUseSkill",
      "abilityOverride": ""
    },
    {
      "abilityID": "StateManager",
      "abilityName": "Monster_Regisvine_Electric_StateManager",
      "abilityOverride": ""
    },
    {
      "abilityID": "BeHitEffect",
      "abilityName": "Monster_Regisvine_Electric_BeHitEffect",
      "abilityOverride": ""
    },
    {
      "abilityID": "DieEffect",
      "abilityName": "Monster_Regisvine_Electric_DieEffect",
      "abilityOverride": ""
    },
    {
      "abilityID": "FaintGV",
      "abilityName": "Monster_Regisvine_Electric_Faint_GV",
      "abilityOverride": ""
    },
    {
      "abilityID": "ColliderOn",
      "abilityName": "Monster_Regisvine_LarseAttack_ColliderOn",
      "abilityOverride": ""
    },
    {
      "abilityID": "ColliderOff",
      "abilityName": "Monster_Regisvine_LarseAttack_ColliderOff",
      "abilityOverride": ""
    },
    {
      "abilityID": "HitboxInitialization",
      "abilityName": "Monster_Regisvine_HitboxInitialization",
      "abilityOverride": ""
    },
    {
      "abilityID": "Alert_TriggerShaderEffect",
      "abilityName": "Monster_Regisvine_Alert_TriggerShaderEffect",
      "abilityOverride": ""
    },
    {
      "abilityID": "FlowerLockableOn",
      "abilityName": "Monster_Regisvine_FlowerLockableOn",
      "abilityOverride": ""
    },
    {
      "abilityID": "FlowerLockableOff",
      "abilityName": "Monster_Regisvine_FlowerLockableOff",
      "abilityOverride": ""
    },
    {
      "abilityID": "FlowerPushColliderOn",
      "abilityName": "Monster_Regisvine_FlowerPushColliderOn",
      "abilityOverride": ""
    },
    {
      "abilityID": "FlowerPushColliderOff",
      "abilityName": "Monster_Regisvine_FlowerPushColliderOff",
      "abilityOverride": ""
    },
    {
      "abilityID": "FaintPushColliderOn",
      "abilityName": "Monster_Regisvine_FaintPushColliderOn",
      "abilityOverride": ""
    },
    {
      "abilityID": "FaintPushColliderOff",
      "abilityName": "Monster_Regisvine_FaintPushColliderOff",
      "abilityOverride": ""
    },
    {
      "abilityID": "Faint_Cathode",
      "abilityName": "Monster_Regisvine_Electric_Faint_Cathode",
      "abilityOverride": ""
    },
    {
      "abilityID": "Faint_Anode",
      "abilityName": "Monster_Regisvine_Electric_Faint_Anode",
      "abilityOverride": ""
    },
    {
      "abilityID": "Faint_Recover",
      "abilityName": "Monster_Regisvine_Electric_Faint_Recover",
      "abilityOverride": ""
    },
    {
      "abilityID": "Core_Begin",
      "abilityName": "Regisvine_Electric_Core_Begin",
      "abilityOverride": ""
    },
    {
      "abilityID": "Core_Open",
      "abilityName": "Regisvine_Electric_Core_Open",
      "abilityOverride": ""
    },
    {
      "abilityID": "Core_Close",
      "abilityName": "Regisvine_Electric_Core_Close",
      "abilityOverride": ""
    },
    {
      "abilityID": "Core_End",
      "abilityName": "Regisvine_Electric_Core_End",
      "abilityOverride": ""
    },
    {
      "abilityID": "Core_Change",
      "abilityName": "Regisvine_Electric_Core_Change",
      "abilityOverride": ""
    },
    {
      "abilityID": "CreateBaseControlTarget",
      "abilityName": "Monster_Regisvine_CreateBaseControlTarget",
      "abilityOverride": ""
    },
    {
      "abilityID": "PartControlTarget_Enable",
      "abilityName": "Regisvine_PartControlTarget_Enable",
      "abilityOverride": ""
    },
    {
      "abilityID": "PartControlTarget_Disable",
      "abilityName": "Regisvine_PartControlTarget_Disable",
      "abilityOverride": ""
    },
    {
      "abilityID": "Anode_MeleeAttack_Wave",
      "abilityName": "Monster_Regisvine_Anode_MeleeAttack_Wave",
      "abilityOverride": ""
    },
    {
      "abilityID": "Cathode_MeleeAttack_Wave",
      "abilityName": "Monster_Regisvine_Cathode_MeleeAttack_Wave",
      "abilityOverride": ""
    },
    {
      "abilityID": "RangeAttack_L_Cathode",
      "abilityName": "Monster_Regisvine_RangeAttack_L_Cathode",
      "abilityOverride": ""
    },
    {
      "abilityID": "RangeAttack_R_Cathode",
      "abilityName": "Monster_Regisvine_RangeAttack_R_Cathode",
      "abilityOverride": ""
    },
    {
      "abilityID": "ThunaderAttack",
      "abilityName": "Monster_Regisvine_ThunaderAttack",
      "abilityOverride": ""
    },
    {
      "abilityID": "Monster_Regisvine_LarseAttack_ThunderBlizzard",
      "abilityName": "Monster_Regisvine_LarseAttack_ThunderBlizzard",
      "abilityOverride": ""
    },
    {
      "abilityID": "hunderBlizzardEffect",
      "abilityName": "Monster_Regisvine_LarseAttack_ThunderBlizzardEffect",
      "abilityOverride": ""
    },
    {
      "abilityID": "Switch_Management",
      "abilityName": "Monster_Regisvine_Switch_Management",
      "abilityOverride": ""
    },
    {
      "abilityID": "Switch_Anode",
      "abilityName": "Monster_Regisvine_Switch_Anode",
      "abilityOverride": ""
    },
    {
      "abilityID": "Charge_Anode",
      "abilityName": "Monster_Regisvine_Switch_Charge_Anode",
      "abilityOverride": ""
    },
    {
      "abilityID": "Switch_Cathode",
      "abilityName": "Monster_Regisvine_Switch_Cathode",
      "abilityOverride": ""
    },
    {
      "abilityID": "Charge_Cathode",
      "abilityName": "Monster_Regisvine_Switch_Charge_Cathode",
      "abilityOverride": ""
    }
  ],
  "stateLayers": {
    "defaultLayer": {
      "$type": "GBGJJIIEMBD",
      "layerIndexName": "",
      "CPAANEIJCGD": "",
      "stateIDs": {
        "Born": {
          "$type": "NEDIFAKEGCO",
          "animatorStates": {
            "Born": []
          },
          "canDoSkill": true,
          "canSyncMove": true,
          "resetAnimatorTriggerOnExit": ["DoSkill"]
        },
        "NormalIdle": {
          "$type": "NEDIFAKEGCO",
          "animatorStates": {
            "Standby": []
          },
          "canDoSkill": true,
          "canSyncMove": true,
          "resetAnimatorTriggerOnExit": ["DoSkill"]
        },
        "Die": {
          "$type": "NEDIFAKEGCO",
          "animatorStates": {
            "Die1": [
              "Monster_Regisvine_Electric_Die",
              "Monster_Regisvine_Electric_Core_End",
              "Audio_Monster_Regisvine_Electric_Die"
            ],
            "FallingDie": ["Monster_Regisvine_Electric_Core_End"],
            "SwimDie": [
              "Monster_Regisvine_Electric_Core_End",
              "Audio_Monster_Regisvine_Electric_Die"
            ],
            "AirDie": [
              "Monster_Regisvine_Electric_Core_End",
              "Audio_Monster_Regisvine_Electric_Die"
            ]
          }
        },
        "Alert": {
          "$type": "NEDIFAKEGCO",
          "animatorStates": {
            "Alert": [
              "Monster_Regisvine_Electric_Alert",
              "Audio_Monster_Regisvine_Electric_Alert"
            ],
            "Warning": [
              "Monster_Regisvine_Electric_Alert",
              "Audio_Monster_Regisvine_Electric_Alert"
            ]
          },
          "addEndure": 0.0,
          "resetAnimatorTriggerOnExit": ["BeHit", "DoSkill"]
        },
        "ReturnToBorn": {
          "$type": "NEDIFAKEGCO",
          "animatorStates": {
            "ReturnToBorn": ["Audio_Monster_Regisvine_Electric_ReturnToBorn"]
          },
          "canDoSkill": true,
          "resetAnimatorTriggerOnExit": ["ReturnToBornTrigger"]
        },
        "Faint_BS": {
          "$type": "NEDIFAKEGCO",
          "animatorStates": {
            "Faint_BS": [
              "Monster_Regisvine_Electric_Faint_BS",
              "Audio_Monster_Regisvine_Electric_Faint_BS"
            ]
          },
          "canSyncMove": true,
          "resetAnimatorTriggerOnExit": ["DoSkill"]
        },
        "Faint_AS_Anode": {
          "$type": "NEDIFAKEGCO",
          "animatorStates": {
            "Faint_AS_Anode": [
              "Monster_Regisvine_Electric_Faint_AS_Anode",
              "Audio_Monster_Regisvine_Electric_Faint_Anode_AS"
            ]
          },
          "canSyncMove": true,
          "resetAnimatorTriggerOnExit": ["DoSkill"]
        },
        "Faint_AS_Cathode": {
          "$type": "NEDIFAKEGCO",
          "animatorStates": {
            "Faint_AS_Cathode": [
              "Monster_Regisvine_Electric_Faint_AS_Cathode",
              "Audio_Monster_Regisvine_Electric_Faint_Cathode_AS"
            ]
          },
          "canSyncMove": true,
          "resetAnimatorTriggerOnExit": ["DoSkill"]
        },
        "Anode_MeleeAttack_Wave": {
          "$type": "NEDIFAKEGCO",
          "animatorStates": {
            "Anode_MeleeAttack_Wave_01": [
              "Monster_Regisvine_Electric_Anode_MeleeAttack_Wave",
              "Audio_Monster_Regisvine_Electric_Anode_MeleeAttack_Wave"
            ],
            "Anode_MeleeAttack_Wave_02": [
              "Monster_Regisvine_Electric_Anode_MeleeAttack_Wave",
              "Audio_Monster_Regisvine_Electric_Anode_MeleeAttack_Wave_Attack"
            ],
            "Anode_MeleeAttack_Wave_03": [
              "Monster_Regisvine_Electric_Anode_MeleeAttack_Wave",
              "Audio_Monster_Regisvine_Electric_Anode_MeleeAttack_Wave_Attack"
            ]
          },
          "resetAnimatorTriggerOnExit": ["BeHit", "DoSkill"]
        },
        "Anode_MeleeAttack_Wave_LockOff": {
          "$type": "NEDIFAKEGCO",
          "animatorStates": {
            "Anode_MeleeAttack_Wave_LockOff_01": [
              "Monster_Regisvine_MeleeAttack_Wave_LockOff"
            ],
            "Anode_MeleeAttack_Wave_LockOff_02": [
              "Monster_Regisvine_MeleeAttack_Wave_LockOff"
            ]
          },
          "resetAnimatorTriggerOnExit": ["BeHit", "DoSkill"]
        },
        "Anode_MeleeAttack_Wave_AS": {
          "$type": "NEDIFAKEGCO",
          "animatorStates": {
            "Anode_MeleeAttack_Wave_Wait": [],
            "Anode_MeleeAttack_Wave_AS": [
              "Monster_Regisvine_MeleeAttack_Wave_LockOff",
              "Audio_Monster_Regisvine_Electric_Anode_MeleeAttack_Wave_AS"
            ]
          },
          "resetAnimatorTriggerOnExit": ["BeHit", "DoSkill"]
        },
        "Anode_MeleeAttackCombo": {
          "$type": "NEDIFAKEGCO",
          "animatorStates": {
            "Anode_MeleeAttackCombo_BS": [
              "Monster_Regisvine_Electric_Anode_MeleeAttackCombo",
              "Audio_Monster_Regisvine_Electric_Anode_MeleeCombo"
            ],
            "Anode_MeleeAttackCombo_Wait": [
              "Monster_Regisvine_Electric_Anode_MeleeAttackCombo"
            ],
            "Anode_MeleeAttackCombo_AS": [
              "Monster_Regisvine_Electric_Anode_MeleeAttackCombo",
              "Audio_Monster_Regisvine_Electric_Anode_MeleeCombo_AS"
            ]
          },
          "resetAnimatorTriggerOnExit": ["BeHit", "DoSkill"],
          "canSteer": true
        },
        "LaserAttack_03": {
          "$type": "NEDIFAKEGCO",
          "animatorStates": {
            "LaserAttack_03": [
              "Monster_Regisvine_Electric_LarseAttack_03",
              "Audio_Monster_Regisvine_Electric_Anode_LaserAttack_03"
            ]
          },
          "canSyncMove": true,
          "resetAnimatorTriggerOnExit": ["DoSkill"]
        },
        "LaserAttack_01_Near": {
          "$type": "NEDIFAKEGCO",
          "animatorStates": {
            "LaserAttack_01_Near": [
              "Monster_Regisvine_Electric_LarseAttack_01_Near",
              "Audio_Monster_Regisvine_Electric_Anode_LaserAttack_01"
            ]
          },
          "canSyncMove": true,
          "resetAnimatorTriggerOnExit": ["DoSkill"]
        },
        "LaserAttack_02_Near": {
          "$type": "NEDIFAKEGCO",
          "animatorStates": {
            "LaserAttack_02_Near": [
              "Monster_Regisvine_Electric_LarseAttack_02_Near",
              "Audio_Monster_Regisvine_Electric_Anode_LaserAttack_02"
            ]
          },
          "canSyncMove": true,
          "resetAnimatorTriggerOnExit": ["DoSkill"]
        },
        "Anode_MeleeAttack_L": {
          "$type": "NEDIFAKEGCO",
          "animatorStates": {
            "Anode_MeleeAttack_L": [
              "Monster_Regisvine_Electric_Anode_MeleeAttack_L",
              "Audio_Monster_Regisvine_Electric_Cathode_MeleeAttack"
            ]
          },
          "resetAnimatorTriggerOnExit": ["BeHit", "DoSkill"],
          "canSteer": true,
          "followAnimRotation": true
        },
        "Anode_MeleeAttack_R": {
          "$type": "NEDIFAKEGCO",
          "animatorStates": {
            "Anode_MeleeAttack_R": [
              "Monster_Regisvine_Electric_Anode_MeleeAttack_R",
              "Audio_Monster_Regisvine_Electric_Cathode_MeleeAttack"
            ]
          },
          "resetAnimatorTriggerOnExit": ["BeHit", "DoSkill"],
          "canSteer": true,
          "followAnimRotation": true
        },
        "Cathonde_MeleeAttack02": {
          "$type": "NEDIFAKEGCO",
          "animatorStates": {
            "Cathonde_MeleeAttack02_BS": [
              "Monster_Regisvine_Electric_MeleeAttack02_Cathode",
              "Audio_Monster_Regisvine_Electric_Anode_MeleeCombo"
            ],
            "Cathonde_MeleeAttack02_AS": [
              "Monster_Regisvine_Electric_MeleeAttack02_Cathode",
              "Audio_Monster_Regisvine_Electric_Anode_MeleeCombo_AS"
            ]
          },
          "resetAnimatorTriggerOnExit": ["BeHit", "DoSkill"]
        },
        "Cathode_MeleeAttack_Wave": {
          "$type": "NEDIFAKEGCO",
          "animatorStates": {
            "Cathode_MeleeAttack_Wave": [
              "Monster_Regisvine_Electric_Cathode_MeleeAttack_Wave",
              "Audio_Monster_Regisvine_Electric_Anode_MeleeAttack_Wave"
            ]
          },
          "resetAnimatorTriggerOnExit": ["BeHit", "DoSkill"]
        },
        "Cathonde_MeleeAttack_L": {
          "$type": "NEDIFAKEGCO",
          "animatorStates": {
            "Cathonde_MeleeAttack_L": [
              "Monster_Regisvine_Electric_Cathode_MeleeAttack_L",
              "Audio_Monster_Regisvine_Electric_Cathode_MeleeAttack"
            ]
          },
          "resetAnimatorTriggerOnExit": ["BeHit", "DoSkill"],
          "canSteer": true,
          "followAnimRotation": true
        },
        "Cathonde_MeleeAttack_R": {
          "$type": "NEDIFAKEGCO",
          "animatorStates": {
            "Cathonde_MeleeAttack_R": [
              "Monster_Regisvine_Electric_Cathode_MeleeAttack_R",
              "Audio_Monster_Regisvine_Electric_Cathode_MeleeAttack"
            ]
          },
          "resetAnimatorTriggerOnExit": ["BeHit", "DoSkill"],
          "canSteer": true,
          "followAnimRotation": true
        },
        "Cathonde_MeleeAttack_Range": {
          "$type": "NEDIFAKEGCO",
          "animatorStates": {
            "Cathonde_MeleeAttack_Range": []
          },
          "resetAnimatorTriggerOnExit": ["BeHit", "DoSkill"],
          "canSteer": true,
          "followAnimRotation": true
        },
        "Cathode_ThunderSeed_AS": {
          "$type": "NEDIFAKEGCO",
          "animatorStates": {
            "Cathode_ThunderSeed_AS": [
              "Audio_Monster_Regisvine_Electric_Cathode_ThunderSeed_AS"
            ]
          },
          "canSyncMove": true,
          "resetAnimatorTriggerOnExit": ["DoSkill"]
        },
        "Cathode_ThunderSeed_Loop": {
          "$type": "NEDIFAKEGCO",
          "animatorStates": {
            "Cathode_ThunderSeed_Loop": [
              "Monster_Regisvine_Electric_ThunaderAttack_Loop"
            ]
          },
          "canSyncMove": true,
          "resetAnimatorTriggerOnExit": ["DoSkill"]
        },
        "Cathode_ThunderSeed_BS": {
          "$type": "NEDIFAKEGCO",
          "animatorStates": {
            "Cathode_ThunderSeed_BS": [
              "Audio_Monster_Regisvine_Electric_Cathode_ThunderSeed_BS"
            ]
          },
          "canSyncMove": true,
          "resetAnimatorTriggerOnExit": ["DoSkill"]
        },
        "Cathode_RangeAttack_BS": {
          "$type": "NEDIFAKEGCO",
          "animatorStates": {
            "Cathode_RangeAttack_BS": [
              "Audio_Monster_Regisvine_Electric_Cathode_RangeAttack_BS"
            ]
          },
          "canSyncMove": true,
          "resetAnimatorTriggerOnExit": ["DoSkill"]
        },
        "Cathode_RangeAttack_Loop": {
          "$type": "NEDIFAKEGCO",
          "animatorStates": {
            "Cathode_RangeAttack_Loop": [
              "Monster_Regisvine_Electric_Cathode_RangeAttack",
              "Audio_Monster_Regisvine_Electric_Cathode_RangeAttack_Loop"
            ]
          },
          "canSyncMove": true,
          "resetAnimatorTriggerOnExit": ["DoSkill"]
        },
        "Cathode_RangeAttack_AS": {
          "$type": "NEDIFAKEGCO",
          "animatorStates": {
            "Cathode_RangeAttack_AS": [
              "Audio_Monster_Regisvine_Electric_Cathode_RangeAttack_AS"
            ]
          },
          "canSyncMove": true,
          "resetAnimatorTriggerOnExit": ["DoSkill"]
        },
        "Cathode_ThunderNet": {
          "$type": "NEDIFAKEGCO",
          "animatorStates": {
            "Cathode_ThunderNet": [
              "Monster_Regisvine_Electric_Cathode_ThunderNet"
            ]
          },
          "canSyncMove": true,
          "resetAnimatorTriggerOnExit": ["DoSkill"]
        },
        "RevengeAttack": {
          "$type": "NEDIFAKEGCO",
          "animatorStates": {
            "RevengeAttack": [
              "Monster_Regisvine_Fire_RevengeAttack",
              "Audio_Monster_Regisvine_Fire_RevengeAtk"
            ]
          },
          "resetAnimatorTriggerOnExit": ["BeHit", "DoSkill"],
          "canSteer": true,
          "followAnimRotation": true
        },
        "Anode_Switch": {
          "$type": "NEDIFAKEGCO",
          "animatorStates": {
            "Anode_Switch": [
              "Monster_Regisvine_Electric_Swtich_Anode",
              "Audio_Monster_Regisvine_Electric_Switch_Cathode"
            ]
          },
          "canSyncMove": true,
          "resetAnimatorTriggerOnExit": ["DoSkill"]
        },
        "Cathode_Switch": {
          "$type": "NEDIFAKEGCO",
          "animatorStates": {
            "Cathode_Switch": [
              "Monster_Regisvine_Electric_Swtich_Cathode",
              "Audio_Monster_Regisvine_Electric_Switch_Anode"
            ]
          },
          "canSyncMove": true,
          "resetAnimatorTriggerOnExit": ["DoSkill"]
        }
      }
    }
  },
  "partControl": {
    "parts": [
      {
        "$type": "INCPGKCDCIO",
        "angularSpeed": 3600.0,
        "partRootName": "BlazeSeedSource",
        "forwardBy": "NamedTransform",
        "rotateBy": "ForwardTransLocal",
        "forwardByTransName": "BlazeSeedSourceParent",
        "limitHorizontal": 0.0,
        "limitVertical": 7.0
      },
      {
        "$type": "INCPGKCDCIO",
        "angularSpeed": 3600.0,
        "partRootName": "BaseControl",
        "forwardByTransName": "",
        "limitHorizontal": 360.0,
        "limitVertical": 0.0
      },
      {
        "$type": "INCPGKCDCIO",
        "angularSpeed": 3600.0,
        "partRootName": "LaserPartControlL",
        "forwardByTransName": "",
        "limitHorizontal": 360.0,
        "limitVertical": 360.0
      },
      {
        "$type": "INCPGKCDCIO",
        "angularSpeed": 3600.0,
        "partRootName": "LaserPartControlR",
        "forwardByTransName": "",
        "limitHorizontal": 360.0,
        "limitVertical": 360.0
      },
      {
        "$type": "INCPGKCDCIO",
        "angularSpeed": 3600.0,
        "partRootName": "TopBulletSource",
        "forwardByTransName": "",
        "limitHorizontal": 360.0,
        "limitVertical": 360.0
      }
    ]
  },
  "billboard": {
    "$type": "DNGNMAJBCNP",
    "attachPoint": "BillboardAttach",
    "radiusOffset": 1.0,
    "showDistance": 1.0,
    "size": "Grand"
  },
  "initialPoses": {
    "Default": {
      "initialPoseID": 1
    },
    "NoSensing": {
      "initialPoseID": 2,
      "initialPoseParams": {
        "boolParams": {
          "NoSensing": "true"
        }
      }
    },
    "AlertedFree": {
      "initialPoseID": 3,
      "initialPoseParams": {
        "boolParams": {
          "Alerted": "true"
        }
      }
    }
  },
  "aibeta": {
    "enable": true,
    "sensing": {
      "settings": {
        "DefaultSetting": {
          "viewRange": 22.0,
          "feelRange": 22.0
        },
        "NoSensing": {
          "viewRange": 0.0,
          "hearAttractionRange": 0.0,
          "feelRange": 0.0
        }
      },
      "templates": {
        "DefaultTemplate": {
          "DefaultPoses": "DefaultSetting",
          "2": "NoSensing",
          "3": "NoSensing"
        }
      }
    },
    "neurons": {
      "DefaultSetting": ["HIT"]
    },
    "threat": {
      "GHIJMOKOLMB": "",
      "clearThreatTargetDistance": 24.0,
      "clearThreatEdgeDistance": 7.5,
      "clearThreatByTargetOutOfZone": true,
      "clearThreatTimerByDistance": 1.75,
      "clearThreatTimerByTargetOutOfZone": 1.0,
      "viewThreatGrow": 35.0,
      "feelThreatGrow": 100.0,
      "threatDecreaseSpeed": 10.0,
      "resistTauntLevel": "Monster_TauntLevel_4"
    },
    "defendArea": {
      "defendRange": 24.0
    },
    "network": {
      "syncSkill": true
    },
    "skillGroupCDConfigs": [
      {
        "skillGroupCDID": 1,
        "skillGroupCDTime": 1.5
      },
      {
        "skillGroupCDID": 2,
        "skillGroupCDTime": 1.0
      },
      {
        "skillGroupCDID": 3,
        "skillGroupCDTime": 3.0
      },
      {
        "skillGroupCDID": 4,
        "skillGroupCDTime": 2.5
      }
    ],
    "skillSetting": {
      "skillEliteSet": {
        "1": [502]
      }
    },
    "skills": {
      "101": {
        "name": "OnAlert",
        "skillType": "OnAlert",
        "castCondition": {
          "pose": [1, 2]
        },
        "publicCDGroup": "",
        "ignoreGCD": true,
        "triggerGCD": false,
        "HHAGODJIAPE": "",
        "stateIDs": ["Alert"],
        "skillQueryingTime": 3.0,
        "flagTargetReachable": "10",
        "flagSelfOnTemplateCollider": "01",
        "flagSelfInZone": "10",
        "flagTargetInZone": "11"
      },
      "201": {
        "name": "Anode_MeleeAttack_Wave",
        "castCondition": {
          "pose": [1001],
          "pickRangeMax": 25.0,
          "castRangeMax": 25.0
        },
        "cd": 6.0,
        "publicCDGroup": "",
        "triggerGCD": false,
        "skillGroupCDID": 4,
        "HHAGODJIAPE": "",
        "stateIDs": [
          "Anode_MeleeAttack_Wave",
          "Anode_MeleeAttack_Wait",
          "Anode_MeleeAttack_AS"
        ],
        "flagTargetReachable": "11",
        "flagSelfOnTemplateCollider": "01",
        "flagSelfInZone": "10",
        "flagTargetInZone": "11"
      },
      "211": {
        "name": "Anode_MeleeAttack_Wave_Combo",
        "castCondition": {
          "pose": [1001],
          "pickRangeMin": 8.0,
          "pickRangeMax": 99.0,
          "castRangeMin": 8.0,
          "castRangeMax": 99.0
        },
        "cd": 15.0,
        "initialCD": 10.0,
        "publicCDGroup": "",
        "triggerGCD": false,
        "skillGroupCDID": 4,
        "HHAGODJIAPE": "",
        "stateIDs": [
          "Anode_MeleeAttack_Wave",
          "Anode_MeleeAttack_Wait",
          "Anode_MeleeAttack_AS"
        ],
        "flagTargetReachable": "11",
        "flagSelfOnTemplateCollider": "01",
        "flagSelfInZone": "10",
        "flagTargetInZone": "11"
      },
      "221": {
        "name": "Anode_MeleeAttackCombo",
        "priority": 2,
        "castCondition": {
          "pose": [1001],
          "pickRangeMax": 12.0,
          "castRangeMax": 12.0
        },
        "cd": 15.0,
        "initialCD": 3.0,
        "initialCDUpperRange": 5.0,
        "publicCDGroup": "",
        "triggerGCD": false,
        "skillGroupCDID": 1,
        "HHAGODJIAPE": "",
        "stateIDs": ["Anode_MeleeAttackCombo"],
        "flagTargetReachable": "11",
        "flagSelfOnTemplateCollider": "01",
        "flagSelfInZone": "10",
        "flagTargetInZone": "11"
      },
      "231": {
        "name": "BreathAttack",
        "priority": 2,
        "castCondition": {
          "pose": [1001],
          "pickRangeMax": 12.0,
          "castRangeMax": 12.0
        },
        "cd": 25.0,
        "initialCD": 3.0,
        "initialCDUpperRange": 3.0,
        "publicCDGroup": "",
        "triggerGCD": false,
        "skillGroupCDID": 1,
        "HHAGODJIAPE": "",
        "stateIDs": [
          "LaserAttack_01_Near",
          "LaserAttack_02_Near",
          "LaserAttack_03"
        ],
        "flagTargetReachable": "11",
        "flagSelfOnTemplateCollider": "11",
        "flagSelfInZone": "10",
        "flagTargetInZone": "11"
      },
      "241": {
        "name": "Anode_MeleeAttack_L",
        "priority": 2,
        "castCondition": {
          "pose": [1001],
          "minTargetAngleXZ": 90.0,
          "maxTargetAngleXZ": 180.0,
          "pickRangeMax": 100.0,
          "castRangeMax": 100.0
        },
        "cd": 6.0,
        "initialCD": 1.0,
        "publicCDGroup": "",
        "ignoreGCD": true,
        "triggerGCD": false,
        "HHAGODJIAPE": "",
        "stateIDs": ["Anode_MeleeAttack_L", "Anode_MeleeAttack_R"],
        "flagTargetReachable": "11",
        "flagSelfOnTemplateCollider": "01",
        "flagSelfInZone": "10",
        "flagTargetInZone": "11"
      },
      "301": {
        "name": "Cathode_MeleeAttack_Wave",
        "castCondition": {
          "pose": [1011],
          "pickRangeMax": 99.0,
          "castRangeMax": 99.0
        },
        "cd": 6.0,
        "initialCD": 5.0,
        "publicCDGroup": "",
        "triggerGCD": false,
        "skillGroupCDID": 2,
        "HHAGODJIAPE": "",
        "stateIDs": ["Cathode_MeleeAttack_Wave"],
        "flagTargetReachable": "11",
        "flagSelfOnTemplateCollider": "01",
        "flagSelfInZone": "10",
        "flagTargetInZone": "11"
      },
      "311": {
        "name": "Cathonde_MeleeAttack_L",
        "priority": 2,
        "castCondition": {
          "pose": [1011],
          "minTargetAngleXZ": 90.0,
          "maxTargetAngleXZ": 180.0,
          "pickRangeMax": 100.0,
          "castRangeMax": 100.0
        },
        "cd": 6.0,
        "initialCD": 10.0,
        "publicCDGroup": "",
        "ignoreGCD": true,
        "triggerGCD": false,
        "skillGroupCDID": 2,
        "HHAGODJIAPE": "",
        "stateIDs": ["Cathonde_MeleeAttack_L", "Cathonde_MeleeAttack_R"],
        "flagTargetReachable": "11",
        "flagSelfOnTemplateCollider": "01",
        "flagSelfInZone": "10",
        "flagTargetInZone": "11"
      },
      "331": {
        "name": "Cathonde_MeleeAttack02",
        "priority": 2,
        "castCondition": {
          "pose": [1011],
          "pickRangeMax": 12.0,
          "castRangeMax": 12.0
        },
        "cd": 15.0,
        "initialCD": 10.0,
        "publicCDGroup": "",
        "HHAGODJIAPE": "",
        "stateIDs": ["Cathonde_MeleeAttack02"],
        "flagTargetReachable": "11",
        "flagSelfOnTemplateCollider": "01",
        "flagSelfInZone": "10",
        "flagTargetInZone": "11"
      },
      "341": {
        "name": "ThunderSeed",
        "castCondition": {
          "pose": [1011],
          "pickRangeMax": 99.0,
          "castRangeMax": 99.0
        },
        "cd": 15.0,
        "cdUpperRange": 3.0,
        "initialCD": 5.0,
        "publicCDGroup": "",
        "triggerGCD": false,
        "skillGroupCDID": 2,
        "HHAGODJIAPE": "",
        "stateIDs": [
          "Cathode_ThunderSeed_BS",
          "Cathode_ThunderSeed_Loop",
          "Cathode_ThunderSeed_AS"
        ],
        "flagTargetReachable": "11",
        "flagSelfOnTemplateCollider": "11",
        "flagSelfInZone": "10",
        "flagTargetInZone": "11"
      },
      "351": {
        "name": "RangeAttack",
        "castCondition": {
          "pose": [1011],
          "pickRangeMax": 99.0,
          "castRangeMax": 99.0
        },
        "cd": 7.0,
        "cdUpperRange": 3.0,
        "publicCDGroup": "",
        "triggerGCD": false,
        "skillGroupCDID": 2,
        "HHAGODJIAPE": "",
        "stateIDs": [
          "Cathode_RangeAttack_BS",
          "Cathode_RangeAttack_Loop",
          "Cathode_RangeAttack_AS"
        ],
        "flagTargetReachable": "11",
        "flagSelfOnTemplateCollider": "11",
        "flagSelfInZone": "10",
        "flagTargetInZone": "11"
      },
      "401": {
        "name": "Anode_Switch",
        "priority": 1,
        "castCondition": {
          "pose": [1001]
        },
        "cd": 24.0,
        "initialCD": 24.0,
        "publicCDGroup": "",
        "ignoreGCD": true,
        "triggerCDOnStart": true,
        "HHAGODJIAPE": "",
        "stateIDs": ["Anode_Switch"],
        "flagTargetReachable": "11",
        "flagSelfOnTemplateCollider": "11",
        "flagSelfInZone": "10",
        "flagTargetInZone": "11"
      },
      "411": {
        "name": "Cathode_Switch",
        "priority": 1,
        "castCondition": {
          "pose": [1011]
        },
        "cd": 30.0,
        "initialCD": 30.0,
        "publicCDGroup": "",
        "ignoreGCD": true,
        "triggerCDOnStart": true,
        "HHAGODJIAPE": "",
        "stateIDs": ["Cathode_Switch"],
        "flagTargetReachable": "11",
        "flagSelfOnTemplateCollider": "11",
        "flagSelfInZone": "10",
        "flagTargetInZone": "11"
      },
      "501": {
        "name": "FaintRecover",
        "priority": 1,
        "castCondition": {
          "pose": [2001, 2011],
          "pickRangeMax": 9999.0,
          "castRangeMax": 9999.0
        },
        "cd": 24.0,
        "initialCD": 24.0,
        "publicCDGroup": "",
        "triggerCDOnStart": true,
        "HHAGODJIAPE": "",
        "stateIDs": ["Faint_AS_Cathode", "Faint_AS_Anode"],
        "flagTargetReachable": "11",
        "flagSelfOnTemplateCollider": "11",
        "flagSelfInZone": "10",
        "flagTargetInZone": "11"
      },
      "502": {
        "name": "FaintRecover",
        "priority": 1,
        "castCondition": {
          "pose": [2001, 2011],
          "pickRangeMax": 9999.0,
          "castRangeMax": 9999.0
        },
        "cd": 18.0,
        "initialCD": 18.0,
        "publicCDGroup": "",
        "triggerCDOnStart": true,
        "HHAGODJIAPE": "",
        "stateIDs": ["Faint_AS_Cathode", "Faint_AS_Anode"],
        "flagTargetReachable": "11",
        "flagSelfOnTemplateCollider": "11",
        "flagSelfInZone": "10",
        "flagTargetInZone": "11"
      }
    },
    "skillGCD": 3.0,
    "birdCirclingTactic": [
      {
        "$type": "MCDGOJLCMBM",
        "enable": true,
        "JMCOBEPDIGM": {
          "DMGAHPPFMPK": 0.5,
          "FLENLLDBFGP": 0.5,
          "MNPDDAKDHGK": "",
          "GJDMDHIBCME": ""
        }
      },
      {
        "$type": "NNJKLGNPMNN",
        "enable": true,
        "JMCOBEPDIGM": {
          "ANLAAGAMIKF": 0,
          "JFMIFLNBKMJ": 1.0,
          "DHGJDIPNDHH": 1.5,
          "MNPDDAKDHGK": "",
          "GJDMDHIBCME": ""
        }
      },
      {
        "$type": "FPELBIJFGCE",
        "enable": true,
        "condition": {
          "pose": [100, 300]
        },
        "JMCOBEPDIGM": {
          "NBENNEKDIIA": 0.20000000298023224,
          "ANMPOPEBDIA": 25.0,
          "GMJFIMFFOEL": 7.5,
          "MNPDDAKDHGK": ""
        }
      }
    ]
  },
  "inputKeys": [
    {
      "keyID": 201,
      "inputKeyCode": 257,
      "abilityName": ""
    },
    {
      "keyID": 211,
      "inputKeyCode": 258,
      "abilityName": ""
    },
    {
      "keyID": 221,
      "inputKeyCode": 259,
      "abilityName": ""
    },
    {
      "keyID": 231,
      "inputKeyCode": 260,
      "abilityName": ""
    },
    {
      "keyID": 301,
      "inputKeyCode": 261,
      "abilityName": ""
    },
    {
      "keyID": 401,
      "inputKeyCode": 262,
      "abilityName": ""
    },
    {
      "keyID": 411,
      "inputKeyCode": 263,
      "abilityName": ""
    },
    {
      "keyID": 341,
      "inputKeyCode": 264,
      "abilityName": ""
    },
    {
      "keyID": 351,
      "inputKeyCode": 265,
      "abilityName": ""
    }
  ],
  "move": {
    "$type": "IPNMJMHDMPF",
    "velocityForce": {
      "muteAll": true
    },
    "destroyRockWhenInit": true,
    "PKHOMJHFAEE": "RootNode"
  },
  "cameraAdjustMap": {
    "default": {
      "$type": "NJCCPGFPIHI",
      "priority": 1.0,
      "enterRadius": 25.0,
      "exitRadius": 30.0,
      "heightAdjust": 0.75,
      "fov": 47.5,
      "zoom": 8.0,
      "sphericalY": 10.0,
      "lockSphericalY": false,
      "sphericalYUp": 10.0,
      "sphericalYDown": 10.0,
      "autoTurnStartMin": 50.0,
      "autoTurnStartMax": 40.0,
      "autoTurnEndMin": 100.0,
      "autoTurnEndMax": 145.0,
      "enterShape": "CircleR25H12_5B",
      "exitShape": "CircleR30H15B",
      "shapeCenterOffset": {
        "y": -1.0
      }
    }
  }
}
