{
  "common": {
    "effectAttachShape": {
      "$type": "FJNPJANPGGC",
      "mesh": "EffectMesh"
    },
    "mass": 10.0,
    "height": 1.0,
    "viewSize": 0.800000011920929,
    "affectedByWorld": true,
    "checkInSurface": true,
    "scale": 1.600000023841858,
    "canTriggerElementReactionText": false,
    "reconnectSupport": true,
    "recoverByInitPose": true
  },
  "model": {
    "bornEffect": "",
    "attachEffect": "Eff_Animal_Boltbug_Lavawasp_Idle",
    "canBakeMesh": false,
    "BKPFGNPLDNJ": ""
  },
  "combat": {
    "property": {
      "endureType": "Monster_Minion",
      "weight": 20.0
    },
    "beHit": {
      "hitBloodEffect": "",
      "muteAllHitText": true
    },
    "combatLock": {
      "lockShape": "CircleLockEnemy",
      "denyLockOn": true,
      "lockType": "Default"
    },
    "die": {
      "fallWhenAirDie": false,
      "dieEndTime": 0.019999999552965164,
      "dieForceDisappearTime": 0.019999999552965164,
      "dieDisappearEffect": "Eff_Animal_Boltbug_Lavawasp_Die",
      "startDieEndAtOnce": true
    }
  },
  "abilities": [
    {
      "abilityID": "",
      "abilityName": "Animal_PhlogistonTag",
      "abilityOverride": ""
    },
    {
      "abilityID": "",
      "abilityName": "Monster_Natsaurus_Mosasaurus_PhilstonManager",
      "abilityOverride": ""
    }
  ],
  "stateLayers": {
    "defaultLayer": {
      "$type": "GBGJJIIEMBD",
      "layerIndexName": "",
      "CPAANEIJCGD": "",
      "stateIDs": {
        "Born": {
          "$type": "NEDIFAKEGCO",
          "animatorStates": {
            "Born": ["Audio_Wisp_Wind_Standby"]
          }
        },
        "NormalIdle": {
          "$type": "NEDIFAKEGCO",
          "animatorStates": {
            "Standby": ["Audio_Wisp_Wind_Standby"]
          },
          "canDoSkill": true,
          "canSyncMove": true,
          "resetAnimatorTriggerOnExit": ["DoSkill"],
          "GGODGEGHPJD": true
        },
        "NormalMove": {
          "$type": "NEDIFAKEGCO",
          "animatorStates": {
            "Walk": ["Audio_Wisp_Wind_Walk"]
          },
          "canDoSkill": true,
          "canSyncMove": true,
          "resetAnimatorTriggerOnExit": ["DoSkill"],
          "canSteer": true,
          "GGODGEGHPJD": true
        },
        "Die": {
          "$type": "NEDIFAKEGCO",
          "animatorStates": {
            "Die": ["Animal_Boltbug_Lavawasp_Die", "Audio_Wisp_Wind_Die"]
          },
          "resetAnimatorTriggerOnEnter": ["DoSkill"]
        }
      }
    }
  },
  "initialPoses": {
    "Default": {}
  },
  "aibeta": {
    "enable": true,
    "friendliness": 1,
    "moveSetting": {
      "useNavMesh": false,
      "navMeshAgentName": "Undead01"
    },
    "sensing": {
      "settings": {
        "DefaultSetting": {
          "enableVision": false,
          "feelRange": 3.0
        }
      }
    },
    "neurons": {
      "DefaultSetting": ["HIT"]
    },
    "threat": {
      "GHIJMOKOLMB": "",
      "feelThreatGrow": 1000.0,
      "threatBroadcastRange": 5.0
    },
    "defendArea": {
      "defendRange": 35.0
    },
    "fly": {
      "enable": true,
      "floatingPoses": [201]
    },
    "ui": {
      "hasDirectionIndicator": false,
      "HMNNBFDEHLG": ""
    },
    "groupSurroundTactic": {
      "Default": {
        "MFNHGOKLGMO": 1.100000023841858,
        "IAIPPCLBLHB": 0.4000000059604645,
        "IBCPEGIJEMI": 0.4000000059604645
      },
      "FastMove": {
        "MFNHGOKLGMO": 2.0,
        "IAIPPCLBLHB": 0.4000000059604645,
        "IBCPEGIJEMI": 0.4000000059604645
      }
    },
    "mixin": {
      "setControllerParameterOnBeHitByEntityType": [
        {
          "poseIDs": [201],
          "settings": [
            {
              "entityTypes": ["Avatar", "Monster", "Gadget", "Bullet"],
              "onSuccess": {
                "setPoseBool": [
                  {
                    "boolID": "FlyState"
                  }
                ],
                "setAnimatorTrigger": [
                  {
                    "triggerID": "HitToDieTrigger"
                  }
                ]
              },
              "onFail": {
                "setPoseBool": [
                  {
                    "boolID": "FlyState"
                  }
                ],
                "setAnimatorTrigger": [
                  {
                    "triggerID": "HitToDieTrigger"
                  }
                ]
              }
            }
          ]
        }
      ]
    },
    "birdCirclingTactic": [
      {
        "$type": "ALHOEAMCGGO",
        "enable": true,
        "condition": {
          "pose": [201]
        },
        "JMCOBEPDIGM": {
          "ANLAAGAMIKF": 1,
          "NBENNEKDIIA": 1.2000000476837158,
          "cd": 2.5,
          "triggerDistance": 7.0,
          "EMNPEHPCDLB": 2,
          "CMDFDIPMGKI": 3,
          "KAIGBDPLNMO": 4.0,
          "BMIEPFCPFGN": 7.0,
          "MNPDDAKDHGK": "Default",
          "GJDMDHIBCME": ""
        }
      },
      {
        "$type": "DGNJLJKOKEE",
        "enable": true,
        "condition": {
          "pose": [201]
        },
        "JMCOBEPDIGM": {
          "HJODGEKLAAK": 1.2999999523162842,
          "CFBKFJKHEEH": 2.200000047683716,
          "MNPDDAKDHGK": "Default"
        }
      },
      {
        "$type": "HMHOIHCBIOJ",
        "enable": true,
        "condition": {
          "pose": [201]
        },
        "JMCOBEPDIGM": {
          "NBENNEKDIIA": 0.5,
          "KPNDPKIOPJM": 5.0,
          "PINAFKEDDLL": 1.0,
          "HIGLILIOAHE": 1.2999999523162842,
          "AMIIPPJEIPM": 2.200000047683716,
          "ANMPOPEBDIA": 3.0,
          "GMJFIMFFOEL": 0.5,
          "CHCPFDMADEI": 1.0,
          "MNPDDAKDHGK": "Default",
          "GJDMDHIBCME": ""
        }
      },
      {
        "$type": "COLLJLNKMLC",
        "enable": true,
        "JMCOBEPDIGM": {
          "ANLAAGAMIKF": 1,
          "MNPDDAKDHGK": "FastMove",
          "GJDMDHIBCME": "",
          "ACOBCFCMBOC": "Spacial",
          "PLLHMGHOAPB": "",
          "KPIJNGFNAEF": "",
          "GDPHPLKJGAJ": "",
          "KKKOAABEHEP": ""
        }
      },
      {
        "$type": "MCDGOJLCMBM",
        "enable": true,
        "JMCOBEPDIGM": {
          "ACOBCFCMBOC": "Spacial",
          "MNPDDAKDHGK": "FastMove",
          "GJDMDHIBCME": ""
        }
      }
    ]
  },
  "move": {
    "$type": "IPNMJMHDMPF",
    "velocityForce": {
      "excludeForces": ["RetreatType"]
    },
    "initWithGroundHitCheckV2": false,
    "yawSpeedRatio": 0.8999999761581421,
    "PKHOMJHFAEE": "RootNode"
  },
  "animal": {
    "tickAbilityElement": false,
    "hasCharacterRenderering": false
  },
  "captureGroup": {
    "defaultConfig": {
      "captureEffect": "Eff_SceneObj_CatchAnimal_CaughtSuccess"
    }
  }
}
