{
  "common": {
    "effectAttachShape": {
      "$type": "FJNPJANPGGC",
      "mesh": "EffectMesh"
    },
    "mass": 80.0,
    "height": 0.6000000238418579,
    "affectedByWorld": true,
    "checkInSurface": true,
    "scale": 1.2999999523162842,
    "clearAIOnSetLightDeactive": true,
    "reconnectSupport": true,
    "recoverByInitPose": true
  },
  "model": {
    "bornEffect": "",
    "attachEffect": "",
    "canBakeMesh": false,
    "BKPFGNPLDNJ": ""
  },
  "dither": {
    "showDitherDuration": 2.0
  },
  "globalValue": {
    "serverGlobalValues": ["SGV_Fungus_StartBurst_Immediately"],
    "initServerGlobalValues": {
      "SGV_Fungus_StartBurst_Immediately": 0.0
    }
  },
  "combat": {
    "property": {
      "endureType": "Monster_Fungus_Battle",
      "weight": 75.0
    },
    "beHit": {
      "hitBloodEffect": ""
    },
    "combatLock": {
      "lockShape": "CircleLockEnemy",
      "lockType": "Avatar&Monster_Lv4"
    },
    "die": {
      "hasAnimatorDie": true,
      "dieEndTime": 0.5,
      "dieForceDisappearTime": 1.5,
      "dieDisappearEffect": "Eff_Death_Common",
      "dieShaderData": "MonsterDie",
      "muteHitBox": true,
      "dieDenyLockOn": true,
      "dieIsGhostToEnemy": true,
      "dieIgnoreTriggerBullet": true,
      "muteBillboard": true,
      "mutePushCollider": true
    },
    "animEvents": {
      "AE_MeleeAttack": {
        "attackPattern": {
          "$type": "ConfigAttackCircle",
          "triggerType": "TriggerNoRepeat",
          "height": 1.2000000476837158,
          "radius": 3.5999999046325684
        },
        "attackInfo": {
          "attackTag": "",
          "attenuationTag": "AE_MeleeAttack",
          "attenuationGroup": "FungusFightV2_Seq1",
          "attackProperty": {
            "actorGrassSubHurtDelta": 1.5,
            "actorWindSubHurtDelta": 0.0,
            "elementType": "Ice",
            "elementDurability": 25.0,
            "GLKMCMDJBIK": 0.0
          },
          "hitPattern": {
            "onHitEffectName": "default",
            "hitImpulseY": "",
            "hitImpulseType": "LV2"
          }
        }
      }
    }
  },
  "abilities": [
    {
      "abilityID": "",
      "abilityName": "Affix_FungusFighterV2_Fungus_ElemMastery",
      "abilityOverride": ""
    },
    {
      "abilityID": "",
      "abilityName": "Fungus_BVB_Universal_ElementalBlast_Immediately",
      "abilityOverride": ""
    },
    {
      "abilityID": "",
      "abilityName": "FungusFighter_Universal_LineMixin",
      "abilityOverride": ""
    },
    {
      "abilityID": "",
      "abilityName": "Fungus_BVB_Un_Water_Bubble_Reject",
      "abilityOverride": ""
    },
    {
      "abilityID": "",
      "abilityName": "Monster_Fungus_Trois_RotationVFX",
      "abilityOverride": ""
    },
    {
      "abilityID": "",
      "abilityName": "Fungus_Trois_BVB_Ice_Blizzard",
      "abilityOverride": ""
    },
    {
      "abilityID": "",
      "abilityName": "Fungus_Trois_BVB_Ice_Passive",
      "abilityOverride": ""
    },
    {
      "abilityID": "",
      "abilityName": "FungusFight_V3_Level3InuDisappear_Adapter",
      "abilityOverride": ""
    }
  ],
  "stateLayers": {
    "defaultLayer": {
      "$type": "GBGJJIIEMBD",
      "layerIndexName": "",
      "CPAANEIJCGD": "",
      "stateIDs": {
        "Born": {
          "$type": "NEDIFAKEGCO",
          "animatorStates": {
            "Born": []
          },
          "resetAnimatorTriggerOnExit": ["DoSkill"]
        },
        "NormalIdle": {
          "$type": "NEDIFAKEGCO",
          "animatorStates": {
            "StandbyFree": [],
            "Standby": []
          },
          "canDoSkill": true,
          "canSyncMove": true,
          "resetAnimatorTriggerOnExit": ["DoSkill"],
          "canSteer": true,
          "autoSteer": true
        },
        "NormalMove": {
          "$type": "NEDIFAKEGCO",
          "animatorStates": {
            "WalkForward": [],
            "WalkBack": [],
            "WalkLeft": [],
            "WalkRight": []
          },
          "canDoSkill": true,
          "canSyncMove": true,
          "resetAnimatorTriggerOnExit": ["DoSkill"],
          "canSteer": true
        },
        "BeHit": {
          "$type": "NEDIFAKEGCO",
          "animatorStates": {
            "Hit_L": ["Audio_Monster_Fungus_Trois_HitThrow"],
            "Hit_H": ["Audio_Monster_Fungus_Trois_HitThrow"]
          },
          "resetAnimatorTriggerOnEnter": ["BeHit"],
          "resetAnimatorTriggerOnExit": ["DoSkill"],
          "setAnimatorBoolean": [
            {
              "name": "CantMove",
              "normalizeEnd": 0.5
            }
          ],
          "airMoveFollowAnimation": true
        },
        "BeHitThrowAir": {
          "$type": "NEDIFAKEGCO",
          "animatorStates": {
            "HitThrow": ["Audio_Monster_Fungus_Trois_HitThrow"],
            "HitThrowDrop": []
          },
          "resetAnimatorTriggerOnEnter": ["BeHit", "HitAir2HitDrop"],
          "resetAnimatorTriggerOnExit": ["DoSkill"],
          "setAnimatorBoolean": [
            {
              "name": "BurstUnavailable"
            },
            {
              "name": "CantMove"
            }
          ]
        },
        "BeHitThrow": {
          "$type": "NEDIFAKEGCO",
          "animatorStates": {
            "HitThrowToGround": [
              "Monster_Fungus_Trois_Gamma_Fire_HitThrowToGround",
              "Audio_Monster_Fungus_Trois_HitThrowToGround"
            ]
          },
          "resetAnimatorTriggerOnExit": ["DoSkill"],
          "setAnimatorBoolean": [
            {
              "name": "CantMove",
              "normalizeEnd": 0.4399999976158142
            }
          ]
        },
        "Struggle": {
          "$type": "NEDIFAKEGCO",
          "animatorStates": {
            "Struggle": []
          },
          "resetAnimatorTriggerOnEnter": ["BeHit", "HitAir2HitDrop"],
          "resetAnimatorTriggerOnExit": ["DoSkill"],
          "setAnimatorBoolean": [
            {
              "name": "BurstUnavailable"
            }
          ]
        },
        "Die": {
          "$type": "NEDIFAKEGCO",
          "animatorStates": {
            "Die_BS": ["Audio_Monster_Fungus_Trois_Die"],
            "Die": ["Monster_Fungus_Trois_Die"],
            "AirDie": ["Monster_Fungus_Trois_Die"],
            "SwimDie_BS": [],
            "SwimDie": ["Monster_Fungus_Trois_Die"]
          }
        },
        "Warning": {
          "$type": "NEDIFAKEGCO",
          "animatorStates": {
            "Warning": ["Audio_Monster_Fungus_Trois_Warning"]
          },
          "canSyncMove": true,
          "resetAnimatorTriggerOnExit": ["BeHit", "DoSkill"],
          "canSteer": true
        },
        "ReturnToBorn": {
          "$type": "NEDIFAKEGCO",
          "animatorStates": {
            "ReturnToBorn_BS": [
              "Monster_Fungus_Trois_ReturnToBorn_BS",
              "Audio_Monster_Fungus_Trois_ReturnToBorn_BS"
            ],
            "ReturnToBorn_Loop": [],
            "ReturnToBorn_AS": [
              "Monster_Fungus_Trois_ReturnToBorn_AS",
              "Audio_Monster_Fungus_Trois_ReturnToBorn_AS"
            ]
          },
          "cullingModelAlwaysAnimate": true,
          "resetAnimatorTriggerOnExit": ["BeHit", "DoSkill"]
        },
        "NormalAttack": {
          "$type": "NEDIFAKEGCO",
          "animatorStates": {
            "MeleeAttack": [
              "Monster_Fungus_Trois_Ice_Melee",
              "Audio_Monster_Fungus_Activity_Trois_Ice_MeleeAttack"
            ]
          },
          "addEndure": 0.5,
          "resetAnimatorTriggerOnExit": ["BeHit", "DoSkill"]
        },
        "UnionBurst": {
          "$type": "NEDIFAKEGCO",
          "animatorStates": {
            "IceShield": [
              "Monster_Fungus_Trois_Ice_Blizzard",
              "Audio_Monster_Fungus_Activity_Trois_Ice_IceShield"
            ]
          },
          "addEndure": 0.0,
          "resetAnimatorTriggerOnExit": ["BeHit", "DoSkill"]
        }
      }
    }
  },
  "billboard": {
    "$type": "DNGNMAJBCNP",
    "attachPoint": "BillboardAttach",
    "offset": {
      "y": 0.5
    },
    "radiusOffset": 1.0,
    "enableSelfAdapt": true,
    "showDistance": 100.0,
    "elementStickUseShowDistanceInDungeon": true,
    "showHPBar": true
  },
  "initialPoses": {
    "Default": {}
  },
  "aibeta": {
    "enable": true,
    "moveSetting": {
      "navMeshAgentName": "Undead01"
    },
    "sensing": {
      "settings": {
        "DefaultSetting": {
          "viewRange": 22.0,
          "feelRange": 30.0
        },
        "NoSensing": {
          "enableVision": false,
          "hearAttractionRange": 0.0,
          "feelRange": 0.0
        }
      },
      "templates": {
        "DefaultTemplate": {
          "DefaultPoses": "DefaultSetting"
        },
        "NoSensing": {
          "DefaultPoses": "NoSensing"
        }
      }
    },
    "neurons": {
      "DefaultSetting": ["HIT"],
      "NeverCombat": []
    },
    "threat": {
      "GHIJMOKOLMB": "",
      "clearThreatTargetDistance": 30.0,
      "clearThreatEdgeDistance": 5.0,
      "clearThreatTimerByDistance": 2.0,
      "viewAttenuation": [
        {
          "x": 12.0,
          "y": 1.0
        },
        {
          "x": 20.0,
          "y": 0.5
        }
      ],
      "targetDistanceScoreSystem": {
        "weight": 100,
        "value": 8.0,
        "max": 30.0,
        "enable": true
      }
    },
    "defendArea": {
      "defendRange": 50.0
    },
    "command": {
      "enable": true
    },
    "profiling": {
      "lodStrategy": "Best"
    },
    "skills": {
      "201": {
        "name": "NormalAttack",
        "castCondition": {
          "pose": [1001, 1002],
          "pickRangeMax": 3.6500000953674316
        },
        "cd": 3.0,
        "publicCDGroup": "",
        "triggerCDOnStart": true,
        "HHAGODJIAPE": "",
        "stateIDs": ["NormalAttack"],
        "flagTargetReachable": "10",
        "flagSelfOnTemplateCollider": "01",
        "flagSelfInZone": "11",
        "flagTargetInZone": "11"
      },
      "401": {
        "name": "UnionBurst",
        "castCondition": {
          "pose": [233]
        },
        "publicCDGroup": "",
        "HHAGODJIAPE": "",
        "stateIDs": ["UnionBurst"],
        "flagTargetReachable": "10",
        "flagSelfOnTemplateCollider": "01",
        "flagSelfInZone": "10",
        "flagTargetInZone": "11"
      }
    },
    "skillGCD": 0.25,
    "target": {
      "defaultTargetPrioritys": ["COMMAND", "POINT", "THREAT"]
    },
    "birdCirclingTactic": [
      {
        "$type": "KACCHOLJDNK",
        "enable": true,
        "condition": {
          "pose": [1001, 1002]
        },
        "JMCOBEPDIGM": {
          "ANLAAGAMIKF": 1,
          "KHDFDAAAPEI": 3.5,
          "GGEBMFHFBPO": 3.5,
          "MNPDDAKDHGK": ""
        }
      },
      {
        "$type": "OLKHLDJJEOM",
        "enable": true,
        "JMCOBEPDIGM": {
          "GGEBMFHFBPO": 0.4000000059604645
        }
      }
    ]
  },
  "inputKeys": [
    {
      "keyID": 201,
      "inputKeyCode": 257,
      "abilityName": ""
    },
    {
      "keyID": 401,
      "inputKeyCode": 259,
      "abilityName": ""
    }
  ],
  "move": {
    "$type": "IPNMJMHDMPF",
    "facingMove": "FourDirection",
    "airFacingMove": "AirBlend3D",
    "monsterSizeType": "SlimeType",
    "yawSpeedRatio": 6.619999885559082,
    "PKHOMJHFAEE": "RootNode"
  }
}
