{
  "common": {
    "effectAttachShape": {
      "$type": "FJNPJANPGGC",
      "mesh": "EffectMesh"
    },
    "mass": 30.0,
    "affectedByWorld": true,
    "checkInSurface": true,
    "scale": 1.2000000476837158,
    "useGrassDisplacement": true
  },
  "headControl": {
    "$type": "KPIPDEBDPIH",
    "useHeadControl": true,
    "animStates": [
      "NormalIdle/Standby",
      "NormalMove/WalkForward",
      "NormalMove/WalkBack",
      "NormalMove/WalkRight",
      "NormalMove/WalkLeft",
      "NormalMove/Run",
      "Turn/TurnLeft",
      "Turn/TurnRight"
    ]
  },
  "model": {
    "bornEffect": "Eff_Monster_Common_Born",
    "attachEffect": "",
    "BKPFGNPLDNJ": ""
  },
  "combat": {
    "property": {
      "endureType": "Monster_Minion",
      "weight": 75.0
    },
    "beHit": {
      "hitBloodEffect": ""
    },
    "combatLock": {
      "lockShape": "CircleLockEnemy",
      "lockType": "Avatar&Monster_Lv4"
    },
    "die": {
      "hasAnimatorDie": true,
      "dieEndTime": 2.0,
      "dieForceDisappearTime": 4.0,
      "dieDisappearEffect": "Eff_Death_Common",
      "dieShaderData": "MonsterDie",
      "useRagDoll": true,
      "muteHitBox": true,
      "dieDenyLockOn": true,
      "dieIsGhostToEnemy": true,
      "dieIgnoreTriggerBullet": true,
      "muteBillboard": true,
      "mutePushCollider": true
    },
    "animEvents": {
      "AtkNo": {
        "attackPattern": {
          "$type": "ConfigAttackCircle",
          "triggerType": "TriggerNoRepeat",
          "born": {
            "$type": "ConfigBornBySelf",
            "offset": {
              "x": 0.0,
              "y": 0.0,
              "z": -0.5
            }
          },
          "fanAngle": 60.0,
          "radius": 1.5
        },
        "attackInfo": {
          "attackTag": "",
          "attenuationTag": "",
          "attenuationGroup": "default",
          "attackProperty": {
            "actorGrassSubHurtDelta": 0.75,
            "actorWindSubHurtDelta": 0.0,
            "elementDurability": 100.0,
            "strikeType": "Blunt",
            "attackType": "Melee",
            "GLKMCMDJBIK": 0.0
          },
          "hitPattern": {
            "onHitEffectName": "default",
            "hitImpulseY": "",
            "hitImpulseType": "LV2",
            "hitHaltTimeScale": 0.009999999776482582
          }
        }
      },
      "AtkNormal": {
        "attackPattern": {
          "$type": "ConfigAttackCircle",
          "triggerType": "TriggerNoRepeat",
          "born": {
            "$type": "ConfigBornBySelf",
            "offset": {
              "x": 0.0,
              "y": 0.0,
              "z": 0.0
            }
          },
          "fanAngle": 60.0,
          "radius": 1.75
        },
        "attackInfo": {
          "attackTag": "",
          "attenuationTag": "",
          "attenuationGroup": "default",
          "attackProperty": {
            "actorGrassSubHurtDelta": 1.0,
            "actorWindSubHurtDelta": 0.0,
            "elementDurability": 100.0,
            "strikeType": "Blunt",
            "enBreak": 80.0,
            "attackType": "Melee",
            "GLKMCMDJBIK": 0.0
          },
          "hitPattern": {
            "onHitEffectName": "default",
            "hitImpulseY": "",
            "hitImpulseType": "LV2",
            "hitHaltTimeScale": 0.009999999776482582
          }
        }
      },
      "AtkNormal_Fire": {
        "attackPattern": {
          "$type": "ConfigAttackCircle",
          "triggerType": "TriggerNoRepeat",
          "born": {
            "$type": "ConfigBornBySelf",
            "offset": {
              "x": 0.0,
              "y": 0.0,
              "z": 0.0
            }
          },
          "fanAngle": 60.0,
          "radius": 1.75
        },
        "attackInfo": {
          "attackTag": "",
          "attenuationTag": "",
          "attenuationGroup": "default",
          "attackProperty": {
            "actorGrassSubHurtDelta": 1.25,
            "actorWindSubHurtDelta": 0.0,
            "elementType": "Fire",
            "elementDurability": 50.0,
            "strikeType": "Blunt",
            "enBreak": 80.0,
            "attackType": "Melee",
            "GLKMCMDJBIK": 0.0
          },
          "hitPattern": {
            "onHitEffectName": "default",
            "hitImpulseY": "",
            "hitImpulseType": "LV2",
            "hitHaltTimeScale": 0.009999999776482582
          },
          "cameraShake": {
            "shakeType": "HitVector",
            "shakeRange": 0.10000000149011612,
            "shakeTime": 0.15000000596046448,
            "shakeDistance": 25.0,
            "shakeDir": {
              "x": -1.0,
              "y": -1.0
            }
          }
        }
      },
      "FireRush_Rush1": {
        "attackPattern": {
          "$type": "ConfigAttackBox",
          "triggerType": "TriggerNoRepeat",
          "born": {
            "$type": "ConfigBornBySelf",
            "offset": {
              "x": 0.3499999940395355,
              "y": 0.5,
              "z": 0.25
            }
          },
          "size": {
            "x": 2.0,
            "y": 1.75,
            "z": 1.5
          }
        },
        "attackInfo": {
          "attackTag": "",
          "attenuationTag": "",
          "attenuationGroup": "default",
          "attackProperty": {
            "actorGrassSubHurtDelta": 0.10000000149011612,
            "actorWindSubHurtDelta": 0.0,
            "elementDurability": 100.0,
            "strikeType": "Blunt",
            "enBreak": 100.0,
            "GLKMCMDJBIK": 0.0
          },
          "hitPattern": {
            "onHitEffectName": "default",
            "hitImpulseY": "",
            "hitImpulseType": "LV4",
            "retreatType": "ByHitDirection"
          }
        }
      },
      "FireRush_Rush2": {
        "attackPattern": {
          "$type": "ConfigAttackBox",
          "triggerType": "TriggerNoRepeat",
          "born": {
            "$type": "ConfigBornBySelf",
            "offset": {
              "x": -0.3499999940395355,
              "y": 0.5,
              "z": 0.25
            }
          },
          "size": {
            "x": 2.0,
            "y": 1.75,
            "z": 1.5
          }
        },
        "attackInfo": {
          "attackTag": "",
          "attenuationTag": "",
          "attenuationGroup": "default",
          "attackProperty": {
            "actorGrassSubHurtDelta": 0.10000000149011612,
            "actorWindSubHurtDelta": 0.0,
            "elementDurability": 100.0,
            "strikeType": "Blunt",
            "enBreak": 100.0,
            "GLKMCMDJBIK": 0.0
          },
          "hitPattern": {
            "onHitEffectName": "default",
            "hitImpulseY": "",
            "hitImpulseType": "LV4",
            "retreatType": "ByHitDirection"
          }
        }
      },
      "FireRush_Rush_Fire1": {
        "attackPattern": {
          "$type": "ConfigAttackBox",
          "triggerType": "TriggerNoRepeat",
          "born": {
            "$type": "ConfigBornBySelf",
            "offset": {
              "x": 0.3499999940395355,
              "y": 0.5,
              "z": 0.25
            }
          },
          "size": {
            "x": 2.0,
            "y": 1.75,
            "z": 1.5
          }
        },
        "attackInfo": {
          "attackTag": "",
          "attenuationTag": "",
          "attenuationGroup": "default",
          "attackProperty": {
            "actorGrassSubHurtDelta": 0.10000000149011612,
            "actorWindSubHurtDelta": 0.0,
            "elementType": "Fire",
            "elementDurability": 25.0,
            "strikeType": "Blunt",
            "enBreak": 100.0,
            "GLKMCMDJBIK": 0.0
          },
          "hitPattern": {
            "onHitEffectName": "default",
            "hitImpulseY": "",
            "hitImpulseType": "LV4",
            "retreatType": "ByHitDirection"
          },
          "cameraShake": {
            "shakeRange": 0.10000000149011612,
            "shakeTime": 0.15000000596046448,
            "shakeDistance": 25.0
          }
        }
      },
      "FireRush_Rush_Fire2": {
        "attackPattern": {
          "$type": "ConfigAttackBox",
          "triggerType": "TriggerNoRepeat",
          "born": {
            "$type": "ConfigBornBySelf",
            "offset": {
              "x": -0.3499999940395355,
              "y": 0.5,
              "z": 0.25
            }
          },
          "size": {
            "x": 2.0,
            "y": 1.75,
            "z": 1.5
          }
        },
        "attackInfo": {
          "attackTag": "",
          "attenuationTag": "",
          "attenuationGroup": "default",
          "attackProperty": {
            "actorGrassSubHurtDelta": 0.10000000149011612,
            "actorWindSubHurtDelta": 0.0,
            "elementType": "Fire",
            "elementDurability": 25.0,
            "strikeType": "Blunt",
            "enBreak": 100.0,
            "GLKMCMDJBIK": 0.0
          },
          "hitPattern": {
            "onHitEffectName": "default",
            "hitImpulseY": "",
            "hitImpulseType": "LV4",
            "retreatType": "ByHitDirection"
          },
          "cameraShake": {
            "shakeRange": 0.10000000149011612,
            "shakeTime": 0.15000000596046448,
            "shakeDistance": 25.0
          }
        }
      },
      "FireRush_AS": {
        "attackPattern": {
          "$type": "ConfigAttackCircle",
          "triggerType": "TriggerNoRepeat",
          "born": {
            "$type": "ConfigBornBySelf",
            "offset": {
              "x": 0.0,
              "y": 0.0,
              "z": 0.0
            }
          },
          "fanAngle": 240.0,
          "radius": 1.75
        },
        "attackInfo": {
          "attackTag": "",
          "attenuationTag": "",
          "attenuationGroup": "default",
          "attackProperty": {
            "actorGrassSubHurtDelta": 0.75,
            "actorWindSubHurtDelta": 0.0,
            "elementDurability": 100.0,
            "strikeType": "Blunt",
            "enBreak": 100.0,
            "GLKMCMDJBIK": 0.0
          },
          "hitPattern": {
            "onHitEffectName": "default",
            "hitImpulseY": "",
            "hitImpulseType": "LV5",
            "hitHaltTime": 0.05000000074505806,
            "hitHaltTimeScale": 0.009999999776482582
          },
          "cameraShake": {
            "shakeType": "HitVector",
            "shakeRange": 0.11999999731779099,
            "shakeTime": 0.11999999731779099,
            "shakeDistance": 25.0,
            "shakeDir": {
              "x": -1.0,
              "z": 1.0
            }
          }
        }
      },
      "FireRush_AS_Fire": {
        "attackPattern": {
          "$type": "ConfigAttackCircle",
          "triggerType": "TriggerNoRepeat",
          "born": {
            "$type": "ConfigBornBySelf",
            "offset": {
              "x": 0.0,
              "y": 0.0,
              "z": 0.0
            }
          },
          "fanAngle": 240.0,
          "radius": 1.75
        },
        "attackInfo": {
          "attackTag": "",
          "attenuationTag": "",
          "attenuationGroup": "default",
          "attackProperty": {
            "actorGrassSubHurtDelta": 1.0,
            "actorWindSubHurtDelta": 0.0,
            "elementType": "Fire",
            "elementDurability": 25.0,
            "strikeType": "Blunt",
            "enBreak": 100.0,
            "GLKMCMDJBIK": 0.0
          },
          "hitPattern": {
            "onHitEffectName": "default",
            "hitImpulseY": "",
            "hitImpulseType": "LV5",
            "hitHaltTime": 0.05000000074505806,
            "hitHaltTimeScale": 0.009999999776482582
          },
          "cameraShake": {
            "shakeType": "HitVector",
            "shakeRange": 0.11999999731779099,
            "shakeTime": 0.11999999731779099,
            "shakeDistance": 25.0,
            "shakeDir": {
              "x": -1.0,
              "z": 1.0
            }
          }
        }
      },
      "FireRush_HitScene": {
        "attackPattern": {
          "$type": "ConfigAttackCircle",
          "triggerType": "TriggerNoRepeat",
          "checkHitLayerType": "OnlyHitScene",
          "born": {
            "$type": "ConfigBornBySelf",
            "offset": {
              "x": 0.0,
              "y": 1.0,
              "z": 0.0
            }
          },
          "fanAngle": 45.0,
          "radius": 1.25
        },
        "attackInfo": {
          "attackTag": "",
          "attenuationTag": "",
          "attenuationGroup": "default",
          "cameraShake": {
            "shakeRange": 0.11999999731779099,
            "shakeTime": 0.11999999731779099,
            "shakeDistance": 25.0
          }
        }
      }
    }
  },
  "equipController": {
    "sheathPoint": "",
    "attachPoints": {
      "equip01": "WeaponR",
      "equip02": "WeaponL"
    }
  },
  "abilities": [
    {
      "abilityID": "Alert",
      "abilityName": "Hili_None_Alert",
      "abilityOverride": "",
      "lightWeightRemove": true
    },
    {
      "abilityID": "FireRush",
      "abilityName": "Hili_Fire_FireRush",
      "abilityOverride": ""
    },
    {
      "abilityID": "Hili_Torch_FireState_OnFire",
      "abilityName": "Hili_Torch_FireState_OnFire",
      "abilityOverride": ""
    },
    {
      "abilityID": "Hili_Torch_FireState_OffFire",
      "abilityName": "Hili_Torch_FireState_OffFire",
      "abilityOverride": ""
    },
    {
      "abilityID": "Hili_Torch_EventPattern",
      "abilityName": "Hili_Torch_EventPattern",
      "abilityOverride": ""
    },
    {
      "abilityID": "Hili_Torch_FireUp",
      "abilityName": "Hili_Torch_FireUp",
      "abilityOverride": ""
    },
    {
      "abilityID": "Hili_Fire_Rush_Turn",
      "abilityName": "Hili_Fire_Rush_Turn",
      "abilityOverride": ""
    },
    {
      "abilityID": "EquipFlagManager",
      "abilityName": "Hili_None_EquipFlagManager",
      "abilityOverride": ""
    }
  ],
  "stateLayers": {
    "defaultLayer": {
      "$type": "GBGJJIIEMBD",
      "layerIndexName": "",
      "CPAANEIJCGD": "",
      "stateIDs": {
        "NormalIdle": {
          "$type": "NEDIFAKEGCO",
          "animatorStates": {
            "Born": [],
            "Standby": []
          },
          "canDoSkill": true,
          "canSyncMove": true,
          "resetAnimatorTriggerOnExit": ["DoSkill"]
        },
        "NormalMove": {
          "$type": "NEDIFAKEGCO",
          "animatorStates": {
            "WalkForward": ["Audio_Hili_Walk"],
            "WalkBack": ["Audio_Hili_Walk"],
            "WalkRight": ["Audio_Hili_Walk"],
            "WalkLeft": ["Audio_Hili_Walk"],
            "Run": ["Audio_Hili_Run"]
          },
          "canDoSkill": true,
          "canSyncMove": true,
          "resetAnimatorTriggerOnExit": ["DoSkill"],
          "canSteer": true
        },
        "Turn": {
          "$type": "NEDIFAKEGCO",
          "animatorStates": {
            "TurnLeft": ["Audio_Hili_Walk"],
            "TurnRight": ["Audio_Hili_Walk"]
          },
          "canDoSkill": true,
          "canSyncMove": true,
          "resetAnimatorTriggerOnExit": ["DoSkill"],
          "canSteer": true
        },
        "BeHit": {
          "$type": "NEDIFAKEGCO",
          "animatorStates": {
            "Hit_L": ["Audio_Hili_Hit_L"],
            "Hit_H": ["Audio_Hili_Hit_H"]
          },
          "resetAnimatorTriggerOnEnter": ["BeHit"],
          "resetAnimatorTriggerOnExit": ["DoSkill"]
        },
        "BeHitThrow": {
          "$type": "NEDIFAKEGCO",
          "animatorStates": {
            "HitThrow": ["Audio_Hili_Hit_Throw"],
            "HitThrowDrop": [],
            "HitThrowToGround": ["Audio_Hili_Hit_ThrowToGround"]
          },
          "resetAnimatorTriggerOnEnter": ["BeHit", "HitAir2HitDrop"],
          "resetAnimatorTriggerOnExit": ["DoSkill"]
        },
        "Die": {
          "$type": "NEDIFAKEGCO",
          "animatorStates": {
            "SwimDie": ["Monster_Hili_None_Die", "Audio_Hili_SwimDie"],
            "SwimDie_AS": ["Audio_Hili_SwimDie"]
          }
        },
        "Die_RagDoll": {
          "$type": "NEDIFAKEGCO",
          "animatorStates": {
            "Die1": ["Monster_Hili_None_Die", "Audio_Hili_Die1"],
            "Die2": ["Monster_Hili_None_Die", "Audio_Hili_Die2"],
            "AirDie": ["Monster_Hili_None_Die", "Audio_Hili_Die1"]
          },
          "enableRagDoll": true
        },
        "Struggle": {
          "$type": "NEDIFAKEGCO",
          "animatorStates": {
            "Struggle": []
          },
          "resetAnimatorTriggerOnEnter": ["BeHit", "HitAir2HitDrop"],
          "resetAnimatorTriggerOnExit": ["DoSkill"]
        },
        "Life_Warning": {
          "$type": "NEDIFAKEGCO",
          "animatorStates": {
            "Warning": [
              "Monster_Undead01_Warning",
              "Monster_Hili_None_Alert",
              "Audio_Hili_Warning"
            ]
          },
          "resetAnimatorTriggerOnExit": ["BeHit", "DoSkill"]
        },
        "FireRush_BS1": {
          "$type": "NEDIFAKEGCO",
          "animatorStates": {
            "FireRush_BS1": ["Audio_Hili_FireRush_BS"]
          },
          "addEndure": 0.6000000238418579,
          "massRatio": 20.0,
          "resetAnimatorTriggerOnExit": ["BeHit", "DoSkill"]
        },
        "FireRush_BS2": {
          "$type": "NEDIFAKEGCO",
          "animatorStates": {
            "FireRush_BS2": [
              "Audio_Hili_FireRush_BS",
              "Monster_Hili_Fire_FireRush_BS_Fire"
            ]
          },
          "addEndure": 0.6000000238418579,
          "massRatio": 20.0,
          "resetAnimatorTriggerOnExit": ["BeHit", "DoSkill"]
        },
        "FireRush_Rush_Loop1": {
          "$type": "NEDIFAKEGCO",
          "animatorStates": {
            "FireRush_Rush_Loop1": [
              "Monster_Hili_Fire_FireRush_Rush_Fire",
              "Audio_Hili_FireRush_Push_Loop"
            ]
          },
          "addEndure": 0.6000000238418579,
          "massRatio": 20.0,
          "resetAnimatorTriggerOnExit": ["BeHit", "DoSkill"]
        },
        "FireRush_Rush_Loop2": {
          "$type": "NEDIFAKEGCO",
          "animatorStates": {
            "FireRush_Rush_Loop2": [
              "Monster_Hili_Fire_FireRush_Rush_Fire",
              "Audio_Hili_FireRush_Push_Loop"
            ]
          },
          "addEndure": 0.6000000238418579,
          "massRatio": 20.0,
          "resetAnimatorTriggerOnExit": ["BeHit", "DoSkill"]
        },
        "FireRush_AS": {
          "$type": "NEDIFAKEGCO",
          "animatorStates": {
            "FireRush_AS": [
              "Monster_Hili_Fire_FireRush_AS_Fire",
              "Audio_Hili_FireRush_AS"
            ]
          },
          "addEndure": 0.6000000238418579,
          "massRatio": 20.0,
          "resetAnimatorTriggerOnExit": ["BeHit", "DoSkill", "NextSkillTrigger"]
        },
        "FireRush_StandUp": {
          "$type": "NEDIFAKEGCO",
          "animatorStates": {
            "FireRush_StandUp": []
          },
          "massRatio": 0.6000000238418579,
          "resetAnimatorTriggerOnExit": ["BeHit", "DoSkill"]
        },
        "FireRush_Crash": {
          "$type": "NEDIFAKEGCO",
          "animatorStates": {
            "FireRush_Crash": ["Monster_Hili_Fire_FireRush_Crash"]
          },
          "resetAnimatorTriggerOnExit": ["BeHit", "DoSkill", "CrashTrigger"]
        },
        "ThrowPebble": {
          "$type": "NEDIFAKEGCO",
          "animatorStates": {
            "ThrowPebble": [
              "Monster_Hili_None_ThrowPebble",
              "Audio_Hili_ThrowPebble"
            ]
          },
          "resetAnimatorTriggerOnExit": ["BeHit", "DoSkill"]
        },
        "NoWeapon_Attack": {
          "$type": "NEDIFAKEGCO",
          "animatorStates": {
            "NoWeapon_Attack": [
              "Monster_Hili_None_NoWeaponAttack",
              "Audio_Hili_NormalAtk"
            ]
          },
          "resetAnimatorTriggerOnExit": ["BeHit", "DoSkill"]
        },
        "Normal_Attack": {
          "$type": "NEDIFAKEGCO",
          "animatorStates": {
            "Normal_Attack": [
              "Monster_Hili_Fire_NormalAttack_Fire",
              "Audio_Hili_Sword_NormalAtk"
            ]
          },
          "resetAnimatorTriggerOnExit": ["BeHit", "DoSkill"]
        },
        "FireUp": {
          "$type": "NEDIFAKEGCO",
          "animatorStates": {
            "FireUp": ["Monster_Hili_Fire_Torch_FireUp", "Audio_Hili_FireUp"]
          },
          "addEndure": 0.0,
          "resetAnimatorTriggerOnExit": ["BeHit", "DoSkill"]
        },
        "ExtinguishAlert": {
          "$type": "NEDIFAKEGCO",
          "animatorStates": {
            "ExtinguishAlert": []
          },
          "resetAnimatorTriggerOnExit": ["BeHit", "DoSkill"]
        },
        "Practice_Action": {
          "$type": "NEDIFAKEGCO",
          "animatorStates": {
            "Practice_NoWeapon": [],
            "Practice_NoWeapon_Back": [],
            "Practice_Sword": [],
            "Practice_Sword_Back": [],
            "Practice_Shoot_Aim": [],
            "Practice_Shoot_Attack": []
          },
          "canDoSkill": true,
          "canSyncMove": true,
          "resetAnimatorTriggerOnExit": ["DoSkill"]
        },
        "Practice": {
          "$type": "NEDIFAKEGCO",
          "animatorStates": {
            "Practice": []
          },
          "canDoSkill": true,
          "canSyncMove": true,
          "resetAnimatorTriggerOnExit": ["DoSkill"]
        }
      }
    }
  },
  "billboard": {
    "$type": "DNGNMAJBCNP",
    "attachPoint": "BillboardAttach",
    "offset": {
      "x": -0.05000000074505806
    },
    "offsetType": "Character",
    "radiusOffset": 0.25,
    "showHPBar": true
  },
  "initialPoses": {
    "Default": {},
    "Practice": {
      "initialPoseID": 9013,
      "initialPoseParams": {
        "boolParams": {
          "Practice": "true"
        }
      }
    }
  },
  "aibeta": {
    "enable": true,
    "moveSetting": {
      "navMeshAgentName": "Undead01",
      "almostReachedDistanceRun": 1.5
    },
    "sensing": {
      "settings": {
        "DefaultSetting": {
          "feelRange": 8.0
        },
        "HighAlert": {
          "viewRange": 40.0,
          "feelRange": 10.0
        },
        "NeverCombat": {
          "enableVision": false,
          "hearAttractionRange": 0.0,
          "feelRange": 0.0
        }
      },
      "templates": {
        "DefaultTemplate": {
          "DefaultPoses": "DefaultSetting"
        },
        "HighAlertTemplate": {
          "DefaultPoses": "HighAlert"
        },
        "NeverCombatTemplate": {
          "DefaultPoses": "NeverCombat"
        }
      }
    },
    "neurons": {
      "DefaultSetting": ["HIT"],
      "NeverCombat": []
    },
    "threat": {
      "GHIJMOKOLMB": "",
      "clearThreatByLostPath": true,
      "clearThreatTimerByLostPath": 5.0,
      "viewAttenuation": [
        {
          "x": 10.0,
          "y": 2.0
        },
        {
          "x": 15.0,
          "y": 0.800000011920929
        },
        {
          "x": 20.0,
          "y": 0.5
        },
        {
          "x": 25.0,
          "y": 0.30000001192092896
        },
        {
          "x": 30.0,
          "y": 0.20000000298023224
        }
      ]
    },
    "defendArea": {
      "defendRange": 50.0
    },
    "skills": {
      "103": {
        "name": "OnAlert",
        "skillType": "OnAlert",
        "faceTarget": true,
        "publicCDGroup": "",
        "triggerGCD": false,
        "HHAGODJIAPE": "",
        "stateIDs": ["Life_Warning"],
        "skillQueryingTime": 3.0,
        "flagTargetReachable": "10",
        "flagSelfOnTemplateCollider": "01",
        "flagSelfInZone": "10",
        "flagTargetInZone": "11"
      },
      "104": {
        "name": "OnAlert",
        "skillType": "OnNerve",
        "faceTarget": true,
        "castCondition": {
          "pose": [9002, 9003, 9011, 9012, 9013]
        },
        "publicCDGroup": "",
        "triggerGCD": false,
        "HHAGODJIAPE": "",
        "stateIDs": ["Life_Warning"],
        "skillQueryingTime": 3.0,
        "flagTargetReachable": "10",
        "flagSelfOnTemplateCollider": "01",
        "flagSelfInZone": "10",
        "flagTargetInZone": "11",
        "nerveTrigger": ["HIT"]
      },
      "201": {
        "name": "NoWeapon_Attack",
        "combatSkillType": "MeleeAttack",
        "enableSkillPrepare": true,
        "castCondition": {
          "pose": [101],
          "pickRangeMin": 0.25,
          "pickRangeMax": 5.25,
          "castRangeMin": 1.25,
          "castRangeMax": 1.5
        },
        "cd": 3.0,
        "cdUpperRange": 1.0,
        "publicCDGroup": "",
        "HHAGODJIAPE": "",
        "stateIDs": ["NoWeapon_Attack"],
        "flagTargetReachable": "10",
        "flagSelfOnTemplateCollider": "01",
        "flagSelfInZone": "10",
        "flagTargetInZone": "11"
      },
      "202": {
        "name": "NoWeapon_Attack",
        "combatSkillType": "MeleeAttack",
        "castCondition": {
          "pose": [101],
          "pickRangeMax": 1.5
        },
        "cd": 2.5,
        "cdUpperRange": 1.0,
        "publicCDGroup": "",
        "HHAGODJIAPE": "",
        "stateIDs": ["NoWeapon_Attack"],
        "flagTargetReachable": "10",
        "flagSelfOnTemplateCollider": "01",
        "flagSelfInZone": "11",
        "flagTargetInZone": "11"
      },
      "251": {
        "name": "Normal_Attack",
        "combatSkillType": "MeleeAttack",
        "faceTarget": true,
        "castCondition": {
          "pose": [401, 402],
          "pickRangeMax": 3.25
        },
        "cd": 3.0,
        "cdUpperRange": 1.0,
        "publicCDGroup": "",
        "HHAGODJIAPE": "",
        "stateIDs": ["Normal_Attack"],
        "flagTargetReachable": "10",
        "flagSelfOnTemplateCollider": "01",
        "flagSelfInZone": "11",
        "flagTargetInZone": "11"
      },
      "401": {
        "name": "FireRush",
        "faceTarget": true,
        "castCondition": {
          "pose": [401],
          "pickRangeMin": 3.5,
          "pickRangeMax": 25.0
        },
        "cd": 10.0,
        "cdUpperRange": 5.0,
        "publicCDGroup": "meleeAttack_long",
        "HHAGODJIAPE": "",
        "stateIDs": [
          "FireRush_BS1",
          "FireRush_BS2",
          "FireRush_Rush_Loop1",
          "FireRush_Rush_Loop2",
          "FireRush_AS",
          "FireRush_StandUp"
        ],
        "flagTargetReachable": "10",
        "flagSelfOnTemplateCollider": "01",
        "flagSelfInZone": "10",
        "flagTargetInZone": "11"
      },
      "402": {
        "name": "FireRush",
        "faceTarget": true,
        "castCondition": {
          "pose": [401],
          "pickRangeMax": 25.0
        },
        "cd": 10.0,
        "cdUpperRange": 5.0,
        "publicCDGroup": "meleeAttack_long",
        "HHAGODJIAPE": "",
        "stateIDs": [
          "FireRush_BS1",
          "FireRush_BS2",
          "FireRush_Rush_Loop1",
          "FireRush_Rush_Loop2",
          "FireRush_AS",
          "FireRush_StandUp"
        ],
        "flagTargetReachable": "01",
        "flagSelfOnTemplateCollider": "01",
        "flagSelfInZone": "10",
        "flagTargetInZone": "11"
      },
      "403": {
        "name": "FireRush",
        "faceTarget": true,
        "castCondition": {
          "pose": [401],
          "pickRangeMax": 25.0
        },
        "cd": 10.0,
        "cdUpperRange": 5.0,
        "publicCDGroup": "meleeAttack_long",
        "HHAGODJIAPE": "",
        "stateIDs": [
          "FireRush_BS1",
          "FireRush_BS2",
          "FireRush_Rush_Loop1",
          "FireRush_Rush_Loop2",
          "FireRush_AS",
          "FireRush_StandUp"
        ],
        "flagTargetReachable": "10",
        "flagSelfOnTemplateCollider": "01",
        "flagSelfInZone": "01",
        "flagTargetInZone": "11"
      },
      "404": {
        "name": "FireRush",
        "faceTarget": true,
        "castCondition": {
          "pose": [401],
          "pickRangeMax": 25.0
        },
        "cd": 10.0,
        "cdUpperRange": 5.0,
        "publicCDGroup": "meleeAttack_long",
        "HHAGODJIAPE": "",
        "stateIDs": [
          "FireRush_BS1",
          "FireRush_BS2",
          "FireRush_Rush_Loop1",
          "FireRush_Rush_Loop2",
          "FireRush_AS",
          "FireRush_StandUp"
        ],
        "flagTargetReachable": "01",
        "flagSelfOnTemplateCollider": "01",
        "flagSelfInZone": "01",
        "flagTargetInZone": "11"
      },
      "451": {
        "name": "FireUp",
        "priority": 1,
        "castCondition": {
          "pose": [402],
          "pickRangeMin": 3.5,
          "pickRangeMax": 25.0
        },
        "cd": 10.0,
        "initialCD": 5.0,
        "initialCDUpperRange": 10.0,
        "publicCDGroup": "",
        "HHAGODJIAPE": "",
        "stateIDs": ["FireUp"],
        "flagTargetReachable": "10",
        "flagSelfOnTemplateCollider": "01",
        "flagSelfInZone": "11",
        "flagTargetInZone": "11"
      },
      "452": {
        "name": "FireUp",
        "skillType": "Free",
        "priority": 1,
        "castCondition": {
          "pose": [12]
        },
        "cd": 30.0,
        "publicCDGroup": "",
        "HHAGODJIAPE": "",
        "stateIDs": ["FireUp"],
        "flagTargetReachable": "10",
        "flagSelfOnTemplateCollider": "01",
        "flagSelfInZone": "10",
        "flagTargetInZone": "11"
      },
      "1011": {
        "name": "Practice",
        "skillType": "Free",
        "castCondition": {
          "pose": [9013]
        },
        "cd": 3.0,
        "cdUpperRange": 5.0,
        "initialCD": 3.0,
        "publicCDGroup": "",
        "HHAGODJIAPE": "",
        "stateIDs": ["Practice_Action"],
        "flagTargetReachable": "10",
        "flagSelfOnTemplateCollider": "01",
        "flagSelfInZone": "10",
        "flagTargetInZone": "11"
      }
    },
    "skillGCD": 5.0,
    "birdCirclingTactic": [
      {
        "$type": "EPHBMLFODKF",
        "enable": true,
        "JMCOBEPDIGM": {
          "rangeMin": 3.25,
          "rangeMax": 7.5,
          "BFJBDDIIFOI": {
            "IDEFILBHNAP": 0.5,
            "IBLIPJPNOGC": 0.0,
            "AEBLMKFNCDG": 0.5,
            "IGLIBIOEGBB": 0.5
          },
          "NAOBMNGDKHL": "1111",
          "JCNIJOAIGII": "1111",
          "MNPDDAKDHGK": ""
        }
      },
      {
        "$type": "KACCHOLJDNK",
        "enable": true,
        "JMCOBEPDIGM": {
          "KHDFDAAAPEI": 7.5,
          "HKJODDGJPHA": 50.0,
          "GGEBMFHFBPO": 7.5,
          "KFFGCIMPNMJ": 0.0,
          "MNPDDAKDHGK": ""
        }
      },
      {
        "$type": "GPEMIAJPPJG",
        "enable": true,
        "condition": {
          "pose": [1, 2, 12]
        },
        "JMCOBEPDIGM": {
          "MNPDDAKDHGK": "",
          "GJDMDHIBCME": ""
        }
      },
      {
        "$type": "NNJKLGNPMNN",
        "enable": true,
        "JMCOBEPDIGM": {
          "MNPDDAKDHGK": "",
          "GJDMDHIBCME": ""
        }
      },
      {
        "$type": "FPELBIJFGCE",
        "enable": true,
        "condition": {
          "pose": [1, 2, 12]
        },
        "JMCOBEPDIGM": {
          "KPNDPKIOPJM": 5.0,
          "PINAFKEDDLL": 3.0,
          "ANMPOPEBDIA": 15.0,
          "GMJFIMFFOEL": 3.5,
          "CHCPFDMADEI": 7.0,
          "MNPDDAKDHGK": ""
        }
      }
    ]
  },
  "inputKeys": [
    {
      "keyID": 201,
      "inputKeyCode": 257,
      "abilityName": ""
    },
    {
      "keyID": 301,
      "inputKeyCode": 258,
      "abilityName": ""
    },
    {
      "keyID": 401,
      "inputKeyCode": 259,
      "abilityName": ""
    },
    {
      "keyID": 251,
      "inputKeyCode": 260,
      "abilityName": ""
    },
    {
      "keyID": 252,
      "inputKeyCode": 261,
      "abilityName": ""
    },
    {
      "keyID": 451,
      "inputKeyCode": 262,
      "abilityName": ""
    },
    {
      "keyID": 452,
      "inputKeyCode": 263,
      "abilityName": ""
    }
  ],
  "move": {
    "$type": "IPNMJMHDMPF",
    "facingMove": "FourDirection",
    "monsterSizeType": "StoopType",
    "PKHOMJHFAEE": "RootNode"
  }
}
