{
  "common": {
    "effectAttachShape": {
      "$type": "FJNPJANPGGC",
      "mesh": "EffectMesh"
    },
    "mass": 10000.0,
    "height": 1.5,
    "viewSize": 0.6000000238418579,
    "affectedByWorld": true,
    "checkInSurface": true,
    "useGrassDisplacement": true,
    "clearAIOnSetLightDeactive": true,
    "reconnectSupport": true,
    "recoverByInitPose": true
  },
  "specialPoint": {
    "elementAbsorb": "RootNode",
    "elementPendant": "",
    "elementDrop": "RootNode",
    "bulletAim": "Head"
  },
  "model": {
    "bornEffect": "Eff_Monster_Common_Born",
    "attachEffect": "",
    "BKPFGNPLDNJ": ""
  },
  "dither": {
    "showDitherDuration": 2.0
  },
  "combat": {
    "property": {
      "endureType": "Monster_Minion",
      "weight": 80.0
    },
    "beHit": {
      "hitBloodEffect": "",
      "hitAutoRedirect": false
    },
    "combatLock": {
      "lockShape": "CircleLockEnemy",
      "lockType": "Avatar&Monster_Lv4"
    },
    "die": {
      "hasAnimatorDie": true,
      "dieEndTime": 0.30000001192092896,
      "dieForceDisappearTime": 1.2999999523162842,
      "dieDisappearEffect": "Eff_Death_Common_Animal",
      "muteHitBox": true,
      "dieDenyLockOn": true,
      "dieIsGhostToEnemy": true,
      "dieIgnoreTriggerBullet": true,
      "muteBillboard": true,
      "mutePushCollider": true
    },
    "animEvents": {
      "AtkNo": {
        "attackPattern": {
          "$type": "ConfigAttackCircle",
          "triggerType": "TriggerNoRepeat",
          "born": {
            "$type": "ConfigBornBySelf",
            "offset": {
              "x": 0.0,
              "y": 0.0,
              "z": -0.5
            }
          },
          "fanAngle": 60.0,
          "radius": 1.5
        },
        "attackInfo": {
          "attackTag": "",
          "attenuationTag": "",
          "attenuationGroup": "default",
          "attackProperty": {
            "actorGrassSubHurtDelta": 0.5,
            "actorWindSubHurtDelta": 0.0,
            "elementDurability": 100.0,
            "strikeType": "Blunt",
            "attackType": "Melee",
            "GLKMCMDJBIK": 0.0
          },
          "hitPattern": {
            "onHitEffectName": "default",
            "hitImpulseY": "",
            "hitImpulseType": "LV2",
            "hitHaltTimeScale": 0.009999999776482582
          }
        }
      },
      "Atk01": {
        "attackPattern": {
          "$type": "ConfigAttackBox",
          "triggerType": "TriggerNoRepeat",
          "born": {
            "$type": "ConfigBornBySelf",
            "offset": {
              "x": 0.0,
              "y": 0.0,
              "z": 0.0
            }
          },
          "size": {
            "x": 2.0,
            "y": 3.0,
            "z": 3.5
          }
        },
        "attackInfo": {
          "attackTag": "",
          "attenuationTag": "",
          "attenuationGroup": "default",
          "attackProperty": {
            "actorGrassSubHurtDelta": 1.0,
            "actorWindSubHurtDelta": 0.0,
            "elementDurability": 100.0,
            "strikeType": "Blunt",
            "enBreak": 200.0,
            "attackType": "Melee",
            "GLKMCMDJBIK": 0.0
          },
          "hitPattern": {
            "onHitEffectName": "default",
            "hitImpulseY": "",
            "hitImpulseType": "LV3",
            "hitHaltTimeScale": 0.009999999776482582
          }
        }
      }
    }
  },
  "abilities": [
    {
      "abilityID": "",
      "abilityName": "Monster_Vulture_None_MotionPose",
      "abilityOverride": ""
    },
    {
      "abilityID": "",
      "abilityName": "Monster_Vulture_None_GroundPose",
      "abilityOverride": ""
    },
    {
      "abilityID": "",
      "abilityName": "Monster_Vulture_None_AirPose",
      "abilityOverride": ""
    },
    {
      "abilityID": "",
      "abilityName": "Monster_Vulture_None_Launch",
      "abilityOverride": ""
    },
    {
      "abilityID": "",
      "abilityName": "Monster_Vulture_None_Land",
      "abilityOverride": ""
    },
    {
      "abilityID": "",
      "abilityName": "Monster_Vulture_None_Steer",
      "abilityOverride": ""
    },
    {
      "abilityID": "",
      "abilityName": "Monster_Vulture_None_JumpAtk",
      "abilityOverride": ""
    },
    {
      "abilityID": "",
      "abilityName": "Monster_Vulture_None_Flee",
      "abilityOverride": ""
    }
  ],
  "stateLayers": {
    "defaultLayer": {
      "$type": "GBGJJIIEMBD",
      "layerIndexName": "",
      "CPAANEIJCGD": "",
      "stateIDs": {
        "NormalIdle": {
          "$type": "NEDIFAKEGCO",
          "animatorStates": {
            "Born": []
          },
          "canDoSkill": true,
          "canSyncMove": true,
          "resetAnimatorTriggerOnExit": ["DoSkill"]
        },
        "Standby_Ground": {
          "$type": "NEDIFAKEGCO",
          "animatorStates": {
            "Standby_Ground": []
          },
          "canDoSkill": true,
          "canSyncMove": true,
          "resetAnimatorTriggerOnExit": ["DoSkill"]
        },
        "WalkForward_Ground": {
          "$type": "NEDIFAKEGCO",
          "animatorStates": {
            "WalkForward_Ground": ["Audio_Monster_Vulture_WalkForward_Ground"]
          },
          "canDoSkill": true,
          "canSyncMove": true,
          "resetAnimatorTriggerOnExit": ["DoSkill"],
          "canSteer": true
        },
        "Standby_Air": {
          "$type": "NEDIFAKEGCO",
          "animatorStates": {
            "Standby_Air": ["Audio_Monster_Vulture_Standby_Air"]
          },
          "canDoSkill": true,
          "canSyncMove": true,
          "resetAnimatorTriggerOnExit": ["DoSkill"]
        },
        "Standby_HighAir": {
          "$type": "NEDIFAKEGCO",
          "animatorStates": {
            "Standby_HighAir": []
          },
          "canDoSkill": true,
          "canSyncMove": true,
          "resetAnimatorTriggerOnExit": ["DoSkill"]
        },
        "Fly": {
          "$type": "NEDIFAKEGCO",
          "animatorStates": {
            "Fly": ["Audio_Monster_Vulture_Standby_Fly"]
          },
          "canDoSkill": true,
          "canSyncMove": true,
          "resetAnimatorTriggerOnExit": ["DoSkill"],
          "canSteer": true,
          "blendMove": "BlendMove",
          "blendSmoothSpeed": 1.0
        },
        "FleeFly": {
          "$type": "NEDIFAKEGCO",
          "animatorStates": {
            "FleeFly": ["Audio_Monster_Vulture_Fleefly"]
          },
          "canDoSkill": true,
          "canSyncMove": true,
          "resetAnimatorTriggerOnExit": ["DoSkill"],
          "blendMove": "BlendMove"
        },
        "HighFly": {
          "$type": "NEDIFAKEGCO",
          "animatorStates": {
            "HighFly": []
          },
          "canDoSkill": true,
          "canSyncMove": true,
          "resetAnimatorTriggerOnExit": ["DoSkill"],
          "canSteer": true
        },
        "HighFly_Random": {
          "$type": "NEDIFAKEGCO",
          "animatorStates": {
            "HighFly_Random": ["Audio_Monster_Vulture_HighFly_Random"]
          },
          "canDoSkill": true,
          "canSyncMove": true,
          "resetAnimatorTriggerOnExit": ["DoSkill"],
          "canSteer": true
        },
        "BeHit": {
          "$type": "NEDIFAKEGCO",
          "animatorStates": {
            "Hit_L": ["Audio_Monster_Vulture_Hit_L"]
          },
          "resetAnimatorTriggerOnEnter": ["BeHit"],
          "resetAnimatorTriggerOnExit": ["DoSkill"]
        },
        "Die": {
          "$type": "NEDIFAKEGCO",
          "animatorStates": {
            "Die_Ground": ["Audio_Monster_Vulture_DieGround"],
            "Die_Air_BS": ["Audio_Monster_Vulture_DieAir_BS"],
            "Die_Air_Loop": [],
            "Die_Air_AS": ["Audio_Monster_Vulture_DieAir_AS"]
          }
        },
        "Personality1": {
          "$type": "NEDIFAKEGCO",
          "animatorStates": {
            "Personality1": ["Audio_Monster_Vulture_Personality1"]
          },
          "canDoSkill": true,
          "resetAnimatorTriggerOnExit": ["BeHit", "DoSkill"]
        },
        "Personality2": {
          "$type": "NEDIFAKEGCO",
          "animatorStates": {
            "Personality2": ["Audio_Monster_Vulture_Personality2"]
          },
          "canDoSkill": true,
          "resetAnimatorTriggerOnExit": ["BeHit", "DoSkill"]
        },
        "Personality3": {
          "$type": "NEDIFAKEGCO",
          "animatorStates": {
            "Personality5": []
          },
          "canDoSkill": true,
          "resetAnimatorTriggerOnExit": ["BeHit", "DoSkill"]
        },
        "Alert_BS": {
          "$type": "NEDIFAKEGCO",
          "animatorStates": {
            "Alert_BS": ["Audio_Monster_Vulture_Alert_BS"]
          },
          "resetAnimatorTriggerOnExit": ["BeHit", "DoSkill"],
          "canSteer": true
        },
        "Alert_AS": {
          "$type": "NEDIFAKEGCO",
          "animatorStates": {
            "Alert_AS": ["Audio_Monster_Vulture_Alert_AS"]
          },
          "resetAnimatorTriggerOnExit": ["BeHit", "DoSkill"],
          "canSteer": true
        },
        "Flee_BS": {
          "$type": "NEDIFAKEGCO",
          "animatorStates": {
            "Flee_BS": ["Audio_Monster_Vulture_Flee_BS"]
          },
          "resetAnimatorTriggerOnExit": ["BeHit", "DoSkill"],
          "canSteer": true
        },
        "Flee_Loop": {
          "$type": "NEDIFAKEGCO",
          "animatorStates": {
            "Flee_Loop": []
          },
          "resetAnimatorTriggerOnExit": ["BeHit", "DoSkill"],
          "canSteer": true
        },
        "HighFly_AS": {
          "$type": "NEDIFAKEGCO",
          "animatorStates": {
            "HighFly_AS": []
          },
          "resetAnimatorTriggerOnExit": ["BeHit", "DoSkill"]
        },
        "FlyUp_BS": {
          "$type": "NEDIFAKEGCO",
          "animatorStates": {
            "FlyUp_BS": []
          },
          "resetAnimatorTriggerOnExit": ["BeHit", "DoSkill"],
          "canSteer": true
        },
        "FlyUp_Loop": {
          "$type": "NEDIFAKEGCO",
          "animatorStates": {
            "FlyUp_Loop": []
          },
          "resetAnimatorTriggerOnExit": ["BeHit", "DoSkill"],
          "canSteer": true
        },
        "FlyUp_AS": {
          "$type": "NEDIFAKEGCO",
          "animatorStates": {
            "FlyUp_AS": []
          },
          "resetAnimatorTriggerOnExit": ["BeHit", "DoSkill"],
          "canSteer": true
        },
        "FlyDown_BS": {
          "$type": "NEDIFAKEGCO",
          "animatorStates": {
            "FlyDown_BS": ["Audio_Monster_Vulture_Standby_FlyDown_BS"]
          },
          "resetAnimatorTriggerOnExit": ["BeHit", "DoSkill"],
          "canSteer": true
        },
        "FlyDown_Loop": {
          "$type": "NEDIFAKEGCO",
          "animatorStates": {
            "FlyDown_Loop": []
          },
          "resetAnimatorTriggerOnExit": ["BeHit", "DoSkill"],
          "canSteer": true
        },
        "FlyDown_AS": {
          "$type": "NEDIFAKEGCO",
          "animatorStates": {
            "FlyDown_AS": []
          },
          "resetAnimatorTriggerOnExit": ["BeHit", "DoSkill"],
          "canSteer": true
        },
        "Land_BS": {
          "$type": "NEDIFAKEGCO",
          "animatorStates": {
            "Land_BS": []
          },
          "resetAnimatorTriggerOnExit": ["BeHit", "DoSkill"],
          "canSteer": true
        },
        "Land_Loop": {
          "$type": "NEDIFAKEGCO",
          "animatorStates": {
            "Land_Loop": ["Audio_Monster_Vulture_Standby_Land"]
          },
          "resetAnimatorTriggerOnExit": ["BeHit", "DoSkill"],
          "canSteer": true
        },
        "Land_AS": {
          "$type": "NEDIFAKEGCO",
          "animatorStates": {
            "Land_AS": ["Audio_Monster_Vulture_Land_AS"]
          },
          "resetAnimatorTriggerOnExit": ["BeHit", "DoSkill"],
          "canSteer": true
        },
        "Launch_BS": {
          "$type": "NEDIFAKEGCO",
          "animatorStates": {
            "Launch_BS": ["Audio_Monster_Vulture_Alert_BS"]
          },
          "resetAnimatorTriggerOnExit": ["BeHit", "DoSkill"]
        },
        "Launch_AS": {
          "$type": "NEDIFAKEGCO",
          "animatorStates": {
            "Launch_AS": ["Audio_Monster_Vulture_Alert_AS"]
          },
          "resetAnimatorTriggerOnExit": ["BeHit", "DoSkill"]
        },
        "Attack_01": {
          "$type": "NEDIFAKEGCO",
          "animatorStates": {
            "Attack_01": [
              "Monster_Vulture_None_Attack01",
              "Audio_Monster_Vulture_Attack_01"
            ]
          },
          "canSyncMove": true,
          "resetAnimatorTriggerOnExit": ["BeHit", "DoSkill"],
          "canSteer": true
        }
      }
    }
  },
  "billboard": {
    "$type": "DNGNMAJBCNP",
    "attachPoint": "BillboardAttach",
    "offset": {
      "y": -0.20000000298023224
    },
    "offsetType": "Character",
    "radiusOffset": 0.25,
    "showHPBar": true
  },
  "initialPoses": {
    "Default": {
      "initialPoseID": 101,
      "initialPoseParams": {
        "intParams": {
          "MotionTag": "0"
        }
      }
    },
    "HighFly": {
      "initialPoseID": 121,
      "initialPoseParams": {
        "intParams": {
          "MotionTag": "1"
        },
        "boolParams": {
          "HighSky": "true"
        }
      }
    },
    "LowFly": {
      "initialPoseID": 111,
      "initialPoseParams": {
        "intParams": {
          "MotionTag": "1"
        },
        "boolParams": {
          "LowSky": "true"
        }
      }
    },
    "LandFlee": {
      "initialPoseID": 131,
      "initialPoseParams": {
        "intParams": {
          "MotionTag": "0"
        },
        "boolParams": {
          "Flee": "true"
        }
      }
    }
  },
  "aibeta": {
    "enable": true,
    "moveSetting": {
      "navMeshAgentName": "Undead01"
    },
    "sensing": {
      "settings": {
        "NoSensing": {
          "viewRange": 0.0,
          "feelRange": 0.0
        },
        "LowSensing": {
          "viewRange": 6.0,
          "feelRange": 2.0
        },
        "HighSensing": {
          "viewRange": 12.0,
          "feelRange": 4.0
        },
        "DefaultSetting": {
          "viewRange": 6.0,
          "feelRange": 2.0
        },
        "CombatSensing": {
          "viewPanoramic": true,
          "feelRange": 30.0
        }
      },
      "templates": {
        "DefaultTemplate": {
          "DefaultPoses": "LowSensing",
          "111": "LowSensing",
          "121": "NoSensing",
          "301": "CombatSensing",
          "321": "CombatSensing"
        },
        "NoSensing": {
          "DefaultPoses": "NoSensing",
          "301": "CombatSensing",
          "321": "CombatSensing"
        },
        "LowSensing": {
          "DefaultPoses": "LowSensing",
          "301": "CombatSensing",
          "321": "CombatSensing"
        },
        "HighSensing": {
          "DefaultPoses": "HighSensing",
          "301": "CombatSensing",
          "321": "CombatSensing"
        }
      }
    },
    "threat": {
      "GHIJMOKOLMB": "",
      "clearThreatTargetDistance": 60.0,
      "clearThreatEdgeDistance": 60.0,
      "clearThreatByTargetOutOfZone": true,
      "clearThreatTimerByDistance": 2.0,
      "clearThreatTimerByLostPath": 60.0,
      "viewAttenuation": [
        {
          "x": 10.0,
          "y": 2.0
        },
        {
          "x": 20.0,
          "y": 1.0
        },
        {
          "x": 30.0,
          "y": 0.5
        },
        {
          "x": 50.0,
          "y": 0.10000000149011612
        }
      ]
    },
    "defendArea": {},
    "fly": {
      "enable": true,
      "floatingPoses": [111, 121, 301, 321]
    },
    "skillGroupCDConfigs": [
      {
        "skillGroupCDID": 2,
        "skillGroupCDTime": 20.0
      },
      {
        "skillGroupCDID": 3,
        "skillGroupCDTime": 2.0
      }
    ],
    "skills": {
      "101": {
        "name": "OnAlert",
        "skillType": "OnAlert",
        "faceTarget": true,
        "castCondition": {
          "pose": [101]
        },
        "publicCDGroup": "",
        "ignoreGCD": true,
        "triggerGCD": false,
        "HHAGODJIAPE": "",
        "stateIDs": ["Alert_BS", "Alert_AS"],
        "skillQueryingTime": 3.0,
        "flagTargetReachable": "10",
        "flagSelfOnTemplateCollider": "01",
        "flagSelfInZone": "10",
        "flagTargetInZone": "11"
      },
      "111": {
        "name": "OnAlert",
        "skillType": "OnAlert",
        "castCondition": {
          "pose": [131]
        },
        "publicCDGroup": "",
        "ignoreGCD": true,
        "triggerGCD": false,
        "HHAGODJIAPE": "",
        "stateIDs": ["Flee_BS", "Flee_Loop", "Alert_BS", "Alert_AS"],
        "skillQueryingTime": 3.0,
        "flagTargetReachable": "10",
        "flagSelfOnTemplateCollider": "01",
        "flagSelfInZone": "10",
        "flagTargetInZone": "11"
      },
      "201": {
        "name": "Personality1",
        "skillType": "Free",
        "priority": 6,
        "castCondition": {
          "pose": [101, 131]
        },
        "cd": 15.0,
        "cdUpperRange": 10.0,
        "initialCD": 4.5,
        "initialCDUpperRange": 5.0,
        "publicCDGroup": "",
        "skillGroupCDID": 2,
        "HHAGODJIAPE": "",
        "stateIDs": ["Personality1"],
        "flagTargetReachable": "10",
        "flagSelfOnTemplateCollider": "01",
        "flagSelfInZone": "10",
        "flagTargetInZone": "11"
      },
      "211": {
        "name": "Personality2",
        "skillType": "Free",
        "priority": 6,
        "castCondition": {
          "pose": [101, 131]
        },
        "cd": 20.0,
        "cdUpperRange": 10.0,
        "initialCD": 8.5,
        "initialCDUpperRange": 5.0,
        "publicCDGroup": "",
        "skillGroupCDID": 2,
        "HHAGODJIAPE": "",
        "stateIDs": ["Personality2"],
        "flagTargetReachable": "10",
        "flagSelfOnTemplateCollider": "01",
        "flagSelfInZone": "10",
        "flagTargetInZone": "11"
      },
      "601": {
        "name": "RangedAttack1",
        "combatSkillType": "RangedAttack",
        "enableSkillPrepare": true,
        "skillPrepareTimeout": 8.0,
        "castCondition": {
          "pose": [301],
          "maxTargetAngleXZ": 75.0,
          "pickRangeMin": 2.0,
          "pickRangeMax": 10.0,
          "pickRangeYMax": 1.5,
          "pickRangeYMin": 0.5,
          "castRangeMin": 1.5,
          "castRangeMax": 3.0
        },
        "cd": 9.0,
        "cdUpperRange": 1.0,
        "publicCDGroup": "",
        "HHAGODJIAPE": "",
        "stateIDs": ["Attack_01"],
        "flagTargetReachable": "11",
        "flagSelfOnTemplateCollider": "11",
        "flagSelfInZone": "11",
        "flagTargetInZone": "11"
      },
      "611": {
        "name": "Flee",
        "priority": 1,
        "castCondition": {
          "pose": [201]
        },
        "cd": 2.0,
        "initialCD": 999999.0,
        "publicCDGroup": "",
        "ignoreGCD": true,
        "triggerGCD": false,
        "HHAGODJIAPE": "",
        "stateIDs": ["Flee_BS", "Flee_Loop", "Alert_BS", "Alert_AS"],
        "skillQueryingTime": 3.0,
        "flagTargetReachable": "10",
        "flagSelfOnTemplateCollider": "01",
        "flagSelfInZone": "10",
        "flagTargetInZone": "11"
      },
      "621": {
        "name": "OnAlert1",
        "faceTarget": true,
        "castCondition": {
          "pose": [201]
        },
        "cd": 2.0,
        "initialCD": 999999.0,
        "publicCDGroup": "",
        "ignoreGCD": true,
        "triggerGCD": false,
        "HHAGODJIAPE": "",
        "stateIDs": ["Alert_BS", "Alert_AS"],
        "skillQueryingTime": 3.0,
        "flagTargetReachable": "10",
        "flagSelfOnTemplateCollider": "01",
        "flagSelfInZone": "10",
        "flagTargetInZone": "11"
      }
    },
    "skillGCD": 7.0,
    "birdCirclingTactic": [
      {
        "$type": "ALAPAEDAFML",
        "enable": true,
        "condition": {
          "pose": [121]
        },
        "JMCOBEPDIGM": {
          "ANLAAGAMIKF": 2,
          "radius": 15.0
        }
      },
      {
        "$type": "NNJKLGNPMNN",
        "enable": true,
        "JMCOBEPDIGM": {
          "NBENNEKDIIA": 1.0,
          "ACOBCFCMBOC": "Spacial",
          "MNPDDAKDHGK": "",
          "GJDMDHIBCME": ""
        }
      },
      {
        "$type": "DGNJLJKOKEE",
        "enable": true,
        "condition": {
          "pose": [301]
        },
        "JMCOBEPDIGM": {
          "ANLAAGAMIKF": 2,
          "HJODGEKLAAK": 0.0,
          "CFBKFJKHEEH": 0.20000000298023224,
          "MNPDDAKDHGK": ""
        }
      },
      {
        "$type": "EPPOBBAEPED",
        "enable": true,
        "condition": {
          "pose": [301, 321]
        },
        "JMCOBEPDIGM": {
          "ANLAAGAMIKF": 2,
          "FAKGFIDPCFL": 6.0,
          "ONFAMCFCNFM": 1.2000000476837158,
          "KLODEFMNFIC": 2.200000047683716,
          "MNPDDAKDHGK": "",
          "GJDMDHIBCME": ""
        },
        "PIOCBHLFLJP": {
          "321": {
            "ANLAAGAMIKF": 2,
            "FAKGFIDPCFL": 0.10000000149011612,
            "GHCEDMEHKLN": 0.009999999776482582,
            "ONFAMCFCNFM": 10.0,
            "KLODEFMNFIC": 100.0,
            "MNPDDAKDHGK": "",
            "GJDMDHIBCME": ""
          }
        }
      },
      {
        "$type": "MNBBAPLOENP",
        "enable": true,
        "condition": {
          "pose": [301]
        },
        "JMCOBEPDIGM": {
          "ANLAAGAMIKF": 2,
          "GOMIFCDDDLF": 3.0,
          "JCPAFNBJDEN": 9.0,
          "MNJPODIPCKM": true,
          "EOANNIJLBKI": {
            "xzMin": 1.0,
            "xzMax": 6.0,
            "yMin": 0.10000000149011612,
            "yMax": 2.0
          },
          "JOJBOHEDBHC": 0.0,
          "AFILKAGDAHN": 0.0,
          "ALIBHHJHHMN": 2.0,
          "OPCEPFAIGAP": 0.10000000149011612,
          "OMHBOLPFEPM": 1.0,
          "FPNBEHAAJOL": {
            "LLICGJHIGME": 0.20000000298023224,
            "IDEFILBHNAP": 0.5,
            "EHLPOCLAEFO": 0.0,
            "APHHENPJNLO": 1.0,
            "AKMJKEIJEHM": 1.5,
            "PELOBMPBAJF": 3.0,
            "BLOIJOGPILM": 1.5,
            "GNFCHLHAPNI": 3.0,
            "DFHLPPNLGIE": 0.0,
            "CLDDLKFCODO": 0.0,
            "GNJEAKAKLHD": 0.0,
            "EHAGCHIFFHA": 0.0,
            "DDIPMLEHIJP": 1.5,
            "PIJHGEOHOOO": 0.800000011920929,
            "OCMLCHDANPJ": 2.200000047683716
          },
          "MNPDDAKDHGK": "",
          "GJDMDHIBCME": ""
        }
      },
      {
        "$type": "HMHOIHCBIOJ",
        "enable": true,
        "condition": {
          "pose": [111]
        },
        "JMCOBEPDIGM": {
          "ANLAAGAMIKF": 2,
          "NBENNEKDIIA": 1.0,
          "KPNDPKIOPJM": 8.0,
          "PINAFKEDDLL": 4.0,
          "HIGLILIOAHE": 0.5,
          "AMIIPPJEIPM": 1.5,
          "ANMPOPEBDIA": 15.0,
          "GMJFIMFFOEL": 4.0,
          "CHCPFDMADEI": 7.5,
          "MNPDDAKDHGK": "",
          "GJDMDHIBCME": ""
        }
      },
      {
        "$type": "FPELBIJFGCE",
        "enable": true,
        "condition": {
          "pose": [101, 131]
        },
        "JMCOBEPDIGM": {
          "NBENNEKDIIA": 0.5,
          "KPNDPKIOPJM": 16.0,
          "PINAFKEDDLL": 8.0,
          "ANMPOPEBDIA": 20.0,
          "GMJFIMFFOEL": 4.0,
          "CHCPFDMADEI": 7.0,
          "MNPDDAKDHGK": ""
        }
      }
    ]
  },
  "inputKeys": [
    {
      "keyID": 101,
      "inputKeyCode": 257,
      "abilityName": ""
    },
    {
      "keyID": 111,
      "inputKeyCode": 258,
      "abilityName": ""
    },
    {
      "keyID": 301,
      "inputKeyCode": 259,
      "abilityName": ""
    },
    {
      "keyID": 311,
      "inputKeyCode": 260,
      "abilityName": ""
    },
    {
      "keyID": 601,
      "inputKeyCode": 261,
      "abilityName": ""
    },
    {
      "keyID": 611,
      "inputKeyCode": 262,
      "abilityName": ""
    }
  ],
  "move": {
    "$type": "IPNMJMHDMPF",
    "velocityForce": {
      "excludeForces": ["RetreatAirType"]
    },
    "handleCombatTaskImmediately": true,
    "airFacingMove": "AirBlend",
    "yawSpeedRatio": 1.0,
    "positionModifyExtra": true,
    "PKHOMJHFAEE": "RootNode"
  }
}
