{
  "common": {
    "effectAttachShape": {
      "$type": "FJNPJANPGGC",
      "mesh": "EffectMesh"
    },
    "mass": 10000.0,
    "height": 5.5,
    "modelHeight": 5.0,
    "viewSize": 4.25,
    "shadowViewSizeRatio": 3.0,
    "affectedByWorld": true,
    "checkInSurface": true,
    "scale": 1.100000023841858,
    "useGrassDisplacement": true,
    "clearAnimatorOnSetLightDeactive": true,
    "clearAIOnSetLightDeactive": true,
    "reconnectSupport": true,
    "recoverByInitPose": true
  },
  "headControl": {
    "$type": "KPIPDEBDPIH",
    "useHeadControl": true,
    "maxYawDegree": 45.0,
    "maxPitchDegree": 30.0,
    "animStates": ["NormalIdle/Standby", "NormalMove/Walk", "NormalMove/Run"]
  },
  "dither": {
    "showDitherDuration": 0.30000001192092896,
    "normalBetweenCamera": {
      "detectDitherRange": 10.0
    },
    "hideEffectWhenDither": true
  },
  "globalValue": {
    "serverGlobalValues": [
      "SGV_EffigyChallenge_V5_AssistOptionSelected_1",
      "SGV_EffigyChallenge_V5_AssistOptionSelected_2",
      "SGV_EffigyChallenge_V5_AssistOptionSelected_3",
      "SGV_EffigyChallenge_V5_AssistOptionSelected_4",
      "SGV_EffigyChallenge_V5_AssistOptionSelectedCount",
      "SGV_EffigyChallenge_V5_AssistSkillUsed"
    ]
  },
  "combat": {
    "property": {
      "endureType": "Monster_Boss_Other",
      "weight": 300.0
    },
    "beHit": {
      "hitBloodEffect": ""
    },
    "combatLock": {
      "lockShape": "CircleLockEnemy",
      "lockType": "Boss_Lv5"
    },
    "die": {
      "hasAnimatorDie": true,
      "dieEndTime": 3.0,
      "dieForceDisappearTime": 5.0,
      "dieDisappearEffect": "Eff_Death_Common",
      "dieShaderData": "MonsterDie",
      "muteHitBox": true,
      "dieDenyLockOn": true,
      "dieIsGhostToEnemy": true,
      "dieIgnoreTriggerBullet": true,
      "muteBillboard": true,
      "mutePushCollider": true
    },
    "animEvents": {
      "AE_NormalAtk01_Ice": {
        "attackPattern": {
          "$type": "ConfigAttackCircle",
          "triggerType": "TriggerNoRepeat",
          "born": {
            "$type": "ConfigBornBySelf",
            "offset": {
              "x": 0.5,
              "y": 0.0,
              "z": 2.200000047683716
            }
          },
          "height": 2.0,
          "fanAngle": 240.0,
          "radius": 5.0
        },
        "attackInfo": {
          "attackTag": "",
          "attenuationTag": "",
          "attenuationGroup": "default",
          "attackProperty": {
            "actorGrassSubHurtDelta": 0.4000000059604645,
            "actorWindSubHurtDelta": 0.0,
            "elementType": "Ice",
            "elementDurability": 50.0,
            "strikeType": "Blunt",
            "enBreak": 200.0,
            "GLKMCMDJBIK": 0.0
          },
          "hitPattern": {
            "onHitEffectName": "default",
            "hitImpulseY": "",
            "hitImpulseType": "LV5",
            "hitHaltTime": 0.05999999865889549,
            "hitHaltTimeScale": 0.07000000029802322
          }
        }
      },
      "AE_NormalAtk01_Water": {
        "attackPattern": {
          "$type": "ConfigAttackCircle",
          "triggerType": "TriggerNoRepeat",
          "born": {
            "$type": "ConfigBornBySelf",
            "offset": {
              "x": 0.5,
              "y": 0.0,
              "z": 2.200000047683716
            }
          },
          "height": 2.0,
          "fanAngle": 240.0,
          "radius": 5.0
        },
        "attackInfo": {
          "attackTag": "",
          "attenuationTag": "",
          "attenuationGroup": "default",
          "attackProperty": {
            "actorGrassSubHurtDelta": 0.4000000059604645,
            "actorWindSubHurtDelta": 0.0,
            "elementType": "Water",
            "elementDurability": 50.0,
            "strikeType": "Blunt",
            "enBreak": 200.0,
            "GLKMCMDJBIK": 0.0
          },
          "hitPattern": {
            "onHitEffectName": "default",
            "hitImpulseY": "",
            "hitImpulseType": "LV5",
            "hitHaltTime": 0.05999999865889549,
            "hitHaltTimeScale": 0.07000000029802322
          }
        }
      },
      "AE_NormalAtk02_01_Ice": {
        "attackPattern": {
          "$type": "ConfigAttackCircle",
          "triggerType": "TriggerNoRepeat",
          "born": {
            "$type": "ConfigBornBySelf",
            "offset": {
              "x": -0.5,
              "y": 0.0,
              "z": 6.0
            }
          },
          "height": 2.0,
          "radius": 2.5
        },
        "attackInfo": {
          "attackTag": "",
          "attenuationTag": "",
          "attenuationGroup": "default",
          "attackProperty": {
            "actorGrassSubHurtDelta": 0.3499999940395355,
            "actorWindSubHurtDelta": 0.0,
            "elementType": "Ice",
            "elementDurability": 50.0,
            "strikeType": "Blunt",
            "enBreak": 200.0,
            "GLKMCMDJBIK": 0.0
          },
          "hitPattern": {
            "onHitEffectName": "default",
            "hitImpulseY": "",
            "hitImpulseType": "LV5"
          }
        }
      },
      "AE_NormalAtk02_01_Water": {
        "attackPattern": {
          "$type": "ConfigAttackCircle",
          "triggerType": "TriggerNoRepeat",
          "born": {
            "$type": "ConfigBornBySelf",
            "offset": {
              "x": -0.5,
              "y": 0.0,
              "z": 6.0
            }
          },
          "height": 2.0,
          "radius": 2.5
        },
        "attackInfo": {
          "attackTag": "",
          "attenuationTag": "",
          "attenuationGroup": "default",
          "attackProperty": {
            "actorGrassSubHurtDelta": 0.3499999940395355,
            "actorWindSubHurtDelta": 0.0,
            "elementType": "Water",
            "elementDurability": 50.0,
            "strikeType": "Blunt",
            "enBreak": 200.0,
            "GLKMCMDJBIK": 0.0
          },
          "hitPattern": {
            "onHitEffectName": "default",
            "hitImpulseY": "",
            "hitImpulseType": "LV5"
          }
        }
      },
      "AE_NormalAtk02_02_Ice": {
        "attackPattern": {
          "$type": "ConfigAttackBox",
          "triggerType": "TriggerNoRepeat",
          "born": {
            "$type": "ConfigBornBySelf",
            "offset": {
              "x": -1.25,
              "y": 1.0,
              "z": 0.0
            }
          },
          "size": {
            "x": 2.5,
            "y": 3.0,
            "z": 8.0
          }
        },
        "attackInfo": {
          "attackTag": "",
          "attenuationTag": "",
          "attenuationGroup": "default",
          "attackProperty": {
            "actorGrassSubHurtDelta": 0.15000000596046448,
            "actorWindSubHurtDelta": 0.0,
            "elementType": "Ice",
            "elementDurability": 50.0,
            "strikeType": "Blunt",
            "enBreak": 200.0,
            "GLKMCMDJBIK": 0.0
          },
          "hitPattern": {
            "onHitEffectName": "default",
            "hitImpulseY": "",
            "hitImpulseType": "LV5"
          }
        }
      },
      "AE_NormalAtk02_02_Water": {
        "attackPattern": {
          "$type": "ConfigAttackBox",
          "triggerType": "TriggerNoRepeat",
          "born": {
            "$type": "ConfigBornBySelf",
            "offset": {
              "x": -1.25,
              "y": 1.0,
              "z": 0.0
            }
          },
          "size": {
            "x": 2.5,
            "y": 3.0,
            "z": 8.0
          }
        },
        "attackInfo": {
          "attackTag": "",
          "attenuationTag": "",
          "attenuationGroup": "default",
          "attackProperty": {
            "actorGrassSubHurtDelta": 0.15000000596046448,
            "actorWindSubHurtDelta": 0.0,
            "elementType": "Water",
            "elementDurability": 50.0,
            "strikeType": "Blunt",
            "enBreak": 200.0,
            "GLKMCMDJBIK": 0.0
          },
          "hitPattern": {
            "onHitEffectName": "default",
            "hitImpulseY": "",
            "hitImpulseType": "LV5"
          }
        }
      },
      "AE_ComboAtk01_Ice": {
        "attackPattern": {
          "$type": "ConfigAttackCircle",
          "triggerType": "TriggerNoRepeat",
          "born": {
            "$type": "ConfigBornBySelf",
            "offset": {
              "x": -1.5
            }
          },
          "height": 2.0,
          "fanAngle": 180.0,
          "radius": 6.0
        },
        "attackInfo": {
          "attackTag": "",
          "attenuationTag": "",
          "attenuationGroup": "default",
          "attackProperty": {
            "actorGrassSubHurtDelta": 0.4000000059604645,
            "actorWindSubHurtDelta": 0.0,
            "elementType": "Ice",
            "elementDurability": 50.0,
            "strikeType": "Blunt",
            "enBreak": 200.0,
            "GLKMCMDJBIK": 0.0
          },
          "hitPattern": {
            "onHitEffectName": "default",
            "hitImpulseY": "",
            "hitImpulseType": "LV5",
            "hitHaltTime": 0.05999999865889549,
            "hitHaltTimeScale": 0.07000000029802322
          }
        }
      },
      "AE_ComboAtk01_Water": {
        "attackPattern": {
          "$type": "ConfigAttackCircle",
          "triggerType": "TriggerNoRepeat",
          "born": {
            "$type": "ConfigBornBySelf",
            "offset": {
              "x": -1.5
            }
          },
          "height": 2.0,
          "fanAngle": 180.0,
          "radius": 6.199999809265137
        },
        "attackInfo": {
          "attackTag": "",
          "attenuationTag": "",
          "attenuationGroup": "default",
          "attackProperty": {
            "actorGrassSubHurtDelta": 0.4000000059604645,
            "actorWindSubHurtDelta": 0.0,
            "elementType": "Water",
            "elementDurability": 50.0,
            "strikeType": "Blunt",
            "enBreak": 200.0,
            "GLKMCMDJBIK": 0.0
          },
          "hitPattern": {
            "onHitEffectName": "default",
            "hitImpulseY": "",
            "hitImpulseType": "LV5",
            "hitHaltTime": 0.05999999865889549,
            "hitHaltTimeScale": 0.07000000029802322
          }
        }
      },
      "AE_ComboAtk02_Ice": {
        "attackPattern": {
          "$type": "ConfigAttackCircle",
          "triggerType": "TriggerNoRepeat",
          "born": {
            "$type": "ConfigBornBySelf",
            "offset": {
              "x": 0.75
            }
          },
          "height": 2.0,
          "fanAngle": 180.0,
          "radius": 6.199999809265137
        },
        "attackInfo": {
          "attackTag": "",
          "attenuationTag": "",
          "attenuationGroup": "default",
          "attackProperty": {
            "actorGrassSubHurtDelta": 0.5,
            "actorWindSubHurtDelta": 0.0,
            "elementType": "Ice",
            "elementDurability": 50.0,
            "strikeType": "Blunt",
            "enBreak": 200.0,
            "GLKMCMDJBIK": 0.0
          },
          "hitPattern": {
            "onHitEffectName": "default",
            "hitImpulseY": "",
            "hitImpulseType": "LV5",
            "hitHaltTime": 0.05999999865889549,
            "hitHaltTimeScale": 0.07000000029802322
          }
        }
      },
      "AE_ComboAtk02_Water": {
        "attackPattern": {
          "$type": "ConfigAttackCircle",
          "triggerType": "TriggerNoRepeat",
          "born": {
            "$type": "ConfigBornBySelf",
            "offset": {
              "x": 0.75
            }
          },
          "height": 2.0,
          "fanAngle": 180.0,
          "radius": 6.0
        },
        "attackInfo": {
          "attackTag": "",
          "attenuationTag": "",
          "attenuationGroup": "default",
          "attackProperty": {
            "actorGrassSubHurtDelta": 0.5,
            "actorWindSubHurtDelta": 0.0,
            "elementType": "Water",
            "elementDurability": 50.0,
            "strikeType": "Blunt",
            "enBreak": 200.0,
            "GLKMCMDJBIK": 0.0
          },
          "hitPattern": {
            "onHitEffectName": "default",
            "hitImpulseY": "",
            "hitImpulseType": "LV5",
            "hitHaltTime": 0.05999999865889549,
            "hitHaltTimeScale": 0.07000000029802322
          }
        }
      },
      "AE_ComboAtk03_Ice": {
        "attackPattern": {
          "$type": "ConfigAttackCircle",
          "triggerType": "TriggerNoRepeat",
          "born": {
            "$type": "ConfigBornBySelf",
            "offset": {
              "z": 4.5
            }
          },
          "height": 2.0,
          "radius": 5.5
        },
        "attackInfo": {
          "attackTag": "",
          "attenuationTag": "",
          "attenuationGroup": "default",
          "attackProperty": {
            "actorGrassSubHurtDelta": 0.625,
            "actorWindSubHurtDelta": 0.0,
            "elementType": "Ice",
            "elementDurability": 50.0,
            "strikeType": "Blunt",
            "enBreak": 250.0,
            "GLKMCMDJBIK": 0.0
          },
          "hitPattern": {
            "onHitEffectName": "default",
            "hitImpulseY": "",
            "hitImpulseType": "LV5",
            "hitHaltTime": 0.05999999865889549,
            "hitHaltTimeScale": 0.07000000029802322
          },
          "forceCameraShake": true,
          "cameraShake": {
            "shakeType": "CustomVector",
            "shakeRange": 0.36000001430511475,
            "shakeTime": 0.36000001430511475,
            "shakeDistance": 30.0,
            "shakeDir": {
              "y": -1.0
            }
          }
        }
      },
      "AE_ComboAtk03_Water": {
        "attackPattern": {
          "$type": "ConfigAttackCircle",
          "triggerType": "TriggerNoRepeat",
          "born": {
            "$type": "ConfigBornBySelf",
            "offset": {
              "z": 4.5
            }
          },
          "height": 2.0,
          "radius": 5.5
        },
        "attackInfo": {
          "attackTag": "",
          "attenuationTag": "",
          "attenuationGroup": "default",
          "attackProperty": {
            "actorGrassSubHurtDelta": 0.625,
            "actorWindSubHurtDelta": 0.0,
            "elementType": "Water",
            "elementDurability": 50.0,
            "strikeType": "Blunt",
            "enBreak": 250.0,
            "GLKMCMDJBIK": 0.0
          },
          "hitPattern": {
            "onHitEffectName": "default",
            "hitImpulseY": "",
            "hitImpulseType": "LV5",
            "hitHaltTime": 0.05999999865889549,
            "hitHaltTimeScale": 0.07000000029802322
          },
          "forceCameraShake": true,
          "cameraShake": {
            "shakeType": "CustomVector",
            "shakeRange": 0.36000001430511475,
            "shakeTime": 0.36000001430511475,
            "shakeDistance": 30.0,
            "shakeDir": {
              "y": -1.0
            }
          }
        }
      },
      "AE_JumpAtk_Ice": {
        "attackPattern": {
          "$type": "ConfigAttackCircle",
          "triggerType": "TriggerNoRepeat",
          "height": 3.0,
          "radius": 5.800000190734863
        },
        "attackInfo": {
          "attackTag": "",
          "attenuationTag": "",
          "attenuationGroup": "default",
          "attackProperty": {
            "actorGrassSubHurtDelta": 0.699999988079071,
            "actorWindSubHurtDelta": 0.0,
            "elementType": "Ice",
            "elementDurability": 50.0,
            "strikeType": "Blunt",
            "enBreak": 250.0,
            "GLKMCMDJBIK": 0.0
          },
          "hitPattern": {
            "onHitEffectName": "default",
            "hitImpulseY": "",
            "hitImpulseType": "LV5"
          },
          "forceCameraShake": true,
          "cameraShake": {
            "shakeType": "CustomVector",
            "shakeRange": 1.2000000476837158,
            "shakeTime": 1.0,
            "shakeDistance": 30.0,
            "shakeDir": {
              "y": -1.0
            }
          }
        }
      },
      "AE_JumpAtk_Water": {
        "attackPattern": {
          "$type": "ConfigAttackCircle",
          "triggerType": "TriggerNoRepeat",
          "height": 3.0,
          "radius": 5.800000190734863
        },
        "attackInfo": {
          "attackTag": "",
          "attenuationTag": "",
          "attenuationGroup": "default",
          "attackProperty": {
            "actorGrassSubHurtDelta": 0.699999988079071,
            "actorWindSubHurtDelta": 0.0,
            "elementType": "Water",
            "elementDurability": 50.0,
            "strikeType": "Blunt",
            "enBreak": 250.0,
            "GLKMCMDJBIK": 0.0
          },
          "hitPattern": {
            "onHitEffectName": "default",
            "hitImpulseY": "",
            "hitImpulseType": "LV5"
          },
          "forceCameraShake": true,
          "cameraShake": {
            "shakeType": "CustomVector",
            "shakeRange": 1.2000000476837158,
            "shakeTime": 1.0,
            "shakeDistance": 30.0,
            "shakeDir": {
              "y": -1.0
            }
          }
        }
      },
      "AE_Trans_Ice": {
        "attackPattern": {
          "$type": "ConfigAttackCircle",
          "triggerType": "TriggerNoRepeat",
          "born": {
            "$type": "ConfigBornBySelf",
            "offset": {
              "z": 2.4000000953674316
            }
          },
          "height": 4.0,
          "radius": 6.25
        },
        "attackInfo": {
          "attackTag": "",
          "attenuationTag": "",
          "attenuationGroup": "default",
          "attackProperty": {
            "actorGrassSubHurtDelta": 0.800000011920929,
            "actorWindSubHurtDelta": 0.0,
            "elementType": "Ice",
            "elementDurability": 50.0,
            "strikeType": "Blunt",
            "enBreak": 250.0,
            "GLKMCMDJBIK": 0.0
          },
          "hitPattern": {
            "onHitEffectName": "default",
            "hitImpulseY": "",
            "hitImpulseType": "LV6"
          },
          "forceCameraShake": true,
          "cameraShake": {
            "shakeRange": 1.2000000476837158,
            "shakeTime": 1.0,
            "shakeDistance": 30.0
          }
        }
      },
      "AE_Trans_Water": {
        "attackPattern": {
          "$type": "ConfigAttackCircle",
          "triggerType": "TriggerNoRepeat",
          "born": {
            "$type": "ConfigBornBySelf",
            "offset": {
              "z": 2.4000000953674316
            }
          },
          "height": 4.0,
          "radius": 6.25
        },
        "attackInfo": {
          "attackTag": "",
          "attenuationTag": "",
          "attenuationGroup": "default",
          "attackProperty": {
            "actorGrassSubHurtDelta": 0.800000011920929,
            "actorWindSubHurtDelta": 0.0,
            "elementType": "Water",
            "elementDurability": 50.0,
            "strikeType": "Blunt",
            "enBreak": 250.0,
            "GLKMCMDJBIK": 0.0
          },
          "hitPattern": {
            "onHitEffectName": "default",
            "hitImpulseY": "",
            "hitImpulseType": "LV6"
          },
          "forceCameraShake": true,
          "cameraShake": {
            "shakeRange": 1.2000000476837158,
            "shakeTime": 1.0,
            "shakeDistance": 30.0
          }
        }
      },
      "AE_TailSweep": {
        "attackPattern": {
          "$type": "ConfigAttackCircle",
          "triggerType": "TriggerNoRepeat",
          "height": 3.0,
          "radius": 9.0
        },
        "attackInfo": {
          "attackTag": "",
          "attenuationTag": "",
          "attenuationGroup": "default",
          "attackProperty": {
            "actorGrassSubHurtDelta": 0.800000011920929,
            "actorWindSubHurtDelta": 0.0,
            "elementType": "Rock",
            "elementDurability": 25.0,
            "strikeType": "Blunt",
            "enBreak": 250.0,
            "GLKMCMDJBIK": 0.0
          },
          "hitPattern": {
            "onHitEffectName": "default",
            "hitImpulseY": "",
            "hitImpulseType": "LV5"
          },
          "forceCameraShake": true,
          "cameraShake": {
            "shakeType": "CustomVector",
            "shakeRange": 1.2000000476837158,
            "shakeTime": 0.800000011920929,
            "shakeDistance": 30.0,
            "shakeDir": {
              "x": 1.0
            }
          }
        }
      }
    }
  },
  "abilities": [
    {
      "abilityID": "",
      "abilityName": "Drake_Primo_Rock_StateController",
      "abilityOverride": ""
    },
    {
      "abilityID": "",
      "abilityName": "Drake_Primo_Rock_SteerController",
      "abilityOverride": ""
    },
    {
      "abilityID": "",
      "abilityName": "Drake_Primo_Rock_ReturnToBorn",
      "abilityOverride": ""
    },
    {
      "abilityID": "",
      "abilityName": "Drake_Primo_Rock_NormalAtk01",
      "abilityOverride": ""
    },
    {
      "abilityID": "",
      "abilityName": "Drake_Primo_Rock_BossEvent_ElementController",
      "abilityOverride": ""
    },
    {
      "abilityID": "",
      "abilityName": "Drake_Primo_Rock_BossEvent_ElementSkillManager",
      "abilityOverride": ""
    },
    {
      "abilityID": "",
      "abilityName": "Drake_Primo_Rock_BossEvent_JumpAtk",
      "abilityOverride": ""
    },
    {
      "abilityID": "",
      "abilityName": "Drake_Primo_Rock_BossEvent_CameraManager",
      "abilityOverride": ""
    },
    {
      "abilityID": "",
      "abilityName": "Drake_Primo_Rock_BossEvent_ElementExplode_CreateLogicGadget",
      "abilityOverride": ""
    },
    {
      "abilityID": "",
      "abilityName": "Drake_Primo_Rock_BossEvent_HitShield",
      "abilityOverride": ""
    },
    {
      "abilityID": "",
      "abilityName": "Monster_BossEvent_CommonProcess",
      "abilityOverride": ""
    },
    {
      "abilityID": "",
      "abilityName": "Drake_Primo_Rock_BossEvent_DragonExterminator",
      "abilityOverride": ""
    },
    {
      "abilityID": "",
      "abilityName": "Drake_Primo_Rock_BossEvent_SubHurt",
      "abilityOverride": ""
    }
  ],
  "stateLayers": {
    "defaultLayer": {
      "$type": "GBGJJIIEMBD",
      "layerIndexName": "",
      "CPAANEIJCGD": "",
      "stateIDs": {
        "Born": {
          "$type": "NEDIFAKEGCO",
          "animatorStates": {
            "Born": []
          },
          "canSyncMove": true,
          "resetAnimatorTriggerOnExit": ["DoSkill"]
        },
        "NormalIdle": {
          "$type": "NEDIFAKEGCO",
          "animatorStates": {
            "Standby": []
          },
          "canDoSkill": true,
          "canSyncMove": true,
          "resetAnimatorTriggerOnExit": ["DoSkill"]
        },
        "NormalMove": {
          "$type": "NEDIFAKEGCO",
          "animatorStates": {
            "Walk": ["Audio_Drake_Primo_Rock_Walk"],
            "Run": ["Audio_Drake_Primo_Rock_Run"]
          },
          "canDoSkill": true,
          "canSyncMove": true,
          "resetAnimatorTriggerOnExit": ["DoSkill"],
          "canSteer": true
        },
        "Die": {
          "$type": "NEDIFAKEGCO",
          "animatorStates": {
            "Die": [
              "Monster_Drake_Primo_Rock_Die",
              "Audio_Drake_Primo_Rock_Die"
            ]
          },
          "resetAnimatorTriggerOnEnter": ["DoSkill"]
        },
        "Alert": {
          "$type": "NEDIFAKEGCO",
          "animatorStates": {
            "Alert": [
              "Monster_Drake_Primo_Rock_Alert",
              "Audio_Drake_Primo_Rock_Alert"
            ]
          },
          "resetAnimatorTriggerOnExit": ["BeHit", "DoSkill"]
        },
        "Broken": {
          "$type": "NEDIFAKEGCO",
          "animatorStates": {
            "BrokenL": ["Audio_Drake_Primo_Rock_BrokenL"],
            "BrokenH": ["Audio_Drake_Primo_Rock_BrokenH"]
          },
          "resetAnimatorTriggerOnExit": [
            "BeHit",
            "DoSkill",
            "BeHitBrokenL",
            "BeHitBrokenH"
          ]
        },
        "NormalAtk01": {
          "$type": "NEDIFAKEGCO",
          "animatorStates": {
            "NormalAtk01": [
              "Monster_Drake_Primo_BossEvent_NormalAtk01_Dummy",
              "Audio_Drake_Primo_Rock_NormalAtk01"
            ]
          },
          "resetAnimatorTriggerOnExit": ["BeHit", "DoSkill"]
        },
        "NormalAtk02": {
          "$type": "NEDIFAKEGCO",
          "animatorStates": {
            "NormalAtk02": [
              "Monster_Drake_Primo_BossEvent_NormalAtk02_Dummy",
              "Audio_Drake_Primo_Rock_NormalAtk02"
            ]
          },
          "resetAnimatorTriggerOnExit": ["BeHit", "DoSkill"]
        },
        "ComboAtk01": {
          "$type": "NEDIFAKEGCO",
          "animatorStates": {
            "ComboAtk01": [
              "Monster_Drake_Primo_BossEvent_ComboAtk01_Dummy",
              "Audio_Monster_Drake_Primo_Rock_02_ComboAtk01_Water"
            ]
          },
          "resetAnimatorTriggerOnExit": ["BeHit", "DoSkill"]
        },
        "ComboAtk02": {
          "$type": "NEDIFAKEGCO",
          "animatorStates": {
            "ComboAtk02": [
              "Monster_Drake_Primo_BossEvent_ComboAtk02_Dummy",
              "Audio_Monster_Drake_Primo_Rock_02_ComboAtk02_Water"
            ]
          },
          "resetAnimatorTriggerOnExit": ["BeHit", "DoSkill"]
        },
        "ComboAtk03": {
          "$type": "NEDIFAKEGCO",
          "animatorStates": {
            "ComboAtk03": [
              "Monster_Drake_Primo_BossEvent_ComboAtk03_Dummy",
              "Audio_Monster_Drake_Primo_Rock_02_ComboAtk03_Ice"
            ]
          },
          "resetAnimatorTriggerOnExit": ["BeHit", "DoSkill"]
        },
        "TailSweep": {
          "$type": "NEDIFAKEGCO",
          "animatorStates": {
            "TailSweepL": [
              "Monster_Drake_Primo_BossEvent_TailSweepL",
              "Audio_Drake_Primo_Rock_TailSweep"
            ],
            "TailSweepL_Rotate": ["Audio_Drake_Primo_Rock_TailSweep"],
            "TailSweepLAS": ["Audio_Drake_Primo_Rock_TailSweep"],
            "TailSweepR": [
              "Monster_Drake_Primo_BossEvent_TailSweepR",
              "Audio_Drake_Primo_Rock_TailSweep"
            ],
            "TailSweepR_Rotate": ["Audio_Drake_Primo_Rock_TailSweep"],
            "TailSweepRAS": ["Audio_Drake_Primo_Rock_TailSweep"]
          },
          "resetAnimatorTriggerOnExit": ["BeHit", "DoSkill"],
          "canSteer": true,
          "followAnimRotation": true
        },
        "Breathe": {
          "$type": "NEDIFAKEGCO",
          "animatorStates": {
            "Breathe": ["Audio_Drake_Primo_Rock_Breathe"]
          },
          "resetAnimatorTriggerOnExit": ["BeHit", "DoSkill"]
        },
        "ElementExplode": {
          "$type": "NEDIFAKEGCO",
          "animatorStates": {
            "ElementExplode": [
              "Monster_Drake_Primo_BossEvent_ElementExplode",
              "Audio_Drake_Primo_Rock_ElementExplode"
            ]
          },
          "resetAnimatorTriggerOnEnter": ["BeHitBrokenL", "BeHitBrokenH"],
          "resetAnimatorTriggerOnExit": ["BeHit", "DoSkill"]
        },
        "ElementTrans_BS": {
          "$type": "NEDIFAKEGCO",
          "animatorStates": {
            "ElementTrans_BS": [
              "Audio_Monster_Drake_Primo_Rock_02_ElementTrans_BS_Water"
            ]
          }
        },
        "ElementTrans_Scale": {
          "$type": "NEDIFAKEGCO",
          "animatorStates": {
            "ElementTrans_Scale": [
              "Audio_Monster_Drake_Primo_Rock_02_ElementTrans_Scale_Water"
            ]
          }
        },
        "ElementTrans_Burst": {
          "$type": "NEDIFAKEGCO",
          "animatorStates": {
            "ElementTrans_Burst": [
              "Monster_Drake_Primo_BossEvent_ElementTransform",
              "Audio_Monster_Drake_Primo_Rock_02_ElementTrans_Burst_Water"
            ],
            "ElementTrans_Burst_Attack": [
              "Monster_Drake_Primo_BossEvent_ElementTransform_Attack"
            ]
          }
        },
        "JumpAtk": {
          "$type": "NEDIFAKEGCO",
          "animatorStates": {
            "JumpAtk": [
              "Monster_Drake_Primo_BossEvent_JumpAtk_Dummy",
              "Audio_Monster_Drake_Primo_Rock_02_JumpAttack_Water"
            ]
          }
        },
        "DragonExterminatorHit": {
          "$type": "NEDIFAKEGCO",
          "animatorStates": {
            "DragonExterminatorHit": [
              "Audio_Monster_Drake_Primo_Rock_02_DragonExtermin"
            ]
          },
          "resetAnimatorTriggerOnExit": ["DragonExterminatorHit"]
        }
      }
    }
  },
  "billboard": {
    "$type": "DNGNMAJBCNP",
    "attachPoint": "BillboardAttach",
    "offsetType": "Character",
    "radiusOffset": 2.0,
    "showDistance": 0.0,
    "showHPBar": true,
    "size": "Grand"
  },
  "initialPoses": {
    "Default": {
      "initialPoseID": 101,
      "initialPoseParams": {
        "boolParams": {
          "IsProne": "false"
        }
      }
    },
    "BossEvent": {
      "initialPoseID": 201,
      "initialPoseParams": {
        "boolParams": {
          "IsProne": "false"
        }
      }
    }
  },
  "aibeta": {
    "enable": true,
    "sensing": {
      "settings": {
        "DefaultSetting": {
          "viewRange": 25.0,
          "feelRange": 25.0
        },
        "NeverCombat": {
          "enableVision": false,
          "hearAttractionRange": 0.0,
          "feelRange": 0.0
        }
      },
      "templates": {
        "DefaultTemplate": {
          "DefaultPoses": "DefaultSetting"
        },
        "NeverCombatTemplate": {
          "DefaultPoses": "NeverCombat"
        }
      }
    },
    "neurons": {
      "DefaultSetting": ["HIT"],
      "NeverCombat": []
    },
    "threat": {
      "GHIJMOKOLMB": "",
      "clearThreatTargetDistance": 60.0,
      "clearThreatEdgeDistance": 7.5,
      "clearThreatTimerByDistance": 1.75,
      "viewThreatGrow": 410.0,
      "threatDecreaseSpeed": 10.0,
      "resistTauntLevel": "Monster_TauntLevel_4",
      "forceAlertByDefendArea": true
    },
    "defendArea": {
      "defendRange": 50.0
    },
    "network": {
      "syncSkill": true
    },
    "skills": {
      "101": {
        "name": "OnAlert",
        "skillType": "OnAlert",
        "castCondition": {
          "pose": [201]
        },
        "publicCDGroup": "",
        "ignoreGCD": true,
        "HHAGODJIAPE": "",
        "stateIDs": ["Alert"],
        "skillQueryingTime": 3.0,
        "flagTargetReachable": "10",
        "flagSelfOnTemplateCollider": "01",
        "flagSelfInZone": "10",
        "flagTargetInZone": "11"
      },
      "201": {
        "name": "NormalAtk01",
        "castCondition": {
          "pose": [1, 3],
          "maxTargetAngleXZ": 90.0,
          "maxTargetAngleY": 60.0,
          "pickRangeMax": 8.0
        },
        "cd": 3.0,
        "publicCDGroup": "",
        "HHAGODJIAPE": "",
        "stateIDs": ["NormalAtk01", "NormalAtk02"],
        "flagTargetReachable": "11",
        "flagSelfOnTemplateCollider": "01",
        "flagSelfInZone": "11",
        "flagTargetInZone": "11"
      },
      "202": {
        "name": "NormalAtk01",
        "castCondition": {
          "pose": [1, 3],
          "maxTargetAngleXZ": 90.0,
          "maxTargetAngleY": 60.0,
          "pickRangeMax": 8.0
        },
        "cd": 20.0,
        "publicCDGroup": "",
        "HHAGODJIAPE": "",
        "stateIDs": ["NormalAtk01", "NormalAtk02"],
        "flagTargetReachable": "11",
        "flagSelfOnTemplateCollider": "01",
        "flagSelfInZone": "11",
        "flagTargetInZone": "11"
      },
      "211": {
        "name": "JumpAtk",
        "priority": 3,
        "castCondition": {
          "pose": [1, 3],
          "maxTargetAngleXZ": 30.0,
          "maxTargetAngleY": 60.0,
          "pickRangeMin": 11.0,
          "pickRangeMax": 35.0
        },
        "publicCDGroup": "",
        "ignoreGCD": true,
        "triggerGCD": false,
        "HHAGODJIAPE": "",
        "stateIDs": ["JumpAtk"],
        "flagTargetReachable": "11",
        "flagSelfOnTemplateCollider": "01",
        "flagSelfInZone": "11",
        "flagTargetInZone": "11"
      },
      "221": {
        "name": "ComboAtk",
        "castCondition": {
          "pose": [1, 3],
          "maxTargetAngleXZ": 75.0,
          "maxTargetAngleY": 60.0,
          "pickRangeMax": 15.0
        },
        "cd": 30.0,
        "cdUpperRange": 15.0,
        "publicCDGroup": "",
        "HHAGODJIAPE": "",
        "stateIDs": ["ComboAtk01", "ComboAtk02", "ComboAtk03"],
        "flagTargetReachable": "11",
        "flagSelfOnTemplateCollider": "01",
        "flagSelfInZone": "10",
        "flagTargetInZone": "11"
      },
      "222": {
        "name": "ComboAtk",
        "castCondition": {
          "pose": [1, 3],
          "maxTargetAngleY": 150.0,
          "pickRangeMax": 15.0
        },
        "cd": 15.0,
        "cdUpperRange": 15.0,
        "publicCDGroup": "",
        "HHAGODJIAPE": "",
        "stateIDs": ["ComboAtk01", "ComboAtk02", "ComboAtk03"],
        "flagTargetReachable": "11",
        "flagSelfOnTemplateCollider": "01",
        "flagSelfInZone": "10",
        "flagTargetInZone": "11"
      },
      "231": {
        "name": "TailSweep",
        "castCondition": {
          "pose": [1, 3],
          "minTargetAngleXZ": 135.0,
          "maxTargetAngleY": 60.0,
          "pickRangeMax": 10.0
        },
        "cd": 5.0,
        "publicCDGroup": "",
        "ignoreGCD": true,
        "triggerGCD": false,
        "HHAGODJIAPE": "",
        "stateIDs": ["TailSweep"],
        "flagTargetReachable": "11",
        "flagSelfOnTemplateCollider": "01",
        "flagSelfInZone": "11",
        "flagTargetInZone": "11"
      },
      "232": {
        "name": "TailSweep",
        "castCondition": {
          "pose": [1, 3],
          "minTargetAngleXZ": 80.0,
          "maxTargetAngleY": 60.0,
          "pickRangeMax": 10.0
        },
        "cd": 20.0,
        "publicCDGroup": "",
        "triggerGCD": false,
        "HHAGODJIAPE": "",
        "stateIDs": ["TailSweep"],
        "flagTargetReachable": "11",
        "flagSelfOnTemplateCollider": "01",
        "flagSelfInZone": "11",
        "flagTargetInZone": "11"
      },
      "401": {
        "name": "Breathe",
        "castCondition": {
          "pose": [1, 3],
          "maxTargetAngleXZ": 105.0,
          "maxTargetAngleY": 60.0,
          "pickRangeMax": 10.0
        },
        "cd": 15.0,
        "cdUpperRange": 15.0,
        "publicCDGroup": "",
        "HHAGODJIAPE": "",
        "stateIDs": ["Breathe"],
        "flagTargetReachable": "11",
        "flagSelfOnTemplateCollider": "01",
        "flagSelfInZone": "11",
        "flagTargetInZone": "11"
      },
      "411": {
        "name": "ElementExplode",
        "priority": 1,
        "castCondition": {
          "pose": [2, 4],
          "pickRangeMax": 15.0,
          "globalValues": ["_ELEMENT_EXPLODE_ENABLE"],
          "globalValuesTargetType": "SELF"
        },
        "publicCDGroup": "",
        "ignoreGCD": true,
        "HHAGODJIAPE": "",
        "stateIDs": ["ElementExplode"],
        "flagTargetReachable": "11",
        "flagSelfOnTemplateCollider": "11",
        "flagSelfInZone": "11",
        "flagTargetInZone": "11"
      },
      "901": {
        "name": "ElementTrans",
        "priority": 2,
        "castCondition": {
          "pose": [2, 4]
        },
        "publicCDGroup": "",
        "ignoreGCD": true,
        "HHAGODJIAPE": "",
        "stateIDs": [
          "ElementTrans_Burst",
          "ElementTrans_Scale",
          "ElementTrans_BS"
        ],
        "flagTargetReachable": "11",
        "flagSelfOnTemplateCollider": "11",
        "flagSelfInZone": "11",
        "flagTargetInZone": "11"
      }
    },
    "skillGCD": 1.75,
    "birdCirclingTactic": [
      {
        "$type": "KACCHOLJDNK",
        "enable": true,
        "condition": {
          "pose": [1, 3]
        },
        "JMCOBEPDIGM": {
          "ANLAAGAMIKF": 1,
          "NBENNEKDIIA": 1.0,
          "KHDFDAAAPEI": 5.0,
          "HKJODDGJPHA": 99.0,
          "GGEBMFHFBPO": 5.0,
          "MNPDDAKDHGK": ""
        }
      }
    ]
  },
  "inputKeys": [
    {
      "keyID": 201,
      "inputKeyCode": 257,
      "abilityName": ""
    },
    {
      "keyID": 211,
      "inputKeyCode": 258,
      "abilityName": ""
    },
    {
      "keyID": 221,
      "inputKeyCode": 259,
      "abilityName": ""
    },
    {
      "keyID": 231,
      "inputKeyCode": 260,
      "abilityName": ""
    },
    {
      "keyID": 411,
      "inputKeyCode": 261,
      "abilityName": ""
    },
    {
      "keyID": 901,
      "inputKeyCode": 262,
      "abilityName": ""
    },
    {
      "keyID": 401,
      "inputKeyCode": 263,
      "abilityName": ""
    },
    {
      "keyID": 411,
      "inputKeyCode": 264,
      "abilityName": ""
    },
    {
      "keyID": 501,
      "inputKeyCode": 265,
      "abilityName": ""
    },
    {
      "inputKeyCode": 266,
      "abilityName": "Drake_Primo_Rock_BossEvent_DragonExterminator"
    }
  ],
  "move": {
    "$type": "IPNMJMHDMPF",
    "handleCombatTaskImmediately": true,
    "positionModifyState": "Walk",
    "destroyRockWhenInit": true,
    "PKHOMJHFAEE": "RootNode"
  },
  "cameraAdjustMap": {
    "default": {
      "$type": "NJCCPGFPIHI",
      "priority": 2.0,
      "enterRadius": 0.05999999865889549,
      "exitRadius": 0.05000000074505806,
      "heightAdjust": 0.6600000262260437,
      "fov": 46.0,
      "zoom": 7.199999809265137,
      "sphericalY": 5.0,
      "lockSphericalY": false,
      "sphericalYUp": 75.0,
      "sphericalYDown": 85.0,
      "autoTurnStartMin": 150.0,
      "autoTurnStartMax": 150.0,
      "autoTurnEndMin": 180.0,
      "autoTurnEndMax": 180.0,
      "enterShape": "",
      "exitShape": "",
      "shapeCenterOffset": {
        "y": -2.0
      },
      "enableHandleResetBackward": true,
      "blendDuration": 2.0,
      "CIJLABMEGDC": 13
    },
    "BasicView": {
      "$type": "NJCCPGFPIHI",
      "priority": 2.0,
      "heightAdjust": 0.6600000262260437,
      "fov": 46.0,
      "zoom": 7.199999809265137,
      "sphericalY": 5.0,
      "lockSphericalY": false,
      "sphericalYUp": 75.0,
      "sphericalYDown": 85.0,
      "autoTurnStartMin": 150.0,
      "autoTurnStartMax": 150.0,
      "autoTurnEndMin": 180.0,
      "autoTurnEndMax": 180.0,
      "enterShape": "CircleR25H12_5B",
      "exitShape": "CircleR70H15C",
      "shapeCenterOffset": {
        "y": -2.0
      },
      "enableHandleResetBackward": true,
      "blendDuration": 2.0,
      "CIJLABMEGDC": 13
    },
    "InAir": {
      "$type": "NJCCPGFPIHI",
      "priority": 2.0,
      "heightAdjust": 1.0,
      "fov": 48.5,
      "zoom": 10.0,
      "sphericalY": -18.0,
      "lockSphericalY": false,
      "sphericalYUp": 80.0,
      "sphericalYDown": 60.0,
      "enterShape": "CircleR25H12_5B",
      "exitShape": "CircleR70H15C",
      "shapeCenterOffset": {
        "y": -2.0
      },
      "enableHandleResetBackward": true,
      "blendDuration": 1.100000023841858,
      "CIJLABMEGDC": 9
    },
    "BasicViewFast": {
      "$type": "NJCCPGFPIHI",
      "priority": 2.0,
      "heightAdjust": 0.6600000262260437,
      "fov": 46.0,
      "zoom": 7.199999809265137,
      "sphericalY": 5.0,
      "lockSphericalY": false,
      "sphericalYUp": 75.0,
      "sphericalYDown": 85.0,
      "autoTurnStartMin": 150.0,
      "autoTurnStartMax": 150.0,
      "autoTurnEndMin": 180.0,
      "autoTurnEndMax": 180.0,
      "enterShape": "CircleR25H12_5B",
      "exitShape": "CircleR70H15C",
      "shapeCenterOffset": {
        "y": -2.0
      },
      "enableHandleResetBackward": true,
      "CIJLABMEGDC": 4
    },
    "InUlt": {
      "$type": "NJCCPGFPIHI",
      "priority": 2.0,
      "heightAdjust": 0.800000011920929,
      "fov": 47.5,
      "zoom": 9.5,
      "sphericalY": -18.0,
      "lockSphericalY": false,
      "sphericalYUp": 80.0,
      "sphericalYDown": 60.0,
      "enterShape": "CircleR25H12_5B",
      "exitShape": "CircleR70H15C",
      "shapeCenterOffset": {
        "y": -2.0
      },
      "enableHandleResetBackward": true,
      "blendDuration": 2.5,
      "CIJLABMEGDC": 13
    },
    "ElementExplodeView": {
      "$type": "NJCCPGFPIHI",
      "priority": 2.0,
      "heightAdjust": 0.574999988079071,
      "fov": 41.0,
      "zoom": 6.5,
      "sphericalY": 5.0,
      "lockSphericalY": false,
      "sphericalYUp": 75.0,
      "sphericalYDown": 85.0,
      "autoTurnStartMin": 150.0,
      "autoTurnStartMax": 150.0,
      "autoTurnEndMin": 180.0,
      "autoTurnEndMax": 180.0,
      "enterShape": "CircleR25H12_5B",
      "exitShape": "CircleR70H15C",
      "shapeCenterOffset": {
        "y": -2.0
      },
      "enableHandleResetBackward": true,
      "blendDuration": 5.0,
      "CIJLABMEGDC": 7
    }
  }
}
