{
  "common": {
    "effectAttachShape": {
      "$type": "FJNPJANPGGC",
      "mesh": "EffectMesh"
    },
    "mass": 1000000.0,
    "height": 5.0,
    "viewSize": 3.0,
    "affectedByWorld": true,
    "checkInSurface": true,
    "scale": 1.399999976158142,
    "useGrassDisplacement": true,
    "clearAnimatorOnSetLightDeactive": true,
    "clearAIOnSetLightDeactive": true,
    "reconnectSupport": true,
    "recoverByInitPose": true,
    "useFinalIK": true
  },
  "specialPoint": {
    "elementAbsorb": "RootNode",
    "elementPendant": "",
    "elementDrop": "RootNode",
    "bulletAim": "RootNode",
    "selectedPoints": [
      "LockPointTail",
      "LockPointBody",
      "LockPointHead",
      "LockPointWingL",
      "LockPointWingR"
    ],
    "ignoreTransform": true,
    "selectedPointRadius": 1.0
  },
  "model": {
    "bornEffect": "",
    "attachEffect": "",
    "canBakeMesh": false,
    "BKPFGNPLDNJ": ""
  },
  "dither": {
    "normalBetweenCamera": {
      "detectDitherRange": 15.0
    },
    "hideEffectWhenDither": true
  },
  "combat": {
    "property": {
      "endureType": "Monster_Boss_Other",
      "weight": 300.0
    },
    "beHit": {
      "hitBloodEffect": "",
      "hitAutoRedirect": false
    },
    "combatLock": {
      "lockShape": "CircleLockEnemy",
      "lockType": "Avatar&Monster_Lv4"
    },
    "die": {
      "hasAnimatorDie": true,
      "dieEndTime": 2.5,
      "dieForceDisappearTime": 2.5,
      "dieDisappearEffect": "Eff_Death_Common",
      "dieShaderData": "MonsterDie",
      "ragDollDieEndTimeDelay": 2.5,
      "muteHitBox": true,
      "dieDenyLockOn": true,
      "dieIsGhostToEnemy": true,
      "dieIgnoreTriggerBullet": true,
      "muteBillboard": true,
      "mutePushCollider": true
    },
    "animEvents": {
      "NormalAtk01_Ground": {
        "attackPattern": {
          "$type": "ConfigAttackCircle",
          "triggerType": "TriggerNoRepeat",
          "born": {
            "$type": "ConfigBornBySelf",
            "offset": {
              "x": 0.0,
              "y": 0.0,
              "z": 0.30000001192092896
            }
          },
          "height": 3.5,
          "radius": 8.0
        },
        "attackInfo": {
          "attackTag": "",
          "attenuationTag": "",
          "attenuationGroup": "default",
          "attackProperty": {
            "actorGrassSubHurtDelta": 0.75,
            "actorWindSubHurtDelta": 0.0,
            "elementDurability": 0.0,
            "strikeType": "Slash",
            "enBreak": 150.0,
            "attackType": "Melee",
            "GLKMCMDJBIK": 0.0
          },
          "hitPattern": {
            "onHitEffectName": "default",
            "hitImpulseY": "",
            "hitImpulseType": "LV4",
            "overrideHitImpulse": {
              "hitLevel": "Heavy",
              "IMIJMPGJOGG": 1200.0,
              "BPCDKKBKOBM": 300.0
            },
            "hitHaltTimeScale": 0.05000000074505806
          }
        }
      },
      "NormalAtk02_Ground_First": {
        "attackPattern": {
          "$type": "ConfigAttackBox",
          "triggerType": "TriggerNoRepeat",
          "born": {
            "$type": "ConfigBornBySelf",
            "offset": {
              "x": 0.0,
              "y": 1.9199999570846558,
              "z": 2.4100000858306885
            },
            "direction": {
              "$type": "ConfigDirectionByDefault",
              "angleOffsetCorrect": {
                "x": 0.0,
                "y": 36.5,
                "z": 0.0
              }
            }
          },
          "size": {
            "x": 3.5,
            "y": 3.700000047683716,
            "z": 3.799999952316284
          }
        },
        "attackInfo": {
          "attackTag": "",
          "attenuationTag": "",
          "attenuationGroup": "default",
          "attackProperty": {
            "actorGrassSubHurtDelta": 0.6000000238418579,
            "actorWindSubHurtDelta": 0.0,
            "elementDurability": 0.0,
            "strikeType": "Slash",
            "enBreak": 50.0,
            "attackType": "Melee",
            "GLKMCMDJBIK": 0.0
          },
          "hitPattern": {
            "onHitEffectName": "default",
            "hitImpulseY": "",
            "hitImpulseType": "LV3",
            "hitHaltTimeScale": 0.05000000074505806
          }
        }
      },
      "NormalAtk02_Ground_Second": {
        "attackPattern": {
          "$type": "ConfigAttackBox",
          "triggerType": "TriggerNoRepeat",
          "born": {
            "$type": "ConfigBornBySelf",
            "offset": {
              "x": -0.20000000298023224,
              "y": 1.2000000476837158,
              "z": 2.0999999046325684
            },
            "direction": {
              "$type": "ConfigDirectionByDefault",
              "angleOffsetCorrect": {
                "x": 0.0,
                "y": -40.0,
                "z": 0.0
              }
            }
          },
          "size": {
            "x": 3.799999952316284,
            "y": 3.9000000953674316,
            "z": 4.400000095367432
          }
        },
        "attackInfo": {
          "attackTag": "",
          "attenuationTag": "",
          "attenuationGroup": "default",
          "attackProperty": {
            "actorGrassSubHurtDelta": 0.6000000238418579,
            "actorWindSubHurtDelta": 0.0,
            "elementDurability": 0.0,
            "strikeType": "Slash",
            "enBreak": 50.0,
            "attackType": "Melee",
            "GLKMCMDJBIK": 0.0
          },
          "hitPattern": {
            "onHitEffectName": "default",
            "hitImpulseY": "",
            "hitImpulseType": "LV3",
            "hitHaltTimeScale": 0.05000000074505806
          }
        }
      },
      "NormalAtk03_Ground_Right": {
        "attackPattern": {
          "$type": "ConfigAttackCircle",
          "triggerType": "TriggerNoRepeat",
          "born": {
            "$type": "ConfigBornBySelf",
            "offset": {
              "x": 0.8299999833106995,
              "y": -0.5,
              "z": 11.770000457763672
            },
            "alongGround": true
          },
          "height": 3.299999952316284,
          "radius": 4.400000095367432
        },
        "attackInfo": {
          "attackTag": "Fafnir_Air_NormalAtk_Area",
          "attenuationTag": "Fafnir_Air_NormalAtk_Area",
          "attenuationGroup": "Fafnir_Air_NormalAtk_Area",
          "attackProperty": {
            "actorGrassSubHurtDelta": 0.75,
            "actorWindSubHurtDelta": 0.0,
            "elementDurability": 0.0,
            "strikeType": "Blunt",
            "enBreak": 100.0,
            "attackType": "Range",
            "GLKMCMDJBIK": 0.0
          },
          "hitPattern": {
            "onHitEffectName": "default",
            "hitImpulseY": "",
            "hitImpulseType": "LV3",
            "hitHaltTimeScale": 0.05000000074505806
          },
          "forceCameraShake": true,
          "cameraShake": {
            "shakeRange": 0.47999998927116394,
            "shakeTime": 0.23999999463558197
          }
        }
      },
      "NormalAtk03_Ground_Left": {
        "attackPattern": {
          "$type": "ConfigAttackCircle",
          "triggerType": "TriggerNoRepeat",
          "born": {
            "$type": "ConfigBornBySelf",
            "offset": {
              "x": -0.8799999952316284,
              "y": -0.5,
              "z": 12.079999923706055
            },
            "alongGround": true
          },
          "height": 3.299999952316284,
          "radius": 4.400000095367432
        },
        "attackInfo": {
          "attackTag": "Fafnir_Air_NormalAtk_Area",
          "attenuationTag": "Fafnir_Air_NormalAtk_Area",
          "attenuationGroup": "Fafnir_Air_NormalAtk_Area",
          "attackProperty": {
            "actorGrassSubHurtDelta": 0.75,
            "actorWindSubHurtDelta": 0.0,
            "elementDurability": 0.0,
            "strikeType": "Blunt",
            "enBreak": 100.0,
            "attackType": "Range",
            "GLKMCMDJBIK": 0.0
          },
          "hitPattern": {
            "onHitEffectName": "default",
            "hitImpulseY": "",
            "hitImpulseType": "LV3",
            "hitHaltTimeScale": 0.05000000074505806
          },
          "forceCameraShake": true,
          "cameraShake": {
            "shakeRange": 0.47999998927116394,
            "shakeTime": 0.23999999463558197
          }
        }
      },
      "ChargeAtk_Air_AS1": {
        "attackPattern": {
          "$type": "ConfigAttackCircle",
          "triggerType": "TriggerNoRepeat",
          "born": {
            "$type": "ConfigBornBySelf",
            "offset": {
              "x": 0.0,
              "y": -0.5,
              "z": 0.0
            }
          },
          "height": 4.0,
          "radius": 9.0
        },
        "attackInfo": {
          "attackTag": "",
          "attenuationTag": "Fafnir_Air_ChargeAtk",
          "attenuationGroup": "Fafnir_Air_ChargeAtk",
          "attackProperty": {
            "actorGrassSubHurtDelta": 0.6000000238418579,
            "actorWindSubHurtDelta": 0.0,
            "elementDurability": 0.0,
            "strikeType": "Slash",
            "enBreak": 150.0,
            "attackType": "Melee",
            "GLKMCMDJBIK": 0.0
          },
          "hitPattern": {
            "onHitEffectName": "default",
            "hitImpulseY": "",
            "hitImpulseType": "LV4",
            "hitHaltTimeScale": 0.05000000074505806
          }
        }
      },
      "LandDamage": {
        "attackPattern": {
          "$type": "ConfigAttackCircle",
          "triggerType": "TriggerNoRepeat",
          "born": {
            "$type": "ConfigBornBySelf",
            "offset": {
              "x": 0.0,
              "y": -0.800000011920929,
              "z": 0.0
            },
            "onGround": true
          },
          "height": 1.7999999523162842,
          "radius": 8.5
        },
        "attackInfo": {
          "attackTag": "",
          "attenuationTag": "",
          "attenuationGroup": "default",
          "attackProperty": {
            "actorGrassSubHurtDelta": 0.30000001192092896,
            "actorWindSubHurtDelta": 0.0,
            "elementDurability": 25.0,
            "strikeType": "Blunt",
            "enBreak": 150.0,
            "attackType": "Melee",
            "GLKMCMDJBIK": 0.0
          },
          "hitPattern": {
            "onHitEffectName": "default",
            "hitImpulseY": "",
            "hitImpulseType": "LV4",
            "overrideHitImpulse": {
              "hitLevel": "Heavy",
              "IMIJMPGJOGG": 900.0,
              "BPCDKKBKOBM": 200.0
            },
            "hitHaltTimeScale": 0.05000000074505806
          },
          "forceCameraShake": true
        }
      }
    }
  },
  "abilities": [
    {
      "abilityID": "",
      "abilityName": "Monster_Gargoyle_Fafnir_MotionPose",
      "abilityOverride": ""
    },
    {
      "abilityID": "",
      "abilityName": "Monster_Gargoyle_Fafnir_GroundPose",
      "abilityOverride": ""
    },
    {
      "abilityID": "",
      "abilityName": "Monster_Gargoyle_Fafnir_AirPose",
      "abilityOverride": ""
    },
    {
      "abilityID": "",
      "abilityName": "Monster_Gargoyle_Fafnir_PoseElement_Begin",
      "abilityOverride": ""
    },
    {
      "abilityID": "",
      "abilityName": "Monster_Gargoyle_Fafnir_PoseElement_End",
      "abilityOverride": ""
    },
    {
      "abilityID": "",
      "abilityName": "Monster_Gargoyle_Fafnir_Weakness_Effect",
      "abilityOverride": ""
    },
    {
      "abilityID": "",
      "abilityName": "Monster_Gargoyle_Fafnir_Weakness_WingL",
      "abilityOverride": ""
    },
    {
      "abilityID": "",
      "abilityName": "Monster_Gargoyle_Fafnir_Weakness_WingR",
      "abilityOverride": ""
    },
    {
      "abilityID": "",
      "abilityName": "Monster_Gargoyle_Fafnir_Weakness_Head",
      "abilityOverride": ""
    },
    {
      "abilityID": "",
      "abilityName": "Monster_Gargoyle_Fafnir_Weakness_Chest",
      "abilityOverride": ""
    },
    {
      "abilityID": "",
      "abilityName": "Monster_Gargoyle_Fafnir_Air_Weak",
      "abilityOverride": ""
    },
    {
      "abilityID": "",
      "abilityName": "Monster_Gargoyle_Fafnir_Ground_Weak",
      "abilityOverride": ""
    },
    {
      "abilityID": "",
      "abilityName": "Monster_Gargoyle_Fafnir_Fly",
      "abilityOverride": ""
    },
    {
      "abilityID": "",
      "abilityName": "Monster_Gargoyle_Fafnir_Launch",
      "abilityOverride": ""
    },
    {
      "abilityID": "",
      "abilityName": "Monster_Gargoyle_Fafnir_Launch_EffectAdd",
      "abilityOverride": ""
    },
    {
      "abilityID": "",
      "abilityName": "Monster_Gargoyle_Fafnir_Launch_EffectRemove",
      "abilityOverride": ""
    },
    {
      "abilityID": "",
      "abilityName": "Monster_Gargoyle_Fafnir_Land",
      "abilityOverride": ""
    },
    {
      "abilityID": "",
      "abilityName": "Monster_Gargoyle_Fafnir_InitialConfig",
      "abilityOverride": ""
    },
    {
      "abilityID": "",
      "abilityName": "Monster_Gargoyle_Fafnir_Alert",
      "abilityOverride": ""
    },
    {
      "abilityID": "",
      "abilityName": "Monster_Gargoyle_Fafnir_Alert_Collider",
      "abilityOverride": ""
    },
    {
      "abilityID": "",
      "abilityName": "Monster_Gargoyle_Fafnir_ExitBattle",
      "abilityOverride": ""
    },
    {
      "abilityID": "",
      "abilityName": "Monster_Gargoyle_Fafnir_Steer",
      "abilityOverride": ""
    },
    {
      "abilityID": "",
      "abilityName": "Monster_Gargoyle_Fafnir_TailOn",
      "abilityOverride": ""
    },
    {
      "abilityID": "",
      "abilityName": "Monster_Gargoyle_Fafnir_TailOff",
      "abilityOverride": ""
    },
    {
      "abilityID": "",
      "abilityName": "Monster_Gargoyle_Fafnir_ClearGround",
      "abilityOverride": ""
    },
    {
      "abilityID": "",
      "abilityName": "Monster_Gargoyle_Fafnir_HeadControl",
      "abilityOverride": ""
    },
    {
      "abilityID": "",
      "abilityName": "Monster_Gargoyle_Fafnir_DieHandler",
      "abilityOverride": ""
    },
    {
      "abilityID": "",
      "abilityName": "Monster_Gargoyle_Fafnir_ElementAtk_Settle",
      "abilityOverride": ""
    },
    {
      "abilityID": "",
      "abilityName": "Monster_Gargoyle_Fafnir_ElementAtk_Activated",
      "abilityOverride": ""
    },
    {
      "abilityID": "",
      "abilityName": "Monster_Gargoyle_Fafnir_ElementAtk_Recover",
      "abilityOverride": ""
    },
    {
      "abilityID": "",
      "abilityName": "Monster_Gargoyle_Fafnir_ElementAtk_Bullet",
      "abilityOverride": ""
    },
    {
      "abilityID": "",
      "abilityName": "Monster_Gargoyle_Fafnir_ElementAtk_Effect_Wings",
      "abilityOverride": ""
    },
    {
      "abilityID": "",
      "abilityName": "Monster_Gargoyle_Fafnir_ElementAtk_Effect_BS",
      "abilityOverride": ""
    },
    {
      "abilityID": "",
      "abilityName": "Monster_Gargoyle_Fafnir_ElementAtk_Effect_Chest",
      "abilityOverride": ""
    },
    {
      "abilityID": "",
      "abilityName": "Monster_Gargoyle_Fafnir_Air_WingAtk",
      "abilityOverride": ""
    },
    {
      "abilityID": "",
      "abilityName": "Monster_Gargoyle_Fafnir_Air_ChestAtk_Aim",
      "abilityOverride": ""
    },
    {
      "abilityID": "",
      "abilityName": "Monster_Gargoyle_Fafnir_Air_ChestAtk",
      "abilityOverride": ""
    },
    {
      "abilityID": "",
      "abilityName": "Monster_Gargoyle_Fafnir_Air_ChestAtk_Activated",
      "abilityOverride": ""
    },
    {
      "abilityID": "",
      "abilityName": "Monster_Gargoyle_Fafnir_Air_ChestAtk_Recover",
      "abilityOverride": ""
    },
    {
      "abilityID": "",
      "abilityName": "Monster_Gargoyle_Fafnir_Air_ChargeAtk",
      "abilityOverride": ""
    },
    {
      "abilityID": "",
      "abilityName": "Monster_Gargoyle_Fafnir_Air_ChargeAtk_Bullet",
      "abilityOverride": ""
    },
    {
      "abilityID": "",
      "abilityName": "Monster_Gargoyle_Fafnir_Air_ChargeAtk_EffectAdd",
      "abilityOverride": ""
    },
    {
      "abilityID": "",
      "abilityName": "Monster_Gargoyle_Fafnir_Ground_ChargeAtk",
      "abilityOverride": ""
    },
    {
      "abilityID": "",
      "abilityName": "Monster_Gargoyle_Fafnir_Ground_ChargeAtk_Bullet",
      "abilityOverride": ""
    },
    {
      "abilityID": "",
      "abilityName": "Monster_Gargoyle_Fafnir_Ground_ChargeAtk_EffectAdd",
      "abilityOverride": ""
    },
    {
      "abilityID": "",
      "abilityName": "Monster_Gargoyle_Fafnir_Ground_NormalAtk01_WingFireOn",
      "abilityOverride": ""
    },
    {
      "abilityID": "",
      "abilityName": "Monster_Gargoyle_Fafnir_Ground_NormalAtk01_WingFireOff",
      "abilityOverride": ""
    },
    {
      "abilityID": "",
      "abilityName": "Monster_Gargoyle_Fafnir_Ground_NormalAtk02",
      "abilityOverride": ""
    },
    {
      "abilityID": "",
      "abilityName": "Gargoyle_Fafnir_Elite_Ground_NormalAtk03_AreaAtk01",
      "abilityOverride": ""
    },
    {
      "abilityID": "",
      "abilityName": "Gargoyle_Fafnir_Elite_Ground_NormalAtk03_AreaAtk02",
      "abilityOverride": ""
    },
    {
      "abilityID": "",
      "abilityName": "Monster_Gargoyle_Fafnir_MortalStrike",
      "abilityOverride": ""
    },
    {
      "abilityID": "",
      "abilityName": "Gargoyle_Fafnir_Elite_TriggerRockBullet",
      "abilityOverride": ""
    }
  ],
  "stateLayers": {
    "defaultLayer": {
      "$type": "GBGJJIIEMBD",
      "layerIndexName": "",
      "CPAANEIJCGD": "",
      "stateIDs": {
        "Born": {
          "$type": "NEDIFAKEGCO",
          "animatorStates": {
            "Born": []
          },
          "resetAnimatorTriggerOnExit": ["DoSkill"]
        },
        "NormalIdle_Free": {
          "$type": "NEDIFAKEGCO",
          "animatorStates": {
            "StandbyFree_Ground": []
          },
          "canDoSkill": true,
          "canSyncMove": true,
          "resetAnimatorTriggerOnExit": ["DoSkill"]
        },
        "NormalIdle_Ground": {
          "$type": "NEDIFAKEGCO",
          "animatorStates": {
            "Standby_Ground": []
          },
          "canDoSkill": true,
          "canSyncMove": true,
          "resetAnimatorTriggerOnExit": ["DoSkill"]
        },
        "NormalIdle_Air": {
          "$type": "NEDIFAKEGCO",
          "animatorStates": {
            "Standby_Air": []
          },
          "canDoSkill": true,
          "canSyncMove": true,
          "resetAnimatorTriggerOnExit": ["DoSkill"]
        },
        "NormalMove_Ground": {
          "$type": "NEDIFAKEGCO",
          "animatorStates": {
            "WalkForward_Ground": [
              "Monster_Gargoyle_Fafnir_WalkForward",
              "Audio_Monster_Gargoyle_Fafnir_Ground_Walk"
            ],
            "WalkBack_Ground": [
              "Monster_Gargoyle_Fafnir_WalkBack",
              "Audio_Monster_Gargoyle_Fafnir_Ground_Walk"
            ]
          },
          "canDoSkill": true,
          "canSyncMove": true,
          "resetAnimatorTriggerOnExit": ["DoSkill"]
        },
        "NormalMove_Air": {
          "$type": "NEDIFAKEGCO",
          "animatorStates": {
            "WalkForward_Air_Loop": [],
            "WalkBack_Air_Loop": []
          },
          "canDoSkill": true,
          "canSyncMove": true,
          "resetAnimatorTriggerOnExit": ["DoSkill"]
        },
        "NormalMove_Air_BS": {
          "$type": "NEDIFAKEGCO",
          "animatorStates": {
            "WalkForward_Air_BS": [
              "Audio_Monster_Gargoyle_Fafnir_Airborne_Move"
            ],
            "WalkBack_Air_BS": ["Audio_Monster_Gargoyle_Fafnir_Airborne_Move"]
          },
          "canDoSkill": true,
          "canSyncMove": true,
          "resetAnimatorTriggerOnExit": ["DoSkill"]
        },
        "Turn_Ground": {
          "$type": "NEDIFAKEGCO",
          "animatorStates": {
            "TurnLeft_Ground": [
              "Monster_Gargoyle_Fafnir_WalkLeft",
              "Audio_Monster_Gargoyle_Fafnir_Ground_Walk"
            ],
            "TurnRight_Ground": [
              "Monster_Gargoyle_Fafnir_WalkRight",
              "Audio_Monster_Gargoyle_Fafnir_Ground_Walk"
            ]
          },
          "canDoSkill": true,
          "canSyncMove": true,
          "resetAnimatorTriggerOnExit": ["DoSkill"]
        },
        "Turn_Air": {
          "$type": "NEDIFAKEGCO",
          "animatorStates": {
            "TurnLeft_Air_Loop": [],
            "TurnRight_Air_Loop": []
          },
          "canDoSkill": true,
          "canSyncMove": true,
          "resetAnimatorTriggerOnExit": ["DoSkill"]
        },
        "Turn_Air_BS": {
          "$type": "NEDIFAKEGCO",
          "animatorStates": {
            "TurnLeft_Air_BS": ["Audio_Monster_Gargoyle_Fafnir_Airborne_Move"],
            "TurnRight_Air_BS": ["Audio_Monster_Gargoyle_Fafnir_Airborne_Move"]
          },
          "canDoSkill": true,
          "canSyncMove": true,
          "resetAnimatorTriggerOnExit": ["DoSkill"]
        },
        "Run_Ground": {
          "$type": "NEDIFAKEGCO",
          "animatorStates": {
            "Run_Ground": [
              "Monster_Gargoyle_Fafnir_WalkForward",
              "Audio_Monster_Gargoyle_Fafnir_Ground_Run"
            ]
          },
          "canDoSkill": true,
          "canSyncMove": true,
          "resetAnimatorTriggerOnExit": ["DoSkill"],
          "canSteer": true
        },
        "Run_Air": {
          "$type": "NEDIFAKEGCO",
          "animatorStates": {
            "Run_Air": []
          },
          "canDoSkill": true,
          "canSyncMove": true,
          "resetAnimatorTriggerOnExit": ["DoSkill"],
          "canSteer": true
        },
        "ReturnToBorn_Ground": {
          "$type": "NEDIFAKEGCO",
          "animatorStates": {
            "ReturnToBorn_Ground": [
              "Audio_Monster_Gargoyle_Fafnir_Ground_ReturnToBorn"
            ]
          },
          "canSyncMove": true,
          "resetAnimatorTriggerOnExit": ["BeHit", "DoSkill"]
        },
        "ReturnToBorn_Air": {
          "$type": "NEDIFAKEGCO",
          "animatorStates": {
            "ReturnToBornBS01_Air": [
              "Monster_Gargoyle_Fafnir_Land",
              "Audio_Monster_Gargoyle_Fafnir_Airborne_ChargeAtk_Land"
            ],
            "ReturnToBornBS02_Air": [],
            "ReturnToBornAS_Air": [
              "Audio_Monster_Gargoyle_Fafnir_Ground_ReturnToBorn"
            ]
          },
          "canSyncMove": true,
          "resetAnimatorTriggerOnExit": ["BeHit", "DoSkill"]
        },
        "BeHit": {
          "$type": "NEDIFAKEGCO",
          "animatorStates": {
            "Hit_WingL": ["Audio_Monster_Gargoyle_Fafnir_Airborne_Hit_Wing"],
            "Hit_WingR": ["Audio_Monster_Gargoyle_Fafnir_Airborne_Hit_Wing"],
            "Hit_HeadAir": [
              "Audio_Monster_Gargoyle_Fafnir_Airborne_Hit_ChestAir"
            ],
            "Hit_ChestAir": [
              "Audio_Monster_Gargoyle_Fafnir_Airborne_Hit_ChestAir"
            ],
            "Hit_HeadGround": ["Audio_Monster_Gargoyle_Fafnir_Ground_Hit"],
            "Hit_ChestGround": ["Audio_Monster_Gargoyle_Fafnir_Ground_Hit"]
          },
          "resetAnimatorTriggerOnEnter": ["BeHit"],
          "resetAnimatorTriggerOnExit": ["DoSkill"]
        },
        "Die_Ground": {
          "$type": "NEDIFAKEGCO",
          "animatorStates": {
            "Die_Ground": [
              "Monster_Gargoyle_Fafnir_Die",
              "Audio_Monster_Gargoyle_Fafnir_Ground_Die"
            ]
          }
        },
        "Die_Weak_Ground": {
          "$type": "NEDIFAKEGCO",
          "animatorStates": {
            "Die_Weak_Ground": [
              "Monster_Gargoyle_Fafnir_Die",
              "Audio_Monster_Gargoyle_Fafnir_Ground_Die_Weak"
            ]
          }
        },
        "Die_Air": {
          "$type": "NEDIFAKEGCO",
          "animatorStates": {
            "Die_Air": [
              "Monster_Gargoyle_Fafnir_Die_Air",
              "Audio_Monster_Gargoyle_Fafnir_Airborne_Die"
            ]
          }
        },
        "Die_Weak_Air": {
          "$type": "NEDIFAKEGCO",
          "animatorStates": {
            "Die_Weak_Air": [
              "Monster_Gargoyle_Fafnir_Die",
              "Audio_Monster_Gargoyle_Fafnir_Airborne_Die_Weak"
            ]
          }
        },
        "Alert": {
          "$type": "NEDIFAKEGCO",
          "animatorStates": {
            "Alert": [
              "Monster_Gargoyle_Fafnir_Alert",
              "Audio_Monster_Gargoyle_Fafnir_Alert"
            ]
          },
          "resetAnimatorTriggerOnExit": ["BeHit", "DoSkill"]
        },
        "Weak_Ground": {
          "$type": "NEDIFAKEGCO",
          "animatorStates": {
            "Weak_Ground_BS": [
              "Monster_Gargoyle_Fafnir_Weak_Ground",
              "Audio_Monster_Gargoyle_Fafnir_Ground_Weak_BS"
            ],
            "Weak_Ground_Loop": [],
            "Weak_Ground_AS": ["Audio_Monster_Gargoyle_Fafnir_Ground_Weak_AS"]
          },
          "resetAnimatorTriggerOnExit": ["BeHit", "DoSkill"],
          "handleAnimatorStateImmediately": true
        },
        "Weak_Air": {
          "$type": "NEDIFAKEGCO",
          "animatorStates": {
            "Weak_Air_BS": [
              "Monster_Gargoyle_Fafnir_Weak_Air",
              "Audio_Monster_Gargoyle_Fafnir_Airborne_Weak_Drop_BS"
            ],
            "Weak_Air_Loop": [],
            "Weak_Air_AS": ["Audio_Monster_Gargoyle_Fafnir_Airborne_Weak_AS"]
          },
          "resetAnimatorTriggerOnEnter": ["WeakEndElite"],
          "resetAnimatorTriggerOnExit": ["BeHit", "DoSkill", "WeakEndElite"],
          "handleAnimatorStateImmediately": true
        },
        "Launch": {
          "$type": "NEDIFAKEGCO",
          "animatorStates": {
            "Launch_BS": [
              "Monster_Gargoyle_Fafnir_Launch",
              "Audio_Monster_Gargoyle_Fafnir_Ground_Launch_AS"
            ],
            "Launch_AS": []
          },
          "canSyncMove": true,
          "resetAnimatorTriggerOnEnter": ["DoSkill"],
          "resetAnimatorTriggerOnExit": ["BeHit"]
        },
        "Land": {
          "$type": "NEDIFAKEGCO",
          "animatorStates": {
            "Land_BS": [
              "Monster_Gargoyle_Fafnir_Land",
              "Audio_Monster_Gargoyle_Fafnir_Airborne_ChargeAtk_Land"
            ],
            "Land_AS": []
          },
          "canSyncMove": true,
          "resetAnimatorTriggerOnEnter": ["DoSkill"],
          "resetAnimatorTriggerOnExit": ["BeHit"]
        },
        "ChargeAtk_Air_BS": {
          "$type": "NEDIFAKEGCO",
          "animatorStates": {
            "ChargeAtk_Air_BS": [
              "Monster_Gargoyle_Fafnir_Air_ChargeAtk_BS",
              "Audio_Monster_Gargoyle_Fafnir_Airborne_ChargeAtk_Air_BS"
            ]
          },
          "canSyncMove": true,
          "resetAnimatorTriggerOnExit": ["BeHit", "DoSkill"],
          "canSteer": true
        },
        "ChargeAtk_Air_Loop": {
          "$type": "NEDIFAKEGCO",
          "animatorStates": {
            "ChargeAtk_Air_Loop": []
          },
          "canSyncMove": true,
          "resetAnimatorTriggerOnExit": ["BeHit", "DoSkill"],
          "canSteer": true
        },
        "ChargeAtk_Air_AS1": {
          "$type": "NEDIFAKEGCO",
          "animatorStates": {
            "ChargeAtk_Air_AS1": [
              "Monster_Gargoyle_Fafnir_Air_ChargeAtk_AS1",
              "Audio_Monster_Gargoyle_Fafnir_Airborne_ChargeAtk_Air_AS1"
            ]
          },
          "canSyncMove": true,
          "resetAnimatorTriggerOnExit": ["BeHit", "DoSkill"],
          "handleAnimatorStateImmediately": true,
          "canSteer": true
        },
        "ChargeAtk_Air_AS2": {
          "$type": "NEDIFAKEGCO",
          "animatorStates": {
            "ChargeAtk_Air_AS2": [
              "Monster_Gargoyle_Fafnir_Air_ChargeAtk_AS2",
              "Audio_Monster_Gargoyle_Fafnir_Airborne_ChargeAtk_Air_AS2"
            ]
          },
          "canSyncMove": true,
          "resetAnimatorTriggerOnExit": ["BeHit", "DoSkill"],
          "canSteer": true
        },
        "ChestAtk_Air": {
          "$type": "NEDIFAKEGCO",
          "animatorStates": {
            "ChestAtk_Air": [
              "Monster_Gargoyle_Fafnir_Air_ChestAtk",
              "Audio_Monster_Gargoyle_Fafnir_Airborne_ChestAtk"
            ]
          },
          "canSyncMove": true,
          "resetAnimatorTriggerOnExit": ["BeHit", "DoSkill"],
          "canSteer": true
        },
        "WingAtk_Air": {
          "$type": "NEDIFAKEGCO",
          "animatorStates": {
            "WingAtk_Air": [
              "Monster_Gargoyle_Fafnir_Air_WingAtk",
              "Audio_Monster_Gargoyle_Fafnir_Airborne_WingAtk"
            ]
          },
          "canSyncMove": true,
          "resetAnimatorTriggerOnExit": ["BeHit", "DoSkill"],
          "canSteer": true
        },
        "ElementAtk_Air": {
          "$type": "NEDIFAKEGCO",
          "animatorStates": {
            "ElementAtk_Air": [
              "Monster_Gargoyle_Fafnir_ElementAtk",
              "Audio_Monster_Gargoyle_Fafnir_Airborne_ElementAtk"
            ]
          },
          "canSyncMove": true,
          "resetAnimatorTriggerOnExit": ["BeHit", "DoSkill"],
          "canSteer": true
        },
        "MortalStrike_Air": {
          "$type": "NEDIFAKEGCO",
          "animatorStates": {
            "MortalStrike_Air": [
              "Monster_Gargoyle_Fafnir_MortalStrike",
              "Audio_Monster_Gargoyle_Fafnir_MortalStrike_Air"
            ]
          },
          "canSyncMove": true,
          "resetAnimatorTriggerOnExit": ["BeHit", "DoSkill"],
          "canSteer": true
        },
        "ChargeAtk_Ground_BS": {
          "$type": "NEDIFAKEGCO",
          "animatorStates": {
            "ChargeAtk_Ground_BS": [
              "Monster_Gargoyle_Fafnir_Ground_ChargeAtk_BS",
              "Audio_Monster_Gargoyle_Fafnir_Ground_ChargeAtk_Ground_BS"
            ]
          },
          "canSyncMove": true,
          "resetAnimatorTriggerOnExit": ["BeHit", "DoSkill"],
          "canSteer": true
        },
        "ChargeAtk_Ground_Loop": {
          "$type": "NEDIFAKEGCO",
          "animatorStates": {
            "ChargeAtk_Ground_Loop": []
          },
          "canSyncMove": true,
          "resetAnimatorTriggerOnExit": ["BeHit", "DoSkill"],
          "handleAnimatorStateImmediately": true,
          "canSteer": true
        },
        "ChargeAtk_Ground_AS1": {
          "$type": "NEDIFAKEGCO",
          "animatorStates": {
            "ChargeAtk_Ground_AS1": [
              "Monster_Gargoyle_Fafnir_Ground_ChargeAtk_AS",
              "Audio_Monster_Gargoyle_Fafnir_Ground_ChargeAtk_Ground_AS1"
            ]
          },
          "canSyncMove": true,
          "resetAnimatorTriggerOnExit": ["BeHit", "DoSkill"],
          "canSteer": true
        },
        "ChargeAtk_Ground_AS2": {
          "$type": "NEDIFAKEGCO",
          "animatorStates": {
            "ChargeAtk_Ground_AS2": [
              "Monster_Gargoyle_Fafnir_Ground_NormalAtk01",
              "Audio_Monster_Gargoyle_Fafnir_Ground_ChargeAtk_Ground_AS2"
            ]
          },
          "canSyncMove": true,
          "resetAnimatorTriggerOnExit": ["BeHit", "DoSkill"],
          "canSteer": true
        },
        "NormalAtk01_Ground": {
          "$type": "NEDIFAKEGCO",
          "animatorStates": {
            "NormalAtk01_Ground": [
              "Monster_Gargoyle_Fafnir_Ground_NormalAtk01",
              "Audio_Monster_Gargoyle_Fafnir_Ground_ChargeAtk_Ground_AS2"
            ]
          },
          "canSyncMove": true,
          "resetAnimatorTriggerOnExit": ["BeHit", "DoSkill"],
          "canSteer": true
        },
        "NormalAtk01To03_Ground": {
          "$type": "NEDIFAKEGCO",
          "animatorStates": {
            "NormalAtk01To03_Ground": [
              "Monster_Gargoyle_Fafnir_Ground_NormalAtk03",
              "Audio_Monster_Gargoyle_Fafnir_NormalAtk01To03_Ground"
            ]
          },
          "canSyncMove": true,
          "resetAnimatorTriggerOnExit": ["BeHit", "DoSkill"],
          "canSteer": true
        },
        "NormalAtk02_Ground": {
          "$type": "NEDIFAKEGCO",
          "animatorStates": {
            "NormalAtk02_Ground": [
              "Monster_Gargoyle_Fafnir_Ground_NormalAtk02",
              "Audio_Monster_Gargoyle_Fafnir_Ground_NormalAtk02"
            ]
          },
          "canSyncMove": true,
          "resetAnimatorTriggerOnExit": ["BeHit", "DoSkill"],
          "canSteer": true
        },
        "NormalAtk02To01_Ground": {
          "$type": "NEDIFAKEGCO",
          "animatorStates": {
            "NormalAtk02To01_Ground": [
              "Monster_Gargoyle_Fafnir_Ground_NormalAtk01",
              "Audio_Monster_Gargoyle_Fafnir_Ground_NormalAtk02To01"
            ]
          },
          "canSyncMove": true,
          "resetAnimatorTriggerOnExit": ["BeHit", "DoSkill"],
          "canSteer": true
        },
        "NormalAtk03_Ground": {
          "$type": "NEDIFAKEGCO",
          "animatorStates": {
            "NormalAtk03_Ground": [
              "Monster_Gargoyle_Fafnir_Ground_NormalAtk03",
              "Audio_Monster_Gargoyle_Fafnir_Ground_NormalAtk03"
            ]
          },
          "canSyncMove": true,
          "resetAnimatorTriggerOnExit": ["BeHit", "DoSkill"],
          "canSteer": true
        },
        "ElementAtk_Ground": {
          "$type": "NEDIFAKEGCO",
          "animatorStates": {
            "ElementAtk_Ground": [
              "Monster_Gargoyle_Fafnir_ElementAtk_Ground",
              "Monster_Gargoyle_Fafnir_ElementAtk",
              "Audio_Monster_Gargoyle_Fafnir_Ground_ElementAtk"
            ]
          },
          "canSyncMove": true,
          "resetAnimatorTriggerOnExit": ["BeHit", "DoSkill"],
          "canSteer": true
        },
        "MortalStrike_Ground": {
          "$type": "NEDIFAKEGCO",
          "animatorStates": {
            "MortalStrike_Ground": [
              "Monster_Gargoyle_Fafnir_MortalStrike",
              "Audio_Monster_Gargoyle_Fafnir_MortalStrike_Ground"
            ]
          },
          "canSyncMove": true,
          "resetAnimatorTriggerOnExit": ["BeHit", "DoSkill"],
          "canSteer": true
        }
      }
    }
  },
  "partControl": {
    "parts": [
      {
        "$type": "JMCNLBANPIP",
        "angularSpeed": 360.0,
        "partRootName": "Neck",
        "forwardBy": "Parent",
        "forwardAxialFix": {
          "y": -90.0
        },
        "doOnUnEabled": "RotateToForward",
        "forwardByTransName": "",
        "limitHorizontal": 60.0,
        "limitVertical": 30.0,
        "defaultEnable": false,
        "rootName": "Neck",
        "finalAxialFix": {
          "x": 3.0
        },
        "verticalDamping": 15.0
      }
    ]
  },
  "billboard": {
    "$type": "DNGNMAJBCNP",
    "attachPoint": "BillboardAttach",
    "offset": {
      "y": 0.5
    },
    "radiusOffset": 1.0,
    "enableSelfAdapt": true,
    "showHPBar": true,
    "size": "Grand"
  },
  "initialPoses": {
    "Default": {
      "initialPoseID": 101
    }
  },
  "aibeta": {
    "enable": true,
    "moveSetting": {
      "useNavMesh": false,
      "navMeshAgentName": "Undead01"
    },
    "sensing": {
      "settings": {
        "DefaultSetting": {
          "viewRange": 15.0,
          "viewPanoramic": true,
          "feelRange": 7.5
        }
      },
      "templates": {
        "DefaultTemplate": {
          "DefaultPoses": "DefaultSetting"
        }
      }
    },
    "threat": {
      "GHIJMOKOLMB": "",
      "clearThreatTargetDistance": 65.0,
      "clearThreatEdgeDistance": 7.5,
      "clearThreatByTargetOutOfZone": true,
      "clearThreatTimerByTargetOutOfZone": 7.0,
      "viewThreatGrow": 35.0,
      "threatDecreaseSpeed": 200.0,
      "viewAttenuation": [
        {
          "x": 10.0,
          "y": 2.0
        },
        {
          "x": 15.0,
          "y": 0.800000011920929
        },
        {
          "x": 20.0,
          "y": 0.5
        },
        {
          "x": 25.0,
          "y": 0.30000001192092896
        },
        {
          "x": 30.0,
          "y": 0.20000000298023224
        }
      ],
      "resistTauntLevel": "Monster_TauntLevel_4",
      "forceAlertByDefendArea": true
    },
    "defendArea": {
      "defendRange": 50.0
    },
    "skillSetting": {
      "skillEliteSet": {
        "0": [
          101, 111, 121, 201, 202, 203, 301, 302, 303, 401, 501, 601, 602, 603,
          701, 702, 711, 721, 801
        ],
        "1": [
          101, 111, 112, 121, 201, 202, 203, 301, 302, 303, 402, 501, 601, 602,
          603, 701, 702, 711, 721, 801
        ],
        "2": [
          101, 111, 112, 121, 201, 202, 203, 301, 302, 303, 402, 501, 601, 602,
          603, 701, 702, 711, 721, 801
        ],
        "3": [
          101, 111, 121, 201, 202, 203, 301, 302, 303, 402, 501, 601, 602, 603,
          701, 702, 711, 721, 801, 901, 951
        ]
      }
    },
    "skills": {
      "101": {
        "name": "OnAlert",
        "skillType": "OnAlert",
        "castCondition": {
          "pose": [101]
        },
        "publicCDGroup": "",
        "triggerGCD": false,
        "HHAGODJIAPE": "",
        "stateIDs": ["Alert"],
        "skillQueryingTime": 3.0,
        "flagTargetReachable": "10",
        "flagSelfOnTemplateCollider": "01",
        "flagSelfInZone": "10",
        "flagTargetInZone": "11"
      },
      "111": {
        "name": "Launch",
        "castCondition": {
          "pose": [221]
        },
        "cd": 1.0,
        "publicCDGroup": "",
        "ignoreGCD": true,
        "triggerGCD": false,
        "HHAGODJIAPE": "",
        "stateIDs": ["Launch"],
        "flagTargetReachable": "11",
        "flagSelfOnTemplateCollider": "01",
        "flagSelfInZone": "11",
        "flagTargetInZone": "11"
      },
      "112": {
        "name": "Launch",
        "priority": 1,
        "castCondition": {
          "pose": [241]
        },
        "cd": 2.0,
        "publicCDGroup": "",
        "ignoreGCD": true,
        "triggerGCD": false,
        "HHAGODJIAPE": "",
        "stateIDs": ["Launch"],
        "flagTargetReachable": "11",
        "flagSelfOnTemplateCollider": "01",
        "flagSelfInZone": "11",
        "flagTargetInZone": "11"
      },
      "121": {
        "name": "Land",
        "castCondition": {
          "pose": [321]
        },
        "cd": 1.0,
        "publicCDGroup": "",
        "ignoreGCD": true,
        "triggerGCD": false,
        "HHAGODJIAPE": "",
        "stateIDs": ["Land"],
        "flagTargetReachable": "11",
        "flagSelfOnTemplateCollider": "01",
        "flagSelfInZone": "11",
        "flagTargetInZone": "11"
      },
      "201": {
        "name": "ChargeAtk_Air",
        "combatSkillType": "MeleeAttack",
        "priority": 4,
        "castCondition": {
          "pose": [301],
          "pickRangeMax": 7.5,
          "castRangeMax": 7.5
        },
        "cd": 12.5,
        "cdUpperRange": 5.0,
        "initialCD": 1.0,
        "initialCDUpperRange": 4.0,
        "publicCDGroup": "",
        "HHAGODJIAPE": "",
        "stateIDs": [
          "ChargeAtk_Air_BS",
          "ChargeAtk_Air_Loop",
          "ChargeAtk_Air_AS1",
          "ChargeAtk_Air_AS2"
        ],
        "skillQueryingTime": 3.0,
        "flagTargetReachable": "11",
        "flagSelfOnTemplateCollider": "01",
        "flagSelfInZone": "10",
        "flagTargetInZone": "10"
      },
      "202": {
        "name": "ChargeAtk_Air",
        "combatSkillType": "MeleeAttack",
        "priority": 3,
        "castCondition": {
          "pose": [301],
          "maxTargetAngleXZ": 75.0,
          "pickRangeMin": 7.5,
          "pickRangeMax": 35.0,
          "castRangeMin": 7.5,
          "castRangeMax": 35.0
        },
        "cd": 5.0,
        "cdUpperRange": 5.0,
        "initialCD": 1.0,
        "initialCDUpperRange": 4.0,
        "publicCDGroup": "",
        "HHAGODJIAPE": "",
        "stateIDs": [
          "ChargeAtk_Air_BS",
          "ChargeAtk_Air_Loop",
          "ChargeAtk_Air_AS1",
          "ChargeAtk_Air_AS2"
        ],
        "skillQueryingTime": 3.0,
        "flagTargetReachable": "11",
        "flagSelfOnTemplateCollider": "01",
        "flagSelfInZone": "10",
        "flagTargetInZone": "10"
      },
      "203": {
        "name": "ChargeAtk_Air",
        "combatSkillType": "MeleeAttack",
        "priority": 2,
        "castCondition": {
          "pose": [301],
          "maxTargetAngleXZ": 75.0,
          "pickRangeMin": 35.0,
          "pickRangeMax": 60.0,
          "castRangeMin": 35.0,
          "castRangeMax": 60.0
        },
        "cd": 5.0,
        "cdUpperRange": 2.0,
        "initialCD": 1.0,
        "initialCDUpperRange": 4.0,
        "publicCDGroup": "",
        "HHAGODJIAPE": "",
        "stateIDs": [
          "ChargeAtk_Air_BS",
          "ChargeAtk_Air_Loop",
          "ChargeAtk_Air_AS1",
          "ChargeAtk_Air_AS2"
        ],
        "skillQueryingTime": 3.0,
        "flagTargetReachable": "11",
        "flagSelfOnTemplateCollider": "01",
        "flagSelfInZone": "10",
        "flagTargetInZone": "10"
      },
      "301": {
        "name": "ChestAtk_Air",
        "combatSkillType": "MeleeAttack",
        "priority": 2,
        "castCondition": {
          "pose": [301],
          "pickRangeMin": 5.0,
          "pickRangeMax": 15.0,
          "castRangeMin": 5.0,
          "castRangeMax": 15.0
        },
        "cd": 15.0,
        "cdUpperRange": 2.0,
        "initialCD": 1.0,
        "initialCDUpperRange": 4.0,
        "publicCDGroup": "",
        "HHAGODJIAPE": "",
        "stateIDs": ["ChestAtk_Air"],
        "skillQueryingTime": 3.0,
        "flagTargetReachable": "11",
        "flagSelfOnTemplateCollider": "01",
        "flagSelfInZone": "10",
        "flagTargetInZone": "10"
      },
      "302": {
        "name": "ChestAtk_Air",
        "combatSkillType": "MeleeAttack",
        "priority": 3,
        "castCondition": {
          "pose": [301],
          "pickRangeMin": 15.0,
          "pickRangeMax": 35.0,
          "castRangeMin": 15.0,
          "castRangeMax": 35.0
        },
        "cd": 15.0,
        "cdUpperRange": 2.0,
        "initialCD": 1.0,
        "initialCDUpperRange": 4.0,
        "publicCDGroup": "",
        "HHAGODJIAPE": "",
        "stateIDs": ["ChestAtk_Air"],
        "skillQueryingTime": 3.0,
        "flagTargetReachable": "11",
        "flagSelfOnTemplateCollider": "01",
        "flagSelfInZone": "10",
        "flagTargetInZone": "10"
      },
      "303": {
        "name": "ChestAtk_Air",
        "combatSkillType": "MeleeAttack",
        "priority": 4,
        "castCondition": {
          "pose": [301]
        },
        "cd": 3.5,
        "cdUpperRange": 2.0,
        "initialCD": 1.0,
        "initialCDUpperRange": 4.0,
        "publicCDGroup": "",
        "HHAGODJIAPE": "",
        "stateIDs": ["ChestAtk_Air"],
        "skillQueryingTime": 3.0,
        "flagTargetReachable": "11",
        "flagSelfOnTemplateCollider": "01",
        "flagSelfInZone": "10",
        "flagTargetInZone": "11"
      },
      "401": {
        "name": "WingAtk_Air",
        "combatSkillType": "MeleeAttack",
        "priority": 2,
        "castCondition": {
          "pose": [301],
          "pickRangeMax": 25.0,
          "skillAnchorRangeMax": 20.0,
          "castRangeMax": 25.0
        },
        "cd": 8.0,
        "cdUpperRange": 5.0,
        "initialCD": 1.0,
        "initialCDUpperRange": 4.0,
        "publicCDGroup": "",
        "HHAGODJIAPE": "",
        "stateIDs": ["WingAtk_Air"],
        "skillQueryingTime": 3.0,
        "flagTargetReachable": "11",
        "flagSelfOnTemplateCollider": "01",
        "flagSelfInZone": "10",
        "flagTargetInZone": "10"
      },
      "402": {
        "name": "WingAtk_Air",
        "combatSkillType": "MeleeAttack",
        "priority": 2,
        "castCondition": {
          "pose": [301],
          "pickRangeMax": 25.0,
          "castRangeMax": 25.0
        },
        "cd": 8.0,
        "cdUpperRange": 5.0,
        "initialCD": 4.0,
        "initialCDUpperRange": 2.0,
        "publicCDGroup": "",
        "HHAGODJIAPE": "",
        "stateIDs": ["WingAtk_Air"],
        "skillQueryingTime": 3.0,
        "flagTargetReachable": "11",
        "flagSelfOnTemplateCollider": "01",
        "flagSelfInZone": "10",
        "flagTargetInZone": "10"
      },
      "501": {
        "name": "ElementAtk_Air",
        "combatSkillType": "MeleeAttack",
        "priority": 1,
        "castCondition": {
          "pose": [311],
          "castRangeMax": 30.0
        },
        "cd": 999999.0,
        "initialCD": 1.0,
        "publicCDGroup": "",
        "ignoreGCD": true,
        "triggerCDOnFail": false,
        "HHAGODJIAPE": "",
        "stateIDs": ["ElementAtk_Air"],
        "skillQueryingTime": 3.0,
        "flagTargetReachable": "11",
        "flagSelfOnTemplateCollider": "01",
        "flagSelfInZone": "10",
        "flagTargetInZone": "11"
      },
      "601": {
        "name": "ChargeAtk_Ground",
        "combatSkillType": "MeleeAttack",
        "priority": 4,
        "castCondition": {
          "pose": [201],
          "pickRangeMin": 8.5,
          "pickRangeMax": 13.5,
          "castRangeMin": 8.5,
          "castRangeMax": 13.5
        },
        "cd": 10.5,
        "cdUpperRange": 5.0,
        "initialCD": 1.0,
        "initialCDUpperRange": 4.0,
        "publicCDGroup": "",
        "HHAGODJIAPE": "",
        "stateIDs": [
          "ChargeAtk_Ground_BS",
          "ChargeAtk_Ground_Loop",
          "ChargeAtk_Ground_AS1",
          "ChargeAtk_Ground_AS2"
        ],
        "skillQueryingTime": 3.0,
        "flagTargetReachable": "11",
        "flagSelfOnTemplateCollider": "01",
        "flagSelfInZone": "10",
        "flagTargetInZone": "10"
      },
      "602": {
        "name": "ChargeAtk_Ground",
        "combatSkillType": "MeleeAttack",
        "priority": 2,
        "castCondition": {
          "pose": [201],
          "maxTargetAngleXZ": 75.0,
          "pickRangeMin": 13.5,
          "pickRangeMax": 20.5,
          "castRangeMin": 13.5,
          "castRangeMax": 20.5
        },
        "cd": 7.5,
        "cdUpperRange": 2.0,
        "initialCD": 1.0,
        "initialCDUpperRange": 4.0,
        "publicCDGroup": "",
        "HHAGODJIAPE": "",
        "stateIDs": [
          "ChargeAtk_Ground_BS",
          "ChargeAtk_Ground_Loop",
          "ChargeAtk_Ground_AS1",
          "ChargeAtk_Ground_AS2"
        ],
        "skillQueryingTime": 3.0,
        "flagTargetReachable": "11",
        "flagSelfOnTemplateCollider": "01",
        "flagSelfInZone": "10",
        "flagTargetInZone": "11"
      },
      "603": {
        "name": "ChargeAtk_Ground",
        "combatSkillType": "MeleeAttack",
        "priority": 2,
        "castCondition": {
          "pose": [201],
          "maxTargetAngleXZ": 75.0,
          "pickRangeMin": 20.5,
          "pickRangeMax": 47.5,
          "castRangeMin": 20.5,
          "castRangeMax": 47.5
        },
        "cd": 7.5,
        "cdUpperRange": 5.0,
        "initialCD": 1.0,
        "initialCDUpperRange": 1.0,
        "publicCDGroup": "",
        "HHAGODJIAPE": "",
        "stateIDs": [
          "ChargeAtk_Ground_BS",
          "ChargeAtk_Ground_Loop",
          "ChargeAtk_Ground_AS1",
          "ChargeAtk_Ground_AS2"
        ],
        "skillQueryingTime": 3.0,
        "flagTargetReachable": "11",
        "flagSelfOnTemplateCollider": "01",
        "flagSelfInZone": "10",
        "flagTargetInZone": "11"
      },
      "701": {
        "name": "NormalAtk01_Ground",
        "combatSkillType": "MeleeAttack",
        "priority": 3,
        "castCondition": {
          "pose": [201],
          "pickRangeMax": 13.5,
          "castRangeMax": 10.5
        },
        "cd": 5.0,
        "cdUpperRange": 1.0,
        "initialCD": 1.0,
        "initialCDUpperRange": 4.0,
        "publicCDGroup": "",
        "HHAGODJIAPE": "",
        "stateIDs": ["NormalAtk01_Ground", "NormalAtk01To03_Ground"],
        "skillQueryingTime": 3.0,
        "flagTargetReachable": "11",
        "flagSelfOnTemplateCollider": "01",
        "flagSelfInZone": "10",
        "flagTargetInZone": "11"
      },
      "702": {
        "name": "NormalAtk01_Ground",
        "combatSkillType": "MeleeAttack",
        "priority": 3,
        "castCondition": {
          "pose": [201],
          "minTargetAngleXZ": 75.0,
          "pickRangeMax": 13.5,
          "castRangeMax": 10.5
        },
        "cd": 3.0,
        "cdUpperRange": 1.0,
        "initialCD": 1.0,
        "initialCDUpperRange": 1.0,
        "publicCDGroup": "",
        "HHAGODJIAPE": "",
        "stateIDs": ["NormalAtk01_Ground", "NormalAtk01To03_Ground"],
        "skillQueryingTime": 3.0,
        "flagTargetReachable": "11",
        "flagSelfOnTemplateCollider": "01",
        "flagSelfInZone": "10",
        "flagTargetInZone": "11"
      },
      "711": {
        "name": "NormalAtk02_Ground",
        "combatSkillType": "MeleeAttack",
        "priority": 3,
        "castCondition": {
          "pose": [201],
          "maxTargetAngleXZ": 75.0,
          "pickRangeMax": 8.5,
          "castRangeMax": 8.5
        },
        "cd": 5.0,
        "cdUpperRange": 1.0,
        "initialCD": 1.0,
        "initialCDUpperRange": 4.0,
        "publicCDGroup": "",
        "HHAGODJIAPE": "",
        "stateIDs": ["NormalAtk02_Ground", "NormalAtk02To01_Ground"],
        "skillQueryingTime": 3.0,
        "flagTargetReachable": "11",
        "flagSelfOnTemplateCollider": "01",
        "flagSelfInZone": "10",
        "flagTargetInZone": "11"
      },
      "721": {
        "name": "NormalAtk03_Ground",
        "combatSkillType": "MeleeAttack",
        "priority": 3,
        "castCondition": {
          "pose": [201],
          "maxTargetAngleXZ": 45.0,
          "pickRangeMin": 8.5,
          "pickRangeMax": 18.5,
          "castRangeMin": 8.5,
          "castRangeMax": 18.5
        },
        "cd": 6.0,
        "cdUpperRange": 5.0,
        "initialCD": 1.0,
        "initialCDUpperRange": 4.0,
        "publicCDGroup": "",
        "HHAGODJIAPE": "",
        "stateIDs": ["NormalAtk03_Ground"],
        "skillQueryingTime": 3.0,
        "flagTargetReachable": "11",
        "flagSelfOnTemplateCollider": "01",
        "flagSelfInZone": "10",
        "flagTargetInZone": "11"
      },
      "801": {
        "name": "ElementAtk_Ground",
        "combatSkillType": "MeleeAttack",
        "priority": 1,
        "castCondition": {
          "pose": [211],
          "castRangeMax": 30.0
        },
        "cd": 999999.0,
        "initialCD": 1.0,
        "publicCDGroup": "",
        "ignoreGCD": true,
        "triggerCDOnFail": false,
        "HHAGODJIAPE": "",
        "stateIDs": ["ElementAtk_Ground"],
        "skillQueryingTime": 3.0,
        "flagTargetReachable": "11",
        "flagSelfOnTemplateCollider": "01",
        "flagSelfInZone": "10",
        "flagTargetInZone": "11"
      },
      "901": {
        "name": "MortalStrike_Air",
        "priority": 2,
        "castCondition": {
          "pose": [301],
          "pickRangeMax": 17.5,
          "castRangeMax": 17.5
        },
        "cd": 15.0,
        "cdUpperRange": 5.0,
        "initialCD": 5.0,
        "initialCDUpperRange": 2.5,
        "publicCDGroup": "",
        "HHAGODJIAPE": "",
        "stateIDs": ["MortalStrike_Air"],
        "skillQueryingTime": 3.0,
        "flagTargetReachable": "11",
        "flagSelfOnTemplateCollider": "01",
        "flagSelfInZone": "11",
        "flagTargetInZone": "11"
      },
      "951": {
        "name": "MortalStrike_Ground",
        "priority": 2,
        "castCondition": {
          "pose": [201, 241],
          "pickRangeMax": 15.0,
          "castRangeMax": 15.0
        },
        "cd": 10.0,
        "cdUpperRange": 5.0,
        "initialCD": 7.5,
        "initialCDUpperRange": 2.5,
        "publicCDGroup": "",
        "HHAGODJIAPE": "",
        "stateIDs": ["MortalStrike_Ground"],
        "skillQueryingTime": 3.0,
        "flagTargetReachable": "11",
        "flagSelfOnTemplateCollider": "01",
        "flagSelfInZone": "11",
        "flagTargetInZone": "11"
      }
    },
    "skillGCD": 3.0,
    "birdCirclingTactic": [
      {
        "$type": "EPHBMLFODKF",
        "enable": true,
        "condition": {
          "pose": [201, 301]
        },
        "JMCOBEPDIGM": {
          "rangeMin": 0.0,
          "rangeMax": 7.0,
          "ALIBHHJHHMN": 1.5,
          "BFJBDDIIFOI": {
            "IBLIPJPNOGC": 0.5,
            "AEBLMKFNCDG": 0.0,
            "IGLIBIOEGBB": 0.0
          },
          "NAOBMNGDKHL": "1111",
          "JCNIJOAIGII": "1111",
          "IAGJBJHKMBF": true,
          "DKALDKGLFLP": 3.0,
          "MNPDDAKDHGK": ""
        },
        "PIOCBHLFLJP": {
          "301": {
            "rangeMin": 4.5,
            "rangeMax": 25.0,
            "BFJBDDIIFOI": {
              "LLICGJHIGME": 4.0,
              "IBLIPJPNOGC": 2.0,
              "AEBLMKFNCDG": 0.0,
              "IGLIBIOEGBB": 0.0
            },
            "NAOBMNGDKHL": "1111",
            "JCNIJOAIGII": "1111",
            "IAGJBJHKMBF": true,
            "DKALDKGLFLP": 6.5,
            "MNPDDAKDHGK": ""
          }
        }
      },
      {
        "$type": "KACCHOLJDNK",
        "enable": true,
        "condition": {
          "pose": [201, 301]
        },
        "JMCOBEPDIGM": {
          "ANLAAGAMIKF": 1,
          "KHDFDAAAPEI": 7.0,
          "HKJODDGJPHA": 15.0,
          "GGEBMFHFBPO": 10.0,
          "KFFGCIMPNMJ": 0.0,
          "MNPDDAKDHGK": ""
        },
        "PIOCBHLFLJP": {
          "301": {
            "ANLAAGAMIKF": 1,
            "KHDFDAAAPEI": 35.0,
            "GGEBMFHFBPO": 12.5,
            "KFFGCIMPNMJ": 0.0,
            "MNPDDAKDHGK": ""
          }
        }
      },
      {
        "$type": "NNJKLGNPMNN",
        "enable": true,
        "JMCOBEPDIGM": {
          "NBENNEKDIIA": 2.0,
          "POEFAFGEMIC": 4.0,
          "MNPDDAKDHGK": "",
          "GJDMDHIBCME": ""
        },
        "PIOCBHLFLJP": {
          "301": {
            "NBENNEKDIIA": 2.0,
            "POEFAFGEMIC": 7.0,
            "MNPDDAKDHGK": "",
            "GJDMDHIBCME": ""
          },
          "311": {
            "NBENNEKDIIA": 2.0,
            "POEFAFGEMIC": 7.0,
            "MNPDDAKDHGK": "",
            "GJDMDHIBCME": ""
          },
          "321": {
            "NBENNEKDIIA": 2.0,
            "POEFAFGEMIC": 7.0,
            "MNPDDAKDHGK": "",
            "GJDMDHIBCME": ""
          }
        }
      },
      {
        "$type": "FPELBIJFGCE"
      }
    ]
  },
  "inputKeys": [
    {
      "keyID": 101,
      "inputKeyCode": 257,
      "abilityName": ""
    },
    {
      "keyID": 111,
      "inputKeyCode": 258,
      "abilityName": ""
    },
    {
      "keyID": 121,
      "inputKeyCode": 259,
      "abilityName": ""
    },
    {
      "keyID": 201,
      "inputKeyCode": 260,
      "abilityName": ""
    },
    {
      "keyID": 301,
      "inputKeyCode": 261,
      "abilityName": ""
    },
    {
      "keyID": 401,
      "inputKeyCode": 262,
      "abilityName": ""
    },
    {
      "keyID": 501,
      "inputKeyCode": 263,
      "abilityName": ""
    },
    {
      "keyID": 601,
      "inputKeyCode": 264,
      "abilityName": ""
    },
    {
      "keyID": 701,
      "inputKeyCode": 265,
      "abilityName": ""
    },
    {
      "keyID": 711,
      "inputKeyCode": 266,
      "abilityName": ""
    },
    {
      "keyID": 721,
      "inputKeyCode": 267,
      "abilityName": ""
    },
    {
      "keyID": 801,
      "inputKeyCode": 268,
      "abilityName": ""
    },
    {
      "keyID": 901,
      "inputKeyCode": 269,
      "abilityName": ""
    },
    {
      "keyID": 951,
      "inputKeyCode": 270,
      "abilityName": ""
    }
  ],
  "move": {
    "$type": "IPNMJMHDMPF",
    "facingMove": "ForwardBackward",
    "positionModifyExtra": true,
    "PKHOMJHFAEE": "RootNode"
  },
  "audio": {
    "overrideEmitterName": "",
    "animAudio": {
      "onTransitionIn": [
        {
          "currentStateName": "Weak_Ground_Loop",
          "audioEvent": {
            "text": "Play_sfx_monster_Gargoyle_Fafnir_Ground_weak_Loop"
          }
        },
        {
          "currentStateName": "ChargeAtk_Air_Loop",
          "audioEvent": {
            "text": "Play_sfx_monster_Gargoyle_Fafnir_chargeAtk_air_Loop"
          }
        },
        {
          "currentStateName": "ChargeAtk_Ground_Loop",
          "audioEvent": {
            "text": "Play_vfx_monster_Gargoyle_Fafnir_chargeAtk_Loop"
          }
        }
      ],
      "onTransitionOut": [
        {
          "currentStateName": "Weak_Ground_Loop",
          "audioEvent": {
            "text": "Stop_sfx_monster_Gargoyle_Fafnir_Ground_weak_Loop"
          }
        },
        {
          "currentStateName": "ChargeAtk_Air_Loop",
          "audioEvent": {
            "text": "Stop_sfx_monster_Gargoyle_Fafnir_chargeAtk_air_Loop"
          }
        },
        {
          "currentStateName": "ChargeAtk_Ground_Loop",
          "audioEvent": {
            "text": "Stop_vfx_monster_Gargoyle_Fafnir_chargeAtk_Loop"
          }
        }
      ]
    }
  },
  "cameraAdjustMap": {
    "default": {
      "$type": "NJCCPGFPIHI",
      "priority": 1.0,
      "enterRadius": 25.0,
      "exitRadius": 30.0,
      "heightAdjust": 0.75,
      "fov": 47.5,
      "zoom": 8.0,
      "sphericalY": 10.0,
      "lockSphericalY": false,
      "sphericalYUp": 50.0,
      "sphericalYDown": 50.0,
      "autoTurnStartMin": 50.0,
      "autoTurnStartMax": 40.0,
      "autoTurnEndMin": 100.0,
      "autoTurnEndMax": 145.0,
      "enterShape": "CircleR25",
      "exitShape": "CircleR30",
      "enableHandleResetBackward": true
    },
    "Air": {
      "$type": "NJCCPGFPIHI",
      "priority": 1.0,
      "enterRadius": 25.0,
      "exitRadius": 30.0,
      "heightAdjust": 1.600000023841858,
      "fov": 57.5,
      "zoom": 8.0,
      "sphericalY": 20.0,
      "lockSphericalY": false,
      "sphericalYUp": 110.0,
      "sphericalYDown": 90.0,
      "autoTurnStartMin": 50.0,
      "autoTurnStartMax": 40.0,
      "autoTurnEndMin": 100.0,
      "autoTurnEndMax": 145.0,
      "enterShape": "CircleR25",
      "exitShape": "CircleR50",
      "enableHandleResetBackward": true
    }
  }
}
