{
  "common": {
    "effectAttachShape": {
      "$type": "FJNPJANPGGC",
      "mesh": "EffectMesh"
    },
    "mass": 100000000.0,
    "viewSize": 2.0,
    "scale": 2.0,
    "disableTickDistance": 10000.0,
    "shouldPauseAnimatorBeforeReady": true,
    "clearAnimatorOnSetLightDeactive": true,
    "clearAIOnSetLightDeactive": true
  },
  "model": {
    "bornEffect": "",
    "attachEffect": "",
    "canBakeMesh": false,
    "BKPFGNPLDNJ": ""
  },
  "combat": {
    "property": {
      "endureType": "Monster_Boss_Other",
      "weight": 150.0
    },
    "beHit": {
      "hitBloodEffect": "",
      "hitAutoRedirect": false,
      "ignoreMinHitVY": true
    },
    "combatLock": {
      "lockShape": "CircleLockEnemy",
      "lockType": "Avatar&Monster_Lv4"
    },
    "die": {
      "hasAnimatorDie": true,
      "dieEndTime": 5.0,
      "dieForceDisappearTime": 5.0,
      "dieDisappearEffect": "",
      "muteHitBox": true,
      "dieDenyLockOn": true,
      "dieIsGhostToEnemy": true,
      "dieIgnoreTriggerBullet": true,
      "muteBillboard": true,
      "mutePushCollider": true
    },
    "animEvents": {
      "TurnLeftAttack": {
        "attackPattern": {
          "$type": "ConfigAttackCircle",
          "triggerType": "TriggerNoRepeat",
          "born": {
            "$type": "ConfigBornBySelf",
            "offset": {
              "x": 0.0,
              "y": -1.0,
              "z": 0.0
            }
          },
          "height": 6.0,
          "fanAngle": 270.0,
          "radius": 5.5
        },
        "attackInfo": {
          "attackTag": "",
          "attenuationTag": "",
          "attenuationGroup": "default",
          "attackProperty": {
            "actorGrassSubHurtDelta": 0.5550000071525574,
            "actorWindSubHurtDelta": 0.0,
            "elementType": "Electric",
            "elementDurability": 50.0,
            "strikeType": "Blunt",
            "enBreak": 100.0,
            "attackType": "Melee",
            "GLKMCMDJBIK": 0.0
          },
          "hitPattern": {
            "onHitEffectName": "default",
            "hitImpulseY": "",
            "hitImpulseType": "LV4"
          }
        }
      },
      "TurnRightAttack": {
        "attackPattern": {
          "$type": "ConfigAttackCircle",
          "triggerType": "TriggerNoRepeat",
          "born": {
            "$type": "ConfigBornBySelf",
            "offset": {
              "x": 0.0,
              "y": -1.0,
              "z": 0.0
            }
          },
          "height": 5.0,
          "fanAngle": 270.0,
          "radius": 4.199999809265137
        },
        "attackInfo": {
          "attackTag": "",
          "attenuationTag": "",
          "attenuationGroup": "default",
          "attackProperty": {
            "actorGrassSubHurtDelta": 0.5550000071525574,
            "actorWindSubHurtDelta": 0.0,
            "elementType": "Electric",
            "elementDurability": 50.0,
            "strikeType": "Blunt",
            "enBreak": 100.0,
            "attackType": "Melee",
            "GLKMCMDJBIK": 0.0
          },
          "hitPattern": {
            "onHitEffectName": "default",
            "hitImpulseY": "",
            "hitImpulseType": "LV4"
          }
        }
      },
      "CounterAttack": {
        "attackPattern": {
          "$type": "ConfigAttackCircle",
          "triggerType": "TriggerNoRepeat",
          "born": {
            "$type": "ConfigBornBySelf"
          },
          "height": 5.0,
          "radius": 8.0
        },
        "attackInfo": {
          "attackTag": "Raijin_Detect_Damage",
          "attenuationTag": "",
          "attenuationGroup": "default",
          "attackProperty": {
            "actorGrassSubHurtDelta": 0.2770000100135803,
            "actorWindSubHurtDelta": 0.0,
            "elementType": "Electric",
            "elementDurability": 50.0,
            "strikeType": "Blunt",
            "enBreak": 100.0,
            "attackType": "Melee",
            "GLKMCMDJBIK": 0.0
          },
          "hitPattern": {
            "onHitEffectName": "default",
            "hitImpulseY": "",
            "hitImpulseType": "LV5",
            "canBeDefenceHalt": true
          }
        }
      },
      "RushAtk": {
        "attackPattern": {
          "$type": "ConfigAttackBox",
          "triggerType": "TriggerNoRepeat",
          "born": {
            "$type": "ConfigBornBySelf",
            "offset": {
              "x": 0.0,
              "y": -0.5,
              "z": 0.5
            }
          },
          "size": {
            "x": 3.0,
            "y": 5.0,
            "z": 6.0
          }
        },
        "attackInfo": {
          "attackTag": "",
          "attenuationTag": "",
          "attenuationGroup": "default",
          "attackProperty": {
            "actorGrassSubHurtDelta": 0.6110000014305115,
            "actorWindSubHurtDelta": 0.0,
            "elementType": "Water",
            "elementDurability": 50.0,
            "strikeType": "Blunt",
            "enBreak": 100.0,
            "attackType": "Melee",
            "GLKMCMDJBIK": 0.0
          },
          "hitPattern": {
            "onHitEffectName": "default",
            "hitImpulseY": "",
            "hitImpulseType": "LV4",
            "canBeDefenceHalt": true
          }
        }
      },
      "MustKillAOE": {
        "attackPattern": {
          "$type": "ConfigAttackCircle",
          "triggerType": "TriggerNoRepeat",
          "born": {
            "$type": "ConfigBornBySelf",
            "offset": {
              "x": 0.0,
              "y": 0.0,
              "z": 0.0
            }
          },
          "height": 3.5,
          "radius": 70.0
        },
        "attackInfo": {
          "attackTag": "",
          "attenuationTag": "",
          "attenuationGroup": "default",
          "attackProperty": {
            "actorGrassSubHurtDelta": 2.2219998836517334,
            "actorWindSubHurtDelta": 0.0,
            "elementType": "Water",
            "elementDurability": 100.0,
            "strikeType": "Blunt",
            "enBreak": 101.0,
            "attackType": "Melee",
            "GLKMCMDJBIK": 0.0
          },
          "hitPattern": {
            "onHitEffectName": "default",
            "hitImpulseY": "",
            "hitImpulseType": "LV4",
            "canBeDefenceHalt": true
          }
        }
      }
    },
    "summon": {
      "summonTags": [
        {
          "summonTag": 20050402,
          "name": "Oceanid_Crab_02",
          "maxNum": 12
        }
      ]
    }
  },
  "abilities": [
    {
      "abilityID": "",
      "abilityName": "Monster_Raijin_01_Steer",
      "abilityOverride": ""
    },
    {
      "abilityID": "",
      "abilityName": "Monster_Raijin_01_FlyBomb",
      "abilityOverride": ""
    },
    {
      "abilityID": "",
      "abilityName": "Monster_Raijin_FireThunderCrystal",
      "abilityOverride": ""
    },
    {
      "abilityID": "",
      "abilityName": "Monster_Raijin_FireSummonThunder",
      "abilityOverride": ""
    },
    {
      "abilityID": "",
      "abilityName": "Monster_Raijin_FireThunderSpear",
      "abilityOverride": ""
    },
    {
      "abilityID": "",
      "abilityName": "Monster_Raijin_FireThunderPunish_Warning",
      "abilityOverride": ""
    },
    {
      "abilityID": "",
      "abilityName": "Monster_Raijin_FireThunderPunish_Gadget",
      "abilityOverride": ""
    },
    {
      "abilityID": "",
      "abilityName": "Monster_Raijin_FireThunderNet_Born",
      "abilityOverride": ""
    },
    {
      "abilityID": "",
      "abilityName": "Monster_Raijin_01_Born",
      "abilityOverride": ""
    },
    {
      "abilityID": "",
      "abilityName": "Monster_Raijin_01_Improve",
      "abilityOverride": ""
    },
    {
      "abilityID": "",
      "abilityName": "Monster_Raijin_01_Disappear",
      "abilityOverride": ""
    },
    {
      "abilityID": "",
      "abilityName": "Monster_Raijin_01_MeleeAttack02",
      "abilityOverride": ""
    },
    {
      "abilityID": "",
      "abilityName": "Monster_Raijin_01_CounterAttack",
      "abilityOverride": ""
    },
    {
      "abilityID": "",
      "abilityName": "Monster_Raijin_Blink",
      "abilityOverride": ""
    },
    {
      "abilityID": "",
      "abilityName": "Monster_Raijin_Resistant",
      "abilityOverride": ""
    },
    {
      "abilityID": "",
      "abilityName": "Monster_Raijin_01_FireSoundWave",
      "abilityOverride": ""
    },
    {
      "abilityID": "",
      "abilityName": "Monster_Common_ElecMuteHurt",
      "abilityOverride": ""
    },
    {
      "abilityID": "",
      "abilityName": "Monster_TurnAttack_TurnDirection",
      "abilityOverride": ""
    }
  ],
  "stateLayers": {
    "defaultLayer": {
      "$type": "GBGJJIIEMBD",
      "layerIndexName": "",
      "CPAANEIJCGD": "",
      "stateIDs": {
        "Born": {
          "$type": "NEDIFAKEGCO",
          "animatorStates": {
            "Born": []
          },
          "canDoSkill": true,
          "canSyncMove": true,
          "cullingModelAlwaysAnimate": true,
          "resetAnimatorTriggerOnExit": ["DoSkill"]
        },
        "NormalIdle": {
          "$type": "NEDIFAKEGCO",
          "animatorStates": {
            "Standby": []
          },
          "canDoSkill": true,
          "canSyncMove": true,
          "resetAnimatorTriggerOnExit": ["DoSkill"],
          "canSteer": true
        },
        "NormalMove": {
          "$type": "NEDIFAKEGCO",
          "animatorStates": {
            "StandByToRun": [],
            "Run": [],
            "RunToStandBy": []
          },
          "canDoSkill": true,
          "canSyncMove": true,
          "resetAnimatorTriggerOnExit": ["DoSkill"],
          "canSteer": true
        },
        "Disappear": {
          "$type": "NEDIFAKEGCO",
          "animatorStates": {
            "Die": ["Monster_Raijin_Die", "Audio_Fairfolk_Raijin_Die"]
          }
        },
        "OutOfBattle": {
          "$type": "NEDIFAKEGCO",
          "animatorStates": {
            "OutOfBattle": [],
            "OutOfBattle_AS": []
          }
        },
        "Die_AS": {
          "$type": "NEDIFAKEGCO",
          "animatorStates": {
            "Die_AS": []
          }
        },
        "Alert": {
          "$type": "NEDIFAKEGCO",
          "animatorStates": {
            "Alert": [],
            "Alert_AS": ["Audio_Fairfolk_Raijin_Alert_AS"]
          },
          "canDoSkill": true,
          "cullingModelAlwaysAnimate": true,
          "resetAnimatorTriggerOnExit": ["BeHit", "DoSkill"]
        },
        "ReturnToBorn": {
          "$type": "NEDIFAKEGCO",
          "animatorStates": {
            "ReturnToBorn": []
          },
          "resetAnimatorTriggerOnEnter": ["ReturnToBorn"]
        },
        "BlinkToBorn": {
          "$type": "NEDIFAKEGCO",
          "animatorStates": {
            "BlinkToBorn": ["Audio_Fairfolk_Raijin_BlinkForward"]
          },
          "resetAnimatorTriggerOnEnter": ["DoSkill"],
          "resetAnimatorTriggerOnExit": ["BeHit", "DoSkill"]
        },
        "BlinkForward": {
          "$type": "NEDIFAKEGCO",
          "animatorStates": {
            "BlinkForward": ["Audio_Fairfolk_Raijin_BlinkForward"]
          },
          "resetAnimatorTriggerOnEnter": ["DoSkill"],
          "resetAnimatorTriggerOnExit": ["BeHit", "DoSkill"]
        },
        "BlinkBack": {
          "$type": "NEDIFAKEGCO",
          "animatorStates": {
            "BlinkBack": ["Audio_Fairfolk_Raijin_BlinkBack"]
          },
          "resetAnimatorTriggerOnEnter": ["DoSkill"],
          "resetAnimatorTriggerOnExit": ["BeHit", "DoSkill"]
        },
        "BlinkLeft": {
          "$type": "NEDIFAKEGCO",
          "animatorStates": {
            "BlinkLeft": ["Audio_Fairfolk_Raijin_Blink"]
          },
          "resetAnimatorTriggerOnEnter": ["DoSkill"],
          "resetAnimatorTriggerOnExit": ["BeHit", "DoSkill"]
        },
        "BlinkRight": {
          "$type": "NEDIFAKEGCO",
          "animatorStates": {
            "BlinkRight": ["Audio_Fairfolk_Raijin_Blink"]
          },
          "resetAnimatorTriggerOnEnter": ["DoSkill"],
          "resetAnimatorTriggerOnExit": ["BeHit", "DoSkill"]
        },
        "TurnLeftPunch": {
          "$type": "NEDIFAKEGCO",
          "animatorStates": {
            "TurnLeftPunch": [
              "Monster_Raijin_TurnLeftAttack",
              "Audio_Fairfolk_Raijin_TurnPunch"
            ]
          },
          "resetAnimatorTriggerOnEnter": ["DoSkill"],
          "resetAnimatorTriggerOnExit": ["BeHit", "DoSkill"],
          "canSteer": true,
          "followAnimRotation": true
        },
        "TurnRightPunch": {
          "$type": "NEDIFAKEGCO",
          "animatorStates": {
            "TurnRightPunch": [
              "Monster_Raijin_TurnRightAttack",
              "Audio_Fairfolk_Raijin_TurnPunch"
            ]
          },
          "resetAnimatorTriggerOnEnter": ["DoSkill"],
          "resetAnimatorTriggerOnExit": ["BeHit", "DoSkill"],
          "canSteer": true,
          "followAnimRotation": true
        },
        "CounterAttack": {
          "$type": "NEDIFAKEGCO",
          "animatorStates": {
            "CounterAttack": [
              "Monster_Raijin_CounterAttack",
              "Audio_Fairfolk_Raijin_CounterAtk"
            ]
          },
          "resetAnimatorTriggerOnEnter": ["DoSkill"],
          "resetAnimatorTriggerOnExit": ["BeHit", "DoSkill"],
          "canSteer": true
        },
        "CounterAttack_HalfHp": {
          "$type": "NEDIFAKEGCO",
          "animatorStates": {
            "CounterAttack_HalfHp": [
              "Monster_Raijin_CounterAttack_HalfHp",
              "Audio_Fairfolk_Raijin_CounterAtk"
            ]
          },
          "resetAnimatorTriggerOnEnter": ["DoSkill"],
          "resetAnimatorTriggerOnExit": ["BeHit", "DoSkill"],
          "canSteer": true
        },
        "MeleeAttack2_BS": {
          "$type": "NEDIFAKEGCO",
          "animatorStates": {
            "MeleeAttack2_BS": [
              "Monster_Raijin_MeleeAttack_02_BS",
              "Audio_Fairfolk_Raijin_MeleeAtk_BS"
            ]
          },
          "resetAnimatorTriggerOnEnter": ["DoSkill"],
          "resetAnimatorTriggerOnExit": ["BeHit", "DoSkill"],
          "canSteer": true
        },
        "MeleeAttack2_Loop": {
          "$type": "NEDIFAKEGCO",
          "animatorStates": {
            "MeleeAttack2_Loop": []
          },
          "resetAnimatorTriggerOnEnter": ["DoSkill"],
          "resetAnimatorTriggerOnExit": ["BeHit", "DoSkill"],
          "enableCCD": true,
          "canSteer": true
        },
        "MeleeAttack2_OnceLoop": {
          "$type": "NEDIFAKEGCO",
          "animatorStates": {
            "MeleeAttack2_OnceLoop": []
          },
          "resetAnimatorTriggerOnEnter": ["DoSkill"],
          "resetAnimatorTriggerOnExit": ["BeHit", "DoSkill"],
          "canSteer": true
        },
        "MeleeAttack2_AS": {
          "$type": "NEDIFAKEGCO",
          "animatorStates": {
            "MeleeAttack2_AS": [
              "Monster_Raijin_MeleeAttack_02_AS",
              "Audio_Fairfolk_Raijin_MeleeAtk_AS"
            ]
          },
          "resetAnimatorTriggerOnEnter": ["DoSkill"],
          "resetAnimatorTriggerOnExit": ["BeHit", "DoSkill"],
          "canSteer": true
        },
        "SummonThunder_BS": {
          "$type": "NEDIFAKEGCO",
          "animatorStates": {
            "SummonThunder_BS": [
              "Monster_Raijin_FireSummonThunder_BS",
              "Audio_Fairfolk_Raijin_SummonThunder_BS"
            ]
          },
          "resetAnimatorTriggerOnEnter": ["DoSkill"],
          "resetAnimatorTriggerOnExit": ["BeHit", "DoSkill"],
          "canSteer": true
        },
        "SummonThunder_Loop": {
          "$type": "NEDIFAKEGCO",
          "animatorStates": {
            "SummonThunder_Loop": []
          },
          "resetAnimatorTriggerOnEnter": ["DoSkill"],
          "resetAnimatorTriggerOnExit": ["BeHit", "DoSkill"],
          "canSteer": true
        },
        "SummonThunder_AS": {
          "$type": "NEDIFAKEGCO",
          "animatorStates": {
            "SummonThunder_AS": ["Audio_Fairfolk_Raijin_SummonThunder_AS"]
          },
          "resetAnimatorTriggerOnEnter": ["DoSkill"],
          "resetAnimatorTriggerOnExit": ["BeHit", "DoSkill"],
          "canSteer": true
        },
        "SummonThunder_NoTarget_BS": {
          "$type": "NEDIFAKEGCO",
          "animatorStates": {
            "SummonThunder_NoTarget_BS": [
              "Monster_Raijin_FireSummonThunder_BS",
              "Audio_Fairfolk_Raijin_SummonThunder_BS"
            ]
          },
          "resetAnimatorTriggerOnEnter": ["DoSkill"],
          "resetAnimatorTriggerOnExit": ["BeHit", "DoSkill"],
          "canSteer": true
        },
        "SummonThunder_NoTarget_Loop": {
          "$type": "NEDIFAKEGCO",
          "animatorStates": {
            "SummonThunder_NoTarget_Loop": []
          },
          "resetAnimatorTriggerOnEnter": ["DoSkill"],
          "resetAnimatorTriggerOnExit": ["BeHit", "DoSkill"],
          "canSteer": true
        },
        "SummonThunder_NoTarget_AS": {
          "$type": "NEDIFAKEGCO",
          "animatorStates": {
            "SummonThunder_NoTarget_AS": [
              "Audio_Fairfolk_Raijin_SummonThunder_AS"
            ]
          },
          "resetAnimatorTriggerOnEnter": ["DoSkill"],
          "resetAnimatorTriggerOnExit": ["BeHit", "DoSkill"],
          "canSteer": true
        },
        "ThunderCrystal": {
          "$type": "NEDIFAKEGCO",
          "animatorStates": {
            "ThunderCrystal": [
              "Monster_Raijin_FireThunderCrystal",
              "Audio_Fairfolk_Raijin_ThunderCrystal"
            ]
          },
          "resetAnimatorTriggerOnEnter": ["DoSkill"],
          "resetAnimatorTriggerOnExit": ["BeHit", "DoSkill"],
          "canSteer": true
        },
        "SoundWave_BS": {
          "$type": "NEDIFAKEGCO",
          "animatorStates": {
            "SoundWave_BS": ["Audio_Fairfolk_Raijin_SoundWave_BS"]
          },
          "resetAnimatorTriggerOnEnter": ["DoSkill"],
          "resetAnimatorTriggerOnExit": ["BeHit", "DoSkill"],
          "canSteer": true
        },
        "SoundWave_Loop": {
          "$type": "NEDIFAKEGCO",
          "animatorStates": {
            "SoundWave_Loop": []
          },
          "resetAnimatorTriggerOnEnter": ["DoSkill"],
          "resetAnimatorTriggerOnExit": ["BeHit", "DoSkill"],
          "canSteer": true
        },
        "SoundWave_AS": {
          "$type": "NEDIFAKEGCO",
          "animatorStates": {
            "SoundWave_AS": [
              "Monster_Raijin_SoundWaveExplode",
              "Audio_Fairfolk_Raijin_SoundWave_AS"
            ]
          },
          "resetAnimatorTriggerOnEnter": ["DoSkill"],
          "resetAnimatorTriggerOnExit": ["BeHit", "DoSkill"],
          "canSteer": true
        },
        "ThunderSpear": {
          "$type": "NEDIFAKEGCO",
          "animatorStates": {
            "ThunderSpear": [
              "Monster_Raijin_FireThunderSpear",
              "Audio_Fairfolk_Raijin_ThunderSpear"
            ]
          },
          "resetAnimatorTriggerOnEnter": ["DoSkill"],
          "resetAnimatorTriggerOnExit": ["BeHit", "DoSkill"],
          "canSteer": true
        },
        "ThunderPunish": {
          "$type": "NEDIFAKEGCO",
          "animatorStates": {
            "ThunderPunish": [
              "Monster_Raijin_FireThunderPunish_Warning",
              "Audio_Fairfolk_Raijin_ThunderPunish"
            ]
          },
          "resetAnimatorTriggerOnEnter": ["DoSkill"],
          "resetAnimatorTriggerOnExit": ["BeHit", "DoSkill"],
          "canSteer": true
        },
        "ThunderNet": {
          "$type": "NEDIFAKEGCO",
          "animatorStates": {
            "ThunderNet": [
              "Monster_Raijin_FireThunderNet_Born",
              "Audio_Fairfolk_Raijin_ThunderNet"
            ]
          },
          "resetAnimatorTriggerOnEnter": ["DoSkill"],
          "resetAnimatorTriggerOnExit": ["BeHit", "DoSkill"],
          "canSteer": true
        },
        "FlyBomb_Prepare": {
          "$type": "NEDIFAKEGCO",
          "animatorStates": {
            "FlyBomb_Prepare": ["Audio_Fairfolk_Raijin_FlyBomb_Prepare"]
          },
          "resetAnimatorTriggerOnEnter": ["DoSkill"],
          "resetAnimatorTriggerOnExit": ["BeHit", "DoSkill"],
          "canSteer": true
        },
        "FlyBomb_BS": {
          "$type": "NEDIFAKEGCO",
          "animatorStates": {
            "FlyBomb_BS": ["Audio_Fairfolk_Raijin_FlyBomb_BS"]
          },
          "resetAnimatorTriggerOnEnter": ["DoSkill"],
          "resetAnimatorTriggerOnExit": ["BeHit", "DoSkill"],
          "canSteer": true
        },
        "FlyBomb_Loop": {
          "$type": "NEDIFAKEGCO",
          "animatorStates": {
            "FlyBomb_Loop": []
          },
          "resetAnimatorTriggerOnEnter": ["DoSkill"],
          "resetAnimatorTriggerOnExit": ["BeHit", "DoSkill"],
          "enableCCD": true,
          "canSteer": true
        },
        "FlyBomb_AS": {
          "$type": "NEDIFAKEGCO",
          "animatorStates": {
            "FlyBomb_AS": ["Audio_Fairfolk_Raijin_FlyBomb_AS"]
          },
          "resetAnimatorTriggerOnEnter": ["DoSkill"],
          "resetAnimatorTriggerOnExit": ["BeHit", "DoSkill"],
          "canSteer": true
        },
        "FlyBomb_Over": {
          "$type": "NEDIFAKEGCO",
          "animatorStates": {
            "FlyBomb_Over": ["Audio_Fairfolk_Raijin_FlyBomb_Over"]
          },
          "resetAnimatorTriggerOnEnter": ["DoSkill"],
          "resetAnimatorTriggerOnExit": ["BeHit", "DoSkill"],
          "canSteer": true
        },
        "StandByOnGround_Random": {
          "$type": "NEDIFAKEGCO",
          "animatorStates": {
            "StandByOnGround_Random": [
              "Audio_Fairfolk_Raijin_StandByOnGround_Random"
            ]
          },
          "cullingModelAlwaysAnimate": true,
          "resetAnimatorTriggerOnEnter": ["DoSkill"],
          "resetAnimatorTriggerOnExit": ["BeHit", "DoSkill"],
          "autoSteer": true
        },
        "Improve": {
          "$type": "NEDIFAKEGCO",
          "animatorStates": {
            "Improve": [
              "Monster_Raijin_Improve",
              "Audio_Fairfolk_Raijin_improve"
            ]
          },
          "resetAnimatorTriggerOnEnter": ["DoSkill"],
          "resetAnimatorTriggerOnExit": ["BeHit", "DoSkill"],
          "canSteer": true
        }
      }
    }
  },
  "partControl": {
    "parts": [
      {
        "$type": "INCPGKCDCIO",
        "angularSpeed": 250.0,
        "partRootName": "LaserPoint",
        "doOnUnEabled": "RotateToForward",
        "forwardByTransName": "",
        "limitHorizontal": 360.0,
        "limitVertical": 360.0
      }
    ]
  },
  "billboard": {
    "$type": "DNGNMAJBCNP",
    "attachPoint": "BillboardAttach",
    "offsetType": "Character",
    "radiusOffset": 0.25,
    "showHPBar": true,
    "forceShowDistance": 50.0
  },
  "initialPoses": {
    "Default": {}
  },
  "aibeta": {
    "enable": true,
    "moveSetting": {
      "moveCategory": "Amphibious",
      "useNavMesh": false,
      "navMeshAgentName": "Undead01"
    },
    "sensing": {
      "settings": {
        "DefaultSetting": {
          "viewRange": 10.0,
          "feelRange": 10.0
        }
      }
    },
    "threat": {
      "GHIJMOKOLMB": "",
      "clearThreatTargetDistance": 70.0,
      "clearThreatByTargetOutOfZone": true,
      "threatDecreaseSpeed": 100.0,
      "resistTauntLevel": "Monster_TauntLevel_MAX",
      "auxScoreChangeTargetCD": 2.0,
      "abilityGlobalValueScoreSystem": {
        "weight": 70,
        "max": 1.0,
        "compareOperation": "Greater",
        "enable": true,
        "caredGlobalValueName": "_RAIJIN_ATTACK_TARGET"
      },
      "targetDistanceScoreSystem": {
        "weight": 30,
        "value": 15.0,
        "max": 30.0,
        "enable": true
      }
    },
    "defendArea": {
      "defendRange": 45.0
    },
    "profiling": {
      "lodStrategy": "Best",
      "staticPoses": [0, 1]
    },
    "network": {
      "syncSkill": true
    },
    "skillGroupCDConfigs": [
      {
        "skillGroupCDID": 0,
        "skillGroupCDTime": 3.0
      },
      {
        "skillGroupCDID": 1,
        "skillGroupCDTime": 15.0
      },
      {
        "skillGroupCDID": 2,
        "skillGroupCDTime": 35.0
      },
      {
        "skillGroupCDID": 3,
        "skillGroupCDTime": 90.0
      },
      {
        "skillGroupCDID": 4,
        "skillGroupCDTime": 15.0
      },
      {
        "skillGroupCDID": 5,
        "skillGroupCDTime": 12.5
      }
    ],
    "skillSetting": {
      "skillEliteSet": {
        "1": [201, 301, 302, 401, 501, 502, 601, 701, 801, 901, 1001, 1002],
        "2": [
          303, 304, 305, 402, 503, 504, 602, 702, 802, 902, 903, 1002, 1003,
          1004
        ]
      }
    },
    "skills": {
      "1": {
        "name": "OnAlert",
        "skillType": "OnAlert",
        "publicCDGroup": "",
        "ignoreGCD": true,
        "triggerGCD": false,
        "HHAGODJIAPE": "",
        "stateIDs": ["Alert"],
        "skillQueryingTime": 5.0,
        "flagTargetReachable": "10",
        "flagSelfOnTemplateCollider": "01",
        "flagSelfInZone": "10",
        "flagTargetInZone": "11"
      },
      "3": {
        "name": "BlinkForwardBack",
        "priority": 3,
        "castCondition": {
          "pose": [201],
          "pickRangeMax": 60.0,
          "skillAnchorRangeMin": 20.0
        },
        "cdUpperRange": 5.0,
        "initialCD": 10.0,
        "publicCDGroup": "",
        "ignoreGCD": true,
        "triggerGCD": false,
        "skillGroupCDID": 1,
        "HHAGODJIAPE": "",
        "stateIDs": ["BlinkForward", "BlinkBack"],
        "flagTargetReachable": "10",
        "flagSelfOnTemplateCollider": "01",
        "flagSelfInZone": "10",
        "flagTargetInZone": "11"
      },
      "4": {
        "name": "BlinkForward",
        "castCondition": {
          "pose": [201],
          "pickRangeMin": 20.0,
          "pickRangeMax": 60.0
        },
        "cd": 5.0,
        "cdUpperRange": 5.0,
        "publicCDGroup": "",
        "ignoreGCD": true,
        "triggerGCD": false,
        "skillGroupCDID": 1,
        "HHAGODJIAPE": "",
        "stateIDs": ["BlinkForward"],
        "flagTargetReachable": "10",
        "flagSelfOnTemplateCollider": "01",
        "flagSelfInZone": "10",
        "flagTargetInZone": "11"
      },
      "5": {
        "name": "BlinkLeftRight",
        "priority": 3,
        "castCondition": {
          "pose": [201],
          "pickRangeMax": 5.0,
          "skillAnchorRangeMax": 15.0
        },
        "cdUpperRange": 5.0,
        "initialCD": 1.0,
        "publicCDGroup": "",
        "ignoreGCD": true,
        "triggerGCD": false,
        "skillGroupCDID": 1,
        "HHAGODJIAPE": "",
        "stateIDs": ["BlinkLeft", "BlinkRight"],
        "flagTargetReachable": "10",
        "flagSelfOnTemplateCollider": "01",
        "flagSelfInZone": "10",
        "flagTargetInZone": "11"
      },
      "6": {
        "name": "BlinkRight",
        "priority": 4,
        "castCondition": {
          "pose": [301],
          "pickRangeMax": 15.0
        },
        "cdUpperRange": 5.0,
        "initialCD": 10.0,
        "publicCDGroup": "",
        "ignoreGCD": true,
        "triggerGCD": false,
        "skillGroupCDID": 1,
        "HHAGODJIAPE": "",
        "stateIDs": ["BlinkRight"],
        "flagTargetReachable": "10",
        "flagSelfOnTemplateCollider": "01",
        "flagSelfInZone": "10",
        "flagTargetInZone": "11"
      },
      "7": {
        "name": "BlinkToBorn",
        "priority": 2,
        "castCondition": {
          "pose": [101, 201],
          "pickRangeMax": 60.0,
          "skillAnchorRangeMin": 15.0
        },
        "cd": 5.0,
        "cdUpperRange": 5.0,
        "publicCDGroup": "",
        "ignoreGCD": true,
        "triggerGCD": false,
        "skillGroupCDID": 1,
        "HHAGODJIAPE": "",
        "stateIDs": ["BlinkToBorn"],
        "flagTargetReachable": "11",
        "flagSelfOnTemplateCollider": "01",
        "flagSelfInZone": "11",
        "flagTargetInZone": "11"
      },
      "101": {
        "name": "TurnAttack",
        "priority": 3,
        "castCondition": {
          "pose": [201],
          "minTargetAngleXZ": 90.0,
          "maxTargetAngleY": 30.0,
          "pickRangeMax": 5.0
        },
        "cd": 5.0,
        "publicCDGroup": "",
        "HHAGODJIAPE": "",
        "stateIDs": ["TurnLeftPunch", "TurnRightPunch"],
        "flagTargetReachable": "10",
        "flagSelfOnTemplateCollider": "01",
        "flagSelfInZone": "10",
        "flagTargetInZone": "11"
      },
      "201": {
        "name": "ConterAttack",
        "priority": 2,
        "castCondition": {
          "pose": [301],
          "pickRangeMax": 5.0
        },
        "cd": 5.0,
        "publicCDGroup": "",
        "HHAGODJIAPE": "",
        "stateIDs": ["CounterAttack"],
        "flagTargetReachable": "10",
        "flagSelfOnTemplateCollider": "01",
        "flagSelfInZone": "10",
        "flagTargetInZone": "11"
      },
      "301": {
        "name": "MeleeAttack2",
        "priority": 4,
        "castCondition": {
          "pose": [101, 201],
          "pickRangeMax": 5.0
        },
        "cd": 5.0,
        "cdUpperRange": 10.0,
        "publicCDGroup": "",
        "ignoreGCD": true,
        "triggerGCD": false,
        "HHAGODJIAPE": "",
        "stateIDs": ["MeleeAttack2_BS", "MeleeAttack2_Loop", "MeleeAttack2_AS"],
        "flagTargetReachable": "10",
        "flagSelfOnTemplateCollider": "01",
        "flagSelfInZone": "10",
        "flagTargetInZone": "11"
      },
      "302": {
        "name": "MeleeAttack2",
        "priority": 3,
        "castCondition": {
          "pose": [201],
          "pickRangeMin": 5.0,
          "pickRangeMax": 15.0
        },
        "cd": 10.0,
        "cdUpperRange": 10.0,
        "publicCDGroup": "",
        "ignoreGCD": true,
        "triggerGCD": false,
        "HHAGODJIAPE": "",
        "stateIDs": ["MeleeAttack2_BS", "MeleeAttack2_Loop", "MeleeAttack2_AS"],
        "flagTargetReachable": "10",
        "flagSelfOnTemplateCollider": "01",
        "flagSelfInZone": "10",
        "flagTargetInZone": "11"
      },
      "303": {
        "name": "MeleeAttack2",
        "priority": 4,
        "castCondition": {
          "pose": [101],
          "pickRangeMax": 7.5
        },
        "cd": 5.0,
        "cdUpperRange": 10.0,
        "publicCDGroup": "",
        "HHAGODJIAPE": "",
        "stateIDs": ["MeleeAttack2_BS", "MeleeAttack2_Loop", "MeleeAttack2_AS"],
        "flagTargetReachable": "10",
        "flagSelfOnTemplateCollider": "01",
        "flagSelfInZone": "10",
        "flagTargetInZone": "11"
      },
      "304": {
        "name": "MeleeAttack2",
        "priority": 4,
        "castCondition": {
          "pose": [201],
          "pickRangeMax": 7.5
        },
        "cd": 5.0,
        "cdUpperRange": 5.0,
        "publicCDGroup": "",
        "ignoreGCD": true,
        "HHAGODJIAPE": "",
        "stateIDs": ["MeleeAttack2_BS", "MeleeAttack2_Loop", "MeleeAttack2_AS"],
        "flagTargetReachable": "10",
        "flagSelfOnTemplateCollider": "01",
        "flagSelfInZone": "10",
        "flagTargetInZone": "11"
      },
      "305": {
        "name": "MeleeAttack2",
        "priority": 3,
        "castCondition": {
          "pose": [201],
          "pickRangeMin": 7.5,
          "pickRangeMax": 30.0
        },
        "cd": 15.0,
        "cdUpperRange": 10.0,
        "publicCDGroup": "",
        "HHAGODJIAPE": "",
        "stateIDs": ["MeleeAttack2_BS", "MeleeAttack2_Loop", "MeleeAttack2_AS"],
        "flagTargetReachable": "10",
        "flagSelfOnTemplateCollider": "01",
        "flagSelfInZone": "10",
        "flagTargetInZone": "11"
      },
      "401": {
        "name": "FlyBomb",
        "priority": 3,
        "castCondition": {
          "pose": [201],
          "pickRangeMin": 5.0,
          "pickRangeMax": 15.0,
          "skillAnchorRangeMax": 10.0
        },
        "cd": 25.0,
        "cdUpperRange": 15.0,
        "publicCDGroup": "",
        "HHAGODJIAPE": "",
        "stateIDs": [
          "FlyBomb_Prepare",
          "FlyBomb_BS",
          "FlyBomb_Loop",
          "FlyBomb_AS",
          "FlyBomb_Over"
        ],
        "flagTargetReachable": "10",
        "flagSelfOnTemplateCollider": "01",
        "flagSelfInZone": "10",
        "flagTargetInZone": "11"
      },
      "402": {
        "name": "FlyBomb",
        "priority": 2,
        "castCondition": {
          "pose": [201],
          "pickRangeMin": 7.5,
          "skillAnchorRangeMax": 17.5
        },
        "cd": 25.0,
        "cdUpperRange": 5.0,
        "initialCD": 10.0,
        "publicCDGroup": "",
        "HHAGODJIAPE": "",
        "stateIDs": [
          "FlyBomb_Prepare",
          "FlyBomb_BS",
          "FlyBomb_Loop",
          "FlyBomb_AS",
          "FlyBomb_Over"
        ],
        "flagTargetReachable": "10",
        "flagSelfOnTemplateCollider": "01",
        "flagSelfInZone": "10",
        "flagTargetInZone": "11"
      },
      "501": {
        "name": "SummonThunder",
        "castCondition": {
          "pose": [201],
          "pickRangeMin": 5.0,
          "pickRangeMax": 60.0
        },
        "cd": 15.0,
        "cdUpperRange": 10.0,
        "publicCDGroup": "",
        "HHAGODJIAPE": "",
        "stateIDs": [
          "SummonThunder_BS",
          "SummonThunder_Loop",
          "SummonThunder_AS"
        ],
        "flagTargetReachable": "11",
        "flagSelfOnTemplateCollider": "01",
        "flagSelfInZone": "10",
        "flagTargetInZone": "11"
      },
      "502": {
        "name": "SummonThunder",
        "castCondition": {
          "pose": [101],
          "pickRangeMin": 7.0,
          "pickRangeMax": 60.0
        },
        "cd": 10.0,
        "initialCD": 5.0,
        "publicCDGroup": "",
        "HHAGODJIAPE": "",
        "stateIDs": [
          "SummonThunder_NoTarget_BS",
          "SummonThunder_NoTarget_Loop",
          "SummonThunder_NoTarget_AS"
        ],
        "flagTargetReachable": "11",
        "flagSelfOnTemplateCollider": "01",
        "flagSelfInZone": "10",
        "flagTargetInZone": "11"
      },
      "503": {
        "name": "SummonThunder",
        "priority": 3,
        "castCondition": {
          "pose": [101],
          "pickRangeMax": 60.0
        },
        "cd": 20.0,
        "cdUpperRange": 10.0,
        "initialCD": 3.5,
        "publicCDGroup": "",
        "HHAGODJIAPE": "",
        "stateIDs": [
          "SummonThunder_NoTarget_BS",
          "SummonThunder_NoTarget_Loop",
          "SummonThunder_NoTarget_AS"
        ],
        "flagTargetReachable": "11",
        "flagSelfOnTemplateCollider": "01",
        "flagSelfInZone": "10",
        "flagTargetInZone": "11"
      },
      "504": {
        "name": "SummonThunder",
        "priority": 2,
        "castCondition": {
          "pose": [201]
        },
        "cd": 35.0,
        "cdUpperRange": 7.5,
        "publicCDGroup": "",
        "HHAGODJIAPE": "",
        "stateIDs": [
          "SummonThunder_BS",
          "SummonThunder_Loop",
          "SummonThunder_AS"
        ],
        "flagTargetReachable": "11",
        "flagSelfOnTemplateCollider": "01",
        "flagSelfInZone": "10",
        "flagTargetInZone": "11"
      },
      "601": {
        "name": "ThunderCrystal",
        "priority": 3,
        "castCondition": {
          "pose": [101],
          "pickRangeMax": 100.0
        },
        "cd": 15.0,
        "publicCDGroup": "",
        "triggerCDOnStart": true,
        "HHAGODJIAPE": "",
        "stateIDs": ["ThunderCrystal"],
        "flagTargetReachable": "10",
        "flagSelfOnTemplateCollider": "01",
        "flagSelfInZone": "10",
        "flagTargetInZone": "11"
      },
      "602": {
        "name": "ThunderCrystal",
        "priority": 2,
        "castCondition": {
          "pose": [101],
          "pickRangeMax": 100.0
        },
        "cd": 50.0,
        "cdUpperRange": 10.0,
        "publicCDGroup": "",
        "HHAGODJIAPE": "",
        "stateIDs": ["ThunderCrystal"],
        "flagTargetReachable": "10",
        "flagSelfOnTemplateCollider": "01",
        "flagSelfInZone": "10",
        "flagTargetInZone": "11"
      },
      "701": {
        "name": "SoundWave",
        "priority": 4,
        "castCondition": {
          "pose": [101],
          "pickRangeMax": 100.0
        },
        "cd": 5.0,
        "publicCDGroup": "",
        "ignoreGCD": true,
        "triggerGCD": false,
        "HHAGODJIAPE": "",
        "stateIDs": ["SoundWave_BS", "SoundWave_Loop", "SummonThunder_AS"],
        "flagTargetReachable": "11",
        "flagSelfOnTemplateCollider": "01",
        "flagSelfInZone": "10",
        "flagTargetInZone": "11"
      },
      "702": {
        "name": "SoundWave",
        "priority": 4,
        "castCondition": {
          "pose": [101],
          "pickRangeMax": 7.5
        },
        "cd": 10.0,
        "cdUpperRange": 5.0,
        "publicCDGroup": "",
        "ignoreGCD": true,
        "HHAGODJIAPE": "",
        "stateIDs": ["SoundWave_BS", "SoundWave_Loop", "SummonThunder_AS"],
        "flagTargetReachable": "11",
        "flagSelfOnTemplateCollider": "01",
        "flagSelfInZone": "10",
        "flagTargetInZone": "11"
      },
      "801": {
        "name": "ThunderSpear",
        "priority": 3,
        "castCondition": {
          "pose": [201],
          "pickRangeMin": 5.0,
          "pickRangeMax": 60.0
        },
        "cd": 5.0,
        "cdUpperRange": 5.0,
        "publicCDGroup": "",
        "HHAGODJIAPE": "",
        "stateIDs": ["ThunderSpear"],
        "flagTargetReachable": "11",
        "flagSelfOnTemplateCollider": "01",
        "flagSelfInZone": "10",
        "flagTargetInZone": "11"
      },
      "802": {
        "name": "ThunderSpear",
        "priority": 3,
        "castCondition": {
          "pose": [201],
          "pickRangeMin": 10.0
        },
        "cd": 7.5,
        "cdUpperRange": 5.0,
        "publicCDGroup": "",
        "HHAGODJIAPE": "",
        "stateIDs": ["ThunderSpear"],
        "flagTargetReachable": "11",
        "flagSelfOnTemplateCollider": "01",
        "flagSelfInZone": "10",
        "flagTargetInZone": "11"
      },
      "901": {
        "name": "ThunderPunish",
        "priority": 2,
        "castCondition": {
          "pose": [201],
          "pickRangeMin": 5.0,
          "pickRangeMax": 60.0
        },
        "cd": 30.0,
        "cdUpperRange": 15.0,
        "publicCDGroup": "",
        "HHAGODJIAPE": "",
        "stateIDs": ["ThunderPunish"],
        "flagTargetReachable": "11",
        "flagSelfOnTemplateCollider": "01",
        "flagSelfInZone": "10",
        "flagTargetInZone": "11"
      },
      "902": {
        "name": "ThunderPunish",
        "priority": 3,
        "castCondition": {
          "pose": [101]
        },
        "cd": 30.0,
        "cdUpperRange": 10.0,
        "initialCD": 7.5,
        "publicCDGroup": "",
        "skillGroupCDID": 4,
        "HHAGODJIAPE": "",
        "stateIDs": ["ThunderPunish"],
        "flagTargetReachable": "11",
        "flagSelfOnTemplateCollider": "01",
        "flagSelfInZone": "10",
        "flagTargetInZone": "11"
      },
      "903": {
        "name": "ThunderPunish",
        "priority": 2,
        "castCondition": {
          "pose": [201]
        },
        "cd": 27.5,
        "cdUpperRange": 7.5,
        "initialCD": 10.0,
        "publicCDGroup": "",
        "skillGroupCDID": 5,
        "HHAGODJIAPE": "",
        "stateIDs": ["ThunderPunish"],
        "flagTargetReachable": "11",
        "flagSelfOnTemplateCollider": "01",
        "flagSelfInZone": "10",
        "flagTargetInZone": "11"
      },
      "1001": {
        "name": "ThunderNet",
        "priority": 1,
        "castCondition": {
          "pose": [201],
          "pickRangeMax": 60.0
        },
        "cd": 15.0,
        "cdUpperRange": 15.0,
        "publicCDGroup": "",
        "HHAGODJIAPE": "",
        "stateIDs": ["ThunderNet"],
        "flagTargetReachable": "11",
        "flagSelfOnTemplateCollider": "01",
        "flagSelfInZone": "10",
        "flagTargetInZone": "11"
      },
      "1002": {
        "name": "Improve",
        "priority": 1,
        "castCondition": {
          "pose": [101],
          "pickRangeMax": 100.0
        },
        "cd": 9999999.0,
        "initialCD": 9999999.0,
        "publicCDGroup": "",
        "ignoreGCD": true,
        "triggerGCD": false,
        "triggerCDOnFail": false,
        "HHAGODJIAPE": "",
        "stateIDs": ["Improve"],
        "flagTargetReachable": "11",
        "flagSelfOnTemplateCollider": "01",
        "flagSelfInZone": "11",
        "flagTargetInZone": "11"
      },
      "1003": {
        "name": "ThunderNet",
        "priority": 3,
        "castCondition": {
          "pose": [101]
        },
        "cd": 25.0,
        "cdUpperRange": 7.5,
        "initialCD": 7.5,
        "publicCDGroup": "",
        "skillGroupCDID": 4,
        "HHAGODJIAPE": "",
        "stateIDs": ["ThunderNet"],
        "flagTargetReachable": "11",
        "flagSelfOnTemplateCollider": "01",
        "flagSelfInZone": "10",
        "flagTargetInZone": "11"
      },
      "1004": {
        "name": "ThunderNet",
        "priority": 2,
        "castCondition": {
          "pose": [201]
        },
        "cd": 27.5,
        "cdUpperRange": 7.5,
        "initialCD": 10.0,
        "publicCDGroup": "",
        "skillGroupCDID": 5,
        "HHAGODJIAPE": "",
        "stateIDs": ["ThunderNet"],
        "flagTargetReachable": "11",
        "flagSelfOnTemplateCollider": "01",
        "flagSelfInZone": "10",
        "flagTargetInZone": "11"
      }
    },
    "birdCirclingTactic": [
      {
        "$type": "NNJKLGNPMNN",
        "enable": true,
        "JMCOBEPDIGM": {
          "ANLAAGAMIKF": 1,
          "JFMIFLNBKMJ": 3.0,
          "DHGJDIPNDHH": 5.0,
          "MNPDDAKDHGK": "",
          "GJDMDHIBCME": ""
        }
      }
    ]
  },
  "inputKeys": [
    {
      "keyID": 101,
      "inputKeyCode": 257,
      "abilityName": ""
    },
    {
      "keyID": 201,
      "inputKeyCode": 258,
      "abilityName": ""
    },
    {
      "keyID": 301,
      "inputKeyCode": 259,
      "abilityName": ""
    },
    {
      "keyID": 401,
      "inputKeyCode": 260,
      "abilityName": ""
    },
    {
      "keyID": 501,
      "inputKeyCode": 261,
      "abilityName": ""
    },
    {
      "keyID": 601,
      "inputKeyCode": 262,
      "abilityName": ""
    },
    {
      "keyID": 701,
      "inputKeyCode": 263,
      "abilityName": ""
    },
    {
      "keyID": 801,
      "inputKeyCode": 264,
      "abilityName": ""
    },
    {
      "keyID": 901,
      "inputKeyCode": 265,
      "abilityName": ""
    },
    {
      "keyID": 1001,
      "inputKeyCode": 266,
      "abilityName": ""
    },
    {
      "keyID": 1002,
      "inputKeyCode": 267,
      "abilityName": ""
    },
    {
      "keyID": 2,
      "inputKeyCode": 268,
      "abilityName": ""
    },
    {
      "keyID": 3,
      "inputKeyCode": 269,
      "abilityName": ""
    },
    {
      "keyID": 4,
      "inputKeyCode": 270,
      "abilityName": ""
    },
    {
      "keyID": 5,
      "inputKeyCode": 271,
      "abilityName": ""
    },
    {
      "keyID": 6,
      "inputKeyCode": 272,
      "abilityName": ""
    },
    {
      "keyID": 7,
      "inputKeyCode": 273,
      "abilityName": ""
    },
    {
      "keyID": 502,
      "inputKeyCode": 274,
      "abilityName": ""
    }
  ],
  "move": {
    "$type": "IPNMJMHDMPF",
    "velocityForce": {
      "includeForces": ["FixedRushMoveType", "RushMoveType"]
    },
    "initWithGroundHitCheck": false,
    "moveOnWater": true,
    "destroyRockWhenInit": true,
    "PKHOMJHFAEE": "RootNode",
    "JNAPCJLHJDO": true
  },
  "cameraAdjustMap": {
    "default": {
      "$type": "NJCCPGFPIHI",
      "priority": 1.0,
      "enterRadius": 25.0,
      "exitRadius": 30.0,
      "heightAdjust": 0.75,
      "fov": 47.5,
      "zoom": 8.0,
      "sphericalY": 10.0,
      "lockSphericalY": false,
      "sphericalYUp": 50.0,
      "sphericalYDown": 50.0,
      "autoTurnStartMin": 50.0,
      "autoTurnStartMax": 40.0,
      "autoTurnEndMin": 100.0,
      "autoTurnEndMax": 145.0,
      "enterShape": "CircleR25",
      "exitShape": "CircleR30"
    }
  },
  "LGAABOLNDAJ": true
}
