{
  "common": {
    "effectAttachShape": {
      "$type": "FJNPJANPGGC",
      "mesh": "EffectMesh"
    },
    "mass": 80.0,
    "height": 0.6000000238418579,
    "affectedByWorld": true,
    "checkInSurface": true,
    "useGrassDisplacement": true,
    "clearAnimatorOnSetLightDeactive": true,
    "clearAIOnSetLightDeactive": true,
    "recoverByInitPose": true
  },
  "model": {
    "bornEffect": "",
    "attachEffect": "",
    "canBakeMesh": false,
    "BKPFGNPLDNJ": ""
  },
  "dither": {
    "showDitherDuration": 2.0
  },
  "combat": {
    "property": {
      "endureType": "Monster_Slime",
      "weight": 75.0
    },
    "beHit": {
      "hitBloodEffect": ""
    },
    "combatLock": {
      "lockShape": "CircleLockEnemy",
      "lockType": "Avatar&Monster_Lv4"
    },
    "die": {
      "hasAnimatorDie": true,
      "dieEndTime": 0.5,
      "dieForceDisappearTime": 1.5,
      "dieDisappearEffect": "Eff_Death_Common",
      "dieShaderData": "MonsterDie",
      "muteHitBox": true,
      "dieDenyLockOn": true,
      "dieIsGhostToEnemy": true,
      "dieIgnoreTriggerBullet": true,
      "muteBillboard": true,
      "mutePushCollider": true
    },
    "animEvents": {
      "MeleeAttackNormal": {
        "attackPattern": {
          "$type": "ConfigAttackCircle",
          "triggerType": "TriggerNoRepeat",
          "born": {
            "$type": "ConfigBornBySelf",
            "offset": {
              "x": 0.0,
              "y": 0.0,
              "z": 0.0
            }
          },
          "height": 1.2999999523162842,
          "fanAngle": 45.0,
          "radius": 2.0
        },
        "attackInfo": {
          "attackTag": "",
          "attenuationTag": "",
          "attenuationGroup": "default",
          "attackProperty": {
            "actorGrassSubHurtDelta": 0.30000001192092896,
            "actorWindSubHurtDelta": 0.0,
            "elementDurability": 100.0,
            "strikeType": "Blunt",
            "enBreak": 60.0,
            "attackType": "Melee",
            "GLKMCMDJBIK": 0.0
          },
          "hitPattern": {
            "onHitEffectName": "default",
            "hitImpulseY": "",
            "hitImpulseType": "LV2"
          }
        }
      },
      "MeleeAttackDecay": {
        "attackPattern": {
          "$type": "ConfigAttackCircle",
          "triggerType": "TriggerNoRepeat",
          "born": {
            "$type": "ConfigBornBySelf",
            "offset": {
              "x": 0.0,
              "y": 0.0,
              "z": 0.0
            }
          },
          "height": 1.5,
          "fanAngle": 90.0,
          "radius": 2.0
        },
        "attackInfo": {
          "attackTag": "",
          "attenuationTag": "",
          "attenuationGroup": "default",
          "attackProperty": {
            "actorGrassSubHurtDelta": 0.6000000238418579,
            "actorWindSubHurtDelta": 0.0,
            "elementDurability": 100.0,
            "strikeType": "Blunt",
            "enBreak": 150.0,
            "attackType": "Melee",
            "GLKMCMDJBIK": 0.0
          },
          "hitPattern": {
            "onHitEffectName": "default",
            "hitImpulseY": "",
            "hitImpulseType": "LV3"
          }
        }
      },
      "DigOutAttackNormal": {
        "attackPattern": {
          "$type": "ConfigAttackCircle",
          "triggerType": "TriggerNoRepeat",
          "born": {
            "$type": "ConfigBornBySelf",
            "offset": {
              "x": 0.0,
              "y": 0.0,
              "z": 0.0
            }
          },
          "height": 1.7999999523162842,
          "fanAngle": 60.0,
          "radius": 2.299999952316284
        },
        "attackInfo": {
          "attackTag": "",
          "attenuationTag": "",
          "attenuationGroup": "default",
          "attackProperty": {
            "actorGrassSubHurtDelta": 0.6000000238418579,
            "actorWindSubHurtDelta": 0.0,
            "elementType": "Ice",
            "elementDurability": 25.0,
            "strikeType": "Blunt",
            "enBreak": 150.0,
            "attackType": "Melee",
            "GLKMCMDJBIK": 0.0
          },
          "hitPattern": {
            "onHitEffectName": "default",
            "hitImpulseY": "",
            "hitImpulseType": "LV3"
          }
        }
      },
      "DigOutAttackDecay": {
        "attackPattern": {
          "$type": "ConfigAttackCircle",
          "triggerType": "TriggerNoRepeat",
          "born": {
            "$type": "ConfigBornBySelf",
            "offset": {
              "x": 0.0,
              "y": 0.0,
              "z": 0.0
            }
          },
          "height": 2.0,
          "fanAngle": 90.0,
          "radius": 2.0
        },
        "attackInfo": {
          "attackTag": "",
          "attenuationTag": "",
          "attenuationGroup": "default",
          "attackProperty": {
            "actorGrassSubHurtDelta": 1.0,
            "actorWindSubHurtDelta": 0.0,
            "elementType": "Ice",
            "elementDurability": 25.0,
            "strikeType": "Blunt",
            "enBreak": 200.0,
            "attackType": "Melee",
            "GLKMCMDJBIK": 0.0
          },
          "hitPattern": {
            "onHitEffectName": "default",
            "hitImpulseY": "",
            "hitImpulseType": "LV4"
          }
        }
      }
    }
  },
  "abilities": [
    {
      "abilityID": "",
      "abilityName": "Monster_Fungus_Trois_RotateManagerAndReset",
      "abilityOverride": ""
    },
    {
      "abilityID": "",
      "abilityName": "Monster_Fungus_FungusStateManager",
      "abilityOverride": ""
    },
    {
      "abilityID": "",
      "abilityName": "Monster_Fungus_Un_ReturnToBornManager",
      "abilityOverride": ""
    },
    {
      "abilityID": "",
      "abilityName": "Monster_Fungus_Trois_Alpha_Ice_HitThrowDropToGround",
      "abilityOverride": ""
    },
    {
      "abilityID": "",
      "abilityName": "Monster_Fungus_Trois_Alpha_Ice_Steer",
      "abilityOverride": ""
    },
    {
      "abilityID": "",
      "abilityName": "Monster_Fungus_Trois_Alpha_Ice_MeleeAttackNormal",
      "abilityOverride": ""
    },
    {
      "abilityID": "",
      "abilityName": "Monster_Fungus_Trois_Alpha_Ice_DigMoveLoop",
      "abilityOverride": ""
    },
    {
      "abilityID": "",
      "abilityName": "Monster_Fungus_Not_Un_Gamma_Water_Mark",
      "abilityOverride": ""
    }
  ],
  "stateLayers": {
    "defaultLayer": {
      "$type": "GBGJJIIEMBD",
      "layerIndexName": "",
      "CPAANEIJCGD": "",
      "stateIDs": {
        "Born": {
          "$type": "NEDIFAKEGCO",
          "animatorStates": {
            "Born": []
          },
          "canSyncMove": true,
          "resetAnimatorTriggerOnExit": ["DoSkill"]
        },
        "NormalIdle": {
          "$type": "NEDIFAKEGCO",
          "animatorStates": {
            "StandbyFree": [],
            "Standby": []
          },
          "canDoSkill": true,
          "canSyncMove": true,
          "resetAnimatorTriggerOnExit": ["DoSkill"],
          "canSteer": true,
          "autoSteer": true
        },
        "NormalMove": {
          "$type": "NEDIFAKEGCO",
          "animatorStates": {
            "WalkForward": [],
            "WalkBack": [],
            "WalkLeft": [],
            "WalkRight": [],
            "Run_Decay": []
          },
          "canDoSkill": true,
          "canSyncMove": true,
          "resetAnimatorTriggerOnExit": ["DoSkill"],
          "canSteer": true
        },
        "BeHit": {
          "$type": "NEDIFAKEGCO",
          "animatorStates": {
            "Hit_H": ["Audio_Monster_Fungus_Trois_HitThrow"]
          },
          "canSyncMove": true,
          "resetAnimatorTriggerOnEnter": ["BeHit"],
          "resetAnimatorTriggerOnExit": ["DoSkill"],
          "airMoveFollowAnimation": true
        },
        "BeHitThrow": {
          "$type": "NEDIFAKEGCO",
          "animatorStates": {
            "HitThrow": ["Audio_Monster_Fungus_Trois_HitThrow"],
            "HitThrowDrop": [],
            "HitThrowToGround": [
              "Monster_Fungus_Trois_Alpha_Ice_HitThrowToGround",
              "Audio_Monster_Fungus_Trois_HitThrowToGround"
            ]
          },
          "resetAnimatorTriggerOnEnter": ["BeHit", "HitAir2HitDrop"],
          "resetAnimatorTriggerOnExit": ["DoSkill"]
        },
        "Struggle": {
          "$type": "NEDIFAKEGCO",
          "animatorStates": {
            "Struggle": []
          },
          "resetAnimatorTriggerOnEnter": ["BeHit", "HitAir2HitDrop"],
          "resetAnimatorTriggerOnExit": ["DoSkill"]
        },
        "Die": {
          "$type": "NEDIFAKEGCO",
          "animatorStates": {
            "Die_BS": ["Audio_Monster_Fungus_Trois_Die"],
            "Die": ["Monster_Fungus_Trois_Die"],
            "AirDie": ["Monster_Fungus_Trois_Die"],
            "SwimDie_BS": [],
            "SwimDie": ["Monster_Fungus_Trois_Die"]
          }
        },
        "Warning": {
          "$type": "NEDIFAKEGCO",
          "animatorStates": {
            "Warning": ["Audio_Monster_Fungus_Trois_Warning"]
          },
          "canSyncMove": true,
          "resetAnimatorTriggerOnExit": ["BeHit", "DoSkill"],
          "canSteer": true
        },
        "ChangeState": {
          "$type": "NEDIFAKEGCO",
          "animatorStates": {
            "ChangeStateToOverdose": ["Audio_Monster_Fungus_Trois_ChangeState"],
            "ChangeStateToDecayed": ["Audio_Monster_Fungus_Trois_ChangeState"]
          },
          "canSyncMove": true,
          "resetAnimatorTriggerOnEnter": ["BeHit"],
          "resetAnimatorTriggerOnExit": ["DoSkill"],
          "airMoveFollowAnimation": true
        },
        "Dance": {
          "$type": "NEDIFAKEGCO",
          "animatorStates": {
            "Dance": ["Audio_Monster_Fungus_Trois_Dance"]
          },
          "canDoSkill": true,
          "canSyncMove": true,
          "resetAnimatorTriggerOnExit": ["BeHit", "DoSkill"],
          "canSteer": true
        },
        "Tease": {
          "$type": "NEDIFAKEGCO",
          "animatorStates": {
            "Tease": ["Audio_Monster_Fungus_Trois_Tease"]
          },
          "canDoSkill": true,
          "canSyncMove": true,
          "resetAnimatorTriggerOnExit": ["BeHit", "DoSkill"],
          "canSteer": true
        },
        "Absorb": {
          "$type": "NEDIFAKEGCO",
          "animatorStates": {
            "Absorb": [
              "Monster_Fungus_Trois_Absorb",
              "Audio_Monster_Fungus_Trois_Absorb"
            ]
          },
          "canDoSkill": true,
          "canSyncMove": true,
          "resetAnimatorTriggerOnExit": ["BeHit", "DoSkill"],
          "canSteer": true
        },
        "MeleeAttackNormal_BS": {
          "$type": "NEDIFAKEGCO",
          "animatorStates": {
            "MeleeAttackNormal_BS": [
              "Audio_Monster_Fungus_Trois_MeleeAttack_BS"
            ],
            "MeleeAttackNormal_Loop": [
              "Audio_Monster_Fungus_Trois_MeleeAttack_Loop"
            ]
          },
          "resetAnimatorTriggerOnExit": ["BeHit", "DoSkill"],
          "canSteer": true
        },
        "MeleeAttackOverdose_BS": {
          "$type": "NEDIFAKEGCO",
          "animatorStates": {
            "MeleeAttackOverdose_BS": [
              "Audio_Monster_Fungus_Trois_MeleeAttack_BS"
            ],
            "MeleeAttackOverdose_Loop": [
              "Audio_Monster_Fungus_Trois_MeleeAttack_Loop"
            ]
          },
          "resetAnimatorTriggerOnExit": ["BeHit", "DoSkill"],
          "canSteer": true
        },
        "MeleeAttackDecay_BS": {
          "$type": "NEDIFAKEGCO",
          "animatorStates": {
            "MeleeAttackDecay_BS": [
              "Audio_Monster_Fungus_Trois_MeleeAttack_BS"
            ],
            "MeleeAttackDecay_Loop": [
              "Audio_Monster_Fungus_Trois_MeleeAttack_Loop"
            ]
          },
          "resetAnimatorTriggerOnExit": ["BeHit", "DoSkill"],
          "canSteer": true
        },
        "MeleeAttack": {
          "$type": "NEDIFAKEGCO",
          "animatorStates": {
            "MeleeAttackNormal_Attack": [
              "Monster_Fungus_Trois_Alpha_Ice_MeleeAttackNormal_Attack",
              "Audio_Monster_Fungus_Trois_MeleeAttack_Attack"
            ],
            "MeleeAttackNormal_AS": [],
            "MeleeAttackOverdose_Attack": [
              "Monster_Fungus_Trois_Alpha_Ice_MeleeAttackNormal_Attack",
              "Audio_Monster_Fungus_Trois_MeleeAttack_Attack"
            ],
            "MeleeAttackOverdose_AS": [],
            "MeleeAttackDecay_Attack": [
              "Monster_Fungus_Trois_Alpha_Ice_MeleeAttackDecay_Attack",
              "Audio_Monster_Fungus_Trois_MeleeAttack_Attack"
            ],
            "MeleeAttackDecay_AS": []
          },
          "resetAnimatorTriggerOnExit": ["BeHit", "DoSkill"],
          "canSteer": true
        },
        "Dig": {
          "$type": "NEDIFAKEGCO",
          "animatorStates": {
            "DigNormal_BS": [
              "Monster_Fungus_Trois_Alpha_Ice_DigNormal_BS",
              "Audio_Monster_Fungus_Trois_Ice_Dig_BS"
            ],
            "DigNormal_AS": [
              "Monster_Fungus_Trois_Alpha_Ice_DigNormal_AS",
              "Audio_Monster_Fungus_Trois_Ice_Dig_AS"
            ],
            "DigOutAttackNormal_AS": ["Audio_Monster_Fungus_Trois_Ice_Dig_AS"],
            "DigOverdose_BS": [
              "Monster_Fungus_Trois_Alpha_Ice_DigNormal_BS",
              "Audio_Monster_Fungus_Trois_Ice_Dig_BS"
            ],
            "DigOverdose_AS": [
              "Monster_Fungus_Trois_Alpha_Ice_DigNormal_AS",
              "Audio_Monster_Fungus_Trois_Ice_Dig_AS"
            ],
            "DigOutAttackOverdose_AS": [
              "Audio_Monster_Fungus_Trois_Ice_Dig_AS"
            ],
            "DigDecay_BS": [
              "Monster_Fungus_Trois_Alpha_Ice_DigNormal_BS",
              "Audio_Monster_Fungus_Trois_Ice_Dig_BS"
            ],
            "DigDecay_AS": [
              "Monster_Fungus_Trois_Alpha_Ice_DigNormal_AS",
              "Audio_Monster_Fungus_Trois_Ice_Dig_AS"
            ],
            "DigOutAttackDecay_AS": ["Audio_Monster_Fungus_Trois_Ice_Dig_AS"]
          },
          "resetAnimatorTriggerOnExit": ["BeHit", "DoSkill"],
          "canSteer": true
        },
        "DigMoveLoopReady": {
          "$type": "NEDIFAKEGCO",
          "animatorStates": {
            "DigOverdose_MoveLoopReady": []
          },
          "resetAnimatorTriggerOnExit": ["BeHit", "DoSkill"],
          "canSteer": true
        },
        "DigNormalMoveLoop": {
          "$type": "NEDIFAKEGCO",
          "animatorStates": {
            "DigNormal_MoveLoop": []
          },
          "resetAnimatorTriggerOnExit": ["BeHit", "DoSkill"],
          "canSteer": true
        },
        "DigOverdoseMoveLoop": {
          "$type": "NEDIFAKEGCO",
          "animatorStates": {
            "DigOverdose_MoveLoop": []
          },
          "resetAnimatorTriggerOnExit": ["BeHit", "DoSkill"],
          "canSteer": true
        },
        "DigDecayMoveLoop": {
          "$type": "NEDIFAKEGCO",
          "animatorStates": {
            "DigDecay_MoveLoop": []
          },
          "resetAnimatorTriggerOnExit": ["BeHit", "DoSkill"],
          "canSteer": true
        },
        "DigOutAttack": {
          "$type": "NEDIFAKEGCO",
          "animatorStates": {
            "DigOutAttackNormal_Attack": [
              "Monster_Fungus_Trois_Alpha_Ice_DigOutAttackNormal_Attack",
              "Audio_Monster_Fungus_Trois_Ice_Dig_Attack"
            ],
            "DigOutAttackOverdose_Attack": [
              "Monster_Fungus_Trois_Alpha_Ice_DigOutAttackNormal_Attack",
              "Audio_Monster_Fungus_Trois_Ice_Dig_Attack"
            ],
            "DigOutAttackDecay_Attack": [
              "Monster_Fungus_Trois_Alpha_Ice_DigOutAttackDecay_Attack",
              "Audio_Monster_Fungus_Trois_Ice_Dig_Attack"
            ]
          },
          "resetAnimatorTriggerOnExit": ["BeHit", "DoSkill"],
          "canSteer": true
        },
        "DigBreak": {
          "$type": "NEDIFAKEGCO",
          "animatorStates": {
            "DigBreak_BS": ["Audio_Monster_Fungus_Trois_Ice_DigBreak_BS"],
            "DigBreak_StunLoop": [],
            "DigBreak_AS": ["Audio_Monster_Fungus_Trois_Ice_DigBreak_AS"]
          },
          "resetAnimatorTriggerOnExit": ["BeHit", "DoSkill"],
          "canSteer": true
        },
        "ReturnToBorn": {
          "$type": "NEDIFAKEGCO",
          "animatorStates": {
            "ReturnToBorn_BS": [
              "Monster_Fungus_Trois_ReturnToBorn_BS",
              "Audio_Monster_Fungus_Trois_ReturnToBorn_BS"
            ],
            "ReturnToBorn_Loop": [],
            "ReturnToBorn_AS": [
              "Monster_Fungus_Trois_ReturnToBorn_AS",
              "Audio_Monster_Fungus_Trois_ReturnToBorn_AS"
            ]
          },
          "cullingModelAlwaysAnimate": true,
          "resetAnimatorTriggerOnExit": ["BeHit", "DoSkill"]
        }
      }
    }
  },
  "billboard": {
    "$type": "DNGNMAJBCNP",
    "attachPoint": "BillboardAttach",
    "offset": {
      "y": 0.5
    },
    "radiusOffset": 1.0,
    "enableSelfAdapt": true,
    "showHPBar": true
  },
  "initialPoses": {
    "Default": {
      "initialPoseID": 101
    },
    "Dance": {
      "initialPoseID": 102,
      "initialPoseParams": {
        "boolParams": {
          "Dance": "true"
        }
      }
    },
    "Tease": {
      "initialPoseID": 103,
      "initialPoseParams": {
        "boolParams": {
          "Tease": "true"
        }
      }
    },
    "Absorb": {
      "initialPoseID": 104,
      "initialPoseParams": {
        "boolParams": {
          "Absorb": "true"
        }
      }
    }
  },
  "aibeta": {
    "enable": true,
    "moveSetting": {
      "navMeshAgentName": "Undead01"
    },
    "sensing": {
      "settings": {
        "DefaultSetting": {
          "viewRange": 22.0,
          "feelRange": 8.75
        },
        "Patrol": {
          "viewRange": 0.0,
          "feelRange": 6.0
        },
        "NoSensing": {
          "enableVision": false,
          "hearAttractionRange": 0.0,
          "feelRange": 0.0
        }
      },
      "templates": {
        "DefaultTemplate": {
          "DefaultPoses": "DefaultSetting"
        },
        "Patrol": {
          "DefaultPoses": "Patrol"
        },
        "NoSensing": {
          "DefaultPoses": "NoSensing"
        }
      }
    },
    "neurons": {
      "DefaultSetting": ["HIT"],
      "NeverCombat": []
    },
    "threat": {
      "GHIJMOKOLMB": "",
      "clearThreatTargetDistance": 30.0,
      "clearThreatEdgeDistance": 5.0,
      "clearThreatByTargetOutOfZone": true,
      "clearThreatTimerByDistance": 2.0,
      "viewAttenuation": [
        {
          "x": 12.0,
          "y": 1.0
        },
        {
          "x": 20.0,
          "y": 0.5
        }
      ]
    },
    "defendArea": {
      "defendRange": 50.0
    },
    "skillSetting": {
      "skillEliteSet": {
        "1": [],
        "2": [112]
      }
    },
    "skills": {
      "100": {
        "name": "OnAlert",
        "skillType": "OnAlert",
        "faceTarget": true,
        "publicCDGroup": "",
        "triggerGCD": false,
        "HHAGODJIAPE": "",
        "stateIDs": ["Warning"],
        "skillQueryingTime": 3.0,
        "flagTargetReachable": "10",
        "flagSelfOnTemplateCollider": "01",
        "flagSelfInZone": "10",
        "flagTargetInZone": "11"
      },
      "102": {
        "name": "Dance",
        "skillType": "Free",
        "castCondition": {
          "pose": [102]
        },
        "cd": 15.0,
        "initialCD": 5.0,
        "publicCDGroup": "",
        "triggerGCD": false,
        "HHAGODJIAPE": "",
        "stateIDs": ["Dance"],
        "skillQueryingTime": 3.0,
        "flagTargetReachable": "10",
        "flagSelfOnTemplateCollider": "01",
        "flagSelfInZone": "10",
        "flagTargetInZone": "11"
      },
      "112": {
        "name": "Dance2",
        "skillType": "Free",
        "castCondition": {
          "pose": [101, 111, 121]
        },
        "cd": 0.5,
        "initialCD": 0.6000000238418579,
        "publicCDGroup": "",
        "triggerGCD": false,
        "HHAGODJIAPE": "",
        "stateIDs": ["Dance"],
        "skillQueryingTime": 3.0,
        "flagTargetReachable": "10",
        "flagSelfOnTemplateCollider": "01",
        "flagSelfInZone": "10",
        "flagTargetInZone": "11"
      },
      "103": {
        "name": "Tease",
        "skillType": "Free",
        "castCondition": {
          "pose": [103]
        },
        "cd": 10.0,
        "cdUpperRange": 10.0,
        "initialCD": 5.0,
        "initialCDUpperRange": 10.0,
        "publicCDGroup": "",
        "triggerGCD": false,
        "HHAGODJIAPE": "",
        "stateIDs": ["Tease"],
        "skillQueryingTime": 3.0,
        "flagTargetReachable": "10",
        "flagSelfOnTemplateCollider": "01",
        "flagSelfInZone": "10",
        "flagTargetInZone": "11"
      },
      "104": {
        "name": "Absorb",
        "skillType": "Free",
        "castCondition": {
          "pose": [104]
        },
        "cd": 10.0,
        "cdUpperRange": 10.0,
        "initialCD": 5.0,
        "initialCDUpperRange": 10.0,
        "publicCDGroup": "",
        "triggerGCD": false,
        "HHAGODJIAPE": "",
        "stateIDs": ["Absorb"],
        "skillQueryingTime": 3.0,
        "flagTargetReachable": "10",
        "flagSelfOnTemplateCollider": "01",
        "flagSelfInZone": "10",
        "flagTargetInZone": "11"
      },
      "301": {
        "name": "MeleeAttackNormal",
        "combatSkillType": "MeleeAttack",
        "castCondition": {
          "pose": [301],
          "pickRangeMax": 2.0
        },
        "cd": 5.0,
        "initialCD": 5.0,
        "publicCDGroup": "",
        "HHAGODJIAPE": "",
        "stateIDs": ["MeleeAttack", "MeleeAttackNormal_BS"],
        "flagTargetReachable": "10",
        "flagSelfOnTemplateCollider": "01",
        "flagSelfInZone": "11",
        "flagTargetInZone": "11"
      },
      "311": {
        "name": "MeleeAttackOverdose",
        "combatSkillType": "MeleeAttack",
        "castCondition": {
          "pose": [311],
          "pickRangeMax": 2.0
        },
        "cd": 5.0,
        "initialCD": 5.0,
        "publicCDGroup": "",
        "HHAGODJIAPE": "",
        "stateIDs": ["MeleeAttack", "MeleeAttackOverdose_BS"],
        "flagTargetReachable": "10",
        "flagSelfOnTemplateCollider": "01",
        "flagSelfInZone": "11",
        "flagTargetInZone": "11"
      },
      "321": {
        "name": "MeleeAttackDecayed",
        "combatSkillType": "MeleeAttack",
        "castCondition": {
          "pose": [321],
          "pickRangeMax": 2.0
        },
        "cd": 5.0,
        "publicCDGroup": "",
        "HHAGODJIAPE": "",
        "stateIDs": ["MeleeAttack", "MeleeAttackDecay_BS"],
        "flagTargetReachable": "10",
        "flagSelfOnTemplateCollider": "01",
        "flagSelfInZone": "11",
        "flagTargetInZone": "11"
      },
      "501": {
        "name": "DigNormal",
        "combatSkillType": "MeleeAttack",
        "castCondition": {
          "pose": [301],
          "needReInitCD": true,
          "pickRangeMin": 1.5,
          "pickRangeMax": 12.0
        },
        "cd": 5.0,
        "cdUpperRange": 10.0,
        "initialCD": 1.0,
        "initialCDUpperRange": 5.5,
        "publicCDGroup": "",
        "HHAGODJIAPE": "",
        "stateIDs": ["Dig", "DigNormalMoveLoop", "DigOutAttack"],
        "flagTargetReachable": "10",
        "flagSelfOnTemplateCollider": "01",
        "flagSelfInZone": "10",
        "flagTargetInZone": "11"
      },
      "511": {
        "name": "DigOverdose",
        "combatSkillType": "MeleeAttack",
        "castCondition": {
          "pose": [311],
          "needReInitCD": true,
          "pickRangeMin": 1.5,
          "pickRangeMax": 12.0
        },
        "cd": 5.0,
        "cdUpperRange": 3.0,
        "initialCD": 0.5,
        "initialCDUpperRange": 1.5,
        "publicCDGroup": "",
        "HHAGODJIAPE": "",
        "stateIDs": [
          "Dig",
          "DigMoveLoopReady",
          "DigOverdoseMoveLoop",
          "DigOutAttack"
        ],
        "flagTargetReachable": "10",
        "flagSelfOnTemplateCollider": "01",
        "flagSelfInZone": "10",
        "flagTargetInZone": "11"
      },
      "521": {
        "name": "DigDecayed",
        "combatSkillType": "MeleeAttack",
        "castCondition": {
          "pose": [321],
          "needReInitCD": true,
          "pickRangeMax": 12.0
        },
        "cd": 6.0,
        "cdUpperRange": 6.0,
        "initialCD": 3.0,
        "initialCDUpperRange": 3.0,
        "publicCDGroup": "",
        "HHAGODJIAPE": "",
        "stateIDs": ["Dig", "DigDecayMoveLoop", "DigOutAttack"],
        "flagTargetReachable": "10",
        "flagSelfOnTemplateCollider": "01",
        "flagSelfInZone": "10",
        "flagTargetInZone": "11"
      }
    },
    "skillGCD": 3.5,
    "birdCirclingTactic": [
      {
        "$type": "EPHBMLFODKF",
        "enable": true,
        "condition": {
          "pose": [301, 311, 321]
        },
        "JMCOBEPDIGM": {
          "rangeMin": 5.0,
          "rangeMax": 10.0,
          "AFILKAGDAHN": 4.0,
          "BFJBDDIIFOI": {
            "LLICGJHIGME": 0.20000000298023224,
            "IDEFILBHNAP": 0.5,
            "IBLIPJPNOGC": 0.5,
            "AEBLMKFNCDG": 0.5,
            "IGLIBIOEGBB": 0.5
          },
          "NAOBMNGDKHL": "1111",
          "JCNIJOAIGII": "1111",
          "MNPDDAKDHGK": ""
        },
        "PIOCBHLFLJP": {
          "311": {
            "rangeMin": 5.0,
            "rangeMax": 50.0,
            "JOJBOHEDBHC": 0.0,
            "AFILKAGDAHN": 1.0,
            "BFJBDDIIFOI": {
              "LLICGJHIGME": 0.10000000149011612,
              "IDEFILBHNAP": 0.25,
              "IBLIPJPNOGC": 0.25
            },
            "NAOBMNGDKHL": "1111",
            "JCNIJOAIGII": "1111",
            "MNPDDAKDHGK": ""
          },
          "321": {
            "rangeMin": 5.0,
            "rangeMax": 50.0,
            "BFJBDDIIFOI": {
              "LLICGJHIGME": 0.0,
              "IBLIPJPNOGC": 0.0,
              "AEBLMKFNCDG": 0.0,
              "IGLIBIOEGBB": 0.0
            },
            "NAOBMNGDKHL": "1111",
            "JCNIJOAIGII": "1111",
            "MNPDDAKDHGK": ""
          }
        }
      },
      {
        "$type": "ODHNBPJLGHF",
        "condition": {
          "pose": [301]
        },
        "JMCOBEPDIGM": {
          "NBENNEKDIIA": 2.5,
          "cd": 0.0,
          "triggerDistance": 4.0,
          "EMNPEHPCDLB": 2,
          "CMDFDIPMGKI": 3,
          "KAIGBDPLNMO": 7.5,
          "BMIEPFCPFGN": 10.0,
          "MNPDDAKDHGK": ""
        }
      },
      {
        "$type": "MCDGOJLCMBM",
        "enable": true,
        "JMCOBEPDIGM": {
          "DMGAHPPFMPK": 1.0,
          "FLENLLDBFGP": 1.0,
          "MNPDDAKDHGK": "",
          "GJDMDHIBCME": ""
        }
      },
      {
        "$type": "KACCHOLJDNK",
        "enable": true,
        "condition": {
          "pose": [301, 311, 321]
        },
        "JMCOBEPDIGM": {
          "ANLAAGAMIKF": 1,
          "KHDFDAAAPEI": 10.0,
          "HKJODDGJPHA": 50.0,
          "GGEBMFHFBPO": 9.0,
          "KFFGCIMPNMJ": 10.0,
          "MNPDDAKDHGK": ""
        },
        "PIOCBHLFLJP": {
          "321": {
            "KHDFDAAAPEI": 10.0,
            "HKJODDGJPHA": 50.0,
            "GGEBMFHFBPO": 3.0,
            "KFFGCIMPNMJ": 6.0,
            "PKNJDNAGLNM": 2,
            "MNPDDAKDHGK": ""
          }
        }
      },
      {
        "$type": "NNJKLGNPMNN",
        "enable": true,
        "JMCOBEPDIGM": {
          "OJGLKPBCLGB": 2.319999933242798,
          "MNPDDAKDHGK": "",
          "GJDMDHIBCME": ""
        }
      },
      {
        "$type": "FPELBIJFGCE",
        "enable": true,
        "condition": {
          "pose": [101, 111, 121]
        },
        "JMCOBEPDIGM": {
          "KPNDPKIOPJM": 3.0,
          "PINAFKEDDLL": 1.5,
          "ANMPOPEBDIA": 15.0,
          "GMJFIMFFOEL": 3.75,
          "CHCPFDMADEI": 7.5,
          "MNPDDAKDHGK": ""
        }
      }
    ]
  },
  "inputKeys": [
    {
      "keyID": 301,
      "inputKeyCode": 257,
      "abilityName": ""
    },
    {
      "keyID": 501,
      "inputKeyCode": 258,
      "abilityName": ""
    },
    {
      "keyID": 311,
      "inputKeyCode": 259,
      "abilityName": ""
    },
    {
      "keyID": 511,
      "inputKeyCode": 260,
      "abilityName": ""
    },
    {
      "keyID": 321,
      "inputKeyCode": 261,
      "abilityName": ""
    },
    {
      "keyID": 521,
      "inputKeyCode": 262,
      "abilityName": ""
    },
    {
      "keyID": 102,
      "inputKeyCode": 263,
      "abilityName": ""
    },
    {
      "keyID": 103,
      "inputKeyCode": 264,
      "abilityName": ""
    },
    {
      "keyID": 104,
      "inputKeyCode": 265,
      "abilityName": ""
    },
    {
      "keyID": 9997,
      "inputKeyCode": 266,
      "abilityName": ""
    },
    {
      "keyID": 9998,
      "inputKeyCode": 267,
      "abilityName": ""
    },
    {
      "keyID": 9999,
      "inputKeyCode": 268,
      "abilityName": ""
    }
  ],
  "move": {
    "$type": "IPNMJMHDMPF",
    "facingMove": "FourDirection",
    "airFacingMove": "AirBlend3D",
    "monsterSizeType": "SlimeType",
    "PKHOMJHFAEE": "RootNode"
  },
  "audio": {
    "overrideEmitterName": "",
    "animAudio": {
      "onTransitionIn": [
        {
          "currentStateName": "",
          "audioEvent": {
            "text": ""
          }
        }
      ],
      "onTransitionOut": [
        {
          "currentStateName": "Dance",
          "audioEvent": {
            "text": "Stop_sfx_monster_Fungus_Trois_idle"
          }
        },
        {
          "currentStateName": "Absorb",
          "audioEvent": {
            "text": "Stop_sfx_monster_Fungus_Trois_idle"
          }
        },
        {
          "currentStateName": "Tease",
          "audioEvent": {
            "text": "Stop_sfx_monster_Fungus_Trois_idle"
          }
        },
        {
          "currentStateName": "MeleeAttackNormal_Loop",
          "audioEvent": {
            "text": "Stop_sfx_monster_Fungus_Trois_idle"
          }
        },
        {
          "currentStateName": "MeleeAttackDecay_Loop",
          "audioEvent": {
            "text": "Stop_sfx_monster_Fungus_Trois_idle"
          }
        },
        {
          "currentStateName": "MeleeAttackOverdose_Loop",
          "audioEvent": {
            "text": "Stop_sfx_monster_Fungus_Trois_idle"
          }
        }
      ]
    }
  }
}
