{
  "common": {
    "effectAttachShape": {
      "$type": "FJNPJANPGGC",
      "mesh": "EffectMesh"
    },
    "mass": 10000.0,
    "height": 2.799999952316284,
    "affectedByWorld": true,
    "checkInSurface": true,
    "shouldPauseAnimatorBeforeReady": true,
    "useGrassDisplacement": true,
    "hasAfterImage": true,
    "reconnectSupport": true,
    "recoverByInitPose": true
  },
  "specialPoint": {
    "elementAbsorb": "RootNode",
    "elementPendant": "",
    "elementDrop": "RootNode",
    "bulletAim": "Fx_ChestNode"
  },
  "model": {
    "bornEffect": "Eff_Monster_Common_Born",
    "attachEffect": "",
    "canBakeMesh": false,
    "JKLKJPMFNGD": true,
    "BKPFGNPLDNJ": ""
  },
  "dither": {
    "showDitherDuration": 2.0
  },
  "hasAudio": true,
  "combat": {
    "property": {
      "endureType": "Monster_Boss_Other",
      "weight": 300.0
    },
    "beHit": {
      "hitBloodEffect": ""
    },
    "combatLock": {
      "lockShape": "CircleLockEnemy",
      "lockType": "Avatar&Monster_Lv4"
    },
    "die": {
      "hasAnimatorDie": true,
      "dieForceDisappearTime": 1.1799999475479126,
      "dieDisappearEffect": "",
      "muteHitBox": true,
      "dieDenyLockOn": true,
      "dieIsGhostToEnemy": true,
      "dieIgnoreTriggerBullet": true,
      "muteBillboard": true,
      "mutePushCollider": true
    },
    "animEvents": {
      "AtkNo": {
        "attackPattern": {
          "$type": "ConfigAttackCircle",
          "triggerType": "TriggerNoRepeat",
          "born": {
            "$type": "ConfigBornBySelf",
            "offset": {
              "x": 0.0,
              "y": 0.0,
              "z": -0.5
            }
          },
          "fanAngle": 60.0,
          "radius": 1.5
        },
        "attackInfo": {
          "attackTag": "",
          "attenuationTag": "",
          "attenuationGroup": "default",
          "attackProperty": {
            "actorGrassSubHurtDelta": 0.5,
            "actorWindSubHurtDelta": 0.0,
            "elementDurability": 100.0,
            "strikeType": "Blunt",
            "attackType": "Melee",
            "GLKMCMDJBIK": 0.0
          },
          "hitPattern": {
            "onHitEffectName": "default",
            "hitImpulseY": "",
            "hitImpulseType": "LV2",
            "hitHaltTimeScale": 0.009999999776482582
          }
        }
      },
      "Atk01": {
        "attackPattern": {
          "$type": "ConfigAttackBox",
          "triggerType": "TriggerNoRepeat",
          "born": {
            "$type": "ConfigBornBySelf",
            "offset": {
              "x": 0.0,
              "y": 1.0,
              "z": 1.0
            }
          },
          "size": {
            "x": 4.0,
            "y": 3.0,
            "z": 4.0
          }
        },
        "attackInfo": {
          "attackTag": "",
          "attenuationTag": "",
          "attenuationGroup": "default",
          "attackProperty": {
            "actorGrassSubHurtDelta": 0.800000011920929,
            "actorWindSubHurtDelta": 0.0,
            "elementType": "Fire",
            "elementDurability": 25.0,
            "strikeType": "Blunt",
            "enBreak": 200.0,
            "attackType": "Melee",
            "GLKMCMDJBIK": 0.0
          },
          "hitPattern": {
            "onHitEffectName": "default",
            "hitImpulseY": "",
            "hitImpulseType": "LV5",
            "hitHaltTimeScale": 0.009999999776482582
          }
        }
      },
      "Atk04": {
        "attackPattern": {
          "$type": "ConfigAttackCircle",
          "triggerType": "TriggerNoRepeat",
          "born": {
            "$type": "ConfigBornBySelf",
            "offset": {
              "x": 0.0,
              "y": 0.0,
              "z": 1.0
            }
          },
          "height": 3.0,
          "fanAngle": 180.0,
          "radius": 3.0
        },
        "attackInfo": {
          "attackTag": "",
          "attenuationTag": "",
          "attenuationGroup": "default",
          "attackProperty": {
            "actorGrassSubHurtDelta": 0.800000011920929,
            "actorWindSubHurtDelta": 0.0,
            "elementType": "Fire",
            "elementDurability": 25.0,
            "strikeType": "Blunt",
            "enBreak": 200.0,
            "attackType": "Melee",
            "GLKMCMDJBIK": 0.0
          },
          "hitPattern": {
            "onHitEffectName": "default",
            "hitImpulseY": "",
            "hitImpulseType": "LV5",
            "hitHaltTimeScale": 0.009999999776482582
          }
        }
      },
      "Atk05": {
        "attackPattern": {
          "$type": "ConfigAttackBox",
          "triggerType": "TriggerNoRepeat",
          "born": {
            "$type": "ConfigBornBySelf",
            "offset": {
              "x": 0.0,
              "y": 1.399999976158142,
              "z": 0.5
            }
          },
          "size": {
            "x": 1.2000000476837158,
            "y": 1.2000000476837158,
            "z": 30.0
          }
        },
        "attackInfo": {
          "attackTag": "",
          "attenuationTag": "",
          "attenuationGroup": "default",
          "attackProperty": {
            "actorGrassSubHurtDelta": 0.6000000238418579,
            "actorWindSubHurtDelta": 0.0,
            "elementType": "Fire",
            "elementDurability": 25.0,
            "strikeType": "Blunt",
            "enBreak": 100.0,
            "attackType": "Melee",
            "GLKMCMDJBIK": 0.0
          },
          "hitPattern": {
            "onHitEffectName": "default",
            "hitImpulseY": "",
            "hitImpulseType": "LV3"
          }
        }
      }
    }
  },
  "abilities": [
    {
      "abilityID": "",
      "abilityName": "Monster_ToothTrap_ShieldManager",
      "abilityOverride": ""
    },
    {
      "abilityID": "",
      "abilityName": "Monster_ToothTrap_ReturnToBorn",
      "abilityOverride": ""
    },
    {
      "abilityID": "",
      "abilityName": "Monster_ToothTrap_Alert",
      "abilityOverride": ""
    },
    {
      "abilityID": "",
      "abilityName": "Monster_ToothTrap_KillGadget",
      "abilityOverride": ""
    },
    {
      "abilityID": "",
      "abilityName": "Monster_ToothTrap_SteerAttack",
      "abilityOverride": ""
    },
    {
      "abilityID": "",
      "abilityName": "Monster_ToothTrap_Attack01",
      "abilityOverride": ""
    },
    {
      "abilityID": "",
      "abilityName": "Monster_ToothTrap_Attack02",
      "abilityOverride": ""
    },
    {
      "abilityID": "",
      "abilityName": "Monster_ToothTrap_Attack03_BS",
      "abilityOverride": ""
    },
    {
      "abilityID": "",
      "abilityName": "Monster_ToothTrap_Attack03",
      "abilityOverride": ""
    },
    {
      "abilityID": "",
      "abilityName": "Monster_ToothTrap_Attack04",
      "abilityOverride": ""
    },
    {
      "abilityID": "",
      "abilityName": "Monster_ToothTrap_Attack05",
      "abilityOverride": ""
    },
    {
      "abilityID": "",
      "abilityName": "Monster_ToothTrap_Blink",
      "abilityOverride": ""
    },
    {
      "abilityID": "",
      "abilityName": "Monster_ToothTrap_Personality",
      "abilityOverride": ""
    }
  ],
  "stateLayers": {
    "defaultLayer": {
      "$type": "GBGJJIIEMBD",
      "layerIndexName": "",
      "CPAANEIJCGD": "",
      "stateIDs": {
        "Born": {
          "$type": "NEDIFAKEGCO",
          "animatorStates": {
            "Born": []
          },
          "canDoSkill": true,
          "canSyncMove": true,
          "resetAnimatorTriggerOnExit": ["DoSkill"]
        },
        "Standby": {
          "$type": "NEDIFAKEGCO",
          "animatorStates": {
            "Standby": []
          },
          "canDoSkill": true,
          "canSyncMove": true,
          "resetAnimatorTriggerOnExit": ["DoSkill"],
          "canSteer": true,
          "autoSteer": true
        },
        "StandbyStatue": {
          "$type": "NEDIFAKEGCO",
          "animatorStates": {
            "StandbyStatue": []
          },
          "canDoSkill": true,
          "canSyncMove": true,
          "addEndure": 0.0,
          "resetAnimatorTriggerOnExit": ["DoSkill"]
        },
        "WalkForward": {
          "$type": "NEDIFAKEGCO",
          "animatorStates": {
            "WalkForward": ["Audio_Monster_ToothTrap_01_WalkForward"]
          },
          "canDoSkill": true,
          "canSyncMove": true,
          "resetAnimatorTriggerOnExit": ["DoSkill"],
          "canSteer": true
        },
        "Weak": {
          "$type": "NEDIFAKEGCO",
          "animatorStates": {
            "Weak": [
              "Audio_Monster_ToothTrap_01_Attack02_BS",
              "Monster_Golem_ToothTrap_Weak"
            ]
          },
          "canSyncMove": true,
          "addEndure": 9.999999747378752e-5,
          "resetAnimatorTriggerOnExit": ["BeHit", "DoSkill"]
        },
        "Die": {
          "$type": "NEDIFAKEGCO",
          "animatorStates": {
            "Die": ["Monster_Golem_ToothTrap_Die"]
          },
          "resetAnimatorTriggerOnEnter": ["DoSkill"]
        },
        "AlertTurn": {
          "$type": "NEDIFAKEGCO",
          "animatorStates": {
            "AlertTurn": ["Audio_Monster_ToothTrap_01_Standby"],
            "Personality_AlertTurn": ["Audio_Monster_ToothTrap_01_Standby"]
          },
          "resetAnimatorTriggerOnExit": ["BeHit", "DoSkill"]
        },
        "AlertSleep": {
          "$type": "NEDIFAKEGCO",
          "animatorStates": {
            "AlertSleep": [
              "Monster_Golem_ToothTrap_StandbySleepAlert",
              "Audio_Monster_ToothTrap_01_AlertSleep"
            ]
          },
          "resetAnimatorTriggerOnExit": ["BeHit", "DoSkill"]
        },
        "AlertNormal": {
          "$type": "NEDIFAKEGCO",
          "animatorStates": {
            "Personality_Alert": [
              "Monster_Golem_ToothTrap_StandbyAlert",
              "Audio_Monster_ToothTrap_01_AlertNormal"
            ],
            "AlertNormal": [
              "Monster_Golem_ToothTrap_StandbyAlert",
              "Audio_Monster_ToothTrap_01_AlertNormal"
            ]
          },
          "resetAnimatorTriggerOnExit": ["BeHit", "DoSkill"]
        },
        "Attack01": {
          "$type": "NEDIFAKEGCO",
          "animatorStates": {
            "Attack01": [
              "Audio_Monster_ToothTrap_01_Attack01",
              "Monster_Golem_ToothTrap_Attack01",
              "Audio_Monster_ToothTrap_01_Attack01_AS"
            ]
          },
          "cullingModelAlwaysAnimate": true,
          "resetAnimatorTriggerOnExit": ["BeHit", "DoSkill"],
          "canSteer": true
        },
        "Attack02_Hit_BS": {
          "$type": "NEDIFAKEGCO",
          "animatorStates": {
            "Attack02_Hit_BS": [
              "Monster_Golem_ToothTrap_Attack02_BS",
              "Audio_Monster_ToothTrap_01_Attack02_Loop"
            ]
          },
          "cullingModelAlwaysAnimate": true,
          "addEndure": 9.999999747378752e-6,
          "resetAnimatorTriggerOnExit": ["BeHit", "DoSkill"],
          "canSteer": true
        },
        "Attack02_Hit_Loop": {
          "$type": "NEDIFAKEGCO",
          "animatorStates": {
            "Attack02_Hit_Loop": ["Audio_Monster_ToothTrap_01_Attack02_Loop"]
          },
          "cullingModelAlwaysAnimate": true,
          "addEndure": 9.999999747378752e-6,
          "resetAnimatorTriggerOnExit": ["BeHit", "DoSkill"],
          "canSteer": true
        },
        "Attack02_Hit_AS": {
          "$type": "NEDIFAKEGCO",
          "animatorStates": {
            "Attack02_Hit_AS": [
              "Audio_Monster_ToothTrap_01_Attack02_AS2",
              "Monster_Golem_ToothTrap_Attack02_AS",
              "Audio_Monster_ToothTrap_01_Attack02_AS1"
            ]
          },
          "cullingModelAlwaysAnimate": true,
          "addEndure": 9.999999747378752e-6,
          "resetAnimatorTriggerOnExit": ["BeHit", "DoSkill"],
          "canSteer": true
        },
        "Attack03": {
          "$type": "NEDIFAKEGCO",
          "animatorStates": {
            "Attack03": [
              "Monster_Golem_ToothTrap_Attack03",
              "Audio_Monster_ToothTrap_01_Attack03"
            ]
          },
          "cullingModelAlwaysAnimate": true,
          "resetAnimatorTriggerOnExit": ["BeHit", "DoSkill"],
          "canSteer": true
        },
        "Attack04_BS": {
          "$type": "NEDIFAKEGCO",
          "animatorStates": {
            "Attack04_BS": [
              "Monster_Golem_ToothTrap_Attack04_BS",
              "Audio_Monster_ToothTrap_01_Attack04"
            ]
          },
          "cullingModelAlwaysAnimate": true,
          "resetAnimatorTriggerOnExit": ["BeHit", "DoSkill"],
          "canSteer": true
        },
        "Attack04_AS": {
          "$type": "NEDIFAKEGCO",
          "animatorStates": {
            "Attack04_AS": [
              "Monster_Golem_ToothTrap_Attack04",
              "Audio_Monster_ToothTrap_01_Attack04_AS"
            ]
          },
          "cullingModelAlwaysAnimate": true,
          "resetAnimatorTriggerOnExit": ["BeHit", "DoSkill"],
          "canSteer": true
        },
        "Attack05_BS": {
          "$type": "NEDIFAKEGCO",
          "animatorStates": {
            "Attack05_BS": [
              "Audio_Monster_ToothTrap_01_Attack05_BS",
              "Monster_Golem_ToothTrap_Attack05_BS"
            ]
          },
          "cullingModelAlwaysAnimate": true,
          "resetAnimatorTriggerOnExit": ["BeHit", "DoSkill"],
          "canSteer": true
        },
        "Attack05_Loop": {
          "$type": "NEDIFAKEGCO",
          "animatorStates": {
            "Attack05_Loop": ["Monster_Golem_ToothTrap_Attack05"]
          },
          "cullingModelAlwaysAnimate": true,
          "resetAnimatorTriggerOnExit": ["BeHit", "DoSkill"],
          "canSteer": true
        },
        "Attack05_AS": {
          "$type": "NEDIFAKEGCO",
          "animatorStates": {
            "Attack05_AS": ["Audio_Monster_ToothTrap_01_Attack05_AS"]
          },
          "cullingModelAlwaysAnimate": true,
          "resetAnimatorTriggerOnExit": ["BeHit", "DoSkill"],
          "canSteer": true
        },
        "Personality_BS": {
          "$type": "NEDIFAKEGCO",
          "animatorStates": {
            "Personality_BS": ["Audio_Monster_ToothTrap_01_Personality_BS"]
          },
          "resetAnimatorTriggerOnExit": ["BeHit", "DoSkill"]
        },
        "Personality_Loop": {
          "$type": "NEDIFAKEGCO",
          "animatorStates": {
            "Personality_Loop": ["Audio_Monster_ToothTrap_01_Personality_Loop"]
          },
          "resetAnimatorTriggerOnExit": ["BeHit", "DoSkill"]
        },
        "Personality_AS": {
          "$type": "NEDIFAKEGCO",
          "animatorStates": {
            "Personality_AS": ["Audio_Monster_ToothTrap_01_Personality_AS"]
          },
          "resetAnimatorTriggerOnExit": ["BeHit", "DoSkill"]
        },
        "Blink": {
          "$type": "NEDIFAKEGCO",
          "animatorStates": {
            "Blink": [
              "Audio_Monster_ToothTrap_01_Blink",
              "Monster_Golem_ToothTrap_Blink"
            ]
          },
          "cullingModelAlwaysAnimate": true,
          "resetAnimatorTriggerOnExit": ["BeHit", "DoSkill"],
          "canSteer": true
        },
        "BlinkL": {
          "$type": "NEDIFAKEGCO",
          "animatorStates": {
            "BlinkL": [
              "Audio_Monster_ToothTrap_01_Blink",
              "Monster_Golem_ToothTrap_Blink"
            ]
          },
          "cullingModelAlwaysAnimate": true,
          "canSteer": true
        },
        "BlinkR": {
          "$type": "NEDIFAKEGCO",
          "animatorStates": {
            "BlinkR": [
              "Audio_Monster_ToothTrap_01_Blink",
              "Monster_Golem_ToothTrap_Blink"
            ]
          },
          "cullingModelAlwaysAnimate": true,
          "resetAnimatorTriggerOnExit": ["BeHit", "DoSkill"],
          "canSteer": true
        }
      }
    }
  },
  "billboard": {
    "$type": "DNGNMAJBCNP",
    "attachPoint": "BillboardAttach",
    "offsetType": "Character",
    "radiusOffset": 0.4000000059604645,
    "showHPBar": true,
    "size": "Grand"
  },
  "initialPoses": {
    "Default": {},
    "Statue": {
      "initialPoseID": 111,
      "initialPoseParams": {
        "boolParams": {
          "Statue": "true"
        }
      }
    },
    "NoSensingStatue": {
      "initialPoseID": 121,
      "initialPoseParams": {
        "boolParams": {
          "BlindStatue": "true"
        }
      }
    }
  },
  "aibeta": {
    "enable": true,
    "sensing": {
      "settings": {
        "DefaultSetting": {
          "viewRange": 12.0,
          "feelRange": 8.0
        },
        "LowSensing": {
          "enableVision": false,
          "feelRange": 8.0
        },
        "ComatSensing": {
          "viewPanoramic": true,
          "feelRange": 30.0
        },
        "NoSensing": {
          "enableVision": false,
          "hearAttractionRange": 0.0,
          "feelRange": 0.0
        }
      },
      "templates": {
        "DefaultTemplate": {
          "DefaultPoses": "DefaultSetting",
          "111": "LowSensing",
          "121": "NoSensing",
          "201": "ComatSensing",
          "202": "ComatSensing",
          "203": "ComatSensing"
        },
        "NeverCombatTemplate": {
          "DefaultPoses": "NoSensing",
          "111": "NoSensing",
          "121": "NoSensing",
          "201": "ComatSensing",
          "202": "ComatSensing",
          "203": "ComatSensing"
        }
      }
    },
    "neurons": {
      "DefaultSetting": ["HIT"],
      "NeverCombat": []
    },
    "threat": {
      "GHIJMOKOLMB": "",
      "clearThreatTargetDistance": 60.0,
      "clearThreatEdgeDistance": 25.0,
      "clearThreatByLostPath": true,
      "clearThreatByTargetOutOfZone": true,
      "clearThreatTimerByDistance": 2.0,
      "viewAttenuation": [
        {
          "x": 10.0,
          "y": 2.0
        },
        {
          "x": 15.0,
          "y": 0.800000011920929
        },
        {
          "x": 20.0,
          "y": 0.5
        },
        {
          "x": 25.0,
          "y": 0.30000001192092896
        },
        {
          "x": 30.0,
          "y": 0.20000000298023224
        }
      ],
      "resistTauntLevel": "Monster_TauntLevel_3"
    },
    "defendArea": {
      "defendRange": 30.0
    },
    "skillGroupCDConfigs": [
      {
        "skillGroupCDID": 1,
        "skillGroupCDTime": 10.0
      }
    ],
    "skills": {
      "101": {
        "name": "OnAlert",
        "castCondition": {
          "pose": [111, 121]
        },
        "publicCDGroup": "",
        "ignoreGCD": true,
        "triggerGCD": false,
        "HHAGODJIAPE": "",
        "stateIDs": ["AlertSleep"],
        "skillQueryingTime": 3.0,
        "flagTargetReachable": "11",
        "flagSelfOnTemplateCollider": "01",
        "flagSelfInZone": "10",
        "flagTargetInZone": "11"
      },
      "102": {
        "name": "OnAlert",
        "skillType": "OnAlert",
        "canUseCombatSkillCondition": true,
        "castCondition": {
          "pose": [101],
          "maxTargetAngleXZ": 90.0
        },
        "publicCDGroup": "",
        "ignoreGCD": true,
        "triggerGCD": false,
        "HHAGODJIAPE": "",
        "stateIDs": ["AlertNormal"],
        "skillQueryingTime": 3.0,
        "flagTargetReachable": "11",
        "flagSelfOnTemplateCollider": "01",
        "flagSelfInZone": "10",
        "flagTargetInZone": "11"
      },
      "103": {
        "name": "OnAlert",
        "skillType": "OnAlert",
        "canUseCombatSkillCondition": true,
        "castCondition": {
          "pose": [101],
          "minTargetAngleXZ": 90.0
        },
        "publicCDGroup": "",
        "ignoreGCD": true,
        "triggerGCD": false,
        "HHAGODJIAPE": "",
        "stateIDs": ["AlertTurn", "AlertNormal"],
        "skillQueryingTime": 3.0,
        "flagTargetReachable": "11",
        "flagSelfOnTemplateCollider": "01",
        "flagSelfInZone": "10",
        "flagTargetInZone": "11"
      },
      "201": {
        "name": "Personality",
        "skillType": "Free",
        "castCondition": {
          "pose": [101]
        },
        "cd": 20.0,
        "cdUpperRange": 10.0,
        "initialCD": 2.5,
        "initialCDUpperRange": 5.0,
        "publicCDGroup": "",
        "triggerGCD": false,
        "skillGroupCDID": 3,
        "HHAGODJIAPE": "",
        "stateIDs": [
          "AlertTurn",
          "Personality_BS",
          "Personality_Loop",
          "Personality_AS",
          "AlertNormal"
        ],
        "flagTargetReachable": "10",
        "flagSelfOnTemplateCollider": "01",
        "flagSelfInZone": "10",
        "flagTargetInZone": "11"
      },
      "601": {
        "name": "Attack01",
        "combatSkillType": "MeleeAttack",
        "castCondition": {
          "pose": [201],
          "pickRangeMax": 5.0
        },
        "cd": 4.0,
        "cdUpperRange": 6.0,
        "initialCD": 3.0,
        "publicCDGroup": "",
        "HHAGODJIAPE": "",
        "stateIDs": ["Attack01"],
        "skillQueryingTime": 3.0,
        "flagTargetReachable": "11",
        "flagSelfOnTemplateCollider": "01",
        "flagSelfInZone": "11",
        "flagTargetInZone": "11"
      },
      "621": {
        "name": "Attack03",
        "combatSkillType": "MeleeAttack",
        "castCondition": {
          "pose": [201],
          "pickRangeMax": 25.0
        },
        "cd": 8.0,
        "cdUpperRange": 6.0,
        "initialCD": 3.0,
        "publicCDGroup": "",
        "skillGroupCDID": 1,
        "HHAGODJIAPE": "",
        "stateIDs": ["Attack03"],
        "skillQueryingTime": 3.0,
        "flagTargetReachable": "11",
        "flagSelfOnTemplateCollider": "01",
        "flagSelfInZone": "11",
        "flagTargetInZone": "11"
      },
      "631": {
        "name": "Attack04",
        "combatSkillType": "MeleeAttack",
        "castCondition": {
          "pose": [201],
          "pickRangeMin": 12.0,
          "pickRangeMax": 40.0
        },
        "cd": 8.0,
        "cdUpperRange": 7.0,
        "publicCDGroup": "",
        "OHCPFFIDLGO": ["ToothTrap_MagicField"],
        "HHAGODJIAPE": "",
        "stateIDs": ["Attack04_BS", "Attack04_AS"],
        "skillQueryingTime": 3.0,
        "flagTargetReachable": "11",
        "flagSelfOnTemplateCollider": "01",
        "flagSelfInZone": "11",
        "flagTargetInZone": "11"
      },
      "641": {
        "name": "Attack05",
        "combatSkillType": "MeleeAttack",
        "castCondition": {
          "pose": [201],
          "pickRangeMin": 5.0,
          "pickRangeMax": 25.0
        },
        "cd": 20.0,
        "cdUpperRange": 7.0,
        "initialCD": 5.0,
        "initialCDUpperRange": 4.0,
        "publicCDGroup": "",
        "OHCPFFIDLGO": ["ToothTrap_LaserAtk"],
        "HHAGODJIAPE": "",
        "stateIDs": ["Attack05_BS", "Attack05_Loop", "Attack05_AS"],
        "skillQueryingTime": 3.0,
        "flagTargetReachable": "11",
        "flagSelfOnTemplateCollider": "01",
        "flagSelfInZone": "11",
        "flagTargetInZone": "11"
      },
      "651": {
        "name": "Blink",
        "combatSkillType": "MeleeAttack",
        "priority": 8,
        "castCondition": {
          "pose": [201],
          "maxTargetAngleXZ": 60.0,
          "pickRangeMin": 12.0,
          "pickRangeMax": 40.0
        },
        "cd": 15.0,
        "cdUpperRange": 7.0,
        "initialCD": 5.0,
        "initialCDUpperRange": 4.0,
        "publicCDGroup": "",
        "OHCPFFIDLGO": ["ToothTrap_Blink"],
        "ignoreGCD": true,
        "triggerGCD": false,
        "HHAGODJIAPE": "",
        "stateIDs": ["Blink"],
        "skillQueryingTime": 3.0,
        "flagTargetReachable": "11",
        "flagSelfOnTemplateCollider": "01",
        "flagSelfInZone": "11",
        "flagTargetInZone": "11"
      },
      "652": {
        "name": "Blink",
        "combatSkillType": "MeleeAttack",
        "priority": 8,
        "castCondition": {
          "pose": [201],
          "maxTargetAngleXZ": 60.0,
          "pickRangeMin": 4.0,
          "pickRangeMax": 10.0
        },
        "cd": 10.0,
        "cdUpperRange": 7.0,
        "initialCD": 5.0,
        "initialCDUpperRange": 4.0,
        "publicCDGroup": "",
        "OHCPFFIDLGO": ["ToothTrap_Blink"],
        "ignoreGCD": true,
        "triggerGCD": false,
        "HHAGODJIAPE": "",
        "stateIDs": ["BlinkL", "BlinkR"],
        "skillQueryingTime": 3.0,
        "flagTargetReachable": "11",
        "flagSelfOnTemplateCollider": "01",
        "flagSelfInZone": "11",
        "flagTargetInZone": "11"
      }
    },
    "birdCirclingTactic": [
      {
        "$type": "KACCHOLJDNK",
        "enable": true,
        "condition": {
          "pose": [201]
        },
        "JMCOBEPDIGM": {
          "ANLAAGAMIKF": 1,
          "KHDFDAAAPEI": 20.0,
          "HKJODDGJPHA": 50.0,
          "GGEBMFHFBPO": 7.0,
          "KFFGCIMPNMJ": 10.0,
          "MNPDDAKDHGK": ""
        }
      },
      {
        "$type": "NNJKLGNPMNN",
        "enable": true,
        "JMCOBEPDIGM": {
          "ANLAAGAMIKF": 1,
          "NBENNEKDIIA": 1.0,
          "MNPDDAKDHGK": "",
          "GJDMDHIBCME": ""
        }
      },
      {
        "$type": "FPELBIJFGCE",
        "enable": true,
        "condition": {
          "pose": [101]
        },
        "JMCOBEPDIGM": {
          "NBENNEKDIIA": 1.0,
          "KPNDPKIOPJM": 4.0,
          "PINAFKEDDLL": 2.0,
          "ANMPOPEBDIA": 10.0,
          "GMJFIMFFOEL": 4.0,
          "CHCPFDMADEI": 8.0,
          "MNPDDAKDHGK": ""
        }
      }
    ]
  },
  "inputKeys": [
    {
      "keyID": 601,
      "inputKeyCode": 257,
      "abilityName": ""
    },
    {
      "keyID": 611,
      "inputKeyCode": 258,
      "abilityName": ""
    },
    {
      "keyID": 612,
      "inputKeyCode": 259,
      "abilityName": ""
    },
    {
      "keyID": 621,
      "inputKeyCode": 260,
      "abilityName": ""
    },
    {
      "keyID": 631,
      "inputKeyCode": 261,
      "abilityName": ""
    },
    {
      "keyID": 641,
      "inputKeyCode": 262,
      "abilityName": ""
    },
    {
      "keyID": 101,
      "inputKeyCode": 263,
      "abilityName": ""
    }
  ],
  "move": {
    "$type": "IPNMJMHDMPF",
    "velocityForce": {
      "excludeForces": ["RetreatAirType"]
    },
    "facingMove": "FourDirection",
    "destroyRockWhenInit": true,
    "yawSpeedRatio": 0.800000011920929,
    "rotationModifyExtra": true,
    "PKHOMJHFAEE": "RootNode"
  }
}
