{
  "common": {
    "effectAttachShape": {
      "$type": "FJNPJANPGGC",
      "mesh": "EffectMesh"
    },
    "mass": 10000.0,
    "height": 2.5,
    "modelHeight": 4.0,
    "viewSize": 3.0,
    "affectedByWorld": true,
    "checkInSurface": true,
    "scale": 0.699999988079071,
    "shouldPauseAnimatorBeforeReady": true,
    "useGrassDisplacement": true,
    "reconnectSupport": true,
    "recoverByInitPose": true
  },
  "headControl": {
    "$type": "KPIPDEBDPIH",
    "useHeadControl": true,
    "maxYawDegree": 10.0,
    "maxPitchDegree": 20.0,
    "animStates": [
      "NormalIdle/Standby",
      "NormalMove/WalkForward",
      "NormalMove/WalkBack",
      "NormalMove/WalkRight",
      "NormalMove/WalkLeft",
      "NormalMove/Run",
      "TurnLeft/TurnLeft_BS",
      "TurnLeft/TurnLeft_AS",
      "TurnRight/TurnRight_BS",
      "TurnRight/TurnRight_AS"
    ]
  },
  "model": {
    "bornEffect": "",
    "attachEffect": "",
    "BKPFGNPLDNJ": ""
  },
  "dither": {
    "showDitherDuration": 2.0
  },
  "combat": {
    "property": {
      "endureType": "Monster_Boss_Other",
      "weight": 300.0
    },
    "beHit": {
      "hitBloodEffect": ""
    },
    "combatLock": {
      "lockShape": "CircleLockEnemy",
      "lockType": "Avatar&Monster_Lv4"
    },
    "die": {
      "hasAnimatorDie": true,
      "dieEndTime": 1.5,
      "dieForceDisappearTime": 2.5,
      "dieDisappearEffect": "Eff_Death_Common",
      "dieShaderData": "MonsterDie",
      "muteHitBox": true,
      "dieDenyLockOn": true,
      "dieIsGhostToEnemy": true,
      "dieIgnoreTriggerBullet": true,
      "muteBillboard": true,
      "mutePushCollider": true
    },
    "animEvents": {
      "RushAtk": {
        "attackPattern": {
          "$type": "ConfigAttackBox",
          "triggerType": "TriggerNoRepeat",
          "born": {
            "$type": "ConfigBornBySelf",
            "offset": {
              "x": 0.0,
              "y": -1.0,
              "z": 0.0
            }
          },
          "size": {
            "x": 4.0,
            "y": 3.0,
            "z": 6.0
          }
        },
        "attackInfo": {
          "attackTag": "",
          "attenuationTag": "",
          "attenuationGroup": "default",
          "attackProperty": {
            "actorGrassSubHurtDelta": 1.0,
            "actorWindSubHurtDelta": 0.0,
            "elementType": "Water",
            "elementDurability": 25.0,
            "strikeType": "Blunt",
            "enBreak": 50.0,
            "GLKMCMDJBIK": 0.0
          },
          "hitPattern": {
            "onHitEffectName": "default",
            "hitImpulseY": "",
            "hitImpulseType": "LV3"
          }
        }
      },
      "NormalAtk01": {
        "attackPattern": {
          "$type": "ConfigAttackCircle",
          "triggerType": "TriggerNoRepeat",
          "born": {
            "$type": "ConfigBornBySelf",
            "offset": {
              "x": 0.0,
              "y": -1.0,
              "z": 1.7000000476837158
            }
          },
          "height": 4.0,
          "fanAngle": 270.0,
          "radius": 3.5
        },
        "attackInfo": {
          "attackTag": "",
          "attenuationTag": "",
          "attenuationGroup": "default",
          "attackProperty": {
            "actorGrassSubHurtDelta": 0.4000000059604645,
            "actorWindSubHurtDelta": 0.0,
            "elementType": "Water",
            "elementDurability": 25.0,
            "strikeType": "Blunt",
            "enBreak": 50.0,
            "GLKMCMDJBIK": 0.0
          },
          "hitPattern": {
            "onHitEffectName": "default",
            "hitImpulseY": "",
            "hitImpulseType": "LV3"
          }
        }
      },
      "NormalAtk02": {
        "attackPattern": {
          "$type": "ConfigAttackCircle",
          "triggerType": "TriggerNoRepeat",
          "born": {
            "$type": "ConfigBornBySelf",
            "offset": {
              "x": 0.0,
              "y": -1.0,
              "z": 1.7000000476837158
            }
          },
          "height": 4.0,
          "fanAngle": 270.0,
          "radius": 3.5
        },
        "attackInfo": {
          "attackTag": "",
          "attenuationTag": "",
          "attenuationGroup": "default",
          "attackProperty": {
            "actorGrassSubHurtDelta": 0.6000000238418579,
            "actorWindSubHurtDelta": 0.0,
            "elementType": "Water",
            "elementDurability": 25.0,
            "strikeType": "Blunt",
            "enBreak": 50.0,
            "GLKMCMDJBIK": 0.0
          },
          "hitPattern": {
            "onHitEffectName": "default",
            "hitImpulseY": "",
            "hitImpulseType": "LV3"
          }
        }
      },
      "NormalAtk03": {
        "attackPattern": {
          "$type": "ConfigAttackCircle",
          "triggerType": "TriggerNoRepeat",
          "born": {
            "$type": "ConfigBornBySelf",
            "offset": {
              "x": -0.20000000298023224,
              "y": -1.0,
              "z": 3.0
            }
          },
          "height": 4.0,
          "radius": 4.0
        },
        "attackInfo": {
          "attackTag": "",
          "attenuationTag": "",
          "attenuationGroup": "default",
          "attackProperty": {
            "actorGrassSubHurtDelta": 1.0,
            "actorWindSubHurtDelta": 0.0,
            "elementType": "Water",
            "elementDurability": 25.0,
            "strikeType": "Blunt",
            "enBreak": 200.0,
            "GLKMCMDJBIK": 0.0
          },
          "hitPattern": {
            "onHitEffectName": "default",
            "hitImpulseY": "",
            "hitImpulseType": "LV5"
          },
          "forceCameraShake": true,
          "cameraShake": {
            "shakeType": "CustomVector",
            "shakeRange": 0.05999999865889549,
            "shakeTime": 0.23999999463558197,
            "shakeDir": {
              "y": -1.0
            }
          }
        }
      },
      "TailMeleeAttack": {
        "attackPattern": {
          "$type": "ConfigAttackCircle",
          "triggerType": "TriggerNoRepeat",
          "born": {
            "$type": "ConfigBornBySelf",
            "offset": {
              "x": 0.0,
              "y": -0.5,
              "z": 0.0
            }
          },
          "height": 3.0,
          "radius": 5.0
        },
        "attackInfo": {
          "attackTag": "",
          "attenuationTag": "",
          "attenuationGroup": "default",
          "attackProperty": {
            "actorGrassSubHurtDelta": 0.5,
            "actorWindSubHurtDelta": 0.0,
            "elementType": "Water",
            "elementDurability": 25.0,
            "strikeType": "Blunt",
            "enBreak": 50.0,
            "GLKMCMDJBIK": 0.0
          },
          "hitPattern": {
            "onHitEffectName": "default",
            "hitImpulseY": "",
            "hitImpulseType": "LV3"
          }
        }
      }
    }
  },
  "abilities": [
    {
      "abilityID": "",
      "abilityName": "Monster_Drake_DeepSea_JumpAttack",
      "abilityOverride": ""
    },
    {
      "abilityID": "",
      "abilityName": "Monster_Drake_PushCollider_Switch",
      "abilityOverride": ""
    },
    {
      "abilityID": "",
      "abilityName": "Monster_Drake_DeepSea_Water_Run",
      "abilityOverride": ""
    },
    {
      "abilityID": "",
      "abilityName": "Monster_Drake_DeepSea_FireWaterBall_Triple_SP",
      "abilityOverride": ""
    },
    {
      "abilityID": "",
      "abilityName": "Monster_Drake_DeepSea_FireWaterBall_Once_SP",
      "abilityOverride": ""
    },
    {
      "abilityID": "",
      "abilityName": "Monster_Drake_DeepSea_MagicWaterRing_SP",
      "abilityOverride": ""
    },
    {
      "abilityID": "",
      "abilityName": "Monster_Drake_DeepSea_Steer_SP",
      "abilityOverride": ""
    },
    {
      "abilityID": "",
      "abilityName": "Monster_Drake_DeepSea_FreezeSystem_SP",
      "abilityOverride": ""
    },
    {
      "abilityID": "",
      "abilityName": "Monster_Drake_DeepSea_MagicWaterRing_HPHandler_SP",
      "abilityOverride": ""
    }
  ],
  "stateLayers": {
    "defaultLayer": {
      "$type": "GBGJJIIEMBD",
      "layerIndexName": "",
      "CPAANEIJCGD": "",
      "stateIDs": {
        "NormalIdle": {
          "$type": "NEDIFAKEGCO",
          "animatorStates": {
            "Standby": [],
            "Born": []
          },
          "canDoSkill": true,
          "canSyncMove": true,
          "resetAnimatorTriggerOnExit": ["DoSkill"]
        },
        "Walk_BS": {
          "$type": "NEDIFAKEGCO",
          "animatorStates": {
            "WalkForward_BS": [
              "Monster_Drake_DeepSea_Water_RushBSEffect",
              "Audio_Monster_Drake_Deepsea_Water_WalkForward_BS"
            ]
          },
          "canSyncMove": true,
          "resetAnimatorTriggerOnExit": ["DoSkill"],
          "canSteer": true
        },
        "Walk_AS": {
          "$type": "NEDIFAKEGCO",
          "animatorStates": {
            "WalkForward_AS": [
              "Monster_Drake_DeepSea_Water_RushASEffect",
              "Audio_Monster_Drake_Deepsea_Water_WalkForward_AS"
            ]
          },
          "canSyncMove": true,
          "resetAnimatorTriggerOnExit": ["DoSkill"],
          "canSteer": true
        },
        "NormalMove": {
          "$type": "NEDIFAKEGCO",
          "animatorStates": {
            "WalkForward_Loop": []
          },
          "canDoSkill": true,
          "canSyncMove": true,
          "resetAnimatorTriggerOnExit": ["DoSkill"],
          "canSteer": true
        },
        "WalkFree": {
          "$type": "NEDIFAKEGCO",
          "animatorStates": {
            "WalkFree": ["Audio_Monster_Drake_Deepsea_Common_WalkFree"]
          },
          "canDoSkill": true,
          "canSyncMove": true,
          "resetAnimatorTriggerOnExit": ["DoSkill"],
          "canSteer": true
        },
        "Turn": {
          "$type": "NEDIFAKEGCO",
          "animatorStates": {
            "Turn": ["Audio_Monster_Drake_Deepsea_Common_Turn"]
          },
          "canDoSkill": true,
          "canSyncMove": true,
          "resetAnimatorTriggerOnExit": ["DoSkill"]
        },
        "Turn2": {
          "$type": "NEDIFAKEGCO",
          "animatorStates": {
            "Turn2": ["Audio_Monster_Drake_Deepsea_Common_Turn"]
          },
          "canDoSkill": true,
          "canSyncMove": true,
          "resetAnimatorTriggerOnExit": ["DoSkill"]
        },
        "Turn3": {
          "$type": "NEDIFAKEGCO",
          "animatorStates": {
            "Turn3": ["Audio_Monster_Drake_Deepsea_Common_Turn"]
          },
          "canDoSkill": true,
          "canSyncMove": true,
          "resetAnimatorTriggerOnExit": ["DoSkill"]
        },
        "BeHit": {
          "$type": "NEDIFAKEGCO",
          "animatorStates": {
            "Hit_L": ["Audio_Monster_Drake_Deepsea_Common_Hit_L"],
            "Hit_H": ["Audio_Monster_Drake_Deepsea_Common_Hit_H"]
          },
          "resetAnimatorTriggerOnEnter": ["BeHit"],
          "resetAnimatorTriggerOnExit": ["DoSkill"]
        },
        "BeHitThrow": {
          "$type": "NEDIFAKEGCO",
          "animatorStates": {
            "HitThrow": [],
            "HitThrowDrop": [],
            "HitThrowToGround": ["Audio_Monster_Drake_Deepsea_Common_AirDie"]
          },
          "resetAnimatorTriggerOnEnter": ["BeHit", "HitAir2HitDrop"],
          "resetAnimatorTriggerOnExit": ["DoSkill"]
        },
        "HitToWeak": {
          "$type": "NEDIFAKEGCO",
          "animatorStates": {
            "HitToWeak_ToAir": [],
            "HitToWeak_ToGround": [],
            "HitToWeak_GetUp": []
          },
          "resetAnimatorTriggerOnEnter": ["HitToWeak"],
          "resetAnimatorTriggerOnExit": ["BeHit", "DoSkill"]
        },
        "Struggle": {
          "$type": "NEDIFAKEGCO",
          "animatorStates": {
            "Struggle": []
          },
          "resetAnimatorTriggerOnEnter": ["BeHit", "HitAir2HitDrop"],
          "resetAnimatorTriggerOnExit": ["DoSkill"]
        },
        "Die": {
          "$type": "NEDIFAKEGCO",
          "animatorStates": {
            "Die_01": ["Audio_Monster_Drake_Deepsea_Common_Die_01"],
            "Die_02": ["Audio_Monster_Drake_Deepsea_Common_Hit_H"],
            "SwimDie": [],
            "SwimDie_AS": []
          },
          "resetAnimatorTriggerOnEnter": ["DoSkill", "HitToWeak"]
        },
        "Die_RagDoll": {
          "$type": "NEDIFAKEGCO",
          "animatorStates": {
            "Die_RagDoll_01": [],
            "Die_RagDoll_02": [
              "Audio_Monster_Drake_Deepsea_Common_Hit_H_Small"
            ],
            "AirDie": ["Audio_Monster_Drake_Deepsea_Common_AirDie"]
          }
        },
        "Alert": {
          "$type": "NEDIFAKEGCO",
          "animatorStates": {
            "Alert": ["Audio_Monster_Drake_Deepsea_Common_Alert_Small"]
          },
          "resetAnimatorTriggerOnExit": ["BeHit", "DoSkill"]
        },
        "NormalAtk01": {
          "$type": "NEDIFAKEGCO",
          "animatorStates": {
            "NormalAtk01": [
              "Monster_Drake_DeepSea_MeleeAttack1_SP",
              "Audio_Monster_Drake_Deepsea_Common_NormalAtk01"
            ]
          },
          "resetAnimatorTriggerOnExit": ["BeHit", "DoSkill"],
          "canSteer": true
        },
        "NormalAtk02": {
          "$type": "NEDIFAKEGCO",
          "animatorStates": {
            "NormalAtk02": [
              "Monster_Drake_DeepSea_MeleeAttack2_SP",
              "Audio_Monster_Drake_Deepsea_Common_NormalAtk02"
            ]
          },
          "resetAnimatorTriggerOnExit": ["BeHit", "DoSkill"],
          "canSteer": true
        },
        "NormalAtk03": {
          "$type": "NEDIFAKEGCO",
          "animatorStates": {
            "NormalAtk03": [
              "Monster_Drake_DeepSea_MeleeAttack3_SP",
              "Audio_Monster_Drake_Deepsea_Common_NormalAtk03"
            ]
          },
          "resetAnimatorTriggerOnExit": ["BeHit", "DoSkill"],
          "canSteer": true
        },
        "TailAttack": {
          "$type": "NEDIFAKEGCO",
          "animatorStates": {
            "TailAttack": [
              "Monster_Drake_DeepSea_Water_TailMeleeAttack_SP",
              "Audio_Monster_Drake_Deepsea_Water_TailAttackWater"
            ]
          },
          "resetAnimatorTriggerOnExit": ["BeHit", "DoSkill"],
          "canSteer": true
        },
        "MagicBallTriple": {
          "$type": "NEDIFAKEGCO",
          "animatorStates": {
            "MagicBallTriple": [
              "Monster_Drake_DeepSea_MagicBallWater_Triple_SP",
              "Audio_Monster_Drake_Deepsea_Water_MagicBallAttack_Small"
            ]
          },
          "resetAnimatorTriggerOnExit": ["BeHit", "DoSkill"],
          "canSteer": true
        },
        "MagicBallLong": {
          "$type": "NEDIFAKEGCO",
          "animatorStates": {
            "MagicBallLong": ["Monster_Drake_DeepSea_MagicBallWater_Long_SP"]
          },
          "resetAnimatorTriggerOnExit": ["BeHit", "DoSkill"],
          "canSteer": true
        },
        "MagicRing": {
          "$type": "NEDIFAKEGCO",
          "animatorStates": {
            "MagicRing": [
              "Monster_Drake_DeepSea_MagicRing_SP",
              "Audio_Drake_DeepSea_MagicRing"
            ]
          },
          "resetAnimatorTriggerOnExit": ["BeHit", "DoSkill"],
          "canSteer": true
        }
      }
    }
  },
  "billboard": {
    "$type": "DNGNMAJBCNP",
    "attachPoint": "BillboardAttach",
    "offset": {
      "y": 0.30000001192092896,
      "z": 0.5
    },
    "offsetType": "Character",
    "radiusOffset": 0.6000000238418579,
    "size": "Grand"
  },
  "initialPoses": {
    "Default": {}
  },
  "aibeta": {
    "enable": true,
    "sensing": {
      "settings": {
        "DefaultSetting": {
          "feelRange": 10.0
        },
        "HighAlert": {
          "viewRange": 50.0,
          "feelRange": 12.0
        }
      },
      "templates": {
        "DefaultTemplate": {
          "DefaultPoses": "DefaultSetting"
        },
        "HighAlertTemplate": {
          "DefaultPoses": "HighAlert"
        }
      }
    },
    "neurons": {
      "DefaultSetting": ["HIT"]
    },
    "threat": {
      "GHIJMOKOLMB": "",
      "clearThreatByLostPath": true,
      "clearThreatByTargetOutOfZone": true,
      "viewAttenuation": [
        {
          "x": 15.0,
          "y": 2.0
        },
        {
          "x": 20.0,
          "y": 0.800000011920929
        },
        {
          "x": 25.0,
          "y": 0.5
        },
        {
          "x": 30.0,
          "y": 0.30000001192092896
        },
        {
          "x": 40.0,
          "y": 0.20000000298023224
        }
      ],
      "resistTauntLevel": "Monster_TauntLevel_4"
    },
    "defendArea": {
      "defendRange": 50.0
    },
    "profiling": {},
    "skills": {
      "1": {
        "name": "OnAlert",
        "skillType": "OnAlert",
        "faceTarget": true,
        "publicCDGroup": "",
        "ignoreGCD": true,
        "triggerGCD": false,
        "HHAGODJIAPE": "",
        "stateIDs": ["Alert"],
        "skillQueryingTime": 3.0,
        "flagTargetReachable": "10",
        "flagSelfOnTemplateCollider": "01",
        "flagSelfInZone": "10",
        "flagTargetInZone": "11"
      },
      "101": {
        "name": "NormalAtk",
        "priority": 4,
        "castCondition": {
          "pose": [101],
          "pickRangeMax": 6.0
        },
        "cd": 3.0,
        "initialCD": 3.0,
        "publicCDGroup": "",
        "ignoreGCD": true,
        "triggerGCD": false,
        "HHAGODJIAPE": "",
        "stateIDs": ["NormalAtk01", "NormalAtk02", "NormalAtk03"],
        "flagTargetReachable": "10",
        "flagSelfOnTemplateCollider": "01",
        "flagSelfInZone": "10",
        "flagTargetInZone": "11"
      },
      "201": {
        "name": "TailAttack",
        "priority": 3,
        "castCondition": {
          "pose": [101],
          "pickRangeMax": 10.0
        },
        "cd": 5.0,
        "initialCD": 1.5,
        "publicCDGroup": "",
        "HHAGODJIAPE": "",
        "stateIDs": ["TailAttack"],
        "flagTargetReachable": "10",
        "flagSelfOnTemplateCollider": "01",
        "flagSelfInZone": "10",
        "flagTargetInZone": "11"
      },
      "301": {
        "name": "MagicBall_Triple01",
        "priority": 2,
        "castCondition": {
          "pose": [101],
          "pickRangeMin": 15.0,
          "pickRangeMax": 30.0
        },
        "cd": 10.0,
        "initialCD": 6.0,
        "publicCDGroup": "",
        "HHAGODJIAPE": "",
        "stateIDs": ["MagicBallTriple"],
        "flagTargetReachable": "11",
        "flagSelfOnTemplateCollider": "01",
        "flagSelfInZone": "11",
        "flagTargetInZone": "11"
      },
      "302": {
        "name": "MagicBall_Triple02",
        "priority": 2,
        "castCondition": {
          "pose": [101],
          "pickRangeMax": 15.0
        },
        "cd": 15.0,
        "initialCD": 10.0,
        "publicCDGroup": "",
        "HHAGODJIAPE": "",
        "stateIDs": ["MagicBallTriple"],
        "flagTargetReachable": "11",
        "flagSelfOnTemplateCollider": "01",
        "flagSelfInZone": "11",
        "flagTargetInZone": "11"
      },
      "401": {
        "name": "MagicBall_Long01",
        "priority": 2,
        "castCondition": {
          "pose": [101],
          "maxTargetAngleXZ": 45.0,
          "maxTargetAngleY": 45.0,
          "pickRangeMin": 15.0,
          "pickRangeMax": 30.0
        },
        "cd": 15.0,
        "cdUpperRange": 5.0,
        "initialCD": 10.0,
        "publicCDGroup": "",
        "HHAGODJIAPE": "",
        "stateIDs": ["MagicBallLong"],
        "flagTargetReachable": "10",
        "flagSelfOnTemplateCollider": "01",
        "flagSelfInZone": "10",
        "flagTargetInZone": "10"
      },
      "402": {
        "name": "MagicBall_Long02",
        "priority": 2,
        "castCondition": {
          "pose": [101],
          "maxTargetAngleXZ": 45.0,
          "maxTargetAngleY": 45.0,
          "pickRangeMax": 15.0
        },
        "cd": 25.0,
        "cdUpperRange": 5.0,
        "initialCD": 25.0,
        "publicCDGroup": "",
        "HHAGODJIAPE": "",
        "stateIDs": ["MagicBallLong"],
        "flagTargetReachable": "10",
        "flagSelfOnTemplateCollider": "01",
        "flagSelfInZone": "10",
        "flagTargetInZone": "10"
      },
      "501": {
        "name": "MagicRing_1",
        "priority": 1,
        "castCondition": {
          "pose": [101],
          "pickRangeMax": 99.0,
          "globalValues": [
            "_DRAKE_DEEPSEA_NOSHIELD_TAG",
            "_DRAKE_DEEPSEA_SHIELD_CD"
          ],
          "globalValuesTargetType": "SELF"
        },
        "cd": 9999.0,
        "initialCD": 20.0,
        "publicCDGroup": "",
        "ignoreGCD": true,
        "HHAGODJIAPE": "",
        "stateIDs": ["MagicRing"],
        "flagTargetReachable": "11",
        "flagSelfOnTemplateCollider": "01",
        "flagSelfInZone": "10",
        "flagTargetInZone": "11"
      },
      "502": {
        "name": "MagicRing_2",
        "priority": 1,
        "castCondition": {
          "pose": [101],
          "pickRangeMax": 99.0,
          "globalValues": ["_DRAKE_DEEPSEA_SHIELD_TRIGGERABLE"],
          "globalValuesTargetType": "SELF"
        },
        "cd": 5.0,
        "publicCDGroup": "",
        "ignoreGCD": true,
        "triggerGCD": false,
        "HHAGODJIAPE": "",
        "stateIDs": ["MagicRing"],
        "flagTargetReachable": "11",
        "flagSelfOnTemplateCollider": "01",
        "flagSelfInZone": "10",
        "flagTargetInZone": "11"
      }
    },
    "skillGCD": 1.5,
    "birdCirclingTactic": [
      {
        "$type": "KACCHOLJDNK",
        "enable": true,
        "condition": {
          "pose": [101]
        },
        "JMCOBEPDIGM": {
          "HKJODDGJPHA": 99.0,
          "GGEBMFHFBPO": 12.0,
          "KFFGCIMPNMJ": 15.0,
          "MNPDDAKDHGK": ""
        }
      },
      {
        "$type": "EPHBMLFODKF",
        "enable": true,
        "condition": {
          "pose": [101]
        },
        "JMCOBEPDIGM": {
          "rangeMin": 0.0,
          "rangeMax": 15.0,
          "ALIBHHJHHMN": 2.0,
          "BFJBDDIIFOI": {
            "LLICGJHIGME": 0.0,
            "IBLIPJPNOGC": 0.0,
            "AEBLMKFNCDG": 3.0,
            "IGLIBIOEGBB": 3.0
          },
          "NAOBMNGDKHL": "1111",
          "JCNIJOAIGII": "1111",
          "MNPDDAKDHGK": ""
        }
      },
      {
        "$type": "NNJKLGNPMNN",
        "enable": true,
        "JMCOBEPDIGM": {
          "OJGLKPBCLGB": 1.0,
          "MNPDDAKDHGK": "",
          "GJDMDHIBCME": ""
        }
      },
      {
        "$type": "FPELBIJFGCE",
        "enable": true,
        "condition": {
          "pose": [1]
        },
        "JMCOBEPDIGM": {
          "NBENNEKDIIA": 1.0,
          "KPNDPKIOPJM": 5.0,
          "PINAFKEDDLL": 2.5,
          "ANMPOPEBDIA": 12.5,
          "GMJFIMFFOEL": 2.5,
          "CHCPFDMADEI": 5.0,
          "MNPDDAKDHGK": ""
        }
      }
    ]
  },
  "inputKeys": [
    {
      "keyID": 101,
      "inputKeyCode": 257,
      "abilityName": ""
    },
    {
      "keyID": 201,
      "inputKeyCode": 258,
      "abilityName": ""
    },
    {
      "keyID": 301,
      "inputKeyCode": 259,
      "abilityName": ""
    },
    {
      "keyID": 401,
      "inputKeyCode": 260,
      "abilityName": ""
    },
    {
      "keyID": 501,
      "inputKeyCode": 261,
      "abilityName": ""
    }
  ],
  "move": {
    "$type": "IPNMJMHDMPF",
    "moveOnWaterDepth": 0.5,
    "facingMove": "FourDirection",
    "PKHOMJHFAEE": "RootNode"
  }
}
