{
  "common": {
    "effectAttachShape": {
      "$type": "FJNPJANPGGC",
      "mesh": "EffectMesh"
    },
    "mass": 150.0,
    "height": 2.0999999046325684,
    "modelHeight": 1.899999976158142,
    "viewSize": 1.2000000476837158,
    "affectedByWorld": true,
    "checkInSurface": true,
    "scale": 1.2000000476837158,
    "useGrassDisplacement": true
  },
  "headControl": {
    "$type": "KPIPDEBDPIH",
    "useHeadControl": true,
    "maxYawDegree": 75.0,
    "maxPitchDegree": 30.0,
    "animStates": [
      "NormalIdle/Standby",
      "NormalMove/WalkForward",
      "NormalMove/WalkBack",
      "NormalMove/WalkRight",
      "NormalMove/WalkLeft",
      "NormalMove/Run",
      "Turn/TurnLeft",
      "Turn/TurnRight"
    ]
  },
  "model": {
    "bornEffect": "Eff_Monster_Common_Born",
    "attachEffect": "",
    "BKPFGNPLDNJ": ""
  },
  "dither": {
    "showDitherDuration": 1.0
  },
  "combat": {
    "property": {
      "endureType": "Monster_Grunt_Humanoid",
      "weight": 100.0
    },
    "beHit": {
      "hitBloodEffect": ""
    },
    "combatLock": {
      "lockShape": "CircleLockEnemy",
      "lockType": "Avatar&Monster_Lv4"
    },
    "die": {
      "hasAnimatorDie": true,
      "dieEndTime": 4.0,
      "dieForceDisappearTime": 15.0,
      "dieDisappearEffect": "",
      "useRagDoll": true,
      "ragDollDieEndTimeDelay": 15.0,
      "muteHitBox": true,
      "dieDenyLockOn": true,
      "dieIsGhostToEnemy": true,
      "dieIgnoreTriggerBullet": true,
      "muteBillboard": true,
      "mutePushCollider": true
    },
    "animEvents": {
      "QuickCombo01": {
        "attackPattern": {
          "$type": "ConfigAttackCircle",
          "triggerType": "TriggerNoRepeat",
          "born": {
            "$type": "ConfigBornBySelf",
            "offset": {
              "x": 0.0,
              "y": 0.699999988079071,
              "z": 0.30000001192092896
            },
            "direction": {
              "$type": "ConfigDirectionByEntity",
              "angleOffset": {
                "x": 0.0,
                "y": -20.0,
                "z": 0.0
              }
            }
          },
          "height": 1.2000000476837158,
          "fanAngle": 150.0,
          "radius": 2.0
        },
        "attackInfo": {
          "attackTag": "",
          "attenuationTag": "",
          "attenuationGroup": "default",
          "attackProperty": {
            "actorGrassSubHurtDelta": 1.0,
            "actorWindSubHurtDelta": 0.0,
            "elementDurability": 100.0,
            "strikeType": "Blunt",
            "enBreak": 200.0,
            "attackType": "Melee",
            "GLKMCMDJBIK": 0.0
          },
          "hitPattern": {
            "onHitEffectName": "default",
            "hitImpulseY": "",
            "hitImpulseType": "LV3",
            "hitHaltTimeScale": 0.009999999776482582
          },
          "forceCameraShake": true,
          "cameraShake": {
            "shakeType": "CustomVector",
            "shakeRange": 0.11999999731779099,
            "shakeTime": 0.15000000596046448,
            "shakeDir": {
              "x": -1.0
            }
          }
        }
      },
      "QuickCombo02": {
        "attackPattern": {
          "$type": "ConfigAttackCircle",
          "triggerType": "TriggerNoRepeat",
          "born": {
            "$type": "ConfigBornBySelf",
            "offset": {
              "x": 0.0,
              "y": 0.699999988079071,
              "z": 0.30000001192092896
            },
            "direction": {
              "$type": "ConfigDirectionByEntity",
              "angleOffset": {
                "x": 0.0,
                "y": 30.0,
                "z": 0.0
              }
            }
          },
          "height": 1.2000000476837158,
          "fanAngle": 240.0,
          "radius": 2.0
        },
        "attackInfo": {
          "attackTag": "",
          "attenuationTag": "",
          "attenuationGroup": "default",
          "attackProperty": {
            "actorGrassSubHurtDelta": 1.0,
            "actorWindSubHurtDelta": 0.0,
            "elementDurability": 100.0,
            "strikeType": "Blunt",
            "enBreak": 200.0,
            "attackType": "Melee",
            "GLKMCMDJBIK": 0.0
          },
          "hitPattern": {
            "onHitEffectName": "default",
            "hitImpulseY": "",
            "hitImpulseType": "LV4",
            "hitHaltTimeScale": 0.009999999776482582
          },
          "forceCameraShake": true,
          "cameraShake": {
            "shakeType": "CustomVector",
            "shakeRange": 0.11999999731779099,
            "shakeTime": 0.15000000596046448,
            "shakeDir": {
              "x": 1.0
            }
          }
        }
      },
      "PowerCombo01": {
        "attackPattern": {
          "$type": "ConfigAttackCircle",
          "triggerType": "TriggerNoRepeat",
          "born": {
            "$type": "ConfigBornBySelf",
            "offset": {
              "x": 0.0,
              "y": 0.699999988079071,
              "z": 0.5
            },
            "direction": {
              "$type": "ConfigDirectionByEntity",
              "angleOffset": {
                "x": 0.0,
                "y": -40.0,
                "z": 0.0
              }
            }
          },
          "height": 1.2000000476837158,
          "fanAngle": 180.0,
          "radius": 3.0
        },
        "attackInfo": {
          "attackTag": "",
          "attenuationTag": "",
          "attenuationGroup": "default",
          "attackProperty": {
            "actorGrassSubHurtDelta": 2.0,
            "actorWindSubHurtDelta": 0.0,
            "elementDurability": 100.0,
            "strikeType": "Blunt",
            "enBreak": 200.0,
            "attackType": "Melee",
            "GLKMCMDJBIK": 0.0
          },
          "hitPattern": {
            "onHitEffectName": "default",
            "hitImpulseY": "",
            "hitImpulseType": "LV5",
            "hitHaltTimeScale": 0.009999999776482582
          },
          "forceCameraShake": true,
          "cameraShake": {
            "shakeType": "CustomVector",
            "shakeRange": 0.15000000596046448,
            "shakeTime": 0.20000000298023224,
            "shakeDistance": 25.0,
            "shakeDir": {
              "x": -1.0
            }
          }
        }
      },
      "PowerCombo02": {
        "attackPattern": {
          "$type": "ConfigAttackCircle",
          "triggerType": "TriggerNoRepeat",
          "born": {
            "$type": "ConfigBornBySelf",
            "offset": {
              "x": 0.0,
              "y": 0.6000000238418579,
              "z": 1.5
            },
            "direction": {
              "$type": "ConfigDirectionByEntity",
              "angleOffset": {
                "x": 0.0,
                "y": 30.0,
                "z": 0.0
              }
            }
          },
          "height": 1.5,
          "fanAngle": 180.0,
          "radius": 3.0
        },
        "attackInfo": {
          "attackTag": "",
          "attenuationTag": "",
          "attenuationGroup": "default",
          "attackProperty": {
            "actorGrassSubHurtDelta": 2.0,
            "actorWindSubHurtDelta": 0.0,
            "elementDurability": 100.0,
            "strikeType": "Blunt",
            "enBreak": 200.0,
            "attackType": "Melee",
            "GLKMCMDJBIK": 0.0
          },
          "hitPattern": {
            "onHitEffectName": "default",
            "hitImpulseY": "",
            "hitImpulseType": "LV5",
            "hitHaltTimeScale": 0.009999999776482582
          },
          "forceCameraShake": true,
          "cameraShake": {
            "shakeType": "CustomVector",
            "shakeRange": 0.20000000298023224,
            "shakeTime": 0.20000000298023224,
            "shakeDistance": 25.0,
            "shakeDir": {
              "x": 1.0
            }
          }
        }
      }
    }
  },
  "equipController": {
    "sheathPoint": "",
    "attachPoints": {
      "equip01": "WeaponR",
      "equip02": "WeaponL"
    }
  },
  "abilities": [
    {
      "abilityID": "Alert",
      "abilityName": "Thoarder_Alert",
      "abilityOverride": "",
      "lightWeightRemove": true
    },
    {
      "abilityID": "SteerAttack",
      "abilityName": "Thoarder_MuscleMan_Hammer_SteerAttack",
      "abilityOverride": ""
    },
    {
      "abilityID": "WeaponOnBack",
      "abilityName": "Thoarder_WeaponOnBack",
      "abilityOverride": ""
    },
    {
      "abilityID": "DrawWeapon",
      "abilityName": "Thoarder_DrawWeapon",
      "abilityOverride": ""
    },
    {
      "abilityID": "SheathWeapon",
      "abilityName": "Thoarder_SheathWeapon",
      "abilityOverride": ""
    },
    {
      "abilityID": "HideWeapon",
      "abilityName": "Thoarder_HideWeapon",
      "abilityOverride": ""
    },
    {
      "abilityID": "SpecialsState_Weapon",
      "abilityName": "Thoarder_SpecialsState_Weapon",
      "abilityOverride": "",
      "lightWeightRemove": true
    },
    {
      "abilityID": "ReturnToBorn",
      "abilityName": "Thoarder_ReturnToBorn",
      "abilityOverride": "",
      "lightWeightRemove": true
    },
    {
      "abilityID": "SteerMove",
      "abilityName": "Thoarder_SteerMove",
      "abilityOverride": ""
    }
  ],
  "stateLayers": {
    "defaultLayer": {
      "$type": "GBGJJIIEMBD",
      "layerIndexName": "",
      "CPAANEIJCGD": "",
      "stateIDs": {
        "NormalIdle": {
          "$type": "NEDIFAKEGCO",
          "animatorStates": {
            "Standby": [],
            "Born": []
          },
          "canDoSkill": true,
          "canSyncMove": true,
          "resetAnimatorTriggerOnExit": ["DoSkill"]
        },
        "NormalMove": {
          "$type": "NEDIFAKEGCO",
          "animatorStates": {
            "WalkForward": [
              "Audio_Monster_Thoarder_Normal_Male_Muscle_NoWeapon_Walk"
            ],
            "WalkBack": [
              "Audio_Monster_Thoarder_Normal_Male_Muscle_NoWeapon_Walk"
            ],
            "WalkRight": [
              "Audio_Monster_Thoarder_Normal_Male_Muscle_NoWeapon_Walk"
            ],
            "WalkLeft": [
              "Audio_Monster_Thoarder_Normal_Male_Muscle_NoWeapon_Walk"
            ],
            "Run": ["Audio_Monster_Thoarder_Normal_Male_Muscle_NoWeapon_Run"]
          },
          "canDoSkill": true,
          "canSyncMove": true,
          "resetAnimatorTriggerOnExit": ["DoSkill"],
          "canSteer": true
        },
        "Turn": {
          "$type": "NEDIFAKEGCO",
          "animatorStates": {
            "TurnLeft": [
              "Audio_Monster_Thoarder_Normal_Male_Muscle_NoWeapon_Walk"
            ],
            "TurnRight": [
              "Audio_Monster_Thoarder_Normal_Male_Muscle_NoWeapon_Walk"
            ]
          },
          "canDoSkill": true,
          "canSyncMove": true,
          "resetAnimatorTriggerOnExit": ["DoSkill"],
          "canSteer": true
        },
        "BeHit": {
          "$type": "NEDIFAKEGCO",
          "animatorStates": {
            "Hit_L": ["Audio_Monster_Thoarder_Normal_Male_Muscle_Hammer_Hit_L"],
            "Hit_H": ["Audio_Monster_Thoarder_Normal_Male_Muscle_Hammer_Hit_H"],
            "DHit": []
          },
          "resetAnimatorTriggerOnEnter": ["BeHit"],
          "resetAnimatorTriggerOnExit": ["DoSkill"]
        },
        "BeHitThrow": {
          "$type": "NEDIFAKEGCO",
          "animatorStates": {
            "HitThrow": [
              "Audio_Monster_Thoarder_Normal_Male_Muscle_Hammer_HitThrow"
            ],
            "HitThrowDrop": [],
            "HitThrowToGround": [
              "Audio_Monster_Thoarder_Normal_Male_Muscle_Hammer_HitThrowToGround"
            ]
          },
          "resetAnimatorTriggerOnEnter": ["BeHit", "HitAir2HitDrop"],
          "resetAnimatorTriggerOnExit": ["DoSkill"]
        },
        "Struggle": {
          "$type": "NEDIFAKEGCO",
          "animatorStates": {
            "Struggle": []
          },
          "resetAnimatorTriggerOnEnter": ["BeHit", "HitAir2HitDrop"],
          "resetAnimatorTriggerOnExit": ["DoSkill"]
        },
        "Die": {
          "$type": "NEDIFAKEGCO",
          "animatorStates": {
            "Die1": [
              "Monster_Thoarder_MuscleMan_Die",
              "Audio_Monster_Thoarder_Normal_Male_Muscle_Hammer_Die"
            ],
            "Die2": [
              "Monster_Thoarder_MuscleMan_Die",
              "Audio_Monster_Thoarder_Normal_Male_Muscle_Hammer_Die"
            ],
            "SwimDie": ["Audio_Monster_Thoarder_NoWeapon_Knife_SwimDie"],
            "SwimDie_AS": [
              "Monster_Thoarder_Common_SwimDie",
              "Audio_Monster_Thoarder_NoWeapon_Knife_SwimDie"
            ]
          }
        },
        "Die_RagDoll": {
          "$type": "NEDIFAKEGCO",
          "animatorStates": {
            "AirDie": [
              "Monster_Thoarder_Common_AirDie",
              "Audio_Monster_Thoarder_Normal_Male_Muscle_Hammer_Die"
            ]
          },
          "enableRagDoll": true
        },
        "Life_Alert": {
          "$type": "NEDIFAKEGCO",
          "animatorStates": {
            "Alert": ["Audio_Monster_Thoarder_Normal_Male_Muscle_Hammer_Alert"]
          },
          "resetAnimatorTriggerOnExit": ["BeHit", "DoSkill"]
        },
        "Life_Warning": {
          "$type": "NEDIFAKEGCO",
          "animatorStates": {
            "Warning": [
              "Monster_Undead01_Warning",
              "Monster_Thoarder_Alert",
              "Monster_Thoarder_DrawWeapon",
              "Audio_Monster_Thoarder_Normal_Male_Muscle_Hammer_Alert"
            ],
            "Alert_Armed": [
              "Monster_Undead01_Warning",
              "Monster_Thoarder_Alert",
              "Monster_Thoarder_DrawWeapon",
              "Audio_Monster_Thoarder_Normal_Male_Muscle_Hammer_Alert"
            ]
          },
          "resetAnimatorTriggerOnExit": ["BeHit", "DoSkill"]
        },
        "QuickCombo01": {
          "$type": "NEDIFAKEGCO",
          "animatorStates": {
            "QuickCombo01": [
              "Monster_Thoarder_MuscleMan_Hammer_QuickCombo01",
              "Audio_Monster_Thoarder_Normal_Male_Muscle_Hammer_QuickCombo01"
            ],
            "QuickCombo01_2": [
              "Monster_Thoarder_MuscleMan_Hammer_QuickCombo01",
              "Audio_Monster_Thoarder_Normal_Male_Muscle_Hammer_QuickCombo01"
            ]
          },
          "addEndure": 0.5,
          "resetAnimatorTriggerOnExit": ["BeHit", "DoSkill"]
        },
        "QuickCombo02": {
          "$type": "NEDIFAKEGCO",
          "animatorStates": {
            "QuickCombo02": [
              "Monster_Thoarder_MuscleMan_Hammer_QuickCombo02",
              "Audio_Monster_Thoarder_Normal_Male_Muscle_Hammer_QuickCombo02"
            ],
            "QuickCombo02_2": [
              "Monster_Thoarder_MuscleMan_Hammer_QuickCombo02",
              "Audio_Monster_Thoarder_Normal_Male_Muscle_Hammer_QuickCombo02"
            ]
          },
          "addEndure": 0.5,
          "resetAnimatorTriggerOnExit": ["BeHit", "DoSkill"]
        },
        "PowerCombo01": {
          "$type": "NEDIFAKEGCO",
          "animatorStates": {
            "PowerCombo01": [
              "Monster_Thoarder_MuscleMan_Hammer_PowerCombo01",
              "Audio_Monster_Thoarder_Normal_Male_Muscle_Hammer_PowerCombo01"
            ]
          },
          "addEndure": 0.5,
          "resetAnimatorTriggerOnExit": ["BeHit", "DoSkill"]
        },
        "PowerCombo02": {
          "$type": "NEDIFAKEGCO",
          "animatorStates": {
            "PowerCombo02": [
              "Monster_Thoarder_MuscleMan_Hammer_PowerCombo02",
              "Audio_Monster_Thoarder_Normal_Male_Muscle_Hammer_PowerCombo02"
            ]
          },
          "addEndure": 0.5,
          "resetAnimatorTriggerOnExit": ["BeHit", "DoSkill"]
        },
        "Armed": {
          "$type": "NEDIFAKEGCO",
          "animatorStates": {
            "Armed": []
          },
          "canDoSkill": true,
          "resetAnimatorTriggerOnExit": ["BeHit", "DoSkill"]
        },
        "Chat": {
          "$type": "NEDIFAKEGCO",
          "animatorStates": {
            "Chat": []
          },
          "canDoSkill": true,
          "resetAnimatorTriggerOnExit": ["BeHit", "DoSkill"]
        },
        "ChatFree01": {
          "$type": "NEDIFAKEGCO",
          "animatorStates": {
            "ChatFree01": []
          },
          "canDoSkill": true,
          "resetAnimatorTriggerOnExit": ["BeHit", "DoSkill"]
        },
        "Laugh": {
          "$type": "NEDIFAKEGCO",
          "animatorStates": {
            "Laugh": []
          },
          "canDoSkill": true,
          "resetAnimatorTriggerOnExit": ["BeHit", "DoSkill"]
        },
        "LaughFree01": {
          "$type": "NEDIFAKEGCO",
          "animatorStates": {
            "LaughFree01": []
          },
          "canDoSkill": true,
          "resetAnimatorTriggerOnExit": ["BeHit", "DoSkill"]
        },
        "SheathWeapon": {
          "$type": "NEDIFAKEGCO",
          "animatorStates": {
            "SheathWeapon": [
              "Monster_Thoarder_SheathWeapon",
              "Audio_Monster_Thoarder_Normal_Male_Muscle_Hammer_SheathWeapon"
            ]
          },
          "resetAnimatorTriggerOnExit": ["SheathWeaponTrigger"]
        }
      }
    }
  },
  "billboard": {
    "$type": "DNGNMAJBCNP",
    "attachPoint": "BillboardAttach",
    "offset": {
      "x": -0.05000000074505806
    },
    "offsetType": "Character",
    "radiusOffset": 0.25,
    "showHPBar": true
  },
  "initialPoses": {
    "Default": {},
    "FixedPos": {
      "initialPoseID": 2,
      "initialPoseParams": {
        "boolParams": {
          "FixedPos": "true"
        }
      }
    },
    "FixedPosArmed": {
      "initialPoseID": 3,
      "initialPoseParams": {
        "boolParams": {
          "FixedPosArmed": "true"
        }
      }
    },
    "Armed": {
      "initialPoseID": 4,
      "initialPoseParams": {
        "boolParams": {
          "Armed": "true"
        }
      }
    },
    "Chat": {
      "initialPoseID": 9006,
      "initialPoseParams": {
        "boolParams": {
          "Chat": "true"
        }
      }
    },
    "Laugh": {
      "initialPoseID": 9009,
      "initialPoseParams": {
        "boolParams": {
          "Laugh": "true"
        }
      }
    }
  },
  "aibeta": {
    "enable": true,
    "moveSetting": {
      "navMeshAgentName": "Undead01",
      "almostReachedDistanceRun": 1.5
    },
    "sensing": {
      "settings": {
        "DefaultSetting": {
          "feelRange": 8.0
        },
        "HighAlert": {
          "viewRange": 40.0,
          "feelRange": 10.0
        },
        "LowAlert": {
          "viewRange": 10.0
        },
        "Sleep": {
          "viewRange": 0.0,
          "feelRange": 3.0
        }
      },
      "templates": {
        "DefaultTemplate": {
          "DefaultPoses": "DefaultSetting",
          "9006": "LowAlert",
          "9009": "LowAlert"
        },
        "HighAlertTemplate": {
          "DefaultPoses": "HighAlert",
          "9006": "DefaultSetting",
          "9009": "DefaultSetting"
        }
      }
    },
    "neurons": {
      "DefaultSetting": ["HIT"]
    },
    "threat": {
      "GHIJMOKOLMB": "",
      "clearThreatByLostPath": true,
      "clearThreatTimerByDistance": 3.0,
      "viewAttenuation": [
        {
          "x": 10.0,
          "y": 2.0
        },
        {
          "x": 15.0,
          "y": 0.800000011920929
        },
        {
          "x": 20.0,
          "y": 0.5
        },
        {
          "x": 25.0,
          "y": 0.30000001192092896
        },
        {
          "x": 30.0,
          "y": 0.20000000298023224
        }
      ]
    },
    "defendArea": {},
    "profiling": {},
    "skillGroupCDConfigs": [
      {
        "skillGroupCDID": 1,
        "skillGroupCDTime": 2.0
      }
    ],
    "skills": {
      "101": {
        "name": "OnAlert",
        "skillType": "OnAlert",
        "faceTarget": true,
        "castCondition": {
          "pose": [1, 2, 9002, 9003, 9004, 9005, 9006, 9008, 9009]
        },
        "publicCDGroup": "",
        "ignoreGCD": true,
        "triggerGCD": false,
        "HHAGODJIAPE": "",
        "stateIDs": ["Life_Warning"],
        "skillQueryingTime": 3.0,
        "flagTargetReachable": "10",
        "flagSelfOnTemplateCollider": "01",
        "flagSelfInZone": "10",
        "flagTargetInZone": "11"
      },
      "103": {
        "name": "OnAlert_Armed",
        "skillType": "OnAlert",
        "faceTarget": true,
        "castCondition": {
          "pose": [3, 4, 9007]
        },
        "publicCDGroup": "",
        "ignoreGCD": true,
        "triggerGCD": false,
        "HHAGODJIAPE": "",
        "stateIDs": ["Life_Warning"],
        "skillQueryingTime": 3.0,
        "flagTargetReachable": "10",
        "flagSelfOnTemplateCollider": "01",
        "flagSelfInZone": "10",
        "flagTargetInZone": "11"
      },
      "201": {
        "name": "QuickCombo01",
        "combatSkillType": "MeleeAttack",
        "enableSkillPrepare": true,
        "castCondition": {
          "pose": [1001],
          "pickRangeMax": 6.0,
          "castRangeMax": 2.5
        },
        "cd": 3.5,
        "initialCD": 2.0,
        "publicCDGroup": "",
        "skillGroupCDID": 1,
        "HHAGODJIAPE": "",
        "stateIDs": ["QuickCombo01", "QuickCombo02", "PowerCombo02"],
        "flagTargetReachable": "10",
        "flagSelfOnTemplateCollider": "01",
        "flagSelfInZone": "10",
        "flagTargetInZone": "11"
      },
      "202": {
        "name": "QuickCombo02",
        "priority": 2,
        "enableSkillPrepare": true,
        "castCondition": {
          "pose": [1001],
          "pickRangeMax": 6.0,
          "castRangeMax": 3.0
        },
        "cd": 3.5,
        "cdUpperRange": 3.5,
        "initialCD": 7.0,
        "publicCDGroup": "meleeAttack_long",
        "skillGroupCDID": 1,
        "HHAGODJIAPE": "",
        "stateIDs": ["QuickCombo01", "QuickCombo02"],
        "flagTargetReachable": "10",
        "flagSelfOnTemplateCollider": "01",
        "flagSelfInZone": "10",
        "flagTargetInZone": "11"
      },
      "203": {
        "name": "QuickCombo02",
        "priority": 2,
        "enableSkillPrepare": true,
        "castCondition": {
          "pose": [1001],
          "pickRangeMax": 6.0,
          "castRangeMax": 3.0
        },
        "cd": 7.0,
        "cdUpperRange": 3.5,
        "initialCD": 7.0,
        "publicCDGroup": "meleeAttack_long",
        "skillGroupCDID": 1,
        "HHAGODJIAPE": "",
        "stateIDs": ["QuickCombo01", "PowerCombo02"],
        "flagTargetReachable": "10",
        "flagSelfOnTemplateCollider": "01",
        "flagSelfInZone": "10",
        "flagTargetInZone": "11"
      },
      "211": {
        "name": "PowerCombo01",
        "combatSkillType": "MeleeAttack",
        "enableSkillPrepare": true,
        "castCondition": {
          "pose": [1001],
          "pickRangeMax": 6.0,
          "castRangeMax": 3.0
        },
        "cd": 10.0,
        "cdUpperRange": 5.0,
        "initialCD": 15.0,
        "publicCDGroup": "",
        "skillGroupCDID": 1,
        "HHAGODJIAPE": "",
        "stateIDs": ["PowerCombo01", "PowerCombo02"],
        "flagTargetReachable": "10",
        "flagSelfOnTemplateCollider": "01",
        "flagSelfInZone": "10",
        "flagTargetInZone": "11"
      },
      "90061": {
        "name": "ChatFree01",
        "skillType": "Free",
        "castCondition": {
          "pose": [9006]
        },
        "cd": 3.0,
        "cdUpperRange": 5.0,
        "initialCD": 1.0,
        "initialCDUpperRange": 5.0,
        "publicCDGroup": "",
        "HHAGODJIAPE": "",
        "stateIDs": ["ChatFree01"],
        "flagTargetReachable": "10",
        "flagSelfOnTemplateCollider": "01",
        "flagSelfInZone": "10",
        "flagTargetInZone": "11"
      },
      "90091": {
        "name": "LaughFree01",
        "skillType": "Free",
        "castCondition": {
          "pose": [9009]
        },
        "cd": 6.0,
        "cdUpperRange": 5.0,
        "initialCD": 1.0,
        "initialCDUpperRange": 5.0,
        "publicCDGroup": "",
        "HHAGODJIAPE": "",
        "stateIDs": ["LaughFree01"],
        "flagTargetReachable": "10",
        "flagSelfOnTemplateCollider": "01",
        "flagSelfInZone": "10",
        "flagTargetInZone": "11"
      }
    },
    "skillGCD": 2.0,
    "birdCirclingTactic": [
      {
        "$type": "EPHBMLFODKF",
        "enable": true,
        "condition": {
          "pose": [1001, 1002]
        },
        "JMCOBEPDIGM": {
          "rangeMax": 5.0,
          "BFJBDDIIFOI": {
            "LLICGJHIGME": 5.0,
            "IDEFILBHNAP": 0.0,
            "IBLIPJPNOGC": 0.0
          },
          "NAOBMNGDKHL": "1111",
          "JCNIJOAIGII": "1111",
          "MNPDDAKDHGK": ""
        }
      },
      {
        "$type": "OJOBEDCMGKM",
        "enable": true,
        "condition": {
          "pose": [1, 4]
        }
      },
      {
        "$type": "KACCHOLJDNK",
        "enable": true,
        "condition": {
          "pose": [1001, 1002]
        },
        "JMCOBEPDIGM": {
          "KHDFDAAAPEI": 14.0,
          "HKJODDGJPHA": 50.0,
          "GGEBMFHFBPO": 7.0,
          "KFFGCIMPNMJ": 7.0,
          "MNPDDAKDHGK": ""
        }
      },
      {
        "$type": "HGJGHLOFFHM",
        "enable": true,
        "JMCOBEPDIGM": {}
      },
      {
        "$type": "NNJKLGNPMNN",
        "enable": true,
        "JMCOBEPDIGM": {
          "MNPDDAKDHGK": "",
          "GJDMDHIBCME": ""
        }
      },
      {
        "$type": "FPELBIJFGCE",
        "enable": true,
        "condition": {
          "pose": [1, 4]
        },
        "JMCOBEPDIGM": {
          "KPNDPKIOPJM": 3.0,
          "PINAFKEDDLL": 1.5,
          "ANMPOPEBDIA": 15.0,
          "GMJFIMFFOEL": 3.75,
          "CHCPFDMADEI": 7.5,
          "MNPDDAKDHGK": ""
        }
      }
    ]
  },
  "inputKeys": [
    {
      "keyID": 201,
      "inputKeyCode": 257,
      "abilityName": ""
    },
    {
      "keyID": 202,
      "inputKeyCode": 258,
      "abilityName": ""
    },
    {
      "keyID": 203,
      "inputKeyCode": 259,
      "abilityName": ""
    },
    {
      "keyID": 211,
      "inputKeyCode": 260,
      "abilityName": ""
    },
    {
      "keyID": 212,
      "inputKeyCode": 262,
      "abilityName": ""
    },
    {
      "keyID": 212,
      "inputKeyCode": 261,
      "abilityName": ""
    }
  ],
  "move": {
    "$type": "IPNMJMHDMPF",
    "facingMove": "FourDirection",
    "monsterSizeType": "StoopType",
    "PKHOMJHFAEE": "RootNode"
  },
  "audio": {
    "overrideEmitterName": "",
    "animAudio": {},
    "disableEvent": {
      "text": ""
    },
    "destroyEvent": {
      "text": ""
    },
    "randomVariantSwitchGroup": {
      "text": ""
    },
    "randomVariantSwitchValues": [
      {
        "text": ""
      }
    ]
  }
}
