{
  "common": {
    "effectAttachShape": {
      "$type": "FJNPJANPGGC",
      "mesh": "EffectMesh"
    },
    "mass": 10000.0,
    "height": 2.299999952316284,
    "modelHeight": 2.5999999046325684,
    "viewSize": 1.2999999523162842,
    "affectedByWorld": true,
    "checkInSurface": true,
    "useGrassDisplacement": true,
    "clearAnimatorOnSetLightDeactive": true,
    "clearAIOnSetLightDeactive": true
  },
  "model": {
    "bornEffect": "Eff_Monster_Common_Born",
    "attachEffect": "",
    "canBakeMesh": false,
    "BKPFGNPLDNJ": ""
  },
  "dither": {
    "showDitherDuration": 1.0
  },
  "combat": {
    "property": {
      "endureType": "Monster_Demiboss_Humanoid",
      "weight": 110.0
    },
    "beHit": {
      "hitBloodEffect": ""
    },
    "combatLock": {
      "lockShape": "CircleLockEnemy",
      "lockType": "Avatar&Monster_Lv4"
    },
    "die": {
      "hasAnimatorDie": true,
      "dieEndTime": 1.5,
      "dieForceDisappearTime": 1.5,
      "dieDisappearEffect": "Eff_Death_Abyss_Common",
      "dieShaderData": "MonsterDie",
      "useRagDoll": true,
      "muteHitBox": true,
      "dieDenyLockOn": true,
      "dieIsGhostToEnemy": true,
      "dieIgnoreTriggerBullet": true,
      "muteBillboard": true,
      "mutePushCollider": true
    },
    "animEvents": {
      "NormalAtk01": {
        "attackPattern": {
          "$type": "ConfigAttackBox",
          "triggerType": "TriggerNoRepeat",
          "born": {
            "$type": "ConfigBornBySelf",
            "offset": {
              "x": 0.0,
              "y": 1.5,
              "z": -0.5
            }
          },
          "size": {
            "x": 1.899999976158142,
            "y": 2.4000000953674316,
            "z": 6.159999847412109
          }
        },
        "attackInfo": {
          "attackTag": "Monster_ForlornVessel_Attack",
          "attenuationTag": "",
          "attenuationGroup": "default",
          "attackProperty": {
            "actorGrassSubHurtDelta": 0.800000011920929,
            "actorWindSubHurtDelta": 0.0,
            "elementType": "Water",
            "elementDurability": 25.0,
            "strikeType": "Pierce",
            "enBreak": 75.0,
            "attackType": "Melee",
            "GLKMCMDJBIK": 0.0
          },
          "hitPattern": {
            "onHitEffectName": "default",
            "hitImpulseY": "",
            "hitImpulseType": "LV4",
            "hitHaltTimeScale": 0.05000000074505806
          }
        }
      },
      "NormalAtk02": {
        "attackPattern": {
          "$type": "ConfigAttackCircle",
          "triggerType": "TriggerNoRepeat",
          "born": {
            "$type": "ConfigBornBySelf",
            "offset": {
              "x": 0.75,
              "y": 0.4000000059604645,
              "z": 0.1599999964237213
            }
          },
          "height": 2.0,
          "radius": 5.5
        },
        "attackInfo": {
          "attackTag": "Monster_ForlornVessel_Attack",
          "attenuationTag": "",
          "attenuationGroup": "default",
          "attackProperty": {
            "actorGrassSubHurtDelta": 0.800000011920929,
            "actorWindSubHurtDelta": 0.0,
            "elementType": "Water",
            "elementDurability": 25.0,
            "strikeType": "Slash",
            "enBreak": 75.0,
            "attackType": "Melee",
            "GLKMCMDJBIK": 0.0
          },
          "hitPattern": {
            "onHitEffectName": "default",
            "hitImpulseY": "",
            "hitImpulseType": "LV4",
            "retreatType": "ByHitDirection",
            "hitHaltTimeScale": 0.05000000074505806
          }
        }
      },
      "ChargeAtk_Route": {
        "attackPattern": {
          "$type": "ConfigAttackBox",
          "triggerType": "TriggerNoRepeat",
          "checkHitLayerType": "Both",
          "born": {
            "$type": "ConfigBornBySelf",
            "offset": {
              "x": 0.0,
              "y": 1.600000023841858,
              "z": -0.4000000059604645
            }
          },
          "size": {
            "x": 2.0,
            "y": 2.0,
            "z": 5.599999904632568
          }
        },
        "attackInfo": {
          "attackTag": "Monster_ForlornVessel_Lance_ChargeAtk",
          "attenuationTag": "Monster_ForlornVessel_Lance_ChargeAtk",
          "attenuationGroup": "Monster_ForlornVessel_Lance_ChargeAtk",
          "attackProperty": {
            "actorGrassSubHurtDelta": 0.6000000238418579,
            "actorWindSubHurtDelta": 0.0,
            "elementType": "Water",
            "elementDurability": 25.0,
            "strikeType": "Pierce",
            "enBreak": 150.0,
            "attackType": "Melee",
            "GLKMCMDJBIK": 0.0
          },
          "hitPattern": {
            "onHitEffectName": "default",
            "hitImpulseY": "",
            "hitImpulseType": "LV5",
            "hitHaltTimeScale": 0.05000000074505806
          }
        }
      },
      "ChargeAtk_Final": {
        "attackPattern": {
          "$type": "ConfigAttackBox",
          "triggerType": "TriggerNoRepeat",
          "born": {
            "$type": "ConfigBornBySelf",
            "offset": {
              "x": 0.0,
              "y": 1.850000023841858,
              "z": -0.6000000238418579
            },
            "direction": {
              "$type": "ConfigDirectionByDefault",
              "angleOffset": {
                "x": -15.0,
                "y": 0.0,
                "z": 0.0
              }
            }
          },
          "size": {
            "x": 2.200000047683716,
            "y": 3.299999952316284,
            "z": 6.5
          }
        },
        "attackInfo": {
          "attackTag": "Monster_ForlornVessel_Attack",
          "attenuationTag": "",
          "attenuationGroup": "default",
          "attackProperty": {
            "actorGrassSubHurtDelta": 1.0,
            "actorWindSubHurtDelta": 0.0,
            "elementType": "Water",
            "elementDurability": 50.0,
            "strikeType": "Pierce",
            "enBreak": 150.0,
            "attackType": "Melee",
            "GLKMCMDJBIK": 0.0
          },
          "hitPattern": {
            "onHitEffectName": "default",
            "hitImpulseY": "",
            "hitImpulseType": "LV6",
            "hitHaltTimeScale": 0.05000000074505806
          }
        }
      }
    }
  },
  "equipController": {
    "sheathPoint": "",
    "attachPoints": {
      "equip01": "WeaponR",
      "equip02": "WeaponL"
    }
  },
  "abilities": [
    {
      "abilityID": "",
      "abilityName": "Monster_ForlornVessel_Strong_Lance_HitShield",
      "abilityOverride": ""
    },
    {
      "abilityID": "",
      "abilityName": "Monster_ForlornVessel_Strong_Lance_ExitBattle",
      "abilityOverride": ""
    },
    {
      "abilityID": "",
      "abilityName": "Monster_ForlornVessel_EndureDelta_Add",
      "abilityOverride": ""
    },
    {
      "abilityID": "",
      "abilityName": "Monster_ForlornVessel_EndureDelta_Remove",
      "abilityOverride": ""
    },
    {
      "abilityID": "",
      "abilityName": "Monster_ForlornVessel_Strong_Lance_EndureDelta",
      "abilityOverride": ""
    },
    {
      "abilityID": "",
      "abilityName": "Monster_ForlornVessel_BeHitThrow",
      "abilityOverride": ""
    },
    {
      "abilityID": "",
      "abilityName": "Monster_ForlornVessel_BeHeal",
      "abilityOverride": ""
    },
    {
      "abilityID": "",
      "abilityName": "Monster_ForlornVessel_Strong_Lance_Steer",
      "abilityOverride": ""
    },
    {
      "abilityID": "",
      "abilityName": "Monster_ForlornVessel_Strong_Lance_WeaponHanler",
      "abilityOverride": ""
    },
    {
      "abilityID": "",
      "abilityName": "Monster_ForlornVessel_Strong_Lance_ChargeAtk",
      "abilityOverride": ""
    },
    {
      "abilityID": "",
      "abilityName": "Monster_ForlornVessel_Strong_Lance_Alert",
      "abilityOverride": ""
    },
    {
      "abilityID": "",
      "abilityName": "Monster_ForlornVessel_Strong_Salute",
      "abilityOverride": ""
    },
    {
      "abilityID": "",
      "abilityName": "Monster_ForlornVessel_Strong_Lance_WeaponSpecialElementState",
      "abilityOverride": ""
    }
  ],
  "stateLayers": {
    "defaultLayer": {
      "$type": "GBGJJIIEMBD",
      "layerIndexName": "",
      "CPAANEIJCGD": "",
      "stateIDs": {
        "NormalIdle": {
          "$type": "NEDIFAKEGCO",
          "animatorStates": {
            "Born": [],
            "StandbyFree": [],
            "Standby": []
          },
          "canDoSkill": true,
          "canSyncMove": true,
          "resetAnimatorTriggerOnExit": ["DoSkill"]
        },
        "NormalMove": {
          "$type": "NEDIFAKEGCO",
          "animatorStates": {
            "WalkForward": [
              "Audio_Monster_ForlornVessel_Strong_Lance_Water_WalkForward"
            ],
            "WalkBack": [
              "Audio_Monster_ForlornVessel_Strong_Lance_Water_WalkBack"
            ],
            "WalkRight": [
              "Audio_Monster_ForlornVessel_Strong_Lance_Water_WalkRight"
            ],
            "WalkLeft": [
              "Audio_Monster_ForlornVessel_Strong_Lance_Water_WalkLeft"
            ],
            "Run": ["Audio_Monster_ForlornVessel_Strong_Common_Run"]
          },
          "canDoSkill": true,
          "canSyncMove": true,
          "resetAnimatorTriggerOnExit": ["DoSkill"],
          "canSteer": true
        },
        "Turn": {
          "$type": "NEDIFAKEGCO",
          "animatorStates": {
            "TurnLeft": [],
            "TurnRight": []
          },
          "canDoSkill": true,
          "canSyncMove": true,
          "resetAnimatorTriggerOnExit": ["DoSkill"],
          "canSteer": true
        },
        "BeHit": {
          "$type": "NEDIFAKEGCO",
          "animatorStates": {
            "Hit_L": ["Audio_Monster_ForlornVessel_Strong_Common_Hit_L"],
            "Hit_H": ["Audio_Monster_ForlornVessel_Strong_Common_Hit_H"]
          },
          "resetAnimatorTriggerOnEnter": ["BeHit"],
          "resetAnimatorTriggerOnExit": ["DoSkill"]
        },
        "BeHitThrow": {
          "$type": "NEDIFAKEGCO",
          "animatorStates": {
            "HitThrow": [],
            "HitThrowDrop": [],
            "HitThrowToGround": [
              "Audio_Monster_ForlornVessel_Strong_Lance_Water_HitThrowToGround"
            ]
          },
          "resetAnimatorTriggerOnEnter": ["BeHit", "HitAir2HitDrop"],
          "resetAnimatorTriggerOnExit": ["DoSkill"]
        },
        "Struggle": {
          "$type": "NEDIFAKEGCO",
          "animatorStates": {
            "Struggle": []
          },
          "resetAnimatorTriggerOnEnter": ["BeHit", "HitAir2HitDrop"],
          "resetAnimatorTriggerOnExit": ["DoSkill"]
        },
        "Die": {
          "$type": "NEDIFAKEGCO",
          "animatorStates": {
            "Die": ["Audio_Monster_ForlornVessel_Strong_Lance_Water_Die"],
            "SwimDie": [],
            "AirDie": [
              "Audio_Monster_ForlornVessel_Strong_Lance_Water_HitThrowToGround"
            ]
          }
        },
        "Die_Ragdoll": {
          "$type": "NEDIFAKEGCO",
          "animatorStates": {
            "SwimDie_Ragdoll": []
          },
          "enableRagDoll": true
        },
        "Alert": {
          "$type": "NEDIFAKEGCO",
          "animatorStates": {
            "Warning": [
              "Audio_Monster_ForlornVessel_Strong_Lance_Water_Warning"
            ]
          },
          "resetAnimatorTriggerOnExit": ["BeHit", "DoSkill"]
        },
        "NormalAtk01": {
          "$type": "NEDIFAKEGCO",
          "animatorStates": {
            "NormalAtk01": [
              "Monster_ForlornVessel_Strong_Lance_NormalAtk01",
              "Audio_Monster_ForlornVessel_Strong_Lance_Water_NormalAtk01"
            ]
          },
          "resetAnimatorTriggerOnExit": ["BeHit", "DoSkill"],
          "canSteer": true
        },
        "NormalAtk02": {
          "$type": "NEDIFAKEGCO",
          "animatorStates": {
            "NormalAtk02": [
              "Monster_ForlornVessel_Strong_Lance_NormalAtk02",
              "Audio_Monster_ForlornVessel_Strong_Lance_Water_NormalAtk02"
            ]
          },
          "resetAnimatorTriggerOnExit": ["BeHit", "DoSkill"],
          "canSteer": true
        },
        "ChargeAtk_BS": {
          "$type": "NEDIFAKEGCO",
          "animatorStates": {
            "ChargeAtk_BS": [
              "Monster_ForlornVessel_Strong_Lance_ChargeAtk_BS",
              "Audio_Monster_ForlornVessel_Strong_Lance_Water_ChargeAtk_BS"
            ]
          },
          "resetAnimatorTriggerOnExit": ["BeHit", "DoSkill"],
          "canSteer": true
        },
        "ChargeAtk_Loop": {
          "$type": "NEDIFAKEGCO",
          "animatorStates": {
            "ChargeAtk_Loop": [
              "Monster_ForlornVessel_Strong_Lance_ChargeAtk_Loop",
              "Audio_Monster_ForlornVessel_Strong_Lance_Water_ChargeAtk_Loop"
            ]
          },
          "canSyncMove": true,
          "resetAnimatorTriggerOnExit": ["BeHit", "DoSkill"],
          "canSteer": true
        },
        "ChargeAtk_AS": {
          "$type": "NEDIFAKEGCO",
          "animatorStates": {
            "ChargeAtk_AS": [
              "Monster_ForlornVessel_Strong_Lance_ChargeAtk_AS",
              "Audio_Monster_ForlornVessel_Strong_Lance_Water_ChargeAtk_AS"
            ]
          },
          "resetAnimatorTriggerOnExit": ["BeHit", "DoSkill"],
          "canSteer": true
        },
        "Salute": {
          "$type": "NEDIFAKEGCO",
          "animatorStates": {
            "Salute": ["Audio_Monster_ForlornVessel_Strong_Lance_Water_Salute"]
          },
          "canDoSkill": true,
          "resetAnimatorTriggerOnExit": ["BeHit", "DoSkill"],
          "canSteer": true
        },
        "Kneel": {
          "$type": "NEDIFAKEGCO",
          "animatorStates": {
            "Kneel": []
          },
          "canDoSkill": true,
          "resetAnimatorTriggerOnExit": ["BeHit", "DoSkill"]
        },
        "Clean": {
          "$type": "NEDIFAKEGCO",
          "animatorStates": {
            "Clean": ["Audio_Monster_ForlornVessel_Strong_Lance_Water_Clean"]
          },
          "canDoSkill": true,
          "resetAnimatorTriggerOnExit": ["BeHit", "DoSkill"]
        }
      }
    }
  },
  "billboard": {
    "$type": "DNGNMAJBCNP",
    "attachPoint": "BillboardAttach",
    "offsetType": "Character",
    "radiusOffset": -0.20000000298023224,
    "showHPBar": true,
    "size": "Big"
  },
  "initialPoses": {
    "Default": {
      "initialPoseID": 101
    },
    "Leisure": {
      "initialPoseID": 9001,
      "initialPoseParams": {
        "boolParams": {
          "Leisure": "true"
        }
      }
    },
    "Patrol": {
      "initialPoseID": 9002,
      "initialPoseParams": {
        "boolParams": {
          "Patrol": "true"
        }
      }
    },
    "Worship": {
      "initialPoseID": 9003,
      "initialPoseParams": {
        "boolParams": {
          "Worship": "true"
        }
      }
    }
  },
  "aibeta": {
    "enable": true,
    "aiCombat": {
      "combatRole": "FIGHTER"
    },
    "buddySetting": {
      "enable": true,
      "buddyFeatureTagIDs": [4014]
    },
    "sensing": {
      "settings": {
        "DefaultSetting": {
          "viewRange": 25.0,
          "feelRange": 10.0
        },
        "Worship": {
          "viewRange": 18.0,
          "feelRange": 8.0
        }
      },
      "templates": {
        "DefaultTemplate": {
          "DefaultPoses": "DefaultSetting"
        },
        "WorshipTemplate": {
          "DefaultPoses": "Worship"
        }
      }
    },
    "neurons": {
      "DefaultSetting": ["HIT", "HIT_BUDDY"]
    },
    "neuronSetting": {
      "hitbuddy": {
        "responserCampType": "Alliance",
        "reserveTime": 3.0
      }
    },
    "threat": {
      "GHIJMOKOLMB": "",
      "clearThreatByLostPath": true,
      "clearThreatTimerByDistance": 5.0,
      "viewAttenuation": [
        {
          "x": 10.0,
          "y": 2.0
        },
        {
          "x": 15.0,
          "y": 0.800000011920929
        },
        {
          "x": 20.0,
          "y": 0.5
        },
        {
          "x": 25.0,
          "y": 0.30000001192092896
        },
        {
          "x": 30.0,
          "y": 0.20000000298023224
        }
      ]
    },
    "defendArea": {},
    "profiling": {},
    "skillGroupCDConfigs": [
      {
        "skillGroupCDID": 0,
        "skillGroupCDTime": 10.0
      },
      {
        "skillGroupCDID": 1,
        "skillGroupCDTime": 10.0
      }
    ],
    "skillSetting": {},
    "skills": {
      "101": {
        "name": "OnAlert",
        "skillType": "OnAlert",
        "faceTarget": true,
        "publicCDGroup": "",
        "ignoreGCD": true,
        "triggerGCD": false,
        "HHAGODJIAPE": "",
        "stateIDs": ["Alert"],
        "skillQueryingTime": 3.0,
        "flagTargetReachable": "10",
        "flagSelfOnTemplateCollider": "01",
        "flagSelfInZone": "10",
        "flagTargetInZone": "11"
      },
      "111": {
        "name": "Salute",
        "skillType": "FreeBuddy",
        "priority": 1,
        "canUseCombatSkillCondition": true,
        "castCondition": {
          "pose": [9001],
          "pickRangeYMax": 2.0,
          "skillAnchorRangeMin": -999.0,
          "targetSkillAnchorRangeMin": -999.0,
          "globalValues": ["ForlornVessel_Salute"],
          "globalValuesTargetType": "SELF"
        },
        "cd": 2.0,
        "initialCD": 2.0,
        "publicCDGroup": "",
        "ignoreGCD": true,
        "triggerCDOnStart": true,
        "HHAGODJIAPE": "",
        "stateIDs": ["Salute"],
        "flagTargetReachable": "10",
        "flagSelfOnTemplateCollider": "01",
        "flagSelfInZone": "10",
        "flagTargetInZone": "11",
        "buddySkillCondition": {
          "selectRange": 10.0,
          "buddyScoring": {
            "roleScores": [1.0, 1.0, 1.0, 1.0]
          }
        }
      },
      "131": {
        "name": "Clean",
        "skillType": "Free",
        "castCondition": {
          "pose": [9001]
        },
        "cd": 30.0,
        "initialCD": 20.0,
        "publicCDGroup": "",
        "skillGroupCDID": 1,
        "HHAGODJIAPE": "",
        "stateIDs": ["Clean"],
        "flagTargetReachable": "10",
        "flagSelfOnTemplateCollider": "01",
        "flagSelfInZone": "10",
        "flagTargetInZone": "11"
      },
      "201": {
        "name": "NormalAtk01",
        "combatSkillType": "MeleeAttack",
        "priority": 2,
        "castCondition": {
          "pose": [201],
          "maxTargetAngleXZ": 60.0,
          "pickRangeMax": 5.5,
          "pickRangeYMax": 2.5,
          "castRangeMax": 5.5
        },
        "cd": 0.5,
        "cdUpperRange": 5.0,
        "initialCD": 2.0,
        "initialCDUpperRange": 4.0,
        "publicCDGroup": "ForlornVessel_Skill",
        "HHAGODJIAPE": "",
        "stateIDs": ["NormalAtk01"],
        "skillQueryingTime": 3.0,
        "flagTargetReachable": "11",
        "flagSelfOnTemplateCollider": "01",
        "flagSelfInZone": "11",
        "flagTargetInZone": "11"
      },
      "211": {
        "name": "NormalAtk02",
        "combatSkillType": "MeleeAttack",
        "priority": 2,
        "castCondition": {
          "pose": [201],
          "pickRangeMax": 5.5,
          "pickRangeYMax": 3.5,
          "castRangeMax": 5.5
        },
        "cd": 1.5,
        "cdUpperRange": 5.0,
        "initialCD": 1.0,
        "initialCDUpperRange": 4.0,
        "publicCDGroup": "ForlornVessel_Skill",
        "HHAGODJIAPE": "",
        "stateIDs": ["NormalAtk02"],
        "skillQueryingTime": 3.0,
        "flagTargetReachable": "11",
        "flagSelfOnTemplateCollider": "01",
        "flagSelfInZone": "11",
        "flagTargetInZone": "11"
      },
      "301": {
        "name": "ChargeAtk",
        "combatSkillType": "MeleeAttack",
        "priority": 3,
        "castCondition": {
          "pose": [201],
          "pickRangeMin": 10.0,
          "pickRangeMax": 17.5,
          "castRangeMin": 10.0,
          "castRangeMax": 17.5
        },
        "cd": 15.0,
        "cdUpperRange": 5.0,
        "initialCD": 2.0,
        "initialCDUpperRange": 4.0,
        "publicCDGroup": "ForlornVessel_Skill",
        "skillGroupCDID": 0,
        "HHAGODJIAPE": "",
        "stateIDs": ["ChargeAtk_BS", "ChargeAtk_Loop", "ChargeAtk_AS"],
        "skillQueryingTime": 3.0,
        "flagTargetReachable": "10",
        "flagSelfOnTemplateCollider": "01",
        "flagSelfInZone": "10",
        "flagTargetInZone": "11"
      },
      "302": {
        "name": "ChargeAtk",
        "skillType": "OnNerve",
        "combatSkillType": "MeleeAttack",
        "priority": 2,
        "canUseCombatSkillCondition": true,
        "castCondition": {
          "pose": [201],
          "pickRangeMin": 5.0,
          "pickRangeMax": 20.0,
          "castRangeMin": 7.5,
          "castRangeMax": 15.5
        },
        "cd": 12.0,
        "cdUpperRange": 6.0,
        "initialCDUpperRange": 4.0,
        "publicCDGroup": "ForlornVessel_Skill",
        "skillGroupCDID": 0,
        "HHAGODJIAPE": "",
        "stateIDs": ["ChargeAtk_BS", "ChargeAtk_Loop", "ChargeAtk_AS"],
        "skillQueryingTime": 3.0,
        "flagTargetReachable": "10",
        "flagSelfOnTemplateCollider": "01",
        "flagSelfInZone": "10",
        "flagTargetInZone": "11",
        "nerveTrigger": ["HIT_BUDDY"],
        "nerveTarget": {
          "enable": true,
          "nerveTargetType": "TriggerResponser",
          "changeThreatTarget": true
        }
      }
    },
    "skillGCD": 0.5,
    "target": {
      "defaultTargetPrioritys": ["NERVE_TARGET", "THREAT"],
      "specificationTargetPrioritys": {
        "101": ["MASTER", "THREAT"]
      }
    },
    "birdCirclingTactic": [
      {
        "$type": "EPHBMLFODKF",
        "enable": true,
        "condition": {
          "pose": [201]
        },
        "JMCOBEPDIGM": {
          "rangeMax": 5.5,
          "JOJBOHEDBHC": 5.0,
          "AFILKAGDAHN": 8.0,
          "ALIBHHJHHMN": 4.0,
          "BFJBDDIIFOI": {
            "IBLIPJPNOGC": 0.20000000298023224
          },
          "NAOBMNGDKHL": "1111",
          "JCNIJOAIGII": "1111",
          "MNPDDAKDHGK": ""
        }
      },
      {
        "$type": "KACCHOLJDNK",
        "enable": true,
        "condition": {
          "pose": [201]
        },
        "JMCOBEPDIGM": {
          "HKJODDGJPHA": 50.0,
          "GGEBMFHFBPO": 3.5,
          "KFFGCIMPNMJ": 4.5,
          "PKNJDNAGLNM": 0,
          "MNPDDAKDHGK": ""
        }
      },
      {
        "$type": "NNJKLGNPMNN",
        "enable": true,
        "JMCOBEPDIGM": {
          "MNPDDAKDHGK": "",
          "GJDMDHIBCME": ""
        }
      },
      {
        "$type": "FPELBIJFGCE",
        "enable": true,
        "condition": {
          "pose": [101, 9001]
        },
        "JMCOBEPDIGM": {
          "KPNDPKIOPJM": 7.0,
          "PINAFKEDDLL": 5.0,
          "ANMPOPEBDIA": 10.0,
          "GMJFIMFFOEL": 3.0,
          "CHCPFDMADEI": 5.0,
          "MNPDDAKDHGK": ""
        }
      }
    ]
  },
  "inputKeys": [
    {
      "keyID": 101,
      "inputKeyCode": 257,
      "abilityName": ""
    },
    {
      "keyID": 201,
      "inputKeyCode": 258,
      "abilityName": ""
    },
    {
      "keyID": 211,
      "inputKeyCode": 259,
      "abilityName": ""
    },
    {
      "keyID": 301,
      "inputKeyCode": 260,
      "abilityName": ""
    }
  ],
  "move": {
    "$type": "IPNMJMHDMPF",
    "moveOnWaterDepth": 1.0,
    "facingMove": "FourDirection",
    "monsterSizeType": "StoopType",
    "positionModifyState": "Walk",
    "PKHOMJHFAEE": "RootNode"
  },
  "audio": {
    "overrideEmitterName": "",
    "animAudio": {},
    "disableEvent": {
      "text": ""
    },
    "destroyEvent": {
      "text": ""
    },
    "randomVariantSwitchGroup": {
      "text": ""
    },
    "randomVariantSwitchValues": [
      {
        "text": ""
      }
    ]
  }
}
