{
  "common": {
    "effectAttachShape": {
      "$type": "FJNPJANPGGC",
      "mesh": "EffectMesh"
    },
    "mass": 10000.0,
    "height": 2.0,
    "modelHeight": 1.7999999523162842,
    "viewSize": 1.5,
    "affectedByWorld": true,
    "checkInSurface": true,
    "scale": 1.100000023841858,
    "useGrassDisplacement": true,
    "clearAnimatorOnSetLightDeactive": true,
    "clearAIOnSetLightDeactive": true,
    "reconnectSupport": true,
    "recoverByInitPose": true
  },
  "headControl": {
    "$type": "KPIPDEBDPIH",
    "useHeadControl": true,
    "maxYawDegree": 20.0,
    "maxPitchDegree": 5.0,
    "animStates": [
      "NormalIdle/Standby",
      "NormalMove/WalkForward",
      "NormalMove/WalkBack",
      "NormalMove/WalkRight",
      "NormalMove/WalkLeft",
      "NormalMove/Run",
      "Turn/TurnLeft",
      "Turn/TurnRight"
    ]
  },
  "model": {
    "bornEffect": "Eff_Monster_Common_Born",
    "attachEffect": "",
    "BKPFGNPLDNJ": ""
  },
  "dither": {
    "showDitherDuration": 1.0
  },
  "combat": {
    "property": {
      "endureType": "Monster_Demiboss_Humanoid",
      "weight": 80.0
    },
    "beHit": {
      "hitBloodEffect": ""
    },
    "combatLock": {
      "lockShape": "CircleLockEnemy",
      "lockType": "Avatar&Monster_Lv4"
    },
    "die": {
      "hasAnimatorDie": true,
      "dieEndTime": 2.0,
      "dieForceDisappearTime": 8.0,
      "dieDisappearEffect": "",
      "dieShaderData": "EremiteSandDie",
      "dieShaderEnableDurationTime": 1.0,
      "muteHitBox": true,
      "dieDenyLockOn": true,
      "dieIsGhostToEnemy": true,
      "dieIgnoreTriggerBullet": true,
      "muteBillboard": true,
      "mutePushCollider": true
    },
    "summon": {
      "summonTags": [
        {
          "summonTag": 25110301,
          "name": "Scorpion_Eremite_Fire_01",
          "copyOwnerThreatList": true,
          "useSummonThreatList": true
        }
      ]
    }
  },
  "abilities": [
    {
      "abilityID": "SteerControl",
      "abilityName": "Monster_Eremite_Female_Standard_Oracle_StreeController",
      "abilityOverride": ""
    },
    {
      "abilityID": "FightController",
      "abilityName": "Monster_Eremite_Female_Standard_Oracle_FightController",
      "abilityOverride": ""
    },
    {
      "abilityID": "Improve",
      "abilityName": "Monster_Eremite_Female_Standard_Oracle_Improve",
      "abilityOverride": ""
    },
    {
      "abilityID": "Summon",
      "abilityName": "Monster_Eremite_Female_Standard_Oracle_Summon",
      "abilityOverride": ""
    },
    {
      "abilityID": "LoopEffect",
      "abilityName": "Monster_Eremite_Female_Standard_Oracle_Improve_LoopEffect",
      "abilityOverride": ""
    },
    {
      "abilityID": "Weak",
      "abilityName": "Monster_Eremite_Female_Standard_Oracle_Weak",
      "abilityOverride": ""
    },
    {
      "abilityID": "ReturnToBorn",
      "abilityName": "Monster_Eremite_Female_Standard_Oracle_ReturnToBorn",
      "abilityOverride": ""
    },
    {
      "abilityID": "RangeAttack01",
      "abilityName": "Monster_Eremite_Female_Standard_Oracle_RangeAttack01",
      "abilityOverride": ""
    },
    {
      "abilityID": "TriggerFunnel",
      "abilityName": "Monster_Eremite_Female_Standard_Oracle_TriggerFunnel",
      "abilityOverride": ""
    },
    {
      "abilityID": "_LaserAttack01_GetTargetPos",
      "abilityName": "Monster_Eremite_Female_Standard_Oracle_LaserAttack01_GetTargetPos",
      "abilityOverride": ""
    },
    {
      "abilityID": "LaserAttack01_Cross",
      "abilityName": "Monster_Eremite_Female_Standard_Oracle_LaserAttack01_Cross",
      "abilityOverride": ""
    },
    {
      "abilityID": "LaserAttack01_Killed",
      "abilityName": "Monster_Eremite_Female_Standard_Oracle_LaserAttack01_Killed",
      "abilityOverride": ""
    },
    {
      "abilityID": "LaserAttack01_LaserStart",
      "abilityName": "Monster_Eremite_Female_Standard_Oracle_LaserAttack01_LaserStart",
      "abilityOverride": ""
    },
    {
      "abilityID": "LaserAttack01_LaserEnd",
      "abilityName": "Monster_Eremite_Female_Standard_Oracle_LaserAttack01_LaserEnd",
      "abilityOverride": ""
    },
    {
      "abilityID": "PartControlBullet_Disable",
      "abilityName": "Monster_Eremite_Female_Standard_Oracle_LaserAttack01_PartControlBullet_Disable",
      "abilityOverride": ""
    },
    {
      "abilityID": "PartControlBullet_Enable",
      "abilityName": "Monster_Eremite_Female_Standard_Oracle_LaserAttack01_PartControlBullet_Enable",
      "abilityOverride": ""
    },
    {
      "abilityID": "Monster_Eremite_Female_Standard_Oracle_LaserAttack01_RayBullet",
      "abilityName": "Monster_Eremite_Female_Standard_Oracle_LaserAttack01_RayBullet",
      "abilityOverride": ""
    },
    {
      "abilityID": "FindBlinkPoint_Away",
      "abilityName": "Monster_Eremite_Female_Standard_Oracle_FindBlinkPoint_Away",
      "abilityOverride": ""
    },
    {
      "abilityID": "FindBlinkPoint_MeleeAttack",
      "abilityName": "Monster_Eremite_Female_Standard_Oracle_FindBlinkPoint_MeleeAttack",
      "abilityOverride": ""
    },
    {
      "abilityID": "Invisable",
      "abilityName": "Monster_Eremite_Female_Standard_Oracle_Invisable",
      "abilityOverride": ""
    },
    {
      "abilityID": "DoBlink",
      "abilityName": "Monster_Eremite_Female_Standard_Oracle_DoBlink",
      "abilityOverride": ""
    },
    {
      "abilityID": "Visable",
      "abilityName": "Monster_Eremite_Female_Standard_Oracle_Visable",
      "abilityOverride": ""
    },
    {
      "abilityID": "ComboAttack01_01",
      "abilityName": "Monster_Eremite_Female_Standard_Oracle_NormalAttack01",
      "abilityOverride": ""
    },
    {
      "abilityID": "ComboAttack01_02",
      "abilityName": "Monster_Eremite_Female_Standard_Oracle_ComboAttack01",
      "abilityOverride": ""
    },
    {
      "abilityID": "WQ",
      "abilityName": "Monster_Eremite_Female_Standard_Oracle_Blink_RunAway",
      "abilityOverride": ""
    }
  ],
  "stateLayers": {
    "defaultLayer": {
      "$type": "GBGJJIIEMBD",
      "layerIndexName": "",
      "CPAANEIJCGD": "",
      "stateIDs": {
        "NormalIdle": {
          "$type": "NEDIFAKEGCO",
          "animatorStates": {
            "Standby": [],
            "Born": []
          },
          "canDoSkill": true,
          "canSyncMove": true,
          "resetAnimatorTriggerOnExit": ["DoSkill"]
        },
        "Standby_Weak": {
          "$type": "NEDIFAKEGCO",
          "animatorStates": {
            "Standby_Weak": []
          },
          "canDoSkill": true,
          "canSyncMove": true,
          "resetAnimatorTriggerOnEnter": ["Recover"],
          "resetAnimatorTriggerOnExit": ["DoSkill"]
        },
        "NormalMove": {
          "$type": "NEDIFAKEGCO",
          "animatorStates": {
            "WalkForward": [
              "Audio_Monster_Eremite_Female_Standard_Oracle_01_Walk"
            ],
            "WalkBack": [
              "Audio_Monster_Eremite_Female_Standard_Oracle_01_Walk"
            ],
            "WalkRight": [
              "Audio_Monster_Eremite_Female_Standard_Oracle_01_Walk"
            ],
            "WalkLeft": [
              "Audio_Monster_Eremite_Female_Standard_Oracle_01_Walk"
            ],
            "Run": []
          },
          "canDoSkill": true,
          "canSyncMove": true,
          "resetAnimatorTriggerOnExit": ["DoSkill"],
          "canSteer": true
        },
        "Turn": {
          "$type": "NEDIFAKEGCO",
          "animatorStates": {
            "TurnLeft": [
              "Audio_Monster_Eremite_Female_Standard_Oracle_01_Walk"
            ],
            "TurnRight": [
              "Audio_Monster_Eremite_Female_Standard_Oracle_01_Walk"
            ]
          },
          "canDoSkill": true,
          "canSyncMove": true,
          "resetAnimatorTriggerOnExit": ["DoSkill"],
          "canSteer": true
        },
        "BeHit": {
          "$type": "NEDIFAKEGCO",
          "animatorStates": {
            "Hit_L": [],
            "Hit_H": ["Audio_Monster_Eremite_Female_Standard_Oracle_01_Hit_H"]
          },
          "resetAnimatorTriggerOnEnter": ["BeHit"],
          "resetAnimatorTriggerOnExit": ["DoSkill"]
        },
        "BeHitThrow": {
          "$type": "NEDIFAKEGCO",
          "animatorStates": {
            "HitThrow": [],
            "HitThrowDrop": []
          },
          "resetAnimatorTriggerOnEnter": ["BeHit", "HitAir2HitDrop"],
          "resetAnimatorTriggerOnExit": ["DoSkill", "BeHit"],
          "setAnimatorBoolean": [
            {
              "name": "AirDie"
            }
          ]
        },
        "BeHitThrowToStandby": {
          "$type": "NEDIFAKEGCO",
          "animatorStates": {
            "HitThrowToGround": [
              "Audio_Monster_Eremite_Female_Standard_Oracle_01_HitThrowToGround"
            ]
          },
          "resetAnimatorTriggerOnEnter": ["BeHit", "HitAir2HitDrop"],
          "resetAnimatorTriggerOnExit": ["DoSkill", "BeHit"],
          "setAnimatorBoolean": [
            {
              "name": "AirDie",
              "normalizeEnd": 0.6200000047683716
            }
          ]
        },
        "Struggle": {
          "$type": "NEDIFAKEGCO",
          "animatorStates": {
            "Struggle": []
          },
          "resetAnimatorTriggerOnEnter": ["BeHit", "HitAir2HitDrop"],
          "resetAnimatorTriggerOnExit": ["DoSkill"]
        },
        "Die": {
          "$type": "NEDIFAKEGCO",
          "animatorStates": {
            "Die1": [
              "Monster_Eremite_Female_Standard_Oracle_Die",
              "Audio_Monster_Eremite_Female_Standard_Oracle_01_Die1"
            ],
            "Die2": [
              "Monster_Eremite_Female_Standard_Oracle_Die",
              "Audio_Monster_Eremite_Female_Standard_Oracle_01_Die1"
            ],
            "SwimDie_BS": [],
            "SwimDie": ["Monster_Eremite_SwimDie"],
            "SwimDie_AS": []
          },
          "resetAnimatorTriggerOnEnter": ["DoSkill", "ComboTrigger"]
        },
        "Die_RagDoll": {
          "$type": "NEDIFAKEGCO",
          "animatorStates": {
            "AirDie": ["Monster_Eremite_AirDie"]
          }
        },
        "Alert": {
          "$type": "NEDIFAKEGCO",
          "animatorStates": {
            "Alert": [
              "Monster_Eremite_Female_Standard_Oracle_Alert",
              "Audio_Monster_Eremite_Female_Standard_Oracle_01_Alert"
            ]
          },
          "addEndure": 0.0,
          "massRatio": 20.0,
          "resetAnimatorTriggerOnExit": ["BeHit", "DoSkill"],
          "autoSteer": true
        },
        "SheathWeapon": {
          "$type": "NEDIFAKEGCO",
          "animatorStates": {
            "SheathWeapon": [
              "Monster_Eremite_Female_Standard_Oracle_ReturnToBorn",
              "Audio_Monster_Eremite_Female_Standard_Oracle_01_SheathWeapon"
            ]
          },
          "addEndure": 0.0,
          "massRatio": 20.0,
          "resetAnimatorTriggerOnEnter": ["SheathWeaponTrigger"],
          "resetAnimatorTriggerOnExit": [
            "BeHit",
            "DoSkill",
            "SheathWeaponTrigger"
          ]
        },
        "Improve": {
          "$type": "NEDIFAKEGCO",
          "animatorStates": {
            "Improve": [
              "Monster_Eremite_Female_Standard_Oracle_Improve",
              "Audio_Monster_Eremite_Female_Standard_Oracle_01_Improve"
            ]
          },
          "addEndure": 0.0,
          "massRatio": 20.0,
          "resetAnimatorTriggerOnEnter": ["ForceImprove"],
          "resetAnimatorTriggerOnExit": ["BeHit", "DoSkill", "ForceImprove"]
        },
        "Weak": {
          "$type": "NEDIFAKEGCO",
          "animatorStates": {
            "Weak_BS": [
              "Audio_Monster_Eremite_Female_Standard_Oracle_01_Weak_BS"
            ],
            "Weak_AS": [
              "Audio_Monster_Eremite_Female_Standard_Oracle_01_Weak_AS"
            ]
          },
          "addEndure": 0.0,
          "massRatio": 20.0,
          "resetAnimatorTriggerOnEnter": ["Weak"],
          "resetAnimatorTriggerOnExit": ["BeHit", "DoSkill", "Weak", "Recover"]
        },
        "Personality01": {
          "$type": "NEDIFAKEGCO",
          "animatorStates": {
            "Personality01": [
              "Monster_Eremite_Female_Standard_Oracle_Personality01",
              "Audio_Monster_Eremite_Female_Standard_Oracle_01_Personality01"
            ]
          },
          "canDoSkill": true,
          "addEndure": 0.0,
          "massRatio": 20.0,
          "resetAnimatorTriggerOnExit": ["BeHit", "DoSkill"],
          "canSteer": true
        },
        "Personality02": {
          "$type": "NEDIFAKEGCO",
          "animatorStates": {
            "Personality02": [
              "Monster_Eremite_Female_Standard_Oracle_Personality02",
              "Audio_Monster_Eremite_Female_Standard_Oracle_01_Personality02"
            ]
          },
          "canDoSkill": true,
          "addEndure": 0.0,
          "massRatio": 20.0,
          "resetAnimatorTriggerOnExit": ["BeHit", "DoSkill"],
          "canSteer": true
        },
        "Flee": {
          "$type": "NEDIFAKEGCO",
          "animatorStates": {
            "Flee": [
              "Monster_Eremite_Female_Standard_Oracle_ReturnToBorn",
              "Audio_Monster_Eremite_Female_Standard_Oracle_01_SheathWeapon"
            ]
          },
          "canDoSkill": true,
          "addEndure": 0.0,
          "massRatio": 20.0,
          "resetAnimatorTriggerOnExit": ["BeHit", "DoSkill"],
          "canSteer": true
        },
        "LaserAttack01_BS": {
          "$type": "NEDIFAKEGCO",
          "animatorStates": {
            "LaserAttack01_BS": [
              "Audio_Monster_Eremite_Female_Standard_Oracle_01_LaserAttack01_BS"
            ]
          },
          "addEndure": 0.10000000149011612,
          "resetAnimatorTriggerOnExit": ["BeHit", "DoSkill"],
          "canSteer": true
        },
        "LaserAttack01": {
          "$type": "NEDIFAKEGCO",
          "animatorStates": {
            "LaserAttack01": [
              "Monster_Eremite_Female_Standard_Oracle_LaserAttack01",
              "Audio_Monster_Eremite_Female_Standard_Oracle_01_LaserAttack01"
            ]
          },
          "addEndure": 0.10000000149011612,
          "resetAnimatorTriggerOnExit": ["BeHit", "DoSkill"],
          "canSteer": true
        },
        "LaserAttack01_AS": {
          "$type": "NEDIFAKEGCO",
          "animatorStates": {
            "LaserAttack01_AS": []
          },
          "addEndure": 0.10000000149011612,
          "resetAnimatorTriggerOnExit": ["BeHit", "DoSkill"],
          "canSteer": true
        },
        "LaserAttack02_BS": {
          "$type": "NEDIFAKEGCO",
          "animatorStates": {
            "LaserAttack02_BS": [
              "Audio_Monster_Eremite_Female_Standard_Oracle_01_LaserAttack01_BS"
            ]
          },
          "addEndure": 0.10000000149011612,
          "resetAnimatorTriggerOnExit": ["BeHit", "DoSkill"],
          "canSteer": true
        },
        "LaserAttack02": {
          "$type": "NEDIFAKEGCO",
          "animatorStates": {
            "LaserAttack02": [
              "Monster_Eremite_Female_Standard_Oracle_LaserAttack01",
              "Audio_Monster_Eremite_Female_Standard_Oracle_01_LaserAttack01"
            ]
          },
          "addEndure": 0.10000000149011612,
          "resetAnimatorTriggerOnExit": ["BeHit", "DoSkill"],
          "canSteer": true
        },
        "LaserAttack02_AS": {
          "$type": "NEDIFAKEGCO",
          "animatorStates": {
            "LaserAttack02_AS": []
          },
          "addEndure": 0.10000000149011612,
          "resetAnimatorTriggerOnExit": ["BeHit", "DoSkill"],
          "canSteer": true
        },
        "RangeAttack01": {
          "$type": "NEDIFAKEGCO",
          "animatorStates": {
            "RangeAttack01": [
              "Monster_Eremite_Female_Standard_Oracle_RangeAttack01",
              "Audio_Monster_Eremite_Female_Standard_Oracle_01_RangeAttack01"
            ]
          },
          "addEndure": 0.0,
          "resetAnimatorTriggerOnExit": ["BeHit", "DoSkill", "ComboTrigger"],
          "canSteer": true
        },
        "Blink_RangeAttack01": {
          "$type": "NEDIFAKEGCO",
          "animatorStates": {
            "Blink_RangeAttack01": [
              "Monster_Eremite_Female_Standard_Oracle_RangeAttack01",
              "Audio_Monster_Eremite_Female_Standard_Oracle_01_RangeAttack01"
            ]
          },
          "addEndure": 0.0,
          "resetAnimatorTriggerOnExit": ["BeHit", "DoSkill", "ComboTrigger"],
          "canSteer": true
        },
        "RangeAttack02": {
          "$type": "NEDIFAKEGCO",
          "animatorStates": {
            "RangeAttack02": [
              "Monster_Eremite_Female_Standard_Oracle_RangeAttack02",
              "Audio_Monster_Eremite_Female_Standard_Oracle_01_RangeAttack02"
            ]
          },
          "addEndure": 0.0,
          "resetAnimatorTriggerOnExit": ["BeHit", "DoSkill"],
          "canSteer": true
        },
        "Blink": {
          "$type": "NEDIFAKEGCO",
          "animatorStates": {
            "Blink": [
              "Monster_Eremite_Female_Standard_Oracle_Blink",
              "Audio_Monster_Eremite_Female_Standard_Oracle_01_Blink"
            ]
          },
          "addEndure": 0.0,
          "resetAnimatorTriggerOnExit": ["BeHit", "DoSkill", "ComboTrigger"],
          "canSteer": true
        },
        "MeleeAttack01": {
          "$type": "NEDIFAKEGCO",
          "animatorStates": {
            "MeleeAttack01": [
              "Monster_Eremite_Female_Standard_Oracle_MeleeAttack01",
              "Audio_Monster_Eremite_Female_Standard_Oracle_01_MeleeAttack01"
            ]
          },
          "addEndure": 0.0,
          "resetAnimatorTriggerOnExit": ["BeHit", "DoSkill", "ComboTrigger"],
          "canSteer": true
        },
        "ComboAttack01": {
          "$type": "NEDIFAKEGCO",
          "animatorStates": {
            "ComboAttack01": [
              "Audio_Monster_Eremite_Female_Standard_Oracle_01_ComboAttack01"
            ]
          },
          "addEndure": 0.0,
          "resetAnimatorTriggerOnEnter": ["ComboTrigger"],
          "resetAnimatorTriggerOnExit": ["BeHit", "DoSkill"],
          "canSteer": true
        }
      }
    }
  },
  "partControl": {
    "parts": [
      {
        "$type": "INCPGKCDCIO",
        "angularSpeed": 3600.0,
        "partRootName": "WaeponRotation",
        "doOnUnEabled": "RotateToForward",
        "forwardByTransName": "",
        "limitHorizontal": 360.0,
        "limitVertical": 360.0,
        "targetType": "ActionSetTarget",
        "defaultEnable": false
      }
    ]
  },
  "billboard": {
    "$type": "DNGNMAJBCNP",
    "attachPoint": "BillboardAttach",
    "offset": {
      "x": -0.3499999940395355
    },
    "offsetType": "Character",
    "showHPBar": true,
    "size": "Big"
  },
  "initialPoses": {
    "Default": {
      "initialPoseID": 1
    }
  },
  "aibeta": {
    "enable": true,
    "moveSetting": {
      "navMeshAgentName": "Undead01",
      "almostReachedDistanceRun": 1.5
    },
    "aiCombat": {
      "combatRole": "FIGHTER"
    },
    "sensing": {
      "settings": {
        "DefaultSetting": {
          "feelRange": 8.0
        },
        "HighAlert": {
          "viewRange": 40.0,
          "feelRange": 10.0
        },
        "LowAlert": {
          "viewRange": 15.0,
          "feelRange": 6.0
        },
        "NeverCombat": {
          "enableVision": false,
          "hearAttractionRange": 0.0,
          "feelRange": 0.0
        }
      },
      "templates": {
        "DefaultTemplate": {
          "DefaultPoses": "DefaultSetting"
        },
        "NeverCombatTemplate": {
          "DefaultPoses": "NeverCombat"
        },
        "HighAlert": {
          "DefaultPoses": "HighAlert"
        },
        "LowAlert": {
          "DefaultPoses": "LowAlert"
        }
      }
    },
    "neurons": {
      "DefaultSetting": ["HIT"]
    },
    "threat": {
      "GHIJMOKOLMB": "",
      "clearThreatTargetDistance": 30.0,
      "clearThreatEdgeDistance": 3.5,
      "clearThreatTimerByDistance": 1.75,
      "viewThreatGrow": 35.0,
      "feelThreatGrow": 100.0,
      "threatDecreaseSpeed": 10.0,
      "viewAttenuation": [
        {
          "x": 10.0,
          "y": 2.0
        },
        {
          "x": 15.0,
          "y": 0.800000011920929
        },
        {
          "x": 20.0,
          "y": 0.5
        },
        {
          "x": 25.0,
          "y": 0.30000001192092896
        },
        {
          "x": 30.0,
          "y": 0.20000000298023224
        }
      ],
      "resistTauntLevel": "Monster_TauntLevel_3"
    },
    "defendArea": {
      "defendRange": 50.0
    },
    "profiling": {},
    "network": {
      "syncSkill": true
    },
    "skillGroupCDConfigs": [
      {
        "skillGroupCDID": 1,
        "skillGroupCDTime": 1.0
      },
      {
        "skillGroupCDID": 2,
        "skillGroupCDTime": 2.0
      },
      {
        "skillGroupCDID": 3,
        "skillGroupCDTime": 3.0
      },
      {
        "skillGroupCDID": 4,
        "skillGroupCDTime": 15.0
      }
    ],
    "skillSetting": {
      "skillEliteSet": {
        "1": [501]
      }
    },
    "skills": {
      "101": {
        "name": "OnAlert",
        "skillType": "OnAlert",
        "publicCDGroup": "",
        "ignoreGCD": true,
        "triggerGCD": false,
        "HHAGODJIAPE": "",
        "stateIDs": ["Alert"],
        "skillQueryingTime": 3.0,
        "flagTargetReachable": "10",
        "flagSelfOnTemplateCollider": "01",
        "flagSelfInZone": "10",
        "flagTargetInZone": "11"
      },
      "201": {
        "name": "RangeAttack01",
        "castCondition": {
          "pose": [101],
          "pickRangeMax": 20.0
        },
        "cd": 5.0,
        "cdUpperRange": 2.0,
        "publicCDGroup": "",
        "skillGroupCDID": 3,
        "HHAGODJIAPE": "",
        "stateIDs": ["RangeAttack01"],
        "flagTargetReachable": "11",
        "flagSelfOnTemplateCollider": "01",
        "flagSelfInZone": "11",
        "flagTargetInZone": "11"
      },
      "211": {
        "name": "LaserAttack01",
        "castCondition": {
          "pose": [101],
          "pickRangeMin": 3.0,
          "pickRangeMax": 15.0
        },
        "cd": 6.0,
        "cdUpperRange": 2.0,
        "publicCDGroup": "",
        "skillGroupCDID": 3,
        "HHAGODJIAPE": "",
        "stateIDs": ["LaserAttack01_BS", "LaserAttack01", "LaserAttack01_AS"],
        "flagTargetReachable": "10",
        "flagSelfOnTemplateCollider": "01",
        "flagSelfInZone": "11",
        "flagTargetInZone": "11"
      },
      "212": {
        "name": "LaserAttack02",
        "castCondition": {
          "pose": [101],
          "pickRangeMin": 3.0,
          "pickRangeMax": 15.0
        },
        "cd": 20.0,
        "cdUpperRange": 2.0,
        "initialCD": 3.0,
        "initialCDUpperRange": 5.0,
        "publicCDGroup": "",
        "skillGroupCDID": 3,
        "HHAGODJIAPE": "",
        "stateIDs": [
          "LaserAttack01_BS",
          "LaserAttack01",
          "LaserAttack01_AS",
          "LaserAttack02_BS",
          "LaserAttack02",
          "LaserAttack02_AS"
        ],
        "flagTargetReachable": "10",
        "flagSelfOnTemplateCollider": "01",
        "flagSelfInZone": "11",
        "flagTargetInZone": "11"
      },
      "221": {
        "name": "RangeAttack02",
        "priority": 2,
        "castCondition": {
          "pose": [101],
          "pickRangeMax": 20.0
        },
        "cd": 20.0,
        "cdUpperRange": 2.0,
        "initialCD": 5.0,
        "publicCDGroup": "",
        "HHAGODJIAPE": "",
        "stateIDs": ["RangeAttack02"],
        "flagTargetReachable": "11",
        "flagSelfOnTemplateCollider": "01",
        "flagSelfInZone": "11",
        "flagTargetInZone": "11"
      },
      "231": {
        "name": "Blink",
        "priority": 2,
        "castCondition": {
          "pose": [101, 201],
          "pickRangeMax": 5.0
        },
        "cd": 15.0,
        "cdUpperRange": 3.0,
        "initialCD": 10.0,
        "initialCDUpperRange": 3.0,
        "publicCDGroup": "",
        "skillGroupCDID": 4,
        "HHAGODJIAPE": "",
        "stateIDs": ["Blink", "Blink_RangeAttack01"],
        "flagTargetReachable": "11",
        "flagSelfOnTemplateCollider": "01",
        "flagSelfInZone": "10",
        "flagTargetInZone": "11"
      },
      "232": {
        "name": "Blink",
        "priority": 2,
        "castCondition": {
          "pose": [101, 201],
          "pickRangeMin": 20.0,
          "pickRangeMax": 40.0
        },
        "cd": 15.0,
        "cdUpperRange": 3.0,
        "initialCD": 10.0,
        "initialCDUpperRange": 3.0,
        "publicCDGroup": "",
        "skillGroupCDID": 4,
        "HHAGODJIAPE": "",
        "stateIDs": ["Blink", "Blink_RangeAttack01"],
        "flagTargetReachable": "11",
        "flagSelfOnTemplateCollider": "01",
        "flagSelfInZone": "10",
        "flagTargetInZone": "11"
      },
      "301": {
        "name": "Improve_Shoot_01",
        "castCondition": {
          "pose": [201, 102],
          "pickRangeMax": 20.0
        },
        "cd": 7.0,
        "cdUpperRange": 2.0,
        "publicCDGroup": "",
        "skillGroupCDID": 3,
        "HHAGODJIAPE": "",
        "stateIDs": ["RangeAttack01"],
        "flagTargetReachable": "10",
        "flagSelfOnTemplateCollider": "01",
        "flagSelfInZone": "11",
        "flagTargetInZone": "11"
      },
      "401": {
        "name": "Improve",
        "priority": 2,
        "castCondition": {
          "pose": [111]
        },
        "cd": 10.0,
        "publicCDGroup": "",
        "ignoreGCD": true,
        "triggerGCD": false,
        "triggerCDOnFail": false,
        "HHAGODJIAPE": "",
        "stateIDs": ["Improve"],
        "skillQueryingTime": 3.0,
        "flagTargetReachable": "11",
        "flagSelfOnTemplateCollider": "11",
        "flagSelfInZone": "11",
        "flagTargetInZone": "11"
      },
      "501": {
        "name": "Flee",
        "priority": 2,
        "castCondition": {
          "pose": [111]
        },
        "cd": 10.0,
        "publicCDGroup": "",
        "ignoreGCD": true,
        "triggerGCD": false,
        "triggerCDOnFail": false,
        "HHAGODJIAPE": "",
        "stateIDs": ["Flee"],
        "skillQueryingTime": 3.0,
        "flagTargetReachable": "11",
        "flagSelfOnTemplateCollider": "11",
        "flagSelfInZone": "11",
        "flagTargetInZone": "11"
      },
      "9001": {
        "name": "Personality01",
        "skillType": "Free",
        "castCondition": {
          "pose": [2, 1]
        },
        "cd": 50.0,
        "cdUpperRange": 35.0,
        "initialCD": 25.0,
        "initialCDUpperRange": 10.0,
        "publicCDGroup": "",
        "ignoreGCD": true,
        "triggerGCD": false,
        "skillGroupCDID": 4,
        "HHAGODJIAPE": "",
        "stateIDs": ["Personality01"],
        "skillQueryingTime": 10.0,
        "flagTargetReachable": "10",
        "flagSelfOnTemplateCollider": "01",
        "flagSelfInZone": "10",
        "flagTargetInZone": "11"
      },
      "9002": {
        "name": "Personality02",
        "skillType": "Free",
        "castCondition": {
          "pose": [2, 1]
        },
        "cd": 50.0,
        "cdUpperRange": 35.0,
        "initialCD": 25.0,
        "initialCDUpperRange": 10.0,
        "publicCDGroup": "",
        "ignoreGCD": true,
        "triggerGCD": false,
        "skillGroupCDID": 4,
        "HHAGODJIAPE": "",
        "stateIDs": ["Personality02"],
        "skillQueryingTime": 10.0,
        "flagTargetReachable": "10",
        "flagSelfOnTemplateCollider": "01",
        "flagSelfInZone": "10",
        "flagTargetInZone": "11"
      }
    },
    "skillGCD": 3.0,
    "birdCirclingTactic": [
      {
        "$type": "EPHBMLFODKF",
        "enable": true,
        "condition": {
          "pose": [101, 102, 201]
        },
        "JMCOBEPDIGM": {
          "rangeMin": 5.0,
          "rangeMax": 20.0,
          "AFILKAGDAHN": 1.5,
          "ALIBHHJHHMN": 1.5,
          "OMHBOLPFEPM": 1.0,
          "BFJBDDIIFOI": {
            "LLICGJHIGME": 2.0,
            "IDEFILBHNAP": 0.5,
            "IBLIPJPNOGC": 2.0,
            "AEBLMKFNCDG": 2.0,
            "IGLIBIOEGBB": 2.0
          },
          "NAOBMNGDKHL": "1111",
          "JCNIJOAIGII": "1111",
          "MNPDDAKDHGK": ""
        },
        "PIOCBHLFLJP": {
          "201": {
            "rangeMin": 0.0,
            "rangeMax": 14.0,
            "AFILKAGDAHN": 1.5,
            "ALIBHHJHHMN": 1.5,
            "OMHBOLPFEPM": 1.0,
            "BFJBDDIIFOI": {
              "LLICGJHIGME": 4.0,
              "IDEFILBHNAP": 0.0,
              "IBLIPJPNOGC": 4.0,
              "AEBLMKFNCDG": 2.0,
              "IGLIBIOEGBB": 2.0
            },
            "NAOBMNGDKHL": "1111",
            "JCNIJOAIGII": "1111",
            "MNPDDAKDHGK": ""
          },
          "102": {
            "rangeMin": 0.0,
            "rangeMax": 14.0,
            "AFILKAGDAHN": 1.5,
            "ALIBHHJHHMN": 1.5,
            "OMHBOLPFEPM": 1.0,
            "BFJBDDIIFOI": {
              "LLICGJHIGME": 2.0,
              "IDEFILBHNAP": 0.5,
              "IBLIPJPNOGC": 4.0,
              "AEBLMKFNCDG": 2.0,
              "IGLIBIOEGBB": 2.0
            },
            "NAOBMNGDKHL": "1111",
            "JCNIJOAIGII": "1111",
            "MNPDDAKDHGK": ""
          }
        }
      },
      {
        "$type": "OJOBEDCMGKM",
        "enable": true,
        "condition": {
          "pose": [1]
        }
      },
      {
        "$type": "KACCHOLJDNK",
        "enable": true,
        "condition": {
          "pose": [101, 102, 201]
        },
        "JMCOBEPDIGM": {
          "ANLAAGAMIKF": 1,
          "KHDFDAAAPEI": 30.0,
          "HKJODDGJPHA": 99.0,
          "GGEBMFHFBPO": 30.0,
          "KFFGCIMPNMJ": 20.0,
          "MNPDDAKDHGK": ""
        }
      },
      {
        "$type": "NNJKLGNPMNN",
        "enable": true,
        "JMCOBEPDIGM": {
          "ANLAAGAMIKF": 0,
          "JFMIFLNBKMJ": 1.0,
          "DHGJDIPNDHH": 1.2999999523162842,
          "MNPDDAKDHGK": "",
          "GJDMDHIBCME": ""
        }
      },
      {
        "$type": "FPELBIJFGCE",
        "enable": true,
        "condition": {
          "pose": [1]
        },
        "JMCOBEPDIGM": {
          "KPNDPKIOPJM": 8.0,
          "PINAFKEDDLL": 5.0,
          "ANMPOPEBDIA": 15.0,
          "GMJFIMFFOEL": 3.5,
          "CHCPFDMADEI": 9.5,
          "MNPDDAKDHGK": ""
        }
      }
    ]
  },
  "inputKeys": [
    {
      "keyID": 201,
      "inputKeyCode": 257,
      "abilityName": ""
    },
    {
      "keyID": 211,
      "inputKeyCode": 258,
      "abilityName": ""
    },
    {
      "keyID": 212,
      "inputKeyCode": 259,
      "abilityName": ""
    },
    {
      "keyID": 221,
      "inputKeyCode": 261,
      "abilityName": ""
    },
    {
      "keyID": 231,
      "inputKeyCode": 262,
      "abilityName": ""
    },
    {
      "keyID": 401,
      "inputKeyCode": 263,
      "abilityName": ""
    },
    {
      "keyID": 9001,
      "inputKeyCode": 264,
      "abilityName": ""
    },
    {
      "keyID": 9002,
      "inputKeyCode": 265,
      "abilityName": ""
    }
  ],
  "move": {
    "$type": "IPNMJMHDMPF",
    "facingMove": "FourDirection",
    "monsterSizeType": "StoopType",
    "positionModifyExtra": true,
    "PKHOMJHFAEE": "RootNode"
  }
}
