{
  "common": {
    "effectAttachShape": {
      "$type": "FJNPJANPGGC",
      "mesh": "EffectMesh"
    },
    "mass": 40.0,
    "height": 0.8999999761581421,
    "modelHeight": 0.8999999761581421,
    "affectedByWorld": true,
    "checkInSurface": true,
    "useGrassDisplacement": true,
    "clearAnimatorOnSetLightDeactive": true,
    "clearAIOnSetLightDeactive": true,
    "recoverByInitPose": true
  },
  "model": {
    "bornEffect": "",
    "attachEffect": "",
    "canBakeMesh": false,
    "BKPFGNPLDNJ": ""
  },
  "dither": {
    "showDitherDuration": 2.0
  },
  "combat": {
    "property": {
      "endureType": "Monster_Slime",
      "weight": 75.0
    },
    "beHit": {
      "hitBloodEffect": ""
    },
    "combatLock": {
      "lockShape": "CircleLockEnemy",
      "lockType": "Avatar&Monster_Lv4"
    },
    "die": {
      "hasAnimatorDie": true,
      "dieEndTime": 0.5,
      "dieForceDisappearTime": 1.5,
      "dieDisappearEffect": "Eff_Death_Common",
      "dieShaderData": "MonsterDie",
      "muteHitBox": true,
      "dieDenyLockOn": true,
      "dieIsGhostToEnemy": true,
      "dieIgnoreTriggerBullet": true,
      "muteBillboard": true,
      "mutePushCollider": true
    },
    "animEvents": {
      "RamNormal": {
        "attackPattern": {
          "$type": "ConfigAttackCircle",
          "triggerType": "TriggerNoRepeat",
          "born": {
            "$type": "ConfigBornBySelf",
            "offset": {
              "x": 0.0,
              "y": 0.5,
              "z": 0.0
            }
          },
          "height": 1.7999999523162842,
          "fanAngle": 90.0,
          "radius": 2.0
        },
        "attackInfo": {
          "attackTag": "",
          "attenuationTag": "",
          "attenuationGroup": "default",
          "attackProperty": {
            "actorGrassSubHurtDelta": 0.30000001192092896,
            "actorWindSubHurtDelta": 0.0,
            "elementDurability": 100.0,
            "strikeType": "Blunt",
            "enBreak": 60.0,
            "attackType": "Melee",
            "GLKMCMDJBIK": 0.0
          },
          "hitPattern": {
            "onHitEffectName": "default",
            "hitImpulseY": "",
            "hitImpulseType": "LV2"
          }
        }
      },
      "RamDecayed": {
        "attackPattern": {
          "$type": "ConfigAttackCircle",
          "triggerType": "TriggerNoRepeat",
          "born": {
            "$type": "ConfigBornBySelf",
            "offset": {
              "x": 0.0,
              "y": 0.5,
              "z": 0.0
            }
          },
          "height": 1.7999999523162842,
          "fanAngle": 90.0,
          "radius": 2.4000000953674316
        },
        "attackInfo": {
          "attackTag": "",
          "attenuationTag": "",
          "attenuationGroup": "default",
          "attackProperty": {
            "actorGrassSubHurtDelta": 0.6000000238418579,
            "actorWindSubHurtDelta": 0.0,
            "elementDurability": 100.0,
            "strikeType": "Blunt",
            "enBreak": 150.0,
            "attackType": "Melee",
            "GLKMCMDJBIK": 0.0
          },
          "hitPattern": {
            "onHitEffectName": "default",
            "hitImpulseY": "",
            "hitImpulseType": "LV3"
          }
        }
      }
    }
  },
  "abilities": [
    {
      "abilityID": "",
      "abilityName": "Monster_Fungus_Un_Jump",
      "abilityOverride": ""
    },
    {
      "abilityID": "",
      "abilityName": "Monster_Fungus_Un_ReturnToBornManager",
      "abilityOverride": ""
    },
    {
      "abilityID": "",
      "abilityName": "Monster_Fungus_Un_Wind_HitThrowDropToGround",
      "abilityOverride": ""
    },
    {
      "abilityID": "",
      "abilityName": "Monster_Fungus_FungusStateManager",
      "abilityOverride": ""
    },
    {
      "abilityID": "",
      "abilityName": "Monster_Fungus_Un_Delta_Wind_ShootNormal",
      "abilityOverride": ""
    },
    {
      "abilityID": "",
      "abilityName": "Monster_Fungus_Un_Delta_Wind_ShootOverdose",
      "abilityOverride": ""
    },
    {
      "abilityID": "",
      "abilityName": "Monster_Fungus_Un_Delta_Wind_ShootDecayed",
      "abilityOverride": ""
    },
    {
      "abilityID": "",
      "abilityName": "Monster_Fungus_Un_Delta_Wind_Steer",
      "abilityOverride": ""
    },
    {
      "abilityID": "",
      "abilityName": "Monster_Fungus_Not_Un_Gamma_Water_Mark",
      "abilityOverride": ""
    }
  ],
  "stateLayers": {
    "defaultLayer": {
      "$type": "GBGJJIIEMBD",
      "layerIndexName": "",
      "CPAANEIJCGD": "",
      "stateIDs": {
        "Born": {
          "$type": "NEDIFAKEGCO",
          "animatorStates": {
            "Born": []
          },
          "canSyncMove": true,
          "resetAnimatorTriggerOnExit": ["DoSkill"]
        },
        "NormalIdle": {
          "$type": "NEDIFAKEGCO",
          "animatorStates": {
            "StandbyFree": [],
            "Standby": []
          },
          "canDoSkill": true,
          "canSyncMove": true,
          "resetAnimatorTriggerOnExit": ["DoSkill"],
          "canSteer": true,
          "autoSteer": true
        },
        "NormalMove": {
          "$type": "NEDIFAKEGCO",
          "animatorStates": {
            "Walk": ["Audio_Monster_Fungus_Un_Walk"]
          },
          "canDoSkill": true,
          "canSyncMove": true,
          "resetAnimatorTriggerOnExit": ["DoSkill"],
          "setAnimatorFloat": [
            {
              "name": "FlyMotionHor",
              "normalizeEnd": 0.0
            },
            {
              "name": "FlyMotionVer",
              "normalizeEnd": 0.0
            }
          ],
          "canSteer": true
        },
        "NormalFly": {
          "$type": "NEDIFAKEGCO",
          "animatorStates": {
            "Fly": []
          },
          "canDoSkill": true,
          "canSyncMove": true,
          "resetAnimatorTriggerOnExit": ["DoSkill"],
          "setAnimatorFloat": [
            {
              "name": "FlyMotionHor",
              "normalizeEnd": 0.0
            },
            {
              "name": "FlyMotionVer",
              "normalizeEnd": 0.0
            }
          ],
          "canSteer": true,
          "blendMove": "BlendMove3D"
        },
        "BeHit": {
          "$type": "NEDIFAKEGCO",
          "animatorStates": {
            "Hit_H": ["Audio_Monster_Fungus_Un_HitThrow"]
          },
          "canSyncMove": true,
          "resetAnimatorTriggerOnEnter": ["BeHit"],
          "resetAnimatorTriggerOnExit": ["DoSkill"],
          "airMoveFollowAnimation": true
        },
        "BeHitThrow": {
          "$type": "NEDIFAKEGCO",
          "animatorStates": {
            "HitThrow": ["Audio_Monster_Fungus_Un_HitThrow"],
            "HitThrowDrop": [],
            "HitThrowToGround": [
              "Monster_Fungus_Un_Delta_Wind_HitThrowToGround",
              "Audio_Monster_Fungus_Un_HitThrowToGround"
            ]
          },
          "resetAnimatorTriggerOnEnter": ["BeHit", "HitAir2HitDrop"],
          "resetAnimatorTriggerOnExit": ["DoSkill"],
          "remoteForceCloseAirMove": true
        },
        "Struggle": {
          "$type": "NEDIFAKEGCO",
          "animatorStates": {
            "Struggle": []
          },
          "resetAnimatorTriggerOnEnter": ["BeHit", "HitAir2HitDrop"],
          "resetAnimatorTriggerOnExit": ["DoSkill"]
        },
        "Die": {
          "$type": "NEDIFAKEGCO",
          "animatorStates": {
            "Die_BS": ["Audio_Monster_Fungus_Un_Die"],
            "Die": ["Monster_Fungus_Un_Die"],
            "AirDie": ["Monster_Fungus_Un_Die"],
            "SwimDie_BS": [],
            "SwimDie": ["Monster_Fungus_Un_Die"]
          }
        },
        "Warning": {
          "$type": "NEDIFAKEGCO",
          "animatorStates": {
            "Warning": ["Audio_Monster_Fungus_Un_Warning"]
          },
          "canSyncMove": true,
          "resetAnimatorTriggerOnExit": ["BeHit", "DoSkill"],
          "canSteer": true
        },
        "Jump_BS": {
          "$type": "NEDIFAKEGCO",
          "animatorStates": {
            "Jump_BS": ["Audio_Monster_Fungus_Un_Jump_BS"]
          },
          "canSyncMove": true,
          "resetAnimatorTriggerOnExit": ["DoSkill"],
          "canSteer": true,
          "airMoveFollowAnimation": true
        },
        "JumpProcess": {
          "$type": "NEDIFAKEGCO",
          "animatorStates": {
            "Launch_Loop": [],
            "Jump_AS": ["Audio_Monster_Fungus_Un_Jump_AS"],
            "Drop_Loop": []
          },
          "canDoSkill": true,
          "canSyncMove": true,
          "resetAnimatorTriggerOnExit": ["DoSkill", "Launch"],
          "canSteer": true,
          "airMoveFollowAnimation": true
        },
        "Land_AS": {
          "$type": "NEDIFAKEGCO",
          "animatorStates": {
            "Land_AS": ["Audio_Monster_Fungus_Un_Jump_AS"]
          },
          "canSyncMove": true,
          "resetAnimatorTriggerOnEnter": ["Land", "BeHit", "HitAir2HitDrop"],
          "resetAnimatorTriggerOnExit": ["DoSkill", "Land"],
          "canSteer": true,
          "airMoveFollowAnimation": true
        },
        "ChangeState": {
          "$type": "NEDIFAKEGCO",
          "animatorStates": {
            "ChangeStateToOverdose": ["Audio_Monster_Fungus_Un_ChangeState"],
            "ChangeStateToDecayed": ["Audio_Monster_Fungus_Un_ChangeState"]
          },
          "canSyncMove": true,
          "resetAnimatorTriggerOnEnter": ["BeHit"],
          "resetAnimatorTriggerOnExit": ["DoSkill"],
          "airMoveFollowAnimation": true
        },
        "RamNormal_BS": {
          "$type": "NEDIFAKEGCO",
          "animatorStates": {
            "RamNormal_BS": ["Audio_Monster_Fungus_Un_Ram_BS"],
            "RamNormal_Loop": []
          },
          "canSyncMove": true,
          "resetAnimatorTriggerOnExit": ["BeHit", "DoSkill"],
          "canSteer": true
        },
        "RamOverdose_BS": {
          "$type": "NEDIFAKEGCO",
          "animatorStates": {
            "RamOverdose_BS": ["Audio_Monster_Fungus_Un_Ram_BS"],
            "RamOverdose_Loop": []
          },
          "canSyncMove": true,
          "resetAnimatorTriggerOnExit": ["BeHit", "DoSkill"],
          "canSteer": true
        },
        "RamDecayed_BS": {
          "$type": "NEDIFAKEGCO",
          "animatorStates": {
            "RamDecayed_BS": [
              "Monster_Fungus_Un_Delta_Wind_RamDecayed_BS",
              "Audio_Monster_Fungus_Un_Ram_BS"
            ],
            "RamDecayed_Loop": []
          },
          "canSyncMove": true,
          "resetAnimatorTriggerOnExit": ["BeHit", "DoSkill"],
          "canSteer": true
        },
        "Ram": {
          "$type": "NEDIFAKEGCO",
          "animatorStates": {
            "RamNormal_Attack": [
              "Monster_Fungus_Un_Delta_Wind_RamNormal",
              "Audio_Monster_Fungus_Un_Ram_Attack"
            ]
          },
          "resetAnimatorTriggerOnExit": ["BeHit", "DoSkill"],
          "canSteer": true
        },
        "Ram_AS": {
          "$type": "NEDIFAKEGCO",
          "animatorStates": {
            "RamNormal_AS": ["Audio_Monster_Fungus_Un_Ram_AS"],
            "RamOverdose_Attack": [
              "Monster_Fungus_Un_Delta_Wind_RamNormal",
              "Audio_Monster_Fungus_Un_Ram_Attack"
            ],
            "RamOverdose_AS": ["Audio_Monster_Fungus_Un_Ram_AS"],
            "RamDecayed_Attack": [
              "Monster_Fungus_Un_Delta_Wind_RamDecayed",
              "Audio_Monster_Fungus_Un_Ram_Attack"
            ],
            "RamDecayed_AS": ["Audio_Monster_Fungus_Un_Ram_AS"]
          },
          "resetAnimatorTriggerOnExit": ["BeHit", "DoSkill"],
          "canSteer": true
        },
        "ShootNormal_BS": {
          "$type": "NEDIFAKEGCO",
          "animatorStates": {
            "ShootNormal_BS": ["Audio_Monster_Fungus_Un_Shoot_BS"],
            "ShootNormal_Loop": []
          },
          "canSyncMove": true,
          "resetAnimatorTriggerOnExit": ["BeHit", "DoSkill"],
          "canSteer": true
        },
        "ShootOverdose_BS": {
          "$type": "NEDIFAKEGCO",
          "animatorStates": {
            "ShootOverdose_BS": ["Audio_Monster_Fungus_Un_Shoot_BS"],
            "ShootOverdose_Loop": []
          },
          "canSyncMove": true,
          "resetAnimatorTriggerOnExit": ["BeHit", "DoSkill"],
          "canSteer": true
        },
        "ShootDecayed_BS": {
          "$type": "NEDIFAKEGCO",
          "animatorStates": {
            "ShootDecayed_BS": ["Audio_Monster_Fungus_Un_Shoot_BS"],
            "ShootDecayed_Loop": []
          },
          "canSyncMove": true,
          "resetAnimatorTriggerOnExit": ["BeHit", "DoSkill"],
          "canSteer": true
        },
        "Shoot": {
          "$type": "NEDIFAKEGCO",
          "animatorStates": {
            "ShootNormal_Attack": [
              "Monster_Fungus_Un_Delta_Wind_ShootNormal",
              "Audio_Monster_Fungus_Un_Wind_Shoot_Attack"
            ],
            "ShootNormal_AS": ["Audio_Monster_Fungus_Un_Shoot_AS"],
            "ShootOverdose_Attack01": [
              "Monster_Fungus_Un_Delta_Wind_ShootOverdose",
              "Audio_Monster_Fungus_Un_Wind_Shoot_Attack"
            ],
            "ShootOverdose_Attack02": [
              "Monster_Fungus_Un_Delta_Wind_ShootOverdose",
              "Audio_Monster_Fungus_Un_Wind_Shoot_Attack"
            ],
            "ShootOverdose_Attack03": [
              "Monster_Fungus_Un_Delta_Wind_ShootOverdose",
              "Audio_Monster_Fungus_Un_Wind_Shoot_Attack"
            ],
            "ShootOverdose_AS": ["Audio_Monster_Fungus_Un_Shoot_AS"],
            "ShootDecayed_Attack": [
              "Monster_Fungus_Un_Delta_Wind_ShootDecayed",
              "Audio_Monster_Fungus_Un_Wind_Shoot_Attack"
            ],
            "ShootDecayed_AS": ["Audio_Monster_Fungus_Un_Shoot_AS"]
          },
          "canSyncMove": true,
          "resetAnimatorTriggerOnExit": ["BeHit", "DoSkill"],
          "canSteer": true
        },
        "Dance": {
          "$type": "NEDIFAKEGCO",
          "animatorStates": {
            "Dance": ["Audio_Monster_Fungus_Un_Dance"]
          },
          "canDoSkill": true,
          "canSyncMove": true,
          "resetAnimatorTriggerOnExit": ["BeHit", "DoSkill"],
          "canSteer": true
        },
        "Tease": {
          "$type": "NEDIFAKEGCO",
          "animatorStates": {
            "Tease": ["Audio_Monster_Fungus_Un_Tease"]
          },
          "canDoSkill": true,
          "canSyncMove": true,
          "resetAnimatorTriggerOnExit": ["BeHit", "DoSkill"],
          "canSteer": true
        },
        "Absorb": {
          "$type": "NEDIFAKEGCO",
          "animatorStates": {
            "Absorb": [
              "Monster_Fungus_Un_Absorb",
              "Audio_Monster_Fungus_Un_Absorb"
            ]
          },
          "canDoSkill": true,
          "canSyncMove": true,
          "resetAnimatorTriggerOnExit": ["BeHit", "DoSkill"],
          "canSteer": true
        },
        "Practice": {
          "$type": "NEDIFAKEGCO",
          "animatorStates": {
            "Practice": ["Audio_Monster_Fungus_Un_Practice"]
          },
          "canDoSkill": true,
          "canSyncMove": true,
          "resetAnimatorTriggerOnExit": ["BeHit", "DoSkill"],
          "canSteer": true
        },
        "ReturnToBorn": {
          "$type": "NEDIFAKEGCO",
          "animatorStates": {
            "ReturnToBorn_BS": [
              "Monster_Fungus_Un_ReturnToBorn_BS",
              "Audio_Monster_Fungus_Un_ReturnToBorn_BS"
            ],
            "ReturnToBorn_Loop": [],
            "ReturnToBorn_AS": [
              "Monster_Fungus_Un_ReturnToBorn_AS",
              "Audio_Monster_Fungus_Un_ReturnToBorn_AS"
            ]
          },
          "cullingModelAlwaysAnimate": true,
          "resetAnimatorTriggerOnExit": ["BeHit", "DoSkill"]
        }
      }
    }
  },
  "billboard": {
    "$type": "DNGNMAJBCNP",
    "attachPoint": "BillboardAttach",
    "offset": {
      "y": 0.5
    },
    "radiusOffset": 1.0,
    "enableSelfAdapt": true,
    "showHPBar": true
  },
  "initialPoses": {
    "Default": {
      "initialPoseID": 101
    },
    "Dance": {
      "initialPoseID": 102,
      "initialPoseParams": {
        "boolParams": {
          "Dance": "true"
        }
      }
    },
    "Tease": {
      "initialPoseID": 103,
      "initialPoseParams": {
        "boolParams": {
          "Tease": "true"
        }
      }
    },
    "Absorb": {
      "initialPoseID": 104,
      "initialPoseParams": {
        "boolParams": {
          "Absorb": "true"
        }
      }
    },
    "Practice": {
      "initialPoseID": 105,
      "initialPoseParams": {
        "boolParams": {
          "Practice": "true"
        }
      }
    }
  },
  "aibeta": {
    "enable": true,
    "moveSetting": {
      "navMeshAgentName": "Undead01"
    },
    "sensing": {
      "settings": {
        "DefaultSetting": {
          "viewRange": 22.0,
          "feelRange": 8.75
        },
        "Patrol": {
          "viewRange": 0.0,
          "feelRange": 6.0
        },
        "NoSensing": {
          "enableVision": false,
          "hearAttractionRange": 0.0,
          "feelRange": 0.0
        }
      },
      "templates": {
        "DefaultTemplate": {
          "DefaultPoses": "DefaultSetting"
        },
        "Patrol": {
          "DefaultPoses": "Patrol"
        },
        "NoSensing": {
          "DefaultPoses": "NoSensing"
        }
      }
    },
    "neurons": {
      "DefaultSetting": ["HIT"],
      "NeverCombat": []
    },
    "threat": {
      "GHIJMOKOLMB": "",
      "clearThreatTargetDistance": 30.0,
      "clearThreatEdgeDistance": 5.0,
      "clearThreatTimerByDistance": 2.0,
      "viewAttenuation": [
        {
          "x": 12.0,
          "y": 1.0
        },
        {
          "x": 20.0,
          "y": 0.5
        }
      ]
    },
    "defendArea": {
      "defendRange": 50.0
    },
    "fly": {
      "enable": true,
      "floatingPoses": [201, 211, 221, 501, 511, 521]
    },
    "skillSetting": {
      "skillEliteSet": {
        "1": [],
        "2": [112]
      }
    },
    "skills": {
      "100": {
        "name": "OnAlert",
        "skillType": "OnAlert",
        "faceTarget": true,
        "publicCDGroup": "",
        "triggerGCD": false,
        "HHAGODJIAPE": "",
        "stateIDs": ["Warning"],
        "skillQueryingTime": 3.0,
        "flagTargetReachable": "10",
        "flagSelfOnTemplateCollider": "01",
        "flagSelfInZone": "10",
        "flagTargetInZone": "11"
      },
      "102": {
        "name": "Dance",
        "skillType": "Free",
        "castCondition": {
          "pose": [102]
        },
        "cd": 15.0,
        "initialCD": 5.0,
        "publicCDGroup": "",
        "triggerGCD": false,
        "HHAGODJIAPE": "",
        "stateIDs": ["Dance"],
        "skillQueryingTime": 3.0,
        "flagTargetReachable": "10",
        "flagSelfOnTemplateCollider": "01",
        "flagSelfInZone": "10",
        "flagTargetInZone": "11"
      },
      "112": {
        "name": "Practice2",
        "skillType": "Free",
        "castCondition": {
          "pose": [101, 111, 121]
        },
        "cd": 0.5,
        "initialCD": 0.6000000238418579,
        "publicCDGroup": "",
        "triggerGCD": false,
        "HHAGODJIAPE": "",
        "stateIDs": ["Practice"],
        "skillQueryingTime": 3.0,
        "flagTargetReachable": "10",
        "flagSelfOnTemplateCollider": "01",
        "flagSelfInZone": "10",
        "flagTargetInZone": "11"
      },
      "103": {
        "name": "Tease",
        "skillType": "Free",
        "castCondition": {
          "pose": [103]
        },
        "cd": 10.0,
        "cdUpperRange": 10.0,
        "initialCD": 5.0,
        "initialCDUpperRange": 10.0,
        "publicCDGroup": "",
        "triggerGCD": false,
        "HHAGODJIAPE": "",
        "stateIDs": ["Tease"],
        "skillQueryingTime": 3.0,
        "flagTargetReachable": "10",
        "flagSelfOnTemplateCollider": "01",
        "flagSelfInZone": "10",
        "flagTargetInZone": "11"
      },
      "104": {
        "name": "Absorb",
        "skillType": "Free",
        "castCondition": {
          "pose": [104]
        },
        "cd": 10.0,
        "cdUpperRange": 10.0,
        "initialCD": 5.0,
        "initialCDUpperRange": 10.0,
        "publicCDGroup": "",
        "triggerGCD": false,
        "HHAGODJIAPE": "",
        "stateIDs": ["Absorb"],
        "skillQueryingTime": 3.0,
        "flagTargetReachable": "10",
        "flagSelfOnTemplateCollider": "01",
        "flagSelfInZone": "10",
        "flagTargetInZone": "11"
      },
      "105": {
        "name": "Practice",
        "skillType": "Free",
        "castCondition": {
          "pose": [105]
        },
        "cd": 10.0,
        "cdUpperRange": 10.0,
        "initialCD": 5.0,
        "initialCDUpperRange": 10.0,
        "publicCDGroup": "",
        "triggerGCD": false,
        "HHAGODJIAPE": "",
        "stateIDs": ["Practice"],
        "skillQueryingTime": 3.0,
        "flagTargetReachable": "10",
        "flagSelfOnTemplateCollider": "01",
        "flagSelfInZone": "10",
        "flagTargetInZone": "11"
      },
      "301": {
        "name": "RamNormal",
        "castCondition": {
          "pose": [301],
          "pickRangeMax": 2.0
        },
        "cd": 5.0,
        "initialCD": 5.0,
        "publicCDGroup": "",
        "HHAGODJIAPE": "",
        "stateIDs": ["Ram", "RamNormal_BS"],
        "flagTargetReachable": "11",
        "flagSelfOnTemplateCollider": "01",
        "flagSelfInZone": "11",
        "flagTargetInZone": "11"
      },
      "311": {
        "name": "RamOverdose",
        "castCondition": {
          "pose": [311],
          "pickRangeMax": 2.0
        },
        "cd": 5.0,
        "initialCD": 5.0,
        "publicCDGroup": "",
        "HHAGODJIAPE": "",
        "stateIDs": ["Ram", "RamOverdose_BS"],
        "flagTargetReachable": "11",
        "flagSelfOnTemplateCollider": "01",
        "flagSelfInZone": "11",
        "flagTargetInZone": "11"
      },
      "321": {
        "name": "RamDecayed",
        "castCondition": {
          "pose": [321],
          "pickRangeMax": 2.0
        },
        "cd": 5.0,
        "publicCDGroup": "",
        "HHAGODJIAPE": "",
        "stateIDs": ["Ram", "RamDecayed_BS"],
        "flagTargetReachable": "11",
        "flagSelfOnTemplateCollider": "01",
        "flagSelfInZone": "11",
        "flagTargetInZone": "11"
      },
      "501": {
        "name": "ShootNormal",
        "combatSkillType": "RangedAttack",
        "castCondition": {
          "pose": [501],
          "needReInitCD": true,
          "pickRangeMax": 12.0,
          "pickRangeYMax": 8.0,
          "pickRangeYMin": 0.699999988079071,
          "pickRangeByRaycast": [
            {
              "min": 0.25,
              "max": 1.5
            }
          ],
          "castRangeType": "RangeXZ_Y",
          "castRangeXZY": {
            "castRangeXZMax": 16.0,
            "castRangeYMax": 8.0
          }
        },
        "cd": 5.0,
        "cdUpperRange": 10.0,
        "initialCD": 1.0,
        "initialCDUpperRange": 2.5,
        "publicCDGroup": "",
        "HHAGODJIAPE": "",
        "stateIDs": ["Shoot", "ShootNormal_BS"],
        "flagTargetReachable": "11",
        "flagSelfOnTemplateCollider": "01",
        "flagSelfInZone": "11",
        "flagTargetInZone": "11"
      },
      "511": {
        "name": "ShootOverdose",
        "combatSkillType": "RangedAttack",
        "castCondition": {
          "pose": [511],
          "needReInitCD": true,
          "pickRangeMax": 12.0,
          "pickRangeYMax": 8.0,
          "pickRangeYMin": 0.699999988079071,
          "pickRangeByRaycast": [
            {
              "min": 0.25,
              "max": 1.25
            }
          ],
          "castRangeType": "RangeXZ_Y",
          "castRangeXZY": {
            "castRangeXZMax": 16.0,
            "castRangeYMax": 8.0
          }
        },
        "cd": 5.0,
        "cdUpperRange": 3.0,
        "initialCD": 0.5,
        "initialCDUpperRange": 1.5,
        "publicCDGroup": "",
        "HHAGODJIAPE": "",
        "stateIDs": ["Shoot", "ShootOverdose_BS"],
        "flagTargetReachable": "11",
        "flagSelfOnTemplateCollider": "01",
        "flagSelfInZone": "11",
        "flagTargetInZone": "11"
      },
      "521": {
        "name": "ShootDecayed",
        "combatSkillType": "RangedAttack",
        "castCondition": {
          "pose": [521],
          "needReInitCD": true,
          "pickRangeMax": 12.0,
          "pickRangeYMax": 8.0,
          "pickRangeYMin": 0.699999988079071,
          "pickRangeByRaycast": [
            {
              "min": 0.25,
              "max": 1.25
            }
          ],
          "castRangeType": "RangeXZ_Y",
          "castRangeXZY": {
            "castRangeXZMax": 16.0,
            "castRangeYMax": 8.0
          }
        },
        "cd": 6.0,
        "cdUpperRange": 4.0,
        "initialCD": 1.0,
        "initialCDUpperRange": 2.0,
        "publicCDGroup": "",
        "HHAGODJIAPE": "",
        "stateIDs": ["Shoot", "ShootDecayed_BS"],
        "flagTargetReachable": "11",
        "flagSelfOnTemplateCollider": "01",
        "flagSelfInZone": "11",
        "flagTargetInZone": "11"
      }
    },
    "skillGCD": 3.5,
    "birdCirclingTactic": [
      {
        "$type": "EPHBMLFODKF",
        "enable": true,
        "condition": {
          "pose": [301, 311, 321]
        },
        "JMCOBEPDIGM": {
          "ANLAAGAMIKF": 2,
          "rangeMin": 4.0,
          "rangeMax": 10.0,
          "AFILKAGDAHN": 4.0,
          "BFJBDDIIFOI": {
            "LLICGJHIGME": 0.5,
            "IDEFILBHNAP": 0.5,
            "IBLIPJPNOGC": 0.0,
            "AEBLMKFNCDG": 0.0,
            "IGLIBIOEGBB": 0.0
          },
          "NAOBMNGDKHL": "1111",
          "JCNIJOAIGII": "1111",
          "MNPDDAKDHGK": ""
        }
      },
      {
        "$type": "MCDGOJLCMBM",
        "enable": true,
        "JMCOBEPDIGM": {
          "DMGAHPPFMPK": 1.0,
          "FLENLLDBFGP": 1.0,
          "MNPDDAKDHGK": "",
          "GJDMDHIBCME": ""
        },
        "PIOCBHLFLJP": {
          "201": {
            "DMGAHPPFMPK": 1.0,
            "FLENLLDBFGP": 1.0,
            "ACOBCFCMBOC": "Spacial",
            "MNPDDAKDHGK": "",
            "GJDMDHIBCME": ""
          },
          "211": {
            "DMGAHPPFMPK": 1.0,
            "FLENLLDBFGP": 1.0,
            "ACOBCFCMBOC": "Spacial",
            "MNPDDAKDHGK": "",
            "GJDMDHIBCME": ""
          },
          "221": {
            "DMGAHPPFMPK": 1.0,
            "FLENLLDBFGP": 1.0,
            "ACOBCFCMBOC": "Spacial",
            "MNPDDAKDHGK": "",
            "GJDMDHIBCME": ""
          }
        }
      },
      {
        "$type": "COLLJLNKMLC",
        "enable": true,
        "JMCOBEPDIGM": {
          "DMGAHPPFMPK": 1.0,
          "FLENLLDBFGP": 1.0,
          "MNPDDAKDHGK": "",
          "GJDMDHIBCME": "",
          "ACOBCFCMBOC": "Spacial",
          "PLLHMGHOAPB": "",
          "KPIJNGFNAEF": "",
          "GDPHPLKJGAJ": "",
          "KKKOAABEHEP": ""
        }
      },
      {
        "$type": "KACCHOLJDNK",
        "enable": true,
        "condition": {
          "pose": [301, 311, 321]
        },
        "JMCOBEPDIGM": {
          "ANLAAGAMIKF": 1,
          "KHDFDAAAPEI": 10.0,
          "HKJODDGJPHA": 50.0,
          "GGEBMFHFBPO": 9.0,
          "KFFGCIMPNMJ": 10.0,
          "PKNJDNAGLNM": 2,
          "MNPDDAKDHGK": ""
        },
        "PIOCBHLFLJP": {
          "321": {
            "ANLAAGAMIKF": 1,
            "KHDFDAAAPEI": 10.0,
            "HKJODDGJPHA": 50.0,
            "GGEBMFHFBPO": 3.0,
            "KFFGCIMPNMJ": 6.0,
            "PKNJDNAGLNM": 2,
            "MNPDDAKDHGK": ""
          }
        }
      },
      {
        "$type": "NNJKLGNPMNN",
        "enable": true,
        "JMCOBEPDIGM": {
          "ACOBCFCMBOC": "Spacial",
          "OJGLKPBCLGB": 2.200000047683716,
          "MNPDDAKDHGK": "",
          "GJDMDHIBCME": ""
        }
      },
      {
        "$type": "EPPOBBAEPED",
        "enable": true,
        "condition": {
          "pose": [521]
        },
        "JMCOBEPDIGM": {
          "ANLAAGAMIKF": 2,
          "FAKGFIDPCFL": 11.0,
          "GHCEDMEHKLN": 8.0,
          "ONFAMCFCNFM": 0.5,
          "KLODEFMNFIC": 1.5,
          "NLNINOJJPFN": [
            {
              "min": 0.5,
              "max": 3.0
            }
          ],
          "MNPDDAKDHGK": "",
          "GJDMDHIBCME": ""
        },
        "PIOCBHLFLJP": {
          "521": {
            "ANLAAGAMIKF": 2,
            "FAKGFIDPCFL": 6.0,
            "GHCEDMEHKLN": 6.0,
            "ONFAMCFCNFM": 0.5,
            "KLODEFMNFIC": 1.0,
            "NLNINOJJPFN": [
              {
                "min": 0.5,
                "max": 3.0
              }
            ],
            "MNPDDAKDHGK": "",
            "GJDMDHIBCME": ""
          }
        }
      },
      {
        "$type": "MNBBAPLOENP",
        "enable": true,
        "condition": {
          "pose": [501, 511]
        },
        "JMCOBEPDIGM": {
          "ANLAAGAMIKF": 2,
          "GOMIFCDDDLF": 4.0,
          "JCPAFNBJDEN": 8.0,
          "JOJBOHEDBHC": 0.0,
          "ALIBHHJHHMN": 1.5,
          "OPCEPFAIGAP": 0.5,
          "OMHBOLPFEPM": 1.5,
          "BJIEHJIOICI": 3.0,
          "FPNBEHAAJOL": {
            "IDEFILBHNAP": 0.8999999761581421,
            "FKIEIIJAPEH": 0.0,
            "JFBDDDBIHDE": 4.0,
            "AKMJKEIJEHM": 4.0,
            "PELOBMPBAJF": 8.0,
            "BLOIJOGPILM": 4.0,
            "GNFCHLHAPNI": 8.0,
            "DFHLPPNLGIE": 0.0,
            "CLDDLKFCODO": 0.0,
            "GNJEAKAKLHD": 0.0,
            "EHAGCHIFFHA": 0.0,
            "DDIPMLEHIJP": 1.0,
            "PIJHGEOHOOO": 0.0,
            "OCMLCHDANPJ": 4.0
          },
          "NLNINOJJPFN": [
            {
              "min": 0.5,
              "max": 3.0
            }
          ],
          "EADBCMAAPLD": true,
          "MNPDDAKDHGK": "",
          "GJDMDHIBCME": ""
        },
        "PIOCBHLFLJP": {
          "511": {
            "ANLAAGAMIKF": 2,
            "GOMIFCDDDLF": 3.0,
            "JCPAFNBJDEN": 6.0,
            "JOJBOHEDBHC": 0.0,
            "AFILKAGDAHN": 0.0,
            "ALIBHHJHHMN": 1.5,
            "OPCEPFAIGAP": 0.10000000149011612,
            "OMHBOLPFEPM": 1.5,
            "BJIEHJIOICI": 3.0,
            "FPNBEHAAJOL": {
              "LLICGJHIGME": 0.0,
              "IDEFILBHNAP": 0.5,
              "OJLPFPNFMDJ": 1.5,
              "JFBDDDBIHDE": 4.0,
              "EHLPOCLAEFO": 1.5,
              "APHHENPJNLO": 4.0,
              "AKMJKEIJEHM": 2.5,
              "PELOBMPBAJF": 8.0,
              "BLOIJOGPILM": 2.5,
              "GNFCHLHAPNI": 8.0,
              "GNJEAKAKLHD": 0.5,
              "EHAGCHIFFHA": 1.0,
              "DDIPMLEHIJP": 1.5,
              "PIJHGEOHOOO": 0.5,
              "OCMLCHDANPJ": 2.0
            },
            "NLNINOJJPFN": [
              {
                "min": 0.5,
                "max": 3.0
              }
            ],
            "EADBCMAAPLD": true,
            "MNPDDAKDHGK": "",
            "GJDMDHIBCME": ""
          }
        }
      }
    ]
  },
  "inputKeys": [
    {
      "keyID": 301,
      "inputKeyCode": 257,
      "abilityName": ""
    },
    {
      "keyID": 501,
      "inputKeyCode": 258,
      "abilityName": ""
    },
    {
      "keyID": 311,
      "inputKeyCode": 259,
      "abilityName": ""
    },
    {
      "keyID": 511,
      "inputKeyCode": 260,
      "abilityName": ""
    },
    {
      "keyID": 321,
      "inputKeyCode": 261,
      "abilityName": ""
    },
    {
      "keyID": 521,
      "inputKeyCode": 262,
      "abilityName": ""
    },
    {
      "keyID": 102,
      "inputKeyCode": 263,
      "abilityName": ""
    },
    {
      "keyID": 103,
      "inputKeyCode": 264,
      "abilityName": ""
    },
    {
      "keyID": 104,
      "inputKeyCode": 265,
      "abilityName": ""
    },
    {
      "keyID": 9997,
      "inputKeyCode": 266,
      "abilityName": ""
    },
    {
      "keyID": 9998,
      "inputKeyCode": 267,
      "abilityName": ""
    },
    {
      "keyID": 9999,
      "inputKeyCode": 268,
      "abilityName": ""
    }
  ],
  "move": {
    "$type": "IPNMJMHDMPF",
    "raycasts": [
      {
        "raycastLength": 5.0,
        "raycastType": "DownToGroundAndWaterOnlyInAir",
        "startPoint": ""
      }
    ],
    "facingMove": "ForwardBackward",
    "airFacingMove": "AirBlend3D",
    "monsterSizeType": "SlimeType",
    "launchStates": ["Launch_Loop"],
    "landStates": ["Drop_Loop"],
    "positionModifyExtra": true,
    "PKHOMJHFAEE": "RootNode"
  },
  "audio": {
    "overrideEmitterName": "",
    "animAudio": {
      "onTransitionIn": [
        {
          "currentStateName": "ShootNormal_Loop",
          "audioEvent": {
            "text": "Play_sfx_monster_Fungus_Un_shoot_Loop"
          }
        },
        {
          "currentStateName": "ShootDecayed_Loop",
          "audioEvent": {
            "text": "Play_sfx_monster_Fungus_Un_shootDecayed_Loop"
          }
        },
        {
          "currentStateName": "ShootOverdose_Loop",
          "audioEvent": {
            "text": "Play_sfx_monster_Fungus_Un_shoot_Loop"
          }
        },
        {
          "currentStateName": "RamNormal_Loop",
          "audioEvent": {
            "text": "Play_sfx_monster_Fungus_Un_ram_Loop"
          }
        },
        {
          "currentStateName": "RamDecayed_Loop",
          "audioEvent": {
            "text": "Play_sfx_monster_Fungus_Un_ram_Loop"
          }
        },
        {
          "currentStateName": "RamOverdose_Loop",
          "audioEvent": {
            "text": "Play_sfx_monster_Fungus_Un_ram_Loop"
          }
        }
      ],
      "onTransitionOut": [
        {
          "currentStateName": "Practice",
          "audioEvent": {
            "text": "Stop_sfx_monster_Fungus_Un_practice"
          }
        },
        {
          "currentStateName": "Absorb",
          "audioEvent": {
            "text": "Stop_sfx_monster_Fungus_Un_absorb"
          }
        },
        {
          "currentStateName": "Tease",
          "audioEvent": {
            "text": "Stop_sfx_monster_Fungus_Un_tease"
          }
        },
        {
          "currentStateName": "Dance",
          "audioEvent": {
            "text": "Stop_sfx_monster_Fungus_Un_absorb"
          }
        },
        {
          "currentStateName": "ShootNormal_Loop",
          "audioEvent": {
            "text": "Stop_sfx_monster_Fungus_Un_shoot_Loop"
          }
        },
        {
          "currentStateName": "ShootDecayed_Loop",
          "audioEvent": {
            "text": "Stop_sfx_monster_Fungus_Un_shootDecayed_Loop"
          }
        },
        {
          "currentStateName": "ShootOverdose_Loop",
          "audioEvent": {
            "text": "Stop_sfx_monster_Fungus_Un_shoot_Loop"
          }
        },
        {
          "currentStateName": "RamNormal_Loop",
          "audioEvent": {
            "text": "Stop_sfx_monster_Fungus_Un_ram_Loop"
          }
        },
        {
          "currentStateName": "RamDecayed_Loop",
          "audioEvent": {
            "text": "Stop_sfx_monster_Fungus_Un_ram_Loop"
          }
        },
        {
          "currentStateName": "RamOverdose_Loop",
          "audioEvent": {
            "text": "Stop_sfx_monster_Fungus_Un_ram_Loop"
          }
        }
      ]
    }
  }
}
