{
  "common": {
    "effectAttachShape": {
      "$type": "FJNPJANPGGC",
      "mesh": "EffectMesh"
    },
    "mass": 10000.0,
    "height": 2.5,
    "affectedByWorld": true,
    "checkInSurface": true,
    "scale": 1.2999999523162842,
    "canTriggerElementReactionText": false,
    "useGrassDisplacement": true,
    "reconnectSupport": true,
    "recoverByInitPose": true
  },
  "dither": {
    "startDitherAction": {
      "enable": true
    }
  },
  "combat": {
    "property": {
      "endureType": "Monster_Minion",
      "weight": 40.0
    },
    "beHit": {
      "hitBloodEffect": "",
      "muteAllHitText": true
    },
    "combatLock": {
      "lockShape": "CircleLockEnemy",
      "lockType": "Animal_Lv2"
    },
    "die": {
      "hasAnimatorDie": true,
      "dieForceDisappearTime": 0.0,
      "dieDisappearEffect": "Eff_Animal_Common_DropPoint_Die_Bird",
      "muteHitBox": true,
      "dieDenyLockOn": true,
      "dieIsGhostToEnemy": true,
      "dieIgnoreTriggerBullet": true,
      "muteBillboard": true,
      "mutePushCollider": true
    },
    "animEvents": {
      "Attack": {
        "attackPattern": {
          "$type": "ConfigAttackBox",
          "triggerType": "TriggerNoRepeat",
          "born": {
            "$type": "ConfigBornBySelf",
            "offset": {
              "x": 0.0,
              "y": 0.75,
              "z": -1.2999999523162842
            }
          },
          "size": {
            "x": 1.0,
            "y": 1.600000023841858,
            "z": 1.2999999523162842
          }
        },
        "attackInfo": {
          "attackTag": "",
          "attenuationTag": "",
          "attenuationGroup": "default",
          "attackProperty": {
            "actorGrassSubHurtDelta": 1.0,
            "actorWindSubHurtDelta": 0.0,
            "elementDurability": 100.0,
            "strikeType": "Blunt",
            "attackType": "Melee",
            "GLKMCMDJBIK": 0.0
          },
          "hitPattern": {
            "onHitEffectName": "default",
            "hitImpulseY": "",
            "hitImpulseType": "LV2",
            "hitHaltTimeScale": 0.009999999776482582
          }
        }
      }
    }
  },
  "abilities": [
    {
      "abilityID": "CommonInitial",
      "abilityName": "Animal_Common_Initial",
      "abilityOverride": ""
    },
    {
      "abilityID": "Steer",
      "abilityName": "Monster_Meleagris_None_Steer",
      "abilityOverride": ""
    },
    {
      "abilityID": "Steer",
      "abilityName": "Monster_Meleagris_None_Alert",
      "abilityOverride": ""
    },
    {
      "abilityID": "Steer",
      "abilityName": "Monster_Meleagris_None_Flee",
      "abilityOverride": ""
    }
  ],
  "stateLayers": {
    "defaultLayer": {
      "$type": "GBGJJIIEMBD",
      "layerIndexName": "",
      "CPAANEIJCGD": "",
      "stateIDs": {
        "Born": {
          "$type": "NEDIFAKEGCO",
          "animatorStates": {
            "Born": ["Audio_Animal_Meleagris_HideAlert"]
          },
          "canSyncMove": true,
          "resetAnimatorTriggerOnExit": ["DoSkill"]
        },
        "Standby": {
          "$type": "NEDIFAKEGCO",
          "animatorStates": {
            "Standby": []
          },
          "canDoSkill": true,
          "canSyncMove": true,
          "resetAnimatorTriggerOnExit": ["DoSkill"]
        },
        "Sit": {
          "$type": "NEDIFAKEGCO",
          "animatorStates": {
            "Sit": []
          },
          "canDoSkill": true,
          "canSyncMove": true,
          "resetAnimatorTriggerOnExit": ["DoSkill"]
        },
        "Walk": {
          "$type": "NEDIFAKEGCO",
          "animatorStates": {
            "Walk": ["Audio_Animal_Meleagris_Hit_Walk"]
          },
          "canDoSkill": true,
          "canSyncMove": true,
          "resetAnimatorTriggerOnExit": ["DoSkill"],
          "canSteer": true
        },
        "Run": {
          "$type": "NEDIFAKEGCO",
          "animatorStates": {
            "Run": ["Audio_Animal_Meleagris_Hit_Run"],
            "RunRandom": [
              "Animal_Meleagris_Feather1",
              "Audio_Animal_Meleagris_Hit_RunRandom"
            ],
            "Disappear": ["Audio_Animal_Meleagris_Hit_Run"]
          },
          "canDoSkill": true,
          "canSyncMove": true,
          "resetAnimatorTriggerOnExit": ["DoSkill"],
          "canSteer": true
        },
        "Die": {
          "$type": "NEDIFAKEGCO",
          "animatorStates": {
            "Die_Disappear": [
              "Animal_Meleagris_Disappear",
              "Audio_Animal_Meleagris_Hit_Run"
            ]
          },
          "resetAnimatorTriggerOnEnter": ["DoSkill"]
        },
        "Personality1": {
          "$type": "NEDIFAKEGCO",
          "animatorStates": {
            "Personality1": ["Audio_Animal_Meleagris_Personality1"]
          },
          "canDoSkill": true,
          "resetAnimatorTriggerOnExit": ["BeHit", "DoSkill"]
        },
        "Personality2": {
          "$type": "NEDIFAKEGCO",
          "animatorStates": {
            "Personality2_BS": ["Audio_Animal_Meleagris_Personality2_BS"],
            "Personality2_Loop1": [],
            "Personality2_MS": ["Audio_Animal_Meleagris_Personality2_MS"],
            "Personality2_Loop2": [
              "Animal_Meleagris_Feather2",
              "Audio_Animal_Meleagris_Personality2_Loop2"
            ],
            "Personality2_AS": ["Audio_Animal_Meleagris_Personality2_AS"]
          },
          "canDoSkill": true,
          "resetAnimatorTriggerOnExit": ["BeHit", "DoSkill"]
        },
        "Alert": {
          "$type": "NEDIFAKEGCO",
          "animatorStates": {
            "Alert": ["Audio_Animal_Meleagris_Alert"]
          },
          "resetAnimatorTriggerOnExit": ["BeHit", "DoSkill"]
        },
        "Alert2": {
          "$type": "NEDIFAKEGCO",
          "animatorStates": {
            "Alert2": ["Audio_Animal_Meleagris_Alert"]
          },
          "resetAnimatorTriggerOnExit": ["BeHit", "DoSkill"]
        },
        "Alert_Loop": {
          "$type": "NEDIFAKEGCO",
          "animatorStates": {
            "Alert_Loop": []
          },
          "resetAnimatorTriggerOnExit": ["BeHit", "DoSkill"]
        },
        "Alert_Loop2": {
          "$type": "NEDIFAKEGCO",
          "animatorStates": {
            "Alert_Loop2": []
          },
          "resetAnimatorTriggerOnExit": ["BeHit", "DoSkill"]
        },
        "Alert_Move": {
          "$type": "NEDIFAKEGCO",
          "animatorStates": {
            "Alert_Move": ["Audio_Animal_Meleagris_Alert_Move"]
          },
          "resetAnimatorTriggerOnExit": ["BeHit", "DoSkill"]
        },
        "Alert_Run": {
          "$type": "NEDIFAKEGCO",
          "animatorStates": {
            "Alert_Run": ["Audio_Animal_Meleagris_Alert_Run"]
          },
          "resetAnimatorTriggerOnExit": ["BeHit", "DoSkill"]
        },
        "Recover": {
          "$type": "NEDIFAKEGCO",
          "animatorStates": {
            "Recover": ["Audio_Animal_Meleagris_Alert_Run"]
          },
          "resetAnimatorTriggerOnExit": ["BeHit", "DoSkill"]
        }
      }
    }
  },
  "initialPoses": {
    "Default": {},
    "Sit": {
      "initialPoseID": 2,
      "initialPoseParams": {
        "boolParams": {
          "Sit": "true"
        }
      }
    },
    "Fight": {
      "initialPoseID": 3,
      "initialPoseParams": {
        "boolParams": {
          "Sleep": "true"
        }
      }
    },
    "DefaultNoSkill": {
      "initialPoseID": 4,
      "initialPoseParams": {
        "boolParams": {
          "DefaultNoSkill": "true"
        }
      }
    },
    "GadgetShow": {
      "initialPoseID": 5,
      "initialPoseParams": {
        "boolParams": {
          "GadgetShow": "true"
        }
      }
    },
    "InstantFlee": {
      "initialPoseID": 6,
      "initialPoseParams": {
        "intParams": {
          "FleeNow": "1"
        },
        "boolParams": {
          "Sit": "true"
        }
      }
    }
  },
  "aibeta": {
    "enable": true,
    "friendliness": 1,
    "moveSetting": {
      "navMeshAgentName": "Undead01"
    },
    "sensing": {
      "settings": {
        "DefaultSetting": {
          "enableVision": false,
          "feelRange": 7.5
        },
        "SuperHighSensing": {
          "enableVision": false,
          "feelRange": 20.0
        },
        "HighSensing": {
          "enableVision": false,
          "feelRange": 10.0
        },
        "NoSensing": {
          "enableVision": false,
          "hearAttractionRange": 0.0,
          "feelRange": 0.0
        }
      },
      "templates": {
        "DefaultTemplate": {
          "DefaultPoses": "DefaultSetting",
          "5": "NoSensing"
        },
        "NoSensing": {
          "DefaultPoses": "NoSensing"
        },
        "HighSensing": {
          "DefaultPoses": "HighSensing",
          "5": "NoSensing"
        },
        "SuperHighSensing": {
          "DefaultPoses": "SuperHighSensing",
          "5": "NoSensing"
        }
      }
    },
    "neurons": {
      "DefaultSetting": ["HIT", "WEATHER_BAD", "FEAR"],
      "NoWeatherBad": ["HIT"]
    },
    "threat": {
      "GHIJMOKOLMB": "",
      "clearThreatTargetDistance": 10.0,
      "clearThreatEdgeDistance": 10.0,
      "clearThreatByTargetOutOfZone": true,
      "clearThreatTimerByDistance": 3.5,
      "clearThreatTimerByTargetOutOfZone": 1.0,
      "feelThreatGrow": 10000.0,
      "viewAttenuation": [
        {
          "x": 1.0,
          "y": 2.0
        },
        {
          "x": 2.0,
          "y": 1.0
        },
        {
          "x": 3.0,
          "y": 0.5
        },
        {
          "x": 5.0,
          "y": 0.10000000149011612
        }
      ]
    },
    "defendArea": {
      "defendRange": 10.0
    },
    "ui": {
      "hasDirectionIndicator": false,
      "HMNNBFDEHLG": ""
    },
    "skills": {
      "101": {
        "name": "OnAlert",
        "KOKGBBBDCAF": true,
        "castCondition": {
          "pose": [101],
          "pickRangeMax": 10.0
        },
        "publicCDGroup": "",
        "ignoreGCD": true,
        "triggerGCD": false,
        "HHAGODJIAPE": "",
        "stateIDs": [
          "Alert",
          "Alert_Loop",
          "Alert_Loop2",
          "Recover",
          "Alert_Run",
          "Alert_Move"
        ],
        "skillQueryingTime": 3.0,
        "flagTargetReachable": "10",
        "flagSelfOnTemplateCollider": "01",
        "flagSelfInZone": "10",
        "flagTargetInZone": "11"
      },
      "102": {
        "name": "OnAlert",
        "castCondition": {
          "pose": [101],
          "pickRangeMin": 10.0
        },
        "publicCDGroup": "",
        "ignoreGCD": true,
        "triggerGCD": false,
        "HHAGODJIAPE": "",
        "stateIDs": ["Alert2"],
        "skillQueryingTime": 3.0,
        "flagTargetReachable": "10",
        "flagSelfOnTemplateCollider": "01",
        "flagSelfInZone": "10",
        "flagTargetInZone": "11"
      },
      "201": {
        "name": "Personality1",
        "skillType": "Free",
        "priority": 6,
        "castCondition": {
          "pose": [1],
          "needReInitCD": true
        },
        "cd": 15.0,
        "cdUpperRange": 10.0,
        "initialCD": 2.5,
        "initialCDUpperRange": 5.0,
        "publicCDGroup": "",
        "HHAGODJIAPE": "",
        "stateIDs": ["Personality1"],
        "flagTargetReachable": "10",
        "flagSelfOnTemplateCollider": "01",
        "flagSelfInZone": "10",
        "flagTargetInZone": "11"
      },
      "211": {
        "name": "Personality2",
        "skillType": "Free",
        "priority": 6,
        "castCondition": {
          "pose": [3]
        },
        "cdUpperRange": 5.0,
        "initialCDUpperRange": 3.0,
        "publicCDGroup": "",
        "HHAGODJIAPE": "",
        "stateIDs": ["Personality2"],
        "flagTargetReachable": "10",
        "flagSelfOnTemplateCollider": "01",
        "flagSelfInZone": "10",
        "flagTargetInZone": "11"
      }
    },
    "skillGCD": 1.5,
    "birdCirclingTactic": [
      {
        "$type": "ODHNBPJLGHF",
        "enable": true,
        "condition": {
          "pose": [102]
        },
        "JMCOBEPDIGM": {
          "NBENNEKDIIA": 0.20000000298023224,
          "cd": 0.0,
          "triggerDistance": 100.0,
          "EMNPEHPCDLB": 2,
          "CMDFDIPMGKI": 6,
          "MNPDDAKDHGK": ""
        }
      },
      {
        "$type": "NNJKLGNPMNN",
        "enable": true,
        "JMCOBEPDIGM": {
          "MNPDDAKDHGK": "",
          "GJDMDHIBCME": ""
        }
      },
      {
        "$type": "FPELBIJFGCE",
        "enable": true,
        "condition": {
          "pose": [1]
        },
        "JMCOBEPDIGM": {
          "NBENNEKDIIA": 0.5,
          "KPNDPKIOPJM": 12.0,
          "PINAFKEDDLL": 8.0,
          "ANMPOPEBDIA": 10.0,
          "CHCPFDMADEI": 9.0,
          "MNPDDAKDHGK": ""
        }
      }
    ]
  },
  "inputKeys": [
    {
      "keyID": 101,
      "inputKeyCode": 257,
      "abilityName": ""
    }
  ],
  "move": {
    "$type": "IPNMJMHDMPF",
    "velocityForce": {
      "excludeForces": ["RetreatAirType", "WindZoneType", "AirflowType"]
    },
    "PKHOMJHFAEE": "RootNode"
  },
  "audio": {
    "overrideEmitterName": "",
    "behaviours": [
      {
        "$type": "FKDHOPDMFHG",
        "IKJGOJBCAPG": {
          "$type": "MPCIPAGHJNA",
          "interval": 5
        },
        "JDCAENIOKPB": [
          {
            "$type": "HNHPMJIAKHO",
            "OPEMPFCFHMO": "__DefaultSync__",
            "rtpcKey": {
              "text": "Param_Meleagris_PoseID"
            },
            "PKCNKIKHCDB": "PoseID"
          }
        ]
      }
    ]
  }
}
