{
  "common": {
    "effectAttachShape": {
      "$type": "FJNPJANPGGC",
      "mesh": "EffectMesh"
    },
    "mass": 9999999.0,
    "height": 0.46000000834465027,
    "canTriggerElementReactionText": false,
    "reconnectSupport": true,
    "recoverByInitPose": true
  },
  "headControl": {
    "$type": "KPIPDEBDPIH",
    "useHeadControl": true,
    "maxYawDegree": 80.0,
    "maxPitchDegree": 80.0,
    "speed": 5.0,
    "animStates": ["Standby", "OnWaterBackstroke", "OnWaterRelax", "TurnPose"]
  },
  "model": {
    "bornEffect": "",
    "attachEffect": "",
    "BKPFGNPLDNJ": ""
  },
  "dither": {
    "showDitherDuration": 0.5
  },
  "combat": {
    "property": {
      "endureType": "Monster_Minion",
      "weight": 101.0,
      "isLockHP": true
    },
    "beHit": {
      "hitBloodEffect": "",
      "IEKJNLDFOCL": true,
      "HAEJGKNFKCI": 12.0,
      "muteAllHitEffect": true,
      "muteAllHitText": true
    },
    "combatLock": {
      "lockShape": "CircleLockEnemy",
      "denyLockOn": true,
      "lockType": "Animal_Lv2"
    },
    "die": {
      "dieEndTime": 0.10000000149011612,
      "dieForceDisappearTime": 0.30000001192092896,
      "dieDisappearEffect": ""
    }
  },
  "abilities": [
    {
      "abilityID": "",
      "abilityName": "Animal_Common_Initial",
      "abilityOverride": ""
    },
    {
      "abilityID": "",
      "abilityName": "Animal_Beaver_SwitchToDive",
      "abilityOverride": ""
    }
  ],
  "stateLayers": {
    "defaultLayer": {
      "$type": "GBGJJIIEMBD",
      "layerIndexName": "",
      "CPAANEIJCGD": "",
      "stateIDs": {
        "Born": {
          "$type": "NEDIFAKEGCO",
          "animatorStates": {
            "Born": []
          }
        },
        "Scared": {
          "$type": "NEDIFAKEGCO",
          "animatorStates": {
            "Scared": []
          },
          "canSyncMove": true,
          "resetAnimatorTriggerOnEnter": ["DoSkill"],
          "resetAnimatorTriggerOnExit": ["DoSkill"]
        },
        "Standby": {
          "$type": "NEDIFAKEGCO",
          "animatorStates": {
            "Standby": []
          },
          "canDoSkill": true,
          "canSyncMove": true,
          "resetAnimatorTriggerOnEnter": ["DoSkill"],
          "resetAnimatorTriggerOnExit": ["DoSkill"]
        },
        "OnWaterRelax": {
          "$type": "NEDIFAKEGCO",
          "animatorStates": {
            "OnWaterRelax": []
          },
          "canDoSkill": true,
          "addEndure": 0.0,
          "resetAnimatorTriggerOnEnter": ["DoSkill"],
          "resetAnimatorTriggerOnExit": ["DoSkill"],
          "forceSetAirMove": true
        },
        "Swim": {
          "$type": "NEDIFAKEGCO",
          "animatorStates": {
            "Swim_BS": ["Audio_Animal_Beaver_Swim_BS"],
            "Swim_Loop": [],
            "Swim_AS": ["Audio_Animal_Beaver_Swim_AS"],
            "FastSwim": ["Audio_Animal_Beaver_FastSwim"]
          },
          "canDoSkill": true,
          "canSyncMove": true,
          "resetAnimatorTriggerOnEnter": ["DoSkill"],
          "resetAnimatorTriggerOnExit": ["DoSkill"],
          "canSteer": true
        },
        "BeHit": {
          "$type": "NEDIFAKEGCO",
          "animatorStates": {
            "BeHit": ["Audio_Animal_Beaver_BeHit"]
          },
          "resetAnimatorTriggerOnEnter": ["DoSkill"],
          "resetAnimatorTriggerOnExit": ["DoSkill"],
          "canSteer": true,
          "followAnimRotation": true,
          "airMoveFollowAnimation": true
        },
        "DiveDown": {
          "$type": "NEDIFAKEGCO",
          "animatorStates": {
            "DiveDown": [
              "Animal_Beaver_SwitchToDive",
              "Audio_Animal_Beaver_DiveDown"
            ]
          },
          "addEndure": 0.0,
          "forceSetAirMove": true,
          "airMoveFollowAnimation": true
        },
        "OnWaterPlay": {
          "$type": "NEDIFAKEGCO",
          "animatorStates": {
            "OnWaterPlay": ["Audio_Animal_Beaver_OnWaterPlay"]
          },
          "addEndure": 0.0,
          "forceSetAirMove": true
        },
        "OnWaterBackstroke": {
          "$type": "NEDIFAKEGCO",
          "animatorStates": {
            "OnWaterBackstroke": ["Audio_Animal_Beaver_OnWaterBackstroke"],
            "OnWaterBackstrokeAS": ["Audio_Animal_Beaver_OnWaterBackstrokeAS"]
          },
          "canDoSkill": true,
          "addEndure": 0.0,
          "forceSetAirMove": true,
          "airMoveFollowAnimation": true
        },
        "LookAround": {
          "$type": "NEDIFAKEGCO",
          "animatorStates": {
            "LookAround": []
          },
          "airMoveFollowAnimation": true
        },
        "Interest": {
          "$type": "NEDIFAKEGCO",
          "animatorStates": {
            "Interest": ["Audio_Animal_Beaver_Interest"]
          },
          "airMoveFollowAnimation": true
        },
        "Happy01": {
          "$type": "NEDIFAKEGCO",
          "animatorStates": {
            "Happy01": ["Audio_Animal_Beaver_Happy01"]
          },
          "canSyncMove": true,
          "airMoveFollowAnimation": true
        },
        "Happy02": {
          "$type": "NEDIFAKEGCO",
          "animatorStates": {
            "Happy02": ["Audio_Animal_Beaver_Happy02"]
          },
          "canDoSkill": true,
          "airMoveFollowAnimation": true
        },
        "TurnPose": {
          "$type": "NEDIFAKEGCO",
          "animatorStates": {
            "TurnPose": ["Audio_Animal_Beaver_TurnPose"]
          },
          "canSyncMove": true,
          "airMoveFollowAnimation": true
        }
      }
    }
  },
  "initialPoses": {
    "Default": {
      "initialPoseParams": {
        "intParams": {
          "FreePoseMark": "2"
        },
        "boolParams": {
          "OnWater": "false"
        }
      }
    },
    "OnWater": {
      "initialPoseID": 1,
      "initialPoseParams": {
        "intParams": {
          "FreePoseMark": "1"
        },
        "boolParams": {
          "OnWater": "true"
        }
      }
    },
    "Scared": {
      "initialPoseID": 3,
      "initialPoseParams": {
        "intParams": {
          "FreePoseMark": "3"
        },
        "boolParams": {
          "OnWater": "false"
        }
      }
    },
    "Interest": {
      "initialPoseID": 4,
      "initialPoseParams": {
        "intParams": {
          "FreePoseMark": "4"
        },
        "boolParams": {
          "OnWater": "false"
        }
      }
    },
    "MuteAll": {
      "initialPoseID": 5,
      "initialPoseParams": {
        "intParams": {
          "FreePoseMark": "5"
        },
        "boolParams": {
          "OnWater": "false"
        }
      }
    }
  },
  "aibeta": {
    "enable": true,
    "friendliness": 1,
    "moveSetting": {
      "moveCategory": "DiveWaterAmphibious",
      "useNavMesh": false,
      "useToTheMoon": true,
      "navMeshAgentName": "Undead01"
    },
    "sensing": {
      "settings": {
        "OnWater": {
          "KKEIKAAIOKE": true,
          "viewRange": 10.0,
          "horizontalFov": 90.0,
          "verticalFov": 45.0,
          "feelRange": 3.5
        },
        "NeverCombat": {
          "enableVision": false,
          "hearAttractionRange": 0.0,
          "feelRange": 0.0
        },
        "InWater": {
          "viewRange": 10.0,
          "horizontalFov": 90.0,
          "verticalFov": 45.0,
          "feelRange": 3.5
        }
      },
      "templates": {
        "DefaultTemplate": {
          "DefaultPoses": "InWater",
          "9001": "OnWater",
          "9002": "OnWater"
        },
        "NeverCombatTemplate": {
          "DefaultPoses": "NeverCombat",
          "101": "OnWater",
          "201": "InWater",
          "202": "InWater",
          "210": "InWater"
        }
      }
    },
    "neurons": {
      "DefaultSetting": ["HIT"]
    },
    "threat": {
      "GHIJMOKOLMB": "",
      "clearThreatTargetDistance": 30.0,
      "clearThreatByLostPath": true,
      "clearThreatByTargetOutOfZone": true,
      "clearThreatTimerByDistance": 4.0,
      "clearThreatTimerByLostPath": 4.0,
      "INJHJJFPNAO": 0.6000000238418579,
      "threatDecreaseSpeed": 500.0
    },
    "defendArea": {
      "defendRange": 60.0
    },
    "fly": {
      "enable": true,
      "IPJLPEHKCJA": [0, 1, 2, 4, 5, 6, 99, 9003, 9002, 101, 201, 202, 210]
    },
    "poseControl": {
      "items": [
        {
          "minTime": 8.0,
          "maxTime": 16.0,
          "poseID": 201,
          "randomPose": [202]
        },
        {
          "minTime": 3.0,
          "maxTime": 8.0,
          "poseID": 202,
          "randomPose": [201]
        }
      ]
    },
    "ui": {
      "hasDirectionIndicator": false,
      "HMNNBFDEHLG": ""
    },
    "skills": {
      "101": {
        "name": "DiveDown",
        "castCondition": {
          "pose": [101],
          "BNLDGHLANLI": [0, 1, 2]
        },
        "publicCDGroup": "",
        "ignoreGCD": true,
        "triggerGCD": false,
        "triggerCDOnFail": false,
        "HHAGODJIAPE": "",
        "stateIDs": ["DiveDown"],
        "flagTargetReachable": "11",
        "flagSelfOnTemplateCollider": "11",
        "flagSelfInZone": "11",
        "flagTargetInZone": "11"
      },
      "102": {
        "name": "DiveDown_NoAlert",
        "skillType": "Free",
        "castCondition": {
          "pose": [9002]
        },
        "publicCDGroup": "",
        "ignoreGCD": true,
        "triggerGCD": false,
        "triggerCDOnFail": false,
        "HHAGODJIAPE": "",
        "stateIDs": ["DiveDown"],
        "flagTargetReachable": "10",
        "flagSelfOnTemplateCollider": "01",
        "flagSelfInZone": "10",
        "flagTargetInZone": "11"
      },
      "111": {
        "name": "DiveDown",
        "castCondition": {
          "pose": [6],
          "BNLDGHLANLI": [0, 1, 2]
        },
        "publicCDGroup": "",
        "ignoreGCD": true,
        "triggerGCD": false,
        "triggerCDOnFail": false,
        "HHAGODJIAPE": "",
        "stateIDs": ["DiveDown"],
        "flagTargetReachable": "11",
        "flagSelfOnTemplateCollider": "11",
        "flagSelfInZone": "11",
        "flagTargetInZone": "11"
      },
      "112": {
        "name": "DiveDown_NoAlert",
        "skillType": "Free",
        "castCondition": {
          "pose": [6]
        },
        "publicCDGroup": "",
        "ignoreGCD": true,
        "triggerGCD": false,
        "triggerCDOnFail": false,
        "HHAGODJIAPE": "",
        "stateIDs": ["DiveDown"],
        "flagTargetReachable": "10",
        "flagSelfOnTemplateCollider": "01",
        "flagSelfInZone": "10",
        "flagTargetInZone": "11"
      },
      "1001": {
        "name": "LookAround",
        "skillType": "Free",
        "priority": 3,
        "castCondition": {
          "pose": [2]
        },
        "cd": 7.0,
        "cdUpperRange": 15.0,
        "initialCD": 6.0,
        "initialCDUpperRange": 10.0,
        "publicCDGroup": "",
        "HHAGODJIAPE": "",
        "stateIDs": ["LookAround"],
        "flagTargetReachable": "10",
        "flagSelfOnTemplateCollider": "01",
        "flagSelfInZone": "10",
        "flagTargetInZone": "11"
      },
      "1004": {
        "name": "Interest",
        "skillType": "Free",
        "priority": 3,
        "castCondition": {
          "pose": [4]
        },
        "cd": 5.0,
        "cdUpperRange": 15.0,
        "initialCD": 2.0,
        "initialCDUpperRange": 5.0,
        "publicCDGroup": "",
        "HHAGODJIAPE": "",
        "stateIDs": ["Interest"],
        "flagTargetReachable": "10",
        "flagSelfOnTemplateCollider": "01",
        "flagSelfInZone": "10",
        "flagTargetInZone": "11"
      },
      "2000": {
        "name": "TurnPose",
        "castCondition": {
          "pose": [201],
          "BNLDGHLANLI": [2],
          "minTargetAngleXZ": 70.0,
          "maxTargetAngleY": 75.0
        },
        "publicCDGroup": "",
        "ignoreGCD": true,
        "triggerGCD": false,
        "HHAGODJIAPE": "",
        "stateIDs": ["TurnPose"],
        "flagTargetReachable": "10",
        "flagSelfOnTemplateCollider": "11",
        "flagSelfInZone": "11",
        "flagTargetInZone": "11"
      },
      "2001": {
        "name": "Happy01",
        "castCondition": {
          "pose": [201, 202],
          "BNLDGHLANLI": [2],
          "maxTargetAngleY": 50.0,
          "pickRangeMax": 8.0
        },
        "cd": 26.0,
        "cdUpperRange": 30.0,
        "initialCD": 12.0,
        "initialCDUpperRange": 12.0,
        "publicCDGroup": "Beaver_Performance",
        "triggerCDOnStart": true,
        "HHAGODJIAPE": "",
        "stateIDs": ["Happy01"],
        "flagTargetReachable": "10",
        "flagSelfOnTemplateCollider": "11",
        "flagSelfInZone": "11",
        "flagTargetInZone": "11"
      },
      "2002": {
        "name": "Happy02",
        "castCondition": {
          "pose": [201, 202],
          "BNLDGHLANLI": [2],
          "maxTargetAngleY": 70.0,
          "pickRangeMax": 8.0
        },
        "cd": 21.0,
        "cdUpperRange": 20.0,
        "initialCD": 2.0,
        "publicCDGroup": "Beaver_Performance",
        "triggerCDOnStart": true,
        "skillGroupCDID": 8,
        "HHAGODJIAPE": "",
        "stateIDs": ["Happy02"],
        "flagTargetReachable": "10",
        "flagSelfOnTemplateCollider": "11",
        "flagSelfInZone": "11",
        "flagTargetInZone": "11"
      },
      "9001": {
        "name": "OnWaterPlay",
        "skillType": "Free",
        "priority": 3,
        "castCondition": {
          "pose": [9001]
        },
        "cd": 5.0,
        "cdUpperRange": 21.0,
        "initialCD": 2.0,
        "initialCDUpperRange": 16.0,
        "publicCDGroup": "",
        "HHAGODJIAPE": "",
        "stateIDs": ["OnWaterPlay"],
        "flagTargetReachable": "10",
        "flagSelfOnTemplateCollider": "01",
        "flagSelfInZone": "10",
        "flagTargetInZone": "11"
      },
      "9002": {
        "name": "OnWaterBackstroke",
        "skillType": "Free",
        "priority": 3,
        "castCondition": {
          "pose": [9001]
        },
        "cdUpperRange": 14.0,
        "initialCD": 2.0,
        "initialCDUpperRange": 16.0,
        "publicCDGroup": "",
        "HHAGODJIAPE": "",
        "stateIDs": ["OnWaterBackstroke"],
        "flagTargetReachable": "10",
        "flagSelfOnTemplateCollider": "01",
        "flagSelfInZone": "10",
        "flagTargetInZone": "11"
      }
    },
    "skillGCD": 3.5,
    "aidingTactic": {
      "Default": {
        "GINJMMLNHIA": 60.0,
        "HIFACMDKHHK": -60.0
      },
      "Surround": {
        "DFOBCOJHJHD": false,
        "GINJMMLNHIA": 40.0,
        "HIFACMDKHHK": -40.0
      },
      "Chase": {
        "KBHAIMODNGL": 0.30000001192092896,
        "IKCMKBHPKMA": 0.699999988079071,
        "GINJMMLNHIA": 40.0,
        "HIFACMDKHHK": -40.0
      }
    },
    "birdCirclingTactic": [
      {
        "$type": "AFPKJOCDEIF",
        "enable": true,
        "condition": {
          "pose": [2]
        },
        "JMCOBEPDIGM": {
          "ANLAAGAMIKF": 1,
          "OODBIGLAFGG": {
            "OJLPFPNFMDJ": 3.5,
            "JFBDDDBIHDE": 7.5,
            "EHLPOCLAEFO": 2.0,
            "APHHENPJNLO": 5.0,
            "AKMJKEIJEHM": 3.0,
            "PELOBMPBAJF": 7.0,
            "BLOIJOGPILM": 3.0,
            "GNFCHLHAPNI": 7.0,
            "DFHLPPNLGIE": 2.0,
            "CLDDLKFCODO": 6.0,
            "GNJEAKAKLHD": 2.0,
            "EHAGCHIFFHA": 6.0
          },
          "NBENNEKDIIA": 4.0,
          "NNMEJAFDPEJ": 5.0,
          "KPNDPKIOPJM": 15.0,
          "PINAFKEDDLL": 25.0,
          "MNPDDAKDHGK": "",
          "GJDMDHIBCME": "",
          "KHJGKBJCNLM": 1.5,
          "DNEGGCDNMKL": 120.0,
          "OPPALPGLBJI": 120.0,
          "BHEHHOJOGEI": 0.800000011920929,
          "OIGAJIFCDMI": 3.0,
          "BMDNOGNPICH": 3.0,
          "EIGFLPCINME": 1.0,
          "IGPFOHBHOCM": true,
          "ANMPOPEBDIA": 20.0,
          "LGEJMHHKDHD": 0.6000000238418579,
          "LDOEAHKEMMH": 0.20000000298023224,
          "FJELCNEOPLE": 0.800000011920929,
          "BKPKJEDPJCK": 0.4000000059604645,
          "CMCKJBFDDDM": 0.6499999761581421,
          "JJGCFCNPKAD": 0.25
        }
      },
      {
        "$type": "COLLJLNKMLC",
        "enable": true,
        "JMCOBEPDIGM": {
          "ANLAAGAMIKF": 1,
          "MNPDDAKDHGK": "",
          "GJDMDHIBCME": "Default",
          "ACOBCFCMBOC": "Spacial",
          "PLLHMGHOAPB": "",
          "KPIJNGFNAEF": "",
          "GDPHPLKJGAJ": "",
          "KKKOAABEHEP": ""
        }
      },
      {
        "$type": "MCDGOJLCMBM",
        "enable": true,
        "JMCOBEPDIGM": {
          "ACOBCFCMBOC": "Spacial",
          "MNPDDAKDHGK": "",
          "GJDMDHIBCME": "Default"
        }
      },
      {
        "$type": "ALHOEAMCGGO",
        "enable": true,
        "condition": {
          "pose": [99]
        },
        "JMCOBEPDIGM": {
          "NBENNEKDIIA": 2.4000000953674316,
          "cd": 3.0,
          "triggerDistance": 100.0,
          "MMGOBGGLBJO": 15.0,
          "CMDFDIPMGKI": 6,
          "KAIGBDPLNMO": 4.0,
          "BMIEPFCPFGN": 6.0,
          "JIHEPOLDBPI": 10.0,
          "JEJKCNCHFLA": -10.0,
          "GLABEAKINML": 10.0,
          "DHHPBOKJCOH": -10.0,
          "IAGJBJHKMBF": true,
          "MNPDDAKDHGK": "",
          "GJDMDHIBCME": "Default"
        }
      },
      {
        "$type": "EPPOBBAEPED",
        "enable": true,
        "condition": {
          "pose": [201, 202, 210]
        },
        "JMCOBEPDIGM": {
          "FAKGFIDPCFL": 9.0,
          "GHCEDMEHKLN": 6.0,
          "ONFAMCFCNFM": 0.0,
          "KLODEFMNFIC": 1.5,
          "MNPDDAKDHGK": "",
          "GJDMDHIBCME": "Chase",
          "OCJMIBOCPAH": 2.0,
          "NBENNEKDIIA": 1.2000000476837158
        }
      },
      {
        "$type": "FCDFANHKKHL",
        "enable": true,
        "condition": {
          "pose": [202]
        },
        "JMCOBEPDIGM": {
          "NBENNEKDIIA": 5.0,
          "ILDMICDGLLD": 2.5,
          "JHBFAHJICKF": 15.0,
          "GFJEANPCJBF": "RootNode",
          "HCMBKOAJFMD": 3.5,
          "JCLOLJJHJAG": 3.0,
          "JBOBJJFPLHM": 5.5,
          "CEDCCJHIHKF": 1.0,
          "DHFKFHDMCPL": 1.5,
          "cd": 6.0,
          "EOBBFODGNDG": 9.0,
          "BIKLBBPLGJD": 2.5,
          "FEPKKGNMMLD": 8.0,
          "DLOEGDAJIOI": 1.0,
          "DPGAPEKENFE": 2.0,
          "MNPDDAKDHGK": "",
          "GJDMDHIBCME": "Surround"
        }
      }
    ]
  },
  "inputKeys": [
    {
      "keyID": 9001,
      "inputKeyCode": 257,
      "abilityName": ""
    },
    {
      "keyID": 9002,
      "inputKeyCode": 258,
      "abilityName": ""
    }
  ],
  "move": {
    "$type": "IPNMJMHDMPF",
    "velocityForce": {
      "excludeForces": ["RetreatType", "RetreatAirType", "WindZoneType"]
    },
    "initWithGroundHitCheckV2": false,
    "OGBEFBMLJJI": true,
    "yawSpeedRatio": 3.0,
    "positionModifyExtra": true,
    "PKHOMJHFAEE": "RootNode",
    "JNAPCJLHJDO": true
  },
  "audio": {
    "overrideEmitterName": "",
    "animAudio": {
      "onTransitionIn": [
        {
          "currentStateName": "Swim_Loop",
          "audioEvent": {
            "text": "Play_Sfx_Animal_Beaver_Swim_Loop_LP"
          },
          "otherStateNames": ["Swim_Loop"],
          "usage": "Except"
        }
      ],
      "onTransitionOut": [
        {
          "currentStateName": "Swim_Loop",
          "audioEvent": {
            "text": "Stop_Sfx_Animal_Beaver_Swim_Loop_LP"
          },
          "otherStateNames": ["Swim_Loop"],
          "usage": "Except"
        }
      ]
    }
  },
  "animal": {
    "tickAbilityElement": false,
    "hasCharacterRenderering": false
  }
}
