{
  "common": {
    "effectAttachShape": {
      "$type": "FJNPJANPGGC",
      "mesh": "EffectMesh"
    },
    "mass": 40.0,
    "height": 2.0,
    "modelHeight": 2.0,
    "viewSize": 1.2999999523162842,
    "affectedByWorld": true,
    "checkInSurface": true,
    "scale": 0.8999999761581421,
    "useGrassDisplacement": true,
    "clearAnimatorOnSetLightDeactive": true,
    "clearAIOnSetLightDeactive": true,
    "recoverByInitPose": true
  },
  "model": {
    "bornEffect": "",
    "attachEffect": "",
    "canBakeMesh": false,
    "BKPFGNPLDNJ": ""
  },
  "dither": {
    "showDitherDuration": 2.0
  },
  "combat": {
    "property": {
      "endureType": "Monster_Demiboss_Humanoid",
      "weight": 125.0
    },
    "beHit": {
      "hitBloodEffect": ""
    },
    "combatLock": {
      "lockShape": "CircleLockEnemy",
      "lockType": "Avatar&Monster_Lv4"
    },
    "die": {
      "hasAnimatorDie": true,
      "dieEndTime": 2.0,
      "dieForceDisappearTime": 1.5,
      "dieDisappearEffect": "Eff_Death_Common",
      "dieShaderData": "MonsterDie",
      "muteHitBox": true,
      "dieDenyLockOn": true,
      "dieIsGhostToEnemy": true,
      "dieIgnoreTriggerBullet": true,
      "muteBillboard": true,
      "mutePushCollider": true
    },
    "animEvents": {
      "MeleeAttack01Normal": {
        "attackPattern": {
          "$type": "ConfigAttackCircle",
          "triggerType": "TriggerNoRepeat",
          "born": {
            "$type": "ConfigBornBySelf",
            "offset": {
              "x": 0.0,
              "y": 0.0,
              "z": 0.5
            }
          },
          "height": 1.7999999523162842,
          "fanAngle": 180.0,
          "radius": 4.0
        },
        "attackInfo": {
          "attackTag": "",
          "attenuationTag": "",
          "attenuationGroup": "default",
          "attackProperty": {
            "actorGrassSubHurtDelta": 0.699999988079071,
            "actorWindSubHurtDelta": 0.0,
            "elementDurability": 100.0,
            "strikeType": "Blunt",
            "enBreak": 150.0,
            "attackType": "Melee",
            "GLKMCMDJBIK": 0.0
          },
          "hitPattern": {
            "onHitEffectName": "default",
            "hitImpulseY": "",
            "hitImpulseType": "LV4"
          }
        }
      },
      "MeleeAttack02Normal": {
        "attackPattern": {
          "$type": "ConfigAttackSphere",
          "triggerType": "TriggerNoRepeat",
          "born": {
            "$type": "ConfigBornBySelf",
            "offset": {
              "x": 0.0,
              "y": 1.0,
              "z": 2.5
            }
          },
          "radius": 2.0
        },
        "attackInfo": {
          "attackTag": "",
          "attenuationTag": "",
          "attenuationGroup": "default",
          "attackProperty": {
            "actorGrassSubHurtDelta": 0.8500000238418579,
            "actorWindSubHurtDelta": 0.0,
            "elementDurability": 100.0,
            "strikeType": "Blunt",
            "enBreak": 200.0,
            "attackType": "Melee",
            "GLKMCMDJBIK": 0.0
          },
          "hitPattern": {
            "onHitEffectName": "default",
            "hitImpulseY": "",
            "hitImpulseType": "LV5"
          }
        }
      },
      "MeleeAttack01Decay": {
        "attackPattern": {
          "$type": "ConfigAttackCircle",
          "triggerType": "TriggerNoRepeat",
          "born": {
            "$type": "ConfigBornBySelf",
            "offset": {
              "x": 0.0,
              "y": 0.0,
              "z": 0.5
            }
          },
          "height": 2.0,
          "radius": 5.5
        },
        "attackInfo": {
          "attackTag": "",
          "attenuationTag": "",
          "attenuationGroup": "default",
          "attackProperty": {
            "actorGrassSubHurtDelta": 0.8500000238418579,
            "actorWindSubHurtDelta": 0.0,
            "elementDurability": 100.0,
            "strikeType": "Blunt",
            "enBreak": 150.0,
            "attackType": "Melee",
            "GLKMCMDJBIK": 0.0
          },
          "hitPattern": {
            "onHitEffectName": "default",
            "hitImpulseY": "",
            "hitImpulseType": "LV4"
          }
        }
      },
      "MeleeAttack02Decay": {
        "attackPattern": {
          "$type": "ConfigAttackSphere",
          "triggerType": "TriggerNoRepeat",
          "born": {
            "$type": "ConfigBornBySelf",
            "offset": {
              "x": 0.0,
              "y": 1.0,
              "z": 2.5
            }
          },
          "radius": 3.0
        },
        "attackInfo": {
          "attackTag": "",
          "attenuationTag": "",
          "attenuationGroup": "default",
          "attackProperty": {
            "actorGrassSubHurtDelta": 1.0,
            "actorWindSubHurtDelta": 0.0,
            "elementDurability": 100.0,
            "strikeType": "Blunt",
            "enBreak": 150.0,
            "attackType": "Melee",
            "GLKMCMDJBIK": 0.0
          },
          "hitPattern": {
            "onHitEffectName": "default",
            "hitImpulseY": "",
            "hitImpulseType": "LV6"
          }
        }
      },
      "ChargeNormal": {
        "attackPattern": {
          "$type": "ConfigAttackCircle",
          "triggerType": "TriggerNoRepeat",
          "born": {
            "$type": "ConfigBornBySelf",
            "offset": {
              "x": 0.0,
              "y": 0.0,
              "z": 0.0
            }
          },
          "height": 1.7999999523162842,
          "fanAngle": 150.0,
          "radius": 1.7999999523162842
        },
        "attackInfo": {
          "attackTag": "",
          "attenuationTag": "Monster_Fungus_Amanita_Unu_Svarita_Ice_ChargeNormal",
          "attenuationGroup": "Effigy_Ice_Attenuation_2",
          "attackProperty": {
            "actorGrassSubHurtDelta": 0.30000001192092896,
            "actorWindSubHurtDelta": 0.0,
            "elementType": "Ice",
            "elementDurability": 25.0,
            "strikeType": "Blunt",
            "enBreak": 80.0,
            "attackType": "Melee",
            "GLKMCMDJBIK": 0.0
          },
          "hitPattern": {
            "onHitEffectName": "default",
            "hitImpulseY": "",
            "hitImpulseType": "LV4"
          }
        }
      },
      "ChargeEndNormal": {
        "attackPattern": {
          "$type": "ConfigAttackCircle",
          "triggerType": "TriggerNoRepeat",
          "born": {
            "$type": "ConfigBornBySelf",
            "offset": {
              "x": 0.0,
              "y": 0.0,
              "z": 0.0
            }
          },
          "height": 2.5,
          "fanAngle": 150.0,
          "radius": 2.5
        },
        "attackInfo": {
          "attackTag": "",
          "attenuationTag": "",
          "attenuationGroup": "default",
          "attackProperty": {
            "actorGrassSubHurtDelta": 0.8500000238418579,
            "actorWindSubHurtDelta": 0.0,
            "elementType": "Ice",
            "elementDurability": 25.0,
            "strikeType": "Blunt",
            "enBreak": 200.0,
            "attackType": "Melee",
            "GLKMCMDJBIK": 0.0
          },
          "hitPattern": {
            "onHitEffectName": "default",
            "hitImpulseY": "",
            "hitImpulseType": "LV5"
          }
        }
      },
      "ChargeDecay": {
        "attackPattern": {
          "$type": "ConfigAttackCircle",
          "triggerType": "TriggerNoRepeat",
          "born": {
            "$type": "ConfigBornBySelf",
            "offset": {
              "x": 0.0,
              "y": 0.0,
              "z": 0.0
            }
          },
          "height": 2.0,
          "fanAngle": 150.0,
          "radius": 2.0
        },
        "attackInfo": {
          "attackTag": "",
          "attenuationTag": "Monster_Fungus_Amanita_Unu_Svarita_Ice_ChargeDecay",
          "attenuationGroup": "Effigy_Ice_Attenuation_2",
          "attackProperty": {
            "actorGrassSubHurtDelta": 0.4000000059604645,
            "actorWindSubHurtDelta": 0.0,
            "elementType": "Ice",
            "elementDurability": 25.0,
            "strikeType": "Blunt",
            "enBreak": 80.0,
            "attackType": "Melee",
            "GLKMCMDJBIK": 0.0
          },
          "hitPattern": {
            "onHitEffectName": "default",
            "hitImpulseY": "",
            "hitImpulseType": "LV4"
          }
        }
      },
      "ChargeEndDecay": {
        "attackPattern": {
          "$type": "ConfigAttackCircle",
          "triggerType": "TriggerNoRepeat",
          "born": {
            "$type": "ConfigBornBySelf",
            "offset": {
              "x": 0.0,
              "y": 0.0,
              "z": 0.0
            }
          },
          "height": 3.5,
          "fanAngle": 180.0,
          "radius": 3.5
        },
        "attackInfo": {
          "attackTag": "",
          "attenuationTag": "",
          "attenuationGroup": "default",
          "attackProperty": {
            "actorGrassSubHurtDelta": 1.0,
            "actorWindSubHurtDelta": 0.0,
            "elementType": "Ice",
            "elementDurability": 25.0,
            "strikeType": "Blunt",
            "enBreak": 200.0,
            "attackType": "Melee",
            "GLKMCMDJBIK": 0.0
          },
          "hitPattern": {
            "onHitEffectName": "default",
            "hitImpulseY": "",
            "hitImpulseType": "LV6"
          }
        }
      },
      "DiveAttackNormal": {
        "attackPattern": {
          "$type": "ConfigAttackCircle",
          "triggerType": "TriggerNoRepeat",
          "born": {
            "$type": "ConfigBornBySelf",
            "offset": {
              "x": 0.0,
              "y": -1.25,
              "z": 0.0
            }
          },
          "height": 2.5,
          "fanAngle": 90.0,
          "radius": 1.5
        },
        "attackInfo": {
          "attackTag": "",
          "attenuationTag": "Monster_Fungus_Amanita_Unu_Svarita_Ice_DiveAttackNormal",
          "attenuationGroup": "Effigy_Ice_Attenuation_2",
          "attackProperty": {
            "actorGrassSubHurtDelta": 0.30000001192092896,
            "actorWindSubHurtDelta": 0.0,
            "elementType": "Ice",
            "elementDurability": 25.0,
            "strikeType": "Blunt",
            "enBreak": 200.0,
            "attackType": "Melee",
            "GLKMCMDJBIK": 0.0
          },
          "hitPattern": {
            "onHitEffectName": "default",
            "hitImpulseY": "",
            "hitImpulseType": "LV4"
          }
        }
      },
      "DiveAttackEndNormal": {
        "attackPattern": {
          "$type": "ConfigAttackCircle",
          "triggerType": "TriggerNoRepeat",
          "born": {
            "$type": "ConfigBornBySelf",
            "offset": {
              "x": 0.0,
              "y": 0.0,
              "z": 0.0
            }
          },
          "height": 2.5,
          "fanAngle": 120.0,
          "radius": 2.5
        },
        "attackInfo": {
          "attackTag": "",
          "attenuationTag": "",
          "attenuationGroup": "default",
          "attackProperty": {
            "actorGrassSubHurtDelta": 0.8500000238418579,
            "actorWindSubHurtDelta": 0.0,
            "elementType": "Ice",
            "elementDurability": 25.0,
            "strikeType": "Blunt",
            "enBreak": 200.0,
            "attackType": "Melee",
            "GLKMCMDJBIK": 0.0
          },
          "hitPattern": {
            "onHitEffectName": "default",
            "hitImpulseY": "",
            "hitImpulseType": "LV5"
          }
        }
      },
      "DiveAttackDecay": {
        "attackPattern": {
          "$type": "ConfigAttackCircle",
          "triggerType": "TriggerNoRepeat",
          "born": {
            "$type": "ConfigBornBySelf",
            "offset": {
              "x": 0.0,
              "y": -1.75,
              "z": 0.0
            }
          },
          "height": 3.5,
          "fanAngle": 100.0,
          "radius": 2.0
        },
        "attackInfo": {
          "attackTag": "",
          "attenuationTag": "Monster_Fungus_Amanita_Unu_Svarita_Ice_DiveAttackDecay",
          "attenuationGroup": "Effigy_Ice_Attenuation_2",
          "attackProperty": {
            "actorGrassSubHurtDelta": 0.4000000059604645,
            "actorWindSubHurtDelta": 0.0,
            "elementType": "Ice",
            "elementDurability": 25.0,
            "strikeType": "Blunt",
            "enBreak": 80.0,
            "attackType": "Melee",
            "GLKMCMDJBIK": 0.0
          },
          "hitPattern": {
            "onHitEffectName": "default",
            "hitImpulseY": "",
            "hitImpulseType": "LV4"
          }
        }
      },
      "DiveAttackEndDecay": {
        "attackPattern": {
          "$type": "ConfigAttackCircle",
          "triggerType": "TriggerNoRepeat",
          "born": {
            "$type": "ConfigBornBySelf",
            "offset": {
              "x": 0.0,
              "y": 0.0,
              "z": 0.0
            }
          },
          "height": 3.5,
          "fanAngle": 180.0,
          "radius": 3.5
        },
        "attackInfo": {
          "attackTag": "",
          "attenuationTag": "",
          "attenuationGroup": "default",
          "attackProperty": {
            "actorGrassSubHurtDelta": 1.0,
            "actorWindSubHurtDelta": 0.0,
            "elementType": "Ice",
            "elementDurability": 25.0,
            "strikeType": "Blunt",
            "enBreak": 200.0,
            "attackType": "Melee",
            "GLKMCMDJBIK": 0.0
          },
          "hitPattern": {
            "onHitEffectName": "default",
            "hitImpulseY": "",
            "hitImpulseType": "LV6"
          }
        }
      }
    }
  },
  "abilities": [
    {
      "abilityID": "",
      "abilityName": "Monster_Fungus_Amanita_Unu_AirStateManager",
      "abilityOverride": ""
    },
    {
      "abilityID": "",
      "abilityName": "Monster_Fungus_Amanita_Unu_ReturnToBorn",
      "abilityOverride": ""
    },
    {
      "abilityID": "",
      "abilityName": "Monster_Fungus_Amanita_FungusStateManager",
      "abilityOverride": ""
    },
    {
      "abilityID": "",
      "abilityName": "Monster_Fungus_Alert",
      "abilityOverride": ""
    },
    {
      "abilityID": "",
      "abilityName": "Monster_Fungus_Amanita_Unu_Svarita_Ice_Steer",
      "abilityOverride": ""
    }
  ],
  "stateLayers": {
    "defaultLayer": {
      "$type": "GBGJJIIEMBD",
      "layerIndexName": "",
      "CPAANEIJCGD": "",
      "stateIDs": {
        "Born": {
          "$type": "NEDIFAKEGCO",
          "animatorStates": {
            "Born": []
          },
          "canSyncMove": true,
          "resetAnimatorTriggerOnExit": ["DoSkill"]
        },
        "NormalIdle": {
          "$type": "NEDIFAKEGCO",
          "animatorStates": {
            "Standby_WingDown01": [],
            "Standby_WingUp01": [
              "Audio_Monster_Fungus_Amanita_Unu_Anudatta_FlyStandBy_WingDown_01"
            ],
            "Standby_WingDown02": [],
            "Standby_WingUp02": [
              "Audio_Monster_Fungus_Amanita_Unu_Anudatta_FlyStandBy_WingDown_02"
            ]
          },
          "canDoSkill": true,
          "canSyncMove": true,
          "resetAnimatorTriggerOnExit": ["DoSkill"],
          "canSteer": true
        },
        "GroundedIdle": {
          "$type": "NEDIFAKEGCO",
          "animatorStates": {
            "Standby_Grounded": []
          },
          "canDoSkill": true,
          "canSyncMove": true,
          "resetAnimatorTriggerOnExit": ["DoSkill"]
        },
        "NormalFly": {
          "$type": "NEDIFAKEGCO",
          "animatorStates": {
            "Fly_WingUp01": [],
            "Fly_WingDown01": [],
            "Fly_WingUp02": [],
            "Fly_WingDown02": []
          },
          "canDoSkill": true,
          "canSyncMove": true,
          "resetAnimatorTriggerOnExit": ["DoSkill"],
          "setAnimatorFloat": [
            {
              "name": "FlyMotionHor",
              "normalizeEnd": 0.0
            },
            {
              "name": "FlyMotionVer",
              "normalizeEnd": 0.0
            }
          ],
          "canSteer": true,
          "blendMove": "BlendMove3D"
        },
        "FlyRush": {
          "$type": "NEDIFAKEGCO",
          "animatorStates": {
            "FlyRush_BS": [
              "Audio_Monster_Fungus_Amanita_Unu_Anudatta_FlyRush_BS"
            ],
            "FlyRush_WingUp01": [
              "Monster_Fungus_Amanita_Unu_FlyRush",
              "Audio_Monster_Fungus_Amanita_Unu_FlyRush"
            ],
            "FlyRush_WingDown01": [
              "Monster_Fungus_Amanita_Unu_FlyRush",
              "Audio_Monster_Fungus_Amanita_Unu_FlyRush"
            ],
            "FlyRush_WingUp02": [
              "Monster_Fungus_Amanita_Unu_FlyRush",
              "Audio_Monster_Fungus_Amanita_Unu_FlyRush"
            ],
            "FlyRush_WingDown02": [
              "Monster_Fungus_Amanita_Unu_FlyRush",
              "Audio_Monster_Fungus_Amanita_Unu_FlyRush"
            ]
          },
          "canDoSkill": true,
          "canSyncMove": true,
          "canSteer": true
        },
        "BeHit": {
          "$type": "NEDIFAKEGCO",
          "animatorStates": {
            "Hit_H": ["Audio_Monster_Fungus_Amanita_Unu_Hit_H"]
          },
          "canSyncMove": true,
          "resetAnimatorTriggerOnEnter": ["BeHit"],
          "resetAnimatorTriggerOnExit": ["DoSkill"],
          "airMoveFollowAnimation": true
        },
        "BeHitThrow": {
          "$type": "NEDIFAKEGCO",
          "animatorStates": {
            "HitThrow": [],
            "HitThrowDrop": [],
            "HitThrowToGround": [
              "Audio_Monster_Fungus_Amanita_Unu_hitThrowToGround_BS"
            ]
          },
          "resetAnimatorTriggerOnEnter": ["BeHit", "HitAir2HitDrop"],
          "resetAnimatorTriggerOnExit": ["DoSkill"],
          "remoteForceCloseAirMove": true
        },
        "Struggle": {
          "$type": "NEDIFAKEGCO",
          "animatorStates": {
            "Struggle": []
          },
          "resetAnimatorTriggerOnEnter": ["BeHit", "HitAir2HitDrop"],
          "resetAnimatorTriggerOnExit": ["DoSkill"]
        },
        "Die": {
          "$type": "NEDIFAKEGCO",
          "animatorStates": {
            "Die_BS": [],
            "Die": [
              "Monster_Fungus_Amanita_Unu_Die",
              "Audio_Monster_Fungus_Amanita_Unu_Die"
            ],
            "AirDie": ["Monster_Fungus_Amanita_Unu_Die"],
            "SwimDie_BS": [],
            "SwimDie": []
          }
        },
        "Warning": {
          "$type": "NEDIFAKEGCO",
          "animatorStates": {
            "Warning": [
              "Monster_Fungus_Amanita_Unu_Alert",
              "Audio_Monster_Fungus_Amanita_Unu_Warning"
            ]
          },
          "canSyncMove": true,
          "addEndure": 0.009999999776482582,
          "resetAnimatorTriggerOnExit": ["BeHit", "DoSkill"],
          "canSteer": true
        },
        "ClimbUp": {
          "$type": "NEDIFAKEGCO",
          "animatorStates": {
            "ClimbUp_BS": [
              "Monster_Fungus_Amanita_Unu_ClimbUp_BS",
              "Audio_Monster_Fungus_Amanita_Unu_Anudatta_ClimbUp_BS"
            ],
            "ClimbUp_Loop": [],
            "ClimbUp_AS": [
              "Audio_Monster_Fungus_Amanita_Unu_Anudatta_ClimbUp_AS"
            ]
          },
          "resetAnimatorTriggerOnExit": ["BeHit", "DoSkill"],
          "canSteer": true
        },
        "MeleeAttack01Normal_BS": {
          "$type": "NEDIFAKEGCO",
          "animatorStates": {
            "MeleeAttack01Normal_BS": [
              "Audio_Monster_Fungus_Amanita_Unu_Svarita_Ice_MeleeAttack01_BS"
            ]
          },
          "resetAnimatorTriggerOnExit": ["BeHit", "DoSkill"],
          "canSteer": true
        },
        "MeleeAttack01Overdose_BS": {
          "$type": "NEDIFAKEGCO",
          "animatorStates": {
            "MeleeAttack01Overdose_BS": [
              "Audio_Monster_Fungus_Amanita_Unu_Svarita_Ice_MeleeAttack01_BS"
            ]
          },
          "resetAnimatorTriggerOnExit": ["BeHit", "DoSkill"],
          "canSteer": true
        },
        "MeleeAttack01Decay_BS": {
          "$type": "NEDIFAKEGCO",
          "animatorStates": {
            "MeleeAttack01Decay_BS": [
              "Monster_Fungus_Amanita_Unu_Anudatta_Grass_MeleeAttackDecay_BS",
              "Audio_Monster_Fungus_Amanita_Unu_Svarita_Ice_MeleeAttack01_BS"
            ]
          },
          "resetAnimatorTriggerOnExit": ["BeHit", "DoSkill"],
          "canSteer": true
        },
        "MeleeAttack01_AS": {
          "$type": "NEDIFAKEGCO",
          "animatorStates": {
            "MeleeAttack01Normal_Attack": [
              "Monster_Fungus_Amanita_Unu_Svarita_Ice_MeleeAttack01Normal_Attack",
              "Audio_Monster_Fungus_Amanita_Unu_Svarita_Ice_MeleeAttack01_Attack"
            ],
            "MeleeAttack01Normal_AS": [
              "Audio_Monster_Fungus_Amanita_Unu_Svarita_Ice_MeleeAttack01_AS"
            ],
            "MeleeAttack01Overdose_Attack": [
              "Monster_Fungus_Amanita_Unu_Svarita_Ice_MeleeAttack01Normal_Attack",
              "Audio_Monster_Fungus_Amanita_Unu_Svarita_Ice_MeleeAttack01_Attack"
            ],
            "MeleeAttack01Overdose_AS": [
              "Audio_Monster_Fungus_Amanita_Unu_Svarita_Ice_MeleeAttack01_AS"
            ],
            "MeleeAttack01Decay_Attack": [
              "Monster_Fungus_Amanita_Unu_Svarita_Ice_MeleeAttack01Decay_Attack",
              "Audio_Monster_Fungus_Amanita_Unu_Svarita_Ice_MeleeAttack01Decay_Attack"
            ],
            "MeleeAttack01Decay_AS": [
              "Audio_Monster_Fungus_Amanita_Unu_Svarita_Ice_MeleeAttack01_AS"
            ]
          },
          "resetAnimatorTriggerOnExit": ["BeHit", "DoSkill"],
          "canSteer": true
        },
        "MeleeAttack02Normal_BS": {
          "$type": "NEDIFAKEGCO",
          "animatorStates": {
            "MeleeAttack02Normal_BS": []
          },
          "resetAnimatorTriggerOnExit": ["BeHit", "DoSkill"],
          "canSteer": true
        },
        "MeleeAttack02Overdose_BS": {
          "$type": "NEDIFAKEGCO",
          "animatorStates": {
            "MeleeAttack02Overdose_BS": []
          },
          "resetAnimatorTriggerOnExit": ["BeHit", "DoSkill"],
          "canSteer": true
        },
        "MeleeAttack02Decay_BS": {
          "$type": "NEDIFAKEGCO",
          "animatorStates": {
            "MeleeAttack02Decay_BS": []
          },
          "resetAnimatorTriggerOnExit": ["BeHit", "DoSkill"],
          "canSteer": true
        },
        "MeleeAttack02_AS": {
          "$type": "NEDIFAKEGCO",
          "animatorStates": {
            "MeleeAttack02Normal_Attack": [
              "Monster_Fungus_Amanita_Unu_Svarita_Ice_MeleeAttack02Normal_Attack",
              "Audio_Monster_Fungus_Amanita_Unu_Svarita_Ice_MeleeAttack02_Attack"
            ],
            "MeleeAttack02Normal_AS": [
              "Audio_Monster_Fungus_Amanita_Unu_Svarita_Ice_MeleeAttack02_AS"
            ],
            "MeleeAttack02Overdose_Attack": [
              "Monster_Fungus_Amanita_Unu_Svarita_Ice_MeleeAttack02Normal_Attack",
              "Audio_Monster_Fungus_Amanita_Unu_Svarita_Ice_MeleeAttack02_Attack"
            ],
            "MeleeAttack02Overdose_AS": [
              "Audio_Monster_Fungus_Amanita_Unu_Svarita_Ice_MeleeAttack02_AS"
            ],
            "MeleeAttack02Decay_Attack": [
              "Monster_Fungus_Amanita_Unu_Svarita_Ice_MeleeAttack02Decay_Attack",
              "Audio_Monster_Fungus_Amanita_Unu_Svarita_Ice_MeleeAttack02Decay_Attack"
            ],
            "MeleeAttack02Decay_AS": [
              "Audio_Monster_Fungus_Amanita_Unu_Svarita_Ice_MeleeAttack02_AS"
            ]
          },
          "resetAnimatorTriggerOnExit": ["BeHit", "DoSkill"],
          "canSteer": true
        },
        "ChargeNormal_BS": {
          "$type": "NEDIFAKEGCO",
          "animatorStates": {
            "ChargeNormal_BS": [
              "Monster_Fungus_Amanita_Unu_Svarita_Ice_ChargeNormal_BS",
              "Audio_Monster_Fungus_Amanita_Unu_Svarita_Ice_Charge_BS"
            ]
          },
          "resetAnimatorTriggerOnExit": ["BeHit", "DoSkill"],
          "canSteer": true
        },
        "ChargeOverdose_BS": {
          "$type": "NEDIFAKEGCO",
          "animatorStates": {
            "ChargeOverdose01_BS": [
              "Monster_Fungus_Amanita_Unu_Svarita_Ice_ChargeNormal_BS",
              "Audio_Monster_Fungus_Amanita_Unu_Svarita_Ice_Charge_BS"
            ],
            "ChargeOverdose02_BS": [
              "Monster_Fungus_Amanita_Unu_Svarita_Ice_ChargeNormal_BS",
              "Audio_Monster_Fungus_Amanita_Unu_Svarita_Ice_Charge_BS"
            ],
            "ChargeOverdose03_BS": [
              "Monster_Fungus_Amanita_Unu_Svarita_Ice_ChargeNormal_BS",
              "Audio_Monster_Fungus_Amanita_Unu_Svarita_Ice_Charge_BS"
            ]
          },
          "resetAnimatorTriggerOnExit": ["BeHit", "DoSkill"],
          "canSteer": true
        },
        "ChargeDecay_BS": {
          "$type": "NEDIFAKEGCO",
          "animatorStates": {
            "ChargeDecay_BS": [
              "Monster_Fungus_Amanita_Unu_Svarita_Ice_ChargeDecay_BS",
              "Audio_Monster_Fungus_Amanita_Unu_Svarita_Ice_ChargeDecay_BS"
            ]
          },
          "resetAnimatorTriggerOnExit": ["BeHit", "DoSkill"],
          "canSteer": true
        },
        "Charge_Loop": {
          "$type": "NEDIFAKEGCO",
          "animatorStates": {
            "ChargeNormal_Loop": [
              "Monster_Fungus_Amanita_Unu_Svarita_Ice_ChargeNormal_Loop"
            ],
            "ChargeOverdose01_Loop": [
              "Monster_Fungus_Amanita_Unu_Svarita_Ice_ChargeNormal_Loop"
            ],
            "ChargeOverdose02_Loop": [
              "Monster_Fungus_Amanita_Unu_Svarita_Ice_ChargeNormal_Loop"
            ],
            "ChargeOverdose03_Loop": [
              "Monster_Fungus_Amanita_Unu_Svarita_Ice_ChargeNormal_Loop"
            ]
          },
          "resetAnimatorTriggerOnExit": ["BeHit", "DoSkill"],
          "canSteer": true
        },
        "ChargeDecay_Loop": {
          "$type": "NEDIFAKEGCO",
          "animatorStates": {
            "ChargeDecay_Loop": [
              "Monster_Fungus_Amanita_Unu_Svarita_Ice_ChargeDecay_Loop"
            ]
          },
          "resetAnimatorTriggerOnExit": ["BeHit", "DoSkill"],
          "canSteer": true
        },
        "Charge_AS": {
          "$type": "NEDIFAKEGCO",
          "animatorStates": {
            "ChargeNormal_AS": [
              "Monster_Fungus_Amanita_Unu_Svarita_Ice_ChargeNormal_AS",
              "Audio_Monster_Fungus_Amanita_Unu_Svarita_Ice_Charge_AS"
            ],
            "ChargeOverdose01_AS": [
              "Monster_Fungus_Amanita_Unu_Svarita_Ice_ChargeNormal_AS",
              "Audio_Monster_Fungus_Amanita_Unu_Svarita_Ice_Charge_AS"
            ],
            "ChargeOverdose02_AS": [
              "Monster_Fungus_Amanita_Unu_Svarita_Ice_ChargeNormal_AS",
              "Audio_Monster_Fungus_Amanita_Unu_Svarita_Ice_Charge_AS"
            ],
            "ChargeOverdose03_AS": [
              "Monster_Fungus_Amanita_Unu_Svarita_Ice_ChargeNormal_AS",
              "Audio_Monster_Fungus_Amanita_Unu_Svarita_Ice_Charge_AS"
            ],
            "ChargeDecay_AS": [
              "Monster_Fungus_Amanita_Unu_Svarita_Ice_ChargeDecay_AS",
              "Audio_Monster_Fungus_Amanita_Unu_Svarita_Ice_Charge_AS"
            ]
          },
          "resetAnimatorTriggerOnExit": ["BeHit", "DoSkill"],
          "canSteer": true
        },
        "DiveAttackNormal_BS": {
          "$type": "NEDIFAKEGCO",
          "animatorStates": {
            "DiveAttackNormal_BS": [
              "Monster_Fungus_Amanita_Unu_Svarita_Ice_DiveAttackNormal_BS",
              "Audio_Monster_Fungus_Amanita_Unu_Svarita_Ice_DiveAttack_BS"
            ]
          },
          "resetAnimatorTriggerOnExit": ["BeHit", "DoSkill"],
          "canSteer": true
        },
        "DiveAttackOverdose_BS": {
          "$type": "NEDIFAKEGCO",
          "animatorStates": {
            "DiveAttackOverdose_BS": [
              "Monster_Fungus_Amanita_Unu_Svarita_Ice_DiveAttackNormal_BS",
              "Audio_Monster_Fungus_Amanita_Unu_Svarita_Ice_DiveAttack_BS"
            ]
          },
          "resetAnimatorTriggerOnExit": ["BeHit", "DoSkill"],
          "canSteer": true
        },
        "DiveAttackDecay_BS": {
          "$type": "NEDIFAKEGCO",
          "animatorStates": {
            "DiveAttackDecay_BS": [
              "Monster_Fungus_Amanita_Unu_Svarita_Ice_DiveAttackDecay_BS",
              "Audio_Monster_Fungus_Amanita_Unu_Svarita_Ice_DiveAttackDecay_BS"
            ]
          },
          "resetAnimatorTriggerOnExit": ["BeHit", "DoSkill"],
          "canSteer": true
        },
        "DiveAttack_Loop": {
          "$type": "NEDIFAKEGCO",
          "animatorStates": {
            "DiveAttackNormal_Loop": [
              "Monster_Fungus_Amanita_Unu_Svarita_Ice_DiveAttackNormal_Loop",
              "Audio_Monster_Fungus_Amanita_Unu_Svarita_Ice_DiveAttack_Attack_Loop"
            ],
            "DiveAttackOverdose_Loop": [
              "Monster_Fungus_Amanita_Unu_Svarita_Ice_DiveAttackNormal_Loop",
              "Audio_Monster_Fungus_Amanita_Unu_Svarita_Ice_DiveAttack_Attack_Loop"
            ],
            "DiveAttackDecay_Loop": [
              "Monster_Fungus_Amanita_Unu_Svarita_Ice_DiveAttackDecay_Loop",
              "Audio_Monster_Fungus_Amanita_Unu_Svarita_Ice_DiveAttackDecay_Attack_Loop"
            ]
          },
          "resetAnimatorTriggerOnExit": ["BeHit", "DoSkill"],
          "canSteer": true
        },
        "DiveAttack": {
          "$type": "NEDIFAKEGCO",
          "animatorStates": {
            "DiveAttackNormal_AS": [
              "Monster_Fungus_Amanita_Unu_Svarita_Ice_DiveAttackNormal_AS",
              "Audio_Monster_Fungus_Amanita_Unu_Svarita_Ice_DiveAttackDecay_AS"
            ],
            "DiveAttackOverdose_AS": [
              "Monster_Fungus_Amanita_Unu_Svarita_Ice_DiveAttackNormal_AS",
              "Audio_Monster_Fungus_Amanita_Unu_Svarita_Ice_DiveAttackDecay_AS"
            ],
            "DiveAttackDecay_AS": [
              "Monster_Fungus_Amanita_Unu_Svarita_Ice_DiveAttackDecay_AS",
              "Audio_Monster_Fungus_Amanita_Unu_Svarita_Ice_DiveAttackDecay_AS"
            ]
          },
          "resetAnimatorTriggerOnExit": ["BeHit", "DoSkill"],
          "canSteer": true
        },
        "Taunt": {
          "$type": "NEDIFAKEGCO",
          "animatorStates": {
            "Taunt01": ["Audio_Monster_Fungus_Amanita_Unu_taunt01"]
          },
          "resetAnimatorTriggerOnExit": ["BeHit", "DoSkill"],
          "canSteer": true
        },
        "Grounded_AS": {
          "$type": "NEDIFAKEGCO",
          "animatorStates": {
            "Grounded_AS": []
          },
          "addEndure": 0.009999999776482582,
          "resetAnimatorTriggerOnExit": ["BeHit", "DoSkill"],
          "canSteer": true
        },
        "Dance": {
          "$type": "NEDIFAKEGCO",
          "animatorStates": {
            "Dance": [
              "Monster_Fungus_Amanita_Unu_Dance",
              "Audio_Monster_Fungus_Amanita_Unu_Dance"
            ]
          },
          "canDoSkill": true,
          "resetAnimatorTriggerOnExit": ["BeHit", "DoSkill"],
          "canSteer": true
        },
        "Tease": {
          "$type": "NEDIFAKEGCO",
          "animatorStates": {
            "Tease": ["Audio_Monster_Fungus_Amanita_Unu_Tease"]
          },
          "canDoSkill": true,
          "resetAnimatorTriggerOnExit": ["BeHit", "DoSkill"],
          "canSteer": true
        },
        "Absorb": {
          "$type": "NEDIFAKEGCO",
          "animatorStates": {
            "Absorb": [
              "Monster_Fungus_Amanita_Unu_Absorb",
              "Audio_Monster_Fungus_Amanita_Unu_Absorb"
            ]
          },
          "canDoSkill": true,
          "resetAnimatorTriggerOnExit": ["BeHit", "DoSkill"],
          "canSteer": true
        }
      }
    }
  },
  "billboard": {
    "$type": "DNGNMAJBCNP",
    "attachPoint": "BillboardAttach",
    "offset": {
      "y": 0.5
    },
    "radiusOffset": 1.0,
    "enableSelfAdapt": true,
    "showHPBar": true,
    "size": "Big"
  },
  "initialPoses": {
    "Default": {
      "initialPoseID": 201
    },
    "Dance": {
      "initialPoseID": 102,
      "initialPoseParams": {
        "boolParams": {
          "Dance": "true"
        }
      }
    },
    "Tease": {
      "initialPoseID": 103,
      "initialPoseParams": {
        "boolParams": {
          "Tease": "true"
        }
      }
    },
    "Absorb": {
      "initialPoseID": 104,
      "initialPoseParams": {
        "boolParams": {
          "Absorb": "true"
        }
      }
    }
  },
  "aibeta": {
    "enable": true,
    "moveSetting": {
      "useNavMesh": false,
      "navMeshAgentName": "Undead01"
    },
    "sensing": {
      "settings": {
        "DefaultSetting": {
          "viewRange": 22.0,
          "feelRange": 8.75
        },
        "NoSensing": {
          "enableVision": false,
          "hearAttractionRange": 0.0,
          "feelRange": 0.0
        }
      },
      "templates": {
        "DefaultTemplate": {
          "DefaultPoses": "DefaultSetting"
        },
        "NoSensing": {
          "DefaultPoses": "NoSensing"
        }
      }
    },
    "threat": {
      "GHIJMOKOLMB": "",
      "clearThreatTargetDistance": 30.0,
      "clearThreatEdgeDistance": 5.0,
      "clearThreatTimerByDistance": 2.0,
      "viewAttenuation": [
        {
          "x": 12.0,
          "y": 1.0
        },
        {
          "x": 20.0,
          "y": 0.5
        }
      ]
    },
    "defendArea": {
      "defendRange": 50.0
    },
    "fly": {
      "enable": true,
      "floatingPoses": [
        102, 103, 104, 201, 211, 221, 202, 212, 222, 501, 511, 521, 502, 512,
        522, 401, 402, 411, 412
      ]
    },
    "skills": {
      "100": {
        "name": "OnAlert",
        "skillType": "OnAlert",
        "faceTarget": true,
        "publicCDGroup": "",
        "triggerGCD": false,
        "HHAGODJIAPE": "",
        "stateIDs": ["Warning"],
        "skillQueryingTime": 3.0,
        "flagTargetReachable": "10",
        "flagSelfOnTemplateCollider": "01",
        "flagSelfInZone": "10",
        "flagTargetInZone": "11"
      },
      "102": {
        "name": "Dance",
        "skillType": "Free",
        "castCondition": {
          "pose": [102]
        },
        "cd": 10.0,
        "cdUpperRange": 10.0,
        "initialCD": 5.0,
        "initialCDUpperRange": 10.0,
        "publicCDGroup": "",
        "triggerGCD": false,
        "HHAGODJIAPE": "",
        "stateIDs": ["Dance"],
        "skillQueryingTime": 3.0,
        "flagTargetReachable": "10",
        "flagSelfOnTemplateCollider": "01",
        "flagSelfInZone": "10",
        "flagTargetInZone": "11"
      },
      "103": {
        "name": "Tease",
        "skillType": "Free",
        "castCondition": {
          "pose": [103]
        },
        "cd": 10.0,
        "cdUpperRange": 10.0,
        "initialCD": 5.0,
        "initialCDUpperRange": 10.0,
        "publicCDGroup": "",
        "triggerGCD": false,
        "HHAGODJIAPE": "",
        "stateIDs": ["Tease"],
        "skillQueryingTime": 3.0,
        "flagTargetReachable": "10",
        "flagSelfOnTemplateCollider": "01",
        "flagSelfInZone": "10",
        "flagTargetInZone": "11"
      },
      "104": {
        "name": "Absorb",
        "skillType": "Free",
        "castCondition": {
          "pose": [104]
        },
        "cd": 10.0,
        "cdUpperRange": 10.0,
        "initialCD": 5.0,
        "initialCDUpperRange": 10.0,
        "publicCDGroup": "",
        "triggerGCD": false,
        "HHAGODJIAPE": "",
        "stateIDs": ["Absorb"],
        "skillQueryingTime": 3.0,
        "flagTargetReachable": "10",
        "flagSelfOnTemplateCollider": "01",
        "flagSelfInZone": "10",
        "flagTargetInZone": "11"
      },
      "301": {
        "name": "MeleeAttackNormal",
        "combatSkillType": "MeleeAttack",
        "enableSkillPrepare": true,
        "castCondition": {
          "pose": [501],
          "pickRangeMin": 3.0,
          "pickRangeMax": 6.0,
          "pickRangeYMax": 0.5,
          "pickRangeYMin": -2.0,
          "castRangeType": "RangeXZ_Y",
          "castRangeXZY": {
            "castRangeXZMax": 2.0,
            "castRangeYMin": -0.5,
            "castRangeYMax": 0.6000000238418579
          }
        },
        "cd": 5.0,
        "initialCD": 5.0,
        "publicCDGroup": "Fungus_MeleeAttack",
        "ignoreGCD": true,
        "triggerGCD": false,
        "HHAGODJIAPE": "",
        "stateIDs": [
          "MeleeAttack01_AS",
          "MeleeAttack01Normal_BS",
          "MeleeAttack02_AS",
          "MeleeAttack02Normal_BS"
        ],
        "flagTargetReachable": "11",
        "flagSelfOnTemplateCollider": "01",
        "flagSelfInZone": "11",
        "flagTargetInZone": "11"
      },
      "305": {
        "name": "MeleeAttackNormal_Close",
        "combatSkillType": "MeleeAttack",
        "castCondition": {
          "pose": [501],
          "pickRangeMax": 2.0,
          "pickRangeYMax": 0.5,
          "pickRangeYMin": -2.0
        },
        "cd": 5.0,
        "initialCD": 5.0,
        "publicCDGroup": "Fungus_MeleeAttack",
        "ignoreGCD": true,
        "triggerGCD": false,
        "HHAGODJIAPE": "",
        "stateIDs": [
          "MeleeAttack01_AS",
          "MeleeAttack01Normal_BS",
          "MeleeAttack02_AS",
          "MeleeAttack02Normal_BS"
        ],
        "flagTargetReachable": "11",
        "flagSelfOnTemplateCollider": "01",
        "flagSelfInZone": "11",
        "flagTargetInZone": "11"
      },
      "311": {
        "name": "MeleeAttackOverdose",
        "combatSkillType": "MeleeAttack",
        "enableSkillPrepare": true,
        "castCondition": {
          "pose": [511],
          "pickRangeMax": 6.0,
          "pickRangeYMax": 0.5,
          "pickRangeYMin": -2.0,
          "castRangeXZY": {
            "castRangeXZMax": 2.0,
            "castRangeYMin": -0.5,
            "castRangeYMax": 0.6000000238418579
          }
        },
        "cd": 1.0,
        "initialCD": 2.0,
        "publicCDGroup": "Fungus_MeleeAttack",
        "ignoreGCD": true,
        "triggerGCD": false,
        "HHAGODJIAPE": "",
        "stateIDs": [
          "MeleeAttack01_AS",
          "MeleeAttack01Overdose_BS",
          "MeleeAttack02_AS",
          "MeleeAttack02Overdose_BS"
        ],
        "flagTargetReachable": "11",
        "flagSelfOnTemplateCollider": "01",
        "flagSelfInZone": "11",
        "flagTargetInZone": "11"
      },
      "315": {
        "name": "MeleeAttackOverdose_Close",
        "combatSkillType": "MeleeAttack",
        "castCondition": {
          "pose": [511],
          "pickRangeMax": 2.0,
          "pickRangeYMax": 0.5,
          "pickRangeYMin": -2.0
        },
        "cd": 1.0,
        "initialCD": 2.0,
        "publicCDGroup": "Fungus_MeleeAttack",
        "ignoreGCD": true,
        "triggerGCD": false,
        "HHAGODJIAPE": "",
        "stateIDs": [
          "MeleeAttack01_AS",
          "MeleeAttack01Overdose_BS",
          "MeleeAttack02_AS",
          "MeleeAttack02Overdose_BS"
        ],
        "flagTargetReachable": "11",
        "flagSelfOnTemplateCollider": "01",
        "flagSelfInZone": "11",
        "flagTargetInZone": "11"
      },
      "321": {
        "name": "MeleeAttackDecay",
        "combatSkillType": "MeleeAttack",
        "enableSkillPrepare": true,
        "castCondition": {
          "pose": [521],
          "pickRangeMax": 6.0,
          "pickRangeYMax": 0.5,
          "pickRangeYMin": -2.0,
          "castRangeXZY": {
            "castRangeXZMax": 2.0,
            "castRangeYMin": -0.5,
            "castRangeYMax": 0.6000000238418579
          }
        },
        "cd": 2.0,
        "publicCDGroup": "Fungus_MeleeAttack",
        "ignoreGCD": true,
        "triggerGCD": false,
        "HHAGODJIAPE": "",
        "stateIDs": [
          "MeleeAttack01_AS",
          "MeleeAttack01Decay_BS",
          "MeleeAttack02_AS",
          "MeleeAttack02Decay_BS"
        ],
        "flagTargetReachable": "11",
        "flagSelfOnTemplateCollider": "01",
        "flagSelfInZone": "11",
        "flagTargetInZone": "11"
      },
      "325": {
        "name": "MeleeAttackDecay_Close",
        "combatSkillType": "MeleeAttack",
        "enableSkillPrepare": true,
        "castCondition": {
          "pose": [521],
          "pickRangeMax": 2.0,
          "pickRangeYMax": 0.5,
          "pickRangeYMin": -2.0
        },
        "cd": 2.0,
        "publicCDGroup": "Fungus_MeleeAttack",
        "ignoreGCD": true,
        "triggerGCD": false,
        "HHAGODJIAPE": "",
        "stateIDs": [
          "MeleeAttack01_AS",
          "MeleeAttack01Decay_BS",
          "MeleeAttack02_AS",
          "MeleeAttack02Decay_BS"
        ],
        "flagTargetReachable": "11",
        "flagSelfOnTemplateCollider": "01",
        "flagSelfInZone": "11",
        "flagTargetInZone": "11"
      },
      "302": {
        "name": "ClimbUp",
        "castCondition": {
          "pose": [501],
          "needReInitCD": true,
          "pickRangeMin": 6.0,
          "pickRangeMax": 16.0,
          "pickRangeYMax": 1.0,
          "pickRangeYMin": -1.0
        },
        "cd": 10.0,
        "cdUpperRange": 10.0,
        "initialCD": 10.0,
        "publicCDGroup": "",
        "triggerGCD": false,
        "HHAGODJIAPE": "",
        "stateIDs": ["ClimbUp"],
        "flagTargetReachable": "10",
        "flagSelfOnTemplateCollider": "01",
        "flagSelfInZone": "10",
        "flagTargetInZone": "11"
      },
      "303": {
        "name": "ClimbUp_Overdose",
        "castCondition": {
          "pose": [511],
          "needReInitCD": true,
          "pickRangeMin": 6.0,
          "pickRangeMax": 16.0,
          "pickRangeYMax": 1.0,
          "pickRangeYMin": -1.0
        },
        "cd": 8.0,
        "cdUpperRange": 10.0,
        "publicCDGroup": "",
        "triggerGCD": false,
        "HHAGODJIAPE": "",
        "stateIDs": ["ClimbUp"],
        "flagTargetReachable": "10",
        "flagSelfOnTemplateCollider": "01",
        "flagSelfInZone": "10",
        "flagTargetInZone": "11"
      },
      "304": {
        "name": "ClimbUp_Decay",
        "castCondition": {
          "pose": [521],
          "needReInitCD": true,
          "pickRangeMin": 6.0,
          "pickRangeMax": 16.0,
          "pickRangeYMax": 1.0,
          "pickRangeYMin": -1.0
        },
        "cd": 8.0,
        "cdUpperRange": 10.0,
        "initialCD": 8.0,
        "initialCDUpperRange": 10.0,
        "publicCDGroup": "",
        "triggerGCD": false,
        "HHAGODJIAPE": "",
        "stateIDs": ["ClimbUp"],
        "flagTargetReachable": "10",
        "flagSelfOnTemplateCollider": "01",
        "flagSelfInZone": "10",
        "flagTargetInZone": "11"
      },
      "309": {
        "name": "Grounded_AS",
        "castCondition": {
          "pose": [301, 311, 321],
          "needReInitCD": true
        },
        "initialCD": 3.0,
        "publicCDGroup": "",
        "HHAGODJIAPE": "",
        "stateIDs": ["Grounded_AS"],
        "flagTargetReachable": "10",
        "flagSelfOnTemplateCollider": "01",
        "flagSelfInZone": "10",
        "flagTargetInZone": "11"
      },
      "501": {
        "name": "ChargeNormal",
        "castCondition": {
          "pose": [501],
          "needReInitCD": true,
          "pickRangeMax": 8.0,
          "pickRangeYMax": 0.5,
          "pickRangeYMin": -0.5,
          "castRangeType": "RangeXZ_Y",
          "castRangeXZY": {
            "castRangeXZMax": 8.0,
            "castRangeYMin": -0.5,
            "castRangeYMax": 0.800000011920929
          }
        },
        "cd": 5.0,
        "cdUpperRange": 5.0,
        "initialCD": 1.0,
        "initialCDUpperRange": 2.5,
        "publicCDGroup": "Fungus_MeleeAttack",
        "HHAGODJIAPE": "",
        "stateIDs": ["Charge", "ChargeNormal_BS", "Charge_Loop", "Charge_AS"],
        "flagTargetReachable": "11",
        "flagSelfOnTemplateCollider": "01",
        "flagSelfInZone": "11",
        "flagTargetInZone": "11"
      },
      "511": {
        "name": "ChargeOverdose",
        "castCondition": {
          "pose": [511],
          "needReInitCD": true,
          "pickRangeMax": 8.0,
          "pickRangeYMax": 0.5,
          "pickRangeYMin": -0.5,
          "castRangeType": "RangeXZ_Y",
          "castRangeXZY": {
            "castRangeXZMax": 8.0,
            "castRangeYMin": -0.5,
            "castRangeYMax": 0.800000011920929
          }
        },
        "cd": 3.0,
        "cdUpperRange": 3.0,
        "initialCD": 0.5,
        "initialCDUpperRange": 1.5,
        "publicCDGroup": "Fungus_MeleeAttack",
        "HHAGODJIAPE": "",
        "stateIDs": ["Charge", "ChargeOverdose_BS", "Charge_Loop", "Charge_AS"],
        "flagTargetReachable": "11",
        "flagSelfOnTemplateCollider": "01",
        "flagSelfInZone": "11",
        "flagTargetInZone": "11"
      },
      "521": {
        "name": "ChargeDecay",
        "castCondition": {
          "pose": [521],
          "needReInitCD": true,
          "pickRangeMin": 2.0,
          "pickRangeMax": 16.0,
          "pickRangeYMax": 0.5,
          "pickRangeYMin": -0.800000011920929,
          "castRangeType": "RangeXZ_Y",
          "castRangeXZY": {
            "castRangeXZMax": 8.0,
            "castRangeYMin": -0.5,
            "castRangeYMax": 0.800000011920929
          }
        },
        "cd": 4.0,
        "cdUpperRange": 4.0,
        "initialCD": 3.0,
        "initialCDUpperRange": 3.0,
        "publicCDGroup": "Fungus_MeleeAttack",
        "HHAGODJIAPE": "",
        "stateIDs": [
          "Charge",
          "ChargeDecay_BS",
          "ChargeDecay_Loop",
          "Charge_AS"
        ],
        "flagTargetReachable": "11",
        "flagSelfOnTemplateCollider": "01",
        "flagSelfInZone": "11",
        "flagTargetInZone": "11"
      },
      "502": {
        "name": "DiveAttackNormal",
        "priority": 1,
        "castCondition": {
          "pose": [502],
          "needReInitCD": true,
          "pickRangeMax": 16.0,
          "pickRangeYMax": 9.0,
          "pickRangeYMin": 1.0,
          "pickRangeByRaycast": [
            {
              "max": 9.0
            }
          ],
          "castRangeType": "RangeXZ_Y",
          "castRangeXZY": {
            "castRangeXZMax": 16.0,
            "castRangeYMax": 8.0
          }
        },
        "cd": 1.0,
        "cdUpperRange": 2.0,
        "initialCDUpperRange": 2.0,
        "publicCDGroup": "",
        "ignoreGCD": true,
        "HHAGODJIAPE": "",
        "stateIDs": ["DiveAttack", "DiveAttackNormal_BS"],
        "flagTargetReachable": "11",
        "flagSelfOnTemplateCollider": "01",
        "flagSelfInZone": "11",
        "flagTargetInZone": "11"
      },
      "512": {
        "name": "DiveAttackOverdose",
        "priority": 1,
        "castCondition": {
          "pose": [512],
          "needReInitCD": true,
          "pickRangeMax": 16.0,
          "pickRangeYMax": 9.0,
          "pickRangeYMin": 1.0,
          "pickRangeByRaycast": [
            {
              "max": 9.0
            }
          ],
          "castRangeType": "RangeXZ_Y",
          "castRangeXZY": {
            "castRangeXZMax": 16.0,
            "castRangeYMax": 8.0
          }
        },
        "cd": 1.0,
        "cdUpperRange": 2.0,
        "initialCDUpperRange": 1.5,
        "publicCDGroup": "",
        "ignoreGCD": true,
        "HHAGODJIAPE": "",
        "stateIDs": ["DiveAttack", "DiveAttackOverdose_BS"],
        "flagTargetReachable": "11",
        "flagSelfOnTemplateCollider": "01",
        "flagSelfInZone": "11",
        "flagTargetInZone": "11"
      },
      "522": {
        "name": "DiveAttackDecay",
        "priority": 1,
        "castCondition": {
          "pose": [522],
          "needReInitCD": true
        },
        "publicCDGroup": "",
        "ignoreGCD": true,
        "HHAGODJIAPE": "",
        "stateIDs": ["DiveAttack", "DiveAttackDecay_BS"],
        "flagTargetReachable": "11",
        "flagSelfOnTemplateCollider": "01",
        "flagSelfInZone": "11",
        "flagTargetInZone": "11"
      },
      "509": {
        "name": "Taunt01",
        "castCondition": {
          "pose": [501, 511, 502, 512],
          "needReInitCD": true,
          "pickRangeMin": 3.0,
          "pickRangeMax": 15.0,
          "pickRangeYMax": 2.0,
          "pickRangeByRaycast": [
            {
              "max": 5.0
            }
          ]
        },
        "cd": 8.0,
        "cdUpperRange": 24.0,
        "initialCD": 5.5,
        "initialCDUpperRange": 12.0,
        "publicCDGroup": "",
        "triggerGCD": false,
        "HHAGODJIAPE": "",
        "stateIDs": ["Taunt"],
        "flagTargetReachable": "11",
        "flagSelfOnTemplateCollider": "01",
        "flagSelfInZone": "11",
        "flagTargetInZone": "11"
      }
    },
    "skillGCD": 3.5,
    "birdCirclingTactic": [
      {
        "$type": "NNJKLGNPMNN",
        "enable": true,
        "JMCOBEPDIGM": {
          "ACOBCFCMBOC": "Spacial",
          "MNPDDAKDHGK": "",
          "GJDMDHIBCME": ""
        }
      },
      {
        "$type": "DGNJLJKOKEE",
        "enable": true,
        "condition": {
          "pose": [501, 502, 511, 512, 521, 522]
        },
        "JMCOBEPDIGM": {
          "HJODGEKLAAK": -0.5,
          "CFBKFJKHEEH": 0.25,
          "MNPDDAKDHGK": ""
        },
        "PIOCBHLFLJP": {
          "502": {
            "HJODGEKLAAK": 3.5,
            "MNPDDAKDHGK": ""
          },
          "512": {
            "HJODGEKLAAK": 3.5,
            "MNPDDAKDHGK": ""
          }
        }
      },
      {
        "$type": "EPPOBBAEPED",
        "enable": true,
        "condition": {
          "pose": [501, 502, 511, 512, 521, 522]
        },
        "JMCOBEPDIGM": {
          "ANLAAGAMIKF": 2,
          "FAKGFIDPCFL": 5.0,
          "GHCEDMEHKLN": 2.0,
          "ONFAMCFCNFM": 0.0,
          "KLODEFMNFIC": 1.0,
          "MNPDDAKDHGK": "",
          "GJDMDHIBCME": ""
        }
      },
      {
        "$type": "MNBBAPLOENP",
        "enable": true,
        "condition": {
          "pose": [501, 502, 511, 512, 521, 522]
        },
        "JMCOBEPDIGM": {
          "GOMIFCDDDLF": 1.0,
          "JCPAFNBJDEN": 10.0,
          "JOJBOHEDBHC": 0.0,
          "AFILKAGDAHN": 1.0,
          "ALIBHHJHHMN": 3.0,
          "OPCEPFAIGAP": 0.5,
          "OMHBOLPFEPM": 1.5,
          "BJIEHJIOICI": 3.0,
          "FPNBEHAAJOL": {
            "LLICGJHIGME": 0.0,
            "IDEFILBHNAP": 0.5,
            "FKIEIIJAPEH": 0.10000000149011612,
            "GNJEAKAKLHD": 0.20000000298023224,
            "DDIPMLEHIJP": 0.6000000238418579,
            "PIJHGEOHOOO": 0.0,
            "OCMLCHDANPJ": 0.699999988079071
          },
          "LKHCLICAJML": 0.5,
          "EADBCMAAPLD": true,
          "MNPDDAKDHGK": "",
          "GJDMDHIBCME": ""
        },
        "PIOCBHLFLJP": {
          "502": {
            "GOMIFCDDDLF": 4.0,
            "JCPAFNBJDEN": 8.0,
            "JOJBOHEDBHC": 2.0,
            "AFILKAGDAHN": 6.0,
            "ALIBHHJHHMN": 4.0,
            "OPCEPFAIGAP": 0.5,
            "OMHBOLPFEPM": 1.5,
            "BJIEHJIOICI": 3.0,
            "FPNBEHAAJOL": {
              "LLICGJHIGME": 0.0,
              "IDEFILBHNAP": 0.5,
              "FKIEIIJAPEH": 1.0,
              "OJLPFPNFMDJ": 1.5,
              "JFBDDDBIHDE": 4.0,
              "EHLPOCLAEFO": 1.5,
              "APHHENPJNLO": 4.0,
              "AKMJKEIJEHM": 2.5,
              "PELOBMPBAJF": 8.0,
              "BLOIJOGPILM": 2.5,
              "GNFCHLHAPNI": 8.0,
              "GNJEAKAKLHD": 0.5,
              "EHAGCHIFFHA": 1.0,
              "DDIPMLEHIJP": 4.5,
              "PIJHGEOHOOO": 4.0,
              "OCMLCHDANPJ": 8.0
            },
            "LKHCLICAJML": 0.5,
            "EADBCMAAPLD": true,
            "MNPDDAKDHGK": "",
            "GJDMDHIBCME": ""
          },
          "512": {
            "GOMIFCDDDLF": 4.0,
            "JCPAFNBJDEN": 8.0,
            "JOJBOHEDBHC": 2.0,
            "AFILKAGDAHN": 6.0,
            "ALIBHHJHHMN": 4.0,
            "OPCEPFAIGAP": 0.5,
            "OMHBOLPFEPM": 1.5,
            "BJIEHJIOICI": 3.0,
            "FPNBEHAAJOL": {
              "LLICGJHIGME": 0.0,
              "IDEFILBHNAP": 0.5,
              "FKIEIIJAPEH": 1.0,
              "OJLPFPNFMDJ": 1.5,
              "JFBDDDBIHDE": 4.0,
              "EHLPOCLAEFO": 1.5,
              "APHHENPJNLO": 4.0,
              "AKMJKEIJEHM": 2.5,
              "PELOBMPBAJF": 8.0,
              "BLOIJOGPILM": 2.5,
              "GNFCHLHAPNI": 8.0,
              "GNJEAKAKLHD": 0.5,
              "EHAGCHIFFHA": 1.0,
              "DDIPMLEHIJP": 4.5,
              "PIJHGEOHOOO": 0.5,
              "OCMLCHDANPJ": 8.0
            },
            "LKHCLICAJML": 0.5,
            "EADBCMAAPLD": true,
            "MNPDDAKDHGK": "",
            "GJDMDHIBCME": ""
          },
          "521": {
            "GOMIFCDDDLF": 0.0,
            "JCPAFNBJDEN": 4.0,
            "JOJBOHEDBHC": 2.0,
            "AFILKAGDAHN": 6.0,
            "ALIBHHJHHMN": 4.0,
            "OPCEPFAIGAP": 0.5,
            "OMHBOLPFEPM": 1.5,
            "BJIEHJIOICI": 3.0,
            "FPNBEHAAJOL": {
              "LLICGJHIGME": 0.0,
              "IDEFILBHNAP": 0.5,
              "FKIEIIJAPEH": 0.0,
              "OJLPFPNFMDJ": 1.5,
              "JFBDDDBIHDE": 4.0,
              "EHLPOCLAEFO": 1.5,
              "APHHENPJNLO": 4.0,
              "AKMJKEIJEHM": 2.5,
              "PELOBMPBAJF": 8.0,
              "BLOIJOGPILM": 2.5,
              "GNFCHLHAPNI": 8.0,
              "DFHLPPNLGIE": 0.0,
              "CLDDLKFCODO": 0.0,
              "GNJEAKAKLHD": 0.0,
              "EHAGCHIFFHA": 0.0,
              "DDIPMLEHIJP": 0.0,
              "PIJHGEOHOOO": -0.5,
              "OCMLCHDANPJ": 0.25
            },
            "LKHCLICAJML": 0.5,
            "EADBCMAAPLD": true,
            "MNPDDAKDHGK": "",
            "GJDMDHIBCME": ""
          },
          "522": {
            "GOMIFCDDDLF": 0.0,
            "JCPAFNBJDEN": 4.0,
            "JOJBOHEDBHC": 2.0,
            "AFILKAGDAHN": 6.0,
            "ALIBHHJHHMN": 4.0,
            "OPCEPFAIGAP": 0.5,
            "OMHBOLPFEPM": 1.5,
            "BJIEHJIOICI": 3.0,
            "FPNBEHAAJOL": {
              "LLICGJHIGME": 0.0,
              "IDEFILBHNAP": 0.5,
              "FKIEIIJAPEH": 0.0,
              "OJLPFPNFMDJ": 1.5,
              "JFBDDDBIHDE": 4.0,
              "EHLPOCLAEFO": 1.5,
              "APHHENPJNLO": 4.0,
              "AKMJKEIJEHM": 2.5,
              "PELOBMPBAJF": 8.0,
              "BLOIJOGPILM": 2.5,
              "GNFCHLHAPNI": 8.0,
              "DFHLPPNLGIE": 0.0,
              "CLDDLKFCODO": 0.0,
              "GNJEAKAKLHD": 0.0,
              "EHAGCHIFFHA": 0.0,
              "DDIPMLEHIJP": 1.5,
              "PIJHGEOHOOO": 0.5,
              "OCMLCHDANPJ": 8.0
            },
            "LKHCLICAJML": 0.5,
            "EADBCMAAPLD": true,
            "MNPDDAKDHGK": "",
            "GJDMDHIBCME": ""
          }
        }
      }
    ]
  },
  "inputKeys": [
    {
      "keyID": 301,
      "inputKeyCode": 257,
      "abilityName": ""
    },
    {
      "keyID": 501,
      "inputKeyCode": 258,
      "abilityName": ""
    },
    {
      "keyID": 502,
      "inputKeyCode": 259,
      "abilityName": ""
    },
    {
      "keyID": 102,
      "inputKeyCode": 260,
      "abilityName": ""
    },
    {
      "keyID": 103,
      "inputKeyCode": 261,
      "abilityName": ""
    },
    {
      "keyID": 512,
      "inputKeyCode": 262,
      "abilityName": ""
    },
    {
      "keyID": 321,
      "inputKeyCode": 263,
      "abilityName": ""
    },
    {
      "keyID": 521,
      "inputKeyCode": 264,
      "abilityName": ""
    },
    {
      "keyID": 522,
      "inputKeyCode": 265,
      "abilityName": ""
    },
    {
      "keyID": 9997,
      "inputKeyCode": 266,
      "abilityName": ""
    },
    {
      "keyID": 9998,
      "inputKeyCode": 267,
      "abilityName": ""
    },
    {
      "keyID": 9999,
      "inputKeyCode": 268,
      "abilityName": ""
    },
    {
      "keyID": 904,
      "inputKeyCode": 269,
      "abilityName": ""
    },
    {
      "keyID": 905,
      "inputKeyCode": 270,
      "abilityName": ""
    },
    {
      "keyID": 906,
      "inputKeyCode": 271,
      "abilityName": ""
    },
    {
      "keyID": 907,
      "inputKeyCode": 272,
      "abilityName": ""
    },
    {
      "keyID": 302,
      "inputKeyCode": 273,
      "abilityName": ""
    },
    {
      "keyID": 104,
      "inputKeyCode": 274,
      "abilityName": ""
    }
  ],
  "move": {
    "$type": "IPNMJMHDMPF",
    "raycasts": [
      {
        "raycastLength": 9.0,
        "raycastType": "DownToGroundAndWaterOnlyInAir",
        "startPoint": "RaycastBottom"
      }
    ],
    "facingMove": "ForwardBackward",
    "airFacingMove": "AirBlend3D",
    "monsterSizeType": "SlimeType",
    "launchStates": ["Launch_Loop"],
    "landStates": ["Drop_Loop"],
    "positionModifyExtra": true,
    "PKHOMJHFAEE": "RootNode"
  },
  "audio": {
    "overrideEmitterName": "",
    "animAudio": {
      "onTransitionIn": [
        {
          "currentStateName": "ChargeNormal_Loop",
          "audioEvent": {
            "text": "Play_sfx_monster_Fungus_Amanita_Unu_Svarita_Ice_charge_Loop"
          },
          "otherStateNames": ["ChargeNormal_Loop"],
          "usage": "Except"
        },
        {
          "currentStateName": "ChargeOverdose01_Loop",
          "audioEvent": {
            "text": "Play_sfx_monster_Fungus_Amanita_Unu_Svarita_Ice_charge_Loop"
          },
          "otherStateNames": ["ChargeOverdose01_Loop"],
          "usage": "Except"
        },
        {
          "currentStateName": "ChargeOverdose02_Loop",
          "audioEvent": {
            "text": "Play_sfx_monster_Fungus_Amanita_Unu_Svarita_Ice_charge_Loop"
          },
          "otherStateNames": ["ChargeOverdose02_Loop"],
          "usage": "Except"
        },
        {
          "currentStateName": "ChargeOverdose03_Loop",
          "audioEvent": {
            "text": "Play_sfx_monster_Fungus_Amanita_Unu_Svarita_Ice_charge_Loop"
          },
          "otherStateNames": ["ChargeOverdose03_Loop"],
          "usage": "Except"
        },
        {
          "currentStateName": "ChargeDecay_Loop",
          "audioEvent": {
            "text": "Play_sfx_monster_Fungus_Amanita_Unu_Svarita_Ice_chargeDecay_Loop"
          },
          "otherStateNames": ["ChargeDecay_Loop"],
          "usage": "Except"
        },
        {
          "currentStateName": "DiveAttackNormal_Loop",
          "audioEvent": {
            "text": "Play_sfx_monster_Fungus_Amanita_Unu_Svarita_Ice_diveAttack_Loop"
          },
          "otherStateNames": ["DiveAttackNormal_Loop"],
          "usage": "Except"
        },
        {
          "currentStateName": "DiveAttackDecay_Loop",
          "audioEvent": {
            "text": "Play_sfx_monster_Fungus_Amanita_Unu_Svarita_Ice_diveAttackDecay_Loop"
          },
          "otherStateNames": ["DiveAttackDecay_Loop"],
          "usage": "Except"
        },
        {
          "currentStateName": "DiveAttackOverdose_Loop",
          "audioEvent": {
            "text": "Play_sfx_monster_Fungus_Amanita_Unu_Svarita_Ice_diveAttack_Loop"
          },
          "otherStateNames": ["DiveAttackOverdose_Loop"],
          "usage": "Except"
        }
      ],
      "onTransitionOut": [
        {
          "currentStateName": "Absorb",
          "audioEvent": {
            "text": "Stop_sfx_monster_Fungus_Amanita_Unu_absorb"
          }
        },
        {
          "currentStateName": "Tease",
          "audioEvent": {
            "text": "Stop_sfx_monster_Fungus_Amanita_Unu_tease"
          }
        },
        {
          "currentStateName": "ChargeNormal_Loop",
          "audioEvent": {
            "text": "Stop_sfx_monster_Fungus_Amanita_Unu_Svarita_Ice_charge_Loop"
          },
          "otherStateNames": ["ChargeNormal_Loop"],
          "usage": "Except"
        },
        {
          "currentStateName": "ChargeOverdose01_Loop",
          "audioEvent": {
            "text": "Stop_sfx_monster_Fungus_Amanita_Unu_Svarita_Ice_charge_Loop"
          },
          "otherStateNames": ["ChargeOverdose01_Loop"],
          "usage": "Except"
        },
        {
          "currentStateName": "ChargeOverdose02_Loop",
          "audioEvent": {
            "text": "Stop_sfx_monster_Fungus_Amanita_Unu_Svarita_Ice_charge_Loop"
          },
          "otherStateNames": ["ChargeOverdose02_Loop"],
          "usage": "Except"
        },
        {
          "currentStateName": "ChargeOverdose03_Loop",
          "audioEvent": {
            "text": "Stop_sfx_monster_Fungus_Amanita_Unu_Svarita_Ice_charge_Loop"
          },
          "otherStateNames": ["ChargeOverdose03_Loop"],
          "usage": "Except"
        },
        {
          "currentStateName": "ChargeDecay_Loop",
          "audioEvent": {
            "text": "Stop_sfx_monster_Fungus_Amanita_Unu_Svarita_Ice_chargeDecay_Loop"
          },
          "otherStateNames": ["ChargeDecay_Loop"],
          "usage": "Except"
        },
        {
          "currentStateName": "DiveAttackNormal_Loop",
          "audioEvent": {
            "text": "Stop_sfx_monster_Fungus_Amanita_Unu_Svarita_Ice_diveAttack_Loop"
          },
          "otherStateNames": ["DiveAttackNormal_Loop"],
          "usage": "Except"
        },
        {
          "currentStateName": "DiveAttackOverdose_Loop",
          "audioEvent": {
            "text": "Stop_sfx_monster_Fungus_Amanita_Unu_Svarita_Ice_diveAttack_Loop"
          },
          "otherStateNames": ["DiveAttackOverdose_Loop"],
          "usage": "Except"
        },
        {
          "currentStateName": "DiveAttackDecay_Loop",
          "audioEvent": {
            "text": "Stop_sfx_monster_Fungus_Amanita_Unu_Svarita_Ice_diveAttackDecay_Loop"
          },
          "otherStateNames": ["DiveAttackDecay_Loop"],
          "usage": "Except"
        }
      ]
    }
  }
}
