{
  "common": {
    "effectAttachShape": {
      "$type": "FJNPJANPGGC",
      "mesh": "EffectMesh"
    },
    "mass": 999999.0,
    "height": 1.2000000476837158,
    "viewSize": 1.600000023841858,
    "affectedByWorld": true,
    "checkInSurface": true,
    "shouldPauseAnimatorBeforeReady": true,
    "canTriggerElementReactionText": false,
    "useGrassDisplacement": true,
    "reconnectSupport": true,
    "recoverByInitPose": true
  },
  "headControl": {
    "$type": "KPIPDEBDPIH",
    "useHeadControl": true,
    "animStates": [
      "StandbyOnGround/StandbyOnGround",
      "Sit/Sit",
      "StandInWater/StandInWater",
      "NormalMove/Walk"
    ]
  },
  "model": {
    "bornEffect": "",
    "attachEffect": "",
    "BKPFGNPLDNJ": ""
  },
  "dither": {
    "showDitherDuration": 1.0
  },
  "combat": {
    "property": {
      "endureType": "Monster_Minion",
      "weight": 80.0
    },
    "beHit": {
      "hitBloodEffect": "",
      "muteAllHitText": true
    },
    "combatLock": {
      "lockShape": "CircleLockEnemy",
      "lockType": "Animal_Lv2"
    },
    "die": {
      "dieEndTime": 2.0,
      "dieForceDisappearTime": 10.0,
      "dieDisappearEffect": ""
    }
  },
  "abilities": [
    {
      "abilityID": "CommonInitial",
      "abilityName": "Animal_Common_Initial",
      "abilityOverride": ""
    },
    {
      "abilityID": "",
      "abilityName": "Animal_Capybara_TitEffect",
      "abilityOverride": ""
    },
    {
      "abilityID": "",
      "abilityName": "Animal_Capybara_InWater",
      "abilityOverride": ""
    },
    {
      "abilityID": "",
      "abilityName": "Animal_Capybara_ToStandby",
      "abilityOverride": ""
    },
    {
      "abilityID": "",
      "abilityName": "Animal_Capybara_ToSit",
      "abilityOverride": ""
    },
    {
      "abilityID": "",
      "abilityName": "Animal_Capybara_ToLie",
      "abilityOverride": ""
    },
    {
      "abilityID": "",
      "abilityName": "Animal_Capybara_ToGround",
      "abilityOverride": ""
    },
    {
      "abilityID": "",
      "abilityName": "Animal_Capybara_ToWater",
      "abilityOverride": ""
    }
  ],
  "stateLayers": {
    "defaultLayer": {
      "$type": "GBGJJIIEMBD",
      "layerIndexName": "",
      "CPAANEIJCGD": "",
      "stateIDs": {
        "Born": {
          "$type": "NEDIFAKEGCO",
          "animatorStates": {
            "Born": []
          },
          "canDoSkill": true,
          "resetAnimatorTriggerOnExit": ["DoSkill"]
        },
        "StandbyOnGround": {
          "$type": "NEDIFAKEGCO",
          "animatorStates": {
            "StandbyOnGround": []
          },
          "canDoSkill": true,
          "canSyncMove": true,
          "resetAnimatorTriggerOnExit": ["DoSkill"]
        },
        "Sit": {
          "$type": "NEDIFAKEGCO",
          "animatorStates": {
            "Sit": []
          },
          "canDoSkill": true,
          "canSyncMove": true,
          "resetAnimatorTriggerOnExit": ["DoSkill"]
        },
        "Lie": {
          "$type": "NEDIFAKEGCO",
          "animatorStates": {
            "Lie": [],
            "Lie_Bird": ["Animal_Capybara_Lie"]
          },
          "canDoSkill": true,
          "canSyncMove": true,
          "resetAnimatorTriggerOnExit": ["DoSkill"]
        },
        "StandbyInWater": {
          "$type": "NEDIFAKEGCO",
          "animatorStates": {
            "StandbyInWater": ["Audio_Animal_Capybara_StandbyInWater"]
          },
          "canDoSkill": true,
          "canSyncMove": true,
          "resetAnimatorTriggerOnExit": ["DoSkill"]
        },
        "StandInWater": {
          "$type": "NEDIFAKEGCO",
          "animatorStates": {
            "StandInWater": ["Audio_Animal_Capybara_StandInWater"]
          },
          "canDoSkill": true,
          "canSyncMove": true,
          "resetAnimatorTriggerOnExit": ["DoSkill"]
        },
        "NormalMove": {
          "$type": "NEDIFAKEGCO",
          "animatorStates": {
            "Walk": ["Audio_Animal_Capybara_Run"]
          },
          "canDoSkill": true,
          "canSyncMove": true,
          "resetAnimatorTriggerOnExit": ["DoSkill"],
          "canSteer": true
        },
        "NormalMoveInWater": {
          "$type": "NEDIFAKEGCO",
          "animatorStates": {
            "Swim": ["Audio_Animal_Capybara_Swim"]
          },
          "canDoSkill": true,
          "canSyncMove": true,
          "resetAnimatorTriggerOnExit": ["DoSkill"],
          "canSteer": true
        },
        "BeHit": {
          "$type": "NEDIFAKEGCO",
          "animatorStates": {
            "Hit_L": ["Audio_Animal_Capybara_Hit_L"]
          },
          "resetAnimatorTriggerOnEnter": ["BeHit"],
          "resetAnimatorTriggerOnExit": ["DoSkill"]
        },
        "Die": {
          "$type": "NEDIFAKEGCO",
          "animatorStates": {
            "Die": ["Animal_Boar_Die", "Audio_Animal_Capybara_Hit_L"],
            "Die_Water": [
              "Animal_Capybara_Die_Water",
              "Audio_Animal_Capybara_StandbyInWater"
            ]
          },
          "resetAnimatorTriggerOnEnter": ["DoSkill"]
        },
        "StandbyToSit": {
          "$type": "NEDIFAKEGCO",
          "animatorStates": {
            "StandbyToSit": [
              "Animal_Capybara_ToSit",
              "Audio_Animal_Capybara_StandbyToSit"
            ]
          },
          "canDoSkill": true,
          "resetAnimatorTriggerOnExit": ["BeHit", "DoSkill"]
        },
        "SitToStandby": {
          "$type": "NEDIFAKEGCO",
          "animatorStates": {
            "SitToStandby": [
              "Animal_Capybara_ToStandby",
              "Audio_Animal_Capybara_SitToStandby"
            ]
          },
          "canDoSkill": true,
          "resetAnimatorTriggerOnExit": ["BeHit", "DoSkill"]
        },
        "StandbyToLie": {
          "$type": "NEDIFAKEGCO",
          "animatorStates": {
            "StandbyToLie": [
              "Animal_Capybara_ToLie",
              "Audio_Animal_Capybara_StandbyToLie"
            ]
          },
          "canDoSkill": true,
          "resetAnimatorTriggerOnExit": ["BeHit", "DoSkill"]
        },
        "LieToStandby": {
          "$type": "NEDIFAKEGCO",
          "animatorStates": {
            "LieToStandby_BS": [
              "Animal_Capybara_ToStandby",
              "Animal_Capybara_LieToStandby"
            ],
            "LieToStandby": ["Audio_Animal_Capybara_LieToStandby"]
          },
          "canDoSkill": true,
          "resetAnimatorTriggerOnExit": ["BeHit", "DoSkill"]
        },
        "SitToLie": {
          "$type": "NEDIFAKEGCO",
          "animatorStates": {
            "SitToLie": [
              "Animal_Capybara_ToLie",
              "Audio_Animal_Capybara_StandbyToLie"
            ]
          },
          "canDoSkill": true,
          "resetAnimatorTriggerOnExit": ["BeHit", "DoSkill"]
        },
        "LieToSit": {
          "$type": "NEDIFAKEGCO",
          "animatorStates": {
            "LieToSit_BS": [
              "Animal_Capybara_ToSit",
              "Animal_Capybara_LieToSit"
            ],
            "LieToSit": ["Audio_Animal_Capybara_StandbyToSit"]
          },
          "canDoSkill": true,
          "resetAnimatorTriggerOnExit": ["BeHit", "DoSkill"]
        },
        "GroundToWater": {
          "$type": "NEDIFAKEGCO",
          "animatorStates": {
            "GroundToWater_BS": [
              "Animal_Capybara_ToWater",
              "Audio_Animal_Capybara_Run"
            ],
            "GroundToWater_AS": ["Audio_Animal_Capybara_Swim"]
          },
          "canDoSkill": true,
          "resetAnimatorTriggerOnExit": ["BeHit", "DoSkill"]
        },
        "WaterToGround": {
          "$type": "NEDIFAKEGCO",
          "animatorStates": {
            "WaterToGround_BS": [
              "Animal_Capybara_ToGround",
              "Audio_Animal_Capybara_Swim"
            ],
            "WaterToGround_AS": ["Audio_Animal_Capybara_Run"]
          },
          "canDoSkill": true,
          "resetAnimatorTriggerOnExit": ["BeHit", "DoSkill"]
        },
        "Aware": {
          "$type": "NEDIFAKEGCO",
          "animatorStates": {
            "Aware": ["Audio_Animal_Capybara_Aware"]
          },
          "canDoSkill": true,
          "resetAnimatorTriggerOnExit": ["BeHit", "DoSkill"]
        },
        "Scratch": {
          "$type": "NEDIFAKEGCO",
          "animatorStates": {
            "Scratch": [
              "Animal_Capybara_Scratch",
              "Audio_Animal_Capybara_Scratch"
            ]
          },
          "canDoSkill": true,
          "resetAnimatorTriggerOnExit": ["BeHit", "DoSkill"]
        },
        "Dive": {
          "$type": "NEDIFAKEGCO",
          "animatorStates": {
            "Dive": ["Animal_Capybara_Dive", "Audio_Animal_Capybara_Dive"]
          },
          "canDoSkill": true,
          "resetAnimatorTriggerOnExit": ["BeHit", "DoSkill"]
        },
        "Grab": {
          "$type": "NEDIFAKEGCO",
          "animatorStates": {
            "Grab": ["Animal_Capybara_Grab"]
          },
          "canDoSkill": true,
          "resetAnimatorTriggerOnExit": ["BeHit", "DoSkill"],
          "canSteer": true,
          "followAnimRotation": true
        }
      }
    }
  },
  "initialPoses": {
    "Default": {
      "initialPoseID": 1,
      "initialPoseParams": {
        "boolParams": {
          "SitOnly": "false",
          "LieOnly": "false",
          "StandbyInWaterOnly": "false",
          "StandInWaterOnly": "false",
          "OnGround": "true",
          "FollowPath_InitGround": "false",
          "FollowPath_InitWater": "false"
        }
      }
    },
    "SitOnly": {
      "initialPoseID": 9001,
      "initialPoseParams": {
        "boolParams": {
          "SitOnly": "true",
          "OnGround": "true"
        }
      }
    },
    "LieOnly": {
      "initialPoseID": 9002,
      "initialPoseParams": {
        "boolParams": {
          "LieOnly": "true",
          "OnGround": "true"
        }
      }
    },
    "SwimInWaterOnly": {
      "initialPoseID": 9003,
      "initialPoseParams": {
        "boolParams": {
          "StandbyInWaterOnly": "true",
          "OnGround": "false"
        }
      }
    },
    "StandInWaterOnly": {
      "initialPoseID": 9004,
      "initialPoseParams": {
        "boolParams": {
          "StandInWaterOnly": "true",
          "OnGround": "false"
        }
      }
    },
    "FollowPath_InitGround": {
      "initialPoseID": 9009,
      "initialPoseParams": {
        "boolParams": {
          "FollowPath_InitGround": "true",
          "OnGround": "true"
        }
      }
    },
    "FollowPath_InitWater": {
      "initialPoseID": 9010,
      "initialPoseParams": {
        "boolParams": {
          "FollowPath_InitWater": "true",
          "OnGround": "false"
        }
      }
    }
  },
  "aibeta": {
    "enable": true,
    "friendliness": 1,
    "decisionArchetype": "Animal",
    "moveSetting": {
      "moveCategory": "Amphibious",
      "useToTheMoon": true,
      "navMeshAgentName": "Undead01"
    },
    "sensing": {
      "settings": {
        "DefaultSetting": {
          "enableVision": false,
          "hearAttractionRange": 0.0,
          "feelRange": 0.0
        },
        "NeverCombat": {
          "enableVision": false,
          "hearAttractionRange": 0.0,
          "feelRange": 0.0
        }
      },
      "templates": {
        "DefaultTemplate": {
          "DefaultPoses": "DefaultSetting",
          "2": "NeverCombat",
          "3": "NeverCombat",
          "9001": "NeverCombat",
          "9002": "NeverCombat",
          "9003": "NeverCombat",
          "9004": "NeverCombat",
          "9006": "NeverCombat",
          "9009": "NeverCombat",
          "9010": "NeverCombat"
        },
        "LieOnlyTemplate": {
          "DefaultPoses": "DefaultSetting",
          "2": "NeverCombat",
          "3": "NeverCombat",
          "9001": "NeverCombat",
          "9002": "NeverCombat",
          "9003": "NeverCombat",
          "9004": "NeverCombat",
          "9006": "NeverCombat",
          "9009": "NeverCombat",
          "9010": "NeverCombat"
        },
        "NeverCombatTemplate": {
          "DefaultPoses": "NeverCombat"
        }
      }
    },
    "neurons": {
      "DefaultSetting": ["HIT", "WEATHER_BAD", "FEAR"],
      "NeverCombat": []
    },
    "threat": {
      "GHIJMOKOLMB": "",
      "viewThreatGrow": 5.0,
      "feelThreatGrow": 10.0,
      "threatDecreaseSpeed": 500.0,
      "viewAttenuation": [
        {
          "x": 3.0,
          "y": 2.0
        },
        {
          "x": 8.0,
          "y": 1.25
        },
        {
          "x": 12.0,
          "y": 0.5
        }
      ]
    },
    "defendArea": {
      "defendRange": 100.0
    },
    "poseControl": {},
    "ui": {
      "hasDirectionIndicator": false,
      "HMNNBFDEHLG": ""
    },
    "skillGroupCDConfigs": [
      {
        "skillGroupCDID": 0,
        "skillGroupCDTime": 22.5
      }
    ],
    "skills": {
      "101": {
        "name": "StandbyToSit",
        "skillType": "Free",
        "priority": 1,
        "canUseCombatSkillCondition": true,
        "castCondition": {
          "pose": [1],
          "needReInitCD": true
        },
        "cd": 17.5,
        "cdUpperRange": 7.5,
        "initialCD": 10.0,
        "initialCDUpperRange": 10.5,
        "publicCDGroup": "",
        "HHAGODJIAPE": "",
        "stateIDs": ["StandbyToSit"],
        "flagTargetReachable": "11",
        "flagSelfOnTemplateCollider": "01",
        "flagSelfInZone": "10",
        "flagTargetInZone": "11"
      },
      "102": {
        "name": "StandbyToSit",
        "priority": 1,
        "canUseCombatSkillCondition": true,
        "castCondition": {
          "pose": [1],
          "needReInitCD": true
        },
        "cd": 17.5,
        "cdUpperRange": 7.5,
        "initialCD": 10.0,
        "initialCDUpperRange": 10.5,
        "publicCDGroup": "",
        "HHAGODJIAPE": "",
        "stateIDs": ["StandbyToSit"],
        "flagTargetReachable": "11",
        "flagSelfOnTemplateCollider": "01",
        "flagSelfInZone": "10",
        "flagTargetInZone": "11"
      },
      "111": {
        "name": "SitToStandby",
        "skillType": "Free",
        "priority": 1,
        "canUseCombatSkillCondition": true,
        "castCondition": {
          "pose": [2],
          "needReInitCD": true
        },
        "cd": 17.5,
        "cdUpperRange": 7.5,
        "initialCD": 15.0,
        "initialCDUpperRange": 10.5,
        "publicCDGroup": "",
        "HHAGODJIAPE": "",
        "stateIDs": ["SitToStandby"],
        "flagTargetReachable": "11",
        "flagSelfOnTemplateCollider": "01",
        "flagSelfInZone": "10",
        "flagTargetInZone": "11"
      },
      "112": {
        "name": "SitToStandby",
        "priority": 1,
        "canUseCombatSkillCondition": true,
        "castCondition": {
          "pose": [2],
          "needReInitCD": true
        },
        "cd": 17.5,
        "cdUpperRange": 7.5,
        "initialCD": 15.0,
        "initialCDUpperRange": 10.5,
        "publicCDGroup": "",
        "HHAGODJIAPE": "",
        "stateIDs": ["SitToStandby"],
        "flagTargetReachable": "11",
        "flagSelfOnTemplateCollider": "01",
        "flagSelfInZone": "10",
        "flagTargetInZone": "11"
      },
      "121": {
        "name": "StandbyToLie",
        "skillType": "Free",
        "priority": 1,
        "canUseCombatSkillCondition": true,
        "castCondition": {
          "pose": [1],
          "needReInitCD": true
        },
        "cd": 17.5,
        "cdUpperRange": 7.5,
        "initialCD": 10.0,
        "initialCDUpperRange": 10.5,
        "publicCDGroup": "",
        "HHAGODJIAPE": "",
        "stateIDs": ["StandbyToLie"],
        "flagTargetReachable": "11",
        "flagSelfOnTemplateCollider": "01",
        "flagSelfInZone": "10",
        "flagTargetInZone": "11"
      },
      "122": {
        "name": "StandbyToLie",
        "priority": 1,
        "canUseCombatSkillCondition": true,
        "castCondition": {
          "pose": [1],
          "needReInitCD": true
        },
        "cd": 17.5,
        "cdUpperRange": 7.5,
        "initialCD": 10.0,
        "initialCDUpperRange": 10.5,
        "publicCDGroup": "",
        "HHAGODJIAPE": "",
        "stateIDs": ["StandbyToLie"],
        "flagTargetReachable": "11",
        "flagSelfOnTemplateCollider": "01",
        "flagSelfInZone": "10",
        "flagTargetInZone": "11"
      },
      "131": {
        "name": "LieToStandby",
        "skillType": "Free",
        "priority": 1,
        "canUseCombatSkillCondition": true,
        "castCondition": {
          "pose": [3],
          "needReInitCD": true
        },
        "cd": 17.5,
        "cdUpperRange": 7.5,
        "initialCD": 15.0,
        "initialCDUpperRange": 10.5,
        "publicCDGroup": "",
        "HHAGODJIAPE": "",
        "stateIDs": ["LieToStandby"],
        "flagTargetReachable": "11",
        "flagSelfOnTemplateCollider": "01",
        "flagSelfInZone": "10",
        "flagTargetInZone": "11"
      },
      "132": {
        "name": "LieToStandby",
        "priority": 1,
        "canUseCombatSkillCondition": true,
        "castCondition": {
          "pose": [3],
          "needReInitCD": true
        },
        "cd": 17.5,
        "cdUpperRange": 7.5,
        "initialCD": 15.0,
        "initialCDUpperRange": 10.5,
        "publicCDGroup": "",
        "HHAGODJIAPE": "",
        "stateIDs": ["LieToStandby"],
        "flagTargetReachable": "11",
        "flagSelfOnTemplateCollider": "01",
        "flagSelfInZone": "10",
        "flagTargetInZone": "11"
      },
      "141": {
        "name": "SitToLie",
        "skillType": "Free",
        "priority": 1,
        "canUseCombatSkillCondition": true,
        "castCondition": {
          "pose": [2, 9001],
          "needReInitCD": true
        },
        "cd": 17.5,
        "cdUpperRange": 7.5,
        "initialCD": 10.0,
        "initialCDUpperRange": 10.5,
        "publicCDGroup": "",
        "HHAGODJIAPE": "",
        "stateIDs": ["SitToLie"],
        "flagTargetReachable": "11",
        "flagSelfOnTemplateCollider": "01",
        "flagSelfInZone": "10",
        "flagTargetInZone": "11"
      },
      "142": {
        "name": "SitToLie",
        "priority": 1,
        "canUseCombatSkillCondition": true,
        "castCondition": {
          "pose": [2, 9001],
          "needReInitCD": true
        },
        "cd": 17.5,
        "cdUpperRange": 7.5,
        "initialCD": 10.0,
        "initialCDUpperRange": 10.5,
        "publicCDGroup": "",
        "HHAGODJIAPE": "",
        "stateIDs": ["SitToLie"],
        "flagTargetReachable": "11",
        "flagSelfOnTemplateCollider": "01",
        "flagSelfInZone": "10",
        "flagTargetInZone": "11"
      },
      "151": {
        "name": "LieToSit",
        "skillType": "Free",
        "priority": 1,
        "canUseCombatSkillCondition": true,
        "castCondition": {
          "pose": [3, 9006],
          "needReInitCD": true
        },
        "cd": 17.5,
        "cdUpperRange": 7.5,
        "initialCD": 15.0,
        "initialCDUpperRange": 10.5,
        "publicCDGroup": "",
        "HHAGODJIAPE": "",
        "stateIDs": ["LieToSit"],
        "flagTargetReachable": "11",
        "flagSelfOnTemplateCollider": "01",
        "flagSelfInZone": "10",
        "flagTargetInZone": "11"
      },
      "152": {
        "name": "LieToSit",
        "priority": 1,
        "canUseCombatSkillCondition": true,
        "castCondition": {
          "pose": [3, 9006],
          "needReInitCD": true
        },
        "cd": 17.5,
        "cdUpperRange": 7.5,
        "initialCD": 15.0,
        "initialCDUpperRange": 10.5,
        "publicCDGroup": "",
        "HHAGODJIAPE": "",
        "stateIDs": ["LieToSit"],
        "flagTargetReachable": "11",
        "flagSelfOnTemplateCollider": "01",
        "flagSelfInZone": "10",
        "flagTargetInZone": "11"
      },
      "161": {
        "name": "GroundToWater",
        "skillType": "Free",
        "priority": 1,
        "canUseCombatSkillCondition": true,
        "castCondition": {
          "pose": [9007],
          "needReInitCD": true
        },
        "cd": 1.0,
        "initialCD": 0.5,
        "publicCDGroup": "",
        "ignoreGCD": true,
        "triggerGCD": false,
        "HHAGODJIAPE": "",
        "stateIDs": ["GroundToWater"],
        "flagTargetReachable": "11",
        "flagSelfOnTemplateCollider": "01",
        "flagSelfInZone": "10",
        "flagTargetInZone": "11"
      },
      "162": {
        "name": "GroundToWater",
        "priority": 1,
        "canUseCombatSkillCondition": true,
        "castCondition": {
          "pose": [9007],
          "needReInitCD": true
        },
        "cd": 1.0,
        "initialCD": 0.5,
        "publicCDGroup": "",
        "ignoreGCD": true,
        "triggerGCD": false,
        "HHAGODJIAPE": "",
        "stateIDs": ["GroundToWater"],
        "flagTargetReachable": "11",
        "flagSelfOnTemplateCollider": "01",
        "flagSelfInZone": "10",
        "flagTargetInZone": "11"
      },
      "171": {
        "name": "WaterToGround",
        "skillType": "Free",
        "priority": 1,
        "canUseCombatSkillCondition": true,
        "castCondition": {
          "pose": [9008],
          "needReInitCD": true
        },
        "cd": 1.0,
        "initialCD": 0.5,
        "publicCDGroup": "",
        "ignoreGCD": true,
        "triggerGCD": false,
        "HHAGODJIAPE": "",
        "stateIDs": ["WaterToGround"],
        "flagTargetReachable": "11",
        "flagSelfOnTemplateCollider": "01",
        "flagSelfInZone": "10",
        "flagTargetInZone": "11"
      },
      "172": {
        "name": "WaterToGround",
        "priority": 1,
        "canUseCombatSkillCondition": true,
        "castCondition": {
          "pose": [9008],
          "needReInitCD": true
        },
        "cd": 1.0,
        "initialCD": 0.5,
        "publicCDGroup": "",
        "ignoreGCD": true,
        "triggerGCD": false,
        "HHAGODJIAPE": "",
        "stateIDs": ["WaterToGround"],
        "flagTargetReachable": "11",
        "flagSelfOnTemplateCollider": "01",
        "flagSelfInZone": "10",
        "flagTargetInZone": "11"
      },
      "201": {
        "name": "Aware",
        "skillType": "Free",
        "priority": 1,
        "canUseCombatSkillCondition": true,
        "castCondition": {
          "pose": [1],
          "needReInitCD": true
        },
        "cd": 8.5,
        "cdUpperRange": 7.5,
        "initialCD": 4.0,
        "initialCDUpperRange": 3.5,
        "publicCDGroup": "",
        "HHAGODJIAPE": "",
        "stateIDs": ["Aware"],
        "flagTargetReachable": "11",
        "flagSelfOnTemplateCollider": "01",
        "flagSelfInZone": "10",
        "flagTargetInZone": "11"
      },
      "202": {
        "name": "Aware",
        "priority": 1,
        "canUseCombatSkillCondition": true,
        "castCondition": {
          "pose": [1],
          "needReInitCD": true
        },
        "cd": 8.5,
        "cdUpperRange": 7.5,
        "initialCD": 4.0,
        "initialCDUpperRange": 3.5,
        "publicCDGroup": "",
        "HHAGODJIAPE": "",
        "stateIDs": ["Aware"],
        "flagTargetReachable": "11",
        "flagSelfOnTemplateCollider": "01",
        "flagSelfInZone": "10",
        "flagTargetInZone": "11"
      },
      "301": {
        "name": "Scratch",
        "skillType": "Free",
        "priority": 3,
        "canUseCombatSkillCondition": true,
        "castCondition": {
          "pose": [3],
          "needReInitCD": true
        },
        "cd": 25.5,
        "cdUpperRange": 7.5,
        "initialCD": 10.0,
        "initialCDUpperRange": 10.5,
        "publicCDGroup": "",
        "HHAGODJIAPE": "",
        "stateIDs": ["Scratch"],
        "flagTargetReachable": "11",
        "flagSelfOnTemplateCollider": "01",
        "flagSelfInZone": "10",
        "flagTargetInZone": "11"
      },
      "302": {
        "name": "Scratch",
        "priority": 3,
        "canUseCombatSkillCondition": true,
        "castCondition": {
          "pose": [3],
          "needReInitCD": true
        },
        "cd": 25.5,
        "cdUpperRange": 7.5,
        "initialCD": 10.0,
        "initialCDUpperRange": 10.5,
        "publicCDGroup": "",
        "HHAGODJIAPE": "",
        "stateIDs": ["Scratch"],
        "flagTargetReachable": "11",
        "flagSelfOnTemplateCollider": "01",
        "flagSelfInZone": "10",
        "flagTargetInZone": "11"
      },
      "311": {
        "name": "Scratch",
        "skillType": "Free",
        "priority": 3,
        "canUseCombatSkillCondition": true,
        "castCondition": {
          "pose": [9002],
          "needReInitCD": true
        },
        "cd": 25.5,
        "cdUpperRange": 7.5,
        "initialCD": 10.0,
        "initialCDUpperRange": 10.5,
        "publicCDGroup": "Animal_Capybara_Scratch",
        "HHAGODJIAPE": "",
        "stateIDs": ["Scratch"],
        "flagTargetReachable": "11",
        "flagSelfOnTemplateCollider": "01",
        "flagSelfInZone": "10",
        "flagTargetInZone": "11"
      },
      "312": {
        "name": "Scratch",
        "priority": 3,
        "canUseCombatSkillCondition": true,
        "castCondition": {
          "pose": [9002],
          "needReInitCD": true
        },
        "cd": 25.5,
        "cdUpperRange": 7.5,
        "initialCD": 10.0,
        "initialCDUpperRange": 10.5,
        "publicCDGroup": "Animal_Capybara_Scratch",
        "HHAGODJIAPE": "",
        "stateIDs": ["Scratch"],
        "flagTargetReachable": "11",
        "flagSelfOnTemplateCollider": "01",
        "flagSelfInZone": "10",
        "flagTargetInZone": "11"
      },
      "321": {
        "name": "Scratch",
        "skillType": "Free",
        "priority": 3,
        "canUseCombatSkillCondition": true,
        "castCondition": {
          "pose": [9006],
          "needReInitCD": true
        },
        "cd": 25.5,
        "cdUpperRange": 7.5,
        "initialCD": 6.0,
        "initialCDUpperRange": 5.5,
        "publicCDGroup": "Animal_Capybara_Scratch",
        "HHAGODJIAPE": "",
        "stateIDs": ["Scratch"],
        "flagTargetReachable": "11",
        "flagSelfOnTemplateCollider": "01",
        "flagSelfInZone": "10",
        "flagTargetInZone": "11"
      },
      "322": {
        "name": "Scratch",
        "priority": 3,
        "canUseCombatSkillCondition": true,
        "castCondition": {
          "pose": [9006],
          "needReInitCD": true
        },
        "cd": 25.5,
        "cdUpperRange": 7.5,
        "initialCD": 6.0,
        "initialCDUpperRange": 5.5,
        "publicCDGroup": "Animal_Capybara_Scratch",
        "HHAGODJIAPE": "",
        "stateIDs": ["Scratch"],
        "flagTargetReachable": "11",
        "flagSelfOnTemplateCollider": "01",
        "flagSelfInZone": "10",
        "flagTargetInZone": "11"
      },
      "401": {
        "name": "Dive",
        "skillType": "Free",
        "canUseCombatSkillCondition": true,
        "castCondition": {
          "pose": [9003],
          "needReInitCD": true
        },
        "cd": 17.5,
        "cdUpperRange": 7.5,
        "initialCD": 5.0,
        "initialCDUpperRange": 7.5,
        "publicCDGroup": "",
        "HHAGODJIAPE": "",
        "stateIDs": ["Dive"],
        "flagTargetReachable": "11",
        "flagSelfOnTemplateCollider": "01",
        "flagSelfInZone": "10",
        "flagTargetInZone": "11"
      },
      "402": {
        "name": "Dive",
        "canUseCombatSkillCondition": true,
        "castCondition": {
          "pose": [9003],
          "needReInitCD": true
        },
        "cd": 17.5,
        "cdUpperRange": 7.5,
        "initialCD": 5.0,
        "initialCDUpperRange": 7.5,
        "publicCDGroup": "",
        "HHAGODJIAPE": "",
        "stateIDs": ["Dive"],
        "flagTargetReachable": "11",
        "flagSelfOnTemplateCollider": "01",
        "flagSelfInZone": "10",
        "flagTargetInZone": "11"
      },
      "501": {
        "name": "Grab",
        "skillType": "AdvancedAlert",
        "castCondition": {
          "pose": [1, 2, 9001]
        },
        "publicCDGroup": "",
        "ignoreGCD": true,
        "triggerGCD": false,
        "HHAGODJIAPE": "",
        "stateIDs": ["Grab"],
        "skillQueryingTime": 3.0,
        "flagTargetReachable": "10",
        "flagSelfOnTemplateCollider": "01",
        "flagSelfInZone": "10",
        "flagTargetInZone": "11"
      }
    },
    "skillGCD": 5.0,
    "mixin": {},
    "birdCirclingTactic": [
      {
        "$type": "GPEMIAJPPJG",
        "enable": true,
        "condition": {
          "pose": [1, 9003, 9009, 9010]
        },
        "JMCOBEPDIGM": {
          "ANLAAGAMIKF": 1,
          "MNPDDAKDHGK": "",
          "GJDMDHIBCME": ""
        }
      },
      {
        "$type": "ODHNBPJLGHF",
        "enable": true,
        "condition": {
          "pose": [1]
        },
        "JMCOBEPDIGM": {
          "ANLAAGAMIKF": 1,
          "NBENNEKDIIA": 2.0,
          "cd": 1.0,
          "triggerDistance": 8.0,
          "KAIGBDPLNMO": 5.0,
          "BMIEPFCPFGN": 6.0,
          "MNPDDAKDHGK": ""
        }
      },
      {
        "$type": "NNJKLGNPMNN",
        "enable": true
      },
      {
        "$type": "MCDGOJLCMBM",
        "enable": true,
        "JMCOBEPDIGM": {
          "DMGAHPPFMPK": 0.6000000238418579,
          "FLENLLDBFGP": 1.0,
          "MNPDDAKDHGK": "",
          "GJDMDHIBCME": ""
        },
        "PIOCBHLFLJP": {
          "9003": {
            "DMGAHPPFMPK": 3.0,
            "FLENLLDBFGP": 3.0,
            "MNPDDAKDHGK": "",
            "GJDMDHIBCME": ""
          },
          "9010": {
            "DMGAHPPFMPK": 3.0,
            "FLENLLDBFGP": 3.0,
            "MNPDDAKDHGK": "",
            "GJDMDHIBCME": ""
          }
        }
      },
      {
        "$type": "FPELBIJFGCE",
        "enable": true,
        "condition": {
          "pose": [1, 9003]
        },
        "JMCOBEPDIGM": {
          "NBENNEKDIIA": 0.25,
          "KPNDPKIOPJM": 17.5,
          "PINAFKEDDLL": 12.5,
          "ANMPOPEBDIA": 10.0,
          "GMJFIMFFOEL": 3.0,
          "CHCPFDMADEI": 5.0,
          "MNPDDAKDHGK": ""
        }
      }
    ]
  },
  "inputKeys": [
    {
      "keyID": 1,
      "inputKeyCode": 257,
      "abilityName": ""
    },
    {
      "keyID": 101,
      "inputKeyCode": 258,
      "abilityName": ""
    },
    {
      "keyID": 111,
      "inputKeyCode": 259,
      "abilityName": ""
    },
    {
      "keyID": 201,
      "inputKeyCode": 260,
      "abilityName": ""
    },
    {
      "keyID": 211,
      "inputKeyCode": 261,
      "abilityName": ""
    },
    {
      "keyID": 301,
      "inputKeyCode": 262,
      "abilityName": ""
    },
    {
      "keyID": 401,
      "inputKeyCode": 263,
      "abilityName": ""
    },
    {
      "keyID": 501,
      "inputKeyCode": 264,
      "abilityName": ""
    }
  ],
  "move": {
    "$type": "IPNMJMHDMPF",
    "velocityForce": {
      "excludeForces": ["RetreatType", "RetreatAirType"]
    },
    "initWithGroundHitCheckV2": false,
    "moveOnWater": true,
    "moveOnWaterDepth": 1.2000000476837158,
    "raycasts": [
      {
        "raycastLength": 10.0,
        "raycastType": "DownToGroundOnlyInWater",
        "startPoint": ""
      }
    ],
    "deepWaterLevel": 1.0,
    "OGBEFBMLJJI": true,
    "monsterSizeType": "SlimeType",
    "yawSpeedRatio": 2.0,
    "PKHOMJHFAEE": "RootNode",
    "JNAPCJLHJDO": true
  },
  "animal": {
    "tickAbilityElement": false,
    "hasCharacterRenderering": false
  },
  "captureGroup": {
    "defaultConfig": {
      "captureEffect": "Eff_SceneObj_CatchAnimal_CaughtSuccess"
    }
  }
}
