{
  "common": {
    "effectAttachShape": {
      "$type": "FJNPJANPGGC",
      "mesh": "EffectMesh"
    },
    "mass": 20.0,
    "height": 0.800000011920929,
    "modelHeight": 0.4000000059604645,
    "affectedByWorld": true,
    "checkInSurface": true,
    "scale": 2.0,
    "useGrassDisplacement": true
  },
  "model": {
    "bornEffect": "",
    "attachEffect": "",
    "canBakeMesh": false,
    "BKPFGNPLDNJ": ""
  },
  "combat": {
    "property": {
      "endureType": "Monster_Slime",
      "weight": 60.0
    },
    "beHit": {
      "hitBloodEffect": ""
    },
    "combatLock": {
      "lockShape": "CircleLockEnemy",
      "lockType": "Avatar&Monster_Lv4"
    },
    "die": {
      "dieEndTime": 2.0,
      "dieForceDisappearTime": 8.0,
      "dieDisappearEffect": "",
      "muteHitBox": true,
      "dieDenyLockOn": true,
      "dieIsGhostToEnemy": true,
      "dieIgnoreTriggerBullet": true,
      "muteBillboard": true,
      "mutePushCollider": true
    },
    "animEvents": {
      "NormalAtk": {
        "attackPattern": {
          "$type": "ConfigAttackCircle",
          "triggerType": "TriggerNoRepeat",
          "born": {
            "$type": "ConfigBornBySelf",
            "offset": {
              "x": 0.0,
              "y": 0.5,
              "z": 0.5
            }
          },
          "fanAngle": 150.0,
          "radius": 0.75
        },
        "attackInfo": {
          "attackTag": "",
          "attenuationTag": "",
          "attenuationGroup": "default",
          "attackProperty": {
            "actorGrassSubHurtDelta": 1.0,
            "actorWindSubHurtDelta": 0.0,
            "elementType": "Electric",
            "elementDurability": 50.0,
            "strikeType": "Blunt",
            "enBreak": 60.0,
            "attackType": "Melee",
            "GLKMCMDJBIK": 0.0
          },
          "hitPattern": {
            "onHitEffectName": "default",
            "hitImpulseY": "",
            "hitImpulseType": "LV2"
          }
        }
      }
    }
  },
  "equipController": {
    "sheathPoint": "",
    "attachPoints": {
      "equip01": "WeaponR",
      "equip02": "WeaponL"
    }
  },
  "abilities": [
    {
      "abilityID": "ResistShock",
      "abilityName": "Slime_Electric_ResistShock",
      "abilityOverride": ""
    },
    {
      "abilityID": "ElementState",
      "abilityName": "Slime_Electric_02_ElementState",
      "abilityOverride": ""
    },
    {
      "abilityID": "AnimationSteer",
      "abilityName": "Slime_Electric_AnimationSteer",
      "abilityOverride": ""
    },
    {
      "abilityID": "TestTool_Discharge",
      "abilityName": "Slime_Electric_TestTool_Discharge",
      "abilityOverride": "",
      "lightWeightRemove": true
    },
    {
      "abilityID": "Monster_Slime_SpecialsState",
      "abilityName": "Monster_Slime_SpecialsState",
      "abilityOverride": "",
      "lightWeightRemove": true
    },
    {
      "abilityID": "Monster_Slime_Alert",
      "abilityName": "Monster_Slime_Alert",
      "abilityOverride": "",
      "lightWeightRemove": true
    },
    {
      "abilityID": "ElecMuteHurt",
      "abilityName": "Monster_Common_ElecMuteHurt",
      "abilityOverride": ""
    }
  ],
  "stateLayers": {
    "defaultLayer": {
      "$type": "GBGJJIIEMBD",
      "layerIndexName": "",
      "CPAANEIJCGD": "",
      "stateIDs": {
        "Born": {
          "$type": "NEDIFAKEGCO",
          "animatorStates": {
            "Born": ["Monster_Slime_Born_02", "Audio_Slime_02_Born_H"]
          },
          "canSyncMove": true,
          "resetAnimatorTriggerOnExit": ["DoSkill"]
        },
        "NormalIdle": {
          "$type": "NEDIFAKEGCO",
          "animatorStates": {
            "Standby": []
          },
          "canDoSkill": true,
          "canSyncMove": true,
          "resetAnimatorTriggerOnExit": ["DoSkill"]
        },
        "Turn": {
          "$type": "NEDIFAKEGCO",
          "animatorStates": {
            "Turn": ["Audio_Slime_02_Run_H"]
          },
          "canDoSkill": true,
          "canSyncMove": true,
          "resetAnimatorTriggerOnExit": ["DoSkill"],
          "canSteer": true,
          "autoSteer": true
        },
        "NormalMove": {
          "$type": "NEDIFAKEGCO",
          "animatorStates": {
            "Walk": ["Audio_Slime_02_Walk_H"],
            "Run": ["Audio_Slime_02_Run_H"]
          },
          "canDoSkill": true,
          "canSyncMove": true,
          "resetAnimatorTriggerOnExit": ["DoSkill"],
          "canSteer": true
        },
        "BeHit": {
          "$type": "NEDIFAKEGCO",
          "animatorStates": {
            "Hit_L": ["Monster_Slime_BeHit", "Audio_Slime_02_Hit_L"],
            "Hit_H": ["Monster_Slime_BeHit", "Audio_Slime_02_Hit_H"]
          },
          "resetAnimatorTriggerOnEnter": ["BeHit"],
          "resetAnimatorTriggerOnExit": ["DoSkill"]
        },
        "BeHitThrow": {
          "$type": "NEDIFAKEGCO",
          "animatorStates": {
            "HitThrow": ["Monster_Slime_BeHit", "Audio_Slime_02_HitThrow_H"],
            "HitThrowDrop": [],
            "HitThrowToGround": [
              "Monster_Slime_ThrowToGround_02",
              "Audio_Slime_02_HitThrowToGround_H"
            ]
          },
          "resetAnimatorTriggerOnEnter": ["BeHit", "HitAir2HitDrop"],
          "resetAnimatorTriggerOnExit": ["DoSkill"]
        },
        "Struggle": {
          "$type": "NEDIFAKEGCO",
          "animatorStates": {
            "Struggle": []
          },
          "resetAnimatorTriggerOnEnter": ["BeHit", "HitAir2HitDrop"],
          "resetAnimatorTriggerOnExit": ["DoSkill"]
        },
        "Die": {
          "$type": "NEDIFAKEGCO",
          "animatorStates": {
            "Die": [
              "Monster_Slime_Die",
              "Monster_Slime_Electric_02_Die",
              "Audio_Slime_Fire_02_Die"
            ],
            "SwimDie": ["Monster_Slime_Die", "Monster_Slime_Electric_02_Die"]
          }
        },
        "Warning": {
          "$type": "NEDIFAKEGCO",
          "animatorStates": {
            "Warning": ["Monster_Slime_Warning"]
          },
          "resetAnimatorTriggerOnExit": ["BeHit", "DoSkill"]
        },
        "Charge": {
          "$type": "NEDIFAKEGCO",
          "animatorStates": {
            "Charge": ["Monster_Slime_Electric_02_Charge"]
          },
          "resetAnimatorTriggerOnExit": ["BeHit", "DoSkill"]
        },
        "TestTool_Discharge": {
          "$type": "NEDIFAKEGCO",
          "animatorStates": {
            "TestTool_Discharge": ["Monster_Slime_Electric_TestTool_Discharge"]
          },
          "resetAnimatorTriggerOnExit": ["BeHit", "DoSkill"]
        },
        "NormalAttack": {
          "$type": "NEDIFAKEGCO",
          "animatorStates": {
            "NormalAttack": [
              "Monster_Slime_NormalAttack_02",
              "Monster_Slime_Electric_02_NormalAttack",
              "Audio_Slime_02_NormalAtk_H"
            ]
          },
          "resetAnimatorTriggerOnExit": ["BeHit", "DoSkill"],
          "enableCCD": true
        }
      }
    }
  },
  "face": {
    "characterName": "Slime_02",
    "baseFaceAnimation": "Default",
    "intervalFaceAnimation": "Blink",
    "minInterval": 1.5,
    "maxInterval": 5.5
  },
  "partControl": {
    "parts": [
      {
        "$type": "INCPGKCDCIO",
        "angularSpeed": 180.0,
        "partRootName": "AntennaControl",
        "doOnUnEabled": "RotateToForward",
        "forwardByTransName": "",
        "limitHorizontal": 360.0,
        "limitVertical": 0.0
      }
    ]
  },
  "billboard": {
    "$type": "DNGNMAJBCNP",
    "attachPoint": "BillboardAttach",
    "offsetType": "Character",
    "radiusOffset": 0.5,
    "showHPBar": true
  },
  "initialPoses": {
    "Default": {},
    "RunAround": {
      "initialPoseID": 901,
      "initialPoseParams": {
        "boolParams": {
          "RunAround": "true"
        }
      }
    }
  },
  "aibeta": {
    "enable": true,
    "sensing": {
      "settings": {
        "DefaultSetting": {
          "viewRange": 15.0
        },
        "NeverCombat": {
          "enableVision": false,
          "hearAttractionRange": 0.0,
          "feelRange": 0.0
        }
      },
      "templates": {
        "DefaultTemplate": {
          "DefaultPoses": "DefaultSetting"
        },
        "NeverCombatTemplate": {
          "DefaultPoses": "NeverCombat"
        }
      }
    },
    "neurons": {
      "DefaultSetting": ["HIT"],
      "NeverCombat": []
    },
    "threat": {
      "GHIJMOKOLMB": "",
      "clearThreatTargetDistance": 30.0,
      "clearThreatEdgeDistance": 3.0,
      "clearThreatTimerByDistance": 2.0,
      "viewAttenuation": [
        {
          "x": 10.0,
          "y": 1.0
        },
        {
          "x": 15.0,
          "y": 0.5
        }
      ]
    },
    "defendArea": {
      "defendRange": 30.0
    },
    "profiling": {
      "moveCullingLevel": 2
    },
    "skills": {
      "100": {
        "name": "OnAlert",
        "skillType": "OnAlert",
        "faceTarget": true,
        "publicCDGroup": "",
        "triggerGCD": false,
        "HHAGODJIAPE": "",
        "stateIDs": ["Warning"],
        "skillQueryingTime": 3.0,
        "flagTargetReachable": "10",
        "flagSelfOnTemplateCollider": "01",
        "flagSelfInZone": "10",
        "flagTargetInZone": "11"
      },
      "209": {
        "name": "Reborn_Free",
        "skillType": "Free",
        "castCondition": {
          "pose": [1]
        },
        "cd": 20.0,
        "publicCDGroup": "",
        "HHAGODJIAPE": "",
        "stateIDs": ["Charge"],
        "flagTargetReachable": "10",
        "flagSelfOnTemplateCollider": "01",
        "flagSelfInZone": "10",
        "flagTargetInZone": "11"
      },
      "201": {
        "name": "Reborn",
        "castCondition": {
          "pose": [2]
        },
        "cd": 20.0,
        "publicCDGroup": "",
        "HHAGODJIAPE": "",
        "stateIDs": ["Charge"],
        "flagTargetReachable": "10",
        "flagSelfOnTemplateCollider": "01",
        "flagSelfInZone": "10",
        "flagTargetInZone": "11"
      },
      "202": {
        "name": "Reborn",
        "castCondition": {
          "pose": [2]
        },
        "cd": 20.0,
        "publicCDGroup": "",
        "HHAGODJIAPE": "",
        "stateIDs": ["Charge"],
        "flagTargetReachable": "10",
        "flagSelfOnTemplateCollider": "01",
        "flagSelfInZone": "01",
        "flagTargetInZone": "11"
      },
      "203": {
        "name": "Reborn",
        "castCondition": {
          "pose": [2]
        },
        "cd": 20.0,
        "publicCDGroup": "",
        "HHAGODJIAPE": "",
        "stateIDs": ["Charge"],
        "flagTargetReachable": "01",
        "flagSelfOnTemplateCollider": "01",
        "flagSelfInZone": "10",
        "flagTargetInZone": "11"
      },
      "204": {
        "name": "Reborn",
        "castCondition": {
          "pose": [2]
        },
        "cd": 20.0,
        "publicCDGroup": "",
        "HHAGODJIAPE": "",
        "stateIDs": ["Charge"],
        "flagTargetReachable": "01",
        "flagSelfOnTemplateCollider": "01",
        "flagSelfInZone": "01",
        "flagTargetInZone": "11"
      },
      "301": {
        "name": "NormalAttack",
        "combatSkillType": "MeleeAttack",
        "enableSkillPrepare": true,
        "castCondition": {
          "pose": [102, 103],
          "pickRangeMin": 1.5,
          "pickRangeMax": 4.5,
          "castRangeMin": 1.5,
          "castRangeMax": 2.5
        },
        "cd": 2.5,
        "publicCDGroup": "",
        "HHAGODJIAPE": "",
        "stateIDs": ["NormalAttack"],
        "flagTargetReachable": "10",
        "flagSelfOnTemplateCollider": "01",
        "flagSelfInZone": "10",
        "flagTargetInZone": "11"
      },
      "302": {
        "name": "NormalAttack",
        "combatSkillType": "MeleeAttack",
        "castCondition": {
          "pose": [102, 103],
          "pickRangeMax": 2.5
        },
        "cd": 2.5,
        "publicCDGroup": "",
        "HHAGODJIAPE": "",
        "stateIDs": ["NormalAttack"],
        "flagTargetReachable": "10",
        "flagSelfOnTemplateCollider": "01",
        "flagSelfInZone": "01",
        "flagTargetInZone": "11"
      }
    },
    "skillGCD": 2.5,
    "birdCirclingTactic": [
      {
        "$type": "ODHNBPJLGHF",
        "enable": true,
        "condition": {
          "pose": [2, 3, 102, 103]
        },
        "JMCOBEPDIGM": {
          "cd": 0.0,
          "triggerDistance": 4.0,
          "MMGOBGGLBJO": 15.0,
          "KAIGBDPLNMO": 1.75,
          "BMIEPFCPFGN": 2.75,
          "FEJMHENNBFA": true,
          "MNPDDAKDHGK": ""
        }
      },
      {
        "$type": "KACCHOLJDNK",
        "enable": true,
        "condition": {
          "pose": [2, 3, 102, 103]
        },
        "JMCOBEPDIGM": {
          "KHDFDAAAPEI": 4.0,
          "HKJODDGJPHA": 99.0,
          "GGEBMFHFBPO": 4.0,
          "KFFGCIMPNMJ": 4.5,
          "MNPDDAKDHGK": ""
        }
      },
      {
        "$type": "NNJKLGNPMNN",
        "enable": true
      },
      {
        "$type": "FPELBIJFGCE",
        "enable": true,
        "JMCOBEPDIGM": {
          "KPNDPKIOPJM": 5.0,
          "PINAFKEDDLL": 2.0,
          "ANMPOPEBDIA": 15.0,
          "GMJFIMFFOEL": 2.5,
          "CHCPFDMADEI": 7.5,
          "MNPDDAKDHGK": ""
        },
        "PIOCBHLFLJP": {
          "9": {
            "ANLAAGAMIKF": 2,
            "ANMPOPEBDIA": 5.0,
            "GMJFIMFFOEL": 1.5,
            "CHCPFDMADEI": 3.0,
            "MNPDDAKDHGK": ""
          },
          "901": {
            "ANLAAGAMIKF": 2,
            "ANMPOPEBDIA": 5.0,
            "GMJFIMFFOEL": 1.5,
            "CHCPFDMADEI": 3.0,
            "MNPDDAKDHGK": ""
          }
        }
      }
    ]
  },
  "inputKeys": [
    {
      "keyID": 1,
      "inputKeyCode": 257,
      "abilityName": ""
    },
    {
      "keyID": 201,
      "inputKeyCode": 258,
      "abilityName": ""
    },
    {
      "keyID": 301,
      "inputKeyCode": 259,
      "abilityName": ""
    }
  ],
  "move": {
    "$type": "IPNMJMHDMPF",
    "monsterSizeType": "SlimeType",
    "PKHOMJHFAEE": "RootNode"
  },
  "field": {
    "concernType": "CombatExcludeGWGO",
    "shape": "CircleR15",
    "ignoreScale": true,
    "fromShape": "",
    "triggerInfinite": true,
    "lifeInfinite": true,
    "checkInterval": 0.5,
    "overwriteCampType": true,
    "campType": "SelfCamp",
    "colliderName": "",
    "fromColliderName": ""
  }
}
