{
  "common": {
    "effectAttachShape": {
      "$type": "FJNPJANPGGC",
      "mesh": "EffectMesh"
    },
    "mass": 1000000000.0,
    "height": 2.0,
    "modelHeight": 2.0,
    "shadowViewSizeRatio": 0.0,
    "disableTickDistance": 100000.0,
    "muteElementStickUI": true,
    "hasAfterImage": true,
    "reconnectSupport": true,
    "recoverByInitPose": true,
    "useFinalIK": true
  },
  "headControl": {
    "$type": "KPIPDEBDPIH",
    "useHeadControl": true,
    "maxYawDegree": 20.0,
    "maxPitchDegree": 5.0,
    "animStates": [
      "NormalIdle/Standby",
      "NormalMove/WalkF",
      "NormalMove/WalkB",
      "NormalMove/WalkR",
      "NormalMove/WalkL"
    ]
  },
  "globalValue": {
    "serverGlobalValues": ["SGV_DungeonDifficulty"]
  },
  "combat": {
    "property": {
      "endureType": "Monster_Tartaglia",
      "weight": 150.0
    },
    "beHit": {
      "hitBloodEffect": ""
    },
    "combatLock": {
      "lockShape": "CircleLockEnemy",
      "lockType": "Boss_Lv5"
    },
    "die": {
      "hasAnimatorDie": true,
      "dieForceDisappearTime": 0.0,
      "dieDisappearEffect": "",
      "muteHitBox": true,
      "dieDenyLockOn": true,
      "dieIsGhostToEnemy": true,
      "dieIgnoreTriggerBullet": true,
      "muteBillboard": true,
      "mutePushCollider": true
    },
    "animEvents": {
      "NormalAtk1": {
        "attackPattern": {
          "$type": "ConfigAttackBox",
          "triggerType": "TriggerNoRepeat",
          "ignoreMassive": true,
          "born": {
            "$type": "ConfigBornBySelf",
            "offset": {
              "x": 0.5,
              "y": 0.8999999761581421,
              "z": 0.0
            },
            "direction": {
              "$type": "ConfigDirectionByDefault",
              "angleOffsetCorrect": {
                "x": 0.0,
                "y": 0.0,
                "z": -30.0
              }
            },
            "useRotation": true
          },
          "size": {
            "x": 1.5,
            "y": 4.0,
            "z": 2.5
          }
        },
        "attackInfo": {
          "attackTag": "NormalAtk1",
          "attenuationTag": "",
          "attenuationGroup": "default",
          "attackProperty": {
            "actorGrassSubHurtDelta": 0.20000000298023224,
            "actorWindSubHurtDelta": 0.0,
            "elementType": "Fire",
            "elementDurability": 25.0,
            "strikeType": "Blunt",
            "enBreak": 101.0,
            "attackType": "Melee",
            "GLKMCMDJBIK": 0.0
          },
          "hitPattern": {
            "onHitEffectName": "default",
            "hitImpulseY": "",
            "hitImpulseType": "LV2"
          }
        }
      },
      "NormalAtk2": {
        "attackPattern": {
          "$type": "ConfigAttackBox",
          "triggerType": "TriggerNoRepeat",
          "ignoreMassive": true,
          "born": {
            "$type": "ConfigBornBySelf",
            "offset": {
              "x": -0.5,
              "y": 0.8999999761581421,
              "z": -0.5
            },
            "useRotation": true
          },
          "size": {
            "x": 2.0,
            "y": 2.0,
            "z": 3.5
          }
        },
        "attackInfo": {
          "attackTag": "NormalAtk2",
          "attenuationTag": "",
          "attenuationGroup": "default",
          "attackProperty": {
            "actorGrassSubHurtDelta": 0.20000000298023224,
            "actorWindSubHurtDelta": 0.0,
            "elementType": "Fire",
            "elementDurability": 25.0,
            "strikeType": "Blunt",
            "enBreak": 101.0,
            "attackType": "Melee",
            "GLKMCMDJBIK": 0.0
          },
          "hitPattern": {
            "onHitEffectName": "default",
            "hitImpulseY": "",
            "hitImpulseType": "LV4",
            "retreatType": "ByAttackerInverse"
          }
        }
      },
      "NormalAtk3": {
        "attackPattern": {
          "$type": "ConfigAttackCircle",
          "triggerType": "TriggerNoRepeat",
          "ignoreMassive": true,
          "born": {
            "$type": "ConfigBornBySelf",
            "offset": {
              "x": 0.0,
              "y": -0.20000000298023224,
              "z": 1.0
            },
            "useRotation": true
          },
          "height": 2.0,
          "radius": 2.0
        },
        "attackInfo": {
          "attackTag": "NormalAtk3",
          "attenuationTag": "NormalAtk3",
          "attenuationGroup": "Nihil_NormalAttack",
          "attackProperty": {
            "actorGrassSubHurtDelta": 0.30000001192092896,
            "actorWindSubHurtDelta": 0.0,
            "elementType": "Fire",
            "elementDurability": 25.0,
            "strikeType": "Blunt",
            "enBreak": 101.0,
            "attackType": "Melee",
            "GLKMCMDJBIK": 0.0
          },
          "hitPattern": {
            "onHitEffectName": "default",
            "hitImpulseY": "",
            "hitImpulseType": "LV3"
          }
        }
      },
      "NormalAtk4": {
        "attackPattern": {
          "$type": "ConfigAttackCircle",
          "triggerType": "TriggerNoRepeat",
          "ignoreMassive": true,
          "born": {
            "$type": "ConfigBornBySelf",
            "offset": {
              "x": -0.5,
              "y": -0.20000000298023224,
              "z": 0.5
            },
            "useRotation": true
          },
          "height": 2.0,
          "radius": 3.0
        },
        "attackInfo": {
          "attackTag": "NormalAtk4",
          "attenuationTag": "",
          "attenuationGroup": "default",
          "attackProperty": {
            "actorGrassSubHurtDelta": 0.5,
            "actorWindSubHurtDelta": 0.0,
            "elementType": "Fire",
            "elementDurability": 25.0,
            "strikeType": "Blunt",
            "enBreak": 101.0,
            "attackType": "Melee",
            "GLKMCMDJBIK": 0.0
          },
          "hitPattern": {
            "onHitEffectName": "default",
            "hitImpulseY": "",
            "hitImpulseType": "LV4"
          }
        }
      },
      "NormalAtk5": {
        "attackPattern": {
          "$type": "ConfigAttackCircle",
          "triggerType": "TriggerNoRepeat",
          "ignoreMassive": true,
          "born": {
            "$type": "ConfigBornBySelf",
            "offset": {
              "x": 0.0,
              "y": -0.20000000298023224,
              "z": 1.2000000476837158
            },
            "useRotation": true
          },
          "height": 2.0,
          "radius": 3.0
        },
        "attackInfo": {
          "attackTag": "NormalAtk5",
          "attenuationTag": "NormalAtk5",
          "attenuationGroup": "Skirmisher_Fat_SprayGun_Ice",
          "attackProperty": {
            "actorGrassSubHurtDelta": 0.6000000238418579,
            "actorWindSubHurtDelta": 0.0,
            "elementType": "Fire",
            "elementDurability": 25.0,
            "strikeType": "Blunt",
            "enBreak": 101.0,
            "attackType": "Melee",
            "GLKMCMDJBIK": 0.0
          },
          "hitPattern": {
            "onHitEffectName": "default",
            "hitImpulseY": "",
            "hitImpulseType": "LV4"
          }
        }
      },
      "RushAtk1": {
        "attackPattern": {
          "$type": "ConfigAttackCircle",
          "triggerType": "TriggerNoRepeat",
          "ignoreMassive": true,
          "born": {
            "$type": "ConfigBornBySelf",
            "offset": {
              "x": 0.0,
              "y": -0.20000000298023224,
              "z": 2.0
            },
            "useRotation": true
          },
          "height": 2.0,
          "radius": 3.0
        },
        "attackInfo": {
          "attackTag": "RushAtk1",
          "attenuationTag": "",
          "attenuationGroup": "default",
          "attackProperty": {
            "actorGrassSubHurtDelta": 0.699999988079071,
            "actorWindSubHurtDelta": 0.0,
            "elementType": "Fire",
            "elementDurability": 25.0,
            "strikeType": "Blunt",
            "enBreak": 101.0,
            "attackType": "Melee",
            "GLKMCMDJBIK": 0.0
          },
          "hitPattern": {
            "onHitEffectName": "default",
            "hitImpulseY": "",
            "hitImpulseType": "LV3"
          }
        }
      },
      "RushAtk2": {
        "attackPattern": {
          "$type": "ConfigAttackBox",
          "triggerType": "TriggerNoRepeat",
          "ignoreMassive": true,
          "born": {
            "$type": "ConfigBornBySelf",
            "offset": {
              "x": 0.0,
              "y": 1.0,
              "z": 0.0
            },
            "useRotation": true
          },
          "size": {
            "x": 2.0,
            "y": 2.0,
            "z": 5.0
          }
        },
        "attackInfo": {
          "attackTag": "",
          "attenuationTag": "",
          "attenuationGroup": "default",
          "attackProperty": {
            "actorGrassSubHurtDelta": 0.800000011920929,
            "actorWindSubHurtDelta": 0.0,
            "elementType": "Fire",
            "elementDurability": 25.0,
            "strikeType": "Blunt",
            "enBreak": 101.0,
            "attackType": "Melee",
            "GLKMCMDJBIK": 0.0
          },
          "hitPattern": {
            "onHitEffectName": "default",
            "hitImpulseY": "",
            "hitImpulseType": "LV4",
            "retreatType": "ByAttackerInverse",
            "forceRetreat": true
          }
        }
      },
      "ThrowAttack_Plus": {
        "attackPattern": {
          "$type": "ConfigAttackBox",
          "triggerType": "TriggerNoRepeat",
          "ignoreMassive": true,
          "born": {
            "$type": "ConfigBornBySelf",
            "offset": {
              "x": 0.0,
              "y": 1.0,
              "z": 0.0
            },
            "useRotation": true
          },
          "size": {
            "x": 2.0,
            "y": 2.0,
            "z": 7.0
          }
        },
        "attackInfo": {
          "attackTag": "ThrowAttack_Plus",
          "attenuationTag": "",
          "attenuationGroup": "default",
          "attackProperty": {
            "actorGrassSubHurtDelta": 0.699999988079071,
            "actorWindSubHurtDelta": 0.0,
            "elementType": "Fire",
            "elementDurability": 50.0,
            "strikeType": "Blunt",
            "enBreak": 101.0,
            "attackType": "Melee",
            "GLKMCMDJBIK": 0.0
          },
          "hitPattern": {
            "onHitEffectName": "Eff_Monster_Nihil_DebtsAtkHit",
            "hitImpulseY": "Eff_Monster_Nihil_DebtsAtkHitDebts",
            "hitImpulseType": "LV4",
            "forceRetreat": true
          },
          "BJMIJADEHOD": 1.5
        }
      },
      "SilkRushAtk": {
        "attackPattern": {
          "$type": "ConfigAttackCircle",
          "triggerType": "TriggerNoRepeat",
          "ignoreMassive": true,
          "born": {
            "$type": "ConfigBornBySelf",
            "offset": {
              "x": 0.0,
              "y": -0.20000000298023224,
              "z": 1.0
            },
            "useRotation": true
          },
          "height": 2.0,
          "radius": 3.0
        },
        "attackInfo": {
          "attackTag": "",
          "attenuationTag": "",
          "attenuationGroup": "default",
          "attackProperty": {
            "actorGrassSubHurtDelta": 0.800000011920929,
            "actorWindSubHurtDelta": 0.0,
            "elementType": "Fire",
            "elementDurability": 25.0,
            "strikeType": "Blunt",
            "enBreak": 101.0,
            "attackType": "Melee",
            "GLKMCMDJBIK": 0.0
          },
          "hitPattern": {
            "onHitEffectName": "default",
            "hitImpulseY": "",
            "hitImpulseType": "LV4"
          }
        }
      },
      "RotateAttack1": {
        "attackPattern": {
          "$type": "ConfigAttackCircle",
          "triggerType": "TriggerNoRepeat",
          "ignoreMassive": true,
          "born": {
            "$type": "ConfigBornBySelf",
            "offset": {
              "x": 0.0,
              "y": -0.20000000298023224,
              "z": 1.0
            },
            "useRotation": true
          },
          "height": 2.0,
          "radius": 3.0
        },
        "attackInfo": {
          "attackTag": "",
          "attenuationTag": "",
          "attenuationGroup": "default",
          "attackProperty": {
            "actorGrassSubHurtDelta": 1.0,
            "actorWindSubHurtDelta": 0.0,
            "elementType": "Fire",
            "elementDurability": 25.0,
            "strikeType": "Blunt",
            "enBreak": 101.0,
            "attackType": "Melee",
            "GLKMCMDJBIK": 0.0
          },
          "hitPattern": {
            "onHitEffectName": "default",
            "hitImpulseY": "",
            "hitImpulseType": "LV7"
          },
          "cameraShake": {
            "shakeType": "CustomVector",
            "shakeRange": 2.0,
            "shakeTime": 0.20000000298023224,
            "shakeDir": {
              "y": 1.0
            }
          }
        }
      },
      "RotateAttack2": {
        "attackPattern": {
          "$type": "ConfigAttackBox",
          "triggerType": "TriggerNoRepeat",
          "ignoreMassive": true,
          "born": {
            "$type": "ConfigBornBySelf",
            "offset": {
              "x": -1.0,
              "y": 0.0,
              "z": 1.0
            },
            "direction": {
              "$type": "ConfigDirectionByDefault",
              "angleOffsetCorrect": {
                "x": 0.0,
                "y": 0.0,
                "z": 30.0
              }
            },
            "useRotation": true
          },
          "size": {
            "x": 3.0,
            "y": 6.0,
            "z": 4.0
          }
        },
        "attackInfo": {
          "attackTag": "",
          "attenuationTag": "",
          "attenuationGroup": "default",
          "attackProperty": {
            "actorGrassSubHurtDelta": 0.20000000298023224,
            "actorWindSubHurtDelta": 0.0,
            "elementType": "Fire",
            "elementDurability": 25.0,
            "strikeType": "Blunt",
            "enBreak": 101.0,
            "attackType": "Melee",
            "GLKMCMDJBIK": 0.0
          },
          "hitPattern": {
            "onHitEffectName": "default",
            "hitImpulseY": "",
            "hitImpulseType": "LV2"
          }
        }
      },
      "RotateAttack_Plus": {
        "attackPattern": {
          "$type": "ConfigAttackBox",
          "triggerType": "TriggerNoRepeat",
          "ignoreMassive": true,
          "born": {
            "$type": "ConfigBornBySelf",
            "offset": {
              "x": 2.0,
              "y": 1.0,
              "z": 1.0
            },
            "direction": {
              "$type": "ConfigDirectionByDefault",
              "angleOffsetCorrect": {
                "x": 0.0,
                "y": -30.0,
                "z": 45.0
              }
            },
            "useRotation": true
          },
          "size": {
            "x": 2.0,
            "y": 5.0,
            "z": 6.0
          }
        },
        "attackInfo": {
          "attackTag": "RotateAttack_Plus",
          "attenuationTag": "",
          "attenuationGroup": "default",
          "attackProperty": {
            "actorGrassSubHurtDelta": 0.699999988079071,
            "actorWindSubHurtDelta": 0.0,
            "elementType": "Fire",
            "elementDurability": 50.0,
            "strikeType": "Blunt",
            "enBreak": 200.0,
            "attackType": "Melee",
            "GLKMCMDJBIK": 0.0
          },
          "hitPattern": {
            "onHitEffectName": "Eff_Monster_Nihil_DebtsAtkHit",
            "hitImpulseY": "Eff_Monster_Nihil_DebtsAtkHitDebts",
            "hitImpulseType": "LV6",
            "forceRetreat": true
          },
          "BJMIJADEHOD": 1.5
        }
      },
      "DefendAtk": {
        "attackPattern": {
          "$type": "ConfigAttackCircle",
          "triggerType": "TriggerNoRepeat",
          "ignoreMassive": true,
          "born": {
            "$type": "ConfigBornBySelf",
            "offset": {
              "x": 0.0,
              "y": -0.20000000298023224,
              "z": 0.5
            },
            "useRotation": true
          },
          "height": 1.5,
          "radius": 3.5
        },
        "attackInfo": {
          "attackTag": "DefendAtk",
          "attenuationTag": "",
          "attenuationGroup": "default",
          "attackProperty": {
            "actorGrassSubHurtDelta": 0.699999988079071,
            "actorWindSubHurtDelta": 0.0,
            "elementType": "Fire",
            "elementDurability": 50.0,
            "strikeType": "Blunt",
            "enBreak": 106.0,
            "attackType": "Melee",
            "GLKMCMDJBIK": 0.0
          },
          "hitPattern": {
            "onHitEffectName": "Eff_Monster_Nihil_DebtsAtkHit",
            "hitImpulseY": "Eff_Monster_Nihil_DebtsAtkHitDebts",
            "hitImpulseType": "LV4"
          },
          "BJMIJADEHOD": 1.5
        }
      },
      "WalkSilkAtk1": {
        "attackPattern": {
          "$type": "ConfigAttackBox",
          "triggerType": "TriggerNoRepeat",
          "ignoreMassive": true,
          "born": {
            "$type": "ConfigBornBySelf",
            "offset": {
              "x": 0.0,
              "y": 0.75,
              "z": 0.0
            },
            "useRotation": true
          },
          "size": {
            "x": 3.0,
            "y": 1.5,
            "z": 6.0
          }
        },
        "attackInfo": {
          "attackTag": "WalkSilkAtk1",
          "attenuationTag": "WalkSilkAttack",
          "attenuationGroup": "Nihil_NormalAttack",
          "attackProperty": {
            "actorGrassSubHurtDelta": 0.699999988079071,
            "actorWindSubHurtDelta": 0.0,
            "elementType": "Fire",
            "elementDurability": 50.0,
            "strikeType": "Blunt",
            "enBreak": 200.0,
            "attackType": "Melee",
            "GLKMCMDJBIK": 0.0
          },
          "hitPattern": {
            "onHitEffectName": "Eff_Monster_Nihil_DebtsAtkHit",
            "hitImpulseY": "Eff_Monster_Nihil_DebtsAtkHitDebts",
            "hitImpulseType": "LV3",
            "forceRetreat": true
          },
          "BJMIJADEHOD": 1.5
        }
      },
      "WalkSilkAtk2": {
        "attackPattern": {
          "$type": "ConfigAttackBox",
          "triggerType": "TriggerNoRepeat",
          "ignoreMassive": true,
          "born": {
            "$type": "ConfigBornBySelf",
            "offset": {
              "x": 0.0,
              "y": 0.75,
              "z": -6.0
            }
          },
          "size": {
            "x": 4.0,
            "y": 1.5,
            "z": 9.0
          }
        },
        "attackInfo": {
          "attackTag": "WalkSilkAtk2",
          "attenuationTag": "",
          "attenuationGroup": "default",
          "attackProperty": {
            "actorGrassSubHurtDelta": 0.699999988079071,
            "actorWindSubHurtDelta": 0.0,
            "elementType": "Fire",
            "elementDurability": 50.0,
            "strikeType": "Blunt",
            "enBreak": 200.0,
            "attackType": "Melee",
            "GLKMCMDJBIK": 0.0
          },
          "hitPattern": {
            "onHitEffectName": "Eff_Monster_Nihil_DebtsAtkHit",
            "hitImpulseY": "Eff_Monster_Nihil_DebtsAtkHitDebts",
            "hitImpulseType": "LV5",
            "retreatType": "ByAttackerInverse",
            "forceRetreat": true
          },
          "BJMIJADEHOD": 1.5
        }
      },
      "DominateAttack": {
        "attackPattern": {
          "$type": "ConfigAttackCircle",
          "triggerType": "TriggerNoRepeat",
          "ignoreMassive": true,
          "born": {
            "$type": "ConfigBornBySelf",
            "offset": {
              "x": 0.0,
              "y": -0.20000000298023224,
              "z": 8.0
            },
            "useRotation": true
          },
          "height": 7.0,
          "radius": 15.0
        },
        "attackInfo": {
          "attackTag": "DominateAttack",
          "attenuationTag": "",
          "attenuationGroup": "default",
          "attackProperty": {
            "actorGrassSubHurtDelta": 1.0,
            "actorWindSubHurtDelta": 0.0,
            "elementType": "Fire",
            "elementDurability": 50.0,
            "strikeType": "Blunt",
            "enBreak": 101.0,
            "attackType": "Melee",
            "GLKMCMDJBIK": 0.0
          },
          "hitPattern": {
            "onHitEffectName": "Eff_Monster_Nihil_DebtsAtkHit",
            "hitImpulseY": "Eff_Monster_Nihil_DebtsAtkHitDebts",
            "hitImpulseType": "LV5"
          },
          "BJMIJADEHOD": 1.5
        }
      },
      "SilkAttack1": {
        "attackPattern": {
          "$type": "ConfigAttackCircle",
          "triggerType": "TriggerNoRepeat",
          "ignoreMassive": true,
          "born": {
            "$type": "ConfigBornBySelf",
            "offset": {
              "x": 0.0,
              "y": -0.20000000298023224,
              "z": 0.0
            },
            "useRotation": true
          },
          "height": 7.0,
          "radius": 15.0
        },
        "attackInfo": {
          "attackTag": "SilkAttack1",
          "attenuationTag": "",
          "attenuationGroup": "default",
          "attackProperty": {
            "actorGrassSubHurtDelta": 0.699999988079071,
            "actorWindSubHurtDelta": 0.0,
            "elementType": "Fire",
            "elementDurability": 50.0,
            "strikeType": "Blunt",
            "enBreak": 101.0,
            "attackType": "Melee",
            "GLKMCMDJBIK": 0.0
          },
          "hitPattern": {
            "onHitEffectName": "Eff_Monster_Nihil_DebtsAtkHit",
            "hitImpulseY": "Eff_Monster_Nihil_DebtsAtkHitDebts",
            "hitImpulseType": "LV5"
          },
          "BJMIJADEHOD": 1.5
        }
      },
      "SilkAttack2": {
        "attackPattern": {
          "$type": "ConfigAttackCircle",
          "triggerType": "TriggerNoRepeat",
          "ignoreMassive": true,
          "born": {
            "$type": "ConfigBornBySelf",
            "offset": {
              "x": 0.0,
              "y": -0.20000000298023224,
              "z": 1.5
            },
            "useRotation": true
          },
          "height": 6.0,
          "radius": 15.0
        },
        "attackInfo": {
          "attackTag": "SilkAttack2",
          "attenuationTag": "",
          "attenuationGroup": "default",
          "attackProperty": {
            "actorGrassSubHurtDelta": 1.0,
            "actorWindSubHurtDelta": 0.0,
            "elementType": "Fire",
            "elementDurability": 50.0,
            "strikeType": "Blunt",
            "enBreak": 101.0,
            "attackType": "Melee",
            "GLKMCMDJBIK": 0.0
          },
          "hitPattern": {
            "onHitEffectName": "Eff_Monster_Nihil_DebtsAtkHit",
            "hitImpulseY": "Eff_Monster_Nihil_DebtsAtkHitDebts",
            "hitImpulseType": "LV5"
          },
          "BJMIJADEHOD": 1.5
        }
      }
    }
  },
  "abilities": [
    {
      "abilityID": "",
      "abilityName": "Monster_Nihil_Steer",
      "abilityOverride": ""
    },
    {
      "abilityID": "",
      "abilityName": "Monster_Nihil_InitialSetting",
      "abilityOverride": ""
    },
    {
      "abilityID": "",
      "abilityName": "Monster_Nihil_CheckAIPos",
      "abilityOverride": ""
    },
    {
      "abilityID": "",
      "abilityName": "Monster_Nihil_PoseControl",
      "abilityOverride": ""
    },
    {
      "abilityID": "",
      "abilityName": "Monster_Nihil_CameraControl",
      "abilityOverride": ""
    },
    {
      "abilityID": "",
      "abilityName": "Monster_Nihil_Debts_Handler",
      "abilityOverride": ""
    },
    {
      "abilityID": "",
      "abilityName": "Monster_Nihil_DebtsSkill_HpDown",
      "abilityOverride": ""
    },
    {
      "abilityID": "",
      "abilityName": "Monster_Nihil_WeatherControl",
      "abilityOverride": ""
    },
    {
      "abilityID": "",
      "abilityName": "Monster_Nihil_AfterImageControl",
      "abilityOverride": ""
    },
    {
      "abilityID": "",
      "abilityName": "Monster_Nihil_EntityShowControl",
      "abilityOverride": ""
    },
    {
      "abilityID": "",
      "abilityName": "Monster_Nihil_BreakReminder",
      "abilityOverride": ""
    },
    {
      "abilityID": "",
      "abilityName": "Monster_Nihil_ReactionCheck",
      "abilityOverride": ""
    },
    {
      "abilityID": "",
      "abilityName": "Monster_Nihil_SoundRatioChange",
      "abilityOverride": ""
    },
    {
      "abilityID": "",
      "abilityName": "Monster_Nihil_CheckTargetDistance",
      "abilityOverride": ""
    },
    {
      "abilityID": "",
      "abilityName": "Monster_Nihil_CheckAirTarget",
      "abilityOverride": ""
    },
    {
      "abilityID": "",
      "abilityName": "Monster_Nihil_Harbinger_CheckAtkHit",
      "abilityOverride": ""
    },
    {
      "abilityID": "",
      "abilityName": "Monster_Nihil_ShadowDodge",
      "abilityOverride": ""
    },
    {
      "abilityID": "",
      "abilityName": "Monster_Nihil_DefendAttack",
      "abilityOverride": ""
    },
    {
      "abilityID": "",
      "abilityName": "Monster_Nihil_DefendAttack_RushMove",
      "abilityOverride": ""
    },
    {
      "abilityID": "",
      "abilityName": "Monster_Nihil_LeftRightDodge",
      "abilityOverride": ""
    },
    {
      "abilityID": "",
      "abilityName": "Monster_Nihil_RushAtk",
      "abilityOverride": ""
    },
    {
      "abilityID": "",
      "abilityName": "Monster_Nihil_RotateAttack",
      "abilityOverride": ""
    },
    {
      "abilityID": "",
      "abilityName": "Monster_Nihil_SilkDodge",
      "abilityOverride": ""
    },
    {
      "abilityID": "",
      "abilityName": "Monster_Nihil_TurnDodge",
      "abilityOverride": ""
    },
    {
      "abilityID": "",
      "abilityName": "Monster_Nihil_TurnStateAction",
      "abilityOverride": ""
    },
    {
      "abilityID": "",
      "abilityName": "Monster_Nihil_WalkSilkAttack",
      "abilityOverride": ""
    },
    {
      "abilityID": "",
      "abilityName": "Monster_Nihil_ThrowAttack",
      "abilityOverride": ""
    },
    {
      "abilityID": "",
      "abilityName": "Monster_Nihil_SilkRush",
      "abilityOverride": ""
    },
    {
      "abilityID": "",
      "abilityName": "Monster_Nihil_DominateAttack",
      "abilityOverride": ""
    },
    {
      "abilityID": "",
      "abilityName": "Monster_Nihil_SilkAttack",
      "abilityOverride": ""
    },
    {
      "abilityID": "",
      "abilityName": "Monster_Nihil_Attack_CheckAtkHit",
      "abilityOverride": ""
    },
    {
      "abilityID": "",
      "abilityName": "Monster_Nihil_AddEndure",
      "abilityOverride": ""
    }
  ],
  "stateLayers": {
    "defaultLayer": {
      "$type": "GBGJJIIEMBD",
      "layerIndexName": "",
      "CPAANEIJCGD": "",
      "stateIDs": {
        "Born": {
          "$type": "NEDIFAKEGCO",
          "animatorStates": {
            "Born": []
          },
          "resetAnimatorTriggerOnExit": ["DoSkill"]
        },
        "FreeIdle": {
          "$type": "NEDIFAKEGCO",
          "animatorStates": {
            "Standby_Free": []
          },
          "canDoSkill": true,
          "canSyncMove": true,
          "resetAnimatorTriggerOnExit": ["DoSkill"]
        },
        "NormalIdle": {
          "$type": "NEDIFAKEGCO",
          "animatorStates": {
            "Standby": []
          },
          "canDoSkill": true,
          "canSyncMove": true,
          "resetAnimatorTriggerOnExit": ["DoSkill"]
        },
        "NormalMove": {
          "$type": "NEDIFAKEGCO",
          "animatorStates": {
            "WalkF": ["Audio_Monster_Nihil_Walk"],
            "WalkB": ["Audio_Monster_Nihil_Walk_Back"],
            "WalkR": ["Audio_Monster_Nihil_Walk"],
            "WalkL": ["Audio_Monster_Nihil_Walk"]
          },
          "canDoSkill": true,
          "canSyncMove": true,
          "resetAnimatorTriggerOnExit": ["DoSkill"],
          "canSteer": true
        },
        "Hit_H": {
          "$type": "NEDIFAKEGCO",
          "animatorStates": {
            "Hit_H": ["Audio_Monster_Nihil_Hit"]
          },
          "resetAnimatorTriggerOnEnter": ["DoSkill"],
          "autoSteer": true
        },
        "Die": {
          "$type": "NEDIFAKEGCO",
          "animatorStates": {
            "Die": []
          },
          "resetAnimatorTriggerOnEnter": ["DoSkill"]
        },
        "Alert": {
          "$type": "NEDIFAKEGCO",
          "animatorStates": {
            "Alert": ["Monster_Nihil_Alert", "Audio_Monster_Nihil_Alert"]
          },
          "cullingModelAlwaysAnimate": true,
          "addEndure": 0.0,
          "resetAnimatorTriggerOnExit": ["BeHit", "DoSkill"],
          "canSteer": true
        },
        "NormalAtk1": {
          "$type": "NEDIFAKEGCO",
          "animatorStates": {
            "NormalAtk1_State1": [
              "Monster_Nihil_NormalAtk1",
              "Audio_Monster_Nihil_NormalAtk1"
            ],
            "NormalAtk1_State2": [
              "Monster_Nihil_NormalAtk1",
              "Audio_Monster_Nihil_NormalAtk1"
            ]
          },
          "resetAnimatorTriggerOnEnter": [
            "AtkHit",
            "GoDodge",
            "SkillASDodgeBack",
            "SkillASDodgeLR"
          ],
          "resetAnimatorTriggerOnExit": ["DoSkill", "TargetFar"],
          "canSteer": true
        },
        "NormalAtk2": {
          "$type": "NEDIFAKEGCO",
          "animatorStates": {
            "NormalAtk2_State1": [
              "Monster_Nihil_NormalAtk2",
              "Audio_Monster_Nihil_NormalAtk2"
            ],
            "NormalAtk2_State2": [
              "Monster_Nihil_NormalAtk2",
              "Audio_Monster_Nihil_NormalAtk2"
            ]
          },
          "resetAnimatorTriggerOnEnter": ["AtkHit", "GoDodge"],
          "resetAnimatorTriggerOnExit": ["DoSkill", "TargetFar"],
          "canSteer": true
        },
        "RushAtk1": {
          "$type": "NEDIFAKEGCO",
          "animatorStates": {
            "RushAtk1": [
              "Monster_Nihil_RushAtk1",
              "Audio_Monster_Nihil_RushAtk_Attack"
            ]
          },
          "resetAnimatorTriggerOnEnter": [
            "GoDodge",
            "SkillASDodgeBack",
            "SkillASDodgeLR"
          ],
          "resetAnimatorTriggerOnExit": ["DoSkill", "TargetFar", "RushAtkHit"],
          "handleAnimatorStateImmediately": true,
          "canSteer": true
        },
        "RushAtk2": {
          "$type": "NEDIFAKEGCO",
          "animatorStates": {
            "RushAtk2": [
              "Monster_Nihil_RushAtk2",
              "Audio_Monster_Nihil_RushAtk2"
            ]
          },
          "resetAnimatorTriggerOnExit": ["DoSkill"],
          "canSteer": true
        },
        "RotateAttack_State1": {
          "$type": "NEDIFAKEGCO",
          "animatorStates": {
            "RotateAttack_State1": [
              "Monster_Nihil_RotateAttack",
              "Audio_Monster_Nihil_RotateAttack_State1"
            ]
          },
          "resetAnimatorTriggerOnEnter": [
            "GoDodge",
            "SkillASDodgeBack",
            "SkillASDodgeLR"
          ],
          "resetAnimatorTriggerOnExit": ["DoSkill"],
          "handleAnimatorStateImmediately": true,
          "canSteer": true
        },
        "ThrowAttack_State1": {
          "$type": "NEDIFAKEGCO",
          "animatorStates": {
            "ThrowAttack_State1": [
              "Monster_Nihil_ThrowAttack1",
              "Audio_Monster_Nihil_ThrowAttack_State1"
            ]
          },
          "resetAnimatorTriggerOnEnter": ["SilkGoHide", "GoDodge"],
          "resetAnimatorTriggerOnExit": ["DoSkill"],
          "handleAnimatorStateImmediately": true,
          "canSteer": true
        },
        "NormalAtk3": {
          "$type": "NEDIFAKEGCO",
          "animatorStates": {
            "NormalAtk3_State2": [
              "Monster_Nihil_NormalAtk3",
              "Audio_Monster_Nihil_NormalAtk3"
            ]
          },
          "resetAnimatorTriggerOnEnter": ["AtkHit"],
          "resetAnimatorTriggerOnExit": ["DoSkill", "TargetFar"],
          "canSteer": true
        },
        "NormalAtk4": {
          "$type": "NEDIFAKEGCO",
          "animatorStates": {
            "NormalAtk4_State2": [
              "Monster_Nihil_NormalAtk4",
              "Audio_Monster_Nihil_NormalAtk4"
            ]
          },
          "resetAnimatorTriggerOnEnter": ["AtkHit"],
          "resetAnimatorTriggerOnExit": ["DoSkill", "TargetFar"],
          "canSteer": true
        },
        "NormalAtk5": {
          "$type": "NEDIFAKEGCO",
          "animatorStates": {
            "NormalAtk5_State2": [
              "Monster_Nihil_NormalAtk5",
              "Audio_Monster_Nihil_NormalAtk5"
            ]
          },
          "resetAnimatorTriggerOnEnter": ["AtkHit"],
          "resetAnimatorTriggerOnExit": ["DoSkill", "TargetFar"],
          "canSteer": true
        },
        "SilkRush": {
          "$type": "NEDIFAKEGCO",
          "animatorStates": {
            "SilkRush": [
              "Monster_Nihil_SilkRush",
              "Audio_Monster_Nihil_SilkRush"
            ]
          },
          "resetAnimatorTriggerOnExit": ["DoSkill"],
          "handleAnimatorStateImmediately": true,
          "canSteer": true
        },
        "DefendAtk": {
          "$type": "NEDIFAKEGCO",
          "animatorStates": {
            "DefendAtk": [
              "Monster_Nihil_DefendAttack",
              "Audio_Monster_Nihil_DefendAtk"
            ]
          },
          "resetAnimatorTriggerOnEnter": ["WingGoHide", "GoDodgeBack"],
          "resetAnimatorTriggerOnExit": ["DoSkill", "GoDefendAtk"],
          "handleAnimatorStateImmediately": true,
          "canSteer": true
        },
        "WalkSilkAtk": {
          "$type": "NEDIFAKEGCO",
          "animatorStates": {
            "WalkSilkAtk": [
              "Monster_Nihil_WalkSilkAttack",
              "Monster_Nihil_WalkSilkAttack_BSEff",
              "Audio_Monster_Nihil_WalkSilkAtk"
            ]
          },
          "resetAnimatorTriggerOnEnter": [
            "SilkGoShow",
            "SilkGoHide",
            "WingGoHide"
          ],
          "resetAnimatorTriggerOnExit": ["DoSkill"],
          "handleAnimatorStateImmediately": true,
          "canSteer": true
        },
        "SilkDodge": {
          "$type": "NEDIFAKEGCO",
          "animatorStates": {
            "SilkDodge": ["Audio_Monster_Nihil_SilkDodge"]
          },
          "addEndure": 0.0,
          "resetAnimatorTriggerOnEnter": ["SilkGoHide"],
          "resetAnimatorTriggerOnExit": ["DoSkill"],
          "handleAnimatorStateImmediately": true,
          "canSteer": true
        },
        "RotateAttack_BeforeMove": {
          "$type": "NEDIFAKEGCO",
          "animatorStates": {
            "RotateAttack_BeforeMove": ["Audio_Monster_Nihil_SilkDodge"]
          },
          "resetAnimatorTriggerOnEnter": ["SilkGoHide"],
          "resetAnimatorTriggerOnExit": ["DoSkill"],
          "handleAnimatorStateImmediately": true,
          "canSteer": true
        },
        "RotateAttack": {
          "$type": "NEDIFAKEGCO",
          "animatorStates": {
            "RotateAttack": [
              "Monster_Nihil_RotateAttack",
              "Audio_Monster_Nihil_RotateAttack_State1"
            ]
          },
          "resetAnimatorTriggerOnExit": ["DoSkill"],
          "handleAnimatorStateImmediately": true,
          "canSteer": true
        },
        "RotateAttack_Plus": {
          "$type": "NEDIFAKEGCO",
          "animatorStates": {
            "RotateAttack_Plus": [
              "Monster_Nihil_RotateAttack_Plus",
              "Audio_Monster_Nihil_RotateAttack_Plus"
            ]
          },
          "resetAnimatorTriggerOnEnter": ["WingGoHide"],
          "resetAnimatorTriggerOnExit": ["DoSkill"],
          "handleAnimatorStateImmediately": true,
          "canSteer": true
        },
        "SilkAttack_QuickSnap": {
          "$type": "NEDIFAKEGCO",
          "animatorStates": {
            "SilkAttack_QuickSnap": [
              "Monster_Nihil_QuickSnap",
              "Audio_Monster_Nihil_SilkAttack_QuickSnap"
            ]
          },
          "addEndure": 0.0,
          "resetAnimatorTriggerOnExit": ["DoSkill"],
          "canSteer": true
        },
        "SilkAttack": {
          "$type": "NEDIFAKEGCO",
          "animatorStates": {
            "SilkAttack": [
              "Monster_Nihil_SilkAttack",
              "Audio_Monster_Nihil_SilkAttack"
            ]
          },
          "resetAnimatorTriggerOnEnter": ["WingGoHide"],
          "resetAnimatorTriggerOnExit": ["DoSkill", "StopByExAtk"],
          "canSteer": true
        },
        "SilkAttack_Stop": {
          "$type": "NEDIFAKEGCO",
          "animatorStates": {
            "SilkAttack_Stop": []
          },
          "resetAnimatorTriggerOnExit": ["DoSkill", "StopByExAtk"],
          "canSteer": true
        },
        "DominateAttack": {
          "$type": "NEDIFAKEGCO",
          "animatorStates": {
            "DominateAttack": [
              "Monster_Nihil_DominateAttack",
              "Audio_Monster_Nihil_DominateAttack"
            ]
          },
          "resetAnimatorTriggerOnExit": ["DoSkill"],
          "canSteer": true
        },
        "Snap_BeHit": {
          "$type": "NEDIFAKEGCO",
          "animatorStates": {
            "Snap_BeHit": ["Audio_Monster_Nihil_Hit"]
          },
          "addEndure": 0.0,
          "resetAnimatorTriggerOnEnter": [
            "DoSkill",
            "GoDefendAtk",
            "GoDodgeBack"
          ],
          "resetAnimatorTriggerOnExit": ["DoSkill"],
          "canSteer": true,
          "autoSteer": true
        },
        "Snap_BS_Select": {
          "$type": "NEDIFAKEGCO",
          "animatorStates": {
            "Snap_BS_Select": []
          },
          "addEndure": 0.0,
          "resetAnimatorTriggerOnExit": ["DoSkill"],
          "canSteer": true
        },
        "Snap_BS_Far": {
          "$type": "NEDIFAKEGCO",
          "animatorStates": {
            "Snap_BS_Far": ["Audio_Monster_Nihil_SilkDodge"]
          },
          "addEndure": 0.0,
          "resetAnimatorTriggerOnExit": ["DoSkill"],
          "handleAnimatorStateImmediately": true,
          "canSteer": true
        },
        "Snap_BS_Near": {
          "$type": "NEDIFAKEGCO",
          "animatorStates": {
            "Snap_BS_Near": ["Audio_Monster_Nihil_Dodge"]
          },
          "addEndure": 0.0,
          "resetAnimatorTriggerOnExit": ["DoSkill"],
          "handleAnimatorStateImmediately": true,
          "canSteer": true
        },
        "Snap_BS_Near_Move": {
          "$type": "NEDIFAKEGCO",
          "animatorStates": {
            "Snap_BS_Near_Move": []
          },
          "addEndure": 0.0,
          "resetAnimatorTriggerOnExit": ["DoSkill"],
          "handleAnimatorStateImmediately": true,
          "canSteer": true
        },
        "Snap": {
          "$type": "NEDIFAKEGCO",
          "animatorStates": {
            "Snap": ["Monster_Nihil_Snap", "Audio_Monster_Nihil_Snap"]
          },
          "addEndure": 0.0,
          "resetAnimatorTriggerOnExit": ["DoSkill"],
          "canSteer": true,
          "followAnimRotation": true
        },
        "Snap_UpSilkAttack": {
          "$type": "NEDIFAKEGCO",
          "animatorStates": {
            "Snap_UpSilkAttack": [
              "Monster_Nihil_WalkSilkAttack",
              "Monster_Nihil_WalkSilkAttack_WingEff",
              "Audio_Monster_Nihil_WalkSilkAtk"
            ]
          },
          "addEndure": 0.0,
          "resetAnimatorTriggerOnEnter": ["SilkGoHide", "WingGoHide"],
          "resetAnimatorTriggerOnExit": ["DoSkill"],
          "handleAnimatorStateImmediately": true,
          "canSteer": true
        },
        "TurnToState3_Ready": {
          "$type": "NEDIFAKEGCO",
          "animatorStates": {
            "TurnToState3_Ready": []
          },
          "cullingModelAlwaysAnimate": true,
          "addEndure": 0.0,
          "resetAnimatorTriggerOnExit": ["DoSkill"],
          "canSteer": true
        },
        "TurnToState3_BeHit": {
          "$type": "NEDIFAKEGCO",
          "animatorStates": {
            "TurnToState3_BeHit": ["Audio_Monster_Nihil_Hit"]
          },
          "cullingModelAlwaysAnimate": true,
          "addEndure": 0.0,
          "resetAnimatorTriggerOnEnter": [
            "DoSkill",
            "GoDefendAtk",
            "GoDodgeBack",
            "ForceTurnState2"
          ],
          "resetAnimatorTriggerOnExit": ["DoSkill"],
          "canSteer": true
        },
        "TurnToState3_MoveFar": {
          "$type": "NEDIFAKEGCO",
          "animatorStates": {
            "TurnToState3_MoveFar": ["Audio_Monster_Nihil_SilkDodge"]
          },
          "cullingModelAlwaysAnimate": true,
          "addEndure": 0.0,
          "resetAnimatorTriggerOnEnter": ["SilkGoHide"],
          "resetAnimatorTriggerOnExit": ["DoSkill"],
          "handleAnimatorStateImmediately": true,
          "canSteer": true
        },
        "TurnToState3_MoveNear": {
          "$type": "NEDIFAKEGCO",
          "animatorStates": {
            "TurnToState3_MoveNear": []
          },
          "cullingModelAlwaysAnimate": true,
          "addEndure": 0.0,
          "resetAnimatorTriggerOnExit": ["DoSkill"],
          "handleAnimatorStateImmediately": true,
          "canSteer": true
        },
        "TurnToState3_MoveNear_Move": {
          "$type": "NEDIFAKEGCO",
          "animatorStates": {
            "TurnToState3_MoveNear_Move": ["Audio_Monster_Nihil_Dodge"]
          },
          "cullingModelAlwaysAnimate": true,
          "addEndure": 0.0,
          "resetAnimatorTriggerOnExit": ["DoSkill"],
          "handleAnimatorStateImmediately": true,
          "canSteer": true
        },
        "TurnToState3": {
          "$type": "NEDIFAKEGCO",
          "animatorStates": {
            "TurnToState3": []
          },
          "cullingModelAlwaysAnimate": true,
          "addEndure": 0.0,
          "resetAnimatorTriggerOnExit": ["DoSkill"],
          "canSteer": true,
          "followAnimRotation": true
        },
        "ThrowAttack_State2_First": {
          "$type": "NEDIFAKEGCO",
          "animatorStates": {
            "ThrowAttack_State2_First": [
              "Monster_Nihil_ThrowAttack1",
              "Audio_Monster_Nihil_ThrowAttack_State2_First"
            ]
          },
          "resetAnimatorTriggerOnEnter": ["SilkGoHide"],
          "resetAnimatorTriggerOnExit": ["DoSkill"],
          "canSteer": true
        },
        "ThrowAttack_State2_Second": {
          "$type": "NEDIFAKEGCO",
          "animatorStates": {
            "ThrowAttack_State2_Second": [
              "Monster_Nihil_ThrowAttackPlus",
              "Audio_Monster_Nihil_ThrowAttack_State2_Second"
            ]
          },
          "resetAnimatorTriggerOnExit": ["DoSkill"],
          "canSteer": true
        },
        "DodgeBack": {
          "$type": "NEDIFAKEGCO",
          "animatorStates": {
            "DodgeBack": ["Audio_Monster_Nihil_Dodge_Back"]
          },
          "addEndure": 0.0,
          "resetAnimatorTriggerOnExit": ["DoSkill"],
          "handleAnimatorStateImmediately": true,
          "canSteer": true
        },
        "LeftDodge_RightMove": {
          "$type": "NEDIFAKEGCO",
          "animatorStates": {
            "LeftDodge_RightMove": []
          },
          "addEndure": 0.0,
          "resetAnimatorTriggerOnExit": ["DoSkill"],
          "handleAnimatorStateImmediately": true,
          "canSteer": true
        },
        "RightDodge_LeftMove": {
          "$type": "NEDIFAKEGCO",
          "animatorStates": {
            "RightDodge_LeftMove": []
          },
          "addEndure": 0.0,
          "resetAnimatorTriggerOnExit": ["DoSkill"],
          "handleAnimatorStateImmediately": true,
          "canSteer": true
        },
        "LeftDodge": {
          "$type": "NEDIFAKEGCO",
          "animatorStates": {
            "LeftDodge": ["Audio_Monster_Nihil_Dodge"]
          },
          "addEndure": 0.0,
          "resetAnimatorTriggerOnExit": ["DoSkill"],
          "handleAnimatorStateImmediately": true,
          "canSteer": true
        },
        "LeftDodge_Move": {
          "$type": "NEDIFAKEGCO",
          "animatorStates": {
            "LeftDodge_Move": []
          },
          "addEndure": 0.0,
          "resetAnimatorTriggerOnExit": ["DoSkill"],
          "handleAnimatorStateImmediately": true,
          "canSteer": true
        },
        "LeftDodge_AS": {
          "$type": "NEDIFAKEGCO",
          "animatorStates": {
            "LeftDodge_AS": []
          },
          "addEndure": 0.0,
          "resetAnimatorTriggerOnExit": ["DoSkill"],
          "handleAnimatorStateImmediately": true,
          "canSteer": true
        },
        "RightDodge": {
          "$type": "NEDIFAKEGCO",
          "animatorStates": {
            "RightDodge": ["Audio_Monster_Nihil_Dodge"]
          },
          "addEndure": 0.0,
          "resetAnimatorTriggerOnExit": ["DoSkill"],
          "handleAnimatorStateImmediately": true,
          "canSteer": true
        },
        "RightDodge_Move": {
          "$type": "NEDIFAKEGCO",
          "animatorStates": {
            "RightDodge_Move": []
          },
          "addEndure": 0.0,
          "resetAnimatorTriggerOnExit": ["DoSkill"],
          "handleAnimatorStateImmediately": true,
          "canSteer": true
        },
        "RightDodge_AS": {
          "$type": "NEDIFAKEGCO",
          "animatorStates": {
            "RightDodge_AS": []
          },
          "addEndure": 0.0,
          "resetAnimatorTriggerOnExit": ["DoSkill"],
          "handleAnimatorStateImmediately": true,
          "canSteer": true
        },
        "TurnDodge_BS": {
          "$type": "NEDIFAKEGCO",
          "animatorStates": {
            "TurnDodge_BS": ["Audio_Monster_Nihil_Dodge"]
          },
          "addEndure": 0.0,
          "resetAnimatorTriggerOnExit": ["DoSkill"],
          "handleAnimatorStateImmediately": true,
          "canSteer": true
        },
        "TurnDodge_Move": {
          "$type": "NEDIFAKEGCO",
          "animatorStates": {
            "TurnDodge_Move": []
          },
          "addEndure": 0.0,
          "resetAnimatorTriggerOnExit": ["DoSkill"],
          "handleAnimatorStateImmediately": true,
          "canSteer": true
        },
        "TurnDodge_AS": {
          "$type": "NEDIFAKEGCO",
          "animatorStates": {
            "TurnDodge_AS": []
          },
          "addEndure": 0.0,
          "resetAnimatorTriggerOnExit": ["DoSkill"],
          "handleAnimatorStateImmediately": true,
          "canSteer": true
        },
        "FastMoveToAirTarget": {
          "$type": "NEDIFAKEGCO",
          "animatorStates": {
            "FastMoveToAirTarget": []
          },
          "addEndure": 0.0,
          "resetAnimatorTriggerOnExit": ["DoSkill"],
          "handleAnimatorStateImmediately": true,
          "canSteer": true
        }
      }
    },
    "Block": {
      "$type": "GBGJJIIEMBD",
      "layerIndex": 1,
      "layerIndexName": "Block",
      "CPAANEIJCGD": "",
      "stateIDs": {
        "Block": {
          "$type": "NEDIFAKEGCO",
          "animatorStates": {
            "Block": ["Monster_Nihil_Defend_WingEff"]
          },
          "resetAnimatorTriggerOnEnter": ["WingGoHide"],
          "resetAnimatorTriggerOnExit": ["GoDefend"],
          "canSteer": true
        }
      }
    }
  },
  "billboard": {
    "$type": "DNGNMAJBCNP",
    "attachPoint": "BillboardAttach",
    "offset": {
      "y": 1.0
    },
    "radiusOffset": 1.0,
    "showDistance": 200.0,
    "showHPBar": true,
    "size": "Grand"
  },
  "initialPoses": {
    "Default": {}
  },
  "aibeta": {
    "enable": true,
    "moveSetting": {
      "navMeshAgentName": "Undead01",
      "almostReachedDistanceWalk": 5.0,
      "almostReachedDistanceRun": 5.0,
      "snakelikeMoveSetting": {
        "minCurvature": 0.25,
        "maxCurvatrue": 0.5,
        "minSegmentDistance": 7.5,
        "segmentDistance": 8.0,
        "segmentCount": 2
      }
    },
    "aiCombat": {},
    "sensing": {
      "settings": {
        "DefaultSetting": {
          "viewRange": 28.0,
          "viewPanoramic": true,
          "hearAttractionRange": 0.0,
          "feelRange": 28.0
        }
      },
      "templates": {
        "DefaultTemplate": {
          "DefaultPoses": "DefaultSetting"
        }
      }
    },
    "threat": {
      "GHIJMOKOLMB": "",
      "clearThreatTargetDistance": 1000.0,
      "clearThreatEdgeDistance": 10.0,
      "clearThreatTimerByDistance": 10.0,
      "resistTauntLevel": "Monster_TauntLevel_5",
      "forceAlertByDefendArea": true,
      "IIOLFCGEIHN": true,
      "APJJOOLHDAA": ["_NIHIL_AVATAR_ID"],
      "auxScoreChangeTargetCD": 2.0,
      "targetDistanceScoreSystem": {
        "weight": 100,
        "value": 10.0,
        "max": 100.0,
        "enable": true
      }
    },
    "defendArea": {
      "defendRange": 120.0
    },
    "profiling": {
      "lodStrategy": "Best"
    },
    "network": {
      "syncSkill": true,
      "resetHpOnSpawn": false
    },
    "skillGroupCDConfigs": [
      {
        "skillGroupCDID": 1,
        "skillGroupCDTime": 10.0
      },
      {
        "skillGroupCDID": 2,
        "skillGroupCDTime": 30.0
      },
      {
        "skillGroupCDID": 3,
        "skillGroupCDTime": 20.0
      },
      {
        "skillGroupCDID": 4,
        "skillGroupCDTime": 15.0
      }
    ],
    "skillSetting": {
      "skillEliteSet": {
        "1": [],
        "2": []
      }
    },
    "skills": {
      "1": {
        "name": "OnAlert",
        "skillType": "OnAlert",
        "faceTarget": true,
        "castCondition": {
          "pose": [1, 2]
        },
        "publicCDGroup": "",
        "ignoreGCD": true,
        "triggerGCD": false,
        "HHAGODJIAPE": "",
        "stateIDs": ["Alert"],
        "skillQueryingTime": 3.0,
        "flagTargetReachable": "10",
        "flagSelfOnTemplateCollider": "01",
        "flagSelfInZone": "10",
        "flagTargetInZone": "11"
      },
      "101": {
        "name": "NormalAtk",
        "priority": 4,
        "castCondition": {
          "pose": [101],
          "maxTargetAngleXZ": 60.0,
          "pickRangeMax": 5.0
        },
        "cd": 2.0,
        "publicCDGroup": "",
        "HHAGODJIAPE": "",
        "stateIDs": ["NormalAtk1", "NormalAtk2"],
        "flagTargetReachable": "10",
        "flagSelfOnTemplateCollider": "01",
        "flagSelfInZone": "10",
        "flagTargetInZone": "11"
      },
      "201": {
        "name": "RushAtk",
        "priority": 3,
        "castCondition": {
          "pose": [101],
          "pickRangeMin": 7.0,
          "pickRangeMax": 15.0
        },
        "cd": 20.0,
        "initialCD": 10.0,
        "publicCDGroup": "",
        "HHAGODJIAPE": "",
        "stateIDs": ["RushAtk1", "RushAtk2"],
        "flagTargetReachable": "10",
        "flagSelfOnTemplateCollider": "01",
        "flagSelfInZone": "10",
        "flagTargetInZone": "11"
      },
      "301": {
        "name": "RotateAttack_State1",
        "priority": 3,
        "castCondition": {
          "pose": [101],
          "pickRangeMax": 20.0
        },
        "initialCD": 18.0,
        "publicCDGroup": "",
        "ignoreGCD": true,
        "skillGroupCDID": 4,
        "HHAGODJIAPE": "",
        "stateIDs": ["RotateAttack_State1"],
        "flagTargetReachable": "10",
        "flagSelfOnTemplateCollider": "01",
        "flagSelfInZone": "10",
        "flagTargetInZone": "11"
      },
      "401": {
        "name": "ThrowAttack_State1",
        "priority": 3,
        "castCondition": {
          "pose": [101],
          "maxTargetAngleXZ": 60.0,
          "pickRangeMax": 7.0
        },
        "cd": 7.0,
        "cdUpperRange": 5.0,
        "publicCDGroup": "",
        "HHAGODJIAPE": "",
        "stateIDs": ["ThrowAttack_State1"],
        "flagTargetReachable": "10",
        "flagSelfOnTemplateCollider": "01",
        "flagSelfInZone": "10",
        "flagTargetInZone": "11"
      },
      "402": {
        "name": "ThrowAttack_State1",
        "priority": 3,
        "castCondition": {
          "pose": [101],
          "pickRangeMax": 13.0
        },
        "cd": 2.0,
        "publicCDGroup": "",
        "HHAGODJIAPE": "",
        "stateIDs": ["ThrowAttack_State1"],
        "flagTargetReachable": "01",
        "flagSelfOnTemplateCollider": "01",
        "flagSelfInZone": "10",
        "flagTargetInZone": "11"
      },
      "10000": {
        "name": "LeftDodge",
        "priority": 2,
        "castCondition": {
          "pose": [101, 201],
          "skillAnchorRangeMin": 22.0
        },
        "initialCD": 7.0,
        "publicCDGroup": "",
        "ignoreGCD": true,
        "triggerGCD": false,
        "HHAGODJIAPE": "",
        "stateIDs": ["LeftDodge", "LeftDodge_Move", "LeftDodge_AS"],
        "flagTargetReachable": "10",
        "flagSelfOnTemplateCollider": "01",
        "flagSelfInZone": "10",
        "flagTargetInZone": "11"
      },
      "10001": {
        "name": "BackDodge",
        "priority": 3,
        "castCondition": {
          "pose": [101],
          "minTargetAngleXZ": 120.0,
          "pickRangeMax": 7.0
        },
        "initialCD": 3.0,
        "publicCDGroup": "",
        "ignoreGCD": true,
        "triggerGCD": false,
        "skillGroupCDID": 1,
        "HHAGODJIAPE": "",
        "stateIDs": ["TurnDodge_BS", "TurnDodge_Move", "TurnDodge_AS"],
        "flagTargetReachable": "10",
        "flagSelfOnTemplateCollider": "01",
        "flagSelfInZone": "10",
        "flagTargetInZone": "11"
      },
      "2101": {
        "name": "NormalAtk",
        "priority": 3,
        "castCondition": {
          "pose": [201],
          "pickRangeMax": 3.0
        },
        "cd": 3.0,
        "publicCDGroup": "",
        "HHAGODJIAPE": "",
        "stateIDs": [
          "NormalAtk1",
          "NormalAtk2",
          "NormalAtk3",
          "NormalAtk4",
          "NormalAtk5"
        ],
        "flagTargetReachable": "10",
        "flagSelfOnTemplateCollider": "01",
        "flagSelfInZone": "10",
        "flagTargetInZone": "11"
      },
      "2102": {
        "name": "SilkRush",
        "priority": 2,
        "castCondition": {
          "pose": [201],
          "needReInitCD": true,
          "pickRangeMin": 10.0,
          "pickRangeMax": 30.0
        },
        "cd": 25.0,
        "publicCDGroup": "",
        "HHAGODJIAPE": "",
        "stateIDs": [
          "SilkRush",
          "ThrowAttack_State2_First",
          "ThrowAttack_State2_Second"
        ],
        "flagTargetReachable": "10",
        "flagSelfOnTemplateCollider": "01",
        "flagSelfInZone": "10",
        "flagTargetInZone": "11"
      },
      "2104": {
        "name": "WalkSilkAtk",
        "priority": 3,
        "castCondition": {
          "pose": [201, 202],
          "needReInitCD": true,
          "pickRangeMin": 5.0,
          "pickRangeMax": 10.0
        },
        "cd": 40.0,
        "initialCD": 40.0,
        "publicCDGroup": "",
        "ignoreGCD": true,
        "HHAGODJIAPE": "",
        "stateIDs": ["WalkSilkAtk"],
        "flagTargetReachable": "10",
        "flagSelfOnTemplateCollider": "01",
        "flagSelfInZone": "10",
        "flagTargetInZone": "11"
      },
      "2105": {
        "name": "SilkDodge",
        "priority": 4,
        "castCondition": {
          "pose": [201],
          "pickRangeMax": 5.0
        },
        "cd": 30.0,
        "initialCD": 7.0,
        "publicCDGroup": "",
        "triggerGCD": false,
        "skillGroupCDID": 1,
        "HHAGODJIAPE": "",
        "stateIDs": ["SilkDodge"],
        "flagTargetReachable": "10",
        "flagSelfOnTemplateCollider": "01",
        "flagSelfInZone": "10",
        "flagTargetInZone": "11"
      },
      "21051": {
        "name": "SilkDodge",
        "castCondition": {
          "pose": [201]
        },
        "publicCDGroup": "",
        "triggerGCD": false,
        "HHAGODJIAPE": "",
        "stateIDs": ["SilkDodge"],
        "flagTargetReachable": "10",
        "flagSelfOnTemplateCollider": "01",
        "flagSelfInZone": "01",
        "flagTargetInZone": "11"
      },
      "2106": {
        "name": "RotateAttack",
        "priority": 3,
        "castCondition": {
          "pose": [201],
          "pickRangeMin": 5.0,
          "pickRangeMax": 10.0
        },
        "publicCDGroup": "",
        "skillGroupCDID": 4,
        "HHAGODJIAPE": "",
        "stateIDs": ["RotateAttack", "RotateAttack_Plus"],
        "flagTargetReachable": "10",
        "flagSelfOnTemplateCollider": "01",
        "flagSelfInZone": "10",
        "flagTargetInZone": "11"
      },
      "21061": {
        "name": "RotateAttack",
        "priority": 2,
        "castCondition": {
          "pose": [201],
          "pickRangeMin": 5.0,
          "pickRangeMax": 10.0,
          "globalValues": ["FarFromUpPos"],
          "globalValuesTargetType": "SELF"
        },
        "publicCDGroup": "",
        "skillGroupCDID": 4,
        "HHAGODJIAPE": "",
        "stateIDs": [
          "RotateAttack_BeforeMove",
          "RotateAttack",
          "RotateAttack_Plus"
        ],
        "flagTargetReachable": "10",
        "flagSelfOnTemplateCollider": "01",
        "flagSelfInZone": "10",
        "flagTargetInZone": "11"
      },
      "2107": {
        "name": "SilkAttack",
        "priority": 2,
        "castCondition": {
          "pose": [201, 202],
          "needReInitCD": true,
          "pickRangeMax": 10.0
        },
        "cd": 50.0,
        "initialCD": 15.0,
        "publicCDGroup": "",
        "HHAGODJIAPE": "",
        "stateIDs": [
          "SilkAttack_QuickSnap",
          "SilkAttack",
          "SilkAttack_Stop",
          "RotateAttack",
          "RotateAttack_Plus"
        ],
        "flagTargetReachable": "11",
        "flagSelfOnTemplateCollider": "01",
        "flagSelfInZone": "10",
        "flagTargetInZone": "11"
      },
      "2108": {
        "name": "DominateAttack",
        "priority": 3,
        "castCondition": {
          "pose": [201, 202],
          "pickRangeMax": 10.0,
          "skillAnchorRangeMax": 15.0
        },
        "cd": 20.0,
        "publicCDGroup": "",
        "HHAGODJIAPE": "",
        "stateIDs": ["DominateAttack"],
        "flagTargetReachable": "11",
        "flagSelfOnTemplateCollider": "01",
        "flagSelfInZone": "10",
        "flagTargetInZone": "11"
      },
      "21081": {
        "name": "DominateAttack",
        "priority": 3,
        "castCondition": {
          "pose": [201],
          "pickRangeMax": 7.0
        },
        "cd": 2.0,
        "publicCDGroup": "",
        "ignoreGCD": true,
        "triggerGCD": false,
        "HHAGODJIAPE": "",
        "stateIDs": ["FastMoveToAirTarget", "DominateAttack"],
        "flagTargetReachable": "01",
        "flagSelfOnTemplateCollider": "01",
        "flagSelfInZone": "10",
        "flagTargetInZone": "11"
      },
      "21082": {
        "name": "RotateAttack",
        "priority": 2,
        "castCondition": {
          "pose": [201],
          "pickRangeMin": 7.0,
          "pickRangeMax": 50.0
        },
        "publicCDGroup": "",
        "ignoreGCD": true,
        "triggerGCD": false,
        "HHAGODJIAPE": "",
        "stateIDs": ["RotateAttack", "RotateAttack_Plus"],
        "flagTargetReachable": "01",
        "flagSelfOnTemplateCollider": "01",
        "flagSelfInZone": "10",
        "flagTargetInZone": "11"
      },
      "2109": {
        "name": "ThrowAttack",
        "priority": 3,
        "castCondition": {
          "pose": [201, 202],
          "pickRangeMax": 10.0
        },
        "cd": 15.0,
        "publicCDGroup": "",
        "HHAGODJIAPE": "",
        "stateIDs": ["ThrowAttack_State2_First", "ThrowAttack_State2_Second"],
        "flagTargetReachable": "10",
        "flagSelfOnTemplateCollider": "01",
        "flagSelfInZone": "10",
        "flagTargetInZone": "11"
      },
      "2201": {
        "name": "SnapTurnState",
        "priority": 1,
        "castCondition": {
          "pose": [102]
        },
        "cd": 1.0,
        "publicCDGroup": "",
        "ignoreGCD": true,
        "HHAGODJIAPE": "",
        "stateIDs": [
          "Snap_BS_Select",
          "Snap_BeHit",
          "Snap_BS_Far",
          "Snap_BS_Near",
          "Snap_BS_Near_Move",
          "Snap",
          "Snap_UpSilkAttack"
        ],
        "flagTargetReachable": "11",
        "flagSelfOnTemplateCollider": "01",
        "flagSelfInZone": "10",
        "flagTargetInZone": "11"
      },
      "3001": {
        "name": "SnapTurnState",
        "priority": 1,
        "castCondition": {
          "pose": [301]
        },
        "cd": 1.0,
        "publicCDGroup": "",
        "ignoreGCD": true,
        "HHAGODJIAPE": "",
        "stateIDs": [
          "TurnToState3_Ready",
          "TurnToState3_BeHit",
          "TurnToState3_MoveNear_Move",
          "TurnToState3_MoveNear",
          "TurnToState3_MoveFar",
          "TurnToState3"
        ],
        "flagTargetReachable": "11",
        "flagSelfOnTemplateCollider": "01",
        "flagSelfInZone": "10",
        "flagTargetInZone": "11"
      },
      "1000": {
        "name": "LeftDodge",
        "priority": 3,
        "castCondition": {
          "pose": [101, 201],
          "pickRangeMax": 5.0,
          "skillAnchorRangeMax": 20.0
        },
        "initialCD": 7.0,
        "publicCDGroup": "",
        "triggerGCD": false,
        "skillGroupCDID": 1,
        "HHAGODJIAPE": "",
        "stateIDs": [
          "LeftDodge",
          "LeftDodge_Move",
          "LeftDodge_AS",
          "LeftDodge_RightMove",
          "NormalAtk1",
          "NormalAtk2",
          "NormalAtk3",
          "NormalAtk4",
          "NormalAtk5",
          "RushAtk1",
          "RushAtk2"
        ],
        "flagTargetReachable": "10",
        "flagSelfOnTemplateCollider": "01",
        "flagSelfInZone": "10",
        "flagTargetInZone": "11"
      },
      "1001": {
        "name": "RightDodge",
        "priority": 3,
        "castCondition": {
          "pose": [101, 201],
          "pickRangeMax": 5.0,
          "skillAnchorRangeMax": 20.0
        },
        "initialCD": 7.0,
        "publicCDGroup": "",
        "triggerGCD": false,
        "skillGroupCDID": 1,
        "HHAGODJIAPE": "",
        "stateIDs": [
          "RightDodge",
          "RightDodge_Move",
          "RightDodge_AS",
          "RightDodge_LeftMove",
          "NormalAtk1",
          "NormalAtk2",
          "NormalAtk3",
          "NormalAtk4",
          "NormalAtk5",
          "RushAtk1",
          "RushAtk2"
        ],
        "flagTargetReachable": "10",
        "flagSelfOnTemplateCollider": "01",
        "flagSelfInZone": "10",
        "flagTargetInZone": "11"
      }
    },
    "skillGCD": 0.5,
    "birdCirclingTactic": [
      {
        "$type": "NNJKLGNPMNN",
        "JMCOBEPDIGM": {
          "JFMIFLNBKMJ": 0.10000000149011612,
          "DHGJDIPNDHH": 1.7999999523162842,
          "MNPDDAKDHGK": "",
          "GJDMDHIBCME": ""
        }
      },
      {
        "$type": "KACCHOLJDNK",
        "enable": true,
        "condition": {
          "pose": [101, 103, 201, 202, 301]
        },
        "JMCOBEPDIGM": {
          "ANLAAGAMIKF": 1,
          "KHDFDAAAPEI": 8.0,
          "HKJODDGJPHA": 99.0,
          "GGEBMFHFBPO": 7.0,
          "KFFGCIMPNMJ": 0.0,
          "MNPDDAKDHGK": ""
        },
        "PIOCBHLFLJP": {
          "101": {
            "ANLAAGAMIKF": 1,
            "KHDFDAAAPEI": 8.0,
            "HKJODDGJPHA": 99.0,
            "GGEBMFHFBPO": 7.0,
            "KFFGCIMPNMJ": 0.0,
            "MNPDDAKDHGK": ""
          },
          "103": {
            "ANLAAGAMIKF": 1,
            "KHDFDAAAPEI": 3.0,
            "HKJODDGJPHA": 99.0,
            "KFFGCIMPNMJ": 0.0,
            "MNPDDAKDHGK": ""
          },
          "202": {
            "ANLAAGAMIKF": 1,
            "KHDFDAAAPEI": 3.0,
            "HKJODDGJPHA": 99.0,
            "KFFGCIMPNMJ": 0.0,
            "MNPDDAKDHGK": ""
          }
        }
      },
      {
        "$type": "BHAJDNINCHA",
        "enable": true,
        "condition": {
          "pose": [101, 201]
        },
        "JMCOBEPDIGM": {
          "GJIBHNEEAHC": [
            {
              "DKJGMPIHBKK": 90.0,
              "angularSpeed": 0.6000000238418579
            },
            {
              "DKJGMPIHBKK": 180.0,
              "angularSpeed": 1.0
            },
            {
              "DKJGMPIHBKK": 999.0,
              "angularSpeed": 1.5
            }
          ],
          "exitDistance": 8.0,
          "HCMBKOAJFMD": 3.0,
          "JDFOMLBJALG": 7.0,
          "FPAPDIOPEEF": 5.0,
          "OEDLGGJMKBO": 6.5,
          "DHFKFHDMCPL": 0.20000000298023224,
          "EOIBHGMFPCA": 1.0,
          "EEMGCCCIBBE": 1.5,
          "OMKDOFCLEHO": 30.0,
          "LMPLGMLIDHK": 50.0,
          "MNPDDAKDHGK": ""
        }
      }
    ]
  },
  "inputKeys": [
    {
      "keyID": 101,
      "inputKeyCode": 257,
      "abilityName": ""
    },
    {
      "keyID": 201,
      "inputKeyCode": 258,
      "abilityName": ""
    },
    {
      "keyID": 301,
      "inputKeyCode": 259,
      "abilityName": ""
    },
    {
      "keyID": 401,
      "inputKeyCode": 260,
      "abilityName": ""
    },
    {
      "keyID": 2101,
      "inputKeyCode": 261,
      "abilityName": ""
    },
    {
      "keyID": 2102,
      "inputKeyCode": 262,
      "abilityName": ""
    },
    {
      "keyID": 2103,
      "inputKeyCode": 263,
      "abilityName": ""
    },
    {
      "keyID": 2104,
      "inputKeyCode": 264,
      "abilityName": ""
    },
    {
      "keyID": 2105,
      "inputKeyCode": 265,
      "abilityName": ""
    },
    {
      "keyID": 1000,
      "inputKeyCode": 266,
      "abilityName": ""
    },
    {
      "keyID": 1001,
      "inputKeyCode": 267,
      "abilityName": ""
    },
    {
      "keyID": 2106,
      "inputKeyCode": 268,
      "abilityName": ""
    },
    {
      "keyID": 2107,
      "inputKeyCode": 269,
      "abilityName": ""
    },
    {
      "keyID": 2108,
      "inputKeyCode": 270,
      "abilityName": ""
    },
    {
      "keyID": 2201,
      "inputKeyCode": 271,
      "abilityName": ""
    },
    {
      "keyID": 2109,
      "inputKeyCode": 272,
      "abilityName": ""
    },
    {
      "keyID": 10001,
      "inputKeyCode": 273,
      "abilityName": ""
    }
  ],
  "move": {
    "$type": "IPNMJMHDMPF",
    "velocityForce": {
      "includeForces": ["RushMoveType", "RetreatType", "FixedRushMoveType"]
    },
    "initWithGroundHitCheckV2": false,
    "facingMove": "FourDirection",
    "positionModifyState": "Walk",
    "yawSpeedRatio": 0.5,
    "PKHOMJHFAEE": "RootNode"
  },
  "audio": {
    "overrideEmitterName": "",
    "animAudio": {
      "onTransitionIn": [
        {
          "currentStateName": "Alert",
          "audioEvent": {
            "text": "Set_NihilBoss01_stage2"
          }
        },
        {
          "currentStateName": "Alert",
          "audioEvent": {
            "text": "Set_Nihil_Music_P1_2"
          }
        },
        {
          "currentStateName": "TurnToState3",
          "audioEvent": {
            "text": "Set_NihilBoss01_stage3"
          }
        },
        {
          "currentStateName": "TurnToState3",
          "audioEvent": {
            "text": "Set_Nihil_Music_CS"
          }
        },
        {
          "currentStateName": "SilkAttack_Stop",
          "audioEvent": {
            "text": "Stop_Sfx_Nihil_Skills_Stage12"
          }
        }
      ],
      "onTransitionOut": [
        {
          "currentStateName": "Weak_Loop",
          "audioEvent": {
            "text": "Stop_sfx_monster_Nada_weak_Loop"
          },
          "otherStateNames": ["Weak_Loop"],
          "usage": "Except"
        }
      ]
    },
    "enableEvent": {
      "text": "Set_Nihil_LimitInstances_20"
    },
    "disableEvent": {
      "text": "Reset_Nihil_LimitInstances_20"
    },
    "destroyEvent": {
      "text": "Reset_Nihil_LimitInstances_20"
    },
    "behaviours": [
      {
        "$type": "BILJOKAHFPL",
        "coolDown": 5.0,
        "BGIEINMDECM": {
          "$type": "IFGMCBBGLDI",
          "LIHPNFLLKDA": {
            "$type": "LFOALDLDGDN"
          },
          "ACMFKGCEPBN": {
            "$type": "IFGMCBBGLDI",
            "LIHPNFLLKDA": {
              "$type": "EAIMKFLEHCC"
            },
            "ACMFKGCEPBN": {
              "$type": "JOPFGOEOKPH",
              "target": {
                "$type": "OJKONELIJJC"
              }
            }
          }
        },
        "onKill": [
          {
            "$type": "DELPJNMAIHM",
            "OPEMPFCFHMO": "__DefaultSync__",
            "action": {
              "$type": "CPBMHBHJPKE",
              "eventName": {
                "text": "Play_vo_monster_arlecchino_general_characterDie_01"
              }
            }
          }
        ]
      }
    ]
  },
  "cameraAdjustMap": {
    "default": {
      "$type": "NJCCPGFPIHI",
      "priority": 1.0,
      "exitRadius": 30.0,
      "fov": 35.0,
      "zoom": 6.0,
      "sphericalY": 6.0,
      "lockSphericalY": false,
      "sphericalYUp": 50.0,
      "sphericalYDown": 50.0,
      "autoTurnStartMin": 150.0,
      "autoTurnStartMax": 180.0,
      "autoTurnEndMin": 150.0,
      "autoTurnEndMax": 180.0,
      "enterShape": "CircleR150",
      "exitShape": "CircleR150",
      "enableSafeEnterExit": true,
      "enableHandleResetBackward": true,
      "blendDuration": 2.0,
      "CIJLABMEGDC": 21
    },
    "MiddleFar": {
      "$type": "NLDOMMCPFHD",
      "priority": 1.0,
      "fov": 38.0,
      "enterShape": "CircleR150",
      "exitShape": "CircleR150",
      "enableSafeEnterExit": true,
      "enableHandleResetBackward": true,
      "CIJLABMEGDC": 21,
      "lockPoint": "Body",
      "forwardMaxAngle": 20.0,
      "forwardMaxAngleExtra": 30.0,
      "forwardAdjustMinSpeed": 30.0,
      "forwardAdjustMaxSpeed": 60.0,
      "enemyWeight": 0.30000001192092896,
      "zoomMin": 15.0,
      "zoomMax": 15.0,
      "enemyPosTolerateRange": 1.0,
      "enableHandleInput": true,
      "DDNHHEMHKEA": 0.0
    },
    "UptoSilk": {
      "$type": "NJCCPGFPIHI",
      "priority": 1.0,
      "fov": 38.0,
      "zoom": 9.0,
      "sphericalY": 1.0,
      "lockSphericalY": false,
      "enterShape": "CircleR150",
      "exitShape": "CircleR150",
      "enableSafeEnterExit": true,
      "enableHandleResetBackward": true,
      "blendDuration": 0.699999988079071
    },
    "FarCamera": {
      "$type": "NJCCPGFPIHI",
      "priority": 1.0,
      "exitRadius": 30.0,
      "heightAdjust": 2.0,
      "fov": 47.5,
      "zoom": 12.0,
      "sphericalY": 12.0,
      "lockSphericalY": false,
      "sphericalYUp": 50.0,
      "sphericalYDown": 50.0,
      "autoTurnStartMin": 50.0,
      "autoTurnStartMax": 40.0,
      "autoTurnEndMin": 100.0,
      "autoTurnEndMax": 145.0,
      "enterShape": "CircleR150",
      "exitShape": "CircleR150",
      "enableSafeEnterExit": true,
      "enableHandleResetBackward": true,
      "blendDuration": 1.0,
      "CIJLABMEGDC": 21
    },
    "NormalLook": {
      "$type": "NLDOMMCPFHD",
      "priority": 1.0,
      "fov": 35.0,
      "sphericalY": 6.0,
      "sphericalYUp": 50.0,
      "sphericalYDown": 50.0,
      "enterShape": "CircleR150",
      "exitShape": "CircleR150",
      "enableSafeEnterExit": true,
      "enableHandleResetBackward": true,
      "CIJLABMEGDC": 21,
      "lockPoint": "Body",
      "forwardMaxAngle": 5.0,
      "forwardMaxAngleExtra": 10.0,
      "forwardAdjustMinSpeed": 60.0,
      "enemyWeight": 0.10000000149011612,
      "zoomMax": 6.0,
      "enemyPosTolerateRange": 1.0,
      "enableHandleInput": true,
      "enableInterruptByInput": true,
      "DDNHHEMHKEA": 0.0
    }
  }
}
