{
  "common": {
    "effectAttachShape": {
      "$type": "FJNPJANPGGC",
      "mesh": "EffectMesh"
    },
    "mass": 150.0,
    "height": 1.2999999523162842,
    "modelHeight": 1.2999999523162842,
    "shadowViewSizeRatio": 3.0,
    "affectedByWorld": true,
    "checkInSurface": true,
    "scale": 1.2000000476837158,
    "shouldPauseAnimatorBeforeReady": true,
    "useGrassDisplacement": true,
    "reconnectSupport": true,
    "recoverByInitPose": true
  },
  "headControl": {
    "$type": "KPIPDEBDPIH",
    "useHeadControl": true,
    "animStates": [
      "NormalIdle/Standby",
      "NormalMove/WalkForward",
      "Turn/TurnLeft",
      "Turn/TurnRight"
    ]
  },
  "model": {
    "bornEffect": "Eff_Monster_Common_Born",
    "attachEffect": "",
    "canBakeMesh": false,
    "BKPFGNPLDNJ": ""
  },
  "dither": {
    "showDitherDuration": 2.0
  },
  "combat": {
    "property": {
      "endureType": "Monster_Demiboss_Humanoid",
      "weight": 100.0
    },
    "beHit": {
      "hitBloodEffect": ""
    },
    "combatLock": {
      "lockShape": "CircleLockEnemy",
      "lockType": "Avatar&Monster_Lv4"
    },
    "die": {
      "hasAnimatorDie": true,
      "dieEndTime": 1.0,
      "dieForceDisappearTime": 1.0,
      "dieDisappearEffect": "Eff_Animal_Capybara_Nyx_Die",
      "dieShaderData": "MonsterWayobDie",
      "ragDollDieEndTimeDelay": 0.5,
      "muteHitBox": true,
      "dieDenyLockOn": true,
      "dieIsGhostToEnemy": true,
      "dieIgnoreTriggerBullet": true,
      "muteBillboard": true,
      "mutePushCollider": true
    },
    "animEvents": {
      "NormalAtk01": {
        "attackPattern": {
          "$type": "ConfigAttackCircle",
          "triggerType": "TriggerNoRepeat",
          "born": {
            "$type": "ConfigBornBySelf",
            "offset": {
              "x": 0.0,
              "y": -0.5,
              "z": 0.30000001192092896
            },
            "useRotation": true
          },
          "height": 3.0,
          "fanAngle": 180.0,
          "radius": 2.0
        },
        "attackInfo": {
          "attackTag": "",
          "attenuationTag": "",
          "attenuationGroup": "default",
          "attackProperty": {
            "actorGrassSubHurtDelta": 1.0,
            "actorWindSubHurtDelta": 0.0,
            "elementDurability": 25.0,
            "strikeType": "Blunt",
            "enBreak": 25.0,
            "attackType": "Melee",
            "GLKMCMDJBIK": 0.0
          },
          "hitPattern": {
            "onHitEffectName": "default",
            "hitImpulseY": "",
            "hitImpulseType": "LV3"
          }
        }
      },
      "NormalAtk02": {
        "attackPattern": {
          "$type": "ConfigAttackCircle",
          "triggerType": "TriggerNoRepeat",
          "born": {
            "$type": "ConfigBornBySelf",
            "offset": {
              "x": 0.3199999928474426,
              "y": -0.5,
              "z": 1.2200000286102295
            },
            "useRotation": true
          },
          "height": 2.200000047683716,
          "fanAngle": 180.0,
          "radius": 2.450000047683716
        },
        "attackInfo": {
          "attackTag": "",
          "attenuationTag": "",
          "attenuationGroup": "default",
          "attackProperty": {
            "actorGrassSubHurtDelta": 1.0,
            "actorWindSubHurtDelta": 0.0,
            "elementDurability": 25.0,
            "strikeType": "Blunt",
            "enBreak": 25.0,
            "attackType": "Melee",
            "GLKMCMDJBIK": 0.0
          },
          "hitPattern": {
            "onHitEffectName": "default",
            "hitImpulseY": "",
            "hitImpulseType": "LV3"
          }
        }
      },
      "NormalAtk03": {
        "attackPattern": {
          "$type": "ConfigAttackCircle",
          "triggerType": "TriggerNoRepeat",
          "born": {
            "$type": "ConfigBornBySelf",
            "offset": {
              "x": 0.0,
              "y": -0.5,
              "z": 0.44999998807907104
            },
            "useRotation": true
          },
          "height": 3.0,
          "fanAngle": 180.0,
          "radius": 2.0
        },
        "attackInfo": {
          "attackTag": "",
          "attenuationTag": "",
          "attenuationGroup": "default",
          "attackProperty": {
            "actorGrassSubHurtDelta": 1.0,
            "actorWindSubHurtDelta": 0.0,
            "elementDurability": 25.0,
            "strikeType": "Blunt",
            "enBreak": 25.0,
            "attackType": "Melee",
            "GLKMCMDJBIK": 0.0
          },
          "hitPattern": {
            "onHitEffectName": "default",
            "hitImpulseY": "",
            "hitImpulseType": "LV3"
          }
        }
      }
    }
  },
  "abilities": [
    {
      "abilityID": "",
      "abilityName": "Animal_Capybara_Nyx_Pose",
      "abilityOverride": ""
    },
    {
      "abilityID": "",
      "abilityName": "Animal_Capybara_Nyx_Endure",
      "abilityOverride": ""
    },
    {
      "abilityID": "",
      "abilityName": "Animal_Capybara_Nyx_Endure_Add",
      "abilityOverride": ""
    },
    {
      "abilityID": "",
      "abilityName": "Animal_Capybara_Nyx_Endure_Remove",
      "abilityOverride": ""
    },
    {
      "abilityID": "",
      "abilityName": "Animal_Capybara_Nyx_Steer",
      "abilityOverride": ""
    },
    {
      "abilityID": "",
      "abilityName": "Animal_Capybara_Nyx_Alert",
      "abilityOverride": ""
    },
    {
      "abilityID": "",
      "abilityName": "Animal_Capybara_Nyx_InitialConfig",
      "abilityOverride": ""
    },
    {
      "abilityID": "",
      "abilityName": "Animal_Capybara_Nyx_NormalAtk_Random",
      "abilityOverride": ""
    },
    {
      "abilityID": "",
      "abilityName": "Animal_Capybara_Nyx_NormalAtk_Rush",
      "abilityOverride": ""
    },
    {
      "abilityID": "",
      "abilityName": "Animal_Capybara_Nyx_NormalAtk02_FollowBullet",
      "abilityOverride": ""
    },
    {
      "abilityID": "",
      "abilityName": "Animal_Capybara_Nyx_NormalAtk04",
      "abilityOverride": ""
    },
    {
      "abilityID": "",
      "abilityName": "Animal_Capybara_Nyx_NormalAtk04_Combo",
      "abilityOverride": ""
    },
    {
      "abilityID": "",
      "abilityName": "Animal_Capybara_Nyx_NormalAtk04_FollowBullet",
      "abilityOverride": ""
    },
    {
      "abilityID": "",
      "abilityName": "Animal_Capybara_Nyx_NormalAtk04_FollowBullet_Kill",
      "abilityOverride": ""
    },
    {
      "abilityID": "",
      "abilityName": "Animal_Capybara_Nyx_NormalToRage",
      "abilityOverride": ""
    },
    {
      "abilityID": "",
      "abilityName": "Animal_Capybara_Nyx_RageAtk",
      "abilityOverride": ""
    },
    {
      "abilityID": "",
      "abilityName": "Animal_Capybara_Nyx_RageAtk_03",
      "abilityOverride": ""
    }
  ],
  "stateLayers": {
    "defaultLayer": {
      "$type": "GBGJJIIEMBD",
      "layerIndexName": "",
      "CPAANEIJCGD": "",
      "stateIDs": {
        "Born": {
          "$type": "NEDIFAKEGCO",
          "animatorStates": {
            "Born": []
          },
          "canDoSkill": true,
          "resetAnimatorTriggerOnExit": ["DoSkill"]
        },
        "Lie": {
          "$type": "NEDIFAKEGCO",
          "animatorStates": {
            "Lie": []
          },
          "canDoSkill": true,
          "canSyncMove": true,
          "resetAnimatorTriggerOnExit": ["DoSkill"]
        },
        "NormalIdle": {
          "$type": "NEDIFAKEGCO",
          "animatorStates": {
            "Standby": []
          },
          "canDoSkill": true,
          "canSyncMove": true,
          "resetAnimatorTriggerOnExit": ["DoSkill"]
        },
        "NormalMove": {
          "$type": "NEDIFAKEGCO",
          "animatorStates": {
            "WalkForward": ["Audio_Sfx_Animal_Capybara_Nyx_01_WalkForward"]
          },
          "canDoSkill": true,
          "canSyncMove": true,
          "resetAnimatorTriggerOnExit": ["DoSkill"]
        },
        "Turn": {
          "$type": "NEDIFAKEGCO",
          "animatorStates": {
            "TurnLeft": [],
            "TurnRight": []
          },
          "canDoSkill": true,
          "canSyncMove": true,
          "resetAnimatorTriggerOnExit": ["DoSkill"],
          "canSteer": true,
          "followAnimRotation": true
        },
        "BeHit": {
          "$type": "NEDIFAKEGCO",
          "animatorStates": {
            "Hit_L": ["Audio_Animal_Capybara_Nyx_01_Hit_L"],
            "Hit_H": ["Audio_Animal_Capybara_Nyx_01_Hit_H"]
          },
          "resetAnimatorTriggerOnEnter": ["BeHit"],
          "resetAnimatorTriggerOnExit": ["DoSkill"]
        },
        "BeHitThrow": {
          "$type": "NEDIFAKEGCO",
          "animatorStates": {
            "HitThrow": [],
            "HitThrowDrop": [],
            "HitThrowToGround": [
              "Audio_Animal_Capybara_Nyx_01_HitThrowToGround"
            ]
          },
          "resetAnimatorTriggerOnEnter": ["BeHit", "HitAir2HitDrop"],
          "resetAnimatorTriggerOnExit": ["DoSkill"]
        },
        "Struggle": {
          "$type": "NEDIFAKEGCO",
          "animatorStates": {
            "Struggle": []
          },
          "resetAnimatorTriggerOnEnter": ["BeHit", "HitAir2HitDrop"],
          "resetAnimatorTriggerOnExit": ["DoSkill"]
        },
        "Die": {
          "$type": "NEDIFAKEGCO",
          "animatorStates": {
            "Die": ["Audio_Animal_Capybara_Nyx_01_Die"],
            "SwimDie": [],
            "AirDie": []
          },
          "resetAnimatorTriggerOnEnter": ["DoSkill"]
        },
        "Alert": {
          "$type": "NEDIFAKEGCO",
          "animatorStates": {
            "Alert_BS": ["Audio_Animal_Capybara_Nyx_01_Alert_BS"],
            "Alert": ["Audio_Animal_Capybara_Nyx_01_Alert"]
          },
          "resetAnimatorTriggerOnExit": ["BeHit", "DoSkill"]
        },
        "Scratch": {
          "$type": "NEDIFAKEGCO",
          "animatorStates": {
            "Scratch": ["Audio_Animal_Capybara_Nyx_01_Scratch"]
          },
          "canDoSkill": true,
          "resetAnimatorTriggerOnExit": ["BeHit", "DoSkill"]
        },
        "NormalAtk01": {
          "$type": "NEDIFAKEGCO",
          "animatorStates": {
            "NormalAtk01": [
              "Animal_Capybara_Nyx_NormalAtk01",
              "Audio_Animal_Capybara_Nyx_01_NormalAtk01"
            ]
          },
          "resetAnimatorTriggerOnExit": ["BeHit", "DoSkill"],
          "canSteer": true
        },
        "NormalAtk_Rest": {
          "$type": "NEDIFAKEGCO",
          "animatorStates": {
            "NormalAtk_Rest": ["Audio_Animal_Capybara_Nyx_01_NormalAtk_Reset"]
          },
          "resetAnimatorTriggerOnExit": ["BeHit", "DoSkill"],
          "canSteer": true
        },
        "NormalAtk03": {
          "$type": "NEDIFAKEGCO",
          "animatorStates": {
            "NormalAtk03": [
              "Animal_Capybara_Nyx_NormalAtk03",
              "Audio_Animal_Capybara_Nyx_01_NormalAtk03"
            ]
          },
          "resetAnimatorTriggerOnExit": ["BeHit", "DoSkill"],
          "canSteer": true
        },
        "NormalAtk02_BS": {
          "$type": "NEDIFAKEGCO",
          "animatorStates": {
            "NormalAtk02_BS": ["Audio_Animal_Capybara_Nyx_01_NormalAtk02_BS"]
          },
          "canSyncMove": true,
          "resetAnimatorTriggerOnExit": ["BeHit", "DoSkill"],
          "canSteer": true
        },
        "NormalAtk02_Loop": {
          "$type": "NEDIFAKEGCO",
          "animatorStates": {
            "NormalAtk02_Loop": []
          },
          "canSyncMove": true,
          "resetAnimatorTriggerOnExit": ["BeHit", "DoSkill"],
          "canSteer": true
        },
        "NormalAtk02_AS1": {
          "$type": "NEDIFAKEGCO",
          "animatorStates": {
            "NormalAtk02_AS1": ["Audio_Animal_Capybara_Nyx_01_NormalAtk02_AS1"]
          },
          "canSyncMove": true,
          "resetAnimatorTriggerOnExit": ["BeHit", "DoSkill"],
          "canSteer": true
        },
        "NormalAtk02_AS2": {
          "$type": "NEDIFAKEGCO",
          "animatorStates": {
            "NormalAtk02_AS2": [
              "Animal_Capybara_Nyx_NormalAtk02_AS2",
              "Audio_Animal_Capybara_Nyx_01_NormalAtk02_AS2"
            ]
          },
          "canSyncMove": true,
          "resetAnimatorTriggerOnExit": ["BeHit", "DoSkill"]
        },
        "NormalAtk04_1": {
          "$type": "NEDIFAKEGCO",
          "animatorStates": {
            "NormalAtk04_1": [
              "Animal_Capybara_Nyx_NormalAtk04",
              "Audio_Animal_Capybara_Nyx_01_NormalAtk04_1"
            ]
          },
          "canSyncMove": true,
          "resetAnimatorTriggerOnExit": ["BeHit", "DoSkill"]
        },
        "NormalAtk04_2": {
          "$type": "NEDIFAKEGCO",
          "animatorStates": {
            "NormalAtk04_2": [
              "Animal_Capybara_Nyx_NormalAtk04",
              "Audio_Animal_Capybara_Nyx_01_NormalAtk04_2"
            ]
          },
          "canSyncMove": true,
          "resetAnimatorTriggerOnExit": ["BeHit", "DoSkill"]
        },
        "NormalToRage_BS1": {
          "$type": "NEDIFAKEGCO",
          "animatorStates": {
            "NormalToRage_BS1": ["Audio_Animal_Capybara_Nyx_01_NormalToRage_BS"]
          },
          "resetAnimatorTriggerOnExit": ["BeHit", "DoSkill"],
          "canSteer": true
        },
        "NormalToRage_BS2": {
          "$type": "NEDIFAKEGCO",
          "animatorStates": {
            "NormalToRage_BS2": []
          },
          "resetAnimatorTriggerOnExit": ["BeHit", "DoSkill"],
          "canSteer": true
        },
        "NormalToRage_Loop": {
          "$type": "NEDIFAKEGCO",
          "animatorStates": {
            "NormalToRage_Loop": []
          },
          "resetAnimatorTriggerOnExit": ["BeHit", "DoSkill"],
          "canSteer": true
        },
        "NormalToRage_AS1": {
          "$type": "NEDIFAKEGCO",
          "animatorStates": {
            "NormalToRage_AS1": [
              "Audio_Animal_Capybara_Nyx_01_NormalToRage_AS_1"
            ]
          },
          "resetAnimatorTriggerOnExit": ["BeHit", "DoSkill"],
          "canSteer": true
        },
        "NormalToRage_AS2": {
          "$type": "NEDIFAKEGCO",
          "animatorStates": {
            "NormalToRage_AS2": [
              "Animal_Capybara_Nyx_NormalToRage_AS2",
              "Audio_Animal_Capybara_Nyx_01_NormalToRage_AS_2"
            ]
          },
          "resetAnimatorTriggerOnExit": ["BeHit", "DoSkill"],
          "canSteer": true
        },
        "NormalToRage_BeHit": {
          "$type": "NEDIFAKEGCO",
          "animatorStates": {
            "NormalToRage_BeHit": [
              "Audio_Animal_Capybara_Nyx_01_NormalAtk_Reset"
            ]
          },
          "resetAnimatorTriggerOnExit": ["BeHit", "DoSkill"],
          "canSteer": true
        },
        "NormalToRage_Weak": {
          "$type": "NEDIFAKEGCO",
          "animatorStates": {
            "NormalToRage_Weak_BS": [
              "Audio_Animal_Capybara_Nyx_01_NormalToRage_Weak_BS"
            ],
            "NormalToRage_Weak_Loop": [],
            "NormalToRage_Weak_AS": [
              "Audio_Animal_Capybara_Nyx_01_NormalToRage_Weak_AS"
            ]
          },
          "resetAnimatorTriggerOnExit": ["BeHit", "DoSkill"],
          "canSteer": true
        },
        "RageAtk_BS1": {
          "$type": "NEDIFAKEGCO",
          "animatorStates": {
            "RageAtk_BS1": [
              "Animal_Capybara_Nyx_RageAtk_BS1",
              "Audio_Animal_Capybara_Nyx_01_RageAtk_BS"
            ]
          },
          "resetAnimatorTriggerOnExit": ["BeHit", "DoSkill"],
          "canSteer": true
        },
        "RageAtk_BS2": {
          "$type": "NEDIFAKEGCO",
          "animatorStates": {
            "RageAtk_BS2": [
              "Animal_Capybara_Nyx_RageAtk_BS2",
              "Audio_Animal_Capybara_Nyx_01_RageAtk_BS"
            ]
          },
          "resetAnimatorTriggerOnExit": ["BeHit", "DoSkill"],
          "canSteer": true
        },
        "RageAtk_BS3": {
          "$type": "NEDIFAKEGCO",
          "animatorStates": {
            "RageAtk_BS3": [
              "Animal_Capybara_Nyx_RageAtk_BS3",
              "Audio_Animal_Capybara_Nyx_01_RageAtk_BS"
            ]
          },
          "resetAnimatorTriggerOnExit": ["BeHit", "DoSkill"],
          "canSteer": true
        },
        "RageAtk_Loop1": {
          "$type": "NEDIFAKEGCO",
          "animatorStates": {
            "RageAtk_Loop1": []
          },
          "resetAnimatorTriggerOnExit": ["BeHit", "DoSkill"],
          "canSteer": true
        },
        "RageAtk_Loop2": {
          "$type": "NEDIFAKEGCO",
          "animatorStates": {
            "RageAtk_Loop2": []
          },
          "resetAnimatorTriggerOnExit": ["BeHit", "DoSkill"],
          "canSteer": true
        },
        "RageAtk_Loop3": {
          "$type": "NEDIFAKEGCO",
          "animatorStates": {
            "RageAtk_Loop3": []
          },
          "resetAnimatorTriggerOnExit": ["BeHit", "DoSkill"],
          "canSteer": true
        },
        "RageAtk_AS1": {
          "$type": "NEDIFAKEGCO",
          "animatorStates": {
            "RageAtk_AS1": [
              "Animal_Capybara_Nyx_RageAtk_AS1",
              "Audio_Animal_Capybara_Nyx_01_RageAtk_AS"
            ]
          },
          "resetAnimatorTriggerOnExit": ["BeHit", "DoSkill"],
          "canSteer": true
        },
        "RageAtk_AS2": {
          "$type": "NEDIFAKEGCO",
          "animatorStates": {
            "RageAtk_AS2": [
              "Animal_Capybara_Nyx_RageAtk_AS2",
              "Audio_Animal_Capybara_Nyx_01_RageAtk_AS"
            ]
          },
          "resetAnimatorTriggerOnExit": ["BeHit", "DoSkill"],
          "canSteer": true
        },
        "RageAtk_AS3": {
          "$type": "NEDIFAKEGCO",
          "animatorStates": {
            "RageAtk_AS3": [
              "Animal_Capybara_Nyx_RageAtk_AS3",
              "Audio_Animal_Capybara_Nyx_01_RageAtk_AS"
            ]
          },
          "resetAnimatorTriggerOnExit": ["BeHit", "DoSkill"],
          "canSteer": true
        }
      }
    }
  },
  "billboard": {
    "$type": "DNGNMAJBCNP",
    "attachPoint": "BillboardAttach",
    "offset": {
      "y": -1.0
    },
    "offsetType": "Character",
    "radiusOffset": 1.0,
    "showHPBar": true
  },
  "initialPoses": {
    "Default": {
      "initialPoseID": 1
    }
  },
  "aibeta": {
    "enable": true,
    "sensing": {
      "settings": {
        "DefaultSetting": {
          "enableVision": false,
          "viewRange": 20.0,
          "feelRange": 10.0
        },
        "NeverCombat": {
          "enableVision": false,
          "hearAttractionRange": 0.0,
          "feelRange": 0.0
        }
      },
      "templates": {
        "DefaultTemplate": {
          "DefaultPoses": "DefaultSetting"
        },
        "NeverCombatTemplate": {
          "DefaultPoses": "NeverCombat"
        }
      }
    },
    "neurons": {
      "DefaultSetting": ["HIT"],
      "NeverCombat": []
    },
    "threat": {
      "GHIJMOKOLMB": "",
      "clearThreatTargetDistance": 100.0,
      "clearThreatEdgeDistance": 5.0,
      "clearThreatTimerByDistance": 5.0,
      "viewThreatGrow": 20.0,
      "resistTauntLevel": "Monster_TauntLevel_5",
      "forceAlertByDefendArea": true
    },
    "defendArea": {
      "defendRange": 50.0
    },
    "network": {
      "syncSkill": true
    },
    "skillGroupCDConfigs": [
      {
        "skillGroupCDID": 0,
        "skillGroupCDTime": 4.0
      },
      {
        "skillGroupCDID": 1,
        "skillGroupCDTime": 5.0
      },
      {
        "skillGroupCDID": 2,
        "skillGroupCDTime": 10.0
      },
      {
        "skillGroupCDID": 3,
        "skillGroupCDTime": 5.0
      }
    ],
    "skills": {
      "101": {
        "name": "OnAlert",
        "skillType": "OnAlert",
        "publicCDGroup": "",
        "ignoreGCD": true,
        "triggerGCD": false,
        "HHAGODJIAPE": "",
        "stateIDs": ["Alert"],
        "skillQueryingTime": 3.0,
        "flagTargetReachable": "10",
        "flagSelfOnTemplateCollider": "01",
        "flagSelfInZone": "10",
        "flagTargetInZone": "11"
      },
      "111": {
        "name": "Scratch",
        "skillType": "Free",
        "castCondition": {
          "pose": [1]
        },
        "cd": 7.0,
        "cdUpperRange": 5.0,
        "initialCD": 3.0,
        "publicCDGroup": "",
        "HHAGODJIAPE": "",
        "stateIDs": ["Scratch"],
        "flagTargetReachable": "10",
        "flagSelfOnTemplateCollider": "01",
        "flagSelfInZone": "10",
        "flagTargetInZone": "11"
      },
      "201": {
        "name": "NormalAtk01",
        "combatSkillType": "MeleeAttack",
        "priority": 3,
        "castCondition": {
          "pose": [101],
          "maxTargetAngleXZ": 100.0,
          "pickRangeMax": 5.5,
          "castRangeMax": 5.5
        },
        "cd": 7.5,
        "cdUpperRange": 5.0,
        "initialCD": 1.0,
        "initialCDUpperRange": 4.0,
        "publicCDGroup": "",
        "skillGroupCDID": 0,
        "HHAGODJIAPE": "",
        "stateIDs": ["NormalAtk01", "NormalAtk_Rest", "NormalAtk03"],
        "skillQueryingTime": 3.0,
        "flagTargetReachable": "11",
        "flagSelfOnTemplateCollider": "01",
        "flagSelfInZone": "11",
        "flagTargetInZone": "11"
      },
      "211": {
        "name": "NormalAtk02",
        "combatSkillType": "MeleeAttack",
        "priority": 3,
        "castCondition": {
          "pose": [101],
          "pickRangeMin": 9.5,
          "pickRangeMax": 15.5,
          "pickRangeYMax": 2.0,
          "castRangeMin": 9.5,
          "castRangeMax": 15.5
        },
        "cd": 7.5,
        "cdUpperRange": 5.0,
        "initialCD": 1.0,
        "initialCDUpperRange": 4.0,
        "publicCDGroup": "",
        "skillGroupCDID": 1,
        "HHAGODJIAPE": "",
        "stateIDs": [
          "NormalAtk02_BS",
          "NormalAtk02_Loop",
          "NormalAtk02_AS1",
          "NormalAtk02_AS2"
        ],
        "skillQueryingTime": 3.0,
        "flagTargetReachable": "10",
        "flagSelfOnTemplateCollider": "01",
        "flagSelfInZone": "11",
        "flagTargetInZone": "11"
      },
      "212": {
        "name": "NormalAtk02",
        "combatSkillType": "MeleeAttack",
        "priority": 2,
        "castCondition": {
          "pose": [101],
          "pickRangeMin": 15.5,
          "pickRangeMax": 25.0,
          "pickRangeYMax": 2.0,
          "castRangeMin": 15.5,
          "castRangeMax": 25.0
        },
        "cd": 7.5,
        "cdUpperRange": 5.0,
        "initialCD": 1.0,
        "initialCDUpperRange": 4.0,
        "publicCDGroup": "",
        "HHAGODJIAPE": "",
        "stateIDs": [
          "NormalAtk02_BS",
          "NormalAtk02_Loop",
          "NormalAtk02_AS1",
          "NormalAtk02_AS2"
        ],
        "skillQueryingTime": 3.0,
        "flagTargetReachable": "10",
        "flagSelfOnTemplateCollider": "01",
        "flagSelfInZone": "11",
        "flagTargetInZone": "11"
      },
      "221": {
        "name": "NormalAtk03",
        "combatSkillType": "MeleeAttack",
        "priority": 3,
        "castCondition": {
          "pose": [101],
          "maxTargetAngleXZ": 100.0,
          "pickRangeMax": 5.5,
          "castRangeMax": 5.5
        },
        "cd": 7.5,
        "cdUpperRange": 5.0,
        "initialCD": 1.0,
        "initialCDUpperRange": 4.0,
        "publicCDGroup": "",
        "skillGroupCDID": 0,
        "HHAGODJIAPE": "",
        "stateIDs": ["NormalAtk01", "NormalAtk_Rest", "NormalAtk03"],
        "skillQueryingTime": 3.0,
        "flagTargetReachable": "11",
        "flagSelfOnTemplateCollider": "01",
        "flagSelfInZone": "11",
        "flagTargetInZone": "11"
      },
      "231": {
        "name": "NormalAtk04",
        "combatSkillType": "MeleeAttack",
        "priority": 4,
        "castCondition": {
          "pose": [101],
          "maxTargetAngleXZ": 90.0,
          "pickRangeMax": 5.5,
          "castRangeMax": 5.5
        },
        "cd": 7.5,
        "cdUpperRange": 5.0,
        "initialCD": 1.0,
        "initialCDUpperRange": 4.0,
        "publicCDGroup": "",
        "skillGroupCDID": 3,
        "HHAGODJIAPE": "",
        "stateIDs": ["NormalAtk04_1", "NormalAtk04_2"],
        "skillQueryingTime": 3.0,
        "flagTargetReachable": "10",
        "flagSelfOnTemplateCollider": "01",
        "flagSelfInZone": "11",
        "flagTargetInZone": "11"
      },
      "232": {
        "name": "NormalAtk04",
        "combatSkillType": "MeleeAttack",
        "priority": 3,
        "castCondition": {
          "pose": [101],
          "maxTargetAngleXZ": 90.0,
          "pickRangeMin": 5.5,
          "pickRangeMax": 10.5,
          "castRangeMin": 5.5,
          "castRangeMax": 10.5
        },
        "cd": 7.5,
        "cdUpperRange": 5.0,
        "initialCD": 1.0,
        "initialCDUpperRange": 4.0,
        "publicCDGroup": "",
        "skillGroupCDID": 3,
        "HHAGODJIAPE": "",
        "stateIDs": ["NormalAtk04_1", "NormalAtk04_2"],
        "skillQueryingTime": 3.0,
        "flagTargetReachable": "10",
        "flagSelfOnTemplateCollider": "01",
        "flagSelfInZone": "11",
        "flagTargetInZone": "11"
      },
      "301": {
        "name": "NormalToRage",
        "combatSkillType": "MeleeAttack",
        "priority": 1,
        "castCondition": {
          "pose": [101],
          "needReInitCD": true
        },
        "cd": 15.0,
        "cdUpperRange": 5.0,
        "initialCD": 20.0,
        "publicCDGroup": "",
        "ignoreGCD": true,
        "triggerCDOnFail": false,
        "HHAGODJIAPE": "",
        "stateIDs": [
          "NormalToRage_BS1",
          "NormalToRage_BS2",
          "NormalToRage_Loop",
          "NormalToRage_AS1",
          "NormalToRage_AS2",
          "NormalToRage_BeHit",
          "NormalToRage_Weak",
          "RageAtk_BS1",
          "RageAtk_BS2",
          "RageAtk_BS3",
          "RageAtk_Loop1",
          "RageAtk_Loop2",
          "RageAtk_Loop3",
          "RageAtk_AS1",
          "RageAtk_AS2",
          "RageAtk_AS3"
        ],
        "skillQueryingTime": 3.0,
        "flagTargetReachable": "11",
        "flagSelfOnTemplateCollider": "01",
        "flagSelfInZone": "11",
        "flagTargetInZone": "11"
      },
      "401": {
        "name": "RageAtk",
        "combatSkillType": "MeleeAttack",
        "priority": 1,
        "castCondition": {
          "pose": [201]
        },
        "cd": 7.5,
        "cdUpperRange": 5.0,
        "initialCD": 1.0,
        "initialCDUpperRange": 4.0,
        "publicCDGroup": "",
        "HHAGODJIAPE": "",
        "stateIDs": [
          "RageAtk_BS1",
          "RageAtk_BS2",
          "RageAtk_BS3",
          "RageAtk_Loop1",
          "RageAtk_Loop2",
          "RageAtk_Loop3",
          "RageAtk_AS1",
          "RageAtk_AS2",
          "RageAtk_AS3"
        ],
        "skillQueryingTime": 3.0,
        "flagTargetReachable": "11",
        "flagSelfOnTemplateCollider": "01",
        "flagSelfInZone": "11",
        "flagTargetInZone": "10"
      }
    },
    "skillGCD": 3.0,
    "birdCirclingTactic": [
      {
        "$type": "NNJKLGNPMNN",
        "enable": true
      },
      {
        "$type": "KACCHOLJDNK",
        "enable": true,
        "condition": {
          "pose": [101]
        },
        "JMCOBEPDIGM": {
          "ANLAAGAMIKF": 1,
          "KHDFDAAAPEI": 5.0,
          "HKJODDGJPHA": 50.0,
          "KFFGCIMPNMJ": 12.0,
          "MNPDDAKDHGK": ""
        }
      }
    ]
  },
  "inputKeys": [
    {
      "keyID": 101,
      "inputKeyCode": 257,
      "abilityName": ""
    },
    {
      "keyID": 201,
      "inputKeyCode": 258,
      "abilityName": ""
    },
    {
      "keyID": 211,
      "inputKeyCode": 259,
      "abilityName": ""
    },
    {
      "keyID": 221,
      "inputKeyCode": 260,
      "abilityName": ""
    },
    {
      "keyID": 301,
      "inputKeyCode": 261,
      "abilityName": ""
    },
    {
      "keyID": 401,
      "inputKeyCode": 262,
      "abilityName": ""
    },
    {
      "keyID": 111,
      "inputKeyCode": 263,
      "abilityName": ""
    },
    {
      "keyID": 231,
      "inputKeyCode": 264,
      "abilityName": ""
    }
  ],
  "move": {
    "$type": "IPNMJMHDMPF",
    "monsterSizeType": "SlimeType",
    "yawSpeedRatio": 1.0,
    "PKHOMJHFAEE": "RootNode"
  },
  "audio": {
    "overrideEmitterName": "",
    "animAudio": {
      "onTransitionIn": [
        {
          "currentStateName": "NormalAtk02_Loop",
          "audioEvent": {
            "text": "Play_Sfx_Animal_Capybara_Nyx_01_NormalAtk02_Loop_LP"
          },
          "otherStateNames": ["NormalAtk02_Loop"],
          "usage": "Except"
        },
        {
          "currentStateName": "NormalToRage_Loop",
          "audioEvent": {
            "text": "Play_Sfx_Animal_Capybara_Nyx_01_NormalToRage_Loop_LP"
          },
          "otherStateNames": ["NormalToRage_Loop"],
          "usage": "Except"
        },
        {
          "currentStateName": "RageAtk_Loop1",
          "audioEvent": {
            "text": "Play_Sfx_Animal_Capybara_Nyx_01_RageAtk_Loop_LP"
          },
          "otherStateNames": ["RageAtk_Loop1"],
          "usage": "Except"
        },
        {
          "currentStateName": "RageAtk_Loop2",
          "audioEvent": {
            "text": "Play_Sfx_Animal_Capybara_Nyx_01_RageAtk_Loop_LP"
          },
          "otherStateNames": ["RageAtk_Loop2"],
          "usage": "Except"
        },
        {
          "currentStateName": "RageAtk_Loop3",
          "audioEvent": {
            "text": "Play_Sfx_Animal_Capybara_Nyx_01_RageAtk_Loop_LP"
          },
          "otherStateNames": ["RageAtk_Loop3"],
          "usage": "Except"
        }
      ],
      "onTransitionOut": [
        {
          "currentStateName": "NormalAtk02_Loop",
          "audioEvent": {
            "text": "Stop_Sfx_Animal_Capybara_Nyx_01_NormalAtk02_Loop_LP"
          },
          "otherStateNames": ["NormalAtk02_Loop"],
          "usage": "Except"
        },
        {
          "currentStateName": "NormalToRage_Loop",
          "audioEvent": {
            "text": "Stop_Sfx_Animal_Capybara_Nyx_01_NormalToRage_Loop_LP"
          },
          "otherStateNames": ["NormalToRage_Loop"],
          "usage": "Except"
        },
        {
          "currentStateName": "RageAtk_Loop1",
          "audioEvent": {
            "text": "Stop_Sfx_Animal_Capybara_Nyx_01_RageAtk_Loop_LP"
          },
          "otherStateNames": ["RageAtk_Loop1"],
          "usage": "Except"
        },
        {
          "currentStateName": "RageAtk_Loop2",
          "audioEvent": {
            "text": "Stop_Sfx_Animal_Capybara_Nyx_01_RageAtk_Loop_LP"
          },
          "otherStateNames": ["RageAtk_Loop2"],
          "usage": "Except"
        },
        {
          "currentStateName": "RageAtk_Loop3",
          "audioEvent": {
            "text": "Stop_Sfx_Animal_Capybara_Nyx_01_RageAtk_Loop_LP"
          },
          "otherStateNames": ["RageAtk_Loop3"],
          "usage": "Except"
        }
      ]
    }
  }
}
