{
  "common": {
    "effectAttachShape": {
      "$type": "FJNPJANPGGC",
      "mesh": "EffectMesh"
    },
    "mass": 100000.0,
    "viewSize": 2.0,
    "affectedByWorld": true,
    "scale": 1.2000000476837158,
    "disableTickDistance": 100000.0
  },
  "model": {
    "bornEffect": "",
    "attachEffect": "",
    "canBakeMesh": false,
    "BKPFGNPLDNJ": ""
  },
  "dither": {
    "normalBetweenCamera": {
      "detectDitherRange": 150.0
    }
  },
  "combat": {
    "property": {
      "endureType": "Monster_Boss_Other",
      "weight": 20000.0
    },
    "beHit": {
      "hitBloodEffect": "",
      "muteAllHitEffect": true,
      "muteAllHitText": true
    },
    "combatLock": {
      "lockShape": "CircleLockEnemy",
      "lockType": "Boss_Lv5"
    },
    "die": {
      "hasAnimatorDie": true,
      "dieEndTime": 10.0,
      "dieForceDisappearTime": 10.0,
      "dieDisappearEffect": "Eff_Death_Common",
      "dieShaderData": "CharacterDie",
      "muteHitBox": true,
      "dieDenyLockOn": true,
      "dieIsGhostToEnemy": true,
      "dieIgnoreTriggerBullet": true,
      "muteBillboard": true,
      "mutePushCollider": true
    }
  },
  "abilities": [
    {
      "abilityID": "Dvalin_S01_Enviroment",
      "abilityName": "Dvalin_S01_Enviroment",
      "abilityOverride": ""
    },
    {
      "abilityID": "Dvalin_S01_StateCommon",
      "abilityName": "Dvalin_S01_StateCommon",
      "abilityOverride": ""
    },
    {
      "abilityID": "Dvalin_S00_StateController",
      "abilityName": "Dvalin_S00_StateController",
      "abilityOverride": ""
    },
    {
      "abilityID": "Dvalin_AirMass_Up",
      "abilityName": "Dvalin_AirMass_Up",
      "abilityOverride": ""
    },
    {
      "abilityID": "Dvalin_AirMass_Down",
      "abilityName": "Dvalin_AirMass_Down",
      "abilityOverride": ""
    },
    {
      "abilityID": "Dvalin_AirMass_Left",
      "abilityName": "Dvalin_AirMass_Left",
      "abilityOverride": ""
    },
    {
      "abilityID": "Dvalin_AirMass_Right",
      "abilityName": "Dvalin_AirMass_Right",
      "abilityOverride": ""
    },
    {
      "abilityID": "Dvalin_S01_BeHit",
      "abilityName": "Dvalin_S01_BeHit",
      "abilityOverride": ""
    }
  ],
  "stateLayers": {
    "defaultLayer": {
      "$type": "GBGJJIIEMBD",
      "layerIndexName": "",
      "CPAANEIJCGD": "",
      "stateIDs": {
        "NormalFly": {
          "$type": "NEDIFAKEGCO",
          "animatorStates": {
            "NormalFly": ["Audio_Monster_Dvalin_S01_NormalFly"]
          }
        },
        "DFM_Fly": {
          "$type": "NEDIFAKEGCO",
          "animatorStates": {
            "DFM_Fly": []
          }
        },
        "DFM_Up_BS": {
          "$type": "NEDIFAKEGCO",
          "animatorStates": {
            "DFM_Up_BS": ["DFM_Up_BS", "Audio_Monster_Dvalin_S01_Right_BS"]
          }
        },
        "DFM_Up_Loop": {
          "$type": "NEDIFAKEGCO",
          "animatorStates": {
            "DFM_Up_Loop": []
          }
        },
        "DFM_Up_AS": {
          "$type": "NEDIFAKEGCO",
          "animatorStates": {
            "DFM_Up_AS": ["Audio_Monster_Dvalin_S01_Right_AS"]
          }
        },
        "DFM_Down_BS": {
          "$type": "NEDIFAKEGCO",
          "animatorStates": {
            "DFM_Down_BS": ["DFM_Down_BS", "Audio_Monster_Dvalin_S01_Right_BS"]
          }
        },
        "DFM_Down_Loop": {
          "$type": "NEDIFAKEGCO",
          "animatorStates": {
            "DFM_Down_Loop": []
          }
        },
        "DFM_Down_AS": {
          "$type": "NEDIFAKEGCO",
          "animatorStates": {
            "DFM_Down_AS": ["Audio_Monster_Dvalin_S01_Right_AS"]
          }
        },
        "DFM_Left_BS": {
          "$type": "NEDIFAKEGCO",
          "animatorStates": {
            "DFM_Left_BS": ["DFM_Left_BS", "Audio_Monster_Dvalin_S01_Right_BS"]
          }
        },
        "DFM_Left_Loop": {
          "$type": "NEDIFAKEGCO",
          "animatorStates": {
            "DFM_Left_Loop": []
          }
        },
        "DFM_Left_AS": {
          "$type": "NEDIFAKEGCO",
          "animatorStates": {
            "DFM_Left_AS": ["Audio_Monster_Dvalin_S01_Right_AS"]
          }
        },
        "DFM_Right_BS": {
          "$type": "NEDIFAKEGCO",
          "animatorStates": {
            "DFM_Right_BS": [
              "DFM_Right_BS",
              "Audio_Monster_Dvalin_S01_Right_BS"
            ]
          }
        },
        "DFM_Right_Loop": {
          "$type": "NEDIFAKEGCO",
          "animatorStates": {
            "DFM_Right_Loop": []
          }
        },
        "DFM_Right_AS": {
          "$type": "NEDIFAKEGCO",
          "animatorStates": {
            "DFM_Right_AS": ["Audio_Monster_Dvalin_S01_Right_AS"]
          }
        },
        "Die": {
          "$type": "NEDIFAKEGCO",
          "animatorStates": {
            "Die": []
          }
        }
      }
    }
  },
  "billboard": {
    "$type": "DNGNMAJBCNP",
    "attachPoint": "BillboardAttach",
    "offset": {
      "y": 1.7999999523162842
    },
    "radiusOffset": 1.0,
    "showDistance": 0.0,
    "showHPBar": true,
    "size": "Big"
  },
  "initialPoses": {
    "Default": {}
  },
  "aibeta": {
    "enable": true,
    "moveSetting": {
      "useNavMesh": false,
      "navMeshAgentName": "Undead01"
    },
    "sensing": {
      "enable": false
    },
    "threat": {
      "GHIJMOKOLMB": "",
      "clearThreatTargetDistance": 999.0,
      "viewAttenuation": [
        {
          "x": 10.0,
          "y": 2.0
        },
        {
          "x": 15.0,
          "y": 0.800000011920929
        },
        {
          "x": 20.0,
          "y": 0.5
        },
        {
          "x": 25.0,
          "y": 0.30000001192092896
        },
        {
          "x": 30.0,
          "y": 0.20000000298023224
        }
      ],
      "resistTauntLevel": "Monster_TauntLevel_5"
    },
    "defendArea": {
      "enable": false,
      "defendRange": 120.0
    },
    "network": {
      "resetHpOnSpawn": false
    },
    "skills": {
      "103": {
        "name": "OnAlert",
        "skillType": "OnAlert",
        "faceTarget": true,
        "publicCDGroup": "",
        "triggerGCD": false,
        "HHAGODJIAPE": "",
        "stateIDs": ["Life_Warning"],
        "skillQueryingTime": 3.0,
        "flagTargetReachable": "10",
        "flagSelfOnTemplateCollider": "01",
        "flagSelfInZone": "10",
        "flagTargetInZone": "11"
      },
      "210": {
        "name": "Attack01",
        "enableSkillPrepare": true,
        "castCondition": {
          "pose": [211, 212],
          "maxTargetAngleXZ": 90.0,
          "pickRangeMax": 8.0,
          "castRangeMax": 3.0
        },
        "cd": 2.0,
        "publicCDGroup": "",
        "HHAGODJIAPE": "",
        "stateIDs": ["Attack01", "Attack02", "Attack03"],
        "flagTargetReachable": "10",
        "flagSelfOnTemplateCollider": "01",
        "flagSelfInZone": "10",
        "flagTargetInZone": "11"
      }
    },
    "birdCirclingTactic": [
      {
        "$type": "EPHBMLFODKF",
        "condition": {
          "pose": [211, 212]
        },
        "JMCOBEPDIGM": {
          "rangeMin": 4.0,
          "rangeMax": 8.0,
          "BFJBDDIIFOI": {
            "LLICGJHIGME": 0.0,
            "AEBLMKFNCDG": 0.0,
            "IGLIBIOEGBB": 0.0
          },
          "NAOBMNGDKHL": "1111",
          "JCNIJOAIGII": "1111",
          "MNPDDAKDHGK": ""
        }
      },
      {
        "$type": "KACCHOLJDNK",
        "condition": {
          "pose": [111, 211, 212]
        },
        "JMCOBEPDIGM": {
          "KHDFDAAAPEI": 10.0,
          "HKJODDGJPHA": 99.0,
          "GGEBMFHFBPO": 8.0,
          "KFFGCIMPNMJ": 0.0,
          "MNPDDAKDHGK": ""
        }
      },
      {
        "$type": "FPELBIJFGCE",
        "JMCOBEPDIGM": {
          "KPNDPKIOPJM": 3.0,
          "PINAFKEDDLL": 1.5,
          "ANMPOPEBDIA": 15.0,
          "GMJFIMFFOEL": 3.75,
          "CHCPFDMADEI": 7.5,
          "MNPDDAKDHGK": ""
        }
      }
    ]
  },
  "inputKeys": [
    {
      "keyID": 210,
      "inputKeyCode": 257,
      "abilityName": "Dvalin_ItanoCircus_01",
      "abilityCD": 0.009999999776482582
    },
    {
      "keyID": 211,
      "inputKeyCode": 258,
      "abilityName": "Dvalin_ItanoCircus_02",
      "abilityCD": 0.009999999776482582
    }
  ],
  "move": {
    "$type": "IPNMJMHDMPF",
    "velocityForce": {
      "muteAll": true
    },
    "initWithGroundHitCheck": false,
    "PKHOMJHFAEE": "RootNode"
  },
  "audio": {
    "overrideEmitterName": "",
    "animAudio": {},
    "enableEvent": {
      "text": "Play_sfx_monster_dvalin_flying_airFlow"
    },
    "disableEvent": {
      "text": "Stop_sfx_monster_dvalin_flying_airFlow"
    },
    "destroyEvent": {
      "text": "Stop_sfx_monster_dvalin_flying_airFlow"
    }
  }
}
