{
  "common": {
    "effectAttachShape": {
      "$type": "FJNPJANPGGC",
      "mesh": "EffectMesh"
    },
    "mass": 100000000.0,
    "viewSize": 2.4000000953674316,
    "shadowViewSizeRatio": 0.0,
    "affectedByWorld": true,
    "checkInSurface": true,
    "scale": 0.6000000238418579,
    "disableTickDistance": 100000.0,
    "canTriggerElementReactionText": false,
    "useGrassDisplacement": true,
    "muteElementStickUI": true,
    "reconnectSupport": true,
    "recoverByInitPose": true
  },
  "model": {
    "bornEffect": "Eff_Monster_Common_Born",
    "attachEffect": "",
    "JKLKJPMFNGD": true,
    "BKPFGNPLDNJ": ""
  },
  "dither": {
    "showDitherDuration": 2.0,
    "normalBetweenCamera": {
      "detectDitherRange": 15.0
    },
    "LHGPDHMMNMN": 0.20000000298023224
  },
  "globalValue": {
    "serverGlobalValues": ["SGV_Animal_Macrauchenia_JustStomp"]
  },
  "connectTriggerPriority": 4.0,
  "combat": {
    "property": {
      "endureType": "Monster_Boss_Other",
      "weight": 100000.0,
      "isLockHP": true
    },
    "beHit": {
      "hitBloodEffect": "",
      "hitAutoRedirect": false,
      "muteAllHitText": true
    },
    "combatLock": {
      "lockShape": "CircleLockEnemy",
      "denyLockOn": true,
      "lockType": "Default"
    },
    "die": {
      "dieEndTime": 0.009999999776482582,
      "dieForceDisappearTime": 10.0,
      "dieDisappearEffect": ""
    },
    "animEvents": {
      "Stomp_LB": {
        "attackPattern": {
          "$type": "ConfigAttackCircle",
          "triggerType": "TriggerNoRepeat",
          "born": {
            "$type": "ConfigBornBySelf",
            "offset": {
              "x": -1.7999999523162842,
              "y": 0.0,
              "z": -2.5
            }
          },
          "height": 1.5,
          "radius": 1.5
        },
        "attackInfo": {
          "attackTag": "",
          "attenuationTag": "",
          "attenuationGroup": "default",
          "attackProperty": {
            "actorGrassSubHurtDelta": 0.0,
            "actorWindSubHurtDelta": 0.0,
            "elementDurability": 100.0,
            "strikeType": "Blunt",
            "enBreak": 1000.0,
            "attackType": "Melee",
            "GLKMCMDJBIK": 0.0
          },
          "hitPattern": {
            "onHitEffectName": "default",
            "hitImpulseY": "",
            "hitImpulseType": "LV4",
            "hitHaltTimeScale": 0.009999999776482582
          },
          "forceCameraShake": true,
          "cameraShake": {
            "shakeType": "CustomVector",
            "shakeRange": 0.44999998807907104,
            "shakeTime": 0.15000000596046448,
            "shakeDistance": 30.0,
            "shakeDir": {
              "y": -1.0
            }
          }
        }
      },
      "Stomp_LF": {
        "attackPattern": {
          "$type": "ConfigAttackCircle",
          "triggerType": "TriggerNoRepeat",
          "born": {
            "$type": "ConfigBornBySelf",
            "offset": {
              "x": -1.2000000476837158,
              "y": 0.0,
              "z": 1.7000000476837158
            }
          },
          "height": 1.5,
          "radius": 1.5
        },
        "attackInfo": {
          "attackTag": "",
          "attenuationTag": "",
          "attenuationGroup": "default",
          "attackProperty": {
            "actorGrassSubHurtDelta": 0.0,
            "actorWindSubHurtDelta": 0.0,
            "elementDurability": 100.0,
            "strikeType": "Blunt",
            "enBreak": 1000.0,
            "attackType": "Melee",
            "GLKMCMDJBIK": 0.0
          },
          "hitPattern": {
            "onHitEffectName": "default",
            "hitImpulseY": "",
            "hitImpulseType": "LV4",
            "hitHaltTimeScale": 0.009999999776482582
          },
          "forceCameraShake": true,
          "cameraShake": {
            "shakeType": "CustomVector",
            "shakeRange": 0.44999998807907104,
            "shakeTime": 0.15000000596046448,
            "shakeDistance": 30.0,
            "shakeDir": {
              "y": -1.0
            }
          }
        }
      },
      "Stomp_RB": {
        "attackPattern": {
          "$type": "ConfigAttackCircle",
          "triggerType": "TriggerNoRepeat",
          "born": {
            "$type": "ConfigBornBySelf",
            "offset": {
              "x": 1.7999999523162842,
              "y": 0.0,
              "z": -2.0
            }
          },
          "height": 1.5,
          "radius": 1.5
        },
        "attackInfo": {
          "attackTag": "",
          "attenuationTag": "",
          "attenuationGroup": "default",
          "attackProperty": {
            "actorGrassSubHurtDelta": 0.0,
            "actorWindSubHurtDelta": 0.0,
            "elementDurability": 100.0,
            "strikeType": "Blunt",
            "enBreak": 1000.0,
            "attackType": "Melee",
            "GLKMCMDJBIK": 0.0
          },
          "hitPattern": {
            "onHitEffectName": "default",
            "hitImpulseY": "",
            "hitImpulseType": "LV4",
            "hitHaltTimeScale": 0.009999999776482582
          },
          "forceCameraShake": true,
          "cameraShake": {
            "shakeType": "CustomVector",
            "shakeRange": 0.44999998807907104,
            "shakeTime": 0.15000000596046448,
            "shakeDistance": 30.0,
            "shakeDir": {
              "y": -1.0
            }
          }
        }
      },
      "Stomp_RF": {
        "attackPattern": {
          "$type": "ConfigAttackCircle",
          "triggerType": "TriggerNoRepeat",
          "born": {
            "$type": "ConfigBornBySelf",
            "offset": {
              "x": 1.2000000476837158,
              "y": 0.0,
              "z": 1.5
            }
          },
          "height": 1.5,
          "radius": 1.5
        },
        "attackInfo": {
          "attackTag": "",
          "attenuationTag": "",
          "attenuationGroup": "default",
          "attackProperty": {
            "actorGrassSubHurtDelta": 0.0,
            "actorWindSubHurtDelta": 0.0,
            "elementDurability": 100.0,
            "strikeType": "Blunt",
            "enBreak": 1000.0,
            "attackType": "Melee",
            "GLKMCMDJBIK": 0.0
          },
          "hitPattern": {
            "onHitEffectName": "default",
            "hitImpulseY": "",
            "hitImpulseType": "LV4",
            "hitHaltTimeScale": 0.009999999776482582
          },
          "forceCameraShake": true,
          "cameraShake": {
            "shakeType": "CustomVector",
            "shakeRange": 0.44999998807907104,
            "shakeTime": 0.15000000596046448,
            "shakeDistance": 30.0,
            "shakeDir": {
              "y": -1.0
            }
          }
        }
      },
      "Walk_Stomp_LB": {
        "attackPattern": {
          "$type": "ConfigAttackCircle",
          "triggerType": "TriggerNoRepeat",
          "born": {
            "$type": "ConfigBornBySelf",
            "offset": {
              "x": -1.399999976158142,
              "y": 0.0,
              "z": -1.600000023841858
            }
          },
          "height": 1.5,
          "radius": 0.75
        },
        "attackInfo": {
          "attackTag": "",
          "attenuationTag": "",
          "attenuationGroup": "default",
          "attackProperty": {
            "actorGrassSubHurtDelta": 0.0,
            "actorWindSubHurtDelta": 0.0,
            "elementDurability": 100.0,
            "strikeType": "Blunt",
            "enBreak": 1000.0,
            "attackType": "Melee",
            "GLKMCMDJBIK": 0.0
          },
          "hitPattern": {
            "onHitEffectName": "default",
            "hitImpulseY": "",
            "hitImpulseType": "LV3",
            "hitHaltTimeScale": 0.009999999776482582
          },
          "forceCameraShake": true,
          "cameraShake": {
            "shakeType": "CustomVector",
            "shakeRange": 0.20000000298023224,
            "shakeTime": 0.10000000149011612,
            "shakeDistance": 15.0,
            "shakeDir": {
              "y": -1.0
            }
          }
        }
      },
      "Walk_Stomp_LF": {
        "attackPattern": {
          "$type": "ConfigAttackCircle",
          "triggerType": "TriggerNoRepeat",
          "born": {
            "$type": "ConfigBornBySelf",
            "offset": {
              "x": -1.7999999523162842,
              "y": 0.0,
              "z": 4.0
            }
          },
          "height": 1.5,
          "radius": 0.75
        },
        "attackInfo": {
          "attackTag": "",
          "attenuationTag": "",
          "attenuationGroup": "default",
          "attackProperty": {
            "actorGrassSubHurtDelta": 0.0,
            "actorWindSubHurtDelta": 0.0,
            "elementDurability": 100.0,
            "strikeType": "Blunt",
            "enBreak": 1000.0,
            "attackType": "Melee",
            "GLKMCMDJBIK": 0.0
          },
          "hitPattern": {
            "onHitEffectName": "default",
            "hitImpulseY": "",
            "hitImpulseType": "LV3",
            "hitHaltTimeScale": 0.009999999776482582
          },
          "cameraShake": {
            "shakeType": "CustomVector",
            "shakeRange": 0.20000000298023224,
            "shakeTime": 0.10000000149011612,
            "shakeDistance": 15.0,
            "shakeDir": {
              "y": -1.0
            }
          }
        }
      },
      "Walk_Stomp_RB": {
        "attackPattern": {
          "$type": "ConfigAttackCircle",
          "triggerType": "TriggerNoRepeat",
          "born": {
            "$type": "ConfigBornBySelf",
            "offset": {
              "x": 1.399999976158142,
              "y": 0.0,
              "z": -1.5
            }
          },
          "height": 1.5,
          "radius": 0.75
        },
        "attackInfo": {
          "attackTag": "",
          "attenuationTag": "",
          "attenuationGroup": "default",
          "attackProperty": {
            "actorGrassSubHurtDelta": 0.0,
            "actorWindSubHurtDelta": 0.0,
            "elementDurability": 100.0,
            "strikeType": "Blunt",
            "enBreak": 1000.0,
            "attackType": "Melee",
            "GLKMCMDJBIK": 0.0
          },
          "hitPattern": {
            "onHitEffectName": "default",
            "hitImpulseY": "",
            "hitImpulseType": "LV3",
            "hitHaltTimeScale": 0.009999999776482582
          },
          "forceCameraShake": true,
          "cameraShake": {
            "shakeType": "CustomVector",
            "shakeRange": 0.20000000298023224,
            "shakeTime": 0.10000000149011612,
            "shakeDistance": 15.0,
            "shakeDir": {
              "y": -1.0
            }
          }
        }
      },
      "Walk_Stomp_RF": {
        "attackPattern": {
          "$type": "ConfigAttackCircle",
          "triggerType": "TriggerNoRepeat",
          "born": {
            "$type": "ConfigBornBySelf",
            "offset": {
              "x": 1.7999999523162842,
              "y": 0.0,
              "z": 4.0
            }
          },
          "height": 1.5,
          "radius": 0.75
        },
        "attackInfo": {
          "attackTag": "",
          "attenuationTag": "",
          "attenuationGroup": "default",
          "attackProperty": {
            "actorGrassSubHurtDelta": 0.0,
            "actorWindSubHurtDelta": 0.0,
            "elementDurability": 100.0,
            "strikeType": "Blunt",
            "enBreak": 1000.0,
            "attackType": "Melee",
            "GLKMCMDJBIK": 0.0
          },
          "hitPattern": {
            "onHitEffectName": "default",
            "hitImpulseY": "",
            "hitImpulseType": "LV3",
            "hitHaltTimeScale": 0.009999999776482582
          },
          "cameraShake": {
            "shakeType": "CustomVector",
            "shakeRange": 0.20000000298023224,
            "shakeTime": 0.10000000149011612,
            "shakeDistance": 15.0,
            "shakeDir": {
              "y": -1.0
            }
          }
        }
      }
    }
  },
  "abilities": [
    {
      "abilityID": "",
      "abilityName": "Animal_Macrauchenia_StompControl",
      "abilityOverride": ""
    },
    {
      "abilityID": "",
      "abilityName": "Animal_Macrauchenia_SpineHitControl",
      "abilityOverride": ""
    },
    {
      "abilityID": "",
      "abilityName": "Animal_Macrauchenia_HeadHitControl",
      "abilityOverride": ""
    },
    {
      "abilityID": "",
      "abilityName": "Animal_Macrauchenia_StompOnce",
      "abilityOverride": ""
    },
    {
      "abilityID": "",
      "abilityName": "Animal_Macrauchenia_Small_ColliderControl",
      "abilityOverride": ""
    },
    {
      "abilityID": "",
      "abilityName": "Animal_Common_Initial",
      "abilityOverride": ""
    }
  ],
  "stateLayers": {
    "defaultLayer": {
      "$type": "GBGJJIIEMBD",
      "layerIndexName": "",
      "CPAANEIJCGD": "",
      "stateIDs": {
        "Born": {
          "$type": "NEDIFAKEGCO",
          "animatorStates": {
            "Born": ["Audio_Animal_Macrauchenia_Eat01"]
          },
          "resetAnimatorTriggerOnExit": ["DoSkill"]
        },
        "NormalIdle": {
          "$type": "NEDIFAKEGCO",
          "animatorStates": {
            "Standby": ["Audio_Animal_Macrauchenia_Eat01"],
            "HitH_Spine": ["Animal_Macrauchenia_HitH_Spine_Reaction"]
          },
          "canDoSkill": true,
          "canSyncMove": true,
          "resetAnimatorTriggerOnExit": ["DoSkill"]
        },
        "NormalMove": {
          "$type": "NEDIFAKEGCO",
          "animatorStates": {
            "Walk": [
              "Animal_Macrauchenia_Walk",
              "Audio_Animal_Macrauchenia_Walk"
            ]
          },
          "canDoSkill": true,
          "canSyncMove": true,
          "resetAnimatorTriggerOnExit": ["DoSkill"],
          "canSteer": true
        },
        "Personality1": {
          "$type": "NEDIFAKEGCO",
          "animatorStates": {
            "Personality1_BS": ["Audio_Animal_Macrauchenia_Personality1_BS"],
            "Personality1_Loop": [],
            "Personality1_WatchRight": [],
            "Personality1_WatchLeft": [],
            "Personality1_AS": ["Audio_Animal_Macrauchenia_Personality1_AS"]
          },
          "resetAnimatorTriggerOnExit": ["BeHit", "DoSkill"]
        },
        "Personality2": {
          "$type": "NEDIFAKEGCO",
          "animatorStates": {
            "Personality2": ["Audio_Animal_Macrauchenia_Personality2"]
          },
          "resetAnimatorTriggerOnExit": ["BeHit", "DoSkill"]
        }
      }
    },
    "HitReactionLayer": {
      "$type": "GBGJJIIEMBD",
      "layerIndex": 1,
      "layerIndexName": "HitReactionLayer",
      "CPAANEIJCGD": "",
      "stateIDs": {
        "Stomp": {
          "$type": "NEDIFAKEGCO",
          "animatorStates": {
            "Stomp_LB": [
              "Animal_Macrauchenia_Stomp_LB",
              "Audio_Animal_Macrauchenia_Stomp"
            ],
            "Stomp_LF": [
              "Animal_Macrauchenia_Stomp_LF",
              "Audio_Animal_Macrauchenia_Stomp"
            ],
            "Stomp_RB": [
              "Animal_Macrauchenia_Stomp_RB",
              "Audio_Animal_Macrauchenia_Stomp"
            ],
            "Stomp_RF": [
              "Animal_Macrauchenia_Stomp_RF",
              "Audio_Animal_Macrauchenia_Stomp"
            ],
            "HitL_Head": [],
            "HitH_Head": ["Audio_Animal_Macrauchenia_HitH_Head"]
          },
          "canSyncMove": true,
          "resetAnimatorTriggerOnExit": ["BeHit", "DoSkill"]
        }
      }
    }
  },
  "initialPoses": {
    "Default": {},
    "Eat_Low": {
      "initialPoseID": 2,
      "initialPoseParams": {
        "boolParams": {
          "Eat_Low": "true"
        }
      }
    },
    "Eat_High": {
      "initialPoseID": 3,
      "initialPoseParams": {
        "boolParams": {
          "Eat_High": "true"
        }
      }
    },
    "DefaultNoSkill": {
      "initialPoseID": 4,
      "initialPoseParams": {
        "boolParams": {
          "DefaultNoSkill": "true"
        }
      }
    }
  },
  "aibeta": {
    "enable": true,
    "friendliness": 1,
    "sensing": {
      "settings": {
        "DefaultSetting": {
          "enableVision": false,
          "feelRange": 20.0
        }
      }
    },
    "threat": {
      "GHIJMOKOLMB": "",
      "clearThreatTargetDistance": 30.0,
      "clearThreatTimerByDistance": 1.0,
      "viewThreatGrow": 0.0,
      "feelThreatGrow": 1000.0,
      "threatDecreaseSpeed": 500.0
    },
    "defendArea": {
      "defendRange": 30.0
    },
    "ui": {
      "hasDirectionIndicator": false,
      "HMNNBFDEHLG": ""
    },
    "profiling": {
      "lodStrategy": "Best"
    },
    "skills": {
      "101": {
        "name": "LookAround",
        "skillType": "Free",
        "castCondition": {
          "pose": [0]
        },
        "cd": 30.0,
        "cdUpperRange": 5.0,
        "initialCD": 2.5,
        "initialCDUpperRange": 5.0,
        "publicCDGroup": "",
        "HHAGODJIAPE": "",
        "stateIDs": ["Personality1"],
        "flagTargetReachable": "10",
        "flagSelfOnTemplateCollider": "01",
        "flagSelfInZone": "10",
        "flagTargetInZone": "11"
      },
      "102": {
        "name": "LookAround",
        "castCondition": {
          "pose": [0, 101]
        },
        "cd": 30.0,
        "cdUpperRange": 5.0,
        "initialCD": 2.5,
        "initialCDUpperRange": 5.0,
        "publicCDGroup": "",
        "HHAGODJIAPE": "",
        "stateIDs": ["Personality1"],
        "flagTargetReachable": "10",
        "flagSelfOnTemplateCollider": "01",
        "flagSelfInZone": "10",
        "flagTargetInZone": "11"
      },
      "111": {
        "name": "LookAround_Special",
        "skillType": "Free",
        "castCondition": {
          "pose": [0]
        },
        "cd": 30.0,
        "cdUpperRange": 5.0,
        "initialCD": 2.5,
        "initialCDUpperRange": 5.0,
        "publicCDGroup": "",
        "HHAGODJIAPE": "",
        "stateIDs": ["Personality2"],
        "flagTargetReachable": "10",
        "flagSelfOnTemplateCollider": "01",
        "flagSelfInZone": "10",
        "flagTargetInZone": "11"
      },
      "112": {
        "name": "LookAround_Special",
        "castCondition": {
          "pose": [0, 101]
        },
        "cd": 30.0,
        "cdUpperRange": 5.0,
        "initialCD": 2.5,
        "initialCDUpperRange": 5.0,
        "publicCDGroup": "",
        "HHAGODJIAPE": "",
        "stateIDs": ["Personality2"],
        "flagTargetReachable": "10",
        "flagSelfOnTemplateCollider": "01",
        "flagSelfInZone": "10",
        "flagTargetInZone": "11"
      }
    },
    "birdCirclingTactic": [
      {
        "$type": "MCDGOJLCMBM",
        "enable": true,
        "JMCOBEPDIGM": {
          "DMGAHPPFMPK": 0.5,
          "FLENLLDBFGP": 0.5,
          "MNPDDAKDHGK": "",
          "GJDMDHIBCME": ""
        }
      }
    ]
  },
  "move": {
    "$type": "IPNMJMHDMPF",
    "velocityForce": {
      "muteAll": true
    },
    "PKHOMJHFAEE": "RootNode"
  },
  "audio": {
    "overrideEmitterName": "",
    "MMPNNCHHIDJ": [
      {
        "name": "Macrauchenia_Audio_HeadSync",
        "HIPBJIAPBID": "Head"
      }
    ],
    "behaviours": [
      {
        "$type": "FKDHOPDMFHG",
        "IKJGOJBCAPG": {
          "$type": "MPCIPAGHJNA",
          "interval": 5
        },
        "JDCAENIOKPB": [
          {
            "$type": "HNHPMJIAKHO",
            "OHCHKJAHHPK": true,
            "OPEMPFCFHMO": "__DefaultSync__",
            "rtpcKey": {
              "text": "Param_Macrauchenia_PoseID"
            },
            "PKCNKIKHCDB": "PoseID"
          }
        ]
      }
    ]
  },
  "animal": {
    "tickAbilityElement": false,
    "hasCharacterRenderering": false
  }
}
