{
  "common": {
    "effectAttachShape": {
      "$type": "FJNPJANPGGC",
      "mesh": "EffectMesh"
    },
    "mass": 40.0,
    "height": 0.8999999761581421,
    "modelHeight": 0.8999999761581421,
    "affectedByWorld": true,
    "checkInSurface": true,
    "scale": 1.2999999523162842,
    "clearAIOnSetLightDeactive": true,
    "reconnectSupport": true,
    "recoverByInitPose": true
  },
  "model": {
    "bornEffect": "",
    "attachEffect": "",
    "canBakeMesh": false,
    "BKPFGNPLDNJ": ""
  },
  "dither": {
    "showDitherDuration": 2.0
  },
  "globalValue": {
    "serverGlobalValues": ["SGV_Fungus_StartBurst_Immediately"],
    "initServerGlobalValues": {
      "SGV_Fungus_StartBurst_Immediately": 0.0
    }
  },
  "combat": {
    "property": {
      "endureType": "Monster_Fungus_Battle",
      "weight": 75.0
    },
    "beHit": {
      "hitBloodEffect": ""
    },
    "combatLock": {
      "lockShape": "CircleLockEnemy",
      "lockType": "Avatar&Monster_Lv4"
    },
    "die": {
      "hasAnimatorDie": true,
      "dieEndTime": 0.5,
      "dieForceDisappearTime": 1.5,
      "dieDisappearEffect": "Eff_Death_Common",
      "dieShaderData": "MonsterDie",
      "muteHitBox": true,
      "dieDenyLockOn": true,
      "dieIsGhostToEnemy": true,
      "dieIgnoreTriggerBullet": true,
      "muteBillboard": true,
      "mutePushCollider": true
    }
  },
  "abilities": [
    {
      "abilityID": "",
      "abilityName": "Affix_FungusFighterV2_Fungus_ElemMastery",
      "abilityOverride": ""
    },
    {
      "abilityID": "",
      "abilityName": "Fungus_BVB_Universal_ElementalBlast_Immediately",
      "abilityOverride": ""
    },
    {
      "abilityID": "",
      "abilityName": "FungusFighter_Universal_LineMixin",
      "abilityOverride": ""
    },
    {
      "abilityID": "",
      "abilityName": "Fungus_BVB_Un_Water_Bubble_Reject",
      "abilityOverride": ""
    },
    {
      "abilityID": "",
      "abilityName": "Monster_Fungus_Un_FlyStateManager",
      "abilityOverride": ""
    },
    {
      "abilityID": "",
      "abilityName": "Fungus_Un_BVB_Dendro_Bullet_Trigger",
      "abilityOverride": ""
    },
    {
      "abilityID": "",
      "abilityName": "Fungus_Un_BVB_Dendro_LeafBlessing",
      "abilityOverride": ""
    },
    {
      "abilityID": "",
      "abilityName": "Fungus_Un_BVB_Dendro_Bullet_UnionBurstTrigger",
      "abilityOverride": ""
    }
  ],
  "stateLayers": {
    "defaultLayer": {
      "$type": "GBGJJIIEMBD",
      "layerIndexName": "",
      "CPAANEIJCGD": "",
      "stateIDs": {
        "Born": {
          "$type": "NEDIFAKEGCO",
          "animatorStates": {
            "Born": []
          },
          "canSyncMove": true,
          "resetAnimatorTriggerOnExit": ["DoSkill"]
        },
        "NormalIdle": {
          "$type": "NEDIFAKEGCO",
          "animatorStates": {
            "StandbyFree": [],
            "Standby": []
          },
          "canDoSkill": true,
          "canSyncMove": true,
          "resetAnimatorTriggerOnExit": ["DoSkill"],
          "canSteer": true,
          "autoSteer": true
        },
        "NormalMove": {
          "$type": "NEDIFAKEGCO",
          "animatorStates": {
            "Walk": ["Audio_Monster_Fungus_Un_Gamma_Water_Walk"]
          },
          "canDoSkill": true,
          "canSyncMove": true,
          "resetAnimatorTriggerOnExit": ["DoSkill"],
          "setAnimatorFloat": [
            {
              "name": "FlyMotionHor",
              "normalizeEnd": 0.0
            },
            {
              "name": "FlyMotionVer",
              "normalizeEnd": 0.0
            }
          ],
          "canSteer": true
        },
        "NormalFly": {
          "$type": "NEDIFAKEGCO",
          "animatorStates": {
            "Fly": []
          },
          "canDoSkill": true,
          "canSyncMove": true,
          "resetAnimatorTriggerOnExit": ["DoSkill"],
          "setAnimatorFloat": [
            {
              "name": "FlyMotionHor",
              "normalizeEnd": 0.0
            },
            {
              "name": "FlyMotionVer",
              "normalizeEnd": 0.0
            }
          ],
          "canSteer": true,
          "blendMove": "BlendMove3D"
        },
        "BeHit": {
          "$type": "NEDIFAKEGCO",
          "animatorStates": {
            "Hit_H": ["Audio_Monster_Fungus_Un_Gamma_Water_Hit"]
          },
          "canSyncMove": true,
          "resetAnimatorTriggerOnEnter": ["BeHit"],
          "resetAnimatorTriggerOnExit": ["DoSkill"],
          "airMoveFollowAnimation": true
        },
        "BeHitThrowAir": {
          "$type": "NEDIFAKEGCO",
          "animatorStates": {
            "HitThrow": ["Audio_Monster_Fungus_Un_Gamma_Water_Hit"],
            "HitThrowDrop": []
          },
          "resetAnimatorTriggerOnEnter": ["BeHit", "HitAir2HitDrop"],
          "resetAnimatorTriggerOnExit": ["DoSkill"],
          "setAnimatorBoolean": [
            {
              "name": "BurstUnavailable"
            }
          ],
          "remoteForceCloseAirMove": true
        },
        "BeHitThrow": {
          "$type": "NEDIFAKEGCO",
          "animatorStates": {
            "HitThrowToGround": [
              "Monster_Fungus_Un_Gamma_Water_HitThrowToGround",
              "Audio_Monster_Fungus_Un_Gamma_Water_HitToGround"
            ]
          },
          "resetAnimatorTriggerOnExit": ["DoSkill"],
          "remoteForceCloseAirMove": true
        },
        "Struggle": {
          "$type": "NEDIFAKEGCO",
          "animatorStates": {
            "Struggle": []
          },
          "resetAnimatorTriggerOnEnter": ["BeHit", "HitAir2HitDrop"],
          "resetAnimatorTriggerOnExit": ["DoSkill"],
          "setAnimatorBoolean": [
            {
              "name": "BurstUnavailable"
            }
          ]
        },
        "Die": {
          "$type": "NEDIFAKEGCO",
          "animatorStates": {
            "Die_BS": ["Audio_Monster_Fungus_Un_Gamma_Water_Die"],
            "Die": ["Monster_Fungus_Un_Die"],
            "AirDie": ["Monster_Fungus_Un_Die"],
            "SwimDie_BS": [],
            "SwimDie": ["Monster_Fungus_Un_Die"]
          }
        },
        "Warning": {
          "$type": "NEDIFAKEGCO",
          "animatorStates": {
            "Warning": ["Audio_Monster_Fungus_Un_Gamma_Water_Warning"]
          },
          "canSyncMove": true,
          "resetAnimatorTriggerOnExit": ["BeHit", "DoSkill"],
          "canSteer": true
        },
        "Jump_BS": {
          "$type": "NEDIFAKEGCO",
          "animatorStates": {
            "Jump_BS": ["Audio_Monster_Fungus_Un_Gamma_Water_Jump_BS"]
          },
          "canSyncMove": true,
          "resetAnimatorTriggerOnExit": ["DoSkill"],
          "canSteer": true,
          "airMoveFollowAnimation": true
        },
        "JumpProcess": {
          "$type": "NEDIFAKEGCO",
          "animatorStates": {
            "Launch_Loop": [],
            "Jump_AS": ["Audio_Monster_Fungus_Un_Jump_AS"],
            "Drop_Loop": []
          },
          "canDoSkill": true,
          "canSyncMove": true,
          "resetAnimatorTriggerOnExit": ["DoSkill", "Launch"],
          "canSteer": true,
          "airMoveFollowAnimation": true
        },
        "Land_AS": {
          "$type": "NEDIFAKEGCO",
          "animatorStates": {
            "Land_AS": ["Audio_Monster_Fungus_Un_Jump_AS"]
          },
          "canSyncMove": true,
          "resetAnimatorTriggerOnEnter": ["Land", "BeHit", "HitAir2HitDrop"],
          "resetAnimatorTriggerOnExit": ["DoSkill", "Land"],
          "canSteer": true,
          "airMoveFollowAnimation": true
        },
        "ReturnToBorn": {
          "$type": "NEDIFAKEGCO",
          "animatorStates": {
            "ReturnToBorn_BS": [
              "Monster_Fungus_Un_ReturnToBorn_BS",
              "Audio_Monster_Fungus_Un_Gamma_Water_ReturnToBorn_BS"
            ],
            "ReturnToBorn_Loop": [],
            "ReturnToBorn_AS": [
              "Monster_Fungus_Un_ReturnToBorn_AS",
              "Audio_Monster_Fungus_Un_Gamma_Water_ReturnToBorn_AS"
            ]
          },
          "cullingModelAlwaysAnimate": true,
          "resetAnimatorTriggerOnExit": ["BeHit", "DoSkill"]
        },
        "NormalAttack": {
          "$type": "NEDIFAKEGCO",
          "animatorStates": {
            "Shoot_BS": [
              "Audio_Monster_Fungus_FighterV2_Un_Delta_Grass_Shoot_BS"
            ],
            "Shoot_Loop": [
              "Audio_Monster_Fungus_FighterV2_Un_Delta_Grass_Shoot"
            ],
            "Shoot_Attack": [
              "Monster_Fungus_Un_Grass_Bullet",
              "Audio_Monster_Fungus_FighterV2_Un_Delta_Grass_Shoot_Attack"
            ],
            "Shoot_AS": []
          },
          "addEndure": 0.800000011920929,
          "resetAnimatorTriggerOnExit": ["BeHit", "DoSkill"]
        },
        "UnionBurst": {
          "$type": "NEDIFAKEGCO",
          "animatorStates": {
            "Burst_BS": [
              "Audio_Monster_Fungus_FighterV2_Un_Delta_Grass_Shoot_BS"
            ],
            "Burst_Loop": [
              "Monster_Fungus_Un_Grass_UnionBurstShoot_BS",
              "Audio_Monster_Fungus_FighterV2_Un_Delta_Grass_Burst_Loop"
            ],
            "Burst_Attack01": [
              "Monster_Fungus_Un_Grass_UnionBurstShoot",
              "Audio_Monster_Fungus_FighterV2_Un_Delta_Grass_Burst_Attack"
            ],
            "Burst_Attack02": [
              "Monster_Fungus_Un_Grass_UnionBurstShoot",
              "Audio_Monster_Fungus_FighterV2_Un_Delta_Grass_Burst_Attack"
            ],
            "Burst_Attack03": [
              "Monster_Fungus_Un_Grass_UnionBurstShoot_3",
              "Audio_Monster_Fungus_FighterV2_Un_Delta_Grass_Burst_Attack"
            ],
            "Burst_AS": []
          },
          "addEndure": 0.0,
          "resetAnimatorTriggerOnExit": ["BeHit", "DoSkill"],
          "setAnimatorFloat": [
            {
              "name": "FlyMotionHor",
              "normalizeEnd": 0.0
            },
            {
              "name": "FlyMotionVer",
              "normalizeEnd": 0.0
            }
          ],
          "airMoveFollowAnimation": true
        }
      }
    }
  },
  "billboard": {
    "$type": "DNGNMAJBCNP",
    "attachPoint": "BillboardAttach",
    "offset": {
      "y": 0.5
    },
    "radiusOffset": 1.0,
    "enableSelfAdapt": true,
    "showDistance": 36.0,
    "elementStickUseShowDistanceInDungeon": true,
    "showHPBar": true
  },
  "initialPoses": {
    "Default": {}
  },
  "aibeta": {
    "enable": true,
    "moveSetting": {
      "navMeshAgentName": "Undead01",
      "almostReachedDistanceRun": 0.4000000059604645
    },
    "sensing": {
      "settings": {
        "DefaultSetting": {
          "viewPanoramic": true,
          "feelRange": 50.0
        }
      },
      "templates": {
        "DefaultTemplate": {
          "DefaultPoses": "DefaultSetting"
        }
      }
    },
    "threat": {
      "GHIJMOKOLMB": "",
      "clearThreatTargetDistance": 30.0,
      "clearThreatEdgeDistance": 5.0,
      "clearThreatTimerByDistance": 2.0,
      "viewAttenuation": [
        {
          "x": 12.0,
          "y": 1.0
        },
        {
          "x": 20.0,
          "y": 0.5
        }
      ],
      "targetDistanceScoreSystem": {
        "weight": 100,
        "value": 8.0,
        "max": 30.0,
        "enable": true
      }
    },
    "defendArea": {
      "defendRange": 50.0
    },
    "fly": {
      "enable": true,
      "floatingPoses": [201, 501, 551, 511]
    },
    "command": {
      "enable": true
    },
    "skills": {
      "201": {
        "name": "NormalAttack",
        "castCondition": {
          "pose": [501, 551],
          "pickRangeMax": 6.099999904632568,
          "pickRangeByRaycast": [
            {
              "min": 0.20000000298023224,
              "max": 2.4000000953674316
            }
          ]
        },
        "cd": 4.25,
        "publicCDGroup": "",
        "triggerCDOnStart": true,
        "HHAGODJIAPE": "",
        "stateIDs": ["NormalAttack"],
        "flagTargetReachable": "11",
        "flagSelfOnTemplateCollider": "01",
        "flagSelfInZone": "11",
        "flagTargetInZone": "11"
      },
      "401": {
        "name": "UnionBurst",
        "castCondition": {
          "pose": [233]
        },
        "publicCDGroup": "",
        "HHAGODJIAPE": "",
        "stateIDs": ["UnionBurst"],
        "flagTargetReachable": "10",
        "flagSelfOnTemplateCollider": "01",
        "flagSelfInZone": "10",
        "flagTargetInZone": "11"
      }
    },
    "skillGCD": 1.7000000476837158,
    "target": {
      "defaultTargetPrioritys": ["COMMAND", "POINT", "THREAT"]
    },
    "birdCirclingTactic": [
      {
        "$type": "KACCHOLJDNK",
        "enable": true,
        "condition": {
          "pose": [301]
        },
        "JMCOBEPDIGM": {
          "KHDFDAAAPEI": 0.10000000149011612,
          "GGEBMFHFBPO": 0.10000000149011612,
          "PKNJDNAGLNM": 2,
          "MNPDDAKDHGK": ""
        }
      },
      {
        "$type": "OLKHLDJJEOM",
        "enable": true,
        "JMCOBEPDIGM": {
          "GGEBMFHFBPO": 0.4000000059604645,
          "waitTime": 5.0,
          "LPAIBHMEGLC": true
        }
      },
      {
        "$type": "EPPOBBAEPED",
        "enable": true,
        "condition": {
          "pose": [501, 551]
        },
        "JMCOBEPDIGM": {
          "ANLAAGAMIKF": 2,
          "FAKGFIDPCFL": 6.0,
          "GHCEDMEHKLN": 5.900000095367432,
          "ONFAMCFCNFM": 0.0,
          "KLODEFMNFIC": 5.0,
          "NLNINOJJPFN": [
            {
              "min": 0.20000000298023224,
              "max": 3.0
            }
          ],
          "MNPDDAKDHGK": "",
          "GJDMDHIBCME": ""
        }
      }
    ]
  },
  "inputKeys": [
    {
      "keyID": 201,
      "inputKeyCode": 257,
      "abilityName": ""
    },
    {
      "keyID": 401,
      "inputKeyCode": 259,
      "abilityName": ""
    }
  ],
  "move": {
    "$type": "IPNMJMHDMPF",
    "raycasts": [
      {
        "raycastLength": 5.0,
        "raycastType": "DownToGroundAndWaterOnlyInAir",
        "startPoint": ""
      }
    ],
    "facingMove": "ForwardBackward",
    "airFacingMove": "AirBlend3D",
    "monsterSizeType": "SlimeType",
    "yawSpeedRatio": 6.619999885559082,
    "launchStates": ["Launch_Loop"],
    "landStates": ["Drop_Loop"],
    "positionModifyExtra": true,
    "PKHOMJHFAEE": "RootNode"
  }
}
