{
  "common": {
    "effectAttachShape": {
      "$type": "FJNPJANPGGC",
      "mesh": "Body"
    },
    "mass": 10000.0,
    "height": 3.0,
    "affectedByWorld": true,
    "checkInSurface": true,
    "scale": 1.2000000476837158,
    "clearAIOnSetLightDeactive": true,
    "reconnectSupport": true,
    "recoverByInitPose": true
  },
  "model": {
    "bornEffect": "",
    "attachEffect": "",
    "canBakeMesh": false,
    "BKPFGNPLDNJ": ""
  },
  "dither": {
    "showDitherDuration": 2.0,
    "normalBetweenCamera": {
      "detectDitherRange": 0.0
    }
  },
  "combat": {
    "property": {
      "endureType": "Monster_Boss_Other",
      "weight": 300.0
    },
    "beHit": {
      "hitBloodEffect": "",
      "hitAutoRedirect": false
    },
    "combatLock": {
      "lockShape": "CircleLockEnemy",
      "lockType": "Avatar&Monster_Lv4"
    },
    "die": {
      "dieEndTime": 5.0,
      "dieForceDisappearTime": 5.010000228881836,
      "dieDisappearEffect": "",
      "dieDisappearEffectDelay": 1.0,
      "muteHitBox": true,
      "dieDenyLockOn": true,
      "dieIsGhostToEnemy": true,
      "dieIgnoreTriggerBullet": true,
      "muteBillboard": true,
      "mutePushCollider": true
    },
    "animEvents": {
      "AtkL01": {
        "attackPattern": {
          "$type": "ConfigAttackCircle",
          "triggerType": "TriggerNoRepeat",
          "born": {
            "$type": "ConfigBornBySelf",
            "offset": {
              "x": 0.0,
              "y": 0.0,
              "z": 0.0
            }
          },
          "height": 5.0,
          "fanAngle": 180.0,
          "radius": 7.0
        },
        "attackInfo": {
          "attackTag": "",
          "attenuationTag": "",
          "attenuationGroup": "default",
          "attackProperty": {
            "actorGrassSubHurtDelta": 1.0,
            "actorWindSubHurtDelta": 0.0,
            "elementType": "Grass",
            "elementDurability": 50.0,
            "strikeType": "Blunt",
            "enBreak": 200.0,
            "attackType": "Melee",
            "GLKMCMDJBIK": 0.0
          },
          "hitPattern": {
            "onHitEffectName": "default",
            "hitImpulseY": "",
            "hitImpulseType": "LV5",
            "hitHaltTimeScale": 0.009999999776482582
          },
          "forceCameraShake": true,
          "cameraShake": {
            "shakeRange": 1.0,
            "shakeTime": 0.30000001192092896,
            "shakeDistance": 30.0
          }
        }
      },
      "BallAtk_01": {
        "attackPattern": {
          "$type": "ConfigAttackCircle",
          "triggerType": "TriggerNoRepeat",
          "born": {
            "$type": "ConfigBornBySelf",
            "offset": {
              "x": 0.0,
              "y": 0.0,
              "z": 0.0
            }
          },
          "height": 8.0,
          "radius": 3.0
        },
        "attackInfo": {
          "attackTag": "",
          "attenuationTag": "",
          "attenuationGroup": "default",
          "attackProperty": {
            "actorGrassSubHurtDelta": 0.699999988079071,
            "actorWindSubHurtDelta": 0.0,
            "elementType": "Grass",
            "elementDurability": 50.0,
            "strikeType": "Blunt",
            "enBreak": 200.0,
            "attackType": "Melee",
            "GLKMCMDJBIK": 0.0
          },
          "hitPattern": {
            "onHitEffectName": "default",
            "hitImpulseY": "",
            "hitImpulseType": "LV5",
            "retreatType": "ByHitDirection",
            "hitHaltTimeScale": 0.009999999776482582
          },
          "forceCameraShake": true,
          "cameraShake": {
            "shakeRange": 0.4000000059604645,
            "shakeTime": 0.10000000149011612,
            "shakeDistance": 10.0
          }
        }
      },
      "BallAtk_02": {
        "attackPattern": {
          "$type": "ConfigAttackCircle",
          "triggerType": "TriggerNoRepeat",
          "born": {
            "$type": "ConfigBornBySelf",
            "offset": {
              "x": 0.0,
              "y": 0.0,
              "z": 0.0
            }
          },
          "height": 8.0,
          "radius": 3.0
        },
        "attackInfo": {
          "attackTag": "",
          "attenuationTag": "",
          "attenuationGroup": "default",
          "attackProperty": {
            "actorGrassSubHurtDelta": 0.699999988079071,
            "actorWindSubHurtDelta": 0.0,
            "elementType": "Grass",
            "elementDurability": 50.0,
            "strikeType": "Blunt",
            "enBreak": 200.0,
            "attackType": "Melee",
            "GLKMCMDJBIK": 0.0
          },
          "hitPattern": {
            "onHitEffectName": "default",
            "hitImpulseY": "",
            "hitImpulseType": "LV5",
            "retreatType": "ByHitDirection",
            "hitHaltTimeScale": 0.009999999776482582
          },
          "forceCameraShake": true,
          "cameraShake": {
            "shakeRange": 0.4000000059604645,
            "shakeTime": 0.10000000149011612,
            "shakeDistance": 10.0
          }
        }
      },
      "BallAtk_03": {
        "attackPattern": {
          "$type": "ConfigAttackCircle",
          "triggerType": "TriggerNoRepeat",
          "born": {
            "$type": "ConfigBornBySelf",
            "offset": {
              "x": 0.0,
              "y": 0.0,
              "z": 0.0
            }
          },
          "height": 8.0,
          "radius": 5.0
        },
        "attackInfo": {
          "attackTag": "",
          "attenuationTag": "",
          "attenuationGroup": "default",
          "attackProperty": {
            "actorGrassSubHurtDelta": 1.0,
            "actorWindSubHurtDelta": 0.0,
            "elementType": "Grass",
            "elementDurability": 50.0,
            "strikeType": "Blunt",
            "enBreak": 200.0,
            "attackType": "Melee",
            "GLKMCMDJBIK": 0.0
          },
          "hitPattern": {
            "onHitEffectName": "default",
            "hitImpulseY": "",
            "hitImpulseType": "LV5",
            "retreatType": "ByHitDirection",
            "hitHaltTimeScale": 0.009999999776482582
          },
          "forceCameraShake": true,
          "cameraShake": {
            "shakeRange": 0.6000000238418579,
            "shakeTime": 0.20000000298023224,
            "shakeDistance": 10.0
          }
        }
      },
      "WhipAtk_01": {
        "attackPattern": {
          "$type": "ConfigAttackBox",
          "triggerType": "TriggerNoRepeat",
          "born": {
            "$type": "ConfigBornBySelf",
            "offset": {
              "x": 0.0,
              "y": 1.5,
              "z": 0.0
            }
          },
          "size": {
            "x": 4.0,
            "y": 3.0,
            "z": 9.5
          }
        },
        "attackInfo": {
          "attackTag": "",
          "attenuationTag": "",
          "attenuationGroup": "default",
          "attackProperty": {
            "actorGrassSubHurtDelta": 0.4000000059604645,
            "actorWindSubHurtDelta": 0.0,
            "elementType": "Grass",
            "elementDurability": 50.0,
            "strikeType": "Slash",
            "enBreak": 100.0,
            "GLKMCMDJBIK": 0.0
          },
          "hitPattern": {
            "onHitEffectName": "default",
            "hitImpulseY": "",
            "hitImpulseType": "LV3",
            "retreatType": "ByHitDirection",
            "hitHaltTimeScale": 0.05000000074505806
          },
          "canBeModifiedBy": "OriginOwner"
        }
      },
      "WhipAtk_02": {
        "attackPattern": {
          "$type": "ConfigAttackCircle",
          "triggerType": "TriggerNoRepeat",
          "born": {
            "$type": "ConfigBornBySelf",
            "offset": {
              "x": 0.0,
              "y": 0.0,
              "z": 0.0
            }
          },
          "height": 3.0,
          "fanAngle": 180.0,
          "radius": 7.0
        },
        "attackInfo": {
          "attackTag": "",
          "attenuationTag": "",
          "attenuationGroup": "default",
          "attackProperty": {
            "actorGrassSubHurtDelta": 0.6000000238418579,
            "actorWindSubHurtDelta": 0.0,
            "elementType": "Grass",
            "elementDurability": 50.0,
            "strikeType": "Slash",
            "enBreak": 100.0,
            "GLKMCMDJBIK": 0.0
          },
          "hitPattern": {
            "onHitEffectName": "default",
            "hitImpulseY": "",
            "hitImpulseType": "LV3",
            "retreatType": "ByHitDirection",
            "hitHaltTimeScale": 0.05000000074505806
          },
          "canBeModifiedBy": "OriginOwner"
        }
      },
      "WhipAtk_03": {
        "attackPattern": {
          "$type": "ConfigAttackCircle",
          "triggerType": "TriggerNoRepeat",
          "born": {
            "$type": "ConfigBornBySelf",
            "offset": {
              "x": 1.0,
              "y": 0.0,
              "z": 1.0
            }
          },
          "height": 3.0,
          "radius": 7.5
        },
        "attackInfo": {
          "attackTag": "",
          "attenuationTag": "",
          "attenuationGroup": "default",
          "attackProperty": {
            "actorGrassSubHurtDelta": 0.800000011920929,
            "actorWindSubHurtDelta": 0.0,
            "elementType": "Grass",
            "elementDurability": 50.0,
            "strikeType": "Blunt",
            "enBreak": 200.0,
            "attackType": "Melee",
            "GLKMCMDJBIK": 0.0
          },
          "hitPattern": {
            "onHitEffectName": "default",
            "hitImpulseY": "",
            "hitImpulseType": "LV5",
            "hitHaltTimeScale": 0.009999999776482582
          }
        }
      }
    }
  },
  "abilities": [
    {
      "abilityID": "",
      "abilityName": "Monster_Effigy_Grass_StandyEffect",
      "abilityOverride": ""
    },
    {
      "abilityID": "",
      "abilityName": "Monster_Effigy_Grass_SetRevivingState",
      "abilityOverride": ""
    },
    {
      "abilityID": "",
      "abilityName": "Monster_Effigy_Grass_ResetRevivingState",
      "abilityOverride": ""
    },
    {
      "abilityID": "",
      "abilityName": "Monster_Effigy_Grass_FightingPoseManager",
      "abilityOverride": ""
    },
    {
      "abilityID": "",
      "abilityName": "Monster_Effigy_Grass_HpDetect",
      "abilityOverride": ""
    },
    {
      "abilityID": "",
      "abilityName": "Monster_Effigy_Grass_ShieldAndCore",
      "abilityOverride": ""
    },
    {
      "abilityID": "",
      "abilityName": "Monster_Effigy_Grass_SetShieldOn",
      "abilityOverride": ""
    },
    {
      "abilityID": "",
      "abilityName": "Monster_Effigy_Grass_SetShieldOff",
      "abilityOverride": ""
    },
    {
      "abilityID": "",
      "abilityName": "Monster_Effigy_Grass_Steer",
      "abilityOverride": ""
    },
    {
      "abilityID": "",
      "abilityName": "Monster_Effigy_Grass_RandomMove",
      "abilityOverride": ""
    },
    {
      "abilityID": "",
      "abilityName": "Monster_Effigy_Grass_CombatMoveLogic",
      "abilityOverride": ""
    },
    {
      "abilityID": "",
      "abilityName": "Monster_Effigy_Grass_RushMove",
      "abilityOverride": ""
    },
    {
      "abilityID": "",
      "abilityName": "Monster_Effigy_Grass_ReturnToBorn",
      "abilityOverride": ""
    },
    {
      "abilityID": "",
      "abilityName": "Monster_Effigy_Grass_BlinkStart",
      "abilityOverride": ""
    },
    {
      "abilityID": "",
      "abilityName": "Monster_Effigy_Grass_FindBlinkPoint",
      "abilityOverride": ""
    },
    {
      "abilityID": "",
      "abilityName": "Monster_Effigy_Grass_FindBlinkPointRandom",
      "abilityOverride": ""
    },
    {
      "abilityID": "",
      "abilityName": "Monster_Effigy_Grass_Blink",
      "abilityOverride": ""
    },
    {
      "abilityID": "",
      "abilityName": "Monster_Effigy_Grass_BlinkAS",
      "abilityOverride": ""
    },
    {
      "abilityID": "",
      "abilityName": "Monster_Effigy_Grass_ReviveStateEffect",
      "abilityOverride": ""
    },
    {
      "abilityID": "",
      "abilityName": "Monster_Effigy_Grass_FlowerAtk1",
      "abilityOverride": ""
    },
    {
      "abilityID": "",
      "abilityName": "Monster_Effigy_Grass_FlowerAtk2",
      "abilityOverride": ""
    },
    {
      "abilityID": "",
      "abilityName": "Monster_Effigy_Grass_FlowerAtk3",
      "abilityOverride": ""
    },
    {
      "abilityID": "",
      "abilityName": "Monster_Effigy_Grass_FlowerAtk1_Hit",
      "abilityOverride": ""
    },
    {
      "abilityID": "",
      "abilityName": "Monster_Effigy_Grass_FlowerAtk2_Hit",
      "abilityOverride": ""
    },
    {
      "abilityID": "",
      "abilityName": "Monster_Effigy_Grass_FlowerAtk3_Hit",
      "abilityOverride": ""
    },
    {
      "abilityID": "",
      "abilityName": "Monster_Effigy_Grass_BallAtk_RushMove2",
      "abilityOverride": ""
    },
    {
      "abilityID": "",
      "abilityName": "Monster_Effigy_Grass_BallAtk_Hit2",
      "abilityOverride": ""
    },
    {
      "abilityID": "",
      "abilityName": "Monster_Effigy_Grass_BallAtk_RushMove3",
      "abilityOverride": ""
    },
    {
      "abilityID": "",
      "abilityName": "Monster_Effigy_Grass_BallAtk_Hit3",
      "abilityOverride": ""
    },
    {
      "abilityID": "",
      "abilityName": "Monster_Effigy_Grass_BallAtk_Effect",
      "abilityOverride": ""
    },
    {
      "abilityID": "",
      "abilityName": "Monster_Effigy_Grass_BallAtk_GrassBallCollider",
      "abilityOverride": ""
    },
    {
      "abilityID": "",
      "abilityName": "Monster_Effigy_Grass_BallAtk_BurningBreak",
      "abilityOverride": ""
    },
    {
      "abilityID": "",
      "abilityName": "Monster_Effigy_Grass_WeedAtk_CreateGrassWall",
      "abilityOverride": ""
    },
    {
      "abilityID": "",
      "abilityName": "Monster_Effigy_Grass_CircleAtk_CreateGrassWall",
      "abilityOverride": ""
    },
    {
      "abilityID": "",
      "abilityName": "Monster_Effigy_Grass_CircleAtk_GrassWallWarning",
      "abilityOverride": ""
    },
    {
      "abilityID": "",
      "abilityName": "Monster_Effigy_Grass_CircleAtk_LastHit",
      "abilityOverride": ""
    },
    {
      "abilityID": "",
      "abilityName": "Monster_Effigy_Grass_WhipAtk_WhipControl",
      "abilityOverride": ""
    },
    {
      "abilityID": "",
      "abilityName": "Monster_Effigy_Grass_ReviveAtk_CreateBullet",
      "abilityOverride": ""
    },
    {
      "abilityID": "",
      "abilityName": "Monster_Common_GrassMuteHurt",
      "abilityOverride": ""
    },
    {
      "abilityID": "",
      "abilityName": "Monster_Effigy_Electric_ShaderState1ToState2",
      "abilityOverride": ""
    },
    {
      "abilityID": "",
      "abilityName": "Monster_Effigy_Electric_ShaderState2ToState1",
      "abilityOverride": ""
    },
    {
      "abilityID": "",
      "abilityName": "Monster_Effigy_Grass_AlertnessTag",
      "abilityOverride": ""
    },
    {
      "abilityID": "",
      "abilityName": "Monster_Effigy_Grass_SeedManager",
      "abilityOverride": ""
    }
  ],
  "stateLayers": {
    "defaultLayer": {
      "$type": "GBGJJIIEMBD",
      "layerIndexName": "",
      "CPAANEIJCGD": "",
      "stateIDs": {
        "Born": {
          "$type": "NEDIFAKEGCO",
          "animatorStates": {
            "Born": []
          },
          "canDoSkill": true,
          "canSyncMove": true,
          "resetAnimatorTriggerOnEnter": ["DoSkill", "ToShaderState2"],
          "resetAnimatorTriggerOnExit": ["DoSkill", "ToShaderState1"]
        },
        "Standby_BS": {
          "$type": "NEDIFAKEGCO",
          "animatorStates": {
            "Standby_BS": []
          },
          "canSyncMove": true,
          "cullingModelAlwaysAnimate": true,
          "resetAnimatorTriggerOnEnter": ["DoSkill", "ToShaderState2"],
          "resetAnimatorTriggerOnExit": ["ToShaderState1"]
        },
        "Standby_AS": {
          "$type": "NEDIFAKEGCO",
          "animatorStates": {
            "Standby_AS": []
          },
          "canDoSkill": true,
          "canSyncMove": true,
          "cullingModelAlwaysAnimate": true,
          "resetAnimatorTriggerOnEnter": ["ToShaderState2"],
          "resetAnimatorTriggerOnExit": ["DoSkill", "ToShaderState1"]
        },
        "Revive_Standby": {
          "$type": "NEDIFAKEGCO",
          "animatorStates": {
            "Revive_BS02": ["Monster_Effigy_Grass_Revive_BS02"],
            "Revive_Standby": ["Monster_Effigy_Grass_Revive_Loop"]
          },
          "canDoSkill": true,
          "canSyncMove": true,
          "cullingModelAlwaysAnimate": true,
          "resetAnimatorTriggerOnEnter": ["DoSkill", "ToShaderState2"],
          "resetAnimatorTriggerOnExit": ["DoSkill", "ToShaderState1"]
        },
        "StandbyFree": {
          "$type": "NEDIFAKEGCO",
          "animatorStates": {
            "StandbyFree": []
          },
          "canDoSkill": true,
          "canSyncMove": true,
          "cullingModelAlwaysAnimate": true,
          "resetAnimatorTriggerOnEnter": ["DoSkill", "ToShaderState2"],
          "resetAnimatorTriggerOnExit": ["DoSkill", "ToShaderState1"]
        },
        "Die": {
          "$type": "NEDIFAKEGCO",
          "animatorStates": {
            "Die": ["Monster_Effigy_Grass_Die", "Audio_Effigy_Grass_Revive_Die"]
          }
        },
        "Warning": {
          "$type": "NEDIFAKEGCO",
          "animatorStates": {
            "Warning": ["Audio_Effigy_Grass_Warning"]
          },
          "resetAnimatorTriggerOnExit": ["BeHit", "DoSkill", "ToShaderState1"]
        },
        "BeHit": {
          "$type": "NEDIFAKEGCO",
          "animatorStates": {
            "Hit_L": [],
            "Hit_H": []
          },
          "resetAnimatorTriggerOnEnter": ["BeHit"],
          "resetAnimatorTriggerOnExit": ["DoSkill", "ToShaderState1"]
        },
        "BeHitThrow": {
          "$type": "NEDIFAKEGCO",
          "animatorStates": {
            "HitThrow": [],
            "HitThrowDrop": [],
            "HitThrowToGround": []
          },
          "resetAnimatorTriggerOnEnter": ["BeHit", "HitAir2HitDrop"],
          "resetAnimatorTriggerOnExit": ["DoSkill", "ToShaderState1"]
        },
        "RushAway": {
          "$type": "NEDIFAKEGCO",
          "animatorStates": {
            "RushAway_BS": ["Audio_Effigy_Grass_RushAway_BS"]
          },
          "canSyncMove": true,
          "cullingModelAlwaysAnimate": true,
          "resetAnimatorTriggerOnExit": ["BeHit", "DoSkill"],
          "canSteer": true
        },
        "RushAway_AS": {
          "$type": "NEDIFAKEGCO",
          "animatorStates": {
            "RushAway_AS": ["Audio_Effigy_Grass_Dying_AS"]
          },
          "canDoSkill": true,
          "canSyncMove": true,
          "cullingModelAlwaysAnimate": true,
          "resetAnimatorTriggerOnExit": ["BeHit", "DoSkill"],
          "canSteer": true
        },
        "Return": {
          "$type": "NEDIFAKEGCO",
          "animatorStates": {
            "Return": [
              "Monster_Effigy_Grass_BlinkReturn",
              "Audio_Effigy_Grass_Return"
            ]
          },
          "canDoSkill": true,
          "canSyncMove": true,
          "cullingModelAlwaysAnimate": true,
          "resetAnimatorTriggerOnExit": ["BeHit", "DoSkill"],
          "canSteer": true
        },
        "FlowerAtk_Rush": {
          "$type": "NEDIFAKEGCO",
          "animatorStates": {
            "FlowerAtk_Rush": ["Audio_Effigy_Grass_FlowerAtk_Rush"]
          },
          "canSyncMove": true,
          "cullingModelAlwaysAnimate": true,
          "resetAnimatorTriggerOnExit": [
            "BeHit",
            "DoSkill",
            "FlowerAtk_RushStop"
          ],
          "canSteer": true
        },
        "FlowerAtk": {
          "$type": "NEDIFAKEGCO",
          "animatorStates": {
            "FlowerAtk": [
              "Monster_Effigy_Grass_FlowerAtk",
              "Audio_Effigy_Grass_FlowerAtk"
            ]
          },
          "cullingModelAlwaysAnimate": true,
          "resetAnimatorTriggerOnEnter": ["RushAwayTrigger"],
          "resetAnimatorTriggerOnExit": ["BeHit", "DoSkill"]
        },
        "FlowerAtk_CoreOutLoop": {
          "$type": "NEDIFAKEGCO",
          "animatorStates": {
            "FlowerAtk_CoreOutLoop": []
          },
          "cullingModelAlwaysAnimate": true,
          "resetAnimatorTriggerOnEnter": ["RushAwayTrigger"],
          "resetAnimatorTriggerOnExit": ["BeHit", "DoSkill"]
        },
        "FlowerAtk_CoreOutAS": {
          "$type": "NEDIFAKEGCO",
          "animatorStates": {
            "FlowerAtk_CoreOutAS": [
              "Monster_Effigy_Grass_Reform",
              "Audio_Effigy_Grass_BallAtk_CoreOut_AS"
            ]
          },
          "cullingModelAlwaysAnimate": true,
          "resetAnimatorTriggerOnEnter": ["RushAwayTrigger"],
          "resetAnimatorTriggerOnExit": ["BeHit", "DoSkill"]
        },
        "BallAtk_Rush": {
          "$type": "NEDIFAKEGCO",
          "animatorStates": {
            "BallAtk_Rush": []
          },
          "canSyncMove": true,
          "cullingModelAlwaysAnimate": true,
          "resetAnimatorTriggerOnExit": [
            "BeHit",
            "DoSkill",
            "BallAtk_RushStop"
          ],
          "canSteer": true
        },
        "BallAtk_BS": {
          "$type": "NEDIFAKEGCO",
          "animatorStates": {
            "BallAtk_BS": [
              "Monster_Effigy_Grass_BallAtk_BS",
              "Audio_Effigy_Grass_BallAtk_BS"
            ]
          },
          "cullingModelAlwaysAnimate": true,
          "resetAnimatorTriggerOnEnter": ["RushAwayTrigger"],
          "resetAnimatorTriggerOnExit": ["BeHit", "DoSkill"],
          "canSteer": true
        },
        "BallAtk_BS2": {
          "$type": "NEDIFAKEGCO",
          "animatorStates": {
            "BallAtk_BS2": ["Audio_Effigy_Grass_BallAtk_BS02"]
          },
          "cullingModelAlwaysAnimate": true,
          "resetAnimatorTriggerOnEnter": ["RushAwayTrigger"],
          "resetAnimatorTriggerOnExit": ["BeHit", "DoSkill"],
          "canSteer": true
        },
        "BallAtk_Break": {
          "$type": "NEDIFAKEGCO",
          "animatorStates": {
            "BallAtk_Break": ["Audio_Effigy_Grass_BallAtk_Break"]
          },
          "cullingModelAlwaysAnimate": true,
          "resetAnimatorTriggerOnEnter": ["RushAwayTrigger"],
          "resetAnimatorTriggerOnExit": ["BeHit", "DoSkill"],
          "canSteer": true
        },
        "BallAtk_Loop1": {
          "$type": "NEDIFAKEGCO",
          "animatorStates": {
            "BallAtk_Loop1": [
              "Monster_Effigy_Grass_BallAtk_Loop1",
              "Audio_Effigy_Grass_BallAtk1"
            ]
          },
          "cullingModelAlwaysAnimate": true,
          "resetAnimatorTriggerOnEnter": ["RushAwayTrigger"],
          "resetAnimatorTriggerOnExit": ["BeHit", "DoSkill"],
          "canSteer": true
        },
        "BallAtk_Loop2": {
          "$type": "NEDIFAKEGCO",
          "animatorStates": {
            "BallAtk_Loop2": [
              "Monster_Effigy_Grass_BallAtk_Loop2",
              "Audio_Effigy_Grass_BallAtk2"
            ]
          },
          "cullingModelAlwaysAnimate": true,
          "resetAnimatorTriggerOnEnter": ["RushAwayTrigger"],
          "resetAnimatorTriggerOnExit": ["BeHit", "DoSkill"],
          "canSteer": true
        },
        "BallAtk_AS": {
          "$type": "NEDIFAKEGCO",
          "animatorStates": {
            "BallAtk_AS": [
              "Monster_Effigy_Grass_BallAtk_AS",
              "Audio_Effigy_Grass_BallAtk_AS"
            ]
          },
          "cullingModelAlwaysAnimate": true,
          "resetAnimatorTriggerOnEnter": ["RushAwayTrigger"],
          "resetAnimatorTriggerOnExit": ["BeHit", "DoSkill"],
          "canSteer": true
        },
        "BallAtk_CoreOutLoop": {
          "$type": "NEDIFAKEGCO",
          "animatorStates": {
            "BallAtk_CoreOutLoop": []
          },
          "cullingModelAlwaysAnimate": true,
          "resetAnimatorTriggerOnEnter": ["RushAwayTrigger"],
          "resetAnimatorTriggerOnExit": ["BeHit", "DoSkill"]
        },
        "BallAtk_CoreOutAS": {
          "$type": "NEDIFAKEGCO",
          "animatorStates": {
            "BallAtk_CoreOutAS": [
              "Monster_Effigy_Grass_Reform",
              "Audio_Effigy_Grass_BallAtk_CoreOut_AS"
            ]
          },
          "cullingModelAlwaysAnimate": true,
          "resetAnimatorTriggerOnEnter": ["RushAwayTrigger"],
          "resetAnimatorTriggerOnExit": ["BeHit", "DoSkill"]
        },
        "WeedAtk_Rush": {
          "$type": "NEDIFAKEGCO",
          "animatorStates": {
            "WeedAtk_Rush": []
          },
          "canSyncMove": true,
          "cullingModelAlwaysAnimate": true,
          "resetAnimatorTriggerOnExit": [
            "BeHit",
            "DoSkill",
            "WeedAtk_RushStop"
          ],
          "canSteer": true
        },
        "WeedAtk": {
          "$type": "NEDIFAKEGCO",
          "animatorStates": {
            "WeedAtk": [
              "Monster_Effigy_Grass_WeedAtk",
              "Audio_Effigy_Grass_WeedAtk"
            ]
          },
          "cullingModelAlwaysAnimate": true,
          "resetAnimatorTriggerOnEnter": ["RushAwayTrigger"],
          "resetAnimatorTriggerOnExit": ["BeHit", "DoSkill"]
        },
        "WeedAtk_CoreOutLoop": {
          "$type": "NEDIFAKEGCO",
          "animatorStates": {
            "WeedAtk_CoreOutLoop": []
          },
          "cullingModelAlwaysAnimate": true,
          "resetAnimatorTriggerOnEnter": ["RushAwayTrigger"],
          "resetAnimatorTriggerOnExit": ["BeHit", "DoSkill"]
        },
        "WeedAtk_CoreOutAS": {
          "$type": "NEDIFAKEGCO",
          "animatorStates": {
            "WeedAtk_CoreOutAS": [
              "Monster_Effigy_Grass_Reform",
              "Audio_Effigy_Grass_BallAtk_CoreOut_AS"
            ]
          },
          "cullingModelAlwaysAnimate": true,
          "resetAnimatorTriggerOnEnter": ["RushAwayTrigger"],
          "resetAnimatorTriggerOnExit": ["BeHit", "DoSkill"]
        },
        "CircleAtk_Blink": {
          "$type": "NEDIFAKEGCO",
          "animatorStates": {
            "CircleAtk_Blink": [
              "Monster_Effigy_Grass_BlinkReborn",
              "Audio_Effigy_Grass_CircleAtk_Blink"
            ]
          },
          "canSyncMove": true,
          "cullingModelAlwaysAnimate": true,
          "resetAnimatorTriggerOnEnter": ["RushAwayTrigger"],
          "resetAnimatorTriggerOnExit": ["BeHit", "DoSkill"]
        },
        "CircleAtk_BS": {
          "$type": "NEDIFAKEGCO",
          "animatorStates": {
            "CircleAtk_BS": [
              "Monster_Effigy_Grass_CircleAtk_BS",
              "Audio_Effigy_Grass_CircleAtk_BS"
            ]
          },
          "canSyncMove": true,
          "cullingModelAlwaysAnimate": true,
          "resetAnimatorTriggerOnEnter": ["RushAwayTrigger"],
          "resetAnimatorTriggerOnExit": ["BeHit", "DoSkill"]
        },
        "CircleAtk_Loop": {
          "$type": "NEDIFAKEGCO",
          "animatorStates": {
            "CircleAtk_Loop": []
          },
          "canSyncMove": true,
          "cullingModelAlwaysAnimate": true,
          "resetAnimatorTriggerOnEnter": ["RushAwayTrigger"],
          "resetAnimatorTriggerOnExit": ["BeHit", "DoSkill"]
        },
        "CircleAtk_Break": {
          "$type": "NEDIFAKEGCO",
          "animatorStates": {
            "CircleAtk_Break": ["Monster_Effigy_Grass_CircleAtk_Break"]
          },
          "canSyncMove": true,
          "cullingModelAlwaysAnimate": true,
          "resetAnimatorTriggerOnEnter": ["RushAwayTrigger"],
          "resetAnimatorTriggerOnExit": ["BeHit", "DoSkill"]
        },
        "CircleAtk_AS": {
          "$type": "NEDIFAKEGCO",
          "animatorStates": {
            "CircleAtk_AS": [
              "Monster_Effigy_Grass_CircleAtk_AS",
              "Audio_Effigy_Grass_CircleAtk_AS"
            ]
          },
          "canSyncMove": true,
          "cullingModelAlwaysAnimate": true,
          "resetAnimatorTriggerOnEnter": ["RushAwayTrigger"],
          "resetAnimatorTriggerOnExit": ["BeHit", "DoSkill"]
        },
        "CircleAtk_CoreOutLoop": {
          "$type": "NEDIFAKEGCO",
          "animatorStates": {
            "CircleAtk_CoreOutLoop": []
          },
          "cullingModelAlwaysAnimate": true,
          "resetAnimatorTriggerOnEnter": ["RushAwayTrigger"],
          "resetAnimatorTriggerOnExit": ["BeHit", "DoSkill"]
        },
        "CircleAtk_CoreOutAS": {
          "$type": "NEDIFAKEGCO",
          "animatorStates": {
            "CircleAtk_CoreOutAS": [
              "Monster_Effigy_Grass_Reform",
              "Audio_Effigy_Grass_BallAtk_CoreOut_AS"
            ]
          },
          "cullingModelAlwaysAnimate": true,
          "resetAnimatorTriggerOnEnter": ["RushAwayTrigger"],
          "resetAnimatorTriggerOnExit": ["BeHit", "DoSkill"]
        },
        "WhipAtk_BS": {
          "$type": "NEDIFAKEGCO",
          "animatorStates": {
            "WhipAtk_BS": [
              "Monster_Effigy_Grass_WhipAtk_BS",
              "Audio_Effigy_Grass_WhipAtk_BS"
            ]
          },
          "canSyncMove": true,
          "cullingModelAlwaysAnimate": true,
          "resetAnimatorTriggerOnEnter": ["RushAwayTrigger"],
          "resetAnimatorTriggerOnExit": ["BeHit", "DoSkill"]
        },
        "WhipAtk_Hit01": {
          "$type": "NEDIFAKEGCO",
          "animatorStates": {
            "WhipAtk_Hit01": ["Audio_Effigy_Grass_WhipAtk_hit03"]
          },
          "canSyncMove": true,
          "cullingModelAlwaysAnimate": true,
          "resetAnimatorTriggerOnEnter": ["RushAwayTrigger"],
          "resetAnimatorTriggerOnExit": ["BeHit", "DoSkill"]
        },
        "WhipAtk_Hit02": {
          "$type": "NEDIFAKEGCO",
          "animatorStates": {
            "WhipAtk_Hit02": ["Audio_Effigy_Grass_WhipAtk_hit03"]
          },
          "canSyncMove": true,
          "cullingModelAlwaysAnimate": true,
          "resetAnimatorTriggerOnEnter": ["RushAwayTrigger"],
          "resetAnimatorTriggerOnExit": ["BeHit", "DoSkill"]
        },
        "WhipAtk_Hit03": {
          "$type": "NEDIFAKEGCO",
          "animatorStates": {
            "WhipAtk_Hit03": [
              "Monster_Effigy_Grass_WhipAtk",
              "Audio_Effigy_Grass_WhipAtk_hit03"
            ]
          },
          "canSyncMove": true,
          "cullingModelAlwaysAnimate": true,
          "resetAnimatorTriggerOnEnter": ["RushAwayTrigger"],
          "resetAnimatorTriggerOnExit": ["BeHit", "DoSkill"]
        },
        "WhipAtk_CoreOutLoop": {
          "$type": "NEDIFAKEGCO",
          "animatorStates": {
            "WhipAtk_CoreOutLoop": []
          },
          "cullingModelAlwaysAnimate": true,
          "resetAnimatorTriggerOnEnter": ["RushAwayTrigger"],
          "resetAnimatorTriggerOnExit": ["BeHit", "DoSkill"]
        },
        "WhipAtk_Reform": {
          "$type": "NEDIFAKEGCO",
          "animatorStates": {
            "WhipAtk_Reform": ["Monster_Effigy_Grass_Reform"]
          },
          "cullingModelAlwaysAnimate": true,
          "resetAnimatorTriggerOnEnter": ["RushAwayTrigger"],
          "resetAnimatorTriggerOnExit": ["BeHit", "DoSkill"]
        },
        "FadeAtk": {
          "$type": "NEDIFAKEGCO",
          "animatorStates": {
            "FadeAtk": [
              "Monster_Effigy_Grass_FadeAtk",
              "Audio_Effigy_Grass_FadeAtk"
            ]
          },
          "canSyncMove": true,
          "cullingModelAlwaysAnimate": true,
          "resetAnimatorTriggerOnEnter": ["RushAwayTrigger"],
          "resetAnimatorTriggerOnExit": ["BeHit", "DoSkill"]
        },
        "ReturnToBorn": {
          "$type": "NEDIFAKEGCO",
          "animatorStates": {
            "ReturnToBorn": [],
            "ReturnToBorn_Blink": [
              "Monster_Effigy_Grass_ReturnToBorn",
              "Audio_Effigy_Grass_ReturnToBorn"
            ],
            "ReturnToBorn_AS": []
          },
          "canSyncMove": true,
          "cullingModelAlwaysAnimate": true,
          "resetAnimatorTriggerOnExit": ["BeHit", "DoSkill"]
        },
        "Revive_Blink": {
          "$type": "NEDIFAKEGCO",
          "animatorStates": {
            "Revive_Blink": [
              "Monster_Effigy_Grass_BlinkReborn",
              "Audio_Effigy_Grass_Revive_Blink"
            ]
          },
          "canSyncMove": true,
          "cullingModelAlwaysAnimate": true,
          "resetAnimatorTriggerOnExit": ["BeHit", "DoSkill"]
        },
        "Revive_BS": {
          "$type": "NEDIFAKEGCO",
          "animatorStates": {
            "Revive_BS01": ["Monster_Effigy_Grass_Revive_BS"]
          },
          "canSyncMove": true,
          "cullingModelAlwaysAnimate": true,
          "resetAnimatorTriggerOnExit": ["BeHit", "DoSkill"]
        },
        "Revive_AS": {
          "$type": "NEDIFAKEGCO",
          "animatorStates": {
            "Revive_AS": [
              "Monster_Effigy_Grass_Revive_AS",
              "Audio_Effigy_Grass_Dying_AS"
            ]
          },
          "canSyncMove": true,
          "cullingModelAlwaysAnimate": true,
          "resetAnimatorTriggerOnExit": ["BeHit", "DoSkill"]
        },
        "ReviveAtk_BS": {
          "$type": "NEDIFAKEGCO",
          "animatorStates": {
            "ReviveAtk_BS": []
          },
          "cullingModelAlwaysAnimate": true,
          "resetAnimatorTriggerOnExit": ["BeHit", "DoSkill", "RushAwayTrigger"],
          "canSteer": true
        },
        "ReviveAtk_Loop": {
          "$type": "NEDIFAKEGCO",
          "animatorStates": {
            "ReviveAtk_Loop": [
              "Monster_Effigy_Grass_ReviveAtk_Loop",
              "Audio_Effigy_Grass_ReviveAtk"
            ]
          },
          "canDoSkill": true,
          "cullingModelAlwaysAnimate": true,
          "resetAnimatorTriggerOnExit": ["BeHit", "DoSkill", "RushAwayTrigger"],
          "canSteer": true
        },
        "ReviveAtk_AS": {
          "$type": "NEDIFAKEGCO",
          "animatorStates": {
            "ReviveAtk_AS": ["Audio_Effigy_Grass_ReviveAtk_AS"]
          },
          "canDoSkill": true,
          "cullingModelAlwaysAnimate": true,
          "resetAnimatorTriggerOnExit": ["BeHit", "DoSkill", "RushAwayTrigger"],
          "canSteer": true
        }
      }
    }
  },
  "billboard": {
    "$type": "DNGNMAJBCNP",
    "attachPoint": "BillboardAttach",
    "offset": {
      "y": 1.5
    },
    "radiusOffset": 1.0,
    "enableSelfAdapt": true,
    "showHPBar": true,
    "size": "Big"
  },
  "initialPoses": {
    "Default": {}
  },
  "aibeta": {
    "enable": true,
    "moveSetting": {
      "useNavMesh": false,
      "navMeshAgentName": "Undead01"
    },
    "sensing": {
      "settings": {
        "DefaultSetting": {
          "viewRange": 15.0,
          "viewPanoramic": true,
          "feelRange": 7.5
        }
      },
      "templates": {
        "DefaultTemplate": {
          "DefaultPoses": "DefaultSetting"
        }
      }
    },
    "threat": {
      "GHIJMOKOLMB": "",
      "clearThreatTargetDistance": 70.0,
      "clearThreatEdgeDistance": 7.5,
      "clearThreatByTargetOutOfZone": true,
      "clearThreatTimerByTargetOutOfZone": 3.0,
      "viewThreatGrow": 35.0,
      "threatDecreaseSpeed": 200.0,
      "resistTauntLevel": "Monster_TauntLevel_4"
    },
    "defendArea": {
      "defendRange": 50.0
    },
    "profiling": {
      "lodStrategy": "Best",
      "staticPoses": [1]
    },
    "network": {
      "syncSkill": true
    },
    "skillGroupCDConfigs": [
      {
        "skillGroupCDID": 230,
        "skillGroupCDTime": 30.0
      },
      {
        "skillGroupCDID": 320,
        "skillGroupCDTime": 2.0
      }
    ],
    "skills": {
      "100": {
        "name": "OnAlert",
        "skillType": "OnAlert",
        "faceTarget": true,
        "castCondition": {
          "pose": [1, 101, 201]
        },
        "publicCDGroup": "",
        "triggerGCD": false,
        "HHAGODJIAPE": "",
        "stateIDs": ["Warning"],
        "skillQueryingTime": 4.0,
        "flagTargetReachable": "10",
        "flagSelfOnTemplateCollider": "01",
        "flagSelfInZone": "10",
        "flagTargetInZone": "11"
      },
      "211": {
        "name": "FlowerAtk",
        "priority": 4,
        "castCondition": {
          "pose": [101],
          "pickRangeMax": 15.0,
          "skillAnchorRangeMax": 30.0
        },
        "cd": 15.0,
        "cdUpperRange": 10.0,
        "publicCDGroup": "",
        "HHAGODJIAPE": "",
        "stateIDs": [
          "FlowerAtk",
          "FlowerAtk_CoreOutLoop",
          "FlowerAtk_CoreOutAS"
        ],
        "skillQueryingTime": 4.0,
        "flagTargetReachable": "11",
        "flagSelfOnTemplateCollider": "01",
        "flagSelfInZone": "10",
        "flagTargetInZone": "11"
      },
      "221": {
        "name": "BallAtk",
        "priority": 3,
        "castCondition": {
          "pose": [101],
          "pickRangeMin": 5.0,
          "pickRangeMax": 30.0,
          "skillAnchorRangeMax": 30.0
        },
        "cd": 20.0,
        "cdUpperRange": 10.0,
        "initialCD": 15.0,
        "initialCDUpperRange": 5.0,
        "publicCDGroup": "",
        "HHAGODJIAPE": "",
        "stateIDs": [
          "BallAtk_BS",
          "BallAtk_BS2",
          "BallAtk_Loop1",
          "BallAtk_Loop2",
          "BallAtk_Break",
          "BallAtk_AS",
          "BallAtk_CoreOutLoop",
          "BallAtk_CoreOutAS"
        ],
        "skillQueryingTime": 4.0,
        "flagTargetReachable": "10",
        "flagSelfOnTemplateCollider": "01",
        "flagSelfInZone": "10",
        "flagTargetInZone": "10"
      },
      "231": {
        "name": "WeedAtk",
        "priority": 4,
        "castCondition": {
          "pose": [101],
          "pickRangeMin": 8.0,
          "pickRangeMax": 25.0,
          "skillAnchorRangeMax": 30.0
        },
        "cd": 15.0,
        "cdUpperRange": 10.0,
        "publicCDGroup": "",
        "HHAGODJIAPE": "",
        "stateIDs": ["WeedAtk", "WeedAtk_CoreOutLoop", "WeedAtk_CoreOutAS"],
        "skillQueryingTime": 4.0,
        "flagTargetReachable": "10",
        "flagSelfOnTemplateCollider": "01",
        "flagSelfInZone": "10",
        "flagTargetInZone": "10"
      },
      "241": {
        "name": "CircleAtk",
        "priority": 2,
        "castCondition": {
          "pose": [101],
          "needReInitCD": true,
          "skillAnchorRangeMax": 30.0
        },
        "cd": 50.0,
        "cdUpperRange": 20.0,
        "initialCD": 40.0,
        "initialCDUpperRange": 10.0,
        "publicCDGroup": "",
        "skillGroupCDID": 0,
        "HHAGODJIAPE": "",
        "stateIDs": [
          "CircleAtk_Blink",
          "CircleAtk_BS",
          "CircleAtk_Loop",
          "CircleAtk_AS",
          "CircleAtk_Break",
          "CircleAtk_CoreOutLoop",
          "CircleAtk_CoreOutAS"
        ],
        "skillQueryingTime": 4.0,
        "flagTargetReachable": "10",
        "flagSelfOnTemplateCollider": "01",
        "flagSelfInZone": "10",
        "flagTargetInZone": "10"
      },
      "251": {
        "name": "WhipAtk",
        "priority": 4,
        "castCondition": {
          "pose": [101],
          "pickRangeMax": 8.0,
          "skillAnchorRangeMax": 30.0
        },
        "cd": 10.0,
        "cdUpperRange": 5.0,
        "publicCDGroup": "",
        "skillGroupCDID": 0,
        "HHAGODJIAPE": "",
        "stateIDs": [
          "WhipAtk_BS",
          "WhipAtk_Hit01",
          "WhipAtk_Hit02",
          "WhipAtk_Hit03",
          "WhipAtk_CoreOutLoop",
          "WhipAtk_Reform"
        ],
        "skillQueryingTime": 4.0,
        "flagTargetReachable": "10",
        "flagSelfOnTemplateCollider": "01",
        "flagSelfInZone": "10",
        "flagTargetInZone": "10"
      },
      "331": {
        "name": "ReviveAtk",
        "castCondition": {
          "pose": [201],
          "needReInitCD": true,
          "globalValues": ["_EFFIGY_GRASS_CAN_USE_REVIVEATK_BIGWORLD"],
          "globalValuesTargetType": "SELF"
        },
        "cd": 3.799999952316284,
        "initialCD": 0.10000000149011612,
        "publicCDGroup": "",
        "ignoreGCD": true,
        "triggerGCD": false,
        "HHAGODJIAPE": "",
        "stateIDs": ["ReviveAtk_BS", "ReviveAtk_Loop"],
        "skillQueryingTime": 5.0,
        "flagTargetReachable": "11",
        "flagSelfOnTemplateCollider": "01",
        "flagSelfInZone": "10",
        "flagTargetInZone": "11"
      },
      "341": {
        "name": "Revive_AS",
        "priority": 1,
        "castCondition": {
          "pose": [201],
          "needReInitCD": true
        },
        "cd": 25.0,
        "initialCD": 25.0,
        "publicCDGroup": "",
        "ignoreGCD": true,
        "triggerGCD": false,
        "triggerCDOnFail": false,
        "HHAGODJIAPE": "",
        "stateIDs": ["Revive_AS"],
        "skillQueryingTime": 10.0,
        "flagTargetReachable": "11",
        "flagSelfOnTemplateCollider": "01",
        "flagSelfInZone": "10",
        "flagTargetInZone": "11"
      },
      "501": {
        "name": "Return",
        "priority": 1,
        "castCondition": {
          "pose": [101],
          "skillAnchorRangeMin": 27.0,
          "skillAnchorRangeMax": 99.0
        },
        "cd": 5.0,
        "initialCD": 5.0,
        "publicCDGroup": "",
        "HHAGODJIAPE": "",
        "stateIDs": ["Return"],
        "skillQueryingTime": 4.0,
        "flagTargetReachable": "11",
        "flagSelfOnTemplateCollider": "01",
        "flagSelfInZone": "11",
        "flagTargetInZone": "11"
      }
    },
    "skillGCD": 0.0,
    "birdCirclingTactic": [
      {
        "$type": "NNJKLGNPMNN",
        "enable": true,
        "condition": {
          "pose": [1, 101]
        },
        "JMCOBEPDIGM": {
          "ANLAAGAMIKF": 0,
          "JFMIFLNBKMJ": 3.0,
          "DHGJDIPNDHH": 3.5,
          "MNPDDAKDHGK": "",
          "GJDMDHIBCME": ""
        }
      }
    ]
  },
  "inputKeys": [
    {
      "keyID": 211,
      "inputKeyCode": 257,
      "abilityName": ""
    },
    {
      "keyID": 221,
      "inputKeyCode": 258,
      "abilityName": ""
    },
    {
      "keyID": 231,
      "inputKeyCode": 259,
      "abilityName": ""
    },
    {
      "keyID": 241,
      "inputKeyCode": 260,
      "abilityName": ""
    },
    {
      "keyID": 251,
      "inputKeyCode": 261,
      "abilityName": ""
    },
    {
      "keyID": 261,
      "inputKeyCode": 262,
      "abilityName": ""
    },
    {
      "keyID": 311,
      "inputKeyCode": 263,
      "abilityName": ""
    },
    {
      "keyID": 341,
      "inputKeyCode": 264,
      "abilityName": ""
    },
    {
      "keyID": 501,
      "inputKeyCode": 265,
      "abilityName": ""
    }
  ],
  "move": {
    "$type": "IPNMJMHDMPF",
    "positionModifyState": "None",
    "destroyRockWhenInit": true,
    "PKHOMJHFAEE": "RootNode"
  },
  "audio": {
    "overrideEmitterName": "",
    "animAudio": {
      "onTransitionIn": [
        {
          "currentStateName": "FlowerAtk_CoreOutLoop",
          "audioEvent": {
            "text": "Play_sfx_monster_Effigy_ballAtk_BallAtk_ballAtkCoreOut_Loop"
          },
          "otherStateNames": ["FlowerAtk_CoreOutLoop"],
          "usage": "Except"
        },
        {
          "currentStateName": "BallAtk_CoreOutLoop",
          "audioEvent": {
            "text": "Play_sfx_monster_Effigy_ballAtk_BallAtk_ballAtkCoreOut_Loop"
          },
          "otherStateNames": ["BallAtk_CoreOutLoop"],
          "usage": "Except"
        },
        {
          "currentStateName": "WeedAtk_CoreOutLoop",
          "audioEvent": {
            "text": "Play_sfx_monster_Effigy_ballAtk_BallAtk_ballAtkCoreOut_Loop"
          },
          "otherStateNames": ["WeedAtk_CoreOutLoop"],
          "usage": "Except"
        },
        {
          "currentStateName": "CircleAtk_CoreOutLoop",
          "audioEvent": {
            "text": "Play_sfx_monster_Effigy_ballAtk_BallAtk_ballAtkCoreOut_Loop"
          },
          "otherStateNames": ["CircleAtk_CoreOutLoop"],
          "usage": "Except"
        },
        {
          "currentStateName": "WhipAtk_CoreOutLoop",
          "audioEvent": {
            "text": "Play_sfx_monster_Effigy_ballAtk_BallAtk_ballAtkCoreOut_Loop"
          },
          "otherStateNames": ["WhipAtk_CoreOutLoop"],
          "usage": "Except"
        },
        {
          "currentStateName": "CircleAtk_Loop",
          "audioEvent": {
            "text": "Play_sfx_monster_Effigy_Grass_circleAtk_Loop"
          },
          "otherStateNames": ["CircleAtk_Loop"],
          "usage": "Except"
        }
      ],
      "onTransitionOut": [
        {
          "currentStateName": "FlowerAtk_CoreOutLoop",
          "audioEvent": {
            "text": "Stop_sfx_monster_Effigy_ballAtk_BallAtk_ballAtkCoreOut_Loop"
          },
          "otherStateNames": ["FlowerAtk_CoreOutLoop"],
          "usage": "Except"
        },
        {
          "currentStateName": "BallAtk_CoreOutLoop",
          "audioEvent": {
            "text": "Stop_sfx_monster_Effigy_ballAtk_BallAtk_ballAtkCoreOut_Loop"
          },
          "otherStateNames": ["BallAtk_CoreOutLoop"],
          "usage": "Except"
        },
        {
          "currentStateName": "WeedAtk_CoreOutLoop",
          "audioEvent": {
            "text": "Stop_sfx_monster_Effigy_ballAtk_BallAtk_ballAtkCoreOut_Loop"
          },
          "otherStateNames": ["WeedAtk_CoreOutLoop"],
          "usage": "Except"
        },
        {
          "currentStateName": "CircleAtk_CoreOutLoop",
          "audioEvent": {
            "text": "Stop_sfx_monster_Effigy_ballAtk_BallAtk_ballAtkCoreOut_Loop"
          },
          "otherStateNames": ["CircleAtk_CoreOutLoop"],
          "usage": "Except"
        },
        {
          "currentStateName": "WhipAtk_CoreOutLoop",
          "audioEvent": {
            "text": "Stop_sfx_monster_Effigy_ballAtk_BallAtk_ballAtkCoreOut_Loop"
          },
          "otherStateNames": ["WhipAtk_CoreOutLoop"],
          "usage": "Except"
        },
        {
          "currentStateName": "CircleAtk_Loop",
          "audioEvent": {
            "text": "Stop_sfx_monster_Effigy_Grass_circleAtk_Loop"
          },
          "otherStateNames": ["CircleAtk_Loop"],
          "usage": "Except"
        }
      ]
    }
  },
  "cameraAdjustMap": {
    "default": {
      "$type": "NJCCPGFPIHI",
      "priority": 1.0,
      "enterRadius": 30.0,
      "exitRadius": 35.0,
      "heightAdjust": 0.75,
      "fov": 45.0,
      "zoom": 8.0,
      "sphericalY": 10.0,
      "lockSphericalY": false,
      "sphericalYUp": 79.0,
      "sphericalYDown": 99.0,
      "autoTurnStartMin": 50.0,
      "autoTurnStartMax": 40.0,
      "autoTurnEndMin": 100.0,
      "autoTurnEndMax": 145.0,
      "enterShape": "CircleR30",
      "exitShape": "CircleR35"
    }
  }
}
