{
  "common": {
    "effectAttachShape": {
      "$type": "FJNPJANPGGC",
      "mesh": "EffectMesh"
    },
    "mass": 250.0,
    "height": 1.600000023841858,
    "modelHeight": 1.600000023841858,
    "viewSize": 1.100000023841858,
    "affectedByWorld": true,
    "checkInSurface": true,
    "scale": 1.100000023841858,
    "useGrassDisplacement": true,
    "reconnectSupport": true,
    "recoverByInitPose": true
  },
  "headControl": {
    "$type": "KPIPDEBDPIH",
    "useHeadControl": true,
    "maxYawDegree": 90.0,
    "maxPitchDegree": 25.0,
    "animStates": [
      "NormalIdle",
      "NormalMove",
      "Turn",
      "Aware",
      "Alert",
      "MeleeAttack03",
      "RangedAttack_Attack",
      "RangedAttack_AS",
      "JumpStrike",
      "SprayPaintCanThrow"
    ]
  },
  "model": {
    "bornEffect": "Eff_Monster_Common_Born",
    "attachEffect": "",
    "JKLKJPMFNGD": true,
    "BKPFGNPLDNJ": ""
  },
  "dither": {
    "showDitherDuration": 1.0
  },
  "combat": {
    "property": {
      "endureType": "Monster_Minion",
      "weight": 100.0
    },
    "beHit": {
      "hitBloodEffect": ""
    },
    "combatLock": {
      "lockShape": "CircleLockEnemy",
      "lockType": "Avatar&Monster_Lv4"
    },
    "die": {
      "hasAnimatorDie": true,
      "dieForceDisappearTime": 8.0,
      "dieDisappearEffect": "",
      "dieShaderData": "MonsterDie",
      "dieShaderEnableDurationTime": 0.0,
      "ragDollDieEndTimeDelay": 8.0,
      "muteHitBox": true,
      "dieDenyLockOn": true,
      "dieIsGhostToEnemy": true,
      "dieIgnoreTriggerBullet": true,
      "muteBillboard": true,
      "mutePushCollider": true
    },
    "animEvents": {
      "AE_MeleeAtk01": {
        "attackPattern": {
          "$type": "ConfigAttackCircle",
          "triggerType": "TriggerNoRepeat",
          "born": {
            "$type": "ConfigBornBySelf",
            "offset": {
              "x": -0.30000001192092896,
              "y": 0.0,
              "z": 1.0
            }
          },
          "height": 2.0999999046325684,
          "fanAngle": 240.0,
          "radius": 2.0
        },
        "attackInfo": {
          "attackTag": "",
          "attenuationTag": "",
          "attenuationGroup": "default",
          "attackProperty": {
            "actorGrassSubHurtDelta": 0.699999988079071,
            "actorWindSubHurtDelta": 0.0,
            "elementDurability": 100.0,
            "strikeType": "Blunt",
            "enBreak": 100.0,
            "attackType": "Melee",
            "GLKMCMDJBIK": 0.0
          },
          "hitPattern": {
            "onHitEffectName": "default",
            "hitImpulseY": "",
            "hitImpulseType": "LV4",
            "hitHaltTime": 0.05000000074505806,
            "hitHaltTimeScale": 0.10000000149011612
          },
          "cameraShake": {
            "shakeRange": 0.4399999976158142,
            "shakeTime": 0.10000000149011612
          }
        }
      },
      "AE_MeleeAtk02_01": {
        "attackPattern": {
          "$type": "ConfigAttackCircle",
          "triggerType": "TriggerNoRepeat",
          "born": {
            "$type": "ConfigBornBySelf",
            "offset": {
              "x": 0.0,
              "y": 0.0,
              "z": 0.6000000238418579
            },
            "direction": {
              "$type": "ConfigDirectionByEntity",
              "angleOffsetCorrect": {
                "y": 70.0
              }
            }
          },
          "height": 1.7999999523162842,
          "fanAngle": 240.0,
          "radius": 2.0
        },
        "attackInfo": {
          "attackTag": "",
          "attenuationTag": "",
          "attenuationGroup": "default",
          "attackProperty": {
            "actorGrassSubHurtDelta": 0.699999988079071,
            "actorWindSubHurtDelta": 0.0,
            "elementDurability": 100.0,
            "strikeType": "Blunt",
            "enBreak": 100.0,
            "attackType": "Melee",
            "GLKMCMDJBIK": 0.0
          },
          "hitPattern": {
            "onHitEffectName": "default",
            "hitImpulseY": "",
            "hitImpulseType": "LV4",
            "hitHaltTime": 0.05000000074505806,
            "hitHaltTimeScale": 0.10000000149011612
          },
          "cameraShake": {
            "shakeRange": 0.4399999976158142,
            "shakeTime": 0.10000000149011612
          }
        }
      },
      "AE_MeleeAtk03_01": {
        "attackPattern": {
          "$type": "ConfigAttackBox",
          "triggerType": "TriggerNoRepeat",
          "born": {
            "$type": "ConfigBornBySelf",
            "offset": {
              "x": 0.0,
              "y": 1.5,
              "z": 0.5
            }
          },
          "size": {
            "x": 1.0,
            "y": 3.0,
            "z": 2.0
          }
        },
        "attackInfo": {
          "attackTag": "",
          "attenuationTag": "",
          "attenuationGroup": "default",
          "attackProperty": {
            "actorGrassSubHurtDelta": 0.800000011920929,
            "actorWindSubHurtDelta": 0.0,
            "elementDurability": 100.0,
            "strikeType": "Blunt",
            "enBreak": 150.0,
            "attackType": "Melee",
            "GLKMCMDJBIK": 0.0
          },
          "hitPattern": {
            "onHitEffectName": "default",
            "hitImpulseY": "",
            "hitImpulseType": "",
            "overrideHitImpulse": {
              "hitLevel": "Air",
              "IMIJMPGJOGG": 600.0,
              "BPCDKKBKOBM": 450.0
            },
            "retreatType": "ByAttackerForward",
            "hitHaltTime": 0.10000000149011612,
            "hitHaltTimeScale": 0.05000000074505806
          },
          "cameraShake": {
            "shakeRange": 0.6600000262260437,
            "shakeTime": 0.10000000149011612
          }
        }
      },
      "AE_JumpStrike_BreakIce": {
        "attackPattern": {
          "$type": "ConfigAttackCircle",
          "triggerType": "TriggerNoRepeat",
          "born": {
            "$type": "ConfigBornBySelf",
            "offset": {
              "y": -1.5,
              "z": 0.3499999940395355
            }
          },
          "height": 1.9500000476837158,
          "radius": 3.0
        },
        "attackInfo": {
          "attackTag": "FrozenBroken_Exc",
          "attenuationTag": "",
          "attenuationGroup": "default",
          "attackProperty": {
            "actorGrassSubHurtDelta": 0.8999999761581421,
            "actorWindSubHurtDelta": 0.0,
            "elementType": "Water",
            "elementDurability": 75.0,
            "strikeType": "Blunt",
            "enBreak": 1.0,
            "attackType": "Melee",
            "GLKMCMDJBIK": 0.0
          },
          "hitPattern": {
            "onHitEffectName": "default",
            "hitImpulseY": "",
            "hitImpulseType": "",
            "overrideHitImpulse": {
              "hitLevel": "Air",
              "IMIJMPGJOGG": 600.0,
              "BPCDKKBKOBM": 600.0
            },
            "retreatType": "ByAttackerForward",
            "hitHaltTime": 0.10000000149011612,
            "hitHaltTimeScale": 0.05000000074505806
          },
          "forceCameraShake": true,
          "cameraShake": {
            "shakeType": "CustomVector",
            "shakeRange": 0.6600000262260437,
            "shakeTime": 0.10000000149011612,
            "shakeDir": {
              "y": -1.0
            }
          }
        }
      },
      "AE_JumpStrike_HitFly": {
        "attackPattern": {
          "$type": "ConfigAttackCircle",
          "triggerType": "TriggerNoRepeat",
          "born": {
            "$type": "ConfigBornBySelf",
            "offset": {
              "y": -1.5,
              "z": 0.3499999940395355
            }
          },
          "height": 1.9500000476837158,
          "radius": 3.0
        },
        "attackInfo": {
          "attackTag": "",
          "attenuationTag": "",
          "attenuationGroup": "default",
          "attackProperty": {
            "actorGrassSubHurtDelta": 0.0,
            "actorWindSubHurtDelta": 0.0,
            "elementDurability": 100.0,
            "strikeType": "Default",
            "enBreak": 250.0,
            "attackType": "Melee",
            "GLKMCMDJBIK": 0.0
          },
          "hitPattern": {
            "onHitEffectName": "",
            "hitImpulseY": "",
            "hitImpulseType": "",
            "overrideHitImpulse": {
              "hitLevel": "Air",
              "IMIJMPGJOGG": 600.0,
              "BPCDKKBKOBM": 600.0
            },
            "retreatType": "ByAttackerForward"
          }
        }
      }
    }
  },
  "equipController": {
    "sheathPoint": "",
    "attachPoints": {
      "equip01": "WeaponR",
      "equip02": "WeaponL"
    }
  },
  "abilities": [
    {
      "abilityID": "",
      "abilityName": "TribalWarrior_ReturnToBorn",
      "abilityOverride": ""
    },
    {
      "abilityID": "",
      "abilityName": "Monster_TribalWarrior_FreePoseManager",
      "abilityOverride": ""
    },
    {
      "abilityID": "",
      "abilityName": "Monster_Tribalwarrior_Female_Slim_Slingshot_Elite_SteerManager",
      "abilityOverride": ""
    },
    {
      "abilityID": "",
      "abilityName": "Monster_Tribalwarrior_Female_Slim_Slingshot_Mosasaurus_Elite_StageControl",
      "abilityOverride": ""
    },
    {
      "abilityID": "",
      "abilityName": "Monster_Tribalwarrior_Female_Slim_Slingshot_Mosasaurus_Elite_WeaponManager",
      "abilityOverride": ""
    },
    {
      "abilityID": "",
      "abilityName": "Monster_Tribalwarrior_Female_Slim_Slingshot_Mosasaurus_Elite_RangedAttack",
      "abilityOverride": ""
    },
    {
      "abilityID": "",
      "abilityName": "Monster_Tribalwarrior_Female_Slim_Slingshot_Mosasaurus_Elite_ShrapnelShoot",
      "abilityOverride": ""
    },
    {
      "abilityID": "",
      "abilityName": "Monster_Tribalwarrior_Female_Slim_Slingshot_Mosasaurus_Elite_Surfing",
      "abilityOverride": ""
    },
    {
      "abilityID": "",
      "abilityName": "Monster_Tribalwarrior_Female_Slim_Slingshot_Mosasaurus_Elite_FrozenDetection",
      "abilityOverride": ""
    },
    {
      "abilityID": "",
      "abilityName": "Monster_Tribalwarrior_Female_Slim_Slingshot_Mosasaurus_Elite_ComboManager",
      "abilityOverride": ""
    },
    {
      "abilityID": "",
      "abilityName": "Monster_Tribalwarrior_Female_Slim_Slingshot_Mosasaurus_Elite_EndureManager",
      "abilityOverride": ""
    },
    {
      "abilityID": "",
      "abilityName": "Monster_Tribalwarrior_Female_Slim_Slingshot_Mosasaurus_Elite_ComboByDistance",
      "abilityOverride": ""
    },
    {
      "abilityID": "",
      "abilityName": "Monster_Tribalwarrior_Female_Slim_Slingshot_Mosasaurus_Elite_Recovery",
      "abilityOverride": ""
    },
    {
      "abilityID": "",
      "abilityName": "Monster_Tribalwarrior_Female_Slim_Slingshot_Mosasaurus_Elite_ThrowSprayPaintCan",
      "abilityOverride": ""
    },
    {
      "abilityID": "",
      "abilityName": "Monster_Tribalwarrior_Female_Slim_Slingshot_Mosasaurus_Elite_Ukulele",
      "abilityOverride": ""
    }
  ],
  "stateLayers": {
    "defaultLayer": {
      "$type": "GBGJJIIEMBD",
      "layerIndexName": "",
      "CPAANEIJCGD": "",
      "stateIDs": {
        "NormalIdle": {
          "$type": "NEDIFAKEGCO",
          "animatorStates": {
            "Standby": []
          },
          "canDoSkill": true,
          "canSyncMove": true,
          "resetAnimatorTriggerOnEnter": ["FrozenDetect"],
          "resetAnimatorTriggerOnExit": ["DoSkill"],
          "setAnimatorBoolean": [
            {
              "name": "CanFrozenCombo"
            }
          ]
        },
        "PreCombat": {
          "$type": "NEDIFAKEGCO",
          "animatorStates": {
            "Ukulele_Idle": []
          },
          "canDoSkill": true
        },
        "NormalBorn": {
          "$type": "NEDIFAKEGCO",
          "animatorStates": {
            "Born": []
          }
        },
        "NormalMove": {
          "$type": "NEDIFAKEGCO",
          "animatorStates": {
            "WalkForward": [
              "Audio_Monster_Tribalwarrior_Female_Slim_Slingshot_Mosasaurus_Elite_WalkBack"
            ],
            "WalkBack": [
              "Audio_Monster_Tribalwarrior_Female_Slim_Slingshot_Mosasaurus_Elite_WalkBack"
            ],
            "WalkRight": [
              "Audio_Monster_Tribalwarrior_Female_Slim_Slingshot_Mosasaurus_Elite_WalkL"
            ],
            "WalkLeft": [
              "Audio_Monster_Tribalwarrior_Female_Slim_Slingshot_Mosasaurus_Elite_WalkL"
            ],
            "Run": []
          },
          "canDoSkill": true,
          "canSyncMove": true,
          "resetAnimatorTriggerOnExit": ["DoSkill"],
          "setAnimatorBoolean": [
            {
              "name": "CanFrozenCombo"
            }
          ],
          "canSteer": true
        },
        "Turn": {
          "$type": "NEDIFAKEGCO",
          "animatorStates": {
            "TurnLeft": [
              "Audio_Monster_Tribalwarrior_Female_Slim_Slingshot_Mosasaurus_Elite_WalkL"
            ],
            "TurnRight": [
              "Audio_Monster_Tribalwarrior_Female_Slim_Slingshot_Mosasaurus_Elite_WalkL"
            ]
          },
          "canDoSkill": true,
          "canSyncMove": true,
          "resetAnimatorTriggerOnExit": ["DoSkill"],
          "setAnimatorBoolean": [
            {
              "name": "CanFrozenCombo"
            }
          ]
        },
        "BeHit": {
          "$type": "NEDIFAKEGCO",
          "animatorStates": {
            "Hit_L": [],
            "Hit_H": [
              "Audio_Monster_Tribalwarrior_Female_Slim_SlingShot_Mosasaurus_Hit_H"
            ]
          },
          "resetAnimatorTriggerOnEnter": ["BeHit"],
          "resetAnimatorTriggerOnExit": ["DoSkill"]
        },
        "BeHitThrow": {
          "$type": "NEDIFAKEGCO",
          "animatorStates": {
            "HitThrow": [],
            "HitThrowDrop": []
          },
          "resetAnimatorTriggerOnEnter": ["BeHit", "HitAir2HitDrop"],
          "resetAnimatorTriggerOnExit": ["DoSkill", "BeHit"],
          "setAnimatorBoolean": [
            {
              "name": "AirDie"
            }
          ]
        },
        "BeHitThrowToStandby": {
          "$type": "NEDIFAKEGCO",
          "animatorStates": {
            "HitThrowToGround": [
              "Audio_Monster_Tribalwarrior_Female_Slim_SlingShot_Mosasaurus_HitThrowToGround",
              "Audio_Monster_Natlan_TribalWarrior_Female_slingshot_mosasaurus_HitThrow_VO"
            ]
          },
          "resetAnimatorTriggerOnEnter": ["BeHit", "HitAir2HitDrop"],
          "resetAnimatorTriggerOnExit": ["DoSkill", "BeHit"],
          "setAnimatorBoolean": [
            {
              "name": "AirDie",
              "normalizeEnd": 0.4000000059604645
            }
          ]
        },
        "Struggle": {
          "$type": "NEDIFAKEGCO",
          "animatorStates": {
            "Struggle": []
          },
          "resetAnimatorTriggerOnEnter": ["BeHit", "HitAir2HitDrop"],
          "resetAnimatorTriggerOnExit": ["DoSkill"]
        },
        "Die": {
          "$type": "NEDIFAKEGCO",
          "animatorStates": {
            "Die": [
              "Monster_Tribalwarrior_Female_Slim_Slingshot_Mosasaurus_Die",
              "Audio_Monster_Tribalwarrior_Female_Slim_SlingShot_Mosasaurus_Die",
              "Audio_Monster_Natlan_TribalWarrior_Female_slingshot_mosasaurus_SpecialDie_01_VO"
            ],
            "SwimDie_BS": [
              "Audio_Monster_Tribalwarrior_Female_Slim_SlingShot_Mosasaurus_Die"
            ],
            "SwimDie": [
              "Monster_Tribalwarrior_Female_Slim_Slingshot_Mosasaurus_Die"
            ]
          },
          "resetAnimatorTriggerOnEnter": ["DoSkill"]
        },
        "AirDie": {
          "$type": "NEDIFAKEGCO",
          "animatorStates": {
            "AirDie": [
              "Monster_Tribalwarrior_Female_Slim_Slingshot_Mosasaurus_Die"
            ]
          },
          "resetAnimatorTriggerOnEnter": ["DoSkill"]
        },
        "Alert": {
          "$type": "NEDIFAKEGCO",
          "animatorStates": {
            "Alert": [
              "Monster_Undead01_Warning",
              "Audio_Monster_Tribalwarrior_Female_Slim_SlingShot_Mosasaurus_Alert",
              "Audio_Monster_Natlan_TribalWarrior_Female_slingshot_mosasaurus_SpecialAlert_01_VO"
            ]
          },
          "resetAnimatorTriggerOnEnter": ["DoSkill"],
          "resetAnimatorTriggerOnExit": ["DoSkill"]
        },
        "SheathWeapon": {
          "$type": "NEDIFAKEGCO",
          "animatorStates": {
            "SheathWeapon": [
              "Audio_Monster_Tribalwarrior_Female_Slim_SlingShot_Mosasaurus_SheathWeapon"
            ]
          },
          "addEndure": 0.0
        },
        "MeleeAttack01": {
          "$type": "NEDIFAKEGCO",
          "animatorStates": {
            "MeleeAttack01": [
              "Monster_Tribalwarrior_Female_Slim_Slingshot_Mosasaurus_Elite_MeleeAttack01",
              "Audio_Monster_Tribalwarrior_Female_Slim_SlingShot_Mosasaurus_MeleeAttack01"
            ]
          }
        },
        "MeleeAttack01_AS": {
          "$type": "NEDIFAKEGCO",
          "animatorStates": {
            "MeleeAttack01_AS": [
              "Audio_Monster_Tribalwarrior_Female_Slim_SlingShot_Mosasaurus_MeleeAttack01_AS"
            ]
          }
        },
        "MeleeAttack02": {
          "$type": "NEDIFAKEGCO",
          "animatorStates": {
            "MeleeAttack02": [
              "Monster_Tribalwarrior_Female_Slim_Slingshot_Mosasaurus_Elite_MeleeAttack02",
              "Audio_Monster_Tribalwarrior_Female_Slim_SlingShot_Mosasaurus_MeleeAttack02"
            ]
          }
        },
        "MeleeAttack02_AS": {
          "$type": "NEDIFAKEGCO",
          "animatorStates": {
            "MeleeAttack02_AS": [
              "Audio_Monster_Tribalwarrior_Female_Slim_SlingShot_Mosasaurus_MeleeAttack02_AS"
            ]
          }
        },
        "MeleeAttack03": {
          "$type": "NEDIFAKEGCO",
          "animatorStates": {
            "MeleeAttack03": [
              "Monster_Tribalwarrior_Female_Slim_Slingshot_Mosasaurus_MeleeAttack03",
              "Audio_Monster_Tribalwarrior_Female_Slim_SlingShot_Mosasaurus_MeleeAttack03"
            ]
          }
        },
        "RangedAttack_BS": {
          "$type": "NEDIFAKEGCO",
          "animatorStates": {
            "RangedAttack_BS": [
              "Monster_Tribalwarrior_Female_Slim_Slingshot_Mosasaurus_RangedAttack_BS",
              "Audio_Monster_Tribalwarrior_Female_Slim_SlingShot_Mosasaurus_RangedAttack_BS"
            ],
            "RangedAttack_Start": []
          },
          "setAnimatorBoolean": [
            {
              "name": "CanFrozenCombo"
            }
          ]
        },
        "RangedAttack_Attack": {
          "$type": "NEDIFAKEGCO",
          "animatorStates": {
            "RangedAttack_Attack": [
              "Monster_Tribalwarrior_Female_Slim_Slingshot_Mosasaurus_Elite_RangedAttack",
              "Audio_Monster_Tribalwarrior_Female_Slim_SlingShot_Mosasaurus_RangedAttack_Attack01"
            ]
          },
          "setAnimatorBoolean": [
            {
              "name": "CanFrozenCombo",
              "normalizeStart": 0.4000000059604645
            }
          ]
        },
        "RangedAttack_ShrapnelShoot_BS": {
          "$type": "NEDIFAKEGCO",
          "animatorStates": {
            "RangedAttack_ShrapnelShoot_BS": [
              "Monster_Tribalwarrior_Female_Slim_Slingshot_Mosasaurus_Elite_ShrapnelShoot",
              "Audio_Monster_Tribalwarrior_Female_Slim_SlingShot_Mosasaurus_RangedAttack_ShrapnelShoot",
              "Audio_Monster_Natlan_TribalWarrior_Female_slingshot_mosasaurus_ShrapnelShoot_01_VO"
            ]
          },
          "addEndure": 0.0
        },
        "RangedAttack_ShrapnelShoot": {
          "$type": "NEDIFAKEGCO",
          "animatorStates": {
            "RangedAttack_ShrapnelShoot": []
          },
          "setAnimatorBoolean": [
            {
              "name": "CanFrozenCombo"
            }
          ]
        },
        "RangedAttack_AS": {
          "$type": "NEDIFAKEGCO",
          "animatorStates": {
            "RangedAttack_AS": [
              "Monster_Tribalwarrior_Female_Slim_Slingshot_Mosasaurus_RangedAttack_AS",
              "Audio_Monster_Tribalwarrior_Female_Slim_SlingShot_Mosasaurus_RangedAttack_AS"
            ]
          },
          "setAnimatorBoolean": [
            {
              "name": "CanFrozenCombo"
            }
          ]
        },
        "TribalUlt_BS": {
          "$type": "NEDIFAKEGCO",
          "animatorStates": {
            "TribalUlt_BS": [
              "Monster_Tribalwarrior_Female_Slim_Slingshot_Mosasaurus_TribalUlt_BS",
              "Audio_Monster_Tribalwarrior_Female_Slim_SlingShot_Mosasaurus_TribalUlt_BS",
              "Audio_Monster_Natlan_TribalWarrior_Female_slingshot_mosasaurus_TribalUlt_01_VO"
            ]
          },
          "addEndure": 0.0,
          "resetAnimatorTriggerOnEnter": ["EndSurfing", "EndSurfingNow"],
          "setAnimatorBoolean": [
            {
              "name": "CanFrozenCombo"
            }
          ]
        },
        "TribalUlt_BS_Insert": {
          "$type": "NEDIFAKEGCO",
          "animatorStates": {
            "TribalUlt_BS_Insert": []
          }
        },
        "TribalUlt_Loop_Turning": {
          "$type": "NEDIFAKEGCO",
          "animatorStates": {
            "TribalUlt_Loop_Turning": []
          }
        },
        "TribalUlt_Loop_Charging": {
          "$type": "NEDIFAKEGCO",
          "animatorStates": {
            "TribalUlt_Loop_Charging": []
          }
        },
        "TribalUlt_Loop_OverCharging": {
          "$type": "NEDIFAKEGCO",
          "animatorStates": {
            "TribalUlt_Loop_OverCharging": [],
            "TribalUlt_Loop_Turning_Acc": []
          }
        },
        "TribalUlt_AS": {
          "$type": "NEDIFAKEGCO",
          "animatorStates": {
            "TribalUlt_AS": [
              "Monster_Tribalwarrior_Female_Slim_Slingshot_Mosasaurus_TribalUlt_AS",
              "Audio_Monster_Tribalwarrior_Female_Slim_SlingShot_Mosasaurus_TribalUlt_AS"
            ]
          },
          "resetAnimatorTriggerOnExit": ["EndSurfing", "EndSurfingNow"]
        },
        "RollingF": {
          "$type": "NEDIFAKEGCO",
          "animatorStates": {
            "RollingF1": [
              "Monster_Tribalwarrior_Female_Slim_Slingshot_Elite_Rolling",
              "Audio_Monster_Tribalwarrior_Female_Slim_Slingshot_Mosasaurus_Elite_Rolling_SideStep"
            ],
            "RollingF2": [
              "Monster_Tribalwarrior_Female_Slim_Slingshot_Elite_Rolling",
              "Audio_Monster_Tribalwarrior_Female_Slim_Slingshot_Mosasaurus_Elite_Rolling_SideStep"
            ]
          },
          "handleAnimatorStateImmediately": true
        },
        "RollingB": {
          "$type": "NEDIFAKEGCO",
          "animatorStates": {
            "RollingB": [
              "Monster_Tribalwarrior_Female_Slim_Slingshot_Elite_RollingBack",
              "Audio_Monster_Tribalwarrior_Female_Slim_Slingshot_Mosasaurus_Elite_Rolling_SideStep"
            ],
            "RollingB_Recovery": [
              "Monster_Tribalwarrior_Female_Slim_Slingshot_Elite_RollingBack",
              "Audio_Monster_Tribalwarrior_Female_Slim_Slingshot_Mosasaurus_Elite_Rolling_SideStep"
            ]
          },
          "addEndure": 0.0,
          "handleAnimatorStateImmediately": true
        },
        "Rolling_RangeAttack": {
          "$type": "NEDIFAKEGCO",
          "animatorStates": {
            "Range_Rolling_Left_BS": [
              "Audio_Monster_Tribalwarrior_Female_Slim_Slingshot_Mosasaurus_Elite_Rolling_SideStep"
            ],
            "Range_Rolling_Left": [
              "Monster_Tribalwarrior_Female_Slim_Slingshot_Mosasaurus_RangedAttack_BS_SideStepLeft"
            ],
            "Range_Rolling_Right_BS": [
              "Audio_Monster_Tribalwarrior_Female_Slim_Slingshot_Mosasaurus_Elite_Rolling_SideStep"
            ],
            "Range_Rolling_Right": [
              "Monster_Tribalwarrior_Female_Slim_Slingshot_Mosasaurus_RangedAttack_BS_SideStepRight"
            ]
          },
          "handleAnimatorStateImmediately": true
        },
        "JumpStrike": {
          "$type": "NEDIFAKEGCO",
          "animatorStates": {
            "JumpStrike1": [
              "Monster_Tribalwarrior_Female_Slim_Slingshot_Elite_JumpStrike_Rush",
              "Audio_Monster_Tribalwarrior_Female_Slim_Slingshot_Mosasaurus_Elite_JumpStrike"
            ],
            "JumpStrike2": [
              "Monster_Tribalwarrior_Female_Slim_Slingshot_Elite_JumpStrike"
            ]
          },
          "resetAnimatorTriggerOnExit": ["FrozenDetect"]
        },
        "SprayPaintCanThrow_BS": {
          "$type": "NEDIFAKEGCO",
          "animatorStates": {
            "SprayPaintCanThrow_BS": [
              "Monster_Tribalwarrior_Female_Slim_Slingshot_Mosasaurus_Elite_SprayPaintCan_BS",
              "Audio_Monster_Tribalwarrior_Female_Slim_Slingshot_Mosasaurus_Elite_SprayPaintCanThrow"
            ]
          },
          "setAnimatorBoolean": [
            {
              "name": "CanFrozenCombo",
              "normalizeStart": 0.44999998807907104
            }
          ]
        },
        "SprayPaintCanThrow": {
          "$type": "NEDIFAKEGCO",
          "animatorStates": {
            "SprayPaintCanThrow": []
          },
          "setAnimatorBoolean": [
            {
              "name": "CanFrozenCombo",
              "normalizeStart": 0.44999998807907104
            }
          ]
        }
      }
    }
  },
  "partControl": {
    "parts": [
      {
        "$type": "INCPGKCDCIO",
        "angularSpeed": 3600.0,
        "partRootName": "AimLock",
        "forwardByTransName": "",
        "limitHorizontal": 30.0,
        "limitVertical": 45.0
      }
    ]
  },
  "billboard": {
    "$type": "DNGNMAJBCNP",
    "attachPoint": "BillboardAttach",
    "offset": {
      "x": -0.05000000074505806
    },
    "offsetType": "Character",
    "radiusOffset": 0.25,
    "showHPBar": true
  },
  "initialPoses": {
    "Default": {
      "initialPoseID": 1001,
      "initialPoseParams": {
        "intParams": {
          "FreePoseMark": "1001"
        }
      }
    },
    "Ukulele": {
      "initialPoseID": 9001,
      "initialPoseParams": {
        "intParams": {
          "FreePoseMark": "9001"
        }
      }
    },
    "InAbyss": {
      "initialPoseID": 1002,
      "initialPoseParams": {
        "intParams": {
          "FreePoseMark": "1001"
        },
        "boolParams": {
          "InAbyss": "true"
        }
      }
    }
  },
  "aibeta": {
    "enable": true,
    "moveSetting": {
      "navMeshAgentName": "Undead01",
      "almostReachedDistanceRun": 1.5
    },
    "sensing": {
      "settings": {
        "DefaultSetting": {
          "viewRange": 25.0,
          "feelRange": 8.0
        },
        "LocalLegend": {
          "enableVision": false,
          "hearAttractionRange": 0.0,
          "feelRange": 0.0,
          "sourcelessHitAttractionRange": 20.0
        },
        "NeverCombat": {
          "enableVision": false,
          "hearAttractionRange": 0.0,
          "feelRange": 0.0
        }
      },
      "templates": {
        "DefaultTemplate": {
          "DefaultPoses": "DefaultSetting",
          "9001": "LocalLegend"
        }
      }
    },
    "neurons": {
      "DefaultSetting": ["HIT"],
      "NeverCombat": []
    },
    "threat": {
      "GHIJMOKOLMB": "",
      "clearThreatTargetDistance": 35.0,
      "clearThreatByLostPath": true,
      "clearThreatByTargetOutOfZone": true,
      "clearThreatTimerByDistance": 4.5,
      "viewThreatGrow": 200.0,
      "resistTauntLevel": "Monster_TauntLevel_4"
    },
    "defendArea": {
      "defendRange": 65.0
    },
    "command": {
      "enable": true,
      "HDFMIBIKJCO": true
    },
    "skills": {
      "1": {
        "name": "OnAlert",
        "skillType": "OnAlert",
        "priority": 3,
        "publicCDGroup": "",
        "ignoreGCD": true,
        "triggerGCD": false,
        "HHAGODJIAPE": "",
        "stateIDs": ["Alert"],
        "skillQueryingTime": 3.0,
        "flagTargetReachable": "10",
        "flagSelfOnTemplateCollider": "01",
        "flagSelfInZone": "10",
        "flagTargetInZone": "11"
      },
      "11": {
        "name": "OnAlert_Ukulele",
        "skillType": "OnAlert",
        "priority": 2,
        "castCondition": {
          "pose": [9001]
        },
        "publicCDGroup": "",
        "ignoreGCD": true,
        "triggerGCD": false,
        "HHAGODJIAPE": "",
        "stateIDs": ["RollingB"],
        "skillQueryingTime": 3.0,
        "flagTargetReachable": "10",
        "flagSelfOnTemplateCollider": "01",
        "flagSelfInZone": "10",
        "flagTargetInZone": "11"
      },
      "101": {
        "name": "MeleeAttack",
        "priority": 3,
        "castCondition": {
          "pose": [1, 2, 3],
          "pickRangeMax": 4.0
        },
        "publicCDGroup": "",
        "HHAGODJIAPE": "",
        "stateIDs": [
          "MeleeAttack01",
          "MeleeAttack01_AS",
          "MeleeAttack02",
          "MeleeAttack02_AS",
          "MeleeAttack03",
          "RollingF"
        ],
        "flagTargetReachable": "11",
        "flagSelfOnTemplateCollider": "01",
        "flagSelfInZone": "11",
        "flagTargetInZone": "11"
      },
      "121": {
        "name": "MeleeAttack",
        "priority": 3,
        "castCondition": {
          "pose": [1, 2, 3],
          "pickRangeMin": 4.0,
          "pickRangeMax": 8.0
        },
        "publicCDGroup": "",
        "HHAGODJIAPE": "",
        "stateIDs": [
          "MeleeAttack01",
          "MeleeAttack01_AS",
          "MeleeAttack02",
          "MeleeAttack02_AS",
          "MeleeAttack03",
          "RollingF"
        ],
        "flagTargetReachable": "11",
        "flagSelfOnTemplateCollider": "01",
        "flagSelfInZone": "11",
        "flagTargetInZone": "11"
      },
      "201": {
        "name": "RangedAttack",
        "priority": 3,
        "castCondition": {
          "pose": [1, 2, 3],
          "pickRangeMin": 7.0,
          "pickRangeMax": 18.0
        },
        "publicCDGroup": "",
        "HHAGODJIAPE": "",
        "stateIDs": [
          "Rolling_RangeAttack",
          "RangedAttack_BS",
          "RangedAttack_Attack",
          "RangedAttack_ShrapnelShoot_BS",
          "RangedAttack_ShrapnelShoot",
          "RangedAttack_AS"
        ],
        "flagTargetReachable": "11",
        "flagSelfOnTemplateCollider": "11",
        "flagSelfInZone": "11",
        "flagTargetInZone": "11"
      },
      "401": {
        "name": "TribalUlt",
        "priority": 2,
        "castCondition": {
          "pose": [1, 2, 3],
          "needReInitCD": true,
          "pickRangeMax": 25.0
        },
        "cd": 48.0,
        "initialCD": 8.0,
        "publicCDGroup": "",
        "triggerCDOnStart": true,
        "HHAGODJIAPE": "",
        "stateIDs": [
          "TribalUlt_BS",
          "TribalUlt_BS_Insert",
          "TribalUlt_Loop_Turning",
          "TribalUlt_Loop_Charging",
          "TribalUlt_AS"
        ],
        "flagTargetReachable": "10",
        "flagSelfOnTemplateCollider": "01",
        "flagSelfInZone": "11",
        "flagTargetInZone": "11"
      },
      "501": {
        "name": "SprayPaintCanThrow",
        "priority": 1,
        "castCondition": {
          "pose": [2]
        },
        "cd": 20.0,
        "publicCDGroup": "",
        "triggerGCD": false,
        "HHAGODJIAPE": "",
        "stateIDs": ["SprayPaintCanThrow_BS", "SprayPaintCanThrow"],
        "flagTargetReachable": "11",
        "flagSelfOnTemplateCollider": "11",
        "flagSelfInZone": "11",
        "flagTargetInZone": "11"
      },
      "502": {
        "name": "SprayPaintCanThrow",
        "priority": 1,
        "castCondition": {
          "pose": [3]
        },
        "cd": 7.0,
        "cdUpperRange": 6.0,
        "publicCDGroup": "",
        "triggerGCD": false,
        "HHAGODJIAPE": "",
        "stateIDs": ["SprayPaintCanThrow_BS", "SprayPaintCanThrow"],
        "flagTargetReachable": "11",
        "flagSelfOnTemplateCollider": "11",
        "flagSelfInZone": "11",
        "flagTargetInZone": "11"
      }
    },
    "skillGCD": 1.4199999570846558,
    "target": {
      "defaultTargetPrioritys": ["COMMAND", "THREAT", "AWAKE_TARGET"]
    },
    "birdCirclingTactic": [
      {
        "$type": "EPHBMLFODKF",
        "enable": true,
        "condition": {
          "pose": [1, 2, 3]
        },
        "JMCOBEPDIGM": {
          "rangeMin": 8.0,
          "rangeMax": 12.0,
          "BFJBDDIIFOI": {
            "LLICGJHIGME": 1.2000000476837158,
            "IDEFILBHNAP": 0.30000001192092896,
            "IBLIPJPNOGC": 0.699999988079071,
            "AEBLMKFNCDG": 3.0,
            "IGLIBIOEGBB": 3.0
          },
          "NAOBMNGDKHL": "1111",
          "JCNIJOAIGII": "1111",
          "MNPDDAKDHGK": ""
        }
      },
      {
        "$type": "KACCHOLJDNK",
        "enable": true,
        "condition": {
          "pose": [1, 2, 3]
        },
        "JMCOBEPDIGM": {
          "KHDFDAAAPEI": 13.0,
          "HKJODDGJPHA": 27.0,
          "GGEBMFHFBPO": 10.0,
          "MNPDDAKDHGK": ""
        }
      },
      {
        "$type": "NNJKLGNPMNN",
        "enable": true,
        "JMCOBEPDIGM": {
          "OJGLKPBCLGB": 3.5,
          "MNPDDAKDHGK": "",
          "GJDMDHIBCME": ""
        }
      },
      {
        "$type": "FPELBIJFGCE",
        "enable": true,
        "condition": {
          "pose": [1001]
        },
        "JMCOBEPDIGM": {
          "NBENNEKDIIA": 0.5,
          "KPNDPKIOPJM": 3.0,
          "PINAFKEDDLL": 1.5,
          "ANMPOPEBDIA": 15.0,
          "GMJFIMFFOEL": 3.75,
          "CHCPFDMADEI": 7.5,
          "MNPDDAKDHGK": ""
        }
      }
    ]
  },
  "inputKeys": [
    {
      "inputKeyCode": 257,
      "abilityName": "Monster_Tribalwarrior_Female_Slim_Slingshot_Mosasaurus_Elite_ThrowSprayPaintCan"
    },
    {
      "inputKeyCode": 258,
      "abilityName": "Monster_Tribalwarrior_Female_Slim_Slingshot_Mosasaurus_Elite_SkillTest"
    },
    {
      "keyID": 121,
      "inputKeyCode": 260,
      "abilityName": ""
    },
    {
      "keyID": 101,
      "inputKeyCode": 261,
      "abilityName": ""
    },
    {
      "keyID": 201,
      "inputKeyCode": 262,
      "abilityName": ""
    },
    {
      "keyID": 401,
      "inputKeyCode": 264,
      "abilityName": ""
    },
    {
      "keyID": 501,
      "inputKeyCode": 265,
      "abilityName": ""
    }
  ],
  "move": {
    "$type": "IPNMJMHDMPF",
    "facingMove": "FourDirection",
    "monsterSizeType": "StoopType",
    "PKHOMJHFAEE": "RootNode"
  },
  "audio": {
    "overrideEmitterName": "",
    "animAudio": {
      "onTransitionIn": [
        {
          "currentStateName": "Ukulele_Idle",
          "audioEvent": {
            "text": "Play_Music_v50_MonsterUkulele"
          },
          "otherStateNames": ["Ukulele_Idle"],
          "usage": "Except"
        },
        {
          "currentStateName": "TribalUlt_Loop_Charging",
          "audioEvent": {
            "text": "Play_Sfx_Monster_Tribalwarrior_Female_Slim_SlingShot_Mosasaurus_TribalUlt_Loop_Charging_LP"
          },
          "otherStateNames": ["TribalUlt_Loop_Charging"],
          "usage": "Except"
        },
        {
          "currentStateName": "TribalUlt_Loop_OverCharging",
          "audioEvent": {
            "text": "Play_Sfx_Monster_Tribalwarrior_Female_Slim_SlingShot_Mosasaurus_TribalUlt_Loop_Charging_LP"
          },
          "otherStateNames": ["TribalUlt_Loop_OverCharging"],
          "usage": "Except"
        },
        {
          "currentStateName": "TribalUlt_Loop_Turning",
          "audioEvent": {
            "text": "Play_Sfx_Monster_Tribalwarrior_Female_Slim_SlingShot_Mosasaurus_TribalUlt_Loop_Charging_LP"
          },
          "otherStateNames": ["TribalUlt_Loop_Turning"],
          "usage": "Except"
        },
        {
          "currentStateName": "TribalUlt_Loop_Turning_Acc",
          "audioEvent": {
            "text": "Play_Sfx_Monster_Tribalwarrior_Female_Slim_SlingShot_Mosasaurus_TribalUlt_Loop_Charging_LP"
          },
          "otherStateNames": ["TribalUlt_Loop_Turning_Acc"],
          "usage": "Except"
        }
      ],
      "onTransitionOut": [
        {
          "currentStateName": "Ukulele_Idle",
          "audioEvent": {
            "text": "Stop_Music_v50_MonsterUkulele"
          },
          "otherStateNames": ["Ukulele_Idle"],
          "usage": "Except"
        },
        {
          "currentStateName": "Ukulele_Idle",
          "audioEvent": {
            "text": "Play_vo_monster_natlan_tribalWarrior_Female_slingshot_mosasaurus_SpecialAlert_01"
          }
        },
        {
          "currentStateName": "TribalUlt_Loop_Charging",
          "audioEvent": {
            "text": "Stop_Sfx_Monster_Tribalwarrior_Female_Slim_SlingShot_Mosasaurus_TribalUlt_Loop_Charging_LP"
          },
          "otherStateNames": ["TribalUlt_Loop_Charging"],
          "usage": "Except"
        },
        {
          "currentStateName": "TribalUlt_Loop_OverCharging",
          "audioEvent": {
            "text": "Stop_Sfx_Monster_Tribalwarrior_Female_Slim_SlingShot_Mosasaurus_TribalUlt_Loop_Charging_LP"
          },
          "otherStateNames": ["TribalUlt_Loop_OverCharging"],
          "usage": "Except"
        },
        {
          "currentStateName": "TribalUlt_Loop_Turning",
          "audioEvent": {
            "text": "Stop_Sfx_Monster_Tribalwarrior_Female_Slim_SlingShot_Mosasaurus_TribalUlt_Loop_Charging_LP"
          },
          "otherStateNames": ["TribalUlt_Loop_Turning"],
          "usage": "Except"
        },
        {
          "currentStateName": "TribalUlt_Loop_Turning_Acc",
          "audioEvent": {
            "text": "Stop_Sfx_Monster_Tribalwarrior_Female_Slim_SlingShot_Mosasaurus_TribalUlt_Loop_Charging_LP"
          },
          "otherStateNames": ["TribalUlt_Loop_Turning_Acc"],
          "usage": "Except"
        }
      ]
    },
    "behaviours": [
      {
        "$type": "BILJOKAHFPL",
        "coolDown": 5.0,
        "BGIEINMDECM": {
          "$type": "IFGMCBBGLDI",
          "LIHPNFLLKDA": {
            "$type": "LFOALDLDGDN"
          },
          "ACMFKGCEPBN": {
            "$type": "IFGMCBBGLDI",
            "LIHPNFLLKDA": {
              "$type": "EAIMKFLEHCC"
            },
            "ACMFKGCEPBN": {
              "$type": "JOPFGOEOKPH",
              "target": {
                "$type": "OJKONELIJJC"
              }
            }
          }
        },
        "onKill": [
          {
            "$type": "DELPJNMAIHM",
            "OPEMPFCFHMO": "__DefaultSync__",
            "action": {
              "$type": "CPBMHBHJPKE",
              "eventName": {
                "text": "Play_vo_monster_natlan_tribalWarrior_Female_slingshot_mosasaurus_SpecialKillAvatar_01"
              }
            }
          }
        ]
      }
    ]
  }
}
