{
  "common": {
    "effectAttachShape": {
      "$type": "FJNPJANPGGC",
      "mesh": "EffectMesh"
    },
    "mass": 30.0,
    "height": 0.699999988079071,
    "affectedByWorld": true,
    "checkInSurface": true,
    "scale": 2.0,
    "canTriggerElementReactionText": false,
    "useGrassDisplacement": true
  },
  "model": {
    "bornEffect": "",
    "attachEffect": "",
    "canBakeMesh": false,
    "BKPFGNPLDNJ": ""
  },
  "dither": {
    "showDitherDuration": 2.0
  },
  "combat": {
    "property": {
      "endureType": "Monster_Minion",
      "weight": 40.0
    },
    "beHit": {
      "hitBloodEffect": "",
      "muteAllHitText": true
    },
    "combatLock": {
      "lockShape": "CircleLockEnemy",
      "lockType": "Animal_Lv2"
    },
    "die": {
      "fallWhenAirDie": false,
      "dieEndTime": 2.0,
      "dieForceDisappearTime": 10.0,
      "dieDisappearEffect": ""
    }
  },
  "abilities": [
    {
      "abilityID": "CommonInitial",
      "abilityName": "Animal_Common_Initial",
      "abilityOverride": ""
    },
    {
      "abilityID": "AIStateInitial",
      "abilityName": "Animal_Pigeon_AIStateInitial",
      "abilityOverride": ""
    },
    {
      "abilityID": "Random",
      "abilityName": "Animal_Pigeon_Random",
      "abilityOverride": ""
    },
    {
      "abilityID": "FlyDown",
      "abilityName": "Animal_Pigeon_FlyDown",
      "abilityOverride": ""
    },
    {
      "abilityID": "FlyUp",
      "abilityName": "Animal_Pigeon_FlyUp",
      "abilityOverride": ""
    },
    {
      "abilityID": "ToWander",
      "abilityName": "Animal_Pigeon_ToWander",
      "abilityOverride": ""
    },
    {
      "abilityID": "ToIdle",
      "abilityName": "Animal_Pigeon_ToIdle",
      "abilityOverride": ""
    },
    {
      "abilityID": "Disappear",
      "abilityName": "Animal_Pigeon_Disappear",
      "abilityOverride": ""
    },
    {
      "abilityID": "Bird_Feather",
      "abilityName": "Animal_Pigeon_FlyEffect",
      "abilityOverride": ""
    }
  ],
  "stateLayers": {
    "defaultLayer": {
      "$type": "GBGJJIIEMBD",
      "layerIndexName": "",
      "CPAANEIJCGD": "",
      "stateIDs": {
        "Born": {
          "$type": "NEDIFAKEGCO",
          "animatorStates": {
            "Born": ["Audio_Pigeon_FlyUp"]
          },
          "resetAnimatorTriggerOnExit": ["DoSkill"]
        },
        "NormalIdle": {
          "$type": "NEDIFAKEGCO",
          "animatorStates": {
            "Standby": [],
            "Standby_Aware": []
          },
          "canDoSkill": true,
          "canSyncMove": true,
          "resetAnimatorTriggerOnExit": ["DoSkill"]
        },
        "NormalMove": {
          "$type": "NEDIFAKEGCO",
          "animatorStates": {
            "Walk": ["Audio_Pigeon_Walk"]
          },
          "canDoSkill": true,
          "canSyncMove": true,
          "resetAnimatorTriggerOnExit": ["DoSkill"],
          "canSteer": true
        },
        "FlyDown": {
          "$type": "NEDIFAKEGCO",
          "animatorStates": {
            "FlyDown": ["Audio_Pigeon_FlyUp"],
            "Land": ["Audio_Pigeon_Land"],
            "LandToGround": [
              "Animal_Pigeon_LandToGround",
              "Audio_Pigeon_LandToGround"
            ]
          },
          "canSyncMove": true,
          "resetAnimatorTriggerOnEnter": ["HitAir2HitDrop"],
          "resetAnimatorTriggerOnExit": ["DoSkill"],
          "canSteer": true
        },
        "FlyUp": {
          "$type": "NEDIFAKEGCO",
          "animatorStates": {
            "TakeOff": ["Animal_Pigeon_TakeOff", "Audio_Pigeon_TakeOff"],
            "FlyUp": ["Audio_Pigeon_FlyUp"],
            "Disappear": ["Audio_Pigeon_FlyUp"]
          },
          "canSyncMove": true,
          "resetAnimatorTriggerOnExit": ["DoSkill"],
          "canSteer": true
        },
        "BeHit": {
          "$type": "NEDIFAKEGCO",
          "animatorStates": {
            "Hit_L": ["Audio_Pigeon_LandToGround"]
          },
          "resetAnimatorTriggerOnEnter": ["BeHit"],
          "resetAnimatorTriggerOnExit": ["DoSkill"]
        },
        "Die": {
          "$type": "NEDIFAKEGCO",
          "animatorStates": {
            "Die": ["Animal_Pigeon_Die", "Audio_Pigeon_LandToGround"],
            "Die_Disappear": ["Animal_Pigeon_Disappear", "Audio_Pigeon_FlyUp"]
          }
        },
        "Aware": {
          "$type": "NEDIFAKEGCO",
          "animatorStates": {
            "Aware": []
          },
          "canDoSkill": true,
          "resetAnimatorTriggerOnExit": ["BeHit", "DoSkill"]
        },
        "Alert": {
          "$type": "NEDIFAKEGCO",
          "animatorStates": {
            "Alert": [],
            "Alert_Scared": ["Audio_Pigeon_LandToGround"]
          },
          "canDoSkill": true,
          "resetAnimatorTriggerOnExit": ["BeHit", "DoSkill"]
        },
        "ToWander": {
          "$type": "NEDIFAKEGCO",
          "animatorStates": {
            "ToWander": ["Animal_Pigeon_ToWander"]
          },
          "canDoSkill": true,
          "resetAnimatorTriggerOnExit": ["BeHit", "DoSkill"]
        },
        "ToIdle": {
          "$type": "NEDIFAKEGCO",
          "animatorStates": {
            "ToIdle": ["Animal_Pigeon_ToIdle"]
          },
          "canDoSkill": true,
          "resetAnimatorTriggerOnExit": ["BeHit", "DoSkill"]
        },
        "Personality_101": {
          "$type": "NEDIFAKEGCO",
          "animatorStates": {
            "Personality_101": []
          },
          "canDoSkill": true,
          "resetAnimatorTriggerOnExit": ["BeHit", "DoSkill"]
        },
        "Personality_102": {
          "$type": "NEDIFAKEGCO",
          "animatorStates": {
            "Personality_102": ["Audio_Pigeon_Personality_102"]
          },
          "canDoSkill": true,
          "resetAnimatorTriggerOnExit": ["BeHit", "DoSkill"]
        },
        "Personality_103": {
          "$type": "NEDIFAKEGCO",
          "animatorStates": {
            "Personality_103": ["Audio_Pigeon_Personality_103"]
          },
          "canDoSkill": true,
          "resetAnimatorTriggerOnExit": ["BeHit", "DoSkill"]
        },
        "Personality_104": {
          "$type": "NEDIFAKEGCO",
          "animatorStates": {
            "Personality_104": ["Audio_Pigeon_LandToGround"]
          },
          "canDoSkill": true,
          "resetAnimatorTriggerOnExit": ["BeHit", "DoSkill"]
        }
      }
    }
  },
  "initialPoses": {
    "Default": {},
    "FlyDown": {
      "initialPoseID": 901,
      "initialPoseParams": {
        "boolParams": {
          "FlyState": "true"
        }
      }
    },
    "Idle": {
      "initialPoseID": 2,
      "initialPoseParams": {
        "boolParams": {
          "FlyState": "false",
          "WanderState": "false"
        }
      }
    },
    "OnRoof": {
      "initialPoseID": 3,
      "initialPoseParams": {
        "boolParams": {
          "FlyState": "false",
          "RoofState": "true"
        }
      }
    }
  },
  "aibeta": {
    "enable": true,
    "friendliness": 1,
    "moveSetting": {
      "useNavMesh": false,
      "navMeshAgentName": "Undead01"
    },
    "sensing": {
      "settings": {
        "DefaultSetting": {
          "enableVision": false,
          "feelRange": 12.5
        }
      }
    },
    "neurons": {
      "DefaultSetting": ["HIT", "WEATHER_BAD", "FEAR"],
      "NoWeatherBad": ["HIT"]
    },
    "threat": {
      "GHIJMOKOLMB": "",
      "viewThreatGrow": 75.0,
      "feelThreatGrow": 1000.0,
      "viewAttenuation": [
        {
          "x": 10.0,
          "y": 1.0
        },
        {
          "x": 20.0,
          "y": 0.10000000149011612
        }
      ]
    },
    "defendArea": {
      "defendRange": 100.0
    },
    "fly": {
      "enable": true,
      "floatingPoses": [901, 903]
    },
    "ui": {
      "hasDirectionIndicator": false,
      "HMNNBFDEHLG": ""
    },
    "profiling": {
      "lodStrategy": "MinorAnimal"
    },
    "skills": {
      "1": {
        "name": "OnAware",
        "skillType": "OnAware",
        "publicCDGroup": "",
        "triggerGCD": false,
        "HHAGODJIAPE": "",
        "stateIDs": ["Aware"],
        "skillQueryingTime": 3.0,
        "flagTargetReachable": "10",
        "flagSelfOnTemplateCollider": "01",
        "flagSelfInZone": "10",
        "flagTargetInZone": "11"
      },
      "2": {
        "name": "OnAlert",
        "skillType": "OnAlert",
        "publicCDGroup": "",
        "triggerGCD": false,
        "HHAGODJIAPE": "",
        "stateIDs": ["Alert"],
        "skillQueryingTime": 3.0,
        "flagTargetReachable": "10",
        "flagSelfOnTemplateCollider": "01",
        "flagSelfInZone": "10",
        "flagTargetInZone": "11"
      },
      "101": {
        "name": "Personality_101",
        "skillType": "Free",
        "castCondition": {
          "pose": [2]
        },
        "cd": 15.0,
        "cdUpperRange": 25.0,
        "initialCD": 2.5,
        "initialCDUpperRange": 5.0,
        "publicCDGroup": "",
        "HHAGODJIAPE": "",
        "stateIDs": ["Personality_101"],
        "flagTargetReachable": "10",
        "flagSelfOnTemplateCollider": "01",
        "flagSelfInZone": "10",
        "flagTargetInZone": "11"
      },
      "102": {
        "name": "Personality_102",
        "skillType": "Free",
        "castCondition": {
          "pose": [2]
        },
        "cd": 15.0,
        "cdUpperRange": 25.0,
        "initialCD": 2.5,
        "initialCDUpperRange": 5.0,
        "publicCDGroup": "",
        "HHAGODJIAPE": "",
        "stateIDs": ["Personality_102"],
        "flagTargetReachable": "10",
        "flagSelfOnTemplateCollider": "01",
        "flagSelfInZone": "10",
        "flagTargetInZone": "11"
      },
      "103": {
        "name": "Personality_103",
        "skillType": "Free",
        "castCondition": {
          "pose": [2]
        },
        "cd": 15.0,
        "cdUpperRange": 25.0,
        "initialCD": 2.5,
        "initialCDUpperRange": 5.0,
        "publicCDGroup": "",
        "HHAGODJIAPE": "",
        "stateIDs": ["Personality_103"],
        "flagTargetReachable": "10",
        "flagSelfOnTemplateCollider": "01",
        "flagSelfInZone": "10",
        "flagTargetInZone": "11"
      },
      "104": {
        "name": "Personality_104",
        "skillType": "Free",
        "castCondition": {
          "pose": [2]
        },
        "cd": 15.0,
        "cdUpperRange": 25.0,
        "initialCD": 2.5,
        "initialCDUpperRange": 5.0,
        "publicCDGroup": "",
        "HHAGODJIAPE": "",
        "stateIDs": ["Personality_104"],
        "flagTargetReachable": "10",
        "flagSelfOnTemplateCollider": "01",
        "flagSelfInZone": "10",
        "flagTargetInZone": "11"
      },
      "201": {
        "name": "ToWander",
        "skillType": "Free",
        "priority": 1,
        "castCondition": {
          "pose": [2]
        },
        "cd": 7.5,
        "cdUpperRange": 7.5,
        "initialCD": 7.5,
        "initialCDUpperRange": 12.5,
        "publicCDGroup": "",
        "HHAGODJIAPE": "",
        "stateIDs": ["ToWander"],
        "flagTargetReachable": "10",
        "flagSelfOnTemplateCollider": "01",
        "flagSelfInZone": "10",
        "flagTargetInZone": "11"
      },
      "202": {
        "name": "ToIdle",
        "skillType": "Free",
        "priority": 1,
        "castCondition": {
          "pose": [1]
        },
        "cd": 2.0,
        "cdUpperRange": 4.0,
        "initialCD": 2.0,
        "initialCDUpperRange": 4.0,
        "publicCDGroup": "",
        "HHAGODJIAPE": "",
        "stateIDs": ["ToIdle"],
        "flagTargetReachable": "10",
        "flagSelfOnTemplateCollider": "01",
        "flagSelfInZone": "10",
        "flagTargetInZone": "11"
      }
    },
    "skillGCD": 2.5,
    "birdCirclingTactic": [
      {
        "$type": "HBNEBJIHBEG",
        "enable": true,
        "condition": {
          "pose": [1, 2, 903]
        },
        "nerveTrigger": ["HIT", "WEATHER_BAD", "FEAR"],
        "JMCOBEPDIGM": {
          "IBMJMMNEMAG": 45.0,
          "FEOGFBAEEEE": 30.0,
          "AABFGDLGLPG": ""
        }
      },
      {
        "$type": "DFDPBGOAMPF",
        "enable": true,
        "condition": {
          "pose": [901]
        },
        "JMCOBEPDIGM": {
          "ANLAAGAMIKF": 2,
          "CELKDKBKALL": 40.0,
          "NEICCFBCBDG": 40.0,
          "OBJCDOLIFJE": 4.75
        }
      },
      {
        "$type": "FPELBIJFGCE",
        "enable": true,
        "condition": {
          "pose": [1]
        },
        "JMCOBEPDIGM": {
          "NBENNEKDIIA": 0.25,
          "ANMPOPEBDIA": 5.0,
          "CHCPFDMADEI": 3.0,
          "MNPDDAKDHGK": ""
        }
      }
    ]
  },
  "animal": {
    "tickAbilityElement": false,
    "hasCharacterRenderering": false
  },
  "captureGroup": {
    "defaultConfig": {
      "captureEffect": "Eff_SceneObj_CatchAnimal_CaughtSuccess"
    }
  }
}
