{
  "common": {
    "effectAttachShape": {
      "$type": "FJNPJANPGGC",
      "mesh": "EffectMesh"
    },
    "mass": 10000.0,
    "height": 2.0,
    "modelHeight": 1.7999999523162842,
    "viewSize": 1.5,
    "affectedByWorld": true,
    "checkInSurface": true,
    "scale": 1.100000023841858,
    "useGrassDisplacement": true,
    "clearAIOnSetLightDeactive": true,
    "reconnectSupport": true,
    "recoverByInitPose": true
  },
  "headControl": {
    "$type": "KPIPDEBDPIH",
    "useHeadControl": true,
    "maxYawDegree": 20.0,
    "maxPitchDegree": 5.0,
    "animStates": [
      "NormalIdle/Standby",
      "NormalMove/WalkForward",
      "NormalMove/WalkBack",
      "NormalMove/WalkRight",
      "NormalMove/WalkLeft",
      "NormalMove/Run",
      "Turn/TurnLeft",
      "Turn/TurnRight"
    ]
  },
  "model": {
    "bornEffect": "Eff_Monster_Common_Born",
    "attachEffect": "",
    "BKPFGNPLDNJ": ""
  },
  "dither": {
    "showDitherDuration": 1.0
  },
  "combat": {
    "property": {
      "endureType": "Monster_Demiboss_Humanoid",
      "weight": 80.0
    },
    "beHit": {
      "hitBloodEffect": ""
    },
    "combatLock": {
      "lockShape": "CircleLockEnemy",
      "lockType": "Avatar&Monster_Lv4"
    },
    "die": {
      "hasAnimatorDie": true,
      "dieEndTime": 2.0,
      "dieForceDisappearTime": 8.0,
      "dieDisappearEffect": "",
      "dieShaderData": "EremiteSandDie",
      "dieShaderEnableDurationTime": 1.0,
      "muteHitBox": true,
      "dieDenyLockOn": true,
      "dieIsGhostToEnemy": true,
      "dieIgnoreTriggerBullet": true,
      "muteBillboard": true,
      "mutePushCollider": true
    },
    "animEvents": {
      "NormalAtk01": {
        "attackPattern": {
          "$type": "ConfigAttackCircle",
          "triggerType": "TriggerNoRepeat",
          "born": {
            "$type": "ConfigBornBySelf",
            "offset": {
              "x": -0.5,
              "y": 0.0,
              "z": 0.5
            }
          },
          "height": 1.7999999523162842,
          "fanAngle": 180.0,
          "radius": 2.200000047683716
        },
        "attackInfo": {
          "attackTag": "",
          "attenuationTag": "",
          "attenuationGroup": "default",
          "attackProperty": {
            "actorGrassSubHurtDelta": 0.6000000238418579,
            "actorWindSubHurtDelta": 0.0,
            "elementType": "Wind",
            "elementDurability": 25.0,
            "strikeType": "Slash",
            "enBreak": 100.0,
            "attackType": "Melee",
            "GLKMCMDJBIK": 0.0
          },
          "hitPattern": {
            "onHitEffectName": "default",
            "hitImpulseY": "",
            "hitImpulseType": "LV4",
            "canBeDefenceHalt": true
          }
        }
      },
      "NormalAtk02": {
        "attackPattern": {
          "$type": "ConfigAttackCircle",
          "triggerType": "TriggerNoRepeat",
          "born": {
            "$type": "ConfigBornBySelf",
            "offset": {
              "x": 0.0,
              "y": 0.0,
              "z": 0.4000000059604645
            }
          },
          "height": 2.200000047683716,
          "fanAngle": 180.0,
          "radius": 2.5
        },
        "attackInfo": {
          "attackTag": "",
          "attenuationTag": "",
          "attenuationGroup": "default",
          "attackProperty": {
            "actorGrassSubHurtDelta": 0.699999988079071,
            "actorWindSubHurtDelta": 0.0,
            "elementType": "Wind",
            "elementDurability": 25.0,
            "strikeType": "Slash",
            "enBreak": 100.0,
            "attackType": "Melee",
            "GLKMCMDJBIK": 0.0
          },
          "hitPattern": {
            "onHitEffectName": "default",
            "hitImpulseY": "",
            "hitImpulseType": "LV4",
            "canBeDefenceHalt": true
          }
        }
      },
      "MeleeAttack_01": {
        "attackPattern": {
          "$type": "ConfigAttackCircle",
          "triggerType": "TriggerNoRepeat",
          "born": {
            "$type": "ConfigBornBySelf",
            "offset": {
              "x": 0.0,
              "y": 0.0,
              "z": 0.4000000059604645
            }
          },
          "height": 2.200000047683716,
          "fanAngle": 180.0,
          "radius": 3.0
        },
        "attackInfo": {
          "attackTag": "",
          "attenuationTag": "",
          "attenuationGroup": "default",
          "attackProperty": {
            "actorGrassSubHurtDelta": 0.75,
            "actorWindSubHurtDelta": 0.0,
            "elementType": "Wind",
            "elementDurability": 50.0,
            "strikeType": "Slash",
            "enBreak": 500.0,
            "attackType": "Melee",
            "GLKMCMDJBIK": 0.0
          },
          "hitPattern": {
            "onHitEffectName": "default",
            "hitImpulseY": "",
            "hitImpulseType": "LV5",
            "canBeDefenceHalt": true
          }
        }
      }
    },
    "summon": {
      "summonTags": [
        {
          "summonTag": 25110201,
          "name": "Vulture_Eremite_Wind_01",
          "copyOwnerThreatList": true,
          "useSummonThreatList": true
        }
      ]
    }
  },
  "equipController": {
    "sheathPoint": "",
    "attachPoints": {
      "equip01": "WeaponR",
      "equip02": "WeaponL"
    }
  },
  "abilities": [
    {
      "abilityID": "StreeController",
      "abilityName": "Monster_Eremite_FeMale_Standard_Longbow_StreeController",
      "abilityOverride": ""
    },
    {
      "abilityID": "FightControl",
      "abilityName": "Monster_Eremite_FeMale_Standard_Longbow_FightControl",
      "abilityOverride": ""
    },
    {
      "abilityID": "ArrowHandle",
      "abilityName": "Monster_Eremite_FeMale_Standard_Longbow_ArrowHandle",
      "abilityOverride": ""
    },
    {
      "abilityID": "Improve",
      "abilityName": "Monster_Eremite_FeMale_Standard_Longbow_Improve",
      "abilityOverride": ""
    },
    {
      "abilityID": "Improve",
      "abilityName": "Monster_Eremite_FeMale_Standard_Longbow_Summon",
      "abilityOverride": ""
    },
    {
      "abilityID": "LoopEffect",
      "abilityName": "Monster_Eremite_FeMale_Standard_Longbow_Improve_LoopEffect",
      "abilityOverride": ""
    },
    {
      "abilityID": "Weak",
      "abilityName": "Monster_Eremite_FeMale_Standard_Longbow_Weak",
      "abilityOverride": ""
    },
    {
      "abilityID": "ArrowShotHandle",
      "abilityName": "Monster_Eremite_FeMale_Standard_Longbow_ArrowShotHandle",
      "abilityOverride": ""
    },
    {
      "abilityID": "OpenArrow",
      "abilityName": "Monster_Eremite_FeMale_Standard_Longbow_OpenArrow",
      "abilityOverride": ""
    },
    {
      "abilityID": "ClosedArrow",
      "abilityName": "Monster_Eremite_FeMale_Standard_Longbow_ClosedArrow",
      "abilityOverride": ""
    },
    {
      "abilityID": "ArrowShotHandle",
      "abilityName": "Monster_Eremite_FeMale_Standard_Longbow_ArrowShoot",
      "abilityOverride": ""
    },
    {
      "abilityID": "AirShoot01_Damage",
      "abilityName": "Monster_Eremite_FeMale_Standard_Longbow_AirShoot01_Damage",
      "abilityOverride": ""
    },
    {
      "abilityID": "Dodge",
      "abilityName": "Monster_Eremite_FeMale_Standard_Longbow_Dobge",
      "abilityOverride": ""
    },
    {
      "abilityID": "ReturnToBorn",
      "abilityName": "Monster_Eremite_FeMale_Standard_Longbow_ReturnToBorn",
      "abilityOverride": ""
    },
    {
      "abilityID": "NormalAttack03",
      "abilityName": "Monster_Eremite_FeMale_Standard_Longbow_NormalAttack03",
      "abilityOverride": ""
    },
    {
      "abilityID": "NormalAttack03_RushMove",
      "abilityName": "Monster_Eremite_FeMale_Standard_Longbow_NormalAttack03_RushMove",
      "abilityOverride": ""
    },
    {
      "abilityID": "NormalAttack03",
      "abilityName": "Monster_Eremite_FeMale_Standard_Longbow_ChargeShoot_Handle",
      "abilityOverride": ""
    },
    {
      "abilityID": "NormalAttack03",
      "abilityName": "Monster_Eremite_FeMale_Standard_Longbow_ChargeShoot_Handle",
      "abilityOverride": ""
    },
    {
      "abilityID": "MeleeAttack_01",
      "abilityName": "Monster_Eremite_FeMale_Standard_Longbow_MeleeAttack_01",
      "abilityOverride": ""
    },
    {
      "abilityID": "ChargeShoot_Effect",
      "abilityName": "Monster_Eremite_FeMale_Standard_Longbow_ChargeShoot_Effect",
      "abilityOverride": ""
    }
  ],
  "stateLayers": {
    "defaultLayer": {
      "$type": "GBGJJIIEMBD",
      "layerIndexName": "",
      "CPAANEIJCGD": "",
      "stateIDs": {
        "NormalIdle": {
          "$type": "NEDIFAKEGCO",
          "animatorStates": {
            "Standby": [],
            "Born": []
          },
          "canDoSkill": true,
          "canSyncMove": true,
          "resetAnimatorTriggerOnExit": ["DoSkill"]
        },
        "Standby_Weak": {
          "$type": "NEDIFAKEGCO",
          "animatorStates": {
            "Standby_Weak": []
          },
          "canDoSkill": true,
          "canSyncMove": true,
          "resetAnimatorTriggerOnEnter": ["Recover"],
          "resetAnimatorTriggerOnExit": ["DoSkill"]
        },
        "NormalMove": {
          "$type": "NEDIFAKEGCO",
          "animatorStates": {
            "WalkForward": [
              "Audio_Monster_Eremite_Female_Standard_Longbow_01_Walk"
            ],
            "WalkBack": [
              "Audio_Monster_Eremite_Female_Standard_Longbow_01_Walk"
            ],
            "WalkRight": [
              "Audio_Monster_Eremite_Female_Standard_Longbow_01_Turn"
            ],
            "WalkLeft": [
              "Audio_Monster_Eremite_Female_Standard_Longbow_01_Turn"
            ],
            "Run": []
          },
          "canDoSkill": true,
          "canSyncMove": true,
          "resetAnimatorTriggerOnExit": ["DoSkill"],
          "canSteer": true
        },
        "Turn": {
          "$type": "NEDIFAKEGCO",
          "animatorStates": {
            "TurnLeft": [
              "Audio_Monster_Eremite_Female_Standard_Longbow_01_Turn"
            ],
            "TurnRight": [
              "Audio_Monster_Eremite_Female_Standard_Longbow_01_Turn"
            ]
          },
          "canDoSkill": true,
          "canSyncMove": true,
          "resetAnimatorTriggerOnExit": ["DoSkill"],
          "canSteer": true
        },
        "BeHit": {
          "$type": "NEDIFAKEGCO",
          "animatorStates": {
            "Hit_L": [],
            "Hit_H": ["Audio_Monster_Eremite_Female_Standard_Longbow_01_Hit_H"]
          },
          "resetAnimatorTriggerOnEnter": ["BeHit"],
          "resetAnimatorTriggerOnExit": ["DoSkill"]
        },
        "BeHitThrow": {
          "$type": "NEDIFAKEGCO",
          "animatorStates": {
            "HitThrow": [],
            "HitThrowDrop": []
          },
          "resetAnimatorTriggerOnEnter": ["BeHit", "HitAir2HitDrop"],
          "resetAnimatorTriggerOnExit": ["DoSkill", "BeHit"],
          "setAnimatorBoolean": [
            {
              "name": "AirDie"
            }
          ]
        },
        "BeHitThrowToStandby": {
          "$type": "NEDIFAKEGCO",
          "animatorStates": {
            "HitThrowToGround": [
              "Audio_Monster_Eremite_Female_Standard_Longbow_01_HitThrowToGround"
            ]
          },
          "resetAnimatorTriggerOnEnter": ["BeHit", "HitAir2HitDrop"],
          "resetAnimatorTriggerOnExit": ["DoSkill", "BeHit"],
          "setAnimatorBoolean": [
            {
              "name": "AirDie",
              "normalizeEnd": 0.6200000047683716
            }
          ]
        },
        "Struggle": {
          "$type": "NEDIFAKEGCO",
          "animatorStates": {
            "Struggle": []
          },
          "resetAnimatorTriggerOnEnter": ["BeHit", "HitAir2HitDrop"],
          "resetAnimatorTriggerOnExit": ["DoSkill"]
        },
        "Die": {
          "$type": "NEDIFAKEGCO",
          "animatorStates": {
            "Die1": [
              "Monster_Eremite_Female_Standard_Longbow_Die",
              "Audio_Monster_Eremite_Female_Standard_Longbow_01_Die1"
            ],
            "Die2": [
              "Monster_Eremite_Female_Standard_Longbow_Die",
              "Audio_Monster_Eremite_Female_Standard_Longbow_01_Die1"
            ],
            "SwimDie_BS": [],
            "SwimDie": ["Monster_Eremite_SwimDie"],
            "SwimDie_AS": []
          }
        },
        "Die_RagDoll": {
          "$type": "NEDIFAKEGCO",
          "animatorStates": {
            "AirDie": ["Monster_Eremite_AirDie"]
          }
        },
        "Alert": {
          "$type": "NEDIFAKEGCO",
          "animatorStates": {
            "Alert": ["Audio_Monster_Eremite_Female_Standard_Longbow_01_Alert"]
          },
          "addEndure": 0.0,
          "massRatio": 20.0,
          "resetAnimatorTriggerOnExit": ["BeHit", "DoSkill"],
          "autoSteer": true
        },
        "SheathWeapon": {
          "$type": "NEDIFAKEGCO",
          "animatorStates": {
            "SheathWeapon": [
              "Monster_Eremite_Female_Standard_Longbow_ReturnToBorn",
              "Audio_Monster_Eremite_Female_Standard_Longbow_01_SheathWeapon"
            ]
          },
          "addEndure": 0.0,
          "massRatio": 20.0,
          "resetAnimatorTriggerOnEnter": ["SheathWeaponTrigger"],
          "resetAnimatorTriggerOnExit": [
            "BeHit",
            "DoSkill",
            "SheathWeaponTrigger"
          ]
        },
        "Improve": {
          "$type": "NEDIFAKEGCO",
          "animatorStates": {
            "Improve": [
              "Monster_Eremite_Female_Standard_Longbow_Improve",
              "Audio_Monster_Eremite_Female_Standard_Longbow_01_Improve"
            ]
          },
          "addEndure": 0.0,
          "massRatio": 20.0,
          "resetAnimatorTriggerOnEnter": ["ForceImprove"],
          "resetAnimatorTriggerOnExit": ["BeHit", "DoSkill", "ForceImprove"]
        },
        "Weak": {
          "$type": "NEDIFAKEGCO",
          "animatorStates": {
            "Weak_BS": [
              "Audio_Monster_Eremite_Female_Standard_Longbow_01_Weak_BS"
            ],
            "Weak_AS": [
              "Audio_Monster_Eremite_Female_Standard_Longbow_01_Weak_AS"
            ]
          },
          "addEndure": 0.0,
          "massRatio": 20.0,
          "resetAnimatorTriggerOnEnter": ["Weak"],
          "resetAnimatorTriggerOnExit": ["BeHit", "DoSkill", "Weak", "Recover"]
        },
        "FeelWind": {
          "$type": "NEDIFAKEGCO",
          "animatorStates": {
            "FeelWind": [
              "Audio_Monster_Eremite_Female_Standard_Longbow_01_FeelWind"
            ]
          },
          "canDoSkill": true,
          "resetAnimatorTriggerOnExit": ["BeHit", "DoSkill"],
          "canSteer": true
        },
        "ShowElement": {
          "$type": "NEDIFAKEGCO",
          "animatorStates": {
            "ShowElement": [
              "Monster_Eremite_Female_Standard_Longbow_ShowElementArrow",
              "Audio_Monster_Eremite_Female_Standard_Longbow_01_ShowElement"
            ]
          },
          "canDoSkill": true,
          "resetAnimatorTriggerOnExit": ["BeHit", "DoSkill"],
          "canSteer": true
        },
        "MeleeAttack_01": {
          "$type": "NEDIFAKEGCO",
          "animatorStates": {
            "MeleeAttack_01": [
              "Monster_Eremite_Female_Standard_Longbow_MeleeAttack_01",
              "Audio_Monster_Eremite_Female_Standard_Longbow_01_MeleeAttack_01"
            ]
          },
          "addEndure": 0.009999999776482582,
          "resetAnimatorTriggerOnExit": ["BeHit", "DoSkill"],
          "canSteer": true
        },
        "NormalAtk01_01": {
          "$type": "NEDIFAKEGCO",
          "animatorStates": {
            "NormalAtk01_01": [
              "Monster_Eremite_Female_Standard_Longbow_NormalAtk01_01",
              "Audio_Monster_Eremite_Female_Standard_Longbow_01_NormalAtk01_01"
            ]
          },
          "addEndure": 0.009999999776482582,
          "resetAnimatorTriggerOnExit": ["BeHit", "DoSkill"],
          "canSteer": true
        },
        "NormalAtk01_02": {
          "$type": "NEDIFAKEGCO",
          "animatorStates": {
            "NormalAtk01_02": [
              "Monster_Eremite_Female_Standard_Longbow_NormalAtk01_02",
              "Audio_Monster_Eremite_Female_Standard_Longbow_01_NormalAtk01_02"
            ]
          },
          "addEndure": 0.009999999776482582,
          "resetAnimatorTriggerOnExit": ["BeHit", "DoSkill"],
          "canSteer": true
        },
        "NormalAtk01_03": {
          "$type": "NEDIFAKEGCO",
          "animatorStates": {
            "NormalAtk01_03": [
              "Monster_Eremite_Female_Standard_Longbow_NormalAtk01_03",
              "Audio_Monster_Eremite_Female_Standard_Longbow_01_NormalAtk01_03"
            ]
          },
          "addEndure": 0.009999999776482582,
          "resetAnimatorTriggerOnExit": ["BeHit", "DoSkill"],
          "canSteer": true
        },
        "NormalAtk02": {
          "$type": "NEDIFAKEGCO",
          "animatorStates": {
            "NormalAtk02": [
              "Monster_Eremite_Female_Standard_Longbow_NormalAtk02",
              "Audio_Monster_Eremite_Female_Standard_Longbow_01_NormalAtk02"
            ]
          },
          "addEndure": 0.009999999776482582,
          "resetAnimatorTriggerOnExit": ["BeHit", "DoSkill"],
          "canSteer": true
        },
        "NormalAtk03_AS": {
          "$type": "NEDIFAKEGCO",
          "animatorStates": {
            "NormalAtk03_AS": [
              "Monster_Eremite_Female_Standard_Longbow_NormalAtk03"
            ]
          },
          "resetAnimatorTriggerOnExit": ["BeHit", "DoSkill"],
          "canSteer": true
        },
        "ArrowShoot_01_BS": {
          "$type": "NEDIFAKEGCO",
          "animatorStates": {
            "ArrowShoot_01_BS": [
              "Monster_Eremite_Female_Standard_Longbow_ArrowShoot_BS",
              "Audio_Monster_Eremite_Female_Standard_Longbow_01_ArrowShoot_01_BS"
            ]
          },
          "addEndure": 0.009999999776482582,
          "resetAnimatorTriggerOnExit": ["BeHit", "DoSkill"],
          "canSteer": true
        },
        "ArrowShoot_01_Loop": {
          "$type": "NEDIFAKEGCO",
          "animatorStates": {
            "ArrowShoot_01_Loop": [
              "Monster_Eremite_Female_Standard_Longbow_ArrowShoot_01",
              "Audio_Monster_Eremite_Female_Standard_Longbow_01_ArrowShoot_01"
            ]
          },
          "addEndure": 0.009999999776482582,
          "resetAnimatorTriggerOnExit": ["BeHit", "DoSkill"],
          "canSteer": true
        },
        "ArrowShoot_01_AS": {
          "$type": "NEDIFAKEGCO",
          "animatorStates": {
            "ArrowShoot_01_AS": [
              "Audio_Monster_Eremite_Female_Standard_Longbow_01_ArrowShoot_01_AS"
            ]
          },
          "resetAnimatorTriggerOnExit": ["BeHit", "DoSkill"],
          "canSteer": true
        },
        "AirShoot_01": {
          "$type": "NEDIFAKEGCO",
          "animatorStates": {
            "AirShoot_01": [
              "Monster_Eremite_Female_Standard_Longbow_AirShoot_01",
              "Audio_Monster_Eremite_Female_Standard_Longbow_01_AirShoot_01"
            ]
          },
          "addEndure": 0.0,
          "resetAnimatorTriggerOnExit": ["BeHit", "DoSkill"],
          "canSteer": true
        },
        "Dodge": {
          "$type": "NEDIFAKEGCO",
          "animatorStates": {
            "Dodge": ["Audio_Monster_Eremite_Female_Standard_Longbow_01_Dodge"]
          },
          "addEndure": 0.0,
          "resetAnimatorTriggerOnExit": ["BeHit", "DoSkill"],
          "canSteer": true
        },
        "Improve_Shoot_01": {
          "$type": "NEDIFAKEGCO",
          "animatorStates": {
            "Improve_Shoot_01": [
              "Monster_Eremite_Female_Standard_Longbow_Improve_ArrowShoot_01",
              "Audio_Monster_Eremite_Female_Standard_Longbow_01_ImproveShoot"
            ]
          },
          "resetAnimatorTriggerOnExit": ["BeHit", "DoSkill"],
          "canSteer": true
        },
        "Improve_ChargeShoot01_BS": {
          "$type": "NEDIFAKEGCO",
          "animatorStates": {
            "Improve_ChargeShoot01_BS": [
              "Monster_Eremite_Female_Standard_Longbow_Improve_ChargeShoot_BS",
              "Audio_Monster_Eremite_Female_Standard_Longbow_01_ImproveChargeShoot01_BS"
            ]
          },
          "resetAnimatorTriggerOnExit": ["BeHit", "DoSkill"],
          "canSteer": true
        },
        "Improve_ChargeShoot01_Loop": {
          "$type": "NEDIFAKEGCO",
          "animatorStates": {
            "Improve_ChargeShoot01_Loop": [
              "Audio_Monster_Eremite_Female_Standard_Longbow_01_ImproveChargeShoot01_Loop"
            ]
          },
          "resetAnimatorTriggerOnExit": ["BeHit", "DoSkill"]
        },
        "Improve_ChargeShoot01_AS": {
          "$type": "NEDIFAKEGCO",
          "animatorStates": {
            "Improve_ChargeShoot01_AS": [
              "Monster_Eremite_Female_Standard_Longbow_Improve_ChargeShoot_AS",
              "Audio_Monster_Eremite_Female_Standard_Longbow_01_ImproveChargeShoot01_AS"
            ]
          },
          "resetAnimatorTriggerOnExit": ["BeHit", "DoSkill"]
        }
      }
    }
  },
  "billboard": {
    "$type": "DNGNMAJBCNP",
    "attachPoint": "BillboardAttach",
    "offset": {
      "x": -0.3499999940395355
    },
    "offsetType": "Character",
    "showHPBar": true,
    "size": "Big"
  },
  "initialPoses": {
    "Default": {
      "initialPoseID": 1
    }
  },
  "aibeta": {
    "enable": true,
    "moveSetting": {
      "navMeshAgentName": "Undead01",
      "almostReachedDistanceRun": 1.5
    },
    "aiCombat": {
      "combatRole": "FIGHTER"
    },
    "sensing": {
      "settings": {
        "DefaultSetting": {
          "feelRange": 8.0
        },
        "HighAlert": {
          "viewRange": 40.0,
          "feelRange": 10.0
        },
        "LowAlert": {
          "viewRange": 15.0,
          "feelRange": 6.0
        },
        "NeverCombat": {
          "enableVision": false,
          "hearAttractionRange": 0.0,
          "feelRange": 0.0
        }
      },
      "templates": {
        "DefaultTemplate": {
          "DefaultPoses": "DefaultSetting"
        },
        "NeverCombatTemplate": {
          "DefaultPoses": "NeverCombat"
        },
        "HighAlert": {
          "DefaultPoses": "HighAlert"
        },
        "LowAlert": {
          "DefaultPoses": "LowAlert"
        }
      }
    },
    "neurons": {
      "DefaultSetting": ["HIT"]
    },
    "threat": {
      "GHIJMOKOLMB": "",
      "clearThreatTargetDistance": 30.0,
      "clearThreatEdgeDistance": 3.5,
      "clearThreatTimerByDistance": 1.75,
      "viewThreatGrow": 35.0,
      "feelThreatGrow": 100.0,
      "threatDecreaseSpeed": 10.0,
      "viewAttenuation": [
        {
          "x": 10.0,
          "y": 2.0
        },
        {
          "x": 15.0,
          "y": 0.800000011920929
        },
        {
          "x": 20.0,
          "y": 0.5
        },
        {
          "x": 25.0,
          "y": 0.30000001192092896
        },
        {
          "x": 30.0,
          "y": 0.20000000298023224
        }
      ],
      "resistTauntLevel": "Monster_TauntLevel_3"
    },
    "defendArea": {
      "defendRange": 50.0
    },
    "profiling": {},
    "network": {
      "syncSkill": true
    },
    "skillGroupCDConfigs": [
      {
        "skillGroupCDID": 1,
        "skillGroupCDTime": 1.0
      },
      {
        "skillGroupCDID": 2,
        "skillGroupCDTime": 2.0
      },
      {
        "skillGroupCDID": 3,
        "skillGroupCDTime": 3.0
      },
      {
        "skillGroupCDID": 4,
        "skillGroupCDTime": 25.0
      }
    ],
    "skills": {
      "101": {
        "name": "OnAlert",
        "skillType": "OnAlert",
        "publicCDGroup": "",
        "ignoreGCD": true,
        "triggerGCD": false,
        "HHAGODJIAPE": "",
        "stateIDs": ["Alert"],
        "skillQueryingTime": 3.0,
        "flagTargetReachable": "10",
        "flagSelfOnTemplateCollider": "01",
        "flagSelfInZone": "10",
        "flagTargetInZone": "11"
      },
      "201": {
        "name": "ArrowShoot_01",
        "castCondition": {
          "pose": [101],
          "pickRangeMin": 7.0,
          "pickRangeMax": 25.0
        },
        "cd": 3.0,
        "cdUpperRange": 2.0,
        "publicCDGroup": "",
        "ignoreGCD": true,
        "triggerGCD": false,
        "triggerCDOnStart": true,
        "skillGroupCDID": 3,
        "HHAGODJIAPE": "",
        "stateIDs": [
          "ArrowShoot_01_AS",
          "ArrowShoot_01_Loop",
          "ArrowShoot_01_BS"
        ],
        "flagTargetReachable": "11",
        "flagSelfOnTemplateCollider": "01",
        "flagSelfInZone": "11",
        "flagTargetInZone": "11"
      },
      "211": {
        "name": "NormalAtk01",
        "castCondition": {
          "pose": [101],
          "pickRangeMax": 5.0
        },
        "cd": 7.0,
        "cdUpperRange": 2.0,
        "publicCDGroup": "",
        "ignoreGCD": true,
        "triggerGCD": false,
        "skillGroupCDID": 2,
        "HHAGODJIAPE": "",
        "stateIDs": ["NormalAtk01_01", "NormalAtk01_02", "NormalAtk01_03"],
        "flagTargetReachable": "10",
        "flagSelfOnTemplateCollider": "01",
        "flagSelfInZone": "11",
        "flagTargetInZone": "11"
      },
      "212": {
        "name": "NormalAtk02",
        "castCondition": {
          "pose": [101],
          "pickRangeMax": 6.5
        },
        "cd": 5.0,
        "cdUpperRange": 2.0,
        "publicCDGroup": "",
        "ignoreGCD": true,
        "triggerGCD": false,
        "skillGroupCDID": 2,
        "HHAGODJIAPE": "",
        "stateIDs": ["NormalAtk02"],
        "flagTargetReachable": "11",
        "flagSelfOnTemplateCollider": "01",
        "flagSelfInZone": "11",
        "flagTargetInZone": "11"
      },
      "221": {
        "name": "AirShoot_01",
        "priority": 2,
        "castCondition": {
          "pose": [101],
          "pickRangeMax": 6.5
        },
        "cd": 15.0,
        "cdUpperRange": 2.0,
        "initialCD": 2.0,
        "publicCDGroup": "",
        "ignoreGCD": true,
        "triggerGCD": false,
        "skillGroupCDID": 2,
        "HHAGODJIAPE": "",
        "stateIDs": ["AirShoot_01"],
        "flagTargetReachable": "11",
        "flagSelfOnTemplateCollider": "01",
        "flagSelfInZone": "11",
        "flagTargetInZone": "11"
      },
      "231": {
        "name": "MeleeAttack_01",
        "castCondition": {
          "pose": [101],
          "pickRangeMin": 10.0,
          "pickRangeMax": 20.0
        },
        "cd": 15.0,
        "cdUpperRange": 3.0,
        "initialCD": 10.0,
        "initialCDUpperRange": 3.0,
        "publicCDGroup": "",
        "ignoreGCD": true,
        "triggerGCD": false,
        "triggerCDOnStart": true,
        "HHAGODJIAPE": "",
        "stateIDs": ["MeleeAttack_01"],
        "flagTargetReachable": "10",
        "flagSelfOnTemplateCollider": "01",
        "flagSelfInZone": "11",
        "flagTargetInZone": "11"
      },
      "301": {
        "name": "Improve_Shoot_01",
        "castCondition": {
          "pose": [201, 102],
          "pickRangeMax": 20.0
        },
        "cd": 4.0,
        "cdUpperRange": 2.0,
        "publicCDGroup": "",
        "skillGroupCDID": 3,
        "HHAGODJIAPE": "",
        "stateIDs": ["Improve_Shoot_01"],
        "flagTargetReachable": "11",
        "flagSelfOnTemplateCollider": "01",
        "flagSelfInZone": "11",
        "flagTargetInZone": "11"
      },
      "311": {
        "name": "Dodge_Shoot_01",
        "castCondition": {
          "pose": [201],
          "pickRangeMax": 5.0
        },
        "cd": 6.0,
        "cdUpperRange": 2.0,
        "publicCDGroup": "",
        "ignoreGCD": true,
        "skillGroupCDID": 3,
        "HHAGODJIAPE": "",
        "stateIDs": ["Dodge", "Improve_Shoot_01"],
        "flagTargetReachable": "11",
        "flagSelfOnTemplateCollider": "01",
        "flagSelfInZone": "11",
        "flagTargetInZone": "11"
      },
      "401": {
        "name": "Improve",
        "priority": 2,
        "castCondition": {
          "pose": [111]
        },
        "cd": 10.0,
        "publicCDGroup": "",
        "ignoreGCD": true,
        "triggerGCD": false,
        "triggerCDOnFail": false,
        "HHAGODJIAPE": "",
        "stateIDs": ["Improve"],
        "skillQueryingTime": 3.0,
        "flagTargetReachable": "11",
        "flagSelfOnTemplateCollider": "11",
        "flagSelfInZone": "11",
        "flagTargetInZone": "11"
      },
      "9001": {
        "name": "FeelWind",
        "skillType": "Free",
        "castCondition": {
          "pose": [2, 1]
        },
        "cd": 100.0,
        "cdUpperRange": 35.0,
        "initialCD": 25.0,
        "initialCDUpperRange": 10.0,
        "publicCDGroup": "",
        "ignoreGCD": true,
        "triggerGCD": false,
        "skillGroupCDID": 4,
        "HHAGODJIAPE": "",
        "stateIDs": ["FeelWind"],
        "skillQueryingTime": 10.0,
        "flagTargetReachable": "10",
        "flagSelfOnTemplateCollider": "01",
        "flagSelfInZone": "10",
        "flagTargetInZone": "11"
      },
      "9002": {
        "name": "ShowElement",
        "skillType": "Free",
        "castCondition": {
          "pose": [2, 1]
        },
        "cd": 100.0,
        "cdUpperRange": 35.0,
        "initialCD": 25.0,
        "initialCDUpperRange": 10.0,
        "publicCDGroup": "",
        "ignoreGCD": true,
        "triggerGCD": false,
        "skillGroupCDID": 4,
        "HHAGODJIAPE": "",
        "stateIDs": ["ShowElement"],
        "skillQueryingTime": 10.0,
        "flagTargetReachable": "10",
        "flagSelfOnTemplateCollider": "01",
        "flagSelfInZone": "10",
        "flagTargetInZone": "11"
      }
    },
    "birdCirclingTactic": [
      {
        "$type": "EPHBMLFODKF",
        "enable": true,
        "condition": {
          "pose": [101, 102, 201]
        },
        "JMCOBEPDIGM": {
          "rangeMin": 5.0,
          "rangeMax": 20.0,
          "AFILKAGDAHN": 1.5,
          "ALIBHHJHHMN": 1.5,
          "OMHBOLPFEPM": 1.0,
          "BFJBDDIIFOI": {
            "LLICGJHIGME": 0.0,
            "IDEFILBHNAP": 2.0,
            "IBLIPJPNOGC": 2.0,
            "AEBLMKFNCDG": 2.0,
            "IGLIBIOEGBB": 2.0
          },
          "NAOBMNGDKHL": "1111",
          "JCNIJOAIGII": "1111",
          "MNPDDAKDHGK": ""
        },
        "PIOCBHLFLJP": {
          "201": {
            "rangeMin": 0.0,
            "rangeMax": 20.0,
            "AFILKAGDAHN": 1.5,
            "ALIBHHJHHMN": 1.5,
            "OMHBOLPFEPM": 1.0,
            "BFJBDDIIFOI": {
              "LLICGJHIGME": 0.0,
              "IDEFILBHNAP": 0.5,
              "IBLIPJPNOGC": 4.0,
              "AEBLMKFNCDG": 2.0,
              "IGLIBIOEGBB": 2.0
            },
            "NAOBMNGDKHL": "1111",
            "JCNIJOAIGII": "1111",
            "MNPDDAKDHGK": ""
          },
          "102": {
            "rangeMin": 0.0,
            "rangeMax": 20.0,
            "AFILKAGDAHN": 1.5,
            "ALIBHHJHHMN": 1.5,
            "OMHBOLPFEPM": 1.0,
            "BFJBDDIIFOI": {
              "LLICGJHIGME": 0.0,
              "IDEFILBHNAP": 0.5,
              "IBLIPJPNOGC": 4.0,
              "AEBLMKFNCDG": 2.0,
              "IGLIBIOEGBB": 2.0
            },
            "NAOBMNGDKHL": "1111",
            "JCNIJOAIGII": "1111",
            "MNPDDAKDHGK": ""
          }
        }
      },
      {
        "$type": "OJOBEDCMGKM",
        "enable": true,
        "condition": {
          "pose": [1]
        }
      },
      {
        "$type": "KACCHOLJDNK",
        "enable": true,
        "condition": {
          "pose": [101]
        },
        "JMCOBEPDIGM": {
          "ANLAAGAMIKF": 1,
          "HKJODDGJPHA": 99.0,
          "GGEBMFHFBPO": 20.0,
          "KFFGCIMPNMJ": 0.0,
          "MNPDDAKDHGK": ""
        }
      },
      {
        "$type": "NNJKLGNPMNN",
        "enable": true,
        "JMCOBEPDIGM": {
          "ANLAAGAMIKF": 1,
          "MNPDDAKDHGK": "",
          "GJDMDHIBCME": ""
        }
      },
      {
        "$type": "FPELBIJFGCE",
        "enable": true,
        "condition": {
          "pose": [1]
        },
        "JMCOBEPDIGM": {
          "KPNDPKIOPJM": 8.0,
          "PINAFKEDDLL": 5.0,
          "ANMPOPEBDIA": 15.0,
          "GMJFIMFFOEL": 3.5,
          "CHCPFDMADEI": 9.5,
          "MNPDDAKDHGK": ""
        }
      }
    ]
  },
  "inputKeys": [
    {
      "keyID": 201,
      "inputKeyCode": 257,
      "abilityName": ""
    },
    {
      "keyID": 211,
      "inputKeyCode": 259,
      "abilityName": ""
    },
    {
      "keyID": 212,
      "inputKeyCode": 260,
      "abilityName": ""
    },
    {
      "keyID": 221,
      "inputKeyCode": 261,
      "abilityName": ""
    },
    {
      "keyID": 231,
      "inputKeyCode": 262,
      "abilityName": ""
    },
    {
      "keyID": 241,
      "inputKeyCode": 263,
      "abilityName": ""
    },
    {
      "keyID": 401,
      "inputKeyCode": 264,
      "abilityName": ""
    }
  ],
  "move": {
    "$type": "IPNMJMHDMPF",
    "facingMove": "FourDirection",
    "monsterSizeType": "StoopType",
    "positionModifyExtra": true,
    "PKHOMJHFAEE": "RootNode"
  },
  "audio": {
    "overrideEmitterName": "",
    "animAudio": {
      "onTransitionIn": [
        {
          "currentStateName": "Improve_ChargeShoot01_Loop",
          "audioEvent": {
            "text": "Play_sfx_monster_Eremite_Female_Standard_Longbow_01_improveChargeShoot01_Loop"
          },
          "otherStateNames": ["Improve_ChargeShoot01_Loop"],
          "usage": "Except"
        }
      ],
      "onTransitionOut": [
        {
          "currentStateName": "Improve_ChargeShoot01_Loop",
          "audioEvent": {
            "text": "Stop_sfx_monster_Eremite_Female_Standard_Longbow_01_improveChargeShoot01_Loop"
          },
          "otherStateNames": ["Improve_ChargeShoot01_Loop"],
          "usage": "Except"
        },
        {
          "currentStateName": "Dodge",
          "audioEvent": {
            "text": "Stop_sfx_monster_Eremite_Female_Standard_Longbow_01_dodge"
          },
          "otherStateNames": ["Dodge"]
        },
        {
          "currentStateName": "ShowElement",
          "audioEvent": {
            "text": "Stop_sfx_monster_Eremite_Female_Standard_Longbow_01_showElement"
          },
          "otherStateNames": ["ShowElement"]
        }
      ]
    }
  }
}
