{
  "common": {
    "effectAttachShape": {
      "$type": "FJNPJANPGGC",
      "mesh": "EffectMesh"
    },
    "mass": 1000000.0,
    "height": 4.199999809265137,
    "viewSize": 2.5,
    "affectedByWorld": true,
    "checkInSurface": true,
    "useGrassDisplacement": true,
    "clearAnimatorOnSetLightDeactive": true,
    "clearAIOnSetLightDeactive": true
  },
  "specialPoint": {
    "elementAbsorb": "RootNode",
    "elementPendant": "",
    "elementDrop": "Chest",
    "bulletAim": "Chest"
  },
  "model": {
    "bornEffect": "",
    "attachEffect": "",
    "canBakeMesh": false,
    "BKPFGNPLDNJ": ""
  },
  "dither": {
    "showDitherDuration": 2.0,
    "normalBetweenCamera": {
      "detectDitherRange": 5.0
    }
  },
  "combat": {
    "property": {
      "endureType": "Monster_Boss_Other",
      "weight": 300.0
    },
    "beHit": {
      "hitBloodEffect": "",
      "hitAutoRedirect": false
    },
    "combatLock": {
      "lockShape": "CircleLockEnemy",
      "lockType": "Avatar&Monster_Lv4"
    },
    "die": {
      "hasAnimatorDie": true,
      "dieEndTime": 2.0,
      "dieForceDisappearTime": 4.0,
      "dieDisappearEffect": "Eff_Death_Common",
      "dieShaderData": "MonsterDie",
      "useRagDoll": true,
      "muteHitBox": true,
      "dieDenyLockOn": true,
      "dieIsGhostToEnemy": true,
      "dieIgnoreTriggerBullet": true,
      "muteBillboard": true,
      "mutePushCollider": true
    },
    "animEvents": {
      "StampAtk": {
        "attackPattern": {
          "$type": "ConfigAttackCircle",
          "triggerType": "TriggerNoRepeat",
          "born": {
            "$type": "ConfigBornBySelf",
            "offset": {
              "x": 0.0,
              "y": 0.0,
              "z": 1.0
            }
          },
          "radius": 2.0
        },
        "attackInfo": {
          "attackTag": "",
          "attenuationTag": "",
          "attenuationGroup": "default",
          "attackProperty": {
            "actorGrassSubHurtDelta": 0.625,
            "actorWindSubHurtDelta": 0.0,
            "elementDurability": 100.0,
            "strikeType": "Blunt",
            "enBreak": 200.0,
            "GLKMCMDJBIK": 0.0
          },
          "hitPattern": {
            "onHitEffectName": "default",
            "hitImpulseY": "",
            "hitImpulseType": "LV5"
          },
          "forceCameraShake": true,
          "cameraShake": {
            "shakeType": "CustomVector",
            "shakeRange": 0.4000000059604645,
            "shakeTime": 0.15000000596046448,
            "shakeDistance": 30.0,
            "shakeDir": {
              "y": -1.0
            }
          }
        }
      },
      "SwipeAtk": {
        "attackPattern": {
          "$type": "ConfigAttackCircle",
          "triggerType": "TriggerNoRepeat",
          "born": {
            "$type": "ConfigBornBySelf",
            "offset": {
              "x": 0.0,
              "y": 0.0,
              "z": 2.0
            }
          },
          "radius": 3.0
        },
        "attackInfo": {
          "attackTag": "",
          "attenuationTag": "",
          "attenuationGroup": "default",
          "attackProperty": {
            "actorGrassSubHurtDelta": 0.875,
            "actorWindSubHurtDelta": 0.0,
            "elementDurability": 100.0,
            "strikeType": "Blunt",
            "enBreak": 200.0,
            "GLKMCMDJBIK": 0.0
          },
          "hitPattern": {
            "onHitEffectName": "default",
            "hitImpulseY": "",
            "hitImpulseType": "LV5"
          },
          "forceCameraShake": true,
          "cameraShake": {
            "shakeRange": 0.4000000059604645,
            "shakeTime": 0.18000000715255737,
            "shakeDistance": 30.0
          }
        }
      },
      "WhirlAtk": {
        "attackPattern": {
          "$type": "ConfigAttackCircle",
          "triggerType": "TriggerNoRepeat",
          "born": {
            "$type": "ConfigBornBySelf",
            "offset": {
              "x": 0.0,
              "y": 0.75,
              "z": 0.0
            }
          },
          "height": 1.75,
          "radius": 5.0
        },
        "attackInfo": {
          "attackTag": "",
          "attenuationTag": "",
          "attenuationGroup": "default",
          "attackProperty": {
            "actorGrassSubHurtDelta": 0.75,
            "actorWindSubHurtDelta": 0.0,
            "elementDurability": 100.0,
            "strikeType": "Blunt",
            "enBreak": 100.0,
            "GLKMCMDJBIK": 0.0
          },
          "hitPattern": {
            "onHitEffectName": "default",
            "hitImpulseY": "",
            "hitImpulseType": "LV6",
            "hitHaltTime": 0.009999999776482582,
            "hitHaltTimeScale": 0.05000000074505806
          },
          "cameraShake": {
            "shakeRange": 0.11999999731779099,
            "shakeTime": 0.11999999731779099,
            "shakeDistance": 25.0
          }
        }
      }
    }
  },
  "abilities": [
    {
      "abilityID": "ResistStruggle",
      "abilityName": "AbilityResistStruggle",
      "abilityOverride": ""
    },
    {
      "abilityID": "Born",
      "abilityName": "Defender_None_Born",
      "abilityOverride": ""
    },
    {
      "abilityID": "PowerOff",
      "abilityName": "Defender_None_PowerOff",
      "abilityOverride": ""
    },
    {
      "abilityID": "PowerOff_WakeUp",
      "abilityName": "Defender_None_PowerOff_WakeUp",
      "abilityOverride": ""
    },
    {
      "abilityID": "PowerOff_Remove",
      "abilityName": "Defender_None_PowerOff_Remove",
      "abilityOverride": ""
    },
    {
      "abilityID": "Weakness",
      "abilityName": "Defender_None_Weakness",
      "abilityOverride": ""
    },
    {
      "abilityID": "Weakness_Remove",
      "abilityName": "Defender_None_Weakness_Remove",
      "abilityOverride": ""
    },
    {
      "abilityID": "Break_Remove",
      "abilityName": "Defender_None_Break_Remove",
      "abilityOverride": ""
    },
    {
      "abilityID": "Weak",
      "abilityName": "Defender_None_Weak",
      "abilityOverride": ""
    },
    {
      "abilityID": "Weak_Effect",
      "abilityName": "Defender_None_Weak_Effect",
      "abilityOverride": ""
    },
    {
      "abilityID": "Weak_Ground",
      "abilityName": "Defender_None_Weak_Ground",
      "abilityOverride": ""
    },
    {
      "abilityID": "Weak_End",
      "abilityName": "Defender_None_Weak_End",
      "abilityOverride": ""
    },
    {
      "abilityID": "Whirl",
      "abilityName": "Defender_None_Whirl",
      "abilityOverride": ""
    },
    {
      "abilityID": "Laser_BS",
      "abilityName": "Defender_None_Laser_BS",
      "abilityOverride": ""
    },
    {
      "abilityID": "Cannone_Effect",
      "abilityName": "Defender_None_CannonEffect",
      "abilityOverride": ""
    },
    {
      "abilityID": "Laser",
      "abilityName": "Defender_None_Laser",
      "abilityOverride": ""
    },
    {
      "abilityID": "Turn",
      "abilityName": "Defender_None_Turn",
      "abilityOverride": ""
    },
    {
      "abilityID": "Smash_Turn",
      "abilityName": "Defender_None_Smash_Turn",
      "abilityOverride": ""
    },
    {
      "abilityID": "Smash_Atk01",
      "abilityName": "Defender_None_Smash_Atk01",
      "abilityOverride": ""
    },
    {
      "abilityID": "Smash_Atk02",
      "abilityName": "Defender_None_Smash_Atk02",
      "abilityOverride": ""
    },
    {
      "abilityID": "Smash_Alert",
      "abilityName": "Defender_None_Smash_Alert",
      "abilityOverride": ""
    },
    {
      "abilityID": "Smash_Atk03",
      "abilityName": "Defender_None_Smash_Atk03",
      "abilityOverride": ""
    },
    {
      "abilityID": "Stamp",
      "abilityName": "Defender_None_Stamp",
      "abilityOverride": ""
    },
    {
      "abilityID": "Swipe_Arm_01",
      "abilityName": "Defender_None_Swipe_Arm_01",
      "abilityOverride": ""
    },
    {
      "abilityID": "Swipe_Arm_02",
      "abilityName": "Defender_None_Swipe_Arm_02",
      "abilityOverride": ""
    },
    {
      "abilityID": "Swipe_Arm_03",
      "abilityName": "Defender_None_Swipe_Arm_03",
      "abilityOverride": ""
    },
    {
      "abilityID": "Swipe_Arm_04",
      "abilityName": "Defender_None_Swipe_Arm_04",
      "abilityOverride": ""
    },
    {
      "abilityID": "Step_Left",
      "abilityName": "Defender_None_Step_Left",
      "abilityOverride": ""
    },
    {
      "abilityID": "Step_Right",
      "abilityName": "Defender_None_Step_Right",
      "abilityOverride": ""
    },
    {
      "abilityID": "ReturnToBorn",
      "abilityName": "Defender_None_ReturnToBorn",
      "abilityOverride": ""
    },
    {
      "abilityID": "GearControl",
      "abilityName": "Defender_None_GearControl",
      "abilityOverride": ""
    },
    {
      "abilityID": "HeadControl",
      "abilityName": "Defender_None_HeadControl",
      "abilityOverride": ""
    },
    {
      "abilityID": "Die",
      "abilityName": "Defender_None_Die",
      "abilityOverride": ""
    },
    {
      "abilityID": "Die_Ground",
      "abilityName": "Defender_None_Die_Ground",
      "abilityOverride": ""
    },
    {
      "abilityID": "WeakDie_Ground",
      "abilityName": "Defender_None_WeakDie_Ground",
      "abilityOverride": ""
    }
  ],
  "stateLayers": {
    "defaultLayer": {
      "$type": "GBGJJIIEMBD",
      "layerIndexName": "",
      "CPAANEIJCGD": "",
      "stateIDs": {
        "Born": {
          "$type": "NEDIFAKEGCO",
          "animatorStates": {
            "Born": []
          },
          "canSyncMove": true,
          "resetAnimatorTriggerOnExit": ["DoSkill"]
        },
        "NormalIdle": {
          "$type": "NEDIFAKEGCO",
          "animatorStates": {
            "Standby": [],
            "Standby_Machinery": []
          },
          "canDoSkill": true,
          "canSyncMove": true,
          "resetAnimatorTriggerOnExit": ["DoSkill"]
        },
        "NormalIdle_WeakLoop": {
          "$type": "NEDIFAKEGCO",
          "animatorStates": {
            "WeakLoop": []
          },
          "canDoSkill": true,
          "canSyncMove": true,
          "resetAnimatorTriggerOnExit": ["DoSkill"]
        },
        "NormalIdle_PowerOff": {
          "$type": "NEDIFAKEGCO",
          "animatorStates": {
            "PowerOff": []
          },
          "canDoSkill": true,
          "canSyncMove": true,
          "resetAnimatorTriggerOnExit": ["DoSkill"]
        },
        "Turn": {
          "$type": "NEDIFAKEGCO",
          "animatorStates": {
            "Turn": ["Monster_Defender_None_Turn", "Audio_Defender_StampTurn"]
          },
          "canDoSkill": true,
          "canSyncMove": true,
          "resetAnimatorTriggerOnExit": ["BeHit"]
        },
        "NormalMove": {
          "$type": "NEDIFAKEGCO",
          "animatorStates": {
            "WalkForward": [
              "Monster_Defender_None_WalkForward",
              "Audio_Defender_WalkF"
            ],
            "WalkBack": [
              "Monster_Defender_None_WalkBack",
              "Audio_Defender_WalkB"
            ]
          },
          "canDoSkill": true,
          "canSyncMove": true,
          "resetAnimatorTriggerOnExit": ["DoSkill"],
          "canSteer": true
        },
        "BeHit": {
          "$type": "NEDIFAKEGCO",
          "animatorStates": {
            "Hit_L": ["Audio_Defender_Hit_L"]
          },
          "resetAnimatorTriggerOnEnter": ["BeHit"],
          "resetAnimatorTriggerOnExit": ["DoSkill"]
        },
        "Weak_Start": {
          "$type": "NEDIFAKEGCO",
          "animatorStates": {
            "Weak_BS": [],
            "Weak_Start": [
              "Monster_Defender_None_Weak_Start",
              "Audio_Defender_Weak_Start"
            ]
          },
          "resetAnimatorTriggerOnEnter": [
            "BeHit",
            "WeakStartTrigger",
            "BreakTrigger"
          ],
          "resetAnimatorTriggerOnExit": ["DoSkill"]
        },
        "Weak_End": {
          "$type": "NEDIFAKEGCO",
          "animatorStates": {
            "Weak_End": [
              "Monster_Defender_None_Weak_End",
              "Audio_Defender_Weak_End"
            ]
          },
          "resetAnimatorTriggerOnEnter": ["BeHit"],
          "resetAnimatorTriggerOnExit": ["DoSkill"]
        },
        "Weak_EndAS": {
          "$type": "NEDIFAKEGCO",
          "animatorStates": {
            "Weak_EndAS": ["Audio_Defender_Weak_End"]
          },
          "resetAnimatorTriggerOnEnter": ["BeHit"],
          "resetAnimatorTriggerOnExit": ["DoSkill"]
        },
        "Break": {
          "$type": "NEDIFAKEGCO",
          "animatorStates": {
            "Break_BS": ["Audio_Defender_Break_BS"],
            "Break": ["Monster_Defender_None_Break", "Audio_Defender_Break"]
          },
          "resetAnimatorTriggerOnEnter": ["BeHit", "BreakTrigger"],
          "resetAnimatorTriggerOnExit": ["DoSkill"]
        },
        "Die": {
          "$type": "NEDIFAKEGCO",
          "animatorStates": {
            "Die_BS": ["Monster_Defender_None_Die", "Audio_Defender_Die"],
            "WeakDie_BS": [
              "Monster_Defender_None_WeakDie",
              "Audio_Defender_WeakDie"
            ],
            "SwimDie": []
          }
        },
        "Die_RagDoll": {
          "$type": "NEDIFAKEGCO",
          "animatorStates": {
            "Die": ["Audio_Defender_Die"],
            "WeakDie": ["Audio_Defender_WeakDie"]
          },
          "enableRagDoll": true
        },
        "PowerOff_WakeUp": {
          "$type": "NEDIFAKEGCO",
          "animatorStates": {
            "PowerOff_WakeUp": [
              "Monster_Defender_None_PowerOff_WakeUp",
              "Audio_Defender_WeakUp"
            ]
          },
          "cullingModelAlwaysAnimate": true,
          "resetAnimatorTriggerOnEnter": ["BeHit"],
          "resetAnimatorTriggerOnExit": ["DoSkill", "LevelEnterBattle"]
        },
        "PowerOff_Warning": {
          "$type": "NEDIFAKEGCO",
          "animatorStates": {
            "PowerOff_Warning": ["Audio_Defender_Weak_End"]
          },
          "cullingModelAlwaysAnimate": true,
          "resetAnimatorTriggerOnEnter": ["BeHit"],
          "resetAnimatorTriggerOnExit": ["DoSkill"]
        },
        "PowerOff_WarningAS": {
          "$type": "NEDIFAKEGCO",
          "animatorStates": {
            "PowerOff_WarningAS": ["Audio_Defender_Weak_End"]
          },
          "cullingModelAlwaysAnimate": true,
          "resetAnimatorTriggerOnEnter": ["BeHit"],
          "resetAnimatorTriggerOnExit": ["DoSkill"]
        },
        "Smash": {
          "$type": "NEDIFAKEGCO",
          "animatorStates": {
            "Smash": ["Monster_Defender_None_Smash", "Audio_Defender_Smash"]
          },
          "resetAnimatorTriggerOnExit": ["BeHit", "DoSkill"]
        },
        "Stamp": {
          "$type": "NEDIFAKEGCO",
          "animatorStates": {
            "Stamp": ["Monster_Defender_None_Stamp", "Audio_Defender_Stamp"]
          },
          "resetAnimatorTriggerOnEnter": ["SwipeTrigger"],
          "resetAnimatorTriggerOnExit": ["BeHit", "DoSkill"]
        },
        "Swipe": {
          "$type": "NEDIFAKEGCO",
          "animatorStates": {
            "Swipe": ["Monster_Defender_None_Swipe", "Audio_Defender_Swipe"]
          },
          "resetAnimatorTriggerOnExit": ["BeHit", "DoSkill"]
        },
        "Whirl_BS": {
          "$type": "NEDIFAKEGCO",
          "animatorStates": {
            "Whirl_BS": [
              "Monster_Defender_None_Whirl_BS",
              "Audio_Defender_Whirl_BS"
            ]
          },
          "resetAnimatorTriggerOnExit": ["BeHit", "DoSkill"]
        },
        "Whirl_Loop": {
          "$type": "NEDIFAKEGCO",
          "animatorStates": {
            "Whirl_Loop": [
              "Monster_Defender_None_Whirl_Loop",
              "Audio_Defender_Whirl_Loop"
            ]
          },
          "resetAnimatorTriggerOnExit": ["BeHit", "DoSkill"]
        },
        "Whirl_AS": {
          "$type": "NEDIFAKEGCO",
          "animatorStates": {
            "Whirl_AS": [
              "Monster_Defender_None_Whirl_AS",
              "Audio_Defender_Whirl_AS"
            ]
          },
          "resetAnimatorTriggerOnExit": ["BeHit", "DoSkill"]
        },
        "Laser_BS": {
          "$type": "NEDIFAKEGCO",
          "animatorStates": {
            "Laser_BS": [
              "Monster_Defender_None_Laser_BS",
              "Audio_Defender_Laser_BS"
            ]
          },
          "cullingModelAlwaysAnimate": true,
          "resetAnimatorTriggerOnExit": ["BeHit", "DoSkill"]
        },
        "Laser_Aim": {
          "$type": "NEDIFAKEGCO",
          "animatorStates": {
            "Laser_Aim": [
              "Monster_Defender_None_Laser_Aim",
              "Audio_Defender_Laser_BS"
            ]
          },
          "cullingModelAlwaysAnimate": true,
          "resetAnimatorTriggerOnExit": ["BeHit", "DoSkill"]
        },
        "Laser_Shoot": {
          "$type": "NEDIFAKEGCO",
          "animatorStates": {
            "Laser_Shoot": ["Audio_Defender_Laser_BS"]
          },
          "cullingModelAlwaysAnimate": true,
          "resetAnimatorTriggerOnExit": ["BeHit", "DoSkill"]
        },
        "RemoveShield": {
          "$type": "NEDIFAKEGCO",
          "animatorStates": {
            "RemoveShield": ["Monster_Defender_None_RemoveShield"]
          },
          "resetAnimatorTriggerOnExit": ["BeHit", "DoSkill"]
        },
        "Machinery": {
          "$type": "NEDIFAKEGCO",
          "animatorStates": {
            "Alert_Machinery": ["Monster_Defender_None_Alert_Machinery"]
          },
          "cullingModelAlwaysAnimate": true,
          "resetAnimatorTriggerOnEnter": ["BeHit"],
          "resetAnimatorTriggerOnExit": ["DoSkill"]
        }
      }
    }
  },
  "partControl": {
    "parts": [
      {
        "$type": "INCPGKCDCIO",
        "angularSpeed": 60.0,
        "partRootName": "LaserControl",
        "forwardByTransName": "",
        "limitHorizontal": 50.0,
        "limitVertical": 70.0
      }
    ]
  },
  "billboard": {
    "$type": "DNGNMAJBCNP",
    "attachPoint": "BillboardAttach",
    "offsetType": "Character",
    "radiusOffset": 1.0,
    "enableSelfAdapt": true,
    "showDistance": 48.0,
    "showHPBar": true,
    "size": "Grand"
  },
  "initialPoses": {
    "Default": {
      "initialPoseID": 100,
      "initialPoseParams": {
        "boolParams": {
          "PowerOff": "false"
        }
      }
    },
    "PowerOff": {
      "initialPoseID": 101,
      "initialPoseParams": {
        "boolParams": {
          "PowerOff": "true"
        }
      }
    },
    "Machinery": {
      "initialPoseID": 111,
      "initialPoseParams": {
        "boolParams": {
          "Machinery": "true"
        }
      }
    }
  },
  "aibeta": {
    "enable": true,
    "moveSetting": {
      "navMeshAgentName": "Undead01",
      "almostReachedDistanceWalk": 2.0
    },
    "sensing": {
      "settings": {
        "DefaultSetting": {
          "viewRange": 60.0,
          "verticalFov": 120.0,
          "feelRange": 12.0
        },
        "PowerOff_Active": {
          "enableVision": false,
          "feelRange": 8.0
        },
        "PowerOff_Passive": {
          "enableVision": false,
          "hearAttractionRange": 0.0,
          "feelRange": 0.0
        },
        "NeverCombat": {
          "enableVision": false,
          "hearAttractionRange": 0.0,
          "feelRange": 0.0
        },
        "Machinery": {
          "enableVision": false,
          "hearAttractionRange": 0.0,
          "feelRange": 0.0
        }
      },
      "templates": {
        "DefaultTemplate": {
          "DefaultPoses": "DefaultSetting",
          "101": "PowerOff_Active"
        },
        "PowerOff_Passive": {
          "DefaultPoses": "DefaultSetting",
          "101": "PowerOff_Passive"
        },
        "NeverCombatTemplate": {
          "DefaultPoses": "NeverCombat",
          "101": "NeverCombat"
        },
        "Machinery": {
          "DefaultPoses": "DefaultSetting",
          "111": "Machinery"
        }
      }
    },
    "neurons": {
      "DefaultSetting": ["HIT"],
      "PowerOff_Passive": [],
      "NeverCombat": [],
      "Machinery": []
    },
    "threat": {
      "GHIJMOKOLMB": "",
      "clearThreatTargetDistance": 60.0,
      "clearThreatEdgeDistance": 25.0,
      "clearThreatTimerByDistance": 2.0,
      "viewAttenuation": [
        {
          "x": 10.0,
          "y": 2.0
        },
        {
          "x": 20.0,
          "y": 1.0
        },
        {
          "x": 30.0,
          "y": 0.5
        },
        {
          "x": 50.0,
          "y": 0.10000000149011612
        }
      ],
      "resistTauntLevel": "Monster_TauntLevel_3"
    },
    "defendArea": {
      "defendRange": 75.0
    },
    "profiling": {
      "staticPoses": [101]
    },
    "skills": {
      "101": {
        "name": "OnAlert",
        "skillType": "OnAlert",
        "castCondition": {
          "pose": [101]
        },
        "publicCDGroup": "",
        "triggerGCD": false,
        "HHAGODJIAPE": "",
        "stateIDs": [
          "PowerOff_WakeUp",
          "PowerOff_Warning",
          "PowerOff_WarningAS"
        ],
        "skillQueryingTime": 3.0,
        "flagTargetReachable": "10",
        "flagSelfOnTemplateCollider": "01",
        "flagSelfInZone": "10",
        "flagTargetInZone": "11"
      },
      "102": {
        "name": "OnHitAlert",
        "skillType": "OnNerve",
        "castCondition": {
          "pose": [101]
        },
        "publicCDGroup": "",
        "triggerGCD": false,
        "HHAGODJIAPE": "",
        "stateIDs": [
          "PowerOff_WakeUp",
          "PowerOff_Warning",
          "PowerOff_WarningAS"
        ],
        "skillQueryingTime": 3.0,
        "flagTargetReachable": "10",
        "flagSelfOnTemplateCollider": "01",
        "flagSelfInZone": "10",
        "flagTargetInZone": "11",
        "nerveTrigger": ["HIT"]
      },
      "111": {
        "name": "WeakEnd",
        "castCondition": {
          "pose": [202]
        },
        "cd": 1.0,
        "publicCDGroup": "",
        "ignoreGCD": true,
        "HHAGODJIAPE": "",
        "stateIDs": ["Weak_End"],
        "flagTargetReachable": "11",
        "flagSelfOnTemplateCollider": "11",
        "flagSelfInZone": "11",
        "flagTargetInZone": "11"
      },
      "119": {
        "name": "WeakEnd",
        "skillType": "Free",
        "castCondition": {
          "pose": [99]
        },
        "cd": 1.0,
        "publicCDGroup": "",
        "ignoreGCD": true,
        "HHAGODJIAPE": "",
        "stateIDs": ["Weak_End"],
        "flagTargetReachable": "11",
        "flagSelfOnTemplateCollider": "11",
        "flagSelfInZone": "11",
        "flagTargetInZone": "11"
      },
      "121": {
        "name": "OnAlert",
        "skillType": "OnAlert",
        "castCondition": {
          "pose": [111]
        },
        "publicCDGroup": "",
        "triggerGCD": false,
        "HHAGODJIAPE": "",
        "stateIDs": ["Machinery"],
        "skillQueryingTime": 3.0,
        "flagTargetReachable": "10",
        "flagSelfOnTemplateCollider": "01",
        "flagSelfInZone": "10",
        "flagTargetInZone": "11"
      },
      "201": {
        "name": "Smash",
        "castCondition": {
          "pose": [201],
          "maxTargetAngleXZ": 45.0,
          "pickRangeMax": 7.0
        },
        "cd": 12.5,
        "cdUpperRange": 5.0,
        "initialCD": 5.0,
        "initialCDUpperRange": 10.0,
        "publicCDGroup": "",
        "HHAGODJIAPE": "",
        "stateIDs": ["Smash"],
        "flagTargetReachable": "10",
        "flagSelfOnTemplateCollider": "01",
        "flagSelfInZone": "10",
        "flagTargetInZone": "11"
      },
      "211": {
        "name": "Stamp",
        "castCondition": {
          "pose": [201],
          "maxTargetAngleXZ": 90.0,
          "pickRangeMax": 4.0
        },
        "cd": 2.0,
        "cdUpperRange": 2.0,
        "publicCDGroup": "",
        "triggerGCD": false,
        "HHAGODJIAPE": "",
        "stateIDs": ["Stamp", "Swipe"],
        "flagTargetReachable": "10",
        "flagSelfOnTemplateCollider": "01",
        "flagSelfInZone": "10",
        "flagTargetInZone": "11"
      },
      "212": {
        "name": "Stamp",
        "castCondition": {
          "pose": [201],
          "maxTargetAngleXZ": 90.0,
          "pickRangeMax": 4.0
        },
        "cd": 2.0,
        "cdUpperRange": 2.0,
        "publicCDGroup": "",
        "triggerGCD": false,
        "HHAGODJIAPE": "",
        "stateIDs": ["Stamp", "Swipe"],
        "flagTargetReachable": "10",
        "flagSelfOnTemplateCollider": "01",
        "flagSelfInZone": "01",
        "flagTargetInZone": "11"
      },
      "213": {
        "name": "Stamp",
        "castCondition": {
          "pose": [201],
          "maxTargetAngleXZ": 90.0,
          "pickRangeMax": 4.0
        },
        "cd": 2.0,
        "cdUpperRange": 2.0,
        "publicCDGroup": "",
        "triggerGCD": false,
        "HHAGODJIAPE": "",
        "stateIDs": ["Stamp", "Swipe"],
        "flagTargetReachable": "01",
        "flagSelfOnTemplateCollider": "01",
        "flagSelfInZone": "10",
        "flagTargetInZone": "11"
      },
      "214": {
        "name": "Stamp",
        "castCondition": {
          "pose": [201],
          "maxTargetAngleXZ": 90.0,
          "pickRangeMax": 4.0
        },
        "cd": 2.0,
        "cdUpperRange": 2.0,
        "publicCDGroup": "",
        "triggerGCD": false,
        "HHAGODJIAPE": "",
        "stateIDs": ["Stamp", "Swipe"],
        "flagTargetReachable": "01",
        "flagSelfOnTemplateCollider": "01",
        "flagSelfInZone": "01",
        "flagTargetInZone": "11"
      },
      "301": {
        "name": "Whirl",
        "castCondition": {
          "pose": [201],
          "pickRangeMax": 15.0
        },
        "cd": 30.0,
        "cdUpperRange": 30.0,
        "initialCD": 30.0,
        "initialCDUpperRange": 30.0,
        "publicCDGroup": "",
        "HHAGODJIAPE": "",
        "stateIDs": ["Whirl_BS", "Whirl_Loop", "Whirl_AS"],
        "flagTargetReachable": "10",
        "flagSelfOnTemplateCollider": "01",
        "flagSelfInZone": "10",
        "flagTargetInZone": "11"
      },
      "401": {
        "name": "Laser",
        "castCondition": {
          "pose": [201],
          "maxTargetAngleXZ": 90.0,
          "pickRangeMin": 15.0,
          "pickRangeMax": 50.0
        },
        "cd": 5.0,
        "cdUpperRange": 5.0,
        "publicCDGroup": "",
        "HHAGODJIAPE": "",
        "stateIDs": ["Laser_BS", "Laser_Aim", "Laser_Shoot"],
        "flagTargetReachable": "10",
        "flagSelfOnTemplateCollider": "01",
        "flagSelfInZone": "10",
        "flagTargetInZone": "11"
      },
      "402": {
        "name": "Laser",
        "castCondition": {
          "pose": [201],
          "maxTargetAngleXZ": 90.0,
          "pickRangeMin": 7.0,
          "pickRangeMax": 15.0
        },
        "cd": 20.0,
        "cdUpperRange": 40.0,
        "initialCD": 20.0,
        "initialCDUpperRange": 40.0,
        "publicCDGroup": "",
        "HHAGODJIAPE": "",
        "stateIDs": ["Laser_BS", "Laser_Aim", "Laser_Shoot"],
        "flagTargetReachable": "10",
        "flagSelfOnTemplateCollider": "01",
        "flagSelfInZone": "10",
        "flagTargetInZone": "11"
      },
      "404": {
        "name": "Laser",
        "castCondition": {
          "pose": [201],
          "maxTargetAngleXZ": 90.0,
          "pickRangeMin": 4.0,
          "pickRangeMax": 50.0
        },
        "cd": 5.0,
        "cdUpperRange": 5.0,
        "publicCDGroup": "",
        "HHAGODJIAPE": "",
        "stateIDs": ["Laser_BS", "Laser_Aim", "Laser_Shoot"],
        "flagTargetReachable": "01",
        "flagSelfOnTemplateCollider": "01",
        "flagSelfInZone": "10",
        "flagTargetInZone": "11"
      },
      "405": {
        "name": "Laser",
        "castCondition": {
          "pose": [201],
          "maxTargetAngleXZ": 90.0,
          "pickRangeMin": 4.0,
          "pickRangeMax": 50.0
        },
        "cd": 5.0,
        "cdUpperRange": 5.0,
        "publicCDGroup": "",
        "HHAGODJIAPE": "",
        "stateIDs": ["Laser_BS", "Laser_Aim", "Laser_Shoot"],
        "flagTargetReachable": "10",
        "flagSelfOnTemplateCollider": "01",
        "flagSelfInZone": "01",
        "flagTargetInZone": "11"
      },
      "406": {
        "name": "Laser",
        "castCondition": {
          "pose": [201],
          "maxTargetAngleXZ": 90.0,
          "pickRangeMin": 4.0,
          "pickRangeMax": 50.0
        },
        "cd": 5.0,
        "cdUpperRange": 5.0,
        "publicCDGroup": "",
        "HHAGODJIAPE": "",
        "stateIDs": ["Laser_BS", "Laser_Aim", "Laser_Shoot"],
        "flagTargetReachable": "01",
        "flagSelfOnTemplateCollider": "01",
        "flagSelfInZone": "01",
        "flagTargetInZone": "11"
      }
    },
    "skillGCD": 3.0,
    "birdCirclingTactic": [
      {
        "$type": "MCDGOJLCMBM",
        "enable": true,
        "condition": {
          "pose": [100]
        }
      },
      {
        "$type": "COLLJLNKMLC",
        "enable": true,
        "condition": {
          "pose": [100]
        }
      },
      {
        "$type": "KACCHOLJDNK",
        "enable": true,
        "condition": {
          "pose": [201]
        },
        "JMCOBEPDIGM": {
          "ANLAAGAMIKF": 1,
          "KHDFDAAAPEI": 7.0,
          "HKJODDGJPHA": 99.0,
          "GGEBMFHFBPO": 4.0,
          "FLPMDIAJDKL": false,
          "MNPDDAKDHGK": ""
        }
      },
      {
        "$type": "NNJKLGNPMNN",
        "enable": true,
        "JMCOBEPDIGM": {
          "ANLAAGAMIKF": 0,
          "JFMIFLNBKMJ": 1.0,
          "DHGJDIPNDHH": 3.0,
          "MNPDDAKDHGK": "",
          "GJDMDHIBCME": ""
        },
        "PIOCBHLFLJP": {
          "201": {
            "ANLAAGAMIKF": 1,
            "JFMIFLNBKMJ": 4.0,
            "DHGJDIPNDHH": 6.0,
            "MNPDDAKDHGK": "",
            "GJDMDHIBCME": ""
          }
        }
      },
      {
        "$type": "FPELBIJFGCE",
        "enable": true,
        "condition": {
          "pose": [100]
        },
        "JMCOBEPDIGM": {
          "NBENNEKDIIA": 0.25,
          "KPNDPKIOPJM": 5.0,
          "PINAFKEDDLL": 3.0,
          "ANMPOPEBDIA": 30.0,
          "GMJFIMFFOEL": 10.0,
          "CHCPFDMADEI": 15.0,
          "MNPDDAKDHGK": ""
        }
      }
    ]
  },
  "inputKeys": [
    {
      "keyID": 201,
      "inputKeyCode": 257,
      "abilityName": ""
    },
    {
      "keyID": 211,
      "inputKeyCode": 258,
      "abilityName": ""
    },
    {
      "keyID": 301,
      "inputKeyCode": 259,
      "abilityName": ""
    },
    {
      "keyID": 401,
      "inputKeyCode": 260,
      "abilityName": ""
    },
    {
      "keyID": 999,
      "inputKeyCode": 261,
      "abilityName": ""
    },
    {
      "keyID": 219,
      "inputKeyCode": 262,
      "abilityName": ""
    }
  ],
  "move": {
    "$type": "IPNMJMHDMPF",
    "facingMove": "ForwardBackward",
    "PKHOMJHFAEE": "RootNode"
  },
  "audio": {
    "overrideEmitterName": "",
    "animAudio": {
      "onTransitionIn": [
        {
          "currentStateName": "Die_BS",
          "audioEvent": {
            "text": "Play_sfx_monster_defender_weak_lp"
          }
        },
        {
          "currentStateName": "WeakLoop",
          "audioEvent": {
            "text": "Play_sfx_monster_defender_weak_lp"
          }
        }
      ],
      "onTransitionOut": [
        {
          "currentStateName": "Weak_Loop",
          "audioEvent": {
            "text": "Stop_sfx_monster_defender_weak_lp"
          },
          "otherStateNames": ["Weak_End", "Hit_L"],
          "usage": "Except"
        },
        {
          "currentStateName": "Hit_L",
          "audioEvent": {
            "text": "Stop_sfx_monster_defender_weak_lp"
          },
          "otherStateNames": ["Weak_End", "Weak_Loop", "Hit_L"],
          "usage": "Except"
        },
        {
          "currentStateName": "Whirl_Loop",
          "audioEvent": {
            "text": "Stop_sfx_monster_defender_Whirl_lp"
          }
        },
        {
          "currentStateName": "Whirl_BS",
          "audioEvent": {
            "text": "Stop_sfx_monster_defender_Whirl_lp"
          },
          "otherStateNames": ["Whirl_Loop"],
          "usage": "Except"
        },
        {
          "currentStateName": "Smash",
          "audioEvent": {
            "text": "Stop_sfx_monster_defender_Smash"
          }
        },
        {
          "currentStateName": "Swipe",
          "audioEvent": {
            "text": "Stop_sfx_monster_defender_Swipe"
          }
        },
        {
          "currentStateName": "Laser_BS",
          "audioEvent": {
            "text": "Stop_sfx_monster_defender_Laser"
          },
          "otherStateNames": ["Laser_Aim"],
          "usage": "Except"
        },
        {
          "currentStateName": "Laser_Aim",
          "audioEvent": {
            "text": "Stop_sfx_monster_defender_Laser"
          },
          "otherStateNames": ["Laser_Shoot"],
          "usage": "Except"
        },
        {
          "currentStateName": "Laser_Shoot",
          "audioEvent": {
            "text": "Stop_sfx_monster_defender_Laser"
          }
        },
        {
          "currentStateName": "Break",
          "audioEvent": {
            "text": "Stop_sfx_monster_defender_weak_lp"
          }
        },
        {
          "currentStateName": "Die_BS",
          "audioEvent": {
            "text": "Stop_sfx_monster_defender_weak_lp"
          }
        }
      ]
    }
  }
}
