{
  "common": {
    "effectAttachShape": {
      "$type": "FJNPJANPGGC",
      "mesh": "EffectMesh"
    },
    "mass": 40.0,
    "height": 1.0,
    "affectedByWorld": true,
    "checkInSurface": true,
    "scale": 0.5,
    "useGrassDisplacement": true
  },
  "model": {
    "bornEffect": "",
    "attachEffect": "",
    "canBakeMesh": false,
    "BKPFGNPLDNJ": ""
  },
  "dither": {
    "showDitherDuration": 1.0
  },
  "globalValue": {
    "serverGlobalValues": ["SGV_STAGE"],
    "initServerGlobalValues": {
      "SGV_STAGE": 1.0
    }
  },
  "combat": {
    "property": {
      "endureType": "Monster_Minion",
      "weight": 50.0
    },
    "beHit": {
      "hitBloodEffect": "",
      "muteAllHitText": true
    },
    "combatLock": {
      "lockShape": "CircleLockEnemy",
      "lockType": "Animal_Lv2"
    },
    "die": {
      "dieEndTime": 2.0,
      "dieForceDisappearTime": 10.0,
      "dieDisappearEffect": ""
    },
    "animEvents": {
      "RushAtk": {
        "attackPattern": {
          "$type": "ConfigAttackSphere",
          "triggerType": "TriggerNoRepeat",
          "born": {
            "$type": "ConfigBornBySelf",
            "offset": {
              "x": 0.0,
              "y": 0.5,
              "z": 0.25
            }
          },
          "radius": 0.6000000238418579
        },
        "attackInfo": {
          "attackTag": "",
          "attenuationTag": "",
          "attenuationGroup": "default",
          "attackProperty": {
            "actorGrassSubHurtDelta": 1.0,
            "actorWindSubHurtDelta": 0.0,
            "elementDurability": 100.0,
            "strikeType": "Blunt",
            "attackType": "Melee",
            "GLKMCMDJBIK": 0.0
          },
          "hitPattern": {
            "onHitEffectName": "default",
            "hitImpulseY": "",
            "hitImpulseType": "LV4",
            "retreatType": "ByTangent",
            "canBeDefenceHalt": true
          }
        }
      }
    }
  },
  "abilities": [
    {
      "abilityID": "AIStateInitial",
      "abilityName": "Animal_Boar_Small_AIStateInitial",
      "abilityOverride": ""
    },
    {
      "abilityID": "Disappear",
      "abilityName": "Animal_Boar_Small_Disappear",
      "abilityOverride": ""
    },
    {
      "abilityID": "Animal_Boar_Small_ToRun",
      "abilityName": "Animal_Boar_Small_ToRun",
      "abilityOverride": ""
    },
    {
      "abilityID": "Animal_Boar_Small_ToWander",
      "abilityName": "Animal_Boar_Small_ToWander",
      "abilityOverride": ""
    },
    {
      "abilityID": "",
      "abilityName": "Animal_Boar_Hunt_BeCaptured_Disappear",
      "abilityOverride": ""
    },
    {
      "abilityID": "",
      "abilityName": "Animal_Hunt_Sneak_Attract_Effect",
      "abilityOverride": ""
    },
    {
      "abilityID": "",
      "abilityName": "Animal_Hunt_AlertHideBillboard",
      "abilityOverride": ""
    },
    {
      "abilityID": "",
      "abilityName": "Animal_Boar_Hunt_SmallBoar_Mark",
      "abilityOverride": ""
    }
  ],
  "stateLayers": {
    "defaultLayer": {
      "$type": "GBGJJIIEMBD",
      "layerIndexName": "",
      "CPAANEIJCGD": "",
      "stateIDs": {
        "Born": {
          "$type": "NEDIFAKEGCO",
          "animatorStates": {
            "Born": []
          },
          "resetAnimatorTriggerOnExit": ["DoSkill"]
        },
        "NormalIdle": {
          "$type": "NEDIFAKEGCO",
          "animatorStates": {
            "Standby": []
          },
          "canDoSkill": true,
          "canSyncMove": true,
          "resetAnimatorTriggerOnExit": ["DoSkill"]
        },
        "NormalMove": {
          "$type": "NEDIFAKEGCO",
          "animatorStates": {
            "Walk": ["Audio_Boar_Small_Walk"],
            "Run": ["Audio_Boar_Run_Hunt"],
            "Disappear": []
          },
          "canDoSkill": true,
          "canSyncMove": true,
          "resetAnimatorTriggerOnExit": ["DoSkill"],
          "canSteer": true
        },
        "BeHit": {
          "$type": "NEDIFAKEGCO",
          "animatorStates": {
            "Hit_L": ["Audio_Boar_Small_Hit_L"]
          },
          "resetAnimatorTriggerOnEnter": ["BeHit"],
          "resetAnimatorTriggerOnExit": ["DoSkill"]
        },
        "Die": {
          "$type": "NEDIFAKEGCO",
          "animatorStates": {
            "Die": ["Animal_BoarHunt_Die", "Audio_Boar_Small_Die"],
            "Die_Disappear": ["Animal_Boar_Disappear"]
          }
        },
        "Aware": {
          "$type": "NEDIFAKEGCO",
          "animatorStates": {
            "Aware": ["Audio_Boar_Small_Aware"]
          },
          "canDoSkill": true,
          "resetAnimatorTriggerOnExit": ["BeHit", "DoSkill"]
        },
        "Alert": {
          "$type": "NEDIFAKEGCO",
          "animatorStates": {
            "Alert": ["Animal_Boar_Alert"]
          },
          "canDoSkill": true,
          "resetAnimatorTriggerOnExit": ["BeHit", "DoSkill"]
        },
        "Personality_101": {
          "$type": "NEDIFAKEGCO",
          "animatorStates": {
            "Personality_101": []
          },
          "resetAnimatorTriggerOnExit": ["BeHit", "DoSkill"]
        },
        "Personality_102": {
          "$type": "NEDIFAKEGCO",
          "animatorStates": {
            "Personality_102": []
          },
          "resetAnimatorTriggerOnExit": ["BeHit", "DoSkill"]
        },
        "ToRun": {
          "$type": "NEDIFAKEGCO",
          "animatorStates": {
            "ToRun": ["Animal_Boar_Small_ToRun"]
          },
          "canDoSkill": true,
          "resetAnimatorTriggerOnExit": ["BeHit", "DoSkill"]
        },
        "ToWander": {
          "$type": "NEDIFAKEGCO",
          "animatorStates": {
            "ToWander": ["Animal_Boar_Small_ToWander"]
          },
          "canDoSkill": true,
          "resetAnimatorTriggerOnExit": ["BeHit", "DoSkill"]
        },
        "Flee": {
          "$type": "NEDIFAKEGCO",
          "animatorStates": {
            "Flee": ["Animal_Boar_Small_ToRun", "Audio_Boar_Run_Hunt"]
          },
          "canDoSkill": true,
          "resetAnimatorTriggerOnExit": ["BeHit", "DoSkill"]
        },
        "Attract": {
          "$type": "NEDIFAKEGCO",
          "animatorStates": {
            "Attract": ["Audio_Boar_Small_Aware"]
          },
          "canDoSkill": true,
          "resetAnimatorTriggerOnExit": ["BeHit", "DoSkill"]
        },
        "Search": {
          "$type": "NEDIFAKEGCO",
          "animatorStates": {
            "Search": []
          },
          "canDoSkill": true,
          "resetAnimatorTriggerOnExit": ["BeHit", "DoSkill"]
        }
      }
    }
  },
  "billboard": {
    "$type": "DNGNMAJBCNP",
    "attachPoint": "BillboardAttach",
    "offset": {
      "y": 0.699999988079071
    },
    "offsetType": "Character",
    "showDistance": 50.0,
    "showHPBar": true,
    "size": "Small"
  },
  "initialPoses": {
    "Default": {},
    "Hunt_Sneak": {
      "initialPoseID": 1001,
      "initialPoseParams": {
        "boolParams": {
          "HuntSneak": "true"
        }
      }
    }
  },
  "aibeta": {
    "enable": true,
    "sensing": {
      "settings": {
        "DefaultSetting": {
          "viewRange": 10.0,
          "horizontalFov": 60.0,
          "hearAttractionRange": 8.0,
          "feelRange": 8.0
        },
        "HuntSneak": {
          "viewRange": 7.0,
          "horizontalFov": 60.0,
          "hearAttractionRange": 8.0
        }
      },
      "templates": {
        "DefaultTemplate": {
          "DefaultPoses": "DefaultSetting",
          "1001": "HuntSneak"
        }
      }
    },
    "neurons": {
      "DefaultSetting": ["HIT", "WEATHER_BAD", "FEAR"]
    },
    "threat": {
      "GHIJMOKOLMB": "",
      "viewThreatGrow": 70.0,
      "feelThreatGrow": 70.0,
      "threatDecreaseSpeed": 500.0,
      "viewAttenuation": [
        {
          "x": 3.5,
          "y": 1.0
        },
        {
          "x": 7.0,
          "y": 0.75
        }
      ]
    },
    "defendArea": {
      "defendRange": 50.0
    },
    "ui": {
      "HMNNBFDEHLG": ""
    },
    "skills": {
      "2": {
        "name": "OnAware",
        "skillType": "OnAware",
        "publicCDGroup": "",
        "ignoreGCD": true,
        "triggerGCD": false,
        "HHAGODJIAPE": "",
        "stateIDs": ["Aware"],
        "skillQueryingTime": 3.0,
        "flagTargetReachable": "10",
        "flagSelfOnTemplateCollider": "01",
        "flagSelfInZone": "10",
        "flagTargetInZone": "11"
      },
      "3": {
        "name": "OnAlert",
        "skillType": "OnAlert",
        "publicCDGroup": "",
        "ignoreGCD": true,
        "triggerGCD": false,
        "HHAGODJIAPE": "",
        "stateIDs": ["Alert"],
        "flagTargetReachable": "10",
        "flagSelfOnTemplateCollider": "01",
        "flagSelfInZone": "10",
        "flagTargetInZone": "11"
      },
      "101": {
        "name": "Personality_101",
        "skillType": "Free",
        "cd": 9.0,
        "cdUpperRange": 15.0,
        "initialCD": 5.0,
        "initialCDUpperRange": 15.0,
        "publicCDGroup": "",
        "HHAGODJIAPE": "",
        "stateIDs": ["Personality_101"],
        "flagTargetReachable": "10",
        "flagSelfOnTemplateCollider": "01",
        "flagSelfInZone": "10",
        "flagTargetInZone": "11"
      },
      "102": {
        "name": "Personality_102",
        "skillType": "Free",
        "cd": 9.0,
        "cdUpperRange": 15.0,
        "initialCD": 5.0,
        "initialCDUpperRange": 15.0,
        "publicCDGroup": "",
        "HHAGODJIAPE": "",
        "stateIDs": ["Personality_102"],
        "flagTargetReachable": "10",
        "flagSelfOnTemplateCollider": "01",
        "flagSelfInZone": "10",
        "flagTargetInZone": "11"
      },
      "201": {
        "name": "ToRun",
        "skillType": "Free",
        "priority": 1,
        "castCondition": {
          "pose": [1]
        },
        "cd": 15.0,
        "cdUpperRange": 24.0,
        "initialCD": 15.0,
        "initialCDUpperRange": 24.0,
        "publicCDGroup": "",
        "HHAGODJIAPE": "",
        "stateIDs": ["ToRun"],
        "flagTargetReachable": "10",
        "flagSelfOnTemplateCollider": "01",
        "flagSelfInZone": "10",
        "flagTargetInZone": "11"
      },
      "202": {
        "name": "ToWander",
        "skillType": "Free",
        "priority": 1,
        "castCondition": {
          "pose": [2]
        },
        "cd": 3.0,
        "cdUpperRange": 6.0,
        "initialCD": 3.0,
        "initialCDUpperRange": 6.0,
        "publicCDGroup": "",
        "HHAGODJIAPE": "",
        "stateIDs": ["ToWander"],
        "flagTargetReachable": "10",
        "flagSelfOnTemplateCollider": "01",
        "flagSelfInZone": "10",
        "flagTargetInZone": "11"
      }
    },
    "skillGCD": 2.5,
    "birdCirclingTactic": [
      {
        "$type": "ODHNBPJLGHF",
        "enable": true,
        "JMCOBEPDIGM": {
          "NBENNEKDIIA": 2.5,
          "cd": 3.0,
          "triggerDistance": 100.0,
          "MMGOBGGLBJO": 60.0,
          "EMNPEHPCDLB": 4,
          "CMDFDIPMGKI": 6,
          "KAIGBDPLNMO": 4.0,
          "BMIEPFCPFGN": 6.0,
          "MNPDDAKDHGK": ""
        }
      },
      {
        "$type": "GOIIDIJFGNE",
        "enable": true,
        "condition": {
          "pose": [1001]
        },
        "JMCOBEPDIGM": {
          "GNPNBBNPCDO": 1.5,
          "BNODFNGBJJM": true,
          "MNPDDAKDHGK": ""
        }
      },
      {
        "$type": "NNJKLGNPMNN",
        "enable": true
      },
      {
        "$type": "FPELBIJFGCE",
        "enable": true,
        "condition": {
          "pose": [1, 2, 1001]
        },
        "JMCOBEPDIGM": {
          "NBENNEKDIIA": 0.5,
          "KPNDPKIOPJM": 7.5,
          "PINAFKEDDLL": 4.5,
          "ANMPOPEBDIA": 10.0,
          "GMJFIMFFOEL": 3.0,
          "CHCPFDMADEI": 6.0,
          "MNPDDAKDHGK": ""
        },
        "PIOCBHLFLJP": {
          "2": {
            "ANLAAGAMIKF": 2,
            "NBENNEKDIIA": 2.5,
            "KPNDPKIOPJM": 0.5,
            "PINAFKEDDLL": 0.25,
            "ANMPOPEBDIA": 12.5,
            "GMJFIMFFOEL": 3.0,
            "CHCPFDMADEI": 6.0,
            "MNPDDAKDHGK": ""
          }
        }
      }
    ]
  },
  "move": {
    "$type": "IPNMJMHDMPF",
    "velocityForce": {
      "excludeForces": ["RetreatAirType", "RetreatType"]
    },
    "PKHOMJHFAEE": "RootNode"
  },
  "captureGroup": {
    "defaultConfig": {
      "captureEffect": "Eff_SceneObj_CatchAnimal_CaughtSuccess"
    }
  }
}
