{
  "common": {
    "effectAttachShape": {
      "$type": "FJNPJANPGGC",
      "mesh": "EffectMesh"
    },
    "mass": 80.0,
    "viewSize": 1.5,
    "affectedByWorld": true,
    "checkInSurface": true,
    "canTriggerElementReactionText": false,
    "useGrassDisplacement": true,
    "reconnectSupport": true,
    "recoverByInitPose": true
  },
  "model": {
    "bornEffect": "",
    "attachEffect": "",
    "canBakeMesh": false,
    "BKPFGNPLDNJ": ""
  },
  "dither": {
    "showDitherDuration": 1.0
  },
  "combat": {
    "property": {
      "endureType": "Monster_Minion",
      "weight": 150.0,
      "isInvincible": true
    },
    "beHit": {
      "hitBloodEffect": "",
      "muteAllHitText": true
    },
    "combatLock": {
      "lockShape": "CircleLockEnemy",
      "denyLockOn": true,
      "lockType": "Default"
    },
    "die": {
      "dieEndTime": 1.5,
      "dieForceDisappearTime": 2.0,
      "dieDisappearEffect": "",
      "muteHitBox": true,
      "dieDenyLockOn": true,
      "dieIsGhostToEnemy": true,
      "dieIgnoreTriggerBullet": true,
      "muteBillboard": true,
      "mutePushCollider": true
    }
  },
  "abilities": [
    {
      "abilityID": "",
      "abilityName": "Animal_Homeworld_Common_Initial",
      "abilityOverride": ""
    },
    {
      "abilityID": "",
      "abilityName": "Animal_Goat_Random",
      "abilityOverride": ""
    }
  ],
  "stateLayers": {
    "defaultLayer": {
      "$type": "GBGJJIIEMBD",
      "layerIndexName": "",
      "CPAANEIJCGD": "",
      "stateIDs": {
        "Born": {
          "$type": "NEDIFAKEGCO",
          "animatorStates": {
            "Born": []
          },
          "canDoSkill": true,
          "resetAnimatorTriggerOnExit": ["DoSkill"]
        },
        "NormalIdle": {
          "$type": "NEDIFAKEGCO",
          "animatorStates": {
            "Standby": []
          },
          "canDoSkill": true,
          "canSyncMove": true,
          "resetAnimatorTriggerOnExit": ["DoSkill"]
        },
        "NormalMove": {
          "$type": "NEDIFAKEGCO",
          "animatorStates": {
            "Walk": [],
            "Run": []
          },
          "canDoSkill": true,
          "canSyncMove": true,
          "resetAnimatorTriggerOnExit": ["DoSkill"],
          "canSteer": true
        },
        "BeHit": {
          "$type": "NEDIFAKEGCO",
          "animatorStates": {
            "Hit_L": ["Audio_Animal_Goat_01_Hit_L"]
          },
          "canDoSkill": true,
          "canSyncMove": true,
          "resetAnimatorTriggerOnEnter": ["BeHit", "ShakeTrigger"],
          "resetAnimatorTriggerOnExit": ["DoSkill", "ShakeTrigger"]
        },
        "Die": {
          "$type": "NEDIFAKEGCO",
          "animatorStates": {
            "Die": ["Animal_Goat_Die", "Audio_Animal_Goat_01_Die"],
            "Die_Disappear": [
              "Animal_Goat_Disappear",
              "Audio_Animal_Goat_01_Die_Disappear"
            ]
          },
          "resetAnimatorTriggerOnEnter": ["DoSkill"]
        },
        "CrushAtk": {
          "$type": "NEDIFAKEGCO",
          "animatorStates": {
            "CrushAtk": [
              "Animal_Goat_CrushAtk",
              "Audio_Animal_Goat_01_AlertCrush_Atk"
            ]
          },
          "addEndure": 0.0,
          "resetAnimatorTriggerOnExit": ["BeHit", "DoSkill"]
        },
        "AlertCrush_BS": {
          "$type": "NEDIFAKEGCO",
          "animatorStates": {
            "AlertCrush_BS": ["Audio_Animal_Goat_01_AlertCrush_BS"]
          },
          "addEndure": 0.0,
          "resetAnimatorTriggerOnExit": ["BeHit", "DoSkill"]
        },
        "AlertCrush": {
          "$type": "NEDIFAKEGCO",
          "animatorStates": {
            "AlertCrush_Loop": [],
            "AlertCrush_AS": ["Audio_Animal_Goat_01_AlertCrush_AS"],
            "AlertCrush_Atk": [
              "Animal_Goat_CrushAtk",
              "Audio_Animal_Goat_01_AlertCrush_Atk"
            ]
          },
          "addEndure": 0.0,
          "resetAnimatorTriggerOnExit": ["BeHit", "DoSkill"]
        },
        "Personality_101": {
          "$type": "NEDIFAKEGCO",
          "animatorStates": {
            "Personality_101": ["Audio_Animal_Goat_01_Personality_101"]
          },
          "canDoSkill": true,
          "resetAnimatorTriggerOnExit": ["BeHit", "DoSkill"]
        },
        "Personality_102": {
          "$type": "NEDIFAKEGCO",
          "animatorStates": {
            "Personality_102": ["Audio_Animal_Goat_01_Personality_102"]
          },
          "canDoSkill": true,
          "resetAnimatorTriggerOnExit": ["BeHit", "DoSkill"]
        },
        "Personality_103": {
          "$type": "NEDIFAKEGCO",
          "animatorStates": {
            "Personality_103_BS": ["Audio_Animal_Goat_01_AlertCrush_BS"],
            "Personality_103_Loop": [],
            "Personality_103_AS": ["Audio_Animal_Goat_01_AlertCrush_AS"]
          },
          "canDoSkill": true,
          "resetAnimatorTriggerOnExit": ["BeHit", "DoSkill"]
        }
      }
    }
  },
  "initialPoses": {
    "Default": {}
  },
  "aibeta": {
    "enable": true,
    "friendliness": 1,
    "decisionArchetype": "Animal_Homeworld",
    "sensing": {
      "settings": {
        "DefaultSetting": {
          "viewRange": 0.0,
          "feelRange": 0.0
        }
      }
    },
    "neurons": {
      "DefaultSetting": ["HIT"]
    },
    "threat": {
      "GHIJMOKOLMB": "",
      "feelThreatGrow": 1000.0,
      "threatDecreaseSpeed": 500.0,
      "viewAttenuation": [
        {
          "x": 10.0,
          "y": 2.0
        },
        {
          "x": 15.0,
          "y": 1.25
        },
        {
          "x": 20.0,
          "y": 0.5
        }
      ]
    },
    "defendArea": {
      "defendRange": 100.0
    },
    "ui": {
      "hasDirectionIndicator": false,
      "HMNNBFDEHLG": ""
    },
    "skills": {
      "101": {
        "name": "Personality_101",
        "skillType": "Free",
        "castCondition": {
          "pose": [1],
          "needReInitCD": true
        },
        "cd": 10.5,
        "cdUpperRange": 7.5,
        "initialCD": 8.0,
        "initialCDUpperRange": 7.5,
        "publicCDGroup": "",
        "HHAGODJIAPE": "",
        "stateIDs": ["Personality_101"],
        "flagTargetReachable": "10",
        "flagSelfOnTemplateCollider": "01",
        "flagSelfInZone": "11",
        "flagTargetInZone": "11"
      },
      "111": {
        "name": "Personality_102",
        "skillType": "Free",
        "castCondition": {
          "pose": [1],
          "needReInitCD": true
        },
        "cd": 10.5,
        "cdUpperRange": 7.5,
        "initialCD": 5.0,
        "initialCDUpperRange": 2.5,
        "publicCDGroup": "",
        "HHAGODJIAPE": "",
        "stateIDs": ["Personality_102"],
        "flagTargetReachable": "10",
        "flagSelfOnTemplateCollider": "01",
        "flagSelfInZone": "11",
        "flagTargetInZone": "11"
      },
      "121": {
        "name": "Personality_103",
        "skillType": "Free",
        "castCondition": {
          "pose": [1],
          "needReInitCD": true
        },
        "cd": 10.5,
        "cdUpperRange": 7.5,
        "initialCD": 5.0,
        "initialCDUpperRange": 2.5,
        "publicCDGroup": "",
        "HHAGODJIAPE": "",
        "stateIDs": ["Personality_103"],
        "flagTargetReachable": "10",
        "flagSelfOnTemplateCollider": "01",
        "flagSelfInZone": "11",
        "flagTargetInZone": "11"
      }
    },
    "skillGCD": 10.0,
    "birdCirclingTactic": [
      {
        "$type": "ODHNBPJLGHF",
        "enable": true,
        "nerveTrigger": ["HIT"],
        "JMCOBEPDIGM": {
          "NBENNEKDIIA": 8.0,
          "cd": 0.20000000298023224,
          "triggerDistance": 0.0,
          "CMDFDIPMGKI": 3,
          "KAIGBDPLNMO": 10.25,
          "BMIEPFCPFGN": 20.75,
          "BENICHJBDCH": 4.0,
          "MNPDDAKDHGK": ""
        }
      },
      {
        "$type": "FPELBIJFGCE",
        "enable": true,
        "condition": {
          "pose": [1]
        },
        "JMCOBEPDIGM": {
          "NBENNEKDIIA": 0.25,
          "KPNDPKIOPJM": 10.0,
          "PINAFKEDDLL": 5.0,
          "ANMPOPEBDIA": 12.0,
          "CHCPFDMADEI": 4.0,
          "MNPDDAKDHGK": ""
        }
      }
    ]
  },
  "move": {
    "$type": "IPNMJMHDMPF",
    "velocityForce": {
      "excludeForces": ["RetreatAirType", "WindZoneType", "AirflowType"]
    },
    "PKHOMJHFAEE": "RootNode"
  },
  "audio": {
    "overrideEmitterName": "",
    "animAudio": {
      "onTransitionIn": [
        {
          "currentStateName": "AlertCrush_Loop",
          "audioEvent": {
            "text": "Play_Sfx_Animal_Goat_01_AlertCrush_Loop_LP"
          },
          "otherStateNames": ["AlertCrush_Loop"],
          "usage": "Except"
        },
        {
          "currentStateName": "Walk",
          "audioEvent": {
            "text": "Play_Sfx_Animal_Goat_01_Walk_LP"
          },
          "otherStateNames": ["Walk"],
          "usage": "Except"
        },
        {
          "currentStateName": "Personality_103_Loop",
          "audioEvent": {
            "text": "Play_Sfx_Animal_Goat_01_AlertCrush_Loop_LP"
          },
          "otherStateNames": ["Personality_103_Loop"],
          "usage": "Except"
        }
      ],
      "onTransitionOut": [
        {
          "currentStateName": "AlertCrush_Loop",
          "audioEvent": {
            "text": "Stop_Sfx_Animal_Goat_01_AlertCrush_Loop_LP"
          },
          "otherStateNames": ["AlertCrush_Loop"],
          "usage": "Except"
        },
        {
          "currentStateName": "Walk",
          "audioEvent": {
            "text": "Stop_Sfx_Animal_Goat_01_Walk_LP"
          },
          "otherStateNames": ["Walk"],
          "usage": "Except"
        },
        {
          "currentStateName": "Personality_103_Loop",
          "audioEvent": {
            "text": "Stop_Sfx_Animal_Goat_01_AlertCrush_Loop_LP"
          },
          "otherStateNames": ["Personality_103_Loop"],
          "usage": "Except"
        }
      ]
    }
  },
  "animal": {
    "tickAbilityElement": false,
    "hasCharacterRenderering": false
  }
}
