{
  "common": {
    "effectAttachShape": {
      "$type": "FJNPJANPGGC",
      "mesh": "EffectMesh"
    },
    "mass": 10000.0,
    "height": 2.4000000953674316,
    "modelHeight": 2.5999999046325684,
    "viewSize": 2.0,
    "shadowViewSizeRatio": 2.0,
    "affectedByWorld": true,
    "checkInSurface": true,
    "useGrassDisplacement": true,
    "clearAnimatorOnSetLightDeactive": true,
    "reconnectSupport": true,
    "recoverByInitPose": true
  },
  "headControl": {
    "$type": "KPIPDEBDPIH",
    "useHeadControl": true,
    "maxYawDegree": 20.0,
    "maxPitchDegree": 5.0,
    "animStates": [
      "NormalIdle/Standby",
      "NormalMove/WalkForward",
      "NormalMove/WalkBack",
      "NormalMove/WalkRight",
      "NormalMove/WalkLeft",
      "NormalMove/WalkFree",
      "TurnLeft/TurnLeft",
      "TurnRight/TurnRight"
    ]
  },
  "model": {
    "bornEffect": "Eff_Monster_Common_Born",
    "attachEffect": "",
    "BKPFGNPLDNJ": ""
  },
  "dither": {
    "showDitherDuration": 1.0
  },
  "combat": {
    "property": {
      "endureType": "Monster_Demiboss_Humanoid",
      "weight": 150.0
    },
    "beHit": {
      "hitBloodEffect": ""
    },
    "combatLock": {
      "lockShape": "CircleLockEnemy",
      "lockType": "Avatar&Monster_Lv4"
    },
    "die": {
      "hasAnimatorDie": true,
      "dieEndTime": 2.5,
      "dieForceDisappearTime": 5.0,
      "dieDisappearEffect": "Eff_Death_Avatar_Common",
      "dieShaderData": "AvatarDie",
      "useRagDoll": true,
      "ragDollDieEndTimeDelay": 1.0,
      "muteHitBox": true,
      "dieDenyLockOn": true,
      "dieIsGhostToEnemy": true,
      "dieIgnoreTriggerBullet": true,
      "muteBillboard": true,
      "mutePushCollider": true
    },
    "animEvents": {
      "MeleeAtk": {
        "attackPattern": {
          "$type": "ConfigAttackBox",
          "triggerType": "TriggerNoRepeat",
          "ignoreMassive": true,
          "born": {
            "$type": "ConfigBornBySelf",
            "offset": {
              "x": 0.0,
              "y": 1.5,
              "z": 0.0
            }
          },
          "size": {
            "x": 2.0,
            "y": 2.5,
            "z": 3.5
          }
        },
        "attackInfo": {
          "attackTag": "",
          "attenuationTag": "",
          "attenuationGroup": "default",
          "attackProperty": {
            "actorGrassSubHurtDelta": 1.0,
            "actorWindSubHurtDelta": 0.0,
            "elementDurability": 100.0,
            "strikeType": "Blunt",
            "enBreak": 100.0,
            "attackType": "Melee",
            "GLKMCMDJBIK": 0.0
          },
          "hitPattern": {
            "onHitEffectName": "default",
            "hitImpulseY": "",
            "hitImpulseType": "LV5",
            "canBeDefenceHalt": true
          },
          "forceCameraShake": true,
          "cameraShake": {
            "shakeType": "CustomVector",
            "shakeRange": 0.5,
            "shakeTime": 0.30000001192092896,
            "shakeDistance": 30.0,
            "shakeDir": {
              "y": 1.0,
              "z": 1.0
            },
            "extension": {
              "baseCycle": 0.4000000059604645,
              "cycleDamping": 0.0,
              "rangeAttenuation": 0.20000000298023224
            }
          }
        }
      }
    }
  },
  "equipController": {
    "sheathPoint": "",
    "attachPoints": {
      "equip01": "WeaponR",
      "equip02": "BackPack"
    }
  },
  "abilities": [
    {
      "abilityID": "Monster_Skirmisher_Male_Fat_SprayGun_Ice_Steer",
      "abilityName": "Monster_Skirmisher_Male_Fat_SprayGun_Ice_Steer",
      "abilityOverride": ""
    },
    {
      "abilityID": "Monster_Skirmisher_Male_Fat_SprayGun_Ice_IceSpray",
      "abilityName": "Monster_Skirmisher_Male_Fat_SprayGun_Ice_IceSpray",
      "abilityOverride": ""
    },
    {
      "abilityID": "Monster_Skirmisher_Male_Fat_SprayGun_Ice_ImprovedIceSprayStart",
      "abilityName": "Monster_Skirmisher_Male_Fat_SprayGun_Ice_ImprovedIceSprayStart",
      "abilityOverride": ""
    },
    {
      "abilityID": "Monster_Skirmisher_Male_Fat_SprayGun_Ice_ImprovedIceSprayEnd",
      "abilityName": "Monster_Skirmisher_Male_Fat_SprayGun_Ice_ImprovedIceSprayEnd",
      "abilityOverride": ""
    },
    {
      "abilityID": "Monster_Skirmisher_Male_Fat_SprayGun_Ice_Improve",
      "abilityName": "Monster_Skirmisher_Male_Fat_SprayGun_Ice_Improve",
      "abilityOverride": ""
    },
    {
      "abilityID": "Monster_Skirmisher_Male_Fat_SprayGun_Ice_Weak",
      "abilityName": "Monster_Skirmisher_Male_Fat_SprayGun_Ice_Weak",
      "abilityOverride": ""
    },
    {
      "abilityID": "Monster_Skirmisher_Male_Fat_SprayGun_Ice_RocketJump",
      "abilityName": "Monster_Skirmisher_Male_Fat_SprayGun_Ice_RocketJump",
      "abilityOverride": ""
    },
    {
      "abilityID": "Monster_Skirmisher_Male_Fat_SprayGun_Ice_SprayGunAlert",
      "abilityName": "Monster_Skirmisher_Male_Fat_SprayGun_Ice_SprayGunAlert",
      "abilityOverride": ""
    },
    {
      "abilityID": "Monster_Skirmisher_Male_Fat_SprayGun_Ice_BackPackAlert",
      "abilityName": "Monster_Skirmisher_Male_Fat_SprayGun_Ice_BackPackAlert",
      "abilityOverride": ""
    },
    {
      "abilityID": "Monster_Skirmisher_Male_Fat_SprayGun_Ice_RocketJump_CameraShake",
      "abilityName": "Monster_Skirmisher_Male_Fat_SprayGun_Ice_RocketJump_CameraShake",
      "abilityOverride": ""
    },
    {
      "abilityID": "Monster_Skirmisher_Male_Fat_SprayGun_Ice_EyeAlert",
      "abilityName": "Monster_Skirmisher_Male_Fat_SprayGun_Ice_EyeAlert",
      "abilityOverride": ""
    },
    {
      "abilityID": "Monster_Skirmisher_Male_Fat_SprayGun_Ice_WeaponSpecialElementState",
      "abilityName": "Monster_Skirmisher_Male_Fat_SprayGun_Ice_WeaponSpecialElementState",
      "abilityOverride": ""
    },
    {
      "abilityID": "Monster_Skirmisher_Male_Fat_SprayGun_Ice_Die",
      "abilityName": "Monster_Skirmisher_Male_Fat_SprayGun_Ice_Die",
      "abilityOverride": ""
    },
    {
      "abilityID": "PreCombatReset",
      "abilityName": "Monster_Skirmisher_Rifle_Fire_PreCombatRecover",
      "abilityOverride": ""
    },
    {
      "abilityID": "EatEffect",
      "abilityName": "Monster_Skirmisher_Male_Fat_EatEffect",
      "abilityOverride": ""
    },
    {
      "abilityID": "Monster_Skirmisher_Male_Fat_SprayGun_Ice_DieWithFog",
      "abilityName": "Monster_Skirmisher_Male_Fat_SprayGun_Ice_DieWithFog",
      "abilityOverride": ""
    },
    {
      "abilityID": "Monster_Skirmisher_Male_Fat_SprayGun_Ice_Reimprove",
      "abilityName": "Monster_Skirmisher_Male_Fat_SprayGun_Ice_Reimprove",
      "abilityOverride": ""
    },
    {
      "abilityID": "Monster_Skirmisher_Male_Fat_SprayGun_Ice_AtkUp",
      "abilityName": "Monster_Skirmisher_Male_Fat_SprayGun_Ice_AtkUp",
      "abilityOverride": ""
    },
    {
      "abilityID": "",
      "abilityName": "Monster_Skirmisher_Male_Fat_SprayGun_Ice_Achievement",
      "abilityOverride": ""
    }
  ],
  "stateLayers": {
    "defaultLayer": {
      "$type": "GBGJJIIEMBD",
      "layerIndexName": "",
      "CPAANEIJCGD": "",
      "stateIDs": {
        "NormalIdle": {
          "$type": "NEDIFAKEGCO",
          "animatorStates": {
            "Standby": [],
            "Born": []
          },
          "canDoSkill": true,
          "canSyncMove": true,
          "resetAnimatorTriggerOnExit": ["DoSkill"]
        },
        "NormalMove": {
          "$type": "NEDIFAKEGCO",
          "animatorStates": {
            "WalkForward": ["Audio_Monster_SprayGun_Ice_Walk_Footstep"],
            "WalkBack": ["Audio_Monster_SprayGun_Ice_Walk_Footstep"],
            "WalkRight": ["Audio_Monster_SprayGun_Ice_Walk_Footstep"],
            "WalkLeft": ["Audio_Monster_SprayGun_Ice_Walk_Footstep"],
            "WalkFree": ["Audio_Monster_SprayGun_Ice_Walk_Footstep"]
          },
          "canDoSkill": true,
          "canSyncMove": true,
          "resetAnimatorTriggerOnExit": ["DoSkill"],
          "canSteer": true
        },
        "Turn": {
          "$type": "NEDIFAKEGCO",
          "animatorStates": {
            "TurnLeft": ["Audio_Monster_SprayGun_Ice_Walk_Footstep"],
            "TurnRight": ["Audio_Monster_SprayGun_Ice_Walk_Footstep"]
          },
          "canDoSkill": true,
          "canSyncMove": true,
          "resetAnimatorTriggerOnExit": ["DoSkill"],
          "canSteer": true
        },
        "BeHit": {
          "$type": "NEDIFAKEGCO",
          "animatorStates": {
            "Hit_L": ["Audio_Monster_SprayGun_Ice_Hit_L"],
            "Hit_H": ["Audio_Monster_SprayGun_Ice_Hit_H"]
          },
          "resetAnimatorTriggerOnEnter": ["BeHit"],
          "resetAnimatorTriggerOnExit": ["DoSkill"]
        },
        "BeHitThrow": {
          "$type": "NEDIFAKEGCO",
          "animatorStates": {
            "HitThrow": [],
            "HitThrowDrop": [],
            "HitThrowToGround": ["Audio_Monster_SprayGun_Ice_HitThrowToGround"]
          },
          "resetAnimatorTriggerOnEnter": ["BeHit", "HitAir2HitDrop"],
          "resetAnimatorTriggerOnExit": ["DoSkill"]
        },
        "Struggle": {
          "$type": "NEDIFAKEGCO",
          "animatorStates": {
            "Struggle": []
          },
          "resetAnimatorTriggerOnEnter": ["BeHit", "HitAir2HitDrop"],
          "resetAnimatorTriggerOnExit": ["DoSkill"]
        },
        "Die": {
          "$type": "NEDIFAKEGCO",
          "animatorStates": {
            "Die1": [
              "Skirmisher_Male_Fat_SprayGun_Ice_Die",
              "Audio_Monster_Natlan_SprayGun_Ice_Die"
            ],
            "Die2": [
              "Skirmisher_Male_Fat_SprayGun_Ice_Die",
              "Audio_Monster_Natlan_SprayGun_Ice_Die"
            ],
            "SwimDie": ["Skirmisher_Male_Fat_SprayGun_Ice_Die"],
            "SwimDie_AS": []
          },
          "resetAnimatorTriggerOnEnter": ["DoSkill"]
        },
        "Die_RagDoll": {
          "$type": "NEDIFAKEGCO",
          "animatorStates": {
            "AirDie": ["Audio_Monster_SprayGun_Ice_Hit_H"]
          },
          "resetAnimatorTriggerOnEnter": ["DoSkill"],
          "enableRagDoll": true
        },
        "Alert": {
          "$type": "NEDIFAKEGCO",
          "animatorStates": {
            "Alert": [
              "Skirmisher_Male_Fat_SprayGun_Ice_Alert",
              "Audio_Monster_Natlan_SprayGun_Ice_Alert"
            ]
          },
          "resetAnimatorTriggerOnExit": ["BeHit", "DoSkill"],
          "canSteer": true
        },
        "ShowWeapon": {
          "$type": "NEDIFAKEGCO",
          "animatorStates": {
            "ShowWeapon": [
              "Skirmisher_Male_Fat_SprayGun_Ice_Alert",
              "Skirmisher_Male_Fat_SprayGun_PreCombat",
              "Audio_Monster_SprayGun_Ice_Battle"
            ]
          },
          "resetAnimatorTriggerOnExit": ["BeHit", "DoSkill"],
          "canSteer": true
        },
        "Improve": {
          "$type": "NEDIFAKEGCO",
          "animatorStates": {
            "Improve": [
              "Skirmisher_Male_Fat_SprayGun_Ice_Improve",
              "Audio_Monster_SprayGun_Ice_Improve"
            ]
          },
          "addEndure": 0.0,
          "massRatio": 20.0,
          "resetAnimatorTriggerOnEnter": ["ForceImprove"],
          "resetAnimatorTriggerOnExit": ["BeHit", "DoSkill", "ForceImprove"]
        },
        "RocketJump": {
          "$type": "NEDIFAKEGCO",
          "animatorStates": {
            "RocketJump": [
              "Skirmisher_Male_Fat_SprayGun_Ice_RockJump",
              "Audio_Monster_SprayGun_Ice_RocketJump"
            ]
          },
          "addEndure": 0.0,
          "massRatio": 20.0,
          "resetAnimatorTriggerOnExit": ["BeHit", "DoSkill"],
          "canSteer": true
        },
        "MeleeAtk": {
          "$type": "NEDIFAKEGCO",
          "animatorStates": {
            "MeleeAtk": [
              "Skirmisher_Male_Fat_SprayGun_Ice_MeleeAtk",
              "Audio_Monster_SprayGun_Ice_MeleeAtk"
            ]
          },
          "massRatio": 20.0,
          "resetAnimatorTriggerOnExit": ["BeHit", "DoSkill"],
          "canSteer": true
        },
        "IceSpray": {
          "$type": "NEDIFAKEGCO",
          "animatorStates": {
            "IceSpray": [
              "Skirmisher_Male_Fat_SprayGun_Ice_IceSpray",
              "Audio_Monster_SprayGun_Ice_IceSpray"
            ]
          },
          "resetAnimatorTriggerOnExit": ["BeHit", "DoSkill"],
          "canSteer": true
        },
        "ImprovedIceSpray_BS": {
          "$type": "NEDIFAKEGCO",
          "animatorStates": {
            "ImprovedIceSpray_BS": [
              "Skirmisher_Male_Fat_SprayGun_Ice_ImprovedIceSprayBS",
              "Audio_Monster_SprayGun_Ice_ImprovedIceSpray_BS"
            ]
          },
          "massRatio": 20.0,
          "resetAnimatorTriggerOnExit": ["BeHit", "DoSkill"],
          "canSteer": true
        },
        "ImprovedIceSpray_Loop": {
          "$type": "NEDIFAKEGCO",
          "animatorStates": {
            "ImprovedIceSpray_Loop": [
              "Audio_Monster_SprayGun_Ice_ImprovedIceSpray_Loop"
            ]
          },
          "canSyncMove": true,
          "massRatio": 20.0,
          "resetAnimatorTriggerOnExit": ["BeHit", "DoSkill"],
          "canSteer": true
        },
        "ImprovedIceSpray_AS": {
          "$type": "NEDIFAKEGCO",
          "animatorStates": {
            "ImprovedIceSpray_AS": [
              "Skirmisher_Male_Fat_SprayGun_Ice_ImprovedIceSprayAS",
              "Audio_Monster_SprayGun_Ice_ImprovedIceSpray_AS"
            ]
          },
          "resetAnimatorTriggerOnExit": ["BeHit", "DoSkill"],
          "canSteer": true
        },
        "Weak": {
          "$type": "NEDIFAKEGCO",
          "animatorStates": {
            "Weak_BS": [
              "Skirmisher_Male_Fat_SprayGun_Weak",
              "Audio_Monster_SprayGun_Ice_Weak_BS"
            ],
            "WeakLoop": [],
            "Weak_AS": ["Audio_Monster_SprayGun_Ice_Weak_AS"]
          },
          "addEndure": 0.009999999776482582,
          "massRatio": 20.0,
          "resetAnimatorTriggerOnEnter": ["WeakStart"],
          "resetAnimatorTriggerOnExit": [
            "BeHit",
            "DoSkill",
            "Recover",
            "WeakStart"
          ]
        },
        "Search": {
          "$type": "NEDIFAKEGCO",
          "animatorStates": {
            "Search": []
          },
          "canDoSkill": true,
          "resetAnimatorTriggerOnExit": ["BeHit", "DoSkill"]
        },
        "Practice": {
          "$type": "NEDIFAKEGCO",
          "animatorStates": {
            "Practice": []
          },
          "canDoSkill": true,
          "resetAnimatorTriggerOnExit": ["BeHit", "DoSkill"]
        },
        "Threat": {
          "$type": "NEDIFAKEGCO",
          "animatorStates": {
            "Threat": []
          },
          "canDoSkill": true,
          "resetAnimatorTriggerOnExit": ["BeHit", "DoSkill"]
        }
      }
    }
  },
  "billboard": {
    "$type": "DNGNMAJBCNP",
    "attachPoint": "BillboardAttach",
    "offset": {
      "x": -0.3499999940395355
    },
    "offsetType": "Character",
    "showDistance": 48.0,
    "showHPBar": true,
    "size": "Big"
  },
  "initialPoses": {
    "Default": {},
    "Search": {
      "initialPoseID": 9001,
      "initialPoseParams": {
        "boolParams": {
          "Search": "true"
        }
      }
    },
    "Practice": {
      "initialPoseID": 9011,
      "initialPoseParams": {
        "boolParams": {
          "Practice": "true"
        }
      }
    },
    "Threat": {
      "initialPoseID": 9014,
      "initialPoseParams": {
        "boolParams": {
          "Threat": "true"
        }
      }
    }
  },
  "aibeta": {
    "enable": true,
    "aiCombat": {
      "combatRole": "MAGE"
    },
    "sensing": {
      "settings": {
        "DefaultSetting": {
          "viewRange": 25.0,
          "feelRange": 10.0
        },
        "NeverCombat": {
          "enableVision": false,
          "hearAttractionRange": 0.0,
          "feelRange": 0.0
        },
        "BiggerSenseArea": {
          "feelRange": 30.0
        }
      },
      "templates": {
        "DefaultTemplate": {
          "DefaultPoses": "DefaultSetting",
          "101": "BiggerSenseArea",
          "102": "BiggerSenseArea",
          "201": "BiggerSenseArea",
          "301": "BiggerSenseArea"
        },
        "NeverCombatTemplate": {
          "DefaultPoses": "NeverCombat"
        },
        "BoxMatch": {
          "DefaultPoses": "NeverCombat",
          "101": "DefaultSetting",
          "102": "DefaultSetting",
          "201": "DefaultSetting",
          "301": "DefaultSetting"
        }
      }
    },
    "neurons": {
      "DefaultSetting": ["HIT"],
      "NeverCombat": []
    },
    "threat": {
      "GHIJMOKOLMB": "",
      "clearThreatByLostPath": true,
      "clearThreatTimerByLostPath": 11.0,
      "viewAttenuation": [
        {
          "x": 10.0,
          "y": 2.0
        },
        {
          "x": 15.0,
          "y": 0.800000011920929
        },
        {
          "x": 20.0,
          "y": 0.5
        },
        {
          "x": 25.0,
          "y": 0.30000001192092896
        },
        {
          "x": 30.0,
          "y": 0.20000000298023224
        }
      ],
      "resistTauntLevel": "Monster_TauntLevel_4"
    },
    "defendArea": {
      "defendRange": 50.0
    },
    "skillGroupCDConfigs": [
      {
        "skillGroupCDID": 0,
        "skillGroupCDTime": 15.0
      },
      {
        "skillGroupCDID": 1,
        "skillGroupCDTime": 5.0
      },
      {
        "skillGroupCDID": 2,
        "skillGroupCDTime": 5.0
      }
    ],
    "skills": {
      "1": {
        "name": "OnAlert",
        "skillType": "OnAlert",
        "faceTarget": true,
        "castCondition": {
          "pose": [9001, 9011, 9014]
        },
        "publicCDGroup": "",
        "ignoreGCD": true,
        "triggerGCD": false,
        "HHAGODJIAPE": "",
        "stateIDs": ["Alert", "ShowWeapon"],
        "skillQueryingTime": 3.0,
        "flagTargetReachable": "10",
        "flagSelfOnTemplateCollider": "01",
        "flagSelfInZone": "10",
        "flagTargetInZone": "11"
      },
      "2": {
        "name": "OnAlert",
        "skillType": "OnNerve",
        "faceTarget": true,
        "castCondition": {
          "pose": [1, 9001, 9011, 9014]
        },
        "publicCDGroup": "",
        "triggerGCD": false,
        "HHAGODJIAPE": "",
        "stateIDs": ["Alert"],
        "skillQueryingTime": 3.0,
        "flagTargetReachable": "10",
        "flagSelfOnTemplateCollider": "01",
        "flagSelfInZone": "10",
        "flagTargetInZone": "11",
        "nerveTrigger": ["HIT"]
      },
      "3": {
        "name": "OnAlert",
        "skillType": "OnAlert",
        "faceTarget": true,
        "castCondition": {
          "pose": [1]
        },
        "publicCDGroup": "",
        "ignoreGCD": true,
        "triggerGCD": false,
        "HHAGODJIAPE": "",
        "stateIDs": ["Alert"],
        "skillQueryingTime": 3.0,
        "flagTargetReachable": "10",
        "flagSelfOnTemplateCollider": "01",
        "flagSelfInZone": "10",
        "flagTargetInZone": "11"
      },
      "101": {
        "name": "IceSpray",
        "priority": 4,
        "castCondition": {
          "pose": [101, 102],
          "pickRangeMax": 9.0
        },
        "cd": 5.0,
        "cdUpperRange": 2.5,
        "initialCD": 3.0,
        "publicCDGroup": "",
        "skillGroupCDID": 1,
        "HHAGODJIAPE": "",
        "stateIDs": ["IceSpray"],
        "skillQueryingTime": 3.0,
        "flagTargetReachable": "11",
        "flagSelfOnTemplateCollider": "01",
        "flagSelfInZone": "11",
        "flagTargetInZone": "11"
      },
      "102": {
        "name": "IceSpray",
        "priority": 3,
        "castCondition": {
          "pose": [101, 102],
          "pickRangeMax": 9.0,
          "globalValues": [
            "_SKIRMISHER_ELEMENT_WATER_",
            "_SKIRMISHER_ELEMENT_FIRE_",
            "_SKIRMISHER_ELEMENT_ELECTRIC_"
          ],
          "globalValuesLogicAnd": false
        },
        "cd": 5.0,
        "cdUpperRange": 2.5,
        "publicCDGroup": "",
        "ignoreGCD": true,
        "skillGroupCDID": 1,
        "HHAGODJIAPE": "",
        "stateIDs": ["IceSpray"],
        "skillQueryingTime": 3.0,
        "flagTargetReachable": "11",
        "flagSelfOnTemplateCollider": "01",
        "flagSelfInZone": "11",
        "flagTargetInZone": "11"
      },
      "201": {
        "name": "MeleeAtk",
        "castCondition": {
          "pose": [101, 102],
          "pickRangeMax": 3.5
        },
        "cd": 5.0,
        "cdUpperRange": 2.5,
        "initialCD": 3.0,
        "publicCDGroup": "",
        "ignoreGCD": true,
        "HHAGODJIAPE": "",
        "stateIDs": ["MeleeAtk"],
        "skillQueryingTime": 3.0,
        "flagTargetReachable": "11",
        "flagSelfOnTemplateCollider": "01",
        "flagSelfInZone": "11",
        "flagTargetInZone": "11"
      },
      "301": {
        "name": "RocketJump",
        "priority": 4,
        "castCondition": {
          "pose": [101, 102, 201],
          "pickRangeMin": 9.0,
          "pickRangeMax": 30.0
        },
        "cd": 10.0,
        "cdUpperRange": 5.0,
        "initialCD": 5.0,
        "initialCDUpperRange": 5.0,
        "publicCDGroup": "",
        "triggerGCD": false,
        "skillGroupCDID": 0,
        "HHAGODJIAPE": "",
        "stateIDs": ["RocketJump"],
        "skillQueryingTime": 3.0,
        "flagTargetReachable": "10",
        "flagSelfOnTemplateCollider": "01",
        "flagSelfInZone": "10",
        "flagTargetInZone": "11"
      },
      "302": {
        "name": "RocketJump",
        "priority": 3,
        "castCondition": {
          "pose": [101, 102, 201],
          "pickRangeMin": 9.0,
          "pickRangeMax": 30.0,
          "globalValues": [
            "_SKIRMISHER_ELEMENT_WATER_",
            "_SKIRMISHER_ELEMENT_FIRE_",
            "_SKIRMISHER_ELEMENT_ELECTRIC_"
          ],
          "globalValuesLogicAnd": false
        },
        "cd": 10.0,
        "cdUpperRange": 5.0,
        "initialCD": 5.0,
        "initialCDUpperRange": 5.0,
        "publicCDGroup": "",
        "ignoreGCD": true,
        "triggerGCD": false,
        "skillGroupCDID": 0,
        "HHAGODJIAPE": "",
        "stateIDs": ["RocketJump"],
        "skillQueryingTime": 3.0,
        "flagTargetReachable": "10",
        "flagSelfOnTemplateCollider": "01",
        "flagSelfInZone": "10",
        "flagTargetInZone": "11"
      },
      "303": {
        "name": "RocketJump",
        "priority": 4,
        "castCondition": {
          "pose": [101, 102, 201],
          "pickRangeMax": 30.0
        },
        "cd": 5.0,
        "publicCDGroup": "",
        "ignoreGCD": true,
        "HHAGODJIAPE": "",
        "stateIDs": ["RocketJump"],
        "skillQueryingTime": 3.0,
        "flagTargetReachable": "01",
        "flagSelfOnTemplateCollider": "01",
        "flagSelfInZone": "11",
        "flagTargetInZone": "11"
      },
      "401": {
        "name": "Improve",
        "priority": 1,
        "castCondition": {
          "pose": [101]
        },
        "cd": 100000000.0,
        "initialCD": 5.0,
        "publicCDGroup": "",
        "ignoreGCD": true,
        "triggerGCD": false,
        "HHAGODJIAPE": "",
        "stateIDs": ["Improve"],
        "skillQueryingTime": 3.0,
        "flagTargetReachable": "10",
        "flagSelfOnTemplateCollider": "01",
        "flagSelfInZone": "10",
        "flagTargetInZone": "11"
      },
      "402": {
        "name": "Improve",
        "priority": 2,
        "castCondition": {
          "pose": [101, 102]
        },
        "cd": 25.0,
        "cdUpperRange": 5.0,
        "initialCD": 25.0,
        "initialCDUpperRange": 5.0,
        "publicCDGroup": "",
        "ignoreGCD": true,
        "triggerGCD": false,
        "HHAGODJIAPE": "",
        "stateIDs": ["Improve"],
        "skillQueryingTime": 3.0,
        "flagTargetReachable": "10",
        "flagSelfOnTemplateCollider": "01",
        "flagSelfInZone": "10",
        "flagTargetInZone": "11"
      },
      "403": {
        "name": "Improve",
        "priority": 1,
        "castCondition": {
          "pose": [102]
        },
        "cd": 100000000.0,
        "publicCDGroup": "",
        "ignoreGCD": true,
        "triggerGCD": false,
        "HHAGODJIAPE": "",
        "stateIDs": ["Improve"],
        "skillQueryingTime": 3.0,
        "flagTargetReachable": "10",
        "flagSelfOnTemplateCollider": "01",
        "flagSelfInZone": "10",
        "flagTargetInZone": "11"
      },
      "404": {
        "name": "Improve",
        "priority": 1,
        "castCondition": {
          "pose": [101, 102, 201, 301]
        },
        "cd": 100000000.0,
        "initialCD": 100000000.0,
        "publicCDGroup": "",
        "ignoreGCD": true,
        "triggerGCD": false,
        "HHAGODJIAPE": "",
        "stateIDs": ["Improve"],
        "skillQueryingTime": 3.0,
        "flagTargetReachable": "10",
        "flagSelfOnTemplateCollider": "01",
        "flagSelfInZone": "10",
        "flagTargetInZone": "11"
      },
      "501": {
        "name": "ImprovedIceSpray",
        "priority": 4,
        "castCondition": {
          "pose": [201],
          "pickRangeMax": 10.0
        },
        "cd": 5.0,
        "cdUpperRange": 2.5,
        "publicCDGroup": "",
        "skillGroupCDID": 2,
        "HHAGODJIAPE": "",
        "stateIDs": [
          "ImprovedIceSpray_BS",
          "ImprovedIceSpray_Loop",
          "ImprovedIceSpray_AS"
        ],
        "skillQueryingTime": 3.0,
        "flagTargetReachable": "10",
        "flagSelfOnTemplateCollider": "01",
        "flagSelfInZone": "10",
        "flagTargetInZone": "11"
      },
      "502": {
        "name": "ImprovedIceSpray",
        "priority": 3,
        "castCondition": {
          "pose": [201],
          "pickRangeMax": 10.0,
          "globalValues": [
            "_SKIRMISHER_ELEMENT_WATER_",
            "_SKIRMISHER_ELEMENT_FIRE_",
            "_SKIRMISHER_ELEMENT_ELECTRIC_"
          ],
          "globalValuesLogicAnd": false
        },
        "cd": 5.0,
        "cdUpperRange": 2.5,
        "initialCD": 3.0,
        "publicCDGroup": "",
        "ignoreGCD": true,
        "skillGroupCDID": 2,
        "HHAGODJIAPE": "",
        "stateIDs": [
          "ImprovedIceSpray_BS",
          "ImprovedIceSpray_Loop",
          "ImprovedIceSpray_AS"
        ],
        "skillQueryingTime": 3.0,
        "flagTargetReachable": "10",
        "flagSelfOnTemplateCollider": "01",
        "flagSelfInZone": "10",
        "flagTargetInZone": "11"
      },
      "503": {
        "name": "ImprovedIceSpray",
        "priority": 4,
        "castCondition": {
          "pose": [201],
          "pickRangeMax": 4.0
        },
        "cd": 5.0,
        "cdUpperRange": 2.5,
        "publicCDGroup": "",
        "skillGroupCDID": 2,
        "HHAGODJIAPE": "",
        "stateIDs": [
          "ImprovedIceSpray_BS",
          "ImprovedIceSpray_Loop",
          "ImprovedIceSpray_AS"
        ],
        "skillQueryingTime": 3.0,
        "flagTargetReachable": "11",
        "flagSelfOnTemplateCollider": "01",
        "flagSelfInZone": "01",
        "flagTargetInZone": "11"
      },
      "601": {
        "name": "Weak",
        "cd": 999999.0,
        "initialCD": 999999.0,
        "publicCDGroup": "",
        "HHAGODJIAPE": "",
        "stateIDs": ["Weak"],
        "flagTargetReachable": "10",
        "flagSelfOnTemplateCollider": "01",
        "flagSelfInZone": "10",
        "flagTargetInZone": "11"
      },
      "9001": {
        "name": "Search",
        "skillType": "Free",
        "castCondition": {
          "pose": [9001]
        },
        "cd": 5.0,
        "cdUpperRange": 1.0,
        "publicCDGroup": "",
        "HHAGODJIAPE": "",
        "stateIDs": ["Search"],
        "flagTargetReachable": "10",
        "flagSelfOnTemplateCollider": "01",
        "flagSelfInZone": "10",
        "flagTargetInZone": "11"
      },
      "9011": {
        "name": "Practice",
        "skillType": "Free",
        "castCondition": {
          "pose": [9011]
        },
        "cd": 5.0,
        "cdUpperRange": 1.0,
        "publicCDGroup": "",
        "HHAGODJIAPE": "",
        "stateIDs": ["Practice"],
        "flagTargetReachable": "10",
        "flagSelfOnTemplateCollider": "01",
        "flagSelfInZone": "10",
        "flagTargetInZone": "11"
      },
      "9014": {
        "name": "Threat",
        "skillType": "Free",
        "castCondition": {
          "pose": [9014]
        },
        "cd": 5.0,
        "cdUpperRange": 1.0,
        "publicCDGroup": "",
        "HHAGODJIAPE": "",
        "stateIDs": ["Threat"],
        "flagTargetReachable": "10",
        "flagSelfOnTemplateCollider": "01",
        "flagSelfInZone": "10",
        "flagTargetInZone": "11"
      }
    },
    "skillGCD": 3.0,
    "birdCirclingTactic": [
      {
        "$type": "EPHBMLFODKF",
        "enable": true,
        "condition": {
          "pose": [101, 201]
        },
        "JMCOBEPDIGM": {
          "rangeMin": 4.5,
          "rangeMax": 9.0,
          "JOJBOHEDBHC": 2.5,
          "AFILKAGDAHN": 4.5,
          "ALIBHHJHHMN": 2.5,
          "OMHBOLPFEPM": 1.0,
          "BFJBDDIIFOI": {
            "LLICGJHIGME": 0.0,
            "IDEFILBHNAP": 0.0,
            "IBLIPJPNOGC": 0.0
          },
          "NAOBMNGDKHL": "1111",
          "JCNIJOAIGII": "1111",
          "MNPDDAKDHGK": ""
        }
      },
      {
        "$type": "KACCHOLJDNK",
        "enable": true,
        "condition": {
          "pose": [101, 201]
        },
        "JMCOBEPDIGM": {
          "ANLAAGAMIKF": 1,
          "KHDFDAAAPEI": 12.5,
          "HKJODDGJPHA": 99.0,
          "GGEBMFHFBPO": 9.0,
          "KFFGCIMPNMJ": 0.0,
          "MNPDDAKDHGK": ""
        }
      },
      {
        "$type": "NNJKLGNPMNN",
        "enable": true,
        "JMCOBEPDIGM": {
          "ANLAAGAMIKF": 1,
          "MNPDDAKDHGK": "",
          "GJDMDHIBCME": "",
          "JJJLPMLDNAJ": 15.0
        }
      },
      {
        "$type": "FPELBIJFGCE",
        "enable": true,
        "condition": {
          "pose": [1]
        },
        "JMCOBEPDIGM": {
          "NBENNEKDIIA": 1.0,
          "KPNDPKIOPJM": 5.0,
          "PINAFKEDDLL": 2.5,
          "ANMPOPEBDIA": 15.0,
          "GMJFIMFFOEL": 4.0,
          "CHCPFDMADEI": 6.0,
          "MNPDDAKDHGK": ""
        }
      }
    ]
  },
  "inputKeys": [
    {
      "keyID": 101,
      "inputKeyCode": 257,
      "abilityName": ""
    },
    {
      "keyID": 201,
      "inputKeyCode": 258,
      "abilityName": ""
    },
    {
      "keyID": 301,
      "inputKeyCode": 259,
      "abilityName": ""
    },
    {
      "keyID": 401,
      "inputKeyCode": 260,
      "abilityName": ""
    },
    {
      "keyID": 501,
      "inputKeyCode": 261,
      "abilityName": ""
    },
    {
      "keyID": 601,
      "inputKeyCode": 262,
      "abilityName": ""
    },
    {
      "keyID": 9011,
      "inputKeyCode": 264,
      "abilityName": ""
    }
  ],
  "move": {
    "$type": "IPNMJMHDMPF",
    "facingMove": "FourDirection",
    "monsterSizeType": "StrongHumanoidType",
    "PKHOMJHFAEE": "RootNode"
  },
  "audio": {
    "overrideEmitterName": "",
    "animAudio": {
      "onTransitionIn": [
        {
          "currentStateName": "WeakLoop",
          "audioEvent": {
            "text": "Play_sfx_monster_spraygun_ice_weak_Loop"
          }
        }
      ],
      "onTransitionOut": [
        {
          "currentStateName": "ImprovedIceSpray_Loop",
          "audioEvent": {
            "text": "Stop_sfx_monster_spraygun_ice_improvedicespray_Loop"
          }
        },
        {
          "currentStateName": "WeakLoop",
          "audioEvent": {
            "text": "Stop_sfx_monster_spraygun_ice_weak_Loop"
          }
        }
      ]
    },
    "disableEvent": {
      "text": ""
    },
    "destroyEvent": {
      "text": ""
    },
    "behaviours": [
      {
        "$type": "BILJOKAHFPL",
        "coolDown": 5.0,
        "BGIEINMDECM": {
          "$type": "IFGMCBBGLDI",
          "LIHPNFLLKDA": {
            "$type": "LFOALDLDGDN"
          },
          "ACMFKGCEPBN": {
            "$type": "IFGMCBBGLDI",
            "LIHPNFLLKDA": {
              "$type": "EAIMKFLEHCC"
            },
            "ACMFKGCEPBN": {
              "$type": "JOPFGOEOKPH",
              "target": {
                "$type": "OJKONELIJJC"
              }
            }
          }
        },
        "onKill": [
          {
            "$type": "DELPJNMAIHM",
            "OPEMPFCFHMO": "__DefaultSync__",
            "action": {
              "$type": "CPBMHBHJPKE",
              "eventName": {
                "text": "Play_vo_monster_skirmisher_natlan_fat_m_ejector_ice_SpecialKillAvatar_01"
              }
            }
          }
        ]
      }
    ]
  }
}
