{
  "common": {
    "effectAttachShape": {
      "$type": "FJNPJANPGGC",
      "mesh": "EffectMesh"
    },
    "mass": 30.0,
    "height": 0.75,
    "affectedByWorld": true,
    "checkInSurface": true,
    "canTriggerElementReactionText": false
  },
  "model": {
    "bornEffect": "Eff_Animal_Thoarder_Weasel_Emerge",
    "attachEffect": "Eff_Animal_Marten_05_Idle",
    "canBakeMesh": false,
    "BKPFGNPLDNJ": ""
  },
  "dither": {
    "showDitherDuration": 1.0
  },
  "combat": {
    "property": {
      "endureType": "Monster_Minion",
      "weight": 30.0,
      "isInvincible": true
    },
    "beHit": {
      "hitBloodEffect": "",
      "muteAllHitText": true
    },
    "combatLock": {
      "lockShape": "CircleLockEnemy",
      "lockType": "Animal_Lv2"
    },
    "die": {
      "dieEndTime": 2.0,
      "dieForceDisappearTime": 10.0,
      "dieDisappearEffect": ""
    }
  },
  "abilities": [
    {
      "abilityID": "Homeworld_CommonInitial",
      "abilityName": "Animal_Homeworld_Common_Initial",
      "abilityOverride": ""
    }
  ],
  "stateLayers": {
    "defaultLayer": {
      "$type": "GBGJJIIEMBD",
      "layerIndexName": "",
      "CPAANEIJCGD": "",
      "stateIDs": {
        "Born": {
          "$type": "NEDIFAKEGCO",
          "animatorStates": {
            "Born": ["Audio_Animal_Marten_Born"]
          },
          "resetAnimatorTriggerOnExit": ["DoSkill"]
        },
        "NormalIdle": {
          "$type": "NEDIFAKEGCO",
          "animatorStates": {
            "Standby": ["Audio_Animal_Marten_Standby"],
            "Standby_Walk": ["Audio_Animal_Marten_Walk"]
          },
          "canDoSkill": true,
          "canSyncMove": true,
          "resetAnimatorTriggerOnExit": ["DoSkill"]
        },
        "NormalMove": {
          "$type": "NEDIFAKEGCO",
          "animatorStates": {
            "Walk": ["Audio_Animal_Marten_Walk"],
            "Run": ["Audio_Animal_Marten_Walk"],
            "Disappear": ["Audio_Animal_Marten_Walk"]
          },
          "canDoSkill": true,
          "canSyncMove": true,
          "resetAnimatorTriggerOnExit": ["DoSkill"],
          "canSteer": true
        },
        "Die": {
          "$type": "NEDIFAKEGCO",
          "animatorStates": {
            "Die": ["Animal_Marten_Die", "Audio_Animal_Marten_Die"],
            "Die_Disappear": ["Animal_Marten_Disappear"]
          }
        },
        "Alert": {
          "$type": "NEDIFAKEGCO",
          "animatorStates": {
            "Alert": ["Animal_Marten_Alert", "Audio_Animal_Marten_Alert"]
          },
          "canDoSkill": true,
          "resetAnimatorTriggerOnExit": ["BeHit", "DoSkill"],
          "canSteer": true,
          "followAnimRotation": true
        },
        "Personality_1": {
          "$type": "NEDIFAKEGCO",
          "animatorStates": {
            "Personality_1": [
              "Animal_Marten_Personality1",
              "Audio_Animal_Marten_Personality_1"
            ]
          },
          "canDoSkill": true,
          "resetAnimatorTriggerOnExit": ["BeHit", "DoSkill"]
        },
        "Personality_2": {
          "$type": "NEDIFAKEGCO",
          "animatorStates": {
            "Personality_2": ["Audio_Animal_Marten_Personality_2"]
          },
          "canDoSkill": true,
          "resetAnimatorTriggerOnExit": ["BeHit", "DoSkill"]
        },
        "StateTransition": {
          "$type": "NEDIFAKEGCO",
          "animatorStates": {
            "StandbyToWalk": [],
            "WalkToStandby": ["Audio_Animal_Marten_Walk"]
          },
          "resetAnimatorTriggerOnExit": ["BeHit", "DoSkill"]
        }
      }
    }
  },
  "initialPoses": {
    "Default": {}
  },
  "aibeta": {
    "enable": true,
    "friendliness": 1,
    "decisionArchetype": "Animal_Homeworld",
    "moveSetting": {
      "navMeshAgentName": "Undead01"
    },
    "sensing": {
      "settings": {
        "DefaultSetting": {
          "viewRange": 15.0,
          "horizontalFov": 90.0,
          "verticalFov": 30.0,
          "feelRange": 9.0
        }
      }
    },
    "neurons": {
      "DefaultSetting": ["HIT"]
    },
    "threat": {
      "GHIJMOKOLMB": "",
      "threatDecreaseSpeed": 500.0,
      "viewAttenuation": [
        {
          "x": 7.0,
          "y": 2.5
        },
        {
          "x": 9.0,
          "y": 2.0
        },
        {
          "x": 11.0,
          "y": 1.5
        },
        {
          "x": 11.0,
          "y": 1.0
        },
        {
          "x": 15.0,
          "y": 0.5
        }
      ]
    },
    "defendArea": {
      "defendRange": 100.0
    },
    "poseControl": {
      "items": [
        {
          "minTime": 30.0,
          "maxTime": 50.0,
          "poseID": 1,
          "randomPose": [2],
          "switchOnlyInCanDoSkillState": true
        },
        {
          "minTime": 60.0,
          "maxTime": 120.0,
          "poseID": 2,
          "randomPose": [1],
          "switchOnlyInCanDoSkillState": true
        },
        {
          "minTime": 15.0,
          "maxTime": 50.0,
          "poseID": 101,
          "randomPose": [2],
          "switchOnlyInCanDoSkillState": true
        },
        {
          "minTime": 30.0,
          "maxTime": 60.0,
          "poseID": 201,
          "randomPose": [1],
          "switchOnlyInCanDoSkillState": true
        }
      ]
    },
    "ui": {
      "hasDirectionIndicator": false,
      "HMNNBFDEHLG": ""
    },
    "skills": {
      "101": {
        "name": "PersonalitySit1",
        "skillType": "Free",
        "castCondition": {
          "pose": [1]
        },
        "cd": 25.0,
        "cdUpperRange": 25.0,
        "initialCD": 20.0,
        "initialCDUpperRange": 20.0,
        "publicCDGroup": "",
        "HHAGODJIAPE": "",
        "stateIDs": ["Personality_1"],
        "flagTargetReachable": "10",
        "flagSelfOnTemplateCollider": "01",
        "flagSelfInZone": "10",
        "flagTargetInZone": "11"
      },
      "201": {
        "name": "PersonalitySit2",
        "skillType": "Free",
        "castCondition": {
          "pose": [1]
        },
        "cd": 20.0,
        "cdUpperRange": 15.0,
        "initialCD": 10.0,
        "initialCDUpperRange": 10.0,
        "publicCDGroup": "",
        "HHAGODJIAPE": "",
        "stateIDs": ["Personality_2"],
        "flagTargetReachable": "10",
        "flagSelfOnTemplateCollider": "01",
        "flagSelfInZone": "10",
        "flagTargetInZone": "11"
      },
      "111": {
        "name": "PersonalitySit1",
        "castCondition": {
          "pose": [101]
        },
        "cd": 25.0,
        "cdUpperRange": 25.0,
        "initialCD": 20.0,
        "initialCDUpperRange": 20.0,
        "publicCDGroup": "",
        "HHAGODJIAPE": "",
        "stateIDs": ["Personality_1"],
        "flagTargetReachable": "10",
        "flagSelfOnTemplateCollider": "01",
        "flagSelfInZone": "10",
        "flagTargetInZone": "11"
      },
      "211": {
        "name": "PersonalitySit2",
        "castCondition": {
          "pose": [101]
        },
        "cd": 20.0,
        "cdUpperRange": 15.0,
        "initialCD": 10.0,
        "initialCDUpperRange": 10.0,
        "publicCDGroup": "",
        "HHAGODJIAPE": "",
        "stateIDs": ["Personality_2"],
        "flagTargetReachable": "10",
        "flagSelfOnTemplateCollider": "01",
        "flagSelfInZone": "10",
        "flagTargetInZone": "11"
      }
    },
    "skillGCD": 5.0,
    "mixin": {
      "setControllerParameterOnBeHitByEntityType": [
        {
          "poseIDs": [1, 2, 101, 201],
          "settings": [
            {
              "entityTypes": ["Avatar", "Monster", "Gadget", "Bullet"],
              "onSuccess": {
                "setPoseInt": [
                  {
                    "intID": "RandomPose",
                    "value": 3
                  }
                ]
              },
              "onFail": {
                "setPoseInt": [
                  {
                    "intID": "RandomPose",
                    "value": 3
                  }
                ]
              }
            }
          ]
        }
      ]
    },
    "birdCirclingTactic": [
      {
        "$type": "ODHNBPJLGHF",
        "enable": true,
        "condition": {
          "pose": [301]
        },
        "nerveTrigger": ["HIT"],
        "JMCOBEPDIGM": {
          "NBENNEKDIIA": 2.5,
          "cd": 3.0,
          "triggerDistance": 100.0,
          "MMGOBGGLBJO": 75.0,
          "EMNPEHPCDLB": 5,
          "CMDFDIPMGKI": 6,
          "KAIGBDPLNMO": 6.0,
          "BMIEPFCPFGN": 8.0,
          "FEJMHENNBFA": true,
          "IAADAJPFDJO": 3.0,
          "MNPDDAKDHGK": ""
        }
      },
      {
        "$type": "NNJKLGNPMNN",
        "enable": true,
        "JMCOBEPDIGM": {
          "ANLAAGAMIKF": 1,
          "MNPDDAKDHGK": "",
          "GJDMDHIBCME": ""
        }
      },
      {
        "$type": "FPELBIJFGCE",
        "enable": true,
        "condition": {
          "pose": [2, 201]
        },
        "GNBDAEHGLHI": [0, 1, 2],
        "JMCOBEPDIGM": {
          "NBENNEKDIIA": 2.0,
          "KPNDPKIOPJM": 5.0,
          "PINAFKEDDLL": 3.0,
          "ANMPOPEBDIA": 5.0,
          "CHCPFDMADEI": 3.5,
          "MNPDDAKDHGK": ""
        }
      }
    ]
  },
  "inputKeys": [
    {
      "keyID": 101,
      "inputKeyCode": 257,
      "abilityName": ""
    },
    {
      "keyID": 201,
      "inputKeyCode": 258,
      "abilityName": ""
    }
  ],
  "animal": {
    "tickAbilityElement": false,
    "hasCharacterRenderering": false
  }
}
