{
  "common": {
    "effectAttachShape": {
      "$type": "FJNPJANPGGC",
      "mesh": "EffectMesh"
    },
    "mass": 30.0,
    "height": 1.7000000476837158,
    "modelHeight": 1.7000000476837158,
    "affectedByWorld": true,
    "checkInSurface": true,
    "scale": 1.100000023841858,
    "useGrassDisplacement": true
  },
  "headControl": {
    "$type": "KPIPDEBDPIH",
    "useHeadControl": true,
    "maxYawDegree": 60.0,
    "maxPitchDegree": 30.0,
    "animStates": [
      "NormalIdle/Standby",
      "NormalMove/WalkForward",
      "NormalMove/WalkBack",
      "NormalMove/WalkRight",
      "NormalMove/WalkLeft",
      "NormalMove/Run",
      "Turn/TurnLeft",
      "Turn/TurnRight"
    ]
  },
  "model": {
    "bornEffect": "Eff_Monster_Common_Born",
    "attachEffect": "",
    "BKPFGNPLDNJ": ""
  },
  "dither": {
    "showDitherDuration": 1.0
  },
  "combat": {
    "property": {
      "endureType": "Monster_Minion",
      "weight": 70.0
    },
    "beHit": {
      "hitBloodEffect": ""
    },
    "combatLock": {
      "lockShape": "CircleLockEnemy",
      "lockType": "Avatar&Monster_Lv4"
    },
    "die": {
      "hasAnimatorDie": true,
      "dieEndTime": 4.0,
      "dieForceDisappearTime": 15.0,
      "dieDisappearEffect": "",
      "useRagDoll": true,
      "ragDollDieEndTimeDelay": 15.0,
      "muteHitBox": true,
      "dieDenyLockOn": true,
      "dieIsGhostToEnemy": true,
      "dieIgnoreTriggerBullet": true,
      "muteBillboard": true,
      "mutePushCollider": true
    },
    "animEvents": {
      "NormalAtk": {
        "attackPattern": {
          "$type": "ConfigAttackCircle",
          "triggerType": "TriggerNoRepeat",
          "born": {
            "$type": "ConfigBornBySelf",
            "offset": {
              "x": 0.0,
              "y": 0.0,
              "z": 0.0
            }
          },
          "fanAngle": 60.0,
          "radius": 1.75
        },
        "attackInfo": {
          "attackTag": "",
          "attenuationTag": "",
          "attenuationGroup": "default",
          "attackProperty": {
            "actorGrassSubHurtDelta": 1.0,
            "actorWindSubHurtDelta": 0.0,
            "elementDurability": 100.0,
            "strikeType": "Blunt",
            "enBreak": 80.0,
            "attackType": "Melee",
            "GLKMCMDJBIK": 0.0
          },
          "hitPattern": {
            "onHitEffectName": "default",
            "hitImpulseY": "",
            "hitImpulseType": "LV3",
            "hitHaltTimeScale": 0.009999999776482582
          }
        }
      }
    }
  },
  "equipController": {
    "sheathPoint": "",
    "attachPoints": {
      "equip01": "WeaponR",
      "equip02": "WeaponL"
    }
  },
  "abilities": [
    {
      "abilityID": "SteerAttack",
      "abilityName": "Thoarder_Male_Crossbow_SteerAttack",
      "abilityOverride": ""
    },
    {
      "abilityID": "ShootArrow_WithRandom",
      "abilityName": "Thoarder_Male_Crossbow_ShootArrow_WithRandom",
      "abilityOverride": ""
    },
    {
      "abilityID": "Shoot_Enhanced01",
      "abilityName": "Thoarder_Male_Crossbow_Shoot_Enhanced01",
      "abilityOverride": ""
    },
    {
      "abilityID": "FireEnchanted_Start",
      "abilityName": "Monster_Thoarder_Male_Crossbow_FireEnchanted_Start",
      "abilityOverride": ""
    },
    {
      "abilityID": "FireEnchanted_End",
      "abilityName": "Monster_Thoarder_Male_Crossbow_FireEnchanted_End",
      "abilityOverride": ""
    },
    {
      "abilityID": "Dodge",
      "abilityName": "Thoarder_Male_Crossbow_Dodge",
      "abilityOverride": ""
    },
    {
      "abilityID": "DodgeShootCDManager",
      "abilityName": "Thoarder_Male_Crossbow_DodgeShootCDManager",
      "abilityOverride": ""
    },
    {
      "abilityID": "WeaponOnBack",
      "abilityName": "Thoarder_WeaponOnBack",
      "abilityOverride": ""
    },
    {
      "abilityID": "DrawWeapon",
      "abilityName": "Thoarder_DrawWeapon",
      "abilityOverride": ""
    },
    {
      "abilityID": "SheathWeapon",
      "abilityName": "Thoarder_SheathWeapon",
      "abilityOverride": ""
    },
    {
      "abilityID": "HideWeapon",
      "abilityName": "Thoarder_HideWeapon",
      "abilityOverride": ""
    },
    {
      "abilityID": "ReturnToBorn",
      "abilityName": "Thoarder_ReturnToBorn",
      "abilityOverride": "",
      "lightWeightRemove": true
    },
    {
      "abilityID": "SmokeBombInHandR_Start",
      "abilityName": "Thoarder_Die_SmokeBombInHandR_Start",
      "abilityOverride": ""
    },
    {
      "abilityID": "SmokeBombEffect_End",
      "abilityName": "Thoarder_Die_SmokeBombEffect_End",
      "abilityOverride": ""
    },
    {
      "abilityID": "SteerMove",
      "abilityName": "Thoarder_SteerMove",
      "abilityOverride": ""
    },
    {
      "abilityID": "EndureModifier",
      "abilityName": "Thoarder_EndureModifier",
      "abilityOverride": ""
    }
  ],
  "stateLayers": {
    "defaultLayer": {
      "$type": "GBGJJIIEMBD",
      "layerIndexName": "",
      "CPAANEIJCGD": "",
      "stateIDs": {
        "NormalIdle": {
          "$type": "NEDIFAKEGCO",
          "animatorStates": {
            "Standby": [],
            "Born": []
          },
          "canDoSkill": true,
          "canSyncMove": true,
          "resetAnimatorTriggerOnExit": ["DoSkill"]
        },
        "NormalMove": {
          "$type": "NEDIFAKEGCO",
          "animatorStates": {
            "WalkForward": ["Audio_Monster_Thoarder_Crossbow_Walk"],
            "WalkBack": ["Audio_Monster_Thoarder_Crossbow_Walk"],
            "WalkRight": ["Audio_Monster_Thoarder_Crossbow_Walk"],
            "WalkLeft": ["Audio_Monster_Thoarder_Crossbow_Walk"],
            "Run": ["Audio_Monster_Thoarder_Crossbow_Run"]
          },
          "canDoSkill": true,
          "canSyncMove": true,
          "resetAnimatorTriggerOnExit": ["DoSkill"],
          "canSteer": true
        },
        "Turn": {
          "$type": "NEDIFAKEGCO",
          "animatorStates": {
            "TurnLeft": ["Audio_Monster_Thoarder_Crossbow_Walk"],
            "TurnRight": ["Audio_Monster_Thoarder_Crossbow_Walk"]
          },
          "canDoSkill": true,
          "canSyncMove": true,
          "resetAnimatorTriggerOnExit": ["DoSkill"],
          "canSteer": true
        },
        "BeHit": {
          "$type": "NEDIFAKEGCO",
          "animatorStates": {
            "Hit_L": ["Audio_Monster_Thoarder_Crossbow_Hit_L"],
            "Hit_H": ["Audio_Monster_Thoarder_Crossbow_Hit_H"]
          },
          "resetAnimatorTriggerOnEnter": ["BeHit"],
          "resetAnimatorTriggerOnExit": ["DoSkill"]
        },
        "BeHitThrow": {
          "$type": "NEDIFAKEGCO",
          "animatorStates": {
            "HitThrow": ["Audio_Monster_Thoarder_Crossbow_HitThrow"],
            "HitThrowDrop": [],
            "HitThrowToGround": [
              "Audio_Monster_Thoarder_Crossbow_HitThrowToGround"
            ]
          },
          "resetAnimatorTriggerOnEnter": ["BeHit", "HitAir2HitDrop"],
          "resetAnimatorTriggerOnExit": ["DoSkill"]
        },
        "Struggle": {
          "$type": "NEDIFAKEGCO",
          "animatorStates": {
            "Struggle": []
          },
          "resetAnimatorTriggerOnEnter": ["BeHit", "HitAir2HitDrop"],
          "resetAnimatorTriggerOnExit": ["DoSkill"]
        },
        "Die": {
          "$type": "NEDIFAKEGCO",
          "animatorStates": {
            "Die1": [
              "Monster_Thoarder_Male_Crossbow_Die",
              "Audio_Monster_Thoarder_Crossbow_Die"
            ],
            "Die2": [
              "Monster_Thoarder_Male_Crossbow_Die",
              "Audio_Monster_Thoarder_Crossbow_Die"
            ],
            "SwimDie": ["Audio_Monster_Thoarder_NoWeapon_SwimDie"],
            "SwimDie_AS": [
              "Monster_Thoarder_Common_SwimDie",
              "Audio_Monster_Thoarder_NoWeapon_SwimDie"
            ]
          }
        },
        "Die_RagDoll": {
          "$type": "NEDIFAKEGCO",
          "animatorStates": {
            "AirDie": ["Monster_Thoarder_Common_AirDie"]
          },
          "enableRagDoll": true
        },
        "Life_Alert": {
          "$type": "NEDIFAKEGCO",
          "animatorStates": {
            "Alert": ["Audio_Monster_Thoarder_Crossbow_Alert"]
          },
          "resetAnimatorTriggerOnExit": ["BeHit", "DoSkill"]
        },
        "Life_Warning": {
          "$type": "NEDIFAKEGCO",
          "animatorStates": {
            "Warning": [
              "Monster_Undead01_Warning",
              "Monster_Thoarder_DrawWeapon",
              "Audio_Monster_Thoarder_Crossbow_Alert"
            ]
          },
          "resetAnimatorTriggerOnExit": ["BeHit", "DoSkill"]
        },
        "Aim": {
          "$type": "NEDIFAKEGCO",
          "animatorStates": {
            "Aim": ["Audio_Monster_Thoarder_Crossbow_Aim"],
            "DodgeShoot_Aim": ["Audio_Monster_Thoarder_Crossbow_Aim"]
          },
          "resetAnimatorTriggerOnExit": ["BeHit", "DoSkill"]
        },
        "Shoot": {
          "$type": "NEDIFAKEGCO",
          "animatorStates": {
            "Shoot": [
              "Monster_Thoarder_Male_Crossbow_Shoot_WithRandom",
              "Audio_Monster_Thoarder_Crossbow_Shoot"
            ]
          },
          "resetAnimatorTriggerOnExit": ["BeHit", "DoSkill"]
        },
        "Aim_Enhanced": {
          "$type": "NEDIFAKEGCO",
          "animatorStates": {
            "Aim_Enhanced01": [
              "Monster_Thoarder_Male_Crossbow_Aim_Fire",
              "Audio_Monster_Thoarder_Crossbow_Aim"
            ],
            "Shoot_Enhanced01_01": [
              "Monster_Thoarder_Male_Crossbow_Shoot_Enhanced01",
              "Audio_Monster_Thoarder_Crossbow_Shoot"
            ],
            "Shoot_Enhanced01_02": [
              "Monster_Thoarder_Male_Crossbow_Shoot_Enhanced01",
              "Audio_Monster_Thoarder_Crossbow_Shoot"
            ]
          },
          "resetAnimatorTriggerOnExit": ["BeHit", "DoSkill"]
        },
        "Shoot_Enhanced01": {
          "$type": "NEDIFAKEGCO",
          "animatorStates": {
            "Shoot_Enhanced01_03": [
              "Monster_Thoarder_Male_Crossbow_Shoot_Enhanced01",
              "Monster_Thoarder_Male_Crossbow_Shoot_Enhanced01_End",
              "Audio_Monster_Thoarder_Crossbow_Shoot"
            ]
          },
          "resetAnimatorTriggerOnExit": ["BeHit", "DoSkill"]
        },
        "Ready": {
          "$type": "NEDIFAKEGCO",
          "animatorStates": {
            "Ready_Enhanced01": [
              "Monster_Thoarder_Male_Crossbow_SpecialReload",
              "Audio_Monster_Thoarder_Crossbow_Ready_Enhanced01"
            ]
          },
          "resetAnimatorTriggerOnExit": ["BeHit", "DoSkill"]
        },
        "DodgeAttack": {
          "$type": "NEDIFAKEGCO",
          "animatorStates": {
            "DodgeShoot_Shoot": [
              "Monster_Thoarder_Male_Crossbow_Shoot_WithRandom",
              "Audio_Monster_Thoarder_Crossbow_Shoot"
            ]
          },
          "resetAnimatorTriggerOnExit": ["BeHit", "DoSkill"]
        },
        "Taunt": {
          "$type": "NEDIFAKEGCO",
          "animatorStates": {
            "Taunt_1": ["Audio_Monster_Thoarder_Crossbow_Taunt1"],
            "Taunt_2": ["Audio_Monster_Thoarder_Crossbow_Taunt2"],
            "Taunt_3": []
          },
          "resetAnimatorTriggerOnExit": ["BeHit", "DoSkill"]
        },
        "Dodge": {
          "$type": "NEDIFAKEGCO",
          "animatorStates": {
            "Dodge": [
              "Monster_Thoarder_Male_Crossbow_Dodge_Effect",
              "Audio_Monster_Thoarder_Crossbow_Dodge"
            ],
            "DodgeShoot_Dodge01": [
              "Monster_Thoarder_Male_Crossbow_Dodge_Effect",
              "Audio_Monster_Thoarder_Crossbow_Dodge"
            ],
            "DodgeShoot_Dodge02": [
              "Monster_Thoarder_Male_Crossbow_Dodge_Effect",
              "Audio_Monster_Thoarder_Crossbow_Dodge"
            ]
          },
          "resetAnimatorTriggerOnExit": ["BeHit", "DoSkill", "DodgeTrigger"]
        },
        "SheathWeapon": {
          "$type": "NEDIFAKEGCO",
          "animatorStates": {
            "SheathWeapon": [
              "Monster_Thoarder_SheathWeapon",
              "Audio_Monster_Thoarder_Crossbow_SheathWeapon"
            ]
          },
          "resetAnimatorTriggerOnExit": ["SheathWeaponTrigger"]
        }
      }
    }
  },
  "billboard": {
    "$type": "DNGNMAJBCNP",
    "attachPoint": "BillboardAttach",
    "offset": {
      "x": -0.05000000074505806
    },
    "offsetType": "Character",
    "radiusOffset": 0.25,
    "showHPBar": true
  },
  "initialPoses": {
    "Default": {}
  },
  "aibeta": {
    "enable": true,
    "moveSetting": {
      "navMeshAgentName": "Undead01",
      "almostReachedDistanceRun": 1.5
    },
    "sensing": {
      "settings": {
        "DefaultSetting": {
          "feelRange": 8.0
        },
        "HighAlert": {
          "viewRange": 40.0,
          "feelRange": 10.0
        }
      },
      "templates": {
        "DefaultTemplate": {
          "DefaultPoses": "DefaultSetting"
        },
        "HighAlertTemplate": {
          "DefaultPoses": "HighAlert"
        }
      }
    },
    "neurons": {
      "DefaultSetting": ["HIT"]
    },
    "threat": {
      "GHIJMOKOLMB": "",
      "clearThreatByLostPath": true,
      "clearThreatTimerByDistance": 3.0,
      "viewAttenuation": [
        {
          "x": 10.0,
          "y": 2.0
        },
        {
          "x": 15.0,
          "y": 0.800000011920929
        },
        {
          "x": 20.0,
          "y": 0.5
        },
        {
          "x": 25.0,
          "y": 0.30000001192092896
        },
        {
          "x": 30.0,
          "y": 0.20000000298023224
        }
      ]
    },
    "defendArea": {},
    "profiling": {},
    "skills": {
      "101": {
        "name": "OnAlert",
        "skillType": "OnAlert",
        "faceTarget": true,
        "publicCDGroup": "",
        "ignoreGCD": true,
        "triggerGCD": false,
        "HHAGODJIAPE": "",
        "stateIDs": ["Life_Warning"],
        "skillQueryingTime": 3.0,
        "flagTargetReachable": "10",
        "flagSelfOnTemplateCollider": "01",
        "flagSelfInZone": "10",
        "flagTargetInZone": "11"
      },
      "301": {
        "name": "Shoot",
        "combatSkillType": "RangedAttack",
        "castCondition": {
          "pose": [1001],
          "pickRangeMin": 1.25,
          "pickRangeMax": 15.0
        },
        "cd": 5.0,
        "cdUpperRange": 5.0,
        "publicCDGroup": "",
        "HHAGODJIAPE": "",
        "stateIDs": ["Aim", "Shoot"],
        "flagTargetReachable": "10",
        "flagSelfOnTemplateCollider": "01",
        "flagSelfInZone": "10",
        "flagTargetInZone": "11"
      },
      "302": {
        "name": "Shoot_Enhanced01",
        "combatSkillType": "RangedAttack",
        "castCondition": {
          "pose": [1001],
          "pickRangeMin": 4.25,
          "pickRangeMax": 15.0
        },
        "cd": 20.0,
        "publicCDGroup": "",
        "HHAGODJIAPE": "",
        "stateIDs": ["Aim", "Shoot_Enhanced01"],
        "flagTargetReachable": "10",
        "flagSelfOnTemplateCollider": "01",
        "flagSelfInZone": "10",
        "flagTargetInZone": "11"
      },
      "401": {
        "name": "DodgeAttack01",
        "combatSkillType": "RangedAttack",
        "castCondition": {
          "pose": [1001],
          "pickRangeMin": 5.5,
          "pickRangeMax": 8.0
        },
        "cd": 8.0,
        "publicCDGroup": "",
        "ignoreGCD": true,
        "triggerGCD": false,
        "HHAGODJIAPE": "",
        "stateIDs": ["DodgeAttack"],
        "flagTargetReachable": "10",
        "flagSelfOnTemplateCollider": "01",
        "flagSelfInZone": "10",
        "flagTargetInZone": "11"
      },
      "402": {
        "name": "DodgeAttack02",
        "combatSkillType": "RangedAttack",
        "castCondition": {
          "pose": [1001],
          "pickRangeMax": 5.5
        },
        "cd": 3.0,
        "cdUpperRange": 5.0,
        "publicCDGroup": "",
        "ignoreGCD": true,
        "triggerGCD": false,
        "HHAGODJIAPE": "",
        "stateIDs": ["DodgeAttack"],
        "flagTargetReachable": "10",
        "flagSelfOnTemplateCollider": "01",
        "flagSelfInZone": "10",
        "flagTargetInZone": "11"
      },
      "901": {
        "name": "Taunt",
        "faceTarget": true,
        "castCondition": {
          "pose": [1001],
          "maxTargetAngleY": 45.0,
          "pickRangeMin": 8.0,
          "pickRangeMax": 20.0
        },
        "cd": 3.0,
        "cdUpperRange": 3.0,
        "initialCD": 10.0,
        "publicCDGroup": "RandomAction",
        "ignoreGCD": true,
        "triggerGCD": false,
        "HHAGODJIAPE": "",
        "stateIDs": ["Taunt"],
        "flagTargetReachable": "10",
        "flagSelfOnTemplateCollider": "01",
        "flagSelfInZone": "01",
        "flagTargetInZone": "11"
      },
      "902": {
        "name": "Taunt",
        "faceTarget": true,
        "castCondition": {
          "pose": [1001],
          "maxTargetAngleY": 45.0,
          "pickRangeMin": 8.0,
          "pickRangeMax": 20.0
        },
        "cd": 3.0,
        "cdUpperRange": 3.0,
        "initialCD": 10.0,
        "publicCDGroup": "RandomAction",
        "ignoreGCD": true,
        "triggerGCD": false,
        "HHAGODJIAPE": "",
        "stateIDs": ["Taunt"],
        "flagTargetReachable": "01",
        "flagSelfOnTemplateCollider": "01",
        "flagSelfInZone": "10",
        "flagTargetInZone": "11"
      },
      "904": {
        "name": "Taunt",
        "faceTarget": true,
        "castCondition": {
          "pose": [1001],
          "maxTargetAngleY": 45.0,
          "pickRangeMin": 8.0,
          "pickRangeMax": 30.0
        },
        "cd": 20.0,
        "cdUpperRange": 5.0,
        "initialCD": 20.0,
        "publicCDGroup": "RandomAction",
        "triggerGCD": false,
        "HHAGODJIAPE": "",
        "stateIDs": ["Taunt"],
        "flagTargetReachable": "10",
        "flagSelfOnTemplateCollider": "01",
        "flagSelfInZone": "10",
        "flagTargetInZone": "11"
      }
    },
    "skillGCD": 3.0,
    "birdCirclingTactic": [
      {
        "$type": "EPHBMLFODKF",
        "enable": true,
        "condition": {
          "pose": [1001]
        },
        "JMCOBEPDIGM": {
          "rangeMin": 5.0,
          "rangeMax": 30.0,
          "BFJBDDIIFOI": {
            "LLICGJHIGME": 3.0,
            "IDEFILBHNAP": 0.5,
            "AEBLMKFNCDG": 0.5,
            "IGLIBIOEGBB": 0.5
          },
          "NAOBMNGDKHL": "1111",
          "JCNIJOAIGII": "1111",
          "MNPDDAKDHGK": ""
        }
      },
      {
        "$type": "OJOBEDCMGKM",
        "enable": true,
        "condition": {
          "pose": [1]
        }
      },
      {
        "$type": "KACCHOLJDNK",
        "enable": true,
        "condition": {
          "pose": [1001]
        },
        "JMCOBEPDIGM": {
          "HKJODDGJPHA": 50.0,
          "GGEBMFHFBPO": 8.0,
          "KFFGCIMPNMJ": 10.0,
          "MNPDDAKDHGK": ""
        }
      },
      {
        "$type": "HGJGHLOFFHM",
        "enable": true,
        "JMCOBEPDIGM": {}
      },
      {
        "$type": "NNJKLGNPMNN",
        "enable": true,
        "JMCOBEPDIGM": {
          "MNPDDAKDHGK": "",
          "GJDMDHIBCME": ""
        }
      },
      {
        "$type": "FPELBIJFGCE",
        "enable": true,
        "condition": {
          "pose": [1]
        },
        "JMCOBEPDIGM": {
          "KPNDPKIOPJM": 3.0,
          "PINAFKEDDLL": 1.5,
          "ANMPOPEBDIA": 15.0,
          "GMJFIMFFOEL": 3.75,
          "CHCPFDMADEI": 7.5,
          "MNPDDAKDHGK": ""
        }
      }
    ]
  },
  "inputKeys": [
    {
      "keyID": 301,
      "inputKeyCode": 257,
      "abilityName": ""
    },
    {
      "keyID": 302,
      "inputKeyCode": 258,
      "abilityName": ""
    },
    {
      "keyID": 401,
      "inputKeyCode": 259,
      "abilityName": ""
    },
    {
      "keyID": 901,
      "inputKeyCode": 260,
      "abilityName": ""
    },
    {
      "keyID": 999,
      "inputKeyCode": 262,
      "abilityName": ""
    }
  ],
  "move": {
    "$type": "IPNMJMHDMPF",
    "facingMove": "FourDirection",
    "monsterSizeType": "StoopType",
    "PKHOMJHFAEE": "RootNode"
  },
  "audio": {
    "overrideEmitterName": "",
    "animAudio": {},
    "disableEvent": {
      "text": ""
    },
    "destroyEvent": {
      "text": ""
    },
    "randomVariantSwitchGroup": {
      "text": ""
    },
    "randomVariantSwitchValues": [
      {
        "text": ""
      }
    ]
  }
}
