{
  "common": {
    "effectAttachShape": {
      "$type": "FJNPJANPGGC",
      "mesh": "EffectMesh"
    },
    "mass": 10.0,
    "height": 0.5,
    "affectedByWorld": true,
    "checkInSurface": true,
    "scale": 1.2000000476837158,
    "canTriggerElementReactionText": false
  },
  "model": {
    "bornEffect": "",
    "attachEffect": "",
    "canBakeMesh": false,
    "BKPFGNPLDNJ": ""
  },
  "combat": {
    "property": {
      "endureType": "Monster_Minion",
      "weight": 20.0,
      "isInvincible": true
    },
    "beHit": {
      "hitBloodEffect": "",
      "muteAllHitText": true
    },
    "combatLock": {
      "lockShape": "CircleLockEnemy",
      "denyLockOn": true,
      "lockType": "Default"
    },
    "die": {
      "fallWhenAirDie": false,
      "dieEndTime": 4.0,
      "dieForceDisappearTime": 10.0,
      "dieDisappearEffect": ""
    }
  },
  "stateLayers": {
    "defaultLayer": {
      "$type": "GBGJJIIEMBD",
      "layerIndexName": "",
      "CPAANEIJCGD": "",
      "stateIDs": {
        "Born": {
          "$type": "NEDIFAKEGCO",
          "animatorStates": {
            "Born": []
          },
          "resetAnimatorTriggerOnExit": ["DoSkill"]
        },
        "NormalIdle": {
          "$type": "NEDIFAKEGCO",
          "animatorStates": {
            "Standby": [],
            "Standby_Hide": []
          },
          "canDoSkill": true,
          "canSyncMove": true,
          "resetAnimatorTriggerOnExit": ["DoSkill"]
        },
        "NormalMove": {
          "$type": "NEDIFAKEGCO",
          "animatorStates": {
            "Walk": []
          },
          "canDoSkill": true,
          "canSyncMove": true,
          "resetAnimatorTriggerOnExit": ["DoSkill"],
          "canSteer": true
        },
        "DigIn": {
          "$type": "NEDIFAKEGCO",
          "animatorStates": {
            "DigIn": [
              "Animal_Boltbug_Scarab_DigIn",
              "Audio_Creature_Boltbug_Scarab_DiveIn"
            ]
          },
          "resetAnimatorTriggerOnExit": ["BeHitTrigger"]
        },
        "DigOut": {
          "$type": "NEDIFAKEGCO",
          "animatorStates": {
            "DigOut": [
              "Animal_Boltbug_Scarab_DigOut",
              "Audio_Creature_Boltbug_Scarab_DiveOut"
            ]
          }
        },
        "IdleFree01": {
          "$type": "NEDIFAKEGCO",
          "animatorStates": {
            "IdleFree01": []
          }
        },
        "MakeBall": {
          "$type": "NEDIFAKEGCO",
          "animatorStates": {
            "MakeBall": ["Animal_Homeworld_Boltbug_Scarab_MakeBall"]
          },
          "canSteer": true,
          "followAnimRotation": true
        }
      }
    }
  },
  "initialPoses": {
    "Default": {
      "initialPoseID": 101
    }
  },
  "aibeta": {
    "enable": true,
    "friendliness": 1,
    "decisionArchetype": "Animal_Homeworld",
    "moveSetting": {
      "navMeshAgentName": "Undead01"
    },
    "sensing": {
      "settings": {
        "DefaultSetting": {
          "enableVision": false,
          "feelRange": 0.0
        }
      }
    },
    "neurons": {
      "DefaultSetting": ["HIT"]
    },
    "threat": {
      "GHIJMOKOLMB": "",
      "clearThreatTargetDistance": 0.05000000074505806,
      "clearThreatTimerByDistance": 1.0,
      "viewThreatGrow": 50.0,
      "feelThreatGrow": 1000.0,
      "threatBroadcastRange": 3.0
    },
    "defendArea": {
      "defendRange": 100.0
    },
    "poseControl": {
      "items": [
        {
          "minTime": 7.0,
          "maxTime": 15.0,
          "poseID": 201,
          "randomPose": [1],
          "switchOnlyInCanDoSkillState": true
        }
      ]
    },
    "ui": {
      "hasDirectionIndicator": false,
      "HMNNBFDEHLG": ""
    },
    "skills": {
      "1": {
        "name": "IdleFree01",
        "skillType": "Free",
        "castCondition": {
          "pose": [101]
        },
        "cd": 10.0,
        "cdUpperRange": 10.0,
        "initialCD": 5.0,
        "initialCDUpperRange": 10.0,
        "publicCDGroup": "",
        "triggerGCD": false,
        "HHAGODJIAPE": "",
        "stateIDs": ["IdleFree01"],
        "skillQueryingTime": 3.0,
        "flagTargetReachable": "10",
        "flagSelfOnTemplateCollider": "01",
        "flagSelfInZone": "10",
        "flagTargetInZone": "11"
      },
      "2": {
        "name": "MakeBall",
        "skillType": "Free",
        "priority": 1,
        "castCondition": {
          "pose": [101]
        },
        "cd": 20.0,
        "cdUpperRange": 20.0,
        "initialCD": 6.0,
        "initialCDUpperRange": 2.0,
        "publicCDGroup": "",
        "triggerGCD": false,
        "HHAGODJIAPE": "",
        "stateIDs": ["MakeBall"],
        "skillQueryingTime": 3.0,
        "flagTargetReachable": "10",
        "flagSelfOnTemplateCollider": "01",
        "flagSelfInZone": "10",
        "flagTargetInZone": "11"
      }
    },
    "mixin": {
      "setControllerParameterOnBeHitByEntityType": [
        {
          "poseIDs": [101],
          "settings": [
            {
              "entityTypes": ["Avatar", "Monster", "Gadget", "Bullet"],
              "onSuccess": {
                "setPoseInt": [
                  {
                    "intID": "RandomPose",
                    "value": 2
                  }
                ],
                "setAnimatorTrigger": [
                  {
                    "triggerID": "BeHitTrigger"
                  }
                ]
              },
              "onFail": {
                "setPoseInt": [
                  {
                    "intID": "RandomPose",
                    "value": 2
                  }
                ],
                "setAnimatorTrigger": [
                  {
                    "triggerID": "BeHitTrigger"
                  }
                ]
              }
            }
          ]
        }
      ]
    },
    "birdCirclingTactic": [
      {
        "$type": "FPELBIJFGCE",
        "enable": true,
        "condition": {
          "pose": [101]
        },
        "JMCOBEPDIGM": {
          "NBENNEKDIIA": 0.5,
          "KPNDPKIOPJM": 3.0,
          "PINAFKEDDLL": 1.0,
          "ANMPOPEBDIA": 10.0,
          "GMJFIMFFOEL": 1.5,
          "CHCPFDMADEI": 3.0,
          "MNPDDAKDHGK": ""
        }
      }
    ]
  },
  "inputKeys": [
    {
      "keyID": 1,
      "inputKeyCode": 257,
      "abilityName": ""
    },
    {
      "keyID": 2,
      "inputKeyCode": 258,
      "abilityName": ""
    }
  ],
  "move": {
    "$type": "IPNMJMHDMPF",
    "velocityForce": {
      "excludeForces": [
        "RetreatType",
        "RetreatAirType",
        "WindZoneType",
        "AirflowType"
      ]
    },
    "PKHOMJHFAEE": "RootNode"
  },
  "audio": {
    "overrideEmitterName": "",
    "animAudio": {
      "onTransitionIn": [
        {
          "currentStateName": "MakeBall",
          "audioEvent": {
            "text": "Play_sfx_creature_Boltbug_Scarab_making_Loop"
          }
        }
      ],
      "onTransitionOut": [
        {
          "currentStateName": "MakeBall",
          "audioEvent": {
            "text": "Stop_sfx_creature_Boltbug_Scarab_making_Loop"
          }
        }
      ]
    }
  },
  "animal": {
    "hasAbility": false,
    "tickAbilityElement": false,
    "hasCharacterRenderering": false,
    "canEnvAnimalChangeAnimator": true
  }
}
