{
  "common": {
    "effectAttachShape": {
      "$type": "FJNPJANPGGC",
      "mesh": "EffectMesh"
    },
    "mass": 30.0,
    "height": 1.7000000476837158,
    "modelHeight": 1.7000000476837158,
    "viewSize": 1.100000023841858,
    "affectedByWorld": true,
    "checkInSurface": true,
    "scale": 1.100000023841858,
    "useGrassDisplacement": true,
    "clearAIOnSetLightDeactive": true,
    "reconnectSupport": true,
    "recoverByInitPose": true
  },
  "headControl": {
    "$type": "KPIPDEBDPIH",
    "useHeadControl": true,
    "maxYawDegree": 60.0,
    "maxPitchDegree": 30.0,
    "animStates": [
      "NormalIdle/Standby",
      "NormalMove/WalkForward",
      "NormalMove/WalkBack",
      "NormalMove/WalkRight",
      "NormalMove/WalkLeft",
      "NormalMove/Run",
      "Turn/TurnLeft",
      "Turn/TurnRight"
    ]
  },
  "model": {
    "bornEffect": "Eff_Monster_Common_Born",
    "attachEffect": "",
    "BKPFGNPLDNJ": ""
  },
  "dither": {
    "showDitherDuration": 1.0
  },
  "combat": {
    "property": {
      "endureType": "Monster_Minion",
      "weight": 70.0
    },
    "beHit": {
      "hitBloodEffect": ""
    },
    "combatLock": {
      "lockShape": "CircleLockEnemy",
      "lockType": "Avatar&Monster_Lv4"
    },
    "die": {
      "hasAnimatorDie": true,
      "dieEndTime": 2.0,
      "dieForceDisappearTime": 8.0,
      "dieDisappearEffect": "Eff_Death_Sand_Eremite",
      "dieShaderData": "EremiteSandDie",
      "dieShaderEnableDurationTime": 1.0,
      "useRagDoll": true,
      "ragDollDieEndTimeDelay": 8.0,
      "muteHitBox": true,
      "dieDenyLockOn": true,
      "dieIsGhostToEnemy": true,
      "dieIgnoreTriggerBullet": true,
      "muteBillboard": true,
      "mutePushCollider": true
    },
    "animEvents": {
      "AE_Slash": {
        "attackPattern": {
          "$type": "ConfigAttackBox",
          "triggerType": "TriggerNoRepeat",
          "born": {
            "$type": "ConfigBornBySelf",
            "offset": {
              "x": 0.0,
              "y": 1.2999999523162842,
              "z": 0.6100000143051147
            }
          },
          "size": {
            "x": 1.600000023841858,
            "y": 3.200000047683716,
            "z": 2.6700000762939453
          }
        },
        "attackInfo": {
          "attackTag": "",
          "attenuationTag": "",
          "attenuationGroup": "default",
          "attackProperty": {
            "actorGrassSubHurtDelta": 1.0,
            "actorWindSubHurtDelta": 0.0,
            "elementDurability": 100.0,
            "strikeType": "Slash",
            "enBreak": 200.0,
            "GLKMCMDJBIK": 0.0
          },
          "hitPattern": {
            "onHitEffectName": "default",
            "hitImpulseY": "",
            "hitImpulseType": "LV4"
          }
        }
      },
      "AE_Slash_Light": {
        "attackPattern": {
          "$type": "ConfigAttackCircle",
          "triggerType": "TriggerNoRepeat",
          "born": {
            "$type": "ConfigBornBySelf",
            "offset": {
              "x": 0.0,
              "y": 0.0,
              "z": 0.5
            }
          },
          "height": 1.7999999523162842,
          "fanAngle": 240.0,
          "radius": 1.7999999523162842
        },
        "attackInfo": {
          "attackTag": "",
          "attenuationTag": "",
          "attenuationGroup": "default",
          "attackProperty": {
            "actorGrassSubHurtDelta": 0.20000000298023224,
            "actorWindSubHurtDelta": 0.0,
            "elementDurability": 100.0,
            "strikeType": "Slash",
            "enBreak": 50.0,
            "GLKMCMDJBIK": 0.0
          },
          "hitPattern": {
            "onHitEffectName": "default",
            "hitImpulseY": "",
            "hitImpulseType": "LV1"
          }
        }
      }
    }
  },
  "equipController": {
    "sheathPoint": "",
    "attachPoints": {
      "equip01": "WeaponR",
      "equip02": "WeaponL"
    }
  },
  "abilities": [
    {
      "abilityID": "",
      "abilityName": "Eremite_TurnState_AnimatorSteer",
      "abilityOverride": ""
    },
    {
      "abilityID": "",
      "abilityName": "Eremite_Pole_AnimatorSteer",
      "abilityOverride": ""
    },
    {
      "abilityID": "",
      "abilityName": "Eremite_Pole_Rush_Detection",
      "abilityOverride": ""
    },
    {
      "abilityID": "",
      "abilityName": "Eremite_Universal_Alert",
      "abilityOverride": ""
    },
    {
      "abilityID": "",
      "abilityName": "Eremite_Gambling_Logic",
      "abilityOverride": ""
    },
    {
      "abilityID": "",
      "abilityName": "Eremite_Pole_Equip_Display_Manager",
      "abilityOverride": ""
    },
    {
      "abilityID": "",
      "abilityName": "Eremite_FreePose_Display_Manager",
      "abilityOverride": ""
    },
    {
      "abilityID": "",
      "abilityName": "Eremite_FreePose_Male_Drinking_Display_Manager",
      "abilityOverride": ""
    }
  ],
  "stateLayers": {
    "defaultLayer": {
      "$type": "GBGJJIIEMBD",
      "layerIndexName": "",
      "CPAANEIJCGD": "",
      "stateIDs": {
        "NormalIdle": {
          "$type": "NEDIFAKEGCO",
          "animatorStates": {
            "Standby": []
          },
          "canDoSkill": true,
          "canSyncMove": true,
          "resetAnimatorTriggerOnExit": ["DoSkill"]
        },
        "NormalBorn": {
          "$type": "NEDIFAKEGCO",
          "animatorStates": {
            "Born": []
          },
          "canDoSkill": true,
          "resetAnimatorTriggerOnExit": ["DoSkill"]
        },
        "NormalMove": {
          "$type": "NEDIFAKEGCO",
          "animatorStates": {
            "WalkForward": ["Audio_Eremite_Male_Standard_Pole_01_walk"],
            "WalkBack": ["Audio_Eremite_Male_Standard_Pole_01_walk"],
            "WalkRight": ["Audio_Eremite_Male_Standard_Pole_01_walk"],
            "WalkLeft": ["Audio_Eremite_Male_Standard_Pole_01_walk"],
            "Run": ["Audio_Eremite_Male_Standard_Pole_01_run"]
          },
          "canDoSkill": true,
          "canSyncMove": true,
          "resetAnimatorTriggerOnExit": ["DoSkill"],
          "canSteer": true
        },
        "Turn": {
          "$type": "NEDIFAKEGCO",
          "animatorStates": {
            "TurnLeft": ["Audio_Eremite_Male_Standard_Pole_01_walk"],
            "TurnRight": ["Audio_Eremite_Male_Standard_Pole_01_walk"]
          },
          "canDoSkill": true,
          "canSyncMove": true,
          "resetAnimatorTriggerOnExit": ["DoSkill"],
          "canSteer": true
        },
        "BeHit": {
          "$type": "NEDIFAKEGCO",
          "animatorStates": {
            "Hit_L": [],
            "Hit_H": ["Audio_Eremite_Male_Standard_Pole_01_hit_H"]
          },
          "resetAnimatorTriggerOnEnter": ["BeHit"],
          "resetAnimatorTriggerOnExit": ["DoSkill"]
        },
        "BeHitThrow": {
          "$type": "NEDIFAKEGCO",
          "animatorStates": {
            "HitThrow": [],
            "HitThrowDrop": []
          },
          "resetAnimatorTriggerOnEnter": ["BeHit", "HitAir2HitDrop"],
          "resetAnimatorTriggerOnExit": ["DoSkill", "BeHit"],
          "setAnimatorBoolean": [
            {
              "name": "AirDie"
            }
          ]
        },
        "BeHitThrowToStandby": {
          "$type": "NEDIFAKEGCO",
          "animatorStates": {
            "HitThrowToGround": [
              "Audio_Eremite_Male_Standard_Pole_01_hitthrowtogroud"
            ]
          },
          "resetAnimatorTriggerOnEnter": ["BeHit", "HitAir2HitDrop"],
          "resetAnimatorTriggerOnExit": ["DoSkill", "BeHit"],
          "setAnimatorBoolean": [
            {
              "name": "AirDie",
              "normalizeEnd": 0.5
            }
          ]
        },
        "Struggle": {
          "$type": "NEDIFAKEGCO",
          "animatorStates": {
            "Struggle": []
          },
          "resetAnimatorTriggerOnEnter": ["BeHit", "HitAir2HitDrop"],
          "resetAnimatorTriggerOnExit": ["DoSkill"]
        },
        "Die": {
          "$type": "NEDIFAKEGCO",
          "animatorStates": {
            "Die1": [
              "Monster_Eremite_Pole_Die",
              "Audio_Eremite_Male_Standard_Pole_01_die_NoVO"
            ],
            "Die2": [
              "Monster_Eremite_Pole_Die",
              "Audio_Eremite_Male_Standard_Pole_01_die_NoVO"
            ],
            "SwimDie_BS": [],
            "SwimDie": ["Monster_Eremite_SwimDie"],
            "SwimDie_AS": []
          }
        },
        "Die_RagDoll": {
          "$type": "NEDIFAKEGCO",
          "animatorStates": {
            "AirDie": ["Monster_Eremite_AirDie"]
          },
          "enableRagDoll": true
        },
        "Alert": {
          "$type": "NEDIFAKEGCO",
          "animatorStates": {
            "Alert": [
              "Monster_Eremite_Clear_FreePoseMark",
              "Audio_Eremite_Male_Standard_Pole_01_alert_NoVO"
            ],
            "TrainingAlert": ["Monster_Eremite_Clear_FreePoseMark"],
            "StandingAlert_SlashEnd": [
              "Monster_Eremite_Clear_FreePoseMark",
              "Monster_Eremite_Pole_ShowWeapon_StandingAlert"
            ],
            "StandingAlert_Normal": [
              "Monster_Eremite_Clear_FreePoseMark",
              "Monster_Eremite_Pole_ShowWeapon_StandingAlert_Normal"
            ]
          },
          "addEndure": 0.0,
          "resetAnimatorTriggerOnExit": ["BeHit", "DoSkill"]
        },
        "Crossleg_Alert": {
          "$type": "NEDIFAKEGCO",
          "animatorStates": {
            "CrosslegAlert": [
              "Monster_Eremite_Clear_FreePoseMark",
              "Monster_Eremite_Pole_ShowWeapon_CrosslegAlert",
              "Audio_Eremite_Male_Standard_Pole_01_crosslegalert_NoVO"
            ]
          },
          "addEndure": 0.0,
          "resetAnimatorTriggerOnExit": ["BeHit", "DoSkill"]
        },
        "Slash": {
          "$type": "NEDIFAKEGCO",
          "animatorStates": {
            "Slash": [
              "Monster_Eremite_Pole_Slash",
              "Monster_Eremite_Pole_Slash_Effect",
              "Audio_Eremite_Male_Standard_Pole_01_slash"
            ],
            "Rush_Slash": [
              "Monster_Eremite_Pole_Slash",
              "Monster_Eremite_Pole_Slash_Effect",
              "Audio_Eremite_Male_Standard_Pole_01_rush_slash"
            ]
          },
          "addEndure": 0.0,
          "resetAnimatorTriggerOnExit": ["BeHit", "DoSkill"]
        },
        "Slash_AS": {
          "$type": "NEDIFAKEGCO",
          "animatorStates": {
            "Slash_AS": ["Audio_Eremite_Male_Standard_Pole_01_Slash_AS"],
            "Rush_Slash_AS": [
              "Audio_Eremite_Male_Standard_Pole_01_rush_slash_AS"
            ]
          },
          "resetAnimatorTriggerOnExit": ["BeHit", "DoSkill", "Rush2Slash"]
        },
        "Slash_BS": {
          "$type": "NEDIFAKEGCO",
          "animatorStates": {
            "Rush_Transition": [
              "Monster_Eremite_Pole_Rush_Jump",
              "Audio_Eremite_Male_Standard_Pole_01_transition"
            ],
            "Slash_BS": [
              "Monster_Eremite_Pole_Slash_BS",
              "Audio_Eremite_Male_Standard_Pole_01_slash_BS_NoVO"
            ]
          },
          "resetAnimatorTriggerOnExit": ["BeHit", "DoSkill", "Rush2Slash"]
        },
        "Rush_BS": {
          "$type": "NEDIFAKEGCO",
          "animatorStates": {
            "Rush_BS": [
              "Monster_Eremite_Pole_Rush_BS_Effect",
              "Audio_Eremite_Male_Standard_Pole_01_rush_BS"
            ]
          },
          "resetAnimatorTriggerOnExit": [
            "BeHit",
            "DoSkill",
            "RushEnd",
            "Rush2Slash"
          ]
        },
        "Rush_Loop": {
          "$type": "NEDIFAKEGCO",
          "animatorStates": {
            "Rush_Loop": [
              "Monster_Eremite_Pole_RushLoop",
              "Audio_Eremite_Male_Standard_Pole_01_loop"
            ]
          },
          "resetAnimatorTriggerOnExit": ["BeHit", "DoSkill"]
        },
        "Rush_AS": {
          "$type": "NEDIFAKEGCO",
          "animatorStates": {
            "Rush_AS": [
              "Monster_Eremite_Pole_Rush_AS_Effect",
              "Audio_Eremite_Male_Standard_Pole_01_rush_AS"
            ]
          },
          "resetAnimatorTriggerOnExit": ["BeHit", "DoSkill", "RushEnd"]
        },
        "FreePose_HoldArm_Idle": {
          "$type": "NEDIFAKEGCO",
          "animatorStates": {
            "HoldArm_Idle": []
          },
          "canDoSkill": true,
          "resetAnimatorTriggerOnExit": ["BeHit", "DoSkill"]
        },
        "FreePose_Downcast_Idle": {
          "$type": "NEDIFAKEGCO",
          "animatorStates": {
            "Downcast_Idle": []
          },
          "canDoSkill": true,
          "resetAnimatorTriggerOnExit": ["BeHit", "DoSkill"]
        },
        "FreePose_LeanOnWall_Idle": {
          "$type": "NEDIFAKEGCO",
          "animatorStates": {
            "LeanOnWall_Idle": []
          },
          "canDoSkill": true,
          "resetAnimatorTriggerOnExit": ["BeHit", "DoSkill"]
        },
        "FreePose_Arrange_Idle": {
          "$type": "NEDIFAKEGCO",
          "animatorStates": {
            "Arrange_Idle": []
          },
          "canDoSkill": true,
          "resetAnimatorTriggerOnExit": ["BeHit", "DoSkill"]
        },
        "FreePose_StandingTalk_Idle": {
          "$type": "NEDIFAKEGCO",
          "animatorStates": {
            "StandingTalk_Idle": []
          },
          "canDoSkill": true,
          "resetAnimatorTriggerOnExit": ["BeHit", "DoSkill"]
        },
        "FreePose_StandingTalk_Skill": {
          "$type": "NEDIFAKEGCO",
          "animatorStates": {
            "StandingTalk01_Skill": [],
            "StandingTalk02_Skill": [],
            "StandingTalk03_Skill": []
          },
          "canDoSkill": true,
          "resetAnimatorTriggerOnExit": ["BeHit", "DoSkill"]
        },
        "FreePose_Crossleg_Idle": {
          "$type": "NEDIFAKEGCO",
          "animatorStates": {
            "Crossleg_Idle": []
          },
          "canDoSkill": true,
          "resetAnimatorTriggerOnExit": ["BeHit", "DoSkill"]
        },
        "FreePose_Crossleg_Chat_Skill": {
          "$type": "NEDIFAKEGCO",
          "animatorStates": {
            "Crossleg_Chat01_Skill": [
              "Audio_Eremite_Male_Standard_Pole_01_Chat_01"
            ],
            "Crossleg_Chat02_Skill": [
              "Audio_Eremite_Male_Standard_Pole_01_Chat_02"
            ]
          },
          "canDoSkill": true,
          "resetAnimatorTriggerOnExit": ["BeHit", "DoSkill"]
        },
        "FreePose_Crossleg_Drink_Skill": {
          "$type": "NEDIFAKEGCO",
          "animatorStates": {
            "Crossleg_Drink_Skill_01": [
              "Audio_Eremite_Male_Standard_Pole_01_Drink"
            ],
            "Crossleg_Drink_Skill_02": [],
            "Crossleg_Drink_Skill_03": ["Monster_Eremite_Drinking_WaterDrop"],
            "Crossleg_Drink_Skill_04": [],
            "Crossleg_Drink_Skill_05": []
          },
          "canDoSkill": true,
          "resetAnimatorTriggerOnExit": ["BeHit", "DoSkill"]
        },
        "FreePose_Crossleg_Sleeping_Skill": {
          "$type": "NEDIFAKEGCO",
          "animatorStates": {
            "Crossleg_Sleeping_Skill": []
          },
          "canDoSkill": true,
          "resetAnimatorTriggerOnExit": ["BeHit", "DoSkill"]
        },
        "FreePose_Training01_Idle": {
          "$type": "NEDIFAKEGCO",
          "animatorStates": {
            "Training01_Idle": [
              "Audio_Eremite_Male_Standard_Pole_01_tranning01"
            ]
          },
          "canDoSkill": true,
          "resetAnimatorTriggerOnExit": ["BeHit", "DoSkill"]
        },
        "FreePose_Crossleg_Gambling_Bet_Skill": {
          "$type": "NEDIFAKEGCO",
          "animatorStates": {
            "Crossleg_Gambling_Bet_Skill": [
              "Audio_Eremite_Male_Standard_Pole_01_Bet"
            ]
          },
          "canDoSkill": true,
          "resetAnimatorTriggerOnExit": ["BeHit", "DoSkill"]
        },
        "FreePose_Crossleg_Gambling_Roll": {
          "$type": "NEDIFAKEGCO",
          "animatorStates": {
            "Crossleg_Gambling_Roll": [
              "Monster_Eremite_Gambling_GetResult",
              "Audio_Eremite_Male_Standard_Pole_01_Roll"
            ]
          },
          "canDoSkill": true,
          "resetAnimatorTriggerOnExit": ["BeHit", "DoSkill"]
        },
        "FreePose_Crossleg_Gambling_Lose": {
          "$type": "NEDIFAKEGCO",
          "animatorStates": {
            "Crossleg_Gambling_Lose": [
              "Audio_Eremite_Male_Standard_Pole_01_gabling_lose"
            ]
          },
          "canDoSkill": true,
          "resetAnimatorTriggerOnExit": ["BeHit", "DoSkill"]
        },
        "FreePose_Crossleg_Gambling_Win": {
          "$type": "NEDIFAKEGCO",
          "animatorStates": {
            "Crossleg_Gambling_Win": [
              "Audio_Eremite_Male_Standard_Pole_01_gabling_win"
            ]
          },
          "canDoSkill": true,
          "resetAnimatorTriggerOnExit": ["BeHit", "DoSkill"]
        },
        "FreePose_Crossleg_PlayDaff_Idle": {
          "$type": "NEDIFAKEGCO",
          "animatorStates": {
            "Crossleg_PlayDaff_Idle": []
          },
          "canDoSkill": true,
          "resetAnimatorTriggerOnExit": ["BeHit", "DoSkill"]
        },
        "FreePose_Crossleg_PlayOud_Idle": {
          "$type": "NEDIFAKEGCO",
          "animatorStates": {
            "Crossleg_OudIdle": [],
            "Crossleg_PlayOud_BS": [],
            "Crossleg_PlayOud_Loop": [],
            "Crossleg_PlayOud_AS": []
          },
          "canDoSkill": true,
          "resetAnimatorTriggerOnExit": ["BeHit", "DoSkill"]
        }
      }
    }
  },
  "billboard": {
    "$type": "DNGNMAJBCNP",
    "attachPoint": "BillboardAttach",
    "offset": {
      "x": -0.05000000074505806
    },
    "offsetType": "Character",
    "radiusOffset": 0.25,
    "showHPBar": true
  },
  "initialPoses": {
    "Default": {},
    "HoldArm": {
      "initialPoseID": 9001,
      "initialPoseParams": {
        "intParams": {
          "FreePoseMark": "9001"
        }
      }
    },
    "Downcast": {
      "initialPoseID": 9002,
      "initialPoseParams": {
        "intParams": {
          "FreePoseMark": "9002"
        }
      }
    },
    "LeanOnWall": {
      "initialPoseID": 9003,
      "initialPoseParams": {
        "intParams": {
          "FreePoseMark": "9003"
        }
      }
    },
    "Arrange": {
      "initialPoseID": 9004,
      "initialPoseParams": {
        "intParams": {
          "FreePoseMark": "9004"
        }
      }
    },
    "StandingTalk": {
      "initialPoseID": 9005,
      "initialPoseParams": {
        "intParams": {
          "FreePoseMark": "9005"
        }
      }
    },
    "Training01": {
      "initialPoseID": 9007,
      "initialPoseParams": {
        "intParams": {
          "FreePoseMark": "9007"
        }
      }
    },
    "Training02": {
      "initialPoseID": 9008,
      "initialPoseParams": {
        "intParams": {
          "FreePoseMark": "9007"
        }
      }
    },
    "CrossLeg_Talk_Only": {
      "initialPoseID": 9501,
      "initialPoseParams": {
        "intParams": {
          "FreePoseMark": "9501"
        }
      }
    },
    "CrossLeg_Universal": {
      "initialPoseID": 9502,
      "initialPoseParams": {
        "intParams": {
          "FreePoseMark": "9502"
        }
      }
    },
    "CrossLeg_Drink_Only": {
      "initialPoseID": 9503,
      "initialPoseParams": {
        "intParams": {
          "FreePoseMark": "9503"
        }
      }
    },
    "CrossLeg_Sleeping": {
      "initialPoseID": 9504,
      "initialPoseParams": {
        "intParams": {
          "FreePoseMark": "9504"
        }
      }
    },
    "CrossLeg_PlayOud": {
      "initialPoseID": 9505,
      "initialPoseParams": {
        "intParams": {
          "FreePoseMark": "9505"
        }
      }
    },
    "CrossLeg_PlayDaff": {
      "initialPoseID": 9506,
      "initialPoseParams": {
        "intParams": {
          "FreePoseMark": "9506"
        }
      }
    },
    "CrossLeg_Gambling_Banker": {
      "initialPoseID": 9511,
      "initialPoseParams": {
        "intParams": {
          "FreePoseMark": "9511"
        }
      }
    },
    "CrossLeg_Gambling_Receiver": {
      "initialPoseID": 9512,
      "initialPoseParams": {
        "intParams": {
          "FreePoseMark": "9512"
        }
      }
    }
  },
  "aibeta": {
    "enable": true,
    "moveSetting": {
      "navMeshAgentName": "Undead01",
      "almostReachedDistanceRun": 1.5
    },
    "precombat": {
      "needMusicSlient": true
    },
    "sensing": {
      "settings": {
        "DefaultSetting": {
          "feelRange": 8.0
        },
        "HighAlert": {
          "viewRange": 40.0,
          "feelRange": 10.0
        },
        "LowAlert": {
          "viewRange": 15.0,
          "feelRange": 6.0
        },
        "UltraLowSensing": {
          "viewRange": 10.0,
          "hearAttractionRange": 0.0,
          "feelRange": 4.0
        },
        "EarshotFix": {
          "hearAttractionRange": 9.0,
          "feelRange": 8.0
        },
        "NeverCombat": {
          "enableVision": false,
          "hearAttractionRange": 0.0,
          "feelRange": 0.0
        }
      },
      "templates": {
        "DefaultTemplate": {
          "DefaultPoses": "DefaultSetting"
        },
        "HighAlert": {
          "DefaultPoses": "HighAlert"
        },
        "LowAlert": {
          "DefaultPoses": "LowAlert"
        },
        "UltraLowSensing": {
          "DefaultPoses": "UltraLowSensing"
        },
        "EarshotFix": {
          "DefaultPoses": "EarshotFix"
        },
        "NeverCombat": {
          "DefaultPoses": "NeverCombat"
        }
      }
    },
    "neurons": {
      "DefaultSetting": ["HIT"],
      "NeverCombat": []
    },
    "threat": {
      "GHIJMOKOLMB": "",
      "clearThreatByLostPath": true,
      "clearThreatTimerByDistance": 3.0,
      "viewAttenuation": [
        {
          "x": 10.0,
          "y": 2.0
        },
        {
          "x": 15.0,
          "y": 0.800000011920929
        },
        {
          "x": 20.0,
          "y": 0.5
        },
        {
          "x": 25.0,
          "y": 0.30000001192092896
        },
        {
          "x": 30.0,
          "y": 0.20000000298023224
        }
      ]
    },
    "defendArea": {},
    "skillGroupCDConfigs": [
      {
        "skillGroupCDID": 1,
        "skillGroupCDTime": 2.5
      }
    ],
    "skills": {
      "101": {
        "name": "OnAlert",
        "skillType": "OnAlert",
        "castCondition": {
          "pose": [1]
        },
        "publicCDGroup": "",
        "ignoreGCD": true,
        "HHAGODJIAPE": "",
        "stateIDs": ["Alert"],
        "skillQueryingTime": 3.0,
        "flagTargetReachable": "10",
        "flagSelfOnTemplateCollider": "01",
        "flagSelfInZone": "10",
        "flagTargetInZone": "11"
      },
      "102": {
        "name": "OnAlert_Combat",
        "priority": 1,
        "castCondition": {
          "pose": [1, 10]
        },
        "publicCDGroup": "",
        "ignoreGCD": true,
        "HHAGODJIAPE": "",
        "stateIDs": ["Alert"],
        "skillQueryingTime": 3.0,
        "flagTargetReachable": "10",
        "flagSelfOnTemplateCollider": "01",
        "flagSelfInZone": "10",
        "flagTargetInZone": "11"
      },
      "111": {
        "name": "CrosslegAlert",
        "skillType": "OnAlert",
        "castCondition": {
          "pose": [9501, 9502, 9503, 9504, 9505, 9506, 9511, 9512, 9555]
        },
        "publicCDGroup": "",
        "ignoreGCD": true,
        "HHAGODJIAPE": "",
        "stateIDs": ["Alert"],
        "skillQueryingTime": 3.0,
        "flagTargetReachable": "10",
        "flagSelfOnTemplateCollider": "01",
        "flagSelfInZone": "10",
        "flagTargetInZone": "11"
      },
      "112": {
        "name": "CrosslegAlert_Combat",
        "castCondition": {
          "pose": [9501, 9502, 9503, 9504, 9505, 9506, 9511, 9512, 9555]
        },
        "publicCDGroup": "",
        "ignoreGCD": true,
        "HHAGODJIAPE": "",
        "stateIDs": ["Alert"],
        "skillQueryingTime": 3.0,
        "flagTargetReachable": "10",
        "flagSelfOnTemplateCollider": "01",
        "flagSelfInZone": "10",
        "flagTargetInZone": "11"
      },
      "121": {
        "name": "TrainingAlert",
        "skillType": "OnAlert",
        "castCondition": {
          "pose": [9007, 9008]
        },
        "publicCDGroup": "",
        "ignoreGCD": true,
        "HHAGODJIAPE": "",
        "stateIDs": ["Alert"],
        "skillQueryingTime": 3.0,
        "flagTargetReachable": "10",
        "flagSelfOnTemplateCollider": "01",
        "flagSelfInZone": "10",
        "flagTargetInZone": "11"
      },
      "122": {
        "name": "TrainingAlert_Combat",
        "castCondition": {
          "pose": [9007, 9008]
        },
        "publicCDGroup": "",
        "ignoreGCD": true,
        "HHAGODJIAPE": "",
        "stateIDs": ["Alert"],
        "skillQueryingTime": 3.0,
        "flagTargetReachable": "10",
        "flagSelfOnTemplateCollider": "01",
        "flagSelfInZone": "10",
        "flagTargetInZone": "11"
      },
      "131": {
        "name": "StandingAlert",
        "skillType": "OnAlert",
        "faceTarget": true,
        "castCondition": {
          "pose": [9001, 9002, 9003, 9004, 9005]
        },
        "publicCDGroup": "",
        "ignoreGCD": true,
        "HHAGODJIAPE": "",
        "stateIDs": ["Alert"],
        "skillQueryingTime": 3.0,
        "flagTargetReachable": "10",
        "flagSelfOnTemplateCollider": "01",
        "flagSelfInZone": "10",
        "flagTargetInZone": "11"
      },
      "132": {
        "name": "StandingAlert_Combat",
        "faceTarget": true,
        "castCondition": {
          "pose": [9001, 9002, 9003, 9004, 9005]
        },
        "publicCDGroup": "",
        "ignoreGCD": true,
        "HHAGODJIAPE": "",
        "stateIDs": ["Alert"],
        "skillQueryingTime": 3.0,
        "flagTargetReachable": "10",
        "flagSelfOnTemplateCollider": "01",
        "flagSelfInZone": "10",
        "flagTargetInZone": "11"
      },
      "201": {
        "name": "Slash",
        "combatSkillType": "MeleeAttack",
        "priority": 2,
        "castCondition": {
          "pose": [1001, 10],
          "pickRangeMax": 5.5
        },
        "cd": 8.0,
        "cdUpperRange": 3.0,
        "publicCDGroup": "",
        "HHAGODJIAPE": "",
        "stateIDs": ["Slash", "Slash_AS", "Slash_BS"],
        "flagTargetReachable": "10",
        "flagSelfOnTemplateCollider": "11",
        "flagSelfInZone": "11",
        "flagTargetInZone": "11"
      },
      "301": {
        "name": "Rush",
        "combatSkillType": "RangedAttack",
        "priority": 3,
        "castCondition": {
          "pose": [1001, 10],
          "pickRangeMin": 6.0,
          "pickRangeMax": 14.0
        },
        "cd": 5.0,
        "cdUpperRange": 3.0,
        "publicCDGroup": "",
        "HHAGODJIAPE": "",
        "stateIDs": [
          "Rush_BS",
          "Rush_Loop",
          "Rush_AS",
          "Slash",
          "Slash_AS",
          "Slash_BS"
        ],
        "flagTargetReachable": "10",
        "flagSelfOnTemplateCollider": "01",
        "flagSelfInZone": "10",
        "flagTargetInZone": "11"
      },
      "90051": {
        "name": "Chat01",
        "skillType": "Free",
        "castCondition": {
          "pose": [9005]
        },
        "cd": 1.0,
        "cdUpperRange": 4.0,
        "publicCDGroup": "",
        "ignoreGCD": true,
        "skillGroupCDID": 1,
        "HHAGODJIAPE": "",
        "stateIDs": ["FreePose_StandingTalk_Skill"],
        "flagTargetReachable": "10",
        "flagSelfOnTemplateCollider": "01",
        "flagSelfInZone": "10",
        "flagTargetInZone": "11"
      },
      "90052": {
        "name": "Chat01",
        "skillType": "Free",
        "castCondition": {
          "pose": [9005]
        },
        "cd": 1.0,
        "cdUpperRange": 4.0,
        "publicCDGroup": "",
        "ignoreGCD": true,
        "skillGroupCDID": 1,
        "HHAGODJIAPE": "",
        "stateIDs": ["FreePose_StandingTalk_Skill"],
        "flagTargetReachable": "10",
        "flagSelfOnTemplateCollider": "01",
        "flagSelfInZone": "10",
        "flagTargetInZone": "11"
      },
      "90053": {
        "name": "Chat01",
        "skillType": "Free",
        "castCondition": {
          "pose": [9005]
        },
        "cd": 1.0,
        "cdUpperRange": 4.0,
        "publicCDGroup": "",
        "ignoreGCD": true,
        "skillGroupCDID": 1,
        "HHAGODJIAPE": "",
        "stateIDs": ["FreePose_StandingTalk_Skill"],
        "flagTargetReachable": "10",
        "flagSelfOnTemplateCollider": "01",
        "flagSelfInZone": "10",
        "flagTargetInZone": "11"
      },
      "95011": {
        "name": "Chat01",
        "skillType": "Free",
        "castCondition": {
          "pose": [9501, 9502]
        },
        "cd": 1.0,
        "cdUpperRange": 4.0,
        "publicCDGroup": "",
        "ignoreGCD": true,
        "skillGroupCDID": 1,
        "HHAGODJIAPE": "",
        "stateIDs": ["FreePose_Crossleg_Chat_Skill"],
        "flagTargetReachable": "10",
        "flagSelfOnTemplateCollider": "01",
        "flagSelfInZone": "10",
        "flagTargetInZone": "11"
      },
      "95012": {
        "name": "Chat02",
        "skillType": "Free",
        "castCondition": {
          "pose": [9501, 9502]
        },
        "cd": 1.0,
        "cdUpperRange": 4.0,
        "initialCD": 12.0,
        "publicCDGroup": "",
        "ignoreGCD": true,
        "skillGroupCDID": 1,
        "HHAGODJIAPE": "",
        "stateIDs": ["FreePose_Crossleg_Chat_Skill"],
        "flagTargetReachable": "10",
        "flagSelfOnTemplateCollider": "01",
        "flagSelfInZone": "10",
        "flagTargetInZone": "11"
      },
      "95031": {
        "name": "Drink",
        "skillType": "Free",
        "castCondition": {
          "pose": [9502, 9503]
        },
        "cd": 12.0,
        "cdUpperRange": 12.0,
        "initialCD": 6.0,
        "publicCDGroup": "",
        "skillGroupCDID": 1,
        "HHAGODJIAPE": "",
        "stateIDs": ["FreePose_Crossleg_Drink_Skill"],
        "flagTargetReachable": "10",
        "flagSelfOnTemplateCollider": "01",
        "flagSelfInZone": "10",
        "flagTargetInZone": "11"
      },
      "95041": {
        "name": "Sleeping",
        "skillType": "Free",
        "castCondition": {
          "pose": [9504]
        },
        "cd": 3.5,
        "cdUpperRange": 8.0,
        "initialCD": 2.0,
        "publicCDGroup": "",
        "HHAGODJIAPE": "",
        "stateIDs": ["FreePose_Crossleg_Sleeping_Skill"],
        "flagTargetReachable": "10",
        "flagSelfOnTemplateCollider": "01",
        "flagSelfInZone": "10",
        "flagTargetInZone": "11"
      },
      "95111": {
        "name": "Gambling",
        "skillType": "Free",
        "castCondition": {
          "pose": [9511]
        },
        "cdUpperRange": 2.0,
        "initialCD": 6.0,
        "publicCDGroup": "",
        "HHAGODJIAPE": "",
        "stateIDs": [
          "FreePose_Crossleg_Gambling_Bet_Skill",
          "FreePose_Crossleg_Gambling_Roll",
          "FreePose_Crossleg_Gambling_Lose",
          "FreePose_Crossleg_Gambling_Win"
        ],
        "flagTargetReachable": "10",
        "flagSelfOnTemplateCollider": "01",
        "flagSelfInZone": "10",
        "flagTargetInZone": "11"
      }
    },
    "skillGCD": 3.0,
    "birdCirclingTactic": [
      {
        "$type": "EPHBMLFODKF",
        "enable": true,
        "condition": {
          "pose": [1001, 10]
        },
        "JMCOBEPDIGM": {
          "rangeMin": 5.300000190734863,
          "rangeMax": 8.800000190734863,
          "BFJBDDIIFOI": {
            "LLICGJHIGME": 3.0,
            "IBLIPJPNOGC": 3.0
          },
          "NAOBMNGDKHL": "1111",
          "JCNIJOAIGII": "1111",
          "MNPDDAKDHGK": ""
        }
      },
      {
        "$type": "OJOBEDCMGKM",
        "enable": true,
        "condition": {
          "pose": [1]
        }
      },
      {
        "$type": "KACCHOLJDNK",
        "enable": true,
        "condition": {
          "pose": [1001, 10]
        },
        "JMCOBEPDIGM": {
          "KHDFDAAAPEI": 20.0,
          "HKJODDGJPHA": 50.0,
          "GGEBMFHFBPO": 12.0,
          "KFFGCIMPNMJ": 16.0,
          "MNPDDAKDHGK": ""
        }
      },
      {
        "$type": "NNJKLGNPMNN",
        "enable": true,
        "JMCOBEPDIGM": {
          "MNPDDAKDHGK": "",
          "GJDMDHIBCME": ""
        }
      },
      {
        "$type": "FPELBIJFGCE",
        "enable": true,
        "condition": {
          "pose": [1]
        },
        "JMCOBEPDIGM": {
          "KPNDPKIOPJM": 3.0,
          "PINAFKEDDLL": 1.5,
          "ANMPOPEBDIA": 15.0,
          "GMJFIMFFOEL": 3.75,
          "CHCPFDMADEI": 7.5,
          "MNPDDAKDHGK": ""
        }
      }
    ]
  },
  "inputKeys": [
    {
      "keyID": 201,
      "inputKeyCode": 258,
      "abilityName": ""
    },
    {
      "keyID": 301,
      "inputKeyCode": 259,
      "abilityName": ""
    }
  ],
  "move": {
    "$type": "IPNMJMHDMPF",
    "facingMove": "FourDirection",
    "monsterSizeType": "StoopType",
    "PKHOMJHFAEE": "RootNode"
  },
  "audio": {
    "overrideEmitterName": "",
    "animAudio": {
      "onTransitionIn": [
        {
          "currentStateName": "Crossleg_PlayDaff_Idle",
          "audioEvent": {
            "text": "Play_sfx_monster_Eremite_freePose_playDaff_Loop"
          },
          "otherStateNames": ["Crossleg_PlayDaff_Idle"],
          "usage": "Except"
        },
        {
          "currentStateName": "Crossleg_PlayOud_Loop",
          "audioEvent": {
            "text": "Play_sfx_monster_Eremite_freePose_playDaff_Loop_oud"
          },
          "otherStateNames": ["Crossleg_PlayOud_Loop"],
          "usage": "Except"
        }
      ],
      "onTransitionOut": [
        {
          "currentStateName": "Crossleg_PlayDaff_Idle",
          "audioEvent": {
            "text": "Stop_sfx_monster_Eremite_freePose_playDaff_Loop"
          },
          "otherStateNames": ["Crossleg_PlayDaff_Idle"],
          "usage": "Except"
        },
        {
          "currentStateName": "Crossleg_Chat01_Skill",
          "audioEvent": {
            "text": "Stop_sfx_monster_Human_Male_Standard_Pole_crossleg_chat01"
          }
        },
        {
          "currentStateName": "Crossleg_Chat02_Skill",
          "audioEvent": {
            "text": "Stop_sfx_monster_Human_Male_Standard_Pole_crossleg_chat02"
          }
        },
        {
          "currentStateName": "Crossleg_Drink_Skill",
          "audioEvent": {
            "text": "Stop_sfx_monster_Human_Male_Standard_Pole_crossleg_drink"
          }
        },
        {
          "currentStateName": "Crossleg_Gambling_Bet_Skill",
          "audioEvent": {
            "text": "Stop_sfx_monster_Human_Male_Standard_Pole_gambling_bet"
          }
        },
        {
          "currentStateName": "Crossleg_Gambling_Roll",
          "audioEvent": {
            "text": "Stop_sfx_monster_Human_Male_Standard_Pole_gambling_roll"
          }
        },
        {
          "currentStateName": "Crossleg_Gambling_Lose",
          "audioEvent": {
            "text": "Stop_sfx_monster_Human_Male_Standard_Pole_NoWeapon_gambling_lose"
          }
        },
        {
          "currentStateName": "Crossleg_Gambling_Win",
          "audioEvent": {
            "text": "Stop_sfx_monster_Human_Male_Standard_Pole_NoWeapon_gambling_win"
          }
        },
        {
          "currentStateName": "Crossleg_PlayOud_Loop",
          "audioEvent": {
            "text": "Stop_sfx_monster_Eremite_freePose_playDaff_Loop_oud"
          },
          "otherStateNames": ["Crossleg_PlayOud_Loop"],
          "usage": "Except"
        }
      ]
    }
  }
}
