{
  "common": {
    "effectAttachShape": {
      "$type": "FJNPJANPGGC",
      "mesh": "EffectMesh"
    },
    "mass": 10000.0,
    "height": 2.5,
    "modelHeight": 4.0,
    "viewSize": 3.0,
    "affectedByWorld": true,
    "checkInSurface": true,
    "scale": 0.699999988079071,
    "useGrassDisplacement": true,
    "reconnectSupport": true,
    "recoverByInitPose": true
  },
  "headControl": {
    "$type": "KPIPDEBDPIH",
    "useHeadControl": true,
    "maxYawDegree": 20.0,
    "maxPitchDegree": 20.0,
    "animStates": [
      "NormalIdle/Standby",
      "NormalMove/WalkForward",
      "NormalMove/WalkBack",
      "NormalMove/WalkRight",
      "NormalMove/WalkLeft",
      "NormalMove/Run",
      "TurnLeft/TurnLeft_BS",
      "TurnLeft/TurnLeft_AS",
      "TurnRight/TurnRight_BS",
      "TurnRight/TurnRight_AS"
    ]
  },
  "dither": {
    "showDitherDuration": 2.0
  },
  "combat": {
    "property": {
      "endureType": "Monster_Boss_Other",
      "weight": 250.0
    },
    "beHit": {
      "hitBloodEffect": ""
    },
    "combatLock": {
      "lockShape": "CircleLockEnemy",
      "lockType": "Avatar&Monster_Lv4"
    },
    "die": {
      "hasAnimatorDie": true,
      "dieEndTime": 1.5,
      "dieForceDisappearTime": 2.5,
      "dieDisappearEffect": "Eff_Death_Common",
      "dieShaderData": "MonsterDie",
      "muteHitBox": true,
      "dieDenyLockOn": true,
      "dieIsGhostToEnemy": true,
      "dieIgnoreTriggerBullet": true,
      "muteBillboard": true,
      "mutePushCollider": true
    },
    "animEvents": {
      "NormalAtk01_Ice": {
        "attackPattern": {
          "$type": "ConfigAttackCircle",
          "triggerType": "TriggerNoRepeat",
          "born": {
            "$type": "ConfigBornBySelf",
            "offset": {
              "x": 1.2000000476837158,
              "y": 0.0,
              "z": 0.800000011920929
            },
            "direction": {
              "$type": "ConfigDirectionByEntity",
              "angleOffset": {
                "x": 0.0,
                "y": 70.0,
                "z": 0.0
              }
            }
          },
          "height": 3.0,
          "fanAngle": 270.0,
          "radius": 4.5
        },
        "attackInfo": {
          "attackTag": "",
          "attenuationTag": "",
          "attenuationGroup": "default",
          "attackProperty": {
            "actorGrassSubHurtDelta": 0.4000000059604645,
            "actorWindSubHurtDelta": 0.0,
            "elementType": "Ice",
            "elementDurability": 25.0,
            "strikeType": "Blunt",
            "enBreak": 50.0,
            "GLKMCMDJBIK": 0.0
          },
          "hitPattern": {
            "onHitEffectName": "default",
            "hitImpulseY": "",
            "hitImpulseType": "LV3"
          },
          "cameraShake": {
            "shakeType": "CustomVector",
            "shakeRange": 0.11999999731779099,
            "shakeTime": 0.09000000357627869,
            "shakeDistance": 25.0,
            "shakeDir": {
              "x": 1.0,
              "z": 1.0
            }
          }
        }
      },
      "NormalAtk02_Ice": {
        "attackPattern": {
          "$type": "ConfigAttackBox",
          "triggerType": "TriggerNoRepeat",
          "born": {
            "$type": "ConfigBornBySelf",
            "offset": {
              "x": -0.5659999847412109,
              "y": 1.0,
              "z": -2.381999969482422
            }
          },
          "size": {
            "x": 4.0,
            "y": 2.0,
            "z": 9.0
          }
        },
        "attackInfo": {
          "attackTag": "",
          "attenuationTag": "",
          "attenuationGroup": "default",
          "attackProperty": {
            "actorGrassSubHurtDelta": 0.5,
            "actorWindSubHurtDelta": 0.0,
            "elementType": "Ice",
            "elementDurability": 25.0,
            "strikeType": "Blunt",
            "enBreak": 200.0,
            "GLKMCMDJBIK": 0.0
          },
          "hitPattern": {
            "onHitEffectName": "default",
            "hitImpulseY": "",
            "hitImpulseType": "LV4",
            "retreatType": "ByHitDirectionInverse"
          },
          "cameraShake": {
            "shakeType": "CustomVector",
            "shakeRange": 0.20000000298023224,
            "shakeTime": 0.23999999463558197,
            "shakeDistance": 25.0,
            "shakeDir": {
              "y": -1.0
            }
          }
        }
      },
      "JumpAtk": {
        "attackPattern": {
          "$type": "ConfigAttackCircle",
          "triggerType": "TriggerNoRepeat",
          "born": {
            "$type": "ConfigBornBySelf",
            "offset": {
              "x": 0.0,
              "y": 0.0,
              "z": 0.0
            }
          },
          "height": 3.0,
          "radius": 3.5
        },
        "attackInfo": {
          "attackTag": "",
          "attenuationTag": "",
          "attenuationGroup": "default",
          "attackProperty": {
            "actorGrassSubHurtDelta": 0.4000000059604645,
            "actorWindSubHurtDelta": 0.0,
            "elementType": "Ice",
            "elementDurability": 25.0,
            "strikeType": "Blunt",
            "enBreak": 200.0,
            "GLKMCMDJBIK": 0.0
          },
          "hitPattern": {
            "onHitEffectName": "default",
            "hitImpulseY": "",
            "hitImpulseType": "LV4"
          },
          "forceCameraShake": true,
          "cameraShake": {
            "shakeType": "CustomVector",
            "shakeRange": 0.36000001430511475,
            "shakeTime": 0.23999999463558197,
            "shakeDistance": 25.0,
            "shakeDir": {
              "y": -1.0
            }
          }
        }
      }
    }
  },
  "abilities": [
    {
      "abilityID": "",
      "abilityName": "Monster_Drake_Rock_IceEnhance_SP",
      "abilityOverride": ""
    },
    {
      "abilityID": "",
      "abilityName": "Monster_Drake_Rock_IceEnhance_SlapGround01_SP",
      "abilityOverride": ""
    },
    {
      "abilityID": "",
      "abilityName": "Monster_Drake_Rock_IceEnhance_SlapGround02_SP",
      "abilityOverride": ""
    },
    {
      "abilityID": "",
      "abilityName": "Monster_Drake_Rock_IceEnhance_SlapGround03_SP",
      "abilityOverride": ""
    },
    {
      "abilityID": "",
      "abilityName": "Monster_Drake_Rock_JumpAtk_Alert_SP",
      "abilityOverride": ""
    },
    {
      "abilityID": "Monster_Drake_Rock_CrushAtk_Reset",
      "abilityName": "Monster_Drake_Rock_CrushAtk_Reset",
      "abilityOverride": ""
    },
    {
      "abilityID": "Monster_Drake_Rock_CrushAtkNoHit",
      "abilityName": "Monster_Drake_Rock_CrushAtkNoHit",
      "abilityOverride": ""
    },
    {
      "abilityID": "Monster_Drake_Rock_AnimationSteer",
      "abilityName": "Monster_Drake_Rock_AnimationSteer",
      "abilityOverride": ""
    },
    {
      "abilityID": "",
      "abilityName": "Monster_Drake_Rock_IceEnhance_ScaleShot_SP",
      "abilityOverride": ""
    },
    {
      "abilityID": "",
      "abilityName": "Monster_Drake_Rock_CrushAtkBSJump_SP",
      "abilityOverride": ""
    },
    {
      "abilityID": "",
      "abilityName": "Monster_Drake_Rock_IceEnhance_Breathe_SP",
      "abilityOverride": ""
    },
    {
      "abilityID": "",
      "abilityName": "Monster_Drake_Rock_BreatheAtkBS_SP",
      "abilityOverride": ""
    },
    {
      "abilityID": "",
      "abilityName": "Monster_Drake_Rock_CheckAlliance_SP",
      "abilityOverride": ""
    },
    {
      "abilityID": "",
      "abilityName": "Monster_Drake_Rock_ComboBreatheWait_Ice",
      "abilityOverride": ""
    },
    {
      "abilityID": "",
      "abilityName": "Monster_Drake_Rock_ComboCrushAtkWait_Ice",
      "abilityOverride": ""
    },
    {
      "abilityID": "",
      "abilityName": "Monster_Drake_Rock_FakeDeath",
      "abilityOverride": ""
    },
    {
      "abilityID": "",
      "abilityName": "Monster_Drake_Rock_ResistDebuff",
      "abilityOverride": ""
    },
    {
      "abilityID": "",
      "abilityName": "Monster_Drake_Rock_CrushAtkCharging_SP",
      "abilityOverride": ""
    },
    {
      "abilityID": "",
      "abilityName": "Monster_Drake_Rock_ClearGound_SP",
      "abilityOverride": ""
    }
  ],
  "stateLayers": {
    "defaultLayer": {
      "$type": "GBGJJIIEMBD",
      "layerIndexName": "",
      "CPAANEIJCGD": "",
      "stateIDs": {
        "NormalIdle": {
          "$type": "NEDIFAKEGCO",
          "animatorStates": {
            "Standby": [],
            "Born": []
          },
          "canDoSkill": true,
          "canSyncMove": true,
          "resetAnimatorTriggerOnExit": ["DoSkill"]
        },
        "NormalMove": {
          "$type": "NEDIFAKEGCO",
          "animatorStates": {
            "WalkForward": ["Audio_Drake_Rock_WalkForward"],
            "WalkBack": ["Audio_Drake_Rock_WalkForward"],
            "WalkRight": ["Audio_Drake_Rock_WalkForward"],
            "WalkLeft": ["Audio_Drake_Rock_WalkForward"],
            "WalkFree": ["Audio_Drake_Rock_WalkFree"],
            "Run": ["Monster_Drake_Rock_Run", "Audio_Drake_Rock_Run"]
          },
          "canDoSkill": true,
          "canSyncMove": true,
          "resetAnimatorTriggerOnExit": ["DoSkill"],
          "canSteer": true
        },
        "Turn": {
          "$type": "NEDIFAKEGCO",
          "animatorStates": {
            "Turn": []
          },
          "canDoSkill": true,
          "canSyncMove": true,
          "resetAnimatorTriggerOnExit": ["DoSkill"]
        },
        "BeHit": {
          "$type": "NEDIFAKEGCO",
          "animatorStates": {
            "Hit_L": ["Audio_Drake_Rock_Hit_L"],
            "Hit_H": ["Audio_Drake_Rock_Hit_H"]
          },
          "resetAnimatorTriggerOnEnter": ["BeHit"],
          "resetAnimatorTriggerOnExit": ["DoSkill"]
        },
        "BeHitThrow": {
          "$type": "NEDIFAKEGCO",
          "animatorStates": {
            "HitThrow": [],
            "HitThrowDrop": [],
            "HitThrowToGround": []
          },
          "resetAnimatorTriggerOnEnter": ["BeHit", "HitAir2HitDrop"],
          "resetAnimatorTriggerOnExit": ["DoSkill"]
        },
        "Struggle": {
          "$type": "NEDIFAKEGCO",
          "animatorStates": {
            "Struggle": []
          },
          "resetAnimatorTriggerOnEnter": ["BeHit", "HitAir2HitDrop"],
          "resetAnimatorTriggerOnExit": ["DoSkill"]
        },
        "Die": {
          "$type": "NEDIFAKEGCO",
          "animatorStates": {
            "Die_01": ["Audio_Drake_Rock_Die"],
            "Die_02": [],
            "SwimDie": [],
            "SwimDie_AS": []
          },
          "resetAnimatorTriggerOnEnter": ["DoSkill"]
        },
        "Die_RagDoll": {
          "$type": "NEDIFAKEGCO",
          "animatorStates": {
            "Die_RagDoll_01": [],
            "Die_RagDoll_02": [],
            "AirDie": ["Audio_Drake_Rock_AirDie"]
          },
          "resetAnimatorTriggerOnEnter": ["DoSkill"]
        },
        "Alert": {
          "$type": "NEDIFAKEGCO",
          "animatorStates": {
            "Alert": [
              "Monster_Drake_Rock_Alert_Ice_SP",
              "Audio_Drake_Rock_Alert_Special"
            ]
          },
          "addEndure": 0.0,
          "resetAnimatorTriggerOnExit": ["BeHit", "DoSkill"]
        },
        "NormalAtk01": {
          "$type": "NEDIFAKEGCO",
          "animatorStates": {
            "NormalAtk01": [
              "Monster_Drake_Rock_NormalAtk01_Ice_SP",
              "Audio_Drake_Rock_NormalAtk01"
            ]
          },
          "massRatio": 20.0,
          "resetAnimatorTriggerOnExit": ["BeHit", "DoSkill"]
        },
        "NormalAtk02": {
          "$type": "NEDIFAKEGCO",
          "animatorStates": {
            "NormalAtk02": [
              "Monster_Drake_Rock_NormalAtk02_Ice_SP",
              "Audio_Drake_Rock_NormalAtk02"
            ]
          },
          "massRatio": 20.0,
          "resetAnimatorTriggerOnExit": ["BeHit", "DoSkill"]
        },
        "SlapGround01": {
          "$type": "NEDIFAKEGCO",
          "animatorStates": {
            "SlapGround01": [
              "Monster_Drake_Rock_SlapGround01_Ice_SP",
              "Audio_Drake_Rock_Ice_SlapGround01_Special"
            ]
          },
          "cullingModelAlwaysAnimate": true,
          "massRatio": 20.0,
          "resetAnimatorTriggerOnExit": ["BeHit", "DoSkill"]
        },
        "SlapGround02": {
          "$type": "NEDIFAKEGCO",
          "animatorStates": {
            "SlapGround02": [
              "Monster_Drake_Rock_SlapGround02_Ice_SP",
              "Audio_Drake_Rock_Ice_SlapGround02_Special"
            ]
          },
          "cullingModelAlwaysAnimate": true,
          "massRatio": 20.0,
          "resetAnimatorTriggerOnExit": ["BeHit", "DoSkill"]
        },
        "SlapGround03": {
          "$type": "NEDIFAKEGCO",
          "animatorStates": {
            "SlapGround03": [
              "Monster_Drake_Rock_SlapGround03_Ice_SP",
              "Audio_Drake_Rock_Ice_SlapGround03_Special"
            ]
          },
          "cullingModelAlwaysAnimate": true,
          "massRatio": 20.0,
          "resetAnimatorTriggerOnExit": ["BeHit", "DoSkill"]
        },
        "CrushAtkBS": {
          "$type": "NEDIFAKEGCO",
          "animatorStates": {
            "CrushAtkBS": [
              "Monster_Drake_Rock_CrushAtkBS_Ice",
              "Audio_Drake_Rock_CrushAtkBS"
            ],
            "CrushAtkBSAlert": [
              "Monster_Drake_Rock_CrushAtkBS_Alert_Ice_SP",
              "Audio_Drake_Rock_ElementEnhance"
            ]
          },
          "addEndure": 0.0,
          "resetAnimatorTriggerOnExit": ["BeHit", "DoSkill"]
        },
        "CrushJumpBS": {
          "$type": "NEDIFAKEGCO",
          "animatorStates": {
            "CrushJumpBS": ["Audio_Drake_Rock_JumpAtkBS"]
          },
          "addEndure": 0.0,
          "massRatio": 20.0,
          "resetAnimatorTriggerOnEnter": ["HitOnShield", "ChargingEnd"],
          "resetAnimatorTriggerOnExit": ["BeHit", "DoSkill"]
        },
        "CrushAtkBSJump": {
          "$type": "NEDIFAKEGCO",
          "animatorStates": {
            "CrushAtkBSJump": [
              "Monster_Drake_Rock_CrushAtkBSJump_Ice_SP",
              "Audio_Drake_Rock_Ice_CrushAtkBS"
            ]
          },
          "addEndure": 0.0,
          "massRatio": 20.0,
          "resetAnimatorTriggerOnExit": ["BeHit", "DoSkill"],
          "handleAnimatorStateImmediately": true
        },
        "CrushAtkSteer": {
          "$type": "NEDIFAKEGCO",
          "animatorStates": {
            "CrushAtkSteer": []
          },
          "addEndure": 0.0,
          "resetAnimatorTriggerOnExit": ["BeHit", "DoSkill"]
        },
        "CrushAtkCharging": {
          "$type": "NEDIFAKEGCO",
          "animatorStates": {
            "CrushAtkCharging": []
          },
          "addEndure": 0.0,
          "resetAnimatorTriggerOnExit": ["BeHit", "DoSkill"],
          "handleAnimatorStateImmediately": true
        },
        "CrushAtkFailed": {
          "$type": "NEDIFAKEGCO",
          "animatorStates": {
            "CrushAtkFailed": [
              "Monster_Drake_Rock_CrushAtkFailed",
              "Audio_Drake_Rock_CrushAtkFailed"
            ]
          },
          "canDoSkill": true,
          "addEndure": 0.0,
          "resetAnimatorTriggerOnExit": ["BeHit", "DoSkill", "HitOnShield"],
          "canSteer": true,
          "followAnimRotation": true
        },
        "CrushAtkNoHit": {
          "$type": "NEDIFAKEGCO",
          "animatorStates": {
            "CrushAtkNohit": [
              "Monster_Drake_Rock_CrushAtkNoHit",
              "Audio_Drake_Rock_CrushAtkNohit"
            ]
          },
          "canDoSkill": true,
          "addEndure": 0.0,
          "resetAnimatorTriggerOnExit": ["BeHit", "DoSkill", "ChargingEnd"],
          "canSteer": true,
          "followAnimRotation": true
        },
        "ScaleShot": {
          "$type": "NEDIFAKEGCO",
          "animatorStates": {
            "ScaleShot": [
              "Monster_Drake_Rock_IceEnhance_ScaleShot_SP",
              "Audio_Drake_Rock_Ice_ScaleShot_Special"
            ]
          },
          "addEndure": 0.699999988079071,
          "massRatio": 20.0,
          "resetAnimatorTriggerOnExit": ["BeHit", "DoSkill"],
          "canSteer": true
        },
        "BreatheJumpBS": {
          "$type": "NEDIFAKEGCO",
          "animatorStates": {
            "BreatheJumpBS": ["Audio_Drake_Rock_JumpAtkBS"]
          },
          "addEndure": 0.0,
          "massRatio": 20.0,
          "resetAnimatorTriggerOnExit": ["BeHit", "DoSkill"]
        },
        "BreatheAtkBS": {
          "$type": "NEDIFAKEGCO",
          "animatorStates": {
            "BreatheAtkBS": [
              "Monster_Drake_Rock_BreatheAtkBS_Ice_SP",
              "Audio_Drake_Rock_Ice_JumpAtk_Special"
            ]
          },
          "addEndure": 0.0,
          "massRatio": 20.0,
          "resetAnimatorTriggerOnExit": ["BeHit", "DoSkill"],
          "handleAnimatorStateImmediately": true
        },
        "ElementBreathe": {
          "$type": "NEDIFAKEGCO",
          "animatorStates": {
            "ElementBreathe": ["Audio_Drake_Rock_Ice_ElementBreathe"]
          },
          "addEndure": 0.0,
          "massRatio": 20.0,
          "resetAnimatorTriggerOnExit": ["BeHit", "DoSkill"]
        },
        "GoDying": {
          "$type": "NEDIFAKEGCO",
          "animatorStates": {
            "GoDying": ["Audio_Monster_Drake_Deepsea_Common_Die_01"]
          },
          "addEndure": 0.0,
          "resetAnimatorTriggerOnEnter": ["GoDying"],
          "resetAnimatorTriggerOnExit": ["BeHit", "DoSkill", "GoDying"]
        },
        "Dying": {
          "$type": "NEDIFAKEGCO",
          "animatorStates": {
            "Dying": []
          },
          "addEndure": 0.0,
          "resetAnimatorTriggerOnExit": ["BeHit", "DoSkill"]
        },
        "BackToLife": {
          "$type": "NEDIFAKEGCO",
          "animatorStates": {
            "BackToLife": ["Audio_Monster_Drake_Deepsea_Common_BackToLife"]
          },
          "addEndure": 0.0,
          "resetAnimatorTriggerOnExit": ["BeHit", "DoSkill"]
        },
        "ReturnPerform": {
          "$type": "NEDIFAKEGCO",
          "animatorStates": {
            "ReturnPerform": [
              "Monster_Drake_Rock_ReturnPerform_Alert_Ice_SP",
              "Audio_Drake_Rock_Alert_Special"
            ]
          },
          "resetAnimatorTriggerOnExit": ["BeHit", "DoSkill"]
        }
      }
    }
  },
  "billboard": {
    "$type": "DNGNMAJBCNP",
    "attachPoint": "BillboardAttach",
    "offset": {
      "y": 0.30000001192092896,
      "z": 0.5
    },
    "offsetType": "Character",
    "radiusOffset": 0.6000000238418579,
    "size": "Grand"
  },
  "initialPoses": {
    "Default": {}
  },
  "aibeta": {
    "enable": true,
    "sensing": {
      "settings": {
        "DefaultSetting": {
          "viewRange": 20.0,
          "verticalFov": 45.0,
          "feelRange": 10.0
        },
        "HighAlert": {
          "viewRange": 40.0,
          "verticalFov": 45.0,
          "feelRange": 30.0
        },
        "NeverCombat": {
          "enableVision": false,
          "hearAttractionRange": 0.0,
          "feelRange": 0.0
        }
      },
      "templates": {
        "DefaultTemplate": {
          "DefaultPoses": "DefaultSetting"
        },
        "HighAlertTemplate": {
          "DefaultPoses": "HighAlert"
        },
        "NeverCombatTemplate": {
          "DefaultPoses": "NeverCombat"
        }
      }
    },
    "neurons": {
      "DefaultSetting": ["HIT"],
      "NeverCombat": []
    },
    "threat": {
      "GHIJMOKOLMB": "",
      "clearThreatByLostPath": true,
      "clearThreatByTargetOutOfZone": true,
      "clearThreatTimerByLostPath": 11.0,
      "resistTauntLevel": "Monster_TauntLevel_4",
      "auxScoreChangeTargetCD": 2.0,
      "abilityGlobalValueScoreSystem": {
        "weight": 80,
        "max": 1.0,
        "compareOperation": "Greater",
        "enable": true,
        "caredGlobalValueName": "_DRAKE_ROCK_TARGET"
      },
      "targetDistanceScoreSystem": {
        "weight": 20,
        "value": 15.0,
        "max": 30.0,
        "enable": true
      }
    },
    "defendArea": {},
    "profiling": {},
    "skillGroupCDConfigs": [
      {
        "skillGroupCDID": 220,
        "skillGroupCDTime": 12.0
      }
    ],
    "skills": {
      "101": {
        "name": "OnAlert",
        "skillType": "OnAlert",
        "faceTarget": true,
        "publicCDGroup": "",
        "ignoreGCD": true,
        "triggerGCD": false,
        "HHAGODJIAPE": "",
        "stateIDs": ["Alert"],
        "skillQueryingTime": 3.0,
        "flagTargetReachable": "10",
        "flagSelfOnTemplateCollider": "01",
        "flagSelfInZone": "10",
        "flagTargetInZone": "11"
      },
      "102": {
        "name": "ComboAlert",
        "priority": 1,
        "faceTarget": true,
        "castCondition": {
          "pose": [231]
        },
        "cd": 60.0,
        "publicCDGroup": "",
        "ignoreGCD": true,
        "triggerGCD": false,
        "HHAGODJIAPE": "",
        "stateIDs": ["Alert"],
        "flagTargetReachable": "10",
        "flagSelfOnTemplateCollider": "01",
        "flagSelfInZone": "10",
        "flagTargetInZone": "11"
      },
      "201": {
        "name": "NormalAtk",
        "priority": 2,
        "faceTarget": true,
        "enableSkillPrepare": true,
        "castCondition": {
          "pose": [231, 222, 201],
          "maxTargetAngleXZ": 180.0,
          "maxTargetAngleY": 45.0,
          "pickRangeMax": 5.0,
          "castRangeMax": 4.0
        },
        "cd": 5.0,
        "publicCDGroup": "",
        "ignoreGCD": true,
        "HHAGODJIAPE": "",
        "stateIDs": ["NormalAtk01", "NormalAtk02"],
        "flagTargetReachable": "10",
        "flagSelfOnTemplateCollider": "01",
        "flagSelfInZone": "10",
        "flagTargetInZone": "11"
      },
      "211": {
        "name": "SlapGround",
        "priority": 3,
        "enableSkillPrepare": true,
        "castCondition": {
          "pose": [231, 222, 201],
          "maxTargetAngleXZ": 180.0,
          "pickRangeMax": 20.0
        },
        "cd": 15.0,
        "cdUpperRange": 8.0,
        "publicCDGroup": "",
        "HHAGODJIAPE": "",
        "stateIDs": ["SlapGround01", "SlapGround02", "SlapGround03"],
        "flagTargetReachable": "11",
        "flagSelfOnTemplateCollider": "01",
        "flagSelfInZone": "10",
        "flagTargetInZone": "11"
      },
      "221": {
        "name": "ScaleShot",
        "priority": 2,
        "castCondition": {
          "pose": [231, 222, 201],
          "maxTargetAngleXZ": 180.0,
          "maxTargetAngleY": 45.0,
          "pickRangeMax": 20.0
        },
        "cd": 8.0,
        "initialCD": 10.0,
        "publicCDGroup": "",
        "HHAGODJIAPE": "",
        "stateIDs": ["ScaleShot"],
        "flagTargetReachable": "11",
        "flagSelfOnTemplateCollider": "01",
        "flagSelfInZone": "11",
        "flagTargetInZone": "11"
      },
      "231": {
        "name": "Combo_ElementBreathe",
        "priority": 1,
        "castCondition": {
          "pose": [222],
          "pickRangeMax": 99.0,
          "globalValues": [
            "_DRAKE_ROCK_ALLIANCE_ALIVE",
            "_DRAKE_ROCK_COMBO_READY",
            "_DRAKE_ROCK_NOT_LOCK",
            "_DRAKE_ROCK_BOTH_ALERT"
          ],
          "globalValuesTargetType": "SELF"
        },
        "cd": 25.0,
        "initialCD": 30.0,
        "publicCDGroup": "",
        "skillGroupCDID": 220,
        "ignoreDynamicCD": true,
        "HHAGODJIAPE": "",
        "stateIDs": ["BreatheAtkBS", "BreatheJumpBS", "ElementBreathe"],
        "flagTargetReachable": "10",
        "flagSelfOnTemplateCollider": "01",
        "flagSelfInZone": "10",
        "flagTargetInZone": "11"
      },
      "241": {
        "name": "Combo_CrushAtk",
        "priority": 1,
        "castCondition": {
          "pose": [222],
          "pickRangeMax": 99.0,
          "globalValues": [
            "_DRAKE_ROCK_ALLIANCE_ALIVE",
            "_DRAKE_ROCK_COMBO_READY",
            "_DRAKE_ROCK_NOT_LOCK",
            "_DRAKE_ROCK_IN_FIELD",
            "_DRAKE_ROCK_BOTH_ALERT"
          ],
          "globalValuesTargetType": "SELF"
        },
        "cd": 25.0,
        "initialCD": 10.0,
        "publicCDGroup": "",
        "skillGroupCDID": 220,
        "ignoreDynamicCD": true,
        "HHAGODJIAPE": "",
        "stateIDs": [
          "CrushJumpBS",
          "CrushAtkBSJump",
          "CrushAtkBS",
          "CrushAtkSteer",
          "CrushAtkCharging",
          "CrushAtkFailed",
          "CrushAtkNoHit"
        ],
        "flagTargetReachable": "10",
        "flagSelfOnTemplateCollider": "01",
        "flagSelfInZone": "10",
        "flagTargetInZone": "11"
      }
    },
    "skillGCD": 2.0,
    "birdCirclingTactic": [
      {
        "$type": "EPHBMLFODKF",
        "enable": true,
        "condition": {
          "pose": [201, 222, 231]
        },
        "JMCOBEPDIGM": {
          "rangeMin": 7.5,
          "rangeMax": 15.0,
          "BFJBDDIIFOI": {
            "LLICGJHIGME": 0.0,
            "AEBLMKFNCDG": 3.0,
            "IGLIBIOEGBB": 3.0
          },
          "NAOBMNGDKHL": "1111",
          "JCNIJOAIGII": "1111",
          "MNPDDAKDHGK": ""
        }
      },
      {
        "$type": "KACCHOLJDNK",
        "enable": true,
        "condition": {
          "pose": [201, 222, 231]
        },
        "JMCOBEPDIGM": {
          "KHDFDAAAPEI": 20.0,
          "HKJODDGJPHA": 99.0,
          "GGEBMFHFBPO": 15.0,
          "KFFGCIMPNMJ": 15.0,
          "MNPDDAKDHGK": ""
        }
      },
      {
        "$type": "NNJKLGNPMNN",
        "enable": true,
        "JMCOBEPDIGM": {
          "OJGLKPBCLGB": 3.5,
          "MNPDDAKDHGK": "",
          "GJDMDHIBCME": ""
        }
      },
      {
        "$type": "FPELBIJFGCE",
        "enable": true,
        "condition": {
          "pose": [101]
        },
        "JMCOBEPDIGM": {
          "NBENNEKDIIA": 0.20000000298023224,
          "KPNDPKIOPJM": 7.5,
          "PINAFKEDDLL": 5.0,
          "ANMPOPEBDIA": 10.0,
          "GMJFIMFFOEL": 3.0,
          "CHCPFDMADEI": 5.0,
          "MNPDDAKDHGK": ""
        }
      }
    ]
  },
  "inputKeys": [
    {
      "keyID": 101,
      "inputKeyCode": 257,
      "abilityName": ""
    },
    {
      "keyID": 201,
      "inputKeyCode": 258,
      "abilityName": ""
    },
    {
      "keyID": 211,
      "inputKeyCode": 259,
      "abilityName": ""
    },
    {
      "keyID": 221,
      "inputKeyCode": 260,
      "abilityName": ""
    },
    {
      "keyID": 231,
      "inputKeyCode": 261,
      "abilityName": ""
    },
    {
      "keyID": 241,
      "inputKeyCode": 262,
      "abilityName": ""
    },
    {
      "keyID": 251,
      "inputKeyCode": 263,
      "abilityName": ""
    },
    {
      "keyID": 252,
      "inputKeyCode": 264,
      "abilityName": ""
    },
    {
      "keyID": 253,
      "inputKeyCode": 265,
      "abilityName": ""
    }
  ],
  "move": {
    "$type": "IPNMJMHDMPF",
    "facingMove": "FourDirection",
    "PKHOMJHFAEE": "RootNode"
  },
  "audio": {
    "overrideEmitterName": "",
    "animAudio": {
      "onTransitionIn": [
        {
          "currentStateName": "CrushAtkSteer",
          "audioEvent": {
            "text": "Play_Sfx_Monster_Drake_Rock_Ice_CrushAtkSteer_LP"
          },
          "otherStateNames": ["CrushAtkSteer"],
          "usage": "Except"
        }
      ],
      "onTransitionOut": [
        {
          "currentStateName": "CrushAtkSteer",
          "audioEvent": {
            "text": "Stop_Sfx_Monster_Drake_Rock_Ice_CrushAtkSteer_LP"
          },
          "otherStateNames": ["CrushAtkSteer"],
          "usage": "Except"
        }
      ]
    }
  }
}
