{
  "common": {
    "mass": 10.0,
    "height": 0.5,
    "affectedByWorld": true,
    "checkInSurface": true,
    "canTriggerElementReactionText": false,
    "reconnectSupport": true,
    "recoverByInitPose": true
  },
  "model": {
    "bornEffect": "",
    "attachEffect": "",
    "canBakeMesh": false,
    "BKPFGNPLDNJ": ""
  },
  "combat": {
    "property": {
      "endureType": "Monster_Slime",
      "weight": 20.0,
      "isLockHP": true,
      "denyElementStick": true
    },
    "beHit": {
      "hitBloodEffect": "",
      "muteAllHitText": true,
      "muteAttackerHitHalt": true,
      "muteDefenceHitHalt": true
    },
    "combatLock": {
      "lockShape": "CircleLockEnemy",
      "denyLockOn": true,
      "lockType": "Default"
    },
    "die": {
      "dieForceDisappearTime": 0.0,
      "dieDisappearEffect": "",
      "startDieEndAtOnce": true,
      "notSendDieTrigger": true
    }
  },
  "abilities": [
    {
      "abilityID": "",
      "abilityName": "BoltBug_MachinaIustitia_LogicHandler",
      "abilityOverride": ""
    }
  ],
  "stateLayers": {
    "defaultLayer": {
      "$type": "GBGJJIIEMBD",
      "layerIndexName": "",
      "CPAANEIJCGD": "",
      "stateIDs": {
        "Born": {
          "$type": "NEDIFAKEGCO",
          "animatorStates": {
            "Born": []
          }
        },
        "Fly": {
          "$type": "NEDIFAKEGCO",
          "animatorStates": {
            "StandbyFly": [],
            "WorkingFly": []
          },
          "setAnimatorBoolean": [
            {
              "name": "AirState"
            }
          ]
        },
        "Land": {
          "$type": "NEDIFAKEGCO",
          "animatorStates": {
            "Standby": [],
            "Working": ["Audio_Creature_Boltbug_MachinaIustitia_Working"]
          }
        },
        "Broken": {
          "$type": "NEDIFAKEGCO",
          "animatorStates": {
            "Broken": [],
            "Self_Check": []
          },
          "resetAnimatorTriggerOnEnter": ["BeHit"]
        },
        "BeHitAir": {
          "$type": "NEDIFAKEGCO",
          "animatorStates": {
            "HitThrow_BS": ["Audio_Creature_Boltbug_MachinaIustitia_Throw_BS"],
            "HitThrow_Loop": []
          },
          "resetAnimatorTriggerOnEnter": ["BeHit"],
          "setAnimatorBoolean": [
            {
              "name": "AirState"
            }
          ],
          "remoteForceCloseAirMove": true,
          "airMoveFollowAnimation": true
        },
        "BeHit": {
          "$type": "NEDIFAKEGCO",
          "animatorStates": {
            "HitThrow_AS": ["Audio_Creature_Boltbug_MachinaIustitia_Hit"]
          },
          "resetAnimatorTriggerOnEnter": ["BeHit"]
        }
      }
    }
  },
  "uiSetting": {
    "radarHint": true
  },
  "initialPoses": {
    "FlyOnly": {
      "initialPoseID": 11,
      "initialPoseParams": {
        "intParams": {
          "BrokenState": "0"
        },
        "boolParams": {
          "CanWork": "true",
          "Fly": "true"
        }
      }
    },
    "FlyWorking": {
      "initialPoseID": 12,
      "initialPoseParams": {
        "intParams": {
          "BrokenState": "0"
        },
        "boolParams": {
          "CanWork": "true",
          "Fly": "true"
        }
      }
    },
    "LandOnly": {
      "initialPoseID": 1,
      "initialPoseParams": {
        "intParams": {
          "BrokenState": "0"
        },
        "boolParams": {
          "CanWork": "false",
          "Fly": "false"
        }
      }
    },
    "LandWorking": {
      "initialPoseID": 2,
      "initialPoseParams": {
        "intParams": {
          "BrokenState": "0"
        },
        "boolParams": {
          "CanWork": "true",
          "Fly": "false"
        }
      }
    },
    "SelfCheck": {
      "initialPoseID": 4,
      "initialPoseParams": {
        "intParams": {
          "BrokenState": "1"
        }
      }
    }
  },
  "aibeta": {
    "enable": true,
    "friendliness": 1,
    "moveSetting": {
      "moveCategory": "Air",
      "navMeshAgentName": "Undead01"
    },
    "sensing": {
      "settings": {
        "DefaultSetting": {
          "viewRange": 5.0,
          "horizontalFov": 80.0,
          "verticalFov": 50.0,
          "hearAttractionRange": 0.0,
          "feelRange": 2.200000047683716
        }
      }
    },
    "threat": {
      "GHIJMOKOLMB": "",
      "clearThreatTargetDistance": 2.4000000953674316,
      "clearThreatTimerByDistance": 1.0,
      "feelThreatGrow": 100.0,
      "threatDecreaseSpeed": 1000.0,
      "threatBroadcastRange": 0.0
    },
    "defendArea": {
      "defendRange": 100.0
    },
    "fly": {
      "enable": true,
      "floatingPoses": [11, 12, 13]
    },
    "poseControl": {
      "items": [
        {
          "minTime": 15.0,
          "maxTime": 25.0,
          "poseID": 1,
          "randomPose": [2]
        },
        {
          "minTime": 6.0,
          "maxTime": 18.0,
          "poseID": 2,
          "randomPose": [1]
        },
        {
          "minTime": 15.0,
          "maxTime": 25.0,
          "poseID": 11,
          "randomPose": [12]
        },
        {
          "minTime": 6.0,
          "maxTime": 18.0,
          "poseID": 12,
          "randomPose": [11]
        }
      ]
    },
    "ui": {
      "hasDirectionIndicator": false,
      "HMNNBFDEHLG": ""
    }
  },
  "move": {
    "$type": "IPNMJMHDMPF",
    "velocityForce": {
      "excludeForces": [
        "RetreatType",
        "RetreatAirType",
        "WindZoneType",
        "AirflowType"
      ]
    },
    "initWithGroundHitCheckV2": false,
    "PKHOMJHFAEE": "RootNode",
    "JNAPCJLHJDO": true
  },
  "audio": {
    "overrideEmitterName": "",
    "animAudio": {
      "onTransitionIn": [
        {
          "currentStateName": "Self_Check",
          "audioEvent": {
            "text": "Play_Sfx_Creature_Boltbug_MachinaIustitia_Broken_LP"
          },
          "otherStateNames": ["Self_Check"],
          "usage": "Except"
        },
        {
          "currentStateName": "StandbyFly",
          "audioEvent": {
            "text": "Play_Sfx_Creature_Boltbug_MachinaIustitia_Fly_LP"
          },
          "otherStateNames": ["StandbyFly", "WorkingFly"],
          "usage": "Except"
        },
        {
          "currentStateName": "WorkingFly",
          "audioEvent": {
            "text": "Play_Sfx_Creature_Boltbug_MachinaIustitia_Fly_LP"
          },
          "otherStateNames": ["WorkingFly", "StandbyFly"],
          "usage": "Except"
        }
      ],
      "onTransitionOut": [
        {
          "currentStateName": "Self_Check",
          "audioEvent": {
            "text": "Stop_Sfx_Creature_Boltbug_MachinaIustitia_Broken_LP"
          },
          "otherStateNames": ["Self_Check"],
          "usage": "Except"
        },
        {
          "currentStateName": "StandbyFly",
          "audioEvent": {
            "text": "Stop_Sfx_Creature_Boltbug_MachinaIustitia_Fly_LP"
          },
          "otherStateNames": ["StandbyFly", "WorkingFly"],
          "usage": "Except"
        },
        {
          "currentStateName": "Self_Check",
          "audioEvent": {
            "text": "Stop_Sfx_Creature_Boltbug_MachinaIustitia_Fly_LP"
          },
          "otherStateNames": ["WorkingFly", "StandbyFly"],
          "usage": "Except"
        },
        {
          "currentStateName": "Working",
          "audioEvent": {
            "text": "Stop_Sfx_Creature_Boltbug_MachinaIustitia_Working"
          },
          "otherStateNames": ["Working"],
          "usage": "Except"
        }
      ]
    }
  },
  "animal": {
    "tickAbilityElement": false,
    "hasCharacterRenderering": false
  },
  "captureGroup": {
    "defaultConfig": {
      "captureEffect": "Eff_SceneObj_CatchAnimal_CaughtSuccess"
    }
  }
}
