{
  "common": {
    "effectAttachShape": {
      "$type": "FJNPJANPGGC",
      "mesh": "EffectMesh"
    },
    "mass": 30.0,
    "height": 0.75,
    "affectedByWorld": true,
    "checkInSurface": true,
    "canTriggerElementReactionText": false,
    "clearAnimatorOnSetLightDeactive": true,
    "clearAIOnSetLightDeactive": true
  },
  "model": {
    "bornEffect": "",
    "attachEffect": "",
    "canBakeMesh": false,
    "BKPFGNPLDNJ": ""
  },
  "dither": {
    "showDitherDuration": 1.0
  },
  "combat": {
    "property": {
      "endureType": "Monster_Minion",
      "weight": 30.0
    },
    "beHit": {
      "hitBloodEffect": "",
      "muteAllHitText": true
    },
    "combatLock": {
      "lockShape": "CircleLockEnemy",
      "lockType": "Avatar&Monster_Lv4"
    },
    "die": {
      "dieEndTime": 2.0,
      "dieForceDisappearTime": 10.0,
      "dieDisappearEffect": ""
    }
  },
  "abilities": [
    {
      "abilityID": "Animal_Thoarder_Weasel_Alert",
      "abilityName": "Animal_Thoarder_Weasel_Alert",
      "abilityOverride": ""
    },
    {
      "abilityID": "Animal_Thoarder_Weasel_Drill",
      "abilityName": "Animal_Thoarder_Weasel_Drill",
      "abilityOverride": ""
    },
    {
      "abilityID": "Animal_Thoarder_Weasel_Jump",
      "abilityName": "Animal_Thoarder_Weasel_Jump",
      "abilityOverride": ""
    },
    {
      "abilityID": "Animal_Thoarder_Weasel_Flee",
      "abilityName": "Animal_Thoarder_Weasel_Flee",
      "abilityOverride": ""
    },
    {
      "abilityID": "Animal_Thoarder_Weasel_ToWander",
      "abilityName": "Animal_Thoarder_Weasel_ToWander",
      "abilityOverride": ""
    },
    {
      "abilityID": "Animal_Thoarder_Weasel_ToIdle",
      "abilityName": "Animal_Thoarder_Weasel_ToIdle",
      "abilityOverride": ""
    },
    {
      "abilityID": "Animal_Thoarder_Weasel_State",
      "abilityName": "Animal_Thoarder_Weasel_State",
      "abilityOverride": ""
    },
    {
      "abilityID": "",
      "abilityName": "Animal_Thoarder_Weasel_Drill_Exit",
      "abilityOverride": ""
    }
  ],
  "stateLayers": {
    "defaultLayer": {
      "$type": "GBGJJIIEMBD",
      "layerIndexName": "",
      "CPAANEIJCGD": "",
      "stateIDs": {
        "Born": {
          "$type": "NEDIFAKEGCO",
          "animatorStates": {
            "Born_Emergy": [
              "Animal_Thoarder_Weasel_Born",
              "Audio_Animal_Marten_Born"
            ],
            "Born_Jump": [
              "Animal_Thoarder_Weasel_Emerge",
              "Audio_Animal_Marten_Alert"
            ]
          },
          "resetAnimatorTriggerOnExit": ["DoSkill"]
        },
        "NormalIdle": {
          "$type": "NEDIFAKEGCO",
          "animatorStates": {
            "Standby": ["Audio_Creature_Weasel_Standby"],
            "Standby_Special": ["Audio_Creature_Weasel_Standby"],
            "Standby_Walk": ["Audio_Creature_Weasel_run"],
            "WalkToStandby": ["Animal_Thoarder_Weasel_ToIdle"]
          },
          "canDoSkill": true,
          "canSyncMove": true,
          "resetAnimatorTriggerOnExit": ["DoSkill"]
        },
        "NormalMove": {
          "$type": "NEDIFAKEGCO",
          "animatorStates": {
            "Walk": ["Audio_Creature_Weasel_run"],
            "Run": ["Audio_Creature_Weasel_run"],
            "Disappear": ["Audio_Creature_Weasel_run"]
          },
          "canDoSkill": true,
          "canSyncMove": true,
          "resetAnimatorTriggerOnExit": ["DoSkill"],
          "canSteer": true
        },
        "Die": {
          "$type": "NEDIFAKEGCO",
          "animatorStates": {
            "Die": ["Animal_Thoarder_Weasel_Die", "Audio_Creature_Weasel_Die"],
            "Die_Disappear": ["Animal_Thoarder_Weasel_Disappear"]
          }
        },
        "Alert": {
          "$type": "NEDIFAKEGCO",
          "animatorStates": {
            "Alert": [
              "Animal_Thoarder_Weasel_Alert",
              "Audio_Animal_Marten_Alert"
            ]
          },
          "canDoSkill": true,
          "resetAnimatorTriggerOnExit": ["BeHit", "DoSkill"],
          "canSteer": true,
          "followAnimRotation": true
        },
        "Personality_1": {
          "$type": "NEDIFAKEGCO",
          "animatorStates": {
            "Personality_1": [
              "Animal_Thoarder_Weasel_Personality1",
              "Audio_Creature_Weasel_Personality_1"
            ]
          },
          "canDoSkill": true,
          "resetAnimatorTriggerOnExit": ["BeHit", "DoSkill"]
        },
        "Personality_2": {
          "$type": "NEDIFAKEGCO",
          "animatorStates": {
            "Personality_2": ["Audio_Creature_Weasel_Personality_2"]
          },
          "canDoSkill": true,
          "resetAnimatorTriggerOnExit": ["BeHit", "DoSkill"]
        },
        "Drill": {
          "$type": "NEDIFAKEGCO",
          "animatorStates": {
            "Drill": [
              "Animal_Thoarder_Weasel_Drill",
              "Audio_Creature_Weasel_Drill"
            ],
            "Drill_Disappear": [
              "Animal_Thoarder_Weasel_Drill_Exit",
              "Audio_Creature_Weasel_Drill"
            ]
          },
          "resetAnimatorTriggerOnExit": ["BeHit", "DoSkill"]
        },
        "ToWander": {
          "$type": "NEDIFAKEGCO",
          "animatorStates": {
            "ToWander": ["Animal_Thoarder_Weasel_ToWander"]
          },
          "canDoSkill": true,
          "resetAnimatorTriggerOnExit": ["BeHit", "DoSkill"]
        }
      }
    }
  },
  "billboard": {
    "$type": "DNGNMAJBCNP",
    "attachPoint": "BillboardAttach"
  },
  "initialPoses": {
    "Default": {},
    "Normal": {
      "initialPoseID": 1,
      "initialPoseParams": {
        "boolParams": {
          "FleeState": "false",
          "Jump": "false",
          "Wander": "false",
          "OnlyFlee": "false",
          "CustomizedLoot": "false",
          "DrillExit": "false"
        }
      }
    },
    "OnlyFlee": {
      "initialPoseID": 9,
      "initialPoseParams": {
        "boolParams": {
          "FleeState": "false",
          "Jump": "false",
          "Wander": "false",
          "OnlyFlee": "true",
          "CustomizedLoot": "false",
          "DrillExit": "false"
        }
      }
    },
    "Jump": {
      "initialPoseID": 3,
      "initialPoseParams": {
        "boolParams": {
          "FleeState": "true",
          "Jump": "true",
          "Wander": "false",
          "OnlyFlee": "false",
          "CustomizedLoot": "false",
          "DrillExit": "false"
        }
      }
    },
    "OnlyFlee_AIFight": {
      "initialPoseID": 911,
      "initialPoseParams": {
        "boolParams": {
          "FleeState": "false",
          "Jump": "false",
          "Wander": "false",
          "OnlyFlee": "true",
          "CustomizedLoot": "false",
          "DrillExit": "false"
        }
      }
    },
    "Customized_Loot": {
      "initialPoseID": 921,
      "initialPoseParams": {
        "boolParams": {
          "FleeState": "false",
          "Jump": "false",
          "Wander": "false",
          "OnlyFlee": "false",
          "CustomizedLoot": "true",
          "DrillExit": "false"
        }
      }
    },
    "Drill_Exit": {
      "initialPoseID": 102,
      "initialPoseParams": {
        "boolParams": {
          "FleeState": "false",
          "Jump": "false",
          "Wander": "false",
          "OnlyFlee": "false",
          "CustomizedLoot": "false",
          "DrillExit": "true"
        }
      }
    }
  },
  "aibeta": {
    "enable": true,
    "friendliness": 1,
    "moveSetting": {
      "navMeshAgentName": "Undead01"
    },
    "sensing": {
      "settings": {
        "Normal": {
          "viewRange": 15.0,
          "horizontalFov": 90.0,
          "verticalFov": 45.0,
          "feelRange": 10.0
        },
        "Jump": {
          "feelRange": 40.0
        }
      },
      "templates": {
        "DefaultTemplate": {
          "1": "Normal",
          "2": "Normal",
          "9": "Normal",
          "3": "Jump"
        }
      }
    },
    "neurons": {
      "DefaultSetting": ["HIT"]
    },
    "threat": {
      "GHIJMOKOLMB": "",
      "viewThreatGrow": 50.0,
      "threatDecreaseSpeed": 500.0
    },
    "defendArea": {
      "defendRange": 50.0
    },
    "ui": {
      "hasDirectionIndicator": false,
      "HMNNBFDEHLG": ""
    },
    "skills": {
      "1": {
        "name": "OnAlert",
        "skillType": "OnAlert",
        "publicCDGroup": "",
        "ignoreGCD": true,
        "triggerGCD": false,
        "HHAGODJIAPE": "",
        "stateIDs": ["Alert"],
        "flagTargetReachable": "10",
        "flagSelfOnTemplateCollider": "01",
        "flagSelfInZone": "10",
        "flagTargetInZone": "11"
      },
      "101": {
        "name": "PersonalitySit1",
        "skillType": "Free",
        "castCondition": {
          "pose": [1, 9]
        },
        "cd": 25.0,
        "cdUpperRange": 25.0,
        "initialCD": 20.0,
        "initialCDUpperRange": 20.0,
        "publicCDGroup": "",
        "HHAGODJIAPE": "",
        "stateIDs": ["Personality_1"],
        "flagTargetReachable": "10",
        "flagSelfOnTemplateCollider": "01",
        "flagSelfInZone": "10",
        "flagTargetInZone": "11"
      },
      "201": {
        "name": "PersonalitySit2",
        "skillType": "Free",
        "castCondition": {
          "pose": [1, 9]
        },
        "cd": 20.0,
        "cdUpperRange": 15.0,
        "initialCD": 10.0,
        "initialCDUpperRange": 10.0,
        "publicCDGroup": "",
        "HHAGODJIAPE": "",
        "stateIDs": ["Personality_2"],
        "flagTargetReachable": "10",
        "flagSelfOnTemplateCollider": "01",
        "flagSelfInZone": "10",
        "flagTargetInZone": "11"
      },
      "301": {
        "name": "ToWander",
        "skillType": "Free",
        "castCondition": {
          "pose": [1, 9]
        },
        "cd": 12.5,
        "cdUpperRange": 7.5,
        "initialCD": 5.0,
        "initialCDUpperRange": 5.0,
        "publicCDGroup": "",
        "HHAGODJIAPE": "",
        "stateIDs": ["ToWander"],
        "flagTargetReachable": "10",
        "flagSelfOnTemplateCollider": "01",
        "flagSelfInZone": "10",
        "flagTargetInZone": "11"
      },
      "401": {
        "name": "Drill",
        "skillType": "ActionPoint",
        "castCondition": {
          "pose": [101]
        },
        "publicCDGroup": "",
        "HHAGODJIAPE": "",
        "stateIDs": ["Drill"],
        "flagTargetReachable": "10",
        "flagSelfOnTemplateCollider": "01",
        "flagSelfInZone": "10",
        "flagTargetInZone": "11"
      },
      "402": {
        "name": "Drill_Disappear",
        "skillType": "ActionPoint",
        "castCondition": {
          "pose": [102]
        },
        "publicCDGroup": "",
        "HHAGODJIAPE": "",
        "stateIDs": ["Drill_Disappear"],
        "flagTargetReachable": "10",
        "flagSelfOnTemplateCollider": "01",
        "flagSelfInZone": "10",
        "flagTargetInZone": "11"
      }
    },
    "skillGCD": 5.0,
    "birdCirclingTactic": [
      {
        "$type": "HGAKDOIOHCG",
        "enable": true,
        "condition": {
          "pose": [101, 102]
        },
        "nerveTrigger": ["HIT"],
        "JMCOBEPDIGM": {
          "pointType": "MoleHolePoint",
          "ANLAAGAMIKF": 2,
          "NBENNEKDIIA": 2.5,
          "detectDistance": 30.0,
          "CJNOBGEGKFL": 10.0,
          "skillID": 401
        },
        "PIOCBHLFLJP": {
          "102": {
            "pointType": "MoleHolePoint",
            "ANLAAGAMIKF": 2,
            "NBENNEKDIIA": 2.5,
            "detectDistance": 30.0,
            "CJNOBGEGKFL": 10.0,
            "skillID": 402
          }
        }
      },
      {
        "$type": "ODHNBPJLGHF",
        "enable": true,
        "condition": {
          "pose": [901, 911, 921]
        },
        "JMCOBEPDIGM": {
          "NBENNEKDIIA": 2.5,
          "cd": 3.0,
          "triggerDistance": 100.0,
          "MMGOBGGLBJO": 75.0,
          "EMNPEHPCDLB": 5,
          "CMDFDIPMGKI": 6,
          "KAIGBDPLNMO": 6.0,
          "BMIEPFCPFGN": 8.0,
          "FEJMHENNBFA": true,
          "MNPDDAKDHGK": ""
        }
      },
      {
        "$type": "NNJKLGNPMNN",
        "enable": true
      },
      {
        "$type": "FPELBIJFGCE",
        "enable": true,
        "condition": {
          "pose": [2]
        },
        "JMCOBEPDIGM": {
          "NBENNEKDIIA": 2.0,
          "KPNDPKIOPJM": 5.0,
          "PINAFKEDDLL": 3.0,
          "ANMPOPEBDIA": 5.0,
          "CHCPFDMADEI": 3.5,
          "MNPDDAKDHGK": ""
        }
      }
    ]
  },
  "inputKeys": [
    {
      "keyID": 101,
      "inputKeyCode": 257,
      "abilityName": ""
    },
    {
      "keyID": 201,
      "inputKeyCode": 258,
      "abilityName": ""
    }
  ]
}
