{
  "common": {
    "effectAttachShape": {
      "$type": "FJNPJANPGGC",
      "mesh": "EffectMesh"
    },
    "mass": 9999999.0,
    "height": 1.0,
    "affectedByWorld": true,
    "checkInSurface": true,
    "canTriggerElementReactionText": false,
    "useGrassDisplacement": true,
    "clearAnimatorOnSetLightDeactive": true,
    "clearAIOnSetLightDeactive": true
  },
  "model": {
    "bornEffect": "",
    "attachEffect": "",
    "canBakeMesh": false,
    "BKPFGNPLDNJ": ""
  },
  "dither": {
    "showDitherDuration": 1.0
  },
  "combat": {
    "property": {
      "endureType": "Monster_Minion",
      "weight": 101.0,
      "isInvincible": true
    },
    "beHit": {
      "hitBloodEffect": "",
      "muteAllHit": true,
      "muteAllHitText": true
    },
    "combatLock": {
      "lockShape": "CircleLockEnemy",
      "denyLockOn": true,
      "lockType": "Animal_Lv2"
    },
    "die": {
      "dieEndTime": 2.0,
      "dieForceDisappearTime": 10.0,
      "dieDisappearEffect": ""
    }
  },
  "abilities": [
    {
      "abilityID": "CommonInitial",
      "abilityName": "Animal_Common_Initial",
      "abilityOverride": ""
    },
    {
      "abilityID": "Animal_Inu_Tanuki_IgnoreControlState",
      "abilityName": "Animal_Inu_Tanuki_IgnoreControlState",
      "abilityOverride": ""
    },
    {
      "abilityID": "Animal_Inu_Tanuki_BlinkState",
      "abilityName": "Animal_Inu_Tanuki_BlinkState",
      "abilityOverride": ""
    },
    {
      "abilityID": "Animal_Inu_Tanuki_FindNextPathPoint",
      "abilityName": "Animal_Inu_Tanuki_FindNextPathPoint",
      "abilityOverride": ""
    },
    {
      "abilityID": "Animal_Inu_Tanuki_DoBlink",
      "abilityName": "Animal_Inu_Tanuki_DoBlink",
      "abilityOverride": ""
    },
    {
      "abilityID": "Animal_Inu_Tanuki_KillSelf",
      "abilityName": "Animal_Inu_Tanuki_KillSelf",
      "abilityOverride": ""
    },
    {
      "abilityID": "Animal_Inu_Tanuki_KillSelf_Escape",
      "abilityName": "Animal_Inu_Tanuki_KillSelf_Escape",
      "abilityOverride": ""
    },
    {
      "abilityID": "Animal_Inu_Tanuki_Steer",
      "abilityName": "Animal_Inu_Tanuki_Steer",
      "abilityOverride": ""
    },
    {
      "abilityID": "Animal_Inu_Tanuki_Attraction",
      "abilityName": "Animal_Inu_Tanuki_Attraction",
      "abilityOverride": ""
    }
  ],
  "stateLayers": {
    "defaultLayer": {
      "$type": "GBGJJIIEMBD",
      "layerIndexName": "",
      "CPAANEIJCGD": "",
      "stateIDs": {
        "Born": {
          "$type": "NEDIFAKEGCO",
          "animatorStates": {
            "Born": []
          },
          "resetAnimatorTriggerOnExit": ["DoSkill"]
        },
        "NormalIdle": {
          "$type": "NEDIFAKEGCO",
          "animatorStates": {
            "Standby": [],
            "Sit": []
          },
          "canDoSkill": true,
          "canSyncMove": true,
          "resetAnimatorTriggerOnExit": ["DoSkill"]
        },
        "NormalMove": {
          "$type": "NEDIFAKEGCO",
          "animatorStates": {
            "Walk": ["Audio_Tanuki_Walk"],
            "Run": ["Audio_Tanuki_Run"]
          },
          "canSyncMove": true,
          "resetAnimatorTriggerOnExit": ["DoSkill"],
          "canSteer": true
        },
        "Alert": {
          "$type": "NEDIFAKEGCO",
          "animatorStates": {
            "Alert": ["Audio_Tanuki_Alert"],
            "Alert_AS": ["Audio_Tanuki_Alert"]
          },
          "resetAnimatorTriggerOnExit": ["BeHit", "DoSkill", "AlertHitTrigger"]
        },
        "Escape": {
          "$type": "NEDIFAKEGCO",
          "animatorStates": {
            "Escape": ["Animal_Inu_Tanuki_Escape", "Audio_Tanuki_Die"]
          },
          "canSyncMove": true,
          "resetAnimatorTriggerOnExit": ["DoSkill"],
          "canSteer": true
        },
        "StandbyToSit": {
          "$type": "NEDIFAKEGCO",
          "animatorStates": {
            "StandbyToSit": []
          },
          "canDoSkill": true,
          "resetAnimatorTriggerOnExit": ["BeHit", "DoSkill"]
        },
        "SitToStandby": {
          "$type": "NEDIFAKEGCO",
          "animatorStates": {
            "SitToStandby": []
          },
          "canDoSkill": true,
          "resetAnimatorTriggerOnExit": ["BeHit", "DoSkill"]
        },
        "SitFree": {
          "$type": "NEDIFAKEGCO",
          "animatorStates": {
            "SitFree01": ["Audio_Tanuki_sitFree01"],
            "SitFree02": ["Audio_Tanuki_sitFree02"]
          },
          "canDoSkill": true,
          "resetAnimatorTriggerOnExit": ["BeHit", "DoSkill"]
        },
        "Blink_BS": {
          "$type": "NEDIFAKEGCO",
          "animatorStates": {
            "Blink_BS": ["Animal_Inu_Tanuki_Blink_BS", "Audio_Tanuki_Blink_BS"]
          },
          "resetAnimatorTriggerOnExit": ["BeHit", "DoSkill"],
          "canSteer": true
        },
        "Blink": {
          "$type": "NEDIFAKEGCO",
          "animatorStates": {
            "Blink_AS": ["Animal_Inu_Tanuki_Blink_AS", "Audio_Tanuki_Blink_AS"],
            "Blink_AS02": []
          },
          "resetAnimatorTriggerOnExit": ["BeHit", "DoSkill"]
        },
        "End": {
          "$type": "NEDIFAKEGCO",
          "animatorStates": {
            "End": ["Animal_Inu_Tanuki_End", "Audio_Tanuki_Blink_BS"]
          },
          "resetAnimatorTriggerOnExit": ["BeHit", "DoSkill"],
          "canSteer": true
        },
        "Attraction": {
          "$type": "NEDIFAKEGCO",
          "animatorStates": {
            "Attraction": ["Audio_Tanuki_Alert"]
          },
          "resetAnimatorTriggerOnExit": ["BeHit", "DoSkill"]
        },
        "Attraction_AS": {
          "$type": "NEDIFAKEGCO",
          "animatorStates": {
            "Attraction_AS": ["Audio_Tanuki_Alert"]
          },
          "canDoSkill": true,
          "resetAnimatorTriggerOnExit": ["BeHit", "DoSkill"]
        }
      }
    }
  },
  "initialPoses": {
    "Default": {
      "initialPoseID": 1,
      "initialPoseParams": {
        "intParams": {
          "ActionState": "0"
        }
      }
    },
    "Sit": {
      "initialPoseID": 2,
      "initialPoseParams": {
        "intParams": {
          "ActionState": "1"
        }
      }
    },
    "Prone": {
      "initialPoseID": 3,
      "initialPoseParams": {
        "intParams": {
          "ActionState": "2"
        }
      }
    }
  },
  "aibeta": {
    "enable": true,
    "friendliness": 1,
    "sensing": {
      "settings": {
        "DefaultSetting": {
          "viewRange": 10.0,
          "horizontalFov": 90.0,
          "verticalFov": 45.0,
          "feelRange": 10.0
        }
      }
    },
    "neurons": {
      "DefaultSetting": ["HIT"]
    },
    "threat": {
      "GHIJMOKOLMB": "",
      "clearThreatTimerByDistance": 1.0,
      "threatDecreaseSpeed": 500.0
    },
    "defendArea": {
      "defendRange": 50.0
    },
    "poseControl": {
      "items": [
        {
          "minTime": 7.0,
          "maxTime": 15.0,
          "poseID": 1,
          "randomPose": [2],
          "switchOnlyInCanDoSkillState": true
        },
        {
          "minTime": 15.0,
          "maxTime": 30.0,
          "poseID": 2,
          "randomPose": [1],
          "switchOnlyInCanDoSkillState": true
        }
      ]
    },
    "ui": {
      "hasDirectionIndicator": false,
      "HMNNBFDEHLG": ""
    },
    "skillGroupCDConfigs": [
      {
        "skillGroupCDID": 100,
        "skillGroupCDTime": 0.0
      }
    ],
    "skills": {
      "1": {
        "name": "OnAlert",
        "skillType": "OnAlert",
        "priority": 1,
        "publicCDGroup": "",
        "HHAGODJIAPE": "",
        "stateIDs": ["Alert"],
        "skillQueryingTime": 3.0,
        "flagTargetReachable": "11",
        "flagSelfOnTemplateCollider": "01",
        "flagSelfInZone": "10",
        "flagTargetInZone": "11"
      },
      "1011": {
        "name": "Blink",
        "castCondition": {
          "pose": [101],
          "needReInitCD": true,
          "maxTargetAngleXZ": 50.0,
          "maxTargetAngleY": 50.0,
          "pickRangeMax": 12.0
        },
        "publicCDGroup": "",
        "ignoreGCD": true,
        "skillGroupCDID": 100,
        "HHAGODJIAPE": "",
        "stateIDs": ["Blink", "Blink_BS"],
        "flagTargetReachable": "11",
        "flagSelfOnTemplateCollider": "01",
        "flagSelfInZone": "10",
        "flagTargetInZone": "11"
      },
      "1012": {
        "name": "Blink",
        "castCondition": {
          "pose": [101],
          "needReInitCD": true,
          "pickRangeMax": 7.0
        },
        "publicCDGroup": "",
        "ignoreGCD": true,
        "skillGroupCDID": 100,
        "HHAGODJIAPE": "",
        "stateIDs": ["Blink", "Blink_BS"],
        "flagTargetReachable": "11",
        "flagSelfOnTemplateCollider": "01",
        "flagSelfInZone": "10",
        "flagTargetInZone": "11"
      },
      "1021": {
        "name": "End",
        "faceTarget": true,
        "castCondition": {
          "pose": [102],
          "needReInitCD": true,
          "maxTargetAngleXZ": 50.0,
          "maxTargetAngleY": 50.0,
          "pickRangeMax": 7.0
        },
        "publicCDGroup": "",
        "ignoreGCD": true,
        "skillGroupCDID": 100,
        "HHAGODJIAPE": "",
        "stateIDs": ["End"],
        "flagTargetReachable": "11",
        "flagSelfOnTemplateCollider": "01",
        "flagSelfInZone": "10",
        "flagTargetInZone": "11"
      },
      "1022": {
        "name": "End",
        "faceTarget": true,
        "castCondition": {
          "pose": [102],
          "needReInitCD": true,
          "pickRangeMax": 12.0
        },
        "publicCDGroup": "",
        "ignoreGCD": true,
        "skillGroupCDID": 100,
        "HHAGODJIAPE": "",
        "stateIDs": ["End"],
        "flagTargetReachable": "11",
        "flagSelfOnTemplateCollider": "01",
        "flagSelfInZone": "10",
        "flagTargetInZone": "11"
      },
      "103": {
        "name": "Escape",
        "faceTarget": true,
        "castCondition": {
          "pose": [103],
          "needReInitCD": true
        },
        "publicCDGroup": "",
        "ignoreGCD": true,
        "skillGroupCDID": 100,
        "HHAGODJIAPE": "",
        "stateIDs": ["Escape"],
        "flagTargetReachable": "11",
        "flagSelfOnTemplateCollider": "01",
        "flagSelfInZone": "10",
        "flagTargetInZone": "11"
      },
      "104": {
        "name": "FixedMoveBlink",
        "skillType": "ActionPoint",
        "castCondition": {
          "pose": [104]
        },
        "publicCDGroup": "",
        "HHAGODJIAPE": "",
        "stateIDs": ["Blink", "Blink_BS"],
        "flagTargetReachable": "11",
        "flagSelfOnTemplateCollider": "01",
        "flagSelfInZone": "10",
        "flagTargetInZone": "11"
      },
      "105": {
        "name": "FixedMoveEnd",
        "skillType": "ActionPoint",
        "castCondition": {
          "pose": [105]
        },
        "publicCDGroup": "",
        "HHAGODJIAPE": "",
        "stateIDs": ["End", "Blink_BS"],
        "flagTargetReachable": "11",
        "flagSelfOnTemplateCollider": "01",
        "flagSelfInZone": "10",
        "flagTargetInZone": "11"
      },
      "106": {
        "name": "Attraction",
        "castCondition": {
          "pose": [100, 101, 102],
          "needReInitCD": true
        },
        "cd": 4.0,
        "initialCD": 1.0,
        "publicCDGroup": "",
        "HHAGODJIAPE": "",
        "stateIDs": ["Attraction"],
        "flagTargetReachable": "11",
        "flagSelfOnTemplateCollider": "01",
        "flagSelfInZone": "10",
        "flagTargetInZone": "11"
      },
      "201": {
        "name": "SitFree01",
        "skillType": "Free",
        "castCondition": {
          "pose": [2]
        },
        "cd": 30.0,
        "cdUpperRange": 30.0,
        "initialCD": 15.0,
        "initialCDUpperRange": 45.0,
        "publicCDGroup": "",
        "HHAGODJIAPE": "",
        "stateIDs": ["SitFree"],
        "flagTargetReachable": "10",
        "flagSelfOnTemplateCollider": "01",
        "flagSelfInZone": "10",
        "flagTargetInZone": "11"
      },
      "202": {
        "name": "SitFree02",
        "skillType": "Free",
        "castCondition": {
          "pose": [2]
        },
        "cd": 30.0,
        "cdUpperRange": 30.0,
        "initialCD": 15.0,
        "initialCDUpperRange": 45.0,
        "publicCDGroup": "",
        "HHAGODJIAPE": "",
        "stateIDs": ["SitFree"],
        "flagTargetReachable": "10",
        "flagSelfOnTemplateCollider": "01",
        "flagSelfInZone": "10",
        "flagTargetInZone": "11"
      }
    },
    "skillGCD": 0.5,
    "birdCirclingTactic": [
      {
        "$type": "NNJKLGNPMNN",
        "enable": true,
        "JMCOBEPDIGM": {
          "ANLAAGAMIKF": 0,
          "JFMIFLNBKMJ": 1.0,
          "DHGJDIPNDHH": 3.0,
          "MNPDDAKDHGK": "",
          "GJDMDHIBCME": ""
        }
      },
      {
        "$type": "FPELBIJFGCE",
        "enable": true,
        "condition": {
          "pose": [1]
        },
        "JMCOBEPDIGM": {
          "NBENNEKDIIA": 0.75,
          "KPNDPKIOPJM": 12.5,
          "PINAFKEDDLL": 7.5,
          "ANMPOPEBDIA": 5.0,
          "GMJFIMFFOEL": 1.5,
          "CHCPFDMADEI": 3.0,
          "MNPDDAKDHGK": ""
        }
      }
    ]
  },
  "inputKeys": [
    {
      "keyID": 1,
      "inputKeyCode": 257,
      "abilityName": ""
    },
    {
      "keyID": 1011,
      "inputKeyCode": 258,
      "abilityName": ""
    },
    {
      "keyID": 103,
      "inputKeyCode": 259,
      "abilityName": ""
    }
  ],
  "animal": {
    "tickAbilityElement": false,
    "hasCharacterRenderering": false
  }
}
