{
  "common": {
    "effectAttachShape": {
      "$type": "FJNPJANPGGC",
      "mesh": "EffectMesh"
    },
    "mass": 150.0,
    "height": 2.0,
    "modelHeight": 1.899999976158142,
    "viewSize": 1.100000023841858,
    "affectedByWorld": true,
    "checkInSurface": true,
    "scale": 1.2000000476837158,
    "useGrassDisplacement": true,
    "clearAnimatorOnSetLightDeactive": true,
    "clearAIOnSetLightDeactive": true,
    "recoverByInitPose": true
  },
  "headControl": {
    "$type": "KPIPDEBDPIH",
    "useHeadControl": true,
    "maxYawDegree": 60.0,
    "maxPitchDegree": 30.0,
    "animStates": [
      "NormalIdle/Standby",
      "NormalMove/WalkForward",
      "NormalMove/WalkBack",
      "NormalMove/WalkRight",
      "NormalMove/WalkLeft",
      "NormalMove/Run",
      "Turn/TurnLeft",
      "Turn/TurnRight"
    ]
  },
  "model": {
    "bornEffect": "Eff_Monster_Common_Born",
    "attachEffect": "",
    "BKPFGNPLDNJ": ""
  },
  "dither": {
    "showDitherDuration": 1.0
  },
  "combat": {
    "property": {
      "endureType": "Monster_Minion",
      "weight": 70.0
    },
    "beHit": {
      "hitBloodEffect": ""
    },
    "combatLock": {
      "lockShape": "CircleLockEnemy",
      "lockType": "Avatar&Monster_Lv4"
    },
    "die": {
      "hasAnimatorDie": true,
      "dieEndTime": 2.0,
      "dieForceDisappearTime": 8.0,
      "dieDisappearEffect": "Eff_Death_Sand_Eremite",
      "dieShaderData": "EremiteSandDie",
      "dieShaderEnableDurationTime": 1.0,
      "useRagDoll": true,
      "ragDollDieEndTimeDelay": 8.0,
      "muteHitBox": true,
      "dieDenyLockOn": true,
      "dieIsGhostToEnemy": true,
      "dieIgnoreTriggerBullet": true,
      "muteBillboard": true,
      "mutePushCollider": true
    },
    "animEvents": {
      "AE_Slash01_01": {
        "attackPattern": {
          "$type": "ConfigAttackBox",
          "triggerType": "TriggerNoRepeat",
          "born": {
            "$type": "ConfigBornBySelf",
            "offset": {
              "x": 0.0,
              "y": 0.8500000238418579,
              "z": -0.20000000298023224
            }
          },
          "size": {
            "x": 1.7999999523162842,
            "y": 1.7999999523162842,
            "z": 2.1500000953674316
          }
        },
        "attackInfo": {
          "attackTag": "",
          "attenuationTag": "",
          "attenuationGroup": "default",
          "attackProperty": {
            "actorGrassSubHurtDelta": 0.44999998807907104,
            "actorWindSubHurtDelta": 0.0,
            "elementDurability": 100.0,
            "strikeType": "Slash",
            "enBreak": 70.0,
            "GLKMCMDJBIK": 0.0
          },
          "hitPattern": {
            "onHitEffectName": "default",
            "hitImpulseY": "",
            "hitImpulseType": "LV2"
          }
        }
      },
      "AE_Slash01_02": {
        "attackPattern": {
          "$type": "ConfigAttackCircle",
          "triggerType": "TriggerNoRepeat",
          "born": {
            "$type": "ConfigBornBySelf",
            "offset": {
              "x": 0.0,
              "y": 0.0,
              "z": 0.4000000059604645
            }
          },
          "height": 1.5,
          "fanAngle": 310.0,
          "radius": 1.5499999523162842
        },
        "attackInfo": {
          "attackTag": "",
          "attenuationTag": "",
          "attenuationGroup": "default",
          "attackProperty": {
            "actorGrassSubHurtDelta": 0.800000011920929,
            "actorWindSubHurtDelta": 0.0,
            "elementDurability": 100.0,
            "strikeType": "Slash",
            "enBreak": 150.0,
            "GLKMCMDJBIK": 0.0
          },
          "hitPattern": {
            "onHitEffectName": "default",
            "hitImpulseY": "",
            "hitImpulseType": "LV3"
          }
        }
      },
      "AE_Slash02": {
        "attackPattern": {
          "$type": "ConfigAttackBox",
          "triggerType": "TriggerNoRepeat",
          "born": {
            "$type": "ConfigBornBySelf",
            "offset": {
              "x": 0.0,
              "y": 0.8999999761581421,
              "z": -0.20000000298023224
            }
          },
          "size": {
            "x": 1.600000023841858,
            "y": 2.0999999046325684,
            "z": 2.549999952316284
          }
        },
        "attackInfo": {
          "attackTag": "",
          "attenuationTag": "",
          "attenuationGroup": "default",
          "attackProperty": {
            "actorGrassSubHurtDelta": 0.8999999761581421,
            "actorWindSubHurtDelta": 0.0,
            "elementDurability": 100.0,
            "strikeType": "Slash",
            "enBreak": 160.0,
            "GLKMCMDJBIK": 0.0
          },
          "hitPattern": {
            "onHitEffectName": "default",
            "hitImpulseY": "",
            "hitImpulseType": "LV3"
          }
        }
      },
      "AE_ChargedAttack_Light": {
        "attackPattern": {
          "$type": "ConfigAttackCircle",
          "triggerType": "TriggerNoRepeat",
          "born": {
            "$type": "ConfigBornBySelf",
            "offset": {
              "x": 0.0,
              "y": 0.25,
              "z": 0.4000000059604645
            }
          },
          "height": 1.5,
          "fanAngle": 310.0,
          "radius": 1.5499999523162842
        },
        "attackInfo": {
          "attackTag": "",
          "attenuationTag": "",
          "attenuationGroup": "default",
          "attackProperty": {
            "actorGrassSubHurtDelta": 0.20000000298023224,
            "actorWindSubHurtDelta": 0.0,
            "elementDurability": 100.0,
            "strikeType": "Slash",
            "enBreak": 40.0,
            "GLKMCMDJBIK": 0.0
          },
          "hitPattern": {
            "onHitEffectName": "default",
            "hitImpulseY": "",
            "hitImpulseType": "LV2"
          }
        }
      },
      "AE_ChargedAttack_Heavy": {
        "attackPattern": {
          "$type": "ConfigAttackCircle",
          "triggerType": "TriggerNoRepeat",
          "born": {
            "$type": "ConfigBornBySelf",
            "offset": {
              "x": 0.0,
              "y": 0.0,
              "z": 0.6000000238418579
            }
          },
          "height": 1.600000023841858,
          "fanAngle": 310.0,
          "radius": 1.7899999618530273
        },
        "attackInfo": {
          "attackTag": "",
          "attenuationTag": "",
          "attenuationGroup": "default",
          "attackProperty": {
            "actorGrassSubHurtDelta": 1.0,
            "actorWindSubHurtDelta": 0.0,
            "elementDurability": 100.0,
            "strikeType": "Slash",
            "enBreak": 200.0,
            "GLKMCMDJBIK": 0.0
          },
          "hitPattern": {
            "onHitEffectName": "default",
            "hitImpulseY": "",
            "hitImpulseType": "LV5"
          }
        }
      }
    }
  },
  "equipController": {
    "sheathPoint": "",
    "attachPoints": {
      "equip01": "WeaponR",
      "equip02": "WeaponL"
    }
  },
  "abilities": [
    {
      "abilityID": "",
      "abilityName": "Eremite_TurnState_AnimatorSteer",
      "abilityOverride": ""
    },
    {
      "abilityID": "",
      "abilityName": "Eremite_Gloves_AnimatorSteer",
      "abilityOverride": ""
    },
    {
      "abilityID": "",
      "abilityName": "Eremite_Gloves_SlashCombo_Check",
      "abilityOverride": ""
    },
    {
      "abilityID": "",
      "abilityName": "Eremite_ReturnToBorn",
      "abilityOverride": ""
    },
    {
      "abilityID": "",
      "abilityName": "Eremite_Gloves_Equip_Display_Manager",
      "abilityOverride": ""
    },
    {
      "abilityID": "",
      "abilityName": "Eremite_Gloves_Equip_Hide",
      "abilityOverride": ""
    },
    {
      "abilityID": "",
      "abilityName": "Eremite_Universal_Alert",
      "abilityOverride": ""
    },
    {
      "abilityID": "",
      "abilityName": "Eremite_Gambling_Logic",
      "abilityOverride": ""
    },
    {
      "abilityID": "",
      "abilityName": "Eremite_FreePose_Display_Manager",
      "abilityOverride": ""
    },
    {
      "abilityID": "",
      "abilityName": "Eremite_FreePose_MuscleMan_Drinking_Display_Manager",
      "abilityOverride": ""
    }
  ],
  "stateLayers": {
    "defaultLayer": {
      "$type": "GBGJJIIEMBD",
      "layerIndexName": "",
      "CPAANEIJCGD": "",
      "stateIDs": {
        "NormalIdle": {
          "$type": "NEDIFAKEGCO",
          "animatorStates": {
            "Standby": []
          },
          "canDoSkill": true,
          "canSyncMove": true,
          "resetAnimatorTriggerOnExit": ["DoSkill"]
        },
        "NormalBorn": {
          "$type": "NEDIFAKEGCO",
          "animatorStates": {
            "Born": []
          },
          "canDoSkill": true,
          "resetAnimatorTriggerOnExit": ["DoSkill"]
        },
        "NormalMove": {
          "$type": "NEDIFAKEGCO",
          "animatorStates": {
            "WalkForward": ["Audio_Eremite_Male_Standard_Gloves_01_Walk"],
            "WalkBack": ["Audio_Eremite_Male_Standard_Gloves_01_Walk"],
            "WalkRight": ["Audio_Eremite_Male_Standard_Gloves_01_Walk"],
            "WalkLeft": ["Audio_Eremite_Male_Standard_Gloves_01_Walk"],
            "Run": ["Audio_Eremite_Male_Standard_Gloves_01_Run"]
          },
          "canDoSkill": true,
          "canSyncMove": true,
          "resetAnimatorTriggerOnExit": ["DoSkill"],
          "canSteer": true
        },
        "Turn": {
          "$type": "NEDIFAKEGCO",
          "animatorStates": {
            "TurnLeft": ["Audio_Eremite_Male_Standard_Gloves_01_Walk"],
            "TurnRight": ["Audio_Eremite_Male_Standard_Gloves_01_Walk"]
          },
          "canDoSkill": true,
          "canSyncMove": true,
          "resetAnimatorTriggerOnExit": ["DoSkill"],
          "canSteer": true
        },
        "BeHit": {
          "$type": "NEDIFAKEGCO",
          "animatorStates": {
            "Hit_L": [],
            "Hit_H": ["Audio_Eremite_Male_Standard_Gloves_01_Hit_H"]
          },
          "resetAnimatorTriggerOnEnter": ["BeHit"],
          "resetAnimatorTriggerOnExit": ["DoSkill"]
        },
        "BeHitThrow": {
          "$type": "NEDIFAKEGCO",
          "animatorStates": {
            "HitThrow": [],
            "HitThrowDrop": []
          },
          "resetAnimatorTriggerOnEnter": ["BeHit", "HitAir2HitDrop"],
          "resetAnimatorTriggerOnExit": ["DoSkill", "BeHit"],
          "setAnimatorBoolean": [
            {
              "name": "AirDie"
            }
          ]
        },
        "BeHitThrowToStandby": {
          "$type": "NEDIFAKEGCO",
          "animatorStates": {
            "HitThrowToGround": [
              "Audio_Eremite_Male_Standard_Gloves_01_HitThrowToGround"
            ]
          },
          "resetAnimatorTriggerOnEnter": ["BeHit", "HitAir2HitDrop"],
          "resetAnimatorTriggerOnExit": ["DoSkill", "BeHit"],
          "setAnimatorBoolean": [
            {
              "name": "AirDie",
              "normalizeEnd": 0.6200000047683716
            }
          ]
        },
        "Struggle": {
          "$type": "NEDIFAKEGCO",
          "animatorStates": {
            "Struggle": []
          },
          "resetAnimatorTriggerOnEnter": ["BeHit", "HitAir2HitDrop"],
          "resetAnimatorTriggerOnExit": ["DoSkill"]
        },
        "Die": {
          "$type": "NEDIFAKEGCO",
          "animatorStates": {
            "Die1": [
              "Monster_Eremite_Gloves_Die",
              "Audio_Eremite_Male_Standard_Gloves_01_Die"
            ],
            "Die2": [
              "Monster_Eremite_Gloves_Die",
              "Audio_Eremite_Male_Standard_Gloves_01_Die"
            ],
            "SwimDie_BS": [],
            "SwimDie": ["Monster_Eremite_SwimDie"],
            "SwimDie_AS": []
          }
        },
        "Die_RagDoll": {
          "$type": "NEDIFAKEGCO",
          "animatorStates": {
            "AirDie": ["Monster_Eremite_AirDie"]
          },
          "enableRagDoll": true
        },
        "Alert": {
          "$type": "NEDIFAKEGCO",
          "animatorStates": {
            "Alert": [
              "Monster_Eremite_Gloves_ShowWeapon",
              "Monster_Eremite_Clear_FreePoseMark",
              "Audio_Eremite_Male_Standard_Gloves_01_Alert"
            ]
          },
          "addEndure": 0.0,
          "resetAnimatorTriggerOnExit": ["BeHit", "DoSkill"],
          "autoSteer": true
        },
        "Crossleg_Alert": {
          "$type": "NEDIFAKEGCO",
          "animatorStates": {
            "CrosslegAlert": [
              "Monster_Eremite_Gloves_ShowWeapon_SpecialAlert",
              "Monster_Eremite_Clear_FreePoseMark",
              "Audio_Eremite_Male_Standard_Gloves_01_Crosslegalert"
            ]
          },
          "addEndure": 0.0,
          "resetAnimatorTriggerOnExit": ["BeHit", "DoSkill"]
        },
        "SheathWeapon": {
          "$type": "NEDIFAKEGCO",
          "animatorStates": {
            "SheathWeapon": ["Audio_Eremite_Male_Standard_Gloves_01_Alert"]
          },
          "resetAnimatorTriggerOnExit": [
            "BeHit",
            "DoSkill",
            "SheathWeaponTrigger"
          ]
        },
        "Slash01_BS": {
          "$type": "NEDIFAKEGCO",
          "animatorStates": {
            "Slash01_BS": ["Audio_Eremite_Male_Standard_Gloves_01_Slash01_BS"]
          },
          "resetAnimatorTriggerOnExit": ["BeHit", "DoSkill"]
        },
        "Slash01": {
          "$type": "NEDIFAKEGCO",
          "animatorStates": {
            "Slash01": [
              "Monster_Eremite_Gloves_Slash01",
              "Audio_Eremite_Male_Standard_Gloves_01_Slash01"
            ]
          },
          "resetAnimatorTriggerOnExit": ["BeHit", "DoSkill"]
        },
        "Slash01_AS": {
          "$type": "NEDIFAKEGCO",
          "animatorStates": {
            "Slash01_AS": ["Audio_Eremite_Male_Standard_Gloves_01_Slash01_AS"]
          },
          "resetAnimatorTriggerOnExit": ["BeHit", "DoSkill"]
        },
        "Slash02_BS": {
          "$type": "NEDIFAKEGCO",
          "animatorStates": {
            "Slash02_BS": ["Audio_Eremite_Male_Standard_Gloves_01_Slash02_BS"]
          },
          "resetAnimatorTriggerOnExit": ["BeHit", "DoSkill"]
        },
        "Slash02": {
          "$type": "NEDIFAKEGCO",
          "animatorStates": {
            "Slash02": [
              "Monster_Eremite_Gloves_Slash02",
              "Audio_Eremite_Male_Standard_Gloves_01_Slash02"
            ]
          },
          "resetAnimatorTriggerOnExit": ["BeHit", "DoSkill"]
        },
        "Slash02_AS": {
          "$type": "NEDIFAKEGCO",
          "animatorStates": {
            "Slash02_AS": ["Audio_Eremite_Male_Standard_Gloves_01_Slash02_AS"]
          },
          "resetAnimatorTriggerOnExit": ["BeHit", "DoSkill"]
        },
        "ChargedAttack_BS": {
          "$type": "NEDIFAKEGCO",
          "animatorStates": {
            "ChargedAttack_BS": [
              "Monster_Eremite_Gloves_ChargedAttack_BS_Effect",
              "Audio_Eremite_Male_Standard_Gloves_01_Chargedattack_BS"
            ]
          },
          "addEndure": 0.4000000059604645,
          "resetAnimatorTriggerOnExit": ["BeHit", "DoSkill"]
        },
        "ChargedAttack": {
          "$type": "NEDIFAKEGCO",
          "animatorStates": {
            "ChargedAttack": [
              "Monster_Eremite_Gloves_ChargedAttack",
              "Monster_Eremite_Gloves_ChargedAttack_Effect",
              "Audio_Eremite_Male_Standard_Gloves_01_ChargedAttack"
            ]
          },
          "addEndure": 0.0,
          "resetAnimatorTriggerOnExit": ["BeHit", "DoSkill"]
        },
        "ChargedAttack_AS": {
          "$type": "NEDIFAKEGCO",
          "animatorStates": {
            "ChargedAttack_AS": [
              "Audio_Eremite_Male_Standard_Gloves_01_Chargedattack_AS"
            ]
          },
          "resetAnimatorTriggerOnExit": ["BeHit", "DoSkill"]
        },
        "FreePose_Talk_Idle": {
          "$type": "NEDIFAKEGCO",
          "animatorStates": {
            "Talk_Idle": []
          },
          "canDoSkill": true,
          "resetAnimatorTriggerOnExit": ["BeHit", "DoSkill"]
        },
        "FreePose_Talk_Skill": {
          "$type": "NEDIFAKEGCO",
          "animatorStates": {
            "Talk_Skill": []
          },
          "canDoSkill": true,
          "resetAnimatorTriggerOnExit": ["BeHit", "DoSkill"]
        },
        "FreePose_HoldArm_Idle": {
          "$type": "NEDIFAKEGCO",
          "animatorStates": {
            "HoldArm_Idle": []
          },
          "canDoSkill": true,
          "resetAnimatorTriggerOnExit": ["BeHit", "DoSkill"]
        },
        "FreePose_Crossleg_Idle": {
          "$type": "NEDIFAKEGCO",
          "animatorStates": {
            "Crossleg_Idle": []
          },
          "canDoSkill": true,
          "resetAnimatorTriggerOnExit": ["BeHit", "DoSkill"]
        },
        "FreePose_Crossleg_Chat_Skill": {
          "$type": "NEDIFAKEGCO",
          "animatorStates": {
            "Crossleg_Chat01_Skill": [],
            "Crossleg_Chat02_Skill": []
          },
          "canDoSkill": true,
          "resetAnimatorTriggerOnExit": ["BeHit", "DoSkill"]
        },
        "FreePose_Crossleg_Drink_Skill": {
          "$type": "NEDIFAKEGCO",
          "animatorStates": {
            "Crossleg_Drink_Skill_01": [
              "Audio_Eremite_Male_Standard_Gloves_01_Drink"
            ],
            "Crossleg_Drink_Skill_02": [],
            "Crossleg_Drink_Skill_03": ["Monster_Eremite_Drinking_WaterDrop"],
            "Crossleg_Drink_Skill_04": [],
            "Crossleg_Drink_Skill_05": []
          },
          "canDoSkill": true,
          "resetAnimatorTriggerOnExit": ["BeHit", "DoSkill"]
        },
        "FreePose_Crossleg_Sleeping_Skill": {
          "$type": "NEDIFAKEGCO",
          "animatorStates": {
            "Crossleg_Sleeping_Skill": []
          },
          "canDoSkill": true,
          "resetAnimatorTriggerOnExit": ["BeHit", "DoSkill"]
        },
        "FreePose_Crossleg_Gambling_Bet_Skill": {
          "$type": "NEDIFAKEGCO",
          "animatorStates": {
            "Crossleg_Gambling_Bet_Skill": [
              "Audio_Eremite_Male_Standard_Gloves_01_Bet"
            ]
          },
          "canDoSkill": true,
          "resetAnimatorTriggerOnExit": ["BeHit", "DoSkill"]
        },
        "FreePose_Crossleg_Gambling_Roll": {
          "$type": "NEDIFAKEGCO",
          "animatorStates": {
            "Crossleg_Gambling_Roll": [
              "Monster_Eremite_Gambling_GetResult",
              "Audio_Eremite_Male_Standard_Gloves_01_Roll"
            ]
          },
          "canDoSkill": true,
          "resetAnimatorTriggerOnExit": ["BeHit", "DoSkill"]
        },
        "FreePose_Crossleg_Gambling_Lose": {
          "$type": "NEDIFAKEGCO",
          "animatorStates": {
            "Crossleg_Gambling_Lose": [
              "Audio_Eremite_Male_Standard_Gloves_01_Gambling_Lose"
            ]
          },
          "canDoSkill": true,
          "resetAnimatorTriggerOnExit": ["BeHit", "DoSkill"]
        },
        "FreePose_Crossleg_Gambling_Win": {
          "$type": "NEDIFAKEGCO",
          "animatorStates": {
            "Crossleg_Gambling_Win": [
              "Audio_Eremite_Male_Standard_Gloves_01_Gambling_Win"
            ]
          },
          "canDoSkill": true,
          "resetAnimatorTriggerOnExit": ["BeHit", "DoSkill"]
        }
      }
    }
  },
  "billboard": {
    "$type": "DNGNMAJBCNP",
    "attachPoint": "BillboardAttach",
    "offset": {
      "x": -0.05000000074505806
    },
    "offsetType": "Character",
    "radiusOffset": 0.25,
    "showHPBar": true
  },
  "initialPoses": {
    "Default": {},
    "HoldArm": {
      "initialPoseID": 9001,
      "initialPoseParams": {
        "intParams": {
          "FreePoseMark": "9001"
        }
      }
    },
    "Talk": {
      "initialPoseID": 9002,
      "initialPoseParams": {
        "intParams": {
          "FreePoseMark": "9002"
        }
      }
    },
    "CrossLeg_Talk_Only": {
      "initialPoseID": 9501,
      "initialPoseParams": {
        "intParams": {
          "FreePoseMark": "9501"
        }
      }
    },
    "CrossLeg_Universal": {
      "initialPoseID": 9502,
      "initialPoseParams": {
        "intParams": {
          "FreePoseMark": "9502"
        }
      }
    },
    "CrossLeg_Drink_Only": {
      "initialPoseID": 9503,
      "initialPoseParams": {
        "intParams": {
          "FreePoseMark": "9503"
        }
      }
    },
    "CrossLeg_Sleeping": {
      "initialPoseID": 9504,
      "initialPoseParams": {
        "intParams": {
          "FreePoseMark": "9504"
        }
      }
    },
    "CrossLeg_Gambling_Banker": {
      "initialPoseID": 9511,
      "initialPoseParams": {
        "intParams": {
          "FreePoseMark": "9511"
        }
      }
    },
    "CrossLeg_Gambling_Receiver": {
      "initialPoseID": 9512,
      "initialPoseParams": {
        "intParams": {
          "FreePoseMark": "9512"
        }
      }
    }
  },
  "aibeta": {
    "enable": true,
    "moveSetting": {
      "navMeshAgentName": "Undead01",
      "almostReachedDistanceRun": 1.5
    },
    "sensing": {
      "settings": {
        "DefaultSetting": {
          "feelRange": 8.0
        },
        "HighAlert": {
          "viewRange": 40.0,
          "feelRange": 10.0
        },
        "LowAlert": {
          "viewRange": 15.0,
          "feelRange": 6.0
        },
        "UltraLowSensing": {
          "viewRange": 10.0,
          "hearAttractionRange": 0.0,
          "feelRange": 4.0
        },
        "EarshotFix": {
          "hearAttractionRange": 9.0,
          "feelRange": 8.0
        },
        "NeverCombat": {
          "enableVision": false,
          "hearAttractionRange": 0.0,
          "feelRange": 0.0
        }
      },
      "templates": {
        "DefaultTemplate": {
          "DefaultPoses": "DefaultSetting"
        },
        "HighAlert": {
          "DefaultPoses": "HighAlert"
        },
        "LowAlert": {
          "DefaultPoses": "LowAlert"
        },
        "UltraLowSensing": {
          "DefaultPoses": "UltraLowSensing"
        },
        "EarshotFix": {
          "DefaultPoses": "EarshotFix"
        },
        "NeverCombat": {
          "DefaultPoses": "NeverCombat"
        }
      }
    },
    "neurons": {
      "DefaultSetting": ["HIT"],
      "NeverCombat": []
    },
    "threat": {
      "GHIJMOKOLMB": "",
      "clearThreatByLostPath": true,
      "clearThreatTimerByDistance": 3.0,
      "viewAttenuation": [
        {
          "x": 10.0,
          "y": 2.0
        },
        {
          "x": 15.0,
          "y": 0.800000011920929
        },
        {
          "x": 20.0,
          "y": 0.5
        },
        {
          "x": 25.0,
          "y": 0.30000001192092896
        },
        {
          "x": 30.0,
          "y": 0.20000000298023224
        }
      ]
    },
    "defendArea": {},
    "skills": {
      "101": {
        "name": "OnAlert",
        "skillType": "OnAlert",
        "castCondition": {
          "pose": [1, 9001, 9002]
        },
        "publicCDGroup": "",
        "ignoreGCD": true,
        "HHAGODJIAPE": "",
        "stateIDs": ["Alert"],
        "skillQueryingTime": 3.0,
        "flagTargetReachable": "10",
        "flagSelfOnTemplateCollider": "01",
        "flagSelfInZone": "10",
        "flagTargetInZone": "11"
      },
      "102": {
        "name": "OnAlert_Combat",
        "priority": 1,
        "castCondition": {
          "pose": [1, 9001, 9002, 10]
        },
        "publicCDGroup": "",
        "ignoreGCD": true,
        "HHAGODJIAPE": "",
        "stateIDs": ["Alert"],
        "skillQueryingTime": 3.0,
        "flagTargetReachable": "11",
        "flagSelfOnTemplateCollider": "11",
        "flagSelfInZone": "11",
        "flagTargetInZone": "11"
      },
      "111": {
        "name": "OnAlert_Crossleg",
        "skillType": "OnAlert",
        "castCondition": {
          "pose": [9501, 9502, 9503, 9504, 9511, 9512]
        },
        "publicCDGroup": "",
        "ignoreGCD": true,
        "HHAGODJIAPE": "",
        "stateIDs": ["Alert"],
        "skillQueryingTime": 3.0,
        "flagTargetReachable": "10",
        "flagSelfOnTemplateCollider": "01",
        "flagSelfInZone": "10",
        "flagTargetInZone": "11"
      },
      "112": {
        "name": "OnAlert_Crossleg_Combat",
        "castCondition": {
          "pose": [9501, 9502, 9503, 9504, 9511, 9512]
        },
        "publicCDGroup": "",
        "ignoreGCD": true,
        "HHAGODJIAPE": "",
        "stateIDs": ["Alert"],
        "skillQueryingTime": 3.0,
        "flagTargetReachable": "11",
        "flagSelfOnTemplateCollider": "11",
        "flagSelfInZone": "11",
        "flagTargetInZone": "11"
      },
      "201": {
        "name": "Slash01",
        "combatSkillType": "MeleeAttack",
        "priority": 2,
        "castCondition": {
          "pose": [1001],
          "pickRangeMax": 5.0
        },
        "cd": 6.0,
        "cdUpperRange": 2.0,
        "publicCDGroup": "",
        "HHAGODJIAPE": "",
        "stateIDs": ["Slash01_BS", "Slash01", "Slash01_AS"],
        "flagTargetReachable": "10",
        "flagSelfOnTemplateCollider": "11",
        "flagSelfInZone": "11",
        "flagTargetInZone": "11"
      },
      "202": {
        "name": "Slash02",
        "combatSkillType": "MeleeAttack",
        "priority": 2,
        "castCondition": {
          "pose": [1001],
          "pickRangeMax": 5.0
        },
        "cd": 6.0,
        "cdUpperRange": 2.0,
        "publicCDGroup": "",
        "HHAGODJIAPE": "",
        "stateIDs": ["Slash02_BS", "Slash02", "Slash02_AS"],
        "flagTargetReachable": "10",
        "flagSelfOnTemplateCollider": "01",
        "flagSelfInZone": "11",
        "flagTargetInZone": "11"
      },
      "301": {
        "name": "ChargedAttack",
        "combatSkillType": "RangedAttack",
        "priority": 2,
        "castCondition": {
          "pose": [1001],
          "pickRangeMax": 6.800000190734863
        },
        "cd": 6.0,
        "cdUpperRange": 2.0,
        "publicCDGroup": "",
        "HHAGODJIAPE": "",
        "stateIDs": ["ChargedAttack_BS", "ChargedAttack", "ChargedAttack_AS"],
        "flagTargetReachable": "10",
        "flagSelfOnTemplateCollider": "11",
        "flagSelfInZone": "11",
        "flagTargetInZone": "11"
      },
      "90021": {
        "name": "Talk",
        "skillType": "Free",
        "castCondition": {
          "pose": [9002]
        },
        "cd": 2.0,
        "cdUpperRange": 5.0,
        "publicCDGroup": "",
        "HHAGODJIAPE": "",
        "stateIDs": ["FreePose_Talk_Skill"],
        "flagTargetReachable": "10",
        "flagSelfOnTemplateCollider": "01",
        "flagSelfInZone": "10",
        "flagTargetInZone": "11"
      },
      "95011": {
        "name": "Chat01",
        "skillType": "Free",
        "castCondition": {
          "pose": [9501, 9502]
        },
        "cd": 9.0,
        "cdUpperRange": 7.0,
        "publicCDGroup": "",
        "HHAGODJIAPE": "",
        "stateIDs": ["FreePose_Crossleg_Chat_Skill"],
        "flagTargetReachable": "10",
        "flagSelfOnTemplateCollider": "01",
        "flagSelfInZone": "10",
        "flagTargetInZone": "11"
      },
      "95012": {
        "name": "Chat02",
        "skillType": "Free",
        "castCondition": {
          "pose": [9501, 9502]
        },
        "cd": 10.0,
        "cdUpperRange": 7.0,
        "initialCD": 12.0,
        "publicCDGroup": "",
        "HHAGODJIAPE": "",
        "stateIDs": ["FreePose_Crossleg_Chat_Skill"],
        "flagTargetReachable": "10",
        "flagSelfOnTemplateCollider": "01",
        "flagSelfInZone": "10",
        "flagTargetInZone": "11"
      },
      "95031": {
        "name": "Drink",
        "skillType": "Free",
        "castCondition": {
          "pose": [9502, 9503]
        },
        "cd": 12.0,
        "cdUpperRange": 7.0,
        "initialCD": 6.0,
        "publicCDGroup": "",
        "HHAGODJIAPE": "",
        "stateIDs": ["FreePose_Crossleg_Drink_Skill"],
        "flagTargetReachable": "10",
        "flagSelfOnTemplateCollider": "01",
        "flagSelfInZone": "10",
        "flagTargetInZone": "11"
      },
      "95041": {
        "name": "Sleeping",
        "skillType": "Free",
        "castCondition": {
          "pose": [9504]
        },
        "cd": 3.5,
        "cdUpperRange": 8.0,
        "initialCD": 2.0,
        "publicCDGroup": "",
        "HHAGODJIAPE": "",
        "stateIDs": ["FreePose_Crossleg_Sleeping_Skill"],
        "flagTargetReachable": "10",
        "flagSelfOnTemplateCollider": "01",
        "flagSelfInZone": "10",
        "flagTargetInZone": "11"
      },
      "95111": {
        "name": "Gambling",
        "skillType": "Free",
        "castCondition": {
          "pose": [9511]
        },
        "cdUpperRange": 3.0,
        "initialCD": 6.0,
        "publicCDGroup": "",
        "HHAGODJIAPE": "",
        "stateIDs": [
          "FreePose_Crossleg_Gambling_Bet_Skill",
          "FreePose_Crossleg_Gambling_Roll",
          "FreePose_Crossleg_Gambling_Lose",
          "FreePose_Crossleg_Gambling_Win"
        ],
        "flagTargetReachable": "10",
        "flagSelfOnTemplateCollider": "01",
        "flagSelfInZone": "10",
        "flagTargetInZone": "11"
      }
    },
    "skillGCD": 3.5,
    "birdCirclingTactic": [
      {
        "$type": "EPHBMLFODKF",
        "enable": true,
        "condition": {
          "pose": [1001, 10]
        },
        "JMCOBEPDIGM": {
          "rangeMin": 1.100000023841858,
          "rangeMax": 3.0,
          "BFJBDDIIFOI": {
            "LLICGJHIGME": 6.0,
            "IDEFILBHNAP": 2.0,
            "IBLIPJPNOGC": 0.5,
            "AEBLMKFNCDG": 4.0,
            "IGLIBIOEGBB": 4.0
          },
          "NAOBMNGDKHL": "1111",
          "JCNIJOAIGII": "1111",
          "MNPDDAKDHGK": ""
        }
      },
      {
        "$type": "OJOBEDCMGKM",
        "enable": true,
        "condition": {
          "pose": [1]
        }
      },
      {
        "$type": "KACCHOLJDNK",
        "enable": true,
        "condition": {
          "pose": [1001, 10]
        },
        "JMCOBEPDIGM": {
          "KHDFDAAAPEI": 5.0,
          "HKJODDGJPHA": 50.0,
          "GGEBMFHFBPO": 4.0,
          "KFFGCIMPNMJ": 3.5,
          "MNPDDAKDHGK": ""
        }
      },
      {
        "$type": "NNJKLGNPMNN",
        "enable": true,
        "JMCOBEPDIGM": {
          "MNPDDAKDHGK": "",
          "GJDMDHIBCME": ""
        }
      },
      {
        "$type": "FPELBIJFGCE",
        "enable": true,
        "condition": {
          "pose": [1]
        },
        "JMCOBEPDIGM": {
          "KPNDPKIOPJM": 3.0,
          "PINAFKEDDLL": 1.5,
          "ANMPOPEBDIA": 15.0,
          "GMJFIMFFOEL": 3.75,
          "CHCPFDMADEI": 7.5,
          "MNPDDAKDHGK": ""
        }
      }
    ]
  },
  "inputKeys": [
    {
      "keyID": 201,
      "inputKeyCode": 258,
      "abilityName": ""
    },
    {
      "keyID": 202,
      "inputKeyCode": 259,
      "abilityName": ""
    },
    {
      "keyID": 301,
      "inputKeyCode": 260,
      "abilityName": ""
    }
  ],
  "move": {
    "$type": "IPNMJMHDMPF",
    "facingMove": "FourDirection",
    "monsterSizeType": "StoopType",
    "PKHOMJHFAEE": "RootNode"
  },
  "audio": {
    "overrideEmitterName": "",
    "animAudio": {
      "onTransitionIn": [
        {
          "currentStateName": "",
          "audioEvent": {
            "text": ""
          }
        }
      ],
      "onTransitionOut": [
        {
          "currentStateName": "Crossleg_Drink_Skill",
          "audioEvent": {
            "text": "Stop_sfx_monster_Human_MuscleMan_NoWeapon_crossleg_drink"
          }
        },
        {
          "currentStateName": "Crossleg_Gambling_Bet_Skill",
          "audioEvent": {
            "text": "Stop_sfx_monster_Human_MuscleMan_NoWeapon_gambling_bet"
          }
        },
        {
          "currentStateName": "Crossleg_Gambling_Lose",
          "audioEvent": {
            "text": "Stop_sfx_monster_Human_MuscleMan_NoWeapon_gambling_lose"
          }
        },
        {
          "currentStateName": "Crossleg_Gambling_Roll",
          "audioEvent": {
            "text": "Stop_sfx_monster_Human_MuscleMan_NoWeapon_gambling_roll"
          }
        },
        {
          "currentStateName": "Crossleg_Gambling_Win",
          "audioEvent": {
            "text": "Stop_sfx_monster_Human_MuscleMan_NoWeapon_gambling_win"
          }
        }
      ]
    }
  }
}
