{
  "common": {
    "effectAttachShape": {
      "$type": "FJNPJANPGGC",
      "mesh": "EffectMesh"
    },
    "mass": 30.0,
    "height": 1.0,
    "affectedByWorld": true,
    "checkInSurface": true,
    "disableTickDistance": 100000.0,
    "useGrassDisplacement": true
  },
  "headControl": {
    "$type": "KPIPDEBDPIH"
  },
  "model": {
    "bornEffect": "Eff_Monster_Common_Born",
    "attachEffect": "",
    "BKPFGNPLDNJ": ""
  },
  "combat": {
    "property": {
      "endureType": "Monster_Minion",
      "weight": 75.0
    },
    "beHit": {
      "hitBloodEffect": ""
    },
    "combatLock": {
      "lockShape": "CircleLockEnemy",
      "lockType": "Avatar&Monster_Lv4"
    },
    "die": {
      "hasAnimatorDie": true,
      "dieEndTime": 2.0,
      "dieForceDisappearTime": 4.0,
      "dieDisappearEffect": "Eff_Death_Common",
      "dieShaderData": "MonsterDie",
      "useRagDoll": true,
      "muteHitBox": true,
      "dieDenyLockOn": true,
      "dieIsGhostToEnemy": true,
      "dieIgnoreTriggerBullet": true,
      "muteBillboard": true,
      "mutePushCollider": true
    },
    "animEvents": {
      "Shaman_Water_MeleeAttack": {
        "attackPattern": {
          "$type": "ConfigAttackCircle",
          "triggerType": "TriggerNoRepeat",
          "born": {
            "$type": "ConfigBornBySelf",
            "offset": {
              "x": 0.0,
              "y": 0.0,
              "z": 0.0
            }
          },
          "fanAngle": 150.0,
          "radius": 3.0
        },
        "attackInfo": {
          "attackTag": "",
          "attenuationTag": "",
          "attenuationGroup": "default",
          "attackProperty": {
            "actorGrassSubHurtDelta": 1.0,
            "actorWindSubHurtDelta": 0.0,
            "elementDurability": 100.0,
            "strikeType": "Blunt",
            "enBreak": 100.0,
            "attackType": "Melee",
            "GLKMCMDJBIK": 0.0
          },
          "hitPattern": {
            "onHitEffectName": "default",
            "hitImpulseY": "",
            "hitImpulseType": "LV5"
          },
          "cameraShake": {
            "shakeType": "HitVector",
            "shakeRange": 0.20000000298023224,
            "shakeTime": 0.15000000596046448,
            "shakeDistance": 25.0,
            "shakeDir": {
              "x": -1.0,
              "y": -0.30000001192092896
            }
          }
        }
      }
    }
  },
  "equipController": {
    "sheathPoint": "",
    "attachPoints": {
      "equip01": "WeaponR"
    }
  },
  "abilities": [
    {
      "abilityID": "Monster_Search_Shaman_Alert_Handler",
      "abilityName": "Monster_Search_Shaman_Alert_Handler",
      "abilityOverride": ""
    },
    {
      "abilityID": "Monster_Shaman_Water_HealRain",
      "abilityName": "Monster_Shaman_Water_HealRain",
      "abilityOverride": ""
    },
    {
      "abilityID": "Shaman_Water_CreateTorrent",
      "abilityName": "Shaman_Water_CreateTorrent",
      "abilityOverride": ""
    },
    {
      "abilityID": "Monster_Shaman_Water_DistanceCharge",
      "abilityName": "Monster_Shaman_Water_DistanceCharge",
      "abilityOverride": ""
    },
    {
      "abilityID": "Monster_Shaman_Water_SetPose",
      "abilityName": "Monster_Shaman_Water_SetPose",
      "abilityOverride": ""
    },
    {
      "abilityID": "Shaman_Water_AnimationSteer",
      "abilityName": "Shaman_Water_AnimationSteer",
      "abilityOverride": ""
    },
    {
      "abilityID": "Monster_Shaman_Water_EscapeState",
      "abilityName": "Monster_Shaman_Water_EscapeState",
      "abilityOverride": ""
    },
    {
      "abilityID": "Monster_Shaman_Water_WeaponElementEffect",
      "abilityName": "Monster_Shaman_Water_WeaponElementEffect",
      "abilityOverride": ""
    },
    {
      "abilityID": "Shaman_SpecialsState",
      "abilityName": "Shaman_SpecialsState",
      "abilityOverride": "",
      "lightWeightRemove": true
    },
    {
      "abilityID": "Hili_None_Alert",
      "abilityName": "Hili_None_Alert",
      "abilityOverride": "",
      "lightWeightRemove": true
    }
  ],
  "stateLayers": {
    "defaultLayer": {
      "$type": "GBGJJIIEMBD",
      "layerIndexName": "",
      "CPAANEIJCGD": "",
      "stateIDs": {
        "NormalIdle": {
          "$type": "NEDIFAKEGCO",
          "animatorStates": {
            "Standby": [],
            "WalkToStandby": [],
            "Born": []
          },
          "canDoSkill": true,
          "canSyncMove": true,
          "resetAnimatorTriggerOnExit": ["DoSkill"]
        },
        "NormalMove": {
          "$type": "NEDIFAKEGCO",
          "animatorStates": {
            "Walk": ["Audio_Shaman_Water_Walk", "Audio_Shaman_Water_Walk_Vo"],
            "Run": ["Audio_Shaman_Water_Run", "Audio_Shaman_Water_Run_Vo"],
            "Escape": ["Audio_Shaman_Water_Run", "Audio_Shaman_Water_Escape_Vo"]
          },
          "canDoSkill": true,
          "canSyncMove": true,
          "resetAnimatorTriggerOnExit": ["DoSkill"],
          "canSteer": true
        },
        "Turn": {
          "$type": "NEDIFAKEGCO",
          "animatorStates": {
            "Turn_Left": ["Audio_Shaman_Water_Turn"],
            "Turn_Right": ["Audio_Shaman_Water_Turn"]
          },
          "canDoSkill": true,
          "canSyncMove": true,
          "resetAnimatorTriggerOnExit": ["DoSkill"],
          "canSteer": true
        },
        "BeHit": {
          "$type": "NEDIFAKEGCO",
          "animatorStates": {
            "Hit_L": ["Audio_Shaman_Water_Hit_L_Vo"],
            "Hit_H": ["Audio_Shaman_Water_Hit_H", "Audio_Shaman_Water_Hit_H_Vo"]
          },
          "resetAnimatorTriggerOnEnter": ["BeHit"],
          "resetAnimatorTriggerOnExit": ["DoSkill"]
        },
        "BeHitThrow": {
          "$type": "NEDIFAKEGCO",
          "animatorStates": {
            "HitThrow": [],
            "HitThrowDrop": [],
            "HitThrowToGround": [
              "Audio_Shaman_Water_HitThrowToGround",
              "Audio_Shaman_Water_HitThrowToGround_Vo"
            ]
          },
          "resetAnimatorTriggerOnEnter": ["BeHit", "HitAir2HitDrop"],
          "resetAnimatorTriggerOnExit": ["DoSkill"]
        },
        "Struggle": {
          "$type": "NEDIFAKEGCO",
          "animatorStates": {
            "Struggle": []
          },
          "resetAnimatorTriggerOnEnter": ["BeHit", "HitAir2HitDrop"],
          "resetAnimatorTriggerOnExit": ["DoSkill"]
        },
        "Die": {
          "$type": "NEDIFAKEGCO",
          "animatorStates": {
            "SwimDie": ["Monster_Shaman_Die"],
            "SwimDie_AS": []
          }
        },
        "Die_Ragdoll": {
          "$type": "NEDIFAKEGCO",
          "animatorStates": {
            "Die": ["Monster_Shaman_Die"],
            "AirDie": ["Monster_Shaman_Die"]
          },
          "enableRagDoll": true
        },
        "Life_Alert": {
          "$type": "NEDIFAKEGCO",
          "animatorStates": {
            "Alert": ["Audio_Shaman_Water_Alert", "Audio_Shaman_Water_Alert_Vo"]
          },
          "resetAnimatorTriggerOnExit": ["BeHit", "DoSkill"],
          "canSteer": true,
          "autoSteer": true
        },
        "Dance": {
          "$type": "NEDIFAKEGCO",
          "animatorStates": {
            "Dance": []
          },
          "canDoSkill": true,
          "resetAnimatorTriggerOnExit": ["BeHit", "DoSkill"]
        },
        "MeleeAttack": {
          "$type": "NEDIFAKEGCO",
          "animatorStates": {
            "MeleeAttack": [
              "Monster_Shaman_Water_MeleeAttack",
              "Audio_Shaman_Water_MeleeAttack",
              "Audio_Shaman_Water_MeleeAttack_Vo"
            ]
          },
          "addEndure": 0.4000000059604645,
          "resetAnimatorTriggerOnExit": ["BeHit", "DoSkill"]
        },
        "SupportAttack": {
          "$type": "NEDIFAKEGCO",
          "animatorStates": {
            "SupportAttack": [
              "Audio_Shaman_Water_SupportAttack",
              "Audio_Shaman_Water_SupportAttack_Vo"
            ],
            "SupportAttack_AS": [
              "Audio_Shaman_Water_SupportAttack_AS",
              "Audio_Shaman_Water_SupportAttack_AS_Vo"
            ]
          },
          "resetAnimatorTriggerOnEnter": ["SupportAttackExit"],
          "resetAnimatorTriggerOnExit": ["BeHit", "DoSkill"]
        },
        "SupportAttack2": {
          "$type": "NEDIFAKEGCO",
          "animatorStates": {
            "SupportAttack2": [
              "Audio_Shaman_Water_SupportAttack",
              "Audio_Shaman_Water_SupportAttack_Vo"
            ],
            "SupportAttack2_AS": [
              "Audio_Shaman_Water_SupportAttack_AS",
              "Audio_Shaman_Water_SupportAttack_AS_Vo"
            ]
          },
          "resetAnimatorTriggerOnEnter": ["SupportAttackExit2"],
          "resetAnimatorTriggerOnExit": ["BeHit", "DoSkill"]
        },
        "SupportAttack_BS": {
          "$type": "NEDIFAKEGCO",
          "animatorStates": {
            "SupportAttack_BS": [
              "Audio_Shaman_Water_SupportAttack_BS",
              "Audio_Shaman_Water_SupportAttack_BS_Vo"
            ],
            "SupportAttack2_BS": [
              "Audio_Shaman_Water_SupportAttack_BS",
              "Audio_Shaman_Water_SupportAttack_BS_Vo"
            ]
          },
          "resetAnimatorTriggerOnExit": ["BeHit", "DoSkill"]
        },
        "NormalAttack1": {
          "$type": "NEDIFAKEGCO",
          "animatorStates": {
            "NormalAttack_AS1": [
              "Monster_Shaman_Water_NormalAttack",
              "Audio_Shaman_Water_NormalAttack_AS_Vo"
            ]
          },
          "resetAnimatorTriggerOnExit": ["BeHit", "DoSkill"]
        },
        "NormalAttack_BS1": {
          "$type": "NEDIFAKEGCO",
          "animatorStates": {
            "NormalAttack_BS1": [
              "Audio_Shaman_Water_NormalAttack_BS",
              "Audio_Shaman_Water_NormalAttack_BS_Vo",
              "Monster_Shaman_Water_NormalAttack_Effect"
            ]
          },
          "resetAnimatorTriggerOnEnter": ["NormalAttackWave2"],
          "resetAnimatorTriggerOnExit": ["BeHit", "DoSkill"]
        },
        "NormalAttack2": {
          "$type": "NEDIFAKEGCO",
          "animatorStates": {
            "NormalAttack_AS2": [
              "Monster_Shaman_Water_NormalAttack",
              "Audio_Shaman_Water_NormalAttack_AS_Vo"
            ]
          },
          "resetAnimatorTriggerOnExit": ["BeHit", "DoSkill"]
        },
        "NormalAttack_BS2": {
          "$type": "NEDIFAKEGCO",
          "animatorStates": {
            "NormalAttack_BS2": [
              "Audio_Shaman_Water_NormalAttack_BS",
              "Audio_Shaman_Water_NormalAttack_BS_Vo",
              "Monster_Shaman_Water_NormalAttack_Effect"
            ]
          },
          "resetAnimatorTriggerOnEnter": ["NormalAttackWave3"],
          "resetAnimatorTriggerOnExit": ["BeHit", "DoSkill"]
        },
        "NormalAttack3": {
          "$type": "NEDIFAKEGCO",
          "animatorStates": {
            "NormalAttack_AS3": [
              "Monster_Shaman_Water_NormalAttack",
              "Audio_Shaman_Water_NormalAttack_AS_Vo"
            ]
          },
          "resetAnimatorTriggerOnExit": ["BeHit", "DoSkill"]
        },
        "NormalAttack_BS3": {
          "$type": "NEDIFAKEGCO",
          "animatorStates": {
            "NormalAttack_BS3": [
              "Audio_Shaman_Water_NormalAttack_BS",
              "Audio_Shaman_Water_NormalAttack_BS_Vo",
              "Monster_Shaman_Water_NormalAttack_Effect"
            ]
          },
          "resetAnimatorTriggerOnExit": ["BeHit", "DoSkill"]
        }
      }
    }
  },
  "billboard": {
    "$type": "DNGNMAJBCNP",
    "attachPoint": "BillboardAttach",
    "offset": {
      "x": -0.10000000149011612,
      "y": -0.10000000149011612
    },
    "offsetType": "Character",
    "radiusOffset": 0.3199999928474426,
    "showHPBar": true
  },
  "initialPoses": {
    "Default": {},
    "Dance": {
      "initialPoseID": 9012,
      "initialPoseParams": {
        "boolParams": {
          "Dance": "true"
        }
      }
    }
  },
  "aibeta": {
    "enable": true,
    "sensing": {
      "settings": {
        "DefaultSetting": {
          "viewRange": 15.0,
          "horizontalFov": 90.0,
          "verticalFov": 40.0,
          "useEyeTransformRotation": true,
          "hearAttractionRange": 2.0,
          "feelRange": 2.0,
          "sourcelessHitAttractionRange": 30.0
        },
        "LowAlert": {
          "viewRange": 0.0,
          "horizontalFov": 30.0,
          "verticalFov": 45.0,
          "useEyeTransformRotation": true,
          "hearAttractionRange": 0.0,
          "feelRange": 0.0
        }
      },
      "templates": {
        "DefaultTemplate": {
          "DefaultPoses": "DefaultSetting",
          "1001": "DefaultSetting",
          "8001": "LowAlert"
        }
      }
    },
    "neurons": {
      "DefaultSetting": ["HIT"],
      "LostSamachurl_Dance": ["DANCE"],
      "LostSamachurl_Sit": ["SIT"],
      "LostSamachurl_Hiding": ["HIDING"],
      "NeverCombat": []
    },
    "threat": {
      "GHIJMOKOLMB": "",
      "clearThreatTargetDistance": 30.0,
      "clearThreatEdgeDistance": 0.0,
      "viewThreatGrow": 20.0,
      "feelThreatGrow": 20.0,
      "threatDecreaseSpeed": 10.0
    },
    "defendArea": {},
    "ui": {
      "HMNNBFDEHLG": ""
    },
    "skills": {
      "100": {
        "name": "OnAlert",
        "skillType": "OnAlert",
        "faceTarget": true,
        "publicCDGroup": "",
        "ignoreGCD": true,
        "triggerGCD": false,
        "HHAGODJIAPE": "",
        "stateIDs": ["Life_Alert"],
        "skillQueryingTime": 3.0,
        "flagTargetReachable": "10",
        "flagSelfOnTemplateCollider": "01",
        "flagSelfInZone": "10",
        "flagTargetInZone": "11"
      },
      "101": {
        "name": "SupportAttack",
        "enableSkillPrepare": true,
        "skillPrepareTimeout": 2.0,
        "castCondition": {
          "pose": [1001],
          "pickRangeMin": 10.0,
          "pickRangeMax": 30.0,
          "castRangeMin": 10.0,
          "castRangeMax": 25.0
        },
        "cd": 5.0,
        "publicCDGroup": "",
        "triggerGCD": false,
        "HHAGODJIAPE": "",
        "stateIDs": ["SupportAttack_BS", "SupportAttack"],
        "flagTargetReachable": "10",
        "flagSelfOnTemplateCollider": "11",
        "flagSelfInZone": "10",
        "flagTargetInZone": "11"
      },
      "102": {
        "name": "SupportAttack2",
        "priority": 2,
        "enableSkillPrepare": true,
        "skillPrepareTimeout": 1.5,
        "castCondition": {
          "pose": [1001],
          "pickRangeMin": 3.5,
          "pickRangeMax": 10.0,
          "castRangeMin": 3.5,
          "castRangeMax": 10.0
        },
        "cd": 5.0,
        "publicCDGroup": "",
        "triggerGCD": false,
        "HHAGODJIAPE": "",
        "stateIDs": ["SupportAttack2_BS", "SupportAttack2"],
        "flagTargetReachable": "10",
        "flagSelfOnTemplateCollider": "11",
        "flagSelfInZone": "10",
        "flagTargetInZone": "11"
      },
      "201": {
        "name": "NormalAttack",
        "priority": 1,
        "enableSkillPrepare": true,
        "skillPrepareTimeout": 2.0,
        "castCondition": {
          "pose": [1001],
          "pickRangeMin": 3.5,
          "pickRangeMax": 10.0,
          "castRangeMin": 3.5,
          "castRangeMax": 10.0
        },
        "cd": 5.0,
        "cdUpperRange": 2.5,
        "publicCDGroup": "",
        "triggerGCD": false,
        "HHAGODJIAPE": "",
        "stateIDs": [
          "NormalAttack_BS1",
          "NormalAttack1",
          "NormalAttack_BS2",
          "NormalAttack2",
          "NormalAttack_BS3",
          "NormalAttack3"
        ],
        "flagTargetReachable": "10",
        "flagSelfOnTemplateCollider": "11",
        "flagSelfInZone": "10",
        "flagTargetInZone": "11"
      },
      "202": {
        "name": "NormalAttack",
        "enableSkillPrepare": true,
        "skillPrepareTimeout": 2.0,
        "castCondition": {
          "pose": [1000],
          "pickRangeMin": 3.5,
          "pickRangeMax": 20.0,
          "castRangeMin": 3.5,
          "castRangeMax": 20.0
        },
        "cd": 5.0,
        "cdUpperRange": 2.5,
        "publicCDGroup": "",
        "triggerGCD": false,
        "HHAGODJIAPE": "",
        "stateIDs": [
          "NormalAttack_BS1",
          "NormalAttack1",
          "NormalAttack_BS2",
          "NormalAttack2",
          "NormalAttack_BS3",
          "NormalAttack3"
        ],
        "flagTargetReachable": "10",
        "flagSelfOnTemplateCollider": "11",
        "flagSelfInZone": "10",
        "flagTargetInZone": "11"
      },
      "203": {
        "name": "NormalAttack",
        "enableSkillPrepare": true,
        "skillPrepareTimeout": 2.0,
        "castCondition": {
          "pose": [1000, 1001],
          "pickRangeMin": 3.5,
          "pickRangeMax": 20.0,
          "castRangeMin": 3.5,
          "castRangeMax": 20.0
        },
        "cd": 5.0,
        "cdUpperRange": 2.5,
        "publicCDGroup": "",
        "triggerGCD": false,
        "HHAGODJIAPE": "",
        "stateIDs": [
          "NormalAttack_BS1",
          "NormalAttack1",
          "NormalAttack_BS2",
          "NormalAttack2",
          "NormalAttack_BS3",
          "NormalAttack3"
        ],
        "flagTargetReachable": "01",
        "flagSelfOnTemplateCollider": "01",
        "flagSelfInZone": "10",
        "flagTargetInZone": "11"
      },
      "204": {
        "name": "NormalAttack",
        "enableSkillPrepare": true,
        "skillPrepareTimeout": 2.0,
        "castCondition": {
          "pose": [1000, 1001],
          "pickRangeMin": 3.5,
          "pickRangeMax": 20.0,
          "castRangeMin": 3.5,
          "castRangeMax": 20.0
        },
        "cd": 5.0,
        "cdUpperRange": 2.5,
        "publicCDGroup": "",
        "triggerGCD": false,
        "HHAGODJIAPE": "",
        "stateIDs": [
          "NormalAttack_BS1",
          "NormalAttack1",
          "NormalAttack_BS2",
          "NormalAttack2",
          "NormalAttack_BS3",
          "NormalAttack3"
        ],
        "flagTargetReachable": "10",
        "flagSelfOnTemplateCollider": "11",
        "flagSelfInZone": "01",
        "flagTargetInZone": "11"
      },
      "205": {
        "name": "NormalAttack",
        "enableSkillPrepare": true,
        "skillPrepareTimeout": 2.0,
        "castCondition": {
          "pose": [1000, 1001],
          "pickRangeMin": 3.5,
          "pickRangeMax": 20.0,
          "castRangeMin": 3.5,
          "castRangeMax": 20.0
        },
        "cd": 5.0,
        "cdUpperRange": 2.5,
        "publicCDGroup": "",
        "triggerGCD": false,
        "HHAGODJIAPE": "",
        "stateIDs": [
          "NormalAttack_BS1",
          "NormalAttack1",
          "NormalAttack_BS2",
          "NormalAttack2",
          "NormalAttack_BS3",
          "NormalAttack3"
        ],
        "flagTargetReachable": "01",
        "flagSelfOnTemplateCollider": "01",
        "flagSelfInZone": "01",
        "flagTargetInZone": "11"
      },
      "301": {
        "name": "MeleeAttack",
        "castCondition": {
          "pose": [1000, 1001],
          "pickRangeMax": 3.5
        },
        "cd": 3.5,
        "publicCDGroup": "",
        "ignoreGCD": true,
        "HHAGODJIAPE": "",
        "stateIDs": ["MeleeAttack"],
        "flagTargetReachable": "10",
        "flagSelfOnTemplateCollider": "01",
        "flagSelfInZone": "10",
        "flagTargetInZone": "11"
      }
    },
    "skillGCD": 3.5,
    "birdCirclingTactic": [
      {
        "$type": "ODHNBPJLGHF",
        "enable": true,
        "condition": {
          "pose": [1100]
        },
        "JMCOBEPDIGM": {
          "triggerDistance": 3.5,
          "KAIGBDPLNMO": 5.0,
          "BMIEPFCPFGN": 6.0,
          "MNPDDAKDHGK": ""
        }
      },
      {
        "$type": "KACCHOLJDNK",
        "enable": true,
        "condition": {
          "pose": [1000, 1001]
        },
        "JMCOBEPDIGM": {
          "KHDFDAAAPEI": 20.0,
          "HKJODDGJPHA": 99.0,
          "GGEBMFHFBPO": 20.0,
          "KFFGCIMPNMJ": 0.0,
          "MNPDDAKDHGK": ""
        }
      },
      {
        "$type": "NNJKLGNPMNN",
        "enable": true,
        "JMCOBEPDIGM": {
          "MNPDDAKDHGK": "",
          "GJDMDHIBCME": ""
        }
      },
      {
        "$type": "FPELBIJFGCE",
        "enable": true,
        "JMCOBEPDIGM": {
          "KPNDPKIOPJM": 5.0,
          "PINAFKEDDLL": 3.0,
          "ANMPOPEBDIA": 20.0,
          "GMJFIMFFOEL": 7.5,
          "MNPDDAKDHGK": ""
        }
      },
      {
        "$type": "GOIIDIJFGNE",
        "enable": true,
        "condition": {
          "pose": [100, 9012]
        },
        "JMCOBEPDIGM": {
          "GNPNBBNPCDO": 4.0,
          "NPDNILNBIMD": 60.0,
          "MNPDDAKDHGK": ""
        }
      },
      {
        "$type": "HGJGHLOFFHM",
        "enable": true,
        "JMCOBEPDIGM": {
          "INNFLICONNE": [
            {
              "pointType": "LostSamachurl_Hiding",
              "detectDistance": 15.0,
              "pose": [100, 9012],
              "nerveTrigger": ["HIDING"]
            },
            {
              "pointType": "LostSamachurl_Dance",
              "detectDistance": 15.0,
              "pose": [100, 9012],
              "nerveTrigger": ["DANCE"]
            }
          ]
        }
      }
    ]
  },
  "inputKeys": [
    {
      "keyID": 1,
      "inputKeyCode": 256,
      "abilityName": ""
    },
    {
      "keyID": 101,
      "inputKeyCode": 257,
      "abilityName": ""
    },
    {
      "keyID": 201,
      "inputKeyCode": 258,
      "abilityName": ""
    },
    {
      "keyID": 301,
      "inputKeyCode": 259,
      "abilityName": ""
    }
  ],
  "move": {
    "$type": "IPNMJMHDMPF",
    "monsterSizeType": "StoopType",
    "PKHOMJHFAEE": "RootNode"
  },
  "audio": {
    "overrideEmitterName": "",
    "animAudio": {
      "onTransitionIn": [
        {
          "currentStateName": "Dance",
          "audioEvent": {
            "text": "Play_sfx_monster_shaman_water_dance"
          }
        },
        {
          "currentStateName": "BeHit",
          "audioEvent": {
            "text": "Stop_sfx_monster_shaman_water_dance"
          }
        },
        {
          "currentStateName": "Die",
          "audioEvent": {
            "text": "Stop_sfx_monster_shaman_water_dance"
          }
        }
      ],
      "onTransitionOut": [
        {
          "currentStateName": "SupportAttack_BS",
          "audioEvent": {
            "text": "Stop_sfx_monster_shaman_water_healRain_cast"
          },
          "otherStateNames": ["SupportAttack", "SupportAttack2"],
          "usage": "Except"
        },
        {
          "currentStateName": "SupportAttack2_BS",
          "audioEvent": {
            "text": "Stop_sfx_monster_shaman_water_healRain_cast"
          },
          "otherStateNames": ["SupportAttack", "SupportAttack2"],
          "usage": "Except"
        },
        {
          "currentStateName": "SupportAttack_BS",
          "audioEvent": {
            "text": "Stop_vo_monster_shaman_water_supportAttack"
          },
          "otherStateNames": ["SupportAttack", "SupportAttack2"],
          "usage": "Except"
        },
        {
          "currentStateName": "SupportAttack2_BS",
          "audioEvent": {
            "text": "Stop_vo_monster_shaman_water_supportAttack"
          },
          "otherStateNames": ["SupportAttack", "SupportAttack2"],
          "usage": "Except"
        },
        {
          "currentStateName": "NormalAttack_BS1",
          "audioEvent": {
            "text": "Stop_sfx_monster_shaman_water_waterBall_cast"
          },
          "otherStateNames": [
            "NormalAttack_AS1",
            "NormalAttack_AS2",
            "NormalAttack_AS3"
          ],
          "usage": "Except"
        },
        {
          "currentStateName": "NormalAttack_BS1",
          "audioEvent": {
            "text": "Stop_vo_monster_shaman_water_normalAttack"
          },
          "otherStateNames": [
            "NormalAttack_AS1",
            "NormalAttack_AS2",
            "NormalAttack_AS3"
          ],
          "usage": "Except"
        },
        {
          "currentStateName": "NormalAttack_BS2",
          "audioEvent": {
            "text": "Stop_sfx_monster_shaman_water_waterBall_cast"
          },
          "otherStateNames": [
            "NormalAttack_AS1",
            "NormalAttack_AS2",
            "NormalAttack_AS3"
          ],
          "usage": "Except"
        },
        {
          "currentStateName": "NormalAttack_BS2",
          "audioEvent": {
            "text": "Stop_vo_monster_shaman_water_normalAttack"
          },
          "otherStateNames": [
            "NormalAttack_AS1",
            "NormalAttack_AS2",
            "NormalAttack_AS3"
          ],
          "usage": "Except"
        },
        {
          "currentStateName": "NormalAttack_BS3",
          "audioEvent": {
            "text": "Stop_sfx_monster_shaman_water_waterBall_cast"
          },
          "otherStateNames": [
            "NormalAttack_AS1",
            "NormalAttack_AS2",
            "NormalAttack_AS3"
          ],
          "usage": "Except"
        },
        {
          "currentStateName": "NormalAttack_BS3",
          "audioEvent": {
            "text": "Stop_vo_monster_shaman_water_normalAttack"
          },
          "otherStateNames": [
            "NormalAttack_AS1",
            "NormalAttack_AS2",
            "NormalAttack_AS3"
          ],
          "usage": "Except"
        },
        {
          "currentStateName": "MeleeAttack",
          "audioEvent": {
            "text": "Stop_sfx_monster_shaman_water_meleeAttack"
          }
        },
        {
          "currentStateName": "MeleeAttack",
          "audioEvent": {
            "text": "Stop_vo_monster_shaman_meleeAttack"
          }
        },
        {
          "currentStateName": "SupportAttack2",
          "audioEvent": {
            "text": "Stop_vo_monster_shaman_water_supportAttack"
          }
        },
        {
          "currentStateName": "SupportAttack",
          "audioEvent": {
            "text": "Stop_vo_monster_shaman_water_supportAttack"
          }
        },
        {
          "currentStateName": "Dance",
          "audioEvent": {
            "text": "Stop_sfx_monster_shaman_water_dance"
          }
        }
      ]
    },
    "disableEvent": {
      "text": "Stop_sfx_monster_shaman_water_dance"
    },
    "destroyEvent": {
      "text": "Stop_sfx_monster_shaman_water_dance"
    }
  },
  "field": {
    "concernType": "AllAvatars",
    "shape": "CircleR10",
    "fromShape": "",
    "triggerInfinite": true,
    "lifeInfinite": true,
    "checkInterval": 0.10000000149011612,
    "colliderName": "",
    "fromColliderName": ""
  }
}
