{
  "common": {
    "effectAttachShape": {
      "$type": "FJNPJANPGGC",
      "mesh": "EffectMesh"
    },
    "mass": 10.0,
    "height": 0.5,
    "affectedByWorld": true,
    "checkInSurface": true,
    "canTriggerElementReactionText": false
  },
  "model": {
    "bornEffect": "",
    "attachEffect": "Eff_Animal_Wisp_Wind_Fly",
    "canBakeMesh": false,
    "BKPFGNPLDNJ": ""
  },
  "combat": {
    "property": {
      "endureType": "Monster_Minion",
      "weight": 20.0,
      "isInvincible": true
    },
    "beHit": {
      "hitBloodEffect": "",
      "muteAllHitText": true
    },
    "combatLock": {
      "lockShape": "CircleLockEnemy",
      "denyLockOn": true,
      "lockType": "Default"
    },
    "die": {
      "fallWhenAirDie": false,
      "dieEndTime": 4.0,
      "dieForceDisappearTime": 10.0,
      "dieDisappearEffect": ""
    }
  },
  "stateLayers": {
    "defaultLayer": {
      "$type": "GBGJJIIEMBD",
      "layerIndexName": "",
      "CPAANEIJCGD": "",
      "stateIDs": {
        "Born": {
          "$type": "NEDIFAKEGCO",
          "animatorStates": {
            "Born": ["Audio_Wisp_Wind_Standby"]
          },
          "resetAnimatorTriggerOnExit": ["DoSkill"]
        },
        "NormalIdle": {
          "$type": "NEDIFAKEGCO",
          "animatorStates": {
            "Standby": ["Audio_Wisp_Wind_Standby"]
          },
          "canDoSkill": true,
          "canSyncMove": true,
          "resetAnimatorTriggerOnExit": ["DoSkill"]
        },
        "NormalMove": {
          "$type": "NEDIFAKEGCO",
          "animatorStates": {
            "Walk": ["Audio_Wisp_Wind_Walk"],
            "Run": ["Audio_Wisp_Wind_Walk"],
            "Disappear": ["Animal_Wisp_Wind_Disappear", "Audio_Wisp_Wind_Walk"]
          },
          "canDoSkill": true,
          "canSyncMove": true,
          "resetAnimatorTriggerOnExit": ["DoSkill"],
          "canSteer": true
        },
        "BeHit": {
          "$type": "NEDIFAKEGCO",
          "animatorStates": {
            "Hit_L": ["Audio_Wisp_Wind_Die"]
          },
          "resetAnimatorTriggerOnEnter": ["BeHit"],
          "resetAnimatorTriggerOnExit": ["DoSkill"]
        },
        "Die": {
          "$type": "NEDIFAKEGCO",
          "animatorStates": {
            "Die": ["Animal_Wisp_Wind_Die", "Audio_Wisp_Wind_Die"]
          }
        }
      }
    }
  },
  "initialPoses": {
    "Default": {}
  },
  "aibeta": {
    "enable": true,
    "friendliness": 1,
    "decisionArchetype": "Animal_Homeworld",
    "moveSetting": {
      "useNavMesh": false,
      "navMeshAgentName": "Undead01"
    },
    "sensing": {
      "settings": {
        "DefaultSetting": {
          "enableVision": false,
          "feelRange": 0.0
        }
      }
    },
    "neurons": {
      "DefaultSetting": ["HIT"]
    },
    "threat": {
      "GHIJMOKOLMB": "",
      "feelThreatGrow": 1000.0,
      "threatBroadcastRange": 5.0
    },
    "defendArea": {
      "defendRange": 100.0
    },
    "fly": {
      "enable": true,
      "floatingPoses": [201]
    },
    "ui": {
      "hasDirectionIndicator": false,
      "HMNNBFDEHLG": ""
    },
    "birdCirclingTactic": [
      {
        "$type": "HBNEBJIHBEG",
        "enable": true,
        "condition": {
          "pose": [201]
        },
        "nerveTrigger": ["HIT"],
        "JMCOBEPDIGM": {
          "triggerDistance": 0.0,
          "IAADAJPFDJO": 6.0,
          "AABFGDLGLPG": ""
        }
      },
      {
        "$type": "DGNJLJKOKEE",
        "enable": true,
        "condition": {
          "pose": [201]
        },
        "JMCOBEPDIGM": {
          "HJODGEKLAAK": 1.0,
          "CFBKFJKHEEH": 3.0,
          "MNPDDAKDHGK": ""
        }
      },
      {
        "$type": "HMHOIHCBIOJ",
        "enable": true,
        "condition": {
          "pose": [201]
        },
        "JMCOBEPDIGM": {
          "NBENNEKDIIA": 0.30000001192092896,
          "HIGLILIOAHE": 1.0,
          "AMIIPPJEIPM": 3.0,
          "ANMPOPEBDIA": 30.0,
          "GMJFIMFFOEL": 3.0,
          "CHCPFDMADEI": 5.0,
          "MNPDDAKDHGK": "",
          "GJDMDHIBCME": ""
        }
      }
    ]
  },
  "move": {
    "$type": "IPNMJMHDMPF",
    "velocityForce": {
      "excludeForces": [
        "RetreatType",
        "RetreatAirType",
        "WindZoneType",
        "AirflowType"
      ]
    },
    "PKHOMJHFAEE": "RootNode"
  },
  "animal": {
    "hasAbility": false,
    "tickAbilityElement": false,
    "hasCharacterRenderering": false
  }
}
