{
  "common": {
    "effectAttachShape": {
      "$type": "FJNPJANPGGC",
      "mesh": "EffectMesh01"
    },
    "mass": 10000.0,
    "height": 2.0,
    "viewSize": 3.0,
    "shadowViewSizeRatio": 0.0,
    "affectedByWorld": true,
    "checkInSurface": true,
    "muteElementStickUI": true,
    "clearAnimatorOnSetLightDeactive": true,
    "reconnectSupport": true,
    "recoverByInitPose": true,
    "meshEffectNodeList": [
      {
        "followTargetPath": "EffectMesh01_FollowPoint",
        "attachMeshName": "EffectMesh01"
      },
      {
        "followTargetPath": "EffectMesh02_FollowPoint",
        "attachMeshName": "EffectMesh02"
      },
      {
        "followTargetPath": "EffectMesh03_FollowPoint",
        "attachMeshName": "EffectMesh03"
      }
    ]
  },
  "specialPoint": {
    "elementAbsorb": "RootNode",
    "elementPendant": "",
    "elementDrop": "RootNode",
    "bulletAim": "Body06",
    "hitPoints": [
      "Body01",
      "Body02",
      "Body03",
      "Body04",
      "Body05",
      "Body06",
      "Body07",
      "Body08"
    ],
    "selectedPoints": [
      "Body01",
      "Body02",
      "Body03",
      "Body04",
      "Body05",
      "Body06",
      "Body07",
      "Body08"
    ],
    "ignoreTransform": true,
    "selectedPointRadius": 5.0
  },
  "model": {
    "bornEffect": "",
    "attachEffect": "",
    "BKPFGNPLDNJ": ""
  },
  "dither": {
    "showDitherDuration": 2.0,
    "normalBetweenCamera": {
      "detectDitherRange": 0.0
    }
  },
  "combat": {
    "property": {
      "endureType": "Monster_Boss_Other",
      "weight": 500.0
    },
    "beHit": {
      "hitBloodEffect": "",
      "hitAutoRedirect": false,
      "muteDefenceHitHalt": true,
      "blendShake": {
        "$type": "HNNFKJBHGCC",
        "shakeFlagMap": [
          {
            "shakeFlag": 0.16699999570846558,
            "hitBoxNames": ["HitBox_01"]
          },
          {
            "shakeFlag": 0.33000001311302185,
            "hitBoxNames": ["HitBox_02"]
          },
          {
            "shakeFlag": 0.5,
            "hitBoxNames": ["HitBox_03"]
          },
          {
            "shakeFlag": 0.6669999957084656,
            "hitBoxNames": ["HitBox_04"]
          },
          {
            "shakeFlag": 0.8330000042915344,
            "hitBoxNames": ["HitBox_05"]
          },
          {
            "shakeFlag": 1.0,
            "hitBoxNames": ["HitBox_06"]
          },
          {
            "shakeFlag": 1.100000023841858,
            "hitBoxNames": ["HitBox_TailR"]
          },
          {
            "shakeFlag": 1.2000000476837158,
            "hitBoxNames": ["HitBox_TailL"]
          },
          {
            "shakeFlag": 1.2999999523162842,
            "hitBoxNames": ["HitBox_TailM"]
          }
        ]
      }
    },
    "combatLock": {
      "lockShape": "CircleLockEnemy",
      "lockType": "Avatar&Monster_Lv4"
    },
    "die": {
      "hasAnimatorDie": true,
      "dieEndTime": 2.5,
      "dieForceDisappearTime": 3.0,
      "dieDisappearEffect": "",
      "muteHitBox": true,
      "dieDenyLockOn": true,
      "dieIsGhostToEnemy": true,
      "dieIgnoreTriggerBullet": true,
      "muteBillboard": true,
      "mutePushCollider": true
    },
    "animEvents": {
      "AlertShake": {
        "attackPattern": {
          "$type": "ConfigAttackBox",
          "triggerType": "TriggerNoRepeat",
          "ignoreMassive": true,
          "born": {
            "$type": "ConfigBornBySelf"
          },
          "size": {
            "x": 0.10000000149011612,
            "y": 0.10000000149011612,
            "z": 0.10000000149011612
          }
        },
        "attackInfo": {
          "attackTag": "",
          "attenuationTag": "",
          "attenuationGroup": "default",
          "attackProperty": {
            "actorGrassSubHurtDelta": 0.0,
            "actorWindSubHurtDelta": 0.0,
            "elementDurability": 100.0,
            "GLKMCMDJBIK": 0.0
          },
          "hitPattern": {
            "onHitEffectName": "none",
            "hitImpulseY": "",
            "hitImpulseType": "LV0",
            "hitHaltTimeScale": 0.05000000074505806
          },
          "forceCameraShake": true,
          "cameraShake": {
            "shakeType": "CustomVector",
            "shakeRange": 0.5,
            "shakeTime": 3.0,
            "shakeDistance": 35.0,
            "shakeDir": {
              "y": -1.0
            },
            "extension": {
              "baseCycle": 0.20000000298023224,
              "cycleDamping": 0.0,
              "rangeAttenuation": 1.0
            }
          }
        }
      },
      "Stage01ToStage02Shake": {
        "attackPattern": {
          "$type": "ConfigAttackBox",
          "triggerType": "TriggerNoRepeat",
          "ignoreMassive": true,
          "born": {
            "$type": "ConfigBornBySelf"
          },
          "size": {
            "x": 0.10000000149011612,
            "y": 0.10000000149011612,
            "z": 0.10000000149011612
          }
        },
        "attackInfo": {
          "attackTag": "",
          "attenuationTag": "",
          "attenuationGroup": "default",
          "attackProperty": {
            "actorGrassSubHurtDelta": 0.0,
            "actorWindSubHurtDelta": 0.0,
            "elementDurability": 100.0,
            "GLKMCMDJBIK": 0.0
          },
          "hitPattern": {
            "onHitEffectName": "none",
            "hitImpulseY": "",
            "hitImpulseType": "LV0",
            "hitHaltTimeScale": 0.05000000074505806
          },
          "forceCameraShake": true,
          "cameraShake": {
            "shakeType": "CustomVector",
            "shakeRange": 0.5,
            "shakeTime": 2.0,
            "shakeDistance": 35.0,
            "shakeDir": {
              "y": -1.0
            },
            "extension": {
              "baseCycle": 0.20000000298023224,
              "cycleDamping": 0.0,
              "rangeAttenuation": 1.0
            }
          }
        }
      },
      "MeleeAtk01": {
        "attackPattern": {
          "$type": "ConfigAttackCircle",
          "triggerType": "TriggerNoRepeat",
          "born": {
            "$type": "ConfigBornBySelf",
            "offset": {
              "x": 0.0,
              "y": 0.0,
              "z": 0.0
            }
          },
          "height": 3.0,
          "fanAngle": 180.0,
          "radius": 15.0
        },
        "attackInfo": {
          "attackTag": "Sandworm_Stage01_MeleeAttack01",
          "attenuationTag": "",
          "attenuationGroup": "default",
          "attackProperty": {
            "actorGrassSubHurtDelta": 1.0,
            "actorWindSubHurtDelta": 0.0,
            "elementDurability": 100.0,
            "strikeType": "Blunt",
            "enBreak": 200.0,
            "attackType": "Melee",
            "GLKMCMDJBIK": 0.0
          },
          "hitPattern": {
            "onHitEffectName": "default",
            "hitImpulseY": "",
            "hitImpulseType": "LV5"
          },
          "forceCameraShake": true,
          "cameraShake": {
            "shakeType": "CustomVector",
            "shakeRange": 1.0,
            "shakeTime": 2.0,
            "shakeDistance": 80.0,
            "shakeDir": {
              "x": 2.0
            },
            "extension": {
              "rangeAttenuation": 0.0
            }
          }
        }
      },
      "DigOutAtk": {
        "attackPattern": {
          "$type": "ConfigAttackCircle",
          "triggerType": "TriggerNoRepeat",
          "born": {
            "$type": "ConfigBornBySelf",
            "offset": {
              "x": 0.0,
              "y": 0.0,
              "z": 0.0
            }
          },
          "height": 8.0,
          "radius": 8.0
        },
        "attackInfo": {
          "attackTag": "Sandworm_DigOutAttack",
          "attenuationTag": "",
          "attenuationGroup": "default",
          "attackProperty": {
            "actorGrassSubHurtDelta": 1.0,
            "actorWindSubHurtDelta": 0.0,
            "elementDurability": 100.0,
            "strikeType": "Blunt",
            "enBreak": 200.0,
            "attackType": "Melee",
            "GLKMCMDJBIK": 0.0
          },
          "hitPattern": {
            "onHitEffectName": "default",
            "hitImpulseY": "",
            "hitImpulseType": "LV6"
          },
          "forceCameraShake": true,
          "cameraShake": {
            "shakeType": "CustomVector",
            "shakeRange": 1.0,
            "shakeTime": 2.0,
            "shakeDistance": 80.0,
            "shakeDir": {
              "y": 2.0
            },
            "extension": {
              "rangeAttenuation": 0.0
            }
          }
        }
      },
      "DigOutAtk_ClearRock": {
        "attackPattern": {
          "$type": "ConfigAttackCircle",
          "triggerType": "TriggerNoRepeat",
          "checkHitLayerType": "OnlyHitScene",
          "born": {
            "$type": "ConfigBornBySelf",
            "offset": {
              "x": 0.0,
              "y": 0.0,
              "z": 0.0
            }
          },
          "height": 8.0,
          "radius": 8.0
        },
        "attackInfo": {
          "attackTag": "",
          "attenuationTag": "",
          "attenuationGroup": "default",
          "attackProperty": {
            "actorGrassSubHurtDelta": 0.0,
            "actorWindSubHurtDelta": 0.0,
            "elementDurability": 100.0,
            "strikeType": "Blunt",
            "enBreak": 5000.0,
            "GLKMCMDJBIK": 0.0
          },
          "hitPattern": {
            "onHitEffectName": "",
            "hitImpulseY": "",
            "hitImpulseType": "LV4"
          }
        }
      },
      "DrillRushAtk01": {
        "attackPattern": {
          "$type": "ConfigAttackCircle",
          "triggerType": "TriggerNoRepeat",
          "born": {
            "$type": "ConfigBornBySelf",
            "offset": {
              "x": 0.0,
              "y": 0.0,
              "z": 0.0
            }
          },
          "height": 3.0,
          "fanAngle": 180.0,
          "radius": 16.0
        },
        "attackInfo": {
          "attackTag": "Sandworm_Stage01_MeleeAttack01",
          "attenuationTag": "",
          "attenuationGroup": "default",
          "attackProperty": {
            "actorGrassSubHurtDelta": 1.0,
            "actorWindSubHurtDelta": 0.0,
            "elementDurability": 100.0,
            "strikeType": "Blunt",
            "enBreak": 200.0,
            "attackType": "Melee",
            "GLKMCMDJBIK": 0.0
          },
          "hitPattern": {
            "onHitEffectName": "default",
            "hitImpulseY": "",
            "hitImpulseType": "LV5"
          },
          "forceCameraShake": true,
          "cameraShake": {
            "shakeType": "CustomVector",
            "shakeRange": 1.0,
            "shakeTime": 2.0,
            "shakeDistance": 80.0,
            "shakeDir": {
              "x": 2.0
            },
            "extension": {
              "rangeAttenuation": 0.0
            }
          }
        }
      },
      "StandbyMoveShake": {
        "attackPattern": {
          "$type": "ConfigAttackCircle",
          "triggerType": "TriggerNoRepeat",
          "born": {
            "$type": "ConfigBornBySelf",
            "offset": {
              "x": 0.0,
              "y": 0.0,
              "z": 0.0
            }
          },
          "height": 3.0,
          "fanAngle": 180.0,
          "radius": 16.0
        },
        "attackInfo": {
          "attackTag": "Sandworm_Stage01_MeleeAttack01",
          "attenuationTag": "",
          "attenuationGroup": "default",
          "attackProperty": {
            "actorGrassSubHurtDelta": 1.0,
            "actorWindSubHurtDelta": 0.0,
            "elementDurability": 100.0,
            "strikeType": "Blunt",
            "enBreak": 200.0,
            "attackType": "Melee",
            "GLKMCMDJBIK": 0.0
          },
          "hitPattern": {
            "onHitEffectName": "default",
            "hitImpulseY": "",
            "hitImpulseType": "LV5"
          },
          "forceCameraShake": true,
          "cameraShake": {
            "shakeType": "CustomVector",
            "shakeRange": 1.0,
            "shakeTime": 3.0,
            "shakeDistance": 80.0,
            "shakeDir": {
              "x": 2.0
            },
            "extension": {
              "rangeAttenuation": 0.0
            }
          }
        }
      }
    }
  },
  "abilities": [
    {
      "abilityID": "",
      "abilityName": "Monster_Sandworm_StageHandler",
      "abilityOverride": ""
    },
    {
      "abilityID": "",
      "abilityName": "Monster_Sandworm_Stage02MovementHandler",
      "abilityOverride": ""
    },
    {
      "abilityID": "",
      "abilityName": "Monster_Sandworm_01_ReturnToBorn",
      "abilityOverride": ""
    },
    {
      "abilityID": "",
      "abilityName": "Monster_Sandworm_TailUpHandler",
      "abilityOverride": ""
    },
    {
      "abilityID": "",
      "abilityName": "Monster_Sandworm_Stage01_TailCenterEffect_On",
      "abilityOverride": ""
    },
    {
      "abilityID": "",
      "abilityName": "Monster_Sandworm_Stage01_TailCenterEffect_Off",
      "abilityOverride": ""
    },
    {
      "abilityID": "",
      "abilityName": "Monster_Sandworm_TailHitBoxHandler",
      "abilityOverride": ""
    },
    {
      "abilityID": "",
      "abilityName": "Monster_Sandworm_LockTargetManager",
      "abilityOverride": ""
    },
    {
      "abilityID": "",
      "abilityName": "Monster_Sandworm_Stage02_StandbyMove_LockTarget_SetActive",
      "abilityOverride": ""
    },
    {
      "abilityID": "",
      "abilityName": "Monster_Sandworm_Stage02_StandbyMove_LockTarget_Deactive",
      "abilityOverride": ""
    },
    {
      "abilityID": "",
      "abilityName": "Monster_Sandworm_GroundPoint01_LockTarget_SetActive",
      "abilityOverride": ""
    },
    {
      "abilityID": "",
      "abilityName": "Monster_Sandworm_GroundPoint01_LockTarget_Deactive",
      "abilityOverride": ""
    },
    {
      "abilityID": "",
      "abilityName": "Monster_Sandworm_GroundPoint02_LockTarget_SetActive",
      "abilityOverride": ""
    },
    {
      "abilityID": "",
      "abilityName": "Monster_Sandworm_GroundPoint02_LockTarget_Deactive",
      "abilityOverride": ""
    },
    {
      "abilityID": "",
      "abilityName": "Monster_Sandworm_Body01_LockTarget_SetActive",
      "abilityOverride": ""
    },
    {
      "abilityID": "",
      "abilityName": "Monster_Sandworm_Body01_LockTarget_Deactive",
      "abilityOverride": ""
    },
    {
      "abilityID": "",
      "abilityName": "Monster_Sandworm_Body05_LockTarget_SetActive",
      "abilityOverride": ""
    },
    {
      "abilityID": "",
      "abilityName": "Monster_Sandworm_Body05_LockTarget_Deactive",
      "abilityOverride": ""
    },
    {
      "abilityID": "",
      "abilityName": "Monster_Sandworm_Body08_LockTarget_SetActive",
      "abilityOverride": ""
    },
    {
      "abilityID": "",
      "abilityName": "Monster_Sandworm_Body08_LockTarget_Deactive",
      "abilityOverride": ""
    },
    {
      "abilityID": "",
      "abilityName": "Monster_Sandworm_Body11_LockTarget_SetActive",
      "abilityOverride": ""
    },
    {
      "abilityID": "",
      "abilityName": "Monster_Sandworm_Body11_LockTarget_Deactive",
      "abilityOverride": ""
    },
    {
      "abilityID": "",
      "abilityName": "Monster_Sandworm_Stage02_AimPoint_Clear",
      "abilityOverride": ""
    },
    {
      "abilityID": "",
      "abilityName": "Monster_Sandworm_PushColliderManager",
      "abilityOverride": ""
    },
    {
      "abilityID": "",
      "abilityName": "Monster_Sandworm_BodyPushCollider_SetActive",
      "abilityOverride": ""
    },
    {
      "abilityID": "",
      "abilityName": "Monster_Sandworm_BodyPushCollider_Deactive",
      "abilityOverride": ""
    },
    {
      "abilityID": "",
      "abilityName": "Monster_Sandworm_DigOutAttackPushCollider_SetActive",
      "abilityOverride": ""
    },
    {
      "abilityID": "",
      "abilityName": "Monster_Sandworm_DigOutAttackPushCollider_Deactive",
      "abilityOverride": ""
    },
    {
      "abilityID": "",
      "abilityName": "Monster_Sandworm_TailUpPushCollider_SetActive",
      "abilityOverride": ""
    },
    {
      "abilityID": "",
      "abilityName": "Monster_Sandworm_TailUpPushCollider_Deactive",
      "abilityOverride": ""
    },
    {
      "abilityID": "",
      "abilityName": "Monster_Sandworm_StandbyMove01PushCollider_SetActive",
      "abilityOverride": ""
    },
    {
      "abilityID": "",
      "abilityName": "Monster_Sandworm_StandbyMove01PushCollider_Deactive",
      "abilityOverride": ""
    },
    {
      "abilityID": "",
      "abilityName": "Monster_Sandworm_StandbyMove02PushCollider_SetActive",
      "abilityOverride": ""
    },
    {
      "abilityID": "",
      "abilityName": "Monster_Sandworm_StandbyMove02PushCollider_Deactive",
      "abilityOverride": ""
    },
    {
      "abilityID": "",
      "abilityName": "Monster_Sandworm_StandbyMove03PushCollider_SetActive",
      "abilityOverride": ""
    },
    {
      "abilityID": "",
      "abilityName": "Monster_Sandworm_StandbyMove03PushCollider_Deactive",
      "abilityOverride": ""
    },
    {
      "abilityID": "",
      "abilityName": "Monster_Sandworm_FaintPushCollider_SetActive",
      "abilityOverride": ""
    },
    {
      "abilityID": "",
      "abilityName": "Monster_Sandworm_FaintPushCollider_Deactive",
      "abilityOverride": ""
    },
    {
      "abilityID": "",
      "abilityName": "Monster_Sandworm_Steer",
      "abilityOverride": ""
    },
    {
      "abilityID": "",
      "abilityName": "Monster_Sandworm_Stage01_ShootAttack",
      "abilityOverride": ""
    },
    {
      "abilityID": "",
      "abilityName": "Monster_Sandworm_Stage02_DigOutAttack",
      "abilityOverride": ""
    },
    {
      "abilityID": "",
      "abilityName": "Monster_Sandworm_Stage02_DrillRushAttack",
      "abilityOverride": ""
    },
    {
      "abilityID": "",
      "abilityName": "Monster_Sandworm_Stage02_DrillRushAttack_BulletWave01",
      "abilityOverride": ""
    },
    {
      "abilityID": "",
      "abilityName": "Monster_Sandworm_Stage02_DrillRushAttack_BulletWave02",
      "abilityOverride": ""
    },
    {
      "abilityID": "",
      "abilityName": "Monster_Sandworm_Stage02_DrillRushAttack_BulletWave03",
      "abilityOverride": ""
    },
    {
      "abilityID": "",
      "abilityName": "Monster_Sandworm_Stage02_TailVerticalShootAttack",
      "abilityOverride": ""
    },
    {
      "abilityID": "",
      "abilityName": "Monster_Sandworm_Stage02_TailStormAttack",
      "abilityOverride": ""
    },
    {
      "abilityID": "",
      "abilityName": "Monster_Sandworm_Stage02_FlyingAttack",
      "abilityOverride": ""
    },
    {
      "abilityID": "",
      "abilityName": "Monster_Sandworm_Stage02_FlyingAttack_InAirBegin",
      "abilityOverride": ""
    },
    {
      "abilityID": "",
      "abilityName": "Monster_Sandworm_Stage02_FlyingAttack_InAirEnd",
      "abilityOverride": ""
    },
    {
      "abilityID": "",
      "abilityName": "Monster_Sandworm_Stage02_FlyingAttack_TriggerBall01",
      "abilityOverride": ""
    },
    {
      "abilityID": "",
      "abilityName": "Monster_Sandworm_Stage02_FlyingAttack_TriggerBall02",
      "abilityOverride": ""
    },
    {
      "abilityID": "",
      "abilityName": "Monster_Sandworm_Stage02_FlyingAttack_TriggerBall03",
      "abilityOverride": ""
    },
    {
      "abilityID": "",
      "abilityName": "Monster_Sandworm_Stage02_FlyingAttack_TriggerBall04",
      "abilityOverride": ""
    },
    {
      "abilityID": "",
      "abilityName": "Monster_Sandworm_Stage02_FlyingAttack_TriggerBall05",
      "abilityOverride": ""
    },
    {
      "abilityID": "",
      "abilityName": "Monster_Sandworm_Stage02_FlyingAttack_TriggerBall06",
      "abilityOverride": ""
    },
    {
      "abilityID": "",
      "abilityName": "Monster_Sandworm_Stage02_FlyingAttack_TriggerBall01_ChangePhase",
      "abilityOverride": ""
    },
    {
      "abilityID": "",
      "abilityName": "Monster_Sandworm_Stage02_FlyingAttack_TriggerBall02_ChangePhase",
      "abilityOverride": ""
    },
    {
      "abilityID": "",
      "abilityName": "Monster_Sandworm_Stage02_FlyingAttack_TriggerBall03_ChangePhase",
      "abilityOverride": ""
    },
    {
      "abilityID": "",
      "abilityName": "Monster_Sandworm_Stage02_FlyingAttack_TriggerBall04_ChangePhase",
      "abilityOverride": ""
    },
    {
      "abilityID": "",
      "abilityName": "Monster_Sandworm_Stage02_FlyingAttack_TriggerBall05_ChangePhase",
      "abilityOverride": ""
    },
    {
      "abilityID": "",
      "abilityName": "Monster_Sandworm_Stage02_FlyingAttack_TriggerBall06_ChangePhase",
      "abilityOverride": ""
    },
    {
      "abilityID": "",
      "abilityName": "Monster_Sandworm_Stage02_FlyingAttack_KillAllBalls",
      "abilityOverride": ""
    },
    {
      "abilityID": "",
      "abilityName": "Monster_Sandworm_Stage02_FlyingAttack_SetBeHitShakeStage01",
      "abilityOverride": ""
    },
    {
      "abilityID": "",
      "abilityName": "Monster_Sandworm_Stage02_FlyingAttack_SetBeHitShakeStage02",
      "abilityOverride": ""
    },
    {
      "abilityID": "",
      "abilityName": "Monster_Sandworm_EffectMeshSandPlane_Show",
      "abilityOverride": ""
    },
    {
      "abilityID": "",
      "abilityName": "Monster_Sandworm_EffectMeshSandPlane_Hide",
      "abilityOverride": ""
    },
    {
      "abilityID": "",
      "abilityName": "Monster_Sandworm_EffectMeshGlow_Show",
      "abilityOverride": ""
    },
    {
      "abilityID": "",
      "abilityName": "Monster_Sandworm_EffectMeshSandGlow_Hide",
      "abilityOverride": ""
    },
    {
      "abilityID": "",
      "abilityName": "Monster_Sandworm_TailGroundCover_Start",
      "abilityOverride": ""
    },
    {
      "abilityID": "",
      "abilityName": "Monster_Sandworm_TailGroundCover_End",
      "abilityOverride": ""
    },
    {
      "abilityID": "",
      "abilityName": "Monster_Sandworm_ShaderLight_Stage01On",
      "abilityOverride": ""
    },
    {
      "abilityID": "",
      "abilityName": "Monster_Sandworm_ShaderLight_Stage02On",
      "abilityOverride": ""
    },
    {
      "abilityID": "",
      "abilityName": "Monster_Sandworm_ShaderLight_Stage02_FlyingAttackOn",
      "abilityOverride": ""
    },
    {
      "abilityID": "",
      "abilityName": "Monster_Sandworm_ShaderLight_Off",
      "abilityOverride": ""
    }
  ],
  "stateLayers": {
    "defaultLayer": {
      "$type": "GBGJJIIEMBD",
      "layerIndexName": "",
      "CPAANEIJCGD": "",
      "stateIDs": {
        "StandbyFree": {
          "$type": "NEDIFAKEGCO",
          "animatorStates": {
            "StandbyFree": []
          },
          "canDoSkill": true,
          "canSyncMove": true,
          "resetAnimatorTriggerOnExit": ["DoSkill"]
        },
        "Stage01_Standby": {
          "$type": "NEDIFAKEGCO",
          "animatorStates": {
            "Stage01_Standby": ["Monster_Sandworm_Stage01_Standby"]
          },
          "canDoSkill": true,
          "canSyncMove": true,
          "resetAnimatorTriggerOnExit": ["DoSkill"],
          "canSteer": true
        },
        "Stage02_Standby": {
          "$type": "NEDIFAKEGCO",
          "animatorStates": {
            "Stage02_Standby": [],
            "Stage02_Standby_Blink": []
          },
          "canDoSkill": true,
          "canSyncMove": true,
          "resetAnimatorTriggerOnExit": ["DoSkill"]
        },
        "Stage02_StandbyMove": {
          "$type": "NEDIFAKEGCO",
          "animatorStates": {
            "Stage02_StandbyMove": [
              "Monster_Sandworm_Stage02_StandbyMove",
              "Monster_Sandworm_Stage02_StandbyMove_Sync"
            ]
          },
          "canSyncMove": true,
          "resetAnimatorTriggerOnExit": ["DoSkill"]
        },
        "Faint": {
          "$type": "NEDIFAKEGCO",
          "animatorStates": {
            "Faint": []
          },
          "canDoSkill": true,
          "canSyncMove": true,
          "resetAnimatorTriggerOnExit": ["DoSkill"]
        },
        "Die": {
          "$type": "NEDIFAKEGCO",
          "animatorStates": {
            "Die": ["Monster_Sandworm_Die", "Audio_Monster_Sandworm_Die"],
            "Die_Faint": [
              "Monster_Sandworm_Die_Faint",
              "Audio_Monster_Sandworm_Die_Faint"
            ],
            "Die_TailUp": [
              "Monster_Sandworm_Die_TailUp",
              "Audio_Monster_Sandworm_Die_TailUp"
            ],
            "Die_FlyingAttack": [
              "Monster_Sandworm_Die_FlyingAttack",
              "Audio_Monster_Sandworm_Die_Faint_BS"
            ]
          },
          "resetAnimatorTriggerOnEnter": ["DoSkill"],
          "resetAnimatorTriggerOnExit": ["DoSkill"]
        },
        "Born": {
          "$type": "NEDIFAKEGCO",
          "animatorStates": {
            "Born": []
          },
          "canSyncMove": true,
          "resetAnimatorTriggerOnExit": ["DoSkill"]
        },
        "Warning": {
          "$type": "NEDIFAKEGCO",
          "animatorStates": {
            "Alert": ["Monster_Sandworm_Alert", "Audio_Monster_Sandworm_Alert"]
          },
          "resetAnimatorTriggerOnExit": ["BeHit", "DoSkill"],
          "canSteer": true
        },
        "StageChange": {
          "$type": "NEDIFAKEGCO",
          "animatorStates": {
            "Stage01ToStage02": [
              "Monster_Sandworm_Stage01ToStage02",
              "Audio_Monster_Sandworm_Stage01ToStage02"
            ]
          },
          "canSyncMove": true,
          "resetAnimatorTriggerOnExit": ["BeHit", "DoSkill"],
          "canSteer": true
        },
        "Stage01_MeleeAttack": {
          "$type": "NEDIFAKEGCO",
          "animatorStates": {
            "Stage01_MeleeAttack_BS01": [
              "Monster_Sandworm_Stage01_MeleeAttack_BS01",
              "Audio_Monster_Sandworm_Stage01_MeleeAttack"
            ],
            "Stage01_MeleeAttack_BS02": [
              "Monster_Sandworm_Stage01_MeleeAttack_BS02"
            ],
            "Stage01_MeleeAttack": ["Monster_Sandworm_Stage01_MeleeAttack"]
          },
          "canSyncMove": true,
          "resetAnimatorTriggerOnExit": ["BeHit", "DoSkill"],
          "canSteer": true
        },
        "Stage01_ShootAttack": {
          "$type": "NEDIFAKEGCO",
          "animatorStates": {
            "Stage01_ShootAttack": [
              "Monster_Sandworm_Stage01_ShootAttack",
              "Audio_Monster_Sandworm_Stage01_ShootAttack"
            ]
          },
          "canSyncMove": true,
          "resetAnimatorTriggerOnExit": ["BeHit", "DoSkill"],
          "canSteer": true
        },
        "Stage02_DigOutAttack": {
          "$type": "NEDIFAKEGCO",
          "animatorStates": {
            "Stage02_DigOutAttack_SetPosition": [],
            "Stage02_DigOutAttack_SetPosition_Blink": [],
            "Stage02_DigOutAttack": [
              "Monster_Sandworm_Stage02_DigOutAttack",
              "Audio_Monster_Sandworm_Stage02_DigOutAttack"
            ],
            "Stage02_DigOutAttack_AS01": [
              "Monster_Sandworm_Stage02_DigOutAttack_AS01"
            ],
            "Stage02_DigOutAttack_AS02": [
              "Monster_Sandworm_Stage02_DigOutAttack_AS02"
            ]
          },
          "canSyncMove": true,
          "resetAnimatorTriggerOnExit": ["BeHit", "DoSkill"],
          "canSteer": true
        },
        "Stage02_TailVerticalShootAttack": {
          "$type": "NEDIFAKEGCO",
          "animatorStates": {
            "Stage02_TailVerticalShootAttack_SetPosition": [],
            "Stage02_TailVerticalShootAttack_SetPosition_Blink": [],
            "Stage02_TailVerticalShootAttack": [
              "Monster_Sandworm_Stage02_TailVerticalShootAttack"
            ],
            "Stage02_TailVerticalShootAttack_AS01": [],
            "Stage02_TailVerticalShootAttack_AS02": [
              "Monster_Sandworm_Stage02_TailVerticalShootAttack_AS02"
            ]
          },
          "canSyncMove": true,
          "resetAnimatorTriggerOnExit": ["BeHit", "DoSkill"],
          "canSteer": true
        },
        "Stage02_DrillRushAttack": {
          "$type": "NEDIFAKEGCO",
          "animatorStates": {
            "Stage02_DrillRushAttack_SetPosition": [],
            "Stage02_DrillRushAttack_SetPosition_Blink": [],
            "Stage02_DrillRushAttack": [
              "Monster_Sandworm_Stage02_DrillRushAttack",
              "Audio_Monster_Sandworm_Stage02_DrillRushAttack"
            ]
          },
          "canSyncMove": true,
          "resetAnimatorTriggerOnExit": ["BeHit", "DoSkill"],
          "canSteer": true
        },
        "Stage02_TailStormAttack": {
          "$type": "NEDIFAKEGCO",
          "animatorStates": {
            "Stage02_TailStormAttack_SetPosition": [],
            "Stage02_TailStormAttack_SetPosition_Blink": [],
            "Stage02_TailStormAttack": [
              "Monster_Sandworm_Stage02_TailStormAttack"
            ],
            "Stage02_TailStormAttack_Attack": [
              "Monster_Sandworm_Stage02_TailStormAttack_Attack"
            ],
            "Stage02_TailStormAttack_AS01": [
              "Monster_Sandworm_Stage02_TailStormAttack_AS01"
            ],
            "Stage02_TailStormAttack_AS02": [
              "Monster_Sandworm_Stage02_TailStormAttack_AS02"
            ]
          },
          "canSyncMove": true,
          "resetAnimatorTriggerOnExit": ["BeHit", "DoSkill"],
          "canSteer": true
        },
        "Stage02_FlyingAttack": {
          "$type": "NEDIFAKEGCO",
          "animatorStates": {
            "Stage02_FlyingAttack_SetPosition": [],
            "Stage02_FlyingAttack_SetPosition_Blink": [],
            "Stage02_FlyingAttack": [
              "Monster_Sandworm_Stage02_FlyingAttack",
              "Monster_Sandworm_Stage02_FlyingAttack_Sync"
            ]
          },
          "canSyncMove": true,
          "resetAnimatorTriggerOnExit": ["BeHit", "DoSkill"],
          "canSteer": true
        },
        "Stage02_FlyingAttack_Faint_BS": {
          "$type": "NEDIFAKEGCO",
          "animatorStates": {
            "Stage02_FlyingAttack_Faint_BS": [
              "Monster_Sandworm_Stage02_FlyingAttack_Faint_BS",
              "Audio_Monster_Sandworm_Die_Faint_BS"
            ]
          },
          "canSyncMove": true,
          "resetAnimatorTriggerOnExit": ["BeHit", "DoSkill"],
          "canSteer": true
        },
        "Stage02_FlyingAttack_Faint_AS": {
          "$type": "NEDIFAKEGCO",
          "animatorStates": {
            "Stage02_FlyingAttack_Faint_AS": [
              "Monster_Sandworm_Stage02_FlyingAttack_Faint_AS",
              "Audio_Monster_Sandworm_Die_Faint_AS"
            ]
          },
          "canSyncMove": true,
          "resetAnimatorTriggerOnExit": ["BeHit", "DoSkill"],
          "canSteer": true
        },
        "ReturnToBorn": {
          "$type": "NEDIFAKEGCO",
          "animatorStates": {
            "ReturnToBorn": ["Audio_Monster_Sandworm_ReturnToBorn"]
          },
          "resetAnimatorTriggerOnExit": ["DoSkill"]
        }
      }
    }
  },
  "partControl": {
    "parts": [
      {
        "$type": "INCPGKCDCIO",
        "angularSpeed": 3600.0,
        "partRootName": "TailBulletSource_PartControl",
        "forwardByTransName": "",
        "limitHorizontal": 360.0,
        "limitVertical": 360.0
      }
    ]
  },
  "billboard": {
    "$type": "DNGNMAJBCNP",
    "attachPoint": "BillboardAttach",
    "offset": {
      "y": 0.5
    },
    "radiusOffset": 1.0,
    "enableSelfAdapt": true,
    "showHPBar": true,
    "size": "Grand"
  },
  "initialPoses": {
    "Default": {
      "initialPoseID": 1
    },
    "Test": {
      "initialPoseID": 101
    }
  },
  "aibeta": {
    "enable": true,
    "moveSetting": {
      "useNavMesh": false,
      "navMeshAgentName": "Undead01"
    },
    "sensing": {
      "settings": {
        "DefaultSetting": {
          "viewRange": 0.0,
          "feelRange": 25.0
        }
      },
      "templates": {
        "DefaultTemplate": {
          "DefaultPoses": "DefaultSetting"
        }
      }
    },
    "threat": {
      "GHIJMOKOLMB": "",
      "clearThreatTargetDistance": 30.0,
      "clearThreatEdgeDistance": 5.0,
      "clearThreatTimerByDistance": 2.0,
      "viewAttenuation": [
        {
          "x": 12.0,
          "y": 1.0
        },
        {
          "x": 20.0,
          "y": 0.5
        }
      ],
      "resistTauntLevel": "Monster_TauntLevel_4"
    },
    "defendArea": {
      "defendRange": 30.0
    },
    "network": {
      "syncSkill": true
    },
    "skillGroupCDConfigs": [
      {
        "skillGroupCDID": 201,
        "skillGroupCDTime": 38.0
      },
      {
        "skillGroupCDID": 202,
        "skillGroupCDTime": 38.0
      },
      {
        "skillGroupCDID": 203,
        "skillGroupCDTime": 35.0
      },
      {
        "skillGroupCDID": 301,
        "skillGroupCDTime": 30.0
      },
      {
        "skillGroupCDID": 302,
        "skillGroupCDTime": 30.0
      },
      {
        "skillGroupCDID": 401,
        "skillGroupCDTime": 38.0
      },
      {
        "skillGroupCDID": 402,
        "skillGroupCDTime": 45.0
      }
    ],
    "skillSetting": {
      "skillEliteSet": {
        "1": [
          100, 101, 102, 200, 2011, 2013, 2014, 2021, 2022, 2023, 2024, 2032,
          2033, 2034, 2041, 2042, 2051
        ],
        "2": [2015, 2025, 2035, 2045, 2052]
      }
    },
    "skills": {
      "100": {
        "name": "OnAlert",
        "skillType": "OnAlert",
        "faceTarget": true,
        "publicCDGroup": "",
        "triggerGCD": false,
        "HHAGODJIAPE": "",
        "stateIDs": ["Warning"],
        "skillQueryingTime": 3.0,
        "flagTargetReachable": "10",
        "flagSelfOnTemplateCollider": "01",
        "flagSelfInZone": "10",
        "flagTargetInZone": "11"
      },
      "101": {
        "name": "Stage01_MeleeAttack",
        "castCondition": {
          "pose": [101],
          "pickRangeMax": 20.0
        },
        "initialCD": 2.0,
        "publicCDGroup": "",
        "triggerGCD": false,
        "HHAGODJIAPE": "",
        "stateIDs": ["Stage01_MeleeAttack"],
        "skillQueryingTime": 3.0,
        "flagTargetReachable": "10",
        "flagSelfOnTemplateCollider": "01",
        "flagSelfInZone": "10",
        "flagTargetInZone": "11"
      },
      "102": {
        "name": "Stage01_ShootAttack",
        "castCondition": {
          "pose": [101],
          "needReInitCD": true,
          "pickRangeMin": 10.0,
          "pickRangeMax": 30.0
        },
        "cd": 1.0,
        "cdUpperRange": 2.0,
        "initialCD": 2.0,
        "publicCDGroup": "",
        "triggerGCD": false,
        "HHAGODJIAPE": "",
        "stateIDs": ["Stage01_ShootAttack"],
        "skillQueryingTime": 3.0,
        "flagTargetReachable": "10",
        "flagSelfOnTemplateCollider": "01",
        "flagSelfInZone": "10",
        "flagTargetInZone": "11"
      },
      "200": {
        "name": "Stage01ToStage02",
        "priority": 1,
        "castCondition": {
          "pose": [101],
          "needReInitCD": true
        },
        "initialCD": 20.0,
        "publicCDGroup": "",
        "ignoreGCD": true,
        "triggerGCD": false,
        "HHAGODJIAPE": "",
        "stateIDs": ["StageChange"],
        "skillQueryingTime": 3.0,
        "flagTargetReachable": "10",
        "flagSelfOnTemplateCollider": "01",
        "flagSelfInZone": "10",
        "flagTargetInZone": "11"
      },
      "2011": {
        "name": "Stage02_DigOutAttack",
        "castCondition": {
          "pose": [201],
          "needReInitCD": true,
          "targetSkillAnchorRangeMax": 25.0
        },
        "cd": 38.0,
        "cdUpperRange": 1.0,
        "initialCDUpperRange": 1.0,
        "publicCDGroup": "",
        "skillGroupCDID": 201,
        "HHAGODJIAPE": "",
        "stateIDs": ["Stage02_DigOutAttack"],
        "skillQueryingTime": 3.0,
        "flagTargetReachable": "10",
        "flagSelfOnTemplateCollider": "01",
        "flagSelfInZone": "10",
        "flagTargetInZone": "11"
      },
      "2013": {
        "name": "Stage02_DigOutAttack",
        "castCondition": {
          "pose": [202],
          "needReInitCD": true,
          "targetSkillAnchorRangeMax": 25.0
        },
        "cd": 14.0,
        "cdUpperRange": 1.0,
        "initialCD": 16.0,
        "initialCDUpperRange": 1.0,
        "publicCDGroup": "",
        "skillGroupCDID": 301,
        "HHAGODJIAPE": "",
        "stateIDs": ["Stage02_DigOutAttack"],
        "skillQueryingTime": 3.0,
        "flagTargetReachable": "10",
        "flagSelfOnTemplateCollider": "01",
        "flagSelfInZone": "10",
        "flagTargetInZone": "11"
      },
      "2014": {
        "name": "Stage02_DigOutAttack",
        "castCondition": {
          "pose": [202],
          "needReInitCD": true,
          "targetSkillAnchorRangeMax": 25.0
        },
        "cd": 28.0,
        "cdUpperRange": 1.0,
        "initialCD": 25.0,
        "initialCDUpperRange": 1.0,
        "publicCDGroup": "",
        "skillGroupCDID": 302,
        "HHAGODJIAPE": "",
        "stateIDs": ["Stage02_DigOutAttack"],
        "skillQueryingTime": 3.0,
        "flagTargetReachable": "10",
        "flagSelfOnTemplateCollider": "01",
        "flagSelfInZone": "10",
        "flagTargetInZone": "11"
      },
      "2015": {
        "name": "Stage02_DigOutAttack_Dungeon",
        "castCondition": {
          "pose": [202],
          "needReInitCD": true,
          "targetSkillAnchorRangeMax": 25.0
        },
        "cd": 38.0,
        "cdUpperRange": 1.0,
        "initialCDUpperRange": 1.0,
        "publicCDGroup": "",
        "skillGroupCDID": 401,
        "HHAGODJIAPE": "",
        "stateIDs": ["Stage02_DigOutAttack"],
        "skillQueryingTime": 3.0,
        "flagTargetReachable": "10",
        "flagSelfOnTemplateCollider": "01",
        "flagSelfInZone": "10",
        "flagTargetInZone": "11"
      },
      "2022": {
        "name": "Stage02_TailVerticalShootAttack",
        "castCondition": {
          "pose": [201],
          "needReInitCD": true,
          "skillAnchorRangeMin": 5.0,
          "skillAnchorRangeMax": 25.0
        },
        "cd": 38.0,
        "cdUpperRange": 1.0,
        "initialCD": 38.5,
        "initialCDUpperRange": 1.0,
        "publicCDGroup": "",
        "skillGroupCDID": 202,
        "HHAGODJIAPE": "",
        "stateIDs": ["Stage02_TailVerticalShootAttack"],
        "skillQueryingTime": 3.0,
        "flagTargetReachable": "10",
        "flagSelfOnTemplateCollider": "01",
        "flagSelfInZone": "10",
        "flagTargetInZone": "11"
      },
      "2023": {
        "name": "Stage02_TailVerticalShootAttack",
        "castCondition": {
          "pose": [202],
          "needReInitCD": true,
          "skillAnchorRangeMin": 5.0,
          "skillAnchorRangeMax": 25.0
        },
        "cd": 14.0,
        "cdUpperRange": 1.0,
        "initialCD": 16.0,
        "initialCDUpperRange": 1.0,
        "publicCDGroup": "",
        "skillGroupCDID": 301,
        "HHAGODJIAPE": "",
        "stateIDs": ["Stage02_TailVerticalShootAttack"],
        "skillQueryingTime": 3.0,
        "flagTargetReachable": "10",
        "flagSelfOnTemplateCollider": "01",
        "flagSelfInZone": "10",
        "flagTargetInZone": "11"
      },
      "2024": {
        "name": "Stage02_TailVerticalShootAttack",
        "castCondition": {
          "pose": [202],
          "needReInitCD": true,
          "skillAnchorRangeMin": 5.0,
          "skillAnchorRangeMax": 25.0
        },
        "cd": 28.0,
        "cdUpperRange": 1.0,
        "initialCD": 25.0,
        "initialCDUpperRange": 1.0,
        "publicCDGroup": "",
        "skillGroupCDID": 302,
        "HHAGODJIAPE": "",
        "stateIDs": ["Stage02_TailVerticalShootAttack"],
        "skillQueryingTime": 3.0,
        "flagTargetReachable": "10",
        "flagSelfOnTemplateCollider": "01",
        "flagSelfInZone": "10",
        "flagTargetInZone": "11"
      },
      "2025": {
        "name": "Stage02_TailVerticalShootAttack_Dungeon",
        "castCondition": {
          "pose": [202],
          "needReInitCD": true,
          "skillAnchorRangeMin": 5.0,
          "skillAnchorRangeMax": 25.0
        },
        "cd": 38.0,
        "cdUpperRange": 1.0,
        "initialCDUpperRange": 1.0,
        "publicCDGroup": "",
        "skillGroupCDID": 401,
        "HHAGODJIAPE": "",
        "stateIDs": ["Stage02_TailVerticalShootAttack"],
        "skillQueryingTime": 3.0,
        "flagTargetReachable": "10",
        "flagSelfOnTemplateCollider": "01",
        "flagSelfInZone": "10",
        "flagTargetInZone": "11"
      },
      "2031": {
        "name": "Stage02_DrillRushAttack",
        "castCondition": {
          "pose": [201],
          "needReInitCD": true,
          "skillAnchorRangeMax": 15.0
        },
        "cd": 38.0,
        "cdUpperRange": 1.0,
        "initialCDUpperRange": 1.0,
        "publicCDGroup": "",
        "skillGroupCDID": 201,
        "HHAGODJIAPE": "",
        "stateIDs": ["Stage02_DrillRushAttack"],
        "skillQueryingTime": 3.0,
        "flagTargetReachable": "10",
        "flagSelfOnTemplateCollider": "01",
        "flagSelfInZone": "10",
        "flagTargetInZone": "11"
      },
      "2033": {
        "name": "Stage02_DrillRushAttack",
        "castCondition": {
          "pose": [202],
          "needReInitCD": true,
          "skillAnchorRangeMax": 15.0
        },
        "cd": 14.0,
        "cdUpperRange": 1.0,
        "initialCD": 16.0,
        "initialCDUpperRange": 1.0,
        "publicCDGroup": "",
        "skillGroupCDID": 301,
        "HHAGODJIAPE": "",
        "stateIDs": ["Stage02_DrillRushAttack"],
        "skillQueryingTime": 3.0,
        "flagTargetReachable": "10",
        "flagSelfOnTemplateCollider": "01",
        "flagSelfInZone": "10",
        "flagTargetInZone": "11"
      },
      "2034": {
        "name": "Stage02_DrillRushAttack",
        "castCondition": {
          "pose": [202],
          "needReInitCD": true,
          "skillAnchorRangeMax": 15.0
        },
        "cd": 38.0,
        "cdUpperRange": 1.0,
        "initialCD": 25.0,
        "initialCDUpperRange": 1.0,
        "publicCDGroup": "",
        "skillGroupCDID": 302,
        "HHAGODJIAPE": "",
        "stateIDs": ["Stage02_DrillRushAttack"],
        "skillQueryingTime": 3.0,
        "flagTargetReachable": "10",
        "flagSelfOnTemplateCollider": "01",
        "flagSelfInZone": "10",
        "flagTargetInZone": "11"
      },
      "2035": {
        "name": "Stage02_DrillRushAttack_Dungeon",
        "castCondition": {
          "pose": [202],
          "needReInitCD": true,
          "skillAnchorRangeMax": 15.0
        },
        "cd": 38.0,
        "cdUpperRange": 1.0,
        "initialCDUpperRange": 1.0,
        "publicCDGroup": "",
        "skillGroupCDID": 401,
        "HHAGODJIAPE": "",
        "stateIDs": ["Stage02_DrillRushAttack"],
        "skillQueryingTime": 3.0,
        "flagTargetReachable": "10",
        "flagSelfOnTemplateCollider": "01",
        "flagSelfInZone": "10",
        "flagTargetInZone": "11"
      },
      "2041": {
        "name": "Stage02_TailStormAttack",
        "castCondition": {
          "pose": [201],
          "needReInitCD": true
        },
        "cd": 35.0,
        "cdUpperRange": 1.0,
        "initialCD": 16.5,
        "initialCDUpperRange": 1.0,
        "publicCDGroup": "",
        "skillGroupCDID": 203,
        "HHAGODJIAPE": "",
        "stateIDs": ["Stage02_TailStormAttack"],
        "skillQueryingTime": 3.0,
        "flagTargetReachable": "10",
        "flagSelfOnTemplateCollider": "01",
        "flagSelfInZone": "10",
        "flagTargetInZone": "11"
      },
      "2042": {
        "name": "Stage02_TailStormAttack",
        "castCondition": {
          "pose": [202],
          "needReInitCD": true
        },
        "cd": 28.0,
        "cdUpperRange": 1.0,
        "initialCD": 25.0,
        "initialCDUpperRange": 1.0,
        "publicCDGroup": "",
        "skillGroupCDID": 302,
        "HHAGODJIAPE": "",
        "stateIDs": ["Stage02_TailStormAttack"],
        "skillQueryingTime": 3.0,
        "flagTargetReachable": "10",
        "flagSelfOnTemplateCollider": "01",
        "flagSelfInZone": "10",
        "flagTargetInZone": "11"
      },
      "2045": {
        "name": "Stage02_TailStormAttack_Dungeon",
        "castCondition": {
          "pose": [202],
          "needReInitCD": true
        },
        "cd": 45.0,
        "cdUpperRange": 1.0,
        "initialCD": 14.0,
        "initialCDUpperRange": 1.0,
        "publicCDGroup": "",
        "skillGroupCDID": 402,
        "HHAGODJIAPE": "",
        "stateIDs": ["Stage02_TailStormAttack"],
        "skillQueryingTime": 3.0,
        "flagTargetReachable": "10",
        "flagSelfOnTemplateCollider": "01",
        "flagSelfInZone": "10",
        "flagTargetInZone": "11"
      },
      "2051": {
        "name": "Stage02_FlyingAttack",
        "priority": 1,
        "castCondition": {
          "pose": [202],
          "needReInitCD": true
        },
        "cd": 50.0,
        "cdUpperRange": 10.0,
        "publicCDGroup": "",
        "HHAGODJIAPE": "",
        "stateIDs": ["Stage02_FlyingAttack", "Stage02_FlyingAttack_Faint_BS"],
        "skillQueryingTime": 3.0,
        "flagTargetReachable": "10",
        "flagSelfOnTemplateCollider": "01",
        "flagSelfInZone": "10",
        "flagTargetInZone": "11"
      },
      "2052": {
        "name": "Stage02_FlyingAttack_Dungeon",
        "priority": 1,
        "castCondition": {
          "pose": [202],
          "needReInitCD": true
        },
        "cd": 34.0,
        "initialCD": 34.0,
        "publicCDGroup": "",
        "HHAGODJIAPE": "",
        "stateIDs": ["Stage02_FlyingAttack", "Stage02_FlyingAttack_Faint_BS"],
        "skillQueryingTime": 3.0,
        "flagTargetReachable": "10",
        "flagSelfOnTemplateCollider": "01",
        "flagSelfInZone": "10",
        "flagTargetInZone": "11"
      },
      "206": {
        "name": "Stage02_FlyingAttack_Faint_AS",
        "priority": 1,
        "castCondition": {
          "pose": [203],
          "needReInitCD": true
        },
        "initialCD": 10.0,
        "publicCDGroup": "",
        "ignoreGCD": true,
        "HHAGODJIAPE": "",
        "stateIDs": ["Stage02_FlyingAttack_Faint_AS"],
        "flagTargetReachable": "10",
        "flagSelfOnTemplateCollider": "01",
        "flagSelfInZone": "10",
        "flagTargetInZone": "11"
      }
    },
    "skillGCD": 0.0,
    "birdCirclingTactic": [
      {
        "$type": "NNJKLGNPMNN",
        "enable": true,
        "JMCOBEPDIGM": {
          "OJGLKPBCLGB": 5.5,
          "MNPDDAKDHGK": "",
          "GJDMDHIBCME": ""
        }
      }
    ]
  },
  "inputKeys": [
    {
      "keyID": 100,
      "inputKeyCode": 257,
      "abilityName": ""
    },
    {
      "keyID": 101,
      "inputKeyCode": 258,
      "abilityName": ""
    },
    {
      "keyID": 102,
      "inputKeyCode": 259,
      "abilityName": ""
    },
    {
      "keyID": 200,
      "inputKeyCode": 260,
      "abilityName": ""
    },
    {
      "keyID": 2011,
      "inputKeyCode": 261,
      "abilityName": ""
    },
    {
      "keyID": 2021,
      "inputKeyCode": 262,
      "abilityName": ""
    },
    {
      "keyID": 2031,
      "inputKeyCode": 263,
      "abilityName": ""
    },
    {
      "keyID": 2041,
      "inputKeyCode": 264,
      "abilityName": ""
    },
    {
      "keyID": 2051,
      "inputKeyCode": 265,
      "abilityName": ""
    },
    {
      "keyID": 206,
      "inputKeyCode": 266,
      "abilityName": ""
    },
    {
      "keyID": 999,
      "inputKeyCode": 267,
      "abilityName": ""
    }
  ],
  "move": {
    "$type": "IPNMJMHDMPF",
    "facingMove": "FourDirection",
    "destroyRockWhenInit": true,
    "PKHOMJHFAEE": "RootNode"
  },
  "audio": {
    "overrideEmitterName": "",
    "animAudio": {
      "onTransitionIn": [
        {
          "currentStateName": "Stage02_TailStormAttack_SetPosition",
          "audioEvent": {
            "text": "Play_sfx_monster_Sandworm_stage02_tailStormAttack"
          },
          "otherStateNames": ["Stage02_TailStormAttack_SetPosition"],
          "usage": "Except"
        },
        {
          "currentStateName": "Faint",
          "audioEvent": {
            "text": "Play_sfx_monster_Sandworm_die_faint_loop"
          },
          "otherStateNames": ["Faint"],
          "usage": "Except"
        },
        {
          "currentStateName": "Stage02_TailVerticalShootAttack_SetPosition",
          "audioEvent": {
            "text": "Play_sfx_monster_Sandworm_stage02_tailVerticalShootAttack"
          },
          "otherStateNames": ["Stage02_TailVerticalShootAttack_SetPosition"],
          "usage": "Except"
        }
      ],
      "onTransitionOut": [
        {
          "currentStateName": "Faint",
          "audioEvent": {
            "text": "Stop_sfx_monster_Sandworm_die_faint_loop"
          },
          "otherStateNames": ["Faint"],
          "usage": "Except"
        }
      ]
    }
  },
  "cameraAdjustMap": {
    "default": {
      "$type": "NJCCPGFPIHI",
      "priority": 1.0,
      "heightAdjust": 2.5,
      "fov": 30.0,
      "zoom": 22.0,
      "sphericalY": 10.0,
      "lockSphericalY": false,
      "sphericalYUp": 79.0,
      "sphericalYDown": 99.0,
      "autoTurnStartMin": 50.0,
      "autoTurnStartMax": 40.0,
      "autoTurnEndMin": 100.0,
      "autoTurnEndMax": 145.0,
      "enterShape": "CircleR0",
      "exitShape": "CircleR0"
    },
    "Stage01": {
      "$type": "NJCCPGFPIHI",
      "priority": 1.0,
      "heightAdjust": 2.5,
      "fov": 30.0,
      "zoom": 22.0,
      "sphericalY": 10.0,
      "lockSphericalY": false,
      "sphericalYUp": 79.0,
      "sphericalYDown": 99.0,
      "autoTurnStartMin": 50.0,
      "autoTurnStartMax": 40.0,
      "autoTurnEndMin": 100.0,
      "autoTurnEndMax": 145.0,
      "enterShape": "CircleR30H15B",
      "exitShape": "CircleR35H15B",
      "shapeCenterOffset": {
        "y": -1.7999999523162842
      }
    },
    "Stage02": {
      "$type": "NJCCPGFPIHI",
      "priority": 1.0,
      "heightAdjust": 1.0,
      "fov": 30.0,
      "zoom": 14.0,
      "sphericalY": 10.0,
      "lockSphericalY": false,
      "sphericalYUp": 79.0,
      "sphericalYDown": 99.0,
      "autoTurnStartMin": 50.0,
      "autoTurnStartMax": 40.0,
      "autoTurnEndMin": 100.0,
      "autoTurnEndMax": 145.0,
      "enterShape": "CircleLockEnemyR50H30HC",
      "exitShape": "CircleLockEnemyR55H30HC"
    },
    "FlyingAttack": {
      "$type": "NJCCPGFPIHI",
      "priority": 1.0,
      "heightAdjust": 2.5,
      "fov": 30.0,
      "zoom": 24.0,
      "sphericalY": 10.0,
      "lockSphericalY": false,
      "sphericalYUp": 79.0,
      "sphericalYDown": 99.0,
      "autoTurnStartMin": 50.0,
      "autoTurnStartMax": 40.0,
      "autoTurnEndMin": 100.0,
      "autoTurnEndMax": 145.0,
      "enterShape": "CircleR30H30C",
      "exitShape": "CircleLockEnemyR50H30HC"
    },
    "Lock01": {
      "$type": "NLDOMMCPFHD",
      "priority": 1.0,
      "heightAdjust": 1.0,
      "fov": 30.0,
      "sphericalY": 6.0,
      "enterShape": "CircleLockEnemyR50H30HC",
      "exitShape": "CircleLockEnemyR55H30HC",
      "enableSafeEnterExit": true,
      "lockPoint": "CameraLock01",
      "forwardMaxAngle": 5.0,
      "forwardMaxAngleExtra": 20.0,
      "forwardAdjustMinSpeed": 15.0,
      "enemyWeight": 0.009999999776482582,
      "zoomMin": 14.0,
      "zoomMax": 14.0,
      "enemyPosTolerateRange": 2.0,
      "fixDuration": 2.0,
      "enableInterruptByInput": true
    }
  }
}
