{
  "common": {
    "effectAttachShape": {
      "$type": "FJNPJANPGGC",
      "mesh": "Body"
    },
    "mass": 1000000000.0,
    "height": 5.0,
    "viewSize": 3.25,
    "affectedByWorld": true,
    "checkInSurface": true,
    "clearAnimatorOnSetLightDeactive": true,
    "clearAIOnSetLightDeactive": true
  },
  "model": {
    "bornEffect": "",
    "attachEffect": "",
    "canBakeMesh": false,
    "BKPFGNPLDNJ": ""
  },
  "dither": {
    "showDitherDuration": 2.0,
    "normalBetweenCamera": {
      "detectDitherRange": 0.0
    }
  },
  "combat": {
    "property": {
      "endureType": "Monster_Boss_Other",
      "weight": 300.0
    },
    "beHit": {
      "hitBloodEffect": "",
      "hitAutoRedirect": false
    },
    "combatLock": {
      "lockShape": "CircleLockEnemy",
      "lockType": "Avatar&Monster_Lv4"
    },
    "die": {
      "hasAnimatorDie": true,
      "dieEndTime": 3.0,
      "dieForceDisappearTime": 5.0,
      "dieDisappearEffect": "",
      "dieShaderData": "MonsterDie",
      "muteHitBox": true,
      "dieDenyLockOn": true,
      "dieIsGhostToEnemy": true,
      "dieIgnoreTriggerBullet": true,
      "muteBillboard": true,
      "mutePushCollider": true
    },
    "animEvents": {
      "JumpAtk": {
        "attackPattern": {
          "$type": "ConfigAttackCircle",
          "triggerType": "TriggerNoRepeat",
          "born": {
            "$type": "ConfigBornBySelf",
            "offset": {
              "x": 0.0,
              "y": 0.0,
              "z": 0.20000000298023224
            }
          },
          "radius": 3.5
        },
        "attackInfo": {
          "attackTag": "",
          "attenuationTag": "",
          "attenuationGroup": "default",
          "attackProperty": {
            "actorGrassSubHurtDelta": 0.9160000085830688,
            "actorWindSubHurtDelta": 0.0,
            "elementDurability": 100.0,
            "strikeType": "Blunt",
            "enBreak": 200.0,
            "GLKMCMDJBIK": 0.0
          },
          "hitPattern": {
            "onHitEffectName": "default",
            "hitImpulseY": "",
            "hitImpulseType": "LV5"
          },
          "forceCameraShake": true,
          "cameraShake": {
            "shakeType": "CustomVector",
            "shakeRange": 0.4000000059604645,
            "shakeTime": 0.15000000596046448,
            "shakeDistance": 30.0,
            "shakeDir": {
              "y": -1.0
            }
          }
        }
      },
      "CrashAtk01": {
        "attackPattern": {
          "$type": "ConfigAttackBox",
          "triggerType": "TriggerNoRepeat",
          "born": {
            "$type": "ConfigBornBySelf",
            "offset": {
              "x": 0.0,
              "y": 3.0,
              "z": -8.0
            }
          },
          "size": {
            "x": 16.0,
            "y": 6.0,
            "z": 16.0
          }
        },
        "attackInfo": {
          "attackTag": "",
          "attenuationTag": "",
          "attenuationGroup": "default",
          "attackProperty": {
            "actorGrassSubHurtDelta": 0.75,
            "actorWindSubHurtDelta": 0.0,
            "elementDurability": 100.0,
            "strikeType": "Blunt",
            "enBreak": 200.0,
            "GLKMCMDJBIK": 0.0
          },
          "hitPattern": {
            "onHitEffectName": "default",
            "hitImpulseY": "",
            "hitImpulseType": "LV5"
          },
          "forceCameraShake": true,
          "cameraShake": {
            "shakeType": "CustomVector",
            "shakeRange": 0.4000000059604645,
            "shakeTime": 0.15000000596046448,
            "shakeDistance": 30.0,
            "shakeDir": {
              "y": -1.0
            }
          }
        }
      },
      "CrashAtk02": {
        "attackPattern": {
          "$type": "ConfigAttackBox",
          "triggerType": "TriggerNoRepeat",
          "born": {
            "$type": "ConfigBornBySelf",
            "offset": {
              "x": 0.0,
              "y": 3.0,
              "z": -8.0
            }
          },
          "size": {
            "x": 16.0,
            "y": 6.0,
            "z": 16.0
          }
        },
        "attackInfo": {
          "attackTag": "",
          "attenuationTag": "",
          "attenuationGroup": "default",
          "attackProperty": {
            "actorGrassSubHurtDelta": 0.9160000085830688,
            "actorWindSubHurtDelta": 0.0,
            "elementDurability": 100.0,
            "strikeType": "Blunt",
            "enBreak": 200.0,
            "GLKMCMDJBIK": 0.0
          },
          "hitPattern": {
            "onHitEffectName": "default",
            "hitImpulseY": "",
            "hitImpulseType": "LV5"
          },
          "forceCameraShake": true,
          "cameraShake": {
            "shakeType": "CustomVector",
            "shakeRange": 0.5,
            "shakeTime": 0.18000000715255737,
            "shakeDistance": 30.0,
            "shakeDir": {
              "y": -1.0
            }
          }
        }
      }
    },
    "summon": {
      "summonTags": [
        {
          "summonTag": 24020102,
          "name": "Drone_Normal",
          "copyOwnerThreatList": true,
          "useOwnerDefendArea": true
        },
        {
          "summonTag": 24020103,
          "name": "Drone_Enhanced",
          "copyOwnerThreatList": true,
          "useOwnerDefendArea": true
        },
        {
          "summonTag": 24020202,
          "name": "Flora_Normal",
          "copyOwnerThreatList": true,
          "useOwnerDefendArea": true
        },
        {
          "summonTag": 24020203,
          "name": "Flora_Enhanced",
          "copyOwnerThreatList": true,
          "useOwnerDefendArea": true
        },
        {
          "summonTag": 24020302,
          "name": "Insecta_Normal",
          "copyOwnerThreatList": true,
          "useOwnerDefendArea": true
        },
        {
          "summonTag": 24020303,
          "name": "Insecta_Enhanced",
          "copyOwnerThreatList": true,
          "useOwnerDefendArea": true
        },
        {
          "summonTag": 24020402,
          "name": "Nettler_Normal",
          "copyOwnerThreatList": true,
          "useOwnerDefendArea": true
        },
        {
          "summonTag": 24020403,
          "name": "Nettler_Enhanced",
          "copyOwnerThreatList": true,
          "useOwnerDefendArea": true
        }
      ]
    }
  },
  "abilities": [
    {
      "abilityID": "",
      "abilityName": "Monster_Apparatus_Perpetual_Reset",
      "abilityOverride": ""
    },
    {
      "abilityID": "",
      "abilityName": "Monster_Apparatus_Perpetual_ShaderState",
      "abilityOverride": ""
    },
    {
      "abilityID": "",
      "abilityName": "Monster_Apparatus_Perpetual_Split",
      "abilityOverride": ""
    },
    {
      "abilityID": "",
      "abilityName": "Monster_Apparatus_Perpetual_WeakStart",
      "abilityOverride": ""
    },
    {
      "abilityID": "",
      "abilityName": "Monster_Apparatus_Perpetual_Recombination",
      "abilityOverride": ""
    },
    {
      "abilityID": "",
      "abilityName": "Monster_Apparatus_Perpetual_CircularSaw",
      "abilityOverride": ""
    },
    {
      "abilityID": "",
      "abilityName": "Monster_Apparatus_Perpetual_LightSaber",
      "abilityOverride": ""
    },
    {
      "abilityID": "",
      "abilityName": "Monster_Apparatus_Perpetual_RocketLaunch",
      "abilityOverride": ""
    },
    {
      "abilityID": "",
      "abilityName": "Monster_Apparatus_Perpetual_SteerAttack",
      "abilityOverride": ""
    },
    {
      "abilityID": "",
      "abilityName": "Monster_Apparatus_Perpetual_CrashAtk",
      "abilityOverride": ""
    },
    {
      "abilityID": "",
      "abilityName": "Monster_Apparatus_Perpetual_RangeAtk",
      "abilityOverride": ""
    },
    {
      "abilityID": "",
      "abilityName": "Monster_Apparatus_Perpetual_ChargeAtk",
      "abilityOverride": ""
    }
  ],
  "stateLayers": {
    "defaultLayer": {
      "$type": "GBGJJIIEMBD",
      "layerIndexName": "",
      "CPAANEIJCGD": "",
      "stateIDs": {
        "Born": {
          "$type": "NEDIFAKEGCO",
          "animatorStates": {
            "Born": []
          },
          "canDoSkill": true,
          "canSyncMove": true,
          "resetAnimatorTriggerOnExit": ["DoSkill"]
        },
        "Standby": {
          "$type": "NEDIFAKEGCO",
          "animatorStates": {
            "Standby": []
          },
          "canDoSkill": true,
          "canSyncMove": true,
          "resetAnimatorTriggerOnExit": ["DoSkill"]
        },
        "NormalMove": {
          "$type": "NEDIFAKEGCO",
          "animatorStates": {
            "RushMove_BS": ["Audio_Apparatus_Perpetual_RushMove_BS"],
            "RushMove_Loop": [],
            "RushMove_AS": ["Audio_Apparatus_Perpetual_RushMove_AS"]
          },
          "canDoSkill": true,
          "canSyncMove": true,
          "resetAnimatorTriggerOnExit": ["DoSkill"],
          "canSteer": true
        },
        "BeHit": {
          "$type": "NEDIFAKEGCO",
          "animatorStates": {
            "Hit_L": []
          },
          "resetAnimatorTriggerOnEnter": ["BeHit"],
          "resetAnimatorTriggerOnExit": ["DoSkill"]
        },
        "WeakStart": {
          "$type": "NEDIFAKEGCO",
          "animatorStates": {
            "WeakStart": [
              "Monster_Apparatus_Perpetual_WeakStart",
              "Audio_Apparatus_Perpetual_WeakStart"
            ]
          },
          "resetAnimatorTriggerOnEnter": ["BeHit"],
          "resetAnimatorTriggerOnExit": ["DoSkill"]
        },
        "WeakEnd": {
          "$type": "NEDIFAKEGCO",
          "animatorStates": {
            "WeakEnd": ["Audio_Apparatus_Perpetual_WeakEnd"]
          },
          "resetAnimatorTriggerOnEnter": ["BeHit"],
          "resetAnimatorTriggerOnExit": ["DoSkill"]
        },
        "Die": {
          "$type": "NEDIFAKEGCO",
          "animatorStates": {
            "Die": [
              "Monster_Apparatus_Perpetual_Die",
              "Audio_Apparatus_Perpetual_Die"
            ],
            "WeakDie": [
              "Monster_Apparatus_Perpetual_WeakDie",
              "Audio_Apparatus_Perpetual_WeakDie"
            ],
            "SwimDie": ["Audio_Apparatus_Perpetual_Die"]
          }
        },
        "Warning": {
          "$type": "NEDIFAKEGCO",
          "animatorStates": {
            "Warning": [
              "Monster_Apparatus_Perpetual_WakeUp",
              "Audio_Apparatus_Perpetual_Warning"
            ]
          },
          "resetAnimatorTriggerOnExit": ["BeHit", "DoSkill"]
        },
        "CircularSaw": {
          "$type": "NEDIFAKEGCO",
          "animatorStates": {
            "CircularSaw": [
              "Monster_Apparatus_Perpetual_NormalAtk01",
              "Audio_Apparatus_Perpetual_CircularSaw"
            ]
          },
          "cullingModelAlwaysAnimate": true,
          "resetAnimatorTriggerOnExit": ["BeHit", "DoSkill"]
        },
        "LightSaber": {
          "$type": "NEDIFAKEGCO",
          "animatorStates": {
            "LightSaber": [
              "Monster_Apparatus_Perpetual_NormalAtk02",
              "Audio_Apparatus_Perpetual_LightSaber"
            ]
          },
          "cullingModelAlwaysAnimate": true,
          "resetAnimatorTriggerOnExit": ["BeHit", "DoSkill"]
        },
        "RocketLaunch": {
          "$type": "NEDIFAKEGCO",
          "animatorStates": {
            "RocketLaunch_TakeOff": [
              "Monster_Apparatus_Perpetual_NormalAtk03_TakeOff",
              "Audio_Apparatus_Perpetual_RockerLaunch_TakeOff"
            ],
            "RocketLaunch_Missing": [],
            "RocketLaunch_Land": [
              "Monster_Apparatus_Perpetual_NormalAtk03_Land",
              "Audio_Apparatus_Perpetual_RockerLaunch_Land"
            ]
          },
          "cullingModelAlwaysAnimate": true,
          "resetAnimatorTriggerOnExit": ["BeHit", "DoSkill"]
        },
        "CrashAtk": {
          "$type": "NEDIFAKEGCO",
          "animatorStates": {
            "CrashAtkBS": [
              "Monster_Apparatus_Perpetual_CrashAtkBS",
              "Audio_Apparatus_Perpetual_CrashAtkBS"
            ],
            "CrashAtk01AS": [
              "Monster_Apparatus_Perpetual_CrashAtk01",
              "Audio_Apparatus_Perpetual_CrashAtk01AS"
            ],
            "CrashAtk02AS": [
              "Monster_Apparatus_Perpetual_CrashAtk02",
              "Audio_Apparatus_Perpetual_CrashAtk02AS"
            ]
          },
          "cullingModelAlwaysAnimate": true,
          "resetAnimatorTriggerOnExit": ["BeHit", "DoSkill"]
        },
        "CrashAtkLoop": {
          "$type": "NEDIFAKEGCO",
          "animatorStates": {
            "CrashAtk01Loop": [
              "Monster_Apparatus_Perpetual_CrashAtkLoop",
              "Audio_Apparatus_Perpetual_CrashAtkLoop"
            ]
          },
          "cullingModelAlwaysAnimate": true,
          "resetAnimatorTriggerOnEnter": ["CrushEndTrigger"],
          "resetAnimatorTriggerOnExit": ["BeHit", "DoSkill"],
          "canSteer": true
        },
        "RangeAtkBS": {
          "$type": "NEDIFAKEGCO",
          "animatorStates": {
            "RangeAtk_BS": ["Audio_Apparatus_Perpetual_RangAtk_BS"]
          },
          "cullingModelAlwaysAnimate": true,
          "resetAnimatorTriggerOnExit": ["BeHit", "DoSkill"]
        },
        "RangeAtkLoop": {
          "$type": "NEDIFAKEGCO",
          "animatorStates": {
            "RangeAtk_Loop": []
          },
          "cullingModelAlwaysAnimate": true,
          "resetAnimatorTriggerOnExit": ["BeHit", "DoSkill"]
        },
        "RangeAtkAS": {
          "$type": "NEDIFAKEGCO",
          "animatorStates": {
            "RangeAtk_AS": ["Audio_Apparatus_Perpetual_RangAtk_AS"]
          },
          "cullingModelAlwaysAnimate": true,
          "resetAnimatorTriggerOnExit": ["BeHit", "DoSkill", "LaserEndTrigger"]
        },
        "ChargeAtk": {
          "$type": "NEDIFAKEGCO",
          "animatorStates": {
            "ChargeAtk": [
              "Monster_Apparatus_Perpetual_ChargeAtkBS",
              "Audio_Apparatus_Perpetual_ChargeAtk"
            ]
          },
          "cullingModelAlwaysAnimate": true,
          "resetAnimatorTriggerOnExit": ["BeHit", "DoSkill"],
          "canSteer": true
        },
        "Split": {
          "$type": "NEDIFAKEGCO",
          "animatorStates": {
            "SplitRushMove": [],
            "Split": [
              "Monster_Apparatus_Perpetual_Split",
              "Audio_Apparatus_Perpetual_Split"
            ]
          },
          "cullingModelAlwaysAnimate": true,
          "resetAnimatorTriggerOnExit": [
            "BeHit",
            "DoSkill",
            "SplitRushCancel",
            "SplitRushStage1",
            "SplitRushStage2"
          ]
        },
        "Recombination": {
          "$type": "NEDIFAKEGCO",
          "animatorStates": {
            "RecombinationIdle": [],
            "Recombination": [
              "Monster_Apparatus_Perpetual_Recombination",
              "Audio_Apparatus_Perpetual_Recombination"
            ]
          },
          "canSyncMove": true,
          "cullingModelAlwaysAnimate": true,
          "resetAnimatorTriggerOnExit": ["BeHit", "DoSkill"],
          "canSteer": true
        }
      }
    }
  },
  "partControl": {
    "parts": [
      {
        "$type": "INCPGKCDCIO",
        "angularSpeed": 999999.0,
        "partRootName": "LaserControl",
        "forwardByTransName": "",
        "limitHorizontal": 0.0,
        "limitVertical": 360.0
      }
    ]
  },
  "billboard": {
    "$type": "DNGNMAJBCNP",
    "attachPoint": "BillboardAttach",
    "offset": {
      "y": 1.5
    },
    "radiusOffset": 3.0,
    "enableSelfAdapt": true,
    "showHPBar": true,
    "size": "Big"
  },
  "initialPoses": {
    "Default": {},
    "Machinery": {
      "initialPoseID": 111,
      "initialPoseParams": {
        "boolParams": {
          "Machinery": "true"
        }
      }
    }
  },
  "aibeta": {
    "enable": true,
    "sensing": {
      "settings": {
        "DefaultSetting": {
          "viewRange": 20.0,
          "viewPanoramic": true,
          "feelRange": 15.0
        },
        "Machinery": {
          "enableVision": false,
          "hearAttractionRange": 0.0,
          "feelRange": 0.0
        }
      },
      "templates": {
        "DefaultTemplate": {
          "DefaultPoses": "DefaultSetting"
        },
        "Machinery": {
          "DefaultPoses": "Machinery",
          "111": "Machinery"
        }
      }
    },
    "neurons": {
      "DefaultSetting": ["HIT"],
      "Machinery": []
    },
    "threat": {
      "GHIJMOKOLMB": "",
      "clearThreatTargetDistance": 70.0,
      "clearThreatEdgeDistance": 0.0,
      "clearThreatByTargetOutOfZone": true,
      "viewThreatGrow": 35.0,
      "threatDecreaseSpeed": 100.0,
      "resistTauntLevel": "Monster_TauntLevel_4"
    },
    "defendArea": {
      "defendRange": 50.0
    },
    "profiling": {
      "lodStrategy": "Best",
      "staticPoses": [202, 203]
    },
    "skillGroupCDConfigs": [
      {
        "skillGroupCDID": 0,
        "skillGroupCDTime": 10.0
      }
    ],
    "skills": {
      "101": {
        "name": "OnAlert",
        "skillType": "OnAlert",
        "faceTarget": true,
        "castCondition": {
          "pose": [100, 111, 201]
        },
        "publicCDGroup": "",
        "triggerGCD": false,
        "HHAGODJIAPE": "",
        "stateIDs": ["Warning"],
        "skillQueryingTime": 3.5,
        "flagTargetReachable": "10",
        "flagSelfOnTemplateCollider": "01",
        "flagSelfInZone": "10",
        "flagTargetInZone": "11"
      },
      "201": {
        "name": "ComboAtk",
        "priority": 4,
        "castCondition": {
          "pose": [201],
          "pickRangeMax": 7.5
        },
        "cd": 15.0,
        "cdUpperRange": 10.0,
        "initialCD": 5.0,
        "publicCDGroup": "",
        "skillGroupCDID": 0,
        "HHAGODJIAPE": "",
        "stateIDs": ["CircularSaw", "LightSaber", "RocketLaunch"],
        "skillQueryingTime": 3.5,
        "flagTargetReachable": "10",
        "flagSelfOnTemplateCollider": "01",
        "flagSelfInZone": "10",
        "flagTargetInZone": "10"
      },
      "202": {
        "name": "ComboAtk",
        "priority": 4,
        "castCondition": {
          "pose": [201],
          "pickRangeMax": 10.0
        },
        "cd": 30.0,
        "cdUpperRange": 5.0,
        "initialCD": 10.0,
        "publicCDGroup": "",
        "skillGroupCDID": 0,
        "HHAGODJIAPE": "",
        "stateIDs": ["LightSaber", "RocketLaunch"],
        "skillQueryingTime": 3.5,
        "flagTargetReachable": "10",
        "flagSelfOnTemplateCollider": "01",
        "flagSelfInZone": "10",
        "flagTargetInZone": "10"
      },
      "203": {
        "name": "ComboAtk",
        "priority": 4,
        "castCondition": {
          "pose": [201],
          "pickRangeMax": 99.0
        },
        "cd": 30.0,
        "cdUpperRange": 5.0,
        "initialCD": 5.0,
        "publicCDGroup": "",
        "skillGroupCDID": 0,
        "HHAGODJIAPE": "",
        "stateIDs": ["RocketLaunch"],
        "skillQueryingTime": 3.5,
        "flagTargetReachable": "11",
        "flagSelfOnTemplateCollider": "01",
        "flagSelfInZone": "10",
        "flagTargetInZone": "10"
      },
      "211": {
        "name": "CrashAtk",
        "priority": 3,
        "castCondition": {
          "pose": [201],
          "pickRangeMin": 20.0,
          "pickRangeMax": 40.0
        },
        "cd": 15.0,
        "cdUpperRange": 7.5,
        "initialCD": 5.0,
        "publicCDGroup": "",
        "skillGroupCDID": 1,
        "HHAGODJIAPE": "",
        "stateIDs": ["CrashAtk", "CrashAtkLoop"],
        "skillQueryingTime": 3.5,
        "flagTargetReachable": "10",
        "flagSelfOnTemplateCollider": "01",
        "flagSelfInZone": "10",
        "flagTargetInZone": "10"
      },
      "221": {
        "name": "RangeAtk",
        "priority": 4,
        "castCondition": {
          "pose": [201],
          "pickRangeMin": 5.0,
          "pickRangeMax": 15.0
        },
        "cd": 15.0,
        "cdUpperRange": 7.5,
        "initialCD": 5.0,
        "publicCDGroup": "",
        "skillGroupCDID": 1,
        "HHAGODJIAPE": "",
        "stateIDs": ["RangeAtkBS", "RangeAtkLoop", "RangeAtkAS"],
        "skillQueryingTime": 3.5,
        "flagTargetReachable": "11",
        "flagSelfOnTemplateCollider": "01",
        "flagSelfInZone": "10",
        "flagTargetInZone": "11"
      },
      "231": {
        "name": "ChargeAtk",
        "priority": 4,
        "castCondition": {
          "pose": [201],
          "pickRangeMax": 99.0
        },
        "cd": 15.0,
        "cdUpperRange": 7.5,
        "initialCD": 5.0,
        "publicCDGroup": "",
        "HHAGODJIAPE": "",
        "stateIDs": ["ChargeAtk"],
        "skillQueryingTime": 3.5,
        "flagTargetReachable": "11",
        "flagSelfOnTemplateCollider": "01",
        "flagSelfInZone": "10",
        "flagTargetInZone": "11"
      },
      "241": {
        "name": "Split",
        "priority": 1,
        "castCondition": {
          "pose": [201],
          "needReInitCD": true,
          "pickRangeMax": 99.0
        },
        "cd": 1.0,
        "initialCD": 40.0,
        "publicCDGroup": "",
        "triggerCDOnFail": false,
        "HHAGODJIAPE": "",
        "stateIDs": ["Split"],
        "flagTargetReachable": "11",
        "flagSelfOnTemplateCollider": "01",
        "flagSelfInZone": "10",
        "flagTargetInZone": "11"
      },
      "251": {
        "name": "Recombination",
        "priority": 1,
        "castCondition": {
          "pose": [202],
          "pickRangeMax": 99.0
        },
        "cd": 150.0,
        "initialCD": 150.0,
        "publicCDGroup": "",
        "triggerCDOnFail": false,
        "HHAGODJIAPE": "",
        "stateIDs": ["Recombination"],
        "flagTargetReachable": "11",
        "flagSelfOnTemplateCollider": "01",
        "flagSelfInZone": "10",
        "flagTargetInZone": "11"
      }
    },
    "skillGCD": 2.0,
    "birdCirclingTactic": [
      {
        "$type": "NNJKLGNPMNN",
        "enable": true,
        "JMCOBEPDIGM": {
          "ANLAAGAMIKF": 1,
          "JFMIFLNBKMJ": 3.0,
          "DHGJDIPNDHH": 3.5,
          "MNPDDAKDHGK": "",
          "GJDMDHIBCME": ""
        }
      }
    ]
  },
  "inputKeys": [
    {
      "keyID": 201,
      "inputKeyCode": 257,
      "abilityName": ""
    },
    {
      "keyID": 211,
      "inputKeyCode": 258,
      "abilityName": ""
    },
    {
      "keyID": 221,
      "inputKeyCode": 259,
      "abilityName": ""
    },
    {
      "keyID": 231,
      "inputKeyCode": 260,
      "abilityName": ""
    },
    {
      "keyID": 241,
      "inputKeyCode": 261,
      "abilityName": ""
    },
    {
      "keyID": 251,
      "inputKeyCode": 262,
      "abilityName": ""
    },
    {
      "keyID": 666,
      "inputKeyCode": 263,
      "abilityName": ""
    },
    {
      "keyID": 101,
      "inputKeyCode": 264,
      "abilityName": ""
    },
    {
      "keyID": 777,
      "inputKeyCode": 265,
      "abilityName": ""
    }
  ],
  "move": {
    "$type": "IPNMJMHDMPF",
    "positionModifyState": "None",
    "destroyRockWhenInit": true,
    "PKHOMJHFAEE": "RootNode"
  }
}
