{
  "common": {
    "effectAttachShape": {
      "$type": "FJNPJANPGGC",
      "mesh": "EffectMesh"
    },
    "mass": 9999999.0,
    "height": 1.0,
    "affectedByWorld": true,
    "checkInSurface": true,
    "canTriggerElementReactionText": false,
    "useGrassDisplacement": true,
    "reconnectSupport": true,
    "recoverByInitPose": true
  },
  "headControl": {
    "$type": "KPIPDEBDPIH",
    "useHeadControl": true,
    "animStates": [
      "NormalIdle/Standby",
      "NormalIdle/Prone",
      "NormalMove/Walk",
      "NormalMove/Run",
      "Turn"
    ]
  },
  "model": {
    "bornEffect": "",
    "attachEffect": "",
    "canBakeMesh": false,
    "BKPFGNPLDNJ": ""
  },
  "dither": {
    "showDitherDuration": 1.0
  },
  "combat": {
    "property": {
      "endureType": "Monster_Minion",
      "weight": 101.0,
      "isInvincible": true
    },
    "beHit": {
      "hitBloodEffect": "",
      "muteAllHitEffect": true,
      "muteAllHitText": true
    },
    "combatLock": {
      "lockShape": "CircleLockEnemy",
      "denyLockOn": true,
      "lockType": "Animal_Lv2"
    },
    "die": {
      "dieEndTime": 2.0,
      "dieForceDisappearTime": 10.0,
      "dieDisappearEffect": ""
    }
  },
  "abilities": [
    {
      "abilityID": "",
      "abilityName": "Animal_Common_Initial",
      "abilityOverride": ""
    },
    {
      "abilityID": "",
      "abilityName": "Animal_FontainePoddle_AIStateInitial",
      "abilityOverride": ""
    },
    {
      "abilityID": "",
      "abilityName": "Animal_FontainePoddle_Prone",
      "abilityOverride": ""
    },
    {
      "abilityID": "",
      "abilityName": "Animal_FontainePoddle_Stand",
      "abilityOverride": ""
    },
    {
      "abilityID": "",
      "abilityName": "Animal_FontainePoddle_BeHit",
      "abilityOverride": ""
    }
  ],
  "stateLayers": {
    "defaultLayer": {
      "$type": "GBGJJIIEMBD",
      "layerIndexName": "",
      "CPAANEIJCGD": "",
      "stateIDs": {
        "Born": {
          "$type": "NEDIFAKEGCO",
          "animatorStates": {
            "Born": []
          },
          "resetAnimatorTriggerOnExit": ["DoSkill"]
        },
        "NormalIdle": {
          "$type": "NEDIFAKEGCO",
          "animatorStates": {
            "Standby": [],
            "Prone": []
          },
          "canDoSkill": true,
          "canSyncMove": true,
          "resetAnimatorTriggerOnExit": ["DoSkill"]
        },
        "NormalMove": {
          "$type": "NEDIFAKEGCO",
          "animatorStates": {
            "Walk": ["Audio_Animal_FontainePoddle_Run"],
            "Run": ["Audio_Animal_FontainePoddle_Run"]
          },
          "canSyncMove": true,
          "resetAnimatorTriggerOnExit": ["DoSkill"],
          "canSteer": true
        },
        "Flee": {
          "$type": "NEDIFAKEGCO",
          "animatorStates": {
            "Flee": ["Audio_Animal_FontainePoddle_Run"]
          },
          "canSyncMove": true,
          "resetAnimatorTriggerOnExit": ["DoSkill"],
          "canSteer": true
        },
        "Turn": {
          "$type": "NEDIFAKEGCO",
          "animatorStates": {
            "Turn": ["Audio_Animal_FontainePoddle_Run"]
          },
          "canSyncMove": true,
          "resetAnimatorTriggerOnExit": ["DoSkill"],
          "canSteer": true
        },
        "Die": {
          "$type": "NEDIFAKEGCO",
          "animatorStates": {
            "Die": ["Animal_FontainePoddle_Disappear"]
          },
          "resetAnimatorTriggerOnEnter": ["DoSkill"]
        },
        "StandbyToProne": {
          "$type": "NEDIFAKEGCO",
          "animatorStates": {
            "StandbyToProne": [
              "Animal_FontainePoddle_Prone",
              "Audio_Animal_FontainePoddle_StandbyToProne"
            ]
          },
          "resetAnimatorTriggerOnExit": ["BeHit", "DoSkill", "BeHitTrigger"]
        },
        "ProneToStandby": {
          "$type": "NEDIFAKEGCO",
          "animatorStates": {
            "ProneToStandby": [
              "Animal_FontainePoddle_Stand",
              "Audio_Animal_FontainePoddle_ProneToStandby"
            ]
          },
          "resetAnimatorTriggerOnExit": ["BeHit", "DoSkill", "BeHitTrigger"]
        },
        "Dodge": {
          "$type": "NEDIFAKEGCO",
          "animatorStates": {
            "Dodge": ["Audio_Animal_FontainePoddle_Dodge"]
          },
          "resetAnimatorTriggerOnEnter": ["BeHit", "DoSkill"],
          "resetAnimatorTriggerOnExit": ["BeHit", "DoSkill", "BeHitTrigger"]
        },
        "Personality_Stand1": {
          "$type": "NEDIFAKEGCO",
          "animatorStates": {
            "Personality_Stand1": [
              "Audio_Animal_FontainePoddle_Personality_Stand"
            ]
          },
          "resetAnimatorTriggerOnExit": ["BeHit", "DoSkill", "BeHitTrigger"]
        },
        "Personality_Prone1": {
          "$type": "NEDIFAKEGCO",
          "animatorStates": {
            "Personality_Prone1": []
          },
          "resetAnimatorTriggerOnExit": ["BeHit", "DoSkill", "BeHitTrigger"]
        }
      }
    }
  },
  "initialPoses": {
    "Default": {
      "initialPoseID": 1,
      "initialPoseParams": {
        "intParams": {
          "RandomPose": "1"
        },
        "boolParams": {
          "StandOnly": "false",
          "ProneOnly": "false"
        }
      }
    },
    "Prone": {
      "initialPoseID": 2,
      "initialPoseParams": {
        "intParams": {
          "RandomPose": "2"
        },
        "boolParams": {
          "StandOnly": "false",
          "ProneOnly": "false"
        }
      }
    },
    "StandOnly": {
      "initialPoseID": 4,
      "initialPoseParams": {
        "boolParams": {
          "StandOnly": "true"
        }
      }
    },
    "ProneOnly": {
      "initialPoseID": 5,
      "initialPoseParams": {
        "boolParams": {
          "ProneOnly": "true"
        }
      }
    }
  },
  "aibeta": {
    "enable": true,
    "friendliness": 1,
    "decisionArchetype": "Animal",
    "sensing": {
      "settings": {
        "DefaultSetting": {
          "viewRange": 10.0,
          "horizontalFov": 90.0,
          "verticalFov": 45.0,
          "feelRange": 3.5
        },
        "NoSensing": {
          "viewRange": 0.0,
          "hearAttractionRange": 0.0,
          "feelRange": 0.0
        }
      },
      "templates": {
        "DefaultTemplate": {
          "DefaultPoses": "DefaultSetting"
        },
        "NoSensingTemplate": {
          "DefaultPoses": "NoSensing"
        }
      }
    },
    "neurons": {
      "DefaultSetting": ["HIT"]
    },
    "threat": {
      "GHIJMOKOLMB": "",
      "clearThreatTargetDistance": 15.0,
      "clearThreatTimerByDistance": 1.0,
      "threatDecreaseSpeed": 500.0
    },
    "defendArea": {
      "defendRange": 50.0
    },
    "ui": {
      "hasDirectionIndicator": false,
      "HMNNBFDEHLG": ""
    },
    "skills": {
      "101": {
        "name": "StandbyToProne",
        "skillType": "Free",
        "castCondition": {
          "pose": [1],
          "needReInitCD": true
        },
        "cd": 20.0,
        "cdUpperRange": 15.0,
        "initialCD": 15.0,
        "initialCDUpperRange": 10.0,
        "publicCDGroup": "",
        "HHAGODJIAPE": "",
        "stateIDs": ["StandbyToProne"],
        "flagTargetReachable": "10",
        "flagSelfOnTemplateCollider": "01",
        "flagSelfInZone": "10",
        "flagTargetInZone": "11"
      },
      "102": {
        "name": "StandbyToProne",
        "castCondition": {
          "pose": [101],
          "needReInitCD": true
        },
        "cd": 20.0,
        "cdUpperRange": 15.0,
        "initialCD": 15.0,
        "initialCDUpperRange": 10.0,
        "publicCDGroup": "",
        "HHAGODJIAPE": "",
        "stateIDs": ["StandbyToProne"],
        "flagTargetReachable": "10",
        "flagSelfOnTemplateCollider": "01",
        "flagSelfInZone": "10",
        "flagTargetInZone": "11"
      },
      "111": {
        "name": "ProneToStandby",
        "skillType": "Free",
        "castCondition": {
          "pose": [2],
          "needReInitCD": true
        },
        "cd": 25.0,
        "cdUpperRange": 15.0,
        "initialCD": 20.0,
        "initialCDUpperRange": 10.0,
        "publicCDGroup": "",
        "HHAGODJIAPE": "",
        "stateIDs": ["ProneToStandby"],
        "flagTargetReachable": "10",
        "flagSelfOnTemplateCollider": "01",
        "flagSelfInZone": "10",
        "flagTargetInZone": "11"
      },
      "112": {
        "name": "ProneToStandby",
        "castCondition": {
          "pose": [201],
          "needReInitCD": true
        },
        "cd": 25.0,
        "cdUpperRange": 15.0,
        "initialCD": 20.0,
        "initialCDUpperRange": 10.0,
        "publicCDGroup": "",
        "HHAGODJIAPE": "",
        "stateIDs": ["ProneToStandby"],
        "flagTargetReachable": "10",
        "flagSelfOnTemplateCollider": "01",
        "flagSelfInZone": "10",
        "flagTargetInZone": "11"
      },
      "201": {
        "name": "Personality_Stand1",
        "skillType": "Free",
        "castCondition": {
          "pose": [1, 4],
          "needReInitCD": true
        },
        "cd": 20.0,
        "cdUpperRange": 15.0,
        "initialCD": 2.0,
        "initialCDUpperRange": 10.0,
        "publicCDGroup": "",
        "HHAGODJIAPE": "",
        "stateIDs": ["Personality_Stand1"],
        "flagTargetReachable": "10",
        "flagSelfOnTemplateCollider": "01",
        "flagSelfInZone": "10",
        "flagTargetInZone": "11"
      },
      "211": {
        "name": "Personality_Stand1",
        "castCondition": {
          "pose": [101, 401],
          "needReInitCD": true
        },
        "cd": 20.0,
        "cdUpperRange": 15.0,
        "initialCD": 2.0,
        "initialCDUpperRange": 5.0,
        "publicCDGroup": "",
        "HHAGODJIAPE": "",
        "stateIDs": ["Personality_Stand1"],
        "flagTargetReachable": "10",
        "flagSelfOnTemplateCollider": "01",
        "flagSelfInZone": "10",
        "flagTargetInZone": "11"
      },
      "301": {
        "name": "PersonalityProne1",
        "skillType": "Free",
        "castCondition": {
          "pose": [2, 5],
          "needReInitCD": true
        },
        "cd": 10.0,
        "cdUpperRange": 5.0,
        "initialCD": 7.0,
        "initialCDUpperRange": 5.0,
        "publicCDGroup": "",
        "HHAGODJIAPE": "",
        "stateIDs": ["PersonalityProne1"],
        "flagTargetReachable": "10",
        "flagSelfOnTemplateCollider": "01",
        "flagSelfInZone": "10",
        "flagTargetInZone": "11"
      },
      "311": {
        "name": "PersonalityProne1",
        "castCondition": {
          "pose": [201, 501],
          "needReInitCD": true
        },
        "cd": 10.0,
        "cdUpperRange": 5.0,
        "initialCD": 7.0,
        "initialCDUpperRange": 5.0,
        "publicCDGroup": "",
        "HHAGODJIAPE": "",
        "stateIDs": ["PersonalityProne1"],
        "flagTargetReachable": "10",
        "flagSelfOnTemplateCollider": "01",
        "flagSelfInZone": "10",
        "flagTargetInZone": "11"
      }
    },
    "skillGCD": 5.0,
    "birdCirclingTactic": [
      {
        "$type": "ODHNBPJLGHF",
        "enable": true,
        "condition": {
          "pose": [901, 902]
        },
        "nerveTrigger": ["HIT"],
        "JMCOBEPDIGM": {
          "NBENNEKDIIA": 2.0,
          "cd": 2.0,
          "triggerDistance": 0.0,
          "MMGOBGGLBJO": 75.0,
          "EMNPEHPCDLB": 3,
          "CMDFDIPMGKI": 5,
          "KAIGBDPLNMO": 3.5,
          "BMIEPFCPFGN": 5.0,
          "MNPDDAKDHGK": ""
        }
      },
      {
        "$type": "MCDGOJLCMBM",
        "enable": true,
        "JMCOBEPDIGM": {
          "DMGAHPPFMPK": 1.0,
          "FLENLLDBFGP": 1.0,
          "MNPDDAKDHGK": "",
          "GJDMDHIBCME": ""
        }
      },
      {
        "$type": "NNJKLGNPMNN"
      },
      {
        "$type": "FPELBIJFGCE",
        "enable": true,
        "condition": {
          "pose": [1, 4]
        },
        "JMCOBEPDIGM": {
          "NBENNEKDIIA": 0.75,
          "KPNDPKIOPJM": 10.5,
          "PINAFKEDDLL": 5.5,
          "ANMPOPEBDIA": 4.5,
          "GMJFIMFFOEL": 1.0,
          "CHCPFDMADEI": 4.0,
          "MNPDDAKDHGK": ""
        }
      }
    ]
  },
  "animal": {
    "tickAbilityElement": false,
    "hasCharacterRenderering": false
  }
}
