{
  "common": {
    "effectAttachShape": {
      "$type": "FJNPJANPGGC",
      "mesh": "EffectMesh"
    },
    "mass": 10000.0,
    "height": 2.299999952316284,
    "viewSize": 1.350000023841858,
    "affectedByWorld": true,
    "checkInSurface": true,
    "scale": 2.200000047683716,
    "useGrassDisplacement": true,
    "clearAIOnSetLightDeactive": true,
    "reconnectSupport": true,
    "recoverByInitPose": true,
    "meshEffectNodeList": [
      {
        "followTargetPath": "EffectMesh01Point",
        "attachMeshName": "EffectMesh01"
      },
      {
        "followTargetPath": "EffectMesh02Point",
        "attachMeshName": "EffectMesh02"
      },
      {
        "followTargetPath": "EffectMesh03Point",
        "attachMeshName": "EffectMesh03"
      }
    ]
  },
  "model": {
    "bornEffect": "",
    "attachEffect": "",
    "canBakeMesh": false,
    "BKPFGNPLDNJ": ""
  },
  "dither": {
    "showDitherDuration": 2.0
  },
  "combat": {
    "property": {
      "endureType": "Monster_Demiboss_Other",
      "weight": 150.0
    },
    "beHit": {
      "hitBloodEffect": "",
      "hitAutoRedirect": false
    },
    "combatLock": {
      "lockShape": "CircleLockEnemy",
      "lockType": "Avatar&Monster_Lv4"
    },
    "die": {
      "hasAnimatorDie": true,
      "dieEndTime": 0.15000000596046448,
      "dieForceDisappearTime": 0.20000000298023224,
      "dieDisappearEffect": "Eff_Monster_Scorpion_Eremite_Fire_Die",
      "dieDisappearEffectDelay": 0.15000000596046448,
      "muteHitBox": true,
      "dieDenyLockOn": true,
      "dieIsGhostToEnemy": true,
      "dieIgnoreTriggerBullet": true,
      "muteBillboard": true,
      "mutePushCollider": true
    }
  },
  "abilities": [
    {
      "abilityID": "StateControl",
      "abilityName": "Monster_Scorpion_Eremite_Fire_StateControl",
      "abilityOverride": ""
    },
    {
      "abilityID": "StreeControl",
      "abilityName": "Monster_Scorpion_Eremite_Fire_StreeControl",
      "abilityOverride": ""
    },
    {
      "abilityID": "NormalAttack01_01",
      "abilityName": "Monster_Scorpion_Eremite_Fire_NormalAttack01_01",
      "abilityOverride": ""
    },
    {
      "abilityID": "NormalAttack01_02",
      "abilityName": "Monster_Scorpion_Eremite_Fire_NormalAttack01_02",
      "abilityOverride": ""
    },
    {
      "abilityID": "MeleeAttack01_BS",
      "abilityName": "Monster_Scorpion_Eremite_Fire_MeleeAttack01_BS",
      "abilityOverride": ""
    },
    {
      "abilityID": "FindBlinkPoint",
      "abilityName": "Monster_Scorpion_Eremite_Fire_MeleeAttack_FindBlinkPoint",
      "abilityOverride": ""
    },
    {
      "abilityID": "MeleeAttack_DoBlink",
      "abilityName": "Monster_Scorpion_Eremite_Fire_MeleeAttack_DoBlink",
      "abilityOverride": ""
    },
    {
      "abilityID": "MeleeAttack_Damage",
      "abilityName": "Monster_Scorpion_Eremite_Fire_MeleeAttack_Damage",
      "abilityOverride": ""
    },
    {
      "abilityID": "RangeAttack01",
      "abilityName": "Monster_Scorpion_Eremite_Fire_RangeAttack01",
      "abilityOverride": ""
    },
    {
      "abilityID": "RangeAttack01",
      "abilityName": "Monster_Scorpion_Eremite_Fire_ComboAttack01",
      "abilityOverride": ""
    },
    {
      "abilityID": "ComboAttack01_Trigger",
      "abilityName": "Monster_Scorpion_Eremite_Fire_ComboAttack01_Trigger",
      "abilityOverride": ""
    },
    {
      "abilityID": "MeleeAttack01_ComboAttack_AS",
      "abilityName": "Monster_Scorpion_Eremite_Fire_MeleeAttack01_ComboAttack_AS",
      "abilityOverride": ""
    },
    {
      "abilityID": "Die",
      "abilityName": "Monster_Scorpion_Eremite_Fire_Die",
      "abilityOverride": ""
    },
    {
      "abilityID": "Monster_Scorpion_Eremite_Fire_MeleeAttack_Alert",
      "abilityName": "Monster_Scorpion_Eremite_Fire_MeleeAttack_Alert",
      "abilityOverride": ""
    }
  ],
  "stateLayers": {
    "defaultLayer": {
      "$type": "GBGJJIIEMBD",
      "layerIndexName": "",
      "CPAANEIJCGD": "",
      "stateIDs": {
        "NormalIdle": {
          "$type": "NEDIFAKEGCO",
          "animatorStates": {
            "Standby": [],
            "Born": []
          },
          "canDoSkill": true,
          "canSyncMove": true,
          "cullingModelAlwaysAnimate": true,
          "resetAnimatorTriggerOnExit": ["DoSkill"]
        },
        "Run": {
          "$type": "NEDIFAKEGCO",
          "animatorStates": {
            "Run": []
          },
          "canDoSkill": true,
          "canSyncMove": true,
          "cullingModelAlwaysAnimate": true,
          "resetAnimatorTriggerOnExit": ["DoSkill"],
          "canSteer": true
        },
        "WalkForward": {
          "$type": "NEDIFAKEGCO",
          "animatorStates": {
            "WalkForward": []
          },
          "canDoSkill": true,
          "canSyncMove": true,
          "cullingModelAlwaysAnimate": true,
          "resetAnimatorTriggerOnExit": ["DoSkill"],
          "canSteer": true
        },
        "WalkBack": {
          "$type": "NEDIFAKEGCO",
          "animatorStates": {
            "WalkBack": []
          },
          "canDoSkill": true,
          "canSyncMove": true,
          "cullingModelAlwaysAnimate": true,
          "resetAnimatorTriggerOnExit": ["DoSkill"],
          "canSteer": true
        },
        "WalkLeft": {
          "$type": "NEDIFAKEGCO",
          "animatorStates": {
            "WalkLeft": []
          },
          "canDoSkill": true,
          "canSyncMove": true,
          "cullingModelAlwaysAnimate": true,
          "resetAnimatorTriggerOnExit": ["DoSkill"],
          "canSteer": true
        },
        "WalkRight": {
          "$type": "NEDIFAKEGCO",
          "animatorStates": {
            "WalkRight": []
          },
          "canDoSkill": true,
          "canSyncMove": true,
          "cullingModelAlwaysAnimate": true,
          "resetAnimatorTriggerOnExit": ["DoSkill"],
          "canSteer": true
        },
        "Turn": {
          "$type": "NEDIFAKEGCO",
          "animatorStates": {
            "Turn": []
          },
          "canDoSkill": true,
          "canSyncMove": true,
          "cullingModelAlwaysAnimate": true,
          "resetAnimatorTriggerOnExit": ["DoSkill"],
          "canSteer": true
        },
        "BeHit": {
          "$type": "NEDIFAKEGCO",
          "animatorStates": {
            "Hit_H": ["Audio_Monster_Scorpion_Eremite_Fire_Hit_L"]
          },
          "cullingModelAlwaysAnimate": true,
          "resetAnimatorTriggerOnEnter": ["BeHit"],
          "resetAnimatorTriggerOnExit": ["DoSkill"]
        },
        "Die": {
          "$type": "NEDIFAKEGCO",
          "animatorStates": {
            "Die": ["Monster_Scorpion_Eremite_Fire_Die"]
          },
          "cullingModelAlwaysAnimate": true,
          "resetAnimatorTriggerOnEnter": ["DoSkill"]
        },
        "Alert": {
          "$type": "NEDIFAKEGCO",
          "animatorStates": {
            "Alert": [
              "Monster_Scorpion_Eremite_Fire_Alert",
              "Audio_Monster_Scorpion_Eremite_Fire_Alert"
            ]
          },
          "cullingModelAlwaysAnimate": true,
          "resetAnimatorTriggerOnExit": ["BeHit", "DoSkill"]
        },
        "NormalAttack01_01": {
          "$type": "NEDIFAKEGCO",
          "animatorStates": {
            "NormalAttack01_01": [
              "Monster_Scorpion_Eremite_Fire_NormalAttack01_01",
              "Audio_Monster_Scorpion_Eremite_Fire_NormalAttack01_01"
            ]
          },
          "canSyncMove": true,
          "cullingModelAlwaysAnimate": true,
          "resetAnimatorTriggerOnExit": ["BeHit", "DoSkill"],
          "canSteer": true
        },
        "NormalAttack01_02": {
          "$type": "NEDIFAKEGCO",
          "animatorStates": {
            "NormalAttack01_02": [
              "Monster_Scorpion_Eremite_Fire_NormalAttack01_02",
              "Audio_Monster_Scorpion_Eremite_Fire_NormalAttack01_02"
            ]
          },
          "canSyncMove": true,
          "cullingModelAlwaysAnimate": true,
          "resetAnimatorTriggerOnExit": ["BeHit", "DoSkill"],
          "canSteer": true
        },
        "RangeAttack01": {
          "$type": "NEDIFAKEGCO",
          "animatorStates": {
            "RangeAttack01": [
              "Monster_Scorpion_Eremite_Fire_RangeAttack01",
              "Audio_Monster_Scorpion_Eremite_Fire_RangeAttack01"
            ]
          },
          "canSyncMove": true,
          "cullingModelAlwaysAnimate": true,
          "resetAnimatorTriggerOnExit": ["BeHit", "DoSkill"],
          "canSteer": true
        },
        "MeleeAttack01_BS": {
          "$type": "NEDIFAKEGCO",
          "animatorStates": {
            "MeleeAttack01_BS": [
              "Monster_Scorpion_Eremite_Fire_MeleeAttack01_BS",
              "Audio_Monster_Scorpion_Eremite_Fire_MeleeAttack01_BS"
            ]
          },
          "canSyncMove": true,
          "cullingModelAlwaysAnimate": true,
          "addEndure": 0.0,
          "resetAnimatorTriggerOnExit": ["BeHit", "DoSkill"],
          "canSteer": true
        },
        "MeleeAttack01_UnderGroud": {
          "$type": "NEDIFAKEGCO",
          "animatorStates": {
            "MeleeAttack01_UnderGroud": [
              "Monster_Scorpion_Eremite_Fire_MeleeAttack01_UnderGround"
            ]
          },
          "canSyncMove": true,
          "cullingModelAlwaysAnimate": true,
          "addEndure": 0.0,
          "resetAnimatorTriggerOnExit": ["BeHit", "DoSkill"],
          "canSteer": true
        },
        "MeleeAttack01_AS": {
          "$type": "NEDIFAKEGCO",
          "animatorStates": {
            "MeleeAttack01_AS": [
              "Monster_Scorpion_Eremite_Fire_MeleeAttack01_DropDamage",
              "Audio_Monster_Scorpion_Eremite_Fire_MeleeAttack01_AS"
            ]
          },
          "canSyncMove": true,
          "cullingModelAlwaysAnimate": true,
          "addEndure": 0.0,
          "resetAnimatorTriggerOnExit": ["BeHit", "DoSkill"],
          "canSteer": true
        },
        "ComboAttack_BS": {
          "$type": "NEDIFAKEGCO",
          "animatorStates": {
            "ComboAttack_BS": [
              "Monster_Scorpion_Eremite_Fire_MeleeAttack01_BS",
              "Monster_Scorpion_Eremite_Fire_ComboAttack01_Trigger",
              "Audio_Monster_Scorpion_Eremite_Fire_ComboAttack_BS"
            ]
          },
          "canSyncMove": true,
          "cullingModelAlwaysAnimate": true,
          "addEndure": 0.0,
          "resetAnimatorTriggerOnExit": ["BeHit", "DoSkill"],
          "canSteer": true
        },
        "ComboAttack_Damage01": {
          "$type": "NEDIFAKEGCO",
          "animatorStates": {
            "ComboAttack_Damage01": [
              "Monster_Scorpion_Eremite_Fire_MeleeAttack01_DropDamage",
              "Monster_Scorpion_Eremite_Fire_MeleeAttack01_AS",
              "Audio_Monster_Scorpion_Eremite_Fire_ComboAttack_Damage01"
            ]
          },
          "canSyncMove": true,
          "cullingModelAlwaysAnimate": true,
          "addEndure": 0.0,
          "resetAnimatorTriggerOnExit": ["BeHit", "DoSkill"],
          "canSteer": true
        },
        "ComboAttack_UnderGroud01": {
          "$type": "NEDIFAKEGCO",
          "animatorStates": {
            "ComboAttack_UnderGroud01": [
              "Monster_Scorpion_Eremite_Fire_MeleeAttack01_UnderGround"
            ]
          },
          "canSyncMove": true,
          "cullingModelAlwaysAnimate": true,
          "addEndure": 0.0,
          "resetAnimatorTriggerOnExit": ["BeHit", "DoSkill"],
          "canSteer": true
        },
        "ComboAttack_UnderGroud02": {
          "$type": "NEDIFAKEGCO",
          "animatorStates": {
            "ComboAttack_UnderGroud02": []
          },
          "canSyncMove": true,
          "cullingModelAlwaysAnimate": true,
          "addEndure": 0.0,
          "resetAnimatorTriggerOnExit": [
            "BeHit",
            "DoSkill",
            "ComboAttackTrigger"
          ],
          "canSteer": true
        },
        "ComboAttack_InAir": {
          "$type": "NEDIFAKEGCO",
          "animatorStates": {
            "ComboAttack_InAir": []
          },
          "canSyncMove": true,
          "cullingModelAlwaysAnimate": true,
          "addEndure": 0.0,
          "resetAnimatorTriggerOnExit": ["BeHit", "DoSkill"],
          "canSteer": true
        },
        "ComboAttack_Damage02": {
          "$type": "NEDIFAKEGCO",
          "animatorStates": {
            "ComboAttack_Damage02": [
              "Monster_Scorpion_Eremite_Fire_ComboAttack01",
              "Audio_Monster_Scorpion_Eremite_Fire_ComboAttack_Damage02"
            ]
          },
          "canSyncMove": true,
          "cullingModelAlwaysAnimate": true,
          "addEndure": 0.0,
          "resetAnimatorTriggerOnExit": ["BeHit", "DoSkill"],
          "canSteer": true
        }
      }
    }
  },
  "billboard": {
    "$type": "DNGNMAJBCNP",
    "attachPoint": "BillboardAttach",
    "offsetType": "Character",
    "radiusOffset": 1.0,
    "showHPBar": true,
    "size": "Big"
  },
  "initialPoses": {
    "Default": {
      "initialPoseID": 1
    }
  },
  "aibeta": {
    "enable": true,
    "moveSetting": {
      "navMeshAgentName": "Undead01"
    },
    "sensing": {
      "settings": {
        "DefaultSetting": {
          "viewRange": 40.0,
          "feelRange": 10.0
        }
      },
      "templates": {
        "DefaultTemplate": {
          "DefaultPoses": "DefaultSetting"
        }
      }
    },
    "threat": {
      "GHIJMOKOLMB": "",
      "clearThreatEdgeDistance": 3.5,
      "clearThreatTimerByDistance": 1.75,
      "viewThreatGrow": 35.0,
      "feelThreatGrow": 100.0,
      "threatDecreaseSpeed": 10.0,
      "resistTauntLevel": "Monster_TauntLevel_3"
    },
    "defendArea": {
      "defendRange": 80.0
    },
    "network": {
      "syncSkill": true
    },
    "skillGroupCDConfigs": [
      {
        "skillGroupCDID": 2,
        "skillGroupCDTime": 20.0
      },
      {
        "skillGroupCDID": 3,
        "skillGroupCDTime": 2.0
      }
    ],
    "skills": {
      "101": {
        "name": "OnAlert",
        "skillType": "OnAlert",
        "publicCDGroup": "",
        "ignoreGCD": true,
        "triggerGCD": false,
        "HHAGODJIAPE": "",
        "stateIDs": ["Alert"],
        "flagTargetReachable": "10",
        "flagSelfOnTemplateCollider": "01",
        "flagSelfInZone": "10",
        "flagTargetInZone": "11"
      },
      "201": {
        "name": "NormalAttack01",
        "combatSkillType": "MeleeAttack",
        "castCondition": {
          "pose": [101],
          "pickRangeMax": 8.0,
          "castRangeMax": 4.0
        },
        "cd": 4.0,
        "cdUpperRange": 2.0,
        "publicCDGroup": "",
        "skillGroupCDID": 3,
        "HHAGODJIAPE": "",
        "stateIDs": ["NormalAttack01_01", "NormalAttack01_02"],
        "flagTargetReachable": "11",
        "flagSelfOnTemplateCollider": "11",
        "flagSelfInZone": "11",
        "flagTargetInZone": "11"
      },
      "211": {
        "name": "MeleeAttack01",
        "combatSkillType": "MeleeAttack",
        "castCondition": {
          "pose": [101],
          "pickRangeMin": 12.0,
          "pickRangeMax": 20.0
        },
        "cd": 15.0,
        "cdUpperRange": 2.0,
        "publicCDGroup": "",
        "HHAGODJIAPE": "",
        "stateIDs": [
          "MeleeAttack01_BS",
          "MeleeAttack01_UnderGroud",
          "MeleeAttack01_AS"
        ],
        "flagTargetReachable": "11",
        "flagSelfOnTemplateCollider": "11",
        "flagSelfInZone": "11",
        "flagTargetInZone": "11"
      },
      "221": {
        "name": "RangeAttack01",
        "combatSkillType": "RangedAttack",
        "castCondition": {
          "pose": [101],
          "pickRangeMax": 20.0
        },
        "cd": 10.0,
        "cdUpperRange": 3.0,
        "publicCDGroup": "",
        "skillGroupCDID": 3,
        "HHAGODJIAPE": "",
        "stateIDs": ["RangeAttack01"],
        "flagTargetReachable": "11",
        "flagSelfOnTemplateCollider": "11",
        "flagSelfInZone": "11",
        "flagTargetInZone": "11"
      },
      "231": {
        "name": "ComboAttack01",
        "combatSkillType": "RangedAttack",
        "priority": 1,
        "castCondition": {
          "pose": [101],
          "pickRangeMax": 20.0
        },
        "cd": 27.0,
        "cdUpperRange": 5.0,
        "initialCD": 5.0,
        "publicCDGroup": "Eremite_ComboAttack",
        "HHAGODJIAPE": "",
        "stateIDs": [
          "ComboAttack_BS",
          "ComboAttack_UnderGroud01",
          "ComboAttack_Damage01",
          "ComboAttack_UnderGroud02",
          "ComboAttack_InAir",
          "ComboAttack_Damage02"
        ],
        "flagTargetReachable": "11",
        "flagSelfOnTemplateCollider": "11",
        "flagSelfInZone": "11",
        "flagTargetInZone": "11"
      }
    },
    "skillGCD": 2.0,
    "birdCirclingTactic": [
      {
        "$type": "EPHBMLFODKF",
        "enable": true,
        "condition": {
          "pose": [101]
        },
        "JMCOBEPDIGM": {
          "rangeMin": 3.0,
          "rangeMax": 8.0,
          "JOJBOHEDBHC": 3.0,
          "ALIBHHJHHMN": 1.5,
          "BFJBDDIIFOI": {
            "LLICGJHIGME": 0.20000000298023224,
            "IDEFILBHNAP": 0.4000000059604645,
            "IBLIPJPNOGC": 0.4000000059604645
          },
          "NAOBMNGDKHL": "1111",
          "JCNIJOAIGII": "1111",
          "MNPDDAKDHGK": ""
        }
      },
      {
        "$type": "KACCHOLJDNK",
        "enable": true,
        "condition": {
          "pose": [101]
        },
        "JMCOBEPDIGM": {
          "NBENNEKDIIA": 1.0,
          "KHDFDAAAPEI": 12.0,
          "HKJODDGJPHA": 50.0,
          "GGEBMFHFBPO": 4.0,
          "KFFGCIMPNMJ": 7.0,
          "MNPDDAKDHGK": ""
        }
      },
      {
        "$type": "NNJKLGNPMNN"
      },
      {
        "$type": "FPELBIJFGCE"
      }
    ]
  },
  "inputKeys": [
    {
      "keyID": 201,
      "inputKeyCode": 257,
      "abilityName": ""
    },
    {
      "keyID": 211,
      "inputKeyCode": 258,
      "abilityName": ""
    },
    {
      "keyID": 221,
      "inputKeyCode": 259,
      "abilityName": ""
    },
    {
      "keyID": 231,
      "inputKeyCode": 260,
      "abilityName": ""
    },
    {
      "keyID": 241,
      "inputKeyCode": 261,
      "abilityName": ""
    }
  ],
  "move": {
    "$type": "IPNMJMHDMPF",
    "velocityForce": {
      "excludeForces": ["RetreatAirType"]
    },
    "facingMove": "FourDirection",
    "destroyRockWhenInit": true,
    "yawSpeedRatio": 1.0,
    "positionModifyExtra": true,
    "PKHOMJHFAEE": "RootNode"
  },
  "audio": {
    "overrideEmitterName": "",
    "animAudio": {
      "onTransitionIn": [
        {
          "currentStateName": "WalkForward",
          "audioEvent": {
            "text": "Play_sfx_monster_Scorpion_Eremite_Fire_walk_Loop"
          },
          "otherStateNames": ["WalkForward"],
          "usage": "Except"
        },
        {
          "currentStateName": "Run",
          "audioEvent": {
            "text": "Play_sfx_monster_Scorpion_Eremite_Fire_run_Loop"
          },
          "otherStateNames": ["Run"],
          "usage": "Except"
        },
        {
          "currentStateName": "WalkBack",
          "audioEvent": {
            "text": "Play_sfx_monster_Scorpion_Eremite_Fire_walk_Loop"
          },
          "otherStateNames": ["WalkBack"],
          "usage": "Except"
        },
        {
          "currentStateName": "WalkLeft",
          "audioEvent": {
            "text": "Play_sfx_monster_Scorpion_Eremite_Fire_walk_Loop"
          },
          "otherStateNames": ["WalkLeft"],
          "usage": "Except"
        },
        {
          "currentStateName": "WalkRight",
          "audioEvent": {
            "text": "Play_sfx_monster_Scorpion_Eremite_Fire_walk_Loop"
          },
          "otherStateNames": ["WalkRight"],
          "usage": "Except"
        },
        {
          "currentStateName": "Turn",
          "audioEvent": {
            "text": "Play_sfx_monster_Scorpion_Eremite_Fire_walk_Loop"
          },
          "otherStateNames": ["Turn"],
          "usage": "Except"
        }
      ],
      "onTransitionOut": [
        {
          "currentStateName": "WalkForward",
          "audioEvent": {
            "text": "Stop_sfx_monster_Scorpion_Eremite_Fire_walk_Loop"
          },
          "otherStateNames": ["WalkForward"],
          "usage": "Except"
        },
        {
          "currentStateName": "Run",
          "audioEvent": {
            "text": "Stop_sfx_monster_Scorpion_Eremite_Fire_run_Loop"
          },
          "otherStateNames": ["Run"],
          "usage": "Except"
        },
        {
          "currentStateName": "WalkBack",
          "audioEvent": {
            "text": "Stop_sfx_monster_Scorpion_Eremite_Fire_walk_Loop"
          },
          "otherStateNames": ["WalkBack"],
          "usage": "Except"
        },
        {
          "currentStateName": "WalkLeft",
          "audioEvent": {
            "text": "Stop_sfx_monster_Scorpion_Eremite_Fire_walk_Loop"
          },
          "otherStateNames": ["WalkLeft"],
          "usage": "Except"
        },
        {
          "currentStateName": "WalkRight",
          "audioEvent": {
            "text": "Stop_sfx_monster_Scorpion_Eremite_Fire_walk_Loop"
          },
          "otherStateNames": ["WalkRight"],
          "usage": "Except"
        },
        {
          "currentStateName": "Turn",
          "audioEvent": {
            "text": "Stop_sfx_monster_Scorpion_Eremite_Fire_walk_Loop"
          },
          "otherStateNames": ["Turn"],
          "usage": "Except"
        }
      ]
    }
  }
}
