{
  "common": {
    "effectAttachShape": {
      "$type": "FJNPJANPGGC",
      "mesh": "EffectMesh"
    },
    "mass": 10000.0,
    "height": 2.5,
    "modelHeight": 4.0,
    "viewSize": 3.0,
    "affectedByWorld": true,
    "checkInSurface": true,
    "disableTickDistance": 100000.0,
    "shouldPauseAnimatorBeforeReady": true,
    "useGrassDisplacement": true,
    "reconnectSupport": true
  },
  "headControl": {
    "$type": "KPIPDEBDPIH",
    "useHeadControl": true,
    "maxYawDegree": 10.0,
    "maxPitchDegree": 20.0,
    "animStates": ["NormalIdle/Standby", "NormalMove/WalkForward"]
  },
  "specialPoint": {
    "elementAbsorb": "RootNode",
    "elementPendant": "",
    "elementDrop": "RootNode",
    "bulletAim": "RootNode",
    "selectedPoints": ["LockPoint"],
    "ignoreTransform": true,
    "selectedPointRadius": 2.5
  },
  "dither": {
    "showDitherDuration": 2.0
  },
  "combat": {
    "property": {
      "endureType": "Monster_Grunt_Other",
      "weight": 250.0
    },
    "beHit": {
      "hitBloodEffect": ""
    },
    "combatLock": {
      "lockShape": "CircleLockEnemy",
      "lockType": "Avatar&Monster_Lv4"
    },
    "die": {
      "hasAnimatorDie": true,
      "dieEndTime": 1.5,
      "dieForceDisappearTime": 2.5,
      "dieDisappearEffect": "Eff_Death_Common",
      "dieShaderData": "MonsterDie",
      "muteHitBox": true,
      "dieDenyLockOn": true,
      "dieIsGhostToEnemy": true,
      "dieIgnoreTriggerBullet": true,
      "muteBillboard": true,
      "mutePushCollider": true
    },
    "animEvents": {
      "RushAtk": {
        "attackPattern": {
          "$type": "ConfigAttackBox",
          "triggerType": "TriggerNoRepeat",
          "born": {
            "$type": "ConfigBornBySelf",
            "offset": {
              "x": 0.0,
              "y": -1.0,
              "z": 0.0
            }
          },
          "size": {
            "x": 4.0,
            "y": 3.0,
            "z": 6.0
          }
        },
        "attackInfo": {
          "attackTag": "",
          "attenuationTag": "",
          "attenuationGroup": "default",
          "attackProperty": {
            "actorGrassSubHurtDelta": 1.0,
            "actorWindSubHurtDelta": 0.0,
            "elementType": "Electric",
            "elementDurability": 50.0,
            "strikeType": "Blunt",
            "enBreak": 50.0,
            "GLKMCMDJBIK": 0.0
          },
          "hitPattern": {
            "onHitEffectName": "default",
            "hitImpulseY": "",
            "hitImpulseType": "LV3"
          }
        }
      },
      "NormalAtk01": {
        "attackPattern": {
          "$type": "ConfigAttackCircle",
          "triggerType": "TriggerNoRepeat",
          "born": {
            "$type": "ConfigBornBySelf",
            "offset": {
              "x": -0.699999988079071,
              "y": -1.0,
              "z": 2.0
            }
          },
          "height": 4.0,
          "fanAngle": 270.0,
          "radius": 4.0
        },
        "attackInfo": {
          "attackTag": "",
          "attenuationTag": "",
          "attenuationGroup": "default",
          "attackProperty": {
            "actorGrassSubHurtDelta": 0.30000001192092896,
            "actorWindSubHurtDelta": 0.0,
            "elementDurability": 50.0,
            "strikeType": "Blunt",
            "enBreak": 50.0,
            "GLKMCMDJBIK": 0.0
          },
          "hitPattern": {
            "onHitEffectName": "default",
            "hitImpulseY": "",
            "hitImpulseType": "LV3"
          }
        }
      },
      "NormalAtk02": {
        "attackPattern": {
          "$type": "ConfigAttackCircle",
          "triggerType": "TriggerNoRepeat",
          "born": {
            "$type": "ConfigBornBySelf",
            "offset": {
              "x": 1.0,
              "y": -1.0,
              "z": 1.5
            }
          },
          "height": 4.0,
          "fanAngle": 270.0,
          "radius": 5.0
        },
        "attackInfo": {
          "attackTag": "",
          "attenuationTag": "",
          "attenuationGroup": "default",
          "attackProperty": {
            "actorGrassSubHurtDelta": 0.5,
            "actorWindSubHurtDelta": 0.0,
            "elementDurability": 50.0,
            "strikeType": "Blunt",
            "enBreak": 50.0,
            "GLKMCMDJBIK": 0.0
          },
          "hitPattern": {
            "onHitEffectName": "default",
            "hitImpulseY": "",
            "hitImpulseType": "LV3"
          }
        }
      },
      "NormalAtk03": {
        "attackPattern": {
          "$type": "ConfigAttackCircle",
          "triggerType": "TriggerNoRepeat",
          "born": {
            "$type": "ConfigBornBySelf",
            "offset": {
              "x": -0.5,
              "y": -1.0,
              "z": 3.5
            }
          },
          "height": 4.0,
          "radius": 4.5
        },
        "attackInfo": {
          "attackTag": "",
          "attenuationTag": "",
          "attenuationGroup": "default",
          "attackProperty": {
            "actorGrassSubHurtDelta": 0.800000011920929,
            "actorWindSubHurtDelta": 0.0,
            "elementDurability": 50.0,
            "strikeType": "Blunt",
            "enBreak": 200.0,
            "GLKMCMDJBIK": 0.0
          },
          "hitPattern": {
            "onHitEffectName": "default",
            "hitImpulseY": "",
            "hitImpulseType": "LV5"
          },
          "forceCameraShake": true,
          "cameraShake": {
            "shakeType": "CustomVector",
            "shakeRange": 0.05999999865889549,
            "shakeTime": 0.23999999463558197,
            "shakeDir": {
              "y": -1.0
            }
          }
        }
      },
      "TailMeleeAttack": {
        "attackPattern": {
          "$type": "ConfigAttackCircle",
          "triggerType": "TriggerNoRepeat",
          "born": {
            "$type": "ConfigBornBySelf",
            "offset": {
              "x": 0.0,
              "y": -0.5,
              "z": 0.0
            }
          },
          "height": 3.0,
          "radius": 8.0
        },
        "attackInfo": {
          "attackTag": "",
          "attenuationTag": "",
          "attenuationGroup": "default",
          "attackProperty": {
            "actorGrassSubHurtDelta": 0.30000001192092896,
            "actorWindSubHurtDelta": 0.0,
            "elementType": "Electric",
            "elementDurability": 100.0,
            "strikeType": "Blunt",
            "enBreak": 50.0,
            "GLKMCMDJBIK": 0.0
          },
          "hitPattern": {
            "onHitEffectName": "default",
            "hitImpulseY": "",
            "hitImpulseType": "LV3"
          }
        }
      },
      "JumpAtk": {
        "attackPattern": {
          "$type": "ConfigAttackCircle",
          "triggerType": "TriggerNoRepeat",
          "born": {
            "$type": "ConfigBornBySelf",
            "offset": {
              "x": 0.0,
              "y": -0.5,
              "z": 0.0
            }
          },
          "height": 3.5,
          "radius": 6.5
        },
        "attackInfo": {
          "attackTag": "",
          "attenuationTag": "",
          "attenuationGroup": "default",
          "attackProperty": {
            "actorGrassSubHurtDelta": 0.800000011920929,
            "actorWindSubHurtDelta": 0.0,
            "elementType": "Electric",
            "elementDurability": 50.0,
            "strikeType": "Blunt",
            "enBreak": 200.0,
            "GLKMCMDJBIK": 0.0
          },
          "hitPattern": {
            "onHitEffectName": "default",
            "hitImpulseY": "",
            "hitImpulseType": "LV6"
          },
          "forceCameraShake": true,
          "cameraShake": {
            "shakeType": "CustomVector",
            "shakeRange": 0.1599999964237213,
            "shakeTime": 0.23999999463558197,
            "shakeDistance": 25.0,
            "shakeDir": {
              "y": -1.0
            }
          }
        }
      }
    }
  },
  "abilities": [
    {
      "abilityID": "",
      "abilityName": "Monster_Drake_DeepSea_FireElectricBall",
      "abilityOverride": ""
    },
    {
      "abilityID": "",
      "abilityName": "Monster_Drake_DeepSea_FireTailRangeSpearElectric",
      "abilityOverride": ""
    },
    {
      "abilityID": "",
      "abilityName": "Monster_Drake_DeepSea_FireChargeAttackElectric",
      "abilityOverride": ""
    },
    {
      "abilityID": "",
      "abilityName": "Monster_Drake_DeepSea_Electric_Cooperate_Pose",
      "abilityOverride": ""
    },
    {
      "abilityID": "",
      "abilityName": "Monster_Drake_DeepSea_LaserAttack_JumpToStart_Electric",
      "abilityOverride": ""
    },
    {
      "abilityID": "",
      "abilityName": "Monster_Drake_DeepSea_Steer",
      "abilityOverride": ""
    },
    {
      "abilityID": "",
      "abilityName": "Monster_Drake_DeepSea_JumpWall_JumpToStart_Electric",
      "abilityOverride": ""
    },
    {
      "abilityID": "",
      "abilityName": "Monster_Drake_PushCollider_Switch",
      "abilityOverride": ""
    },
    {
      "abilityID": "",
      "abilityName": "Monster_Drake_DeepSea_JumpWall_Timer",
      "abilityOverride": ""
    },
    {
      "abilityID": "",
      "abilityName": "Monster_Drake_DeepSea_JumpWall_Weak",
      "abilityOverride": ""
    },
    {
      "abilityID": "",
      "abilityName": "Monster_Drake_DeepSea_FitAttack_JumpToPos_Electric",
      "abilityOverride": ""
    },
    {
      "abilityID": "",
      "abilityName": "Monster_Drake_DeepSea_Electric_SetBornPos",
      "abilityOverride": ""
    },
    {
      "abilityID": "",
      "abilityName": "Monster_Drake_DeepSea_JumpToAlertPos_Electric",
      "abilityOverride": ""
    },
    {
      "abilityID": "",
      "abilityName": "Monster_Drake_DeepSea_Electric_JumpWall_FireMagicBall",
      "abilityOverride": ""
    },
    {
      "abilityID": "",
      "abilityName": "Monster_Drake_DeepSea_LaserAttack_HidePushCollider",
      "abilityOverride": ""
    },
    {
      "abilityID": "",
      "abilityName": "Monster_Drake_DeepSea_GoToSwim",
      "abilityOverride": ""
    },
    {
      "abilityID": "",
      "abilityName": "Monster_Drake_DeepSea_Electric_Die",
      "abilityOverride": ""
    },
    {
      "abilityID": "",
      "abilityName": "Monster_Drake_DeepSea_Electric_StateChange",
      "abilityOverride": ""
    },
    {
      "abilityID": "",
      "abilityName": "Monster_Drake_DeepSea_Electric_Initial_Params",
      "abilityOverride": ""
    },
    {
      "abilityID": "",
      "abilityName": "Monster_Drake_DeepSea_JumpWallBack",
      "abilityOverride": ""
    },
    {
      "abilityID": "",
      "abilityName": "Monster_Drake_DeepSea_Boss_JumpToWall_HidePushCollider",
      "abilityOverride": ""
    },
    {
      "abilityID": "",
      "abilityName": "Monster_Drake_DeepSea_Electric_Run",
      "abilityOverride": ""
    },
    {
      "abilityID": "",
      "abilityName": "Monster_Drake_DeepSea_FireLaserElectric",
      "abilityOverride": ""
    },
    {
      "abilityID": "",
      "abilityName": "Monster_Drake_DeepSea_JumpUpToWall",
      "abilityOverride": ""
    },
    {
      "abilityID": "",
      "abilityName": "Monster_Drake_DeepSea_Electric_JumpAtk",
      "abilityOverride": ""
    },
    {
      "abilityID": "",
      "abilityName": "Monster_Drake_DeepSea_Boss_JumpWallBackSetPos",
      "abilityOverride": ""
    },
    {
      "abilityID": "",
      "abilityName": "Monster_Drake_DeepSea_JumpBrokenRock",
      "abilityOverride": ""
    },
    {
      "abilityID": "",
      "abilityName": "Monster_Drake_DeepSea_Electric_Swim_FireTailRangeSpear",
      "abilityOverride": ""
    },
    {
      "abilityID": "",
      "abilityName": "Monster_Drake_DeepSea_FitCharge_Electric",
      "abilityOverride": ""
    },
    {
      "abilityID": "",
      "abilityName": "Monster_Drake_DeepSea_ChargeAttackArea_Electric",
      "abilityOverride": ""
    },
    {
      "abilityID": "",
      "abilityName": "Monster_Drake_DeepSea_ChargeAttack_TailEffect_Electric",
      "abilityOverride": ""
    }
  ],
  "stateLayers": {
    "defaultLayer": {
      "$type": "GBGJJIIEMBD",
      "layerIndexName": "",
      "CPAANEIJCGD": "",
      "stateIDs": {
        "NormalIdle": {
          "$type": "NEDIFAKEGCO",
          "animatorStates": {
            "Standby": [],
            "Born": []
          },
          "canDoSkill": true,
          "canSyncMove": true,
          "resetAnimatorTriggerOnExit": ["DoSkill"]
        },
        "Walk_BS": {
          "$type": "NEDIFAKEGCO",
          "animatorStates": {
            "WalkForward_BS": [
              "Monster_Drake_DeepSea_Electric_RushBSEffect",
              "Audio_Monster_Drake_Deepsea_Common_WalkForward_BS"
            ]
          },
          "canDoSkill": true,
          "canSyncMove": true,
          "resetAnimatorTriggerOnExit": ["DoSkill"],
          "canSteer": true
        },
        "Walk_AS": {
          "$type": "NEDIFAKEGCO",
          "animatorStates": {
            "WalkForward_AS": [
              "Monster_Drake_DeepSea_Electric_RushASEffect",
              "Audio_Monster_Drake_Deepsea_Common_WalkForward_AS"
            ]
          },
          "canDoSkill": true,
          "canSyncMove": true,
          "resetAnimatorTriggerOnExit": ["DoSkill"],
          "canSteer": true
        },
        "NormalMove": {
          "$type": "NEDIFAKEGCO",
          "animatorStates": {
            "WalkForward_Loop": []
          },
          "canDoSkill": true,
          "canSyncMove": true,
          "resetAnimatorTriggerOnExit": ["DoSkill"],
          "canSteer": true
        },
        "WalkFree": {
          "$type": "NEDIFAKEGCO",
          "animatorStates": {
            "WalkFree": ["Audio_Monster_Drake_Deepsea_Common_WalkFree"]
          },
          "canDoSkill": true,
          "canSyncMove": true,
          "resetAnimatorTriggerOnExit": ["DoSkill"],
          "canSteer": true
        },
        "SwimWalk": {
          "$type": "NEDIFAKEGCO",
          "animatorStates": {
            "SwimWalk": []
          },
          "canDoSkill": true,
          "canSyncMove": true,
          "resetAnimatorTriggerOnExit": ["BeHit", "DoSkill"],
          "canSteer": true
        },
        "Turn": {
          "$type": "NEDIFAKEGCO",
          "animatorStates": {
            "Turn": ["Audio_Monster_Drake_Deepsea_Common_Turn"]
          },
          "canDoSkill": true,
          "canSyncMove": true,
          "resetAnimatorTriggerOnExit": ["DoSkill"]
        },
        "Turn2": {
          "$type": "NEDIFAKEGCO",
          "animatorStates": {
            "Turn2": ["Audio_Monster_Drake_Deepsea_Common_Turn"]
          },
          "canDoSkill": true,
          "canSyncMove": true,
          "resetAnimatorTriggerOnExit": ["DoSkill"]
        },
        "Turn3": {
          "$type": "NEDIFAKEGCO",
          "animatorStates": {
            "Turn3": ["Audio_Monster_Drake_Deepsea_Common_Turn"]
          },
          "canDoSkill": true,
          "canSyncMove": true,
          "resetAnimatorTriggerOnExit": ["DoSkill"]
        },
        "BeHit": {
          "$type": "NEDIFAKEGCO",
          "animatorStates": {
            "Hit_L": ["Audio_Monster_Drake_Deepsea_Common_Hit_L"],
            "Hit_H": ["Audio_Monster_Drake_Deepsea_Common_Hit_H"]
          },
          "resetAnimatorTriggerOnEnter": ["BeHit"],
          "resetAnimatorTriggerOnExit": ["DoSkill"]
        },
        "BeHitThrow": {
          "$type": "NEDIFAKEGCO",
          "animatorStates": {
            "HitThrow": [],
            "HitThrowDrop": [],
            "HitThrowToGround": ["Audio_Monster_Drake_Deepsea_Common_AirDie"]
          },
          "resetAnimatorTriggerOnEnter": ["BeHit", "HitAir2HitDrop"],
          "resetAnimatorTriggerOnExit": ["DoSkill"]
        },
        "Struggle": {
          "$type": "NEDIFAKEGCO",
          "animatorStates": {
            "Struggle": []
          },
          "resetAnimatorTriggerOnEnter": ["BeHit", "HitAir2HitDrop"],
          "resetAnimatorTriggerOnExit": ["DoSkill"]
        },
        "Die": {
          "$type": "NEDIFAKEGCO",
          "animatorStates": {
            "Die_01": ["Audio_Monster_Drake_Deepsea_Common_Die_01"],
            "Die_02": ["Audio_Monster_Drake_Deepsea_Common_Hit_H"],
            "SwimDie": ["Monster_Drake_DeepSea_SwimDieIm"],
            "SwimDie_AS": []
          }
        },
        "Die_RagDoll": {
          "$type": "NEDIFAKEGCO",
          "animatorStates": {
            "Die_RagDoll_01": [],
            "Die_RagDoll_02": ["Audio_Monster_Drake_Deepsea_Common_Hit_H"],
            "AirDie": ["Audio_Monster_Drake_Deepsea_Common_AirDie"]
          }
        },
        "Alert_Jump": {
          "$type": "NEDIFAKEGCO",
          "animatorStates": {
            "Alert_Jump": [
              "Monster_Drake_DeepSea_JumpToAlertPos_Electric",
              "Audio_Monster_Drake_Deepsea_Common_Alert_Jump"
            ]
          },
          "canSyncMove": true,
          "cullingModelAlwaysAnimate": true,
          "resetAnimatorTriggerOnExit": ["BeHit", "DoSkill"]
        },
        "Alert": {
          "$type": "NEDIFAKEGCO",
          "animatorStates": {
            "Alert": [
              "Monster_Drake_DeepSea_AlertEffect",
              "Audio_Monster_Drake_Deepsea_Common_Alert"
            ]
          },
          "resetAnimatorTriggerOnExit": ["BeHit", "DoSkill"]
        },
        "NormalAtk01": {
          "$type": "NEDIFAKEGCO",
          "animatorStates": {
            "NormalAtk01": [
              "Monster_Drake_DeepSea_MeleeAttack1",
              "Audio_Monster_Drake_Deepsea_Common_NormalAtk01"
            ]
          },
          "resetAnimatorTriggerOnExit": ["BeHit", "DoSkill"],
          "canSteer": true
        },
        "NormalAtk02": {
          "$type": "NEDIFAKEGCO",
          "animatorStates": {
            "NormalAtk02": [
              "Monster_Drake_DeepSea_MeleeAttack2",
              "Audio_Monster_Drake_Deepsea_Common_NormalAtk02"
            ]
          },
          "resetAnimatorTriggerOnExit": ["BeHit", "DoSkill"],
          "canSteer": true
        },
        "NormalAtk03": {
          "$type": "NEDIFAKEGCO",
          "animatorStates": {
            "NormalAtk03": [
              "Monster_Drake_DeepSea_MeleeAttack3",
              "Audio_Monster_Drake_Deepsea_Common_NormalAtk03"
            ]
          },
          "resetAnimatorTriggerOnExit": ["BeHit", "DoSkill"],
          "canSteer": true
        },
        "TailAttack": {
          "$type": "NEDIFAKEGCO",
          "animatorStates": {
            "TailAttack": [
              "Monster_Drake_DeepSea_Electric_TailMeleeAttack",
              "Audio_Monster_Drake_Deepsea_Electrick_TailAttackElectrick"
            ]
          },
          "resetAnimatorTriggerOnExit": ["BeHit", "DoSkill"],
          "canSteer": true
        },
        "MagicBallAttack": {
          "$type": "NEDIFAKEGCO",
          "animatorStates": {
            "MagicBallAttack": [
              "Monster_Drake_DeepSea_MagicBallElectric",
              "Audio_Monster_Drake_Deepsea_Common_MagicBallAttack"
            ]
          },
          "resetAnimatorTriggerOnExit": ["BeHit", "DoSkill"],
          "canSteer": true
        },
        "JumpWall_JumpToStart_BS": {
          "$type": "NEDIFAKEGCO",
          "animatorStates": {
            "JumpWall_JumpToStart_BS": [
              "Audio_Monster_Drake_Deepsea_Common_JumpToFit_BS"
            ]
          },
          "cullingModelAlwaysAnimate": true,
          "resetAnimatorTriggerOnExit": ["BeHit", "DoSkill"],
          "canSteer": true
        },
        "JumpWall_JumpToStart_AS": {
          "$type": "NEDIFAKEGCO",
          "animatorStates": {
            "JumpWall_JumpToStart_AS": [
              "Monster_Drake_DeepSea_JumpWall_JumpToStart_Electric",
              "Audio_Monster_Drake_Deepsea_Common_JumpToFit_During"
            ]
          },
          "resetAnimatorTriggerOnExit": ["BeHit", "DoSkill"],
          "canSteer": true
        },
        "JumpWall_BS": {
          "$type": "NEDIFAKEGCO",
          "animatorStates": {
            "JumpWall_BS": [
              "Monster_Drake_DeepSea_JumpWall_Timer",
              "Audio_Monster_Drake_Deepsea_Common_JumpWall_BS"
            ]
          },
          "resetAnimatorTriggerOnExit": ["BeHit", "DoSkill"]
        },
        "JumpWall_Idle": {
          "$type": "NEDIFAKEGCO",
          "animatorStates": {
            "JumpWall_Idle": []
          },
          "resetAnimatorTriggerOnExit": ["BeHit", "DoSkill"]
        },
        "JumpWall_Attack": {
          "$type": "NEDIFAKEGCO",
          "animatorStates": {
            "JumpWall_Attack": [
              "Monster_Drake_DeepSea_Electric_JumpWall_FireMagicBall",
              "Audio_Monster_Drake_Deepsea_Common_JumpWall_Attack"
            ]
          },
          "resetAnimatorTriggerOnExit": ["BeHit", "DoSkill"]
        },
        "JumpWall_WeakBS": {
          "$type": "NEDIFAKEGCO",
          "animatorStates": {
            "JumpWall_WeakBS": [
              "Monster_Drake_DeepSea_JumpWall_DropWeakEffect",
              "Audio_Monster_Drake_Deepsea_Common_JumpWall_WeakBS"
            ]
          },
          "resetAnimatorTriggerOnExit": ["BeHit", "DoSkill"]
        },
        "JumpWall_WeakLoop": {
          "$type": "NEDIFAKEGCO",
          "animatorStates": {
            "JumpWall_WeakLoop": []
          },
          "resetAnimatorTriggerOnExit": ["BeHit", "DoSkill"]
        },
        "JumpWall_WeakAS": {
          "$type": "NEDIFAKEGCO",
          "animatorStates": {
            "JumpWall_WeakAS": []
          },
          "resetAnimatorTriggerOnExit": ["BeHit", "DoSkill"]
        },
        "JumpWall_BackWarning": {
          "$type": "NEDIFAKEGCO",
          "animatorStates": {
            "JumpWall_BackWarning": [
              "Monster_Drake_DeepSea_Boss_JumpWallBackSetPos"
            ]
          },
          "resetAnimatorTriggerOnExit": ["BeHit", "DoSkill"]
        },
        "JumpWall_WeakBackToGroundBS": {
          "$type": "NEDIFAKEGCO",
          "animatorStates": {
            "JumpWall_WeakBackToGroundBS": [
              "Monster_Drake_DeepSea_JumpWallBackDust",
              "Audio_Monster_Drake_Deepsea_Common_JumpWall_WeakBackToGroundBS"
            ]
          },
          "resetAnimatorTriggerOnExit": ["BeHit", "DoSkill"],
          "canSteer": true
        },
        "JumpWall_WeakBackToGroundDuring": {
          "$type": "NEDIFAKEGCO",
          "animatorStates": {
            "JumpWall_WeakBackToGroundDuring": [
              "Audio_Monster_Drake_Deepsea_Common_JumpWall_WeakBackToGroundDuring"
            ]
          },
          "cullingModelAlwaysAnimate": true,
          "resetAnimatorTriggerOnExit": ["BeHit", "DoSkill"],
          "canSteer": true
        },
        "JumpWall_WeakBackToGroundAS": {
          "$type": "NEDIFAKEGCO",
          "animatorStates": {
            "JumpWall_WeakBackToGroundAS": [
              "Monster_Drake_DeepSea_Electric_JumpWallBackAttack",
              "Audio_Monster_Drake_Deepsea_Common_JumpWall_WeakBackToGroundAS"
            ]
          },
          "resetAnimatorTriggerOnExit": ["BeHit", "DoSkill"],
          "canSteer": true
        },
        "JumpToFit_BS": {
          "$type": "NEDIFAKEGCO",
          "animatorStates": {
            "JumpToFit_BS": ["Audio_Monster_Drake_Deepsea_Common_JumpToFit_BS"]
          },
          "resetAnimatorTriggerOnExit": ["BeHit", "DoSkill"],
          "canSteer": true
        },
        "JumpToFit_During": {
          "$type": "NEDIFAKEGCO",
          "animatorStates": {
            "JumpToFit_During": [
              "Monster_Drake_DeepSea_FitAttack_JumpToPos_Electric",
              "Audio_Monster_Drake_Deepsea_Common_JumpToFit_During"
            ]
          },
          "cullingModelAlwaysAnimate": true,
          "resetAnimatorTriggerOnExit": ["BeHit", "DoSkill"],
          "canSteer": true
        },
        "JumpToFit_AS": {
          "$type": "NEDIFAKEGCO",
          "animatorStates": {
            "JumpToFit_AS": ["Audio_Monster_Drake_Deepsea_Common_JumpToFit_AS"]
          },
          "resetAnimatorTriggerOnExit": ["BeHit", "DoSkill"],
          "canSteer": true
        },
        "FitAttack_BS": {
          "$type": "NEDIFAKEGCO",
          "animatorStates": {
            "FitAttack_BS": [
              "Monster_Drake_DeepSea_Electric_FitAttack_TailEffect",
              "Audio_Monster_Drake_Deepsea_Common_FitAttack_BS"
            ]
          },
          "canSyncMove": true,
          "addEndure": 0.0,
          "resetAnimatorTriggerOnExit": ["BeHit", "DoSkill"]
        },
        "FitAttack_Loop": {
          "$type": "NEDIFAKEGCO",
          "animatorStates": {
            "FitAttack_Loop": ["Monster_Drake_DeepSea_Boss_Fit_Sync"]
          },
          "addEndure": 0.0,
          "resetAnimatorTriggerOnExit": ["BeHit", "DoSkill"]
        },
        "FitAttack_AS": {
          "$type": "NEDIFAKEGCO",
          "animatorStates": {
            "FitAttack_AS": ["Audio_Monster_Drake_Deepsea_Common_FitAttack_AS"]
          },
          "addEndure": 0.0,
          "resetAnimatorTriggerOnExit": ["BeHit", "DoSkill"]
        },
        "JumpToLaser_BS": {
          "$type": "NEDIFAKEGCO",
          "animatorStates": {
            "JumpToLaser_BS": [
              "Audio_Monster_Drake_Deepsea_Common_JumpToFit_BS"
            ]
          },
          "resetAnimatorTriggerOnExit": ["BeHit", "DoSkill"],
          "canSteer": true
        },
        "JumpToLaser_During": {
          "$type": "NEDIFAKEGCO",
          "animatorStates": {
            "JumpToLaser_During": [
              "Monster_Drake_DeepSea_LaserAttack_JumpToPos_Electric",
              "Audio_Monster_Drake_Deepsea_Common_JumpToFit_During"
            ]
          },
          "cullingModelAlwaysAnimate": true,
          "resetAnimatorTriggerOnExit": ["BeHit", "DoSkill"],
          "canSteer": true
        },
        "JumpToLaser_AS": {
          "$type": "NEDIFAKEGCO",
          "animatorStates": {
            "JumpToLaser_AS": [
              "Audio_Monster_Drake_Deepsea_Common_JumpToFit_AS"
            ]
          },
          "resetAnimatorTriggerOnExit": ["BeHit", "DoSkill"]
        },
        "LaserAttack_Animove": {
          "$type": "NEDIFAKEGCO",
          "animatorStates": {
            "LaserAttack_Animove": [
              "Monster_Drake_DeepSea_Electric_LaserAttack_EffectBS",
              "Audio_Monster_Drake_Deepsea_Electric_LaserAttack_Animov"
            ]
          },
          "canSyncMove": true,
          "resetAnimatorTriggerOnExit": ["BeHit", "DoSkill"]
        },
        "LaserAttack_Promove": {
          "$type": "NEDIFAKEGCO",
          "animatorStates": {
            "LaserAttack_Promove": [
              "Audio_Monster_Drake_Deepsea_Common_LaserAttack_Promove"
            ]
          },
          "canSyncMove": true,
          "cullingModelAlwaysAnimate": true,
          "addEndure": 0.0,
          "resetAnimatorTriggerOnExit": ["BeHit", "DoSkill"]
        },
        "LaserAttack_FireLaser": {
          "$type": "NEDIFAKEGCO",
          "animatorStates": {
            "LaserAttack_FireLaser": [
              "Monster_Drake_DeepSea_Boss_Fit_Sync",
              "Monster_Drake_DeepSea_Electric_LaserFire",
              "Audio_Monster_Drake_Deepsea_Electric_LaserAttack_FireLaser_VO"
            ]
          },
          "cullingModelAlwaysAnimate": true,
          "addEndure": 0.0,
          "resetAnimatorTriggerOnExit": ["BeHit", "DoSkill"]
        },
        "LaserAttack_AS": {
          "$type": "NEDIFAKEGCO",
          "animatorStates": {
            "LaserAttack_AS": []
          },
          "addEndure": 0.0,
          "resetAnimatorTriggerOnExit": ["BeHit", "DoSkill"],
          "canSteer": true
        },
        "ChargeAttack_BS": {
          "$type": "NEDIFAKEGCO",
          "animatorStates": {
            "ChargeAttack_BS": [
              "Monster_Drake_DeepSea_ChargeAttackElectricBS",
              "Audio_Monster_Drake_Deepsea_Common_ChargeAttack_BS"
            ]
          },
          "resetAnimatorTriggerOnExit": ["BeHit", "DoSkill"],
          "canSteer": true
        },
        "ChargeAttack_Loop": {
          "$type": "NEDIFAKEGCO",
          "animatorStates": {
            "ChargeAttack_Loop": [
              "Audio_Monster_Drake_Deepsea_Common_ChargeAttack_Loop"
            ]
          },
          "resetAnimatorTriggerOnExit": ["BeHit", "DoSkill"],
          "canSteer": true
        },
        "ChargeAttack_AS": {
          "$type": "NEDIFAKEGCO",
          "animatorStates": {
            "ChargeAttack_AS": [
              "Audio_Monster_Drake_Deepsea_Common_ChargeAttack_AS"
            ]
          },
          "resetAnimatorTriggerOnExit": ["BeHit", "DoSkill"],
          "canSteer": true
        },
        "TailRangeAttack": {
          "$type": "NEDIFAKEGCO",
          "animatorStates": {
            "TailRangeAttack": [
              "Monster_Drake_DeepSea_TailRangeElectricAttack",
              "Audio_Monster_Drake_Deepsea_Common_TailRangeAttack"
            ]
          },
          "resetAnimatorTriggerOnExit": ["BeHit", "DoSkill"],
          "canSteer": true
        },
        "JumpToSwim_BS": {
          "$type": "NEDIFAKEGCO",
          "animatorStates": {
            "JumpToSwim_BS": []
          },
          "resetAnimatorTriggerOnExit": ["BeHit", "DoSkill"],
          "canSteer": true
        },
        "JumpToSwim_AS": {
          "$type": "NEDIFAKEGCO",
          "animatorStates": {
            "JumpToSwim_AS": [
              "Monster_Drake_DeepSea_GoToSwim",
              "Audio_Monster_Drake_Deepsea_Common_JumpToFit_During"
            ]
          },
          "cullingModelAlwaysAnimate": true,
          "resetAnimatorTriggerOnExit": ["BeHit", "DoSkill"],
          "canSteer": true
        },
        "Swim": {
          "$type": "NEDIFAKEGCO",
          "animatorStates": {
            "Swim": []
          },
          "canDoSkill": true,
          "canSyncMove": true,
          "resetAnimatorTriggerOnExit": ["BeHit", "DoSkill"],
          "canSteer": true
        },
        "SwimAttack": {
          "$type": "NEDIFAKEGCO",
          "animatorStates": {
            "SwimAttack": [
              "Monster_Drake_DeepSea_Electric_SwimAttack",
              "Audio_Monster_Drake_Deepsea_Common_SwimAttack"
            ]
          },
          "canSyncMove": true,
          "resetAnimatorTriggerOnExit": ["BeHit", "DoSkill"],
          "canSteer": true
        },
        "SwimSkill": {
          "$type": "NEDIFAKEGCO",
          "animatorStates": {
            "SwimSkill": [
              "Monster_Drake_DeepSea_Electric_SwimAttack",
              "Audio_Monster_Drake_Deepsea_Common_SwimAttack"
            ]
          },
          "canSyncMove": true,
          "resetAnimatorTriggerOnExit": ["BeHit", "DoSkill"],
          "canSteer": true
        },
        "JumpAttack_BS": {
          "$type": "NEDIFAKEGCO",
          "animatorStates": {
            "JumpAttack_BS": ["Audio_Monster_Drake_Deepsea_Common_JumpToFit_BS"]
          },
          "resetAnimatorTriggerOnExit": ["BeHit", "DoSkill"],
          "canSteer": true
        },
        "JumpAttack": {
          "$type": "NEDIFAKEGCO",
          "animatorStates": {
            "JumpAttack": [
              "Monster_Drake_DeepSea_Electric_JumpAtk",
              "Audio_Monster_Drake_Deepsea_Common_JumpToFit_During"
            ]
          },
          "cullingModelAlwaysAnimate": true,
          "resetAnimatorTriggerOnExit": ["BeHit", "DoSkill"],
          "canSteer": true
        },
        "JumpAttack_AS": {
          "$type": "NEDIFAKEGCO",
          "animatorStates": {
            "JumpAttack_AS": ["Audio_Monster_Drake_Deepsea_Common_JumpToFit_AS"]
          },
          "resetAnimatorTriggerOnExit": ["BeHit", "DoSkill"],
          "canSteer": true
        },
        "BattleShow": {
          "$type": "NEDIFAKEGCO",
          "animatorStates": {
            "BattleShow": [
              "Monster_Drake_DeepSea_AlertEffect",
              "Audio_Monster_Drake_Deepsea_Common_Alert"
            ]
          },
          "resetAnimatorTriggerOnExit": ["BeHit", "DoSkill"],
          "canSteer": true
        }
      }
    }
  },
  "billboard": {
    "$type": "DNGNMAJBCNP",
    "attachPoint": "BillboardAttach",
    "offset": {
      "y": 0.30000001192092896,
      "z": 0.5
    },
    "offsetType": "Character",
    "radiusOffset": 0.6000000238418579,
    "size": "Grand"
  },
  "initialPoses": {
    "Default": {}
  },
  "aibeta": {
    "enable": true,
    "sensing": {
      "settings": {
        "DefaultSetting": {
          "viewRange": 10.0,
          "feelRange": 10.0
        }
      },
      "templates": {
        "DefaultTemplate": {
          "DefaultPoses": "DefaultSetting"
        }
      }
    },
    "neurons": {
      "DefaultSetting": ["HIT"]
    },
    "threat": {
      "GHIJMOKOLMB": "",
      "clearThreatTargetDistance": 100.0,
      "clearThreatEdgeDistance": 100.0,
      "clearThreatByTargetOutOfZone": true,
      "resistTauntLevel": "Monster_TauntLevel_5"
    },
    "defendArea": {
      "defendRange": 100.0
    },
    "profiling": {},
    "network": {
      "syncSkill": true
    },
    "skills": {
      "1": {
        "name": "OnAlert",
        "skillType": "OnAlert",
        "faceTarget": true,
        "publicCDGroup": "",
        "ignoreGCD": true,
        "triggerGCD": false,
        "HHAGODJIAPE": "",
        "stateIDs": ["Alert", "Alert_Jump"],
        "skillQueryingTime": 3.0,
        "flagTargetReachable": "10",
        "flagSelfOnTemplateCollider": "01",
        "flagSelfInZone": "10",
        "flagTargetInZone": "11"
      },
      "101": {
        "name": "Blink",
        "castCondition": {
          "pose": [103],
          "needReInitCD": true,
          "pickRangeMax": 5.0
        },
        "cd": 5.0,
        "cdUpperRange": 5.0,
        "publicCDGroup": "",
        "HHAGODJIAPE": "",
        "stateIDs": ["NormalAtk01", "NormalAtk02", "NormalAtk03"],
        "flagTargetReachable": "10",
        "flagSelfOnTemplateCollider": "01",
        "flagSelfInZone": "10",
        "flagTargetInZone": "11"
      },
      "201": {
        "name": "Blink",
        "priority": 4,
        "castCondition": {
          "pose": [103],
          "needReInitCD": true,
          "pickRangeMax": 5.0
        },
        "cd": 5.0,
        "cdUpperRange": 5.0,
        "initialCD": 3.0,
        "publicCDGroup": "",
        "HHAGODJIAPE": "",
        "stateIDs": ["TailAttack"],
        "flagTargetReachable": "10",
        "flagSelfOnTemplateCollider": "01",
        "flagSelfInZone": "10",
        "flagTargetInZone": "11"
      },
      "301": {
        "name": "MagicBallAttack",
        "priority": 2,
        "castCondition": {
          "pose": [101, 102, 103],
          "needReInitCD": true,
          "pickRangeMax": 100.0
        },
        "cd": 5.0,
        "cdUpperRange": 5.0,
        "publicCDGroup": "",
        "HHAGODJIAPE": "",
        "stateIDs": ["MagicBallAttack"],
        "flagTargetReachable": "11",
        "flagSelfOnTemplateCollider": "01",
        "flagSelfInZone": "11",
        "flagTargetInZone": "11"
      },
      "401": {
        "name": "JumpWallAttack",
        "priority": 1,
        "castCondition": {
          "pose": [102]
        },
        "cd": 40.0,
        "cdUpperRange": 5.0,
        "initialCD": 15.0,
        "publicCDGroup": "",
        "ignoreGCD": true,
        "triggerGCD": false,
        "triggerCDOnStart": true,
        "HHAGODJIAPE": "",
        "stateIDs": [
          "JumpWall_StandBy",
          "JumpWall_JumpToStart_BS",
          "JumpWall_JumpToStart_AS",
          "JumpWall_BS",
          "JumpWall_Idle",
          "JumpWall_Attack",
          "JumpWall_WeakBS",
          "JumpWall_WeakLoop",
          "JumpWall_WeakAS",
          "JumpWall_BackWarning",
          "JumpWall_WeakBackToGroundBS",
          "JumpWall_WeakBackToGroundDuring",
          "JumpWall_WeakBackToGroundAS"
        ],
        "flagTargetReachable": "11",
        "flagSelfOnTemplateCollider": "01",
        "flagSelfInZone": "11",
        "flagTargetInZone": "11"
      },
      "9001": {
        "name": "Random",
        "priority": 3,
        "castCondition": {
          "pose": [102],
          "needReInitCD": true
        },
        "cd": 10.0,
        "cdUpperRange": 10.0,
        "initialCD": 10.0,
        "publicCDGroup": "",
        "HHAGODJIAPE": "",
        "stateIDs": ["BattleShow"],
        "flagTargetReachable": "11",
        "flagSelfOnTemplateCollider": "01",
        "flagSelfInZone": "11",
        "flagTargetInZone": "11"
      },
      "701": {
        "name": "Blink",
        "priority": 1,
        "castCondition": {
          "pose": [103],
          "needReInitCD": true,
          "pickRangeMax": 15.0
        },
        "cd": 10.0,
        "cdUpperRange": 5.0,
        "initialCD": 3.0,
        "publicCDGroup": "",
        "HHAGODJIAPE": "",
        "stateIDs": ["ChargeAttack_BS", "ChargeAttack_Loop", "ChargeAttack_AS"],
        "flagTargetReachable": "11",
        "flagSelfOnTemplateCollider": "01",
        "flagSelfInZone": "11",
        "flagTargetInZone": "11"
      },
      "801": {
        "name": "TailRangeAttack",
        "priority": 3,
        "castCondition": {
          "pose": [101, 103],
          "needReInitCD": true,
          "pickRangeMin": 5.0,
          "pickRangeMax": 20.0
        },
        "cd": 5.0,
        "cdUpperRange": 5.0,
        "initialCD": 3.0,
        "publicCDGroup": "",
        "HHAGODJIAPE": "",
        "stateIDs": ["TailRangeAttack"],
        "flagTargetReachable": "11",
        "flagSelfOnTemplateCollider": "01",
        "flagSelfInZone": "11",
        "flagTargetInZone": "11"
      }
    },
    "skillGCD": 2.0,
    "birdCirclingTactic": [
      {
        "$type": "KACCHOLJDNK",
        "enable": true,
        "condition": {
          "pose": [101, 102, 103]
        },
        "JMCOBEPDIGM": {
          "ANLAAGAMIKF": 1,
          "KHDFDAAAPEI": 16.0,
          "HKJODDGJPHA": 99.0,
          "GGEBMFHFBPO": 15.0,
          "PKNJDNAGLNM": 5,
          "MNPDDAKDHGK": ""
        },
        "PIOCBHLFLJP": {
          "102": {
            "ANLAAGAMIKF": 1,
            "KHDFDAAAPEI": 30.0,
            "HKJODDGJPHA": 99.0,
            "GGEBMFHFBPO": 20.0,
            "PKNJDNAGLNM": 5,
            "MNPDDAKDHGK": ""
          }
        }
      },
      {
        "$type": "NNJKLGNPMNN",
        "enable": true,
        "JMCOBEPDIGM": {
          "ANLAAGAMIKF": 1,
          "MNPDDAKDHGK": "",
          "GJDMDHIBCME": ""
        }
      },
      {
        "$type": "KBADPEGBPKN",
        "enable": true,
        "condition": {
          "pose": [201]
        },
        "JMCOBEPDIGM": {
          "NBENNEKDIIA": 1.0,
          "LEGOOCKKGNE": 0.0,
          "GACMJDCMLLA": 33.0,
          "OFPCELPELIG": [
            "NormalIdle",
            "SwimWalk",
            "Swim",
            "SwimAttack",
            "SwimSkill"
          ],
          "BGIIDAHMKBI": 0.0,
          "DHFKFHDMCPL": 3.0,
          "FPOLOLBBKEO": 1.0,
          "MNPDDAKDHGK": ""
        }
      },
      {
        "$type": "FPELBIJFGCE",
        "condition": {
          "pose": [1]
        },
        "JMCOBEPDIGM": {
          "NBENNEKDIIA": 0.20000000298023224,
          "KPNDPKIOPJM": 7.5,
          "PINAFKEDDLL": 5.0,
          "ANMPOPEBDIA": 25.0,
          "GMJFIMFFOEL": 7.5,
          "MNPDDAKDHGK": ""
        }
      }
    ]
  },
  "inputKeys": [
    {
      "keyID": 101,
      "inputKeyCode": 257,
      "abilityName": ""
    },
    {
      "keyID": 201,
      "inputKeyCode": 258,
      "abilityName": ""
    },
    {
      "keyID": 301,
      "inputKeyCode": 259,
      "abilityName": ""
    },
    {
      "keyID": 401,
      "inputKeyCode": 260,
      "abilityName": ""
    },
    {
      "keyID": 501,
      "inputKeyCode": 261,
      "abilityName": ""
    },
    {
      "keyID": 601,
      "inputKeyCode": 262,
      "abilityName": ""
    },
    {
      "keyID": 701,
      "inputKeyCode": 263,
      "abilityName": ""
    },
    {
      "keyID": 801,
      "inputKeyCode": 264,
      "abilityName": ""
    },
    {
      "keyID": 901,
      "inputKeyCode": 265,
      "abilityName": ""
    }
  ],
  "move": {
    "$type": "IPNMJMHDMPF",
    "velocityForce": {
      "excludeForces": ["WindZoneType"]
    },
    "moveOnWater": true,
    "facingMove": "FourDirection",
    "destroyRockWhenInit": true,
    "PKHOMJHFAEE": "RootNode"
  },
  "audio": {
    "overrideEmitterName": "",
    "animAudio": {
      "onTransitionIn": [
        {
          "currentStateName": "JumpWall_WeakLoop",
          "audioEvent": {
            "text": "Play_sfx_monster_drake_deepSea_common_jumpWall_weakLoop"
          }
        }
      ],
      "onTransitionOut": [
        {
          "currentStateName": "JumpWall_WeakLoop",
          "audioEvent": {
            "text": "Stop_sfx_monster_drake_deepSea_common_jumpWall_weakLoop"
          }
        }
      ]
    }
  },
  "cameraAdjustMap": {
    "default": {
      "$type": "NJCCPGFPIHI",
      "priority": 1.0,
      "enterRadius": 30.0,
      "exitRadius": 50.0,
      "heightAdjust": 1.0,
      "fov": 47.5,
      "zoom": 10.0,
      "sphericalY": 10.0,
      "lockSphericalY": false,
      "sphericalYUp": 50.0,
      "sphericalYDown": 50.0,
      "autoTurnStartMin": 50.0,
      "autoTurnStartMax": 40.0,
      "autoTurnEndMin": 100.0,
      "autoTurnEndMax": 145.0,
      "enterShape": "CircleR30",
      "exitShape": "CircleR50"
    }
  }
}
