{
  "common": {
    "effectAttachShape": {
      "$type": "FJNPJANPGGC",
      "mesh": "EffectMesh"
    },
    "mass": 1000000.0,
    "height": 5.0,
    "modelHeight": 5.0,
    "viewSize": 2.5,
    "affectedByWorld": true,
    "checkInSurface": true,
    "useGrassDisplacement": true,
    "clearAnimatorOnSetLightDeactive": true,
    "clearAIOnSetLightDeactive": true,
    "recoverByInitPose": true,
    "useFinalIK": true
  },
  "model": {
    "bornEffect": "",
    "attachEffect": "",
    "canBakeMesh": false,
    "BKPFGNPLDNJ": ""
  },
  "dither": {
    "showDitherDuration": 2.0,
    "normalBetweenCamera": {
      "detectDitherRange": 5.0
    }
  },
  "combat": {
    "property": {
      "endureType": "Monster_Boss_Other",
      "weight": 300.0
    },
    "beHit": {
      "hitBloodEffect": ""
    },
    "combatLock": {
      "lockShape": "CircleLockEnemy",
      "lockType": "Avatar&Monster_Lv4"
    },
    "die": {
      "hasAnimatorDie": true,
      "dieEndTime": 2.0,
      "dieForceDisappearTime": 4.0,
      "dieDisappearEffect": "Eff_Death_Common",
      "dieShaderData": "MonsterDie",
      "useRagDoll": true,
      "muteHitBox": true,
      "dieDenyLockOn": true,
      "dieIsGhostToEnemy": true,
      "dieIgnoreTriggerBullet": true,
      "muteBillboard": true,
      "mutePushCollider": true
    },
    "animEvents": {
      "NormalAtk": {
        "attackPattern": {
          "$type": "ConfigAttackBox",
          "triggerType": "TriggerNoRepeat",
          "born": {
            "$type": "ConfigBornBySelf",
            "offset": {
              "x": 0.0,
              "y": 4.300000190734863,
              "z": -3.700000047683716
            }
          },
          "size": {
            "x": 4.0,
            "y": 11.0,
            "z": 10.0
          }
        },
        "attackInfo": {
          "attackTag": "",
          "attenuationTag": "Gargoyle_Airborne_Normalatk",
          "attenuationGroup": "Gargoyle_Airborne_Normalatk",
          "attackProperty": {
            "actorGrassSubHurtDelta": 0.800000011920929,
            "actorWindSubHurtDelta": 0.0,
            "elementDurability": 25.0,
            "strikeType": "Slash",
            "enBreak": 50.0,
            "attackType": "Melee",
            "GLKMCMDJBIK": 0.0
          },
          "hitPattern": {
            "onHitEffectName": "default",
            "hitImpulseY": "",
            "hitImpulseType": "LV3",
            "hitHaltTimeScale": 0.05000000074505806
          }
        }
      }
    }
  },
  "abilities": [
    {
      "abilityID": "",
      "abilityName": "Monster_Gargoyle_Airborne_Pose",
      "abilityOverride": ""
    },
    {
      "abilityID": "",
      "abilityName": "Monster_Gargoyle_Airborne_PoseElement_Begin",
      "abilityOverride": ""
    },
    {
      "abilityID": "",
      "abilityName": "Monster_Gargoyle_Airborne_PoseElement_End",
      "abilityOverride": ""
    },
    {
      "abilityID": "",
      "abilityName": "Monster_Gargoyle_Airborne_Wing_EffectAdd",
      "abilityOverride": ""
    },
    {
      "abilityID": "",
      "abilityName": "Monster_Gargoyle_Airborne_Wing_EffectRemove",
      "abilityOverride": ""
    },
    {
      "abilityID": "",
      "abilityName": "Monster_Gargoyle_Airborne_Alert",
      "abilityOverride": ""
    },
    {
      "abilityID": "",
      "abilityName": "Monster_Gargoyle_Airborne_ExitBattle",
      "abilityOverride": ""
    },
    {
      "abilityID": "",
      "abilityName": "Monster_Gargoyle_Airborne_Steer",
      "abilityOverride": ""
    },
    {
      "abilityID": "",
      "abilityName": "Monster_Gargoyle_Airborne_HeadControl",
      "abilityOverride": ""
    },
    {
      "abilityID": "",
      "abilityName": "Monster_Gargoyle_Airborne_PowerOff",
      "abilityOverride": ""
    },
    {
      "abilityID": "",
      "abilityName": "Monster_Gargoyle_Airborne_Weakness_Effect",
      "abilityOverride": ""
    },
    {
      "abilityID": "",
      "abilityName": "Monster_Gargoyle_Airborne_Weakness_WingL",
      "abilityOverride": ""
    },
    {
      "abilityID": "",
      "abilityName": "Monster_Gargoyle_Airborne_Weakness_WingR",
      "abilityOverride": ""
    },
    {
      "abilityID": "",
      "abilityName": "Monster_Gargoyle_Airborne_Weakness_Head",
      "abilityOverride": ""
    },
    {
      "abilityID": "",
      "abilityName": "Monster_Gargoyle_Airborne_Weakness_Chest",
      "abilityOverride": ""
    },
    {
      "abilityID": "",
      "abilityName": "Monster_Gargoyle_Airborne_Weak",
      "abilityOverride": ""
    },
    {
      "abilityID": "",
      "abilityName": "Monster_Gargoyle_Airborne_NormalAtk",
      "abilityOverride": ""
    },
    {
      "abilityID": "",
      "abilityName": "Monster_Gargoyle_Airborne_WingAtk_Bullet",
      "abilityOverride": ""
    },
    {
      "abilityID": "",
      "abilityName": "Monster_Gargoyle_Airborne_ChestAtk_Aim",
      "abilityOverride": ""
    },
    {
      "abilityID": "",
      "abilityName": "Monster_Gargoyle_Airborne_ChestAtk",
      "abilityOverride": ""
    },
    {
      "abilityID": "",
      "abilityName": "Monster_Gargoyle_Airborne_ChestAtk_Activated",
      "abilityOverride": ""
    },
    {
      "abilityID": "",
      "abilityName": "Monster_Gargoyle_Airborne_ChestAtk_Recover",
      "abilityOverride": ""
    },
    {
      "abilityID": "",
      "abilityName": "Monster_Gargoyle_Airborne_ChestAtk_CloseCollider",
      "abilityOverride": ""
    },
    {
      "abilityID": "",
      "abilityName": "Monster_Gargoyle_Airborne_ChestAtk_RecoverCollider",
      "abilityOverride": ""
    },
    {
      "abilityID": "",
      "abilityName": "Monster_Gargoyle_Airborne_ElementAtk_Settle",
      "abilityOverride": ""
    },
    {
      "abilityID": "",
      "abilityName": "Monster_Gargoyle_Airborne_ElementAtk_Activated",
      "abilityOverride": ""
    },
    {
      "abilityID": "",
      "abilityName": "Monster_Gargoyle_Airborne_ElementAtk_Recover",
      "abilityOverride": ""
    },
    {
      "abilityID": "",
      "abilityName": "Monster_Gargoyle_Airborne_ElementAtk_Bullet",
      "abilityOverride": ""
    },
    {
      "abilityID": "",
      "abilityName": "Monster_Gargoyle_Airborne_ElementAtk_Effect_BS",
      "abilityOverride": ""
    },
    {
      "abilityID": "",
      "abilityName": "Monster_Gargoyle_Airborne_ElementAtk_Effect_Wings",
      "abilityOverride": ""
    },
    {
      "abilityID": "",
      "abilityName": "Monster_Gargoyle_Airborne_ElementAtk_Effect_Chest",
      "abilityOverride": ""
    }
  ],
  "stateLayers": {
    "defaultLayer": {
      "$type": "GBGJJIIEMBD",
      "layerIndexName": "",
      "CPAANEIJCGD": "",
      "stateIDs": {
        "Born": {
          "$type": "NEDIFAKEGCO",
          "animatorStates": {
            "Born": []
          },
          "canDoSkill": true,
          "canSyncMove": true,
          "resetAnimatorTriggerOnExit": ["DoSkill"],
          "canSteer": true,
          "autoSteer": true
        },
        "NormalIdle": {
          "$type": "NEDIFAKEGCO",
          "animatorStates": {
            "StandbyFree": [],
            "Standby": []
          },
          "canDoSkill": true,
          "canSyncMove": true,
          "resetAnimatorTriggerOnExit": ["DoSkill"],
          "canSteer": true
        },
        "NormalIdle_PowerOff": {
          "$type": "NEDIFAKEGCO",
          "animatorStates": {
            "StandbyFree_PowerOff": []
          },
          "canDoSkill": true,
          "canSyncMove": true,
          "resetAnimatorTriggerOnExit": ["DoSkill"]
        },
        "NormalMove": {
          "$type": "NEDIFAKEGCO",
          "animatorStates": {
            "Walk_BS": [],
            "Walk": []
          },
          "canDoSkill": true,
          "canSyncMove": true,
          "resetAnimatorTriggerOnExit": ["DoSkill"],
          "setAnimatorFloat": [
            {
              "name": "FlyMotionHor",
              "normalizeEnd": 0.0
            },
            {
              "name": "FlyMotionVer",
              "normalizeEnd": 0.0
            }
          ],
          "canSteer": true,
          "blendMove": "BlendMove"
        },
        "NormalFly": {
          "$type": "NEDIFAKEGCO",
          "animatorStates": {
            "Fly_BS": [],
            "Fly": []
          },
          "canDoSkill": true,
          "canSyncMove": true,
          "resetAnimatorTriggerOnExit": ["DoSkill"],
          "setAnimatorFloat": [
            {
              "name": "FlyMotionHor",
              "normalizeEnd": 0.0
            },
            {
              "name": "FlyMotionVer",
              "normalizeEnd": 0.0
            }
          ],
          "canSteer": true,
          "blendMove": "BlendMove"
        },
        "Turn_BS": {
          "$type": "NEDIFAKEGCO",
          "animatorStates": {
            "TurnLeft_BS": ["Audio_Monster_Gargoyle_Airborne_Move"],
            "TurnRight_BS": ["Audio_Monster_Gargoyle_Airborne_Move"]
          },
          "canDoSkill": true,
          "canSyncMove": true,
          "resetAnimatorTriggerOnExit": ["DoSkill"],
          "canSteer": true
        },
        "Turn": {
          "$type": "NEDIFAKEGCO",
          "animatorStates": {
            "TurnLeft": [],
            "TurnRight": []
          },
          "canDoSkill": true,
          "canSyncMove": true,
          "resetAnimatorTriggerOnExit": ["DoSkill"],
          "canSteer": true
        },
        "BeHit": {
          "$type": "NEDIFAKEGCO",
          "animatorStates": {
            "Hit_WingL": ["Audio_Monster_Gargoyle_Airborne_Hit_Wing"],
            "Hit_WingR": ["Audio_Monster_Gargoyle_Airborne_Hit_Wing"],
            "Hit_HeadAir": ["Audio_Monster_Gargoyle_Airborne_Hit_ChestAir"],
            "Hit_ChestAir": ["Audio_Monster_Gargoyle_Airborne_Hit_ChestAir"]
          },
          "canSyncMove": true,
          "resetAnimatorTriggerOnEnter": ["BeHit"],
          "resetAnimatorTriggerOnExit": ["DoSkill"],
          "airMoveFollowAnimation": true
        },
        "Die": {
          "$type": "NEDIFAKEGCO",
          "animatorStates": {
            "Die": [
              "Monster_Gargoyle_Airborne_Die",
              "Audio_Monster_Gargoyle_Airborne_Die"
            ],
            "Die_Weak": ["Audio_Monster_Gargoyle_Airborne_Die_Weak"]
          }
        },
        "Die_RagDoll": {
          "$type": "NEDIFAKEGCO",
          "animatorStates": {
            "Die_Ragdoll": [],
            "Die_Weak_Ragdoll": []
          },
          "enableRagDoll": true
        },
        "Alert": {
          "$type": "NEDIFAKEGCO",
          "animatorStates": {
            "Alert": []
          },
          "canSyncMove": true,
          "resetAnimatorTriggerOnExit": ["BeHit", "DoSkill"],
          "canSteer": true
        },
        "Alert_PowerOff": {
          "$type": "NEDIFAKEGCO",
          "animatorStates": {
            "Alert_PowerOff": [
              "Monster_Gargoyle_Airborne_Alert",
              "Audio_Monster_Gargoyle_Airborne_Alert_PowerOff"
            ]
          },
          "canSyncMove": true,
          "resetAnimatorTriggerOnExit": ["BeHit", "DoSkill"],
          "canSteer": true
        },
        "Weak_Drop": {
          "$type": "NEDIFAKEGCO",
          "animatorStates": {
            "Weak_Drop_BS": ["Audio_Monster_Gargoyle_Airborne_Weak_Drop_BS"],
            "Weak_Drop_Loop": [],
            "Weak_Drop_AS": [
              "Monster_Gargoyle_Airborne_Weak_BS",
              "Audio_Monster_Gargoyle_Airborne_Weak_Drop_AS"
            ]
          },
          "canSyncMove": true,
          "resetAnimatorTriggerOnExit": ["BeHit", "DoSkill"]
        },
        "Weak_Loop": {
          "$type": "NEDIFAKEGCO",
          "animatorStates": {
            "Weak_Loop": []
          },
          "canSyncMove": true,
          "resetAnimatorTriggerOnExit": ["BeHit", "DoSkill"]
        },
        "Weak_Launch": {
          "$type": "NEDIFAKEGCO",
          "animatorStates": {
            "Weak_AS": ["Audio_Monster_Gargoyle_Airborne_Weak_AS"],
            "Weak_Launch": [
              "Monster_Gargoyle_Airborne_Weak_Launch",
              "Audio_Monster_Gargoyle_Airborne_Weak_Launch"
            ]
          },
          "canSyncMove": true,
          "resetAnimatorTriggerOnExit": ["BeHit", "DoSkill"]
        },
        "NormalAtk": {
          "$type": "NEDIFAKEGCO",
          "animatorStates": {
            "NormalAtk": [
              "Monster_Gargoyle_Airborne_NormalAtk",
              "Audio_Monster_Gargoyle_Airborne_NormalAtk"
            ]
          },
          "canSyncMove": true,
          "resetAnimatorTriggerOnExit": ["BeHit", "DoSkill"],
          "canSteer": true
        },
        "ChestAtk": {
          "$type": "NEDIFAKEGCO",
          "animatorStates": {
            "ChestAtk": [
              "Monster_Gargoyle_Airborne_ChestAtk",
              "Audio_Monster_Gargoyle_Airborne_ChestAtk"
            ]
          },
          "canSyncMove": true,
          "resetAnimatorTriggerOnExit": ["BeHit", "DoSkill"],
          "canSteer": true
        },
        "WingAtk": {
          "$type": "NEDIFAKEGCO",
          "animatorStates": {
            "WingAtk": [
              "Monster_Gargoyle_Airborne_WingAtk",
              "Audio_Monster_Gargoyle_Airborne_WingAtk"
            ]
          },
          "canSyncMove": true,
          "resetAnimatorTriggerOnExit": ["BeHit", "DoSkill"],
          "canSteer": true
        },
        "ElementAtk": {
          "$type": "NEDIFAKEGCO",
          "animatorStates": {
            "ElementAtk": [
              "Monster_Gargoyle_Airborne_ElementAtk",
              "Audio_Monster_Gargoyle_Airborne_ElementAtk"
            ]
          },
          "canSyncMove": true,
          "resetAnimatorTriggerOnExit": ["BeHit", "DoSkill"],
          "canSteer": true
        },
        "NormalIdle_Machinery": {
          "$type": "NEDIFAKEGCO",
          "animatorStates": {
            "StandbyFree_Machinery": []
          },
          "canDoSkill": true,
          "canSyncMove": true,
          "resetAnimatorTriggerOnExit": ["DoSkill"]
        },
        "Machinery": {
          "$type": "NEDIFAKEGCO",
          "animatorStates": {
            "Alert_Machinery": [
              "Monster_Gargoyle_Airborne_Alert_Machinery",
              "Audio_Monster_Gargoyle_Airborne_Alert_Machinery"
            ]
          },
          "cullingModelAlwaysAnimate": true,
          "resetAnimatorTriggerOnEnter": ["BeHit"],
          "resetAnimatorTriggerOnExit": ["DoSkill"]
        }
      }
    }
  },
  "partControl": {
    "parts": [
      {
        "$type": "JMCNLBANPIP",
        "angularSpeed": 360.0,
        "partRootName": "Neck",
        "forwardBy": "Parent",
        "forwardAxialFix": {
          "y": -90.0
        },
        "doOnUnEabled": "RotateToForward",
        "forwardByTransName": "",
        "limitHorizontal": 60.0,
        "limitVertical": 30.0,
        "defaultEnable": false,
        "rootName": "Neck",
        "finalAxialFix": {
          "x": 3.0
        },
        "verticalDamping": 15.0
      }
    ]
  },
  "billboard": {
    "$type": "DNGNMAJBCNP",
    "attachPoint": "BillboardAttach",
    "offset": {
      "y": 0.5
    },
    "radiusOffset": 1.0,
    "enableSelfAdapt": true,
    "showDistance": 48.0,
    "showHPBar": true,
    "size": "Grand"
  },
  "initialPoses": {
    "Default": {
      "initialPoseID": 101
    },
    "PowerOff": {
      "initialPoseID": 102,
      "initialPoseParams": {
        "boolParams": {
          "PowerOff": "true"
        }
      }
    },
    "Machinery": {
      "initialPoseID": 111,
      "initialPoseParams": {
        "boolParams": {
          "Machinery": "true"
        }
      }
    }
  },
  "aibeta": {
    "enable": true,
    "moveSetting": {
      "useNavMesh": false,
      "navMeshAgentName": "Undead01"
    },
    "sensing": {
      "settings": {
        "DefaultSetting": {
          "viewRange": 22.0,
          "viewPanoramic": true,
          "feelRange": 8.75
        },
        "PowerOff_Active": {
          "enableVision": false,
          "feelRange": 8.0
        },
        "Machinery": {
          "enableVision": false,
          "hearAttractionRange": 0.0,
          "feelRange": 0.0
        }
      },
      "templates": {
        "DefaultTemplate": {
          "DefaultPoses": "DefaultSetting"
        },
        "PowerOff_Active": {
          "DefaultPoses": "DefaultSetting",
          "102": "PowerOff_Active"
        },
        "Machinery": {
          "DefaultPoses": "DefaultSetting",
          "111": "Machinery"
        }
      }
    },
    "neurons": {
      "DefaultSetting": ["HIT"],
      "Machinery": []
    },
    "threat": {
      "GHIJMOKOLMB": "",
      "clearThreatEdgeDistance": 25.0,
      "clearThreatTimerByDistance": 3.0,
      "viewAttenuation": [
        {
          "x": 10.0,
          "y": 2.0
        },
        {
          "x": 20.0,
          "y": 1.0
        },
        {
          "x": 30.0,
          "y": 0.5
        },
        {
          "x": 50.0,
          "y": 0.10000000149011612
        }
      ],
      "resistTauntLevel": "Monster_TauntLevel_3"
    },
    "defendArea": {
      "defendRange": 50.0
    },
    "fly": {
      "enable": true,
      "floatingPoses": [101, 201, 301]
    },
    "skills": {
      "101": {
        "name": "OnAlert",
        "skillType": "OnAlert",
        "castCondition": {
          "pose": [101]
        },
        "publicCDGroup": "",
        "triggerGCD": false,
        "HHAGODJIAPE": "",
        "stateIDs": ["Alert"],
        "skillQueryingTime": 3.0,
        "flagTargetReachable": "10",
        "flagSelfOnTemplateCollider": "01",
        "flagSelfInZone": "10",
        "flagTargetInZone": "11"
      },
      "102": {
        "name": "OnAlert",
        "skillType": "OnAlert",
        "castCondition": {
          "pose": [102]
        },
        "publicCDGroup": "",
        "triggerGCD": false,
        "HHAGODJIAPE": "",
        "stateIDs": ["Alert_PowerOff"],
        "skillQueryingTime": 3.0,
        "flagTargetReachable": "10",
        "flagSelfOnTemplateCollider": "01",
        "flagSelfInZone": "10",
        "flagTargetInZone": "11"
      },
      "121": {
        "name": "OnAlert",
        "skillType": "OnAlert",
        "castCondition": {
          "pose": [111]
        },
        "publicCDGroup": "",
        "triggerGCD": false,
        "HHAGODJIAPE": "",
        "stateIDs": ["Machinery"],
        "skillQueryingTime": 3.0,
        "flagTargetReachable": "10",
        "flagSelfOnTemplateCollider": "01",
        "flagSelfInZone": "10",
        "flagTargetInZone": "11"
      },
      "201": {
        "name": "NormalAtk",
        "combatSkillType": "MeleeAttack",
        "priority": 2,
        "castCondition": {
          "pose": [201],
          "maxTargetAngleXZ": 150.0,
          "pickRangeMax": 7.5,
          "pickRangeYMax": 1.0,
          "castRangeType": "RangeXZ_Y",
          "castRangeXZY": {
            "castRangeXZMax": 5.0,
            "castRangeYMax": 0.5
          }
        },
        "cd": 8.0,
        "cdUpperRange": 5.0,
        "initialCD": 1.0,
        "initialCDUpperRange": 4.0,
        "publicCDGroup": "",
        "HHAGODJIAPE": "",
        "stateIDs": ["NormalAtk"],
        "skillQueryingTime": 3.0,
        "flagTargetReachable": "11",
        "flagSelfOnTemplateCollider": "01",
        "flagSelfInZone": "10",
        "flagTargetInZone": "11"
      },
      "301": {
        "name": "ChestAtk",
        "combatSkillType": "MeleeAttack",
        "priority": 2,
        "castCondition": {
          "pose": [201],
          "pickRangeMin": 5.0,
          "pickRangeMax": 12.5,
          "castRangeType": "RangeXZ_Y",
          "castRangeXZY": {
            "castRangeXZMin": 5.0,
            "castRangeXZMax": 12.5,
            "castRangeYMin": 0.5
          }
        },
        "cd": 7.5,
        "cdUpperRange": 5.0,
        "initialCD": 4.0,
        "initialCDUpperRange": 4.0,
        "publicCDGroup": "",
        "HHAGODJIAPE": "",
        "stateIDs": ["ChestAtk"],
        "skillQueryingTime": 3.0,
        "flagTargetReachable": "11",
        "flagSelfOnTemplateCollider": "01",
        "flagSelfInZone": "10",
        "flagTargetInZone": "11"
      },
      "302": {
        "name": "ChestAtk",
        "combatSkillType": "MeleeAttack",
        "priority": 2,
        "castCondition": {
          "pose": [201],
          "pickRangeMin": 12.5,
          "pickRangeMax": 25.5,
          "castRangeMin": 12.5,
          "castRangeMax": 25.5
        },
        "cd": 7.5,
        "cdUpperRange": 5.0,
        "initialCD": 1.0,
        "initialCDUpperRange": 4.0,
        "publicCDGroup": "",
        "HHAGODJIAPE": "",
        "stateIDs": ["ChestAtk"],
        "skillQueryingTime": 3.0,
        "flagTargetReachable": "11",
        "flagSelfOnTemplateCollider": "01",
        "flagSelfInZone": "10",
        "flagTargetInZone": "11"
      },
      "401": {
        "name": "WingAtk",
        "combatSkillType": "MeleeAttack",
        "priority": 3,
        "castCondition": {
          "pose": [201],
          "pickRangeMax": 10.5,
          "castRangeType": "RangeXZ_Y",
          "castRangeXZY": {
            "castRangeXZMax": 10.5
          }
        },
        "cd": 8.0,
        "cdUpperRange": 5.0,
        "initialCD": 3.0,
        "initialCDUpperRange": 4.0,
        "publicCDGroup": "",
        "HHAGODJIAPE": "",
        "stateIDs": ["WingAtk"],
        "skillQueryingTime": 3.0,
        "flagTargetReachable": "11",
        "flagSelfOnTemplateCollider": "01",
        "flagSelfInZone": "10",
        "flagTargetInZone": "11"
      },
      "402": {
        "name": "WingAtk",
        "combatSkillType": "MeleeAttack",
        "priority": 2,
        "castCondition": {
          "pose": [201],
          "pickRangeMin": 10.5,
          "pickRangeMax": 17.5,
          "castRangeType": "RangeXZ_Y",
          "castRangeXZY": {
            "castRangeXZMin": 10.5,
            "castRangeXZMax": 17.5
          }
        },
        "cd": 5.0,
        "cdUpperRange": 5.0,
        "initialCD": 3.0,
        "initialCDUpperRange": 4.0,
        "publicCDGroup": "",
        "HHAGODJIAPE": "",
        "stateIDs": ["WingAtk"],
        "skillQueryingTime": 3.0,
        "flagTargetReachable": "11",
        "flagSelfOnTemplateCollider": "01",
        "flagSelfInZone": "10",
        "flagTargetInZone": "11"
      },
      "501": {
        "name": "ElementAtk",
        "combatSkillType": "MeleeAttack",
        "priority": 2,
        "castCondition": {
          "pose": [301]
        },
        "cd": 99999.0,
        "cdUpperRange": 1.0,
        "initialCD": 1.0,
        "initialCDUpperRange": 1.0,
        "publicCDGroup": "",
        "triggerCDOnFail": false,
        "HHAGODJIAPE": "",
        "stateIDs": ["ElementAtk"],
        "skillQueryingTime": 3.0,
        "flagTargetReachable": "11",
        "flagSelfOnTemplateCollider": "01",
        "flagSelfInZone": "11",
        "flagTargetInZone": "11"
      }
    },
    "skillGCD": 3.5,
    "birdCirclingTactic": [
      {
        "$type": "NNJKLGNPMNN",
        "enable": true,
        "JMCOBEPDIGM": {
          "ACOBCFCMBOC": "Spacial",
          "MNPDDAKDHGK": "",
          "GJDMDHIBCME": ""
        }
      },
      {
        "$type": "DGNJLJKOKEE",
        "enable": true,
        "condition": {
          "pose": [201]
        },
        "JMCOBEPDIGM": {
          "HJODGEKLAAK": 0.0,
          "CFBKFJKHEEH": 1.0,
          "MNPDDAKDHGK": ""
        }
      },
      {
        "$type": "EPPOBBAEPED",
        "enable": true,
        "condition": {
          "pose": [201]
        },
        "JMCOBEPDIGM": {
          "FAKGFIDPCFL": 20.0,
          "GHCEDMEHKLN": 10.0,
          "ONFAMCFCNFM": 0.0,
          "KLODEFMNFIC": 2.0,
          "MNPDDAKDHGK": "",
          "GJDMDHIBCME": ""
        }
      },
      {
        "$type": "MNBBAPLOENP",
        "enable": true,
        "condition": {
          "pose": [201]
        },
        "JMCOBEPDIGM": {
          "GOMIFCDDDLF": 1.0,
          "JOJBOHEDBHC": 5.0,
          "AFILKAGDAHN": 7.5,
          "ALIBHHJHHMN": 1.0,
          "OMHBOLPFEPM": 3.0,
          "BJIEHJIOICI": 3.0,
          "FPNBEHAAJOL": {
            "IDEFILBHNAP": 0.0,
            "FKIEIIJAPEH": 0.20000000298023224,
            "OJLPFPNFMDJ": 0.0,
            "JFBDDDBIHDE": 0.0,
            "EHLPOCLAEFO": 0.0,
            "APHHENPJNLO": 0.0,
            "AKMJKEIJEHM": 5.0,
            "PELOBMPBAJF": 12.0,
            "BLOIJOGPILM": 5.0,
            "GNFCHLHAPNI": 12.0,
            "CLDDLKFCODO": 4.0,
            "EHAGCHIFFHA": 4.0,
            "DDIPMLEHIJP": 0.5,
            "PIJHGEOHOOO": 0.0,
            "OCMLCHDANPJ": 2.0
          },
          "MNPDDAKDHGK": "",
          "GJDMDHIBCME": ""
        }
      },
      {
        "$type": "HMHOIHCBIOJ",
        "enable": true,
        "condition": {
          "pose": [101]
        },
        "JMCOBEPDIGM": {
          "KPNDPKIOPJM": 10.0,
          "PINAFKEDDLL": 5.0,
          "HIGLILIOAHE": 0.30000001192092896,
          "AMIIPPJEIPM": 1.0,
          "ANMPOPEBDIA": 12.0,
          "GMJFIMFFOEL": 4.0,
          "CHCPFDMADEI": 12.5,
          "MNPDDAKDHGK": "",
          "GJDMDHIBCME": ""
        }
      }
    ]
  },
  "inputKeys": [
    {
      "keyID": 102,
      "inputKeyCode": 257,
      "abilityName": ""
    },
    {
      "keyID": 201,
      "inputKeyCode": 258,
      "abilityName": ""
    },
    {
      "keyID": 301,
      "inputKeyCode": 259,
      "abilityName": ""
    },
    {
      "keyID": 401,
      "inputKeyCode": 260,
      "abilityName": ""
    },
    {
      "keyID": 501,
      "inputKeyCode": 261,
      "abilityName": ""
    }
  ],
  "move": {
    "$type": "IPNMJMHDMPF",
    "velocityForce": {
      "excludeForces": ["RetreatAirType", "WindZoneType", "AirflowType"]
    },
    "handleCombatTaskImmediately": true,
    "facingMove": "AirBlend",
    "airFacingMove": "AirBlend",
    "monsterSizeType": "SlimeType",
    "yawSpeedRatio": 2.0,
    "PKHOMJHFAEE": "RootNode"
  },
  "audio": {
    "overrideEmitterName": "",
    "animAudio": {
      "onTransitionIn": [
        {
          "currentStateName": "",
          "audioEvent": {
            "text": ""
          }
        }
      ],
      "onTransitionOut": [
        {
          "currentStateName": "",
          "audioEvent": {
            "text": ""
          }
        }
      ]
    }
  }
}
