{
  "common": {
    "effectAttachShape": {
      "$type": "FJNPJANPGGC",
      "mesh": "EffectMesh"
    },
    "mass": 30.0,
    "height": 1.2999999523162842,
    "modelHeight": 0.949999988079071,
    "affectedByWorld": true,
    "checkInSurface": true,
    "scale": 1.399999976158142,
    "clearAnimatorOnSetLightDeactive": true,
    "clearAIOnSetLightDeactive": true
  },
  "headControl": {
    "$type": "KPIPDEBDPIH",
    "useHeadControl": true,
    "maxYawDegree": 45.0,
    "maxPitchDegree": 10.0,
    "animStates": [
      "NormalIdle/Standby",
      "NormalMove/WalkForward",
      "NormalMove/MoveForward",
      "Run/RunForward",
      "Run/RunBack",
      "Run/RunLeft",
      "Run/RunRight",
      "Turn/TurnLeft",
      "Turn/TurnRight",
      "SurroundTurn/WalkLToR",
      "SurroundTurn/WalkRToL"
    ]
  },
  "model": {
    "bornEffect": "Eff_Monster_Common_Born",
    "attachEffect": "",
    "canBakeMesh": false,
    "BKPFGNPLDNJ": ""
  },
  "combat": {
    "property": {
      "endureType": "Monster_Grunt_Other",
      "weight": 100.0
    },
    "beHit": {
      "hitBloodEffect": ""
    },
    "combatLock": {
      "lockShape": "CircleLockEnemy",
      "lockType": "Avatar&Monster_Lv4"
    },
    "die": {
      "hasAnimatorDie": true,
      "dieEndTime": 0.4000000059604645,
      "dieForceDisappearTime": 0.4000000059604645,
      "dieDisappearEffect": "Eff_Death_Abyss_Common",
      "dieShaderData": "MonsterDie",
      "muteHitBox": true,
      "dieDenyLockOn": true,
      "dieIsGhostToEnemy": true,
      "dieIgnoreTriggerBullet": true,
      "muteBillboard": true,
      "mutePushCollider": true
    },
    "animEvents": {
      "WavePawR": {
        "attackPattern": {
          "$type": "ConfigAttackCircle",
          "triggerType": "TriggerNoRepeat",
          "born": {
            "$type": "ConfigBornBySelf",
            "offset": {
              "x": 0.0,
              "y": -0.30000001192092896,
              "z": 0.75
            },
            "direction": {
              "$type": "ConfigDirectionByDefault",
              "angleOffset": {
                "x": 0.0,
                "y": 35.0,
                "z": 0.0
              }
            }
          },
          "height": 1.7999999523162842,
          "fanAngle": 200.0,
          "radius": 2.0
        },
        "attackInfo": {
          "attackTag": "Hound_Corruption_Tag",
          "attenuationTag": "",
          "attenuationGroup": "default",
          "attackProperty": {
            "actorGrassSubHurtDelta": 0.6499999761581421,
            "actorWindSubHurtDelta": 0.0,
            "elementType": "Electric",
            "elementDurability": 25.0,
            "strikeType": "Default",
            "enBreak": 1.0,
            "GLKMCMDJBIK": 0.0
          },
          "hitPattern": {
            "onHitEffectName": "Eff_Monster_Riftstalker_Hit",
            "hitImpulseY": "",
            "hitImpulseType": "LV2",
            "hitHaltTimeScale": 0.05000000074505806
          }
        }
      },
      "WavePawL": {
        "attackPattern": {
          "$type": "ConfigAttackCircle",
          "triggerType": "TriggerNoRepeat",
          "born": {
            "$type": "ConfigBornBySelf",
            "offset": {
              "x": 0.0,
              "y": -0.30000001192092896,
              "z": 0.75
            },
            "direction": {
              "$type": "ConfigDirectionByDefault",
              "angleOffset": {
                "x": 0.0,
                "y": -70.0,
                "z": 0.0
              }
            }
          },
          "height": 1.7999999523162842,
          "fanAngle": 220.0,
          "radius": 2.0
        },
        "attackInfo": {
          "attackTag": "Hound_Corruption_Tag",
          "attenuationTag": "",
          "attenuationGroup": "default",
          "attackProperty": {
            "actorGrassSubHurtDelta": 0.6499999761581421,
            "actorWindSubHurtDelta": 0.0,
            "elementType": "Electric",
            "elementDurability": 25.0,
            "strikeType": "Default",
            "enBreak": 1.0,
            "GLKMCMDJBIK": 0.0
          },
          "hitPattern": {
            "onHitEffectName": "Eff_Monster_Riftstalker_Hit",
            "hitImpulseY": "",
            "hitImpulseType": "LV2",
            "hitHaltTimeScale": 0.05000000074505806
          }
        }
      },
      "Biting": {
        "attackPattern": {
          "$type": "ConfigAttackBox",
          "triggerType": "TriggerNoRepeat",
          "born": {
            "$type": "ConfigBornBySelf",
            "offset": {
              "x": 0.0,
              "y": 0.8999999761581421,
              "z": -0.5
            }
          },
          "size": {
            "x": 1.600000023841858,
            "y": 1.600000023841858,
            "z": 4.199999809265137
          }
        },
        "attackInfo": {
          "attackTag": "Hound_Corruption_Tag",
          "attenuationTag": "",
          "attenuationGroup": "default",
          "attackProperty": {
            "actorGrassSubHurtDelta": 0.8500000238418579,
            "actorWindSubHurtDelta": 0.0,
            "elementType": "Electric",
            "elementDurability": 100.0,
            "strikeType": "Blunt",
            "enBreak": 1.0,
            "attackType": "Melee",
            "GLKMCMDJBIK": 0.0
          },
          "hitPattern": {
            "onHitEffectName": "Eff_Monster_Riftstalker_Hit",
            "hitImpulseY": "",
            "hitImpulseType": "LV2"
          },
          "forceCameraShake": true,
          "cameraShake": {
            "shakeType": "HitVector"
          }
        }
      }
    }
  },
  "abilities": [
    {
      "abilityID": "",
      "abilityName": "Monster_Hound_Kanis_Electric_Pose",
      "abilityOverride": ""
    },
    {
      "abilityID": "",
      "abilityName": "Monster_Hound_Kanis_Electric_EyeEff_Add",
      "abilityOverride": ""
    },
    {
      "abilityID": "",
      "abilityName": "Monster_Hound_Kanis_Electric_EyeEff_Remove",
      "abilityOverride": ""
    },
    {
      "abilityID": "",
      "abilityName": "Monster_Hound_Kanis_Electric_Steer",
      "abilityOverride": ""
    },
    {
      "abilityID": "",
      "abilityName": "Monster_Hound_Kanis_Biting",
      "abilityOverride": ""
    },
    {
      "abilityID": "",
      "abilityName": "Monster_Hound_Kanis_WavePaw",
      "abilityOverride": ""
    },
    {
      "abilityID": "",
      "abilityName": "Monster_Hound_Kanis_Electric_Strike_State",
      "abilityOverride": ""
    },
    {
      "abilityID": "",
      "abilityName": "Monster_Hound_Kanis_Electric_Strike_FindBlinkPoint",
      "abilityOverride": ""
    },
    {
      "abilityID": "",
      "abilityName": "Monster_Hound_Kanis_Electric_Strike_DoBlink",
      "abilityOverride": ""
    },
    {
      "abilityID": "",
      "abilityName": "Monster_Hound_Kanis_Electric_Strike_Attack",
      "abilityOverride": ""
    },
    {
      "abilityID": "",
      "abilityName": "Monster_Hound_Kanis_Electric_Biting",
      "abilityOverride": ""
    },
    {
      "abilityID": "",
      "abilityName": "Monster_Hound_Kanis_Electric_Acitvated",
      "abilityOverride": ""
    },
    {
      "abilityID": "",
      "abilityName": "Monster_Hound_Corruption_LoseHP",
      "abilityOverride": ""
    },
    {
      "abilityID": "",
      "abilityName": "Monster_Hound_Kanis_KanisTag",
      "abilityOverride": ""
    },
    {
      "abilityID": "",
      "abilityName": "Monster_Hound_Kanis_ExitBattle",
      "abilityOverride": ""
    }
  ],
  "stateLayers": {
    "defaultLayer": {
      "$type": "GBGJJIIEMBD",
      "layerIndexName": "",
      "CPAANEIJCGD": "",
      "stateIDs": {
        "NormalIdle": {
          "$type": "NEDIFAKEGCO",
          "animatorStates": {
            "Standby": [],
            "Born": []
          },
          "canDoSkill": true,
          "canSyncMove": true,
          "resetAnimatorTriggerOnExit": ["DoSkill"],
          "canSteer": true,
          "autoSteer": true
        },
        "Run": {
          "$type": "NEDIFAKEGCO",
          "animatorStates": {
            "RunForward": [],
            "RunBack": [],
            "RunRight": [],
            "RunLeft": []
          },
          "canDoSkill": true,
          "canSyncMove": true,
          "resetAnimatorTriggerOnExit": ["DoSkill"],
          "canSteer": true
        },
        "NormalMove": {
          "$type": "NEDIFAKEGCO",
          "animatorStates": {
            "WalkForward": [],
            "MoveForward": []
          },
          "canDoSkill": true,
          "canSyncMove": true,
          "resetAnimatorTriggerOnExit": ["DoSkill"],
          "canSteer": true
        },
        "Turn": {
          "$type": "NEDIFAKEGCO",
          "animatorStates": {
            "TurnLeft": [],
            "TurnRight": []
          },
          "canDoSkill": true,
          "canSyncMove": true,
          "resetAnimatorTriggerOnExit": ["DoSkill"],
          "canSteer": true
        },
        "SurroundTurn": {
          "$type": "NEDIFAKEGCO",
          "animatorStates": {
            "WalkLToR": [],
            "WalkRToL": []
          },
          "canSyncMove": true,
          "resetAnimatorTriggerOnExit": ["DoSkill"],
          "canSteer": true,
          "followAnimRotation": true
        },
        "BeHit": {
          "$type": "NEDIFAKEGCO",
          "animatorStates": {
            "Hit_L": ["Audio_Monster_Hound_Kanis_Hit_L"],
            "Hit_H": ["Audio_Monster_Hound_Kanis_Hit_H"]
          },
          "resetAnimatorTriggerOnEnter": ["BeHit"],
          "resetAnimatorTriggerOnExit": ["DoSkill"]
        },
        "BeHitThrow": {
          "$type": "NEDIFAKEGCO",
          "animatorStates": {
            "HitThrow": ["Audio_Monster_Hound_Kanis_Hit_H"],
            "HitThrowDrop": [],
            "HitThrowToGround": ["Audio_Monster_Hound_Kanis_HitToGround"]
          },
          "resetAnimatorTriggerOnEnter": ["BeHit", "HitAir2HitDrop"],
          "resetAnimatorTriggerOnExit": ["DoSkill"]
        },
        "Die": {
          "$type": "NEDIFAKEGCO",
          "animatorStates": {
            "Die": ["Audio_Monster_Hound_Kanis_Die"]
          }
        },
        "Alert": {
          "$type": "NEDIFAKEGCO",
          "animatorStates": {
            "Alert": ["Audio_Monster_Hound_Kanis_Alert"]
          },
          "resetAnimatorTriggerOnExit": ["BeHit", "DoSkill"]
        },
        "WavePaw": {
          "$type": "NEDIFAKEGCO",
          "animatorStates": {
            "WavePaw": [
              "Monster_Hound_Kanis_Electric_WavePaw",
              "Audio_Monster_Hound_Kanis_WavePaw"
            ]
          },
          "canSyncMove": true,
          "resetAnimatorTriggerOnExit": ["BeHit", "DoSkill"],
          "canSteer": true
        },
        "Strike_BS": {
          "$type": "NEDIFAKEGCO",
          "animatorStates": {
            "Strike_BS": ["Audio_Monster_Hound_Kanis_Strike_BS"]
          },
          "resetAnimatorTriggerOnExit": ["BeHit", "DoSkill"],
          "canSteer": true
        },
        "Strike_Loop": {
          "$type": "NEDIFAKEGCO",
          "animatorStates": {
            "Strike_Loop": []
          },
          "canSyncMove": true,
          "resetAnimatorTriggerOnExit": ["BeHit", "DoSkill"],
          "canSteer": true
        },
        "Strike_AS": {
          "$type": "NEDIFAKEGCO",
          "animatorStates": {
            "Strike_AS": [
              "Monster_Hound_Kanis_Electric_Strike_AS",
              "Audio_Monster_Hound_Kanis_Strike_AS"
            ]
          },
          "resetAnimatorTriggerOnExit": ["BeHit", "DoSkill"],
          "canSteer": true
        },
        "Biting_BS": {
          "$type": "NEDIFAKEGCO",
          "animatorStates": {
            "Biting_BS": ["Audio_Monster_Hound_Kanis_Biting_BS"]
          },
          "resetAnimatorTriggerOnExit": ["BeHit", "DoSkill"],
          "canSteer": true
        },
        "Biting": {
          "$type": "NEDIFAKEGCO",
          "animatorStates": {
            "Biting": [
              "Monster_Hound_Kanis_Electric_Biting",
              "Audio_Monster_Hound_Kanis_Biting"
            ]
          },
          "resetAnimatorTriggerOnExit": ["BeHit", "DoSkill"],
          "canSteer": true
        },
        "Biting_AS": {
          "$type": "NEDIFAKEGCO",
          "animatorStates": {
            "Biting_AS": []
          },
          "resetAnimatorTriggerOnExit": ["BeHit", "DoSkill"],
          "canSteer": true
        },
        "JumpBack_BS": {
          "$type": "NEDIFAKEGCO",
          "animatorStates": {
            "JumpBack_BS": ["Audio_Monster_Hound_Kanis_JumpBack_BS"]
          },
          "resetAnimatorTriggerOnExit": ["BeHit", "DoSkill"],
          "canSteer": true
        },
        "JumpBack_AS": {
          "$type": "NEDIFAKEGCO",
          "animatorStates": {
            "JumpBack_AS": []
          },
          "resetAnimatorTriggerOnExit": ["BeHit", "DoSkill"],
          "canSteer": true
        },
        "Activated": {
          "$type": "NEDIFAKEGCO",
          "animatorStates": {
            "Activated": [
              "Monster_Hound_Kanis_Electric_Activated",
              "Audio_Monster_Hound_Kanis_Activated"
            ]
          },
          "resetAnimatorTriggerOnExit": ["BeHit", "DoSkill"]
        },
        "Alert_Crystallization_01": {
          "$type": "NEDIFAKEGCO",
          "animatorStates": {
            "Alert_Crystallization_01": []
          },
          "cullingModelAlwaysAnimate": true,
          "resetAnimatorTriggerOnEnter": ["BeHit"],
          "resetAnimatorTriggerOnExit": ["DoSkill"]
        },
        "Alert_Crystallization_02": {
          "$type": "NEDIFAKEGCO",
          "animatorStates": {
            "Alert_Crystallization_02": []
          },
          "cullingModelAlwaysAnimate": true,
          "resetAnimatorTriggerOnEnter": ["BeHit"],
          "resetAnimatorTriggerOnExit": ["DoSkill"]
        }
      }
    }
  },
  "billboard": {
    "$type": "DNGNMAJBCNP",
    "attachPoint": "BillboardAttach",
    "offsetType": "Character",
    "radiusOffset": 0.25,
    "showHPBar": true
  },
  "initialPoses": {
    "Default": {
      "initialPoseID": 101
    },
    "Crystallization_01": {
      "initialPoseID": 111,
      "initialPoseParams": {
        "boolParams": {
          "Crystallization_01": "true"
        }
      }
    },
    "Crystallization_02": {
      "initialPoseID": 112,
      "initialPoseParams": {
        "boolParams": {
          "Crystallization_02": "true"
        }
      }
    }
  },
  "aibeta": {
    "enable": true,
    "sensing": {
      "settings": {
        "DefaultSetting": {
          "feelRange": 20.0
        },
        "Crystallization": {
          "enableVision": false,
          "hearAttractionRange": 0.0,
          "feelRange": 0.0
        },
        "NeverCombat": {
          "enableVision": false,
          "hearAttractionRange": 0.0,
          "feelRange": 0.0
        }
      },
      "templates": {
        "DefaultTemplate": {
          "DefaultPoses": "DefaultSetting"
        },
        "NeverCombatTemplate": {
          "DefaultPoses": "NeverCombat",
          "111": "NeverCombat",
          "112": "NeverCombat"
        }
      }
    },
    "neurons": {
      "DefaultSetting": ["HIT"],
      "NeverCombat": []
    },
    "threat": {
      "GHIJMOKOLMB": "",
      "clearThreatByLostPath": true,
      "clearThreatTimerByDistance": 5.0,
      "viewAttenuation": [
        {
          "x": 10.0,
          "y": 2.0
        },
        {
          "x": 15.0,
          "y": 1.2000000476837158
        },
        {
          "x": 20.0,
          "y": 0.800000011920929
        },
        {
          "x": 25.0,
          "y": 0.5
        },
        {
          "x": 30.0,
          "y": 0.30000001192092896
        }
      ]
    },
    "defendArea": {
      "defendRange": 50.0
    },
    "profiling": {
      "staticPoses": [111, 112]
    },
    "skillGroupCDConfigs": [
      {
        "skillGroupCDID": 1,
        "skillGroupCDTime": 5.0
      },
      {
        "skillGroupCDID": 2,
        "skillGroupCDTime": 15.0
      },
      {
        "skillGroupCDID": 3,
        "skillGroupCDTime": 10.0
      }
    ],
    "skillSetting": {
      "skillEliteSet": {
        "0": [101, 301, 302, 303, 304],
        "1": [102, 403],
        "2": [101, 403]
      }
    },
    "skills": {
      "101": {
        "name": "OnAlert",
        "skillType": "OnAlert",
        "faceTarget": true,
        "castCondition": {
          "pose": [101]
        },
        "publicCDGroup": "",
        "ignoreGCD": true,
        "triggerGCD": false,
        "HHAGODJIAPE": "",
        "stateIDs": ["Alert"],
        "skillQueryingTime": 3.0,
        "flagTargetReachable": "10",
        "flagSelfOnTemplateCollider": "01",
        "flagSelfInZone": "10",
        "flagTargetInZone": "11"
      },
      "102": {
        "name": "OnAlert",
        "skillType": "OnAlert",
        "castCondition": {
          "pose": [101]
        },
        "publicCDGroup": "",
        "ignoreGCD": true,
        "triggerGCD": false,
        "HHAGODJIAPE": "",
        "stateIDs": ["Alert"],
        "skillQueryingTime": 3.0,
        "flagTargetReachable": "10",
        "flagSelfOnTemplateCollider": "01",
        "flagSelfInZone": "10",
        "flagTargetInZone": "11"
      },
      "111": {
        "name": "OnAlert",
        "skillType": "OnAlert",
        "castCondition": {
          "pose": [111]
        },
        "publicCDGroup": "",
        "triggerGCD": false,
        "HHAGODJIAPE": "",
        "stateIDs": ["Alert_Crystallization_01"],
        "skillQueryingTime": 3.0,
        "flagTargetReachable": "10",
        "flagSelfOnTemplateCollider": "01",
        "flagSelfInZone": "10",
        "flagTargetInZone": "11"
      },
      "112": {
        "name": "OnAlert",
        "skillType": "OnAlert",
        "castCondition": {
          "pose": [112]
        },
        "publicCDGroup": "",
        "triggerGCD": false,
        "HHAGODJIAPE": "",
        "stateIDs": ["Alert_Crystallization_02"],
        "skillQueryingTime": 3.0,
        "flagTargetReachable": "10",
        "flagSelfOnTemplateCollider": "01",
        "flagSelfInZone": "10",
        "flagTargetInZone": "11"
      },
      "201": {
        "name": "WavePaw",
        "priority": 2,
        "faceTarget": true,
        "enableSkillPrepare": true,
        "castCondition": {
          "pose": [201],
          "pickRangeMin": 0.25,
          "pickRangeMax": 3.25,
          "pickRangeYMax": 3.0,
          "castRangeMax": 3.0
        },
        "cd": 7.5,
        "cdUpperRange": 1.0,
        "publicCDGroup": "",
        "HHAGODJIAPE": "",
        "stateIDs": ["WavePaw"],
        "flagTargetReachable": "10",
        "flagSelfOnTemplateCollider": "01",
        "flagSelfInZone": "10",
        "flagTargetInZone": "11"
      },
      "202": {
        "name": "WavePaw",
        "priority": 2,
        "faceTarget": true,
        "enableSkillPrepare": true,
        "castCondition": {
          "pose": [401],
          "pickRangeMin": 0.25,
          "pickRangeMax": 3.25,
          "pickRangeYMax": 3.0,
          "castRangeMax": 3.0
        },
        "cd": 5.5,
        "cdUpperRange": 2.0,
        "publicCDGroup": "",
        "HHAGODJIAPE": "",
        "stateIDs": ["WavePaw"],
        "flagTargetReachable": "10",
        "flagSelfOnTemplateCollider": "01",
        "flagSelfInZone": "10",
        "flagTargetInZone": "11"
      },
      "301": {
        "name": "Strike",
        "priority": 2,
        "castCondition": {
          "pose": [201],
          "maxTargetAngleY": 30.0,
          "pickRangeMin": 3.5,
          "pickRangeMax": 14.5,
          "pickRangeYMax": 5.5
        },
        "cd": 15.5,
        "cdUpperRange": 2.0,
        "initialCD": 3.0,
        "initialCDUpperRange": 5.0,
        "publicCDGroup": "",
        "skillGroupCDID": 2,
        "HHAGODJIAPE": "",
        "stateIDs": ["Strike_BS", "Strike_Loop", "Strike_AS"],
        "flagTargetReachable": "11",
        "flagSelfOnTemplateCollider": "01",
        "flagSelfInZone": "10",
        "flagTargetInZone": "10"
      },
      "302": {
        "name": "Strike",
        "priority": 2,
        "castCondition": {
          "pose": [401],
          "maxTargetAngleY": 30.0,
          "pickRangeMin": 3.5,
          "pickRangeMax": 14.5,
          "pickRangeYMax": 5.5
        },
        "cd": 10.5,
        "cdUpperRange": 2.0,
        "initialCD": 3.0,
        "initialCDUpperRange": 5.0,
        "publicCDGroup": "",
        "skillGroupCDID": 3,
        "HHAGODJIAPE": "",
        "stateIDs": ["Strike_BS", "Strike_Loop", "Strike_AS"],
        "flagTargetReachable": "11",
        "flagSelfOnTemplateCollider": "01",
        "flagSelfInZone": "10",
        "flagTargetInZone": "10"
      },
      "303": {
        "name": "Strike",
        "priority": 1,
        "castCondition": {
          "pose": [201, 401],
          "maxTargetAngleY": 30.0,
          "pickRangeMin": 18.5,
          "pickRangeMax": 25.0,
          "pickRangeYMax": 5.5
        },
        "cd": 20.5,
        "cdUpperRange": 5.0,
        "initialCD": 3.0,
        "initialCDUpperRange": 7.5,
        "publicCDGroup": "",
        "skillGroupCDID": 2,
        "HHAGODJIAPE": "",
        "stateIDs": ["Strike_BS", "Strike_Loop", "Strike_AS"],
        "flagTargetReachable": "11",
        "flagSelfOnTemplateCollider": "01",
        "flagSelfInZone": "10",
        "flagTargetInZone": "10"
      },
      "304": {
        "name": "Strike",
        "priority": 1,
        "castCondition": {
          "pose": [201, 401],
          "maxTargetAngleY": 30.0,
          "pickRangeMin": 1.5,
          "pickRangeMax": 20.0,
          "pickRangeYMax": 5.5
        },
        "cd": 999999.0,
        "initialCD": 2.0,
        "initialCDUpperRange": 3.0,
        "publicCDGroup": "",
        "HHAGODJIAPE": "",
        "stateIDs": ["Strike_BS", "Strike_Loop", "Strike_AS"],
        "flagTargetReachable": "11",
        "flagSelfOnTemplateCollider": "01",
        "flagSelfInZone": "10",
        "flagTargetInZone": "10"
      },
      "401": {
        "name": "Biting",
        "priority": 2,
        "faceTarget": true,
        "castCondition": {
          "pose": [201],
          "pickRangeMax": 5.5,
          "pickRangeYMax": 3.0,
          "castRangeMax": 5.5
        },
        "cd": 7.5,
        "cdUpperRange": 2.0,
        "publicCDGroup": "",
        "HHAGODJIAPE": "",
        "stateIDs": ["Biting_BS", "Biting", "Biting_AS"],
        "flagTargetReachable": "11",
        "flagSelfOnTemplateCollider": "01",
        "flagSelfInZone": "11",
        "flagTargetInZone": "11"
      },
      "402": {
        "name": "Biting",
        "priority": 2,
        "faceTarget": true,
        "castCondition": {
          "pose": [401],
          "pickRangeMax": 5.5,
          "pickRangeYMax": 3.0,
          "castRangeMax": 5.5
        },
        "cd": 5.5,
        "cdUpperRange": 2.0,
        "publicCDGroup": "",
        "HHAGODJIAPE": "",
        "stateIDs": ["Biting_BS", "Biting", "Biting_AS"],
        "flagTargetReachable": "11",
        "flagSelfOnTemplateCollider": "01",
        "flagSelfInZone": "11",
        "flagTargetInZone": "11"
      },
      "403": {
        "name": "Biting",
        "priority": 4,
        "faceTarget": true,
        "enableSkillPrepare": true,
        "skillPrepareTimeout": 2.0,
        "castCondition": {
          "pose": [201, 401],
          "pickRangeMax": 9.0,
          "pickRangeYMax": 3.0,
          "castRangeMax": 5.5
        },
        "cd": 3.5,
        "cdUpperRange": 2.0,
        "publicCDGroup": "",
        "HHAGODJIAPE": "",
        "stateIDs": ["Biting_BS", "Biting", "Biting_AS"],
        "flagTargetReachable": "11",
        "flagSelfOnTemplateCollider": "01",
        "flagSelfInZone": "11",
        "flagTargetInZone": "11"
      },
      "601": {
        "name": "Activated",
        "castCondition": {
          "pose": [301]
        },
        "cd": 999999.0,
        "publicCDGroup": "",
        "ignoreGCD": true,
        "triggerGCD": false,
        "triggerCDOnStart": true,
        "triggerCDOnFail": false,
        "HHAGODJIAPE": "",
        "stateIDs": ["Activated"],
        "flagTargetReachable": "10",
        "flagSelfOnTemplateCollider": "11",
        "flagSelfInZone": "11",
        "flagTargetInZone": "11"
      }
    },
    "birdCirclingTactic": [
      {
        "$type": "KACCHOLJDNK",
        "enable": true,
        "condition": {
          "pose": [201, 401]
        },
        "JMCOBEPDIGM": {
          "KHDFDAAAPEI": 7.5,
          "HKJODDGJPHA": 50.0,
          "GGEBMFHFBPO": 5.0,
          "KFFGCIMPNMJ": 0.0,
          "PKNJDNAGLNM": 0,
          "MNPDDAKDHGK": ""
        }
      },
      {
        "$type": "NNJKLGNPMNN",
        "enable": true,
        "JMCOBEPDIGM": {
          "MNPDDAKDHGK": "",
          "GJDMDHIBCME": ""
        }
      },
      {
        "$type": "FPELBIJFGCE",
        "enable": true,
        "condition": {
          "pose": [101]
        },
        "JMCOBEPDIGM": {
          "KPNDPKIOPJM": 5.0,
          "PINAFKEDDLL": 2.0,
          "ANMPOPEBDIA": 15.0,
          "GMJFIMFFOEL": 5.0,
          "CHCPFDMADEI": 7.5,
          "MNPDDAKDHGK": ""
        }
      }
    ]
  },
  "inputKeys": [
    {
      "keyID": 101,
      "inputKeyCode": 257,
      "abilityName": ""
    },
    {
      "keyID": 201,
      "inputKeyCode": 258,
      "abilityName": ""
    },
    {
      "keyID": 301,
      "inputKeyCode": 259,
      "abilityName": ""
    },
    {
      "keyID": 401,
      "inputKeyCode": 260,
      "abilityName": ""
    },
    {
      "keyID": 501,
      "inputKeyCode": 261,
      "abilityName": ""
    },
    {
      "keyID": 601,
      "inputKeyCode": 262,
      "abilityName": ""
    }
  ],
  "move": {
    "$type": "IPNMJMHDMPF",
    "handleCombatTaskImmediately": true,
    "moveOnWater": true,
    "facingMove": "ForwardBackward",
    "monsterSizeType": "SlimeType",
    "yawSpeedRatio": 2.0,
    "PKHOMJHFAEE": "RootNode"
  },
  "audio": {
    "overrideEmitterName": "",
    "animAudio": {
      "onTransitionIn": [
        {
          "currentStateName": "OutOfBuild",
          "audioEvent": {
            "text": "Stop_sfx_monster_hili_build"
          }
        },
        {
          "currentStateName": "Alert",
          "audioEvent": {
            "text": "Stop_sfx_monster_hili_build"
          }
        },
        {
          "currentStateName": "BeHit",
          "audioEvent": {
            "text": "Stop_sfx_monster_hili_build"
          }
        },
        {
          "currentStateName": "Die",
          "audioEvent": {
            "text": "Stop_sfx_monster_hili_build"
          }
        },
        {
          "currentStateName": "Die1",
          "audioEvent": {
            "text": "Stop_sfx_monster_hili_build"
          }
        },
        {
          "currentStateName": "Die2",
          "audioEvent": {
            "text": "Stop_sfx_monster_hili_build"
          }
        },
        {
          "currentStateName": "OutOfMake",
          "audioEvent": {
            "text": "Stop_sfx_monster_hili_build"
          }
        },
        {
          "currentStateName": "Practice_Sword_Back",
          "audioEvent": {
            "text": "Play_sfx_monster_hili_practice_back"
          }
        },
        {
          "currentStateName": "Practice_NoWeapon_Back",
          "audioEvent": {
            "text": "Play_sfx_monster_hili_practice_back"
          }
        },
        {
          "currentStateName": "Practice_Shoot_Aim",
          "audioEvent": {
            "text": "Play_sfx_monster_hili_practice_shoot_aim"
          }
        },
        {
          "currentStateName": "Dance",
          "audioEvent": {
            "text": "Play_sfx_monster_hili_dance"
          }
        },
        {
          "currentStateName": "OutOfDance",
          "audioEvent": {
            "text": "Stop_sfx_monster_hili_dance"
          }
        },
        {
          "currentStateName": "SurroundFree01_Club",
          "audioEvent": {
            "text": "Play_sfx_monster_hili_dance"
          }
        },
        {
          "currentStateName": "SurroundFree01_NoWeapon",
          "audioEvent": {
            "text": "Play_sfx_monster_hili_dance"
          }
        },
        {
          "currentStateName": "OutOfSurround",
          "audioEvent": {
            "text": "Stop_sfx_monster_hili_dance"
          }
        },
        {
          "currentStateName": "Alert",
          "audioEvent": {
            "text": "Stop_sfx_monster_hili_dance"
          }
        },
        {
          "currentStateName": "BeHit",
          "audioEvent": {
            "text": "Stop_sfx_monster_hili_dance"
          }
        },
        {
          "currentStateName": "Die",
          "audioEvent": {
            "text": "Stop_sfx_monster_hili_dance"
          }
        },
        {
          "currentStateName": "Die1",
          "audioEvent": {
            "text": "Stop_sfx_monster_hili_dance"
          }
        },
        {
          "currentStateName": "Die2",
          "audioEvent": {
            "text": "Stop_sfx_monster_hili_dance"
          }
        },
        {
          "currentStateName": "ThreatFree01_NoWeapon",
          "audioEvent": {
            "text": "Play_sfx_monster_hili_dance"
          }
        },
        {
          "currentStateName": "ThreatFree02_NoWeapon",
          "audioEvent": {
            "text": "Play_sfx_monster_hili_dance"
          }
        },
        {
          "currentStateName": "ThreatFree01_Club",
          "audioEvent": {
            "text": "Play_sfx_monster_hili_dance"
          }
        },
        {
          "currentStateName": "ThreatFree02_Club",
          "audioEvent": {
            "text": "Play_sfx_monster_hili_dance"
          }
        },
        {
          "currentStateName": "OutOfThreat",
          "audioEvent": {
            "text": "Stop_sfx_monster_hili_dance"
          }
        }
      ],
      "onTransitionOut": [
        {
          "currentStateName": "BombCreate",
          "audioEvent": {
            "text": "Stop_sfx_monster_hili_build"
          }
        },
        {
          "currentStateName": "Make",
          "audioEvent": {
            "text": "Stop_sfx_monster_hili_build"
          }
        },
        {
          "currentStateName": "Build",
          "audioEvent": {
            "text": "Stop_sfx_monster_hili_build"
          }
        },
        {
          "currentStateName": "Practice_Sword",
          "audioEvent": {
            "text": "Stop_sfx_monster_hili_practice_sword"
          }
        },
        {
          "currentStateName": "Practice_NoWeapon",
          "audioEvent": {
            "text": "Stop_sfx_monster_hili_practice_sword"
          }
        },
        {
          "currentStateName": "Practice_Sword_Back",
          "audioEvent": {
            "text": "Stop_sfx_monster_hili_practice_back"
          }
        },
        {
          "currentStateName": "Practice_NoWeapon_Back",
          "audioEvent": {
            "text": "Stop_sfx_monster_hili_practice_back"
          }
        },
        {
          "currentStateName": "Practice_Shoot_Aim",
          "audioEvent": {
            "text": "Stop_sfx_monster_hili_practice_shoot_aim"
          },
          "otherStateNames": ["Practice_Shoot_Attack"],
          "usage": "Except"
        },
        {
          "currentStateName": "Practice_Shoot_Attack",
          "audioEvent": {
            "text": "Stop_sfx_monster_hili_practice_shoot_aim"
          }
        },
        {
          "currentStateName": "Dance",
          "audioEvent": {
            "text": "Stop_sfx_monster_hili_dance"
          }
        },
        {
          "currentStateName": "SurroundFree01_Club",
          "audioEvent": {
            "text": "Stop_sfx_monster_hili_dance"
          }
        },
        {
          "currentStateName": "SurroundFree01_NoWeapon",
          "audioEvent": {
            "text": "Stop_sfx_monster_hili_dance"
          }
        },
        {
          "currentStateName": "ThreatFree01_NoWeapon",
          "audioEvent": {
            "text": "Stop_sfx_monster_hili_dance"
          }
        },
        {
          "currentStateName": "ThreatFree02_NoWeapon",
          "audioEvent": {
            "text": "Stop_sfx_monster_hili_dance"
          }
        },
        {
          "currentStateName": "ThreatFree01_Club",
          "audioEvent": {
            "text": "Stop_sfx_monster_hili_dance"
          }
        },
        {
          "currentStateName": "ThreatFree02_Club",
          "audioEvent": {
            "text": "Stop_sfx_monster_hili_dance"
          }
        }
      ]
    },
    "disableEvent": {
      "text": "Stop_sfx_monster_hili_dance"
    },
    "destroyEvent": {
      "text": "Stop_sfx_monster_hili_dance"
    }
  }
}
