{
  "common": {
    "effectAttachShape": {
      "$type": "FJNPJANPGGC",
      "mesh": "EffectMesh"
    },
    "mass": 10000.0,
    "height": 5.0,
    "modelHeight": 4.0,
    "viewSize": 1.5,
    "affectedByWorld": true,
    "checkInSurface": true,
    "scale": 1.2000000476837158,
    "shouldPauseAnimatorBeforeReady": true,
    "useGrassDisplacement": true,
    "reconnectSupport": true,
    "recoverByInitPose": true
  },
  "headControl": {
    "$type": "KPIPDEBDPIH",
    "useHeadControl": true,
    "maxYawDegree": 90.0,
    "maxPitchDegree": 0.0,
    "speed": 0.5,
    "animStates": ["NormalMove/Walk", "NormalIdle/Standby", "NormalMove/Run"]
  },
  "model": {
    "bornEffect": "Eff_Monster_Common_Born",
    "attachEffect": "",
    "canBakeMesh": false,
    "BKPFGNPLDNJ": ""
  },
  "dither": {
    "showDitherDuration": 2.0
  },
  "combat": {
    "property": {
      "endureType": "Monster_Boss_Other",
      "weight": 300.0
    },
    "beHit": {
      "hitBloodEffect": ""
    },
    "combatLock": {
      "lockShape": "CircleLockEnemy",
      "lockType": "Avatar&Monster_Lv4"
    },
    "die": {
      "hasAnimatorDie": true,
      "dieEndTime": 1.5,
      "dieForceDisappearTime": 3.0,
      "dieDisappearEffect": "Eff_Death_Common",
      "dieShaderData": "MonsterDie",
      "useRagDoll": true,
      "muteHitBox": true,
      "dieDenyLockOn": true,
      "dieIsGhostToEnemy": true,
      "dieIgnoreTriggerBullet": true,
      "muteBillboard": true,
      "mutePushCollider": true
    },
    "animEvents": {
      "NormalAtk01_01": {
        "attackPattern": {
          "$type": "ConfigAttackCircle",
          "triggerType": "TriggerNoRepeat",
          "born": {
            "$type": "ConfigBornBySelf",
            "offset": {
              "x": 0.0,
              "y": 0.0,
              "z": 2.5
            }
          },
          "height": 1.25,
          "radius": 1.5
        },
        "attackInfo": {
          "attackTag": "",
          "attenuationTag": "",
          "attenuationGroup": "default",
          "attackProperty": {
            "actorGrassSubHurtDelta": 0.3499999940395355,
            "actorWindSubHurtDelta": 0.0,
            "elementDurability": 100.0,
            "strikeType": "Slash",
            "enBreak": 100.0,
            "attackType": "Melee",
            "GLKMCMDJBIK": 0.0
          },
          "hitPattern": {
            "onHitEffectName": "",
            "hitImpulseY": "",
            "hitImpulseType": "LV3"
          }
        }
      },
      "NormalAtk01_02": {
        "attackPattern": {
          "$type": "ConfigAttackCircle",
          "triggerType": "TriggerNoRepeat",
          "born": {
            "$type": "ConfigBornBySelf",
            "offset": {
              "x": 0.0,
              "y": 0.0,
              "z": 2.5
            }
          },
          "height": 1.25,
          "radius": 1.5
        },
        "attackInfo": {
          "attackTag": "",
          "attenuationTag": "",
          "attenuationGroup": "default",
          "attackProperty": {
            "actorGrassSubHurtDelta": 0.3499999940395355,
            "actorWindSubHurtDelta": 0.0,
            "elementDurability": 100.0,
            "strikeType": "Slash",
            "enBreak": 100.0,
            "attackType": "Melee",
            "GLKMCMDJBIK": 0.0
          },
          "hitPattern": {
            "onHitEffectName": "",
            "hitImpulseY": "",
            "hitImpulseType": "LV3"
          }
        }
      },
      "NormalAtk01_03": {
        "attackPattern": {
          "$type": "ConfigAttackCircle",
          "triggerType": "TriggerNoRepeat",
          "born": {
            "$type": "ConfigBornBySelf",
            "offset": {
              "x": 0.0,
              "y": 0.0,
              "z": 3.0
            },
            "onGround": true
          },
          "height": 1.25,
          "radius": 2.5
        },
        "attackInfo": {
          "attackTag": "",
          "attenuationTag": "",
          "attenuationGroup": "default",
          "attackProperty": {
            "actorGrassSubHurtDelta": 0.800000011920929,
            "actorWindSubHurtDelta": 0.0,
            "elementDurability": 100.0,
            "strikeType": "Slash",
            "enBreak": 100.0,
            "attackType": "Melee",
            "GLKMCMDJBIK": 0.0
          },
          "hitPattern": {
            "onHitEffectName": "",
            "hitImpulseY": "",
            "hitImpulseType": "LV4"
          },
          "forceCameraShake": true,
          "cameraShake": {
            "shakeRange": 0.10000000149011612,
            "shakeTime": 0.10000000149011612
          }
        }
      },
      "Ousia_NormalAttack01_01": {
        "attackPattern": {
          "$type": "ConfigAttackCircle",
          "triggerType": "TriggerNoRepeat",
          "born": {
            "$type": "ConfigBornBySelf",
            "offset": {
              "x": 0.0,
              "y": 0.0,
              "z": 3.5
            },
            "onGround": true
          },
          "height": 1.25,
          "radius": 3.0
        },
        "attackInfo": {
          "attackTag": "",
          "attenuationTag": "",
          "attenuationGroup": "default",
          "attackProperty": {
            "actorGrassSubHurtDelta": 0.800000011920929,
            "actorWindSubHurtDelta": 0.0,
            "elementDurability": 100.0,
            "strikeType": "Slash",
            "enBreak": 100.0,
            "attackType": "Melee",
            "GLKMCMDJBIK": 0.0
          },
          "hitPattern": {
            "onHitEffectName": "",
            "hitImpulseY": "",
            "hitImpulseType": "LV4"
          },
          "forceCameraShake": true,
          "cameraShake": {
            "shakeRange": 0.10000000149011612,
            "shakeTime": 0.10000000149011612
          }
        }
      },
      "Ousia_NormalAttack01_Loop": {
        "attackPattern": {
          "$type": "ConfigAttackSphere",
          "triggerType": "TriggerNoRepeat",
          "born": {
            "$type": "ConfigBornByAttachPoint",
            "offset": {
              "x": 0.0,
              "y": 0.0,
              "z": 0.0
            },
            "useRotation": true,
            "attachPointName": "SawCore"
          },
          "radius": 1.0
        },
        "attackInfo": {
          "attackTag": "",
          "attenuationTag": "",
          "attenuationGroup": "default",
          "attackProperty": {
            "actorGrassSubHurtDelta": 0.10000000149011612,
            "actorWindSubHurtDelta": 0.0,
            "elementType": "Fire",
            "elementDurability": 25.0,
            "strikeType": "Slash",
            "enBreak": 100.0,
            "attackType": "Melee",
            "GLKMCMDJBIK": 0.0
          },
          "hitPattern": {
            "onHitEffectName": "",
            "hitImpulseY": "",
            "hitImpulseType": "LV2"
          },
          "forceCameraShake": true,
          "cameraShake": {
            "shakeRange": 0.10000000149011612,
            "shakeTime": 0.10000000149011612
          }
        }
      },
      "Ousia_NormalAttack01_02": {
        "attackPattern": {
          "$type": "ConfigAttackCircle",
          "triggerType": "TriggerNoRepeat",
          "born": {
            "$type": "ConfigBornBySelf",
            "offset": {
              "x": 0.0,
              "y": 0.0,
              "z": 3.5
            },
            "onGround": true
          },
          "height": 1.25,
          "radius": 3.0
        },
        "attackInfo": {
          "attackTag": "",
          "attenuationTag": "",
          "attenuationGroup": "default",
          "attackProperty": {
            "actorGrassSubHurtDelta": 0.800000011920929,
            "actorWindSubHurtDelta": 0.0,
            "elementDurability": 100.0,
            "strikeType": "Slash",
            "enBreak": 100.0,
            "attackType": "Melee",
            "GLKMCMDJBIK": 0.0
          },
          "hitPattern": {
            "onHitEffectName": "",
            "hitImpulseY": "",
            "hitImpulseType": "LV4"
          },
          "forceCameraShake": true,
          "cameraShake": {
            "shakeRange": 0.10000000149011612,
            "shakeTime": 0.10000000149011612
          }
        }
      },
      "Ousia_MeleeAttack01_01": {
        "attackPattern": {
          "$type": "ConfigAttackCircle",
          "triggerType": "TriggerNoRepeat",
          "born": {
            "$type": "ConfigBornBySelf",
            "offset": {
              "x": 0.0,
              "y": 0.0,
              "z": 0.0
            },
            "onGround": true
          },
          "height": 1.25,
          "radius": 6.0
        },
        "attackInfo": {
          "attackTag": "",
          "attenuationTag": "",
          "attenuationGroup": "default",
          "attackProperty": {
            "actorGrassSubHurtDelta": 0.800000011920929,
            "actorWindSubHurtDelta": 0.0,
            "elementDurability": 100.0,
            "strikeType": "Slash",
            "enBreak": 100.0,
            "attackType": "Melee",
            "GLKMCMDJBIK": 0.0
          },
          "hitPattern": {
            "onHitEffectName": "",
            "hitImpulseY": "",
            "hitImpulseType": "LV4"
          },
          "forceCameraShake": true,
          "cameraShake": {
            "shakeRange": 0.10000000149011612,
            "shakeTime": 0.10000000149011612
          }
        }
      },
      "Ousia_MeleeAttack01_02": {
        "attackPattern": {
          "$type": "ConfigAttackCircle",
          "triggerType": "TriggerNoRepeat",
          "born": {
            "$type": "ConfigBornBySelf",
            "offset": {
              "x": 0.0,
              "y": 0.0,
              "z": 0.0
            },
            "onGround": true
          },
          "height": 1.25,
          "radius": 6.0
        },
        "attackInfo": {
          "attackTag": "",
          "attenuationTag": "",
          "attenuationGroup": "default",
          "attackProperty": {
            "actorGrassSubHurtDelta": 0.800000011920929,
            "actorWindSubHurtDelta": 0.0,
            "elementDurability": 100.0,
            "strikeType": "Slash",
            "enBreak": 100.0,
            "attackType": "Melee",
            "GLKMCMDJBIK": 0.0
          },
          "hitPattern": {
            "onHitEffectName": "",
            "hitImpulseY": "",
            "hitImpulseType": "LV4"
          },
          "forceCameraShake": true,
          "cameraShake": {
            "shakeRange": 0.10000000149011612,
            "shakeTime": 0.10000000149011612
          }
        }
      }
    }
  },
  "equipController": {
    "sheathPoint": "",
    "attachPoints": {
      "equip01": "GrabAttachPoint"
    }
  },
  "abilities": [
    {
      "abilityID": "",
      "abilityName": "Monster_MachinaIustitia_Excavator_HitSpecial",
      "abilityOverride": ""
    },
    {
      "abilityID": "",
      "abilityName": "Monster_MachinaIustitia_Excavator_Pose",
      "abilityOverride": ""
    },
    {
      "abilityID": "",
      "abilityName": "Monster_MachinaIustitia_Excavator_RepairPose",
      "abilityOverride": ""
    },
    {
      "abilityID": "",
      "abilityName": "Monster_MachinaIustitia_CoilHanler",
      "abilityOverride": ""
    },
    {
      "abilityID": "",
      "abilityName": "Monster_MachinaIustitia_Excavator_ReturnToBorn",
      "abilityOverride": ""
    },
    {
      "abilityID": "",
      "abilityName": "Monster_MachinaIustitia_Excavator_Alert",
      "abilityOverride": ""
    },
    {
      "abilityID": "",
      "abilityName": "Monster_MachinaIustitia_Excavator_Steer",
      "abilityOverride": ""
    },
    {
      "abilityID": "",
      "abilityName": "Monster_MachinaIustitia_Excavator_Freeze",
      "abilityOverride": ""
    },
    {
      "abilityID": "",
      "abilityName": "Monster_MachinaIustitia_Excavator_Move_Effect",
      "abilityOverride": ""
    },
    {
      "abilityID": "",
      "abilityName": "Monster_MachinaIustitia_Excavator_CoilEffect",
      "abilityOverride": ""
    },
    {
      "abilityID": "",
      "abilityName": "Monster_MachinaIustitia_Recover_Effect_Ousia_Coil02",
      "abilityOverride": ""
    },
    {
      "abilityID": "",
      "abilityName": "Monster_MachinaIustitia_Recover_Effect_Pneuma_Coil02",
      "abilityOverride": ""
    },
    {
      "abilityID": "",
      "abilityName": "Monster_MachinaIustitia_Excavator_RangeAttack01",
      "abilityOverride": ""
    },
    {
      "abilityID": "",
      "abilityName": "Monster_MachinaIustitia_Excavator_NormalAttack01_L_Damage",
      "abilityOverride": ""
    },
    {
      "abilityID": "",
      "abilityName": "Monster_MachinaIustitia_Excavator_NormalAttack01_R_Damage",
      "abilityOverride": ""
    },
    {
      "abilityID": "",
      "abilityName": "Monster_MachinaIustitia_Excavator_NormalAttack01_All_Damage",
      "abilityOverride": ""
    },
    {
      "abilityID": "",
      "abilityName": "Monster_MachinaIustitia_Excavator_Pneuma_RangeAttack01",
      "abilityOverride": ""
    },
    {
      "abilityID": "",
      "abilityName": "Monster_MachinaIustitia_Excavator_Pneuma_RangeAttack01_PartControlOpen",
      "abilityOverride": ""
    },
    {
      "abilityID": "",
      "abilityName": "Monster_MachinaIustitia_Excavator_Pneuma_RangeAttack01_PartControlClosed",
      "abilityOverride": ""
    },
    {
      "abilityID": "",
      "abilityName": "Monster_MachinaIustitia_Excavator_Pneuma_NormalAttack01",
      "abilityOverride": ""
    },
    {
      "abilityID": "",
      "abilityName": "Monster_MachinaIustitia_Excavator_Pneuma_NormalAttack01_Damage_Handler",
      "abilityOverride": ""
    },
    {
      "abilityID": "",
      "abilityName": "Monster_MachinaIustitia_Excavator_Grab_Unload",
      "abilityOverride": ""
    },
    {
      "abilityID": "",
      "abilityName": "Monster_MachinaIustitia_Excavator_Grab_RandomValue",
      "abilityOverride": ""
    },
    {
      "abilityID": "",
      "abilityName": "Monster_MachinaIustitia_Excavator_Grab_Obj",
      "abilityOverride": ""
    },
    {
      "abilityID": "",
      "abilityName": "Monster_MachinaIustitia_Excavator_Recover_Ousia",
      "abilityOverride": ""
    },
    {
      "abilityID": "",
      "abilityName": "Monster_MachinaIustitia_Excavator_Recover_Pneuma",
      "abilityOverride": ""
    },
    {
      "abilityID": "",
      "abilityName": "Monster_MachinaIustitia_Excavator_RecoverEffect_Pneuma",
      "abilityOverride": ""
    },
    {
      "abilityID": "",
      "abilityName": "Monster_MachinaIustitia_Excavator_RecoverEffect_Ousia",
      "abilityOverride": ""
    }
  ],
  "stateLayers": {
    "defaultLayer": {
      "$type": "GBGJJIIEMBD",
      "layerIndexName": "",
      "CPAANEIJCGD": "",
      "stateIDs": {
        "NormalIdle": {
          "$type": "NEDIFAKEGCO",
          "animatorStates": {
            "Standby": [],
            "Born": []
          },
          "canDoSkill": true,
          "canSyncMove": true,
          "cullingModelAlwaysAnimate": true,
          "resetAnimatorTriggerOnExit": ["DoSkill"]
        },
        "NormalMove": {
          "$type": "NEDIFAKEGCO",
          "animatorStates": {
            "Walk": [],
            "Run": []
          },
          "canDoSkill": true,
          "canSyncMove": true,
          "cullingModelAlwaysAnimate": true,
          "resetAnimatorTriggerOnExit": ["DoSkill"],
          "canSteer": true
        },
        "SurroundTurn": {
          "$type": "NEDIFAKEGCO",
          "animatorStates": {
            "WalkLToR": [],
            "WalkRToL": []
          },
          "cullingModelAlwaysAnimate": true,
          "resetAnimatorTriggerOnExit": ["DoSkill"],
          "handleAnimatorStateImmediately": true,
          "canSteer": true,
          "followAnimRotation": true
        },
        "Turn": {
          "$type": "NEDIFAKEGCO",
          "animatorStates": {
            "TurnRight": [],
            "TurnLeft": []
          },
          "cullingModelAlwaysAnimate": true,
          "resetAnimatorTriggerOnExit": ["DoSkill"],
          "handleAnimatorStateImmediately": true,
          "canSteer": true,
          "followAnimRotation": true
        },
        "HitSpecial": {
          "$type": "NEDIFAKEGCO",
          "animatorStates": {
            "HitSpecial_Ousia": [
              "Audio_Monster_MachinaIustitia_Excavator_01_HitSpecial_Ousia"
            ],
            "HitSpecial_Pneuma": [
              "Audio_Monster_MachinaIustitia_Excavator_01_HitSpecial_Pneuma"
            ]
          },
          "resetAnimatorTriggerOnEnter": ["BeHit", "HitSpecialTrigger"],
          "resetAnimatorTriggerOnExit": ["DoSkill", "HitSpecialTrigger"]
        },
        "Die": {
          "$type": "NEDIFAKEGCO",
          "animatorStates": {
            "Die": ["Audio_Monster_MachinaIustitia_Excavator_01_Die"]
          },
          "resetAnimatorTriggerOnEnter": ["DoSkill"]
        },
        "Die_RagDoll": {
          "$type": "NEDIFAKEGCO",
          "animatorStates": {
            "Die_RagDoll": []
          },
          "resetAnimatorTriggerOnEnter": ["DoSkill"],
          "enableRagDoll": true
        },
        "PneumaActivate": {
          "$type": "NEDIFAKEGCO",
          "animatorStates": {
            "PneumaActivate": [
              "Monster_MachinaIustitia_Excavator_ReCover_Pneuma",
              "Audio_Monster_MachinaIustitia_Excavator_01_PneumaActivate"
            ]
          },
          "addEndure": 0.0,
          "resetAnimatorTriggerOnExit": ["BeHit", "DoSkill"]
        },
        "Grab": {
          "$type": "NEDIFAKEGCO",
          "animatorStates": {
            "Grab": [
              "Monster_MachinaIustitia_Excavator_Grab_Unload",
              "Audio_Monster_MachinaIustitia_Excavator_01_Grab"
            ]
          },
          "canDoSkill": true,
          "cullingModelAlwaysAnimate": true,
          "resetAnimatorTriggerOnExit": ["BeHit", "DoSkill"],
          "handleAnimatorStateImmediately": true,
          "canSteer": true,
          "followAnimRotation": true
        },
        "Pneuma_Alert": {
          "$type": "NEDIFAKEGCO",
          "animatorStates": {
            "Pneuma_Alert": [
              "Monster_MachinaIustitia_Excavator_Alert",
              "Audio_Monster_MachinaIustitia_Excavator_01_Pneuma_Alert"
            ]
          },
          "canDoSkill": true,
          "cullingModelAlwaysAnimate": true,
          "resetAnimatorTriggerOnExit": ["BeHit", "DoSkill"],
          "canSteer": true
        },
        "Ousia_Alert": {
          "$type": "NEDIFAKEGCO",
          "animatorStates": {
            "Ousia_Alert": [
              "Monster_MachinaIustitia_Excavator_Alert",
              "Audio_Monster_MachinaIustitia_Excavator_01_Ousia_Alert"
            ]
          },
          "canDoSkill": true,
          "cullingModelAlwaysAnimate": true,
          "resetAnimatorTriggerOnExit": ["BeHit", "DoSkill"],
          "canSteer": true
        },
        "Alert": {
          "$type": "NEDIFAKEGCO",
          "animatorStates": {
            "Alert": ["Monster_MachinaIustitia_Excavator_Alert"]
          },
          "canDoSkill": true,
          "cullingModelAlwaysAnimate": true,
          "resetAnimatorTriggerOnExit": ["BeHit", "DoSkill"],
          "canSteer": true
        },
        "NormalAttack01_BS": {
          "$type": "NEDIFAKEGCO",
          "animatorStates": {
            "NormalAttack01_BS": [
              "Monster_MachinaIustitia_Excavator_NormalAtk01_BS",
              "Audio_Monster_MachinaIustitia_Excavator_01_NormalAttack01_BS"
            ]
          },
          "cullingModelAlwaysAnimate": true,
          "resetAnimatorTriggerOnExit": ["BeHit", "DoSkill"]
        },
        "NormalAttack02_BS": {
          "$type": "NEDIFAKEGCO",
          "animatorStates": {
            "NormalAttack02_BS": [
              "Monster_MachinaIustitia_Excavator_NormalAtk01_BS",
              "Audio_Monster_MachinaIustitia_Excavator_01_NormalAttack01_BS"
            ]
          },
          "cullingModelAlwaysAnimate": true,
          "resetAnimatorTriggerOnExit": ["BeHit", "DoSkill"]
        },
        "NormalAttack01_Loop": {
          "$type": "NEDIFAKEGCO",
          "animatorStates": {
            "NormalAttack01_Loop": [
              "Monster_MachinaIustitia_Excavator_NormalAtk01_Loop",
              "Audio_Monster_MachinaIustitia_Excavator_01_NormalAttack01_Loop"
            ]
          },
          "cullingModelAlwaysAnimate": true,
          "resetAnimatorTriggerOnExit": ["BeHit", "DoSkill"]
        },
        "NormalAttack01_AS": {
          "$type": "NEDIFAKEGCO",
          "animatorStates": {
            "NormalAttack01_AS": [
              "Monster_MachinaIustitia_Excavator_NormalAtk01_AS",
              "Audio_Monster_MachinaIustitia_Excavator_01_NormalAttack01_AS"
            ]
          },
          "cullingModelAlwaysAnimate": true,
          "resetAnimatorTriggerOnExit": ["BeHit", "DoSkill"]
        },
        "NormalAttack02_AS": {
          "$type": "NEDIFAKEGCO",
          "animatorStates": {
            "NormalAttack02_AS": [
              "Monster_MachinaIustitia_Excavator_NormalAtk01_AS",
              "Audio_Monster_MachinaIustitia_Excavator_01_NormalAttack01_AS"
            ]
          },
          "cullingModelAlwaysAnimate": true,
          "resetAnimatorTriggerOnExit": ["BeHit", "DoSkill"]
        },
        "RangeAttack01": {
          "$type": "NEDIFAKEGCO",
          "animatorStates": {
            "RangeAttack01": [
              "Monster_MachinaIustitia_Excavator_RangeAttack01",
              "Audio_Monster_MachinaIustitia_Excavator_01_RangeAttack01"
            ]
          },
          "cullingModelAlwaysAnimate": true,
          "resetAnimatorTriggerOnExit": ["BeHit", "DoSkill"]
        },
        "Pneuma_NormalAttack01": {
          "$type": "NEDIFAKEGCO",
          "animatorStates": {
            "Pneuma_NormalAttack01": [
              "Monster_MachinaIustitia_Excavator_Pneuma_NormalAttack01",
              "Audio_Monster_MachinaIustitia_Excavator_01_Pneuma_NormalAttack01"
            ]
          },
          "cullingModelAlwaysAnimate": true,
          "resetAnimatorTriggerOnExit": ["BeHit", "DoSkill"]
        },
        "Pneuma_RangeAttack01_BS": {
          "$type": "NEDIFAKEGCO",
          "animatorStates": {
            "Pneuma_RangeAttack01_BS": [
              "Monster_MachinaIustitia_Excavator_Pneuma_RangeAttack01_BS",
              "Audio_Monster_MachinaIustitia_Excavator_01_Pneuma_RangeAttack01_BS"
            ]
          },
          "cullingModelAlwaysAnimate": true,
          "resetAnimatorTriggerOnExit": ["BeHit", "DoSkill"]
        },
        "Pneuma_RangeAttack01_Loop": {
          "$type": "NEDIFAKEGCO",
          "animatorStates": {
            "Pneuma_RangeAttack01_Loop": [
              "Monster_MachinaIustitia_Excavator_Pneuma_RangeAttack01_Loop"
            ]
          },
          "cullingModelAlwaysAnimate": true,
          "resetAnimatorTriggerOnExit": ["BeHit", "DoSkill"]
        },
        "Pneuma_RangeAttack01_AS": {
          "$type": "NEDIFAKEGCO",
          "animatorStates": {
            "Pneuma_RangeAttack01_AS": [
              "Monster_MachinaIustitia_Excavator_Pneuma_RangeAttack01_AS",
              "Audio_Monster_MachinaIustitia_Excavator_01_Pneuma_RangeAttack01_AS"
            ]
          },
          "cullingModelAlwaysAnimate": true,
          "resetAnimatorTriggerOnExit": ["BeHit", "DoSkill"]
        }
      }
    }
  },
  "partControl": {
    "parts": [
      {
        "$type": "INCPGKCDCIO",
        "angularSpeed": 3250.0,
        "partRootName": "GatlinControl",
        "forwardBy": "NamedTransform",
        "rotateBy": "ForwardTransLocal",
        "doOnUnEabled": "RotateToForward",
        "forwardByTransName": "GatlinControl01",
        "limitHorizontal": 29.0,
        "limitVertical": 5.0,
        "defaultEnable": false,
        "KEAJBDBGBJE": true
      }
    ]
  },
  "billboard": {
    "$type": "DNGNMAJBCNP",
    "attachPoint": "BillboardAttach",
    "offset": {
      "y": -0.5
    },
    "offsetType": "Character",
    "radiusOffset": 1.0,
    "enableSelfAdapt": true,
    "showHPBar": true,
    "size": "Big"
  },
  "initialPoses": {
    "Default": {
      "initialPoseID": 1
    },
    "Pneuma": {
      "initialPoseID": 21
    },
    "Ousia": {
      "initialPoseID": 11
    },
    "Grab": {
      "initialPoseID": 9001,
      "initialPoseParams": {
        "intParams": {
          "FreePoseMark": "9001"
        }
      }
    },
    "Plough": {
      "initialPoseID": 9002,
      "initialPoseParams": {
        "intParams": {
          "FreePoseMark": "9002"
        }
      }
    },
    "Plough_Move": {
      "initialPoseID": 9003,
      "initialPoseParams": {
        "intParams": {
          "FreePoseMark": "9003"
        }
      }
    }
  },
  "aibeta": {
    "enable": true,
    "buddySetting": {
      "enable": true,
      "buddyFeatureTagIDs": [4025]
    },
    "sensing": {
      "settings": {
        "DefaultSetting": {
          "viewRange": 6.0,
          "feelRange": 3.0
        },
        "Work": {
          "enableVision": false,
          "viewRange": 0.0,
          "feelRange": 0.0
        }
      },
      "templates": {
        "DefaultTemplate": {
          "DefaultPoses": "DefaultSetting"
        },
        "WorkTemplate": {
          "DefaultPoses": "Work"
        }
      }
    },
    "neurons": {
      "DefaultSetting": ["HIT"]
    },
    "threat": {
      "GHIJMOKOLMB": "",
      "clearThreatByLostPath": true,
      "clearThreatTimerByLostPath": 15.0,
      "viewAttenuation": [
        {
          "x": 10.0,
          "y": 2.0
        },
        {
          "x": 15.0,
          "y": 0.800000011920929
        },
        {
          "x": 20.0,
          "y": 0.5
        },
        {
          "x": 25.0,
          "y": 0.30000001192092896
        },
        {
          "x": 30.0,
          "y": 0.20000000298023224
        }
      ],
      "resistTauntLevel": "Monster_TauntLevel_3"
    },
    "defendArea": {
      "defendRange": 50.0
    },
    "profiling": {},
    "skillGroupCDConfigs": [
      {
        "skillGroupCDID": 1,
        "skillGroupCDTime": 1.0
      },
      {
        "skillGroupCDID": 2,
        "skillGroupCDTime": 2.0
      },
      {
        "skillGroupCDID": 3,
        "skillGroupCDTime": 3.0
      },
      {
        "skillGroupCDID": 5,
        "skillGroupCDTime": 15.0
      }
    ],
    "skillSetting": {},
    "skills": {
      "101": {
        "name": "Alert",
        "skillType": "OnAlert",
        "castCondition": {
          "pose": [1, 11, 21]
        },
        "publicCDGroup": "",
        "ignoreGCD": true,
        "triggerGCD": false,
        "HHAGODJIAPE": "",
        "stateIDs": ["Alert"],
        "flagTargetReachable": "10",
        "flagSelfOnTemplateCollider": "01",
        "flagSelfInZone": "10",
        "flagTargetInZone": "11"
      },
      "111": {
        "name": "Ousia_Alert",
        "skillType": "OnAlert",
        "castCondition": {
          "pose": [201, 9002, 9003]
        },
        "publicCDGroup": "",
        "ignoreGCD": true,
        "triggerGCD": false,
        "HHAGODJIAPE": "",
        "stateIDs": ["Ousia_Alert"],
        "flagTargetReachable": "10",
        "flagSelfOnTemplateCollider": "01",
        "flagSelfInZone": "10",
        "flagTargetInZone": "11"
      },
      "121": {
        "name": "Pneuma_Alert",
        "skillType": "OnAlert",
        "castCondition": {
          "pose": [301, 9001]
        },
        "publicCDGroup": "",
        "ignoreGCD": true,
        "triggerGCD": false,
        "HHAGODJIAPE": "",
        "stateIDs": ["Pneuma_Alert"],
        "flagTargetReachable": "10",
        "flagSelfOnTemplateCollider": "01",
        "flagSelfInZone": "10",
        "flagTargetInZone": "11"
      },
      "201": {
        "name": "NormalAttack01",
        "combatSkillType": "MeleeAttack",
        "priority": 3,
        "castCondition": {
          "pose": [101],
          "pickRangeMax": 5.0
        },
        "cd": 3.0,
        "initialCD": 3.0,
        "initialCDUpperRange": 5.0,
        "publicCDGroup": "MachinaIustitia_Elite_MeleeAtk",
        "HHAGODJIAPE": "",
        "stateIDs": ["NormalAttack02_BS", "NormalAttack02_AS"],
        "flagTargetReachable": "11",
        "flagSelfOnTemplateCollider": "01",
        "flagSelfInZone": "11",
        "flagTargetInZone": "11"
      },
      "202": {
        "name": "NormalAttack02",
        "combatSkillType": "MeleeAttack",
        "priority": 3,
        "castCondition": {
          "pose": [101],
          "pickRangeMax": 8.0
        },
        "cd": 12.0,
        "initialCD": 7.0,
        "initialCDUpperRange": 3.0,
        "publicCDGroup": "MachinaIustitia_Elite_MeleeAtk",
        "HHAGODJIAPE": "",
        "stateIDs": [
          "NormalAttack01_BS",
          "NormalAttack01_Loop",
          "NormalAttack01_AS"
        ],
        "flagTargetReachable": "10",
        "flagSelfOnTemplateCollider": "01",
        "flagSelfInZone": "11",
        "flagTargetInZone": "11"
      },
      "211": {
        "name": "Rangeattack01",
        "combatSkillType": "RangedAttack",
        "priority": 2,
        "faceTarget": true,
        "castCondition": {
          "pose": [101],
          "pickRangeMin": 8.0,
          "pickRangeMax": 30.0
        },
        "cd": 4.0,
        "cdUpperRange": 3.0,
        "initialCD": 6.0,
        "initialCDUpperRange": 3.0,
        "publicCDGroup": "MachinaIustitia_Elite_RangeAtk",
        "HHAGODJIAPE": "",
        "stateIDs": ["RangeAttack01"],
        "flagTargetReachable": "11",
        "flagSelfOnTemplateCollider": "01",
        "flagSelfInZone": "11",
        "flagTargetInZone": "11"
      },
      "401": {
        "name": "Pneuma_NormalAttack01",
        "combatSkillType": "MeleeAttack",
        "priority": 3,
        "castCondition": {
          "pose": [301],
          "pickRangeMax": 6.0,
          "castRangeMax": 6.0
        },
        "cd": 2.0,
        "initialCD": 5.0,
        "publicCDGroup": "MachinaIustitia_Elite_MeleeAtk",
        "skillGroupCDID": 2,
        "HHAGODJIAPE": "",
        "stateIDs": ["Pneuma_NormalAttack01"],
        "flagTargetReachable": "11",
        "flagSelfOnTemplateCollider": "01",
        "flagSelfInZone": "11",
        "flagTargetInZone": "11"
      },
      "411": {
        "name": "Pneuma_RangeAttack01",
        "combatSkillType": "RangedAttack",
        "priority": 3,
        "castCondition": {
          "pose": [301],
          "pickRangeMax": 30.0
        },
        "cd": 3.0,
        "initialCD": 5.0,
        "publicCDGroup": "",
        "OHCPFFIDLGO": [
          "MachinaIustitia_Elite_MeleeAtk",
          "MachinaIustitia_Excavator_RangeAttack01"
        ],
        "skillGroupCDID": 2,
        "HHAGODJIAPE": "",
        "stateIDs": [
          "Pneuma_RangeAttack01_BS",
          "Pneuma_RangeAttack01_Loop",
          "Pneuma_RangeAttack01_AS"
        ],
        "flagTargetReachable": "11",
        "flagSelfOnTemplateCollider": "01",
        "flagSelfInZone": "11",
        "flagTargetInZone": "11"
      },
      "501": {
        "name": "Passive_Activate",
        "priority": 1,
        "castCondition": {
          "pose": [102]
        },
        "cd": 1.0,
        "initialCD": 1.0,
        "publicCDGroup": "",
        "ignoreGCD": true,
        "HHAGODJIAPE": "",
        "stateIDs": ["PneumaActivate"],
        "skillQueryingTime": 3.0,
        "flagTargetReachable": "11",
        "flagSelfOnTemplateCollider": "01",
        "flagSelfInZone": "11",
        "flagTargetInZone": "11"
      },
      "511": {
        "name": "Active_Activate",
        "priority": 1,
        "castCondition": {
          "pose": [101],
          "globalValues": ["_MACHINAIUSTITIA_SELFRECOVER_"],
          "globalValuesTargetType": "SELF"
        },
        "cd": 5.0,
        "initialCD": 1.0,
        "publicCDGroup": "",
        "HHAGODJIAPE": "",
        "stateIDs": ["PneumaActivate"],
        "skillQueryingTime": 3.0,
        "flagTargetReachable": "11",
        "flagSelfOnTemplateCollider": "01",
        "flagSelfInZone": "11",
        "flagTargetInZone": "11"
      },
      "9002": {
        "name": "Grab",
        "skillType": "Free",
        "castCondition": {
          "pose": [21]
        },
        "cd": 55.0,
        "initialCD": 15.0,
        "initialCDUpperRange": 10.0,
        "publicCDGroup": "",
        "HHAGODJIAPE": "",
        "stateIDs": ["Grab"],
        "flagTargetReachable": "10",
        "flagSelfOnTemplateCollider": "01",
        "flagSelfInZone": "11",
        "flagTargetInZone": "11"
      }
    },
    "skillGCD": 2.0,
    "birdCirclingTactic": [
      {
        "$type": "NNJKLGNPMNN",
        "enable": true,
        "JMCOBEPDIGM": {
          "MNPDDAKDHGK": "",
          "GJDMDHIBCME": ""
        }
      },
      {
        "$type": "KBADPEGBPKN",
        "enable": true,
        "condition": {
          "pose": [101, 201, 301]
        },
        "JMCOBEPDIGM": {
          "NBENNEKDIIA": 0.4000000059604645,
          "LEGOOCKKGNE": 0.0,
          "GACMJDCMLLA": 2.0,
          "OFPCELPELIG": ["SurroundTurn", "Turn"],
          "DHFKFHDMCPL": 2.5,
          "FPOLOLBBKEO": 3.0,
          "MNPDDAKDHGK": ""
        },
        "PIOCBHLFLJP": {
          "301": {
            "NBENNEKDIIA": 0.4000000059604645,
            "LEGOOCKKGNE": 0.0,
            "GACMJDCMLLA": 15.0,
            "OFPCELPELIG": ["SurroundTurn", "Turn"],
            "DHFKFHDMCPL": 2.5,
            "FPOLOLBBKEO": 3.0,
            "MNPDDAKDHGK": ""
          }
        }
      },
      {
        "$type": "FPELBIJFGCE",
        "enable": true,
        "condition": {
          "pose": [1, 11, 21]
        },
        "JMCOBEPDIGM": {
          "NBENNEKDIIA": 0.30000001192092896,
          "KPNDPKIOPJM": 5.0,
          "PINAFKEDDLL": 3.0,
          "ANMPOPEBDIA": 15.0,
          "GMJFIMFFOEL": 5.0,
          "MNPDDAKDHGK": ""
        }
      }
    ]
  },
  "inputKeys": [
    {
      "keyID": 201,
      "inputKeyCode": 257,
      "abilityName": ""
    },
    {
      "keyID": 202,
      "inputKeyCode": 258,
      "abilityName": ""
    },
    {
      "keyID": 211,
      "inputKeyCode": 259,
      "abilityName": ""
    },
    {
      "keyID": 301,
      "inputKeyCode": 260,
      "abilityName": ""
    },
    {
      "keyID": 311,
      "inputKeyCode": 261,
      "abilityName": ""
    },
    {
      "keyID": 321,
      "inputKeyCode": 262,
      "abilityName": ""
    },
    {
      "keyID": 401,
      "inputKeyCode": 263,
      "abilityName": ""
    },
    {
      "keyID": 411,
      "inputKeyCode": 264,
      "abilityName": ""
    }
  ],
  "move": {
    "$type": "IPNMJMHDMPF",
    "velocityForce": {
      "excludeForces": ["RetreatAirType"]
    },
    "yawSpeedRatio": 0.4000000059604645,
    "PKHOMJHFAEE": "RootNode"
  },
  "audio": {
    "overrideEmitterName": "",
    "animAudio": {
      "onTransitionIn": [
        {
          "currentStateName": "Pneuma_RangeAttack01_Loop",
          "audioEvent": {
            "text": "Play_Sfx_Monster_MachinaIustitia_Excavator_01_Pneuma_RangeAttack01_Loop_LP"
          },
          "otherStateNames": ["Pneuma_RangeAttack01_Loop"],
          "usage": "Except"
        },
        {
          "currentStateName": "Walk",
          "audioEvent": {
            "text": "Play_Sfx_Monster_MachinaIustitia_Excavator_01_Walk_LP"
          },
          "otherStateNames": [
            "Walk",
            "Run",
            "WalkLToR",
            "WalkRToL",
            "TurnLeft",
            "TurnRight"
          ],
          "usage": "Except"
        },
        {
          "currentStateName": "Run",
          "audioEvent": {
            "text": "Play_Sfx_Monster_MachinaIustitia_Excavator_01_Walk_LP"
          },
          "otherStateNames": [
            "Walk",
            "Run",
            "WalkLToR",
            "WalkRToL",
            "TurnLeft",
            "TurnRight"
          ],
          "usage": "Except"
        },
        {
          "currentStateName": "WalkLToR",
          "audioEvent": {
            "text": "Play_Sfx_Monster_MachinaIustitia_Excavator_01_Walk_LP"
          },
          "otherStateNames": [
            "Walk",
            "Run",
            "WalkLToR",
            "WalkRToL",
            "TurnLeft",
            "TurnRight"
          ],
          "usage": "Except"
        },
        {
          "currentStateName": "WalkRToL",
          "audioEvent": {
            "text": "Play_Sfx_Monster_MachinaIustitia_Excavator_01_Walk_LP"
          },
          "otherStateNames": [
            "Walk",
            "Run",
            "WalkLToR",
            "WalkRToL",
            "TurnLeft",
            "TurnRight"
          ],
          "usage": "Except"
        },
        {
          "currentStateName": "TurnLeft",
          "audioEvent": {
            "text": "Play_Sfx_Monster_MachinaIustitia_Excavator_01_Walk_LP"
          },
          "otherStateNames": [
            "Walk",
            "Run",
            "WalkLToR",
            "WalkRToL",
            "TurnLeft",
            "TurnRight"
          ],
          "usage": "Except"
        },
        {
          "currentStateName": "TurnRight",
          "audioEvent": {
            "text": "Play_Sfx_Monster_MachinaIustitia_Excavator_01_Walk_LP"
          },
          "otherStateNames": [
            "Walk",
            "Run",
            "WalkLToR",
            "WalkRToL",
            "TurnLeft",
            "TurnRight"
          ],
          "usage": "Except"
        }
      ],
      "onTransitionOut": [
        {
          "currentStateName": "Pneuma_RangeAttack01_Loop",
          "audioEvent": {
            "text": "Stop_Sfx_Monster_MachinaIustitia_Excavator_01_Pneuma_RangeAttack01_Loop_LP"
          },
          "otherStateNames": ["Pneuma_RangeAttack01_Loop"],
          "usage": "Except"
        },
        {
          "currentStateName": "Walk",
          "audioEvent": {
            "text": "Stop_Sfx_Monster_MachinaIustitia_Excavator_01_Walk_LP"
          },
          "otherStateNames": [
            "Walk",
            "Run",
            "WalkLToR",
            "WalkRToL",
            "TurnLeft",
            "TurnRight"
          ],
          "usage": "Except"
        },
        {
          "currentStateName": "Run",
          "audioEvent": {
            "text": "Stop_Sfx_Monster_MachinaIustitia_Excavator_01_Walk_LP"
          },
          "otherStateNames": [
            "Walk",
            "Run",
            "WalkLToR",
            "WalkRToL",
            "TurnLeft",
            "TurnRight"
          ],
          "usage": "Except"
        },
        {
          "currentStateName": "WalkLToR",
          "audioEvent": {
            "text": "Stop_Sfx_Monster_MachinaIustitia_Excavator_01_Walk_LP"
          },
          "otherStateNames": [
            "Walk",
            "Run",
            "WalkLToR",
            "WalkRToL",
            "TurnLeft",
            "TurnRight"
          ],
          "usage": "Except"
        },
        {
          "currentStateName": "WalkRToL",
          "audioEvent": {
            "text": "Stop_Sfx_Monster_MachinaIustitia_Excavator_01_Walk_LP"
          },
          "otherStateNames": [
            "Walk",
            "Run",
            "WalkLToR",
            "WalkRToL",
            "TurnLeft",
            "TurnRight"
          ],
          "usage": "Except"
        },
        {
          "currentStateName": "TurnLeft",
          "audioEvent": {
            "text": "Stop_Sfx_Monster_MachinaIustitia_Excavator_01_Walk_LP"
          },
          "otherStateNames": [
            "Walk",
            "Run",
            "WalkLToR",
            "WalkRToL",
            "TurnLeft",
            "TurnRight"
          ],
          "usage": "Except"
        },
        {
          "currentStateName": "TurnRight",
          "audioEvent": {
            "text": "Stop_Sfx_Monster_MachinaIustitia_Excavator_01_Walk_LP"
          },
          "otherStateNames": [
            "Walk",
            "Run",
            "WalkLToR",
            "WalkRToL",
            "TurnLeft",
            "TurnRight"
          ],
          "usage": "Except"
        }
      ]
    }
  },
  "cameraBox": {
    "transformName": "SphericalWheelRoot",
    "KAPPHCCADOL": [
      "TurnRight",
      "TurnLeft",
      "WalkLToR",
      "WalkRToL",
      "Pneuma_NormalAttack01"
    ],
    "LLKOPOMKCDN": 5.0,
    "AOABBKGADDH": true
  }
}
