{
  "common": {
    "effectAttachShape": {
      "$type": "FJNPJANPGGC",
      "mesh": "EffectMesh"
    },
    "mass": 10000.0,
    "height": 3.5,
    "viewSize": 1.149999976158142,
    "affectedByWorld": true,
    "checkInSurface": true,
    "scale": 1.5,
    "useGrassDisplacement": true,
    "clearAIOnSetLightDeactive": true,
    "reconnectSupport": true,
    "recoverByInitPose": true,
    "meshEffectNodeList": [
      {
        "followTargetPath": "EffectMesh01Point",
        "attachMeshName": "EffectMesh01"
      },
      {
        "followTargetPath": "EffectMesh02Point",
        "attachMeshName": "EffectMesh02"
      },
      {
        "followTargetPath": "EffectMesh03Point",
        "attachMeshName": "EffectMesh03"
      },
      {
        "followTargetPath": "EffectMesh04Point",
        "attachMeshName": "EffectMesh04"
      }
    ]
  },
  "headControl": {
    "$type": "KPIPDEBDPIH",
    "useHeadControl": true,
    "maxYawDegree": 45.0,
    "maxPitchDegree": 10.0,
    "speed": 2.0,
    "animStates": [
      "NormalIdle/Standby",
      "NormalIdle/Born",
      "WalkForward",
      "WalkBack",
      "WalkLeft",
      "WalkRight",
      "Turn"
    ]
  },
  "model": {
    "bornEffect": "",
    "attachEffect": "",
    "canBakeMesh": false,
    "BKPFGNPLDNJ": ""
  },
  "dither": {
    "showDitherDuration": 2.0
  },
  "combat": {
    "property": {
      "endureType": "Monster_Demiboss_Other",
      "weight": 150.0
    },
    "beHit": {
      "hitBloodEffect": "",
      "hitAutoRedirect": false
    },
    "combatLock": {
      "lockShape": "CircleLockEnemy",
      "lockType": "Avatar&Monster_Lv4"
    },
    "die": {
      "hasAnimatorDie": true,
      "dieEndTime": 0.15000000596046448,
      "dieForceDisappearTime": 0.20000000298023224,
      "dieDisappearEffect": "Eff_Monster_Chrysopelea_Eremite_Grass_Die",
      "dieDisappearEffectDelay": 0.15000000596046448,
      "muteHitBox": true,
      "dieDenyLockOn": true,
      "dieIsGhostToEnemy": true,
      "dieIgnoreTriggerBullet": true,
      "muteBillboard": true,
      "mutePushCollider": true
    }
  },
  "abilities": [
    {
      "abilityID": "SteerControl",
      "abilityName": "Monster_Chrysopelea_Eremite_Grass_StateControl",
      "abilityOverride": ""
    },
    {
      "abilityID": "SteerControl",
      "abilityName": "Monster_Chrysopelea_Eremite_Grass_StreeControl",
      "abilityOverride": ""
    },
    {
      "abilityID": "NormalAttack01_01",
      "abilityName": "Monster_Chrysopelea_Eremite_Grass_NormalAttack01_01",
      "abilityOverride": ""
    },
    {
      "abilityID": "NormalAttack01_02",
      "abilityName": "Monster_Chrysopelea_Eremite_Grass_NormalAttack01_02",
      "abilityOverride": ""
    },
    {
      "abilityID": "MeleeAttack01",
      "abilityName": "Monster_Chrysopelea_Eremite_Grass_MeleeAttack01",
      "abilityOverride": ""
    },
    {
      "abilityID": "MeleeAttack01_Damage",
      "abilityName": "Monster_Chrysopelea_Eremite_Grass_MeleeAttack01_Damage",
      "abilityOverride": ""
    },
    {
      "abilityID": "ComboAttack01",
      "abilityName": "Monster_Chrysopelea_Eremite_Grass_ComboAttack01",
      "abilityOverride": ""
    },
    {
      "abilityID": "RangeAttack01",
      "abilityName": "Monster_Chrysopelea_Eremite_Grass_RangeAttack01",
      "abilityOverride": ""
    },
    {
      "abilityID": "Die",
      "abilityName": "Monster_Chrysopelea_Eremite_Grass_Die",
      "abilityOverride": ""
    },
    {
      "abilityID": "RingEffect_Closed",
      "abilityName": "Monster_Chrysopelea_Eremite_Grass_RingEffect_Closed",
      "abilityOverride": ""
    },
    {
      "abilityID": "RingEffect_Open",
      "abilityName": "Monster_Chrysopelea_Eremite_Grass_RingEffect_Open",
      "abilityOverride": ""
    }
  ],
  "stateLayers": {
    "defaultLayer": {
      "$type": "GBGJJIIEMBD",
      "layerIndexName": "",
      "CPAANEIJCGD": "",
      "stateIDs": {
        "NormalIdle": {
          "$type": "NEDIFAKEGCO",
          "animatorStates": {
            "Standby": [],
            "Born": []
          },
          "canDoSkill": true,
          "canSyncMove": true,
          "resetAnimatorTriggerOnExit": ["DoSkill"]
        },
        "WalkForward": {
          "$type": "NEDIFAKEGCO",
          "animatorStates": {
            "WalkForward": []
          },
          "canDoSkill": true,
          "canSyncMove": true,
          "resetAnimatorTriggerOnExit": ["DoSkill"],
          "canSteer": true
        },
        "WalkBack": {
          "$type": "NEDIFAKEGCO",
          "animatorStates": {
            "WalkBack": []
          },
          "canDoSkill": true,
          "canSyncMove": true,
          "resetAnimatorTriggerOnExit": ["DoSkill"],
          "canSteer": true
        },
        "WalkLeft": {
          "$type": "NEDIFAKEGCO",
          "animatorStates": {
            "WalkLeft": []
          },
          "canDoSkill": true,
          "canSyncMove": true,
          "resetAnimatorTriggerOnExit": ["DoSkill"],
          "canSteer": true
        },
        "WalkRight": {
          "$type": "NEDIFAKEGCO",
          "animatorStates": {
            "WalkRight": []
          },
          "canDoSkill": true,
          "canSyncMove": true,
          "resetAnimatorTriggerOnExit": ["DoSkill"],
          "canSteer": true
        },
        "Turn": {
          "$type": "NEDIFAKEGCO",
          "animatorStates": {
            "TurnLeft": [],
            "TurnRight": []
          },
          "canSyncMove": true,
          "resetAnimatorTriggerOnExit": ["DoSkill"],
          "canSteer": true
        },
        "BeHit": {
          "$type": "NEDIFAKEGCO",
          "animatorStates": {
            "Hit_L": ["Audio_Monster_Chrysopelea_Eremite_Grass_Hit_L"]
          },
          "resetAnimatorTriggerOnEnter": ["BeHit"],
          "resetAnimatorTriggerOnExit": ["DoSkill"]
        },
        "Die": {
          "$type": "NEDIFAKEGCO",
          "animatorStates": {
            "Die": ["Monster_Chrysopelea_Eremite_Grass_Die"]
          },
          "resetAnimatorTriggerOnEnter": ["DoSkill"]
        },
        "Alert": {
          "$type": "NEDIFAKEGCO",
          "animatorStates": {
            "Alert": [
              "Monster_Chrysopelea_Eremite_Grass_Alert",
              "Audio_Monster_Chrysopelea_Eremite_Grass_Alert"
            ]
          },
          "addEndure": 0.0,
          "resetAnimatorTriggerOnExit": ["BeHit", "DoSkill"]
        },
        "NormalAttack01": {
          "$type": "NEDIFAKEGCO",
          "animatorStates": {
            "NormalAttack01": [
              "Monster_Chrysopelea_Eremite_Grass_NormalAttack01",
              "Audio_Monster_Chrysopelea_Eremite_Grass_NormalAttack01"
            ]
          },
          "canSyncMove": true,
          "resetAnimatorTriggerOnExit": ["BeHit", "DoSkill"]
        },
        "MeleeAttack01": {
          "$type": "NEDIFAKEGCO",
          "animatorStates": {
            "MeleeAttack01": [
              "Monster_Chrysopelea_Eremite_Grass_MeleeAttack01",
              "Audio_Monster_Chrysopelea_Eremite_Grass_MeleeAttack01"
            ]
          },
          "canSyncMove": true,
          "resetAnimatorTriggerOnExit": ["BeHit", "DoSkill"]
        },
        "RangeAttack01": {
          "$type": "NEDIFAKEGCO",
          "animatorStates": {
            "RangeAttack01": [
              "Monster_Chrysopelea_Eremite_Grass_RangeAttack01",
              "Audio_Monster_Chrysopelea_Eremite_Grass_RangeAttack01"
            ]
          },
          "canSyncMove": true,
          "resetAnimatorTriggerOnExit": ["BeHit", "DoSkill"],
          "canSteer": true
        },
        "ComboAttack01": {
          "$type": "NEDIFAKEGCO",
          "animatorStates": {
            "ComboAttack01": [
              "Monster_Chrysopelea_Eremite_Grass_ComboAttack01",
              "Audio_Monster_Chrysopelea_Eremite_Grass_ComboAttack01"
            ]
          },
          "canSyncMove": true,
          "resetAnimatorTriggerOnExit": ["BeHit", "DoSkill"],
          "canSteer": true
        }
      }
    }
  },
  "billboard": {
    "$type": "DNGNMAJBCNP",
    "attachPoint": "BillboardAttach",
    "offset": {
      "y": 0.10000000149011612
    },
    "offsetType": "Character",
    "radiusOffset": 0.25,
    "showHPBar": true,
    "size": "Big"
  },
  "initialPoses": {
    "Default": {
      "initialPoseID": 1
    }
  },
  "aibeta": {
    "enable": true,
    "moveSetting": {
      "navMeshAgentName": "Undead01"
    },
    "sensing": {
      "settings": {
        "DefaultSetting": {
          "viewRange": 40.0,
          "feelRange": 10.0
        }
      },
      "templates": {
        "DefaultTemplate": {
          "DefaultPoses": "DefaultSetting"
        }
      }
    },
    "threat": {
      "GHIJMOKOLMB": "",
      "clearThreatEdgeDistance": 3.5,
      "clearThreatTimerByDistance": 1.75,
      "viewThreatGrow": 35.0,
      "feelThreatGrow": 100.0,
      "threatDecreaseSpeed": 10.0,
      "resistTauntLevel": "Monster_TauntLevel_3"
    },
    "defendArea": {
      "defendRange": 70.0
    },
    "network": {
      "syncSkill": true
    },
    "skillGroupCDConfigs": [
      {
        "skillGroupCDID": 2,
        "skillGroupCDTime": 20.0
      },
      {
        "skillGroupCDID": 3,
        "skillGroupCDTime": 3.0
      }
    ],
    "skills": {
      "101": {
        "name": "OnAlert",
        "skillType": "OnAlert",
        "publicCDGroup": "",
        "ignoreGCD": true,
        "triggerGCD": false,
        "HHAGODJIAPE": "",
        "stateIDs": ["Alert"],
        "flagTargetReachable": "10",
        "flagSelfOnTemplateCollider": "01",
        "flagSelfInZone": "10",
        "flagTargetInZone": "11"
      },
      "201": {
        "name": "NormalAttack01",
        "combatSkillType": "MeleeAttack",
        "castCondition": {
          "pose": [101],
          "pickRangeMax": 8.0
        },
        "cd": 5.0,
        "cdUpperRange": 2.0,
        "publicCDGroup": "",
        "triggerGCD": false,
        "skillGroupCDID": 3,
        "HHAGODJIAPE": "",
        "stateIDs": ["NormalAttack01"],
        "flagTargetReachable": "10",
        "flagSelfOnTemplateCollider": "01",
        "flagSelfInZone": "10",
        "flagTargetInZone": "11"
      },
      "211": {
        "name": "MeleeAttack01",
        "combatSkillType": "MeleeAttack",
        "castCondition": {
          "pose": [101],
          "pickRangeMin": 5.0,
          "pickRangeMax": 20.0
        },
        "cd": 10.0,
        "cdUpperRange": 3.0,
        "publicCDGroup": "",
        "skillGroupCDID": 3,
        "HHAGODJIAPE": "",
        "stateIDs": ["MeleeAttack01"],
        "flagTargetReachable": "11",
        "flagSelfOnTemplateCollider": "11",
        "flagSelfInZone": "11",
        "flagTargetInZone": "11"
      },
      "221": {
        "name": "RangeAttack01",
        "combatSkillType": "RangedAttack",
        "castCondition": {
          "pose": [101],
          "pickRangeMax": 20.0
        },
        "cd": 10.0,
        "cdUpperRange": 3.0,
        "publicCDGroup": "",
        "skillGroupCDID": 3,
        "HHAGODJIAPE": "",
        "stateIDs": ["RangeAttack01"],
        "flagTargetReachable": "11",
        "flagSelfOnTemplateCollider": "11",
        "flagSelfInZone": "11",
        "flagTargetInZone": "11"
      },
      "231": {
        "name": "ComboAttack01",
        "combatSkillType": "RangedAttack",
        "priority": 1,
        "castCondition": {
          "pose": [101],
          "pickRangeMax": 20.0
        },
        "cd": 23.0,
        "cdUpperRange": 5.0,
        "initialCD": 3.0,
        "publicCDGroup": "Eremite_ComboAttack",
        "HHAGODJIAPE": "",
        "stateIDs": ["ComboAttack01"],
        "flagTargetReachable": "11",
        "flagSelfOnTemplateCollider": "11",
        "flagSelfInZone": "11",
        "flagTargetInZone": "11"
      }
    },
    "skillGCD": 2.0,
    "birdCirclingTactic": [
      {
        "$type": "EPHBMLFODKF",
        "enable": true,
        "condition": {
          "pose": [101]
        },
        "JMCOBEPDIGM": {
          "rangeMin": 5.0,
          "rangeMax": 15.0,
          "ALIBHHJHHMN": 1.600000023841858,
          "BFJBDDIIFOI": {
            "IDEFILBHNAP": 4.0,
            "IBLIPJPNOGC": 1.5,
            "AEBLMKFNCDG": 0.0,
            "IGLIBIOEGBB": 0.0
          },
          "NAOBMNGDKHL": "1111",
          "JCNIJOAIGII": "1111",
          "MNPDDAKDHGK": ""
        }
      },
      {
        "$type": "KACCHOLJDNK",
        "enable": true,
        "condition": {
          "pose": [101]
        },
        "JMCOBEPDIGM": {
          "ANLAAGAMIKF": 1,
          "KHDFDAAAPEI": 10.0,
          "HKJODDGJPHA": 99.0,
          "GGEBMFHFBPO": 5.0,
          "KFFGCIMPNMJ": 8.0,
          "MNPDDAKDHGK": ""
        }
      },
      {
        "$type": "NNJKLGNPMNN"
      },
      {
        "$type": "FPELBIJFGCE"
      }
    ]
  },
  "inputKeys": [
    {
      "keyID": 201,
      "inputKeyCode": 257,
      "abilityName": ""
    },
    {
      "keyID": 211,
      "inputKeyCode": 258,
      "abilityName": ""
    },
    {
      "keyID": 221,
      "inputKeyCode": 259,
      "abilityName": ""
    },
    {
      "keyID": 231,
      "inputKeyCode": 260,
      "abilityName": ""
    },
    {
      "keyID": 241,
      "inputKeyCode": 261,
      "abilityName": ""
    }
  ],
  "move": {
    "$type": "IPNMJMHDMPF",
    "velocityForce": {
      "excludeForces": ["RetreatAirType"]
    },
    "facingMove": "FourDirection",
    "destroyRockWhenInit": true,
    "yawSpeedRatio": 2.0,
    "positionModifyExtra": true,
    "PKHOMJHFAEE": "RootNode"
  }
}
