[
  {
    "Default": {
      "$type": "ConfigAbility",
      "abilityName": "SceneObj_Area_Common_Property_Ani_Prop_HideAndSeekV4_Codemachine_01",
      "abilityMixins": [
        {
          "$type": "AttachToGadgetStateMixin",
          "modifierName": "FixState"
        },
        {
          "$type": "AttachToGadgetStateMixin",
          "gadgetState": 201,
          "modifierName": "Finish"
        },
        {
          "$type": "JPPFBGJICKI",
          "key": "_CHARGEBAR_VALUE",
          "useLimitRange": true,
          "maxValue": 1000.0,
          "minValue": 0.0
        },
        {
          "$type": "AttachModifierToSelfGlobalValueNoInitMixin",
          "globalValueKey": "_CHARGEBAR_VALUE",
          "valueSteps": [-0.5, 0.5, 1002.0],
          "modifierNameSteps": ["BrokenEff", "EffManager"],
          "NMCLMHFBALJ": true
        }
      ],
      "modifiers": {
        "FixState": {
          "modifierName": "",
          "elementDurability": 100.0,
          "modifierMixins": [
            {
              "$type": "AttachModifierToSelfGlobalValueNoInitMixin",
              "globalValueKey": "SGV_Notify_Val",
              "valueSteps": [0.5, 1.5],
              "modifierNameSteps": ["Notify"],
              "NMCLMHFBALJ": true
            },
            {
              "$type": "KFGKHDHLJKA",
              "globalValueKey": "SGV_Notify_Val",
              "HILMNJDCGHO": [
                {
                  "min": 0.5,
                  "max": 1.5
                }
              ],
              "JNEHJOHEAHO": "LOOP_CIRCLE_02",
              "AJJIEOABIBK": true
            }
          ],
          "onAdded": [
            {
              "$type": "HBNEMPLJCMB"
            },
            {
              "$type": "EDLENJODHIM"
            }
          ]
        },
        "Notify": {
          "modifierName": "",
          "elementDurability": 100.0,
          "onAdded": [
            {
              "$type": "AttachEffect",
              "rotationDampTime": "Eff_SceneObj_HideAndSeekV4_Codemachine_Warning",
              "born": {
                "$type": "ConfigBornByAttachPoint",
                "useRotation": true,
                "attachPointName": "AttachPoint"
              },
              "PPPDJGDDOGD": 1.0,
              "AJDILHJFNKE": -1.0
            }
          ]
        },
        "BrokenEff": {
          "modifierName": "",
          "elementDurability": 100.0,
          "onAdded": [
            {
              "$type": "AttachEffect",
              "rotationDampTime": "Eff_SceneObj_HideAndSeekV4_Codemachine_01",
              "born": {
                "$type": "ConfigBornByAttachPoint",
                "useRotation": true,
                "attachPointName": "AttachPoint"
              },
              "PPPDJGDDOGD": 1.0,
              "AJDILHJFNKE": -1.0
            }
          ]
        },
        "EffManager": {
          "modifierName": "",
          "elementDurability": 100.0,
          "modifierMixins": [
            {
              "$type": "AttachModifierToSelfGlobalValueNoInitMixin",
              "globalValueKey": "_CHARGEBAR_VALUE",
              "valueSteps": [0.5, 999.5, 1001.0],
              "modifierNameSteps": ["HalfFixEff", "FinishEff"],
              "NMCLMHFBALJ": true
            }
          ],
          "onAdded": [
            {
              "$type": "AttachEffect",
              "rotationDampTime": "Eff_SceneObj_HideAndSeekV4_Codemachine_Model",
              "born": {
                "$type": "ConfigBornByAttachPoint",
                "useRotation": true,
                "attachPointName": "AttachPoint"
              },
              "PPPDJGDDOGD": 1.0,
              "AJDILHJFNKE": -1.0
            }
          ]
        },
        "HalfFixEff": {
          "modifierName": "",
          "elementDurability": 100.0,
          "onAdded": [
            {
              "$type": "AttachEffect",
              "rotationDampTime": "Eff_SceneObj_HideAndSeekV4_Codemachine_Fix_01",
              "born": {
                "$type": "ConfigBornByAttachPoint",
                "useRotation": true,
                "attachPointName": "AttachPoint"
              },
              "PPPDJGDDOGD": 1.0,
              "AJDILHJFNKE": -1.0
            }
          ]
        },
        "FinishEff": {
          "modifierName": "",
          "elementDurability": 100.0,
          "onAdded": [
            {
              "$type": "SendEffectTrigger",
              "shieldHP": true,
              "parameter": "GadgetState",
              "attachPoint": "",
              "damageRatio": "Int",
              "value": 201,
              "rotationDampTime": "Eff_SceneObj_HideAndSeekV4_Codemachine_Model"
            }
          ]
        },
        "Finish": {
          "modifierName": "",
          "elementDurability": 100.0,
          "modifierMixins": [
            {
              "$type": "JACDJMGFGDP",
              "radarHintID": 35,
              "disable": true,
              "JJJPGDOKFHP": true,
              "BEGGMMNKGKJ": true
            }
          ],
          "onAdded": [
            {
              "$type": "HBNEMPLJCMB",
              "hide": true
            },
            {
              "$type": "SetAnimatorInt",
              "intID": "GadgetState",
              "value": 201.0
            },
            {
              "$type": "AttachEffect",
              "rotationDampTime": "Eff_SceneObj_HideAndSeekV4_Codemachine_Fix_02",
              "born": {
                "$type": "ConfigBornByAttachPoint",
                "useRotation": true,
                "attachPointName": "AttachPoint"
              },
              "PPPDJGDDOGD": 1.0,
              "AJDILHJFNKE": -1.0
            }
          ]
        }
      },
      "onAdded": [
        {
          "$type": "SetGlobalValue",
          "value": 0.0,
          "key": "_CHARGEBAR_VALUE",
          "maxValue": 1000.0,
          "minValue": 0.0
        },
        {
          "$type": "SetGlobalValue",
          "value": 0.0,
          "key": "Eff_Controller",
          "maxValue": 0.0,
          "minValue": 0.0
        },
        {
          "$type": "AOOCGNCCAJB",
          "isAdd": true,
          "tag": "IS_CODEMACHINE"
        }
      ]
    }
  },
  {
    "Default": {
      "$type": "ConfigAbility",
      "abilityName": "SceneObj_Area_Common_Property_Prop_HideAndSeekV4_Prison_01",
      "abilityMixins": [
        {
          "$type": "AttachToGadgetStateMixin",
          "modifierName": "Open"
        },
        {
          "$type": "AttachToGadgetStateMixin",
          "gadgetState": 201,
          "modifierName": "Lock"
        }
      ],
      "modifiers": {
        "StableEff": {
          "modifierName": "",
          "elementDurability": 100.0,
          "onAdded": [
            {
              "$type": "AttachEffect",
              "rotationDampTime": "Eff_SceneObj_HideAndSeekV4_Prison_Cylinder_02",
              "born": {
                "$type": "ConfigBornByAttachPoint",
                "useRotation": true,
                "attachPointName": "RootNode"
              },
              "PPPDJGDDOGD": 1.0,
              "AJDILHJFNKE": -1.0
            }
          ]
        },
        "Open": {
          "modifierName": "",
          "elementDurability": 100.0,
          "onAdded": [
            {
              "$type": "CLKGEHMNIEF",
              "transformNames": ["Inside"]
            },
            {
              "$type": "CLKGEHMNIEF",
              "transformNames": ["Outside"],
              "setEnable": true
            }
          ]
        },
        "Lock": {
          "modifierName": "",
          "elementDurability": 100.0,
          "onAdded": [
            {
              "$type": "CLKGEHMNIEF",
              "transformNames": ["Inside"],
              "setEnable": true
            },
            {
              "$type": "CLKGEHMNIEF",
              "transformNames": ["Outside"],
              "setEnable": true
            },
            {
              "$type": "AttachEffect",
              "rotationDampTime": "Eff_SceneObj_HideAndSeekV4_Prison_Cylinder_01",
              "born": {
                "$type": "ConfigBornByAttachPoint",
                "useRotation": true,
                "attachPointName": "RootNode"
              },
              "PPPDJGDDOGD": 1.0,
              "AJDILHJFNKE": -1.0
            }
          ]
        }
      },
      "onAdded": [
        {
          "$type": "ApplyModifier",
          "modifierName": "StableEff"
        }
      ]
    }
  },
  {
    "Default": {
      "$type": "ConfigAbility",
      "abilityName": "SkillObj_Activity_HideSeekV4_WardHere_01",
      "abilityMixins": [
        {
          "$type": "AttachToGadgetStateMixin",
          "modifierName": "Silence"
        },
        {
          "$type": "AttachToGadgetStateMixin",
          "gadgetState": 201,
          "modifierName": "Detected"
        }
      ],
      "modifiers": {
        "Silence": {
          "modifierName": "",
          "elementDurability": 100.0,
          "modifierMixins": [
            {
              "$type": "GPCGHACDPIF",
              "NLIOHMNJBAM": ""
            }
          ],
          "onAdded": [
            {
              "$type": "PENMIJBLLPF",
              "canBeHandledOnRecover": true,
              "actionList": [
                {
                  "$type": "AttachEffect",
                  "predicates": [
                    {
                      "$type": "ByTargetGlobalValue",
                      "target": "Team",
                      "key": "SGV_HideAndSeek_PlayerState_Play",
                      "value": 0.0
                    }
                  ],
                  "rotationDampTime": "Eff_SceneObj_HideAndSeekV4_Trap_Scale",
                  "PPPDJGDDOGD": 1.0,
                  "AJDILHJFNKE": -1.0
                },
                {
                  "$type": "AttachEffect",
                  "predicates": [
                    {
                      "$type": "ByTargetGlobalValue",
                      "target": "Team",
                      "key": "SGV_HideAndSeek_PlayerState_Play",
                      "value": 0.0
                    }
                  ],
                  "rotationDampTime": "Eff_SceneObj_HideAndSeekV4_Trap_As",
                  "PPPDJGDDOGD": 1.0,
                  "AJDILHJFNKE": -1.0
                }
              ]
            }
          ]
        },
        "Detected": {
          "modifierName": "",
          "elementDurability": 100.0,
          "modifierMixins": [
            {
              "$type": "GPCGHACDPIF",
              "DPAOMNELPHI": 1,
              "NLIOHMNJBAM": ""
            }
          ],
          "onAdded": [
            {
              "$type": "SetAnimatorFloat",
              "floatID": "Speed",
              "value": 1.0
            },
            {
              "$type": "SetGlobalValue",
              "value": 2.0,
              "key": "HideAndSeek_Seeker_WardHere_Gadget",
              "maxValue": 0.0,
              "minValue": 0.0
            },
            {
              "$type": "AttachEffect",
              "rotationDampTime": "Eff_SceneObj_HideAndSeekV4_Trap_Warning",
              "PPPDJGDDOGD": 1.0,
              "AJDILHJFNKE": -1.0
            },
            {
              "$type": "CreateGadget",
              "born": {
                "$type": "ConfigBornBySelf",
                "onGround": true,
                "useRotation": true
              },
              "lifeByOwnerV2": true,
              "gadgetID": 44000589,
              "campID": 1001,
              "campTargetType": "Enemy"
            }
          ],
          "onRemoved": [
            {
              "$type": "KillGadget",
              "gadgetInfo": {
                "configID": 44000589
              }
            }
          ]
        }
      },
      "onAdded": [
        {
          "$type": "SetGlobalValue",
          "value": 1.0,
          "key": "HideAndSeek_Seeker_WardHere_Gadget",
          "maxValue": 0.0,
          "minValue": 0.0
        }
      ],
      "onKill": [
        {
          "$type": "FireEffect",
          "rotationDampTime": "Eff_SceneObj_HideAndSeekV4_Trap_Ds",
          "PPPDJGDDOGD": 1.0,
          "AJDILHJFNKE": -1.0
        }
      ]
    }
  },
  {
    "Default": {
      "$type": "ConfigAbility",
      "abilityName": "Activity_HideSeekV4_Skill_SuperPrison",
      "modifiers": {
        "Eff_Controller": {
          "modifierName": "",
          "elementDurability": 100.0,
          "onAdded": [
            {
              "$type": "AttachEffect",
              "rotationDampTime": "Eff_Activity_HideAndSeekV4_01_SuperPrison_Target",
              "born": {
                "$type": "ConfigBornBySelf",
                "offset": {
                  "x": 0.0,
                  "y": 0.0,
                  "z": 0.0
                },
                "useRotation": true
              },
              "PPPDJGDDOGD": 1.0,
              "AJDILHJFNKE": -1.0
            }
          ]
        }
      },
      "onAdded": [
        {
          "$type": "AttachModifier",
          "modifierName": "Eff_Controller"
        }
      ],
      "onKill": [
        {
          "$type": "FireEffect",
          "rotationDampTime": "Eff_Activity_HideAndSeekV4_01_SuperPrison_Target_AS",
          "born": {
            "$type": "ConfigBornBySelf",
            "offset": {
              "x": 0.0,
              "y": 0.0,
              "z": 0.0
            },
            "useRotation": true
          },
          "PPPDJGDDOGD": 1.0,
          "AJDILHJFNKE": -1.0
        }
      ],
      "isDynamicAbility": true
    }
  },
  {
    "Default": {
      "$type": "ConfigAbility",
      "abilityName": "Activity_HideSeekV4_Execution_Target",
      "modifiers": {
        "Effect": {
          "modifierName": "",
          "duration": 2.5999999046325684,
          "elementDurability": 100.0,
          "onRemoved": [
            {
              "$type": "FireEffect",
              "rotationDampTime": "Eff_Activity_HideSeek_Execution_Target_AS",
              "born": {
                "$type": "ConfigBornBySelf",
                "offset": {
                  "x": 0.0,
                  "y": 1.0,
                  "z": 0.0
                },
                "useRotation": true
              },
              "PPPDJGDDOGD": 1.0,
              "AJDILHJFNKE": -1.0
            }
          ]
        },
        "Target_Effect": {
          "modifierName": "",
          "elementDurability": 100.0,
          "onAdded": [
            {
              "$type": "AttachEffect",
              "rotationDampTime": "Eff_Activity_HideAndSeekV4_01_Execution_Target",
              "PPPDJGDDOGD": 1.0,
              "AJDILHJFNKE": -1.0
            }
          ]
        }
      },
      "onAdded": [
        {
          "$type": "DebugLog",
          "content": "Activity_HideSeekV4_Execution_Target > onAdded"
        },
        {
          "$type": "AttachModifier",
          "modifierName": "Effect"
        },
        {
          "$type": "AttachModifier",
          "modifierName": "Target_Effect"
        }
      ],
      "onRemoved": [
        {
          "$type": "DebugLog",
          "content": "Activity_HideSeekV4_Execution_Target > onRemoved"
        }
      ],
      "onKill": [
        {
          "$type": "DebugLog",
          "content": "Activity_HideSeekV4_Execution_Target > onKill"
        }
      ],
      "isDynamicAbility": true
    }
  },
  {
    "Default": {
      "$type": "ConfigAbility",
      "abilityName": "Activity_HideSeekV4_Property_Prop_SeekerBattery_01",
      "modifiers": {
        "HideSeek_Property_Prop_SeekerBattery": {
          "modifierName": "",
          "duration": 6.0,
          "elementDurability": 100.0,
          "onRemoved": [
            {
              "$type": "ApplyModifier",
              "modifierName": "UNIQUE_HideSeekV4_Property_Prop_SeekerBatteryEffect"
            },
            {
              "$type": "DebugLog",
              "content": "删除常驻特效"
            }
          ]
        },
        "UNIQUE_HideSeekV4_Property_Prop_SeekerBatteryEffect": {
          "modifierName": "",
          "forceTriggerWhenChangeAuthority": true,
          "elementDurability": 100.0,
          "onAdded": [
            {
              "$type": "AttachEffect",
              "rotationDampTime": "Eff_SceneObj_SeekerBattery_01",
              "born": {
                "$type": "ConfigBornBySelf",
                "offset": {
                  "x": 0.0,
                  "y": 1.0,
                  "z": 0.0
                },
                "useRotation": true
              },
              "PPPDJGDDOGD": 1.0,
              "AJDILHJFNKE": -1.0
            }
          ]
        },
        "UNIQUE_HideSeekV4_Property_RecoveryEnergy": {
          "modifierName": "",
          "forceTriggerWhenChangeAuthority": true,
          "duration": 0.10000000149011612,
          "elementDurability": 100.0,
          "onAdded": [
            {
              "$type": "DebugLog",
              "content": "回复能量"
            },
            {
              "$type": "AddGlobalValue",
              "target": "Team",
              "value": 50.0,
              "key": "AVATAR_SEEKANDHIDE_ENERGY",
              "useLimitRange": true,
              "maxValue": 50.0,
              "minValue": 0.0
            },
            {
              "$type": "FireEffect",
              "rotationDampTime": "Eff_SceneObj_SeekerBattery_01_Buff",
              "born": {
                "$type": "ConfigBornByAttachPoint",
                "useRotation": true,
                "attachPointName": "RootNode"
              },
              "PPPDJGDDOGD": 1.0,
              "AJDILHJFNKE": -1.0
            },
            {
              "$type": "AHPEKICBIIL",
              "target": "Team",
              "luaCallType": "CurGalleryControlGroup",
              "isTarget": true,
              "funcName": "HideAndSeek_Skill_Get_Energy",
              "param1": 0.0,
              "MGAMDEHMCOL": 0.0,
              "MMHOHAOGPLP": 0.0
            }
          ]
        },
        "UNIQUE_HideSeekV4_Property_KillGadget": {
          "modifierName": "",
          "forceTriggerWhenChangeAuthority": true,
          "duration": 0.10000000149011612,
          "elementDurability": 100.0,
          "onAdded": [
            {
              "$type": "KillSelf",
              "banDrop": true,
              "limboByTargetMaxHPRatio": true,
              "killSelfType": "Disappear"
            },
            {
              "$type": "DebugLog",
              "content": "杀死gadget"
            }
          ]
        }
      },
      "onAdded": [
        {
          "$type": "AddGlobalValue",
          "value": 1.0,
          "key": "Is_First_FireEffect",
          "useLimitRange": true,
          "maxValue": 2.0,
          "minValue": 1.0
        },
        {
          "$type": "SetGlobalValue",
          "value": 0.0,
          "key": "_Ability_Property_Prop_IsUse",
          "maxValue": 0.0,
          "minValue": 0.0
        },
        {
          "$type": "Predicated",
          "targetPredicates": [
            {
              "$type": "ByTargetGlobalValue",
              "key": "Is_First_FireEffect",
              "value": 1.0
            }
          ],
          "successActions": [
            {
              "$type": "FireEffect",
              "rotationDampTime": "Eff_SceneObj_SeekerBattery_01_Born",
              "PPPDJGDDOGD": 1.0,
              "AJDILHJFNKE": -1.0
            },
            {
              "$type": "ApplyModifier",
              "modifierName": "HideSeek_Property_Prop_SeekerBattery"
            },
            {
              "$type": "DebugLog",
              "content": "有能量球被创建了"
            },
            {
              "$type": "SetGlobalValue",
              "value": 2.0,
              "key": "Is_First_FireEffect",
              "maxValue": 0.0,
              "minValue": 0.0
            }
          ]
        }
      ],
      "onKill": [
        {
          "$type": "FireEffect",
          "rotationDampTime": "Eff_SceneObj_SeekerBattery_01_Destroy",
          "born": {
            "$type": "ConfigBornBySelf",
            "offset": {
              "x": 0.0,
              "y": 1.0,
              "z": 0.0
            },
            "useRotation": true
          },
          "PPPDJGDDOGD": 1.0,
          "AJDILHJFNKE": -1.0
        },
        {
          "$type": "DebugLog",
          "content": "能量球被移除时调用了吗111111"
        },
        {
          "$type": "RemoveUniqueModifier",
          "modifierName": "UNIQUE_HideSeekV4_Property_Prop_SeekerBatteryEffect"
        }
      ],
      "onFieldEnter": [
        {
          "$type": "DebugLog",
          "content": "onFieldEnter"
        },
        {
          "$type": "Predicated",
          "target": "Target",
          "targetPredicates": [
            {
              "$type": "ByEntityTypes",
              "entityTypes": ["Avatar"]
            },
            {
              "$type": "ByTargetGlobalValue",
              "target": "TargetTeam",
              "key": "SGV_HideAndSeek_PlayerState_Play",
              "value": 1.0,
              "compareType": "LessAndEqual"
            },
            {
              "$type": "ByTargetGlobalValue",
              "target": "Self",
              "key": "_Ability_Property_Prop_IsUse",
              "value": 0.0
            }
          ],
          "successActions": [
            {
              "$type": "RemoveUniqueModifier",
              "modifierName": "UNIQUE_HideSeekV4_Property_Prop_SeekerBatteryEffect"
            },
            {
              "$type": "ApplyModifier",
              "target": "Target",
              "modifierName": "UNIQUE_HideSeekV4_Property_RecoveryEnergy"
            },
            {
              "$type": "ApplyModifier",
              "target": "Caster",
              "modifierName": "UNIQUE_HideSeekV4_Property_KillGadget"
            },
            {
              "$type": "DebugLog",
              "content": "这里走到了"
            },
            {
              "$type": "SetGlobalValue",
              "value": 1.0,
              "key": "_Ability_Property_Prop_IsUse",
              "maxValue": 0.0,
              "minValue": 0.0
            }
          ]
        }
      ],
      "isDynamicAbility": true
    }
  },
  {
    "Default": {
      "$type": "ConfigAbility",
      "abilityName": "Activity_HideSeekV4_HideType_InvisibleBait",
      "abilityMixins": [
        {
          "$type": "AttachModifierToSelfGlobalValueNoInitMixin",
          "globalValueKey": "SGV_HideAndSeek_PlayerState_Play",
          "valueSteps": [-0.5, 0.5, 1.5, 2.5, 3.5, 4.5],
          "modifierNameSteps": [
            "UNIQUE_HideSeekV4_InvisibleBait_CheckEffect",
            "UNIQUE_HideSeekV4_InvisibleBait_CheckEffect",
            "UNIQUE_HideSeekV4_InvisibleBait_CheckEffect",
            "UNIQUE_HideSeekV4_InvisibleBait_CheckEffect"
          ],
          "NMCLMHFBALJ": true
        }
      ],
      "modifiers": {
        "UNIQUE_HideSeekV4_Check_InvisibleBaits_Around_Avatar": {
          "modifierName": "",
          "forceTriggerWhenChangeAuthority": true,
          "duration": 1.0,
          "elementDurability": 100.0,
          "onAdded": [
            {
              "$type": "Predicated",
              "otherTargets": {
                "$type": "SelectTargetsByShape",
                "shapeName": "CircleR10H3",
                "campTargetType": "AllExceptSelf",
                "doOffStage": 1.0
              },
              "targetPredicates": [
                {
                  "$type": "ByTargetGlobalValue",
                  "key": "HideAndSeek_Seeker_InvisibleBait_Gadget",
                  "value": 1.0
                }
              ],
              "successActions": [
                {
                  "$type": "DebugLog",
                  "content": "HideAndSeek_V3 玩家离开一个隐身诱饵，在周围找到了另一个隐身诱饵!!!!!!!!!!!!"
                },
                {
                  "$type": "AddGlobalValue",
                  "value": 1.0,
                  "key": "_INVISIBLE_BAITS_AROUND_AVATAR",
                  "maxValue": 0.0,
                  "minValue": 0.0
                }
              ],
              "failActions": [
                {
                  "$type": "DebugLog",
                  "content": "HideAndSeek_V3 玩家离开一个隐身诱饵，周围也没有其他隐身诱饵!!!!!!!!!!!!"
                }
              ]
            }
          ]
        },
        "UNIQUE_HideSeekV4_InvisibleBait_Timer": {
          "stacking": "Unique",
          "modifierName": "",
          "forceTriggerWhenChangeAuthority": true,
          "duration": 300.0,
          "elementDurability": 100.0,
          "onRemoved": [
            {
              "$type": "KillSelf"
            }
          ]
        },
        "UNIQUE_ActivityAbility_HideSeekV4_Hider_PlaceInvisibleBait_Team": {
          "modifierName": "",
          "forceTriggerWhenChangeAuthority": true,
          "elementDurability": 100.0,
          "modifierMixins": [
            {
              "$type": "AttachModifierToSelfGlobalValueNoInitMixin",
              "globalValueKey": "SGV_HideAndSeek_InvisibleBait_Transfer",
              "valueSteps": [
                -0.5, 0.5, 1.5, 2.5, 3.5, 4.5, 5.5, 6.5, 7.5, 8.5, 9.5, 10.5,
                11.5, 12.5, 13.5, 14.5, 15.5, 16.5, 17.5, 18.5, 19.5, 20.5,
                21.5, 22.5, 23.5, 24.5, 25.5, 26.5, 27.5, 28.5, 29.5, 30.5,
                31.5, 32.5, 33.5, 34.5, 35.5, 36.5, 37.5, 38.5, 39.5, 40.5,
                41.5, 42.5, 43.5, 44.5, 45.5, 46.5
              ],
              "modifierNameSteps": [
                "Blank_Team",
                "HideType_A_Style_1_Team_1",
                "HideType_A_Style_2_Team_2",
                "HideType_A_Style_3_Team_3",
                "HideType_B_Style_1_Team_4",
                "HideType_B_Style_2_Team_5",
                "HideType_C_Style_1_Team_6",
                "HideType_D_Style_1_Team_7",
                "HideType_D_Style_2_Team_8",
                "HideType_E_Style_1_Team_9",
                "HideType_E_Style_2_Team_10",
                "HideType_Team_1",
                "HideType_Team_2",
                "HideType_Team_3",
                "HideType_Team_4",
                "HideType_Team_5",
                "HideType_Team_6",
                "HideType_Team_7",
                "HideType_Team_8",
                "HideType_Team_9",
                "HideType_Team_10",
                "HideType_Team_11",
                "HideType_Team_12",
                "HideType_Team_13",
                "HideType_Team_24",
                "HideType_Team_25",
                "HideType_Team_26",
                "HideType_Team_27",
                "HideType_Team_28",
                "HideType_Team_29",
                "HideType_Team_30",
                "HideType_Team_31",
                "HideType_Team_32",
                "HideType_Team_33",
                "HideType_Team_34",
                "HideType_Team_35",
                "HideType_Team_36",
                "HideType_Team_37",
                "HideType_Team_38",
                "HideType_Team_39",
                "HideType_Team_40",
                "HideType_Team_41",
                "HideType_Team_42",
                "HideType_Team_43",
                "HideType_Team_44",
                "HideType_Team_45",
                "HideType_Team_46"
              ],
              "NMCLMHFBALJ": true
            }
          ]
        },
        "Blank_Team": {
          "modifierName": "",
          "elementDurability": 100.0
        },
        "HideType_A_Style_1_Team_1": {
          "modifierName": "",
          "elementDurability": 100.0,
          "onAdded": [
            {
              "$type": "CreateGadget",
              "born": {
                "$type": "ConfigBornBySelf",
                "useRotation": true
              },
              "lifeByOwnerV2": true,
              "gadgetID": 44000458,
              "campID": 1001,
              "campTargetType": "Enemy",
              "byServer": true
            },
            {
              "$type": "ApplyModifier",
              "modifierName": "UNIQUE_HideSeekV4_InvisibleBait_BornEffect"
            }
          ],
          "onRemoved": [
            {
              "$type": "KillGadget",
              "gadgetInfo": {
                "configID": 44000260
              }
            }
          ]
        },
        "HideType_A_Style_2_Team_2": {
          "modifierName": "",
          "elementDurability": 100.0,
          "onAdded": [
            {
              "$type": "CreateGadget",
              "born": {
                "$type": "ConfigBornBySelf",
                "useRotation": true
              },
              "lifeByOwnerV2": true,
              "gadgetID": 44000459,
              "campID": 1001,
              "campTargetType": "Enemy",
              "byServer": true
            },
            {
              "$type": "ApplyModifier",
              "modifierName": "UNIQUE_HideSeekV4_InvisibleBait_BornEffect"
            }
          ],
          "onRemoved": [
            {
              "$type": "KillGadget",
              "gadgetInfo": {
                "configID": 44000459
              }
            }
          ]
        },
        "HideType_A_Style_3_Team_3": {
          "modifierName": "",
          "elementDurability": 100.0,
          "onAdded": [
            {
              "$type": "CreateGadget",
              "born": {
                "$type": "ConfigBornBySelf",
                "useRotation": true
              },
              "lifeByOwnerV2": true,
              "gadgetID": 44000460,
              "campID": 1001,
              "campTargetType": "Enemy",
              "byServer": true
            },
            {
              "$type": "ApplyModifier",
              "modifierName": "UNIQUE_HideSeekV4_InvisibleBait_BornEffect"
            }
          ],
          "onRemoved": [
            {
              "$type": "KillGadget",
              "gadgetInfo": {
                "configID": 44000460
              }
            }
          ]
        },
        "HideType_B_Style_1_Team_4": {
          "modifierName": "",
          "elementDurability": 100.0,
          "onAdded": [
            {
              "$type": "CreateGadget",
              "born": {
                "$type": "ConfigBornBySelf",
                "useRotation": true
              },
              "lifeByOwnerV2": true,
              "gadgetID": 44000461,
              "campID": 1001,
              "campTargetType": "Enemy",
              "byServer": true
            },
            {
              "$type": "ApplyModifier",
              "modifierName": "UNIQUE_HideSeekV4_InvisibleBait_BornEffect"
            }
          ],
          "onRemoved": [
            {
              "$type": "KillGadget",
              "gadgetInfo": {
                "configID": 44000461
              }
            }
          ]
        },
        "HideType_B_Style_2_Team_5": {
          "modifierName": "",
          "elementDurability": 100.0,
          "onAdded": [
            {
              "$type": "CreateGadget",
              "born": {
                "$type": "ConfigBornBySelf",
                "useRotation": true
              },
              "lifeByOwnerV2": true,
              "gadgetID": 44000462,
              "campID": 1001,
              "campTargetType": "Enemy",
              "byServer": true
            },
            {
              "$type": "ApplyModifier",
              "modifierName": "UNIQUE_HideSeekV4_InvisibleBait_BornEffect"
            }
          ],
          "onRemoved": [
            {
              "$type": "KillGadget",
              "gadgetInfo": {
                "configID": 44000462
              }
            }
          ]
        },
        "HideType_C_Style_1_Team_6": {
          "modifierName": "",
          "elementDurability": 100.0,
          "onAdded": [
            {
              "$type": "CreateGadget",
              "born": {
                "$type": "ConfigBornBySelf",
                "useRotation": true
              },
              "lifeByOwnerV2": true,
              "gadgetID": 44000463,
              "campID": 1001,
              "campTargetType": "Enemy",
              "byServer": true
            },
            {
              "$type": "ApplyModifier",
              "modifierName": "UNIQUE_HideSeekV4_InvisibleBait_BornEffect"
            }
          ],
          "onRemoved": [
            {
              "$type": "KillGadget",
              "gadgetInfo": {
                "configID": 44000463
              }
            }
          ]
        },
        "HideType_D_Style_1_Team_7": {
          "modifierName": "",
          "elementDurability": 100.0,
          "onAdded": [
            {
              "$type": "CreateGadget",
              "born": {
                "$type": "ConfigBornBySelf",
                "useRotation": true
              },
              "lifeByOwnerV2": true,
              "gadgetID": 44000464,
              "campID": 1001,
              "campTargetType": "Enemy",
              "byServer": true
            },
            {
              "$type": "ApplyModifier",
              "modifierName": "UNIQUE_HideSeekV4_InvisibleBait_BornEffect"
            }
          ],
          "onRemoved": [
            {
              "$type": "KillGadget",
              "gadgetInfo": {
                "configID": 44000464
              }
            }
          ]
        },
        "HideType_D_Style_2_Team_8": {
          "modifierName": "",
          "elementDurability": 100.0,
          "onAdded": [
            {
              "$type": "CreateGadget",
              "born": {
                "$type": "ConfigBornBySelf",
                "useRotation": true
              },
              "lifeByOwnerV2": true,
              "gadgetID": 44000465,
              "campID": 1001,
              "campTargetType": "Enemy",
              "byServer": true
            },
            {
              "$type": "ApplyModifier",
              "modifierName": "UNIQUE_HideSeekV4_InvisibleBait_BornEffect"
            }
          ],
          "onRemoved": [
            {
              "$type": "KillGadget",
              "gadgetInfo": {
                "configID": 44000465
              }
            }
          ]
        },
        "HideType_E_Style_1_Team_9": {
          "modifierName": "",
          "elementDurability": 100.0,
          "onAdded": [
            {
              "$type": "CreateGadget",
              "born": {
                "$type": "ConfigBornBySelf",
                "useRotation": true
              },
              "lifeByOwnerV2": true,
              "gadgetID": 44000466,
              "campID": 1001,
              "campTargetType": "Enemy",
              "byServer": true
            },
            {
              "$type": "ApplyModifier",
              "modifierName": "UNIQUE_HideSeekV4_InvisibleBait_BornEffect"
            }
          ],
          "onRemoved": [
            {
              "$type": "KillGadget",
              "gadgetInfo": {
                "configID": 44000466
              }
            }
          ]
        },
        "HideType_E_Style_2_Team_10": {
          "modifierName": "",
          "elementDurability": 100.0,
          "onAdded": [
            {
              "$type": "CreateGadget",
              "born": {
                "$type": "ConfigBornBySelf",
                "useRotation": true
              },
              "lifeByOwnerV2": true,
              "gadgetID": 44000467,
              "campID": 1001,
              "campTargetType": "Enemy",
              "byServer": true
            },
            {
              "$type": "ApplyModifier",
              "modifierName": "UNIQUE_HideSeekV4_InvisibleBait_BornEffect"
            }
          ],
          "onRemoved": [
            {
              "$type": "KillGadget",
              "gadgetInfo": {
                "configID": 44000467
              }
            }
          ]
        },
        "HideType_Team_1": {
          "modifierName": "",
          "elementDurability": 100.0,
          "onAdded": [
            {
              "$type": "CreateGadget",
              "born": {
                "$type": "ConfigBornBySelf",
                "useRotation": true
              },
              "lifeByOwnerV2": true,
              "gadgetID": 44000468,
              "campID": 1001,
              "campTargetType": "Enemy",
              "byServer": true
            },
            {
              "$type": "ApplyModifier",
              "modifierName": "UNIQUE_HideSeekV4_InvisibleBait_BornEffect"
            }
          ],
          "onRemoved": [
            {
              "$type": "KillGadget",
              "gadgetInfo": {
                "configID": 44000468
              }
            }
          ]
        },
        "HideType_Team_2": {
          "modifierName": "",
          "elementDurability": 100.0,
          "onAdded": [
            {
              "$type": "CreateGadget",
              "born": {
                "$type": "ConfigBornBySelf",
                "useRotation": true
              },
              "lifeByOwnerV2": true,
              "gadgetID": 44000469,
              "campID": 1001,
              "campTargetType": "Enemy",
              "byServer": true
            },
            {
              "$type": "ApplyModifier",
              "modifierName": "UNIQUE_HideSeekV4_InvisibleBait_BornEffect"
            }
          ],
          "onRemoved": [
            {
              "$type": "KillGadget",
              "gadgetInfo": {
                "configID": 44000469
              }
            }
          ]
        },
        "HideType_Team_3": {
          "modifierName": "",
          "elementDurability": 100.0,
          "onAdded": [
            {
              "$type": "CreateGadget",
              "born": {
                "$type": "ConfigBornBySelf",
                "useRotation": true
              },
              "lifeByOwnerV2": true,
              "gadgetID": 44000470,
              "campID": 1001,
              "campTargetType": "Enemy",
              "byServer": true
            },
            {
              "$type": "ApplyModifier",
              "modifierName": "UNIQUE_HideSeekV4_InvisibleBait_BornEffect"
            }
          ],
          "onRemoved": [
            {
              "$type": "KillGadget",
              "gadgetInfo": {
                "configID": 44000470
              }
            }
          ]
        },
        "HideType_Team_4": {
          "modifierName": "",
          "elementDurability": 100.0,
          "onAdded": [
            {
              "$type": "CreateGadget",
              "born": {
                "$type": "ConfigBornBySelf",
                "useRotation": true
              },
              "lifeByOwnerV2": true,
              "gadgetID": 44000471,
              "campID": 1001,
              "campTargetType": "Enemy",
              "byServer": true
            },
            {
              "$type": "ApplyModifier",
              "modifierName": "UNIQUE_HideSeekV4_InvisibleBait_BornEffect"
            }
          ],
          "onRemoved": [
            {
              "$type": "KillGadget",
              "gadgetInfo": {
                "configID": 44000471
              }
            }
          ]
        },
        "HideType_Team_5": {
          "modifierName": "",
          "elementDurability": 100.0,
          "onAdded": [
            {
              "$type": "CreateGadget",
              "born": {
                "$type": "ConfigBornBySelf",
                "useRotation": true
              },
              "lifeByOwnerV2": true,
              "gadgetID": 44000472,
              "campID": 1001,
              "campTargetType": "Enemy",
              "byServer": true
            },
            {
              "$type": "ApplyModifier",
              "modifierName": "UNIQUE_HideSeekV4_InvisibleBait_BornEffect"
            }
          ],
          "onRemoved": [
            {
              "$type": "KillGadget",
              "gadgetInfo": {
                "configID": 44000472
              }
            }
          ]
        },
        "HideType_Team_6": {
          "modifierName": "",
          "elementDurability": 100.0,
          "onAdded": [
            {
              "$type": "CreateGadget",
              "born": {
                "$type": "ConfigBornBySelf",
                "useRotation": true
              },
              "lifeByOwnerV2": true,
              "gadgetID": 44000473,
              "campID": 1001,
              "campTargetType": "Enemy",
              "byServer": true
            },
            {
              "$type": "ApplyModifier",
              "modifierName": "UNIQUE_HideSeekV4_InvisibleBait_BornEffect"
            }
          ],
          "onRemoved": [
            {
              "$type": "KillGadget",
              "gadgetInfo": {
                "configID": 44000473
              }
            }
          ]
        },
        "HideType_Team_7": {
          "modifierName": "",
          "elementDurability": 100.0,
          "onAdded": [
            {
              "$type": "CreateGadget",
              "born": {
                "$type": "ConfigBornBySelf",
                "useRotation": true
              },
              "lifeByOwnerV2": true,
              "gadgetID": 44000474,
              "campID": 1001,
              "campTargetType": "Enemy",
              "byServer": true
            },
            {
              "$type": "ApplyModifier",
              "modifierName": "UNIQUE_HideSeekV4_InvisibleBait_BornEffect"
            }
          ],
          "onRemoved": [
            {
              "$type": "KillGadget",
              "gadgetInfo": {
                "configID": 44000474
              }
            }
          ]
        },
        "HideType_Team_8": {
          "modifierName": "",
          "elementDurability": 100.0,
          "onAdded": [
            {
              "$type": "CreateGadget",
              "born": {
                "$type": "ConfigBornBySelf",
                "useRotation": true
              },
              "lifeByOwnerV2": true,
              "gadgetID": 44000475,
              "campID": 1001,
              "campTargetType": "Enemy",
              "byServer": true
            },
            {
              "$type": "ApplyModifier",
              "modifierName": "UNIQUE_HideSeekV4_InvisibleBait_BornEffect"
            }
          ],
          "onRemoved": [
            {
              "$type": "KillGadget",
              "gadgetInfo": {
                "configID": 44000475
              }
            }
          ]
        },
        "HideType_Team_9": {
          "modifierName": "",
          "elementDurability": 100.0,
          "onAdded": [
            {
              "$type": "CreateGadget",
              "born": {
                "$type": "ConfigBornBySelf",
                "useRotation": true
              },
              "lifeByOwnerV2": true,
              "gadgetID": 44000476,
              "campID": 1001,
              "campTargetType": "Enemy",
              "byServer": true
            },
            {
              "$type": "ApplyModifier",
              "modifierName": "UNIQUE_HideSeekV4_InvisibleBait_BornEffect"
            }
          ],
          "onRemoved": [
            {
              "$type": "KillGadget",
              "gadgetInfo": {
                "configID": 44000476
              }
            }
          ]
        },
        "HideType_Team_10": {
          "modifierName": "",
          "elementDurability": 100.0,
          "onAdded": [
            {
              "$type": "CreateGadget",
              "born": {
                "$type": "ConfigBornBySelf",
                "useRotation": true
              },
              "lifeByOwnerV2": true,
              "gadgetID": 44000477,
              "campID": 1001,
              "campTargetType": "Enemy",
              "byServer": true
            },
            {
              "$type": "ApplyModifier",
              "modifierName": "UNIQUE_HideSeekV4_InvisibleBait_BornEffect"
            }
          ],
          "onRemoved": [
            {
              "$type": "KillGadget",
              "gadgetInfo": {
                "configID": 44000477
              }
            }
          ]
        },
        "HideType_Team_11": {
          "modifierName": "",
          "elementDurability": 100.0,
          "onAdded": [
            {
              "$type": "CreateGadget",
              "born": {
                "$type": "ConfigBornBySelf",
                "useRotation": true
              },
              "lifeByOwnerV2": true,
              "gadgetID": 44000478,
              "campID": 1001,
              "campTargetType": "Enemy",
              "byServer": true
            },
            {
              "$type": "ApplyModifier",
              "modifierName": "UNIQUE_HideSeekV4_InvisibleBait_BornEffect"
            }
          ],
          "onRemoved": [
            {
              "$type": "KillGadget",
              "gadgetInfo": {
                "configID": 44000478
              }
            }
          ]
        },
        "HideType_Team_12": {
          "modifierName": "",
          "elementDurability": 100.0,
          "onAdded": [
            {
              "$type": "CreateGadget",
              "born": {
                "$type": "ConfigBornBySelf",
                "useRotation": true
              },
              "lifeByOwnerV2": true,
              "gadgetID": 44000479,
              "campID": 1001,
              "campTargetType": "Enemy",
              "byServer": true
            },
            {
              "$type": "ApplyModifier",
              "modifierName": "UNIQUE_HideSeekV4_InvisibleBait_BornEffect"
            }
          ],
          "onRemoved": [
            {
              "$type": "KillGadget",
              "gadgetInfo": {
                "configID": 44000479
              }
            }
          ]
        },
        "HideType_Team_13": {
          "modifierName": "",
          "elementDurability": 100.0,
          "onAdded": [
            {
              "$type": "CreateGadget",
              "born": {
                "$type": "ConfigBornBySelf",
                "useRotation": true
              },
              "lifeByOwnerV2": true,
              "gadgetID": 44000480,
              "campID": 1001,
              "campTargetType": "Enemy",
              "byServer": true
            },
            {
              "$type": "ApplyModifier",
              "modifierName": "UNIQUE_HideSeekV4_InvisibleBait_BornEffect"
            }
          ],
          "onRemoved": [
            {
              "$type": "KillGadget",
              "gadgetInfo": {
                "configID": 44000480
              }
            }
          ]
        },
        "HideType_Team_24": {
          "modifierName": "",
          "elementDurability": 100.0,
          "onAdded": [
            {
              "$type": "CreateGadget",
              "born": {
                "$type": "ConfigBornBySelf",
                "useRotation": true
              },
              "lifeByOwnerV2": true,
              "gadgetID": 44000481,
              "campID": 1001,
              "campTargetType": "Enemy",
              "byServer": true
            },
            {
              "$type": "ApplyModifier",
              "modifierName": "UNIQUE_HideSeekV4_InvisibleBait_BornEffect"
            }
          ],
          "onRemoved": [
            {
              "$type": "KillGadget",
              "gadgetInfo": {
                "configID": 44000481
              }
            }
          ]
        },
        "HideType_Team_25": {
          "modifierName": "",
          "elementDurability": 100.0,
          "onAdded": [
            {
              "$type": "CreateGadget",
              "born": {
                "$type": "ConfigBornBySelf",
                "useRotation": true
              },
              "lifeByOwnerV2": true,
              "gadgetID": 44000482,
              "campID": 1001,
              "campTargetType": "Enemy",
              "byServer": true
            },
            {
              "$type": "ApplyModifier",
              "modifierName": "UNIQUE_HideSeekV4_InvisibleBait_BornEffect"
            }
          ],
          "onRemoved": [
            {
              "$type": "KillGadget",
              "gadgetInfo": {
                "configID": 44000482
              }
            }
          ]
        },
        "HideType_Team_26": {
          "modifierName": "",
          "elementDurability": 100.0,
          "onAdded": [
            {
              "$type": "CreateGadget",
              "born": {
                "$type": "ConfigBornBySelf",
                "useRotation": true
              },
              "lifeByOwnerV2": true,
              "gadgetID": 44000483,
              "campID": 1001,
              "campTargetType": "Enemy",
              "byServer": true
            },
            {
              "$type": "ApplyModifier",
              "modifierName": "UNIQUE_HideSeekV4_InvisibleBait_BornEffect"
            }
          ],
          "onRemoved": [
            {
              "$type": "KillGadget",
              "gadgetInfo": {
                "configID": 44000483
              }
            }
          ]
        },
        "HideType_Team_27": {
          "modifierName": "",
          "elementDurability": 100.0,
          "onAdded": [
            {
              "$type": "CreateGadget",
              "born": {
                "$type": "ConfigBornBySelf",
                "useRotation": true
              },
              "lifeByOwnerV2": true,
              "gadgetID": 44000484,
              "campID": 1001,
              "campTargetType": "Enemy",
              "byServer": true
            },
            {
              "$type": "ApplyModifier",
              "modifierName": "UNIQUE_HideSeekV4_InvisibleBait_BornEffect"
            }
          ],
          "onRemoved": [
            {
              "$type": "KillGadget",
              "gadgetInfo": {
                "configID": 44000484
              }
            }
          ]
        },
        "HideType_Team_28": {
          "modifierName": "",
          "elementDurability": 100.0,
          "onAdded": [
            {
              "$type": "CreateGadget",
              "born": {
                "$type": "ConfigBornBySelf",
                "useRotation": true
              },
              "lifeByOwnerV2": true,
              "gadgetID": 44000485,
              "campID": 1001,
              "campTargetType": "Enemy",
              "byServer": true
            },
            {
              "$type": "ApplyModifier",
              "modifierName": "UNIQUE_HideSeekV4_InvisibleBait_BornEffect"
            }
          ],
          "onRemoved": [
            {
              "$type": "KillGadget",
              "gadgetInfo": {
                "configID": 44000485
              }
            }
          ]
        },
        "HideType_Team_29": {
          "modifierName": "",
          "elementDurability": 100.0,
          "onAdded": [
            {
              "$type": "CreateGadget",
              "born": {
                "$type": "ConfigBornBySelf",
                "useRotation": true
              },
              "lifeByOwnerV2": true,
              "gadgetID": 44000486,
              "campID": 1001,
              "campTargetType": "Enemy",
              "byServer": true
            },
            {
              "$type": "ApplyModifier",
              "modifierName": "UNIQUE_HideSeekV4_InvisibleBait_BornEffect"
            }
          ],
          "onRemoved": [
            {
              "$type": "KillGadget",
              "gadgetInfo": {
                "configID": 44000486
              }
            }
          ]
        },
        "HideType_Team_30": {
          "modifierName": "",
          "elementDurability": 100.0,
          "onAdded": [
            {
              "$type": "CreateGadget",
              "born": {
                "$type": "ConfigBornBySelf",
                "useRotation": true
              },
              "lifeByOwnerV2": true,
              "gadgetID": 44000487,
              "campID": 1001,
              "campTargetType": "Enemy",
              "byServer": true
            },
            {
              "$type": "ApplyModifier",
              "modifierName": "UNIQUE_HideSeekV4_InvisibleBait_BornEffect"
            }
          ],
          "onRemoved": [
            {
              "$type": "KillGadget",
              "gadgetInfo": {
                "configID": 44000487
              }
            }
          ]
        },
        "HideType_Team_31": {
          "modifierName": "",
          "elementDurability": 100.0,
          "onAdded": [
            {
              "$type": "CreateGadget",
              "born": {
                "$type": "ConfigBornBySelf",
                "useRotation": true
              },
              "lifeByOwnerV2": true,
              "gadgetID": 44000488,
              "campID": 1001,
              "campTargetType": "Enemy",
              "byServer": true
            },
            {
              "$type": "ApplyModifier",
              "modifierName": "UNIQUE_HideSeekV4_InvisibleBait_BornEffect"
            }
          ],
          "onRemoved": [
            {
              "$type": "KillGadget",
              "gadgetInfo": {
                "configID": 44000488
              }
            }
          ]
        },
        "HideType_Team_32": {
          "modifierName": "",
          "elementDurability": 100.0,
          "onAdded": [
            {
              "$type": "CreateGadget",
              "born": {
                "$type": "ConfigBornBySelf",
                "useRotation": true
              },
              "lifeByOwnerV2": true,
              "gadgetID": 44000489,
              "campID": 1001,
              "campTargetType": "Enemy",
              "byServer": true
            },
            {
              "$type": "ApplyModifier",
              "modifierName": "UNIQUE_HideSeekV4_InvisibleBait_BornEffect"
            }
          ],
          "onRemoved": [
            {
              "$type": "KillGadget",
              "gadgetInfo": {
                "configID": 44000489
              }
            }
          ]
        },
        "HideType_Team_33": {
          "modifierName": "",
          "elementDurability": 100.0,
          "onAdded": [
            {
              "$type": "CreateGadget",
              "born": {
                "$type": "ConfigBornBySelf",
                "useRotation": true
              },
              "lifeByOwnerV2": true,
              "gadgetID": 44000490,
              "campID": 1001,
              "campTargetType": "Enemy",
              "byServer": true
            },
            {
              "$type": "ApplyModifier",
              "modifierName": "UNIQUE_HideSeekV4_InvisibleBait_BornEffect"
            }
          ],
          "onRemoved": [
            {
              "$type": "KillGadget",
              "gadgetInfo": {
                "configID": 44000490
              }
            }
          ]
        },
        "HideType_Team_34": {
          "modifierName": "",
          "elementDurability": 100.0,
          "onAdded": [
            {
              "$type": "CreateGadget",
              "born": {
                "$type": "ConfigBornBySelf",
                "useRotation": true
              },
              "lifeByOwnerV2": true,
              "gadgetID": 44000491,
              "campID": 1001,
              "campTargetType": "Enemy",
              "byServer": true
            },
            {
              "$type": "ApplyModifier",
              "modifierName": "UNIQUE_HideSeekV4_InvisibleBait_BornEffect"
            }
          ],
          "onRemoved": [
            {
              "$type": "KillGadget",
              "gadgetInfo": {
                "configID": 44000491
              }
            }
          ]
        },
        "HideType_Team_35": {
          "modifierName": "",
          "elementDurability": 100.0,
          "onAdded": [
            {
              "$type": "CreateGadget",
              "born": {
                "$type": "ConfigBornBySelf",
                "useRotation": true
              },
              "lifeByOwnerV2": true,
              "gadgetID": 44000492,
              "campID": 1001,
              "campTargetType": "Enemy",
              "byServer": true
            },
            {
              "$type": "ApplyModifier",
              "modifierName": "UNIQUE_HideSeekV4_InvisibleBait_BornEffect"
            }
          ],
          "onRemoved": [
            {
              "$type": "KillGadget",
              "gadgetInfo": {
                "configID": 44000492
              }
            }
          ]
        },
        "HideType_Team_36": {
          "modifierName": "",
          "elementDurability": 100.0,
          "onAdded": [
            {
              "$type": "CreateGadget",
              "born": {
                "$type": "ConfigBornBySelf",
                "useRotation": true
              },
              "lifeByOwnerV2": true,
              "gadgetID": 44000493,
              "campID": 1001,
              "campTargetType": "Enemy",
              "byServer": true
            },
            {
              "$type": "ApplyModifier",
              "modifierName": "UNIQUE_HideSeekV4_InvisibleBait_BornEffect"
            }
          ],
          "onRemoved": [
            {
              "$type": "KillGadget",
              "gadgetInfo": {
                "configID": 44000493
              }
            }
          ]
        },
        "HideType_Team_37": {
          "modifierName": "",
          "elementDurability": 100.0,
          "onAdded": [
            {
              "$type": "CreateGadget",
              "born": {
                "$type": "ConfigBornBySelf",
                "useRotation": true
              },
              "lifeByOwnerV2": true,
              "gadgetID": 44000494,
              "campID": 1001,
              "campTargetType": "Enemy",
              "byServer": true
            },
            {
              "$type": "ApplyModifier",
              "modifierName": "UNIQUE_HideSeekV4_InvisibleBait_BornEffect"
            }
          ],
          "onRemoved": [
            {
              "$type": "KillGadget",
              "gadgetInfo": {
                "configID": 44000494
              }
            }
          ]
        },
        "HideType_Team_38": {
          "modifierName": "",
          "elementDurability": 100.0,
          "onAdded": [
            {
              "$type": "CreateGadget",
              "born": {
                "$type": "ConfigBornBySelf",
                "useRotation": true
              },
              "lifeByOwnerV2": true,
              "gadgetID": 44000495,
              "campID": 1001,
              "campTargetType": "Enemy",
              "byServer": true
            },
            {
              "$type": "ApplyModifier",
              "modifierName": "UNIQUE_HideSeekV4_InvisibleBait_BornEffect"
            }
          ],
          "onRemoved": [
            {
              "$type": "KillGadget",
              "gadgetInfo": {
                "configID": 44000495
              }
            }
          ]
        },
        "HideType_Team_39": {
          "modifierName": "",
          "elementDurability": 100.0,
          "onAdded": [
            {
              "$type": "CreateGadget",
              "born": {
                "$type": "ConfigBornBySelf",
                "useRotation": true
              },
              "lifeByOwnerV2": true,
              "gadgetID": 44000496,
              "campID": 1001,
              "campTargetType": "Enemy",
              "byServer": true
            },
            {
              "$type": "ApplyModifier",
              "modifierName": "UNIQUE_HideSeekV4_InvisibleBait_BornEffect"
            }
          ],
          "onRemoved": [
            {
              "$type": "KillGadget",
              "gadgetInfo": {
                "configID": 44000496
              }
            }
          ]
        },
        "HideType_Team_40": {
          "modifierName": "",
          "elementDurability": 100.0,
          "onAdded": [
            {
              "$type": "CreateGadget",
              "born": {
                "$type": "ConfigBornBySelf",
                "useRotation": true
              },
              "lifeByOwnerV2": true,
              "gadgetID": 44000497,
              "campID": 1001,
              "campTargetType": "Enemy",
              "byServer": true
            },
            {
              "$type": "ApplyModifier",
              "modifierName": "UNIQUE_HideSeekV4_InvisibleBait_BornEffect"
            }
          ],
          "onRemoved": [
            {
              "$type": "KillGadget",
              "gadgetInfo": {
                "configID": 44000497
              }
            }
          ]
        },
        "HideType_Team_41": {
          "modifierName": "",
          "elementDurability": 100.0,
          "onAdded": [
            {
              "$type": "CreateGadget",
              "born": {
                "$type": "ConfigBornBySelf",
                "useRotation": true
              },
              "lifeByOwnerV2": true,
              "gadgetID": 44000498,
              "campID": 1001,
              "campTargetType": "Enemy",
              "byServer": true
            },
            {
              "$type": "ApplyModifier",
              "modifierName": "UNIQUE_HideSeekV4_InvisibleBait_BornEffect"
            }
          ],
          "onRemoved": [
            {
              "$type": "KillGadget",
              "gadgetInfo": {
                "configID": 44000498
              }
            }
          ]
        },
        "HideType_Team_42": {
          "modifierName": "",
          "elementDurability": 100.0,
          "onAdded": [
            {
              "$type": "CreateGadget",
              "born": {
                "$type": "ConfigBornBySelf",
                "useRotation": true
              },
              "lifeByOwnerV2": true,
              "gadgetID": 44000499,
              "campID": 1001,
              "campTargetType": "Enemy",
              "byServer": true
            },
            {
              "$type": "ApplyModifier",
              "modifierName": "UNIQUE_HideSeekV4_InvisibleBait_BornEffect"
            }
          ],
          "onRemoved": [
            {
              "$type": "KillGadget",
              "gadgetInfo": {
                "configID": 44000499
              }
            }
          ]
        },
        "HideType_Team_43": {
          "modifierName": "",
          "elementDurability": 100.0,
          "onAdded": [
            {
              "$type": "CreateGadget",
              "born": {
                "$type": "ConfigBornBySelf",
                "useRotation": true
              },
              "lifeByOwnerV2": true,
              "gadgetID": 44000500,
              "campID": 1001,
              "campTargetType": "Enemy",
              "byServer": true
            },
            {
              "$type": "ApplyModifier",
              "modifierName": "UNIQUE_HideSeekV4_InvisibleBait_BornEffect"
            }
          ],
          "onRemoved": [
            {
              "$type": "KillGadget",
              "gadgetInfo": {
                "configID": 44000500
              }
            }
          ]
        },
        "HideType_Team_44": {
          "modifierName": "",
          "elementDurability": 100.0,
          "onAdded": [
            {
              "$type": "CreateGadget",
              "born": {
                "$type": "ConfigBornBySelf",
                "useRotation": true
              },
              "lifeByOwnerV2": true,
              "gadgetID": 44000594,
              "campID": 1001,
              "campTargetType": "Enemy",
              "byServer": true
            },
            {
              "$type": "ApplyModifier",
              "modifierName": "UNIQUE_HideSeekV4_InvisibleBait_BornEffect"
            }
          ],
          "onRemoved": [
            {
              "$type": "KillGadget",
              "gadgetInfo": {
                "configID": 44000594
              }
            }
          ]
        },
        "HideType_Team_45": {
          "modifierName": "",
          "elementDurability": 100.0,
          "onAdded": [
            {
              "$type": "CreateGadget",
              "born": {
                "$type": "ConfigBornBySelf",
                "useRotation": true
              },
              "lifeByOwnerV2": true,
              "gadgetID": 44000595,
              "campID": 1001,
              "campTargetType": "Enemy",
              "byServer": true
            },
            {
              "$type": "ApplyModifier",
              "modifierName": "UNIQUE_HideSeekV4_InvisibleBait_BornEffect"
            }
          ],
          "onRemoved": [
            {
              "$type": "KillGadget",
              "gadgetInfo": {
                "configID": 44000595
              }
            }
          ]
        },
        "HideType_Team_46": {
          "modifierName": "",
          "elementDurability": 100.0,
          "onAdded": [
            {
              "$type": "CreateGadget",
              "born": {
                "$type": "ConfigBornBySelf",
                "useRotation": true
              },
              "lifeByOwnerV2": true,
              "gadgetID": 44000596,
              "campID": 1001,
              "campTargetType": "Enemy",
              "byServer": true
            },
            {
              "$type": "ApplyModifier",
              "modifierName": "UNIQUE_HideSeekV4_InvisibleBait_BornEffect"
            }
          ],
          "onRemoved": [
            {
              "$type": "KillGadget",
              "gadgetInfo": {
                "configID": 44000596
              }
            }
          ]
        },
        "UNIQUE_HideSeekV4_InvisibleBait_BornEffect": {
          "modifierName": "",
          "forceTriggerWhenChangeAuthority": true,
          "duration": 0.10000000149011612,
          "elementDurability": 100.0,
          "onAdded": [
            {
              "$type": "FireEffect",
              "rotationDampTime": "Eff_Activity_HideSeek_Bait",
              "PPPDJGDDOGD": 1.0,
              "AJDILHJFNKE": -1.0
            }
          ]
        },
        "UNIQUE_HideSeekV4_Seeker_Execution_InvisibleBait": {
          "modifierName": "",
          "forceTriggerWhenChangeAuthority": true,
          "duration": 3.0,
          "elementDurability": 100.0,
          "onAdded": [
            {
              "$type": "DungeonFogEffects",
              "muteRemoteAction": true,
              "enable": true,
              "cameraFogEffectName": "Eff_Activity_HideSeek_Bait_MuddyBullet",
              "playerFogEffectName": ""
            },
            {
              "$type": "AHPEKICBIIL",
              "luaCallType": "AbilityGroupSourceGroup",
              "funcName": "HideAndSeek_Skill_Blind",
              "param1": 0.0,
              "MGAMDEHMCOL": 0.0,
              "MMHOHAOGPLP": 0.0
            },
            {
              "$type": "DebugLog",
              "content": "##slc:诱饵命中了猎手"
            },
            {
              "$type": "AttachEffect",
              "rotationDampTime": "Eff_Activity_HideSeek_Bait_Hider",
              "born": {
                "$type": "ConfigBornByTarget",
                "offset": {
                  "x": 0.0,
                  "y": 0.0,
                  "z": 0.0
                }
              },
              "PPPDJGDDOGD": 1.0,
              "AJDILHJFNKE": -1.0
            }
          ],
          "onRemoved": [
            {
              "$type": "DungeonFogEffects",
              "cameraFogEffectName": "Eff_Activity_HideSeek_Bait_MuddyBullet",
              "playerFogEffectName": ""
            }
          ]
        },
        "Blank": {
          "modifierName": "",
          "elementDurability": 100.0
        },
        "UNIQUE_HideSeekV4_InvisibleBait_AttachEffect": {
          "stacking": "Unique",
          "modifierName": "",
          "forceTriggerWhenChangeAuthority": true,
          "elementDurability": 100.0,
          "onAdded": [
            {
              "$type": "PENMIJBLLPF",
              "canBeHandledOnRecover": true,
              "actionList": [
                {
                  "$type": "AttachEffect",
                  "predicates": [
                    {
                      "$type": "ByAny",
                      "predicates": [
                        {
                          "$type": "ByTargetGlobalValue",
                          "target": "Team",
                          "key": "SGV_HideAndSeek_PlayerState_Play",
                          "value": 1.0
                        },
                        {
                          "$type": "ByTargetGlobalValue",
                          "target": "Team",
                          "key": "SGV_HideAndSeek_PlayerState_Play",
                          "value": 3.0
                        }
                      ]
                    }
                  ],
                  "rotationDampTime": "Eff_Activity_HideSeek_Invisible_Bait_Range",
                  "PPPDJGDDOGD": 1.0,
                  "AJDILHJFNKE": -1.0
                }
              ]
            }
          ]
        },
        "UNIQUE_HideSeekV4_InvisibleBait_CheckEffect": {
          "stacking": "Unique",
          "modifierName": "",
          "forceTriggerWhenChangeAuthority": true,
          "elementDurability": 100.0,
          "onAdded": [
            {
              "$type": "PENMIJBLLPF",
              "canBeHandledOnRecover": true,
              "actionList": [
                {
                  "$type": "RemoveUniqueModifier",
                  "predicates": [
                    {
                      "$type": "ByNot",
                      "predicates": [
                        {
                          "$type": "ByAny",
                          "predicates": [
                            {
                              "$type": "ByTargetGlobalValue",
                              "target": "Team",
                              "key": "SGV_HideAndSeek_PlayerState_Play",
                              "value": 1.0
                            },
                            {
                              "$type": "ByTargetGlobalValue",
                              "target": "Team",
                              "key": "SGV_HideAndSeek_PlayerState_Play",
                              "value": 3.0
                            }
                          ]
                        }
                      ]
                    }
                  ],
                  "modifierName": "UNIQUE_HideSeekV4_InvisibleBait_AttachEffect"
                }
              ]
            }
          ]
        }
      },
      "onAdded": [
        {
          "$type": "AttachModifier",
          "modifierName": "UNIQUE_ActivityAbility_HideSeekV4_Hider_PlaceInvisibleBait_Team"
        },
        {
          "$type": "SetGlobalValue",
          "value": 1.0,
          "key": "HideAndSeek_Seeker_Bait_Gadget",
          "maxValue": 0.0,
          "minValue": 0.0
        },
        {
          "$type": "SetGlobalValue",
          "value": 1.0,
          "key": "HideAndSeek_Seeker_InvisibleBait_Gadget",
          "maxValue": 0.0,
          "minValue": 0.0
        },
        {
          "$type": "AttachModifier",
          "modifierName": "UNIQUE_HideSeekV4_InvisibleBait_Timer"
        },
        {
          "$type": "AttachModifier",
          "modifierName": "UNIQUE_HideSeekV4_InvisibleBait_AttachEffect"
        }
      ],
      "onKill": [
        {
          "$type": "DebugLog",
          "content": "HideAndSeek_V3 invisible bait is killed"
        },
        {
          "$type": "FireEffect",
          "rotationDampTime": "Eff_Activity_HideSeek_Bait_Disappear",
          "PPPDJGDDOGD": 1.0,
          "AJDILHJFNKE": -1.0
        }
      ],
      "onFieldExit": [
        {
          "$type": "DebugLog",
          "content": "HideAndSeek_V3 onfieldexit!!!!!!!!!!!!"
        },
        {
          "$type": "ApplyModifier",
          "modifierName": "UNIQUE_HideSeekV4_Check_InvisibleBaits_Around_Avatar"
        }
      ],
      "isDynamicAbility": true
    }
  }
]
