[
  {
    "Default": {
      "$type": "ConfigAbility",
      "abilityName": "SceneObj_Gear_Common_Property_Prop_JumpUp_01",
      "modifiers": {
        "EffectBall": {
          "modifierName": "",
          "elementDurability": 100.0,
          "onAdded": [
            {
              "$type": "AttachEffect",
              "rotationDampTime": "Eff_SceneObj_JumpUp_01",
              "PPPDJGDDOGD": 1.0,
              "AJDILHJFNKE": -1.0
            }
          ]
        },
        "UNIQUE_WinterCamp_RocketJump_GV": {
          "stacking": "RefreshUniqueDurability",
          "modifierName": "",
          "forceTriggerWhenChangeAuthority": true,
          "duration": 8.0,
          "elementDurability": 100.0,
          "onAdded": [
            {
              "$type": "SetGlobalValue",
              "value": 1.0,
              "key": "WinterCamp_RocketJump",
              "maxValue": 0.0,
              "minValue": 0.0
            }
          ],
          "onRemoved": [
            {
              "$type": "SetGlobalValue",
              "shieldHP": true,
              "value": 0.0,
              "key": "WinterCamp_RocketJump",
              "maxValue": 0.0,
              "minValue": 0.0
            }
          ]
        }
      },
      "onAdded": [
        {
          "$type": "AttachModifier",
          "modifierName": "EffectBall"
        }
      ],
      "onFieldEnter": [
        {
          "$type": "ApplyModifier",
          "target": "TargetTeam",
          "modifierName": "UNIQUE_WinterCamp_RocketJump_GV"
        },
        {
          "$type": "AHPEKICBIIL",
          "luaCallType": "CurChallengeGroup",
          "funcName": "SLC_ReportBuffGet",
          "paramNum": 1,
          "param1": 2.0,
          "MGAMDEHMCOL": 0.0,
          "MMHOHAOGPLP": 0.0
        },
        {
          "$type": "RemoveModifier",
          "modifierName": "EffectBall"
        },
        {
          "$type": "FireEffect",
          "rotationDampTime": "Eff_SceneObj_JumpUp_01_Dis",
          "PPPDJGDDOGD": 1.0,
          "AJDILHJFNKE": -1.0
        },
        {
          "$type": "KillSelf",
          "hideEntity": true
        }
      ]
    }
  },
  {
    "Default": {
      "$type": "ConfigAbility",
      "abilityName": "SceneObj_Gear_Common_Property_Prop_ShieldPower_01",
      "modifiers": {
        "EffectBall": {
          "modifierName": "",
          "elementDurability": 100.0,
          "onAdded": [
            {
              "$type": "AttachEffect",
              "rotationDampTime": "Eff_SceneObj_ShieldPower_01",
              "PPPDJGDDOGD": 1.0,
              "AJDILHJFNKE": -1.0
            }
          ]
        },
        "UNIQUE_WinterCamp_Shield_GV": {
          "stacking": "RefreshUniqueDurability",
          "modifierName": "",
          "forceTriggerWhenChangeAuthority": true,
          "duration": 8.0,
          "elementDurability": 100.0,
          "onAdded": [
            {
              "$type": "SetGlobalValue",
              "value": 1.0,
              "key": "WinterCamp_Shield",
              "maxValue": 0.0,
              "minValue": 0.0
            }
          ],
          "onRemoved": [
            {
              "$type": "SetGlobalValue",
              "shieldHP": true,
              "value": 0.0,
              "key": "WinterCamp_Shield",
              "maxValue": 0.0,
              "minValue": 0.0
            }
          ]
        }
      },
      "onAdded": [
        {
          "$type": "AttachModifier",
          "modifierName": "EffectBall"
        }
      ],
      "onFieldEnter": [
        {
          "$type": "ApplyModifier",
          "target": "TargetTeam",
          "modifierName": "UNIQUE_WinterCamp_Shield_GV"
        },
        {
          "$type": "AHPEKICBIIL",
          "luaCallType": "CurChallengeGroup",
          "funcName": "SLC_ReportBuffGet",
          "paramNum": 1,
          "param1": 3.0,
          "MGAMDEHMCOL": 0.0,
          "MMHOHAOGPLP": 0.0
        },
        {
          "$type": "RemoveModifier",
          "modifierName": "EffectBall"
        },
        {
          "$type": "FireEffect",
          "rotationDampTime": "Eff_Tower_Ball_Active_01",
          "PPPDJGDDOGD": 1.0,
          "AJDILHJFNKE": -1.0
        },
        {
          "$type": "KillSelf",
          "hideEntity": true
        }
      ]
    }
  },
  {
    "Default": {
      "$type": "ConfigAbility",
      "abilityName": "SceneObj_Gear_Common_Property_Prop_BreakableIce_01",
      "abilityMixins": [
        {
          "$type": "AttachToGadgetStateMixin",
          "modifierName": "BreakableIce"
        },
        {
          "$type": "AttachToGadgetStateMixin",
          "gadgetState": 201,
          "modifierName": "IceHide"
        }
      ],
      "modifiers": {
        "BreakableIce": {
          "modifierName": "",
          "elementType": "Frozen",
          "elementDurability": 150.0,
          "modifierMixins": [
            {
              "$type": "ShieldBarMixin",
              "showDamageText": ""
            }
          ],
          "onAdded": [
            {
              "$type": "FireEffect",
              "rotationDampTime": "Eff_SceneObj_BreakableIce_02_Born",
              "ownedByLevel": true,
              "PPPDJGDDOGD": 1.0,
              "AJDILHJFNKE": -1.0
            },
            {
              "$type": "CLKGEHMNIEF",
              "transformNames": ["IceModel"],
              "setEnable": true
            },
            {
              "$type": "SetGlobalValue",
              "value": 1.0,
              "key": "_IS_PARKOUR_BREAKABLE",
              "maxValue": 0.0,
              "minValue": 0.0
            }
          ],
          "onBeingHit": [
            {
              "$type": "Predicated",
              "target": "Target",
              "predicates": [
                {
                  "$type": "ByAttackTags",
                  "attackTags": ["WinterCamp_ShieldAttack"]
                }
              ],
              "successActions": [
                {
                  "$type": "FireEffect",
                  "shieldHP": true,
                  "rotationDampTime": "Eff_SceneObj_BreakableIce_02_Broken",
                  "PPPDJGDDOGD": 1.0,
                  "AJDILHJFNKE": -1.0
                },
                {
                  "$type": "KillSelf",
                  "hideEntity": true
                }
              ]
            }
          ]
        },
        "IceHide": {
          "modifierName": "",
          "elementDurability": 100.0,
          "onAdded": [
            {
              "$type": "CLKGEHMNIEF",
              "transformNames": ["IceModel"]
            }
          ]
        }
      },
      "onAdded": [
        {
          "$type": "SetGlobalValue",
          "value": 1.0,
          "key": "_IS_PARKOUR_BREAKABLE",
          "maxValue": 0.0,
          "minValue": 0.0
        }
      ]
    }
  },
  {
    "Default": {
      "$type": "ConfigAbility",
      "abilityName": "SceneObj_Gear_Common_Property_Prop_BreakableIceWithCoin_01",
      "abilityMixins": [
        {
          "$type": "AttachToGadgetStateMixin",
          "modifierName": "BreakableIce"
        },
        {
          "$type": "AttachToGadgetStateMixin",
          "gadgetState": 201,
          "modifierName": "IceHide"
        }
      ],
      "modifiers": {
        "BreakableIce": {
          "modifierName": "",
          "elementType": "Frozen",
          "elementDurability": 150.0,
          "modifierMixins": [
            {
              "$type": "ShieldBarMixin",
              "showDamageText": ""
            }
          ],
          "onAdded": [
            {
              "$type": "FireEffect",
              "rotationDampTime": "Eff_SceneObj_BreakableIce_02_Born",
              "ownedByLevel": true,
              "PPPDJGDDOGD": 1.0,
              "AJDILHJFNKE": -1.0
            },
            {
              "$type": "CLKGEHMNIEF",
              "transformNames": ["IceModel"],
              "setEnable": true
            },
            {
              "$type": "SetGlobalValue",
              "value": 1.0,
              "key": "_IS_PARKOUR_BREAKABLE",
              "maxValue": 0.0,
              "minValue": 0.0
            }
          ],
          "onBeingHit": [
            {
              "$type": "Predicated",
              "target": "Target",
              "predicates": [
                {
                  "$type": "ByAttackTags",
                  "attackTags": ["WinterCamp_ShieldAttack"]
                }
              ],
              "successActions": [
                {
                  "$type": "AHPEKICBIIL",
                  "luaCallType": "CurChallengeGroup",
                  "funcName": "SLC_SpecialIcePillarBreak",
                  "param1": 0.0,
                  "MGAMDEHMCOL": 0.0,
                  "MMHOHAOGPLP": 0.0
                },
                {
                  "$type": "FireEffect",
                  "rotationDampTime": "Eff_SceneObj_BreakableIce_02_Broken",
                  "PPPDJGDDOGD": 1.0,
                  "AJDILHJFNKE": -1.0
                },
                {
                  "$type": "KillSelf",
                  "hideEntity": true
                }
              ]
            }
          ]
        },
        "IceHide": {
          "modifierName": "",
          "elementDurability": 100.0,
          "onAdded": [
            {
              "$type": "CLKGEHMNIEF",
              "transformNames": ["IceModel"]
            }
          ]
        }
      },
      "onAdded": [
        {
          "$type": "SetGlobalValue",
          "value": 1.0,
          "key": "_IS_PARKOUR_BREAKABLE",
          "maxValue": 0.0,
          "minValue": 0.0
        }
      ]
    }
  },
  {
    "Default": {
      "$type": "ConfigAbility",
      "abilityName": "SceneObj_Gear_Common_Property_Prop_BreakableIce_02",
      "abilityMixins": [
        {
          "$type": "AttachToGadgetStateMixin",
          "modifierName": "BreakableIce"
        },
        {
          "$type": "AttachToGadgetStateMixin",
          "gadgetState": 201,
          "modifierName": "IceHide"
        }
      ],
      "modifiers": {
        "BreakableIce": {
          "modifierName": "",
          "elementType": "Frozen",
          "elementDurability": 150.0,
          "modifierMixins": [
            {
              "$type": "ShieldBarMixin",
              "showDamageText": ""
            }
          ],
          "onAdded": [
            {
              "$type": "FireEffect",
              "rotationDampTime": "Eff_SceneObj_BreakableIce_01_Born",
              "ownedByLevel": true,
              "PPPDJGDDOGD": 1.0,
              "AJDILHJFNKE": -1.0
            },
            {
              "$type": "CLKGEHMNIEF",
              "transformNames": ["IceModel"],
              "setEnable": true
            },
            {
              "$type": "SetGlobalValue",
              "value": 1.0,
              "key": "_IS_PARKOUR_BREAKABLE",
              "maxValue": 0.0,
              "minValue": 0.0
            }
          ],
          "onBeingHit": [
            {
              "$type": "Predicated",
              "target": "Target",
              "predicates": [
                {
                  "$type": "ByAttackTags",
                  "attackTags": ["WinterCamp_ShieldAttack"]
                }
              ],
              "successActions": [
                {
                  "$type": "FireEffect",
                  "rotationDampTime": "Eff_SceneObj_BreakableIce_01_Broken",
                  "PPPDJGDDOGD": 1.0,
                  "AJDILHJFNKE": -1.0
                },
                {
                  "$type": "KillSelf",
                  "hideEntity": true
                }
              ]
            }
          ]
        },
        "IceHide": {
          "modifierName": "",
          "elementDurability": 100.0,
          "onAdded": [
            {
              "$type": "CLKGEHMNIEF",
              "transformNames": ["IceModel"]
            }
          ]
        }
      },
      "onAdded": [
        {
          "$type": "SetGlobalValue",
          "value": 1.0,
          "key": "_IS_PARKOUR_BREAKABLE",
          "maxValue": 0.0,
          "minValue": 0.0
        }
      ]
    }
  },
  {
    "Default": {
      "$type": "ConfigAbility",
      "abilityName": "SceneObj_Gear_Common_Property_Prop_BreakableIceWithCoin_02",
      "abilityMixins": [
        {
          "$type": "AttachToGadgetStateMixin",
          "modifierName": "BreakableIce"
        },
        {
          "$type": "AttachToGadgetStateMixin",
          "gadgetState": 201,
          "modifierName": "IceHide"
        }
      ],
      "modifiers": {
        "BreakableIce": {
          "modifierName": "",
          "elementType": "Frozen",
          "elementDurability": 150.0,
          "modifierMixins": [
            {
              "$type": "ShieldBarMixin",
              "showDamageText": ""
            }
          ],
          "onAdded": [
            {
              "$type": "CLKGEHMNIEF",
              "transformNames": ["IceModel"],
              "setEnable": true
            },
            {
              "$type": "SetGlobalValue",
              "value": 1.0,
              "key": "_IS_PARKOUR_BREAKABLE",
              "maxValue": 0.0,
              "minValue": 0.0
            },
            {
              "$type": "FireEffect",
              "rotationDampTime": "Eff_SceneObj_BreakableIce_01_Born",
              "ownedByLevel": true,
              "PPPDJGDDOGD": 1.0,
              "AJDILHJFNKE": -1.0
            }
          ],
          "onBeingHit": [
            {
              "$type": "Predicated",
              "target": "Target",
              "predicates": [
                {
                  "$type": "ByAttackTags",
                  "attackTags": ["WinterCamp_ShieldAttack"]
                }
              ],
              "successActions": [
                {
                  "$type": "AHPEKICBIIL",
                  "luaCallType": "CurChallengeGroup",
                  "funcName": "SLC_SpecialIcePillarBreak",
                  "param1": 0.0,
                  "MGAMDEHMCOL": 0.0,
                  "MMHOHAOGPLP": 0.0
                },
                {
                  "$type": "FireEffect",
                  "rotationDampTime": "Eff_SceneObj_BreakableIce_01_Broken",
                  "PPPDJGDDOGD": 1.0,
                  "AJDILHJFNKE": -1.0
                },
                {
                  "$type": "KillSelf",
                  "hideEntity": true
                }
              ]
            }
          ]
        },
        "IceHide": {
          "modifierName": "",
          "elementDurability": 100.0,
          "onAdded": [
            {
              "$type": "CLKGEHMNIEF",
              "transformNames": ["IceModel"]
            }
          ]
        }
      },
      "onAdded": [
        {
          "$type": "SetGlobalValue",
          "value": 1.0,
          "key": "_IS_PARKOUR_BREAKABLE",
          "maxValue": 0.0,
          "minValue": 0.0
        }
      ]
    }
  },
  {
    "Default": {
      "$type": "ConfigAbility",
      "abilityName": "SceneObj_Area_Ljxs_Property_Ani_Prop_TriathlonCoin_01",
      "abilityMixins": [
        {
          "$type": "AttachToGadgetStateMixin",
          "gadgetState": 201,
          "modifierName": "CoinLocked"
        },
        {
          "$type": "AttachToGadgetStateMixin",
          "modifierName": "CoinDefault"
        }
      ],
      "modifiers": {
        "AddCoin": {
          "modifierName": "",
          "duration": 1.0,
          "elementDurability": 100.0,
          "onAdded": [
            {
              "$type": "FireEffect",
              "rotationDampTime": "Eff_SceneObj_GetGlideChampCoin",
              "PPPDJGDDOGD": 1.0,
              "AJDILHJFNKE": -1.0
            }
          ]
        },
        "FindPlayerAfterBreak": {
          "modifierName": "",
          "elementDurability": 100.0,
          "thinkInterval": 0.10000000149011612,
          "onThinkInterval": [
            {
              "$type": "Predicated",
              "otherTargets": {
                "$type": "SelectTargetsByShape",
                "entityTypePriority": ["Avatar"],
                "sortType": "Nearest",
                "shapeName": "CircleR10H10",
                "campTargetType": "AllExceptSelf",
                "doOffStage": 1.0
              },
              "targetPredicates": [
                {
                  "$type": "ByEntityTypes",
                  "entityTypes": ["Avatar"]
                }
              ],
              "successActions": [
                {
                  "$type": "AHPEKICBIIL",
                  "luaCallType": "CurChallengeGroup",
                  "funcName": "SLC_WinterCampCoinGet",
                  "paramNum": 1,
                  "param1": 0.0,
                  "MGAMDEHMCOL": 0.0,
                  "MMHOHAOGPLP": 0.0
                },
                {
                  "$type": "ApplyModifier",
                  "target": "Other",
                  "modifierName": "AddCoin"
                },
                {
                  "$type": "KillSelf"
                }
              ]
            }
          ]
        },
        "CoinLocked": {
          "modifierName": "",
          "elementDurability": 100.0,
          "onAdded": [
            {
              "$type": "SetGlobalValue",
              "value": 1.0,
              "key": "TriathlonCoin_Locked",
              "maxValue": 0.0,
              "minValue": 0.0
            }
          ],
          "onRemoved": [
            {
              "$type": "ApplyModifier",
              "modifierName": "FindPlayerAfterBreak"
            }
          ]
        },
        "CoinDefault": {
          "modifierName": "",
          "elementDurability": 100.0,
          "onAdded": [
            {
              "$type": "SetGlobalValue",
              "value": 0.0,
              "key": "TriathlonCoin_Locked",
              "maxValue": 0.0,
              "minValue": 0.0
            }
          ]
        }
      },
      "onFieldEnter": [
        {
          "$type": "Predicated",
          "targetPredicates": [
            {
              "$type": "ByTargetGlobalValue",
              "target": "Self",
              "key": "TriathlonCoin_Locked",
              "value": 0.0
            }
          ],
          "successActions": [
            {
              "$type": "FireEffect",
              "rotationDampTime": "Eff_SceneObj_GlideChampCoin_Hit",
              "PPPDJGDDOGD": 1.0,
              "AJDILHJFNKE": -1.0
            },
            {
              "$type": "AHPEKICBIIL",
              "luaCallType": "CurChallengeGroup",
              "funcName": "SLC_WinterCampCoinGet",
              "paramNum": 1,
              "param1": 0.0,
              "MGAMDEHMCOL": 0.0,
              "MMHOHAOGPLP": 0.0
            },
            {
              "$type": "ApplyModifier",
              "target": "Target",
              "modifierName": "AddCoin"
            },
            {
              "$type": "KillSelf"
            }
          ]
        }
      ]
    }
  },
  {
    "Default": {
      "$type": "ConfigAbility",
      "abilityName": "SceneObj_Area_Ljxs_Property_Ani_Prop_TriathlonCoin_02",
      "modifiers": {
        "CoinEffect_Idle": {
          "modifierName": "",
          "duration": 7.0,
          "elementDurability": 100.0,
          "onAdded": [
            {
              "$type": "AttachEffect",
              "rotationDampTime": "Eff_SceneObj_TriathlonCoin_02_01",
              "PPPDJGDDOGD": 1.0,
              "AJDILHJFNKE": -1.0
            }
          ],
          "onRemoved": [
            {
              "$type": "ApplyModifier",
              "modifierName": "CoinEffect_Dying"
            }
          ]
        },
        "CoinEffect_Dying": {
          "modifierName": "",
          "duration": 3.0,
          "elementDurability": 100.0,
          "onAdded": [
            {
              "$type": "AttachEffect",
              "rotationDampTime": "Eff_SceneObj_TriathlonCoin_02_02",
              "PPPDJGDDOGD": 1.0,
              "AJDILHJFNKE": -1.0
            }
          ],
          "onRemoved": [
            {
              "$type": "KillSelf"
            }
          ]
        },
        "AddCoin": {
          "modifierName": "",
          "duration": 1.0,
          "elementDurability": 100.0,
          "onAdded": [
            {
              "$type": "FireEffect",
              "rotationDampTime": "Eff_SceneObj_GetGlideChampCoin",
              "PPPDJGDDOGD": 1.0,
              "AJDILHJFNKE": -1.0
            }
          ]
        }
      },
      "onAdded": [
        {
          "$type": "AttachModifier",
          "modifierName": "CoinEffect_Idle"
        }
      ],
      "onFieldEnter": [
        {
          "$type": "FireEffect",
          "rotationDampTime": "Eff_SceneObj_GlideChampCoin_Hit",
          "PPPDJGDDOGD": 1.0,
          "AJDILHJFNKE": -1.0
        },
        {
          "$type": "ApplyModifier",
          "target": "Target",
          "modifierName": "AddCoin"
        },
        {
          "$type": "AHPEKICBIIL",
          "luaCallType": "CurChallengeGroup",
          "funcName": "SLC_WinterCampCoinGet",
          "paramNum": 1,
          "param1": 1.0,
          "MGAMDEHMCOL": 0.0,
          "MMHOHAOGPLP": 0.0
        },
        {
          "$type": "KillSelf"
        }
      ]
    }
  },
  {
    "Default": {
      "$type": "ConfigAbility",
      "abilityName": "SceneObj_Area_Common_Property_Ani_Prop_LargeFloatingIce_01",
      "abilityMixins": [
        {
          "$type": "AttachToGadgetStateMixin",
          "modifierName": "Default"
        },
        {
          "$type": "AttachToGadgetStateMixin",
          "gadgetState": 201,
          "modifierName": "phase1"
        },
        {
          "$type": "AttachToGadgetStateMixin",
          "gadgetState": 202,
          "modifierName": "phase2"
        }
      ],
      "modifiers": {
        "Default": {
          "modifierName": "",
          "elementDurability": 100.0,
          "thinkInterval": 0.5,
          "onAdded": [
            {
              "$type": "AddGlobalValue",
              "value": 1.0,
              "key": "TRIGGERED",
              "useLimitRange": true,
              "maxValue": 1.0,
              "minValue": 0.0
            }
          ],
          "onThinkInterval": [
            {
              "$type": "AddGlobalValue",
              "value": 0.0,
              "key": "TOTAL_WEIGHT",
              "useLimitRange": true,
              "maxValue": 0.0,
              "minValue": 0.0
            },
            {
              "$type": "NGEILFMGMEA",
              "otherTargets": {
                "$type": "SelectTargetsByShape",
                "shapeName": "RectW2L5_FloatIce",
                "campTargetType": "AllExceptSelf",
                "doOffStage": 1.0
              },
              "key": "TOTAL_WEIGHT"
            },
            {
              "$type": "Predicated",
              "target": "Caster",
              "targetPredicates": [
                {
                  "$type": "ByTargetGlobalValue",
                  "key": "TOTAL_WEIGHT",
                  "value": 19.0,
                  "compareType": "MoreThan"
                },
                {
                  "$type": "ByTargetGlobalValue",
                  "key": "TRIGGERED",
                  "value": 0.0,
                  "compareType": "MoreThan"
                }
              ],
              "successActions": [
                {
                  "$type": "ExecuteGadgetLua",
                  "param1": 201
                },
                {
                  "$type": "AddGlobalValue",
                  "value": -1.0,
                  "key": "TRIGGERED",
                  "useLimitRange": true,
                  "maxValue": 1.0,
                  "minValue": 0.0
                }
              ]
            }
          ]
        },
        "phase1": {
          "modifierName": "",
          "duration": 3.0,
          "elementDurability": 100.0,
          "thinkInterval": 0.5,
          "onAdded": [
            {
              "$type": "AttachEffect",
              "rotationDampTime": "Eff_SceneObj_FloatingIce_01",
              "born": {
                "$type": "KAPBLOCMCOO",
                "offset": {
                  "x": 0.0,
                  "y": -0.25,
                  "z": 0.0
                }
              },
              "PPPDJGDDOGD": 1.0,
              "AJDILHJFNKE": -1.0
            }
          ],
          "onRemoved": [
            {
              "$type": "ExecuteGadgetLua",
              "param1": 202
            }
          ],
          "onThinkInterval": [
            {
              "$type": "AddGlobalValue",
              "value": 0.0,
              "key": "TOTAL_WEIGHT",
              "useLimitRange": true,
              "maxValue": 0.0,
              "minValue": 0.0
            },
            {
              "$type": "NGEILFMGMEA",
              "otherTargets": {
                "$type": "SelectTargetsByShape",
                "shapeName": "RectW2L5_FloatIce",
                "campTargetType": "AllExceptSelf",
                "doOffStage": 1.0
              },
              "key": "TOTAL_WEIGHT"
            },
            {
              "$type": "Predicated",
              "target": "Caster",
              "targetPredicates": [
                {
                  "$type": "ByTargetGlobalValue",
                  "key": "TOTAL_WEIGHT",
                  "value": 19.0,
                  "compareType": "MoreThan"
                },
                {
                  "$type": "ByTargetGlobalValue",
                  "key": "TRIGGERED",
                  "value": 0.0,
                  "compareType": "MoreThan"
                }
              ],
              "successActions": [
                {
                  "$type": "ExecuteGadgetLua",
                  "param1": 201
                },
                {
                  "$type": "AddGlobalValue",
                  "value": -1.0,
                  "key": "TRIGGERED",
                  "useLimitRange": true,
                  "maxValue": 1.0,
                  "minValue": 0.0
                }
              ]
            }
          ]
        },
        "phase2": {
          "modifierName": "",
          "duration": 10.0,
          "elementDurability": 100.0,
          "thinkInterval": 0.5,
          "onAdded": [
            {
              "$type": "AttachEffect",
              "rotationDampTime": "Eff_SceneObj_FloatingIce_02_Large",
              "PPPDJGDDOGD": 1.0,
              "AJDILHJFNKE": -1.0
            }
          ],
          "onRemoved": [
            {
              "$type": "ApplyModifier",
              "modifierName": "Reborn"
            }
          ],
          "onThinkInterval": [
            {
              "$type": "AddGlobalValue",
              "value": 0.0,
              "key": "TOTAL_WEIGHT",
              "useLimitRange": true,
              "maxValue": 0.0,
              "minValue": 0.0
            },
            {
              "$type": "NGEILFMGMEA",
              "otherTargets": {
                "$type": "SelectTargetsByShape",
                "shapeName": "RectW2L5_FloatIce",
                "campTargetType": "AllExceptSelf",
                "doOffStage": 1.0
              },
              "key": "TOTAL_WEIGHT"
            },
            {
              "$type": "Predicated",
              "target": "Caster",
              "targetPredicates": [
                {
                  "$type": "ByTargetGlobalValue",
                  "key": "TOTAL_WEIGHT",
                  "value": 19.0,
                  "compareType": "MoreThan"
                },
                {
                  "$type": "ByTargetGlobalValue",
                  "key": "TRIGGERED",
                  "value": 0.0,
                  "compareType": "MoreThan"
                }
              ],
              "successActions": [
                {
                  "$type": "ExecuteGadgetLua",
                  "param1": 201
                },
                {
                  "$type": "AddGlobalValue",
                  "value": -1.0,
                  "key": "TRIGGERED",
                  "useLimitRange": true,
                  "maxValue": 1.0,
                  "minValue": 0.0
                }
              ]
            }
          ]
        },
        "Reborn": {
          "modifierName": "",
          "elementDurability": 100.0,
          "thinkInterval": 2.0,
          "onAdded": [
            {
              "$type": "AddGlobalValue",
              "value": 1.0,
              "key": "TRIGGERED",
              "useLimitRange": true,
              "maxValue": 1.0,
              "minValue": 0.0
            }
          ],
          "onThinkInterval": [
            {
              "$type": "AddGlobalValue",
              "value": 0.0,
              "key": "CAN_REBORN",
              "useLimitRange": true,
              "maxValue": 0.0,
              "minValue": 0.0
            },
            {
              "$type": "Predicated",
              "target": "AllPlayerAvatars",
              "targetPredicates": [
                {
                  "$type": "ByTargetPositionToSelfPosition",
                  "logic": "LesserOrEqual",
                  "compareType": "XYZ",
                  "value": 1.600000023841858,
                  "DDALGNLEHOD": ""
                }
              ],
              "successActions": [
                {
                  "$type": "AddGlobalValue",
                  "value": 1.0,
                  "key": "CAN_REBORN",
                  "useLimitRange": true,
                  "maxValue": 1.0,
                  "minValue": 0.0
                }
              ]
            },
            {
              "$type": "Predicated",
              "targetPredicates": [
                {
                  "$type": "ByTargetGlobalValue",
                  "key": "CAN_REBORN",
                  "value": 0.0,
                  "compareType": "MoreThan"
                }
              ],
              "failActions": [
                {
                  "$type": "ExecuteGadgetLua"
                },
                {
                  "$type": "RemoveModifier",
                  "modifierName": "Reborn"
                }
              ]
            }
          ]
        }
      }
    }
  },
  {
    "Default": {
      "$type": "ConfigAbility",
      "abilityName": "SceneObj_Area_Ljxs_Property_Prop_LjxsCampMainDevice_01",
      "abilityMixins": [
        {
          "$type": "AttachToGadgetStateMixin",
          "modifierName": "MainDeviceOff"
        },
        {
          "$type": "AttachToGadgetStateMixin",
          "gadgetState": 201,
          "modifierName": "MainDeviceOn"
        }
      ],
      "modifiers": {
        "FindPlayer": {
          "modifierName": "",
          "elementDurability": 100.0,
          "thinkInterval": 0.5,
          "onThinkInterval": [
            {
              "$type": "Predicated",
              "otherTargets": {
                "$type": "SelectTargetsByShape",
                "shapeName": "CircleR15H10",
                "campTargetType": "All",
                "doOffStage": 1.0
              },
              "targetPredicates": [
                {
                  "$type": "ByEntityTypes",
                  "entityTypes": ["Avatar"]
                }
              ],
              "successActions": [
                {
                  "$type": "ApplyModifier",
                  "target": "Other",
                  "predicates": [
                    {
                      "$type": "HNLCJOPBDLC",
                      "target": "Self"
                    }
                  ],
                  "modifierName": "ColdBuff_WinterCamp"
                },
                {
                  "$type": "ApplyModifier",
                  "target": "Other",
                  "predicates": [
                    {
                      "$type": "HNLCJOPBDLC",
                      "target": "Self",
                      "gadgetState": 201
                    }
                  ],
                  "modifierName": "WarmBuff_WinterCamp"
                }
              ]
            }
          ]
        },
        "ColdBuff_WinterCamp": {
          "modifierName": "",
          "duration": 1.0,
          "elementDurability": 100.0,
          "modifierMixins": [
            {
              "$type": "BCFMIGNCJFK",
              "climateTypes": ["Cold"],
              "trend": "Rise",
              "hpRatio": 2.0,
              "damageRatio": "Current"
            }
          ]
        },
        "WarmBuff_WinterCamp": {
          "modifierName": "",
          "duration": 1.0,
          "elementDurability": 100.0,
          "thinkInterval": 0.20000000298023224,
          "modifierMixins": [
            {
              "$type": "BCFMIGNCJFK",
              "climateTypes": ["Cold"],
              "trend": "Rise",
              "hpRatio": -999.0,
              "damageRatio": "Current"
            }
          ],
          "onThinkInterval": [
            {
              "$type": "BPCFNMBFJJO",
              "climateType": "Cold",
              "value": -5.0
            }
          ]
        },
        "MainDeviceOff": {
          "modifierName": "",
          "elementDurability": 100.0,
          "onAdded": [
            {
              "$type": "AttachEffect",
              "rotationDampTime": "Eff_SceneObj_LjxsCampMainDevice_01_Cold",
              "PPPDJGDDOGD": 1.0,
              "AJDILHJFNKE": -1.0
            }
          ]
        },
        "MainDeviceOn": {
          "modifierName": "",
          "elementDurability": 100.0,
          "onAdded": [
            {
              "$type": "AddGlobalValue",
              "value": 1.0,
              "key": "IS_WARM_POINT",
              "useLimitRange": true,
              "maxValue": 1.0,
              "minValue": 0.0
            },
            {
              "$type": "AttachEffect",
              "rotationDampTime": "Eff_SceneObj_LjxsCampMainDevice_01_Warm",
              "PPPDJGDDOGD": 1.0,
              "AJDILHJFNKE": -1.0
            }
          ],
          "onRemoved": [
            {
              "$type": "ExecuteGadgetLua"
            },
            {
              "$type": "AddGlobalValue",
              "value": -1.0,
              "key": "IS_WARM_POINT",
              "useLimitRange": true,
              "maxValue": 1.0,
              "minValue": 0.0
            }
          ]
        }
      },
      "onAdded": [
        {
          "$type": "AttachModifier",
          "modifierName": "FindPlayer"
        },
        {
          "$type": "SetGlobalValue",
          "value": 1.0,
          "key": "IS_MAIN_DEVICE",
          "maxValue": 0.0,
          "minValue": 0.0
        }
      ]
    }
  },
  {
    "Default": {
      "$type": "ConfigAbility",
      "abilityName": "LjxsCampMainDevice_01_Explode",
      "abilitySpecials": {
        "DamagePercentage": 23.5,
        "LevelEntity_AvatarDot_SystemValue": 1.0
      },
      "onAbilityStart": [
        {
          "$type": "FireEffect",
          "rotationDampTime": "Eff_Avatar_ShockWave_Expand_Fire_Level_02",
          "born": {
            "$type": "ConfigBornByGlobalValue",
            "positionKey": "_Ability_WinterCamp_AoePos_Final",
            "directionKey": ""
          },
          "PPPDJGDDOGD": 1.0,
          "AJDILHJFNKE": -1.0
        },
        {
          "$type": "TriggerAttackEvent",
          "attackEvent": {
            "attackPattern": {
              "$type": "ConfigAttackSphere",
              "triggerType": "TriggerNoRepeat",
              "born": {
                "$type": "ConfigBornByGlobalValue",
                "positionKey": "_Ability_WinterCamp_AoePos_Final",
                "directionKey": ""
              },
              "radius": 10.0
            },
            "attackInfo": {
              "attackTag": "",
              "attenuationTag": "",
              "attenuationGroup": "default",
              "attackProperty": {
                "actorWindSubHurtDelta": 0.0,
                "elementType": "Fire",
                "elementDurability": 100.0,
                "ignoreAttackerProperty": true,
                "enBreak": 0.0,
                "HMBONGBFIAP": [
                  "LevelEntity_AvatarDot_SystemValue",
                  "DamagePercentage",
                  "MUL"
                ],
                "trueDamage": true,
                "ignoreModifyDamage": true,
                "GLKMCMDJBIK": 0.0
              },
              "hitPattern": {
                "onHitEffectName": "",
                "hitImpulseY": "",
                "hitImpulseType": "LV1"
              }
            }
          },
          "targetType": "Enemy"
        }
      ]
    }
  },
  {
    "Default": {
      "$type": "ConfigAbility",
      "abilityName": "LjxsCampMainDevice_01_MonsterPowerUp",
      "abilityMixins": [
        {
          "$type": "AttachToGadgetStateMixin",
          "forceTriggerWhenChangeAuthority": true,
          "modifierName": "UNIQUE_LjxsCampMainDevice_Amplifier_Ice"
        }
      ],
      "modifiers": {
        "UNIQUE_LjxsCampMainDevice_Amplifier_Ice": {
          "modifierName": "",
          "forceTriggerWhenChangeAuthority": true,
          "elementDurability": 100.0,
          "thinkInterval": 15.0,
          "onThinkInterval": [
            {
              "$type": "AttachEffect",
              "rotationDampTime": "Eff_SceneObj_ElementWave_01_Ice",
              "PPPDJGDDOGD": 1.0,
              "AJDILHJFNKE": -1.0
            },
            {
              "$type": "ApplyModifier",
              "otherTargets": {
                "$type": "SelectTargetsByShape",
                "shapeName": "CircleR30",
                "campTargetType": "AllExceptSelf",
                "doOffStage": 1.0
              },
              "predicates": [
                {
                  "$type": "ByEntityTypes",
                  "entityTypes": ["Monster"]
                },
                {
                  "$type": "ByTargetGlobalValue",
                  "key": "_AMPLIFIER_ICE_SLAVE",
                  "value": 0.0,
                  "compareType": "NoneOrEqual"
                },
                {
                  "$type": "ByTargetGlobalValue",
                  "key": "_AMPLIFIER_COOLDOWN",
                  "value": 0.0,
                  "compareType": "NoneOrEqual"
                },
                {
                  "$type": "ByAny",
                  "predicates": [
                    {
                      "$type": "ByNot",
                      "predicates": [
                        {
                          "$type": "BGMAGODJEMF",
                          "featureTagIDs": [3005]
                        }
                      ]
                    },
                    {
                      "$type": "ByHasElement",
                      "element": "Frozen"
                    },
                    {
                      "$type": "ByHasElement",
                      "element": "Ice"
                    }
                  ]
                }
              ],
              "modifierName": "UNIQUE_LjxsCampMainDevice_Amplifier_Ice_MonsterBuff"
            },
            {
              "$type": "Predicated",
              "otherTargets": {
                "$type": "SelectTargetsByShape",
                "shapeName": "CircleR30",
                "campTargetType": "All",
                "doOffStage": 1.0
              },
              "targetPredicates": [
                {
                  "$type": "ByEntityTypes",
                  "entityTypes": ["Monster"]
                }
              ],
              "successActions": [
                {
                  "$type": "AddElementDurability",
                  "target": "Target",
                  "value": 200.0,
                  "modifierName": "UNIQUE_LjxsCampMainDevice_Amplifier_Ice_MonsterBuff",
                  "elementType": "Ice",
                  "useLimitRange": true,
                  "maxValue": 200.0,
                  "minValue": 0.0
                },
                {
                  "$type": "ApplyModifier",
                  "target": "Target",
                  "modifierName": "LjxsCampMainDevice_Amplifier_Ice_MonsterBuff_GV"
                }
              ]
            }
          ]
        },
        "LjxsCampMainDevice_Amplifier_Ice_MonsterBuff_GV": {
          "modifierName": "",
          "duration": 0.5,
          "elementDurability": 100.0,
          "onAdded": [
            {
              "$type": "AddGlobalValue",
              "value": 1.0,
              "key": "_AMPLIFIER_COOLDOWN",
              "useLimitRange": true,
              "maxValue": 0.0,
              "minValue": -2.0
            }
          ]
        },
        "UNIQUE_LjxsCampMainDevice_Amplifier_Ice_MonsterBuff": {
          "modifierName": "",
          "forceTriggerWhenChangeAuthority": true,
          "duration": 20.0,
          "elementType": "Ice",
          "elementDurability": 200.0,
          "modifierMixins": [
            {
              "$type": "CLFDHBKBPAL"
            }
          ],
          "properties": {
            "Actor_DefenceRatio": 1.0,
            "Actor_EndureDelta": 0.009999999776482582,
            "Actor_PhysicalSubHurtDelta": 0.5,
            "Actor_FireSubHurtDelta": 0.5,
            "Actor_ElecSubHurtDelta": 0.5,
            "Actor_IceSubHurtDelta": 1.0,
            "Actor_WaterSubHurtDelta": 0.5,
            "Actor_GrassSubHurtDelta": 0.5,
            "Actor_WindSubHurtDelta": 0.5,
            "Actor_RockSubHurtDelta": 0.5
          },
          "state": "DefenseUp",
          "onAdded": [
            {
              "$type": "AddGlobalValue",
              "value": 1.0,
              "key": "_AMPLIFIER_ICE_SLAVE",
              "useLimitRange": true,
              "maxValue": 1.0,
              "minValue": 0.0
            }
          ],
          "onRemoved": [
            {
              "$type": "AddGlobalValue",
              "value": -2.0,
              "key": "_AMPLIFIER_COOLDOWN",
              "useLimitRange": true,
              "maxValue": 0.0,
              "minValue": -2.0
            },
            {
              "$type": "AddGlobalValue",
              "value": -1.0,
              "key": "_AMPLIFIER_ICE_SLAVE",
              "useLimitRange": true,
              "maxValue": 1.0,
              "minValue": 0.0
            }
          ]
        }
      }
    }
  },
  {
    "Default": {
      "$type": "ConfigAbility",
      "abilityName": "SceneObj_Area_Ljxs_Property_Prop_LjxsCampBranchDevice_01",
      "abilityMixins": [
        {
          "$type": "AttachToGadgetStateMixin",
          "modifierName": "BranchDeviceOff"
        },
        {
          "$type": "AttachToGadgetStateMixin",
          "gadgetState": 201,
          "modifierName": "BranchDeviceOn"
        }
      ],
      "modifiers": {
        "BranchDeviceOff": {
          "modifierName": "",
          "elementDurability": 100.0,
          "onAdded": [
            {
              "$type": "AttachEffect",
              "rotationDampTime": "Eff_SceneObj_LjxsCampBranchDevice_Cold",
              "PPPDJGDDOGD": 1.0,
              "AJDILHJFNKE": -1.0
            },
            {
              "$type": "AttachEffect",
              "rotationDampTime": "Eff_SceneObj_LjxsCampBranchDevice_Idle",
              "PPPDJGDDOGD": 1.0,
              "AJDILHJFNKE": -1.0
            }
          ],
          "onBeingHit": [
            {
              "$type": "Predicated",
              "target": "Target",
              "targetPredicates": [
                {
                  "$type": "ByAttackTags",
                  "attackTags": ["BloodSmash"]
                }
              ],
              "successActions": [
                {
                  "$type": "ExecuteGadgetLua",
                  "param1": 201
                }
              ]
            }
          ]
        },
        "BranchDeviceOn": {
          "modifierName": "",
          "elementDurability": 100.0,
          "onAdded": [
            {
              "$type": "AddGlobalValue",
              "value": 1.0,
              "key": "IS_WARM_POINT",
              "useLimitRange": true,
              "maxValue": 1.0,
              "minValue": 0.0
            },
            {
              "$type": "AttachEffect",
              "rotationDampTime": "Eff_SceneObj_LjxsCampBranchDevice_Warm",
              "PPPDJGDDOGD": 1.0,
              "AJDILHJFNKE": -1.0
            }
          ],
          "onRemoved": [
            {
              "$type": "ExecuteGadgetLua"
            },
            {
              "$type": "AddGlobalValue",
              "value": -1.0,
              "key": "IS_WARM_POINT",
              "useLimitRange": true,
              "maxValue": 1.0,
              "minValue": 0.0
            }
          ]
        }
      }
    }
  },
  {
    "Default": {
      "$type": "ConfigAbility",
      "abilityName": "SceneObj_Stages_Property_Ani_Prop_SnowPile_02",
      "abilityMixins": [
        {
          "$type": "AttachToGadgetStateMixin",
          "gadgetState": 201,
          "modifierName": "SnowPileInteracted"
        }
      ],
      "modifiers": {
        "SnowPile": {
          "modifierName": "",
          "elementType": "Ice",
          "elementDurability": 30.0,
          "isElementDurabilityMutable": false,
          "onAdded": [
            {
              "$type": "AttachEffect",
              "rotationDampTime": "Eff_SceneObj_Hint_01_Big",
              "born": {
                "$type": "ConfigBornByAttachPoint",
                "attachPointName": "AttachPoint"
              },
              "PPPDJGDDOGD": 1.0,
              "AJDILHJFNKE": -1.0
            }
          ],
          "onKill": [
            {
              "$type": "FireEffect",
              "rotationDampTime": "Eff_SceneObj_SnowPile_02",
              "PPPDJGDDOGD": 1.0,
              "AJDILHJFNKE": -1.0
            }
          ]
        },
        "SnowPileInteracted": {
          "modifierName": "",
          "elementDurability": 100.0,
          "onAdded": [
            {
              "$type": "AHPEKICBIIL",
              "luaCallType": "FromGroup",
              "funcName": "GadgetCall_SnowPile_Interact",
              "param1": 0.0,
              "MGAMDEHMCOL": 0.0,
              "MMHOHAOGPLP": 0.0
            }
          ]
        }
      },
      "onAdded": [
        {
          "$type": "ApplyModifier",
          "modifierName": "SnowPile"
        },
        {
          "$type": "AttachAbilityStateResistance",
          "resistanceListID": 11001
        }
      ]
    }
  },
  {
    "Default": {
      "$type": "ConfigAbility",
      "abilityName": "SceneObj_Gear_Common_Property_Prop_ParkourStamina_01",
      "modifiers": {
        "WinterCamp_Stamina": {
          "modifierName": "",
          "duration": 0.5,
          "elementDurability": 100.0,
          "onAdded": [
            {
              "$type": "ReviveStamina",
              "shieldHP": true,
              "value": 300.0
            }
          ]
        }
      },
      "onFieldEnter": [
        {
          "$type": "Predicated",
          "target": "TargetTeam",
          "targetPredicates": [
            {
              "$type": "ByTargetGlobalValue",
              "key": "WinterCamp_Stamina",
              "value": 0.0
            }
          ],
          "successActions": [
            {
              "$type": "ApplyModifier",
              "target": "CurLocalAvatar",
              "modifierName": "WinterCamp_Stamina"
            },
            {
              "$type": "AHPEKICBIIL",
              "luaCallType": "CurChallengeGroup",
              "funcName": "SLC_ReportBuffGet",
              "paramNum": 1,
              "param1": 4.0,
              "MGAMDEHMCOL": 0.0,
              "MMHOHAOGPLP": 0.0
            },
            {
              "$type": "FireEffect",
              "rotationDampTime": "Eff_SceneObj_FleurStamina_Smash",
              "PPPDJGDDOGD": 1.0,
              "AJDILHJFNKE": -1.0
            },
            {
              "$type": "KillSelf",
              "hideEntity": true
            }
          ]
        }
      ]
    }
  }
]
