[
  {
    "Default": {
      "$type": "ConfigAbility",
      "abilityName": "Activity_Bladedance_CircleSpot_Skill",
      "abilitySpecials": {
        "LifeTime": 0.0,
        "MoveSpeedRatio": 0.4000000059604645
      },
      "modifiers": {
        "Activity_Bladedance_CircleSpot_Skill_TeamHandler": {
          "modifierName": "",
          "elementDurability": 100.0,
          "modifierMixins": [
            {
              "$type": "JPPFBGJICKI",
              "key": "SGV_BLADEDANCE_SKILL_ACTIVE",
              "maxValue": 0.0,
              "minValue": 0.0
            },
            {
              "$type": "DoActionOnGlobalValueChangeMixin",
              "globalValueKey": "SGV_BLADEDANCE_SKILL_ACTIVE",
              "actions": [
                {
                  "$type": "AttachModifier",
                  "target": "Team",
                  "modifierName": "Activity_Bladedance_CircleSpot_Team"
                }
              ]
            }
          ]
        },
        "Activity_Bladedance_CircleSpot_Team": {
          "modifierName": "",
          "duration": "LifeTime",
          "elementDurability": 100.0,
          "modifierMixins": [
            {
              "$type": "CurLocalAvatarMixinV2",
              "modifierName": "Activity_Bladedance_CircleSpot_AvatarEffect"
            }
          ],
          "onAdded": [
            {
              "$type": "NBFEIIOBAPA",
              "enable": true,
              "effectName": "Eff_UI_PenAdvBladedance_Screen_Once"
            }
          ],
          "onRemoved": [
            {
              "$type": "NBFEIIOBAPA",
              "effectName": "Eff_UI_PenAdvBladedance_Screen_Once"
            }
          ]
        },
        "Activity_Bladedance_CircleSpot_AvatarEffect": {
          "modifierName": "",
          "elementDurability": 100.0,
          "properties": {
            "Animator_MoveSpeedRatio": "MoveSpeedRatio",
            "Actor_EndureDelta": 0.30000001192092896
          },
          "onAdded": [
            {
              "$type": "AttachEffect",
              "rotationDampTime": "Eff_Avatar_Properties_Speed_Up",
              "PPPDJGDDOGD": 1.0,
              "AJDILHJFNKE": -1.0
            }
          ],
          "isLimitedProperties": true
        }
      },
      "onAdded": [
        {
          "$type": "AttachModifier",
          "target": "Team",
          "modifierName": "Activity_Bladedance_CircleSpot_Skill_TeamHandler"
        }
      ],
      "isDynamicAbility": true
    }
  },
  {
    "Default": {
      "$type": "ConfigAbility",
      "abilityName": "SceneObj_Penumbra_Common_Property_Ani_Prop_CircleSpot_01",
      "abilitySpecials": {
        "ImpactDamage": 0.0,
        "ImpactDamageSystemValue": 0.0,
        "LifeTime": 0.0
      },
      "modifiers": {
        "Life_Timer": {
          "modifierName": "",
          "duration": "LifeTime",
          "elementDurability": 100.0,
          "onAdded": [
            {
              "$type": "AttachEffect",
              "rotationDampTime": "Eff_SceneObj_CircleSpot_Self",
              "PPPDJGDDOGD": 1.0,
              "AJDILHJFNKE": -1.0
            }
          ],
          "onRemoved": [
            {
              "$type": "KillSelf",
              "hideEntity": true
            }
          ]
        },
        "EffectHandle": {
          "modifierName": "",
          "duration": ["LifeTime", 1.0, "SUB"],
          "elementDurability": 100.0,
          "onAdded": [
            {
              "$type": "SendEffectTrigger",
              "parameter": "GadgetState",
              "attachPoint": "",
              "damageRatio": "Int",
              "rotationDampTime": "Eff_SceneObj_CircleSpot_Self"
            }
          ],
          "onRemoved": [
            {
              "$type": "SendEffectTrigger",
              "parameter": "GadgetState",
              "attachPoint": "",
              "damageRatio": "Int",
              "value": 201,
              "rotationDampTime": "Eff_SceneObj_CircleSpot_Self"
            }
          ]
        }
      },
      "onAdded": [
        {
          "$type": "GDHGMAPPGHD",
          "key": "ImpactDamageSystemValue",
          "damageRatio": "ElementLevelCo"
        },
        {
          "$type": "SetGlobalValue",
          "value": 1.0,
          "key": "_ABILITY_Is_CircleSpot",
          "maxValue": 0.0,
          "minValue": 0.0
        },
        {
          "$type": "AttachModifier",
          "modifierName": "Life_Timer"
        },
        {
          "$type": "AttachModifier",
          "modifierName": "EffectHandle"
        }
      ],
      "onAbilityStart": [
        {
          "$type": "DamageByAttackValue",
          "target": "Target",
          "born": {
            "$type": "ConfigBornByTarget",
            "offset": {
              "x": 0.0,
              "y": 1.0,
              "z": 0.0
            }
          },
          "attackInfo": {
            "attackTag": "",
            "attenuationTag": "",
            "attenuationGroup": "default",
            "attackProperty": {
              "actorWindSubHurtDelta": 0.0,
              "elementDurability": 0.0,
              "ignoreAttackerProperty": true,
              "strikeType": "Blunt",
              "enBreak": 750.0,
              "HMBONGBFIAP": ["ImpactDamage", "ImpactDamageSystemValue", "MUL"],
              "trueDamage": true,
              "ignoreModifyDamage": true,
              "GLKMCMDJBIK": 0.0
            },
            "hitPattern": {
              "onHitEffectName": "default",
              "hitImpulseY": "",
              "hitImpulseType": "LV3",
              "hitHaltTime": 0.009999999776482582,
              "hitHaltTimeScale": 0.009999999776482582
            }
          }
        }
      ]
    }
  },
  {
    "Default": {
      "$type": "ConfigAbility",
      "abilityName": "Activity_Bladedance_BanItem_TeamAbility",
      "abilityMixins": [
        {
          "$type": "CurLocalAvatarMixinV2",
          "modifierName": "Activity_Bladedance_BanItem"
        }
      ],
      "modifiers": {
        "Activity_Bladedance_BanItem": {
          "modifierName": "",
          "elementDurability": 100.0,
          "modifierMixins": [
            {
              "$type": "KAIOONFFNHC",
              "slotType": "SlotQuickUse"
            }
          ]
        }
      },
      "isDynamicAbility": true
    }
  },
  {
    "Default": {
      "$type": "ConfigAbility",
      "abilityName": "SceneObj_Penumbra_Common_Property_Ani_Prop_Envilight_01",
      "abilityMixins": [
        {
          "$type": "AttachToGadgetStateMixin",
          "modifierName": "Activate"
        },
        {
          "$type": "AttachToGadgetStateMixin",
          "gadgetState": 201,
          "modifierName": "InGame"
        }
      ],
      "modifiers": {
        "Normal": {
          "modifierName": "",
          "elementDurability": 100.0,
          "onAdded": [
            {
              "$type": "AttachEffect",
              "rotationDampTime": "Eff_Level_Activity_Circus_Light_01",
              "PPPDJGDDOGD": 1.0,
              "AJDILHJFNKE": -1.0,
              "isPlatformDependent": true
            }
          ]
        },
        "Activate": {
          "modifierName": "",
          "elementDurability": 100.0,
          "onAdded": [
            {
              "$type": "SendEffectTrigger",
              "parameter": "State",
              "attachPoint": "",
              "damageRatio": "Int",
              "rotationDampTime": "Eff_Level_Activity_Circus_Light_01",
              "isPlatformDependent": true
            }
          ],
          "onReconnect": [
            {
              "$type": "SendEffectTrigger",
              "parameter": "State",
              "attachPoint": "",
              "damageRatio": "Int",
              "rotationDampTime": "Eff_Level_Activity_Circus_Light_01",
              "isPlatformDependent": true
            }
          ]
        },
        "InGame": {
          "modifierName": "",
          "elementDurability": 100.0,
          "onAdded": [
            {
              "$type": "SendEffectTrigger",
              "parameter": "State",
              "attachPoint": "",
              "damageRatio": "Int",
              "value": 201,
              "rotationDampTime": "Eff_Level_Activity_Circus_Light_01",
              "isPlatformDependent": true
            }
          ],
          "onReconnect": [
            {
              "$type": "ApplyModifier",
              "modifierName": "OnReload"
            }
          ]
        },
        "OnReload": {
          "modifierName": "",
          "duration": 0.10000000149011612,
          "elementDurability": 100.0,
          "onRemoved": [
            {
              "$type": "SendEffectTrigger",
              "parameter": "State",
              "attachPoint": "",
              "damageRatio": "Int",
              "rotationDampTime": "Eff_Level_Activity_Circus_Light_01",
              "isPlatformDependent": true
            },
            {
              "$type": "SendEffectTrigger",
              "parameter": "State",
              "attachPoint": "",
              "damageRatio": "Int",
              "value": 201,
              "rotationDampTime": "Eff_Level_Activity_Circus_Light_01",
              "isPlatformDependent": true
            }
          ]
        }
      },
      "onAdded": [
        {
          "$type": "AttachModifier",
          "modifierName": "Normal"
        }
      ]
    }
  },
  {
    "Default": {
      "$type": "ConfigAbility",
      "abilityName": "SceneObj_Penumbra_Common_Property_Ani_Prop_Envilight_02",
      "abilityMixins": [
        {
          "$type": "AttachToGadgetStateMixin",
          "modifierName": "Activate"
        },
        {
          "$type": "AttachToGadgetStateMixin",
          "gadgetState": 201,
          "modifierName": "InGame"
        }
      ],
      "modifiers": {
        "Normal": {
          "modifierName": "",
          "elementDurability": 100.0,
          "onAdded": [
            {
              "$type": "AttachEffect",
              "rotationDampTime": "Eff_Level_Activity_Circus_Light_02",
              "PPPDJGDDOGD": 1.0,
              "AJDILHJFNKE": -1.0,
              "isPlatformDependent": true
            }
          ]
        },
        "Activate": {
          "modifierName": "",
          "elementDurability": 100.0,
          "onAdded": [
            {
              "$type": "SendEffectTrigger",
              "parameter": "State",
              "attachPoint": "",
              "damageRatio": "Int",
              "rotationDampTime": "Eff_Level_Activity_Circus_Light_02",
              "isPlatformDependent": true
            }
          ],
          "onReconnect": [
            {
              "$type": "SendEffectTrigger",
              "parameter": "State",
              "attachPoint": "",
              "damageRatio": "Int",
              "rotationDampTime": "Eff_Level_Activity_Circus_Light_02",
              "isPlatformDependent": true
            }
          ]
        },
        "InGame": {
          "modifierName": "",
          "elementDurability": 100.0,
          "onAdded": [
            {
              "$type": "SendEffectTrigger",
              "parameter": "State",
              "attachPoint": "",
              "damageRatio": "Int",
              "value": 201,
              "rotationDampTime": "Eff_Level_Activity_Circus_Light_02",
              "isPlatformDependent": true
            }
          ],
          "onReconnect": [
            {
              "$type": "ApplyModifier",
              "modifierName": "OnReload"
            }
          ]
        },
        "OnReload": {
          "modifierName": "",
          "duration": 0.10000000149011612,
          "elementDurability": 100.0,
          "onRemoved": [
            {
              "$type": "SendEffectTrigger",
              "parameter": "State",
              "attachPoint": "",
              "damageRatio": "Int",
              "rotationDampTime": "Eff_Level_Activity_Circus_Light_02",
              "isPlatformDependent": true
            },
            {
              "$type": "SendEffectTrigger",
              "parameter": "State",
              "attachPoint": "",
              "damageRatio": "Int",
              "value": 201,
              "rotationDampTime": "Eff_Level_Activity_Circus_Light_02",
              "isPlatformDependent": true
            }
          ]
        }
      },
      "onAdded": [
        {
          "$type": "AttachModifier",
          "modifierName": "Normal"
        }
      ]
    }
  },
  {
    "Default": {
      "$type": "ConfigAbility",
      "abilityName": "SceneObj_Penumbra_Common_Property_Ani_Prop_BladeDanceCam_01",
      "onAdded": [
        {
          "$type": "PEAJMIPBILK",
          "canBeHandledOnRecover": true,
          "enable": true
        }
      ]
    }
  },
  {
    "Default": {
      "$type": "ConfigAbility",
      "abilityName": "MonsterAffix_Activity_Bladedance_Stage1",
      "abilitySpecials": {
        "HPRatio": 0.0,
        "AtkRatio": 0.0
      },
      "modifiers": {
        "MonsterAffix_Activity_Bladedance_Stage1": {
          "stacking": "Unique",
          "modifierName": "",
          "elementDurability": 100.0,
          "properties": {
            "Actor_MaxHPRatio": "HPRatio",
            "Actor_AttackRatio": "AtkRatio"
          }
        }
      },
      "onAdded": [
        {
          "$type": "AttachModifier",
          "modifierName": "MonsterAffix_Activity_Bladedance_Stage1"
        }
      ],
      "isDynamicAbility": true
    }
  },
  {
    "Default": {
      "$type": "ConfigAbility",
      "abilityName": "MonsterAffix_Activity_Bladedance_Stage2",
      "abilitySpecials": {
        "HPRatio": 0.0,
        "AtkRatio": 0.0
      },
      "modifiers": {
        "MonsterAffix_Activity_Bladedance_Stage2": {
          "stacking": "Unique",
          "modifierName": "",
          "elementDurability": 100.0,
          "properties": {
            "Actor_MaxHPRatio": "HPRatio",
            "Actor_AttackRatio": "AtkRatio"
          }
        }
      },
      "onAdded": [
        {
          "$type": "AttachModifier",
          "modifierName": "MonsterAffix_Activity_Bladedance_Stage2"
        }
      ],
      "isDynamicAbility": true
    }
  },
  {
    "Default": {
      "$type": "ConfigAbility",
      "abilityName": "MonsterAffix_Activity_Bladedance_Stage3",
      "abilitySpecials": {
        "HPRatio": 0.0,
        "AtkRatio": 0.0
      },
      "modifiers": {
        "MonsterAffix_Activity_Bladedance_Stage3": {
          "stacking": "Unique",
          "modifierName": "",
          "elementDurability": 100.0,
          "properties": {
            "Actor_MaxHPRatio": "HPRatio",
            "Actor_AttackRatio": "AtkRatio"
          }
        }
      },
      "onAdded": [
        {
          "$type": "AttachModifier",
          "modifierName": "MonsterAffix_Activity_Bladedance_Stage3"
        }
      ],
      "isDynamicAbility": true
    }
  },
  {
    "Default": {
      "$type": "ConfigAbility",
      "abilityName": "MonsterAffix_Activity_Bladedance_Stage4",
      "abilitySpecials": {
        "HPRatio": 0.0,
        "AtkRatio": 0.0
      },
      "modifiers": {
        "MonsterAffix_Activity_Bladedance_Stage4": {
          "stacking": "Unique",
          "modifierName": "",
          "elementDurability": 100.0,
          "properties": {
            "Actor_MaxHPRatio": "HPRatio",
            "Actor_AttackRatio": "AtkRatio"
          }
        }
      },
      "onAdded": [
        {
          "$type": "AttachModifier",
          "modifierName": "MonsterAffix_Activity_Bladedance_Stage4"
        }
      ],
      "isDynamicAbility": true
    }
  },
  {
    "Default": {
      "$type": "ConfigAbility",
      "abilityName": "ActivityAbility_Bladedance_ExtraAttackDamageUp",
      "abilitySpecials": {
        "ExtraAttackDamageUp": 0.0
      },
      "modifiers": {
        "UNIQUE_Activity_Bladedance_ExtraAttackDamageUp": {
          "stacking": "Unique",
          "modifierName": "",
          "forceTriggerWhenChangeAuthority": true,
          "elementDurability": 100.0,
          "modifierMixins": [
            {
              "$type": "ModifyDamageMixin",
              "attackTags": ["ExtraAttack"],
              "actorWindSubHurtDelta": "ExtraAttackDamageUp"
            }
          ]
        }
      },
      "onAdded": [
        {
          "$type": "AttachModifier",
          "modifierName": "UNIQUE_Activity_Bladedance_ExtraAttackDamageUp"
        }
      ],
      "isDynamicAbility": true
    }
  },
  {
    "Default": {
      "$type": "ConfigAbility",
      "abilityName": "ActivityAbility_Bladedance_CatalystAddHurt",
      "abilitySpecials": {
        "CatalystAddHurt": 0.0
      },
      "modifiers": {
        "UNIQUE_Bladedance_CatalystAddHurt": {
          "stacking": "Unique",
          "modifierName": "",
          "forceTriggerWhenChangeAuthority": true,
          "elementDurability": 100.0,
          "properties": {
            "Actor_AddHurtDelta": "CatalystAddHurt"
          },
          "isLimitedProperties": true
        }
      },
      "onAdded": [
        {
          "$type": "AttachModifier",
          "predicates": [
            {
              "$type": "BGMAGODJEMF",
              "featureTagIDs": [1054]
            }
          ],
          "modifierName": "UNIQUE_Bladedance_CatalystAddHurt"
        }
      ],
      "isDynamicAbility": true
    }
  },
  {
    "Default": {
      "$type": "ConfigAbility",
      "abilityName": "ActivityAbility_Bladedance_MormalAtkSpeedUpAndDamUp",
      "abilitySpecials": {
        "AttackSpeedUpRate": 0.0,
        "AtkDamageUpRatio": 0.0
      },
      "modifiers": {
        "UNIQUE_ActivityAbility_Bladedance_MormalAtkSpeedUpAndDamUp_Effect": {
          "stacking": "Unique",
          "modifierName": "",
          "forceTriggerWhenChangeAuthority": true,
          "elementDurability": 100.0,
          "modifierMixins": [
            {
              "$type": "ModifyDamageMixin",
              "attackTags": [
                "NormalAttack_01",
                "NormalAttack_02",
                "NormalAttack_03",
                "NormalAttack_04",
                "NormalAttack_05",
                "NormalAttack_06"
              ],
              "actorWindSubHurtDelta": "AtkDamageUpRatio"
            }
          ],
          "properties": {
            "Animator_AttackSpeedRatio": "AttackSpeedUpRate"
          },
          "isLimitedProperties": true
        }
      },
      "onAdded": [
        {
          "$type": "AttachModifier",
          "predicates": [
            {
              "$type": "GPKOPAOMILE",
              "target": "Self",
              "weaponTypes": [
                "WEAPON_CLAYMORE",
                "WEAPON_POLE",
                "WEAPON_SWORD_ONE_HAND"
              ]
            }
          ],
          "modifierName": "UNIQUE_ActivityAbility_Bladedance_MormalAtkSpeedUpAndDamUp_Effect"
        }
      ],
      "isDynamicAbility": true
    }
  },
  {
    "Default": {
      "$type": "ConfigAbility",
      "abilityName": "ActivityAbility_Bladedance_ElemMasteryDeltaUp",
      "abilitySpecials": {
        "ElemMasteryDelta": 0.0
      },
      "modifiers": {
        "UNIQUE_Activity_Bladedance_ElemMasteryDeltaUp": {
          "stacking": "Unique",
          "modifierName": "",
          "forceTriggerWhenChangeAuthority": true,
          "elementDurability": 100.0,
          "properties": {
            "Actor_ElemMasteryDelta": "ElemMasteryDelta"
          }
        }
      },
      "onAdded": [
        {
          "$type": "AttachModifier",
          "modifierName": "UNIQUE_Activity_Bladedance_ElemMasteryDeltaUp"
        }
      ],
      "isDynamicAbility": true
    }
  }
]
