[
  {
    "Default": {
      "$type": "ConfigAbility",
      "abilityName": "SceneObj_Environment_Collision_World_Barrier_Interact",
      "modifiers": {
        "Eff_Barrier": {
          "modifierName": "",
          "elementDurability": 100.0,
          "onAdded": [
            {
              "$type": "AttachEffect",
              "rotationDampTime": "Eff_World_Barrier",
              "PPPDJGDDOGD": 1.0,
              "AJDILHJFNKE": -1.0
            }
          ],
          "onKill": [
            {
              "$type": "SendEffectTrigger",
              "parameter": "Die",
              "attachPoint": ""
            }
          ]
        }
      },
      "onAdded": [
        {
          "$type": "AttachModifier",
          "modifierName": "Eff_Barrier"
        }
      ]
    }
  },
  {
    "Default": {
      "$type": "ConfigAbility",
      "abilityName": "SceneObj_Environment_Collision_World_Barrier_Attack",
      "onAbilityStart": [
        {
          "$type": "FireEffect",
          "rotationDampTime": "Eff_World_Barrier_Hit",
          "PPPDJGDDOGD": 1.0,
          "AJDILHJFNKE": -1.0
        },
        {
          "$type": "DamageByAttackValue",
          "target": "Target",
          "attackInfo": {
            "attackTag": "",
            "attenuationTag": "",
            "attenuationGroup": "default",
            "attackProperty": {
              "actorGrassSubHurtDelta": 0.0,
              "actorWindSubHurtDelta": 0.0,
              "elementDurability": 0.0,
              "strikeType": "Default",
              "enBreak": 800.0,
              "ignoreLevelDiff": true,
              "GLKMCMDJBIK": 0.0
            },
            "hitPattern": {
              "onHitEffectName": "",
              "hitImpulseY": "",
              "hitImpulseType": "LV5",
              "hitHaltTimeScale": 0.009999999776482582,
              "muteHitText": true
            }
          }
        }
      ]
    }
  },
  {
    "Default": {
      "$type": "ConfigAbility",
      "abilityName": "SceneObj_Environment_Collision_World_Barrier_M_Interact",
      "modifiers": {
        "Eff_Barrier": {
          "modifierName": "",
          "elementDurability": 100.0,
          "onAdded": [
            {
              "$type": "AttachEffect",
              "rotationDampTime": "Eff_World_Barrier_M",
              "PPPDJGDDOGD": 1.0,
              "AJDILHJFNKE": -1.0
            }
          ],
          "onKill": [
            {
              "$type": "SendEffectTrigger",
              "parameter": "Die",
              "attachPoint": ""
            }
          ]
        }
      },
      "onAdded": [
        {
          "$type": "AttachModifier",
          "modifierName": "Eff_Barrier"
        }
      ]
    }
  },
  {
    "Default": {
      "$type": "ConfigAbility",
      "abilityName": "SceneObj_Environment_Collision_World_Barrier_M_Attack",
      "onAbilityStart": [
        {
          "$type": "FireEffect",
          "rotationDampTime": "Eff_World_Barrier_M_Hit",
          "PPPDJGDDOGD": 1.0,
          "AJDILHJFNKE": -1.0
        },
        {
          "$type": "DamageByAttackValue",
          "target": "Target",
          "attackInfo": {
            "attackTag": "",
            "attenuationTag": "",
            "attenuationGroup": "default",
            "attackProperty": {
              "actorGrassSubHurtDelta": 0.0,
              "actorWindSubHurtDelta": 0.0,
              "elementDurability": 0.0,
              "strikeType": "Default",
              "enBreak": 800.0,
              "ignoreLevelDiff": true,
              "GLKMCMDJBIK": 0.0
            },
            "hitPattern": {
              "onHitEffectName": "",
              "hitImpulseY": "",
              "hitImpulseType": "LV5",
              "hitHaltTimeScale": 0.009999999776482582,
              "muteHitText": true
            }
          }
        }
      ]
    }
  },
  {
    "Default": {
      "$type": "ConfigAbility",
      "abilityName": "SceneObj_Environment_Collision_World_Barrier_S_Interact",
      "modifiers": {
        "Eff_Barrier": {
          "modifierName": "",
          "elementDurability": 100.0,
          "onAdded": [
            {
              "$type": "AttachEffect",
              "rotationDampTime": "Eff_World_Barrier_S",
              "PPPDJGDDOGD": 1.0,
              "AJDILHJFNKE": -1.0
            }
          ],
          "onKill": [
            {
              "$type": "SendEffectTrigger",
              "parameter": "Die",
              "attachPoint": ""
            }
          ]
        }
      },
      "onAdded": [
        {
          "$type": "AttachModifier",
          "modifierName": "Eff_Barrier"
        }
      ]
    }
  },
  {
    "Default": {
      "$type": "ConfigAbility",
      "abilityName": "SceneObj_Environment_Collision_World_Barrier_S_Attack",
      "onAbilityStart": [
        {
          "$type": "FireEffect",
          "rotationDampTime": "Eff_World_Barrier_S_Hit",
          "PPPDJGDDOGD": 1.0,
          "AJDILHJFNKE": -1.0
        },
        {
          "$type": "DamageByAttackValue",
          "target": "Target",
          "attackInfo": {
            "attackTag": "",
            "attenuationTag": "",
            "attenuationGroup": "default",
            "attackProperty": {
              "actorGrassSubHurtDelta": 0.0,
              "actorWindSubHurtDelta": 0.0,
              "elementDurability": 0.0,
              "strikeType": "Default",
              "enBreak": 800.0,
              "ignoreLevelDiff": true,
              "GLKMCMDJBIK": 0.0
            },
            "hitPattern": {
              "onHitEffectName": "",
              "hitImpulseY": "",
              "hitImpulseType": "LV5",
              "hitHaltTimeScale": 0.009999999776482582,
              "muteHitText": true
            }
          }
        }
      ]
    }
  },
  {
    "Default": {
      "$type": "ConfigAbility",
      "abilityName": "SceneObj_Environment_Collision_World_Barrier_XXL_Interact",
      "modifiers": {
        "Eff_Barrier": {
          "modifierName": "",
          "elementDurability": 100.0,
          "onAdded": [
            {
              "$type": "AttachEffect",
              "rotationDampTime": "Eff_World_Barrier_XXL",
              "PPPDJGDDOGD": 1.0,
              "AJDILHJFNKE": -1.0
            }
          ],
          "onKill": [
            {
              "$type": "SendEffectTrigger",
              "parameter": "Die",
              "attachPoint": ""
            }
          ]
        }
      },
      "onAdded": [
        {
          "$type": "AttachModifier",
          "modifierName": "Eff_Barrier"
        }
      ]
    }
  },
  {
    "Default": {
      "$type": "ConfigAbility",
      "abilityName": "SceneObj_Environment_Collision_World_Barrier_XXL_Attack",
      "onAbilityStart": [
        {
          "$type": "FireEffect",
          "rotationDampTime": "Eff_World_Barrier_XXL_Hit",
          "PPPDJGDDOGD": 1.0,
          "AJDILHJFNKE": -1.0
        },
        {
          "$type": "DamageByAttackValue",
          "target": "Target",
          "attackInfo": {
            "attackTag": "",
            "attenuationTag": "",
            "attenuationGroup": "default",
            "attackProperty": {
              "actorGrassSubHurtDelta": 0.0,
              "actorWindSubHurtDelta": 0.0,
              "elementDurability": 0.0,
              "strikeType": "Default",
              "enBreak": 800.0,
              "ignoreLevelDiff": true,
              "GLKMCMDJBIK": 0.0
            },
            "hitPattern": {
              "onHitEffectName": "",
              "hitImpulseY": "",
              "hitImpulseType": "LV5",
              "hitHaltTimeScale": 0.009999999776482582,
              "muteHitText": true
            }
          }
        }
      ]
    }
  },
  {
    "Default": {
      "$type": "ConfigAbility",
      "abilityName": "SceneObj_Environment_Collision_World_Barrier_4XL_Interact",
      "modifiers": {
        "Eff_Barrier": {
          "modifierName": "",
          "elementDurability": 100.0,
          "onAdded": [
            {
              "$type": "AttachEffect",
              "rotationDampTime": "Eff_World_Barrier_4XL",
              "PPPDJGDDOGD": 1.0,
              "AJDILHJFNKE": -1.0
            }
          ],
          "onKill": [
            {
              "$type": "SendEffectTrigger",
              "parameter": "Die",
              "attachPoint": ""
            }
          ]
        }
      },
      "onAdded": [
        {
          "$type": "AttachModifier",
          "modifierName": "Eff_Barrier"
        }
      ]
    }
  },
  {
    "Default": {
      "$type": "ConfigAbility",
      "abilityName": "SceneObj_Environment_Collision_World_Barrier_4XL_Attack",
      "onAbilityStart": [
        {
          "$type": "FireEffect",
          "rotationDampTime": "Eff_World_Barrier_4XL_Hit",
          "PPPDJGDDOGD": 1.0,
          "AJDILHJFNKE": -1.0
        },
        {
          "$type": "DamageByAttackValue",
          "target": "Target",
          "attackInfo": {
            "attackTag": "",
            "attenuationTag": "",
            "attenuationGroup": "default",
            "attackProperty": {
              "actorGrassSubHurtDelta": 0.0,
              "actorWindSubHurtDelta": 0.0,
              "elementDurability": 0.0,
              "strikeType": "Default",
              "enBreak": 800.0,
              "ignoreLevelDiff": true,
              "GLKMCMDJBIK": 0.0
            },
            "hitPattern": {
              "onHitEffectName": "",
              "hitImpulseY": "",
              "hitImpulseType": "LV5",
              "hitHaltTimeScale": 0.009999999776482582,
              "muteHitText": true
            }
          }
        }
      ]
    }
  },
  {
    "Default": {
      "$type": "ConfigAbility",
      "abilityName": "SceneObj_Environment_Collision_World_Barrier_XS_Interact",
      "modifiers": {
        "Eff_Barrier": {
          "modifierName": "",
          "elementDurability": 100.0,
          "onAdded": [
            {
              "$type": "AttachEffect",
              "rotationDampTime": "Eff_World_Barrier_XS",
              "PPPDJGDDOGD": 1.0,
              "AJDILHJFNKE": -1.0
            }
          ],
          "onKill": [
            {
              "$type": "SendEffectTrigger",
              "parameter": "Die",
              "attachPoint": ""
            }
          ]
        }
      },
      "onAdded": [
        {
          "$type": "AttachModifier",
          "modifierName": "Eff_Barrier"
        }
      ]
    }
  },
  {
    "Default": {
      "$type": "ConfigAbility",
      "abilityName": "SceneObj_Environment_Collision_World_Barrier_XS_Attack",
      "onAbilityStart": [
        {
          "$type": "FireEffect",
          "rotationDampTime": "Eff_World_Barrier_XS_Hit",
          "PPPDJGDDOGD": 1.0,
          "AJDILHJFNKE": -1.0
        },
        {
          "$type": "DamageByAttackValue",
          "target": "Target",
          "attackInfo": {
            "attackTag": "",
            "attenuationTag": "",
            "attenuationGroup": "default",
            "attackProperty": {
              "actorGrassSubHurtDelta": 0.0,
              "actorWindSubHurtDelta": 0.0,
              "elementDurability": 0.0,
              "strikeType": "Default",
              "enBreak": 800.0,
              "ignoreLevelDiff": true,
              "GLKMCMDJBIK": 0.0
            },
            "hitPattern": {
              "onHitEffectName": "",
              "hitImpulseY": "",
              "hitImpulseType": "LV5",
              "hitHaltTimeScale": 0.009999999776482582,
              "muteHitText": true
            }
          }
        }
      ]
    }
  },
  {
    "Default": {
      "$type": "ConfigAbility",
      "abilityName": "SceneObj_Environment_Collision_IceWall",
      "modifiers": {
        "IceWall": {
          "modifierName": "",
          "elementType": "Frozen",
          "elementDurability": 150.0,
          "modifierMixins": [
            {
              "$type": "ShieldBarMixin",
              "showDamageText": ""
            }
          ],
          "onRemoved": [
            {
              "$type": "FireEffect",
              "rotationDampTime": "Eff_IcePack_L_Destroy",
              "PPPDJGDDOGD": 1.0,
              "AJDILHJFNKE": -1.0
            },
            {
              "$type": "KillSelf"
            }
          ],
          "onBeingHit": [
            {
              "$type": "FireEffect",
              "rotationDampTime": "Eff_Common_IceHit_01_EffectMesh",
              "PPPDJGDDOGD": 1.0,
              "AJDILHJFNKE": -1.0
            }
          ]
        }
      },
      "onAdded": [
        {
          "$type": "AttachModifier",
          "modifierName": "IceWall"
        }
      ]
    }
  },
  {
    "Default": {
      "$type": "ConfigAbility",
      "abilityName": "SceneObj_Environment_Collision_IceWall02",
      "modifiers": {
        "IceWall": {
          "modifierName": "",
          "elementType": "Frozen",
          "elementDurability": 150.0,
          "modifierMixins": [
            {
              "$type": "ShieldBarMixin",
              "showDamageText": ""
            }
          ],
          "onRemoved": [
            {
              "$type": "FireEffect",
              "rotationDampTime": "Eff_IcePack_S_Destroy",
              "PPPDJGDDOGD": 1.0,
              "AJDILHJFNKE": -1.0
            },
            {
              "$type": "KillSelf"
            }
          ],
          "onBeingHit": [
            {
              "$type": "FireEffect",
              "rotationDampTime": "Eff_Common_IceHit_01_EffectMesh",
              "PPPDJGDDOGD": 1.0,
              "AJDILHJFNKE": -1.0
            }
          ]
        }
      },
      "onAdded": [
        {
          "$type": "AttachModifier",
          "modifierName": "IceWall"
        }
      ]
    }
  },
  {
    "Default": {
      "$type": "ConfigAbility",
      "abilityName": "SceneObj_Environment_Collision_IcePile",
      "modifiers": {
        "IceWall": {
          "modifierName": "",
          "elementType": "Frozen",
          "elementDurability": 150.0,
          "modifierMixins": [
            {
              "$type": "ShieldBarMixin",
              "showDamageText": ""
            }
          ],
          "onRemoved": [
            {
              "$type": "FireEffect",
              "rotationDampTime": "Eff_IcePillar_Destroy",
              "PPPDJGDDOGD": 1.0,
              "AJDILHJFNKE": -1.0
            },
            {
              "$type": "KillSelf"
            }
          ],
          "onBeingHit": [
            {
              "$type": "FireEffect",
              "rotationDampTime": "Eff_Common_IceHit_01_EffectMesh",
              "PPPDJGDDOGD": 1.0,
              "AJDILHJFNKE": -1.0
            }
          ]
        }
      },
      "onAdded": [
        {
          "$type": "AttachModifier",
          "modifierName": "IceWall"
        }
      ]
    }
  }
]
