[
  {
    "Default": {
      "$type": "ConfigAbility",
      "abilityName": "SceneObj_Area_Xm_Property_Ani_Prop_DeathZoneCore_01_Ability",
      "abilityMixins": [
        {
          "$type": "AttachToGadgetStateMixin",
          "modifierName": "IdleState"
        },
        {
          "$type": "AttachToGadgetStateMixin",
          "gadgetState": 1,
          "modifierName": "AppearState"
        },
        {
          "$type": "AttachToGadgetStateMixin",
          "gadgetState": 201,
          "modifierName": "CoreState"
        },
        {
          "$type": "AttachToGadgetStateMixin",
          "gadgetState": 202,
          "modifierName": "DeathState"
        },
        {
          "$type": "AttachToAnimatorStateIDMixin",
          "stateIDs": ["KeepClose"],
          "modifierName": "CoreClose",
          "DGFCLAIDIFI": ""
        },
        {
          "$type": "LNEJGOMCBMO",
          "succActions": [
            {
              "$type": "ApplyModifier",
              "predicates": [
                {
                  "$type": "HNLCJOPBDLC",
                  "target": "Self",
                  "gadgetState": 201
                }
              ],
              "modifierName": "CoreInteeEffect"
            }
          ]
        }
      ],
      "modifiers": {
        "CoreClose": {
          "modifierName": "",
          "elementDurability": 100.0,
          "onAdded": [
            {
              "$type": "AttachEffect",
              "rotationDampTime": "Eff_SceneObj_MaranaCore_01_Idle",
              "PPPDJGDDOGD": 1.0,
              "AJDILHJFNKE": -1.0
            }
          ]
        },
        "CoreInteeEffect": {
          "stacking": "Unique",
          "modifierName": "",
          "duration": 0.5,
          "elementDurability": 100.0,
          "onAdded": [
            {
              "$type": "MCOBFPMHMHJ",
              "luaCallType": "FromGroup",
              "sourceName": "DF_CallCamera",
              "param1": 0.0,
              "MGAMDEHMCOL": 0.0,
              "MMHOHAOGPLP": 0.0
            }
          ],
          "onRemoved": [
            {
              "$type": "MCOBFPMHMHJ",
              "luaCallType": "FromGroup",
              "sourceName": "DF_CoreDie",
              "param1": 0.0,
              "MGAMDEHMCOL": 0.0,
              "MMHOHAOGPLP": 0.0
            }
          ]
        },
        "IdleState": {
          "modifierName": "",
          "elementDurability": 100.0,
          "onAdded": [
            {
              "$type": "AttachModifier",
              "modifierName": "DisableIntee"
            },
            {
              "$type": "SetAnimatorInt",
              "intID": "IsOpen",
              "value": 0.0
            }
          ]
        },
        "AppearState": {
          "modifierName": "",
          "elementDurability": 100.0,
          "onAdded": [
            {
              "$type": "AttachModifier",
              "modifierName": "DisableIntee"
            },
            {
              "$type": "AttachEffect",
              "rotationDampTime": "Eff_SceneObj_MaranaCore_WhiteMist_01",
              "PPPDJGDDOGD": 1.0,
              "AJDILHJFNKE": -1.0
            },
            {
              "$type": "SetAnimatorInt",
              "intID": "IsOpen",
              "value": 0.0
            }
          ]
        },
        "CoreState": {
          "modifierName": "",
          "elementDurability": 100.0,
          "onAdded": [
            {
              "$type": "JPAAAOLNENF",
              "enable": true
            },
            {
              "$type": "EnableHitBoxByName",
              "hitBoxNames": ["HitBox"],
              "setEnable": true
            },
            {
              "$type": "SetAnimatorInt",
              "intID": "IsOpen",
              "value": 1.0
            },
            {
              "$type": "AttachEffect",
              "rotationDampTime": "Eff_SceneObj_MaranaCore_01_Unlock",
              "PPPDJGDDOGD": 1.0,
              "AJDILHJFNKE": -1.0
            }
          ]
        },
        "DeathState": {
          "modifierName": "",
          "duration": 2.5999999046325684,
          "elementDurability": 100.0,
          "onAdded": [
            {
              "$type": "AttachModifier",
              "modifierName": "DisableIntee"
            },
            {
              "$type": "FireEffect",
              "rotationDampTime": "Eff_SceneObj_MaranaCore_01_Disappear",
              "PPPDJGDDOGD": 1.0,
              "AJDILHJFNKE": -1.0
            },
            {
              "$type": "ANNOBMCGOEC",
              "matName": "Root",
              "EKHLCLJELIP": "_DissolveVal",
              "value": 1.0,
              "useCurve": true,
              "lerpTime": 2.5
            },
            {
              "$type": "ANNOBMCGOEC",
              "matName": "Core",
              "EKHLCLJELIP": "_DissolveVal",
              "value": 1.149999976158142,
              "useCurve": true,
              "lerpTime": 2.5
            },
            {
              "$type": "ANNOBMCGOEC",
              "matName": "Flower",
              "EKHLCLJELIP": "_DissolveVal",
              "value": 1.7999999523162842,
              "useCurve": true,
              "lerpTime": 2.5
            }
          ],
          "onRemoved": [
            {
              "$type": "KillSelf",
              "predicates": [
                {
                  "$type": "HNLCJOPBDLC",
                  "gadgetState": 202
                }
              ]
            }
          ]
        },
        "DisableIntee": {
          "modifierName": "",
          "elementDurability": 100.0,
          "onAdded": [
            {
              "$type": "JPAAAOLNENF"
            },
            {
              "$type": "EnableHitBoxByName",
              "hitBoxNames": ["HitBox"]
            }
          ]
        }
      }
    }
  },
  {
    "Default": {
      "$type": "ConfigAbility",
      "abilityName": "SceneObj_Area_Xm_Property_Ani_Prop_DeathZoneCore_02_Ability",
      "abilityMixins": [
        {
          "$type": "AttachToGadgetStateMixin",
          "modifierName": "IdleState"
        },
        {
          "$type": "AttachToGadgetStateMixin",
          "gadgetState": 1,
          "modifierName": "AppearState"
        },
        {
          "$type": "AttachToGadgetStateMixin",
          "gadgetState": 201,
          "modifierName": "CoreState"
        },
        {
          "$type": "AttachToGadgetStateMixin",
          "gadgetState": 202,
          "modifierName": "DeathState"
        },
        {
          "$type": "AttachToAnimatorStateIDMixin",
          "stateIDs": ["KeepClose"],
          "modifierName": "CoreClose",
          "DGFCLAIDIFI": ""
        },
        {
          "$type": "LNEJGOMCBMO",
          "succActions": [
            {
              "$type": "ApplyModifier",
              "predicates": [
                {
                  "$type": "HNLCJOPBDLC",
                  "target": "Self",
                  "gadgetState": 201
                }
              ],
              "modifierName": "CoreInteeEffect"
            }
          ]
        }
      ],
      "modifiers": {
        "CoreClose": {
          "modifierName": "",
          "elementDurability": 100.0,
          "onAdded": [
            {
              "$type": "AttachEffect",
              "rotationDampTime": "Eff_SceneObj_MaranaCore_02_Idle",
              "PPPDJGDDOGD": 1.0,
              "AJDILHJFNKE": -1.0
            }
          ]
        },
        "CoreInteeEffect": {
          "stacking": "Unique",
          "modifierName": "",
          "duration": 0.5,
          "elementDurability": 100.0,
          "onAdded": [
            {
              "$type": "MCOBFPMHMHJ",
              "luaCallType": "FromGroup",
              "sourceName": "DF_CallCamera",
              "param1": 0.0,
              "MGAMDEHMCOL": 0.0,
              "MMHOHAOGPLP": 0.0
            }
          ],
          "onRemoved": [
            {
              "$type": "MCOBFPMHMHJ",
              "luaCallType": "FromGroup",
              "sourceName": "DF_CoreDie",
              "param1": 0.0,
              "MGAMDEHMCOL": 0.0,
              "MMHOHAOGPLP": 0.0
            }
          ]
        },
        "IdleState": {
          "modifierName": "",
          "elementDurability": 100.0,
          "onAdded": [
            {
              "$type": "AttachModifier",
              "modifierName": "DisableIntee"
            },
            {
              "$type": "SetAnimatorInt",
              "intID": "IsOpen",
              "value": 0.0
            }
          ]
        },
        "AppearState": {
          "modifierName": "",
          "elementDurability": 100.0,
          "onAdded": [
            {
              "$type": "AttachModifier",
              "modifierName": "DisableIntee"
            },
            {
              "$type": "AttachEffect",
              "rotationDampTime": "Eff_SceneObj_MaranaCore_WhiteMist_02",
              "PPPDJGDDOGD": 1.0,
              "AJDILHJFNKE": -1.0
            },
            {
              "$type": "SetAnimatorInt",
              "intID": "IsOpen",
              "value": 0.0
            }
          ]
        },
        "CoreState": {
          "modifierName": "",
          "elementDurability": 100.0,
          "onAdded": [
            {
              "$type": "JPAAAOLNENF",
              "enable": true
            },
            {
              "$type": "EnableHitBoxByName",
              "hitBoxNames": ["HitBox"],
              "setEnable": true
            },
            {
              "$type": "SetAnimatorInt",
              "intID": "IsOpen",
              "value": 1.0
            },
            {
              "$type": "AttachEffect",
              "rotationDampTime": "Eff_SceneObj_MaranaCore_02_Unlock",
              "PPPDJGDDOGD": 1.0,
              "AJDILHJFNKE": -1.0
            }
          ]
        },
        "DeathState": {
          "modifierName": "",
          "duration": 2.5999999046325684,
          "elementDurability": 100.0,
          "onAdded": [
            {
              "$type": "AttachModifier",
              "modifierName": "DisableIntee"
            },
            {
              "$type": "FireEffect",
              "rotationDampTime": "Eff_SceneObj_MaranaCore_02_Disappear",
              "PPPDJGDDOGD": 1.0,
              "AJDILHJFNKE": -1.0
            },
            {
              "$type": "ANNOBMCGOEC",
              "matName": "Root",
              "EKHLCLJELIP": "_DissolveVal",
              "value": 1.7999999523162842,
              "useCurve": true,
              "lerpTime": 2.5
            },
            {
              "$type": "ANNOBMCGOEC",
              "matName": "Core",
              "EKHLCLJELIP": "_DissolveVal",
              "value": 1.149999976158142,
              "useCurve": true,
              "lerpTime": 2.5
            },
            {
              "$type": "ANNOBMCGOEC",
              "matName": "Flower",
              "EKHLCLJELIP": "_DissolveVal",
              "value": 1.7999999523162842,
              "useCurve": true,
              "lerpTime": 2.5
            }
          ],
          "onRemoved": [
            {
              "$type": "KillSelf",
              "predicates": [
                {
                  "$type": "HNLCJOPBDLC",
                  "gadgetState": 202
                }
              ]
            }
          ]
        },
        "DisableIntee": {
          "modifierName": "",
          "elementDurability": 100.0,
          "onAdded": [
            {
              "$type": "JPAAAOLNENF"
            },
            {
              "$type": "EnableHitBoxByName",
              "hitBoxNames": ["HitBox"]
            }
          ]
        }
      }
    }
  },
  {
    "Default": {
      "$type": "ConfigAbility",
      "abilityName": "SceneObj_Area_Xm_Property_Ani_Prop_DeathZoneCoreLarva_01_Ability",
      "abilityMixins": [
        {
          "$type": "AttachToGadgetStateMixin",
          "modifierName": "UnlockState"
        },
        {
          "$type": "AttachToGadgetStateMixin",
          "gadgetState": 201,
          "modifierName": "LockState"
        },
        {
          "$type": "AttachToGadgetStateMixin",
          "gadgetState": 202,
          "modifierName": "DeathState"
        },
        {
          "$type": "LNEJGOMCBMO",
          "succActions": [
            {
              "$type": "HPIDNBEGJLL",
              "predicates": [
                {
                  "$type": "HNLCJOPBDLC",
                  "target": "Self"
                }
              ],
              "state": 202
            }
          ]
        }
      ],
      "modifiers": {
        "UnlockState": {
          "modifierName": "",
          "elementDurability": 100.0,
          "onAdded": [
            {
              "$type": "JPAAAOLNENF",
              "enable": true
            },
            {
              "$type": "AttachEffect",
              "rotationDampTime": "Eff_SceneObj_MaranaCore_01_Unlock",
              "PPPDJGDDOGD": 1.0,
              "AJDILHJFNKE": -1.0
            }
          ]
        },
        "LockState": {
          "modifierName": "",
          "elementDurability": 100.0,
          "onAdded": [
            {
              "$type": "JPAAAOLNENF"
            },
            {
              "$type": "AttachEffect",
              "rotationDampTime": "Eff_SceneObj_MaranaCore_01_Idle",
              "PPPDJGDDOGD": 1.0,
              "AJDILHJFNKE": -1.0
            },
            {
              "$type": "AttachEffect",
              "rotationDampTime": "Eff_SceneObj_MaranaCore_BlackMist_01",
              "PPPDJGDDOGD": 1.0,
              "AJDILHJFNKE": -1.0
            }
          ]
        },
        "DeathState": {
          "modifierName": "",
          "duration": 2.5999999046325684,
          "elementDurability": 100.0,
          "onAdded": [
            {
              "$type": "MCOBFPMHMHJ",
              "luaCallType": "FromGroup",
              "sourceName": "DF_LarvaDie",
              "param1": 0.0,
              "MGAMDEHMCOL": 0.0,
              "MMHOHAOGPLP": 0.0
            },
            {
              "$type": "JPAAAOLNENF"
            },
            {
              "$type": "EnableHitBoxByName",
              "hitBoxNames": ["HitBox"]
            },
            {
              "$type": "FireEffect",
              "rotationDampTime": "Eff_SceneObj_MaranaCore_01_Disappear",
              "PPPDJGDDOGD": 1.0,
              "AJDILHJFNKE": -1.0
            },
            {
              "$type": "ANNOBMCGOEC",
              "matName": "Root",
              "EKHLCLJELIP": "_DissolveVal",
              "value": 1.0,
              "useCurve": true,
              "lerpTime": 2.5
            },
            {
              "$type": "ANNOBMCGOEC",
              "matName": "Core",
              "EKHLCLJELIP": "_DissolveVal",
              "value": 1.149999976158142,
              "useCurve": true,
              "lerpTime": 2.5
            }
          ],
          "onRemoved": [
            {
              "$type": "KillSelf",
              "predicates": [
                {
                  "$type": "HNLCJOPBDLC",
                  "gadgetState": 202
                }
              ]
            }
          ]
        }
      }
    }
  },
  {
    "Default": {
      "$type": "ConfigAbility",
      "abilityName": "SceneObj_Area_Xm_Property_Ani_Prop_DeathZoneCoreLarva_02_Ability",
      "abilityMixins": [
        {
          "$type": "AttachToGadgetStateMixin",
          "modifierName": "UnlockState"
        },
        {
          "$type": "AttachToGadgetStateMixin",
          "gadgetState": 201,
          "modifierName": "LockState"
        },
        {
          "$type": "AttachToGadgetStateMixin",
          "gadgetState": 202,
          "modifierName": "DeathState"
        },
        {
          "$type": "LNEJGOMCBMO",
          "succActions": [
            {
              "$type": "HPIDNBEGJLL",
              "predicates": [
                {
                  "$type": "HNLCJOPBDLC",
                  "target": "Self"
                }
              ],
              "state": 202
            }
          ]
        }
      ],
      "modifiers": {
        "UnlockState": {
          "modifierName": "",
          "elementDurability": 100.0,
          "onAdded": [
            {
              "$type": "JPAAAOLNENF",
              "enable": true
            },
            {
              "$type": "AttachEffect",
              "rotationDampTime": "Eff_SceneObj_MaranaCore_02_Unlock",
              "PPPDJGDDOGD": 1.0,
              "AJDILHJFNKE": -1.0
            }
          ]
        },
        "LockState": {
          "modifierName": "",
          "elementDurability": 100.0,
          "onAdded": [
            {
              "$type": "JPAAAOLNENF"
            },
            {
              "$type": "AttachEffect",
              "rotationDampTime": "Eff_SceneObj_MaranaCore_02_Idle",
              "PPPDJGDDOGD": 1.0,
              "AJDILHJFNKE": -1.0
            },
            {
              "$type": "AttachEffect",
              "rotationDampTime": "Eff_SceneObj_MaranaCore_BlackMist_02",
              "PPPDJGDDOGD": 1.0,
              "AJDILHJFNKE": -1.0
            }
          ]
        },
        "DeathState": {
          "modifierName": "",
          "duration": 2.5999999046325684,
          "elementDurability": 100.0,
          "onAdded": [
            {
              "$type": "MCOBFPMHMHJ",
              "luaCallType": "FromGroup",
              "sourceName": "DF_LarvaDie",
              "param1": 0.0,
              "MGAMDEHMCOL": 0.0,
              "MMHOHAOGPLP": 0.0
            },
            {
              "$type": "JPAAAOLNENF"
            },
            {
              "$type": "EnableHitBoxByName",
              "hitBoxNames": ["HitBox"]
            },
            {
              "$type": "FireEffect",
              "rotationDampTime": "Eff_SceneObj_MaranaCore_02_Disappear",
              "PPPDJGDDOGD": 1.0,
              "AJDILHJFNKE": -1.0
            },
            {
              "$type": "ANNOBMCGOEC",
              "matName": "Root",
              "EKHLCLJELIP": "_DissolveVal",
              "value": 1.7999999523162842,
              "useCurve": true,
              "lerpTime": 2.5
            },
            {
              "$type": "ANNOBMCGOEC",
              "matName": "Core",
              "EKHLCLJELIP": "_DissolveVal",
              "value": 1.149999976158142,
              "useCurve": true,
              "lerpTime": 2.5
            }
          ],
          "onRemoved": [
            {
              "$type": "KillSelf",
              "predicates": [
                {
                  "$type": "HNLCJOPBDLC",
                  "gadgetState": 202
                }
              ]
            }
          ]
        }
      }
    }
  },
  {
    "Default": {
      "$type": "ConfigAbility",
      "abilityName": "SceneObj_Area_Xm_Property_Ani_Prop_DeathZonePoint_01_Ability",
      "abilityMixins": [
        {
          "$type": "AttachToGadgetStateMixin",
          "modifierName": "Alive"
        },
        {
          "$type": "AttachModifierToSelfGlobalValueNoInitMixin",
          "globalValueKey": "SelfDestory",
          "valueSteps": [0.5, 1.5],
          "modifierNameSteps": ["DeathCall"]
        },
        {
          "$type": "AttachToGadgetStateMixin",
          "gadgetState": 901,
          "modifierName": "SetSummonTo1"
        },
        {
          "$type": "AttachToGadgetStateMixin",
          "gadgetState": 902,
          "modifierName": "SetSummonTo2"
        },
        {
          "$type": "AttachToGadgetStateMixin",
          "gadgetState": 903,
          "modifierName": "SetSummonTo3"
        }
      ],
      "modifiers": {
        "Alive": {
          "modifierName": "",
          "elementDurability": 100.0,
          "onAdded": [
            {
              "$type": "AttachEffect",
              "rotationDampTime": "Eff_SceneObj_MaranaNexus_Idle",
              "PPPDJGDDOGD": 1.0,
              "AJDILHJFNKE": -1.0
            },
            {
              "$type": "ANNOBMCGOEC",
              "canBeHandledOnRecover": true,
              "matName": "Root",
              "EKHLCLJELIP": "_DissolveVal",
              "value": 0.0
            },
            {
              "$type": "ANNOBMCGOEC",
              "canBeHandledOnRecover": true,
              "matName": "Core",
              "EKHLCLJELIP": "_DissolveVal",
              "value": 0.0
            },
            {
              "$type": "SetGlobalValue",
              "value": 0.0,
              "key": "SelfDestory",
              "maxValue": 0.0,
              "minValue": 0.0
            }
          ]
        },
        "DeathCall": {
          "modifierName": "",
          "elementDurability": 100.0,
          "onAdded": [
            {
              "$type": "AttachModifier",
              "modifierName": "DistanceSummon"
            },
            {
              "$type": "HPIDNBEGJLL",
              "state": 202
            }
          ]
        },
        "DeathZone_ExtraDamage": {
          "modifierName": "",
          "duration": 0.10000000149011612,
          "elementDurability": 100.0,
          "onAdded": [
            {
              "$type": "SetGlobalValue",
              "target": "Team",
              "value": 1.0,
              "key": "DeathZoneGV_ExtraAttack",
              "maxValue": 0.0,
              "minValue": 0.0
            }
          ]
        },
        "DistanceSummon": {
          "modifierName": "",
          "elementDurability": 100.0,
          "onAdded": [
            {
              "$type": "SetSelfAttackTarget",
              "otherTargets": {
                "$type": "SelectTargetsByShape",
                "topLimit": 1,
                "sortType": "Nearest",
                "shapeName": "CircleR50",
                "campTargetType": "Enemy",
                "doOffStage": 1.0
              },
              "predicates": [
                {
                  "$type": "ByEntityTypes",
                  "entityTypes": ["Avatar"]
                }
              ]
            },
            {
              "$type": "Predicated",
              "targetPredicates": [
                {
                  "$type": "ByHasAttackTarget"
                },
                {
                  "$type": "ByTargetPositionToSelfPosition",
                  "target": "SelfAttackTarget",
                  "logic": "LesserOrEqual",
                  "value": 5.0,
                  "DDALGNLEHOD": ""
                }
              ],
              "successActions": [
                {
                  "$type": "DebugLog",
                  "content": "DeathZonePoint Trigger DeathCry_01 !!!"
                },
                {
                  "$type": "AttachModifier",
                  "modifierName": "DeathCry_01"
                }
              ],
              "failActions": [
                {
                  "$type": "Predicated",
                  "targetPredicates": [
                    {
                      "$type": "ByHasAttackTarget"
                    },
                    {
                      "$type": "ByTargetPositionToSelfPosition",
                      "target": "SelfAttackTarget",
                      "logic": "LesserOrEqual",
                      "value": 8.0,
                      "DDALGNLEHOD": ""
                    }
                  ],
                  "successActions": [
                    {
                      "$type": "DebugLog",
                      "content": "DeathZonePoint Trigger DeathCry_02 !!!"
                    },
                    {
                      "$type": "AttachModifier",
                      "modifierName": "DeathCry_02"
                    }
                  ],
                  "failActions": [
                    {
                      "$type": "DebugLog",
                      "content": "DeathZonePoint Trigger DeathCry_03 !!!"
                    },
                    {
                      "$type": "AttachModifier",
                      "modifierName": "DeathCry_03"
                    }
                  ]
                }
              ]
            }
          ]
        },
        "KillSelf": {
          "modifierName": "",
          "elementDurability": 100.0,
          "onAdded": [
            {
              "$type": "ANNOBMCGOEC",
              "matName": "Root",
              "EKHLCLJELIP": "_DissolveVal",
              "value": 2.0,
              "useCurve": true,
              "lerpCurveIndex": 1,
              "lerpTime": 3.0
            },
            {
              "$type": "ANNOBMCGOEC",
              "matName": "Core",
              "EKHLCLJELIP": "_DissolveVal",
              "value": 1.2000000476837158,
              "useCurve": true,
              "lerpCurveIndex": 1,
              "lerpTime": 2.0
            },
            {
              "$type": "EnableHitBoxByName",
              "hitBoxNames": ["HitBox"]
            },
            {
              "$type": "FireEffect",
              "rotationDampTime": "Eff_SceneObj_MaranaNexus_Hit",
              "born": {
                "$type": "ConfigBornByAttachPoint",
                "attachPointName": "CorePoint"
              },
              "PPPDJGDDOGD": 1.0,
              "AJDILHJFNKE": -1.0
            },
            {
              "$type": "KillSelf",
              "predicates": [
                {
                  "$type": "HNLCJOPBDLC",
                  "gadgetState": 202
                }
              ]
            }
          ],
          "onReconnect": [
            {
              "$type": "KillSelf",
              "predicates": [
                {
                  "$type": "HNLCJOPBDLC",
                  "gadgetState": 202
                }
              ]
            }
          ]
        },
        "DeathCry_01": {
          "modifierName": "",
          "duration": 1.600000023841858,
          "elementDurability": 100.0,
          "onAdded": [
            {
              "$type": "CreateGadget",
              "born": {
                "$type": "ConfigBornByAttachPoint",
                "attachPointName": "ShootPoint"
              },
              "gadgetID": 70310211,
              "campID": 5001,
              "campTargetType": "Enemy"
            }
          ],
          "onRemoved": [
            {
              "$type": "ApplyModifier",
              "predicates": [
                {
                  "$type": "HNLCJOPBDLC",
                  "gadgetState": 202
                }
              ],
              "modifierName": "KillSelf"
            }
          ]
        },
        "DeathCry_02": {
          "modifierName": "",
          "duration": 1.600000023841858,
          "elementDurability": 100.0,
          "onAdded": [
            {
              "$type": "CreateGadget",
              "born": {
                "$type": "ConfigBornBySelf",
                "bornRandom": {
                  "$type": "BornRandomFromCenter",
                  "minRandomRange": 2.0,
                  "maxRandomRange": 10.0
                },
                "onGround": true
              },
              "gadgetID": 70310212,
              "campID": 5001,
              "campTargetType": "Enemy"
            },
            {
              "$type": "CreateGadget",
              "born": {
                "$type": "ConfigBornBySelf",
                "bornRandom": {
                  "$type": "BornRandomFromCenter",
                  "minRandomRange": 2.0,
                  "maxRandomRange": 10.0
                },
                "onGround": true
              },
              "gadgetID": 70310212,
              "campID": 5001,
              "campTargetType": "Enemy"
            },
            {
              "$type": "CreateGadget",
              "born": {
                "$type": "ConfigBornBySelf",
                "bornRandom": {
                  "$type": "BornRandomFromCenter",
                  "minRandomRange": 2.0,
                  "maxRandomRange": 10.0
                },
                "onGround": true
              },
              "gadgetID": 70310212,
              "campID": 5001,
              "campTargetType": "Enemy"
            }
          ],
          "onRemoved": [
            {
              "$type": "ApplyModifier",
              "predicates": [
                {
                  "$type": "HNLCJOPBDLC",
                  "gadgetState": 202
                }
              ],
              "modifierName": "KillSelf"
            }
          ]
        },
        "DeathCry_03": {
          "modifierName": "",
          "duration": 0.20000000298023224,
          "elementDurability": 100.0,
          "onAdded": [
            {
              "$type": "SetSelfAttackTarget",
              "otherTargets": {
                "$type": "SelectTargetsByShape",
                "topLimit": 1,
                "sortType": "Nearest",
                "shapeName": "CircleR50",
                "campTargetType": "Enemy",
                "doOffStage": 1.0
              },
              "predicates": [
                {
                  "$type": "ByEntityTypes",
                  "entityTypes": ["Avatar"]
                },
                {
                  "$type": "ByEntityIsAlive"
                }
              ]
            },
            {
              "$type": "TriggerBullet",
              "bulletID": 70310213,
              "born": {
                "$type": "ConfigBornByAttachPoint",
                "direction": {
                  "$type": "ConfigDirectionByAttackTarget",
                  "angleOffsetCorrect": {
                    "x": 0.0,
                    "y": 0.0,
                    "z": 0.0
                  },
                  "startPoint": ""
                },
                "attachPointName": "ShootPoint"
              }
            },
            {
              "$type": "TriggerBullet",
              "bulletID": 70310213,
              "born": {
                "$type": "ConfigBornByAttachPoint",
                "direction": {
                  "$type": "ConfigDirectionByAttackTarget",
                  "angleOffsetCorrect": {
                    "x": 0.0,
                    "y": 5.0,
                    "z": 0.0
                  },
                  "startPoint": ""
                },
                "attachPointName": "ShootPoint"
              }
            },
            {
              "$type": "TriggerBullet",
              "bulletID": 70310213,
              "born": {
                "$type": "ConfigBornByAttachPoint",
                "direction": {
                  "$type": "ConfigDirectionByAttackTarget",
                  "angleOffsetCorrect": {
                    "x": 0.0,
                    "y": -5.0,
                    "z": 0.0
                  },
                  "startPoint": ""
                },
                "attachPointName": "ShootPoint"
              }
            }
          ],
          "onRemoved": [
            {
              "$type": "ApplyModifier",
              "predicates": [
                {
                  "$type": "HNLCJOPBDLC",
                  "gadgetState": 202
                }
              ],
              "modifierName": "KillSelf"
            }
          ]
        },
        "SetSummonTo1": {
          "modifierName": "",
          "elementDurability": 100.0,
          "onAdded": [
            {
              "$type": "SetGlobalValue",
              "value": 0.5,
              "key": "_RandomSummon",
              "maxValue": 0.0,
              "minValue": 0.0
            },
            {
              "$type": "HPIDNBEGJLL"
            }
          ]
        },
        "SetSummonTo2": {
          "modifierName": "",
          "elementDurability": 100.0,
          "onAdded": [
            {
              "$type": "SetGlobalValue",
              "value": 1.5,
              "key": "_RandomSummon",
              "maxValue": 0.0,
              "minValue": 0.0
            },
            {
              "$type": "HPIDNBEGJLL"
            }
          ]
        },
        "SetSummonTo3": {
          "modifierName": "",
          "elementDurability": 100.0,
          "onAdded": [
            {
              "$type": "SetGlobalValue",
              "value": 2.5,
              "key": "_RandomSummon",
              "maxValue": 0.0,
              "minValue": 0.0
            },
            {
              "$type": "HPIDNBEGJLL"
            }
          ]
        }
      },
      "onAdded": [
        {
          "$type": "KillSelf",
          "predicates": [
            {
              "$type": "HNLCJOPBDLC",
              "gadgetState": 202
            }
          ]
        }
      ]
    }
  },
  {
    "Default": {
      "$type": "ConfigAbility",
      "abilityName": "SceneObj_Area_Xm_Property_Ani_Prop_DeathZonePointCry_01_Ability",
      "abilitySpecials": {
        "ElementLevelCo": 1.0,
        "DamageRatio": 3.0,
        "AlertTime": 1.600000023841858
      },
      "modifiers": {
        "HitWatcher": {
          "modifierName": "",
          "elementDurability": 100.0,
          "onAttackLanded": [
            {
              "$type": "Predicated",
              "target": "Other",
              "targetPredicates": [
                {
                  "$type": "ByEntityTypes",
                  "entityTypes": ["Avatar"]
                }
              ],
              "successActions": [
                {
                  "$type": "ApplyModifier",
                  "target": "Other",
                  "modifierName": "DeathZone_ExtraDamage"
                }
              ]
            }
          ]
        },
        "DeathZone_ExtraDamage": {
          "modifierName": "",
          "duration": 0.10000000149011612,
          "elementDurability": 100.0,
          "onAdded": [
            {
              "$type": "SetGlobalValue",
              "target": "Team",
              "value": 1.0,
              "key": "DeathZoneGV_ExtraAttack",
              "maxValue": 0.0,
              "minValue": 0.0
            }
          ]
        },
        "Alert": {
          "modifierName": "",
          "duration": "AlertTime",
          "elementDurability": 100.0,
          "onAdded": [
            {
              "$type": "AttachEffect",
              "rotationDampTime": "Eff_SceneObj_MaranaNexus_Alert_01",
              "PPPDJGDDOGD": 1.0,
              "AJDILHJFNKE": -1.0
            }
          ],
          "onRemoved": [
            {
              "$type": "FireEffect",
              "rotationDampTime": "Eff_SceneObj_MaranaNexus_Skill_01",
              "PPPDJGDDOGD": 1.0,
              "AJDILHJFNKE": -1.0
            },
            {
              "$type": "TriggerAttackEvent",
              "attackEvent": {
                "attackPattern": {
                  "$type": "ConfigAttackSphere",
                  "triggerType": "TriggerNoRepeat",
                  "born": {
                    "$type": "ConfigBornBySelf"
                  },
                  "radius": 5.0
                },
                "attackInfo": {
                  "attackTag": "",
                  "attenuationTag": "",
                  "attenuationGroup": "default",
                  "attackProperty": {
                    "actorGrassSubHurtDelta": 0.0,
                    "actorWindSubHurtDelta": 0.0,
                    "elementDurability": 100.0,
                    "ignoreAttackerProperty": true,
                    "strikeType": "Default",
                    "enBreak": 50.0,
                    "attackType": "Range",
                    "HMBONGBFIAP": ["ElementLevelCo", "DamageRatio", "MUL"],
                    "trueDamage": true,
                    "GLKMCMDJBIK": 0.0
                  },
                  "hitPattern": {
                    "onHitEffectName": "default",
                    "hitImpulseY": "",
                    "hitImpulseType": "LV5"
                  }
                }
              },
              "targetType": "Enemy",
              "entityTypes": ["Avatar"]
            }
          ]
        }
      },
      "onAdded": [
        {
          "$type": "GDHGMAPPGHD",
          "shieldHP": true,
          "key": "ElementLevelCo",
          "damageRatio": "ElementLevelCo"
        },
        {
          "$type": "ApplyModifier",
          "modifierName": "Alert"
        },
        {
          "$type": "ApplyModifier",
          "modifierName": "HitWatcher"
        }
      ]
    }
  },
  {
    "Default": {
      "$type": "ConfigAbility",
      "abilityName": "SceneObj_Area_Xm_Property_Ani_Prop_DeathZonePointCry_02_Ability",
      "abilitySpecials": {
        "ElementLevelCo": 1.0,
        "DamageRatio": 3.0,
        "AlertTime": 1.600000023841858
      },
      "modifiers": {
        "Alert": {
          "modifierName": "",
          "duration": "AlertTime",
          "elementDurability": 100.0,
          "onAdded": [
            {
              "$type": "FireEffect",
              "rotationDampTime": "Eff_SceneObj_MaranaNexus_Alert_02",
              "PPPDJGDDOGD": 1.0,
              "AJDILHJFNKE": -1.0
            }
          ],
          "onRemoved": [
            {
              "$type": "FireEffect",
              "rotationDampTime": "Eff_SceneObj_MaranaNexus_Skill_02",
              "PPPDJGDDOGD": 1.0,
              "AJDILHJFNKE": -1.0
            },
            {
              "$type": "TriggerAttackEvent",
              "attackEvent": {
                "attackPattern": {
                  "$type": "ConfigAttackSphere",
                  "triggerType": "TriggerNoRepeat",
                  "born": {
                    "$type": "ConfigBornBySelf"
                  },
                  "radius": 2.5
                },
                "attackInfo": {
                  "attackTag": "",
                  "attenuationTag": "",
                  "attenuationGroup": "default",
                  "attackProperty": {
                    "actorGrassSubHurtDelta": 0.0,
                    "actorWindSubHurtDelta": 0.0,
                    "elementDurability": 100.0,
                    "ignoreAttackerProperty": true,
                    "strikeType": "Default",
                    "attackType": "Range",
                    "HMBONGBFIAP": ["ElementLevelCo", "DamageRatio", "MUL"],
                    "trueDamage": true,
                    "GLKMCMDJBIK": 0.0
                  },
                  "hitPattern": {
                    "onHitEffectName": "default",
                    "hitImpulseY": "",
                    "hitImpulseType": "LV4"
                  }
                }
              },
              "targetType": "Enemy",
              "entityTypes": ["Avatar"]
            }
          ]
        },
        "HitWatcher": {
          "modifierName": "",
          "elementDurability": 100.0,
          "onAttackLanded": [
            {
              "$type": "Predicated",
              "target": "Other",
              "targetPredicates": [
                {
                  "$type": "ByEntityTypes",
                  "entityTypes": ["Avatar"]
                }
              ],
              "successActions": [
                {
                  "$type": "ApplyModifier",
                  "target": "Other",
                  "modifierName": "DeathZone_ExtraDamage"
                }
              ]
            }
          ]
        },
        "DeathZone_ExtraDamage": {
          "modifierName": "",
          "duration": 0.10000000149011612,
          "elementDurability": 100.0,
          "onAdded": [
            {
              "$type": "SetGlobalValue",
              "target": "Team",
              "value": 1.0,
              "key": "DeathZoneGV_ExtraAttack",
              "maxValue": 0.0,
              "minValue": 0.0
            }
          ]
        }
      },
      "onAdded": [
        {
          "$type": "GDHGMAPPGHD",
          "shieldHP": true,
          "key": "ElementLevelCo",
          "damageRatio": "ElementLevelCo"
        },
        {
          "$type": "ApplyModifier",
          "modifierName": "HitWatcher"
        },
        {
          "$type": "ApplyModifier",
          "modifierName": "Alert"
        }
      ]
    }
  },
  {
    "Default": {
      "$type": "ConfigAbility",
      "abilityName": "SceneObj_Area_Xm_Property_Ani_Prop_DeathZonePointCry_03_Ability",
      "abilitySpecials": {
        "ElementLevelCo": 1.0,
        "DamageRatio": 3.0
      },
      "modifiers": {
        "BulletEffect": {
          "modifierName": "",
          "elementDurability": 100.0,
          "onAdded": [
            {
              "$type": "AttachEffect",
              "rotationDampTime": "Eff_SceneObj_MaranaNexus_Skill_03_Bullet",
              "PPPDJGDDOGD": 1.0,
              "AJDILHJFNKE": -1.0
            }
          ]
        },
        "HitWatcher": {
          "modifierName": "",
          "elementDurability": 100.0,
          "onAttackLanded": [
            {
              "$type": "Predicated",
              "target": "Other",
              "targetPredicates": [
                {
                  "$type": "ByEntityTypes",
                  "entityTypes": ["Avatar"]
                }
              ],
              "successActions": [
                {
                  "$type": "ApplyModifier",
                  "target": "Other",
                  "modifierName": "DeathZone_ExtraDamage"
                }
              ]
            }
          ]
        },
        "DeathZone_ExtraDamage": {
          "modifierName": "",
          "duration": 0.10000000149011612,
          "elementDurability": 100.0,
          "onAdded": [
            {
              "$type": "SetGlobalValue",
              "target": "Team",
              "value": 1.0,
              "key": "DeathZoneGV_ExtraAttack",
              "maxValue": 0.0,
              "minValue": 0.0
            }
          ]
        }
      },
      "onAdded": [
        {
          "$type": "AttachModifier",
          "modifierName": "BulletEffect"
        },
        {
          "$type": "ApplyModifier",
          "modifierName": "HitWatcher"
        },
        {
          "$type": "GDHGMAPPGHD",
          "shieldHP": true,
          "key": "ElementLevelCo",
          "damageRatio": "ElementLevelCo"
        }
      ],
      "onAbilityStart": [
        {
          "$type": "TriggerAttackEvent",
          "attackEvent": {
            "attackPattern": {
              "$type": "ConfigAttackSphere",
              "triggerType": "TriggerNoRepeat",
              "born": {
                "$type": "ConfigBornByCollisionPoint"
              },
              "radius": 1.0
            },
            "attackInfo": {
              "attackTag": "",
              "attenuationTag": "",
              "attenuationGroup": "default",
              "attackProperty": {
                "actorWindSubHurtDelta": 0.0,
                "elementDurability": 100.0,
                "ignoreAttackerProperty": true,
                "strikeType": "Pierce",
                "enBreak": 25.0,
                "attackType": "Melee",
                "HMBONGBFIAP": ["ElementLevelCo", "DamageRatio", "MUL"],
                "trueDamage": true,
                "GLKMCMDJBIK": 0.0
              },
              "hitPattern": {
                "onHitEffectName": "default",
                "hitImpulseY": "",
                "hitImpulseType": "LV3"
              }
            }
          },
          "targetType": "Enemy"
        },
        {
          "$type": "KillSelf"
        }
      ]
    }
  },
  {
    "Default": {
      "$type": "ConfigAbility",
      "abilityName": "SceneObj_Area_Xm_Property_Ani_Prop_MaranaPus_01_Ability",
      "abilityMixins": [
        {
          "$type": "APPKPNCENAH",
          "gadgetStates": [0, 201],
          "modifierNames": [["DestoryBySeed"], ["NotDestoryBySeed"]]
        }
      ],
      "modifiers": {
        "DestoryBySeed": {
          "modifierName": "",
          "elementDurability": 100.0,
          "onAdded": [
            {
              "$type": "SetGlobalValue",
              "value": 1.0,
              "key": "CanDestoryBySeed",
              "maxValue": 0.0,
              "minValue": 0.0
            },
            {
              "$type": "AttachEffect",
              "rotationDampTime": "Eff_SceneObj_TowerTrap_01",
              "PPPDJGDDOGD": 1.0,
              "AJDILHJFNKE": -1.0
            }
          ]
        },
        "NotDestoryBySeed": {
          "modifierName": "",
          "elementDurability": 100.0,
          "onAdded": [
            {
              "$type": "SetGlobalValue",
              "value": 0.0,
              "key": "CanDestoryBySeed",
              "maxValue": 0.0,
              "minValue": 0.0
            }
          ]
        }
      }
    }
  },
  {
    "Default": {
      "$type": "ConfigAbility",
      "abilityName": "SceneObj_Area_Xm_Property_Ani_Prop_MaranaMissle_01_Ability",
      "abilityMixins": [
        {
          "$type": "FieldEntityCountChangeMixin",
          "campTargetType": "All",
          "targetPredicates": [
            {
              "$type": "ByEntityTypes",
              "entityTypes": ["Avatar"]
            }
          ],
          "simpleCountGlobaValueKey": "MaranaMissle_OnFiled",
          "simpleCountUseLimitRange": true,
          "simpleCountMaxValue": 4.0,
          "simpleCountMinValue": 0.0
        },
        {
          "$type": "AttachModifierToSelfGlobalValueMixin",
          "globalValueKey": "_MaranaMissle_CD",
          "gvInTalk": 0.0,
          "valueSteps": [-0.5, 0.800000011920929, 1.5],
          "modifierNameSteps": ["ShootingCD", "IntervalShooting"]
        },
        {
          "$type": "AttachModifierToSelfGlobalValueNoInitMixin",
          "globalValueKey": "SelfDestory",
          "valueSteps": [0.5, 1.5],
          "modifierNameSteps": ["DeathCall"]
        }
      ],
      "abilitySpecials": {
        "SkillCD": 5.0,
        "FireRate": 0.5
      },
      "modifiers": {
        "ShootingCD": {
          "modifierName": "",
          "elementDurability": 100.0,
          "thinkInterval": ["SkillCD", 2.0, "DIV"],
          "onThinkInterval": [
            {
              "$type": "AddGlobalValue",
              "value": 0.5,
              "key": "_MaranaMissle_CD",
              "maxValue": 0.0,
              "minValue": 0.0
            }
          ]
        },
        "ShowBall": {
          "modifierName": "",
          "elementDurability": 100.0,
          "onAdded": [
            {
              "$type": "AttachEffect",
              "rotationDampTime": "Eff_SceneObj_MaranaMissle_Idle",
              "PPPDJGDDOGD": 1.0,
              "AJDILHJFNKE": -1.0
            }
          ]
        },
        "IntervalShooting": {
          "modifierName": "",
          "elementDurability": 100.0,
          "modifierMixins": [
            {
              "$type": "JCINFLKHMKH",
              "thinkInterval": "FireRate",
              "onThinkInterval": [
                {
                  "$type": "TriggerAbility",
                  "abilityName": "SceneObj_Area_Xm_Property_Ani_Prop_MaranaMissle_01_Ability"
                }
              ]
            }
          ],
          "onAdded": [
            {
              "$type": "TriggerAbility",
              "abilityName": "SceneObj_Area_Xm_Property_Ani_Prop_MaranaMissle_01_Ability"
            }
          ]
        },
        "DeathCall": {
          "modifierName": "",
          "elementDurability": 100.0,
          "onAdded": [
            {
              "$type": "KillSelf"
            },
            {
              "$type": "RemoveModifier",
              "modifierName": "ShowBall"
            },
            {
              "$type": "ANNOBMCGOEC",
              "canBeHandledOnRecover": true,
              "matName": "Mat",
              "EKHLCLJELIP": "_DissolveValue",
              "value": 1.0,
              "useCurve": true,
              "lerpTime": 2.0
            }
          ]
        }
      },
      "onAdded": [
        {
          "$type": "SetGlobalValue",
          "value": 0.0,
          "key": "_MaranaMissle_CD",
          "maxValue": 0.0,
          "minValue": 0.0
        },
        {
          "$type": "AttachModifier",
          "modifierName": "ShowBall"
        }
      ],
      "onAbilityStart": [
        {
          "$type": "Predicated",
          "targetPredicates": [
            {
              "$type": "ByTargetGlobalValue",
              "key": "_MaranaMissle_CD",
              "value": 1.0
            },
            {
              "$type": "ByTargetGlobalValue",
              "key": "MaranaMissle_OnFiled",
              "value": 1.0,
              "compareType": "MoreThanAndEqual"
            }
          ],
          "successActions": [
            {
              "$type": "SetSelfAttackTarget",
              "otherTargets": {
                "$type": "SelectTargetsByLCTrigger",
                "topLimit": 1,
                "sortType": "Random",
                "campTargetType": "Enemy"
              },
              "predicates": [
                {
                  "$type": "ByEntityTypes",
                  "entityTypes": ["Avatar"]
                }
              ]
            },
            {
              "$type": "TriggerBullet",
              "predicates": [
                {
                  "$type": "ByHasAttackTarget"
                }
              ],
              "bulletID": 70310221,
              "born": {
                "$type": "ConfigBornByAttachPoint",
                "offset": {
                  "x": 0.0,
                  "y": 0.0,
                  "z": 0.0
                },
                "attachPointName": "EffectPoint"
              }
            },
            {
              "$type": "CLKGEHMNIEF",
              "transformNames": ["core"]
            },
            {
              "$type": "SetGlobalValue",
              "predicates": [
                {
                  "$type": "ByHasAttackTarget"
                }
              ],
              "value": 0.0,
              "key": "_MaranaMissle_CD",
              "maxValue": 0.0,
              "minValue": 0.0
            }
          ]
        }
      ]
    }
  },
  {
    "Default": {
      "$type": "ConfigAbility",
      "abilityName": "SceneObj_Area_Xm_Property_Ani_Prop_MaranaMissle_01_Bullet_Ability",
      "abilitySpecials": {
        "ElementLevelCo": 1.0,
        "DamageRatio": 1.5
      },
      "modifiers": {
        "MaranaMissle_BulletEffect": {
          "modifierName": "",
          "elementDurability": 100.0,
          "onAdded": [
            {
              "$type": "AttachEffect",
              "rotationDampTime": "Eff_SceneObj_MaranaMissle_Bullet",
              "PPPDJGDDOGD": 1.0,
              "AJDILHJFNKE": -1.0
            }
          ]
        },
        "HitWatcher": {
          "modifierName": "",
          "elementDurability": 100.0,
          "onAttackLanded": [
            {
              "$type": "Predicated",
              "target": "Other",
              "targetPredicates": [
                {
                  "$type": "ByEntityTypes",
                  "entityTypes": ["Avatar"]
                }
              ],
              "successActions": [
                {
                  "$type": "ApplyModifier",
                  "target": "Other",
                  "modifierName": "DeathZone_ExtraDamage"
                }
              ]
            }
          ]
        },
        "DeathZone_ExtraDamage": {
          "modifierName": "",
          "duration": 0.10000000149011612,
          "elementDurability": 100.0,
          "onAdded": [
            {
              "$type": "SetGlobalValue",
              "target": "Team",
              "value": 1.0,
              "key": "DeathZoneGV_ExtraAttack",
              "maxValue": 0.0,
              "minValue": 0.0
            }
          ]
        }
      },
      "onAdded": [
        {
          "$type": "GDHGMAPPGHD",
          "shieldHP": true,
          "key": "ElementLevelCo",
          "damageRatio": "ElementLevelCo"
        },
        {
          "$type": "ApplyModifier",
          "modifierName": "HitWatcher"
        },
        {
          "$type": "ApplyModifier",
          "modifierName": "MaranaMissle_BulletEffect"
        }
      ],
      "onAbilityStart": [
        {
          "$type": "FireHitEffect",
          "hitEntity": "",
          "hitScene": {
            "defaultEffect": "Eff_SceneObj_MaranaNexus_Skill_Hit"
          }
        },
        {
          "$type": "TriggerAttackEvent",
          "attackEvent": {
            "attackPattern": {
              "$type": "ConfigAttackSphere",
              "triggerType": "TriggerNoRepeat",
              "born": {
                "$type": "ConfigBornByCollisionPoint"
              },
              "radius": 0.5
            },
            "attackInfo": {
              "attackTag": "",
              "attenuationTag": "",
              "attenuationGroup": "default",
              "attackProperty": {
                "actorWindSubHurtDelta": 0.0,
                "elementDurability": 100.0,
                "ignoreAttackerProperty": true,
                "strikeType": "Pierce",
                "enBreak": 50.0,
                "attackType": "Range",
                "HMBONGBFIAP": ["ElementLevelCo", "DamageRatio", "MUL"],
                "trueDamage": true,
                "GLKMCMDJBIK": 0.0
              },
              "hitPattern": {
                "onHitEffectName": "default",
                "hitImpulseY": "",
                "hitImpulseType": "LV4"
              }
            }
          },
          "targetType": "Enemy",
          "entityTypes": ["Avatar"]
        },
        {
          "$type": "RemoveModifier",
          "modifierName": "MaranaMissle_BulletEffect"
        },
        {
          "$type": "KillSelf"
        }
      ]
    }
  },
  {
    "Default": {
      "$type": "ConfigAbility",
      "abilityName": "SceneObj_Area_Xm_Property_Ani_Prop_LifePuddle_01_Ability",
      "abilityMixins": [
        {
          "$type": "AttachToGadgetStateMixin",
          "modifierName": "EmptyState"
        },
        {
          "$type": "AttachToGadgetStateMixin",
          "gadgetState": 201,
          "modifierName": "ActiveState"
        },
        {
          "$type": "AttachToGadgetStateMixin",
          "gadgetState": 202,
          "modifierName": "InactiveState"
        }
      ],
      "modifiers": {
        "EmptyState": {
          "modifierName": "",
          "elementDurability": 100.0,
          "onAdded": [
            {
              "$type": "HPIDNBEGJLL",
              "state": 201
            }
          ]
        },
        "ActiveState": {
          "modifierName": "",
          "elementDurability": 100.0,
          "onAdded": [
            {
              "$type": "AttachEffect",
              "rotationDampTime": "Eff_SceneObj_LifePuddle_03_Idle",
              "born": {
                "$type": "ConfigBornByAttachPoint",
                "attachPointName": "AttachPoint"
              },
              "PPPDJGDDOGD": 1.0,
              "AJDILHJFNKE": -1.0
            },
            {
              "$type": "AOOCGNCCAJB",
              "isAdd": true,
              "tag": "IS_Life_Point_Instant"
            },
            {
              "$type": "ANNOBMCGOEC",
              "matName": "dissolveMat",
              "EKHLCLJELIP": "_DissolveVal",
              "value": 0.30000001192092896
            }
          ],
          "onRemoved": [
            {
              "$type": "AOOCGNCCAJB",
              "tag": "IS_Life_Point_Instant"
            }
          ]
        },
        "InactiveState": {
          "modifierName": "",
          "elementDurability": 100.0,
          "onAdded": [
            {
              "$type": "ANNOBMCGOEC",
              "matName": "dissolveMat",
              "EKHLCLJELIP": "_DissolveVal",
              "value": 1.149999976158142,
              "useCurve": true,
              "lerpCurveIndex": 1,
              "lerpTime": 2.5
            },
            {
              "$type": "FireEffect",
              "rotationDampTime": "Eff_SceneObj_LifePuddle_03_Disappear",
              "born": {
                "$type": "ConfigBornByAttachPoint",
                "attachPointName": "AttachPoint"
              },
              "PPPDJGDDOGD": 1.0,
              "AJDILHJFNKE": -1.0
            }
          ]
        },
        "UNIQUE_LifePointBuff_Instant": {
          "modifierName": "",
          "forceTriggerWhenChangeAuthority": true,
          "duration": 1.0,
          "elementDurability": 100.0,
          "onAdded": [
            {
              "$type": "SetGlobalValue",
              "target": "Team",
              "value": 1.0,
              "key": "DeathZoneGV_ExtraHeal",
              "maxValue": 0.0,
              "minValue": 0.0
            }
          ]
        }
      },
      "onFieldEnter": [
        {
          "$type": "Predicated",
          "target": "Target",
          "predicates": [
            {
              "$type": "HNLCJOPBDLC",
              "target": "Self",
              "gadgetState": 201
            }
          ],
          "successActions": [
            {
              "$type": "HPIDNBEGJLL",
              "state": 202
            },
            {
              "$type": "ApplyModifier",
              "target": "Target",
              "predicates": [
                {
                  "$type": "ByEntityTypes",
                  "entityTypes": ["Avatar"]
                }
              ],
              "modifierName": "UNIQUE_LifePointBuff_Instant"
            }
          ]
        }
      ]
    }
  },
  {
    "Default": {
      "$type": "ConfigAbility",
      "abilityName": "SceneObj_Area_Xm_Property_Prop_LifeFountainHideHide_01_Ability",
      "onAdded": [
        {
          "$type": "AOOCGNCCAJB",
          "isAdd": true,
          "tag": "IS_Life_Point"
        }
      ]
    }
  },
  {
    "Default": {
      "$type": "ConfigAbility",
      "abilityName": "SceneObj_Area_Xm_Property_Ani_Prop_LifeFountain_01_Ability",
      "abilityMixins": [
        {
          "$type": "AttachToStateIDMixin",
          "stateIDs": ["IdleEffect"],
          "modifierName": "Effect",
          "isCheckOnAttach": true,
          "DGFCLAIDIFI": ""
        },
        {
          "$type": "AttachToStateIDMixin",
          "stateIDs": ["Warm", "IdleEffect"],
          "modifierName": "Active",
          "isCheckOnAttach": true,
          "DGFCLAIDIFI": ""
        },
        {
          "$type": "AttachToStateIDMixin",
          "stateIDs": ["Lock"],
          "modifierName": "LockEffect",
          "isCheckOnAttach": true,
          "DGFCLAIDIFI": ""
        },
        {
          "$type": "APPKPNCENAH",
          "gadgetStates": [0, 201, 202],
          "modifierNames": [["Intee_On"], ["Intee_Off"], ["Intee_Off"]]
        },
        {
          "$type": "LNEJGOMCBMO",
          "succActions": [
            {
              "$type": "HPIDNBEGJLL",
              "predicates": [
                {
                  "$type": "HNLCJOPBDLC",
                  "target": "Self"
                }
              ],
              "state": 201
            }
          ]
        }
      ],
      "modifiers": {
        "Intee_On": {
          "modifierName": "",
          "elementDurability": 100.0,
          "onAdded": [
            {
              "$type": "JPAAAOLNENF",
              "enable": true
            }
          ]
        },
        "Intee_Off": {
          "modifierName": "",
          "elementDurability": 100.0,
          "onAdded": [
            {
              "$type": "JPAAAOLNENF"
            }
          ]
        },
        "Active": {
          "modifierName": "",
          "elementDurability": 100.0,
          "onAdded": [
            {
              "$type": "AttachEffect",
              "rotationDampTime": "Eff_SceneObj_LifePuddle_Active",
              "PPPDJGDDOGD": 1.0,
              "AJDILHJFNKE": -1.0
            },
            {
              "$type": "AOOCGNCCAJB",
              "isAdd": true,
              "tag": "IS_Life_Point"
            }
          ],
          "onRemoved": [
            {
              "$type": "AOOCGNCCAJB",
              "tag": "IS_Life_Point"
            }
          ]
        },
        "Effect": {
          "modifierName": "",
          "elementDurability": 100.0
        },
        "LockEffect": {
          "modifierName": "",
          "elementDurability": 100.0,
          "onAdded": [
            {
              "$type": "AttachEffect",
              "rotationDampTime": "Eff_Item_SpecialTreasureBox_LockIdle_Little",
              "born": {
                "$type": "ConfigBornByAttachPoint",
                "attachPointName": "AttachPoint"
              },
              "PPPDJGDDOGD": 1.0,
              "AJDILHJFNKE": -1.0
            }
          ],
          "onRemoved": [
            {
              "$type": "FireEffect",
              "rotationDampTime": "Eff_Item_SpecialTreasureBox_Unlock_Little",
              "born": {
                "$type": "ConfigBornByAttachPoint",
                "attachPointName": "AttachPoint"
              },
              "PPPDJGDDOGD": 1.0,
              "AJDILHJFNKE": -1.0
            }
          ]
        }
      }
    }
  },
  {
    "Default": {
      "$type": "ConfigAbility",
      "abilityName": "SceneObj_Area_Xm_Property_Prop_MaranaLink_01_Ability",
      "abilityMixins": [
        {
          "$type": "AttachModifierToSelfGlobalValueNoInitMixin",
          "globalValueKey": "SGV_DeathZoneState",
          "valueSteps": [-0.5, 0.5],
          "modifierNameSteps": ["ExitDeathZone"]
        }
      ],
      "modifiers": {
        "ExitDeathZone": {
          "modifierName": "",
          "duration": 3.0,
          "elementDurability": 100.0,
          "modifierMixins": [
            {
              "$type": "FCNAIDCMKFO",
              "disactiveHaloTrigger": [
                {
                  "$type": "KillSelf"
                }
              ]
            }
          ],
          "onRemoved": [
            {
              "$type": "KillSelf"
            }
          ]
        }
      }
    }
  },
  {
    "Default": {
      "$type": "ConfigAbility",
      "abilityName": "SceneObj_Area_Xm_Property_Light_DeathzoneLight_01_Ability",
      "abilityMixins": [
        {
          "$type": "AttachModifierToSelfGlobalValueNoInitMixin",
          "globalValueKey": "SGV_DeathZoneState",
          "valueSteps": [-0.5, 0.5],
          "modifierNameSteps": ["ExitDeathZone"]
        }
      ],
      "modifiers": {
        "ExitDeathZone": {
          "modifierName": "",
          "duration": 2.0,
          "elementDurability": 100.0,
          "modifierMixins": [
            {
              "$type": "FCNAIDCMKFO",
              "disactiveHaloTrigger": [
                {
                  "$type": "SendEffectTrigger",
                  "parameter": "Disappear",
                  "attachPoint": "",
                  "rotationDampTime": "Eff_ScenObj_DeathzoneLight_01"
                }
              ]
            }
          ],
          "onRemoved": [
            {
              "$type": "KillSelf"
            }
          ]
        }
      }
    }
  },
  {
    "Default": {
      "$type": "ConfigAbility",
      "abilityName": "SceneObj_Area_Xm_Property_Light_DeathzoneLight_02_Ability",
      "abilityMixins": [
        {
          "$type": "AttachToGadgetStateMixin",
          "gadgetState": 201,
          "modifierName": "Disappear"
        },
        {
          "$type": "AttachModifierToSelfGlobalValueNoInitMixin",
          "globalValueKey": "SGV_DeathZoneState",
          "valueSteps": [-0.5, 0.5],
          "modifierNameSteps": ["ExitDeathZone"]
        }
      ],
      "modifiers": {
        "Disappear": {
          "modifierName": "",
          "duration": 2.0,
          "elementDurability": 100.0,
          "onAdded": [
            {
              "$type": "SendEffectTrigger",
              "parameter": "Disappear",
              "attachPoint": "",
              "rotationDampTime": "Eff_ScenObj_DeathzoneLight_02"
            }
          ],
          "onRemoved": [
            {
              "$type": "KillSelf"
            }
          ]
        },
        "ExitDeathZone": {
          "modifierName": "",
          "duration": 3.0,
          "elementDurability": 100.0,
          "modifierMixins": [
            {
              "$type": "FCNAIDCMKFO",
              "disactiveHaloTrigger": [
                {
                  "$type": "SendEffectTrigger",
                  "parameter": "Disappear",
                  "attachPoint": "",
                  "rotationDampTime": "Eff_ScenObj_DeathzoneLight_02"
                }
              ]
            }
          ],
          "onRemoved": [
            {
              "$type": "KillSelf"
            }
          ]
        }
      },
      "onAdded": [
        {
          "$type": "AOOCGNCCAJB",
          "isAdd": true,
          "tag": "DeathZonePoint"
        }
      ]
    }
  }
]
