[
  {
    "Default": {
      "$type": "ConfigAbility",
      "abilityName": "SceneObj_Area_Fd_Property_Ani_Prop_RemusFansPlant_01",
      "abilityMixins": [
        {
          "$type": "AttachToGadgetStateMixin",
          "gadgetState": 201,
          "modifierName": "SlowSuccess"
        },
        {
          "$type": "AttachToGadgetStateMixin",
          "gadgetState": 202,
          "modifierName": "QucikSuccess"
        },
        {
          "$type": "AttachModifierToSelfGlobalValueNoInitMixin",
          "globalValueKey": "Test_RemusFansPlantLight",
          "valueSteps": [0.5, 1.5],
          "modifierNameSteps": ["Light01"],
          "NMCLMHFBALJ": true
        },
        {
          "$type": "AttachModifierToSelfGlobalValueNoInitMixin",
          "globalValueKey": "SGV_MusicNote",
          "valueSteps": [0.5, 1.5, 2.5, 3.5, 4.5],
          "modifierNameSteps": ["Note01", "Note02", "Note03", "Note04"],
          "NMCLMHFBALJ": true
        },
        {
          "$type": "AttachModifierToSelfGlobalValueNoInitMixin",
          "globalValueKey": "SGV_RemusFansPlantLight",
          "valueSteps": [0.5, 1.5],
          "modifierNameSteps": ["Light01"],
          "NMCLMHFBALJ": true
        },
        {
          "$type": "AttachToStateIDMixin",
          "stateIDs": ["Turn", "TurnBack"],
          "modifierName": "IsTurning",
          "CODCDFCFLJF": 1,
          "DGFCLAIDIFI": ""
        }
      ],
      "modifiers": {
        "IsTurning": {
          "modifierName": "",
          "elementDurability": 100.0,
          "onAdded": [
            {
              "$type": "SetAnimatorFloat",
              "floatID": "Speed",
              "value": 0.0
            }
          ],
          "onRemoved": [
            {
              "$type": "SetAnimatorFloat",
              "floatID": "Speed",
              "value": 1.0
            }
          ]
        },
        "Light01": {
          "modifierName": "",
          "elementDurability": 100.0,
          "onAdded": [
            {
              "$type": "AttachEffect",
              "rotationDampTime": "Eff_Ani_Level_Fd46_RemusFansPlant_Light_01",
              "PPPDJGDDOGD": 1.0,
              "AJDILHJFNKE": -1.0,
              "isPlatformDependent": true
            }
          ]
        },
        "Success": {
          "modifierName": "",
          "elementDurability": 100.0,
          "onAdded": [
            {
              "$type": "AttachEffect",
              "rotationDampTime": "Eff_SceneObj_RemusFansPlant_01_Active",
              "PPPDJGDDOGD": 1.0,
              "AJDILHJFNKE": -1.0
            }
          ]
        },
        "SlowSuccess": {
          "modifierName": "",
          "elementDurability": 100.0,
          "onAdded": [
            {
              "$type": "AttachModifier",
              "modifierName": "Success"
            }
          ]
        },
        "QucikSuccess": {
          "modifierName": "",
          "elementDurability": 100.0,
          "onAdded": [
            {
              "$type": "AttachModifier",
              "modifierName": "Success"
            }
          ]
        },
        "Note01": {
          "modifierName": "",
          "elementDurability": 100.0,
          "onAdded": [
            {
              "$type": "AttachEffect",
              "rotationDampTime": "Eff_SceneObj_RemusFansPlant_01_Idle",
              "PPPDJGDDOGD": 1.0,
              "AJDILHJFNKE": -1.0
            },
            {
              "$type": "SendEffectTrigger",
              "parameter": "Base",
              "attachPoint": "",
              "damageRatio": "Int",
              "value": 1,
              "rotationDampTime": "Eff_SceneObj_RemusFansPlant_01_Idle"
            }
          ]
        },
        "Note02": {
          "modifierName": "",
          "elementDurability": 100.0,
          "onAdded": [
            {
              "$type": "AttachEffect",
              "rotationDampTime": "Eff_SceneObj_RemusFansPlant_01_Idle",
              "PPPDJGDDOGD": 1.0,
              "AJDILHJFNKE": -1.0
            },
            {
              "$type": "SendEffectTrigger",
              "parameter": "Base",
              "attachPoint": "",
              "damageRatio": "Int",
              "value": 2,
              "rotationDampTime": "Eff_SceneObj_RemusFansPlant_01_Idle"
            }
          ]
        },
        "Note03": {
          "modifierName": "",
          "elementDurability": 100.0,
          "onAdded": [
            {
              "$type": "AttachEffect",
              "rotationDampTime": "Eff_SceneObj_RemusFansPlant_01_Idle",
              "PPPDJGDDOGD": 1.0,
              "AJDILHJFNKE": -1.0
            },
            {
              "$type": "SendEffectTrigger",
              "parameter": "Base",
              "attachPoint": "",
              "damageRatio": "Int",
              "value": 3,
              "rotationDampTime": "Eff_SceneObj_RemusFansPlant_01_Idle"
            }
          ]
        },
        "Note04": {
          "modifierName": "",
          "elementDurability": 100.0,
          "onAdded": [
            {
              "$type": "AttachEffect",
              "rotationDampTime": "Eff_SceneObj_RemusFansPlant_01_Idle",
              "PPPDJGDDOGD": 1.0,
              "AJDILHJFNKE": -1.0
            },
            {
              "$type": "SendEffectTrigger",
              "parameter": "Base",
              "attachPoint": "",
              "damageRatio": "Int",
              "value": 4,
              "rotationDampTime": "Eff_SceneObj_RemusFansPlant_01_Idle"
            }
          ]
        }
      },
      "onAdded": [
        {
          "$type": "AOOCGNCCAJB",
          "isAdd": true,
          "tag": "IS_LMS_WHALE_SCAN_TARGET"
        }
      ]
    }
  },
  {
    "Default": {
      "$type": "ConfigAbility",
      "abilityName": "SceneObj_Area_Fd_Property_Ani_Prop_RemusFansPlant_02",
      "abilityMixins": [
        {
          "$type": "AttachToGadgetStateMixin",
          "modifierName": "Default_0"
        },
        {
          "$type": "AttachToGadgetStateMixin",
          "gadgetState": 201,
          "modifierName": "Connected"
        }
      ],
      "modifiers": {
        "Default_0": {
          "modifierName": "",
          "elementDurability": 100.0,
          "onAdded": [
            {
              "$type": "AttachEffect",
              "rotationDampTime": "Eff_SceneObj_RemusMicrophoneFlower_01_Line_02",
              "PPPDJGDDOGD": 1.0,
              "AJDILHJFNKE": 100.0
            }
          ]
        },
        "Connected": {
          "modifierName": "",
          "elementDurability": 100.0,
          "onAdded": [
            {
              "$type": "AttachEffect",
              "rotationDampTime": "Eff_SceneObj_RemusMicrophoneFlower_01_Line_02",
              "PPPDJGDDOGD": 1.0,
              "AJDILHJFNKE": 100.0
            },
            {
              "$type": "AttachEffect",
              "rotationDampTime": "Eff_SceneObj_RemusMicrophoneFlower_01_Line_04",
              "PPPDJGDDOGD": 1.0,
              "AJDILHJFNKE": 100.0
            }
          ]
        }
      }
    }
  },
  {
    "Default": {
      "$type": "ConfigAbility",
      "abilityName": "SceneObj_Area_Fd_Property_Ani_Prop_RemusFansPlant_03",
      "abilityMixins": [
        {
          "$type": "AttachToGadgetStateMixin",
          "modifierName": "Default_0"
        },
        {
          "$type": "AttachToGadgetStateMixin",
          "gadgetState": 201,
          "modifierName": "Connected"
        }
      ],
      "modifiers": {
        "Default_0": {
          "modifierName": "",
          "elementDurability": 100.0,
          "onAdded": [
            {
              "$type": "AttachEffect",
              "rotationDampTime": "Eff_SceneObj_RemusMicrophoneFlower_01_Line_05",
              "PPPDJGDDOGD": 1.0,
              "AJDILHJFNKE": 100.0
            }
          ]
        },
        "Connected": {
          "modifierName": "",
          "elementDurability": 100.0,
          "onAdded": [
            {
              "$type": "AttachEffect",
              "rotationDampTime": "Eff_SceneObj_RemusMicrophoneFlower_01_Line_05",
              "PPPDJGDDOGD": 1.0,
              "AJDILHJFNKE": 100.0
            },
            {
              "$type": "AttachEffect",
              "rotationDampTime": "Eff_SceneObj_RemusMicrophoneFlower_01_Line_06",
              "PPPDJGDDOGD": 1.0,
              "AJDILHJFNKE": 100.0
            }
          ]
        }
      }
    }
  },
  {
    "Default": {
      "$type": "ConfigAbility",
      "abilityName": "SceneObj_Area_Fd_Property_Ani_Prop_RemusMicrophoneFlower_01",
      "abilityMixins": [
        {
          "$type": "AttachToGadgetStateMixin",
          "modifierName": "AbleState"
        },
        {
          "$type": "AttachToGadgetStateMixin",
          "modifierName": "Rotate_Controler"
        },
        {
          "$type": "AttachToGadgetStateMixin",
          "gadgetState": 202,
          "modifierName": "CompleteState"
        },
        {
          "$type": "AttachToGadgetStateMixin",
          "gadgetState": 202,
          "modifierName": "Rotate_ControlerFix"
        },
        {
          "$type": "AttachModifierToSelfGlobalValueNoInitMixin",
          "globalValueKey": "HaveTarget",
          "valueSteps": [-0.5, 0.5, 1.5],
          "modifierNameSteps": ["Empty", "Flower_GuideLine"],
          "NMCLMHFBALJ": true
        }
      ],
      "HKFPCGFFKMJ": ["SGV_AutoAlignAngle", "GV_RotateControl"],
      "modifiers": {
        "AbleState": {
          "modifierName": "",
          "elementDurability": 100.0,
          "modifierMixins": [
            {
              "$type": "AttachModifierToSelfGlobalValueNoInitMixin",
              "globalValueKey": "InternalState_4_6",
              "valueSteps": [-0.5, 1.5, 2.5, 3.5],
              "modifierNameSteps": [
                "Empty",
                "RemusMicrophoneFlower_Standby",
                "RemusMicrophoneFlower_Move"
              ],
              "NMCLMHFBALJ": true
            }
          ],
          "onAdded": [
            {
              "$type": "FNPMFLOOCDD",
              "value": 1.0,
              "key": "GV_MUSICMECH_ACTIVE",
              "maxValue": 0.0,
              "minValue": 0.0
            },
            {
              "$type": "AttachEffect",
              "rotationDampTime": "Eff_SceneObj_RemusMicrophoneFlower_01_Idle",
              "PPPDJGDDOGD": 1.0,
              "AJDILHJFNKE": 101.0
            }
          ]
        },
        "RemusMicrophoneFlower_Standby": {
          "modifierName": "",
          "elementDurability": 100.0,
          "onAdded": [
            {
              "$type": "ApplyModifier",
              "modifierName": "RemusMicrophoneFlower_CaculateRotation"
            }
          ]
        },
        "RemusMicrophoneFlower_CaculateRotation": {
          "modifierName": "",
          "duration": 0.20000000298023224,
          "elementDurability": 100.0,
          "onRemoved": [
            {
              "$type": "FNPMFLOOCDD",
              "value": 0.0,
              "key": "TempHaveTarget",
              "maxValue": 0.0,
              "minValue": 0.0
            },
            {
              "$type": "Predicated",
              "otherTargets": {
                "$type": "FHBCCNMKPHK",
                "compareType": "GreaterOrEqual"
              },
              "predicates": [
                {
                  "$type": "ByTargetGlobalValue",
                  "target": "Self",
                  "key": "InternalState_4_6",
                  "value": 2.0
                },
                {
                  "$type": "NDOONLLEPBJ",
                  "logic": "LesserOrEqual",
                  "value": 20.0,
                  "namedTransform": "RoundAxis"
                },
                {
                  "$type": "JHAJOBAACDP",
                  "tag": "MicrophoneFlowerItem"
                }
              ],
              "successActions": [
                {
                  "$type": "MCOBFPMHMHJ",
                  "target": "Other",
                  "luaCallType": "FromGroup",
                  "sourceName": "ConnectTarget",
                  "paramNum": 1,
                  "param1": 1.0,
                  "MGAMDEHMCOL": 0.0,
                  "MMHOHAOGPLP": 0.0
                },
                {
                  "$type": "FNPMFLOOCDD",
                  "value": 1.0,
                  "key": "HaveTarget",
                  "maxValue": 0.0,
                  "minValue": 0.0
                },
                {
                  "$type": "FNPMFLOOCDD",
                  "value": 1.0,
                  "key": "TempHaveTarget",
                  "maxValue": 0.0,
                  "minValue": 0.0
                }
              ]
            },
            {
              "$type": "Predicated",
              "targetPredicates": [
                {
                  "$type": "ByTargetGlobalValue",
                  "target": "Self",
                  "key": "TempHaveTarget",
                  "value": 0.5,
                  "compareType": "LessAndEqual"
                }
              ],
              "successActions": [
                {
                  "$type": "FNPMFLOOCDD",
                  "value": 0.0,
                  "key": "HaveTarget",
                  "maxValue": 0.0,
                  "minValue": 0.0
                },
                {
                  "$type": "MCOBFPMHMHJ",
                  "luaCallType": "FromGroup",
                  "sourceName": "ConnectTarget",
                  "paramNum": 1,
                  "param1": 0.0,
                  "MGAMDEHMCOL": 0.0,
                  "MMHOHAOGPLP": 0.0
                }
              ]
            }
          ]
        },
        "RemusMicrophoneFlower_Move": {
          "stacking": "Unique",
          "modifierName": "",
          "elementDurability": 100.0,
          "thinkInterval": 0.20000000298023224,
          "onAdded": [
            {
              "$type": "FNPMFLOOCDD",
              "value": 0.0,
              "key": "HaveTarget",
              "maxValue": 0.0,
              "minValue": 0.0
            },
            {
              "$type": "MCOBFPMHMHJ",
              "luaCallType": "FromGroup",
              "sourceName": "FansPlant_MarkAction",
              "param1": 0.0,
              "MGAMDEHMCOL": 0.0,
              "MMHOHAOGPLP": 0.0
            }
          ],
          "onThinkInterval": [
            {
              "$type": "IIGGCBAOAAK",
              "value": 0.05000000074505806,
              "key": "GV_RotateControl",
              "maxValue": 0.0,
              "minValue": 0.0
            },
            {
              "$type": "IIGGCBAOAAK",
              "value": 0.05000000074505806,
              "key": "GV_RotateControl_02",
              "maxValue": 0.0,
              "minValue": 0.0
            },
            {
              "$type": "Predicated",
              "shieldHP": true,
              "targetPredicates": [
                {
                  "$type": "ByTargetGlobalValue",
                  "target": "Self",
                  "key": "GV_RotateControl_02",
                  "value": 1.0,
                  "compareType": "MoreThanAndEqual"
                }
              ],
              "successActions": [
                {
                  "$type": "IIGGCBAOAAK",
                  "value": -1.0,
                  "key": "GV_RotateControl_02",
                  "maxValue": 0.0,
                  "minValue": 0.0
                }
              ]
            }
          ]
        },
        "Rotate_Controler": {
          "stacking": "Unique",
          "modifierName": "",
          "elementDurability": 100.0,
          "modifierMixins": [
            {
              "$type": "LHOLBDMAKGC",
              "MBIGJGBJDPF": "GV_RotateControl",
              "isNormalized": false,
              "normalizedRange": [-99999.0, 99999.0],
              "ELEMCOGCPEL": "RoundAxis",
              "BHLBKKHBNAA": 1,
              "sgvIDKey": "",
              "MLOLBLAMLIO": 0.20000000298023224,
              "PMFFCMOPHII": true
            }
          ]
        },
        "Rotate_ControlerFix": {
          "stacking": "Unique",
          "modifierName": "",
          "elementDurability": 100.0,
          "modifierMixins": [
            {
              "$type": "LHOLBDMAKGC",
              "MBIGJGBJDPF": "GV_RotateControl_02",
              "isNormalized": false,
              "normalizedRange": [-99999.0, 99999.0],
              "ELEMCOGCPEL": "RoundAxis",
              "BHLBKKHBNAA": 1,
              "sgvIDKey": "",
              "MLOLBLAMLIO": 0.20000000298023224,
              "PMFFCMOPHII": true
            }
          ],
          "onAdded": [
            {
              "$type": "FNPMFLOOCDD",
              "value": 0.0,
              "key": "GV_MUSICMECH_ACTIVE",
              "maxValue": 0.0,
              "minValue": 0.0
            },
            {
              "$type": "AttachEffect",
              "rotationDampTime": "Eff_SceneObj_RemusMicrophoneFlower_01_Active",
              "PPPDJGDDOGD": 1.0,
              "AJDILHJFNKE": 101.0
            },
            {
              "$type": "AttachEffect",
              "rotationDampTime": "Eff_SceneObj_RemusMicrophoneFlower_02_Active",
              "PPPDJGDDOGD": 1.0,
              "AJDILHJFNKE": 101.0
            },
            {
              "$type": "FNPMFLOOCDD",
              "value": 1.0,
              "key": "HaveTarget",
              "maxValue": 0.0,
              "minValue": 0.0
            }
          ]
        },
        "Flower_GuideLine": {
          "modifierName": "",
          "elementDurability": 100.0,
          "onAdded": [
            {
              "$type": "AttachEffect",
              "rotationDampTime": "Eff_SceneObj_RemusMicrophoneFlower_01_Line",
              "PPPDJGDDOGD": 1.0,
              "AJDILHJFNKE": 101.0
            },
            {
              "$type": "AttachEffect",
              "rotationDampTime": "Eff_SceneObj_RemusMicrophoneFlower_01_Line_03",
              "PPPDJGDDOGD": 1.0,
              "AJDILHJFNKE": 101.0
            }
          ]
        },
        "CompleteState": {
          "modifierName": "",
          "duration": 0.10000000149011612,
          "elementDurability": 100.0,
          "onAdded": [
            {
              "$type": "FNPMFLOOCDD",
              "value": "SGV_AutoAlignAngle",
              "key": "GV_RotateControl_02",
              "maxValue": 0.0,
              "minValue": 0.0
            }
          ]
        },
        "Empty": {
          "modifierName": "",
          "elementDurability": 100.0
        }
      }
    }
  },
  {
    "Default": {
      "$type": "ConfigAbility",
      "abilityName": "SceneObj_Area_Fd_Property_Ani_Prop_RemusMicrophoneFlower_02",
      "abilityMixins": [
        {
          "$type": "AttachToGadgetStateMixin",
          "modifierName": "AbleState"
        },
        {
          "$type": "AttachToGadgetStateMixin",
          "gadgetState": 202,
          "modifierName": "CompleteState"
        }
      ],
      "modifiers": {
        "AbleState": {
          "modifierName": "",
          "elementDurability": 100.0,
          "onAdded": [
            {
              "$type": "AttachEffect",
              "rotationDampTime": "Eff_SceneObj_RemusMicrophoneFlower_01_Idle",
              "PPPDJGDDOGD": 1.0,
              "AJDILHJFNKE": 100.0
            }
          ]
        },
        "CompleteState": {
          "modifierName": "",
          "elementDurability": 100.0,
          "onAdded": [
            {
              "$type": "AttachEffect",
              "rotationDampTime": "Eff_SceneObj_RemusMicrophoneFlower_01_Active",
              "PPPDJGDDOGD": 1.0,
              "AJDILHJFNKE": 100.0
            },
            {
              "$type": "AttachEffect",
              "rotationDampTime": "Eff_SceneObj_RemusMicrophoneFlower_02_Active",
              "PPPDJGDDOGD": 1.0,
              "AJDILHJFNKE": 100.0
            },
            {
              "$type": "AttachEffect",
              "rotationDampTime": "Eff_SceneObj_RemusMicrophoneFlower_01_Line",
              "PPPDJGDDOGD": 1.0,
              "AJDILHJFNKE": 100.0
            },
            {
              "$type": "AttachEffect",
              "rotationDampTime": "Eff_SceneObj_RemusMicrophoneFlower_01_Line_03",
              "PPPDJGDDOGD": 1.0,
              "AJDILHJFNKE": 100.0
            }
          ]
        }
      }
    }
  }
]
