[
  {
    "Default": {
      "$type": "ConfigAbility",
      "abilityName": "SceneObj_Environment_FireMaterial_ImmortalFire",
      "abilityMixins": [
        {
          "$type": "AttachToGadgetStateMixin",
          "gadgetState": 201,
          "modifierName": "Fire_On"
        },
        {
          "$type": "AttachToGadgetStateMixin",
          "gadgetState": 203,
          "modifierName": "Fire_Action01"
        }
      ],
      "modifiers": {
        "Fire_On": {
          "modifierName": "",
          "elementDurability": 100.0,
          "onAdded": [
            {
              "$type": "AttachEffect",
              "rotationDampTime": "Eff_SceneObj_ImmortalFire_01_Fire",
              "PPPDJGDDOGD": 1.0,
              "AJDILHJFNKE": -1.0
            }
          ]
        },
        "Fire_Action01": {
          "modifierName": "",
          "elementDurability": 100.0,
          "onAdded": [
            {
              "$type": "AttachEffect",
              "rotationDampTime": "Eff_SceneObj_ImmortalFire_01_Fire",
              "PPPDJGDDOGD": 1.0,
              "AJDILHJFNKE": -1.0
            }
          ]
        }
      }
    }
  },
  {
    "Default": {
      "$type": "ConfigAbility",
      "abilityName": "SceneObj_Area_Common_Property_Ani_Prop_ImmortalFireOnly_01",
      "abilityMixins": [
        {
          "$type": "AttachToGadgetStateMixin",
          "gadgetState": 201,
          "modifierName": "Fire_On"
        }
      ],
      "modifiers": {
        "Fire_On": {
          "modifierName": "",
          "elementDurability": 100.0,
          "onAdded": [
            {
              "$type": "AttachEffect",
              "rotationDampTime": "Eff_SceneObj_ImmortalFire_01_Fire",
              "PPPDJGDDOGD": 1.0,
              "AJDILHJFNKE": -1.0
            }
          ]
        }
      }
    }
  },
  {
    "Default": {
      "$type": "ConfigAbility",
      "abilityName": "SceneObj_Environment_Ceremony_Fires",
      "abilityMixins": [
        {
          "$type": "AttachToGadgetStateMixin",
          "modifierName": "Fire_Off"
        },
        {
          "$type": "AttachToGadgetStateMixin",
          "gadgetState": 201,
          "modifierName": "Fire_On"
        }
      ],
      "modifiers": {
        "Fire_Off": {
          "modifierName": "",
          "elementDurability": 100.0,
          "onBeingHit": [
            {
              "$type": "ExecuteGadgetLua",
              "predicates": [
                {
                  "$type": "ByHitElement",
                  "element": "Fire"
                },
                {
                  "$type": "ByNot",
                  "predicates": [
                    {
                      "$type": "ByHasElement",
                      "element": "Water"
                    }
                  ]
                }
              ],
              "param1": 201
            }
          ]
        },
        "Fire_On": {
          "modifierName": "",
          "elementType": "Fire",
          "elementDurability": 25.0,
          "modifierMixins": [
            {
              "$type": "AICCKMPNFGC",
              "attackID": "TileAttack_FireSource",
              "attachPointName": "attachPoint",
              "shape": {
                "$type": "BLEEFFJFAIB",
                "radius": 0.4000000059604645
              }
            }
          ],
          "onAdded": [
            {
              "$type": "AttachEffect",
              "rotationDampTime": "Eff_Fire_Camp_01",
              "PPPDJGDDOGD": 1.0,
              "AJDILHJFNKE": -1.0
            }
          ],
          "onRemoved": [
            {
              "$type": "ExecuteGadgetLua"
            },
            {
              "$type": "FireEffect",
              "rotationDampTime": "Eff_FireBasin_Smoke",
              "born": {
                "$type": "ConfigBornByAttachPoint",
                "attachPointName": "attachPoint"
              },
              "PPPDJGDDOGD": 1.0,
              "AJDILHJFNKE": -1.0
            }
          ]
        }
      }
    }
  },
  {
    "Default": {
      "$type": "ConfigAbility",
      "abilityName": "SceneObj_Environment_FireMaterial_FireBasin_Interact",
      "abilityMixins": [
        {
          "$type": "AttachToGadgetStateMixin",
          "modifierName": "Fire_Off"
        },
        {
          "$type": "AttachToGadgetStateMixin",
          "gadgetState": 201,
          "modifierName": "Fire_On"
        }
      ],
      "modifiers": {
        "Fire_Off": {
          "modifierName": "",
          "elementDurability": 100.0,
          "onBeingHit": [
            {
              "$type": "ExecuteGadgetLua",
              "predicates": [
                {
                  "$type": "ByHitElement",
                  "element": "Fire"
                },
                {
                  "$type": "ByNot",
                  "predicates": [
                    {
                      "$type": "ByHasElement",
                      "element": "Water"
                    }
                  ]
                }
              ],
              "param1": 201
            }
          ]
        },
        "Fire_On": {
          "modifierName": "",
          "elementType": "Fire",
          "elementDurability": 25.0,
          "modifierMixins": [
            {
              "$type": "AICCKMPNFGC",
              "attackID": "TileAttack_FireSource",
              "attachPointName": "attachPoint",
              "shape": {
                "$type": "BLEEFFJFAIB",
                "radius": 0.4000000059604645
              }
            }
          ],
          "onAdded": [
            {
              "$type": "AttachEffect",
              "rotationDampTime": "Eff_SceneObj_FireBasin_01",
              "PPPDJGDDOGD": 1.0,
              "AJDILHJFNKE": -1.0
            }
          ],
          "onRemoved": [
            {
              "$type": "ExecuteGadgetLua"
            },
            {
              "$type": "FireEffect",
              "rotationDampTime": "Eff_FireBasin_Smoke",
              "born": {
                "$type": "ConfigBornByAttachPoint",
                "attachPointName": "attachPoint"
              },
              "PPPDJGDDOGD": 1.0,
              "AJDILHJFNKE": -1.0
            }
          ]
        }
      }
    }
  },
  {
    "Default": {
      "$type": "ConfigAbility",
      "abilityName": "SceneObj_Area_Xm_Property_Ani_Prop_FireBasin_01_Ability",
      "abilityMixins": [
        {
          "$type": "AttachToGadgetStateMixin",
          "modifierName": "Fire_Off"
        },
        {
          "$type": "AttachToGadgetStateMixin",
          "gadgetState": 201,
          "modifierName": "Fire_On"
        }
      ],
      "modifiers": {
        "Fire_Off": {
          "modifierName": "",
          "elementDurability": 100.0,
          "onBeingHit": [
            {
              "$type": "ExecuteGadgetLua",
              "predicates": [
                {
                  "$type": "ByHitElement",
                  "element": "Fire"
                },
                {
                  "$type": "ByNot",
                  "predicates": [
                    {
                      "$type": "ByHasElement",
                      "element": "Water"
                    }
                  ]
                }
              ],
              "param1": 201
            }
          ]
        },
        "Fire_On": {
          "modifierName": "",
          "elementType": "Fire",
          "elementDurability": 25.0,
          "modifierMixins": [
            {
              "$type": "AICCKMPNFGC",
              "attackID": "TileAttack_FireSource",
              "attachPointName": "attachPoint",
              "shape": {
                "$type": "BLEEFFJFAIB",
                "radius": 0.4000000059604645
              }
            }
          ],
          "onAdded": [
            {
              "$type": "AttachEffect",
              "rotationDampTime": "Eff_SceneObj_FireBasin_Xm_01",
              "born": {
                "$type": "ConfigBornByAttachPoint",
                "attachPointName": "attachPoint"
              },
              "PPPDJGDDOGD": 1.0,
              "AJDILHJFNKE": -1.0
            }
          ],
          "onRemoved": [
            {
              "$type": "ExecuteGadgetLua"
            },
            {
              "$type": "FireEffect",
              "rotationDampTime": "Eff_FireBasin_Smoke",
              "born": {
                "$type": "ConfigBornByAttachPoint",
                "attachPointName": "attachPoint"
              },
              "PPPDJGDDOGD": 1.0,
              "AJDILHJFNKE": -1.0
            }
          ]
        }
      }
    }
  },
  {
    "Default": {
      "$type": "ConfigAbility",
      "abilityName": "SceneObj_Area_Nt_Property_Ani_Prop_FireBasin_01_Ability",
      "abilityMixins": [
        {
          "$type": "AttachToGadgetStateMixin",
          "modifierName": "Fire_Off"
        },
        {
          "$type": "AttachToGadgetStateMixin",
          "gadgetState": 201,
          "modifierName": "Fire_On"
        }
      ],
      "modifiers": {
        "Fire_Off": {
          "modifierName": "",
          "elementDurability": 100.0,
          "onBeingHit": [
            {
              "$type": "ExecuteGadgetLua",
              "predicates": [
                {
                  "$type": "ByHitElement",
                  "element": "Fire"
                },
                {
                  "$type": "ByNot",
                  "predicates": [
                    {
                      "$type": "ByHasElement",
                      "element": "Water"
                    }
                  ]
                }
              ],
              "param1": 201
            }
          ]
        },
        "Fire_On": {
          "modifierName": "",
          "elementType": "Fire",
          "elementDurability": 25.0,
          "modifierMixins": [
            {
              "$type": "AICCKMPNFGC",
              "attackID": "TileAttack_FireSource",
              "attachPointName": "attachPoint",
              "shape": {
                "$type": "BLEEFFJFAIB",
                "radius": 0.4000000059604645
              }
            }
          ],
          "onAdded": [
            {
              "$type": "AttachEffect",
              "rotationDampTime": "Eff_SceneObj_Stages_Nt_JJC_ArenaFirePit_01",
              "PPPDJGDDOGD": 1.0,
              "AJDILHJFNKE": -1.0
            },
            {
              "$type": "AttachEffect",
              "rotationDampTime": "Eff_SceneObj_Nt_JJC_ArenaFirePit_Light_01",
              "PPPDJGDDOGD": 1.0,
              "AJDILHJFNKE": -1.0,
              "isPlatformDependent": true
            }
          ],
          "onRemoved": [
            {
              "$type": "ExecuteGadgetLua"
            },
            {
              "$type": "FireEffect",
              "rotationDampTime": "Eff_FireBasin_Smoke",
              "PPPDJGDDOGD": 1.0,
              "AJDILHJFNKE": -1.0
            }
          ]
        }
      }
    }
  },
  {
    "Default": {
      "$type": "ConfigAbility",
      "abilityName": "SceneObj_Area_Nt_Property_Ani_Prop_FireBasin_03",
      "abilityMixins": [
        {
          "$type": "AttachToGadgetStateMixin",
          "gadgetState": 201,
          "modifierName": "Fire_On"
        }
      ],
      "modifiers": {
        "Fire_On": {
          "modifierName": "",
          "elementDurability": 100.0,
          "onAdded": [
            {
              "$type": "AttachEffect",
              "rotationDampTime": "Eff_SceneObj_Stages_Nt_JJC_ArenaFirePit_01",
              "PPPDJGDDOGD": 1.0,
              "AJDILHJFNKE": -1.0
            }
          ]
        }
      }
    }
  },
  {
    "Default": {
      "$type": "ConfigAbility",
      "abilityName": "SceneObj_Area_Nt_Property_Ani_Prop_FireBasin_04",
      "abilityMixins": [
        {
          "$type": "AttachToGadgetStateMixin",
          "gadgetState": 201,
          "modifierName": "Fire_On"
        }
      ],
      "modifiers": {
        "Fire_On": {
          "modifierName": "",
          "elementDurability": 100.0,
          "onAdded": [
            {
              "$type": "AttachEffect",
              "rotationDampTime": "Eff_Stages_POI_Nt_JJC_SacredFlame_02_Vo",
              "PPPDJGDDOGD": 1.0,
              "AJDILHJFNKE": -1.0
            }
          ]
        }
      }
    }
  },
  {
    "Default": {
      "$type": "ConfigAbility",
      "abilityName": "SceneObj_Environment_FireMaterial_FireBasinSnowMountain_Interact",
      "abilityMixins": [
        {
          "$type": "AttachToGadgetStateMixin",
          "modifierName": "Fire_Off"
        },
        {
          "$type": "AttachToGadgetStateMixin",
          "gadgetState": 201,
          "modifierName": "Fire_On"
        }
      ],
      "modifiers": {
        "Fire_Off": {
          "modifierName": "",
          "elementDurability": 100.0,
          "onBeingHit": [
            {
              "$type": "ExecuteGadgetLua",
              "predicates": [
                {
                  "$type": "ByHitElement",
                  "element": "Fire"
                },
                {
                  "$type": "ByNot",
                  "predicates": [
                    {
                      "$type": "ByHasElement",
                      "element": "Water"
                    }
                  ]
                }
              ],
              "param1": 201
            }
          ]
        },
        "Fire_On": {
          "modifierName": "",
          "elementType": "Fire",
          "elementDurability": 25.0,
          "modifierMixins": [
            {
              "$type": "AICCKMPNFGC",
              "attackID": "TileAttack_FireSource",
              "attachPointName": "attachPoint",
              "shape": {
                "$type": "BLEEFFJFAIB",
                "radius": 0.4000000059604645
              }
            }
          ],
          "onAdded": [
            {
              "$type": "AddGlobalValue",
              "value": 1.0,
              "key": "IS_WARM_POINT",
              "useLimitRange": true,
              "maxValue": 1.0,
              "minValue": 0.0
            },
            {
              "$type": "AttachEffect",
              "rotationDampTime": "Eff_SceneObj_FireBasin_01",
              "PPPDJGDDOGD": 1.0,
              "AJDILHJFNKE": -1.0
            }
          ],
          "onRemoved": [
            {
              "$type": "ExecuteGadgetLua"
            },
            {
              "$type": "AddGlobalValue",
              "value": -1.0,
              "key": "IS_WARM_POINT",
              "useLimitRange": true,
              "maxValue": 1.0,
              "minValue": 0.0
            },
            {
              "$type": "FireEffect",
              "rotationDampTime": "Eff_FireBasin_Smoke",
              "born": {
                "$type": "ConfigBornByAttachPoint",
                "attachPointName": "attachPoint"
              },
              "PPPDJGDDOGD": 1.0,
              "AJDILHJFNKE": -1.0
            }
          ]
        }
      }
    }
  },
  {
    "Default": {
      "$type": "ConfigAbility",
      "abilityName": "SceneObj_Environment_FireMaterial_FireBasinSnowMountain_HideSeek",
      "abilityMixins": [
        {
          "$type": "AttachToGadgetStateMixin",
          "modifierName": "Fire_Off"
        },
        {
          "$type": "AttachToGadgetStateMixin",
          "gadgetState": 201,
          "modifierName": "Fire_On"
        }
      ],
      "modifiers": {
        "Fire_Off": {
          "modifierName": "",
          "duration": 60.0,
          "elementDurability": 100.0,
          "onRemoved": [
            {
              "$type": "ExecuteGadgetLua",
              "param1": 201
            }
          ],
          "onBeingHit": [
            {
              "$type": "ExecuteGadgetLua",
              "predicates": [
                {
                  "$type": "ByHitElement",
                  "element": "Fire"
                },
                {
                  "$type": "ByNot",
                  "predicates": [
                    {
                      "$type": "ByHasElement",
                      "element": "Water"
                    }
                  ]
                }
              ],
              "param1": 201
            }
          ]
        },
        "Fire_On": {
          "modifierName": "",
          "elementType": "Fire",
          "elementDurability": 25.0,
          "modifierMixins": [
            {
              "$type": "AICCKMPNFGC",
              "attackID": "TileAttack_FireSource",
              "attachPointName": "attachPoint",
              "shape": {
                "$type": "BLEEFFJFAIB",
                "radius": 0.4000000059604645
              }
            }
          ],
          "onAdded": [
            {
              "$type": "AddGlobalValue",
              "value": 1.0,
              "key": "IS_WARM_POINT",
              "useLimitRange": true,
              "maxValue": 1.0,
              "minValue": 0.0
            },
            {
              "$type": "AttachEffect",
              "rotationDampTime": "Eff_SceneObj_FireBasin_01",
              "PPPDJGDDOGD": 1.0,
              "AJDILHJFNKE": -1.0
            }
          ],
          "onRemoved": [
            {
              "$type": "ExecuteGadgetLua"
            },
            {
              "$type": "AddGlobalValue",
              "value": -1.0,
              "key": "IS_WARM_POINT",
              "useLimitRange": true,
              "maxValue": 1.0,
              "minValue": 0.0
            },
            {
              "$type": "FireEffect",
              "rotationDampTime": "Eff_FireBasin_Smoke",
              "born": {
                "$type": "ConfigBornByAttachPoint",
                "attachPointName": "attachPoint"
              },
              "PPPDJGDDOGD": 1.0,
              "AJDILHJFNKE": -1.0
            }
          ]
        }
      }
    }
  },
  {
    "Default": {
      "$type": "ConfigAbility",
      "abilityName": "SceneObj_Environment_FireMaterial_FireBasinSnowMountain_Interact_02",
      "abilityMixins": [
        {
          "$type": "AttachToGadgetStateMixin",
          "modifierName": "Fire_Off"
        },
        {
          "$type": "AttachToGadgetStateMixin",
          "gadgetState": 201,
          "modifierName": "Fire_On"
        }
      ],
      "modifiers": {
        "Fire_Off": {
          "modifierName": "",
          "elementDurability": 100.0,
          "onBeingHit": [
            {
              "$type": "ExecuteGadgetLua",
              "predicates": [
                {
                  "$type": "ByHitElement",
                  "element": "Fire"
                },
                {
                  "$type": "ByNot",
                  "predicates": [
                    {
                      "$type": "ByHasElement",
                      "element": "Water"
                    }
                  ]
                }
              ],
              "param1": 201
            }
          ]
        },
        "Fire_On": {
          "modifierName": "",
          "elementType": "Fire",
          "elementDurability": 25.0,
          "modifierMixins": [
            {
              "$type": "AICCKMPNFGC",
              "attackID": "TileAttack_FireSource",
              "attachPointName": "attachPoint",
              "shape": {
                "$type": "BLEEFFJFAIB",
                "radius": 0.4000000059604645
              }
            }
          ],
          "onAdded": [
            {
              "$type": "AddGlobalValue",
              "value": 1.0,
              "key": "IS_WARM_POINT",
              "useLimitRange": true,
              "maxValue": 1.0,
              "minValue": 0.0
            },
            {
              "$type": "AttachEffect",
              "rotationDampTime": "Eff_SceneObj_FireBasin_02",
              "PPPDJGDDOGD": 1.0,
              "AJDILHJFNKE": -1.0
            }
          ],
          "onRemoved": [
            {
              "$type": "ExecuteGadgetLua"
            },
            {
              "$type": "AddGlobalValue",
              "value": -1.0,
              "key": "IS_WARM_POINT",
              "useLimitRange": true,
              "maxValue": 1.0,
              "minValue": 0.0
            },
            {
              "$type": "FireEffect",
              "rotationDampTime": "Eff_FireBasin_Smoke",
              "born": {
                "$type": "ConfigBornByAttachPoint",
                "attachPointName": "attachPoint"
              },
              "PPPDJGDDOGD": 1.0,
              "AJDILHJFNKE": -1.0
            }
          ]
        }
      }
    }
  },
  {
    "Default": {
      "$type": "ConfigAbility",
      "abilityName": "SceneObj_Environment_FireMaterial_Torch01_Interact",
      "abilityMixins": [
        {
          "$type": "AttachToGadgetStateMixin",
          "modifierName": "Fire_Off"
        },
        {
          "$type": "AttachToGadgetStateMixin",
          "gadgetState": 201,
          "modifierName": "Fire_On"
        }
      ],
      "modifiers": {
        "Fire_Off": {
          "modifierName": "",
          "elementDurability": 100.0,
          "onBeingHit": [
            {
              "$type": "ExecuteGadgetLua",
              "predicates": [
                {
                  "$type": "ByHitElement",
                  "element": "Fire"
                },
                {
                  "$type": "ByNot",
                  "predicates": [
                    {
                      "$type": "ByHasElement",
                      "element": "Water"
                    }
                  ]
                }
              ],
              "param1": 201
            }
          ]
        },
        "Fire_On": {
          "modifierName": "",
          "elementType": "Fire",
          "elementDurability": 25.0,
          "modifierMixins": [
            {
              "$type": "AICCKMPNFGC",
              "attackID": "TileAttack_FireSource",
              "attachPointName": "attachPoint",
              "shape": {
                "$type": "BLEEFFJFAIB",
                "radius": 0.20000000298023224
              }
            }
          ],
          "onAdded": [
            {
              "$type": "AttachEffect",
              "rotationDampTime": "Eff_SceneObj_FireBasin_01",
              "PPPDJGDDOGD": 1.0,
              "AJDILHJFNKE": -1.0
            }
          ],
          "onRemoved": [
            {
              "$type": "ExecuteGadgetLua"
            },
            {
              "$type": "FireEffect",
              "rotationDampTime": "Eff_FireBasin_Smoke",
              "born": {
                "$type": "ConfigBornByAttachPoint",
                "attachPointName": "attachPoint"
              },
              "PPPDJGDDOGD": 1.0,
              "AJDILHJFNKE": -1.0
            }
          ]
        }
      }
    }
  },
  {
    "Default": {
      "$type": "ConfigAbility",
      "abilityName": "SceneObj_Environment_FireMaterial_BornFires_Interact",
      "abilityMixins": [
        {
          "$type": "AttachToGadgetStateMixin",
          "modifierName": "Fire_Off"
        },
        {
          "$type": "AttachToGadgetStateMixin",
          "gadgetState": 201,
          "modifierName": "Fire_On"
        }
      ],
      "modifiers": {
        "Fire_Off": {
          "modifierName": "",
          "elementDurability": 100.0,
          "onBeingHit": [
            {
              "$type": "ExecuteGadgetLua",
              "predicates": [
                {
                  "$type": "ByHitElement",
                  "element": "Fire"
                },
                {
                  "$type": "ByNot",
                  "predicates": [
                    {
                      "$type": "ByHasElement",
                      "element": "Water"
                    }
                  ]
                }
              ],
              "param1": 201
            }
          ]
        },
        "Fire_On": {
          "modifierName": "",
          "elementType": "Fire",
          "elementDurability": 25.0,
          "modifierMixins": [
            {
              "$type": "AICCKMPNFGC",
              "attackID": "TileAttack_FireSource",
              "attachPointName": "attachPoint",
              "shape": {
                "$type": "BLEEFFJFAIB",
                "radius": 0.4000000059604645
              }
            }
          ],
          "onAdded": [
            {
              "$type": "AttachEffect",
              "rotationDampTime": "Eff_SceneObj_FireBasin_01",
              "PPPDJGDDOGD": 1.0,
              "AJDILHJFNKE": -1.0
            }
          ],
          "onRemoved": [
            {
              "$type": "ExecuteGadgetLua"
            },
            {
              "$type": "FireEffect",
              "rotationDampTime": "Eff_FireBasin_Smoke",
              "born": {
                "$type": "ConfigBornByAttachPoint",
                "attachPointName": "attachPoint"
              },
              "PPPDJGDDOGD": 1.0,
              "AJDILHJFNKE": -1.0
            }
          ]
        }
      }
    }
  },
  {
    "Default": {
      "$type": "ConfigAbility",
      "abilityName": "SceneObj_Environment_FireMaterial_BornFires_Interact_SnowMountain",
      "abilityMixins": [
        {
          "$type": "AttachToGadgetStateMixin",
          "modifierName": "Fire_Off"
        },
        {
          "$type": "AttachToGadgetStateMixin",
          "gadgetState": 201,
          "modifierName": "Fire_On"
        }
      ],
      "modifiers": {
        "Fire_Off": {
          "modifierName": "",
          "elementDurability": 100.0,
          "onBeingHit": [
            {
              "$type": "ExecuteGadgetLua",
              "predicates": [
                {
                  "$type": "ByHitElement",
                  "element": "Fire"
                },
                {
                  "$type": "ByNot",
                  "predicates": [
                    {
                      "$type": "ByHasElement",
                      "element": "Water"
                    }
                  ]
                }
              ],
              "param1": 201
            }
          ]
        },
        "Fire_On": {
          "modifierName": "",
          "elementType": "Fire",
          "elementDurability": 25.0,
          "modifierMixins": [
            {
              "$type": "AICCKMPNFGC",
              "attackID": "TileAttack_FireSource",
              "attachPointName": "attachPoint",
              "shape": {
                "$type": "BLEEFFJFAIB",
                "radius": 0.4000000059604645
              }
            }
          ],
          "onAdded": [
            {
              "$type": "AddGlobalValue",
              "value": 1.0,
              "key": "IS_WARM_POINT",
              "useLimitRange": true,
              "maxValue": 1.0,
              "minValue": 0.0
            },
            {
              "$type": "AttachEffect",
              "rotationDampTime": "Eff_SceneObj_FireBasin_01",
              "PPPDJGDDOGD": 1.0,
              "AJDILHJFNKE": -1.0
            }
          ],
          "onRemoved": [
            {
              "$type": "ExecuteGadgetLua"
            },
            {
              "$type": "AddGlobalValue",
              "value": -1.0,
              "key": "IS_WARM_POINT",
              "useLimitRange": true,
              "maxValue": 1.0,
              "minValue": 0.0
            },
            {
              "$type": "FireEffect",
              "rotationDampTime": "Eff_FireBasin_Smoke",
              "born": {
                "$type": "ConfigBornByAttachPoint",
                "attachPointName": "attachPoint"
              },
              "PPPDJGDDOGD": 1.0,
              "AJDILHJFNKE": -1.0
            }
          ]
        }
      }
    }
  },
  {
    "Default": {
      "$type": "ConfigAbility",
      "abilityName": "SceneObj_Environment_FireMaterial_Bornfires_HideSeek_SnowMountain",
      "abilityMixins": [
        {
          "$type": "AttachToGadgetStateMixin",
          "modifierName": "Fire_Off"
        },
        {
          "$type": "AttachToGadgetStateMixin",
          "gadgetState": 201,
          "modifierName": "Fire_On"
        }
      ],
      "modifiers": {
        "Fire_Off": {
          "modifierName": "",
          "duration": 60.0,
          "elementDurability": 100.0,
          "onRemoved": [
            {
              "$type": "ExecuteGadgetLua",
              "param1": 201
            }
          ],
          "onBeingHit": [
            {
              "$type": "ExecuteGadgetLua",
              "predicates": [
                {
                  "$type": "ByHitElement",
                  "element": "Fire"
                },
                {
                  "$type": "ByNot",
                  "predicates": [
                    {
                      "$type": "ByHasElement",
                      "element": "Water"
                    }
                  ]
                }
              ],
              "param1": 201
            }
          ]
        },
        "Fire_On": {
          "modifierName": "",
          "elementType": "Fire",
          "elementDurability": 25.0,
          "modifierMixins": [
            {
              "$type": "AICCKMPNFGC",
              "attackID": "TileAttack_FireSource",
              "attachPointName": "attachPoint",
              "shape": {
                "$type": "BLEEFFJFAIB",
                "radius": 0.4000000059604645
              }
            }
          ],
          "onAdded": [
            {
              "$type": "AddGlobalValue",
              "value": 1.0,
              "key": "IS_WARM_POINT",
              "useLimitRange": true,
              "maxValue": 1.0,
              "minValue": 0.0
            },
            {
              "$type": "AttachEffect",
              "rotationDampTime": "Eff_SceneObj_FireBasin_01",
              "PPPDJGDDOGD": 1.0,
              "AJDILHJFNKE": -1.0
            }
          ],
          "onRemoved": [
            {
              "$type": "ExecuteGadgetLua"
            },
            {
              "$type": "AddGlobalValue",
              "value": -1.0,
              "key": "IS_WARM_POINT",
              "useLimitRange": true,
              "maxValue": 1.0,
              "minValue": 0.0
            },
            {
              "$type": "FireEffect",
              "rotationDampTime": "Eff_FireBasin_Smoke",
              "born": {
                "$type": "ConfigBornByAttachPoint",
                "attachPointName": "attachPoint"
              },
              "PPPDJGDDOGD": 1.0,
              "AJDILHJFNKE": -1.0
            }
          ]
        }
      }
    }
  },
  {
    "Default": {
      "$type": "ConfigAbility",
      "abilityName": "SceneObj_Environment_FireMaterial_CookingPot_Interact",
      "abilityMixins": [
        {
          "$type": "AttachToGadgetStateMixin",
          "modifierName": "Fire_Off"
        },
        {
          "$type": "AttachToGadgetStateMixin",
          "gadgetState": 201,
          "modifierName": "Fire_On"
        }
      ],
      "modifiers": {
        "Fire_Off": {
          "modifierName": "",
          "elementDurability": 100.0,
          "onBeingHit": [
            {
              "$type": "ExecuteGadgetLua",
              "predicates": [
                {
                  "$type": "ByHitElement",
                  "element": "Fire"
                },
                {
                  "$type": "ByNot",
                  "predicates": [
                    {
                      "$type": "ByHasElement",
                      "element": "Water"
                    }
                  ]
                }
              ],
              "param1": 201
            }
          ]
        },
        "Fire_On": {
          "modifierName": "",
          "elementType": "Fire",
          "elementDurability": 25.0,
          "modifierMixins": [
            {
              "$type": "AICCKMPNFGC",
              "attackID": "TileAttack_FireSource",
              "attachPointName": "attachPoint",
              "shape": {
                "$type": "BLEEFFJFAIB",
                "radius": 0.10000000149011612
              }
            }
          ],
          "onAdded": [
            {
              "$type": "AttachEffect",
              "rotationDampTime": "Eff_SceneObj_Cooking_01_Fire",
              "PPPDJGDDOGD": 1.0,
              "AJDILHJFNKE": -1.0
            },
            {
              "$type": "AttachEffect",
              "rotationDampTime": "Eff_SceneObj_Cooking_01_Smoke",
              "born": {
                "$type": "ConfigBornByAttachPoint",
                "offset": {
                  "z": 0.0
                },
                "attachPointName": "RootNode"
              },
              "PPPDJGDDOGD": 1.0,
              "AJDILHJFNKE": -1.0
            }
          ],
          "onRemoved": [
            {
              "$type": "ExecuteGadgetLua"
            },
            {
              "$type": "FireEffect",
              "rotationDampTime": "Eff_FireBasin_Smoke",
              "born": {
                "$type": "ConfigBornByAttachPoint",
                "attachPointName": "attachPoint"
              },
              "PPPDJGDDOGD": 1.0,
              "AJDILHJFNKE": -1.0
            }
          ]
        }
      }
    }
  },
  {
    "Default": {
      "$type": "ConfigAbility",
      "abilityName": "SceneObj_Environment_FireMaterial_CookingPotSnowMountain_Interact",
      "abilityMixins": [
        {
          "$type": "AttachToGadgetStateMixin",
          "modifierName": "Fire_Off"
        },
        {
          "$type": "AttachToGadgetStateMixin",
          "gadgetState": 201,
          "modifierName": "Fire_On"
        }
      ],
      "modifiers": {
        "Fire_Off": {
          "modifierName": "",
          "elementDurability": 100.0,
          "onBeingHit": [
            {
              "$type": "ExecuteGadgetLua",
              "predicates": [
                {
                  "$type": "ByHitElement",
                  "element": "Fire"
                },
                {
                  "$type": "ByNot",
                  "predicates": [
                    {
                      "$type": "ByHasElement",
                      "element": "Water"
                    }
                  ]
                }
              ],
              "param1": 201
            }
          ]
        },
        "Fire_On": {
          "modifierName": "",
          "elementType": "Fire",
          "elementDurability": 25.0,
          "modifierMixins": [
            {
              "$type": "AICCKMPNFGC",
              "attackID": "TileAttack_FireSource",
              "attachPointName": "attachPoint",
              "shape": {
                "$type": "BLEEFFJFAIB",
                "radius": 0.10000000149011612
              }
            }
          ],
          "onAdded": [
            {
              "$type": "AddGlobalValue",
              "value": 1.0,
              "key": "IS_WARM_POINT",
              "useLimitRange": true,
              "maxValue": 1.0,
              "minValue": 0.0
            },
            {
              "$type": "AttachEffect",
              "rotationDampTime": "Eff_SceneObj_Cooking_01_Fire",
              "PPPDJGDDOGD": 1.0,
              "AJDILHJFNKE": -1.0
            },
            {
              "$type": "AttachEffect",
              "rotationDampTime": "Eff_SceneObj_Cooking_01_Smoke",
              "born": {
                "$type": "ConfigBornByAttachPoint",
                "offset": {
                  "z": 0.0
                },
                "attachPointName": "RootNode"
              },
              "PPPDJGDDOGD": 1.0,
              "AJDILHJFNKE": -1.0
            }
          ],
          "onRemoved": [
            {
              "$type": "ExecuteGadgetLua"
            },
            {
              "$type": "AddGlobalValue",
              "value": -1.0,
              "key": "IS_WARM_POINT",
              "useLimitRange": true,
              "maxValue": 1.0,
              "minValue": 0.0
            },
            {
              "$type": "FireEffect",
              "rotationDampTime": "Eff_FireBasin_Smoke",
              "born": {
                "$type": "ConfigBornByAttachPoint",
                "attachPointName": "attachPoint"
              },
              "PPPDJGDDOGD": 1.0,
              "AJDILHJFNKE": -1.0
            }
          ]
        }
      }
    }
  },
  {
    "Default": {
      "$type": "ConfigAbility",
      "abilityName": "SceneObj_Environment_FireMaterial_CookingPot02_Interact",
      "abilityMixins": [
        {
          "$type": "AttachToGadgetStateMixin",
          "modifierName": "Fire_Off"
        },
        {
          "$type": "AttachToGadgetStateMixin",
          "gadgetState": 201,
          "modifierName": "Fire_On"
        }
      ],
      "modifiers": {
        "Fire_Off": {
          "modifierName": "",
          "elementDurability": 100.0,
          "onBeingHit": [
            {
              "$type": "ExecuteGadgetLua",
              "predicates": [
                {
                  "$type": "ByHitElement",
                  "element": "Fire"
                },
                {
                  "$type": "ByNot",
                  "predicates": [
                    {
                      "$type": "ByHasElement",
                      "element": "Water"
                    }
                  ]
                }
              ],
              "param1": 201
            }
          ]
        },
        "Fire_On": {
          "modifierName": "",
          "elementType": "Fire",
          "elementDurability": 25.0,
          "modifierMixins": [
            {
              "$type": "AICCKMPNFGC",
              "attackID": "TileAttack_FireSource",
              "attachPointName": "attachPoint",
              "shape": {
                "$type": "BLEEFFJFAIB",
                "radius": 0.10000000149011612
              }
            }
          ],
          "onAdded": [
            {
              "$type": "AttachEffect",
              "rotationDampTime": "Eff_SceneObj_Cooking_01_Fire",
              "PPPDJGDDOGD": 1.0,
              "AJDILHJFNKE": -1.0
            },
            {
              "$type": "AttachEffect",
              "rotationDampTime": "Eff_SceneObj_Cooking_02_Smoke",
              "born": {
                "$type": "ConfigBornByAttachPoint",
                "offset": {
                  "z": 0.0
                },
                "attachPointName": "RootNode"
              },
              "PPPDJGDDOGD": 1.0,
              "AJDILHJFNKE": -1.0
            }
          ],
          "onRemoved": [
            {
              "$type": "ExecuteGadgetLua"
            },
            {
              "$type": "FireEffect",
              "rotationDampTime": "Eff_FireBasin_Smoke",
              "born": {
                "$type": "ConfigBornByAttachPoint",
                "attachPointName": "attachPoint"
              },
              "PPPDJGDDOGD": 1.0,
              "AJDILHJFNKE": -1.0
            }
          ]
        }
      }
    }
  },
  {
    "Default": {
      "$type": "ConfigAbility",
      "abilityName": "SceneObj_Environment_FireMaterial_CookingPotSnowMountain02_Interact",
      "abilityMixins": [
        {
          "$type": "AttachToGadgetStateMixin",
          "modifierName": "Fire_Off"
        },
        {
          "$type": "AttachToGadgetStateMixin",
          "gadgetState": 201,
          "modifierName": "Fire_On"
        }
      ],
      "modifiers": {
        "Fire_Off": {
          "modifierName": "",
          "elementDurability": 100.0,
          "onBeingHit": [
            {
              "$type": "ExecuteGadgetLua",
              "predicates": [
                {
                  "$type": "ByHitElement",
                  "element": "Fire"
                },
                {
                  "$type": "ByNot",
                  "predicates": [
                    {
                      "$type": "ByHasElement",
                      "element": "Water"
                    }
                  ]
                }
              ],
              "param1": 201
            }
          ]
        },
        "Fire_On": {
          "modifierName": "",
          "elementType": "Fire",
          "elementDurability": 25.0,
          "modifierMixins": [
            {
              "$type": "AICCKMPNFGC",
              "attackID": "TileAttack_FireSource",
              "attachPointName": "attachPoint",
              "shape": {
                "$type": "BLEEFFJFAIB",
                "radius": 0.10000000149011612
              }
            }
          ],
          "onAdded": [
            {
              "$type": "AttachEffect",
              "rotationDampTime": "Eff_SceneObj_Cooking_01_Fire",
              "PPPDJGDDOGD": 1.0,
              "AJDILHJFNKE": -1.0
            },
            {
              "$type": "AddGlobalValue",
              "value": 1.0,
              "key": "IS_WARM_POINT",
              "useLimitRange": true,
              "maxValue": 1.0,
              "minValue": 0.0
            },
            {
              "$type": "AttachEffect",
              "rotationDampTime": "Eff_SceneObj_Cooking_02_Smoke",
              "born": {
                "$type": "ConfigBornByAttachPoint",
                "offset": {
                  "z": 0.0
                },
                "attachPointName": "RootNode"
              },
              "PPPDJGDDOGD": 1.0,
              "AJDILHJFNKE": -1.0
            }
          ],
          "onRemoved": [
            {
              "$type": "ExecuteGadgetLua"
            },
            {
              "$type": "AddGlobalValue",
              "value": -1.0,
              "key": "IS_WARM_POINT",
              "useLimitRange": true,
              "maxValue": 1.0,
              "minValue": 0.0
            },
            {
              "$type": "FireEffect",
              "rotationDampTime": "Eff_FireBasin_Smoke",
              "born": {
                "$type": "ConfigBornByAttachPoint",
                "attachPointName": "attachPoint"
              },
              "PPPDJGDDOGD": 1.0,
              "AJDILHJFNKE": -1.0
            }
          ]
        }
      }
    }
  },
  {
    "Default": {
      "$type": "ConfigAbility",
      "abilityName": "SceneObj_Environment_FireMaterial_CookingPot_NoLight",
      "abilityMixins": [
        {
          "$type": "AttachToGadgetStateMixin",
          "modifierName": "Fire_Off"
        },
        {
          "$type": "AttachToGadgetStateMixin",
          "gadgetState": 201,
          "modifierName": "Fire_On"
        }
      ],
      "modifiers": {
        "Fire_Off": {
          "modifierName": "",
          "elementDurability": 100.0,
          "onBeingHit": [
            {
              "$type": "ExecuteGadgetLua",
              "predicates": [
                {
                  "$type": "ByHitElement",
                  "element": "Fire"
                },
                {
                  "$type": "ByNot",
                  "predicates": [
                    {
                      "$type": "ByHasElement",
                      "element": "Water"
                    }
                  ]
                }
              ],
              "param1": 201
            }
          ]
        },
        "Fire_On": {
          "modifierName": "",
          "elementType": "Fire",
          "elementDurability": 25.0,
          "modifierMixins": [
            {
              "$type": "AICCKMPNFGC",
              "attackID": "TileAttack_FireSource",
              "attachPointName": "attachPoint",
              "shape": {
                "$type": "BLEEFFJFAIB",
                "radius": 0.10000000149011612
              }
            }
          ],
          "onAdded": [
            {
              "$type": "AttachEffect",
              "rotationDampTime": "Eff_FireCook_01NoLight",
              "PPPDJGDDOGD": 1.0,
              "AJDILHJFNKE": -1.0
            }
          ],
          "onRemoved": [
            {
              "$type": "ExecuteGadgetLua"
            },
            {
              "$type": "FireEffect",
              "rotationDampTime": "Eff_FireBasin_Smoke",
              "born": {
                "$type": "ConfigBornByAttachPoint",
                "attachPointName": "attachPoint"
              },
              "PPPDJGDDOGD": 1.0,
              "AJDILHJFNKE": -1.0
            }
          ]
        }
      }
    }
  },
  {
    "Default": {
      "$type": "ConfigAbility",
      "abilityName": "SceneObj_Environment_FireMaterial_LYG_YGriller_01_Interact",
      "abilityMixins": [
        {
          "$type": "AttachToGadgetStateMixin",
          "modifierName": "Fire_Off"
        },
        {
          "$type": "AttachToGadgetStateMixin",
          "gadgetState": 201,
          "modifierName": "Fire_On"
        }
      ],
      "modifiers": {
        "Fire_Off": {
          "modifierName": "",
          "elementDurability": 100.0,
          "onBeingHit": [
            {
              "$type": "ExecuteGadgetLua",
              "predicates": [
                {
                  "$type": "ByHitElement",
                  "element": "Fire"
                },
                {
                  "$type": "ByNot",
                  "predicates": [
                    {
                      "$type": "ByHasElement",
                      "element": "Water"
                    }
                  ]
                }
              ],
              "param1": 201
            }
          ]
        },
        "Fire_On": {
          "modifierName": "",
          "elementType": "Fire",
          "elementDurability": 25.0,
          "modifierMixins": [
            {
              "$type": "AICCKMPNFGC",
              "attackID": "TileAttack_FireSource",
              "attachPointName": "attachPoint",
              "shape": {
                "$type": "BLEEFFJFAIB",
                "radius": 0.10000000149011612
              }
            }
          ],
          "onAdded": [
            {
              "$type": "AttachEffect",
              "rotationDampTime": "Eff_SceneObj_Griller_FireCook_01",
              "PPPDJGDDOGD": 1.0,
              "AJDILHJFNKE": -1.0
            }
          ],
          "onRemoved": [
            {
              "$type": "ExecuteGadgetLua"
            },
            {
              "$type": "FireEffect",
              "rotationDampTime": "Eff_FireBasin_Smoke",
              "born": {
                "$type": "ConfigBornByAttachPoint",
                "attachPointName": "attachPoint"
              },
              "PPPDJGDDOGD": 1.0,
              "AJDILHJFNKE": -1.0
            }
          ]
        }
      }
    }
  },
  {
    "Default": {
      "$type": "ConfigAbility",
      "abilityName": "SceneObj_Environment_FireMaterial_XM_YGriller_01_Interact",
      "abilityMixins": [
        {
          "$type": "AttachToGadgetStateMixin",
          "modifierName": "Fire_Off"
        },
        {
          "$type": "AttachToGadgetStateMixin",
          "gadgetState": 201,
          "modifierName": "Fire_On"
        }
      ],
      "modifiers": {
        "Fire_Off": {
          "modifierName": "",
          "elementDurability": 100.0,
          "onBeingHit": [
            {
              "$type": "ExecuteGadgetLua",
              "predicates": [
                {
                  "$type": "ByHitElement",
                  "element": "Fire"
                },
                {
                  "$type": "ByNot",
                  "predicates": [
                    {
                      "$type": "ByHasElement",
                      "element": "Water"
                    }
                  ]
                }
              ],
              "param1": 201
            }
          ]
        },
        "Fire_On": {
          "modifierName": "",
          "elementType": "Fire",
          "elementDurability": 25.0,
          "modifierMixins": [
            {
              "$type": "AICCKMPNFGC",
              "attackID": "TileAttack_FireSource",
              "attachPointName": "attachPoint",
              "shape": {
                "$type": "BLEEFFJFAIB",
                "radius": 0.10000000149011612
              }
            }
          ],
          "onAdded": [
            {
              "$type": "AttachEffect",
              "rotationDampTime": "Eff_SceneObj_SumeruStove_01_FireCook",
              "PPPDJGDDOGD": 1.0,
              "AJDILHJFNKE": -1.0
            }
          ],
          "onRemoved": [
            {
              "$type": "ExecuteGadgetLua"
            },
            {
              "$type": "FireEffect",
              "rotationDampTime": "Eff_FireBasin_Smoke",
              "born": {
                "$type": "ConfigBornByAttachPoint",
                "attachPointName": "attachPoint"
              },
              "PPPDJGDDOGD": 1.0,
              "AJDILHJFNKE": -1.0
            }
          ]
        }
      }
    }
  },
  {
    "Default": {
      "$type": "ConfigAbility",
      "abilityName": "SceneObj_Area_Fd_Property_Ani_Prop_FontaineStove_01",
      "abilityMixins": [
        {
          "$type": "AttachToGadgetStateMixin",
          "modifierName": "Fire_Off"
        },
        {
          "$type": "AttachToGadgetStateMixin",
          "gadgetState": 201,
          "modifierName": "Fire_On"
        }
      ],
      "modifiers": {
        "Fire_Off": {
          "modifierName": "",
          "elementDurability": 100.0,
          "onAdded": [
            {
              "$type": "HPIDNBEGJLL",
              "state": 201
            }
          ]
        },
        "Fire_On": {
          "modifierName": "",
          "elementDurability": 100.0,
          "onAdded": [
            {
              "$type": "AttachEffect",
              "rotationDampTime": "Eff_SceneObj_FontaineStove_02",
              "PPPDJGDDOGD": 1.0,
              "AJDILHJFNKE": -1.0
            }
          ]
        }
      }
    }
  },
  {
    "Default": {
      "$type": "ConfigAbility",
      "abilityName": "SceneObj_Area_Nt_Property_Ani_Prop_NatlanStove_01",
      "abilityMixins": [
        {
          "$type": "AttachToGadgetStateMixin",
          "modifierName": "Fire_Off"
        },
        {
          "$type": "AttachToGadgetStateMixin",
          "gadgetState": 201,
          "modifierName": "Fire_On"
        }
      ],
      "modifiers": {
        "Fire_Off": {
          "modifierName": "",
          "elementDurability": 100.0,
          "onBeingHit": [
            {
              "$type": "ExecuteGadgetLua",
              "predicates": [
                {
                  "$type": "ByHitElement",
                  "element": "Fire"
                },
                {
                  "$type": "ByNot",
                  "predicates": [
                    {
                      "$type": "ByHasElement",
                      "element": "Water"
                    }
                  ]
                }
              ],
              "param1": 201
            }
          ]
        },
        "Fire_On": {
          "modifierName": "",
          "elementType": "Fire",
          "elementDurability": 25.0,
          "modifierMixins": [
            {
              "$type": "AICCKMPNFGC",
              "attackID": "TileAttack_FireSource",
              "attachPointName": "attachPoint",
              "shape": {
                "$type": "BLEEFFJFAIB",
                "radius": 0.10000000149011612
              }
            }
          ],
          "onAdded": [
            {
              "$type": "AttachEffect",
              "rotationDampTime": "Eff_SceneObj_NatlanStove_01_FireCook",
              "PPPDJGDDOGD": 1.0,
              "AJDILHJFNKE": -1.0
            }
          ],
          "onRemoved": [
            {
              "$type": "ExecuteGadgetLua"
            },
            {
              "$type": "FireEffect",
              "rotationDampTime": "Eff_FireBasin_Smoke",
              "born": {
                "$type": "ConfigBornByAttachPoint",
                "useRotation": true,
                "attachPointName": "attachPoint"
              },
              "PPPDJGDDOGD": 1.0,
              "AJDILHJFNKE": -1.0
            }
          ]
        }
      }
    }
  },
  {
    "Default": {
      "$type": "ConfigAbility",
      "abilityName": "SceneObj_Area_Xm_Property_Ani_Prop_AranaraPot_01_Ability",
      "abilityMixins": [
        {
          "$type": "AttachToGadgetStateMixin",
          "modifierName": "Fire_Off"
        },
        {
          "$type": "AttachToGadgetStateMixin",
          "gadgetState": 201,
          "modifierName": "Fire_On"
        }
      ],
      "modifiers": {
        "Fire_Off": {
          "modifierName": "",
          "elementDurability": 100.0,
          "onBeingHit": [
            {
              "$type": "ExecuteGadgetLua",
              "predicates": [
                {
                  "$type": "ByHitElement",
                  "element": "Fire"
                },
                {
                  "$type": "ByNot",
                  "predicates": [
                    {
                      "$type": "ByHasElement",
                      "element": "Water"
                    }
                  ]
                }
              ],
              "param1": 201
            }
          ]
        },
        "Fire_On": {
          "modifierName": "",
          "elementType": "Fire",
          "elementDurability": 25.0,
          "modifierMixins": [
            {
              "$type": "AICCKMPNFGC",
              "attackID": "TileAttack_FireSource",
              "attachPointName": "attachPoint",
              "shape": {
                "$type": "BLEEFFJFAIB",
                "radius": 0.10000000149011612
              }
            }
          ],
          "onAdded": [
            {
              "$type": "AttachEffect",
              "rotationDampTime": "Eff_SceneObj_Cooking_01_Fire",
              "PPPDJGDDOGD": 1.0,
              "AJDILHJFNKE": -1.0
            },
            {
              "$type": "AttachEffect",
              "rotationDampTime": "Eff_SceneObj_AranaraPot_01_Cooking",
              "born": {
                "$type": "ConfigBornByAttachPoint",
                "attachPointName": "attachPoint"
              },
              "PPPDJGDDOGD": 1.0,
              "AJDILHJFNKE": -1.0
            }
          ],
          "onRemoved": [
            {
              "$type": "ExecuteGadgetLua"
            },
            {
              "$type": "FireEffect",
              "rotationDampTime": "Eff_FireBasin_Smoke",
              "born": {
                "$type": "ConfigBornByAttachPoint",
                "attachPointName": "attachPoint"
              },
              "PPPDJGDDOGD": 1.0,
              "AJDILHJFNKE": -1.0
            }
          ]
        }
      },
      "onAdded": [
        {
          "$type": "AttachEffect",
          "rotationDampTime": "Eff_SceneObj_AranaraPot_01_NoCooking",
          "PPPDJGDDOGD": 1.0,
          "AJDILHJFNKE": -1.0
        }
      ]
    }
  }
]
