[
  {
    "Default": {
      "$type": "ConfigAbility",
      "abilityName": "SceneObj_Area_Common_Property_Prop_FinalCore_01_Ability",
      "abilityMixins": [
        {
          "$type": "AttachToGadgetStateMixin",
          "modifierName": "PollutionState"
        },
        {
          "$type": "AttachToGadgetStateMixin",
          "gadgetState": 201,
          "modifierName": "PurifyState"
        },
        {
          "$type": "AttachToGadgetStateMixin",
          "gadgetState": 202,
          "modifierName": "Flash"
        }
      ],
      "modifiers": {
        "PollutionState": {
          "modifierName": "",
          "elementDurability": 100.0,
          "onAdded": [
            {
              "$type": "SendEffectTrigger",
              "parameter": "State",
              "attachPoint": "",
              "damageRatio": "Int",
              "rotationDampTime": "Eff_SceneObj_POI_Xm_JRZB_FinalCore_01"
            }
          ]
        },
        "PurifyState": {
          "modifierName": "",
          "elementDurability": 100.0,
          "onAdded": [
            {
              "$type": "SendEffectTrigger",
              "parameter": "State",
              "attachPoint": "",
              "damageRatio": "Int",
              "value": 1,
              "rotationDampTime": "Eff_SceneObj_POI_Xm_JRZB_FinalCore_01"
            }
          ]
        },
        "Flash": {
          "modifierName": "",
          "duration": 2.5,
          "elementDurability": 100.0,
          "thinkInterval": 2.0,
          "onAdded": [
            {
              "$type": "SendEffectTrigger",
              "parameter": "Flash",
              "attachPoint": "",
              "rotationDampTime": "Eff_SceneObj_POI_Xm_JRZB_FinalCore_01"
            }
          ],
          "onThinkInterval": [
            {
              "$type": "HPIDNBEGJLL"
            }
          ]
        }
      }
    }
  },
  {
    "Default": {
      "$type": "ConfigAbility",
      "abilityName": "SceneObj_Area_Common_Property_Prop_FinalCore_01_Lanuch",
      "abilityMixins": [
        {
          "$type": "APPKPNCENAH",
          "gadgetStates": [0, 201],
          "modifierNames": [["Standby"], ["Fire"]]
        },
        {
          "$type": "AttachModifierToSelfGlobalValueMixin",
          "globalValueKey": "_MaranaMissle_CD",
          "gvInTalk": 0.0,
          "valueSteps": [-0.5, 0.800000011920929, 1.5],
          "modifierNameSteps": ["ShootingCD", "IntervalShooting"]
        },
        {
          "$type": "AttachModifierToSelfGlobalValueMixin",
          "globalValueKey": "_MaranaMissle_CD",
          "gvInTalk": 0.0,
          "valueSteps": [0.0, 10.0],
          "modifierNameSteps": ["ShowBall"]
        },
        {
          "$type": "FieldEntityCountChangeMixin",
          "campTargetType": "AllExceptSelf",
          "targetPredicates": [
            {
              "$type": "ByEntityTypes",
              "entityTypes": ["Avatar"]
            }
          ],
          "onFieldEnter": [
            {
              "$type": "AddGlobalValue",
              "value": 1.0,
              "key": "EntityCount",
              "maxValue": 0.0,
              "minValue": 0.0
            }
          ],
          "onFieldExit": [
            {
              "$type": "AddGlobalValue",
              "value": -1.0,
              "key": "EntityCount",
              "maxValue": 0.0,
              "minValue": 0.0
            }
          ],
          "simpleCountGlobaValueKey": "",
          "simpleCountMaxValue": 0.0,
          "simpleCountMinValue": 0.0
        }
      ],
      "abilitySpecials": {
        "SkillCD": 10.0,
        "FireRate": 0.5
      },
      "modifiers": {
        "Standby": {
          "modifierName": "",
          "elementDurability": 100.0
        },
        "Fire": {
          "modifierName": "",
          "elementDurability": 100.0,
          "onAdded": [
            {
              "$type": "SendEffectTrigger",
              "parameter": "Stage",
              "attachPoint": "",
              "damageRatio": "Int",
              "value": 1,
              "rotationDampTime": "Eff_SceneObj_POI_Xm_JRZB_Finalcore_01"
            }
          ]
        },
        "ShootingCD": {
          "modifierName": "",
          "elementDurability": 100.0,
          "thinkInterval": ["SkillCD", 2.0, "DIV"],
          "onThinkInterval": [
            {
              "$type": "AddGlobalValue",
              "value": 0.5,
              "key": "_MaranaMissle_CD",
              "maxValue": 0.0,
              "minValue": 0.0
            }
          ]
        },
        "ShowBall": {
          "modifierName": "",
          "elementDurability": 100.0
        },
        "IntervalShooting": {
          "modifierName": "",
          "elementDurability": 100.0,
          "thinkInterval": "FireRate",
          "onAdded": [
            {
              "$type": "TriggerAbility",
              "abilityName": "SceneObj_Area_Common_Property_Prop_FinalCore_01_Lanuch"
            }
          ],
          "onThinkInterval": [
            {
              "$type": "TriggerAbility",
              "abilityName": "SceneObj_Area_Common_Property_Prop_FinalCore_01_Lanuch"
            }
          ]
        },
        "FireBullet": {
          "modifierName": "",
          "duration": 0.10000000149011612,
          "elementDurability": 100.0,
          "onAdded": [
            {
              "$type": "Predicated",
              "targetPredicates": [
                {
                  "$type": "ByTargetGlobalValue",
                  "key": "_MaranaMissle_CD",
                  "value": 1.0
                },
                {
                  "$type": "ByTargetGlobalValue",
                  "key": "EntityCount",
                  "value": 1.0,
                  "compareType": "MoreThanAndEqual"
                }
              ],
              "successActions": [
                {
                  "$type": "SetSelfAttackTarget",
                  "otherTargets": {
                    "$type": "SelectTargetsByLCTrigger",
                    "topLimit": 1,
                    "sortType": "Random",
                    "campTargetType": "Enemy"
                  },
                  "predicates": [
                    {
                      "$type": "ByEntityTypes",
                      "entityTypes": ["Avatar"]
                    }
                  ]
                },
                {
                  "$type": "TriggerBullet",
                  "predicates": [
                    {
                      "$type": "ByHasAttackTarget"
                    }
                  ],
                  "bulletID": 70290493,
                  "born": {
                    "$type": "ConfigBornByAttachPoint",
                    "offset": {
                      "x": 0.0,
                      "y": 0.0,
                      "z": 0.0
                    },
                    "attachPointName": "EffectPoint"
                  }
                },
                {
                  "$type": "SetGlobalValue",
                  "predicates": [
                    {
                      "$type": "ByHasAttackTarget"
                    }
                  ],
                  "value": 0.0,
                  "key": "_MaranaMissle_CD",
                  "maxValue": 0.0,
                  "minValue": 0.0
                }
              ]
            }
          ]
        }
      },
      "onAbilityStart": [
        {
          "$type": "ApplyModifier",
          "modifierName": "FireBullet"
        }
      ]
    }
  },
  {
    "Default": {
      "$type": "ConfigAbility",
      "abilityName": "SceneObj_Area_Common_Property_Prop_FinalCore_01_Bullet",
      "abilitySpecials": {
        "ElementLevelCo": 1.0,
        "DamageRatio": 3.0
      },
      "modifiers": {
        "MaranaMissle_BulletEffect": {
          "modifierName": "",
          "elementDurability": 100.0,
          "onAdded": [
            {
              "$type": "AttachEffect",
              "rotationDampTime": "Eff_SceneObj_MaranaMissle_Bullet_Size4",
              "PPPDJGDDOGD": 1.0,
              "AJDILHJFNKE": -1.0
            }
          ]
        },
        "HitWatcher": {
          "modifierName": "",
          "elementDurability": 100.0,
          "onAttackLanded": [
            {
              "$type": "Predicated",
              "target": "Other",
              "targetPredicates": [
                {
                  "$type": "ByEntityTypes",
                  "entityTypes": ["Avatar"]
                }
              ],
              "successActions": [
                {
                  "$type": "ApplyModifier",
                  "target": "Other",
                  "modifierName": "DeathZone_ExtraDamage"
                }
              ]
            }
          ]
        },
        "DeathZone_ExtraDamage": {
          "modifierName": "",
          "duration": 0.10000000149011612,
          "elementDurability": 100.0,
          "onAdded": [
            {
              "$type": "SetGlobalValue",
              "target": "Team",
              "value": 1.0,
              "key": "DeathZoneGV_ExtraAttack",
              "maxValue": 0.0,
              "minValue": 0.0
            }
          ]
        }
      },
      "onAdded": [
        {
          "$type": "GDHGMAPPGHD",
          "shieldHP": true,
          "key": "ElementLevelCo",
          "damageRatio": "ElementLevelCo"
        },
        {
          "$type": "ApplyModifier",
          "modifierName": "HitWatcher"
        },
        {
          "$type": "ApplyModifier",
          "modifierName": "MaranaMissle_BulletEffect"
        }
      ],
      "onAbilityStart": [
        {
          "$type": "FireEffect",
          "rotationDampTime": "Eff_SceneObj_MaranaMissle_Bullet_Size4_Hit",
          "PPPDJGDDOGD": 1.0,
          "AJDILHJFNKE": -1.0
        },
        {
          "$type": "TriggerAttackEvent",
          "attackEvent": {
            "attackPattern": {
              "$type": "ConfigAttackSphere",
              "triggerType": "TriggerNoRepeat",
              "born": {
                "$type": "ConfigBornByCollisionPoint"
              },
              "radius": 4.0
            },
            "attackInfo": {
              "attackTag": "",
              "attenuationTag": "",
              "attenuationGroup": "default",
              "attackProperty": {
                "actorWindSubHurtDelta": 0.0,
                "elementDurability": 100.0,
                "ignoreAttackerProperty": true,
                "strikeType": "Pierce",
                "enBreak": 50.0,
                "attackType": "Range",
                "HMBONGBFIAP": ["ElementLevelCo", "DamageRatio", "MUL"],
                "trueDamage": true,
                "GLKMCMDJBIK": 0.0
              },
              "hitPattern": {
                "onHitEffectName": "default",
                "hitImpulseY": "",
                "hitImpulseType": "LV5"
              },
              "canBeModifiedBy": "OriginOwner"
            }
          },
          "targetType": "Enemy",
          "entityTypes": ["Avatar"]
        },
        {
          "$type": "RemoveModifier",
          "modifierName": "MaranaMissle_BulletEffect"
        },
        {
          "$type": "KillSelf"
        }
      ]
    }
  },
  {
    "Default": {
      "$type": "ConfigAbility",
      "abilityName": "SceneObj_Area_Xm_Property_Ani_Prop_Elixir_Material_01_Ability",
      "abilityMixins": [
        {
          "$type": "AttachToGadgetStateMixin",
          "gadgetState": 201,
          "modifierName": "EnableGather"
        }
      ],
      "modifiers": {
        "EnableGather": {
          "modifierName": "",
          "elementDurability": 100.0,
          "onAdded": [
            {
              "$type": "AttachEffect",
              "rotationDampTime": "Eff_Item_Hint_Small",
              "PPPDJGDDOGD": 1.0,
              "AJDILHJFNKE": -1.0
            },
            {
              "$type": "ExecuteGadgetLua"
            }
          ]
        }
      }
    }
  },
  {
    "Default": {
      "$type": "ConfigAbility",
      "abilityName": "SceneObj_Area_Xm_Property_Ani_Prop_Elixir_Seal_01_Ability",
      "abilityMixins": [
        {
          "$type": "AttachToGadgetStateMixin",
          "gadgetState": 201,
          "modifierName": "Key01"
        },
        {
          "$type": "AttachToGadgetStateMixin",
          "gadgetState": 202,
          "modifierName": "Key02"
        },
        {
          "$type": "AttachToGadgetStateMixin",
          "gadgetState": 203,
          "modifierName": "Key03"
        },
        {
          "$type": "AttachToGadgetStateMixin",
          "gadgetState": 204,
          "modifierName": "Disappear"
        }
      ],
      "modifiers": {
        "Key01": {
          "modifierName": "",
          "elementDurability": 100.0,
          "onAdded": [
            {
              "$type": "SendEffectTrigger",
              "parameter": "State",
              "attachPoint": "",
              "damageRatio": "Int",
              "value": 201,
              "rotationDampTime": "Eff_SceneObj_Elixir_Seal_01"
            }
          ]
        },
        "Key02": {
          "modifierName": "",
          "elementDurability": 100.0,
          "onAdded": [
            {
              "$type": "SendEffectTrigger",
              "parameter": "State",
              "attachPoint": "",
              "damageRatio": "Int",
              "value": 202,
              "rotationDampTime": "Eff_SceneObj_Elixir_Seal_01"
            }
          ]
        },
        "Key03": {
          "modifierName": "",
          "duration": 1.7999999523162842,
          "elementDurability": 100.0,
          "onAdded": [
            {
              "$type": "SendEffectTrigger",
              "parameter": "State",
              "attachPoint": "",
              "damageRatio": "Int",
              "value": 203,
              "rotationDampTime": "Eff_SceneObj_Elixir_Seal_01"
            }
          ],
          "onRemoved": [
            {
              "$type": "HPIDNBEGJLL",
              "state": 204
            }
          ]
        },
        "Disappear": {
          "modifierName": "",
          "duration": 3.0,
          "elementDurability": 100.0,
          "onAdded": [
            {
              "$type": "SendEffectTrigger",
              "parameter": "State",
              "attachPoint": "",
              "damageRatio": "Int",
              "value": 204,
              "rotationDampTime": "Eff_SceneObj_Elixir_Seal_01"
            },
            {
              "$type": "CLKGEHMNIEF",
              "transformNames": ["Collider"]
            }
          ]
        }
      }
    }
  },
  {
    "Default": {
      "$type": "ConfigAbility",
      "abilityName": "SceneObj_Area_Xm_Property_Prop_Smallsealdoor_01_Ability",
      "abilityMixins": [
        {
          "$type": "AttachToGadgetStateMixin",
          "gadgetState": 201,
          "modifierName": "Key01"
        },
        {
          "$type": "AttachToGadgetStateMixin",
          "gadgetState": 901,
          "modifierName": "Disappear"
        }
      ],
      "modifiers": {
        "Key01": {
          "modifierName": "",
          "elementDurability": 100.0,
          "thinkInterval": 1.600000023841858,
          "onAdded": [
            {
              "$type": "SendEffectTrigger",
              "parameter": "State",
              "attachPoint": "",
              "damageRatio": "Int",
              "rotationDampTime": "Eff_ScenObj_Giantsealdoor_01_Small"
            },
            {
              "$type": "SendEffectTrigger",
              "parameter": "State",
              "attachPoint": "Point1",
              "damageRatio": "Int",
              "value": 1,
              "rotationDampTime": "Eff_ScenObj_Giantsealdoor_02_Small"
            }
          ],
          "onThinkInterval": [
            {
              "$type": "HPIDNBEGJLL",
              "state": 901
            }
          ]
        },
        "Disappear": {
          "modifierName": "",
          "elementDurability": 100.0,
          "onAdded": [
            {
              "$type": "SendEffectTrigger",
              "parameter": "State",
              "attachPoint": "",
              "damageRatio": "Int",
              "value": 1,
              "rotationDampTime": "Eff_ScenObj_Giantsealdoor_01_Small"
            },
            {
              "$type": "SendEffectTrigger",
              "parameter": "State",
              "attachPoint": "Point1",
              "damageRatio": "Int",
              "value": 2,
              "rotationDampTime": "Eff_ScenObj_Giantsealdoor_02_Small"
            },
            {
              "$type": "CLKGEHMNIEF",
              "transformNames": ["AirWall"]
            }
          ]
        }
      },
      "onAdded": [
        {
          "$type": "AttachEffect",
          "rotationDampTime": "Eff_ScenObj_Giantsealdoor_01_Small",
          "born": {
            "$type": "ConfigBornByAttachPoint",
            "attachPointName": "AttachPoint"
          },
          "PPPDJGDDOGD": 1.0,
          "AJDILHJFNKE": -1.0
        },
        {
          "$type": "AttachEffect",
          "rotationDampTime": "Eff_ScenObj_Giantsealdoor_02_Small",
          "born": {
            "$type": "ConfigBornByAttachPoint",
            "useRotation": true,
            "attachPointName": "Point1"
          },
          "PPPDJGDDOGD": 1.0,
          "AJDILHJFNKE": -1.0
        },
        {
          "$type": "MAHNJJFLACM",
          "followPath": "Point1",
          "rotationDampTime": "Eff_ScenObj_Giantsealdoor_02_Small",
          "attachPoint": "Point1"
        },
        {
          "$type": "KillSelf",
          "predicates": [
            {
              "$type": "HNLCJOPBDLC",
              "gadgetState": 901
            }
          ]
        }
      ]
    }
  },
  {
    "Default": {
      "$type": "ConfigAbility",
      "abilityName": "SceneObj_Area_Xm_Property_Prop_Giantsealdoor_01_Ability",
      "modifiers": {
        "EffectControler": {
          "modifierName": "",
          "elementDurability": 100.0,
          "modifierMixins": [
            {
              "$type": "AttachToGadgetStateMixin",
              "gadgetState": 201,
              "modifierName": "Key01"
            },
            {
              "$type": "AttachToGadgetStateMixin",
              "gadgetState": 901,
              "modifierName": "Disappear"
            }
          ]
        },
        "Key01": {
          "modifierName": "",
          "elementDurability": 100.0,
          "thinkInterval": 1.600000023841858,
          "onAdded": [
            {
              "$type": "SendEffectTrigger",
              "parameter": "State",
              "attachPoint": "",
              "damageRatio": "Int",
              "rotationDampTime": "Eff_ScenObj_Giantsealdoor_01"
            },
            {
              "$type": "SendEffectTrigger",
              "parameter": "State",
              "attachPoint": "Point1",
              "damageRatio": "Int",
              "value": 1,
              "rotationDampTime": "Eff_ScenObj_Giantsealdoor_02"
            }
          ],
          "onThinkInterval": [
            {
              "$type": "HPIDNBEGJLL",
              "state": 901
            }
          ]
        },
        "Disappear": {
          "modifierName": "",
          "elementDurability": 100.0,
          "onAdded": [
            {
              "$type": "SendEffectTrigger",
              "parameter": "State",
              "attachPoint": "",
              "damageRatio": "Int",
              "value": 1,
              "rotationDampTime": "Eff_ScenObj_Giantsealdoor_01"
            },
            {
              "$type": "SendEffectTrigger",
              "parameter": "State",
              "attachPoint": "Point1",
              "damageRatio": "Int",
              "value": 2,
              "rotationDampTime": "Eff_ScenObj_Giantsealdoor_02"
            },
            {
              "$type": "CLKGEHMNIEF",
              "transformNames": ["AirWall"]
            }
          ]
        }
      },
      "onAdded": [
        {
          "$type": "AttachEffect",
          "rotationDampTime": "Eff_ScenObj_Giantsealdoor_01",
          "born": {
            "$type": "ConfigBornByAttachPoint",
            "attachPointName": "AttachPoint"
          },
          "PPPDJGDDOGD": 1.0,
          "AJDILHJFNKE": -1.0
        },
        {
          "$type": "AttachEffect",
          "rotationDampTime": "Eff_ScenObj_Giantsealdoor_02",
          "born": {
            "$type": "ConfigBornByAttachPoint",
            "useRotation": true,
            "attachPointName": "Point1"
          },
          "PPPDJGDDOGD": 1.0,
          "AJDILHJFNKE": -1.0
        },
        {
          "$type": "MAHNJJFLACM",
          "followPath": "Point1",
          "rotationDampTime": "Eff_ScenObj_Giantsealdoor_02",
          "attachPoint": "Point1"
        },
        {
          "$type": "KillSelf",
          "predicates": [
            {
              "$type": "HNLCJOPBDLC",
              "gadgetState": 901
            }
          ]
        },
        {
          "$type": "AttachModifier",
          "modifierName": "EffectControler"
        }
      ]
    }
  },
  {
    "Default": {
      "$type": "ConfigAbility",
      "abilityName": "SceneObj_Area_Xm_Property_Prop_Giantsealdoor_02_Ability",
      "modifiers": {
        "EffectControler": {
          "modifierName": "",
          "elementDurability": 100.0,
          "modifierMixins": [
            {
              "$type": "AttachToGadgetStateMixin",
              "gadgetState": 201,
              "modifierName": "Key01"
            },
            {
              "$type": "AttachToGadgetStateMixin",
              "gadgetState": 202,
              "modifierName": "Key02"
            },
            {
              "$type": "AttachToGadgetStateMixin",
              "gadgetState": 901,
              "modifierName": "Disappear"
            }
          ]
        },
        "Key01": {
          "modifierName": "",
          "elementDurability": 100.0,
          "onAdded": [
            {
              "$type": "SendEffectTrigger",
              "parameter": "State",
              "attachPoint": "Point1",
              "damageRatio": "Int",
              "value": 1,
              "rotationDampTime": "Eff_ScenObj_Giantsealdoor_02"
            }
          ]
        },
        "Key02": {
          "modifierName": "",
          "elementDurability": 100.0,
          "thinkInterval": 1.600000023841858,
          "onAdded": [
            {
              "$type": "SendEffectTrigger",
              "parameter": "State",
              "attachPoint": "Point1",
              "damageRatio": "Int",
              "value": 1,
              "rotationDampTime": "Eff_ScenObj_Giantsealdoor_02"
            },
            {
              "$type": "SendEffectTrigger",
              "parameter": "State",
              "attachPoint": "Point2",
              "damageRatio": "Int",
              "value": 1,
              "rotationDampTime": "Eff_ScenObj_Giantsealdoor_02"
            }
          ],
          "onThinkInterval": [
            {
              "$type": "HPIDNBEGJLL",
              "state": 901
            }
          ]
        },
        "Disappear": {
          "modifierName": "",
          "elementDurability": 100.0,
          "onAdded": [
            {
              "$type": "SendEffectTrigger",
              "parameter": "State",
              "attachPoint": "",
              "damageRatio": "Int",
              "value": 1,
              "rotationDampTime": "Eff_ScenObj_Giantsealdoor_01"
            },
            {
              "$type": "SendEffectTrigger",
              "parameter": "State",
              "attachPoint": "Point1",
              "damageRatio": "Int",
              "value": 2,
              "rotationDampTime": "Eff_ScenObj_Giantsealdoor_02"
            },
            {
              "$type": "SendEffectTrigger",
              "parameter": "State",
              "attachPoint": "Point2",
              "damageRatio": "Int",
              "value": 2,
              "rotationDampTime": "Eff_ScenObj_Giantsealdoor_02"
            },
            {
              "$type": "CLKGEHMNIEF",
              "transformNames": ["AirWall"]
            }
          ]
        }
      },
      "onAdded": [
        {
          "$type": "AttachEffect",
          "rotationDampTime": "Eff_ScenObj_Giantsealdoor_01",
          "born": {
            "$type": "ConfigBornByAttachPoint",
            "attachPointName": "AttachPoint"
          },
          "PPPDJGDDOGD": 1.0,
          "AJDILHJFNKE": -1.0
        },
        {
          "$type": "AttachEffect",
          "rotationDampTime": "Eff_ScenObj_Giantsealdoor_02",
          "born": {
            "$type": "ConfigBornByAttachPoint",
            "useRotation": true,
            "attachPointName": "Point1"
          },
          "PPPDJGDDOGD": 1.0,
          "AJDILHJFNKE": -1.0
        },
        {
          "$type": "MAHNJJFLACM",
          "followPath": "Point1",
          "rotationDampTime": "Eff_ScenObj_Giantsealdoor_02",
          "attachPoint": "Point1"
        },
        {
          "$type": "AttachEffect",
          "rotationDampTime": "Eff_ScenObj_Giantsealdoor_02",
          "born": {
            "$type": "ConfigBornByAttachPoint",
            "useRotation": true,
            "attachPointName": "Point2"
          },
          "PPPDJGDDOGD": 1.0,
          "AJDILHJFNKE": -1.0
        },
        {
          "$type": "MAHNJJFLACM",
          "followPath": "Point2",
          "rotationDampTime": "Eff_ScenObj_Giantsealdoor_02",
          "attachPoint": "Point2"
        },
        {
          "$type": "KillSelf",
          "predicates": [
            {
              "$type": "HNLCJOPBDLC",
              "gadgetState": 901
            }
          ]
        },
        {
          "$type": "AttachModifier",
          "modifierName": "EffectControler"
        }
      ]
    }
  },
  {
    "Default": {
      "$type": "ConfigAbility",
      "abilityName": "SceneObj_Area_Xm_Property_Prop_Giantsealdoor_03_Ability",
      "modifiers": {
        "EffectControler": {
          "modifierName": "",
          "elementDurability": 100.0,
          "modifierMixins": [
            {
              "$type": "AttachToGadgetStateMixin",
              "gadgetState": 201,
              "modifierName": "Key01"
            },
            {
              "$type": "AttachToGadgetStateMixin",
              "gadgetState": 202,
              "modifierName": "Key02"
            },
            {
              "$type": "AttachToGadgetStateMixin",
              "gadgetState": 901,
              "modifierName": "Disappear"
            }
          ]
        },
        "Key01": {
          "modifierName": "",
          "elementDurability": 100.0,
          "onAdded": [
            {
              "$type": "SendEffectTrigger",
              "parameter": "State",
              "attachPoint": "Point1",
              "damageRatio": "Int",
              "value": 1,
              "rotationDampTime": "Eff_ScenObj_Giantsealdoor_02_Big"
            }
          ]
        },
        "Key02": {
          "modifierName": "",
          "elementDurability": 100.0,
          "thinkInterval": 1.600000023841858,
          "onAdded": [
            {
              "$type": "SendEffectTrigger",
              "parameter": "State",
              "attachPoint": "Point1",
              "damageRatio": "Int",
              "value": 1,
              "rotationDampTime": "Eff_ScenObj_Giantsealdoor_02_Big"
            },
            {
              "$type": "SendEffectTrigger",
              "parameter": "State",
              "attachPoint": "Point2",
              "damageRatio": "Int",
              "value": 1,
              "rotationDampTime": "Eff_ScenObj_Giantsealdoor_02_Big"
            }
          ],
          "onThinkInterval": [
            {
              "$type": "HPIDNBEGJLL",
              "state": 901
            }
          ]
        },
        "Disappear": {
          "modifierName": "",
          "elementDurability": 100.0,
          "onAdded": [
            {
              "$type": "SendEffectTrigger",
              "parameter": "State",
              "attachPoint": "",
              "damageRatio": "Int",
              "value": 1,
              "rotationDampTime": "Eff_ScenObj_Giantsealdoor_01_Big"
            },
            {
              "$type": "SendEffectTrigger",
              "parameter": "State",
              "attachPoint": "Point1",
              "damageRatio": "Int",
              "value": 2,
              "rotationDampTime": "Eff_ScenObj_Giantsealdoor_02_Big"
            },
            {
              "$type": "SendEffectTrigger",
              "parameter": "State",
              "attachPoint": "Point2",
              "damageRatio": "Int",
              "value": 2,
              "rotationDampTime": "Eff_ScenObj_Giantsealdoor_02_Big"
            },
            {
              "$type": "CLKGEHMNIEF",
              "transformNames": ["AirWall"]
            }
          ]
        }
      },
      "onAdded": [
        {
          "$type": "AttachEffect",
          "rotationDampTime": "Eff_ScenObj_Giantsealdoor_01_Big",
          "born": {
            "$type": "ConfigBornByAttachPoint",
            "attachPointName": "AttachPoint"
          },
          "PPPDJGDDOGD": 1.0,
          "AJDILHJFNKE": -1.0
        },
        {
          "$type": "AttachEffect",
          "rotationDampTime": "Eff_ScenObj_Giantsealdoor_02_Big",
          "born": {
            "$type": "ConfigBornByAttachPoint",
            "useRotation": true,
            "attachPointName": "Point1"
          },
          "PPPDJGDDOGD": 1.0,
          "AJDILHJFNKE": -1.0
        },
        {
          "$type": "MAHNJJFLACM",
          "followPath": "Point1",
          "rotationDampTime": "Eff_ScenObj_Giantsealdoor_02_Big",
          "attachPoint": "Point1"
        },
        {
          "$type": "AttachEffect",
          "rotationDampTime": "Eff_ScenObj_Giantsealdoor_02_Big",
          "born": {
            "$type": "ConfigBornByAttachPoint",
            "useRotation": true,
            "attachPointName": "Point2"
          },
          "PPPDJGDDOGD": 1.0,
          "AJDILHJFNKE": -1.0
        },
        {
          "$type": "MAHNJJFLACM",
          "followPath": "Point2",
          "rotationDampTime": "Eff_ScenObj_Giantsealdoor_02_Big",
          "attachPoint": "Point2"
        },
        {
          "$type": "KillSelf",
          "predicates": [
            {
              "$type": "HNLCJOPBDLC",
              "gadgetState": 901
            }
          ]
        },
        {
          "$type": "AttachModifier",
          "modifierName": "EffectControler"
        }
      ]
    }
  },
  {
    "Default": {
      "$type": "ConfigAbility",
      "abilityName": "SceneObj_Area_Xm_Property_Prop_Giantsealdoor_04_Ability",
      "modifiers": {
        "EffectControler": {
          "modifierName": "",
          "elementDurability": 100.0,
          "modifierMixins": [
            {
              "$type": "AttachToGadgetStateMixin",
              "gadgetState": 201,
              "modifierName": "Key01"
            },
            {
              "$type": "AttachToGadgetStateMixin",
              "gadgetState": 202,
              "modifierName": "Key02"
            },
            {
              "$type": "AttachToGadgetStateMixin",
              "gadgetState": 203,
              "modifierName": "Key03"
            },
            {
              "$type": "AttachToGadgetStateMixin",
              "gadgetState": 901,
              "modifierName": "Disappear"
            }
          ]
        },
        "Key01": {
          "modifierName": "",
          "elementDurability": 100.0,
          "onAdded": [
            {
              "$type": "SendEffectTrigger",
              "parameter": "State",
              "attachPoint": "Point1",
              "damageRatio": "Int",
              "value": 1,
              "rotationDampTime": "Eff_ScenObj_Giantsealdoor_02_Big"
            }
          ]
        },
        "Key02": {
          "modifierName": "",
          "elementDurability": 100.0,
          "onAdded": [
            {
              "$type": "SendEffectTrigger",
              "parameter": "State",
              "attachPoint": "Point1",
              "damageRatio": "Int",
              "value": 1,
              "rotationDampTime": "Eff_ScenObj_Giantsealdoor_02_Big"
            },
            {
              "$type": "SendEffectTrigger",
              "parameter": "State",
              "attachPoint": "Point2",
              "damageRatio": "Int",
              "value": 1,
              "rotationDampTime": "Eff_ScenObj_Giantsealdoor_02_Big"
            }
          ]
        },
        "Key03": {
          "modifierName": "",
          "elementDurability": 100.0,
          "thinkInterval": 1.600000023841858,
          "onAdded": [
            {
              "$type": "SendEffectTrigger",
              "parameter": "State",
              "attachPoint": "Point1",
              "damageRatio": "Int",
              "value": 1,
              "rotationDampTime": "Eff_ScenObj_Giantsealdoor_02_Big"
            },
            {
              "$type": "SendEffectTrigger",
              "parameter": "State",
              "attachPoint": "Point2",
              "damageRatio": "Int",
              "value": 1,
              "rotationDampTime": "Eff_ScenObj_Giantsealdoor_02_Big"
            },
            {
              "$type": "SendEffectTrigger",
              "parameter": "State",
              "attachPoint": "Point3",
              "damageRatio": "Int",
              "value": 1,
              "rotationDampTime": "Eff_ScenObj_Giantsealdoor_02_Big"
            }
          ],
          "onThinkInterval": [
            {
              "$type": "HPIDNBEGJLL",
              "state": 901
            }
          ]
        },
        "Disappear": {
          "modifierName": "",
          "elementDurability": 100.0,
          "onAdded": [
            {
              "$type": "SendEffectTrigger",
              "parameter": "State",
              "attachPoint": "",
              "damageRatio": "Int",
              "value": 1,
              "rotationDampTime": "Eff_ScenObj_Giantsealdoor_01_Big"
            },
            {
              "$type": "SendEffectTrigger",
              "parameter": "State",
              "attachPoint": "Point1",
              "damageRatio": "Int",
              "value": 2,
              "rotationDampTime": "Eff_ScenObj_Giantsealdoor_02_Big"
            },
            {
              "$type": "SendEffectTrigger",
              "parameter": "State",
              "attachPoint": "Point2",
              "damageRatio": "Int",
              "value": 2,
              "rotationDampTime": "Eff_ScenObj_Giantsealdoor_02_Big"
            },
            {
              "$type": "SendEffectTrigger",
              "parameter": "State",
              "attachPoint": "Point3",
              "damageRatio": "Int",
              "value": 2,
              "rotationDampTime": "Eff_ScenObj_Giantsealdoor_02_Big"
            },
            {
              "$type": "CLKGEHMNIEF",
              "transformNames": ["AirWall"]
            }
          ]
        }
      },
      "onAdded": [
        {
          "$type": "AttachEffect",
          "rotationDampTime": "Eff_ScenObj_Giantsealdoor_01_Big",
          "born": {
            "$type": "ConfigBornByAttachPoint",
            "attachPointName": "AttachPoint"
          },
          "PPPDJGDDOGD": 1.0,
          "AJDILHJFNKE": -1.0
        },
        {
          "$type": "AttachEffect",
          "rotationDampTime": "Eff_ScenObj_Giantsealdoor_02_Big",
          "born": {
            "$type": "ConfigBornByAttachPoint",
            "useRotation": true,
            "attachPointName": "Point1"
          },
          "PPPDJGDDOGD": 1.0,
          "AJDILHJFNKE": -1.0
        },
        {
          "$type": "MAHNJJFLACM",
          "followPath": "Point1",
          "rotationDampTime": "Eff_ScenObj_Giantsealdoor_02_Big",
          "attachPoint": "Point1"
        },
        {
          "$type": "AttachEffect",
          "rotationDampTime": "Eff_ScenObj_Giantsealdoor_02_Big",
          "born": {
            "$type": "ConfigBornByAttachPoint",
            "useRotation": true,
            "attachPointName": "Point2"
          },
          "PPPDJGDDOGD": 1.0,
          "AJDILHJFNKE": -1.0
        },
        {
          "$type": "MAHNJJFLACM",
          "followPath": "Point2",
          "rotationDampTime": "Eff_ScenObj_Giantsealdoor_02_Big",
          "attachPoint": "Point2"
        },
        {
          "$type": "AttachEffect",
          "rotationDampTime": "Eff_ScenObj_Giantsealdoor_02_Big",
          "born": {
            "$type": "ConfigBornByAttachPoint",
            "useRotation": true,
            "attachPointName": "Point3"
          },
          "PPPDJGDDOGD": 1.0,
          "AJDILHJFNKE": -1.0
        },
        {
          "$type": "MAHNJJFLACM",
          "followPath": "Point3",
          "rotationDampTime": "Eff_ScenObj_Giantsealdoor_02_Big",
          "attachPoint": "Point3"
        },
        {
          "$type": "KillSelf",
          "predicates": [
            {
              "$type": "HNLCJOPBDLC",
              "gadgetState": 901
            }
          ]
        },
        {
          "$type": "AttachModifier",
          "modifierName": "EffectControler"
        }
      ]
    }
  },
  {
    "Default": {
      "$type": "ConfigAbility",
      "abilityName": "SceneObj_Area_Xm_Property_Ani_Prop_AncientTablets_01_Ability",
      "abilityMixins": [
        {
          "$type": "AttachToGadgetStateMixin",
          "modifierName": "SeparateState"
        },
        {
          "$type": "AttachToGadgetStateMixin",
          "gadgetState": 1,
          "modifierName": "RepairedState"
        },
        {
          "$type": "AttachToGadgetStateMixin",
          "gadgetState": 201,
          "modifierName": "ActiveState"
        },
        {
          "$type": "LNEJGOMCBMO",
          "succActions": [
            {
              "$type": "HPIDNBEGJLL",
              "predicates": [
                {
                  "$type": "HNLCJOPBDLC",
                  "target": "Self",
                  "gadgetState": 1
                }
              ],
              "state": 201
            }
          ]
        }
      ],
      "modifiers": {
        "SeparateState": {
          "modifierName": "",
          "elementDurability": 100.0,
          "onAdded": [
            {
              "$type": "JPAAAOLNENF"
            },
            {
              "$type": "ANNOBMCGOEC",
              "canBeHandledOnRecover": true,
              "matName": "Mat",
              "EKHLCLJELIP": "_EmissionStrength",
              "value": 2.0
            }
          ],
          "onBeingHit": [
            {
              "$type": "HPIDNBEGJLL",
              "predicates": [
                {
                  "$type": "ByAttackTags",
                  "attackTags": ["Activity_Lannaluo_Type_01"]
                }
              ],
              "state": 1
            }
          ]
        },
        "RepairedState": {
          "modifierName": "",
          "elementDurability": 100.0,
          "onAdded": [
            {
              "$type": "JPAAAOLNENF",
              "enable": true
            },
            {
              "$type": "ANNOBMCGOEC",
              "canBeHandledOnRecover": true,
              "matName": "Mat",
              "EKHLCLJELIP": "_EmissionStrength",
              "value": 0.0,
              "useCurve": true,
              "lerpTime": 1.0
            },
            {
              "$type": "SetGlobalValue",
              "value": 1.0,
              "key": "BreathLight",
              "maxValue": 0.0,
              "minValue": 0.0
            },
            {
              "$type": "AttachModifier",
              "modifierName": "BreathLight"
            }
          ],
          "onRemoved": [
            {
              "$type": "FireEffect",
              "rotationDampTime": "Eff_SceneObj_AncientTablets_Active_01",
              "PPPDJGDDOGD": 1.0,
              "AJDILHJFNKE": -1.0
            }
          ]
        },
        "BreathLight": {
          "modifierName": "",
          "elementDurability": 100.0,
          "thinkInterval": 1.0,
          "onThinkInterval": [
            {
              "$type": "Predicated",
              "targetPredicates": [
                {
                  "$type": "ByTargetGlobalValue",
                  "key": "BreathLight",
                  "value": 1.0
                }
              ],
              "successActions": [
                {
                  "$type": "ANNOBMCGOEC",
                  "canBeHandledOnRecover": true,
                  "matName": "Mat",
                  "EKHLCLJELIP": "_EmissionStrength",
                  "value": 0.0,
                  "useCurve": true,
                  "lerpTime": 1.0
                },
                {
                  "$type": "SetGlobalValue",
                  "value": 0.0,
                  "key": "BreathLight",
                  "maxValue": 0.0,
                  "minValue": 0.0
                }
              ],
              "failActions": [
                {
                  "$type": "ANNOBMCGOEC",
                  "canBeHandledOnRecover": true,
                  "matName": "Mat",
                  "EKHLCLJELIP": "_EmissionStrength",
                  "value": 2.0,
                  "useCurve": true,
                  "lerpTime": 1.0
                },
                {
                  "$type": "SetGlobalValue",
                  "value": 1.0,
                  "key": "BreathLight",
                  "maxValue": 0.0,
                  "minValue": 0.0
                }
              ]
            }
          ]
        },
        "ActiveState": {
          "modifierName": "",
          "elementDurability": 100.0,
          "onAdded": [
            {
              "$type": "JPAAAOLNENF"
            },
            {
              "$type": "ANNOBMCGOEC",
              "canBeHandledOnRecover": true,
              "matName": "Mat",
              "EKHLCLJELIP": "_EmissionStrength",
              "value": 2.0,
              "useCurve": true,
              "lerpTime": 1.0
            },
            {
              "$type": "AttachEffect",
              "rotationDampTime": "Eff_SceneObj_AncientTablets_Active_01_Loop",
              "PPPDJGDDOGD": 1.0,
              "AJDILHJFNKE": -1.0
            }
          ]
        }
      },
      "onAdded": [
        {
          "$type": "AttachAbilityStateResistance",
          "resistanceListID": 11002
        }
      ]
    }
  },
  {
    "Default": {
      "$type": "ConfigAbility",
      "abilityName": "SceneObj_Area_Xm_Property_Ani_Prop_AncientTablets_02_Ability",
      "abilityMixins": [
        {
          "$type": "AttachToGadgetStateMixin",
          "modifierName": "DownState"
        },
        {
          "$type": "AttachToGadgetStateMixin",
          "gadgetState": 1,
          "modifierName": "UpState"
        },
        {
          "$type": "AttachToGadgetStateMixin",
          "gadgetState": 201,
          "modifierName": "ActiveState"
        },
        {
          "$type": "AttachToAnimatorStateIDMixin",
          "stateIDs": ["UP"],
          "modifierName": "WaterEffect",
          "DGFCLAIDIFI": ""
        },
        {
          "$type": "LNEJGOMCBMO",
          "succActions": [
            {
              "$type": "HPIDNBEGJLL",
              "predicates": [
                {
                  "$type": "HNLCJOPBDLC",
                  "target": "Self",
                  "gadgetState": 1
                }
              ],
              "state": 201
            }
          ]
        }
      ],
      "modifiers": {
        "DownState": {
          "modifierName": "",
          "elementDurability": 100.0,
          "onAdded": [
            {
              "$type": "JPAAAOLNENF"
            },
            {
              "$type": "ANNOBMCGOEC",
              "canBeHandledOnRecover": true,
              "matName": "Mat",
              "EKHLCLJELIP": "_EmissionStrength",
              "value": 2.0
            }
          ],
          "onBeingHit": [
            {
              "$type": "HPIDNBEGJLL",
              "predicates": [
                {
                  "$type": "ByAttackTags",
                  "attackTags": ["Activity_Lannaluo_Type_03"]
                }
              ],
              "state": 1
            }
          ]
        },
        "UpState": {
          "modifierName": "",
          "elementDurability": 100.0,
          "onAdded": [
            {
              "$type": "JPAAAOLNENF",
              "enable": true
            },
            {
              "$type": "ANNOBMCGOEC",
              "canBeHandledOnRecover": true,
              "matName": "Mat",
              "EKHLCLJELIP": "_EmissionStrength",
              "value": 0.0,
              "useCurve": true,
              "lerpTime": 1.0
            },
            {
              "$type": "SetGlobalValue",
              "value": 1.0,
              "key": "BreathLight",
              "maxValue": 0.0,
              "minValue": 0.0
            },
            {
              "$type": "AttachModifier",
              "modifierName": "BreathLight"
            }
          ],
          "onRemoved": [
            {
              "$type": "FireEffect",
              "rotationDampTime": "Eff_SceneObj_AncientTablets_Active_01",
              "born": {
                "$type": "ConfigBornByAttachPoint",
                "attachPointName": "RootNode"
              },
              "PPPDJGDDOGD": 1.0,
              "AJDILHJFNKE": -1.0
            }
          ]
        },
        "BreathLight": {
          "modifierName": "",
          "elementDurability": 100.0,
          "thinkInterval": 1.0,
          "onThinkInterval": [
            {
              "$type": "Predicated",
              "targetPredicates": [
                {
                  "$type": "ByTargetGlobalValue",
                  "key": "BreathLight",
                  "value": 1.0
                }
              ],
              "successActions": [
                {
                  "$type": "ANNOBMCGOEC",
                  "canBeHandledOnRecover": true,
                  "matName": "Mat",
                  "EKHLCLJELIP": "_EmissionStrength",
                  "value": 0.0,
                  "useCurve": true,
                  "lerpTime": 1.0
                },
                {
                  "$type": "SetGlobalValue",
                  "value": 0.0,
                  "key": "BreathLight",
                  "maxValue": 0.0,
                  "minValue": 0.0
                }
              ],
              "failActions": [
                {
                  "$type": "ANNOBMCGOEC",
                  "canBeHandledOnRecover": true,
                  "matName": "Mat",
                  "EKHLCLJELIP": "_EmissionStrength",
                  "value": 2.0,
                  "useCurve": true,
                  "lerpTime": 1.0
                },
                {
                  "$type": "SetGlobalValue",
                  "value": 1.0,
                  "key": "BreathLight",
                  "maxValue": 0.0,
                  "minValue": 0.0
                }
              ]
            }
          ]
        },
        "ActiveState": {
          "modifierName": "",
          "elementDurability": 100.0,
          "onAdded": [
            {
              "$type": "JPAAAOLNENF"
            },
            {
              "$type": "ANNOBMCGOEC",
              "canBeHandledOnRecover": true,
              "matName": "Mat",
              "EKHLCLJELIP": "_EmissionStrength",
              "value": 2.0,
              "useCurve": true,
              "lerpTime": 1.0
            },
            {
              "$type": "AttachEffect",
              "rotationDampTime": "Eff_SceneObj_AncientTablets_Active_01_Loop",
              "born": {
                "$type": "ConfigBornByAttachPoint",
                "attachPointName": "RootNode"
              },
              "PPPDJGDDOGD": 1.0,
              "AJDILHJFNKE": -1.0
            }
          ]
        },
        "WaterEffect": {
          "modifierName": "",
          "elementDurability": 100.0,
          "onAdded": [
            {
              "$type": "FireEffect",
              "rotationDampTime": "Eff_SceneObj_AncientTablets_02_UpFWater",
              "born": {
                "$type": "ConfigBornByAttachPoint",
                "attachPointName": "RootNode"
              },
              "PPPDJGDDOGD": 1.0,
              "AJDILHJFNKE": -1.0
            }
          ]
        }
      },
      "onAdded": [
        {
          "$type": "AttachAbilityStateResistance",
          "resistanceListID": 11002
        }
      ]
    }
  },
  {
    "Default": {
      "$type": "ConfigAbility",
      "abilityName": "SceneObj_Area_Xm_Property_Ani_Prop_BrokeGrassTablet_01_Ability",
      "abilityMixins": [
        {
          "$type": "AttachToGadgetStateMixin",
          "modifierName": "IdleState"
        },
        {
          "$type": "AttachToGadgetStateMixin",
          "gadgetState": 100,
          "modifierName": "RepairingState"
        },
        {
          "$type": "AttachToGadgetStateMixin",
          "gadgetState": 1,
          "modifierName": "RepairedState"
        }
      ],
      "modifiers": {
        "IdleState": {
          "modifierName": "",
          "elementDurability": 100.0,
          "modifierMixins": [
            {
              "$type": "OFKNIPKCFEC",
              "musicId": 12,
              "range": 8.0,
              "onSuccess": [
                {
                  "$type": "HPIDNBEGJLL",
                  "state": 100
                }
              ]
            }
          ],
          "onAdded": [
            {
              "$type": "SendEffectTrigger",
              "parameter": "gadgetState",
              "attachPoint": "",
              "damageRatio": "Int",
              "rotationDampTime": "Eff_SceneObj_Elem_Grass"
            },
            {
              "$type": "EnableHitBoxByName",
              "hitBoxNames": ["hiboxRepair"],
              "setEnable": true
            },
            {
              "$type": "EnableHitBoxByName",
              "hitBoxNames": ["hitboxCore"]
            }
          ],
          "onBeingHit": [
            {
              "$type": "HPIDNBEGJLL",
              "predicates": [
                {
                  "$type": "ByAttackTags",
                  "attackTags": ["Activity_Lannaluo_Type_01"]
                }
              ],
              "state": 100
            }
          ]
        },
        "RepairingState": {
          "modifierName": "",
          "duration": 1.2000000476837158,
          "elementDurability": 100.0,
          "onAdded": [
            {
              "$type": "FireEffect",
              "rotationDampTime": "Eff_SceneObj_BrokeGrassTablet_01",
              "PPPDJGDDOGD": 1.0,
              "AJDILHJFNKE": -1.0
            },
            {
              "$type": "EnableHitBoxByName",
              "hitBoxNames": ["hiboxRepair"]
            },
            {
              "$type": "EnableHitBoxByName",
              "hitBoxNames": ["hitboxCore"]
            }
          ],
          "onRemoved": [
            {
              "$type": "HPIDNBEGJLL",
              "state": 1
            }
          ]
        },
        "RepairedState": {
          "modifierName": "",
          "duration": 0.5,
          "elementDurability": 100.0,
          "onRemoved": [
            {
              "$type": "CLKGEHMNIEF",
              "transformNames": ["RootNode"]
            },
            {
              "$type": "EnableHitBoxByName",
              "hitBoxNames": ["hiboxRepair"]
            },
            {
              "$type": "EnableHitBoxByName",
              "hitBoxNames": ["hitboxCore"]
            },
            {
              "$type": "KillSelf",
              "hideEntity": true
            }
          ]
        }
      },
      "onAdded": [
        {
          "$type": "AttachAbilityStateResistance",
          "resistanceListID": 11002
        },
        {
          "$type": "CLKGEHMNIEF",
          "predicates": [
            {
              "$type": "ByAny",
              "predicates": [
                {
                  "$type": "HNLCJOPBDLC"
                },
                {
                  "$type": "HNLCJOPBDLC",
                  "gadgetState": 100
                }
              ]
            }
          ],
          "transformNames": ["RootNode"],
          "setEnable": true
        }
      ]
    }
  },
  {
    "Default": {
      "$type": "ConfigAbility",
      "abilityName": "SceneObj_Area_Xm_Property_Ani_Stone_RelicRock_01_Ability",
      "abilityMixins": [
        {
          "$type": "AttachToGadgetStateMixin",
          "modifierName": "IdleState"
        },
        {
          "$type": "AttachToGadgetStateMixin",
          "gadgetState": 201,
          "modifierName": "DestoryState"
        }
      ],
      "modifiers": {
        "IdleState": {
          "modifierName": "",
          "elementDurability": 100.0,
          "onBeingHit": [
            {
              "$type": "HPIDNBEGJLL",
              "predicates": [
                {
                  "$type": "ByAttackTags",
                  "attackTags": ["Activity_Lannaluo_Type_02"]
                }
              ],
              "state": 201
            }
          ]
        },
        "DestoryState": {
          "modifierName": "",
          "duration": 1.0,
          "elementDurability": 100.0,
          "modifierMixins": [
            {
              "$type": "JKCFEGPLHOA",
              "transName": "Collider",
              "tag": "Airwall"
            }
          ],
          "onAdded": [
            {
              "$type": "SetAnimatorTrigger",
              "triggerID": "Disappear",
              "mpTriggerOnRemote": true
            }
          ],
          "onRemoved": [
            {
              "$type": "FireEffect",
              "rotationDampTime": "Eff_SceneObj_Stone_RelicRock_Disappear",
              "born": {
                "$type": "ConfigBornByAttachPoint",
                "attachPointName": "RootNode"
              },
              "PPPDJGDDOGD": 1.0,
              "AJDILHJFNKE": -1.0
            },
            {
              "$type": "KillSelf"
            }
          ]
        }
      }
    }
  },
  {
    "Default": {
      "$type": "ConfigAbility",
      "abilityName": "SceneObj_Area_Xm_Property_Ani_Stone_RelicRock_02_Ability",
      "abilityMixins": [
        {
          "$type": "AttachToGadgetStateMixin",
          "modifierName": "IdleState"
        },
        {
          "$type": "AttachToGadgetStateMixin",
          "gadgetState": 201,
          "modifierName": "DestoryState"
        }
      ],
      "modifiers": {
        "IdleState": {
          "modifierName": "",
          "elementDurability": 100.0,
          "onBeingHit": [
            {
              "$type": "HPIDNBEGJLL",
              "predicates": [
                {
                  "$type": "ByAttackTags",
                  "attackTags": ["Activity_Lannaluo_Type_02"]
                }
              ],
              "state": 201
            }
          ]
        },
        "DestoryState": {
          "modifierName": "",
          "duration": 1.0,
          "elementDurability": 100.0,
          "modifierMixins": [
            {
              "$type": "JKCFEGPLHOA",
              "transName": "Collider",
              "tag": "Airwall"
            }
          ],
          "onAdded": [
            {
              "$type": "SetAnimatorTrigger",
              "triggerID": "Disappear",
              "mpTriggerOnRemote": true
            }
          ],
          "onRemoved": [
            {
              "$type": "FireEffect",
              "rotationDampTime": "Eff_SceneObj_Stone_RelicRock_Disappear",
              "born": {
                "$type": "ConfigBornByAttachPoint",
                "attachPointName": "RootNode"
              },
              "PPPDJGDDOGD": 1.0,
              "AJDILHJFNKE": -1.0
            },
            {
              "$type": "KillSelf"
            }
          ]
        }
      }
    }
  }
]
