[
  {
    "Default": {
      "$type": "ConfigAbility",
      "abilityName": "SceneObj_Area_Xm_Property_Ani_Prop_AkaFesArchaeologyDetector_01",
      "modifiers": {
        "UNIQUE_AkaFes_DetectorUsedCall": {
          "modifierName": "",
          "forceTriggerWhenChangeAuthority": true,
          "elementDurability": 100.0,
          "onAdded": [
            {
              "$type": "AHPEKICBIIL",
              "luaCallType": "CurGalleryControlGroup",
              "funcName": "SLC_Activity_AkaFesArchaeology_ScannerUsed",
              "param1": 0.0,
              "MGAMDEHMCOL": 0.0,
              "MMHOHAOGPLP": 0.0
            }
          ]
        },
        "EffectMaterial": {
          "modifierName": "",
          "elementDurability": 100.0,
          "modifierMixins": [
            {
              "$type": "KJDOGGCKOPK",
              "targetIDs": [70291058, 70291060],
              "valueSteps": [0.0, 6.0],
              "modifierNameSteps": ["ShowTreasure"],
              "blendParam": "Blend",
              "blendDistance": [0.0, 60.0],
              "rotationDampTime": "Eff_SceneObj_AkaFesArchaeology_DetectorExist_01",
              "setDistanceToGv": true,
              "distanceGvKey": "ArcheoScannerDistance"
            },
            {
              "$type": "KJDOGGCKOPK",
              "targetIDs": [70291058, 70291060],
              "valueSteps": [0.0, 6.0],
              "modifierNameSteps": ["Blank"],
              "blendParam": "Blend",
              "blendDistance": [0.0, 60.0],
              "rotationDampTime": "Eff_SceneObj_AkaFesArchaeology_DetectorShow_01",
              "distanceGvKey": ""
            }
          ],
          "onAdded": [
            {
              "$type": "ANNOBMCGOEC",
              "matName": "CoreMat",
              "EKHLCLJELIP": "_DissolveValue",
              "value": 1.0
            },
            {
              "$type": "ANNOBMCGOEC",
              "matName": "CoreMat",
              "EKHLCLJELIP": "_DissolveValue",
              "value": 0.0,
              "useCurve": true,
              "lerpCurveIndex": 1,
              "lerpTime": 0.5
            },
            {
              "$type": "AttachEffect",
              "rotationDampTime": "Eff_SceneObj_AkaFesArchaeology_DetectorExist_01",
              "born": {
                "$type": "ConfigBornByAttachPoint",
                "useRotation": true,
                "attachPointName": "AttachPoint"
              },
              "PPPDJGDDOGD": 1.0,
              "AJDILHJFNKE": -1.0
            },
            {
              "$type": "ApplyModifier",
              "modifierName": "BornEffect"
            }
          ]
        },
        "BornEffect": {
          "modifierName": "",
          "duration": 0.20000000298023224,
          "elementDurability": 100.0,
          "onRemoved": [
            {
              "$type": "FireEffect",
              "rotationDampTime": "Eff_SceneObj_AkaFesArchaeology_DetectorShow_01",
              "born": {
                "$type": "ConfigBornByAttachPoint",
                "useRotation": true,
                "attachPointName": "AttachPoint"
              },
              "PPPDJGDDOGD": 1.0,
              "AJDILHJFNKE": -1.0
            }
          ]
        },
        "ShowTreasure": {
          "modifierName": "",
          "elementDurability": 100.0,
          "thinkInterval": 0.20000000298023224,
          "onThinkInterval": [
            {
              "$type": "Predicated",
              "otherTargets": {
                "$type": "PBLNLAENOGB",
                "sortType": "Nearest",
                "tag": "AkaFesArchaeology"
              },
              "targetPredicates": [
                {
                  "$type": "ByTargetPositionToSelfPosition",
                  "logic": "LesserOrEqual",
                  "compareType": "XYZ",
                  "value": 6.0,
                  "DDALGNLEHOD": ""
                }
              ],
              "successActions": [
                {
                  "$type": "ApplyModifier",
                  "target": "Target",
                  "modifierName": "UNIQUE_Activity_SetArcheoTargetGV"
                }
              ]
            }
          ]
        },
        "Blank": {
          "modifierName": "",
          "elementDurability": 100.0
        },
        "UNIQUE_Activity_SetArcheoTargetGV": {
          "modifierName": "",
          "forceTriggerWhenChangeAuthority": true,
          "elementDurability": 100.0,
          "onAdded": [
            {
              "$type": "SetGlobalValue",
              "value": 1.0,
              "key": "NeedShow",
              "maxValue": 0.0,
              "minValue": 0.0
            }
          ]
        }
      },
      "onAdded": [
        {
          "$type": "AttachModifier",
          "modifierName": "EffectMaterial"
        },
        {
          "$type": "SetGlobalValue",
          "value": 60.0,
          "key": "ArcheoScannerDistance",
          "maxValue": 0.0,
          "minValue": 0.0
        },
        {
          "$type": "AttachModifier",
          "modifierName": "UNIQUE_AkaFes_DetectorUsedCall"
        }
      ],
      "onKill": [
        {
          "$type": "RemoveModifier",
          "modifierName": "EffectMaterial"
        },
        {
          "$type": "ANNOBMCGOEC",
          "matName": "CoreMat",
          "EKHLCLJELIP": "_DissolveValue",
          "value": 1.0,
          "useCurve": true,
          "lerpCurveIndex": 1,
          "lerpTime": 0.5
        }
      ]
    }
  },
  {
    "Default": {
      "$type": "ConfigAbility",
      "abilityName": "SceneObj_Area_Common_Property_Ani_Prop_AkaFesArchaeologyNoiseHint_01",
      "modifiers": {
        "ShowMark": {
          "modifierName": "",
          "elementDurability": 100.0,
          "modifierMixins": [
            {
              "$type": "CDBKJPGJABH",
              "prefabName": "Eff_SceneObj_AkaFesArchaeologyNoiseHint_01_Loop",
              "checkShowByDistance": true,
              "overrideBillboardDistance": 13.0
            }
          ]
        }
      },
      "onAdded": [
        {
          "$type": "ApplyModifier",
          "modifierName": "ShowMark"
        }
      ]
    }
  },
  {
    "Default": {
      "$type": "ConfigAbility",
      "abilityName": "SceneObj_Area_Common_Property_Ani_Prop_AkaFesArchaeologyTreasure_01",
      "abilityMixins": [
        {
          "$type": "AttachToGadgetStateMixin",
          "modifierName": "HideTreasure"
        },
        {
          "$type": "AttachToGadgetStateMixin",
          "gadgetState": 201,
          "modifierName": "ShowTreasure"
        },
        {
          "$type": "DoActionOnGlobalValueChangeMixin",
          "globalValueKey": "NeedShow",
          "actions": [
            {
              "$type": "Predicated",
              "targetPredicates": [
                {
                  "$type": "ByTargetGlobalValue",
                  "target": "Self",
                  "key": "NeedShow",
                  "value": 1.0
                }
              ],
              "successActions": [
                {
                  "$type": "HPIDNBEGJLL",
                  "state": 201
                }
              ]
            }
          ]
        }
      ],
      "modifiers": {
        "HideTreasure": {
          "modifierName": "",
          "elementDurability": 100.0,
          "onAdded": [
            {
              "$type": "SetGlobalValue",
              "value": 0.0,
              "key": "NeedShow",
              "maxValue": 0.0,
              "minValue": 0.0
            }
          ]
        },
        "ShowTreasure": {
          "modifierName": "",
          "elementDurability": 100.0,
          "onAdded": [
            {
              "$type": "AttachModifier",
              "modifierName": "AddEffect"
            }
          ]
        },
        "AddEffect": {
          "stacking": "Unique",
          "modifierName": "",
          "elementDurability": 100.0,
          "onAdded": [
            {
              "$type": "AttachEffect",
              "rotationDampTime": "Eff_QuestGuide_Position",
              "PPPDJGDDOGD": 1.0,
              "AJDILHJFNKE": -1.0
            }
          ]
        }
      },
      "onAdded": [
        {
          "$type": "SetGlobalValue",
          "value": 0.0,
          "key": "NeedShow",
          "maxValue": 0.0,
          "minValue": 0.0
        },
        {
          "$type": "AOOCGNCCAJB",
          "isAdd": true,
          "tag": "AkaFesArchaeology"
        }
      ],
      "onKill": [
        {
          "$type": "FireEffect",
          "rotationDampTime": "Eff_Item_SpecialTreasureBox_Born",
          "PPPDJGDDOGD": 1.0,
          "AJDILHJFNKE": -1.0
        }
      ]
    }
  },
  {
    "Default": {
      "$type": "ConfigAbility",
      "abilityName": "SceneObj_Area_Common_Property_Ani_Prop_AkaFesArchaeologyNoisePoint_01",
      "abilityMixins": [
        {
          "$type": "AttachToGadgetStateMixin",
          "modifierName": "HideNoise"
        },
        {
          "$type": "AttachToGadgetStateMixin",
          "gadgetState": 201,
          "modifierName": "ShowNoise"
        },
        {
          "$type": "DoActionOnGlobalValueChangeMixin",
          "globalValueKey": "NeedShow",
          "actions": [
            {
              "$type": "Predicated",
              "targetPredicates": [
                {
                  "$type": "ByTargetGlobalValue",
                  "target": "Self",
                  "key": "NeedShow",
                  "value": 1.0
                }
              ],
              "successActions": [
                {
                  "$type": "HPIDNBEGJLL",
                  "state": 201
                }
              ]
            }
          ]
        }
      ],
      "modifiers": {
        "HideNoise": {
          "modifierName": "",
          "elementDurability": 100.0,
          "onAdded": [
            {
              "$type": "SetGlobalValue",
              "value": 0.0,
              "key": "NeedShow",
              "maxValue": 0.0,
              "minValue": 0.0
            }
          ]
        },
        "ShowNoise": {
          "modifierName": "",
          "elementDurability": 100.0,
          "onAdded": [
            {
              "$type": "SetGlobalValue",
              "value": 1.0,
              "key": "NeedShow",
              "maxValue": 0.0,
              "minValue": 0.0
            }
          ]
        }
      },
      "onAdded": [
        {
          "$type": "SetGlobalValue",
          "value": 0.0,
          "key": "NeedShow",
          "maxValue": 0.0,
          "minValue": 0.0
        },
        {
          "$type": "AOOCGNCCAJB",
          "isAdd": true,
          "tag": "AkaFesArchaeology"
        }
      ]
    }
  },
  {
    "Default": {
      "$type": "ConfigAbility",
      "abilityName": "SceneObj_Area_Common_Property_Ani_Prop_AkaFesArchaeologyTreasureHint_01",
      "abilityMixins": [
        {
          "$type": "JPPFBGJICKI",
          "key": "SGV_Server_Show_Range",
          "maxValue": 0.0,
          "minValue": 0.0
        }
      ]
    }
  }
]
