[
  {
    "Default": {
      "$type": "ConfigAbility",
      "abilityName": "SceneObj_Area_Xm_Property_Ani_Prop_XuMiVisualizationplant_01_Ability",
      "abilityMixins": [
        {
          "$type": "AttachModifierToSelfGlobalValueNoInitMixin",
          "globalValueKey": "GrassState",
          "valueSteps": [-10.0, 10.0, 210.0, 310.0],
          "modifierNameSteps": ["NormalState", "ExcitedState", "DestoryState"]
        }
      ],
      "modifiers": {
        "NormalState": {
          "modifierName": "",
          "elementDurability": 100.0,
          "onAdded": [
            {
              "$type": "SetAnimatorInt",
              "intID": "gadgetState",
              "value": 0.0
            },
            {
              "$type": "AttachEffect",
              "rotationDampTime": "Eff_SceneObj_XuMiVisualizationplant_01",
              "PPPDJGDDOGD": 1.0,
              "AJDILHJFNKE": -1.0
            }
          ],
          "onRemoved": [
            {
              "$type": "FireEffect",
              "rotationDampTime": "Eff_SceneObj_XuMiVisualizationplant_01_Disappear",
              "PPPDJGDDOGD": 1.0,
              "AJDILHJFNKE": -1.0
            }
          ]
        },
        "ExcitedState": {
          "modifierName": "",
          "elementDurability": 100.0,
          "onAdded": [
            {
              "$type": "AttachEffect",
              "rotationDampTime": "Eff_SceneObj_XuMiVisualizationplant_02",
              "PPPDJGDDOGD": 1.0,
              "AJDILHJFNKE": -1.0
            },
            {
              "$type": "SetAnimatorInt",
              "intID": "gadgetState",
              "value": 200.0
            }
          ]
        },
        "DestoryState": {
          "modifierName": "",
          "elementDurability": 100.0,
          "onAdded": [
            {
              "$type": "SetAnimatorInt",
              "intID": "gadgetState",
              "value": 300.0
            }
          ]
        }
      },
      "onAdded": [
        {
          "$type": "SetGlobalValue",
          "value": 5.0,
          "key": "GV_ExcitedDuration",
          "maxValue": 0.0,
          "minValue": 0.0
        },
        {
          "$type": "SetGlobalValue",
          "value": 3.0,
          "key": "WisdomImpactLevel",
          "maxValue": 0.0,
          "minValue": 0.0
        }
      ]
    }
  },
  {
    "Default": {
      "$type": "ConfigAbility",
      "abilityName": "SceneObj_Area_Xm_Property_Ani_Prop_XuMiBombmushroom_01_Ability",
      "abilityMixins": [
        {
          "$type": "AttachModifierToSelfGlobalValueNoInitMixin",
          "globalValueKey": "GrassState",
          "valueSteps": [-10.0, 10.0, 210.0, 310.0],
          "modifierNameSteps": ["NormalState", "ExcitedState", "DestoryState"]
        },
        {
          "$type": "AttachModifierToSelfGlobalValueNoInitMixin",
          "globalValueKey": "GasCD",
          "valueSteps": [-0.5, 0.5, 1.5],
          "modifierNameSteps": ["TryTrigger", "CDTimer"],
          "removeAppliedModifier": false
        },
        {
          "$type": "FieldEntityCountChangeMixin",
          "campTargetType": "All",
          "targetPredicates": [
            {
              "$type": "ByEntityTypes",
              "entityTypes": ["Avatar"]
            }
          ],
          "simpleCountGlobaValueKey": "AvatarCount",
          "simpleCountMaxValue": 0.0,
          "simpleCountMinValue": 0.0
        },
        {
          "$type": "AttachToStateIDMixin",
          "stateIDs": ["Excited"],
          "modifierName": "PoisonGasLoop",
          "DGFCLAIDIFI": ""
        }
      ],
      "modifiers": {
        "CDTimer": {
          "modifierName": "",
          "duration": 2.9000000953674316,
          "elementDurability": 100.0,
          "onRemoved": [
            {
              "$type": "SetGlobalValue",
              "value": 0.0,
              "key": "GasCD",
              "maxValue": 0.0,
              "minValue": 0.0
            }
          ]
        },
        "TryTrigger": {
          "modifierName": "",
          "duration": 0.10000000149011612,
          "elementDurability": 100.0,
          "onRemoved": [
            {
              "$type": "Predicated",
              "targetPredicates": [
                {
                  "$type": "ByTargetGlobalValue",
                  "key": "AvatarCount",
                  "value": 1.0,
                  "compareType": "MoreThanAndEqual"
                },
                {
                  "$type": "ByTargetGlobalValue",
                  "key": "GrassState",
                  "value": 0.0
                }
              ],
              "successActions": [
                {
                  "$type": "SetAnimatorTrigger",
                  "triggerID": "Attack",
                  "mpTriggerOnRemote": true
                },
                {
                  "$type": "SetGlobalValue",
                  "value": 1.0,
                  "key": "GasCD",
                  "maxValue": 0.0,
                  "minValue": 0.0
                }
              ]
            }
          ]
        },
        "NormalState": {
          "modifierName": "",
          "elementDurability": 100.0,
          "modifierMixins": [
            {
              "$type": "AttachModifierToSelfGlobalValueNoInitMixin",
              "globalValueKey": "AvatarCount",
              "valueSteps": [-0.5, 0.5, 4.5],
              "modifierNameSteps": ["NoAvatar", "HasAvatar"]
            }
          ],
          "onAdded": [
            {
              "$type": "SetAnimatorInt",
              "intID": "GrassState",
              "value": 0.0
            }
          ]
        },
        "NoAvatar": {
          "modifierName": "",
          "elementDurability": 100.0,
          "onAdded": [
            {
              "$type": "SetAnimatorInt",
              "intID": "FieldEnter",
              "value": 0.0
            },
            {
              "$type": "ResetAnimatorTrigger",
              "triggerID": "Attack"
            }
          ]
        },
        "HasAvatar": {
          "modifierName": "",
          "elementDurability": 100.0,
          "onAdded": [
            {
              "$type": "SetAnimatorInt",
              "intID": "FieldEnter",
              "value": 1.0
            },
            {
              "$type": "Predicated",
              "targetPredicates": [
                {
                  "$type": "ByTargetGlobalValue",
                  "key": "GasCD",
                  "value": 0.0
                }
              ],
              "successActions": [
                {
                  "$type": "SetAnimatorTrigger",
                  "triggerID": "Attack",
                  "mpTriggerOnRemote": true
                },
                {
                  "$type": "SetGlobalValue",
                  "value": 1.0,
                  "key": "GasCD",
                  "maxValue": 0.0,
                  "minValue": 0.0
                }
              ]
            }
          ]
        },
        "ExcitedState": {
          "modifierName": "",
          "elementDurability": 100.0,
          "onAdded": [
            {
              "$type": "SetAnimatorInt",
              "intID": "GrassState",
              "value": 200.0
            }
          ]
        },
        "DestoryState": {
          "modifierName": "",
          "elementDurability": 100.0,
          "onAdded": [
            {
              "$type": "SetAnimatorInt",
              "intID": "GrassState",
              "value": 300.0
            },
            {
              "$type": "ResetAnimatorTrigger",
              "triggerID": "Attack"
            }
          ]
        },
        "PoisonGasLoop": {
          "modifierName": "",
          "elementDurability": 100.0,
          "modifierMixins": [
            {
              "$type": "JCINFLKHMKH",
              "thinkInterval": 0.5,
              "onThinkInterval": [
                {
                  "$type": "TriggerAbility",
                  "abilityName": "SceneObj_Area_Xm_Property_Ani_Prop_XuMiBombmushroom_01_Attack02"
                }
              ]
            }
          ],
          "onAdded": [
            {
              "$type": "DebugLog",
              "content": "TD_Test: Attach PoisonGasLoop!!!!!!!!!!!"
            },
            {
              "$type": "FireEffect",
              "rotationDampTime": "Eff_SceneObj_XuMiBombmushroom_02",
              "born": {
                "$type": "ConfigBornByAttachPoint",
                "attachPointName": "RootNode"
              },
              "PPPDJGDDOGD": 1.0,
              "AJDILHJFNKE": -1.0
            },
            {
              "$type": "AttachEffect",
              "rotationDampTime": "Eff_SceneObj_XuMiBombmushroom_02_Loop",
              "born": {
                "$type": "ConfigBornByAttachPoint",
                "attachPointName": "RootNode"
              },
              "PPPDJGDDOGD": 1.0,
              "AJDILHJFNKE": -1.0
            },
            {
              "$type": "TriggerAbility",
              "abilityName": "SceneObj_Area_Xm_Property_Ani_Prop_XuMiBombmushroom_01_Attack02"
            }
          ]
        }
      },
      "onAdded": [
        {
          "$type": "SetGlobalValue",
          "value": 6.0,
          "key": "GV_ExcitedDuration",
          "maxValue": 0.0,
          "minValue": 0.0
        },
        {
          "$type": "SetGlobalValue",
          "value": 2.0,
          "key": "WisdomImpactLevel",
          "maxValue": 0.0,
          "minValue": 0.0
        },
        {
          "$type": "SetGlobalValue",
          "value": 1.0,
          "key": "GasCD",
          "maxValue": 0.0,
          "minValue": 0.0
        }
      ]
    }
  },
  {
    "Default": {
      "$type": "ConfigAbility",
      "abilityName": "SceneObj_Area_Xm_Property_Ani_Prop_XuMiBombmushroom_01_Attack01",
      "abilitySpecials": {
        "AvatarDamageValue": 1.5,
        "MonsterDamageValue": 1.5,
        "DamageSystemValue": 1.0
      },
      "modifiers": {
        "PoisonGas01": {
          "stacking": "MultipleRefresh",
          "stackingOption": {
            "abilitySpecialName": "",
            "maxModifierNumForMultipleType": 1.0
          },
          "modifierName": "",
          "elementDurability": 100.0,
          "onAdded": [
            {
              "$type": "FireEffect",
              "rotationDampTime": "Eff_SceneObj_XuMiBombmushroom_01",
              "born": {
                "$type": "ConfigBornByAttachPoint",
                "attachPointName": "ShootPoint"
              },
              "PPPDJGDDOGD": 1.0,
              "AJDILHJFNKE": -1.0
            }
          ]
        },
        "DelayAttack": {
          "modifierName": "",
          "duration": 0.5,
          "elementDurability": 100.0,
          "onRemoved": [
            {
              "$type": "TriggerAttackEvent",
              "attackEvent": {
                "attackPattern": {
                  "$type": "ConfigAttackSphere",
                  "triggerType": "TriggerNoRepeat",
                  "radius": 4.0
                },
                "attackInfo": {
                  "attackTag": "",
                  "attenuationTag": "",
                  "attenuationGroup": "default",
                  "attackProperty": {
                    "actorWindSubHurtDelta": 0.0,
                    "elementType": "Grass",
                    "elementDurability": 25.0,
                    "ignoreAttackerProperty": true,
                    "strikeType": "Default",
                    "enBreak": 0.0,
                    "attackType": "Range",
                    "HMBONGBFIAP": [
                      "AvatarDamageValue",
                      "DamageSystemValue",
                      "MUL"
                    ],
                    "trueDamage": true,
                    "GLKMCMDJBIK": 0.0
                  },
                  "hitPattern": {
                    "onHitEffectName": "default",
                    "hitImpulseY": "",
                    "hitImpulseType": "LV1"
                  }
                }
              },
              "targetType": "Enemy",
              "entityTypes": ["Avatar"]
            },
            {
              "$type": "TriggerAttackEvent",
              "attackEvent": {
                "attackPattern": {
                  "$type": "ConfigAttackSphere",
                  "triggerType": "TriggerNoRepeat",
                  "radius": 4.0
                },
                "attackInfo": {
                  "attackTag": "",
                  "attenuationTag": "",
                  "attenuationGroup": "default",
                  "attackProperty": {
                    "actorWindSubHurtDelta": 0.0,
                    "elementType": "Grass",
                    "elementDurability": 25.0,
                    "ignoreAttackerProperty": true,
                    "strikeType": "Default",
                    "enBreak": 20.0,
                    "attackType": "Range",
                    "HMBONGBFIAP": [
                      "MonsterDamageValue",
                      "DamageSystemValue",
                      "MUL"
                    ],
                    "trueDamage": true,
                    "GLKMCMDJBIK": 0.0
                  },
                  "hitPattern": {
                    "onHitEffectName": "default",
                    "hitImpulseY": "",
                    "hitImpulseType": "LV2"
                  }
                }
              },
              "targetType": "Enemy",
              "entityTypes": ["Monster"]
            }
          ]
        }
      },
      "onAdded": [
        {
          "$type": "GDHGMAPPGHD",
          "key": "DamageSystemValue",
          "damageRatio": "ElementLevelCo"
        }
      ],
      "onAbilityStart": [
        {
          "$type": "ApplyModifier",
          "modifierName": "PoisonGas01"
        },
        {
          "$type": "ApplyModifier",
          "modifierName": "DelayAttack"
        }
      ]
    }
  },
  {
    "Default": {
      "$type": "ConfigAbility",
      "abilityName": "SceneObj_Area_Xm_Property_Ani_Prop_XuMiBombmushroom_01_Attack02",
      "abilitySpecials": {
        "AvatarDamageValue": 0.4000000059604645,
        "MonsterDamageValue": 0.4000000059604645,
        "DamageSystemValue": 1.0
      },
      "modifiers": {
        "PoisonGas02": {
          "stacking": "MultipleRefresh",
          "stackingOption": {
            "abilitySpecialName": "",
            "maxModifierNumForMultipleType": 1.0
          },
          "modifierName": "",
          "elementDurability": 100.0,
          "onAdded": [
            {
              "$type": "TriggerAttackEvent",
              "attackEvent": {
                "attackPattern": {
                  "$type": "ConfigAttackSphere",
                  "triggerType": "TriggerNoRepeat",
                  "radius": 4.0
                },
                "attackInfo": {
                  "attackTag": "",
                  "attenuationTag": "",
                  "attenuationGroup": "default",
                  "attackProperty": {
                    "actorWindSubHurtDelta": 0.0,
                    "elementType": "Grass",
                    "elementDurability": 25.0,
                    "ignoreAttackerProperty": true,
                    "strikeType": "Default",
                    "enBreak": 0.0,
                    "attackType": "Range",
                    "HMBONGBFIAP": [
                      "AvatarDamageValue",
                      "DamageSystemValue",
                      "MUL"
                    ],
                    "trueDamage": true,
                    "GLKMCMDJBIK": 0.0
                  },
                  "hitPattern": {
                    "onHitEffectName": "default",
                    "hitImpulseY": "",
                    "hitImpulseType": "LV1"
                  }
                }
              },
              "targetType": "Enemy",
              "entityTypes": ["Avatar"]
            },
            {
              "$type": "TriggerAttackEvent",
              "attackEvent": {
                "attackPattern": {
                  "$type": "ConfigAttackSphere",
                  "triggerType": "TriggerNoRepeat",
                  "radius": 4.0
                },
                "attackInfo": {
                  "attackTag": "",
                  "attenuationTag": "",
                  "attenuationGroup": "default",
                  "attackProperty": {
                    "actorWindSubHurtDelta": 0.0,
                    "elementType": "Grass",
                    "elementDurability": 25.0,
                    "ignoreAttackerProperty": true,
                    "strikeType": "Default",
                    "enBreak": 20.0,
                    "attackType": "Range",
                    "HMBONGBFIAP": [
                      "MonsterDamageValue",
                      "DamageSystemValue",
                      "MUL"
                    ],
                    "trueDamage": true,
                    "GLKMCMDJBIK": 0.0
                  },
                  "hitPattern": {
                    "onHitEffectName": "default",
                    "hitImpulseY": "",
                    "hitImpulseType": "LV2"
                  }
                }
              },
              "targetType": "Enemy",
              "entityTypes": ["Monster"]
            }
          ]
        }
      },
      "onAdded": [
        {
          "$type": "GDHGMAPPGHD",
          "key": "DamageSystemValue",
          "damageRatio": "ElementLevelCo"
        }
      ],
      "onAbilityStart": [
        {
          "$type": "ApplyModifier",
          "modifierName": "PoisonGas02"
        }
      ]
    }
  },
  {
    "Default": {
      "$type": "ConfigAbility",
      "abilityName": "SceneObj_Area_Xm_Property_Ani_Prop_XuMiLifeMushroom_01_Ability",
      "abilityMixins": [
        {
          "$type": "AttachModifierToSelfGlobalValueNoInitMixin",
          "globalValueKey": "GrassState",
          "valueSteps": [10.0, 210.0],
          "modifierNameSteps": ["ExcitedState"]
        }
      ],
      "modifiers": {
        "ExcitedState": {
          "modifierName": "",
          "elementDurability": 100.0,
          "onAdded": [
            {
              "$type": "AttachEffect",
              "rotationDampTime": "Eff_SceneObj_XuMiLifeMushroom_01",
              "PPPDJGDDOGD": 1.0,
              "AJDILHJFNKE": -1.0
            }
          ]
        }
      },
      "onAdded": [
        {
          "$type": "SetGlobalValue",
          "value": 10.0,
          "key": "GV_ExcitedDuration",
          "maxValue": 0.0,
          "minValue": 0.0
        },
        {
          "$type": "SetGlobalValue",
          "value": 1.0,
          "key": "WisdomImpactLevel",
          "maxValue": 0.0,
          "minValue": 0.0
        }
      ]
    }
  },
  {
    "Default": {
      "$type": "ConfigAbility",
      "abilityName": "SceneObj_Area_Xm_Property_Ani_Prop_XuMiRisingShitou_01_Ability",
      "abilityMixins": [
        {
          "$type": "AttachModifierToSelfGlobalValueNoInitMixin",
          "globalValueKey": "GrassState",
          "valueSteps": [-10.0, 10.0, 210.0, 310.0],
          "modifierNameSteps": ["NormalState", "ExcitedState", "DestoryState"]
        },
        {
          "$type": "AttachToStateIDMixin",
          "stateIDs": ["HasHitBox"],
          "modifierName": "State_HasHitBox",
          "DGFCLAIDIFI": ""
        },
        {
          "$type": "AttachToStateIDMixin",
          "stateIDs": ["NoHitBox"],
          "modifierName": "State_NoHitBox",
          "DGFCLAIDIFI": ""
        },
        {
          "$type": "AttachToNormalizedTimeMixin",
          "stateID": "NtoW",
          "modifierName": "HitAll",
          "normalizeStart": 0.5,
          "normalizeEnd": 0.75,
          "DGFCLAIDIFI": ""
        }
      ],
      "abilitySpecials": {
        "ElementLevelCo": 1.0,
        "DamageRatio": 1.0
      },
      "modifiers": {
        "HitAll": {
          "modifierName": "",
          "duration": 0.30000001192092896,
          "elementDurability": 100.0,
          "onAdded": [
            {
              "$type": "TriggerAttackEvent",
              "attackEvent": {
                "attackPattern": {
                  "$type": "ConfigAttackSphere",
                  "triggerType": "TriggerNoRepeat",
                  "born": {
                    "$type": "ConfigBornBySelf",
                    "offset": {
                      "x": 0.0,
                      "y": 1.0,
                      "z": 0.0
                    }
                  },
                  "radius": 2.5
                },
                "attackInfo": {
                  "attackTag": "",
                  "attenuationTag": "",
                  "attenuationGroup": "default",
                  "attackProperty": {
                    "actorGrassSubHurtDelta": 0.0,
                    "actorWindSubHurtDelta": 0.0,
                    "elementDurability": 100.0,
                    "strikeType": "Pierce",
                    "enBreak": 200.0,
                    "attackType": "Range",
                    "ignoreLevelDiff": true,
                    "GLKMCMDJBIK": 0.0
                  },
                  "hitPattern": {
                    "onHitEffectName": "default",
                    "hitImpulseY": "",
                    "hitImpulseType": "LV4",
                    "hitHaltTimeScale": 0.05000000074505806
                  }
                }
              },
              "targetType": "AllExceptSelf"
            }
          ]
        },
        "NormalState": {
          "modifierName": "",
          "elementDurability": 100.0,
          "onAdded": [
            {
              "$type": "SetAnimatorInt",
              "intID": "gadgetState",
              "value": 0.0
            },
            {
              "$type": "CLKGEHMNIEF",
              "transformNames": ["Collider0"]
            },
            {
              "$type": "CLKGEHMNIEF",
              "transformNames": ["Collider200"]
            },
            {
              "$type": "CLKGEHMNIEF",
              "transformNames": ["Collider300"]
            }
          ]
        },
        "ExcitedState": {
          "modifierName": "",
          "elementDurability": 100.0,
          "onAdded": [
            {
              "$type": "SetAnimatorInt",
              "intID": "gadgetState",
              "value": 200.0
            },
            {
              "$type": "CLKGEHMNIEF",
              "transformNames": ["Collider0"]
            },
            {
              "$type": "CLKGEHMNIEF",
              "transformNames": ["Collider200"]
            },
            {
              "$type": "CLKGEHMNIEF",
              "transformNames": ["Collider300"]
            }
          ]
        },
        "DestoryState": {
          "modifierName": "",
          "elementDurability": 100.0,
          "onAdded": [
            {
              "$type": "SetAnimatorInt",
              "intID": "gadgetState",
              "value": 300.0
            },
            {
              "$type": "CLKGEHMNIEF",
              "transformNames": ["Collider0"]
            },
            {
              "$type": "CLKGEHMNIEF",
              "transformNames": ["Collider200"]
            },
            {
              "$type": "CLKGEHMNIEF",
              "transformNames": ["Collider300"]
            }
          ]
        },
        "State_HasHitBox": {
          "modifierName": "",
          "elementDurability": 100.0,
          "onAdded": [
            {
              "$type": "CLKGEHMNIEF",
              "predicates": [
                {
                  "$type": "ByTargetGlobalValue",
                  "key": "GrassState",
                  "value": 0.0
                }
              ],
              "transformNames": ["Collider0"],
              "setEnable": true
            },
            {
              "$type": "CLKGEHMNIEF",
              "predicates": [
                {
                  "$type": "ByTargetGlobalValue",
                  "key": "GrassState",
                  "value": 200.0
                }
              ],
              "transformNames": ["Collider200"],
              "setEnable": true
            },
            {
              "$type": "CLKGEHMNIEF",
              "predicates": [
                {
                  "$type": "ByTargetGlobalValue",
                  "key": "GrassState",
                  "value": 300.0,
                  "compareType": "MoreThanAndEqual"
                }
              ],
              "transformNames": ["Collider300"],
              "setEnable": true
            },
            {
              "$type": "EnableHitBoxByName",
              "predicates": [
                {
                  "$type": "ByTargetGlobalValue",
                  "key": "GrassState",
                  "value": 0.0
                }
              ],
              "hitBoxNames": ["HitBox0"],
              "setEnable": true
            },
            {
              "$type": "EnableHitBoxByName",
              "predicates": [
                {
                  "$type": "ByTargetGlobalValue",
                  "key": "GrassState",
                  "value": 200.0
                }
              ],
              "hitBoxNames": ["HitBox200"],
              "setEnable": true
            },
            {
              "$type": "EnableHitBoxByName",
              "predicates": [
                {
                  "$type": "ByTargetGlobalValue",
                  "key": "GrassState",
                  "value": 300.0,
                  "compareType": "MoreThanAndEqual"
                }
              ],
              "hitBoxNames": ["HitBox300"],
              "setEnable": true
            }
          ]
        },
        "State_NoHitBox": {
          "modifierName": "",
          "elementDurability": 100.0,
          "modifierMixins": [
            {
              "$type": "JKCFEGPLHOA",
              "transName": "Collider0",
              "tag": "Airwall"
            },
            {
              "$type": "JKCFEGPLHOA",
              "transName": "Collider200",
              "tag": "Airwall"
            },
            {
              "$type": "JKCFEGPLHOA",
              "transName": "Collider300",
              "tag": "Airwall"
            }
          ],
          "onAdded": [
            {
              "$type": "EnableHitBoxByName",
              "hitBoxNames": ["HitBox0"]
            },
            {
              "$type": "EnableHitBoxByName",
              "hitBoxNames": ["HitBox200"]
            },
            {
              "$type": "EnableHitBoxByName",
              "hitBoxNames": ["HitBox300"]
            }
          ]
        }
      },
      "onAdded": [
        {
          "$type": "SetGlobalValue",
          "value": 10.0,
          "key": "GV_ExcitedDuration",
          "maxValue": 0.0,
          "minValue": 0.0
        },
        {
          "$type": "SetGlobalValue",
          "value": 3.0,
          "key": "WisdomImpactLevel",
          "maxValue": 0.0,
          "minValue": 0.0
        },
        {
          "$type": "ApplyModifier",
          "predicates": [
            {
              "$type": "ByAny",
              "predicates": [
                {
                  "$type": "HNLCJOPBDLC",
                  "target": "Self",
                  "gadgetState": 202
                },
                {
                  "$type": "HNLCJOPBDLC",
                  "target": "Self",
                  "gadgetState": 300
                },
                {
                  "$type": "HNLCJOPBDLC",
                  "target": "Self",
                  "gadgetState": 301
                }
              ]
            }
          ],
          "modifierName": "HitAll"
        }
      ]
    }
  },
  {
    "Default": {
      "$type": "ConfigAbility",
      "abilityName": "SceneObj_Area_Xm_Property_Ani_Prop_LotusLeaf_01_Ability",
      "abilityMixins": [
        {
          "$type": "AttachModifierToSelfGlobalValueNoInitMixin",
          "globalValueKey": "GrassState",
          "valueSteps": [-10.0, 10.0, 210.0, 310.0],
          "modifierNameSteps": ["NormalState", "ExcitedState", "DestoryState"]
        },
        {
          "$type": "DoActionOnGlobalValueChangeMixin",
          "globalValueKey": "GrassState",
          "actions": [
            {
              "$type": "FireEffect",
              "rotationDampTime": "Eff_Monster_Slime_Grass_JumpPrepared",
              "PPPDJGDDOGD": 1.0,
              "AJDILHJFNKE": -1.0
            }
          ]
        }
      ],
      "modifiers": {
        "NormalState": {
          "modifierName": "",
          "elementDurability": 100.0,
          "onAdded": [
            {
              "$type": "SetAnimatorInt",
              "intID": "gadgetState",
              "value": 0.0
            },
            {
              "$type": "SetAnimatorInt",
              "intID": "platformState",
              "value": 0.0
            },
            {
              "$type": "ANNOBMCGOEC",
              "canBeHandledOnRecover": true,
              "matName": "Conversion",
              "EKHLCLJELIP": "_ConversionSpread",
              "value": 0.0,
              "useCurve": true,
              "lerpTime": 1.0
            }
          ]
        },
        "ExcitedState": {
          "modifierName": "",
          "elementDurability": 100.0,
          "onAdded": [
            {
              "$type": "SetAnimatorInt",
              "intID": "gadgetState",
              "value": 200.0
            },
            {
              "$type": "SetAnimatorInt",
              "intID": "platformState",
              "value": 1.0
            },
            {
              "$type": "ANNOBMCGOEC",
              "canBeHandledOnRecover": true,
              "matName": "Conversion",
              "EKHLCLJELIP": "_ConversionSpread",
              "value": 2.0,
              "useCurve": true,
              "lerpTime": 1.0
            }
          ]
        },
        "DestoryState": {
          "modifierName": "",
          "elementDurability": 100.0,
          "onAdded": [
            {
              "$type": "SetAnimatorInt",
              "intID": "gadgetState",
              "value": 300.0
            },
            {
              "$type": "SetAnimatorInt",
              "intID": "platformState",
              "value": 0.0
            },
            {
              "$type": "ANNOBMCGOEC",
              "canBeHandledOnRecover": true,
              "matName": "Conversion",
              "EKHLCLJELIP": "_ConversionSpread",
              "value": -2.0,
              "useCurve": true,
              "lerpTime": 1.0
            }
          ]
        }
      },
      "onAdded": [
        {
          "$type": "SetGlobalValue",
          "value": 10.0,
          "key": "GV_ExcitedDuration",
          "maxValue": 0.0,
          "minValue": 0.0
        },
        {
          "$type": "SetGlobalValue",
          "value": 2.0,
          "key": "WisdomImpactLevel",
          "maxValue": 0.0,
          "minValue": 0.0
        }
      ]
    }
  },
  {
    "Default": {
      "$type": "ConfigAbility",
      "abilityName": "SceneObj_Area_Xm_Property_Ani_Prop_JumpMushroom_01_Ability",
      "abilityMixins": [
        {
          "$type": "AttachModifierToSelfGlobalValueNoInitMixin",
          "globalValueKey": "GrassState",
          "valueSteps": [-10.0, 10.0, 210.0, 310.0],
          "modifierNameSteps": ["NormalState", "ExcitedState", "DestoryState"]
        }
      ],
      "modifiers": {
        "NormalState": {
          "modifierName": "",
          "elementDurability": 100.0,
          "modifierMixins": [
            {
              "$type": "HNBPIFIDPIP",
              "abilityName": "Avatar_Trampoline_Jump_Controller",
              "isExcitedState": false,
              "selfAbilityName": ""
            }
          ],
          "onAdded": [
            {
              "$type": "SetAnimatorInt",
              "intID": "gadgetState",
              "value": 0.0
            }
          ]
        },
        "ExcitedState": {
          "modifierName": "",
          "elementDurability": 100.0,
          "modifierMixins": [
            {
              "$type": "HNBPIFIDPIP",
              "abilityName": "Avatar_Trampoline_Jump_Controller",
              "selfAbilityName": ""
            }
          ],
          "onAdded": [
            {
              "$type": "SetAnimatorInt",
              "intID": "gadgetState",
              "value": 200.0
            }
          ]
        },
        "DestoryState": {
          "modifierName": "",
          "elementDurability": 100.0,
          "modifierMixins": [
            {
              "$type": "NFLDENAPHCO"
            }
          ],
          "onAdded": [
            {
              "$type": "SetAnimatorInt",
              "intID": "gadgetState",
              "value": 300.0
            }
          ]
        }
      },
      "onAdded": [
        {
          "$type": "SetGlobalValue",
          "value": 10.0,
          "key": "GV_ExcitedDuration",
          "maxValue": 0.0,
          "minValue": 0.0
        },
        {
          "$type": "SetGlobalValue",
          "value": 2.0,
          "key": "WisdomImpactLevel",
          "maxValue": 0.0,
          "minValue": 0.0
        }
      ]
    }
  },
  {
    "Default": {
      "$type": "ConfigAbility",
      "abilityName": "SceneObj_Area_Xm_Property_Ani_Prop_Lens_01_Ability",
      "abilityMixins": [
        {
          "$type": "AttachModifierToSelfGlobalValueNoInitMixin",
          "globalValueKey": "GrassState",
          "valueSteps": [-10.0, 10.0, 210.0, 310.0],
          "modifierNameSteps": ["NormalState", "ExcitedState", "DestoryState"]
        }
      ],
      "modifiers": {
        "AttachLensEffect": {
          "modifierName": "",
          "elementDurability": 100.0,
          "onAdded": [
            {
              "$type": "AttachEffect",
              "rotationDampTime": "Eff_SceneObj_Lens_01",
              "born": {
                "$type": "ConfigBornByAttachPoint",
                "attachPointName": "LensPoint"
              },
              "PPPDJGDDOGD": 1.0,
              "AJDILHJFNKE": -1.0
            }
          ]
        },
        "NormalState": {
          "modifierName": "",
          "elementDurability": 100.0,
          "onAdded": [
            {
              "$type": "JPAAAOLNENF",
              "enable": true
            },
            {
              "$type": "SendEffectTrigger",
              "parameter": "GadgetState",
              "attachPoint": "",
              "damageRatio": "Int",
              "rotationDampTime": "Eff_SceneObj_Lens_01"
            },
            {
              "$type": "AttachModifier",
              "modifierName": "UNIQUE_LensInteract_Smoke"
            },
            {
              "$type": "ANNOBMCGOEC",
              "matName": "Mat_Lens",
              "EKHLCLJELIP": "_ConversionStateChange",
              "value": 0.0,
              "useCurve": true,
              "lerpCurveIndex": 1,
              "lerpTime": 1.0
            }
          ]
        },
        "ExcitedState": {
          "modifierName": "",
          "elementDurability": 100.0,
          "onAdded": [
            {
              "$type": "JPAAAOLNENF",
              "enable": true
            },
            {
              "$type": "SendEffectTrigger",
              "parameter": "GadgetState",
              "attachPoint": "",
              "damageRatio": "Int",
              "value": 201,
              "rotationDampTime": "Eff_SceneObj_Lens_01"
            },
            {
              "$type": "AttachEffect",
              "rotationDampTime": "Eff_SceneObj_Lens_03",
              "born": {
                "$type": "ConfigBornByAttachPoint",
                "attachPointName": "LensPoint"
              },
              "PPPDJGDDOGD": 1.0,
              "AJDILHJFNKE": -1.0
            },
            {
              "$type": "ANNOBMCGOEC",
              "matName": "Mat_Lens",
              "EKHLCLJELIP": "_ConversionStateChange",
              "value": 2.0,
              "useCurve": true,
              "lerpCurveIndex": 1,
              "lerpTime": 1.0
            },
            {
              "$type": "AttachModifier",
              "modifierName": "UNIQUE_LensInteract_Aranara"
            }
          ],
          "onRemoved": [
            {
              "$type": "FireEffect",
              "predicates": [
                {
                  "$type": "ByTargetGlobalValue",
                  "key": "GrassState",
                  "value": 0.0
                },
                {
                  "$type": "ByTargetGlobalValue",
                  "key": "GV_Lens_Open_Excited",
                  "value": 0.0
                }
              ],
              "rotationDampTime": "Eff_SceneObj_Lens_04",
              "born": {
                "$type": "ConfigBornByAttachPoint",
                "attachPointName": "LensPoint"
              },
              "PPPDJGDDOGD": 1.0,
              "AJDILHJFNKE": -1.0
            }
          ]
        },
        "DestoryState": {
          "modifierName": "",
          "elementDurability": 100.0,
          "onAdded": [
            {
              "$type": "JPAAAOLNENF"
            },
            {
              "$type": "SendEffectTrigger",
              "parameter": "GadgetState",
              "attachPoint": "",
              "damageRatio": "Int",
              "value": 301,
              "rotationDampTime": "Eff_SceneObj_Lens_01"
            },
            {
              "$type": "AttachEffect",
              "rotationDampTime": "Eff_SceneObj_Lens_05",
              "born": {
                "$type": "ConfigBornByAttachPoint",
                "attachPointName": "LensPoint"
              },
              "PPPDJGDDOGD": 1.0,
              "AJDILHJFNKE": -1.0
            },
            {
              "$type": "ANNOBMCGOEC",
              "matName": "Mat_Lens",
              "EKHLCLJELIP": "_ConversionStateChange",
              "value": -1.0,
              "useCurve": true,
              "lerpCurveIndex": 1,
              "lerpTime": 1.0
            }
          ],
          "onRemoved": [
            {
              "$type": "FireEffect",
              "rotationDampTime": "Eff_SceneObj_Lens_02",
              "born": {
                "$type": "ConfigBornByAttachPoint",
                "attachPointName": "LensPoint"
              },
              "PPPDJGDDOGD": 1.0,
              "AJDILHJFNKE": -1.0
            }
          ]
        },
        "UNIQUE_LensInteract_Smoke": {
          "stacking": "Unique",
          "modifierName": "",
          "forceTriggerWhenChangeAuthority": true,
          "elementDurability": 100.0,
          "modifierMixins": [
            {
              "$type": "AEGLMCMJMLE",
              "uiMessageId": "OpenPage",
              "actionList": [
                {
                  "$type": "DebugLog",
                  "content": "#DeathZoneLens# open page-smoke"
                }
              ]
            },
            {
              "$type": "AEGLMCMJMLE",
              "uiMessageId": "ClosePage",
              "actionList": [
                {
                  "$type": "ExecuteGadgetLua",
                  "otherTargets": {
                    "$type": "FHBCCNMKPHK",
                    "operation": "AND"
                  },
                  "predicatesForeach": [
                    {
                      "$type": "HNLCJOPBDLC",
                      "gadgetState": 201
                    }
                  ]
                },
                {
                  "$type": "Predicated",
                  "targetPredicates": [
                    {
                      "$type": "ByTargetGlobalValue",
                      "key": "GV_Lens_Open_Excited",
                      "value": 1.0
                    }
                  ],
                  "successActions": [
                    {
                      "$type": "AHPEKICBIIL",
                      "luaCallType": "FromGroup",
                      "funcName": "SLC_Lens_Closed_Excited",
                      "param1": 0.0,
                      "MGAMDEHMCOL": 0.0,
                      "MMHOHAOGPLP": 0.0
                    },
                    {
                      "$type": "SetGlobalValue",
                      "value": 0.0,
                      "key": "GV_Lens_Open_Excited",
                      "maxValue": 0.0,
                      "minValue": 0.0
                    }
                  ]
                }
              ]
            }
          ]
        },
        "UNIQUE_LensInteract_Aranara": {
          "stacking": "Unique",
          "modifierName": "",
          "forceTriggerWhenChangeAuthority": true,
          "elementDurability": 100.0,
          "modifierMixins": [
            {
              "$type": "AEGLMCMJMLE",
              "uiMessageId": "OpenPage",
              "actionList": [
                {
                  "$type": "SetGlobalValue",
                  "value": 1.0,
                  "key": "GV_Lens_Open_Excited",
                  "maxValue": 0.0,
                  "minValue": 0.0
                },
                {
                  "$type": "ExecuteGadgetLua",
                  "otherTargets": {
                    "$type": "FHBCCNMKPHK",
                    "operation": "AND"
                  },
                  "predicatesForeach": [
                    {
                      "$type": "HNLCJOPBDLC"
                    }
                  ],
                  "param1": 201
                },
                {
                  "$type": "DebugLog",
                  "content": "#DeathZoneLens# open page-anarana"
                }
              ]
            },
            {
              "$type": "AEGLMCMJMLE",
              "uiMessageId": "ClosePage",
              "actionList": [
                {
                  "$type": "ExecuteGadgetLua",
                  "otherTargets": {
                    "$type": "FHBCCNMKPHK",
                    "operation": "AND"
                  },
                  "predicatesForeach": [
                    {
                      "$type": "HNLCJOPBDLC",
                      "gadgetState": 201
                    }
                  ]
                },
                {
                  "$type": "Predicated",
                  "targetPredicates": [
                    {
                      "$type": "ByTargetGlobalValue",
                      "key": "GV_Lens_Open_Excited",
                      "value": 1.0
                    }
                  ],
                  "successActions": [
                    {
                      "$type": "AHPEKICBIIL",
                      "luaCallType": "FromGroup",
                      "funcName": "SLC_Lens_Closed_Excited",
                      "param1": 0.0,
                      "MGAMDEHMCOL": 0.0,
                      "MMHOHAOGPLP": 0.0
                    },
                    {
                      "$type": "SetGlobalValue",
                      "value": 0.0,
                      "key": "GV_Lens_Open_Excited",
                      "maxValue": 0.0,
                      "minValue": 0.0
                    }
                  ]
                },
                {
                  "$type": "DebugLog",
                  "content": "#DeathZoneLens# close page-anarana"
                }
              ]
            }
          ]
        },
        "UNIQUE_FindSmokeInGroup": {
          "stacking": "Unique",
          "modifierName": "",
          "forceTriggerWhenChangeAuthority": true,
          "duration": 1.0,
          "elementDurability": 100.0,
          "onAdded": [
            {
              "$type": "ExecuteGadgetLua",
              "otherTargets": {
                "$type": "FHBCCNMKPHK",
                "operation": "AND",
                "value": 1
              },
              "predicatesForeach": [
                {
                  "$type": "HNLCJOPBDLC"
                }
              ],
              "param1": 901
            }
          ]
        }
      },
      "onAdded": [
        {
          "$type": "SetGlobalValue",
          "value": 10.0,
          "key": "GV_ExcitedDuration",
          "maxValue": 0.0,
          "minValue": 0.0
        },
        {
          "$type": "SetGlobalValue",
          "value": 1.0,
          "key": "WisdomImpactLevel",
          "maxValue": 0.0,
          "minValue": 0.0
        },
        {
          "$type": "SetGlobalValue",
          "value": 0.0,
          "key": "GV_Lens_Open_Excited",
          "maxValue": 0.0,
          "minValue": 0.0
        }
      ],
      "onFieldEnter": [
        {
          "$type": "Predicated",
          "target": "Target",
          "targetPredicates": [
            {
              "$type": "KGMHMHFHGIC",
              "isHost": true
            }
          ],
          "successActions": [
            {
              "$type": "AHPEKICBIIL",
              "target": "Caster",
              "luaCallType": "FromGroup",
              "funcName": "SLC_Player_Approach_Self",
              "param1": 0.0,
              "MGAMDEHMCOL": 0.0,
              "MMHOHAOGPLP": 0.0
            }
          ]
        }
      ]
    }
  }
]
