[
  {
    "Default": {
      "$type": "ConfigAbility",
      "abilityName": "SceneObj_Homeworld_NPCObj_Ani_Djinn_Normal",
      "onAdded": [
        {
          "$type": "SetGlobalValue",
          "value": 0.0,
          "key": "_ABILITY_Djinn_Advance",
          "maxValue": 0.0,
          "minValue": 0.0
        }
      ]
    }
  },
  {
    "Default": {
      "$type": "ConfigAbility",
      "abilityName": "SceneObj_Homeworld_NPCObj_Ani_Djinn_Advance",
      "onAdded": [
        {
          "$type": "SetGlobalValue",
          "value": 1.0,
          "key": "_ABILITY_Djinn_Advance",
          "maxValue": 0.0,
          "minValue": 0.0
        }
      ]
    }
  },
  {
    "Default": {
      "$type": "ConfigAbility",
      "abilityName": "SceneObj_Homeworld_NPCObj_Ani_Djinn_AdvanceWithCloud",
      "onAdded": [
        {
          "$type": "SetGlobalValue",
          "value": 1.0,
          "key": "_ABILITY_Djinn_Advance",
          "maxValue": 0.0,
          "minValue": 0.0
        },
        {
          "$type": "KGKOLOLDKHH",
          "partRootNames": ["CloudRoot"],
          "enable": true
        },
        {
          "$type": "GPDAIGICDKI",
          "otherTargets": {
            "$type": "PBLNLAENOGB",
            "tag": "Homeworld_Standard_MainBuilding"
          },
          "partRootNames": ["CloudRoot"]
        }
      ]
    }
  },
  {
    "Default": {
      "$type": "ConfigAbility",
      "abilityName": "SceneObj_Homeworld_NPCObj_Ani_Djinn_01_Ability",
      "abilityMixins": [
        {
          "$type": "AttachToAnimatorStateIDMixin",
          "stateIDs": ["Appear"],
          "modifierName": "AppearState",
          "DGFCLAIDIFI": ""
        },
        {
          "$type": "AttachToAnimatorStateIDMixin",
          "stateIDs": ["Idle"],
          "modifierName": "IdleState",
          "DGFCLAIDIFI": ""
        },
        {
          "$type": "AttachToAnimatorStateIDMixin",
          "stateIDs": ["Show02Loop"],
          "modifierName": "SleepState",
          "DGFCLAIDIFI": ""
        },
        {
          "$type": "AttachToAnimatorStateIDMixin",
          "stateIDs": ["Talk"],
          "modifierName": "TalkState",
          "DGFCLAIDIFI": ""
        }
      ],
      "modifiers": {
        "AppearState": {
          "modifierName": "",
          "elementDurability": 100.0,
          "onAdded": [
            {
              "$type": "FireEffect",
              "rotationDampTime": "Eff_SceneObj_Djinn_Show",
              "PPPDJGDDOGD": 1.0,
              "AJDILHJFNKE": -1.0
            }
          ]
        },
        "SleepState": {
          "modifierName": "",
          "elementDurability": 100.0,
          "onAdded": [
            {
              "$type": "AttachEffect",
              "rotationDampTime": "Eff_SceneObj_Djinn_Sleep",
              "born": {
                "$type": "ConfigBornByAttachPoint",
                "attachPointName": "DjinnSleepPoint"
              },
              "PPPDJGDDOGD": 1.0,
              "AJDILHJFNKE": -1.0
            }
          ]
        },
        "IdleState": {
          "modifierName": "",
          "elementDurability": 100.0,
          "thinkInterval": 15.0,
          "onThinkInterval": [
            {
              "$type": "SetGlobalValue",
              "value": 0.0,
              "key": "_Show_Mode",
              "useLimitRange": true,
              "randomInRange": true,
              "maxValue": 20.0,
              "minValue": 1.0
            },
            {
              "$type": "SetAnimatorTrigger",
              "predicates": [
                {
                  "$type": "ByTargetGlobalValue",
                  "key": "_Show_Mode",
                  "value": 10.0,
                  "compareType": "LessAndEqual"
                },
                {
                  "$type": "ByTargetGlobalValue",
                  "key": "_ABILITY_Djinn_Advance",
                  "value": 0.0
                }
              ],
              "triggerID": "Show01",
              "mpTriggerOnRemote": true
            },
            {
              "$type": "SetAnimatorTrigger",
              "predicates": [
                {
                  "$type": "ByTargetGlobalValue",
                  "key": "_Show_Mode",
                  "value": 7.0,
                  "compareType": "LessAndEqual"
                },
                {
                  "$type": "ByTargetGlobalValue",
                  "key": "_ABILITY_Djinn_Advance",
                  "value": 1.0
                }
              ],
              "triggerID": "Show01",
              "mpTriggerOnRemote": true
            },
            {
              "$type": "SetAnimatorTrigger",
              "predicates": [
                {
                  "$type": "ByTargetGlobalValue",
                  "key": "_Show_Mode",
                  "value": 7.0,
                  "maxValue": 11.0,
                  "compareType": "Between"
                },
                {
                  "$type": "ByTargetGlobalValue",
                  "key": "_ABILITY_Djinn_Advance",
                  "value": 1.0
                }
              ],
              "triggerID": "Show02",
              "mpTriggerOnRemote": true
            },
            {
              "$type": "ApplyModifier",
              "predicates": [
                {
                  "$type": "ByTargetGlobalValue",
                  "key": "_Show_Mode",
                  "value": 11.0,
                  "compareType": "MoreThanAndEqual"
                }
              ],
              "modifierName": "ShowEmotion"
            }
          ]
        },
        "TalkState": {
          "modifierName": "",
          "elementDurability": 100.0,
          "onAdded": [
            {
              "$type": "ApplyModifier",
              "modifierName": "ShowEmotion"
            }
          ]
        },
        "ShowEmotion": {
          "modifierName": "",
          "duration": 1.0,
          "elementDurability": 100.0,
          "modifierMixins": [
            {
              "$type": "AttachModifierToSelfGlobalValueMixin",
              "globalValueKey": "_ABILITY_Djinn_Comfort",
              "gvInTalk": 0.0,
              "valueSteps": [0.5, 3.5, 6.5, 9.5, 10.5],
              "modifierNameSteps": ["Level1", "Level2", "Level3", "Level4"]
            }
          ]
        },
        "Level1": {
          "modifierName": "",
          "elementDurability": 100.0,
          "onAdded": [
            {
              "$type": "FireEffect",
              "rotationDampTime": "Eff_SceneObj_Djinn_Feeling_01",
              "PPPDJGDDOGD": 1.0,
              "AJDILHJFNKE": -1.0
            }
          ]
        },
        "Level2": {
          "modifierName": "",
          "elementDurability": 100.0,
          "onAdded": [
            {
              "$type": "FireEffect",
              "rotationDampTime": "Eff_SceneObj_Djinn_Feeling_02",
              "PPPDJGDDOGD": 1.0,
              "AJDILHJFNKE": -1.0
            }
          ]
        },
        "Level3": {
          "modifierName": "",
          "elementDurability": 100.0,
          "onAdded": [
            {
              "$type": "FireEffect",
              "rotationDampTime": "Eff_SceneObj_Djinn_Feeling_03",
              "PPPDJGDDOGD": 1.0,
              "AJDILHJFNKE": -1.0
            }
          ]
        },
        "Level4": {
          "modifierName": "",
          "elementDurability": 100.0,
          "onAdded": [
            {
              "$type": "FireEffect",
              "rotationDampTime": "Eff_SceneObj_Djinn_Feeling_04",
              "PPPDJGDDOGD": 1.0,
              "AJDILHJFNKE": -1.0
            }
          ]
        }
      },
      "onAdded": [
        {
          "$type": "SetGlobalValue",
          "value": 0.0,
          "key": "_ABILITY_Djinn_Comfort",
          "maxValue": 0.0,
          "minValue": 0.0
        }
      ],
      "onAbilityStart": [
        {
          "$type": "ApplyModifier",
          "modifierName": "ShowEmotion"
        }
      ]
    }
  },
  {
    "Default": {
      "$type": "ConfigAbility",
      "abilityName": "SceneObj_Homeworld_NPCObj_Ani_Djinn_02_Ability",
      "abilityMixins": [
        {
          "$type": "AttachToAnimatorStateIDMixin",
          "stateIDs": ["Appear"],
          "modifierName": "AppearState",
          "DGFCLAIDIFI": ""
        },
        {
          "$type": "AttachToAnimatorStateIDMixin",
          "stateIDs": ["Idle"],
          "modifierName": "IdleState",
          "DGFCLAIDIFI": ""
        },
        {
          "$type": "AttachToAnimatorStateIDMixin",
          "stateIDs": ["Show02Loop"],
          "modifierName": "SleepState",
          "DGFCLAIDIFI": ""
        }
      ],
      "modifiers": {
        "AppearState": {
          "modifierName": "",
          "elementDurability": 100.0,
          "onAdded": [
            {
              "$type": "FireEffect",
              "rotationDampTime": "Eff_SceneObj_Djinn_Show",
              "PPPDJGDDOGD": 1.0,
              "AJDILHJFNKE": -1.0
            }
          ]
        },
        "SleepState": {
          "modifierName": "",
          "elementDurability": 100.0,
          "onAdded": [
            {
              "$type": "AttachEffect",
              "rotationDampTime": "Eff_SceneObj_Djinn_Sleep",
              "born": {
                "$type": "ConfigBornByAttachPoint",
                "attachPointName": "DjinnSleepPoint"
              },
              "PPPDJGDDOGD": 1.0,
              "AJDILHJFNKE": -1.0
            }
          ]
        },
        "IdleState": {
          "modifierName": "",
          "elementDurability": 100.0,
          "thinkInterval": 15.0,
          "onThinkInterval": [
            {
              "$type": "SetGlobalValue",
              "value": 0.0,
              "key": "_Show_Mode",
              "useLimitRange": true,
              "randomInRange": true,
              "maxValue": 10.0,
              "minValue": 1.0
            },
            {
              "$type": "SetAnimatorTrigger",
              "predicates": [
                {
                  "$type": "ByTargetGlobalValue",
                  "key": "_Show_Mode",
                  "value": 7.0,
                  "compareType": "LessAndEqual"
                }
              ],
              "triggerID": "Show01",
              "mpTriggerOnRemote": true
            },
            {
              "$type": "SetAnimatorTrigger",
              "predicates": [
                {
                  "$type": "ByTargetGlobalValue",
                  "key": "_Show_Mode",
                  "value": 7.0,
                  "maxValue": 11.0,
                  "compareType": "Between"
                }
              ],
              "triggerID": "Show02",
              "mpTriggerOnRemote": true
            }
          ]
        }
      }
    }
  }
]
