[
  {
    "Default": {
      "$type": "ConfigAbility",
      "abilityName": "GadgetAbility_Common_FireVulnerable_100",
      "modifiers": {
        "UNIQUE_GadgetModifier_FireVulnerable": {
          "stacking": "Unique",
          "modifierName": "",
          "forceTriggerWhenChangeAuthority": true,
          "elementDurability": 100.0,
          "properties": {
            "Actor_FireSubHurtDelta": -1.0
          }
        }
      },
      "onAdded": [
        {
          "$type": "AttachModifier",
          "modifierName": "UNIQUE_GadgetModifier_FireVulnerable"
        }
      ],
      "isDynamicAbility": true
    }
  }
]
