[
  {
    "Default": {
      "$type": "ConfigAbility",
      "abilityName": "Ability_SprayGunReceiver_01",
      "modifiers": {
        "SprayGunReceiver": {
          "modifierName": "",
          "elementDurability": 100.0,
          "modifierMixins": [
            {
              "$type": "AttachModifierToGlobalValueMixin",
              "globalValueKey": "gv_ConnectType",
              "valueSteps": [-0.5, 2.5, 4.5],
              "modifierNameSteps": ["NoShoot", "LongShoot"]
            }
          ],
          "onAdded": [
            {
              "$type": "SetGlobalValue",
              "value": 0.0,
              "key": "gv_ConnectType",
              "maxValue": 0.0,
              "minValue": 0.0
            }
          ],
          "onReconnect": [
            {
              "$type": "SetGlobalValue",
              "value": 0.0,
              "key": "gv_ConnectType",
              "maxValue": 0.0,
              "minValue": 0.0
            }
          ]
        },
        "NoShoot": {
          "modifierName": "",
          "elementDurability": 100.0
        },
        "LongShoot": {
          "modifierName": "",
          "elementDurability": 100.0,
          "thinkInterval": 0.10000000149011612,
          "onThinkInterval": [
            {
              "$type": "Predicated",
              "targetPredicates": [
                {
                  "$type": "ByTargetGlobalValue",
                  "target": "Self",
                  "key": "gv_Pushable",
                  "value": 1.0
                }
              ],
              "successActions": [
                {
                  "$type": "SetGlobalDir",
                  "target": "CurLocalAvatar",
                  "key": "gv_PushDir",
                  "born": {
                    "$type": "ConfigBornBySelf",
                    "direction": {
                      "$type": "JNKPDKHFJJB",
                      "useCorrectDir": true
                    },
                    "useRotation": true
                  },
                  "setTarget": false
                },
                {
                  "$type": "Predicated",
                  "targetPredicates": [
                    {
                      "$type": "ByTargetGlobalValue",
                      "key": "gv_PushDir_1",
                      "value": 0.0,
                      "compareType": "LessAndEqual"
                    },
                    {
                      "$type": "ByTargetGlobalValue",
                      "key": "gv_IsApplyGravity",
                      "value": 1.0,
                      "compareType": "NoneOrEqual"
                    }
                  ],
                  "successActions": [
                    {
                      "$type": "SetGlobalValue",
                      "value": 0.0,
                      "key": "gv_PushDir_1",
                      "maxValue": 0.0,
                      "minValue": 0.0
                    }
                  ]
                }
              ]
            }
          ]
        }
      },
      "onAdded": [
        {
          "$type": "AOOCGNCCAJB",
          "isAdd": true,
          "tag": "WaterGunTarget"
        },
        {
          "$type": "AttachModifier",
          "modifierName": "SprayGunReceiver"
        }
      ]
    }
  },
  {
    "Default": {
      "$type": "ConfigAbility",
      "abilityName": "Ability_SprayGunReceiverEffect_01",
      "modifiers": {
        "SprayGunReceiverEffect": {
          "modifierName": "",
          "elementDurability": 100.0,
          "modifierMixins": [
            {
              "$type": "AttachModifierToGlobalValueMixin",
              "globalValueKey": "gv_ConnectType",
              "valueSteps": [-0.5, 2.5, 3.5, 4.5],
              "modifierNameSteps": [
                "NoShootEffect",
                "LongShoot1Effect",
                "LongShoot2Effect"
              ]
            }
          ]
        },
        "NoShootEffect": {
          "modifierName": "",
          "elementDurability": 100.0
        },
        "LongShoot1Effect": {
          "modifierName": "",
          "elementDurability": 100.0,
          "onAdded": [
            {
              "$type": "AttachEffect",
              "rotationDampTime": "Eff_SceneObj_ControlRoot_01_Active",
              "born": {
                "$type": "ConfigBornByAttachPoint",
                "useRotation": true,
                "attachPointName": "ConnectPoint1Effect"
              },
              "PPPDJGDDOGD": 1.0,
              "AJDILHJFNKE": -1.0
            }
          ]
        },
        "LongShoot2Effect": {
          "modifierName": "",
          "elementDurability": 100.0,
          "onAdded": [
            {
              "$type": "AttachEffect",
              "rotationDampTime": "Eff_SceneObj_ControlRoot_01_Active",
              "born": {
                "$type": "ConfigBornByAttachPoint",
                "useRotation": true,
                "attachPointName": "ConnectPoint2Effect"
              },
              "PPPDJGDDOGD": 1.0,
              "AJDILHJFNKE": -1.0
            }
          ]
        }
      },
      "onAdded": [
        {
          "$type": "AttachModifier",
          "modifierName": "SprayGunReceiverEffect"
        }
      ]
    }
  },
  {
    "Default": {
      "$type": "ConfigAbility",
      "abilityName": "Ability_Rotatable_Laser_Shooter",
      "abilitySpecials": {
        "Yaw": 0.0,
        "Pitch": 0.0
      },
      "modifiers": {
        "SetShooterAnimator": {
          "modifierName": "",
          "elementDurability": 100.0,
          "onAdded": [
            {
              "$type": "SetGlobalValueToOverrideMap",
              "globalValueKey": "SGV_Yaw",
              "overrideMapKey": "Yaw"
            },
            {
              "$type": "SetGlobalValueToOverrideMap",
              "globalValueKey": "SGV_Pitch",
              "overrideMapKey": "Pitch"
            },
            {
              "$type": "SetAnimatorFloat",
              "floatID": "Yaw",
              "value": "Yaw"
            },
            {
              "$type": "SetAnimatorFloat",
              "floatID": "Pitch",
              "value": "Pitch"
            }
          ]
        }
      },
      "onAdded": [
        {
          "$type": "AttachModifier",
          "modifierName": "SetShooterAnimator"
        }
      ]
    }
  },
  {
    "Default": {
      "$type": "ConfigAbility",
      "abilityName": "Ability_WaterWheel_Common_01",
      "abilityMixins": [
        {
          "$type": "AttachToGadgetStateMixin",
          "modifierName": "DefaultState"
        },
        {
          "$type": "AttachToGadgetStateMixin",
          "gadgetState": 202,
          "modifierName": "LockState"
        },
        {
          "$type": "JBGNJJADLFD",
          "sgvIDKey": "SGV_WheelDriveTag",
          "broadcastGVKey": "gv_Rotation"
        },
        {
          "$type": "JBGNJJADLFD",
          "sgvIDKey": "SGV_WheelDriveTag",
          "broadcastGVKey": "gv_RotationDelta"
        },
        {
          "$type": "JBGNJJADLFD",
          "sgvIDKey": "SGV_WheelDriveTag_Other",
          "broadcastGVKey": "gv_Rotation"
        },
        {
          "$type": "JBGNJJADLFD",
          "sgvIDKey": "SGV_WheelDriveTag_Other",
          "broadcastGVKey": "gv_RotationDelta"
        }
      ],
      "HKFPCGFFKMJ": [
        "SGV_InitRound",
        "SGV_PullbackAcc",
        "SGV_ClockwiseMaxRound",
        "SGV_AnticlockwiseMaxRound",
        "SGV_OneRoundTime",
        "SGV_PullbackTime",
        "SGV_LongPushForceAcc",
        "SGV_ShortPushForceAcc",
        "SGV_FrictionAcc"
      ],
      "modifiers": {
        "DelayApplyController": {
          "modifierName": "",
          "duration": 0.20000000298023224,
          "elementDurability": 100.0,
          "onRemoved": [
            {
              "$type": "ApplyModifier",
              "modifierName": "UNIQUE_WaterWheel_Controller"
            }
          ]
        },
        "UNIQUE_WaterWheel_Controller": {
          "stacking": "Unique",
          "modifierName": "",
          "forceTriggerWhenChangeAuthority": true,
          "elementDurability": 100.0,
          "modifierMixins": [
            {
              "$type": "DEENNOINNKK",
              "INLNELGLPPM": "SGV_InitRound",
              "EAAHLLDJHKO": "SGV_LongPushForceAcc",
              "KCMPMEOIJCN": "SGV_ShortPushForceAcc",
              "LJBIOCPPPKP": "SGV_FrictionAcc",
              "KMJJNPDMJBM": "SGV_PullbackAcc",
              "LMIDANOKHGN": "SGV_ClockwiseMaxRound",
              "HDNEONBDADF": [
                {
                  "$type": "AttachModifier",
                  "modifierName": "ClockwiseEndStuck"
                }
              ],
              "KHBLAAMGGCL": "SGV_AnticlockwiseMaxRound",
              "FNKECGFBBOM": [
                {
                  "$type": "AttachModifier",
                  "modifierName": "AntiClockwiseEndStuck"
                }
              ],
              "ELEMCOGCPEL": "Wheel",
              "AIKOMMCIEKN": "gv_IsLocked",
              "LMDNJGILKBD": "gv_ConnectType",
              "FDDNLDEBGPE": "gv_Rotation",
              "PIJLINEBAJN": "SGV_IsDeltaSync",
              "CPBCEIICABG": "gv_RotationDelta",
              "IJCJGAMPJFC": "SGV_OneRoundTime",
              "EJPJCEKBMDL": "SGV_PullbackTime"
            }
          ]
        },
        "ClockwiseEndStuck": {
          "modifierName": "",
          "elementDurability": 100.0,
          "thinkInterval": 0.5,
          "onAdded": [
            {
              "$type": "SetAnimatorTrigger",
              "predicates": [
                {
                  "$type": "ByTargetGlobalValue",
                  "key": "gv_ConnectType",
                  "value": 3.0
                }
              ],
              "triggerID": "Stuck"
            }
          ],
          "onThinkInterval": [
            {
              "$type": "SetAnimatorTrigger",
              "predicates": [
                {
                  "$type": "ByTargetGlobalValue",
                  "key": "gv_ConnectType",
                  "value": 3.0
                }
              ],
              "triggerID": "Stuck"
            },
            {
              "$type": "Predicated",
              "targetPredicates": [
                {
                  "$type": "ByTargetGlobalValue",
                  "key": "gv_Rotation",
                  "value": [
                    "SGV_ClockwiseMaxRound",
                    0.009999999776482582,
                    "SUB"
                  ],
                  "compareType": "LessAndEqual"
                }
              ],
              "successActions": [
                {
                  "$type": "SetAnimatorTrigger",
                  "triggerID": "ForceStop"
                },
                {
                  "$type": "RemoveModifier",
                  "modifierName": "ClockwiseEndStuck"
                }
              ]
            }
          ]
        },
        "AntiClockwiseEndStuck": {
          "modifierName": "",
          "elementDurability": 100.0,
          "thinkInterval": 0.5,
          "onAdded": [
            {
              "$type": "SetAnimatorTrigger",
              "predicates": [
                {
                  "$type": "ByTargetGlobalValue",
                  "key": "gv_ConnectType",
                  "value": 4.0
                }
              ],
              "triggerID": "ReverseStuck"
            }
          ],
          "onThinkInterval": [
            {
              "$type": "SetAnimatorTrigger",
              "predicates": [
                {
                  "$type": "ByTargetGlobalValue",
                  "key": "gv_ConnectType",
                  "value": 4.0
                }
              ],
              "triggerID": "ReverseStuck"
            },
            {
              "$type": "Predicated",
              "targetPredicates": [
                {
                  "$type": "ByTargetGlobalValue",
                  "key": "gv_Rotation",
                  "value": [
                    0.0,
                    "SGV_AnticlockwiseMaxRound",
                    "SUB",
                    0.009999999776482582,
                    "ADD"
                  ],
                  "compareType": "MoreThanAndEqual"
                }
              ],
              "successActions": [
                {
                  "$type": "SetAnimatorTrigger",
                  "triggerID": "ForceStop"
                },
                {
                  "$type": "RemoveModifier",
                  "modifierName": "AntiClockwiseEndStuck"
                }
              ]
            }
          ]
        },
        "DefaultState": {
          "modifierName": "",
          "elementDurability": 100.0,
          "onAdded": [
            {
              "$type": "SetGlobalValue",
              "value": 0.0,
              "key": "gv_IsLocked",
              "maxValue": 0.0,
              "minValue": 0.0
            }
          ]
        },
        "LockState": {
          "modifierName": "",
          "elementDurability": 100.0,
          "onAdded": [
            {
              "$type": "SetGlobalValue",
              "value": 1.0,
              "key": "gv_IsLocked",
              "maxValue": 0.0,
              "minValue": 0.0
            }
          ]
        }
      },
      "onAdded": [
        {
          "$type": "AOOCGNCCAJB",
          "isAdd": true,
          "tag": "WaterWheel"
        },
        {
          "$type": "AttachModifier",
          "modifierName": "DelayApplyController"
        }
      ]
    }
  },
  {
    "Default": {
      "$type": "ConfigAbility",
      "abilityName": "Ability_SprayGunMovable_Common_WithGravity_3D_01",
      "HKFPCGFFKMJ": [
        "SGV_LongPushForceAcc",
        "SGV_ShortPushForceAcc",
        "SGV_FrictionAcc",
        "SGV_MaxVelocity",
        "SGV_YUpExtraGravity",
        "SGV_ExtraGravity",
        "gv_FrictionCoefficient",
        "gv_ExtraYUpGravity"
      ],
      "modifiers": {
        "UNIQUE_SprayGunMovable_Controller_WithGravity_3D": {
          "stacking": "Unique",
          "modifierName": "",
          "forceTriggerWhenChangeAuthority": true,
          "elementDurability": 100.0,
          "modifierMixins": [
            {
              "$type": "CEMFEDKPIIJ",
              "OIBDBFKFOFL": 60.0,
              "HOJEPGGMFGL": 1.0,
              "DFOLGEGDEMG": true,
              "PFFEJGOABJE": "SGV_MaxVelocity",
              "LJBIOCPPPKP": [
                "SGV_FrictionAcc",
                "gv_FrictionCoefficient",
                "MUL"
              ],
              "KCMPMEOIJCN": "SGV_ShortPushForceAcc",
              "EAAHLLDJHKO": "SGV_LongPushForceAcc",
              "GCPINDKAAKJ": true,
              "CIEDJKCHDMI": [
                "SGV_YUpExtraGravity",
                "gv_ExtraYUpGravity",
                "ADD"
              ],
              "LMDNJGILKBD": "gv_ConnectType",
              "DAEFAIGNIEI": "gv_InteractLock",
              "CKDCKGCDNBC": "gv_IsCharging",
              "EBMELENINMN": "gv_PushDir",
              "IOAFLCFMOGC": "SGV_IsVelocitySync",
              "JJOAABCOKKC": "gv_CurrentVelocity",
              "MCHBGNELPHC": [
                {
                  "$type": "SetGlobalValue",
                  "predicates": [
                    {
                      "$type": "ByTargetGlobalValue",
                      "key": "gv_IsWallDetectOn",
                      "value": 1.0,
                      "compareType": "NoneOrEqual"
                    }
                  ],
                  "value": 40.0,
                  "key": "gv_FrictionCoefficient",
                  "maxValue": 0.0,
                  "minValue": 0.0
                },
                {
                  "$type": "ApplyModifier",
                  "modifierName": "UNIQUE_OnCollideWall_WithGravity_3D"
                }
              ]
            }
          ],
          "properties": {
            "Actor_AddGravityScale": "SGV_ExtraGravity"
          }
        },
        "UNIQUE_OnCollideWall_WithGravity_3D": {
          "stacking": "Unique",
          "modifierName": "",
          "forceTriggerWhenChangeAuthority": true,
          "duration": 0.5,
          "elementDurability": 100.0,
          "onAdded": [
            {
              "$type": "SetGlobalValue",
              "value": 1.0,
              "key": "gv_HasCollidedWall",
              "maxValue": 0.0,
              "minValue": 0.0
            }
          ],
          "onRemoved": [
            {
              "$type": "SetGlobalValue",
              "value": 0.0,
              "key": "gv_HasCollidedWall",
              "maxValue": 0.0,
              "minValue": 0.0
            }
          ]
        }
      },
      "onAdded": [
        {
          "$type": "AttachModifier",
          "modifierName": "UNIQUE_SprayGunMovable_Controller_WithGravity_3D"
        },
        {
          "$type": "SetGlobalDir",
          "key": "gv_PushDir",
          "born": {
            "$type": "ConfigBornBySelf",
            "useRotation": true
          }
        },
        {
          "$type": "SetGlobalValue",
          "value": 1.0,
          "key": "gv_Pushable",
          "maxValue": 0.0,
          "minValue": 0.0
        },
        {
          "$type": "SetGlobalValue",
          "value": 1.0,
          "key": "gv_FrictionCoefficient",
          "maxValue": 0.0,
          "minValue": 0.0
        },
        {
          "$type": "SetGlobalValue",
          "value": 0.0,
          "key": "gv_ExtraYUpGravity",
          "maxValue": 0.0,
          "minValue": 0.0
        },
        {
          "$type": "SetGlobalValue",
          "value": 1.0,
          "key": "gv_IsApplyGravity",
          "maxValue": 0.0,
          "minValue": 0.0
        }
      ]
    }
  },
  {
    "Default": {
      "$type": "ConfigAbility",
      "abilityName": "Ability_SprayGunMovable_Common_NoGravity_3D_01",
      "HKFPCGFFKMJ": [
        "SGV_LongPushForceAcc",
        "SGV_ShortPushForceAcc",
        "SGV_FrictionAcc",
        "SGV_MaxVelocity",
        "gv_FrictionCoefficient"
      ],
      "modifiers": {
        "UNIQUE_SprayGunMovable_Controller_NoGravity_3D": {
          "stacking": "Unique",
          "modifierName": "",
          "forceTriggerWhenChangeAuthority": true,
          "elementDurability": 100.0,
          "modifierMixins": [
            {
              "$type": "CEMFEDKPIIJ",
              "OIBDBFKFOFL": 60.0,
              "DFOLGEGDEMG": true,
              "PFFEJGOABJE": "SGV_MaxVelocity",
              "LJBIOCPPPKP": [
                "SGV_FrictionAcc",
                "gv_FrictionCoefficient",
                "MUL"
              ],
              "KCMPMEOIJCN": "SGV_ShortPushForceAcc",
              "EAAHLLDJHKO": "SGV_LongPushForceAcc",
              "LMDNJGILKBD": "gv_ConnectType",
              "DAEFAIGNIEI": "gv_InteractLock",
              "CKDCKGCDNBC": "gv_IsCharging",
              "EBMELENINMN": "gv_PushDir",
              "IOAFLCFMOGC": "SGV_IsVelocitySync",
              "JJOAABCOKKC": "gv_CurrentVelocity",
              "MCHBGNELPHC": [
                {
                  "$type": "SetGlobalValue",
                  "value": 40.0,
                  "key": "gv_FrictionCoefficient",
                  "maxValue": 0.0,
                  "minValue": 0.0
                },
                {
                  "$type": "ApplyModifier",
                  "modifierName": "UNIQUE_OnCollideWall_NoGravity_3D"
                }
              ]
            }
          ]
        },
        "UNIQUE_OnCollideWall_NoGravity_3D": {
          "stacking": "Unique",
          "modifierName": "",
          "forceTriggerWhenChangeAuthority": true,
          "duration": 0.5,
          "elementDurability": 100.0,
          "onAdded": [
            {
              "$type": "SetGlobalValue",
              "value": 1.0,
              "key": "gv_HasCollidedWall",
              "maxValue": 0.0,
              "minValue": 0.0
            }
          ],
          "onRemoved": [
            {
              "$type": "SetGlobalValue",
              "value": 0.0,
              "key": "gv_HasCollidedWall",
              "maxValue": 0.0,
              "minValue": 0.0
            }
          ]
        }
      },
      "onAdded": [
        {
          "$type": "AttachModifier",
          "modifierName": "UNIQUE_SprayGunMovable_Controller_NoGravity_3D"
        },
        {
          "$type": "SetGlobalDir",
          "key": "gv_PushDir",
          "born": {
            "$type": "ConfigBornBySelf",
            "useRotation": true
          }
        },
        {
          "$type": "SetGlobalValue",
          "value": 1.0,
          "key": "gv_Pushable",
          "maxValue": 0.0,
          "minValue": 0.0
        },
        {
          "$type": "SetGlobalValue",
          "value": 1.0,
          "key": "gv_FrictionCoefficient",
          "maxValue": 0.0,
          "minValue": 0.0
        },
        {
          "$type": "SetGlobalValue",
          "value": 0.0,
          "key": "gv_IsApplyGravity",
          "maxValue": 0.0,
          "minValue": 0.0
        }
      ]
    }
  },
  {
    "Default": {
      "$type": "ConfigAbility",
      "abilityName": "Ability_WheelDrive_Delta_01",
      "HKFPCGFFKMJ": [
        "SGV_B",
        "SGV_K",
        "SGV_Min",
        "SGV_Max",
        "gv_DriveRotationDelta",
        "gv_DriveRotationDelta_Other"
      ],
      "modifiers": {
        "DelayApplyController": {
          "modifierName": "",
          "duration": 0.20000000298023224,
          "elementDurability": 100.0,
          "onRemoved": [
            {
              "$type": "ApplyModifier",
              "predicates": [
                {
                  "$type": "ByTargetGlobalValue",
                  "key": "SGV_WheelDriveTag",
                  "value": -1.0,
                  "compareType": "MoreThan"
                },
                {
                  "$type": "ByTargetGlobalValue",
                  "key": "SGV_IsSelfDriven",
                  "value": 1.0
                }
              ],
              "modifierName": "UNIQUE_WheelDriveDeltaController"
            },
            {
              "$type": "ApplyModifier",
              "predicates": [
                {
                  "$type": "ByTargetGlobalValue",
                  "key": "SGV_WheelDriveTag_Other",
                  "value": -1.0,
                  "compareType": "MoreThan"
                },
                {
                  "$type": "ByTargetGlobalValue",
                  "key": "SGV_IsSelfDriven",
                  "value": 1.0
                }
              ],
              "modifierName": "UNIQUE_WheelDriveDeltaController_Other"
            }
          ]
        },
        "UNIQUE_WheelDriveDeltaController": {
          "stacking": "Unique",
          "modifierName": "",
          "forceTriggerWhenChangeAuthority": true,
          "elementDurability": 100.0,
          "thinkInterval": 0.20000000298023224,
          "modifierMixins": [
            {
              "$type": "LHFPGFBGMDN",
              "sgvIDKey": "SGV_WheelDriveTag",
              "broadcastGVKey": "gv_RotationDelta",
              "MBIGJGBJDPF": "gv_DriveRotationDelta",
              "ANABFKJNGFI": true
            }
          ],
          "onThinkInterval": [
            {
              "$type": "Predicated",
              "targetPredicates": [
                {
                  "$type": "ByNot",
                  "predicates": [
                    {
                      "$type": "ByTargetGlobalValue",
                      "key": "gv_DriveRotationDelta",
                      "value": -0.0010000000474974513,
                      "maxValue": 0.0010000000474974513,
                      "compareType": "Between"
                    }
                  ]
                },
                {
                  "$type": "ByTargetGlobalValue",
                  "key": "SGV_IsStopDrive",
                  "value": 0.0,
                  "compareType": "NoneOrEqual"
                }
              ],
              "successActions": [
                {
                  "$type": "AddGlobalValue",
                  "value": [
                    "SGV_K",
                    "gv_DriveRotationDelta",
                    "MUL",
                    5.0,
                    "DIV",
                    "SGV_B",
                    "ADD"
                  ],
                  "key": "gv_DriveRotation",
                  "maxValue": 0.0,
                  "minValue": 0.0
                }
              ]
            }
          ]
        },
        "UNIQUE_WheelDriveDeltaController_Other": {
          "stacking": "Unique",
          "modifierName": "",
          "forceTriggerWhenChangeAuthority": true,
          "elementDurability": 100.0,
          "thinkInterval": 0.20000000298023224,
          "modifierMixins": [
            {
              "$type": "LHFPGFBGMDN",
              "sgvIDKey": "SGV_WheelDriveTag_Other",
              "broadcastGVKey": "gv_RotationDelta",
              "MBIGJGBJDPF": "gv_DriveRotationDelta_Other",
              "ANABFKJNGFI": true
            }
          ],
          "onThinkInterval": [
            {
              "$type": "Predicated",
              "targetPredicates": [
                {
                  "$type": "ByNot",
                  "predicates": [
                    {
                      "$type": "ByTargetGlobalValue",
                      "key": "gv_DriveRotationDelta_Other",
                      "value": -0.0010000000474974513,
                      "maxValue": 0.0010000000474974513,
                      "compareType": "Between"
                    }
                  ]
                },
                {
                  "$type": "ByTargetGlobalValue",
                  "key": "SGV_IsStopDrive",
                  "value": 0.0,
                  "compareType": "NoneOrEqual"
                }
              ],
              "successActions": [
                {
                  "$type": "AddGlobalValue",
                  "value": [
                    "SGV_K",
                    "gv_DriveRotationDelta_Other",
                    "MUL",
                    5.0,
                    "DIV",
                    "SGV_B",
                    "ADD"
                  ],
                  "key": "gv_DriveRotation",
                  "maxValue": 0.0,
                  "minValue": 0.0
                }
              ]
            }
          ]
        }
      },
      "onAdded": [
        {
          "$type": "AttachModifier",
          "modifierName": "DelayApplyController"
        },
        {
          "$type": "SetGlobalValue",
          "value": 0.0,
          "key": "gv_DriveRotationDelta",
          "maxValue": 0.0,
          "minValue": 0.0
        },
        {
          "$type": "SetGlobalValue",
          "value": 0.0,
          "key": "gv_DriveRotationDelta_Other",
          "maxValue": 0.0,
          "minValue": 0.0
        },
        {
          "$type": "Predicated",
          "targetPredicates": [
            {
              "$type": "ByTargetGlobalValue",
              "key": "SGV_DefaultDriveRotation",
              "value": 0.0,
              "compareType": "NoneOrEqual"
            }
          ],
          "successActions": [
            {
              "$type": "SetGlobalValue",
              "value": 0.0,
              "key": "gv_DriveRotation",
              "maxValue": 0.0,
              "minValue": 0.0
            }
          ],
          "failActions": [
            {
              "$type": "CopyGlobalValue",
              "srcKey": "SGV_DefaultDriveRotation",
              "dstKey": "gv_DriveRotation"
            }
          ]
        }
      ]
    }
  },
  {
    "Default": {
      "$type": "ConfigAbility",
      "abilityName": "Ability_WheelDrive_LimitedDelta_01",
      "HKFPCGFFKMJ": [
        "SGV_B",
        "SGV_K",
        "SGV_Min",
        "SGV_Max",
        "gv_DriveRotationDelta",
        "gv_DriveRotationDelta_Other"
      ],
      "modifiers": {
        "DelayApplyController": {
          "modifierName": "",
          "duration": 0.20000000298023224,
          "elementDurability": 100.0,
          "onRemoved": [
            {
              "$type": "ApplyModifier",
              "predicates": [
                {
                  "$type": "ByTargetGlobalValue",
                  "key": "SGV_WheelDriveTag",
                  "value": -1.0,
                  "compareType": "MoreThan"
                },
                {
                  "$type": "ByTargetGlobalValue",
                  "key": "SGV_IsSelfDriven",
                  "value": 1.0
                }
              ],
              "modifierName": "UNIQUE_WheelDriveLimitedDeltaController"
            },
            {
              "$type": "ApplyModifier",
              "predicates": [
                {
                  "$type": "ByTargetGlobalValue",
                  "key": "SGV_WheelDriveTag_Other",
                  "value": -1.0,
                  "compareType": "MoreThan"
                },
                {
                  "$type": "ByTargetGlobalValue",
                  "key": "SGV_IsSelfDriven",
                  "value": 1.0
                }
              ],
              "modifierName": "UNIQUE_WheelDriveLimitedDeltaController_Other"
            }
          ]
        },
        "UNIQUE_WheelDriveLimitedDeltaController": {
          "stacking": "Unique",
          "modifierName": "",
          "forceTriggerWhenChangeAuthority": true,
          "elementDurability": 100.0,
          "thinkInterval": 0.20000000298023224,
          "modifierMixins": [
            {
              "$type": "LHFPGFBGMDN",
              "sgvIDKey": "SGV_WheelDriveTag",
              "broadcastGVKey": "gv_RotationDelta",
              "MBIGJGBJDPF": "gv_DriveRotationDelta",
              "ANABFKJNGFI": true
            }
          ],
          "onThinkInterval": [
            {
              "$type": "Predicated",
              "targetPredicates": [
                {
                  "$type": "ByNot",
                  "predicates": [
                    {
                      "$type": "ByTargetGlobalValue",
                      "key": "gv_DriveRotationDelta",
                      "value": -0.0010000000474974513,
                      "maxValue": 0.0010000000474974513,
                      "compareType": "Between"
                    }
                  ]
                },
                {
                  "$type": "ByTargetGlobalValue",
                  "key": "SGV_IsStopDrive",
                  "value": 0.0,
                  "compareType": "NoneOrEqual"
                }
              ],
              "successActions": [
                {
                  "$type": "AddGlobalValue",
                  "value": [
                    "SGV_K",
                    "gv_DriveRotationDelta",
                    "MUL",
                    5.0,
                    "DIV",
                    "SGV_B",
                    "ADD"
                  ],
                  "key": "gv_DriveRotation",
                  "useLimitRange": true,
                  "maxValue": 1.0,
                  "minValue": 0.0
                }
              ]
            }
          ]
        },
        "UNIQUE_WheelDriveLimitedDeltaController_Other": {
          "stacking": "Unique",
          "modifierName": "",
          "forceTriggerWhenChangeAuthority": true,
          "elementDurability": 100.0,
          "thinkInterval": 0.20000000298023224,
          "modifierMixins": [
            {
              "$type": "LHFPGFBGMDN",
              "sgvIDKey": "SGV_WheelDriveTag_Other",
              "broadcastGVKey": "gv_RotationDelta",
              "MBIGJGBJDPF": "gv_DriveRotationDelta_Other",
              "ANABFKJNGFI": true
            }
          ],
          "onThinkInterval": [
            {
              "$type": "Predicated",
              "targetPredicates": [
                {
                  "$type": "ByNot",
                  "predicates": [
                    {
                      "$type": "ByTargetGlobalValue",
                      "key": "gv_DriveRotationDelta_Other",
                      "value": -0.0010000000474974513,
                      "maxValue": 0.0010000000474974513,
                      "compareType": "Between"
                    }
                  ]
                },
                {
                  "$type": "ByTargetGlobalValue",
                  "key": "SGV_IsStopDrive",
                  "value": 0.0,
                  "compareType": "NoneOrEqual"
                }
              ],
              "successActions": [
                {
                  "$type": "AddGlobalValue",
                  "value": [
                    "SGV_K",
                    "gv_DriveRotationDelta_Other",
                    "MUL",
                    5.0,
                    "DIV",
                    "SGV_B",
                    "ADD"
                  ],
                  "key": "gv_DriveRotation",
                  "useLimitRange": true,
                  "maxValue": 1.0,
                  "minValue": 0.0
                }
              ]
            }
          ]
        }
      },
      "onAdded": [
        {
          "$type": "AttachModifier",
          "modifierName": "DelayApplyController"
        },
        {
          "$type": "SetGlobalValue",
          "value": 0.0,
          "key": "gv_DriveRotationDelta",
          "maxValue": 0.0,
          "minValue": 0.0
        },
        {
          "$type": "SetGlobalValue",
          "value": 0.0,
          "key": "gv_DriveRotationDelta_Other",
          "maxValue": 0.0,
          "minValue": 0.0
        },
        {
          "$type": "Predicated",
          "targetPredicates": [
            {
              "$type": "ByTargetGlobalValue",
              "key": "SGV_DefaultDriveRotation",
              "value": 0.0,
              "compareType": "NoneOrEqual"
            }
          ],
          "successActions": [
            {
              "$type": "SetGlobalValue",
              "value": 0.0,
              "key": "gv_DriveRotation",
              "maxValue": 0.0,
              "minValue": 0.0
            }
          ],
          "failActions": [
            {
              "$type": "CopyGlobalValue",
              "srcKey": "SGV_DefaultDriveRotation",
              "dstKey": "gv_DriveRotation"
            }
          ]
        }
      ]
    }
  },
  {
    "Default": {
      "$type": "ConfigAbility",
      "abilityName": "Ability_WheelDrive_OnesideDelta_01",
      "HKFPCGFFKMJ": [
        "SGV_B",
        "SGV_K",
        "SGV_Min",
        "SGV_Max",
        "gv_DriveRotationDelta",
        "gv_DriveRotationDelta_Other"
      ],
      "modifiers": {
        "DelayApplyController": {
          "modifierName": "",
          "duration": 0.20000000298023224,
          "elementDurability": 100.0,
          "onRemoved": [
            {
              "$type": "ApplyModifier",
              "predicates": [
                {
                  "$type": "ByTargetGlobalValue",
                  "key": "SGV_WheelDriveTag",
                  "value": -1.0,
                  "compareType": "MoreThan"
                },
                {
                  "$type": "ByTargetGlobalValue",
                  "key": "SGV_IsSelfDriven",
                  "value": 1.0
                }
              ],
              "modifierName": "UNIQUE_WheelDriveOnesideDeltaController"
            },
            {
              "$type": "ApplyModifier",
              "predicates": [
                {
                  "$type": "ByTargetGlobalValue",
                  "key": "SGV_WheelDriveTag_Other",
                  "value": -1.0,
                  "compareType": "MoreThan"
                },
                {
                  "$type": "ByTargetGlobalValue",
                  "key": "SGV_IsSelfDriven",
                  "value": 1.0
                }
              ],
              "modifierName": "UNIQUE_WheelDriveOnesideDeltaController_Other"
            }
          ]
        },
        "UNIQUE_WheelDriveOnesideDeltaController": {
          "stacking": "Unique",
          "modifierName": "",
          "forceTriggerWhenChangeAuthority": true,
          "elementDurability": 100.0,
          "thinkInterval": 0.20000000298023224,
          "modifierMixins": [
            {
              "$type": "LHFPGFBGMDN",
              "sgvIDKey": "SGV_WheelDriveTag",
              "broadcastGVKey": "gv_RotationDelta",
              "MBIGJGBJDPF": "gv_DriveRotationDelta",
              "ANABFKJNGFI": true
            }
          ],
          "onThinkInterval": [
            {
              "$type": "Predicated",
              "targetPredicates": [
                {
                  "$type": "ByNot",
                  "predicates": [
                    {
                      "$type": "ByTargetGlobalValue",
                      "key": "gv_DriveRotationDelta",
                      "value": -0.0010000000474974513,
                      "maxValue": 0.0010000000474974513,
                      "compareType": "Between"
                    }
                  ]
                },
                {
                  "$type": "ByTargetGlobalValue",
                  "key": "SGV_IsStopDrive",
                  "value": 0.0,
                  "compareType": "NoneOrEqual"
                }
              ],
              "successActions": [
                {
                  "$type": "AddGlobalValue",
                  "predicates": [
                    {
                      "$type": "ByTargetGlobalValue",
                      "key": "gv_DriveRotationDelta",
                      "value": 0.0,
                      "compareType": "MoreThan"
                    }
                  ],
                  "value": [
                    "SGV_K",
                    "gv_DriveRotationDelta",
                    "MUL",
                    5.0,
                    "DIV",
                    "SGV_B",
                    "ADD"
                  ],
                  "key": "gv_DriveRotation",
                  "maxValue": 0.0,
                  "minValue": 0.0
                }
              ]
            }
          ]
        },
        "UNIQUE_WheelDriveOnesideDeltaController_Other": {
          "stacking": "Unique",
          "modifierName": "",
          "forceTriggerWhenChangeAuthority": true,
          "elementDurability": 100.0,
          "thinkInterval": 0.20000000298023224,
          "modifierMixins": [
            {
              "$type": "LHFPGFBGMDN",
              "sgvIDKey": "SGV_WheelDriveTag_Other",
              "broadcastGVKey": "gv_RotationDelta",
              "MBIGJGBJDPF": "gv_DriveRotationDelta_Other",
              "ANABFKJNGFI": true
            }
          ],
          "onThinkInterval": [
            {
              "$type": "Predicated",
              "targetPredicates": [
                {
                  "$type": "ByNot",
                  "predicates": [
                    {
                      "$type": "ByTargetGlobalValue",
                      "key": "gv_DriveRotationDelta_Other",
                      "value": -0.0010000000474974513,
                      "maxValue": 0.0010000000474974513,
                      "compareType": "Between"
                    }
                  ]
                },
                {
                  "$type": "ByTargetGlobalValue",
                  "key": "SGV_IsStopDrive",
                  "value": 0.0,
                  "compareType": "NoneOrEqual"
                }
              ],
              "successActions": [
                {
                  "$type": "AddGlobalValue",
                  "predicates": [
                    {
                      "$type": "ByTargetGlobalValue",
                      "key": "gv_DriveRotationDelta_Other",
                      "value": 0.0,
                      "compareType": "MoreThan"
                    }
                  ],
                  "value": [
                    "SGV_K",
                    "gv_DriveRotationDelta_Other",
                    "MUL",
                    5.0,
                    "DIV",
                    "SGV_B",
                    "ADD"
                  ],
                  "key": "gv_DriveRotation",
                  "maxValue": 0.0,
                  "minValue": 0.0
                }
              ]
            }
          ]
        }
      },
      "onAdded": [
        {
          "$type": "AttachModifier",
          "modifierName": "DelayApplyController"
        },
        {
          "$type": "SetGlobalValue",
          "value": 0.0,
          "key": "gv_DriveRotationDelta",
          "maxValue": 0.0,
          "minValue": 0.0
        },
        {
          "$type": "SetGlobalValue",
          "value": 0.0,
          "key": "gv_DriveRotationDelta_Other",
          "maxValue": 0.0,
          "minValue": 0.0
        },
        {
          "$type": "Predicated",
          "targetPredicates": [
            {
              "$type": "ByTargetGlobalValue",
              "key": "SGV_DefaultDriveRotation",
              "value": 0.0,
              "compareType": "NoneOrEqual"
            }
          ],
          "successActions": [
            {
              "$type": "SetGlobalValue",
              "value": 0.0,
              "key": "gv_DriveRotation",
              "maxValue": 0.0,
              "minValue": 0.0
            }
          ],
          "failActions": [
            {
              "$type": "CopyGlobalValue",
              "srcKey": "SGV_DefaultDriveRotation",
              "dstKey": "gv_DriveRotation"
            }
          ]
        }
      ]
    }
  },
  {
    "Default": {
      "$type": "ConfigAbility",
      "abilityName": "Ability_WheelDrive_Animation_01",
      "HKFPCGFFKMJ": ["SGV_Min", "SGV_Max"],
      "modifiers": {
        "DelayApplyController": {
          "modifierName": "",
          "duration": 0.20000000298023224,
          "elementDurability": 100.0,
          "onRemoved": [
            {
              "$type": "Predicated",
              "targetPredicates": [
                {
                  "$type": "ByTargetGlobalValue",
                  "key": "SGV_StopWheelDrive",
                  "value": 0.0,
                  "compareType": "NoneOrEqual"
                }
              ],
              "successActions": [
                {
                  "$type": "Predicated",
                  "targetPredicates": [
                    {
                      "$type": "ByTargetGlobalValue",
                      "key": "SGV_IsSelfDriven",
                      "value": 0.0,
                      "compareType": "NoneOrEqual"
                    }
                  ],
                  "successActions": [
                    {
                      "$type": "ApplyModifier",
                      "modifierName": "UNIQUE_WheelDriveAnimationController"
                    }
                  ],
                  "failActions": [
                    {
                      "$type": "ApplyModifier",
                      "modifierName": "UNIQUE_SelfDriveAnimationController"
                    }
                  ]
                }
              ]
            }
          ]
        },
        "UNIQUE_WheelDriveAnimationController": {
          "stacking": "Unique",
          "modifierName": "",
          "forceTriggerWhenChangeAuthority": true,
          "elementDurability": 100.0,
          "modifierMixins": [
            {
              "$type": "DOCCCFBOGNL",
              "MBIGJGBJDPF": "gv_Rotation",
              "normalizedRange": ["SGV_Min", "SGV_Max"],
              "stateName": "WheelDrive",
              "sgvIDKey": "SGV_WheelDriveTag",
              "MLOLBLAMLIO": 0.20000000298023224
            }
          ]
        },
        "UNIQUE_SelfDriveAnimationController": {
          "stacking": "Unique",
          "modifierName": "",
          "forceTriggerWhenChangeAuthority": true,
          "elementDurability": 100.0,
          "modifierMixins": [
            {
              "$type": "DOCCCFBOGNL",
              "MBIGJGBJDPF": "gv_DriveRotation",
              "normalizedRange": ["SGV_Min", "SGV_Max"],
              "stateName": "WheelDrive",
              "sgvIDKey": "",
              "MLOLBLAMLIO": 0.20000000298023224,
              "PMFFCMOPHII": true
            }
          ]
        }
      },
      "onAdded": [
        {
          "$type": "AttachModifier",
          "modifierName": "DelayApplyController"
        }
      ]
    }
  },
  {
    "Default": {
      "$type": "ConfigAbility",
      "abilityName": "Ability_WheelDrive_Animation_02",
      "HKFPCGFFKMJ": ["SGV_Min", "SGV_Max"],
      "modifiers": {
        "DelayApplyController": {
          "modifierName": "",
          "duration": 0.20000000298023224,
          "elementDurability": 100.0,
          "onRemoved": [
            {
              "$type": "Predicated",
              "targetPredicates": [
                {
                  "$type": "ByTargetGlobalValue",
                  "key": "SGV_StopWheelDrive",
                  "value": 0.0,
                  "compareType": "NoneOrEqual"
                }
              ],
              "successActions": [
                {
                  "$type": "Predicated",
                  "targetPredicates": [
                    {
                      "$type": "ByTargetGlobalValue",
                      "key": "SGV_IsSelfDriven",
                      "value": 0.0,
                      "compareType": "NoneOrEqual"
                    }
                  ],
                  "successActions": [
                    {
                      "$type": "ApplyModifier",
                      "modifierName": "UNIQUE_WheelDriveAnimationController_2"
                    }
                  ],
                  "failActions": [
                    {
                      "$type": "ApplyModifier",
                      "modifierName": "UNIQUE_SelfDriveAnimationController_2"
                    }
                  ]
                }
              ]
            }
          ]
        },
        "UNIQUE_WheelDriveAnimationController_2": {
          "stacking": "Unique",
          "modifierName": "",
          "forceTriggerWhenChangeAuthority": true,
          "elementDurability": 100.0,
          "modifierMixins": [
            {
              "$type": "DOCCCFBOGNL",
              "MBIGJGBJDPF": "gv_Rotation",
              "normalizedRange": ["SGV_Min", "SGV_Max"],
              "stateName": "WheelDrive",
              "sgvIDKey": "SGV_WheelDriveTag",
              "MLOLBLAMLIO": 0.25
            }
          ]
        },
        "UNIQUE_SelfDriveAnimationController_2": {
          "stacking": "Unique",
          "modifierName": "",
          "forceTriggerWhenChangeAuthority": true,
          "elementDurability": 100.0,
          "modifierMixins": [
            {
              "$type": "DOCCCFBOGNL",
              "MBIGJGBJDPF": "gv_DriveRotation",
              "normalizedRange": ["SGV_Min", "SGV_Max"],
              "stateName": "WheelDrive",
              "sgvIDKey": "",
              "MLOLBLAMLIO": 0.25,
              "PMFFCMOPHII": true
            }
          ]
        }
      },
      "onAdded": [
        {
          "$type": "AttachModifier",
          "modifierName": "DelayApplyController"
        }
      ]
    }
  },
  {
    "Default": {
      "$type": "ConfigAbility",
      "abilityName": "Ability_WheelDrive_Rotation_01",
      "HKFPCGFFKMJ": ["SGV_Min", "SGV_Max"],
      "modifiers": {
        "DelayApplyController": {
          "modifierName": "",
          "duration": 0.20000000298023224,
          "elementDurability": 100.0,
          "onRemoved": [
            {
              "$type": "Predicated",
              "targetPredicates": [
                {
                  "$type": "ByTargetGlobalValue",
                  "key": "SGV_StopWheelDrive",
                  "value": 0.0,
                  "compareType": "NoneOrEqual"
                }
              ],
              "successActions": [
                {
                  "$type": "Predicated",
                  "targetPredicates": [
                    {
                      "$type": "ByTargetGlobalValue",
                      "key": "SGV_IsSelfDriven",
                      "value": 0.0,
                      "compareType": "NoneOrEqual"
                    }
                  ],
                  "successActions": [
                    {
                      "$type": "ApplyModifier",
                      "modifierName": "UNIQUE_WheelDriveRotationController"
                    }
                  ],
                  "failActions": [
                    {
                      "$type": "ApplyModifier",
                      "modifierName": "UNIQUE_SelfDriveRotationController"
                    }
                  ]
                }
              ]
            }
          ]
        },
        "UNIQUE_WheelDriveRotationController": {
          "stacking": "Unique",
          "modifierName": "",
          "forceTriggerWhenChangeAuthority": true,
          "elementDurability": 100.0,
          "modifierMixins": [
            {
              "$type": "LHOLBDMAKGC",
              "MBIGJGBJDPF": "gv_Rotation",
              "isNormalized": false,
              "normalizedRange": [-99999.0, 99999.0],
              "ELEMCOGCPEL": "WheelDrive",
              "BHLBKKHBNAA": 1,
              "sgvIDKey": "SGV_WheelDriveTag",
              "MLOLBLAMLIO": 0.20000000298023224
            }
          ]
        },
        "UNIQUE_SelfDriveRotationController": {
          "stacking": "Unique",
          "modifierName": "",
          "forceTriggerWhenChangeAuthority": true,
          "elementDurability": 100.0,
          "modifierMixins": [
            {
              "$type": "LHOLBDMAKGC",
              "MBIGJGBJDPF": "gv_DriveRotation",
              "isNormalized": false,
              "normalizedRange": [-99999.0, 99999.0],
              "ELEMCOGCPEL": "WheelDrive",
              "BHLBKKHBNAA": 1,
              "sgvIDKey": "",
              "MLOLBLAMLIO": 0.20000000298023224,
              "PMFFCMOPHII": true
            }
          ]
        }
      },
      "onAdded": [
        {
          "$type": "AttachModifier",
          "modifierName": "DelayApplyController"
        }
      ]
    }
  },
  {
    "Default": {
      "$type": "ConfigAbility",
      "abilityName": "Ability_WheelDrive_CustomAxisRotation_01",
      "HKFPCGFFKMJ": [
        "SGV_Min",
        "SGV_Max",
        "gv_Rotate_Axis_Forward_0",
        "gv_Rotate_Axis_Forward_1",
        "gv_Rotate_Axis_Forward_2",
        "gv_Rotate_Axis_0",
        "gv_Rotate_Axis_1",
        "gv_Rotate_Axis_2",
        "SGV_Rotate_Axis_0",
        "SGV_Rotate_Axis_1",
        "SGV_Rotate_Axis_2"
      ],
      "modifiers": {
        "DelayApplyController": {
          "modifierName": "",
          "duration": 0.20000000298023224,
          "elementDurability": 100.0,
          "onRemoved": [
            {
              "$type": "Predicated",
              "targetPredicates": [
                {
                  "$type": "ByTargetGlobalValue",
                  "key": "SGV_StopWheelDrive",
                  "value": 0.0,
                  "compareType": "NoneOrEqual"
                }
              ],
              "successActions": [
                {
                  "$type": "Predicated",
                  "targetPredicates": [
                    {
                      "$type": "ByTargetGlobalValue",
                      "key": "SGV_IsSelfDriven",
                      "value": 0.0,
                      "compareType": "NoneOrEqual"
                    }
                  ],
                  "successActions": [
                    {
                      "$type": "ApplyModifier",
                      "modifierName": "UNIQUE_WheelDriveCustomAxisRotationController"
                    }
                  ],
                  "failActions": [
                    {
                      "$type": "ApplyModifier",
                      "modifierName": "UNIQUE_SelfDriveCustomAxisRotationController"
                    }
                  ]
                }
              ]
            }
          ]
        },
        "UNIQUE_WheelDriveCustomAxisRotationController": {
          "stacking": "Unique",
          "modifierName": "",
          "forceTriggerWhenChangeAuthority": true,
          "elementDurability": 100.0,
          "modifierMixins": [
            {
              "$type": "LHOLBDMAKGC",
              "MBIGJGBJDPF": "gv_DriveRotation",
              "isNormalized": false,
              "normalizedRange": [-99999.0, 99999.0],
              "ELEMCOGCPEL": "WheelDrive",
              "BHLBKKHBNAA": 1,
              "EEOBJOOONIA": {
                "x": "gv_Rotate_Axis_Forward_0",
                "y": "gv_Rotate_Axis_Forward_1",
                "z": "gv_Rotate_Axis_Forward_2"
              },
              "FLHAHKHOLEE": {
                "x": "gv_Rotate_Axis_0",
                "y": "gv_Rotate_Axis_1",
                "z": "gv_Rotate_Axis_2"
              },
              "sgvIDKey": "SGV_WheelDriveTag",
              "MLOLBLAMLIO": 0.20000000298023224
            }
          ]
        },
        "UNIQUE_SelfDriveCustomAxisRotationController": {
          "stacking": "Unique",
          "modifierName": "",
          "forceTriggerWhenChangeAuthority": true,
          "elementDurability": 100.0,
          "modifierMixins": [
            {
              "$type": "LHOLBDMAKGC",
              "MBIGJGBJDPF": "gv_DriveRotation",
              "isNormalized": false,
              "normalizedRange": [-99999.0, 99999.0],
              "ELEMCOGCPEL": "WheelDrive",
              "BHLBKKHBNAA": 1,
              "EEOBJOOONIA": {
                "x": "gv_Rotate_Axis_Forward_0",
                "y": "gv_Rotate_Axis_Forward_1",
                "z": "gv_Rotate_Axis_Forward_2"
              },
              "FLHAHKHOLEE": {
                "x": "gv_Rotate_Axis_0",
                "y": "gv_Rotate_Axis_1",
                "z": "gv_Rotate_Axis_2"
              },
              "sgvIDKey": "",
              "MLOLBLAMLIO": 0.20000000298023224,
              "PMFFCMOPHII": true
            }
          ]
        }
      },
      "onAdded": [
        {
          "$type": "AttachModifier",
          "modifierName": "DelayApplyController"
        },
        {
          "$type": "SetGlobalDir",
          "key": "gv_Rotate_Axis",
          "born": {
            "$type": "ConfigBornBySelf",
            "direction": {
              "$type": "ConfigDirectionByWorld",
              "angleOffset": {
                "x": "SGV_Rotate_Axis_0",
                "y": "SGV_Rotate_Axis_1",
                "z": "SGV_Rotate_Axis_2"
              },
              "useCorrectDir": true,
              "eularAngles": {
                "x": -90.0
              }
            },
            "useRotation": true
          }
        },
        {
          "$type": "SetGlobalDir",
          "key": "gv_Rotate_Axis_Forward",
          "born": {
            "$type": "ConfigBornBySelf",
            "direction": {
              "$type": "ConfigDirectionByWorld",
              "angleOffset": {
                "x": 0.0,
                "y": -90.0,
                "z": 0.0
              },
              "useCorrectDir": true,
              "eularAngles": {
                "y": 90.0
              }
            },
            "useRotation": true
          }
        }
      ]
    }
  },
  {
    "Default": {
      "$type": "ConfigAbility",
      "abilityName": "Ability_WheelDrive_LinearMove_01",
      "HKFPCGFFKMJ": [
        "SGV_WheelDriveTag",
        "SGV_InitRouteIndex",
        "SGV_LinearMoveK"
      ],
      "modifiers": {
        "DelayApplyController": {
          "modifierName": "",
          "duration": 0.20000000298023224,
          "elementDurability": 100.0,
          "onRemoved": [
            {
              "$type": "ApplyModifier",
              "modifierName": "UNIQUE_WheelDriveSliderMoveController"
            }
          ]
        },
        "UNIQUE_WheelDriveSliderMoveController": {
          "stacking": "Unique",
          "modifierName": "",
          "forceTriggerWhenChangeAuthority": true,
          "elementDurability": 100.0,
          "modifierMixins": [
            {
              "$type": "NMDLMEJBKCG",
              "PDAANPOKDHO": {
                "$type": "PBLNLAENOGB",
                "tag": "WaterWheel"
              },
              "predicates": [
                {
                  "$type": "ByTargetGlobalValue",
                  "key": "SGV_WheelDriveTag",
                  "value": "SGV_WheelDriveTag"
                }
              ],
              "GHHNAOCBFHK": "gv_RotationDelta",
              "DOKJHDEFLBC": "SGV_LinearMoveK",
              "b": 0.0,
              "EKFNPAIHMBP": "SGV_InitRouteIndex",
              "PDCEGFLEIKP": "RaycastNode",
              "MBJPMGDIKJP": 0.30000001192092896
            }
          ]
        }
      },
      "onAdded": [
        {
          "$type": "AttachModifier",
          "modifierName": "DelayApplyController"
        }
      ]
    }
  },
  {
    "Default": {
      "$type": "ConfigAbility",
      "abilityName": "Ability_AutoAlign_GlobalValue_01",
      "HKFPCGFFKMJ": [
        "gv_DriveRotation",
        "SGV_AlignK",
        "SGV_AlignB",
        "SGV_AlignRange"
      ],
      "modifiers": {
        "DelayApplyController": {
          "modifierName": "",
          "duration": 0.20000000298023224,
          "elementDurability": 100.0,
          "onRemoved": [
            {
              "$type": "ApplyModifier",
              "modifierName": "UNIQUE_AutoAlign_GV_Controller"
            }
          ]
        },
        "UNIQUE_AutoAlign_GV_Controller": {
          "stacking": "Unique",
          "modifierName": "",
          "forceTriggerWhenChangeAuthority": true,
          "elementDurability": 100.0,
          "modifierMixins": [
            {
              "$type": "DoActionOnGlobalValueChangeMixin",
              "globalValueKey": "gv_DriveRotationDelta",
              "actions": [
                {
                  "$type": "Predicated",
                  "targetPredicates": [
                    {
                      "$type": "ByTargetGlobalValue",
                      "key": "gv_DriveRotationDelta",
                      "value": -0.009999999776482582,
                      "maxValue": 0.009999999776482582,
                      "compareType": "Between"
                    },
                    {
                      "$type": "ByTargetGlobalValue",
                      "key": "gv_DriveRotationDelta_Other",
                      "value": -0.009999999776482582,
                      "maxValue": 0.009999999776482582,
                      "compareType": "Between"
                    }
                  ],
                  "successActions": [
                    {
                      "$type": "SetGlobalValue",
                      "value": 1.0,
                      "key": "gv_EnableAutoAlign",
                      "maxValue": 0.0,
                      "minValue": 0.0
                    }
                  ],
                  "failActions": [
                    {
                      "$type": "SetGlobalValue",
                      "value": 0.0,
                      "key": "gv_EnableAutoAlign",
                      "maxValue": 0.0,
                      "minValue": 0.0
                    }
                  ]
                }
              ]
            },
            {
              "$type": "DoActionOnGlobalValueChangeMixin",
              "globalValueKey": "gv_DriveRotationDelta_Other",
              "actions": [
                {
                  "$type": "Predicated",
                  "targetPredicates": [
                    {
                      "$type": "ByTargetGlobalValue",
                      "key": "gv_DriveRotationDelta",
                      "value": -0.009999999776482582,
                      "maxValue": 0.009999999776482582,
                      "compareType": "Between"
                    },
                    {
                      "$type": "ByTargetGlobalValue",
                      "key": "gv_DriveRotationDelta_Other",
                      "value": -0.009999999776482582,
                      "maxValue": 0.009999999776482582,
                      "compareType": "Between"
                    }
                  ],
                  "successActions": [
                    {
                      "$type": "SetGlobalValue",
                      "value": 1.0,
                      "key": "gv_EnableAutoAlign",
                      "maxValue": 0.0,
                      "minValue": 0.0
                    }
                  ],
                  "failActions": [
                    {
                      "$type": "SetGlobalValue",
                      "value": 0.0,
                      "key": "gv_EnableAutoAlign",
                      "maxValue": 0.0,
                      "minValue": 0.0
                    }
                  ]
                }
              ]
            },
            {
              "$type": "BOCPKNLGPKB",
              "HHMLHONPINB": "gv_EnableAutoAlign",
              "key": "gv_DriveRotation",
              "value": "gv_DriveRotation",
              "MLOLBLAMLIO": 0.6000000238418579,
              "range": "SGV_AlignRange",
              "DDAJKHLBNJG": true,
              "DOKJHDEFLBC": "SGV_AlignK",
              "b": "SGV_AlignB",
              "FENDGCIGFGN": 0.0
            }
          ]
        }
      },
      "onAdded": [
        {
          "$type": "AttachModifier",
          "modifierName": "DelayApplyController"
        }
      ]
    }
  },
  {
    "Default": {
      "$type": "ConfigAbility",
      "abilityName": "Ability_AutoAlign_ToTarget_01",
      "HKFPCGFFKMJ": ["gv_DriveRotation", "SGV_AlignRange", "SGV_AutoAlignTag"],
      "modifiers": {
        "DelayApplyController": {
          "modifierName": "",
          "duration": 0.20000000298023224,
          "elementDurability": 100.0,
          "onRemoved": [
            {
              "$type": "ApplyModifier",
              "modifierName": "UNIQUE_AutoAlign_Target_Controller"
            }
          ]
        },
        "UNIQUE_AutoAlign_Target_Controller": {
          "stacking": "Unique",
          "modifierName": "",
          "forceTriggerWhenChangeAuthority": true,
          "elementDurability": 100.0,
          "modifierMixins": [
            {
              "$type": "DoActionOnGlobalValueChangeMixin",
              "globalValueKey": "gv_DriveRotationDelta",
              "actions": [
                {
                  "$type": "Predicated",
                  "targetPredicates": [
                    {
                      "$type": "ByTargetGlobalValue",
                      "key": "gv_DriveRotationDelta",
                      "value": 0.0
                    },
                    {
                      "$type": "ByTargetGlobalValue",
                      "key": "gv_DriveRotationDelta_Other",
                      "value": 0.0
                    }
                  ],
                  "successActions": [
                    {
                      "$type": "SetGlobalValue",
                      "value": 1.0,
                      "key": "gv_EnableAutoAlign",
                      "maxValue": 0.0,
                      "minValue": 0.0
                    }
                  ],
                  "failActions": [
                    {
                      "$type": "SetGlobalValue",
                      "value": 0.0,
                      "key": "gv_EnableAutoAlign",
                      "maxValue": 0.0,
                      "minValue": 0.0
                    }
                  ]
                }
              ]
            },
            {
              "$type": "DoActionOnGlobalValueChangeMixin",
              "globalValueKey": "gv_DriveRotationDelta_Other",
              "actions": [
                {
                  "$type": "Predicated",
                  "targetPredicates": [
                    {
                      "$type": "ByTargetGlobalValue",
                      "key": "gv_DriveRotationDelta",
                      "value": 0.0
                    },
                    {
                      "$type": "ByTargetGlobalValue",
                      "key": "gv_DriveRotationDelta_Other",
                      "value": 0.0
                    }
                  ],
                  "successActions": [
                    {
                      "$type": "SetGlobalValue",
                      "value": 1.0,
                      "key": "gv_EnableAutoAlign",
                      "maxValue": 0.0,
                      "minValue": 0.0
                    }
                  ],
                  "failActions": [
                    {
                      "$type": "SetGlobalValue",
                      "value": 0.0,
                      "key": "gv_EnableAutoAlign",
                      "maxValue": 0.0,
                      "minValue": 0.0
                    }
                  ]
                }
              ]
            },
            {
              "$type": "BOCPKNLGPKB",
              "HHMLHONPINB": "gv_EnableAutoAlign",
              "key": "gv_DriveRotation",
              "value": "gv_DriveRotation",
              "MLOLBLAMLIO": 0.6000000238418579,
              "range": "SGV_AlignRange",
              "DOKJHDEFLBC": 0.0,
              "b": 0.0,
              "GMDMOGDLJMA": ["SGV_AutoAlignAngle"],
              "otherTargets": {
                "$type": "PBLNLAENOGB",
                "tag": "AutoAlignTarget"
              },
              "predicates": [
                {
                  "$type": "ByTargetGlobalValue",
                  "key": "SGV_AutoAlignTag",
                  "value": "SGV_AutoAlignTag"
                }
              ],
              "FENDGCIGFGN": 1.0
            }
          ]
        }
      },
      "onAdded": [
        {
          "$type": "AttachModifier",
          "modifierName": "DelayApplyController"
        }
      ]
    }
  },
  {
    "Default": {
      "$type": "ConfigAbility",
      "abilityName": "Ability_SelectAutoAlignTarget_01",
      "HKFPCGFFKMJ": ["SGV_AutoAlignTag"],
      "modifiers": {
        "UNIQUE_AutoAlignController": {
          "stacking": "Unique",
          "modifierName": "",
          "forceTriggerWhenChangeAuthority": true,
          "elementDurability": 100.0,
          "modifierMixins": [
            {
              "$type": "DoActionOnGlobalValueChangeMixin",
              "globalValueKey": "gv_DriveRotationDelta",
              "actions": [
                {
                  "$type": "Predicated",
                  "targetPredicates": [
                    {
                      "$type": "ByTargetGlobalValue",
                      "key": "gv_DriveRotationDelta",
                      "value": -9.999999747378752e-5,
                      "maxValue": 9.999999747378752e-5,
                      "compareType": "Between"
                    }
                  ],
                  "successActions": [
                    {
                      "$type": "SetGlobalValue",
                      "value": 5.0,
                      "key": "gv_ConnectType",
                      "maxValue": 0.0,
                      "minValue": 0.0
                    }
                  ]
                }
              ]
            }
          ]
        }
      },
      "onAdded": [
        {
          "$type": "SetTargetToTargetKey",
          "otherTargets": {
            "$type": "PBLNLAENOGB",
            "tag": "AutoAlignTarget"
          },
          "predicates": [
            {
              "$type": "ByTargetGlobalValue",
              "key": "SGV_AutoAlignTag",
              "value": "SGV_AutoAlignTag"
            }
          ],
          "targetKey": "_AutoAlignTarget"
        },
        {
          "$type": "AttachModifier",
          "modifierName": "UNIQUE_AutoAlignController"
        }
      ]
    }
  },
  {
    "Default": {
      "$type": "ConfigAbility",
      "abilityName": "Ability_CheckDriveRotationGV_01",
      "HKFPCGFFKMJ": ["gv_DriveRotation", "gv_PreDriveRotation"],
      "modifiers": {
        "UNIQUE_CheckDriveRotationGV": {
          "stacking": "Unique",
          "modifierName": "",
          "forceTriggerWhenChangeAuthority": true,
          "elementDurability": 100.0,
          "thinkInterval": 0.5,
          "onThinkInterval": [
            {
              "$type": "SetGlobalValue",
              "value": ["gv_DriveRotation", "gv_PreDriveRotation", "SUB"],
              "key": "gv_TrueDriveRotationDelta",
              "maxValue": 0.0,
              "minValue": 0.0
            },
            {
              "$type": "SetGlobalValue",
              "value": "gv_DriveRotation",
              "key": "gv_PreDriveRotation",
              "maxValue": 0.0,
              "minValue": 0.0
            },
            {
              "$type": "Predicated",
              "targetPredicates": [
                {
                  "$type": "ByTargetGlobalValue",
                  "key": "gv_TrueDriveRotationDelta",
                  "value": -9.999999747378752e-5,
                  "maxValue": 9.999999747378752e-5,
                  "compareType": "Between"
                }
              ],
              "successActions": [
                {
                  "$type": "SetGlobalValue",
                  "value": 0.0,
                  "key": "gv_HasCalledLua_OnRotate",
                  "maxValue": 0.0,
                  "minValue": 0.0
                },
                {
                  "$type": "AHPEKICBIIL",
                  "predicates": [
                    {
                      "$type": "ByTargetGlobalValue",
                      "key": "gv_HasCalledLua_OnStop",
                      "value": 0.0
                    }
                  ],
                  "luaCallType": "FromGroup",
                  "funcName": "SLC_CheckDriveRotationGV",
                  "paramNum": 1,
                  "param1": 0,
                  "MGAMDEHMCOL": 0.0,
                  "MMHOHAOGPLP": 0.0
                },
                {
                  "$type": "SetGlobalValue",
                  "predicates": [
                    {
                      "$type": "ByTargetGlobalValue",
                      "key": "gv_HasCalledLua_OnStop",
                      "value": 0.0
                    }
                  ],
                  "value": 1.0,
                  "key": "gv_HasCalledLua_OnStop",
                  "maxValue": 0.0,
                  "minValue": 0.0
                }
              ],
              "failActions": [
                {
                  "$type": "SetGlobalValue",
                  "value": 0.0,
                  "key": "gv_HasCalledLua_OnStop",
                  "maxValue": 0.0,
                  "minValue": 0.0
                },
                {
                  "$type": "AHPEKICBIIL",
                  "predicates": [
                    {
                      "$type": "ByTargetGlobalValue",
                      "key": "gv_HasCalledLua_OnRotate",
                      "value": 0.0
                    }
                  ],
                  "luaCallType": "FromGroup",
                  "funcName": "SLC_CheckDriveRotationGV",
                  "paramNum": 1,
                  "param1": 0,
                  "MGAMDEHMCOL": 0.0,
                  "MMHOHAOGPLP": 0.0
                },
                {
                  "$type": "SetGlobalValue",
                  "predicates": [
                    {
                      "$type": "ByTargetGlobalValue",
                      "key": "gv_HasCalledLua_OnRotate",
                      "value": 0.0
                    }
                  ],
                  "value": 1.0,
                  "key": "gv_HasCalledLua_OnRotate",
                  "maxValue": 0.0,
                  "minValue": 0.0
                }
              ]
            }
          ]
        }
      },
      "onAdded": [
        {
          "$type": "AttachModifier",
          "modifierName": "UNIQUE_CheckDriveRotationGV"
        }
      ]
    }
  },
  {
    "Default": {
      "$type": "ConfigAbility",
      "abilityName": "SceneObj_Area_Common_Property_Ani_WheelDriveFinishState_01",
      "abilityMixins": [
        {
          "$type": "AttachToGadgetStateMixin",
          "modifierName": "DefaultState"
        },
        {
          "$type": "AttachToGadgetStateMixin",
          "gadgetState": 901,
          "modifierName": "StopDriveState"
        }
      ],
      "HKFPCGFFKMJ": ["SGV_DefaultFinishRotation"],
      "modifiers": {
        "DefaultState": {
          "modifierName": "",
          "elementDurability": 100.0,
          "onAdded": [
            {
              "$type": "AHPEKICBIIL",
              "luaCallType": "FromGroup",
              "funcName": "SLC_SetWheelDriveState",
              "paramNum": 1,
              "param1": 1.0,
              "MGAMDEHMCOL": 0.0,
              "MMHOHAOGPLP": 0.0
            }
          ]
        },
        "StopDriveState": {
          "modifierName": "",
          "elementDurability": 100.0,
          "onAdded": [
            {
              "$type": "AHPEKICBIIL",
              "luaCallType": "FromGroup",
              "funcName": "SLC_SetWheelDriveState",
              "paramNum": 1,
              "param1": 0.0,
              "MGAMDEHMCOL": 0.0,
              "MMHOHAOGPLP": 0.0
            },
            {
              "$type": "SetGlobalValue",
              "value": "SGV_DefaultFinishRotation",
              "key": "gv_DriveRotation",
              "maxValue": 0.0,
              "minValue": 0.0
            }
          ]
        }
      }
    }
  },
  {
    "Default": {
      "$type": "ConfigAbility",
      "abilityName": "Ability_ShootLaser_01",
      "abilityMixins": [
        {
          "$type": "NKENLIHLFPF",
          "rotationDampTime": "Eff_SceneObj_EnergyWheel_01_Line",
          "onLaserHit": [
            {
              "$type": "DebugLog",
              "content": "激光：射中物件"
            },
            {
              "$type": "AttachModifier",
              "target": "Target",
              "modifierName": "ShooterLaserHit"
            },
            {
              "$type": "Predicated",
              "target": "Target",
              "targetPredicates": [
                {
                  "$type": "ByTargetGlobalValue",
                  "key": "gv_LaserTarget",
                  "value": 1.0
                }
              ],
              "successActions": [
                {
                  "$type": "AddGlobalValue",
                  "value": 1.0,
                  "key": "gv_LaserType",
                  "useLimitRange": true,
                  "maxValue": 1000.0,
                  "minValue": 0.0
                }
              ]
            }
          ],
          "onLaserLeave": [
            {
              "$type": "DebugLog",
              "content": "激光：离开物件"
            },
            {
              "$type": "AttachModifier",
              "target": "Target",
              "modifierName": "ShooterLaserLeave"
            },
            {
              "$type": "Predicated",
              "target": "Target",
              "targetPredicates": [
                {
                  "$type": "ByTargetGlobalValue",
                  "key": "gv_LaserTarget",
                  "value": 1.0
                }
              ],
              "successActions": [
                {
                  "$type": "AddGlobalValue",
                  "value": -1.0,
                  "key": "gv_LaserType",
                  "useLimitRange": true,
                  "maxValue": 1000.0,
                  "minValue": 0.0
                }
              ]
            }
          ]
        }
      ],
      "modifiers": {
        "LaserController": {
          "modifierName": "",
          "elementDurability": 100.0,
          "modifierMixins": [
            {
              "$type": "AttachModifierToGlobalValueMixin",
              "globalValueKey": "gv_ShootLaser",
              "valueSteps": [-0.5, 0.5, 1.5],
              "modifierNameSteps": ["NoShootLaser", "ShootLaser"]
            }
          ]
        },
        "NoShootLaser": {
          "modifierName": "",
          "elementDurability": 100.0
        },
        "ShootLaser": {
          "modifierName": "",
          "elementDurability": 100.0,
          "modifierMixins": [
            {
              "$type": "AttachModifierToGlobalValueMixin",
              "globalValueKey": "gv_LaserType",
              "valueSteps": [-0.5, 0.5, 1000.5],
              "modifierNameSteps": ["ShortLaser", "LongLaser"]
            }
          ],
          "onAdded": [
            {
              "$type": "SetGlobalValue",
              "value": 0.0,
              "key": "gv_LaserType",
              "maxValue": 0.0,
              "minValue": 0.0
            },
            {
              "$type": "AttachEffect",
              "rotationDampTime": "Eff_SceneObj_EnergyWheel_01_Line_Fake",
              "PPPDJGDDOGD": 1.0,
              "AJDILHJFNKE": -1.0
            },
            {
              "$type": "AttachEffect",
              "rotationDampTime": "Eff_SceneObj_EnergyWheel_01_Line",
              "PPPDJGDDOGD": 1.0,
              "AJDILHJFNKE": -1.0
            },
            {
              "$type": "AttachEffect",
              "rotationDampTime": "Eff_SceneObj_EnergyWheel_01_Default",
              "PPPDJGDDOGD": 1.0,
              "AJDILHJFNKE": -1.0
            }
          ],
          "onReconnect": [
            {
              "$type": "SetGlobalValue",
              "value": 0.0,
              "key": "gv_LaserType",
              "maxValue": 0.0,
              "minValue": 0.0
            }
          ]
        },
        "ShortLaser": {
          "modifierName": "",
          "elementDurability": 100.0,
          "onAdded": [
            {
              "$type": "SendEffectTrigger",
              "parameter": "Gadget",
              "attachPoint": "",
              "damageRatio": "Int",
              "rotationDampTime": "Eff_SceneObj_EnergyWheel_01_Line"
            }
          ]
        },
        "LongLaser": {
          "modifierName": "",
          "elementDurability": 100.0,
          "onAdded": [
            {
              "$type": "SendEffectTrigger",
              "parameter": "Gadget",
              "attachPoint": "",
              "damageRatio": "Int",
              "value": 201,
              "rotationDampTime": "Eff_SceneObj_EnergyWheel_01_Line"
            },
            {
              "$type": "AttachEffect",
              "rotationDampTime": "Eff_SceneObj_EnergyWheel_01_Active",
              "PPPDJGDDOGD": 1.0,
              "AJDILHJFNKE": -1.0
            }
          ]
        },
        "ShooterLaserHit": {
          "stacking": "Multiple",
          "modifierName": "",
          "duration": 0.10000000149011612,
          "elementDurability": 100.0,
          "onAdded": [
            {
              "$type": "AddGlobalValue",
              "value": 1.0,
              "key": "gv_LaserHit",
              "useLimitRange": true,
              "maxValue": 1000.0,
              "minValue": 0.0
            }
          ]
        },
        "ShooterLaserLeave": {
          "stacking": "Multiple",
          "modifierName": "",
          "duration": 0.10000000149011612,
          "elementDurability": 100.0,
          "onAdded": [
            {
              "$type": "AddGlobalValue",
              "value": -1.0,
              "key": "gv_LaserHit",
              "useLimitRange": true,
              "maxValue": 1000.0,
              "minValue": 0.0
            }
          ]
        }
      },
      "onAdded": [
        {
          "$type": "AOOCGNCCAJB",
          "isAdd": true,
          "tag": "LaserShooter"
        },
        {
          "$type": "SetGlobalValue",
          "value": 0.0,
          "key": "gv_LaserType",
          "maxValue": 0.0,
          "minValue": 0.0
        },
        {
          "$type": "Predicated",
          "targetPredicates": [
            {
              "$type": "ByTargetGlobalValue",
              "key": "SGV_DefaultShootLaser",
              "value": 0.0,
              "compareType": "NoneOrEqual"
            }
          ],
          "successActions": [
            {
              "$type": "SetGlobalValue",
              "value": 0.0,
              "key": "gv_ShootLaser",
              "maxValue": 0.0,
              "minValue": 0.0
            }
          ],
          "failActions": [
            {
              "$type": "SetGlobalValue",
              "predicates": [
                {
                  "$type": "ByNot",
                  "predicates": [
                    {
                      "$type": "HNLCJOPBDLC",
                      "gadgetState": 101
                    }
                  ]
                }
              ],
              "value": 1.0,
              "key": "gv_ShootLaser",
              "maxValue": 0.0,
              "minValue": 0.0
            }
          ]
        },
        {
          "$type": "AttachModifier",
          "modifierName": "LaserController"
        }
      ]
    }
  },
  {
    "Default": {
      "$type": "ConfigAbility",
      "abilityName": "Ability_ReceiveLaser_SelfGroup_01",
      "HKFPCGFFKMJ": ["SGV_LensTag"],
      "modifiers": {
        "LaserReceiver": {
          "modifierName": "",
          "elementDurability": 100.0,
          "modifierMixins": [
            {
              "$type": "NPPOLNNMFKM",
              "rotationDampTime": "Eff_SceneObj_EnergyWheel_01_Line",
              "attachEffect": ""
            },
            {
              "$type": "AttachModifierToGlobalValueMixin",
              "globalValueKey": "gv_LaserHit",
              "valueSteps": [-0.5, 0.5, 1000.5],
              "modifierNameSteps": ["OnNoLaserHit", "OnLaserHit"]
            }
          ],
          "onAdded": [
            {
              "$type": "SetGlobalValue",
              "shieldHP": true,
              "value": 0.0,
              "key": "gv_LaserHit",
              "maxValue": 0.0,
              "minValue": 0.0
            }
          ],
          "onReconnect": [
            {
              "$type": "SetGlobalValue",
              "shieldHP": true,
              "value": 0.0,
              "key": "gv_LaserHit",
              "maxValue": 0.0,
              "minValue": 0.0
            }
          ]
        },
        "OnNoLaserHit": {
          "modifierName": "",
          "elementDurability": 100.0,
          "onRemoved": [
            {
              "$type": "RemoveModifier",
              "otherTargets": {
                "$type": "PBLNLAENOGB",
                "tag": "LaserShooter"
              },
              "predicatesForeach": [
                {
                  "$type": "ByTargetGlobalValue",
                  "key": "SGV_LensTag",
                  "value": "SGV_LensTag"
                }
              ],
              "modifierName": "CommandShootLaser"
            }
          ]
        },
        "OnLaserHit": {
          "modifierName": "",
          "elementDurability": 100.0,
          "onAdded": [
            {
              "$type": "AttachEffect",
              "rotationDampTime": "Eff_SceneObj_EnergyWheel_01_Hit_02",
              "PPPDJGDDOGD": 1.0,
              "AJDILHJFNKE": -1.0
            },
            {
              "$type": "AttachModifier",
              "otherTargets": {
                "$type": "PBLNLAENOGB",
                "tag": "LaserShooter"
              },
              "predicatesForeach": [
                {
                  "$type": "ByTargetGlobalValue",
                  "key": "SGV_LensTag",
                  "value": "SGV_LensTag"
                }
              ],
              "modifierName": "CommandShootLaser"
            }
          ]
        },
        "CommandShootLaser": {
          "modifierName": "",
          "elementDurability": 100.0,
          "onAdded": [
            {
              "$type": "SetGlobalValue",
              "value": 1.0,
              "key": "gv_ShootLaser",
              "maxValue": 0.0,
              "minValue": 0.0
            }
          ],
          "onRemoved": [
            {
              "$type": "SetGlobalValue",
              "value": 0.0,
              "key": "gv_ShootLaser",
              "maxValue": 0.0,
              "minValue": 0.0
            }
          ]
        }
      },
      "onAdded": [
        {
          "$type": "AttachModifier",
          "modifierName": "LaserReceiver"
        },
        {
          "$type": "SetGlobalValue",
          "value": 1.0,
          "key": "gv_LaserTarget",
          "maxValue": 0.0,
          "minValue": 0.0
        }
      ]
    }
  },
  {
    "Default": {
      "$type": "ConfigAbility",
      "abilityName": "Ability_ReceiveLaser_Self_01",
      "modifiers": {
        "LaserReceiver": {
          "modifierName": "",
          "elementDurability": 100.0,
          "modifierMixins": [
            {
              "$type": "NPPOLNNMFKM",
              "rotationDampTime": "Eff_SceneObj_EnergyWheel_01_Line",
              "attachEffect": ""
            },
            {
              "$type": "AttachModifierToGlobalValueMixin",
              "globalValueKey": "gv_LaserHit",
              "valueSteps": [-0.5, 0.5, 1000.5],
              "modifierNameSteps": ["OnNoLaserHit", "OnLaserHit"]
            }
          ],
          "onAdded": [
            {
              "$type": "SetGlobalValue",
              "shieldHP": true,
              "value": 0.0,
              "key": "gv_LaserHit",
              "maxValue": 0.0,
              "minValue": 0.0
            }
          ],
          "onReconnect": [
            {
              "$type": "SetGlobalValue",
              "shieldHP": true,
              "value": 0.0,
              "key": "gv_LaserHit",
              "maxValue": 0.0,
              "minValue": 0.0
            }
          ]
        },
        "OnNoLaserHit": {
          "modifierName": "",
          "elementDurability": 100.0,
          "onRemoved": [
            {
              "$type": "RemoveModifier",
              "modifierName": "CommandShootLaser"
            }
          ]
        },
        "OnLaserHit": {
          "modifierName": "",
          "elementDurability": 100.0,
          "onAdded": [
            {
              "$type": "AttachEffect",
              "rotationDampTime": "Eff_SceneObj_EnergyWheel_01_Hit_02",
              "PPPDJGDDOGD": 1.0,
              "AJDILHJFNKE": -1.0
            },
            {
              "$type": "AttachModifier",
              "modifierName": "CommandShootLaser"
            }
          ]
        },
        "CommandShootLaser": {
          "modifierName": "",
          "elementDurability": 100.0,
          "onAdded": [
            {
              "$type": "SetGlobalValue",
              "value": 1.0,
              "key": "gv_ShootLaser",
              "maxValue": 0.0,
              "minValue": 0.0
            }
          ],
          "onRemoved": [
            {
              "$type": "SetGlobalValue",
              "value": 0.0,
              "key": "gv_ShootLaser",
              "maxValue": 0.0,
              "minValue": 0.0
            }
          ]
        }
      },
      "onAdded": [
        {
          "$type": "AttachModifier",
          "modifierName": "LaserReceiver"
        },
        {
          "$type": "SetGlobalValue",
          "value": 1.0,
          "key": "gv_LaserTarget",
          "maxValue": 0.0,
          "minValue": 0.0
        }
      ]
    }
  }
]
