[
  {
    "Default": {
      "$type": "ConfigAbility",
      "abilityName": "SceneObj_Area_Xm_Property_Ani_Prop_DirectAttackSandWorm_Sand_01",
      "abilitySpecials": {
        "LevelEntity_AvatarDot_SystemValue": 1.0,
        "Damage_Coefficient_Monster": 1.5,
        "Damage_Coefficient_Player": 1.5,
        "max_attack_times": 5.0,
        "Attack_Times": 0.0
      },
      "modifiers": {
        "SandwormAttackController": {
          "modifierName": "",
          "elementDurability": 100.0,
          "modifierMixins": [
            {
              "$type": "AttachModifierToGlobalValueMixin",
              "globalValueKey": "_attack_times",
              "valueSteps": [
                -0.5, 0.5, 1.5, 2.5, 3.5, 4.5, 5.5, 6.5, 7.5, 8.5, 9.5, 10.5
              ],
              "modifierNameSteps": [
                "attack_phase",
                "attack_wait_phase",
                "attack_phase",
                "attack_wait_phase",
                "attack_phase",
                "attack_wait_phase",
                "attack_phase",
                "attack_wait_phase",
                "attack_phase",
                "attack_wait_phase",
                "attack_end"
              ]
            }
          ],
          "onHittingOther": [
            {
              "$type": "Predicated",
              "target": "Other",
              "targetPredicates": [
                {
                  "$type": "ByEntityTypes",
                  "entityTypes": ["Avatar"]
                },
                {
                  "$type": "AHEDBPEIDHJ"
                }
              ]
            }
          ]
        },
        "attack_phase": {
          "modifierName": "",
          "duration": 3.0999999046325684,
          "elementDurability": 100.0,
          "onAdded": [
            {
              "$type": "Predicated",
              "targetPredicates": [
                {
                  "$type": "ByTargetGlobalValue",
                  "key": "SGV_Target_Stragety",
                  "value": 1.0
                }
              ],
              "successActions": [
                {
                  "$type": "SetSelfAttackTarget",
                  "otherTargets": {
                    "$type": "SelectTargetsByShape",
                    "topLimit": 1,
                    "entityTypePriority": ["Avatar"],
                    "shapeName": "CircleR140",
                    "campTargetType": "All",
                    "doOffStage": 1.0
                  },
                  "predicates": [
                    {
                      "$type": "ByEntityTypes",
                      "entityTypes": ["Avatar"]
                    },
                    {
                      "$type": "AHEDBPEIDHJ"
                    }
                  ]
                }
              ],
              "failActions": [
                {
                  "$type": "SetSelfAttackTarget"
                }
              ]
            },
            {
              "$type": "SetGlobalPos",
              "target": "SelfAttackTarget",
              "key": "_target_pos",
              "born": {
                "$type": "ConfigBornByTarget",
                "onGround": true,
                "onGroundIgnoreWater": true,
                "alongGround": true
              },
              "setTarget": false
            },
            {
              "$type": "SetGlobalDir",
              "target": "SelfAttackTarget",
              "key": "_target_dir",
              "born": {
                "$type": "ConfigBornByTarget",
                "onGroundIgnoreWater": true,
                "direction": {
                  "$type": "ConfigDirectionByGroundNormalRange",
                  "useCorrectDir": true,
                  "range": 4
                },
                "useRotation": true
              },
              "setTarget": false
            },
            {
              "$type": "Predicated",
              "targetPredicates": [
                {
                  "$type": "ABNOEIOFHMH",
                  "target": "Self",
                  "logic": "Lesser",
                  "globalPos": "_target_pos",
                  "toGroundHeight": 11.0
                }
              ],
              "successActions": [
                {
                  "$type": "FireEffect",
                  "rotationDampTime": "Eff_Property_Prop_SandwormAttack_PreAttack_Activity",
                  "born": {
                    "$type": "ConfigBornByGlobalValue",
                    "positionKey": "_target_pos",
                    "directionKey": "_target_dir"
                  },
                  "PPPDJGDDOGD": 1.0,
                  "AJDILHJFNKE": -1.0
                },
                {
                  "$type": "ApplyModifier",
                  "modifierName": "attack_delayed"
                }
              ]
            }
          ],
          "onRemoved": [
            {
              "$type": "Predicated",
              "targetPredicates": [
                {
                  "$type": "ABNOEIOFHMH",
                  "target": "Self",
                  "logic": "Lesser",
                  "globalPos": "_target_pos",
                  "toGroundHeight": 11.0
                }
              ],
              "successActions": [
                {
                  "$type": "GDHGMAPPGHD",
                  "key": "LevelEntity_AvatarDot_SystemValue",
                  "damageRatio": "ElementLevelCo"
                },
                {
                  "$type": "TriggerAttackEvent",
                  "attackEvent": {
                    "attackPattern": {
                      "$type": "ConfigAttackCircle",
                      "triggerType": "TriggerNoRepeat",
                      "ignoreMassive": true,
                      "born": {
                        "$type": "ConfigBornByGlobalValue",
                        "offset": {
                          "x": 0.0,
                          "y": -5.0,
                          "z": 0.0
                        },
                        "positionKey": "_target_pos",
                        "directionKey": "_target_dir"
                      },
                      "height": 9.0,
                      "radius": 3.0
                    },
                    "attackInfo": {
                      "attackTag": "SandwormAttack",
                      "attenuationTag": "",
                      "attenuationGroup": "default",
                      "attackProperty": {
                        "actorGrassSubHurtDelta": 0.0,
                        "actorWindSubHurtDelta": 0.0,
                        "elementDurability": 0.0,
                        "ignoreAttackerProperty": true,
                        "strikeType": "Blunt",
                        "enBreak": 350.0,
                        "HMBONGBFIAP": [
                          "LevelEntity_AvatarDot_SystemValue",
                          "Damage_Coefficient_Monster",
                          "MUL"
                        ],
                        "trueDamage": true,
                        "GLKMCMDJBIK": 0.0
                      },
                      "hitPattern": {
                        "onHitEffectName": "",
                        "hitImpulseY": "",
                        "hitImpulseType": "LV6"
                      }
                    }
                  },
                  "targetType": "Enemy"
                },
                {
                  "$type": "TriggerAttackEvent",
                  "attackEvent": {
                    "attackPattern": {
                      "$type": "ConfigAttackCircle",
                      "triggerType": "TriggerNoRepeat",
                      "ignoreMassive": true,
                      "born": {
                        "$type": "ConfigBornByGlobalValue",
                        "offset": {
                          "x": 0.0,
                          "y": -5.0,
                          "z": 0.0
                        },
                        "positionKey": "_target_pos",
                        "directionKey": "_target_dir"
                      },
                      "height": 9.0,
                      "radius": 3.0
                    },
                    "attackInfo": {
                      "attackTag": "SandwormAttack",
                      "attenuationTag": "",
                      "attenuationGroup": "default",
                      "attackProperty": {
                        "actorGrassSubHurtDelta": 0.0,
                        "actorWindSubHurtDelta": 0.0,
                        "elementDurability": 0.0,
                        "ignoreAttackerProperty": true,
                        "strikeType": "Blunt",
                        "enBreak": 350.0,
                        "HMBONGBFIAP": [
                          "LevelEntity_AvatarDot_SystemValue",
                          "Damage_Coefficient_Monster",
                          "MUL"
                        ],
                        "trueDamage": true,
                        "GLKMCMDJBIK": 0.0
                      },
                      "hitPattern": {
                        "onHitEffectName": "",
                        "hitImpulseY": "",
                        "hitImpulseType": "LV6"
                      }
                    }
                  },
                  "targetType": "SelfCamp"
                }
              ]
            },
            {
              "$type": "AddGlobalValue",
              "value": 1.0,
              "key": "_attack_times",
              "maxValue": 0.0,
              "minValue": 0.0
            }
          ]
        },
        "attack_wait_phase": {
          "modifierName": "",
          "duration": 3.0,
          "elementDurability": 100.0,
          "onRemoved": [
            {
              "$type": "AddGlobalValue",
              "value": 1.0,
              "key": "_attack_times",
              "maxValue": 0.0,
              "minValue": 0.0
            }
          ]
        },
        "attack_end": {
          "modifierName": "",
          "elementDurability": 100.0,
          "onAdded": [
            {
              "$type": "KillSelf"
            }
          ]
        },
        "attack_delayed": {
          "modifierName": "",
          "duration": 2.0,
          "elementDurability": 100.0,
          "onRemoved": [
            {
              "$type": "FireEffect",
              "rotationDampTime": "Eff_Property_Prop_SandwormAttack_Attack",
              "born": {
                "$type": "ConfigBornByGlobalValue",
                "positionKey": "_target_pos",
                "directionKey": "_target_dir"
              },
              "PPPDJGDDOGD": 1.0,
              "AJDILHJFNKE": -1.0
            }
          ]
        }
      },
      "onAdded": [
        {
          "$type": "SetGlobalValueToOverrideMap",
          "globalValueKey": "SGV_Attack_Times",
          "overrideMapKey": "Attack_Times"
        },
        {
          "$type": "SetGlobalValue",
          "value": [
            "max_attack_times",
            2.0,
            "MUL",
            "Attack_Times",
            2.0,
            "MUL",
            "SUB"
          ],
          "key": "_attack_times",
          "maxValue": 0.0,
          "minValue": 0.0
        },
        {
          "$type": "AttachModifier",
          "modifierName": "SandwormAttackController"
        }
      ]
    }
  },
  {
    "Default": {
      "$type": "ConfigAbility",
      "abilityName": "SceneObj_Area_Xm_Property_Ani_Prop_ChargingStation_Sand_01",
      "abilityMixins": [
        {
          "$type": "AttachToGadgetStateMixin",
          "modifierName": "None"
        },
        {
          "$type": "AttachToGadgetStateMixin",
          "gadgetState": 201,
          "modifierName": "Build"
        },
        {
          "$type": "AttachToGadgetStateMixin",
          "gadgetState": 202,
          "modifierName": "Ready"
        }
      ],
      "modifiers": {
        "None": {
          "modifierName": "",
          "elementDurability": 100.0,
          "onAdded": [
            {
              "$type": "CLKGEHMNIEF",
              "transformNames": ["Vo1"]
            },
            {
              "$type": "CLKGEHMNIEF",
              "transformNames": ["Vo2"],
              "setEnable": true
            },
            {
              "$type": "AttachEffect",
              "rotationDampTime": "Eff_Item_SpecialTreasureBox_LockIdle",
              "born": {
                "$type": "ConfigBornByAttachPoint",
                "useRotation": true,
                "attachPointName": "AttachPoint"
              },
              "PPPDJGDDOGD": 1.0,
              "AJDILHJFNKE": -1.0
            }
          ],
          "onRemoved": [
            {
              "$type": "FireEffect",
              "rotationDampTime": "Eff_Item_SpecialTreasureBox_Unlock",
              "born": {
                "$type": "ConfigBornByAttachPoint",
                "useRotation": true,
                "attachPointName": "AttachPoint"
              },
              "PPPDJGDDOGD": 1.0,
              "AJDILHJFNKE": -1.0
            }
          ]
        },
        "Build": {
          "modifierName": "",
          "elementDurability": 100.0,
          "onRemoved": [
            {
              "$type": "FireEffect",
              "rotationDampTime": "Eff_SceneObj_ChargingStation_01_Building",
              "born": {
                "$type": "ConfigBornByAttachPoint",
                "useRotation": true,
                "attachPointName": "RootNode"
              },
              "PPPDJGDDOGD": 1.0,
              "AJDILHJFNKE": -1.0
            }
          ]
        },
        "Ready": {
          "modifierName": "",
          "elementDurability": 100.0,
          "onAdded": [
            {
              "$type": "CLKGEHMNIEF",
              "transformNames": ["Vo1"],
              "setEnable": true
            },
            {
              "$type": "CLKGEHMNIEF",
              "transformNames": ["Vo2"]
            }
          ]
        }
      }
    }
  },
  {
    "Default": {
      "$type": "ConfigAbility",
      "abilityName": "SceneObj_Area_Xm_Property_Ani_Prop_ChargingStation_Sand_02",
      "abilityMixins": [
        {
          "$type": "AttachToGadgetStateMixin",
          "modifierName": "Charging"
        },
        {
          "$type": "AttachToGadgetStateMixin",
          "gadgetState": 201,
          "modifierName": "Ready"
        },
        {
          "$type": "AttachToGadgetStateMixin",
          "gadgetState": 901,
          "modifierName": "Destory"
        }
      ],
      "modifiers": {
        "Charging": {
          "modifierName": "",
          "elementDurability": 100.0,
          "onAdded": [
            {
              "$type": "SetAnimatorInt",
              "intID": "State",
              "value": 201.0
            },
            {
              "$type": "AttachEffect",
              "rotationDampTime": "Eff_SceneObj_ChargingStation_01_Charge",
              "born": {
                "$type": "ConfigBornByAttachPoint",
                "useRotation": true,
                "attachPointName": "AttachPoint"
              },
              "PPPDJGDDOGD": 1.0,
              "AJDILHJFNKE": -1.0
            }
          ]
        },
        "Ready": {
          "modifierName": "",
          "elementDurability": 100.0,
          "onAdded": [
            {
              "$type": "SetAnimatorInt",
              "intID": "State",
              "value": 202.0
            },
            {
              "$type": "AttachEffect",
              "rotationDampTime": "Eff_SceneObj_ChargingStation_01_Finish",
              "born": {
                "$type": "ConfigBornByAttachPoint",
                "useRotation": true,
                "attachPointName": "AttachPoint"
              },
              "PPPDJGDDOGD": 1.0,
              "AJDILHJFNKE": -1.0
            }
          ]
        },
        "Destory": {
          "modifierName": "",
          "elementDurability": 100.0,
          "onAdded": [
            {
              "$type": "SetAnimatorInt",
              "intID": "State",
              "value": 901.0
            },
            {
              "$type": "AttachEffect",
              "rotationDampTime": "Eff_SceneObj_ChargingStation_01_Die",
              "born": {
                "$type": "ConfigBornByAttachPoint",
                "useRotation": true,
                "attachPointName": "AttachPoint"
              },
              "PPPDJGDDOGD": 1.0,
              "AJDILHJFNKE": -1.0
            }
          ]
        }
      }
    }
  },
  {
    "Default": {
      "$type": "ConfigAbility",
      "abilityName": "SceneObj_Area_Xm_Property_Ani_Prop_ChargingStationHpBar_01",
      "abilityMixins": [
        {
          "$type": "AttachToGadgetStateMixin",
          "modifierName": "Base"
        },
        {
          "$type": "AttachToGadgetStateMixin",
          "gadgetState": 201,
          "modifierName": "Invincible"
        }
      ],
      "modifiers": {
        "SneerMonster": {
          "modifierName": "",
          "elementDurability": 100.0,
          "thinkInterval": 2.0,
          "onThinkInterval": [
            {
              "$type": "TriggerTaunt",
              "otherTargets": {
                "$type": "SelectTargetsByShape",
                "shapeName": "CircleR25",
                "campTargetType": "Enemy",
                "doOffStage": 1.0
              },
              "predicates": [
                {
                  "$type": "ByEntityTypes",
                  "entityTypes": ["Monster"]
                }
              ],
              "careValue": 30.0
            }
          ]
        },
        "Base": {
          "modifierName": "",
          "elementDurability": 100.0
        },
        "Invincible": {
          "modifierName": "",
          "elementDurability": 100.0,
          "state": "LockHP"
        }
      },
      "onAdded": [
        {
          "$type": "ApplyModifier",
          "modifierName": "SneerMonster"
        },
        {
          "$type": "AttachAbilityStateResistance",
          "resistanceListID": 11002
        },
        {
          "$type": "SetGlobalValue",
          "value": 1.0,
          "key": "_SCENEOBJ_PROTECTTARGET",
          "maxValue": 0.0,
          "minValue": 0.0
        }
      ]
    }
  },
  {
    "Default": {
      "$type": "ConfigAbility",
      "abilityName": "SceneObj_Area_Xm_Property_Ani_Prop_WormCannon_Sand_01",
      "abilityMixins": [
        {
          "$type": "AttachToGadgetStateMixin",
          "modifierName": "None"
        },
        {
          "$type": "AttachToGadgetStateMixin",
          "gadgetState": 201,
          "modifierName": "Build"
        },
        {
          "$type": "AttachToGadgetStateMixin",
          "gadgetState": 202,
          "modifierName": "Ready"
        }
      ],
      "modifiers": {
        "None": {
          "modifierName": "",
          "elementDurability": 100.0,
          "onAdded": [
            {
              "$type": "AttachEffect",
              "rotationDampTime": "Eff_Item_SpecialTreasureBox_LockIdle",
              "born": {
                "$type": "ConfigBornByAttachPoint",
                "useRotation": true,
                "attachPointName": "AttachPoint"
              },
              "PPPDJGDDOGD": 1.0,
              "AJDILHJFNKE": -1.0
            },
            {
              "$type": "CLKGEHMNIEF",
              "transformNames": ["Vo1"]
            },
            {
              "$type": "CLKGEHMNIEF",
              "transformNames": ["Vo2"],
              "setEnable": true
            }
          ],
          "onRemoved": [
            {
              "$type": "FireEffect",
              "rotationDampTime": "Eff_Item_SpecialTreasureBox_Unlock",
              "born": {
                "$type": "ConfigBornByAttachPoint",
                "useRotation": true,
                "attachPointName": "AttachPoint"
              },
              "PPPDJGDDOGD": 1.0,
              "AJDILHJFNKE": -1.0
            }
          ]
        },
        "Build": {
          "modifierName": "",
          "elementDurability": 100.0,
          "onRemoved": [
            {
              "$type": "FireEffect",
              "rotationDampTime": "Eff_SceneObj_WormCannon_01_Building",
              "born": {
                "$type": "ConfigBornByAttachPoint",
                "useRotation": true,
                "attachPointName": "RootNode"
              },
              "PPPDJGDDOGD": 1.0,
              "AJDILHJFNKE": -1.0
            }
          ]
        },
        "Ready": {
          "modifierName": "",
          "elementDurability": 100.0,
          "onAdded": [
            {
              "$type": "CLKGEHMNIEF",
              "transformNames": ["Vo1"],
              "setEnable": true
            },
            {
              "$type": "CLKGEHMNIEF",
              "transformNames": ["Vo2"]
            }
          ]
        }
      }
    }
  },
  {
    "Default": {
      "$type": "ConfigAbility",
      "abilityName": "SceneObj_Area_Xm_Property_Ani_Prop_WormCannon_Sand_02",
      "abilityMixins": [
        {
          "$type": "AttachToGadgetStateMixin",
          "modifierName": "Cannon_Charging"
        },
        {
          "$type": "AttachToGadgetStateMixin",
          "gadgetState": 201,
          "modifierName": "Cannon_Ready"
        },
        {
          "$type": "AttachToGadgetStateMixin",
          "gadgetState": 202,
          "modifierName": "Cannon_Accumulation"
        },
        {
          "$type": "AttachToGadgetStateMixin",
          "gadgetState": 203,
          "modifierName": "Cannon_Fire"
        }
      ],
      "modifiers": {
        "Cannon_Charging": {
          "modifierName": "",
          "elementDurability": 100.0,
          "onAdded": [
            {
              "$type": "ANNOBMCGOEC",
              "canBeHandledOnRecover": true,
              "matName": "Mat1",
              "EKHLCLJELIP": "_EmissionStrength",
              "value": 1.5
            },
            {
              "$type": "ANNOBMCGOEC",
              "canBeHandledOnRecover": true,
              "matName": "Mat2",
              "EKHLCLJELIP": "_EmissionStrength",
              "value": 1.5
            },
            {
              "$type": "AttachEffect",
              "rotationDampTime": "Eff_SceneObj_WormCannon_01_Charge",
              "born": {
                "$type": "ConfigBornByAttachPoint",
                "useRotation": true,
                "attachPointName": "AttachPoint"
              },
              "PPPDJGDDOGD": 1.0,
              "AJDILHJFNKE": -1.0
            }
          ]
        },
        "Cannon_Ready": {
          "modifierName": "",
          "elementDurability": 100.0,
          "onAdded": [
            {
              "$type": "ANNOBMCGOEC",
              "canBeHandledOnRecover": true,
              "matName": "Mat1",
              "EKHLCLJELIP": "_EmissionStrength",
              "value": 5.0
            },
            {
              "$type": "ANNOBMCGOEC",
              "canBeHandledOnRecover": true,
              "matName": "Mat2",
              "EKHLCLJELIP": "_EmissionStrength",
              "value": 5.0
            },
            {
              "$type": "AttachEffect",
              "rotationDampTime": "Eff_SceneObj_WormCannon_Finished",
              "born": {
                "$type": "ConfigBornByAttachPoint",
                "useRotation": true,
                "attachPointName": "AttachPoint"
              },
              "PPPDJGDDOGD": 1.0,
              "AJDILHJFNKE": -1.0
            }
          ]
        },
        "Cannon_Accumulation": {
          "modifierName": "",
          "duration": 2.5,
          "elementDurability": 100.0,
          "onAdded": [
            {
              "$type": "AttachEffect",
              "rotationDampTime": "Eff_SceneObj_WormCannon_Cast",
              "born": {
                "$type": "ConfigBornByAttachPoint",
                "useRotation": true,
                "attachPointName": "PaokouEffPoint"
              },
              "PPPDJGDDOGD": 1.0,
              "AJDILHJFNKE": -1.0
            },
            {
              "$type": "SetGlobalValue",
              "otherTargets": {
                "$type": "PBLNLAENOGB",
                "tag": "IS_DieSandworm"
              },
              "value": 1.0,
              "key": "DieSandworm_IsInCutscene",
              "maxValue": 0.0,
              "minValue": 0.0
            }
          ],
          "onRemoved": [
            {
              "$type": "HPIDNBEGJLL",
              "state": 203
            }
          ]
        },
        "Cannon_Fire": {
          "modifierName": "",
          "duration": 2.0,
          "elementDurability": 100.0,
          "onAdded": [
            {
              "$type": "AttachEffect",
              "otherTargets": {
                "$type": "PBLNLAENOGB",
                "tag": "IS_DieSandworm_PartcontrolTarget"
              },
              "rotationDampTime": "Eff_SceneObj_WormCannon_Laser",
              "PPPDJGDDOGD": 1.0,
              "AJDILHJFNKE": -1.0,
              "setSelfAsEffectPluginTarget": true
            },
            {
              "$type": "AttachModifier",
              "modifierName": "SandWrom_Hit"
            },
            {
              "$type": "AttachModifier",
              "modifierName": "PaokouFire"
            },
            {
              "$type": "ApplyModifier",
              "otherTargets": {
                "$type": "PBLNLAENOGB",
                "tag": "IS_DieSandworm"
              },
              "modifierName": "Lose_HP"
            }
          ],
          "onRemoved": [
            {
              "$type": "AttachModifier",
              "modifierName": "Notify_SandWorm"
            }
          ]
        },
        "SandWrom_Hit": {
          "modifierName": "",
          "duration": 2.0,
          "elementDurability": 100.0,
          "onAdded": [
            {
              "$type": "AttachEffect",
              "otherTargets": {
                "$type": "PBLNLAENOGB",
                "tag": "IS_DieSandworm_PartcontrolTarget"
              },
              "rotationDampTime": "Eff_SceneObj_WormCannon_Hit",
              "PPPDJGDDOGD": 1.0,
              "AJDILHJFNKE": -1.0
            }
          ]
        },
        "PaokouFire": {
          "modifierName": "",
          "duration": 1.5,
          "elementDurability": 100.0,
          "onAdded": [
            {
              "$type": "AttachEffect",
              "rotationDampTime": "Eff_SceneObj_WormCannon_Fire",
              "born": {
                "$type": "ConfigBornByAttachPoint",
                "useRotation": true,
                "attachPointName": "PaokouEffPoint"
              },
              "PPPDJGDDOGD": 1.0,
              "AJDILHJFNKE": -1.0
            }
          ]
        },
        "Notify_SandWorm": {
          "modifierName": "",
          "duration": 2.0,
          "elementDurability": 100.0,
          "onAdded": [
            {
              "$type": "Predicated",
              "otherTargets": {
                "$type": "PBLNLAENOGB",
                "tag": "IS_DieSandworm"
              },
              "successActions": [
                {
                  "$type": "SetGlobalValue",
                  "target": "Other",
                  "value": 1.0,
                  "key": "DIESANDWORM_PLAYDIE",
                  "maxValue": 0.0,
                  "minValue": 0.0
                }
              ]
            }
          ],
          "onRemoved": [
            {
              "$type": "Predicated",
              "otherTargets": {
                "$type": "PBLNLAENOGB",
                "tag": "IS_DieSandworm"
              },
              "successActions": [
                {
                  "$type": "SetGlobalValue",
                  "target": "Other",
                  "value": 1.0,
                  "key": "DIESANDWORM_PLAYDIE",
                  "maxValue": 0.0,
                  "minValue": 0.0
                }
              ]
            }
          ]
        },
        "Lose_HP": {
          "modifierName": "",
          "duration": 2.299999952316284,
          "elementDurability": 100.0,
          "thinkInterval": 0.30000001192092896,
          "onThinkInterval": [
            {
              "$type": "LoseHP",
              "CKDBFHCIJEK": 0.20000000298023224,
              "BJKGFBGEFPB": ""
            }
          ],
          "onThinkIntervalIsFixedUpdate": true
        }
      }
    }
  },
  {
    "Default": {
      "$type": "ConfigAbility",
      "abilityName": "SceneObj_Area_Xm_Property_Ani_Prop_WormBattleBuff_01",
      "abilityMixins": [
        {
          "$type": "AttachToGadgetStateMixin",
          "modifierName": "Buff_Ball_Stay"
        },
        {
          "$type": "AttachToGadgetStateMixin",
          "gadgetState": 201,
          "modifierName": "Buff_Ball_Disappear"
        }
      ],
      "modifiers": {
        "Buff_Ball_Stay": {
          "modifierName": "",
          "elementDurability": 100.0,
          "onAdded": [
            {
              "$type": "AttachEffect",
              "rotationDampTime": "Eff_Tower_Ball_AttackUp_01",
              "born": {
                "$type": "ConfigBornByAttachPoint",
                "useRotation": true,
                "attachPointName": "AttachPoint"
              },
              "PPPDJGDDOGD": 1.0,
              "AJDILHJFNKE": -1.0
            }
          ]
        },
        "Buff_Ball_Disappear": {
          "modifierName": "",
          "elementDurability": 100.0,
          "onAdded": [
            {
              "$type": "FireEffect",
              "rotationDampTime": "Eff_Tower_Ball_Active_01",
              "born": {
                "$type": "ConfigBornByAttachPoint",
                "useRotation": true,
                "attachPointName": "AttachPoint"
              },
              "PPPDJGDDOGD": 1.0,
              "AJDILHJFNKE": -1.0
            },
            {
              "$type": "ApplyModifier",
              "target": "Team",
              "modifierName": "UNIQUE_SuperSandWorm_BuffBall_Controller"
            }
          ]
        },
        "UNIQUE_SuperSandWorm_BuffBall_Controller": {
          "stacking": "RefreshUniqueDurability",
          "modifierName": "",
          "forceTriggerWhenChangeAuthority": true,
          "duration": 5.0,
          "elementDurability": 100.0,
          "onAdded": [
            {
              "$type": "SetGlobalValue",
              "target": "Team",
              "value": 1.0,
              "key": "_HAS_FallingAttack",
              "useLimitRange": true,
              "maxValue": 2.0,
              "minValue": 0.0
            }
          ],
          "onRemoved": [
            {
              "$type": "SetGlobalValue",
              "target": "Team",
              "value": 0.0,
              "key": "_HAS_FallingAttack",
              "useLimitRange": true,
              "maxValue": 2.0,
              "minValue": 0.0
            }
          ]
        }
      },
      "onFieldEnter": [
        {
          "$type": "HPIDNBEGJLL",
          "state": 201
        }
      ]
    }
  },
  {
    "Default": {
      "$type": "ConfigAbility",
      "abilityName": "SceneObj_Area_Xm_Property_Ani_Prop_ChargingBuff_01",
      "abilityMixins": [
        {
          "$type": "AttachToGadgetStateMixin",
          "modifierName": "Buff_Ball_Stay"
        },
        {
          "$type": "AttachToGadgetStateMixin",
          "gadgetState": 201,
          "modifierName": "Buff_Ball_Disappear"
        }
      ],
      "modifiers": {
        "Buff_Ball_Stay": {
          "modifierName": "",
          "elementDurability": 100.0,
          "onRemoved": [
            {
              "$type": "MCOBFPMHMHJ",
              "luaCallType": "FromGroup",
              "sourceName": "ChargingBall_Charging",
              "param1": 0.0,
              "MGAMDEHMCOL": 0.0,
              "MMHOHAOGPLP": 0.0
            }
          ]
        },
        "Buff_Ball_Disappear": {
          "modifierName": "",
          "elementDurability": 100.0,
          "onAdded": [
            {
              "$type": "KillSelf"
            }
          ]
        }
      },
      "onFieldEnter": [
        {
          "$type": "HPIDNBEGJLL",
          "state": 201
        }
      ]
    }
  },
  {
    "Default": {
      "$type": "ConfigAbility",
      "abilityName": "SceneObj_Area_Xm_Property_Ani_Prop_ChargingBuff_03",
      "abilityMixins": [
        {
          "$type": "AttachToGadgetStateMixin",
          "modifierName": "Buff_Ball_Stay"
        },
        {
          "$type": "AttachToGadgetStateMixin",
          "gadgetState": 201,
          "modifierName": "Buff_Ball_Disappear"
        }
      ],
      "modifiers": {
        "Buff_Ball_Stay": {
          "modifierName": "",
          "elementDurability": 100.0,
          "onAdded": [
            {
              "$type": "FireEffect",
              "rotationDampTime": "Eff_SceneObj_ChargingBuff_02_Create",
              "born": {
                "$type": "ConfigBornByAttachPoint",
                "useRotation": true,
                "attachPointName": "AttachPoint"
              },
              "PPPDJGDDOGD": 1.0,
              "AJDILHJFNKE": -1.0
            },
            {
              "$type": "AttachEffect",
              "rotationDampTime": "Eff_SceneObj_ChargingBuff_02_Self",
              "born": {
                "$type": "ConfigBornByAttachPoint",
                "useRotation": true,
                "attachPointName": "AttachPoint"
              },
              "PPPDJGDDOGD": 1.0,
              "AJDILHJFNKE": -1.0
            }
          ],
          "onRemoved": [
            {
              "$type": "MCOBFPMHMHJ",
              "luaCallType": "FromGroup",
              "sourceName": "ChargingBall_Charging_Big",
              "param1": 0.0,
              "MGAMDEHMCOL": 0.0,
              "MMHOHAOGPLP": 0.0
            },
            {
              "$type": "FireEffect",
              "rotationDampTime": "Eff_SceneObj_ChargingBuff_02_Die",
              "born": {
                "$type": "ConfigBornByAttachPoint",
                "useRotation": true,
                "attachPointName": "AttachPoint"
              },
              "PPPDJGDDOGD": 1.0,
              "AJDILHJFNKE": -1.0
            }
          ]
        },
        "Buff_Ball_Disappear": {
          "modifierName": "",
          "elementDurability": 100.0,
          "onAdded": [
            {
              "$type": "KillSelf"
            }
          ]
        }
      },
      "onFieldEnter": [
        {
          "$type": "HPIDNBEGJLL",
          "state": 201
        },
        {
          "$type": "ReviveStamina",
          "target": "CurLocalAvatar",
          "shieldHP": true,
          "value": 1000.0
        }
      ]
    }
  },
  {
    "Default": {
      "$type": "ConfigAbility",
      "abilityName": "SceneObj_Area_Xm_Property_Ani_Prop_WormSandPile_Sand_01",
      "modifiers": {
        "SandwormStoneHit": {
          "modifierName": "",
          "elementDurability": 100.0,
          "onAdded": [
            {
              "$type": "AttachEffect",
              "rotationDampTime": "Eff_Item_Hint",
              "born": {
                "$type": "ConfigBornByAttachPoint",
                "useRotation": true,
                "attachPointName": "Point1"
              },
              "PPPDJGDDOGD": 1.0,
              "AJDILHJFNKE": -1.0
            },
            {
              "$type": "AttachEffect",
              "rotationDampTime": "Eff_Item_Hint",
              "born": {
                "$type": "ConfigBornByAttachPoint",
                "useRotation": true,
                "attachPointName": "Point2"
              },
              "PPPDJGDDOGD": 1.0,
              "AJDILHJFNKE": -1.0
            },
            {
              "$type": "AttachEffect",
              "rotationDampTime": "Eff_Item_Hint",
              "born": {
                "$type": "ConfigBornByAttachPoint",
                "useRotation": true,
                "attachPointName": "Point3"
              },
              "PPPDJGDDOGD": 1.0,
              "AJDILHJFNKE": -1.0
            },
            {
              "$type": "AttachEffect",
              "rotationDampTime": "Eff_Item_Hint",
              "born": {
                "$type": "ConfigBornByAttachPoint",
                "useRotation": true,
                "attachPointName": "Point4"
              },
              "PPPDJGDDOGD": 1.0,
              "AJDILHJFNKE": -1.0
            }
          ],
          "onBeingHit": [
            {
              "$type": "Predicated",
              "targetPredicates": [
                {
                  "$type": "ByAttackTags",
                  "attackTags": ["SandwormAttack"]
                }
              ],
              "successActions": [
                {
                  "$type": "KillSelf"
                }
              ]
            }
          ]
        }
      },
      "onAdded": [
        {
          "$type": "AttachModifier",
          "modifierName": "SandwormStoneHit"
        }
      ]
    }
  },
  {
    "Default": {
      "$type": "ConfigAbility",
      "abilityName": "SceneObj_Area_Xm_Property_Ani_Prop_SandWormAirWall_Sand_01",
      "modifiers": {
        "AttachAirWall": {
          "modifierName": "",
          "elementDurability": 100.0,
          "onAdded": [
            {
              "$type": "AttachEffect",
              "rotationDampTime": "Eff_SceneObj_SandstormWall_01",
              "born": {
                "$type": "ConfigBornByAttachPoint",
                "useRotation": true,
                "attachPointName": "RootNode"
              },
              "PPPDJGDDOGD": 1.0,
              "AJDILHJFNKE": -1.0
            }
          ]
        }
      },
      "onAdded": [
        {
          "$type": "AttachModifier",
          "modifierName": "AttachAirWall"
        }
      ]
    }
  },
  {
    "Default": {
      "$type": "ConfigAbility",
      "abilityName": "SceneObj_Area_Xm_Property_Ani_Prop_SandWorm_SetEndState",
      "onAbilityStart": [
        {
          "$type": "HPIDNBEGJLL",
          "state": 201
        }
      ]
    }
  },
  {
    "Default": {
      "$type": "ConfigAbility",
      "abilityName": "SceneObj_Area_Xm_Property_Ani_Prop_SmashSandWorm_SetKilledEndState",
      "onAbilityStart": [
        {
          "$type": "HPIDNBEGJLL",
          "state": 202
        }
      ]
    }
  },
  {
    "Default": {
      "$type": "ConfigAbility",
      "abilityName": "SceneObj_Area_Xm_Property_Ani_Prop_AbilitySandWorm_Sand_01_Steer",
      "abilityMixins": [
        {
          "$type": "IILHMBGONGM",
          "steerStateIDs": ["Skill01"],
          "startNormalizedTime": 0.5,
          "angularSpeed": 720.0,
          "attackTrigger": "",
          "DGFCLAIDIFI": ""
        },
        {
          "$type": "IILHMBGONGM",
          "steerStateIDs": ["Skill02"],
          "endNormalizedTime": 0.44999998807907104,
          "angularSpeed": 120.0,
          "attackTrigger": "",
          "DGFCLAIDIFI": ""
        }
      ]
    }
  },
  {
    "Default": {
      "$type": "ConfigAbility",
      "abilityName": "SceneObj_Area_Xm_Property_Ani_Prop_AbilitySandWorm_Sand_01",
      "abilityMixins": [
        {
          "$type": "AttachToGadgetStateMixin",
          "modifierName": "Skill"
        },
        {
          "$type": "AttachToGadgetStateMixin",
          "gadgetState": 201,
          "modifierName": "End"
        }
      ],
      "modifiers": {
        "Skill": {
          "modifierName": "",
          "elementDurability": 100.0,
          "onAdded": [
            {
              "$type": "ApplyModifier",
              "modifierName": "AbilitySandworm_01_EndTimer"
            }
          ]
        },
        "End": {
          "modifierName": "",
          "elementDurability": 100.0,
          "thinkInterval": 1.0,
          "onAdded": [
            {
              "$type": "RemoveUniqueModifier",
              "modifierName": "UNIQUE_AbilitySandWormScreenEffect"
            },
            {
              "$type": "MCOBFPMHMHJ",
              "luaCallType": "FromGroup",
              "sourceName": "AbilitySandWorm_Sand_End",
              "param1": 0.0,
              "MGAMDEHMCOL": 0.0,
              "MMHOHAOGPLP": 0.0
            }
          ],
          "onThinkInterval": [
            {
              "$type": "RemoveUniqueModifier",
              "modifierName": "UNIQUE_AbilitySandWormScreenEffect"
            },
            {
              "$type": "MCOBFPMHMHJ",
              "luaCallType": "FromGroup",
              "sourceName": "AbilitySandWorm_Sand_End",
              "param1": 0.0,
              "MGAMDEHMCOL": 0.0,
              "MMHOHAOGPLP": 0.0
            }
          ]
        },
        "AbilitySandworm_01_EndTimer": {
          "modifierName": "",
          "elementDurability": 100.0,
          "thinkInterval": 32.0,
          "onThinkInterval": [
            {
              "$type": "HPIDNBEGJLL",
              "state": 201
            }
          ]
        }
      }
    }
  },
  {
    "Default": {
      "$type": "ConfigAbility",
      "abilityName": "SceneObj_Area_Xm_Property_Ani_Prop_AbilitySandWorm_Sand_02",
      "abilityMixins": [
        {
          "$type": "AttachToGadgetStateMixin",
          "modifierName": "Skill"
        },
        {
          "$type": "AttachToGadgetStateMixin",
          "gadgetState": 201,
          "modifierName": "End"
        }
      ],
      "modifiers": {
        "Skill": {
          "modifierName": "",
          "elementDurability": 100.0,
          "onAdded": [
            {
              "$type": "ApplyModifier",
              "modifierName": "AbilitySandworm_02_EndTimer"
            }
          ]
        },
        "End": {
          "modifierName": "",
          "elementDurability": 100.0,
          "thinkInterval": 1.0,
          "onAdded": [
            {
              "$type": "RemoveUniqueModifier",
              "modifierName": "UNIQUE_AbilitySandWormScreenEffect"
            },
            {
              "$type": "MCOBFPMHMHJ",
              "luaCallType": "FromGroup",
              "sourceName": "AbilitySandWorm_Sand_End",
              "param1": 0.0,
              "MGAMDEHMCOL": 0.0,
              "MMHOHAOGPLP": 0.0
            }
          ],
          "onThinkInterval": [
            {
              "$type": "RemoveUniqueModifier",
              "modifierName": "UNIQUE_AbilitySandWormScreenEffect"
            },
            {
              "$type": "MCOBFPMHMHJ",
              "luaCallType": "FromGroup",
              "sourceName": "AbilitySandWorm_Sand_End",
              "param1": 0.0,
              "MGAMDEHMCOL": 0.0,
              "MMHOHAOGPLP": 0.0
            }
          ]
        },
        "AbilitySandworm_02_EndTimer": {
          "modifierName": "",
          "elementDurability": 100.0,
          "thinkInterval": 32.0,
          "onThinkInterval": [
            {
              "$type": "HPIDNBEGJLL",
              "state": 201
            }
          ]
        }
      }
    }
  },
  {
    "Default": {
      "$type": "ConfigAbility",
      "abilityName": "SceneObj_Area_Xm_Property_Ani_Prop_AbilitySandWorm_Sand_03",
      "abilityMixins": [
        {
          "$type": "AttachToGadgetStateMixin",
          "modifierName": "Skill"
        },
        {
          "$type": "AttachToGadgetStateMixin",
          "gadgetState": 201,
          "modifierName": "End"
        }
      ],
      "modifiers": {
        "Skill": {
          "modifierName": "",
          "elementDurability": 100.0,
          "onAdded": [
            {
              "$type": "ApplyModifier",
              "modifierName": "AbilitySandworm_03_EndTimer"
            }
          ]
        },
        "End": {
          "modifierName": "",
          "elementDurability": 100.0,
          "thinkInterval": 1.0,
          "onAdded": [
            {
              "$type": "RemoveUniqueModifier",
              "modifierName": "UNIQUE_AbilitySandWormScreenEffect"
            },
            {
              "$type": "MCOBFPMHMHJ",
              "luaCallType": "FromGroup",
              "sourceName": "AbilitySandWorm_Sand_End",
              "param1": 0.0,
              "MGAMDEHMCOL": 0.0,
              "MMHOHAOGPLP": 0.0
            }
          ],
          "onThinkInterval": [
            {
              "$type": "RemoveUniqueModifier",
              "modifierName": "UNIQUE_AbilitySandWormScreenEffect"
            },
            {
              "$type": "MCOBFPMHMHJ",
              "luaCallType": "FromGroup",
              "sourceName": "AbilitySandWorm_Sand_End",
              "param1": 0.0,
              "MGAMDEHMCOL": 0.0,
              "MMHOHAOGPLP": 0.0
            }
          ]
        },
        "AbilitySandworm_03_EndTimer": {
          "modifierName": "",
          "elementDurability": 100.0,
          "thinkInterval": 32.0,
          "onThinkInterval": [
            {
              "$type": "HPIDNBEGJLL",
              "state": 201
            }
          ]
        }
      }
    }
  },
  {
    "Default": {
      "$type": "ConfigAbility",
      "abilityName": "SceneObj_Area_Xm_Property_Ani_Prop_AbilitySandWorm_Sand_01_ShootAttack",
      "onAbilityStart": [
        {
          "$type": "CreateGadget",
          "target": "CurLocalAvatar",
          "predicates": [
            {
              "$type": "ByTargetGlobalValue",
              "target": "Self",
              "key": "DieSandworm_IsInCutscene",
              "value": 0.0,
              "compareType": "NoneOrEqual"
            }
          ],
          "born": {
            "$type": "MPCGPEHJNNH",
            "offset": {
              "x": 0.0,
              "y": 0.0,
              "z": 0.0
            },
            "onGround": true
          },
          "lifeByOwnerV2": true,
          "gadgetID": 70290943,
          "campID": 5001
        }
      ]
    }
  },
  {
    "Default": {
      "$type": "ConfigAbility",
      "abilityName": "SceneObj_Area_Xm_Property_Ani_Prop_AbilitySandWorm_Sand_01_ShootAttack_Attack",
      "onAbilityStart": [
        {
          "$type": "FireSubEmitterEffect",
          "rotationDampTime": "Eff_Monster_Sandworm_01_Stage02_FlyingAttack_MultiBullet_Hit_Dungeon",
          "born": {
            "$type": "ConfigBornByCollisionPoint"
          }
        },
        {
          "$type": "TriggerAttackEvent",
          "attackEvent": {
            "attackPattern": {
              "$type": "ConfigAttackSphere",
              "triggerType": "TriggerNoRepeat",
              "born": {
                "$type": "ConfigBornByCollisionPoint"
              },
              "radius": 3.0
            },
            "attackInfo": {
              "attackTag": "SandwormAttack",
              "attenuationTag": "Sandworm_Stage02_FlyingAttackBullet",
              "attenuationGroup": "Sandworm_Stage02_FlyingAttackBullet",
              "attackProperty": {
                "actorGrassSubHurtDelta": 1.0,
                "actorWindSubHurtDelta": 0.0,
                "elementType": "Wind",
                "elementDurability": 100.0,
                "strikeType": "Blunt",
                "enBreak": 50.0,
                "attackType": "Range",
                "GLKMCMDJBIK": 0.0
              },
              "hitPattern": {
                "onHitEffectName": "default",
                "hitImpulseY": "",
                "hitImpulseType": "LV3",
                "hitHaltTimeScale": 0.05000000074505806
              }
            }
          },
          "targetType": "Enemy"
        }
      ]
    }
  },
  {
    "Default": {
      "$type": "ConfigAbility",
      "abilityName": "SceneObj_Area_Xm_Property_Ani_Prop_AbilitySandWorm_Sand_02_ShootAttack",
      "modifiers": {
        "Bullet_Launcher": {
          "modifierName": "",
          "duration": 5.0,
          "elementDurability": 100.0,
          "thinkInterval": 1.0,
          "onAdded": [
            {
              "$type": "CreateGadget",
              "target": "CurLocalAvatar",
              "predicates": [
                {
                  "$type": "ByTargetGlobalValue",
                  "target": "Self",
                  "key": "DieSandworm_IsInCutscene",
                  "value": 0.0,
                  "compareType": "NoneOrEqual"
                }
              ],
              "born": {
                "$type": "MPCGPEHJNNH",
                "bornRandom": {
                  "$type": "BornRandomFromCenter",
                  "minRandomRange": 0.0,
                  "maxRandomRange": 0.0
                },
                "onGround": true,
                "onGroundRaycastUpDist": 0.20000000298023224
              },
              "lifeByOwnerV2": true,
              "gadgetID": 70290941,
              "campID": 5001
            }
          ],
          "onThinkInterval": [
            {
              "$type": "CreateGadget",
              "target": "CurLocalAvatar",
              "predicates": [
                {
                  "$type": "ByTargetGlobalValue",
                  "target": "Self",
                  "key": "DieSandworm_IsInCutscene",
                  "value": 0.0,
                  "compareType": "NoneOrEqual"
                }
              ],
              "born": {
                "$type": "MPCGPEHJNNH",
                "bornRandom": {
                  "$type": "BornRandomFromCenter",
                  "minRandomRange": 0.0,
                  "maxRandomRange": 0.0
                },
                "onGround": true,
                "onGroundRaycastUpDist": 0.20000000298023224
              },
              "lifeByOwnerV2": true,
              "gadgetID": 70290941,
              "campID": 5001
            }
          ]
        }
      },
      "onAbilityStart": [
        {
          "$type": "ApplyModifier",
          "predicates": [
            {
              "$type": "ByTargetGlobalValue",
              "key": "DieSandworm_IsInCutscene",
              "value": 0.0,
              "compareType": "NoneOrEqual"
            }
          ],
          "modifierName": "Bullet_Launcher"
        }
      ]
    }
  },
  {
    "Default": {
      "$type": "ConfigAbility",
      "abilityName": "SceneObj_Area_Xm_Property_Ani_Prop_AbilitySandWorm_Sand_03_ShootAttack",
      "abilityMixins": [
        {
          "$type": "AttachToNormalizedTimeMixin",
          "stateID": "Skill02",
          "modifierName": "Alert",
          "normalizeEnd": 0.5299999713897705,
          "DGFCLAIDIFI": ""
        },
        {
          "$type": "AttachToNormalizedTimeMixin",
          "stateID": "Skill03",
          "modifierName": "Alert",
          "normalizeEnd": 0.5299999713897705,
          "DGFCLAIDIFI": ""
        },
        {
          "$type": "AttachToNormalizedTimeMixin",
          "stateID": "Skill04",
          "modifierName": "Alert",
          "normalizeEnd": 0.5299999713897705,
          "DGFCLAIDIFI": ""
        }
      ],
      "modifiers": {
        "Alert": {
          "modifierName": "",
          "elementDurability": 100.0,
          "onAdded": [
            {
              "$type": "AttachEffect",
              "predicates": [
                {
                  "$type": "ByTargetGlobalValue",
                  "key": "DieSandworm_IsInCutscene",
                  "value": 0.0,
                  "compareType": "NoneOrEqual"
                }
              ],
              "rotationDampTime": "Eff_Monster_Sandworm_01_ActivityGadget_ShootAttack_02_Alert",
              "PPPDJGDDOGD": 1.0,
              "AJDILHJFNKE": -1.0
            }
          ]
        }
      },
      "onAbilityStart": [
        {
          "$type": "TriggerBullet",
          "predicates": [
            {
              "$type": "ByTargetGlobalValue",
              "key": "DieSandworm_IsInCutscene",
              "value": 0.0,
              "compareType": "NoneOrEqual"
            }
          ],
          "bulletID": 70290942,
          "born": {
            "$type": "ConfigBornByAttachPoint",
            "useRotation": true,
            "attachPointName": "TailBulletSource_Fixed"
          },
          "trackTarget": "CurLocalAvatar"
        }
      ]
    }
  },
  {
    "Default": {
      "$type": "ConfigAbility",
      "abilityName": "SceneObj_Area_Xm_Property_Ani_Prop_DieSandworm_03_ShootAttack",
      "abilityMixins": [
        {
          "$type": "AttachToNormalizedTimeMixin",
          "stateID": "Skill03_02",
          "modifierName": "Alert",
          "normalizeEnd": 0.5299999713897705,
          "DGFCLAIDIFI": ""
        },
        {
          "$type": "AttachToNormalizedTimeMixin",
          "stateID": "Skill03_03",
          "modifierName": "Alert",
          "normalizeEnd": 0.5299999713897705,
          "DGFCLAIDIFI": ""
        }
      ],
      "modifiers": {
        "Alert": {
          "modifierName": "",
          "elementDurability": 100.0,
          "onAdded": [
            {
              "$type": "AttachEffect",
              "predicates": [
                {
                  "$type": "ByTargetGlobalValue",
                  "key": "DieSandworm_IsInCutscene",
                  "value": 0.0,
                  "compareType": "NoneOrEqual"
                }
              ],
              "rotationDampTime": "Eff_Monster_Sandworm_01_ActivityGadget_ShootAttack_02_Alert",
              "PPPDJGDDOGD": 1.0,
              "AJDILHJFNKE": -1.0
            }
          ]
        }
      },
      "onAbilityStart": [
        {
          "$type": "TriggerBullet",
          "predicates": [
            {
              "$type": "ByTargetGlobalValue",
              "key": "DieSandworm_IsInCutscene",
              "value": 0.0,
              "compareType": "NoneOrEqual"
            }
          ],
          "bulletID": 70290942,
          "born": {
            "$type": "ConfigBornByAttachPoint",
            "useRotation": true,
            "attachPointName": "TailBulletSource_Fixed"
          },
          "trackTarget": "CurLocalAvatar"
        }
      ]
    }
  },
  {
    "Default": {
      "$type": "ConfigAbility",
      "abilityName": "SceneObj_Area_Xm_Property_Ani_Prop_AbilitySandWorm_Sand_02_ShootAttack_Bullet_Loop",
      "modifiers": {
        "UNIQUE_Bullet_Loop": {
          "modifierName": "",
          "forceTriggerWhenChangeAuthority": true,
          "elementDurability": 100.0,
          "onAdded": [
            {
              "$type": "AttachEffect",
              "rotationDampTime": "Eff_Monster_Sandworm_01_Stage02_DrillRushAttack_Bullet_Activity",
              "PPPDJGDDOGD": 1.0,
              "AJDILHJFNKE": -1.0
            }
          ]
        }
      },
      "onAdded": [
        {
          "$type": "AttachModifier",
          "modifierName": "UNIQUE_Bullet_Loop"
        }
      ]
    }
  },
  {
    "Default": {
      "$type": "ConfigAbility",
      "abilityName": "SceneObj_Area_Xm_Property_Ani_Prop_AbilitySandWorm_Sand_02_ShootAttack_Bullet_Explode",
      "onAbilityStart": [
        {
          "$type": "FireEffect",
          "rotationDampTime": "Eff_Monster_Sandworm_01_Stage02_DrillRushAttack_Bullet_Hit_Activity",
          "born": {
            "$type": "ConfigBornBySelf",
            "offset": {
              "x": 0.0,
              "y": 0.0,
              "z": 0.0
            },
            "onGround": true,
            "alongGround": true,
            "useRotation": true
          },
          "PPPDJGDDOGD": 1.0,
          "AJDILHJFNKE": -1.0
        },
        {
          "$type": "TriggerAttackEvent",
          "attackEvent": {
            "attackPattern": {
              "$type": "ConfigAttackSphere",
              "triggerType": "TriggerNoRepeat",
              "born": {
                "$type": "ConfigBornBySelf",
                "offset": {
                  "x": 0.0,
                  "y": 0.0,
                  "z": 0.0
                },
                "onGround": true,
                "alongGround": true,
                "useRotation": true
              },
              "radius": 3.0
            },
            "attackInfo": {
              "attackTag": "SandwormAttack",
              "attenuationTag": "",
              "attenuationGroup": "default",
              "attackProperty": {
                "actorGrassSubHurtDelta": 2.5,
                "actorWindSubHurtDelta": 0.0,
                "elementType": "Wind",
                "elementDurability": 50.0,
                "strikeType": "Blunt",
                "enBreak": 25.0,
                "GLKMCMDJBIK": 0.0
              },
              "hitPattern": {
                "onHitEffectName": "none",
                "hitImpulseY": "",
                "hitImpulseType": "LV3",
                "hitHaltTimeScale": 0.05000000074505806
              },
              "cameraShake": {
                "shakeRange": 0.05999999865889549,
                "shakeTime": 0.09000000357627869
              },
              "canBeModifiedBy": "OriginOwner"
            }
          },
          "targetType": "Enemy"
        }
      ]
    }
  },
  {
    "Default": {
      "$type": "ConfigAbility",
      "abilityName": "SceneObj_Area_Xm_Property_Ani_Prop_AbilitySandWorm_Sand_03_ShootAttack_Attack",
      "modifiers": {
        "Damage_Timer": {
          "modifierName": "",
          "duration": 2.5,
          "elementDurability": 100.0,
          "onAdded": [
            {
              "$type": "FireSubEmitterEffect",
              "rotationDampTime": "Eff_Monster_Sandworm_01_Stage02_Bullet_Alert_Activity",
              "born": {
                "$type": "ConfigBornByTarget",
                "onGround": true,
                "alongGround": true
              }
            }
          ],
          "onRemoved": [
            {
              "$type": "TriggerAudio",
              "operation": {
                "$type": "ConfigAudioEventOp",
                "operation": {
                  "text": "Play_sfx_monster_effigy_ice_vfx_spikeStrike_attack"
                }
              }
            },
            {
              "$type": "ApplyModifier",
              "modifierName": "SingleDamage"
            }
          ]
        },
        "SingleDamage": {
          "modifierName": "",
          "duration": 0.5,
          "elementDurability": 100.0,
          "onAdded": [
            {
              "$type": "FireEffect",
              "rotationDampTime": "Eff_Monster_Sandworm_01_Stage02_Bullet_Hit_Activity",
              "born": {
                "$type": "ConfigBornByTarget",
                "onGround": true,
                "alongGround": true
              },
              "PPPDJGDDOGD": 1.0,
              "AJDILHJFNKE": -1.0
            },
            {
              "$type": "TriggerAttackEvent",
              "attackEvent": {
                "attackPattern": {
                  "$type": "ConfigAttackCircle",
                  "triggerType": "TriggerNoRepeat",
                  "born": {
                    "$type": "ConfigBornBySelf",
                    "offset": {
                      "x": 0.0,
                      "y": -0.125,
                      "z": 0.0
                    },
                    "onGround": true,
                    "useRotation": true
                  },
                  "height": 2.0,
                  "radius": 3.0
                },
                "attackInfo": {
                  "attackTag": "SandwormAttack",
                  "attenuationTag": "",
                  "attenuationGroup": "default",
                  "attackProperty": {
                    "actorGrassSubHurtDelta": 1.0,
                    "actorWindSubHurtDelta": 0.0,
                    "elementType": "Wind",
                    "elementDurability": 100.0,
                    "strikeType": "Blunt",
                    "enBreak": 0.0,
                    "GLKMCMDJBIK": 0.0
                  }
                }
              },
              "targetType": "Enemy"
            }
          ]
        }
      },
      "onAdded": [
        {
          "$type": "ApplyModifier",
          "modifierName": "Damage_Timer"
        }
      ],
      "onAbilityStart": [
        {
          "$type": "KillSelf",
          "predicates": [
            {
              "$type": "BHFFBBOLCCP",
              "modifierName": "Damage_Timer"
            }
          ]
        }
      ]
    }
  },
  {
    "Default": {
      "$type": "ConfigAbility",
      "abilityName": "SceneObj_Area_Xm_Property_Ani_Prop_AbilitySandWorm_PartControl_Start",
      "onAdded": [
        {
          "$type": "KGKOLOLDKHH",
          "partRootNames": ["PartControl"]
        },
        {
          "$type": "GPDAIGICDKI",
          "target": "CurLocalAvatar",
          "partRootNames": ["PartControl"]
        }
      ],
      "onAbilityStart": [
        {
          "$type": "GPDAIGICDKI",
          "target": "CurLocalAvatar",
          "partRootNames": ["PartControl"]
        },
        {
          "$type": "KGKOLOLDKHH",
          "partRootNames": ["PartControl"],
          "enable": true
        }
      ]
    }
  },
  {
    "Default": {
      "$type": "ConfigAbility",
      "abilityName": "SceneObj_Area_Xm_Property_Ani_Prop_AbilitySandWorm_PartControl_End",
      "onAbilityStart": [
        {
          "$type": "KGKOLOLDKHH",
          "partRootNames": ["PartControl"]
        }
      ]
    }
  },
  {
    "Default": {
      "$type": "ConfigAbility",
      "abilityName": "SceneObj_Area_Xm_Property_Ani_Prop_AbilitySandWorm_DoEarthQuake",
      "modifiers": {
        "UNIQUE_AbilitySandWormBillboardAsh": {
          "modifierName": "",
          "forceTriggerWhenChangeAuthority": true,
          "duration": 1.0,
          "elementDurability": 100.0,
          "onRemoved": [
            {
              "$type": "HBNEMPLJCMB"
            }
          ]
        },
        "UNIQUE_AbilitySandWormScreenEffect": {
          "modifierName": "",
          "forceTriggerWhenChangeAuthority": true,
          "elementDurability": 100.0,
          "onAdded": [
            {
              "$type": "SetGlobalValue",
              "target": "Team",
              "value": 1.0,
              "key": "_HAS_SandWorm_ScreenEffect",
              "maxValue": 0.0,
              "minValue": 0.0
            }
          ],
          "onRemoved": [
            {
              "$type": "SetGlobalValue",
              "target": "Team",
              "value": 0.0,
              "key": "_HAS_SandWorm_ScreenEffect",
              "maxValue": 0.0,
              "minValue": 0.0
            }
          ],
          "onKill": [
            {
              "$type": "SetGlobalValue",
              "target": "Team",
              "value": 0.0,
              "key": "_HAS_SandWorm_ScreenEffect",
              "maxValue": 0.0,
              "minValue": 0.0
            }
          ]
        },
        "UNIQUE_AbilitySandWormCameraRadialBlur": {
          "modifierName": "",
          "forceTriggerWhenChangeAuthority": true,
          "duration": 4.0,
          "elementDurability": 100.0,
          "modifierMixins": [
            {
              "$type": "CameraBlurMixin",
              "cameraRadialBlur": {
                "power": 0.6000000238418579,
                "fadeTime": 0.15000000596046448
              }
            }
          ]
        }
      },
      "onAdded": [
        {
          "$type": "HBNEMPLJCMB",
          "hide": true
        },
        {
          "$type": "LGBBJNCAGPB",
          "canBeHandledOnRecover": true,
          "enable": true
        }
      ],
      "onAbilityStart": [
        {
          "$type": "TriggerAttackEvent",
          "predicates": [
            {
              "$type": "ByTargetGlobalValue",
              "key": "SGV_Sandworm_LevelFive",
              "value": 0.0,
              "compareType": "NoneOrEqual"
            }
          ],
          "attackEvent": {
            "attackPattern": {
              "$type": "ConfigAttackBox",
              "triggerType": "TriggerNoRepeat",
              "ignoreMassive": true,
              "born": {
                "$type": "ConfigBornBySelf",
                "useRotation": true
              },
              "size": {
                "x": 0.10000000149011612,
                "y": 0.10000000149011612,
                "z": 0.10000000149011612
              }
            },
            "attackInfo": {
              "attackTag": "",
              "attenuationTag": "",
              "attenuationGroup": "default",
              "attackProperty": {
                "actorGrassSubHurtDelta": 0.0,
                "actorWindSubHurtDelta": 0.0,
                "elementDurability": 100.0,
                "GLKMCMDJBIK": 0.0
              },
              "hitPattern": {
                "onHitEffectName": "none",
                "hitImpulseY": "",
                "hitImpulseType": "LV0",
                "hitHaltTimeScale": 0.05000000074505806
              },
              "forceCameraShake": true,
              "cameraShake": {
                "shakeType": "CustomVector",
                "shakeRange": 0.125,
                "shakeTime": 3.0,
                "shakeDistance": 35.0,
                "shakeDir": {
                  "y": -1.0
                },
                "extension": {
                  "baseOnCamera": true,
                  "baseCycle": 0.20000000298023224,
                  "cycleDamping": 0.0,
                  "rangeAttenuation": 1.0
                }
              }
            }
          },
          "targetType": "Enemy"
        },
        {
          "$type": "MCOBFPMHMHJ",
          "luaCallType": "FromGroup",
          "sourceName": "AbilitySandWorm_Monster_Die",
          "param1": 0.0,
          "MGAMDEHMCOL": 0.0,
          "MMHOHAOGPLP": 0.0
        },
        {
          "$type": "ApplyModifier",
          "modifierName": "UNIQUE_AbilitySandWormBillboardAsh"
        },
        {
          "$type": "ApplyModifier",
          "predicates": [
            {
              "$type": "ByTargetGlobalValue",
              "key": "SGV_Sandworm_LevelFive",
              "value": 0.0,
              "compareType": "NoneOrEqual"
            }
          ],
          "modifierName": "UNIQUE_AbilitySandWormScreenEffect"
        },
        {
          "$type": "ApplyModifier",
          "predicates": [
            {
              "$type": "ByTargetGlobalValue",
              "key": "SGV_Sandworm_LevelFive",
              "value": 0.0,
              "compareType": "NoneOrEqual"
            }
          ],
          "modifierName": "UNIQUE_AbilitySandWormCameraRadialBlur"
        }
      ]
    }
  },
  {
    "Default": {
      "$type": "ConfigAbility",
      "abilityName": "SceneObj_Area_Xm_Property_Ani_Prop_DieSandWorm_DoEarthQuake",
      "modifiers": {
        "UNIQUE_DieSandWormCameraRadialBlur": {
          "modifierName": "",
          "forceTriggerWhenChangeAuthority": true,
          "duration": 4.0,
          "elementDurability": 100.0,
          "modifierMixins": [
            {
              "$type": "CameraBlurMixin",
              "cameraRadialBlur": {
                "power": 0.6000000238418579,
                "fadeTime": 0.15000000596046448
              }
            }
          ]
        }
      },
      "onAbilityStart": [
        {
          "$type": "TriggerAttackEvent",
          "attackEvent": {
            "attackPattern": {
              "$type": "ConfigAttackBox",
              "triggerType": "TriggerNoRepeat",
              "ignoreMassive": true,
              "born": {
                "$type": "ConfigBornBySelf",
                "useRotation": true
              },
              "size": {
                "x": 0.10000000149011612,
                "y": 0.10000000149011612,
                "z": 0.10000000149011612
              }
            },
            "attackInfo": {
              "attackTag": "",
              "attenuationTag": "",
              "attenuationGroup": "default",
              "attackProperty": {
                "actorGrassSubHurtDelta": 0.0,
                "actorWindSubHurtDelta": 0.0,
                "elementDurability": 100.0,
                "GLKMCMDJBIK": 0.0
              },
              "hitPattern": {
                "onHitEffectName": "none",
                "hitImpulseY": "",
                "hitImpulseType": "LV0",
                "hitHaltTimeScale": 0.05000000074505806
              },
              "forceCameraShake": true,
              "cameraShake": {
                "shakeType": "CustomVector",
                "shakeRange": 0.125,
                "shakeTime": 3.0,
                "shakeDistance": 35.0,
                "shakeDir": {
                  "y": -1.0
                },
                "extension": {
                  "baseOnCamera": true,
                  "baseCycle": 0.20000000298023224,
                  "cycleDamping": 0.0,
                  "rangeAttenuation": 1.0
                }
              }
            }
          },
          "targetType": "Enemy"
        }
      ]
    }
  },
  {
    "Default": {
      "$type": "ConfigAbility",
      "abilityName": "SceneObj_Area_Xm_Property_Ani_Prop_MoveSandWorm_Sand_01",
      "abilityMixins": [
        {
          "$type": "AttachToGadgetStateMixin",
          "modifierName": "Skill"
        },
        {
          "$type": "AttachToGadgetStateMixin",
          "gadgetState": 201,
          "modifierName": "End"
        }
      ],
      "modifiers": {
        "Skill": {
          "modifierName": "",
          "elementDurability": 100.0,
          "onBeingHit": [
            {
              "$type": "SetAnimatorBool",
              "boolID": "End",
              "value": true
            }
          ]
        },
        "End": {
          "modifierName": "",
          "elementDurability": 100.0,
          "onAdded": [
            {
              "$type": "MCOBFPMHMHJ",
              "luaCallType": "FromGroup",
              "sourceName": "MoveSandWorm_Sand_End",
              "param1": 0.0,
              "MGAMDEHMCOL": 0.0,
              "MMHOHAOGPLP": 0.0
            }
          ]
        }
      }
    }
  },
  {
    "Default": {
      "$type": "ConfigAbility",
      "abilityName": "SceneObj_Area_Xm_Property_Ani_Prop_DieSandWorm_Sand_01",
      "abilityMixins": [
        {
          "$type": "AttachToGadgetStateMixin",
          "modifierName": "Wait"
        },
        {
          "$type": "AttachToGadgetStateMixin",
          "gadgetState": 101,
          "modifierName": "Skill01"
        },
        {
          "$type": "AttachToGadgetStateMixin",
          "gadgetState": 102,
          "modifierName": "Skill02"
        },
        {
          "$type": "AttachToGadgetStateMixin",
          "gadgetState": 103,
          "modifierName": "Skill03"
        },
        {
          "$type": "AttachToGadgetStateMixin",
          "gadgetState": 201,
          "modifierName": "End"
        },
        {
          "$type": "AttachModifierToSelfGlobalValueMixin",
          "globalValueKey": "DIESANDWORM_PLAYDIE",
          "gvInTalk": 0.0,
          "valueSteps": [-0.5, 0.5, 1.5],
          "modifierNameSteps": ["Empty", "DieSandworm_PlayDie"]
        }
      ],
      "modifiers": {
        "Wait": {
          "modifierName": "",
          "elementDurability": 100.0,
          "onAdded": [
            {
              "$type": "HealHP",
              "shieldHP": true,
              "CKDBFHCIJEK": 1.0,
              "muteHealEffect": true,
              "cdRatio": ""
            },
            {
              "$type": "HBNEMPLJCMB",
              "hide": true
            },
            {
              "$type": "KNLIPAELJMN",
              "fore": true,
              "skipCheck": true
            },
            {
              "$type": "SetGlobalValue",
              "value": 0.0,
              "key": "DIESANDWORM_PLAYDIE",
              "maxValue": 0.0,
              "minValue": 0.0
            },
            {
              "$type": "SetAnimatorTrigger",
              "triggerID": "ToWait"
            },
            {
              "$type": "SetAnimatorTrigger",
              "triggerID": "ShaderWait"
            },
            {
              "$type": "SetAnimatorInt",
              "intID": "SkillState",
              "value": 0.0
            },
            {
              "$type": "SetGlobalValue",
              "value": 0.0,
              "key": "DieSandworm_IsInCutscene",
              "maxValue": 0.0,
              "minValue": 0.0
            }
          ]
        },
        "Skill01": {
          "modifierName": "",
          "elementDurability": 100.0,
          "state": "Limbo",
          "onAdded": [
            {
              "$type": "HBNEMPLJCMB",
              "hide": true
            },
            {
              "$type": "KNLIPAELJMN",
              "show": true,
              "fore": true
            },
            {
              "$type": "SetAnimatorInt",
              "intID": "SkillState",
              "value": 1.0
            },
            {
              "$type": "LILENAGMAEB",
              "otherTargets": {
                "$type": "PBLNLAENOGB",
                "tag": "IS_DieSandworm_PartcontrolTarget"
              },
              "attachPoint": "Body08",
              "followRotation": true
            }
          ],
          "onRemoved": [
            {
              "$type": "SetAnimatorInt",
              "intID": "SkillState",
              "value": 0.0
            }
          ]
        },
        "Skill02": {
          "modifierName": "",
          "elementDurability": 100.0,
          "state": "Limbo",
          "onAdded": [
            {
              "$type": "HBNEMPLJCMB",
              "hide": true
            },
            {
              "$type": "KNLIPAELJMN",
              "show": true,
              "fore": true
            },
            {
              "$type": "SetAnimatorInt",
              "intID": "SkillState",
              "value": 2.0
            },
            {
              "$type": "LILENAGMAEB",
              "otherTargets": {
                "$type": "PBLNLAENOGB",
                "tag": "IS_DieSandworm_PartcontrolTarget"
              },
              "attachPoint": "Body08",
              "followRotation": true
            }
          ],
          "onRemoved": [
            {
              "$type": "SetAnimatorInt",
              "intID": "SkillState",
              "value": 0.0
            }
          ]
        },
        "Skill03": {
          "modifierName": "",
          "elementDurability": 100.0,
          "state": "Limbo",
          "onAdded": [
            {
              "$type": "HBNEMPLJCMB",
              "hide": true
            },
            {
              "$type": "KNLIPAELJMN",
              "show": true,
              "fore": true
            },
            {
              "$type": "SetAnimatorInt",
              "intID": "SkillState",
              "value": 3.0
            },
            {
              "$type": "LILENAGMAEB",
              "otherTargets": {
                "$type": "PBLNLAENOGB",
                "tag": "IS_DieSandworm_PartcontrolTarget"
              },
              "attachPoint": "Body08",
              "followRotation": true
            }
          ],
          "onRemoved": [
            {
              "$type": "SetAnimatorInt",
              "intID": "SkillState",
              "value": 0.0
            }
          ]
        },
        "End": {
          "modifierName": "",
          "elementDurability": 100.0,
          "onAdded": [
            {
              "$type": "MCOBFPMHMHJ",
              "luaCallType": "FromGroup",
              "sourceName": "DieSandWorm_Sand_End",
              "param1": 0.0,
              "MGAMDEHMCOL": 0.0,
              "MMHOHAOGPLP": 0.0
            },
            {
              "$type": "ApplyModifier",
              "modifierName": "Delayed_ReturnToWait"
            }
          ]
        },
        "DieSandworm_PlayDie": {
          "modifierName": "",
          "elementDurability": 100.0,
          "onAdded": [
            {
              "$type": "SetAnimatorTrigger",
              "triggerID": "ToDie"
            },
            {
              "$type": "SetAnimatorTrigger",
              "triggerID": "Die"
            },
            {
              "$type": "SetAnimatorInt",
              "intID": "SkillState",
              "value": 0.0
            }
          ]
        },
        "Empty": {
          "modifierName": "",
          "elementDurability": 100.0
        },
        "Delayed_ReturnToWait": {
          "modifierName": "",
          "duration": 10.0,
          "elementDurability": 100.0,
          "onRemoved": [
            {
              "$type": "HPIDNBEGJLL",
              "predicates": [
                {
                  "$type": "HNLCJOPBDLC",
                  "target": "Self",
                  "gadgetState": 201
                }
              ]
            },
            {
              "$type": "SetAnimatorInt",
              "intID": "SkillState",
              "value": 0.0
            }
          ]
        }
      },
      "onAdded": [
        {
          "$type": "SetGlobalValue",
          "value": 0.0,
          "key": "DIESANDWORM_PLAYDIE",
          "maxValue": 0.0,
          "minValue": 0.0
        },
        {
          "$type": "CreateGadget",
          "lifeByOwnerV2": true,
          "gadgetID": 70290938,
          "campID": 5001,
          "campTargetType": "Enemy",
          "byServer": true
        },
        {
          "$type": "AOOCGNCCAJB",
          "isAdd": true,
          "tag": "IS_DieSandworm"
        }
      ]
    }
  },
  {
    "Default": {
      "$type": "ConfigAbility",
      "abilityName": "SceneObj_Area_Xm_Property_Ani_Prop_SmashSandWorm_Sand_01",
      "abilityMixins": [
        {
          "$type": "AttachToGadgetStateMixin",
          "modifierName": "Skill"
        },
        {
          "$type": "AttachToGadgetStateMixin",
          "gadgetState": 201,
          "modifierName": "End"
        },
        {
          "$type": "AttachToGadgetStateMixin",
          "gadgetState": 202,
          "modifierName": "End"
        },
        {
          "$type": "AttachToStateIDMixin",
          "stateIDs": ["Skill"],
          "modifierName": "SmashSandworm_BeHitDetector",
          "DGFCLAIDIFI": ""
        }
      ],
      "modifiers": {
        "Empty": {
          "modifierName": "",
          "elementDurability": 100.0
        },
        "Skill": {
          "modifierName": "",
          "elementDurability": 100.0
        },
        "End": {
          "modifierName": "",
          "elementDurability": 100.0,
          "onAdded": [
            {
              "$type": "MCOBFPMHMHJ",
              "luaCallType": "FromGroup",
              "sourceName": "SmashSandWorm_Sand_End",
              "param1": 0.0,
              "MGAMDEHMCOL": 0.0,
              "MMHOHAOGPLP": 0.0
            },
            {
              "$type": "ApplyModifier",
              "modifierName": "DelayedRemove"
            }
          ]
        },
        "SmashSandworm_BeHitDetector": {
          "modifierName": "",
          "elementDurability": 100.0,
          "modifierMixins": [
            {
              "$type": "AttachModifierToSelfGlobalValueMixin",
              "globalValueKey": "SmashSandworm_BeHit_Count",
              "gvInTalk": 0.0,
              "valueSteps": [-0.5, 0.5, 1.5],
              "modifierNameSteps": ["Empty", "SmashSandworm_ToEnd"]
            }
          ],
          "onAdded": [
            {
              "$type": "SetGlobalValue",
              "value": 0.0,
              "key": "SmashSandworm_BeHit_Count",
              "maxValue": 0.0,
              "minValue": 0.0
            }
          ],
          "onBeingHit": [
            {
              "$type": "AddGlobalValue",
              "value": 1.0,
              "key": "SmashSandworm_BeHit_Count",
              "useLimitRange": true,
              "maxValue": 1.0,
              "minValue": 0.0
            }
          ]
        },
        "SmashSandworm_ToEnd": {
          "modifierName": "",
          "elementDurability": 100.0,
          "onAdded": [
            {
              "$type": "SetAnimatorBool",
              "boolID": "End_Killed",
              "value": true
            }
          ]
        },
        "DelayedRemove": {
          "modifierName": "",
          "duration": 10.0,
          "elementDurability": 100.0,
          "onRemoved": [
            {
              "$type": "KillSelf"
            }
          ]
        }
      }
    }
  },
  {
    "Default": {
      "$type": "ConfigAbility",
      "abilityName": "SceneObj_Area_Xm_Property_Ani_Prop_DieSandWorm_Sand_01_PartcontrolTarget",
      "onAdded": [
        {
          "$type": "SetGlobalValue",
          "value": 1.0,
          "key": "DIESANDWORM_ISPARTCONTROLTARGET",
          "maxValue": 0.0,
          "minValue": 0.0
        },
        {
          "$type": "AOOCGNCCAJB",
          "isAdd": true,
          "tag": "IS_DieSandworm_PartcontrolTarget"
        }
      ]
    }
  },
  {
    "Default": {
      "$type": "ConfigAbility",
      "abilityName": "SceneObj_Area_Xm_Property_Ani_Prop_AbilitySandWorm_Sand_01_TailGroundCover_Start",
      "abilityMixins": [
        {
          "$type": "AttachModifierToSelfGlobalValueMixin",
          "globalValueKey": "_MONSTER_SANDWORM_TAILGROUNDCOVER_EFFECT_ON",
          "gvInTalk": 0.0,
          "valueSteps": [-0.5, 0.5, 1.5],
          "modifierNameSteps": [
            "Sandworm_TrailGroundCover_Off",
            "Sandworm_TrailGroundCover_On"
          ]
        }
      ],
      "modifiers": {
        "Sandworm_TrailGroundCover_Off": {
          "modifierName": "",
          "elementDurability": 100.0
        },
        "Sandworm_TrailGroundCover_On": {
          "stacking": "Unique",
          "modifierName": "",
          "elementDurability": 100.0,
          "onAdded": [
            {
              "$type": "AttachEffect",
              "rotationDampTime": "Eff_Monster_Sandworm_01_Stage01_GroundCover",
              "PPPDJGDDOGD": 1.0,
              "AJDILHJFNKE": -1.0
            }
          ]
        }
      },
      "onAdded": [
        {
          "$type": "SetGlobalValue",
          "value": 0.0,
          "key": "_MONSTER_SANDWORM_TAILGROUNDCOVER_EFFECT_ON",
          "maxValue": 0.0,
          "minValue": 0.0
        }
      ],
      "onAbilityStart": [
        {
          "$type": "SetGlobalValue",
          "value": 1.0,
          "key": "_MONSTER_SANDWORM_TAILGROUNDCOVER_EFFECT_ON",
          "maxValue": 0.0,
          "minValue": 0.0
        }
      ]
    }
  },
  {
    "Default": {
      "$type": "ConfigAbility",
      "abilityName": "SceneObj_Area_Xm_Property_Ani_Prop_AbilitySandWorm_Sand_01_TailGroundCover_End",
      "onAbilityStart": [
        {
          "$type": "SetGlobalValue",
          "value": 0.0,
          "key": "_MONSTER_SANDWORM_TAILGROUNDCOVER_EFFECT_ON",
          "maxValue": 0.0,
          "minValue": 0.0
        }
      ]
    }
  },
  {
    "Default": {
      "$type": "ConfigAbility",
      "abilityName": "SceneObj_Area_Xm_Property_Ani_Prop_AbilitySandWorm_Sand_ClearBullet",
      "abilityMixins": [
        {
          "$type": "AttachModifierToSelfGlobalValueMixin",
          "globalValueKey": "DieSandworm_IsInCutscene",
          "gvInTalk": 0.0,
          "valueSteps": [-0.5, 0.5, 1.5],
          "modifierNameSteps": ["Empty", "ClearBullet"]
        }
      ],
      "modifiers": {
        "Empty": {
          "modifierName": "",
          "elementDurability": 100.0
        },
        "ClearBullet": {
          "modifierName": "",
          "elementDurability": 100.0,
          "onAdded": [
            {
              "$type": "KillGadget",
              "shieldHP": true,
              "gadgetInfo": {
                "configID": 70290941
              }
            },
            {
              "$type": "KillGadget",
              "shieldHP": true,
              "gadgetInfo": {
                "configID": 70290942
              }
            },
            {
              "$type": "GCHLGDKBHCC",
              "shieldHP": true,
              "gadgetInfo": {
                "configID": 70290943
              }
            }
          ]
        }
      }
    }
  }
]
