[
  {
    "Default": {
      "$type": "ConfigAbility",
      "abilityName": "SceneObj_Area_Common_Property_Ani_Slider_01",
      "abilityMixins": [
        {
          "$type": "AttachToGadgetStateMixin",
          "modifierName": "NormalState"
        },
        {
          "$type": "AttachToGadgetStateMixin",
          "gadgetState": 201,
          "modifierName": "ActiveState"
        },
        {
          "$type": "AttachToGadgetStateMixin",
          "gadgetState": 101,
          "modifierName": "FinishState"
        }
      ],
      "modifiers": {
        "NormalState": {
          "modifierName": "",
          "elementDurability": 100.0,
          "modifierMixins": [
            {
              "$type": "GPCGHACDPIF",
              "DPAOMNELPHI": 1,
              "NLIOHMNJBAM": "Default"
            }
          ]
        },
        "ActiveState": {
          "modifierName": "",
          "elementDurability": 100.0,
          "modifierMixins": [
            {
              "$type": "GPCGHACDPIF",
              "DPAOMNELPHI": 2,
              "NLIOHMNJBAM": "Default"
            }
          ],
          "onAdded": [
            {
              "$type": "AttachEffect",
              "rotationDampTime": "Eff_SceneObj_FYD_Slider_01_Active",
              "PPPDJGDDOGD": 1.0,
              "AJDILHJFNKE": -1.0
            }
          ]
        },
        "FinishState": {
          "modifierName": "",
          "elementDurability": 100.0,
          "modifierMixins": [
            {
              "$type": "GPCGHACDPIF",
              "NLIOHMNJBAM": "Default"
            }
          ]
        }
      },
      "onAdded": [
        {
          "$type": "AOOCGNCCAJB",
          "isAdd": true,
          "tag": "Slider"
        }
      ]
    }
  },
  {
    "Default": {
      "$type": "ConfigAbility",
      "abilityName": "SceneObj_Area_Common_Property_Ani_SliderObstacle_01",
      "abilityMixins": [
        {
          "$type": "AttachToGadgetStateMixin",
          "modifierName": "LockState"
        },
        {
          "$type": "AttachToGadgetStateMixin",
          "gadgetState": 201,
          "modifierName": "OpenState"
        }
      ],
      "modifiers": {
        "LockState": {
          "modifierName": "",
          "elementDurability": 100.0,
          "modifierMixins": [
            {
              "$type": "GPCGHACDPIF",
              "DPAOMNELPHI": 1,
              "NLIOHMNJBAM": "Default"
            }
          ],
          "onAdded": [
            {
              "$type": "SetAnimatorInt",
              "intID": "GadgetState",
              "value": 0.0
            },
            {
              "$type": "CLKGEHMNIEF",
              "transformNames": ["RayCollider"],
              "setEnable": true
            },
            {
              "$type": "AttachEffect",
              "rotationDampTime": "Eff_SceneObj_FYD_SliderStopper_01",
              "PPPDJGDDOGD": 1.0,
              "AJDILHJFNKE": -1.0
            }
          ]
        },
        "OpenState": {
          "modifierName": "",
          "elementDurability": 100.0,
          "modifierMixins": [
            {
              "$type": "GPCGHACDPIF",
              "NLIOHMNJBAM": "Default"
            }
          ],
          "onAdded": [
            {
              "$type": "CLKGEHMNIEF",
              "transformNames": ["RayCollider"]
            },
            {
              "$type": "SetAnimatorInt",
              "intID": "GadgetState",
              "value": 201.0
            }
          ]
        }
      }
    }
  },
  {
    "Default": {
      "$type": "ConfigAbility",
      "abilityName": "SceneObj_Area_Common_Property_Ani_SliderBase_01",
      "abilityMixins": [
        {
          "$type": "AttachToGadgetStateMixin",
          "modifierName": "NormalState"
        },
        {
          "$type": "AttachToGadgetStateMixin",
          "gadgetState": 201,
          "modifierName": "ActiveState"
        },
        {
          "$type": "AttachToGadgetStateMixin",
          "gadgetState": 101,
          "modifierName": "FinishState"
        }
      ],
      "modifiers": {
        "ReconnectHelper": {
          "modifierName": "",
          "elementDurability": 100.0,
          "onReconnect": [
            {
              "$type": "SetSelfAttackTarget",
              "otherTargets": {
                "$type": "SelectTargetsByLCTrigger",
                "topLimit": 1,
                "sortType": "Nearest",
                "campTargetType": "Alliance"
              },
              "predicates": [
                {
                  "$type": "JHAJOBAACDP",
                  "tag": "Slider"
                }
              ]
            },
            {
              "$type": "Predicated",
              "target": "SelfAttackTarget",
              "targetPredicates": [
                {
                  "$type": "ByEntityIsAlive"
                }
              ],
              "successActions": [
                {
                  "$type": "ApplyModifier",
                  "target": "SelfAttackTarget",
                  "modifierName": "Set_To_201_State"
                },
                {
                  "$type": "ApplyModifier",
                  "modifierName": "UNIQUE_Slider_Timer"
                }
              ],
              "failActions": [
                {
                  "$type": "ApplyModifier",
                  "target": "SelfAttackTarget",
                  "modifierName": "Set_To_0_State"
                },
                {
                  "$type": "HPIDNBEGJLL",
                  "predicates": [
                    {
                      "$type": "ByNot",
                      "predicates": [
                        {
                          "$type": "HNLCJOPBDLC",
                          "gadgetState": 101
                        }
                      ]
                    }
                  ]
                },
                {
                  "$type": "RemoveModifier",
                  "modifierName": "UNIQUE_Slider_Timer"
                }
              ]
            }
          ]
        },
        "Set_To_201_State": {
          "modifierName": "",
          "duration": 0.20000000298023224,
          "elementDurability": 100.0,
          "onAdded": [
            {
              "$type": "HPIDNBEGJLL",
              "predicates": [
                {
                  "$type": "ByNot",
                  "predicates": [
                    {
                      "$type": "HNLCJOPBDLC",
                      "gadgetState": 101
                    }
                  ]
                }
              ],
              "state": 201
            }
          ]
        },
        "Set_To_0_State": {
          "modifierName": "",
          "duration": 0.20000000298023224,
          "elementDurability": 100.0,
          "onAdded": [
            {
              "$type": "HPIDNBEGJLL",
              "predicates": [
                {
                  "$type": "ByNot",
                  "predicates": [
                    {
                      "$type": "HNLCJOPBDLC",
                      "gadgetState": 101
                    }
                  ]
                }
              ]
            }
          ]
        },
        "NormalState": {
          "modifierName": "",
          "elementDurability": 100.0,
          "modifierMixins": [
            {
              "$type": "GPCGHACDPIF",
              "NLIOHMNJBAM": "Default"
            }
          ]
        },
        "ActiveState": {
          "modifierName": "",
          "elementDurability": 100.0,
          "modifierMixins": [
            {
              "$type": "GPCGHACDPIF",
              "NLIOHMNJBAM": "Default"
            }
          ]
        },
        "FinishState": {
          "modifierName": "",
          "elementDurability": 100.0,
          "modifierMixins": [
            {
              "$type": "GPCGHACDPIF",
              "DPAOMNELPHI": 1,
              "NLIOHMNJBAM": "Default"
            }
          ]
        },
        "UNIQUE_Slider_Timer": {
          "stacking": "Unique",
          "modifierName": "",
          "forceTriggerWhenChangeAuthority": true,
          "elementDurability": 100.0,
          "thinkInterval": 0.20000000298023224,
          "onAdded": [
            {
              "$type": "SetGlobalValue",
              "value": 0.0,
              "key": "gv_Timer",
              "maxValue": 0.0,
              "minValue": 0.0
            }
          ],
          "onThinkInterval": [
            {
              "$type": "Predicated",
              "targetPredicates": [
                {
                  "$type": "ByTargetGlobalValue",
                  "key": "gv_Timer",
                  "value": 2.0,
                  "compareType": "MoreThanAndEqual"
                }
              ],
              "successActions": [
                {
                  "$type": "HPIDNBEGJLL",
                  "state": 201
                },
                {
                  "$type": "RemoveModifier",
                  "modifierName": "UNIQUE_Slider_Timer"
                }
              ],
              "failActions": [
                {
                  "$type": "AddGlobalValue",
                  "value": 0.20000000298023224,
                  "key": "gv_Timer",
                  "maxValue": 0.0,
                  "minValue": 0.0
                }
              ]
            }
          ]
        }
      },
      "onAdded": [
        {
          "$type": "ApplyModifier",
          "modifierName": "ReconnectHelper"
        }
      ],
      "onFieldEnter": [
        {
          "$type": "Predicated",
          "target": "Target",
          "targetPredicates": [
            {
              "$type": "JHAJOBAACDP",
              "tag": "Slider"
            },
            {
              "$type": "ByNot",
              "predicates": [
                {
                  "$type": "HNLCJOPBDLC",
                  "gadgetState": 101
                }
              ]
            }
          ],
          "successActions": [
            {
              "$type": "DebugLog",
              "content": "滑块进入区域！！！"
            },
            {
              "$type": "ApplyModifier",
              "target": "Target",
              "modifierName": "Set_To_201_State"
            },
            {
              "$type": "ApplyModifier",
              "modifierName": "UNIQUE_Slider_Timer"
            }
          ]
        }
      ],
      "onFieldExit": [
        {
          "$type": "Predicated",
          "target": "Target",
          "targetPredicates": [
            {
              "$type": "JHAJOBAACDP",
              "tag": "Slider"
            },
            {
              "$type": "ByNot",
              "predicates": [
                {
                  "$type": "HNLCJOPBDLC",
                  "gadgetState": 101
                }
              ]
            }
          ],
          "successActions": [
            {
              "$type": "DebugLog",
              "content": "滑块离开区域！！！"
            },
            {
              "$type": "ApplyModifier",
              "target": "Target",
              "modifierName": "Set_To_0_State"
            },
            {
              "$type": "HPIDNBEGJLL"
            },
            {
              "$type": "RemoveModifier",
              "modifierName": "UNIQUE_Slider_Timer"
            }
          ]
        }
      ]
    }
  },
  {
    "Default": {
      "$type": "ConfigAbility",
      "abilityName": "SceneObj_Area_Common_Property_Ani_SliderRail_01"
    }
  },
  {
    "Default": {
      "$type": "ConfigAbility",
      "abilityName": "SceneObj_Area_Common_Property_Ani_SealedTower_Gear_01",
      "abilityMixins": [
        {
          "$type": "AttachToGadgetStateMixin",
          "modifierName": "DefaultState"
        },
        {
          "$type": "AttachToGadgetStateMixin",
          "gadgetState": 201,
          "modifierName": "LaserState"
        },
        {
          "$type": "AttachModifierToGlobalValueMixin",
          "globalValueKey": "SGV_IsStopDrive",
          "valueSteps": [-0.5, 0.5, 1.5],
          "modifierNameSteps": ["NormalDrive", "StopDrive"],
          "NMCLMHFBALJ": true
        }
      ],
      "modifiers": {
        "NormalDrive": {
          "modifierName": "",
          "elementDurability": 100.0,
          "modifierMixins": [
            {
              "$type": "GPCGHACDPIF",
              "NLIOHMNJBAM": "Default"
            }
          ]
        },
        "StopDrive": {
          "modifierName": "",
          "elementDurability": 100.0,
          "modifierMixins": [
            {
              "$type": "GPCGHACDPIF",
              "DPAOMNELPHI": 1,
              "NLIOHMNJBAM": "Default"
            }
          ]
        },
        "UNIQUE_LaserHit": {
          "stacking": "Unique",
          "modifierName": "",
          "forceTriggerWhenChangeAuthority": true,
          "duration": 0.10000000149011612,
          "elementDurability": 100.0,
          "onAdded": [
            {
              "$type": "SetGlobalValue",
              "value": 1.0,
              "key": "gv_LaserHit",
              "maxValue": 0.0,
              "minValue": 0.0
            }
          ]
        },
        "UNIQUE_LaserLeave": {
          "stacking": "Unique",
          "modifierName": "",
          "forceTriggerWhenChangeAuthority": true,
          "duration": 0.10000000149011612,
          "elementDurability": 100.0,
          "onAdded": [
            {
              "$type": "SetGlobalValue",
              "value": 0.0,
              "key": "gv_LaserHit",
              "maxValue": 0.0,
              "minValue": 0.0
            }
          ]
        },
        "DefaultState": {
          "modifierName": "",
          "elementDurability": 100.0
        },
        "LaserState": {
          "modifierName": "",
          "elementDurability": 100.0,
          "modifierMixins": [
            {
              "$type": "NKENLIHLFPF",
              "rotationDampTime": "Eff_SceneObj_EnergyWheel_01_Line",
              "onLaserHit": [
                {
                  "$type": "AttachModifier",
                  "target": "Target",
                  "modifierName": "UNIQUE_LaserHit"
                }
              ],
              "onLaserLeave": [
                {
                  "$type": "AttachModifier",
                  "target": "Target",
                  "modifierName": "UNIQUE_LaserLeave"
                }
              ]
            }
          ],
          "onAdded": [
            {
              "$type": "AttachEffect",
              "rotationDampTime": "Eff_SceneObj_EnergyWheel_01_Line",
              "PPPDJGDDOGD": 1.0,
              "AJDILHJFNKE": -1.0
            },
            {
              "$type": "SendEffectTrigger",
              "shieldHP": true,
              "parameter": "Gadget",
              "attachPoint": "",
              "damageRatio": "Int",
              "value": 201,
              "rotationDampTime": "Eff_SceneObj_EnergyWheel_01_Line"
            }
          ],
          "onReconnect": [
            {
              "$type": "SetGlobalValue",
              "value": 0.0,
              "key": "gv_DriveRotation",
              "maxValue": 0.0,
              "minValue": 0.0
            }
          ]
        }
      }
    }
  },
  {
    "Default": {
      "$type": "ConfigAbility",
      "abilityName": "SceneObj_Area_Common_Property_Ani_SealedTower_LaserReceiver_Point_01",
      "abilityMixins": [
        {
          "$type": "AttachToGadgetStateMixin",
          "modifierName": "ReceiveLaserState"
        },
        {
          "$type": "AttachToGadgetStateMixin",
          "gadgetState": 201,
          "modifierName": "ActiveState"
        },
        {
          "$type": "AttachToGadgetStateMixin",
          "gadgetState": 202,
          "modifierName": "OpenGateState"
        },
        {
          "$type": "AttachToGadgetStateMixin",
          "gadgetState": 203,
          "modifierName": "FinishState"
        }
      ],
      "modifiers": {
        "LaserHitController": {
          "modifierName": "",
          "elementDurability": 100.0,
          "modifierMixins": [
            {
              "$type": "DoActionOnGlobalValueChangeMixin",
              "globalValueKey": "gv_LaserHit",
              "actions": [
                {
                  "$type": "Predicated",
                  "targetPredicates": [
                    {
                      "$type": "ByTargetGlobalValue",
                      "key": "gv_LaserHit",
                      "value": 1.0
                    },
                    {
                      "$type": "ByNot",
                      "predicates": [
                        {
                          "$type": "HNLCJOPBDLC",
                          "gadgetState": 202
                        }
                      ]
                    },
                    {
                      "$type": "ByNot",
                      "predicates": [
                        {
                          "$type": "HNLCJOPBDLC",
                          "gadgetState": 203
                        }
                      ]
                    }
                  ],
                  "successActions": [
                    {
                      "$type": "AttachModifier",
                      "modifierName": "ActiveCountdown"
                    }
                  ]
                },
                {
                  "$type": "Predicated",
                  "targetPredicates": [
                    {
                      "$type": "ByTargetGlobalValue",
                      "key": "gv_LaserHit",
                      "value": 0.0
                    },
                    {
                      "$type": "ByNot",
                      "predicates": [
                        {
                          "$type": "HNLCJOPBDLC",
                          "gadgetState": 202
                        }
                      ]
                    },
                    {
                      "$type": "ByNot",
                      "predicates": [
                        {
                          "$type": "HNLCJOPBDLC",
                          "gadgetState": 203
                        }
                      ]
                    }
                  ],
                  "successActions": [
                    {
                      "$type": "HPIDNBEGJLL"
                    },
                    {
                      "$type": "RemoveModifier",
                      "modifierName": "ActiveCountdown"
                    }
                  ]
                }
              ]
            }
          ]
        },
        "ActiveCountdown": {
          "modifierName": "",
          "duration": 3.0,
          "elementDurability": 100.0,
          "onRemoved": [
            {
              "$type": "HPIDNBEGJLL",
              "predicates": [
                {
                  "$type": "ByTargetGlobalValue",
                  "key": "gv_LaserHit",
                  "value": 1.0
                }
              ],
              "state": 201
            }
          ]
        },
        "ReceiveLaserState": {
          "modifierName": "",
          "elementDurability": 100.0,
          "modifierMixins": [
            {
              "$type": "GPCGHACDPIF",
              "DPAOMNELPHI": 2,
              "NLIOHMNJBAM": "Default"
            }
          ]
        },
        "ActiveState": {
          "modifierName": "",
          "elementDurability": 100.0,
          "modifierMixins": [
            {
              "$type": "GPCGHACDPIF",
              "NLIOHMNJBAM": "Default"
            }
          ],
          "onAdded": [
            {
              "$type": "HPIDNBEGJLL",
              "predicates": [
                {
                  "$type": "ByTargetGlobalValue",
                  "key": "gv_LaserHit",
                  "value": 0.0,
                  "compareType": "NoneOrEqual"
                }
              ]
            }
          ]
        },
        "OpenGateState": {
          "modifierName": "",
          "elementDurability": 100.0,
          "modifierMixins": [
            {
              "$type": "GPCGHACDPIF",
              "NLIOHMNJBAM": "Default"
            }
          ],
          "onAdded": [
            {
              "$type": "FireEffect",
              "rotationDampTime": "Eff_ScenObj_FYTPointReceiver_01",
              "born": {
                "$type": "ConfigBornByAttachPoint",
                "useRotation": true,
                "attachPointName": "EffectNode"
              },
              "PPPDJGDDOGD": 1.0,
              "AJDILHJFNKE": -1.0
            }
          ]
        },
        "FinishState": {
          "modifierName": "",
          "elementDurability": 100.0,
          "modifierMixins": [
            {
              "$type": "GPCGHACDPIF",
              "DPAOMNELPHI": 1,
              "NLIOHMNJBAM": "Default"
            }
          ]
        }
      },
      "onAdded": [
        {
          "$type": "AttachModifier",
          "modifierName": "LaserHitController"
        }
      ]
    }
  },
  {
    "Default": {
      "$type": "ConfigAbility",
      "abilityName": "SceneObj_Area_Common_Property_Ani_WheelDriveDoor_01"
    }
  },
  {
    "Default": {
      "$type": "ConfigAbility",
      "abilityName": "SceneObj_Area_Common_Property_Ani_MovingPillar_Light_01",
      "modifiers": {
        "LightEffect": {
          "modifierName": "",
          "elementDurability": 100.0,
          "onAdded": [
            {
              "$type": "Predicated",
              "targetPredicates": [
                {
                  "$type": "ByTargetGlobalValue",
                  "key": "SGV_UpNodeLight",
                  "value": 1.0,
                  "compareType": "NoneOrEqual"
                }
              ],
              "successActions": [
                {
                  "$type": "AttachEffect",
                  "rotationDampTime": "Eff_SceneObj_EnergyWheel_Light_01",
                  "born": {
                    "$type": "ConfigBornByAttachPoint",
                    "useRotation": true,
                    "attachPointName": "LightNode"
                  },
                  "PPPDJGDDOGD": 1.0,
                  "AJDILHJFNKE": -1.0
                },
                {
                  "$type": "MAHNJJFLACM",
                  "followPath": "LightNode",
                  "rotationDampTime": "Eff_SceneObj_EnergyWheel_Light_01",
                  "attachPoint": "LightNode"
                }
              ]
            },
            {
              "$type": "Predicated",
              "targetPredicates": [
                {
                  "$type": "ByTargetGlobalValue",
                  "key": "SGV_DownNodeLight",
                  "value": 1.0,
                  "compareType": "NoneOrEqual"
                }
              ],
              "successActions": [
                {
                  "$type": "AttachEffect",
                  "rotationDampTime": "Eff_SceneObj_EnergyWheel_Light_01",
                  "born": {
                    "$type": "ConfigBornByAttachPoint",
                    "useRotation": true,
                    "attachPointName": "LightNode1"
                  },
                  "PPPDJGDDOGD": 1.0,
                  "AJDILHJFNKE": -1.0
                },
                {
                  "$type": "MAHNJJFLACM",
                  "followPath": "LightNode1",
                  "rotationDampTime": "Eff_SceneObj_EnergyWheel_Light_01",
                  "attachPoint": "LightNode1"
                }
              ]
            }
          ]
        }
      },
      "onAdded": [
        {
          "$type": "AttachModifier",
          "modifierName": "LightEffect"
        }
      ]
    }
  },
  {
    "Default": {
      "$type": "ConfigAbility",
      "abilityName": "SceneObj_Area_Common_Property_Ani_RayReceiver_01",
      "abilityMixins": [
        {
          "$type": "AttachToGadgetStateMixin",
          "modifierName": "DefaultState"
        },
        {
          "$type": "AttachToGadgetStateMixin",
          "gadgetState": 201,
          "modifierName": "ActiveState"
        },
        {
          "$type": "AttachToGadgetStateMixin",
          "gadgetState": 202,
          "modifierName": "FinishState"
        },
        {
          "$type": "AttachToGadgetStateMixin",
          "gadgetState": 203,
          "modifierName": "TurnOffState"
        }
      ],
      "modifiers": {
        "LaserReceiver": {
          "modifierName": "",
          "elementDurability": 100.0,
          "modifierMixins": [
            {
              "$type": "AttachModifierToGlobalValueMixin",
              "globalValueKey": "gv_LaserHit",
              "valueSteps": [-0.5, 0.5, 1000.5],
              "modifierNameSteps": ["OnNoLaserHit", "OnLaserHit"]
            }
          ],
          "onAdded": [
            {
              "$type": "SetGlobalValue",
              "shieldHP": true,
              "value": 0.0,
              "key": "gv_LaserHit",
              "maxValue": 0.0,
              "minValue": 0.0
            }
          ],
          "onReconnect": [
            {
              "$type": "SetGlobalValue",
              "shieldHP": true,
              "value": 0.0,
              "key": "gv_LaserHit",
              "maxValue": 0.0,
              "minValue": 0.0
            }
          ]
        },
        "OnNoLaserHit": {
          "modifierName": "",
          "elementDurability": 100.0,
          "onAdded": [
            {
              "$type": "HPIDNBEGJLL",
              "predicates": [
                {
                  "$type": "ByNot",
                  "predicates": [
                    {
                      "$type": "HNLCJOPBDLC",
                      "gadgetState": 202
                    }
                  ]
                }
              ]
            }
          ]
        },
        "OnLaserHit": {
          "modifierName": "",
          "elementDurability": 100.0,
          "onAdded": [
            {
              "$type": "AttachEffect",
              "rotationDampTime": "Eff_SceneObj_EnergyWheel_01_Hit_02",
              "PPPDJGDDOGD": 1.0,
              "AJDILHJFNKE": -1.0
            },
            {
              "$type": "AttachModifier",
              "predicates": [
                {
                  "$type": "ByNot",
                  "predicates": [
                    {
                      "$type": "HNLCJOPBDLC",
                      "gadgetState": 202
                    }
                  ]
                }
              ],
              "modifierName": "UNIQUE_ActiveCounter"
            }
          ]
        },
        "UNIQUE_ActiveCounter": {
          "stacking": "Unique",
          "modifierName": "",
          "forceTriggerWhenChangeAuthority": true,
          "duration": 3.0,
          "elementDurability": 100.0,
          "onRemoved": [
            {
              "$type": "Predicated",
              "targetPredicates": [
                {
                  "$type": "ByTargetGlobalValue",
                  "key": "gv_LaserHit",
                  "value": 1.0,
                  "compareType": "MoreThanAndEqual"
                }
              ],
              "successActions": [
                {
                  "$type": "HPIDNBEGJLL",
                  "state": 201
                }
              ]
            }
          ]
        },
        "DefaultState": {
          "modifierName": "",
          "elementDurability": 100.0,
          "modifierMixins": [
            {
              "$type": "GPCGHACDPIF",
              "DPAOMNELPHI": 1,
              "NLIOHMNJBAM": "Default"
            }
          ],
          "onAdded": [
            {
              "$type": "SetAnimatorInt",
              "intID": "GadgetState",
              "value": 0.0
            }
          ]
        },
        "ActiveState": {
          "modifierName": "",
          "elementDurability": 100.0,
          "modifierMixins": [
            {
              "$type": "GPCGHACDPIF",
              "NLIOHMNJBAM": "Default"
            }
          ],
          "onAdded": [
            {
              "$type": "AttachEffect",
              "rotationDampTime": "Eff_SceneObj_RayReceiver_01_Active",
              "born": {
                "$type": "ConfigBornByAttachPoint",
                "useRotation": true,
                "attachPointName": "EffectNode"
              },
              "PPPDJGDDOGD": 1.0,
              "AJDILHJFNKE": -1.0
            },
            {
              "$type": "SetAnimatorInt",
              "intID": "GadgetState",
              "value": 201.0
            }
          ]
        },
        "FinishState": {
          "modifierName": "",
          "elementDurability": 100.0,
          "modifierMixins": [
            {
              "$type": "GPCGHACDPIF",
              "NLIOHMNJBAM": "Default"
            }
          ],
          "onAdded": [
            {
              "$type": "AttachEffect",
              "rotationDampTime": "Eff_SceneObj_RayReceiver_01_Active",
              "born": {
                "$type": "ConfigBornByAttachPoint",
                "useRotation": true,
                "attachPointName": "EffectNode"
              },
              "PPPDJGDDOGD": 1.0,
              "AJDILHJFNKE": -1.0
            },
            {
              "$type": "SetAnimatorInt",
              "intID": "GadgetState",
              "value": 201.0
            }
          ]
        },
        "TurnOffState": {
          "modifierName": "",
          "elementDurability": 100.0,
          "modifierMixins": [
            {
              "$type": "GPCGHACDPIF",
              "NLIOHMNJBAM": "Default"
            }
          ],
          "onAdded": [
            {
              "$type": "SetAnimatorInt",
              "intID": "GadgetState",
              "value": 0.0
            }
          ]
        }
      },
      "onAdded": [
        {
          "$type": "AttachModifier",
          "modifierName": "LaserReceiver"
        },
        {
          "$type": "FireEffect",
          "rotationDampTime": "Eff_SceneObj_RayReceiver_01_Create",
          "PPPDJGDDOGD": 1.0,
          "AJDILHJFNKE": -1.0
        },
        {
          "$type": "SetGlobalValue",
          "value": 1.0,
          "key": "gv_LaserTarget",
          "maxValue": 0.0,
          "minValue": 0.0
        }
      ],
      "onRemoved": [
        {
          "$type": "FireEffect",
          "rotationDampTime": "Eff_SceneObj_RayReceiver_01_Die",
          "PPPDJGDDOGD": 1.0,
          "AJDILHJFNKE": -1.0
        }
      ]
    }
  },
  {
    "Default": {
      "$type": "ConfigAbility",
      "abilityName": "SceneObj_Area_Common_Property_Ani_PointerWheel_Shooter_01",
      "abilityMixins": [
        {
          "$type": "AttachToGadgetStateMixin",
          "modifierName": "LaserState"
        },
        {
          "$type": "AttachToGadgetStateMixin",
          "gadgetState": 101,
          "modifierName": "NoLaserState"
        }
      ],
      "modifiers": {
        "LaserState": {
          "modifierName": "",
          "elementDurability": 100.0,
          "onAdded": [
            {
              "$type": "SetGlobalValue",
              "value": 1.0,
              "key": "gv_ShootLaser",
              "maxValue": 0.0,
              "minValue": 0.0
            }
          ]
        },
        "NoLaserState": {
          "modifierName": "",
          "elementDurability": 100.0,
          "onAdded": [
            {
              "$type": "SetGlobalValue",
              "value": 0.0,
              "key": "gv_ShootLaser",
              "maxValue": 0.0,
              "minValue": 0.0
            }
          ]
        }
      }
    }
  },
  {
    "Default": {
      "$type": "ConfigAbility",
      "abilityName": "SceneObj_Area_Common_Property_Ani_RotateWaterway_01",
      "abilityMixins": [
        {
          "$type": "AttachToGadgetStateMixin",
          "modifierName": "DefaultState"
        },
        {
          "$type": "AttachToGadgetStateMixin",
          "gadgetState": 201,
          "modifierName": "FinishState"
        }
      ],
      "HKFPCGFFKMJ": ["SGV_FinishRotation"],
      "modifiers": {
        "DefaultState": {
          "modifierName": "",
          "elementDurability": 100.0,
          "modifierMixins": [
            {
              "$type": "AttachModifierToGlobalValueMixin",
              "globalValueKey": "SGV_Arm_1",
              "valueSteps": [-0.5, 0.5, 1.5],
              "modifierNameSteps": ["Arm1_Off", "Arm1_On"],
              "NMCLMHFBALJ": true
            },
            {
              "$type": "AttachModifierToGlobalValueMixin",
              "globalValueKey": "SGV_Arm_2",
              "valueSteps": [-0.5, 0.5, 1.5],
              "modifierNameSteps": ["Arm2_Off", "Arm2_On"],
              "NMCLMHFBALJ": true
            }
          ],
          "onReconnect": [
            {
              "$type": "SetGlobalValue",
              "predicates": [
                {
                  "$type": "ByNot",
                  "predicates": [
                    {
                      "$type": "ByTargetGlobalValue",
                      "key": "SGV_Arm_1",
                      "value": 1.0
                    },
                    {
                      "$type": "ByTargetGlobalValue",
                      "key": "SGV_Arm_2",
                      "value": 1.0
                    }
                  ]
                }
              ],
              "value": 0.0,
              "key": "gv_DriveRotation",
              "maxValue": 0.0,
              "minValue": 0.0
            }
          ]
        },
        "FinishState": {
          "modifierName": "",
          "elementDurability": 100.0,
          "onAdded": [
            {
              "$type": "ANNOBMCGOEC",
              "matName": "Arm1",
              "EKHLCLJELIP": "_EmissionStrength",
              "value": 12.0
            },
            {
              "$type": "ANNOBMCGOEC",
              "matName": "Arm2",
              "EKHLCLJELIP": "_EmissionStrength",
              "value": 12.0
            },
            {
              "$type": "ApplyModifier",
              "modifierName": "DelayApplyFinishRotation"
            }
          ]
        },
        "Arm1_Off": {
          "modifierName": "",
          "elementDurability": 100.0,
          "onAdded": [
            {
              "$type": "ANNOBMCGOEC",
              "matName": "Arm1",
              "EKHLCLJELIP": "_EmissionStrength",
              "value": 0.0
            }
          ]
        },
        "Arm1_On": {
          "modifierName": "",
          "elementDurability": 100.0,
          "onAdded": [
            {
              "$type": "ANNOBMCGOEC",
              "matName": "Arm1",
              "EKHLCLJELIP": "_EmissionStrength",
              "value": 12.0
            }
          ]
        },
        "Arm2_Off": {
          "modifierName": "",
          "elementDurability": 100.0,
          "onAdded": [
            {
              "$type": "ANNOBMCGOEC",
              "matName": "Arm2",
              "EKHLCLJELIP": "_EmissionStrength",
              "value": 0.0
            }
          ]
        },
        "Arm2_On": {
          "modifierName": "",
          "elementDurability": 100.0,
          "onAdded": [
            {
              "$type": "ANNOBMCGOEC",
              "matName": "Arm2",
              "EKHLCLJELIP": "_EmissionStrength",
              "value": 12.0
            }
          ]
        },
        "DelayApplyFinishRotation": {
          "modifierName": "",
          "duration": 0.5,
          "elementDurability": 100.0,
          "onRemoved": [
            {
              "$type": "SetGlobalValue",
              "predicates": [
                {
                  "$type": "ByNot",
                  "predicates": [
                    {
                      "$type": "ByTargetGlobalValue",
                      "key": "SGV_Arm_1",
                      "value": 1.0
                    },
                    {
                      "$type": "ByTargetGlobalValue",
                      "key": "SGV_Arm_2",
                      "value": 1.0
                    }
                  ]
                }
              ],
              "value": "SGV_FinishRotation",
              "key": "gv_DriveRotation",
              "maxValue": 0.0,
              "minValue": 0.0
            }
          ]
        }
      }
    }
  },
  {
    "Default": {
      "$type": "ConfigAbility",
      "abilityName": "SceneObj_Area_Common_Property_Ani_FenceGate_WaterWheel_Audio_01",
      "modifiers": {
        "AudioController": {
          "modifierName": "",
          "elementDurability": 100.0,
          "modifierMixins": [
            {
              "$type": "DoActionOnGlobalValueChangeMixin",
              "globalValueKey": "gv_DriveRotation",
              "actions": [
                {
                  "$type": "AttachModifier",
                  "modifierName": "UNIQUE_PlayAudio_Gate01"
                }
              ]
            }
          ]
        },
        "UNIQUE_PlayAudio_Gate01": {
          "modifierName": "",
          "forceTriggerWhenChangeAuthority": true,
          "duration": 0.30000001192092896,
          "elementDurability": 100.0,
          "onAdded": [
            {
              "$type": "TriggerAudio",
              "operation": {
                "$type": "ConfigAudioEventOp",
                "operation": {
                  "text": "Play_amb_sceneObj_gear_fenceGate_waterWheel_01_move"
                }
              }
            }
          ],
          "onRemoved": [
            {
              "$type": "TriggerAudio",
              "operation": {
                "$type": "ConfigAudioEventOp",
                "operation": {
                  "text": "Stop_amb_sceneObj_gear_fenceGate_waterWheel_01_move"
                }
              }
            }
          ]
        }
      },
      "onAdded": [
        {
          "$type": "AttachModifier",
          "modifierName": "AudioController"
        }
      ]
    }
  },
  {
    "Default": {
      "$type": "ConfigAbility",
      "abilityName": "SceneObj_Area_Common_Property_Ani_FenceGate_WaterWheel_Audio_03",
      "modifiers": {
        "AudioController": {
          "modifierName": "",
          "elementDurability": 100.0,
          "modifierMixins": [
            {
              "$type": "DoActionOnGlobalValueChangeMixin",
              "globalValueKey": "gv_DriveRotation",
              "actions": [
                {
                  "$type": "AttachModifier",
                  "modifierName": "UNIQUE_PlayAudio_Gate03"
                }
              ]
            }
          ]
        },
        "UNIQUE_PlayAudio_Gate03": {
          "modifierName": "",
          "forceTriggerWhenChangeAuthority": true,
          "duration": 0.30000001192092896,
          "elementDurability": 100.0,
          "onAdded": [
            {
              "$type": "TriggerAudio",
              "operation": {
                "$type": "ConfigAudioEventOp",
                "operation": {
                  "text": "Play_amb_sceneObj_gear_fenceGate_waterWheel_03_move"
                }
              }
            }
          ],
          "onRemoved": [
            {
              "$type": "TriggerAudio",
              "operation": {
                "$type": "ConfigAudioEventOp",
                "operation": {
                  "text": "Stop_amb_sceneObj_gear_fenceGate_waterWheel_03_move"
                }
              }
            }
          ]
        }
      },
      "onAdded": [
        {
          "$type": "AttachModifier",
          "modifierName": "AudioController"
        }
      ]
    }
  },
  {
    "Default": {
      "$type": "ConfigAbility",
      "abilityName": "SceneObj_Area_Common_Property_Ani_MovingPillar_Audio_01",
      "modifiers": {
        "AudioController": {
          "modifierName": "",
          "elementDurability": 100.0,
          "modifierMixins": [
            {
              "$type": "DoActionOnGlobalValueChangeMixin",
              "globalValueKey": "gv_DriveRotation",
              "actions": [
                {
                  "$type": "AttachModifier",
                  "modifierName": "UNIQUE_PlayAudio_Pillar"
                }
              ]
            }
          ]
        },
        "UNIQUE_PlayAudio_Pillar": {
          "modifierName": "",
          "forceTriggerWhenChangeAuthority": true,
          "duration": 0.30000001192092896,
          "elementDurability": 100.0,
          "onAdded": [
            {
              "$type": "TriggerAudio",
              "operation": {
                "$type": "ConfigAudioEventOp",
                "operation": {
                  "text": "Play_amb_sceneObj_gear_FDColumn_Slide_Slow"
                }
              }
            }
          ],
          "onRemoved": [
            {
              "$type": "TriggerAudio",
              "operation": {
                "$type": "ConfigAudioEventOp",
                "operation": {
                  "text": "Stop_amb_sceneObj_gear_FDColumn_Slide_Slow"
                }
              }
            }
          ]
        }
      },
      "onAdded": [
        {
          "$type": "AttachModifier",
          "modifierName": "AudioController"
        }
      ]
    }
  },
  {
    "Default": {
      "$type": "ConfigAbility",
      "abilityName": "SceneObj_Area_Common_Property_Ani_Slider_Audio_01",
      "modifiers": {
        "AudioController": {
          "modifierName": "",
          "elementDurability": 100.0,
          "modifierMixins": [
            {
              "$type": "DoActionOnGlobalValueChangeMixin",
              "globalValueKey": "gv_DriveRotation",
              "actions": [
                {
                  "$type": "AttachModifier",
                  "modifierName": "UNIQUE_PlayAudio_Slider"
                }
              ]
            }
          ]
        },
        "UNIQUE_PlayAudio_Slider": {
          "modifierName": "",
          "forceTriggerWhenChangeAuthority": true,
          "duration": 0.30000001192092896,
          "elementDurability": 100.0,
          "onAdded": [
            {
              "$type": "TriggerAudio",
              "operation": {
                "$type": "ConfigAudioEventOp",
                "operation": {
                  "text": "Play_amb_sceneObj_gear_FYD_Track_Slide_Loop"
                }
              }
            }
          ],
          "onRemoved": [
            {
              "$type": "TriggerAudio",
              "operation": {
                "$type": "ConfigAudioEventOp",
                "operation": {
                  "text": "Stop_amb_sceneObj_gear_FYD_Track_Slide_Loop"
                }
              }
            }
          ]
        }
      },
      "onAdded": [
        {
          "$type": "AttachModifier",
          "modifierName": "AudioController"
        }
      ]
    }
  },
  {
    "Default": {
      "$type": "ConfigAbility",
      "abilityName": "SceneObj_Area_Common_Property_Ani_RotateWaterway_Audio_01",
      "modifiers": {
        "AudioController": {
          "modifierName": "",
          "elementDurability": 100.0,
          "modifierMixins": [
            {
              "$type": "DoActionOnGlobalValueChangeMixin",
              "globalValueKey": "gv_DriveRotation",
              "actions": [
                {
                  "$type": "AttachModifier",
                  "modifierName": "UNIQUE_PlayAudio_Rotatewaterway"
                }
              ]
            }
          ]
        },
        "UNIQUE_PlayAudio_Rotatewaterway": {
          "modifierName": "",
          "forceTriggerWhenChangeAuthority": true,
          "duration": 0.30000001192092896,
          "elementDurability": 100.0,
          "onAdded": [
            {
              "$type": "TriggerAudio",
              "operation": {
                "$type": "ConfigAudioEventOp",
                "operation": {
                  "text": "Play_amb_sceneObj_gear_rotateWaterway_01"
                }
              }
            }
          ],
          "onRemoved": [
            {
              "$type": "TriggerAudio",
              "operation": {
                "$type": "ConfigAudioEventOp",
                "operation": {
                  "text": "Stop_amb_sceneObj_gear_rotateWaterway_01"
                }
              }
            }
          ]
        }
      },
      "onAdded": [
        {
          "$type": "AttachModifier",
          "modifierName": "AudioController"
        }
      ]
    }
  },
  {
    "Default": {
      "$type": "ConfigAbility",
      "abilityName": "SceneObj_Area_Common_Property_Ani_PointerWheel_Audio_01",
      "modifiers": {
        "AudioController": {
          "modifierName": "",
          "elementDurability": 100.0,
          "modifierMixins": [
            {
              "$type": "AttachModifierToGlobalValueMixin",
              "globalValueKey": "gv_RotationDelta",
              "valueSteps": [
                -9999.0, -0.05000000074505806, 0.05000000074505806, 9999.0
              ],
              "modifierNameSteps": [
                "RotateAudio",
                "NoRotateAudio",
                "RotateAudio"
              ]
            }
          ]
        },
        "RotateAudio": {
          "modifierName": "",
          "elementDurability": 100.0,
          "onAdded": [
            {
              "$type": "TriggerAudio",
              "operation": {
                "$type": "ConfigAudioEventOp",
                "operation": {
                  "text": "Play_amb_sceneObj_gear_energyWheel_02_metalgear_loop"
                }
              }
            }
          ]
        },
        "NoRotateAudio": {
          "modifierName": "",
          "elementDurability": 100.0,
          "onAdded": [
            {
              "$type": "TriggerAudio",
              "operation": {
                "$type": "ConfigAudioEventOp",
                "operation": {
                  "text": "Stop_amb_sceneObj_gear_energyWheel_02_metalgear_loop"
                }
              }
            }
          ]
        }
      },
      "onAdded": [
        {
          "$type": "AttachModifier",
          "modifierName": "AudioController"
        }
      ]
    }
  },
  {
    "Default": {
      "$type": "ConfigAbility",
      "abilityName": "SceneObj_Area_Common_Property_Ani_HiddenConvexLens_01",
      "abilityMixins": [
        {
          "$type": "NKENLIHLFPF",
          "rotationDampTime": "Eff_SceneObj_EnergyWheel_01_Line",
          "onLaserHit": [
            {
              "$type": "DebugLog",
              "content": "激光：射中物件"
            },
            {
              "$type": "AttachModifier",
              "target": "Target",
              "modifierName": "HiddenShooterLaserHit"
            },
            {
              "$type": "Predicated",
              "target": "Target",
              "targetPredicates": [
                {
                  "$type": "ByTargetGlobalValue",
                  "key": "gv_LaserTarget",
                  "value": 1.0
                }
              ],
              "successActions": [
                {
                  "$type": "AddGlobalValue",
                  "value": 1.0,
                  "key": "gv_LaserType",
                  "useLimitRange": true,
                  "maxValue": 1000.0,
                  "minValue": 0.0
                }
              ]
            }
          ],
          "onLaserLeave": [
            {
              "$type": "DebugLog",
              "content": "激光：离开物件"
            },
            {
              "$type": "AttachModifier",
              "target": "Target",
              "modifierName": "HiddenShooterLaserLeave"
            },
            {
              "$type": "Predicated",
              "target": "Target",
              "targetPredicates": [
                {
                  "$type": "ByTargetGlobalValue",
                  "key": "gv_LaserTarget",
                  "value": 1.0
                }
              ],
              "successActions": [
                {
                  "$type": "AddGlobalValue",
                  "value": -1.0,
                  "key": "gv_LaserType",
                  "useLimitRange": true,
                  "maxValue": 1000.0,
                  "minValue": 0.0
                }
              ]
            }
          ]
        }
      ],
      "modifiers": {
        "LaserController": {
          "modifierName": "",
          "elementDurability": 100.0,
          "modifierMixins": [
            {
              "$type": "AttachModifierToGlobalValueMixin",
              "globalValueKey": "gv_ShootLaser",
              "valueSteps": [-0.5, 0.5, 1.5],
              "modifierNameSteps": ["NoShootLaser", "ShootLaser"]
            }
          ]
        },
        "NoShootLaser": {
          "modifierName": "",
          "elementDurability": 100.0
        },
        "ShootLaser": {
          "modifierName": "",
          "elementDurability": 100.0,
          "modifierMixins": [
            {
              "$type": "AttachModifierToGlobalValueMixin",
              "globalValueKey": "gv_LaserType",
              "valueSteps": [-0.5, 0.5, 1000.5],
              "modifierNameSteps": ["ShortLaser", "LongLaser"]
            }
          ],
          "onAdded": [
            {
              "$type": "SetGlobalValue",
              "value": 0.0,
              "key": "gv_LaserType",
              "maxValue": 0.0,
              "minValue": 0.0
            },
            {
              "$type": "AttachEffect",
              "rotationDampTime": "Eff_SceneObj_EnergyWheel_01_Line_Fake",
              "PPPDJGDDOGD": 1.0,
              "AJDILHJFNKE": -1.0
            },
            {
              "$type": "AttachEffect",
              "rotationDampTime": "Eff_SceneObj_EnergyWheel_01_Line",
              "PPPDJGDDOGD": 1.0,
              "AJDILHJFNKE": -1.0
            },
            {
              "$type": "AttachEffect",
              "rotationDampTime": "Eff_SceneObj_EnergyWheel_01_Default",
              "PPPDJGDDOGD": 1.0,
              "AJDILHJFNKE": -1.0
            }
          ],
          "onReconnect": [
            {
              "$type": "SetGlobalValue",
              "value": 0.0,
              "key": "gv_LaserType",
              "maxValue": 0.0,
              "minValue": 0.0
            }
          ]
        },
        "ShortLaser": {
          "modifierName": "",
          "elementDurability": 100.0,
          "onAdded": [
            {
              "$type": "SendEffectTrigger",
              "parameter": "Gadget",
              "attachPoint": "",
              "damageRatio": "Int",
              "rotationDampTime": "Eff_SceneObj_EnergyWheel_01_Line"
            }
          ]
        },
        "LongLaser": {
          "modifierName": "",
          "elementDurability": 100.0,
          "onAdded": [
            {
              "$type": "SendEffectTrigger",
              "parameter": "Gadget",
              "attachPoint": "",
              "damageRatio": "Int",
              "value": 201,
              "rotationDampTime": "Eff_SceneObj_EnergyWheel_01_Line"
            }
          ]
        },
        "HiddenShooterLaserHit": {
          "modifierName": "",
          "duration": 0.10000000149011612,
          "elementDurability": 100.0,
          "onAdded": [
            {
              "$type": "AddGlobalValue",
              "value": 1.0,
              "key": "gv_LaserHit",
              "useLimitRange": true,
              "maxValue": 1000.0,
              "minValue": 0.0
            }
          ]
        },
        "HiddenShooterLaserLeave": {
          "modifierName": "",
          "duration": 0.10000000149011612,
          "elementDurability": 100.0,
          "onAdded": [
            {
              "$type": "AddGlobalValue",
              "value": -1.0,
              "key": "gv_LaserHit",
              "useLimitRange": true,
              "maxValue": 1000.0,
              "minValue": 0.0
            }
          ]
        }
      },
      "onAdded": [
        {
          "$type": "AOOCGNCCAJB",
          "isAdd": true,
          "tag": "LaserShooter"
        },
        {
          "$type": "SetGlobalValue",
          "value": 0.0,
          "key": "gv_LaserType",
          "maxValue": 0.0,
          "minValue": 0.0
        },
        {
          "$type": "Predicated",
          "targetPredicates": [
            {
              "$type": "ByTargetGlobalValue",
              "key": "SGV_DefaultShootLaser",
              "value": 0.0,
              "compareType": "NoneOrEqual"
            }
          ],
          "successActions": [
            {
              "$type": "SetGlobalValue",
              "value": 0.0,
              "key": "gv_ShootLaser",
              "maxValue": 0.0,
              "minValue": 0.0
            }
          ],
          "failActions": [
            {
              "$type": "SetGlobalValue",
              "value": 1.0,
              "key": "gv_ShootLaser",
              "maxValue": 0.0,
              "minValue": 0.0
            }
          ]
        },
        {
          "$type": "AttachModifier",
          "modifierName": "LaserController"
        }
      ]
    }
  },
  {
    "Default": {
      "$type": "ConfigAbility",
      "abilityName": "SceneObj_Area_Common_Property_Ani_HiddenConcaveLens_01",
      "HKFPCGFFKMJ": ["SGV_LensTag"],
      "modifiers": {
        "LaserReceiver": {
          "modifierName": "",
          "elementDurability": 100.0,
          "modifierMixins": [
            {
              "$type": "NPPOLNNMFKM",
              "rotationDampTime": "Eff_SceneObj_EnergyWheel_01_Line",
              "attachEffect": ""
            },
            {
              "$type": "AttachModifierToGlobalValueMixin",
              "globalValueKey": "gv_LaserHit",
              "valueSteps": [-0.5, 0.5, 1000.5],
              "modifierNameSteps": ["OnNoLaserHit", "OnLaserHit"]
            }
          ],
          "onAdded": [
            {
              "$type": "SetGlobalValue",
              "shieldHP": true,
              "value": 0.0,
              "key": "gv_LaserHit",
              "maxValue": 0.0,
              "minValue": 0.0
            }
          ],
          "onReconnect": [
            {
              "$type": "SetGlobalValue",
              "shieldHP": true,
              "value": 0.0,
              "key": "gv_LaserHit",
              "maxValue": 0.0,
              "minValue": 0.0
            }
          ]
        },
        "OnNoLaserHit": {
          "modifierName": "",
          "elementDurability": 100.0,
          "onRemoved": [
            {
              "$type": "RemoveModifier",
              "otherTargets": {
                "$type": "PBLNLAENOGB",
                "tag": "LaserShooter"
              },
              "predicatesForeach": [
                {
                  "$type": "ByTargetGlobalValue",
                  "key": "SGV_LensTag",
                  "value": "SGV_LensTag"
                }
              ],
              "modifierName": "CommandShootLaser"
            }
          ]
        },
        "OnLaserHit": {
          "modifierName": "",
          "elementDurability": 100.0,
          "onAdded": [
            {
              "$type": "AttachEffect",
              "rotationDampTime": "Eff_SceneObj_EnergyWheel_01_Hit_02",
              "PPPDJGDDOGD": 1.0,
              "AJDILHJFNKE": -1.0
            },
            {
              "$type": "AttachModifier",
              "otherTargets": {
                "$type": "PBLNLAENOGB",
                "tag": "LaserShooter"
              },
              "predicatesForeach": [
                {
                  "$type": "ByTargetGlobalValue",
                  "key": "SGV_LensTag",
                  "value": "SGV_LensTag"
                }
              ],
              "modifierName": "CommandShootLaser"
            }
          ]
        },
        "CommandShootLaser": {
          "modifierName": "",
          "elementDurability": 100.0,
          "onAdded": [
            {
              "$type": "SetGlobalValue",
              "value": 1.0,
              "key": "gv_ShootLaser",
              "maxValue": 0.0,
              "minValue": 0.0
            }
          ],
          "onRemoved": [
            {
              "$type": "SetGlobalValue",
              "value": 0.0,
              "key": "gv_ShootLaser",
              "maxValue": 0.0,
              "minValue": 0.0
            }
          ]
        }
      },
      "onAdded": [
        {
          "$type": "AttachModifier",
          "modifierName": "LaserReceiver"
        },
        {
          "$type": "SetGlobalValue",
          "value": 1.0,
          "key": "gv_LaserTarget",
          "maxValue": 0.0,
          "minValue": 0.0
        }
      ]
    }
  }
]
