[
  {
    "Default": {
      "$type": "ConfigAbility",
      "abilityName": "SceneObj_Area_Common_Property_Ani_WaterWheel_Pullback_01",
      "abilityMixins": [
        {
          "$type": "AttachToGadgetStateMixin",
          "modifierName": "WheelNormalState"
        },
        {
          "$type": "AttachToGadgetStateMixin",
          "gadgetState": 101,
          "modifierName": "WheelLockState"
        },
        {
          "$type": "AttachToGadgetStateMixin",
          "gadgetState": 102,
          "modifierName": "WheelUnlockState"
        },
        {
          "$type": "AttachModifierToGlobalValueMixin",
          "globalValueKey": "gv_RotationDelta",
          "valueSteps": [
            -9999.0, -0.009999999776482582, 0.009999999776482582, 9999.0
          ],
          "modifierNameSteps": [
            "AnticlockwiseRotateEffect",
            "NoRotateEffect",
            "ClockwiseRotateEffect"
          ]
        }
      ],
      "modifiers": {
        "WheelNormalState": {
          "modifierName": "",
          "elementDurability": 100.0,
          "modifierMixins": [
            {
              "$type": "GPCGHACDPIF",
              "NLIOHMNJBAM": "Default"
            }
          ],
          "onAdded": [
            {
              "$type": "AttachEffect",
              "rotationDampTime": "Eff_SceneObj_EnergyWheel_02_Loop_Left",
              "PPPDJGDDOGD": 1.0,
              "AJDILHJFNKE": -1.0
            },
            {
              "$type": "SendEffectTrigger",
              "parameter": "GadgetState",
              "attachPoint": "",
              "damageRatio": "Int",
              "value": 201,
              "rotationDampTime": "Eff_SceneObj_EnergyWheel_02_Loop_Left"
            },
            {
              "$type": "AttachEffect",
              "rotationDampTime": "Eff_SceneObj_EnergyWheel_02_Loop_Right",
              "PPPDJGDDOGD": 1.0,
              "AJDILHJFNKE": -1.0
            },
            {
              "$type": "SendEffectTrigger",
              "parameter": "GadgetState",
              "attachPoint": "",
              "damageRatio": "Int",
              "value": 201,
              "rotationDampTime": "Eff_SceneObj_EnergyWheel_02_Loop_Right"
            }
          ]
        },
        "WheelLockState": {
          "modifierName": "",
          "elementDurability": 100.0,
          "modifierMixins": [
            {
              "$type": "GPCGHACDPIF",
              "DPAOMNELPHI": 1,
              "NLIOHMNJBAM": "Default"
            }
          ],
          "onAdded": [
            {
              "$type": "AttachEffect",
              "rotationDampTime": "Eff_Item_SpecialTreasureBox_LockIdle",
              "born": {
                "$type": "ConfigBornByAttachPoint",
                "useRotation": true,
                "attachPointName": "LockEffectNode"
              },
              "PPPDJGDDOGD": 1.0,
              "AJDILHJFNKE": -1.0
            }
          ],
          "onRemoved": [
            {
              "$type": "FireEffect",
              "rotationDampTime": "Eff_Item_SpecialTreasureBox_Unlock",
              "born": {
                "$type": "ConfigBornByAttachPoint",
                "useRotation": true,
                "attachPointName": "LockEffectNode"
              },
              "PPPDJGDDOGD": 1.0,
              "AJDILHJFNKE": -1.0
            }
          ]
        },
        "WheelUnlockState": {
          "modifierName": "",
          "elementDurability": 100.0,
          "modifierMixins": [
            {
              "$type": "GPCGHACDPIF",
              "NLIOHMNJBAM": "Default"
            }
          ]
        },
        "AnticlockwiseRotateEffect": {
          "modifierName": "",
          "elementDurability": 100.0,
          "onAdded": [
            {
              "$type": "SendEffectTrigger",
              "parameter": "GadgetState",
              "attachPoint": "",
              "damageRatio": "Int",
              "rotationDampTime": "Eff_SceneObj_EnergyWheel_02_Loop_Left"
            }
          ],
          "onRemoved": [
            {
              "$type": "SendEffectTrigger",
              "parameter": "GadgetState",
              "attachPoint": "",
              "damageRatio": "Int",
              "value": 201,
              "rotationDampTime": "Eff_SceneObj_EnergyWheel_02_Loop_Left"
            }
          ]
        },
        "NoRotateEffect": {
          "modifierName": "",
          "elementDurability": 100.0
        },
        "ClockwiseRotateEffect": {
          "modifierName": "",
          "elementDurability": 100.0,
          "onAdded": [
            {
              "$type": "SendEffectTrigger",
              "parameter": "GadgetState",
              "attachPoint": "",
              "damageRatio": "Int",
              "rotationDampTime": "Eff_SceneObj_EnergyWheel_02_Loop_Right"
            }
          ],
          "onRemoved": [
            {
              "$type": "SendEffectTrigger",
              "parameter": "GadgetState",
              "attachPoint": "",
              "damageRatio": "Int",
              "value": 201,
              "rotationDampTime": "Eff_SceneObj_EnergyWheel_02_Loop_Right"
            }
          ]
        }
      }
    }
  },
  {
    "Default": {
      "$type": "ConfigAbility",
      "abilityName": "SceneObj_Area_Common_Property_Ani_WaterWheel_Adjust_01",
      "abilityMixins": [
        {
          "$type": "AttachToGadgetStateMixin",
          "modifierName": "WheelNormalState"
        },
        {
          "$type": "AttachToGadgetStateMixin",
          "gadgetState": 101,
          "modifierName": "WheelLockState"
        },
        {
          "$type": "AttachToGadgetStateMixin",
          "gadgetState": 102,
          "modifierName": "WheelUnlockState"
        },
        {
          "$type": "AttachModifierToGlobalValueMixin",
          "globalValueKey": "gv_RotationDelta",
          "valueSteps": [
            -9999.0, -0.009999999776482582, 0.009999999776482582, 9999.0
          ],
          "modifierNameSteps": [
            "AnticlockwiseRotateEffect",
            "NoRotateEffect",
            "ClockwiseRotateEffect"
          ]
        }
      ],
      "modifiers": {
        "WheelNormalState": {
          "modifierName": "",
          "elementDurability": 100.0,
          "modifierMixins": [
            {
              "$type": "GPCGHACDPIF",
              "NLIOHMNJBAM": "Default"
            }
          ],
          "onAdded": [
            {
              "$type": "AttachEffect",
              "rotationDampTime": "Eff_SceneObj_EnergyWheel_03_Loop_Left",
              "PPPDJGDDOGD": 1.0,
              "AJDILHJFNKE": -1.0
            },
            {
              "$type": "SendEffectTrigger",
              "parameter": "GadgetState",
              "attachPoint": "",
              "damageRatio": "Int",
              "value": 201,
              "rotationDampTime": "Eff_SceneObj_EnergyWheel_03_Loop_Left"
            },
            {
              "$type": "AttachEffect",
              "rotationDampTime": "Eff_SceneObj_EnergyWheel_03_Loop_Right",
              "PPPDJGDDOGD": 1.0,
              "AJDILHJFNKE": -1.0
            },
            {
              "$type": "SendEffectTrigger",
              "parameter": "GadgetState",
              "attachPoint": "",
              "damageRatio": "Int",
              "value": 201,
              "rotationDampTime": "Eff_SceneObj_EnergyWheel_03_Loop_Right"
            }
          ]
        },
        "WheelLockState": {
          "modifierName": "",
          "elementDurability": 100.0,
          "modifierMixins": [
            {
              "$type": "GPCGHACDPIF",
              "DPAOMNELPHI": 1,
              "NLIOHMNJBAM": "Default"
            }
          ],
          "onAdded": [
            {
              "$type": "AttachEffect",
              "rotationDampTime": "Eff_Item_SpecialTreasureBox_LockIdle",
              "born": {
                "$type": "ConfigBornByAttachPoint",
                "useRotation": true,
                "attachPointName": "LockEffectNode"
              },
              "PPPDJGDDOGD": 1.0,
              "AJDILHJFNKE": -1.0
            }
          ],
          "onRemoved": [
            {
              "$type": "FireEffect",
              "rotationDampTime": "Eff_Item_SpecialTreasureBox_Unlock",
              "born": {
                "$type": "ConfigBornByAttachPoint",
                "useRotation": true,
                "attachPointName": "LockEffectNode"
              },
              "PPPDJGDDOGD": 1.0,
              "AJDILHJFNKE": -1.0
            }
          ]
        },
        "WheelUnlockState": {
          "modifierName": "",
          "elementDurability": 100.0,
          "modifierMixins": [
            {
              "$type": "GPCGHACDPIF",
              "NLIOHMNJBAM": "Default"
            }
          ]
        },
        "AnticlockwiseRotateEffect": {
          "modifierName": "",
          "elementDurability": 100.0,
          "onAdded": [
            {
              "$type": "SendEffectTrigger",
              "parameter": "GadgetState",
              "attachPoint": "",
              "damageRatio": "Int",
              "rotationDampTime": "Eff_SceneObj_EnergyWheel_03_Loop_Left"
            }
          ],
          "onRemoved": [
            {
              "$type": "SendEffectTrigger",
              "parameter": "GadgetState",
              "attachPoint": "",
              "damageRatio": "Int",
              "value": 201,
              "rotationDampTime": "Eff_SceneObj_EnergyWheel_03_Loop_Left"
            }
          ]
        },
        "NoRotateEffect": {
          "modifierName": "",
          "elementDurability": 100.0
        },
        "ClockwiseRotateEffect": {
          "modifierName": "",
          "elementDurability": 100.0,
          "onAdded": [
            {
              "$type": "SendEffectTrigger",
              "parameter": "GadgetState",
              "attachPoint": "",
              "damageRatio": "Int",
              "rotationDampTime": "Eff_SceneObj_EnergyWheel_03_Loop_Right"
            }
          ],
          "onRemoved": [
            {
              "$type": "SendEffectTrigger",
              "parameter": "GadgetState",
              "attachPoint": "",
              "damageRatio": "Int",
              "value": 201,
              "rotationDampTime": "Eff_SceneObj_EnergyWheel_03_Loop_Right"
            }
          ]
        }
      }
    }
  },
  {
    "Default": {
      "$type": "ConfigAbility",
      "abilityName": "SceneObj_Area_Common_Property_Ani_WheelAlignTarget_01",
      "onAdded": [
        {
          "$type": "AOOCGNCCAJB",
          "isAdd": true,
          "tag": "AutoAlignTarget"
        }
      ]
    }
  },
  {
    "Default": {
      "$type": "ConfigAbility",
      "abilityName": "SceneObj_Area_Common_Property_Ani_WaterWheel_ConnectNode_01",
      "abilityMixins": [
        {
          "$type": "AttachToGadgetStateMixin",
          "gadgetState": 101,
          "modifierName": "LockState"
        },
        {
          "$type": "AttachToGadgetStateMixin",
          "modifierName": "DefaultState"
        },
        {
          "$type": "AttachToGadgetStateMixin",
          "gadgetState": 102,
          "modifierName": "TakeawayState"
        },
        {
          "$type": "AttachToGadgetStateMixin",
          "gadgetState": 201,
          "modifierName": "FinishState"
        }
      ],
      "modifiers": {
        "LockState": {
          "modifierName": "",
          "elementDurability": 100.0,
          "onAdded": [
            {
              "$type": "FireEffect",
              "rotationDampTime": "Eff_SceneObj_ControlRoot_01_AS",
              "PPPDJGDDOGD": 1.0,
              "AJDILHJFNKE": -1.0
            },
            {
              "$type": "CLKGEHMNIEF",
              "transformNames": ["WheelNode"],
              "setEnable": true
            }
          ]
        },
        "DefaultState": {
          "modifierName": "",
          "elementDurability": 100.0,
          "onAdded": [
            {
              "$type": "FireEffect",
              "rotationDampTime": "Eff_SceneObj_ControlRoot_01_AS",
              "PPPDJGDDOGD": 1.0,
              "AJDILHJFNKE": -1.0
            },
            {
              "$type": "AttachEffect",
              "rotationDampTime": "Eff_SceneObj_ControlRoot_01_Loop",
              "PPPDJGDDOGD": 1.0,
              "AJDILHJFNKE": -1.0
            },
            {
              "$type": "CLKGEHMNIEF",
              "transformNames": ["WheelNode"],
              "setEnable": true
            }
          ],
          "onRemoved": [
            {
              "$type": "FireEffect",
              "rotationDampTime": "Eff_SceneObj_ControlRoot_01_Disappear",
              "PPPDJGDDOGD": 1.0,
              "AJDILHJFNKE": -1.0
            }
          ]
        },
        "TakeawayState": {
          "modifierName": "",
          "elementDurability": 100.0,
          "onAdded": [
            {
              "$type": "CLKGEHMNIEF",
              "transformNames": ["WheelNode"]
            }
          ]
        },
        "FinishState": {
          "modifierName": "",
          "elementDurability": 100.0,
          "onAdded": [
            {
              "$type": "CLKGEHMNIEF",
              "transformNames": ["WheelNode"]
            }
          ]
        }
      }
    }
  },
  {
    "Default": {
      "$type": "ConfigAbility",
      "abilityName": "DynamicAbility_Carry_WheelNode",
      "abilityMixins": [
        {
          "$type": "CurLocalAvatarMixinV2",
          "modifierName": "CarryNodeEffect"
        }
      ],
      "modifiers": {
        "CarryNodeEffect": {
          "modifierName": "",
          "elementDurability": 100.0,
          "modifierMixins": [
            {
              "$type": "AttachModifierToGlobalValueMixin",
              "globalValueTarget": "Team",
              "globalValueKey": "SGV_WheelNode_Count",
              "valueSteps": [-0.5, 0.5, 1.5, 2.5],
              "modifierNameSteps": ["Empty", "OneNode", "TwoNodes"],
              "NMCLMHFBALJ": true
            }
          ]
        },
        "Empty": {
          "modifierName": "",
          "elementDurability": 100.0
        },
        "OneNode": {
          "modifierName": "",
          "elementDurability": 100.0,
          "onAdded": [
            {
              "$type": "AttachEffect",
              "rotationDampTime": "Eff_SceneObj_ControlRoot_01_Idel_01",
              "PPPDJGDDOGD": 1.0,
              "AJDILHJFNKE": -1.0
            }
          ],
          "onRemoved": [
            {
              "$type": "SendEffectTrigger",
              "parameter": "Die",
              "attachPoint": "",
              "damageRatio": "Bool",
              "value": 1,
              "rotationDampTime": "Eff_SceneObj_ControlRoot_01_Idel_01"
            }
          ]
        },
        "TwoNodes": {
          "modifierName": "",
          "elementDurability": 100.0,
          "onAdded": [
            {
              "$type": "AttachEffect",
              "rotationDampTime": "Eff_SceneObj_ControlRoot_01_Idel_02",
              "PPPDJGDDOGD": 1.0,
              "AJDILHJFNKE": -1.0
            }
          ],
          "onRemoved": [
            {
              "$type": "SendEffectTrigger",
              "parameter": "Die",
              "attachPoint": "",
              "damageRatio": "Bool",
              "value": 1,
              "rotationDampTime": "Eff_SceneObj_ControlRoot_01_Idel_02"
            }
          ]
        }
      },
      "isDynamicAbility": true
    }
  },
  {
    "Default": {
      "$type": "ConfigAbility",
      "abilityName": "Ability_Enshrine_WheelNode",
      "abilityMixins": [
        {
          "$type": "AttachToGadgetStateMixin",
          "modifierName": "NormalState"
        },
        {
          "$type": "AttachToGadgetStateMixin",
          "gadgetState": 101,
          "modifierName": "LockState"
        },
        {
          "$type": "AttachToGadgetStateMixin",
          "gadgetState": 102,
          "modifierName": "UnlockState"
        }
      ],
      "modifiers": {
        "NormalState": {
          "modifierName": "",
          "elementDurability": 100.0,
          "modifierMixins": [
            {
              "$type": "GPCGHACDPIF",
              "NLIOHMNJBAM": "Default"
            }
          ],
          "onAdded": [
            {
              "$type": "AttachModifier",
              "modifierName": "UNIQUE_Node1"
            },
            {
              "$type": "Predicated",
              "targetPredicates": [
                {
                  "$type": "ByTargetGlobalValue",
                  "key": "SGV_MaxNodeCount",
                  "value": 2.0
                }
              ],
              "successActions": [
                {
                  "$type": "AttachModifier",
                  "modifierName": "UNIQUE_Node2"
                }
              ]
            }
          ]
        },
        "LockState": {
          "modifierName": "",
          "elementDurability": 100.0,
          "modifierMixins": [
            {
              "$type": "AttachModifierToGlobalValueMixin",
              "globalValueKey": "gv_WheelNodeCount",
              "valueSteps": [-0.5, 0.5, 1.5, 2.5],
              "modifierNameSteps": ["NoNode", "OneNode", "TwoNodes"]
            }
          ],
          "onAdded": [
            {
              "$type": "AttachEffect",
              "rotationDampTime": "Eff_Item_SpecialTreasureBox_LockIdle",
              "born": {
                "$type": "ConfigBornByAttachPoint",
                "useRotation": true,
                "attachPointName": "LockEffectNode"
              },
              "PPPDJGDDOGD": 1.0,
              "AJDILHJFNKE": -1.0
            },
            {
              "$type": "SetGlobalValue",
              "value": 1.0,
              "key": "gv_IsLocked",
              "maxValue": 0.0,
              "minValue": 0.0
            }
          ],
          "onRemoved": [
            {
              "$type": "FireEffect",
              "rotationDampTime": "Eff_Item_SpecialTreasureBox_Unlock",
              "born": {
                "$type": "ConfigBornByAttachPoint",
                "useRotation": true,
                "attachPointName": "LockEffectNode"
              },
              "PPPDJGDDOGD": 1.0,
              "AJDILHJFNKE": -1.0
            }
          ]
        },
        "UnlockState": {
          "modifierName": "",
          "elementDurability": 100.0,
          "modifierMixins": [
            {
              "$type": "AttachModifierToGlobalValueMixin",
              "globalValueKey": "gv_WheelNodeCount",
              "valueSteps": [-0.5, 0.5, 1.5, 2.5],
              "modifierNameSteps": ["NoNode", "OneNode", "TwoNodes"]
            }
          ],
          "onAdded": [
            {
              "$type": "SetGlobalValue",
              "value": 1.0,
              "key": "gv_IsLocked",
              "maxValue": 0.0,
              "minValue": 0.0
            }
          ]
        },
        "NoNode": {
          "modifierName": "",
          "elementDurability": 100.0,
          "modifierMixins": [
            {
              "$type": "GPCGHACDPIF",
              "DPAOMNELPHI": 6,
              "NLIOHMNJBAM": "Default"
            }
          ],
          "onAdded": [
            {
              "$type": "AttachEffect",
              "predicates": [
                {
                  "$type": "ByTargetGlobalValue",
                  "key": "SGV_BlockNodeEnshrine",
                  "value": 0.0,
                  "compareType": "NoneOrEqual"
                }
              ],
              "rotationDampTime": "Eff_EnergyWheel_Arrow",
              "born": {
                "$type": "ConfigBornByAttachPoint",
                "useRotation": true,
                "attachPointName": "ConnectPoint1Arrow"
              },
              "PPPDJGDDOGD": 1.0,
              "AJDILHJFNKE": -1.0
            },
            {
              "$type": "CLKGEHMNIEF",
              "transformNames": ["Node1"]
            },
            {
              "$type": "AttachEffect",
              "predicates": [
                {
                  "$type": "ByTargetGlobalValue",
                  "key": "SGV_BlockNodeEnshrine",
                  "value": 0.0,
                  "compareType": "NoneOrEqual"
                },
                {
                  "$type": "ByTargetGlobalValue",
                  "key": "SGV_MaxNodeCount",
                  "value": 2.0
                }
              ],
              "rotationDampTime": "Eff_EnergyWheel_Arrow",
              "born": {
                "$type": "ConfigBornByAttachPoint",
                "useRotation": true,
                "attachPointName": "ConnectPoint2Arrow"
              },
              "PPPDJGDDOGD": 1.0,
              "AJDILHJFNKE": -1.0
            },
            {
              "$type": "CLKGEHMNIEF",
              "predicates": [
                {
                  "$type": "ByTargetGlobalValue",
                  "key": "SGV_MaxNodeCount",
                  "value": 2.0
                }
              ],
              "transformNames": ["Node2"]
            }
          ]
        },
        "OneNode": {
          "modifierName": "",
          "elementDurability": 100.0,
          "modifierMixins": [
            {
              "$type": "GPCGHACDPIF",
              "DPAOMNELPHI": 7,
              "NLIOHMNJBAM": "Default"
            }
          ],
          "onAdded": [
            {
              "$type": "AttachModifier",
              "modifierName": "UNIQUE_Node1"
            },
            {
              "$type": "AttachEffect",
              "predicates": [
                {
                  "$type": "ByTargetGlobalValue",
                  "key": "SGV_BlockNodeEnshrine",
                  "value": 0.0,
                  "compareType": "NoneOrEqual"
                },
                {
                  "$type": "ByTargetGlobalValue",
                  "key": "SGV_MaxNodeCount",
                  "value": 2.0
                }
              ],
              "rotationDampTime": "Eff_EnergyWheel_Arrow",
              "born": {
                "$type": "ConfigBornByAttachPoint",
                "useRotation": true,
                "attachPointName": "ConnectPoint2Arrow"
              },
              "PPPDJGDDOGD": 1.0,
              "AJDILHJFNKE": -1.0
            },
            {
              "$type": "CLKGEHMNIEF",
              "predicates": [
                {
                  "$type": "ByTargetGlobalValue",
                  "key": "SGV_MaxNodeCount",
                  "value": 2.0
                }
              ],
              "transformNames": ["Node2"]
            },
            {
              "$type": "HPIDNBEGJLL",
              "predicates": [
                {
                  "$type": "ByNot",
                  "predicates": [
                    {
                      "$type": "ByTargetGlobalValue",
                      "key": "SGV_MaxNodeCount",
                      "value": 2.0
                    }
                  ]
                }
              ]
            }
          ]
        },
        "TwoNodes": {
          "modifierName": "",
          "elementDurability": 100.0,
          "modifierMixins": [
            {
              "$type": "GPCGHACDPIF",
              "DPAOMNELPHI": 4,
              "NLIOHMNJBAM": "Default"
            }
          ],
          "onAdded": [
            {
              "$type": "FireEffect",
              "rotationDampTime": "Eff_SceneObj_EnergyWheel_03_Unlock",
              "PPPDJGDDOGD": 1.0,
              "AJDILHJFNKE": -1.0
            },
            {
              "$type": "HPIDNBEGJLL"
            }
          ]
        },
        "UNIQUE_Node1": {
          "stacking": "Unique",
          "modifierName": "",
          "forceTriggerWhenChangeAuthority": true,
          "elementDurability": 100.0,
          "onAdded": [
            {
              "$type": "CLKGEHMNIEF",
              "transformNames": ["Node1"],
              "setEnable": true
            },
            {
              "$type": "FireEffect",
              "rotationDampTime": "Eff_SceneObj_ControlRoot_01_Set",
              "born": {
                "$type": "ConfigBornByAttachPoint",
                "useRotation": true,
                "attachPointName": "ConnectPoint1Effect"
              },
              "PPPDJGDDOGD": 1.0,
              "AJDILHJFNKE": -1.0
            }
          ]
        },
        "UNIQUE_Node2": {
          "stacking": "Unique",
          "modifierName": "",
          "forceTriggerWhenChangeAuthority": true,
          "elementDurability": 100.0,
          "onAdded": [
            {
              "$type": "CLKGEHMNIEF",
              "transformNames": ["Node2"],
              "setEnable": true
            },
            {
              "$type": "FireEffect",
              "rotationDampTime": "Eff_SceneObj_ControlRoot_01_Set",
              "born": {
                "$type": "ConfigBornByAttachPoint",
                "useRotation": true,
                "attachPointName": "ConnectPoint2Effect"
              },
              "PPPDJGDDOGD": 1.0,
              "AJDILHJFNKE": -1.0
            }
          ]
        }
      },
      "onAdded": [
        {
          "$type": "CopyGlobalValue",
          "srcKey": "SGV_InitNodeCount",
          "dstKey": "gv_WheelNodeCount"
        }
      ],
      "onFieldEnter": [
        {
          "$type": "Predicated",
          "target": "Target",
          "targetPredicates": [
            {
              "$type": "ByEntityTypes",
              "entityTypes": ["Avatar"]
            },
            {
              "$type": "AHEDBPEIDHJ"
            },
            {
              "$type": "HNLCJOPBDLC",
              "target": "Self",
              "gadgetState": 102
            },
            {
              "$type": "ByTargetGlobalValue",
              "target": "Self",
              "key": "SGV_BlockNodeEnshrine",
              "value": 0.0,
              "compareType": "NoneOrEqual"
            }
          ],
          "successActions": [
            {
              "$type": "Predicated",
              "target": "Target",
              "targetPredicates": [
                {
                  "$type": "ByTargetGlobalValue",
                  "target": "TargetTeam",
                  "key": "SGV_WheelNode_Count",
                  "value": 1.0
                }
              ],
              "successActions": [
                {
                  "$type": "PHNGKABFPCO",
                  "target": "Target",
                  "JFGJNFAAFAN": 10008,
                  "NLEGKAAEHAN": "WheelNode",
                  "count": 1.0,
                  "tag": 1
                },
                {
                  "$type": "AddGlobalValue",
                  "value": 1.0,
                  "key": "gv_WheelNodeCount",
                  "useLimitRange": true,
                  "maxValue": 2.0,
                  "minValue": 0.0
                }
              ]
            },
            {
              "$type": "Predicated",
              "target": "Target",
              "targetPredicates": [
                {
                  "$type": "ByTargetGlobalValue",
                  "target": "TargetTeam",
                  "key": "SGV_WheelNode_Count",
                  "value": 2.0
                }
              ],
              "successActions": [
                {
                  "$type": "PHNGKABFPCO",
                  "target": "Target",
                  "JFGJNFAAFAN": 10008,
                  "NLEGKAAEHAN": "WheelNode",
                  "count": 2.0,
                  "tag": 1
                },
                {
                  "$type": "AddGlobalValue",
                  "value": 2.0,
                  "key": "gv_WheelNodeCount",
                  "useLimitRange": true,
                  "maxValue": 2.0,
                  "minValue": 0.0
                }
              ]
            }
          ]
        }
      ]
    }
  },
  {
    "Default": {
      "$type": "ConfigAbility",
      "abilityName": "Ability_WaterWheel_WindmillWheel_01",
      "abilityMixins": [
        {
          "$type": "AttachToGadgetStateMixin",
          "modifierName": "DefaultState"
        },
        {
          "$type": "AttachToGadgetStateMixin",
          "gadgetState": 202,
          "modifierName": "LockState"
        },
        {
          "$type": "JBGNJJADLFD",
          "sgvIDKey": "SGV_WheelDriveTag",
          "broadcastGVKey": "gv_Rotation"
        },
        {
          "$type": "JBGNJJADLFD",
          "sgvIDKey": "SGV_WheelDriveTag",
          "broadcastGVKey": "gv_RotationDelta"
        },
        {
          "$type": "JBGNJJADLFD",
          "sgvIDKey": "SGV_WheelDriveTag_Other",
          "broadcastGVKey": "gv_Rotation"
        },
        {
          "$type": "JBGNJJADLFD",
          "sgvIDKey": "SGV_WheelDriveTag_Other",
          "broadcastGVKey": "gv_RotationDelta"
        },
        {
          "$type": "AttachModifierToSelfGlobalValueMixin",
          "globalValueKey": "gv_RotationDelta",
          "gvInTalk": 0.0,
          "valueSteps": [
            -0.5,
            0.05000000074505806,
            [0.9900000095367432, "SpeedThreshold", "MUL"],
            [2.0, "SpeedThreshold", "MUL"]
          ],
          "modifierNameSteps": [
            "WindmillWheel_unfinish",
            "WindmillWheel_process",
            "WindmillWheel_finished"
          ],
          "NMCLMHFBALJ": true
        }
      ],
      "abilitySpecials": {
        "FlowerWheel_activeDuration": 5.0,
        "SpeedThreshold": 1.0
      },
      "HKFPCGFFKMJ": [
        "SGV_InitRound",
        "SGV_PullbackAcc",
        "SGV_ClockwiseMaxRound",
        "SGV_AnticlockwiseMaxRound",
        "SGV_OneRoundTime",
        "SGV_PullbackTime",
        "SGV_LongPushForceAcc",
        "SGV_ShortPushForceAcc",
        "gv_FrictionAcc"
      ],
      "modifiers": {
        "WindmillWheel_unfinish": {
          "modifierName": "",
          "elementDurability": 100.0,
          "onAdded": [
            {
              "$type": "SetGlobalValue",
              "value": 0.0,
              "key": "gv_WindmillWheel_RotationEff",
              "maxValue": 0.0,
              "minValue": 0.0
            },
            {
              "$type": "HPIDNBEGJLL",
              "predicates": [
                {
                  "$type": "ByNot",
                  "predicates": [
                    {
                      "$type": "HNLCJOPBDLC",
                      "target": "Self",
                      "gadgetState": 901
                    }
                  ]
                }
              ]
            }
          ]
        },
        "WindmillWheel_process": {
          "modifierName": "",
          "elementDurability": 100.0,
          "onAdded": [
            {
              "$type": "SetGlobalValue",
              "value": 1.0,
              "key": "gv_WindmillWheel_RotationEff",
              "maxValue": 0.0,
              "minValue": 0.0
            }
          ]
        },
        "WindmillWheel_finished": {
          "modifierName": "",
          "elementDurability": 100.0,
          "onAdded": [
            {
              "$type": "SetGlobalValueToOverrideMap",
              "globalValueKey": "gv_RotationDelta",
              "overrideMapKey": "SpeedThreshold"
            },
            {
              "$type": "HPIDNBEGJLL",
              "predicates": [
                {
                  "$type": "ByNot",
                  "predicates": [
                    {
                      "$type": "HNLCJOPBDLC",
                      "target": "Self",
                      "gadgetState": 901
                    }
                  ]
                }
              ],
              "state": 202
            }
          ]
        },
        "DelayApplyController": {
          "modifierName": "",
          "duration": 0.20000000298023224,
          "elementDurability": 100.0,
          "onRemoved": [
            {
              "$type": "ApplyModifier",
              "modifierName": "UNIQUE_WaterWheel_Controller_WindmillWheel"
            }
          ]
        },
        "UNIQUE_WaterWheel_Controller_WindmillWheel": {
          "stacking": "Unique",
          "modifierName": "",
          "forceTriggerWhenChangeAuthority": true,
          "elementDurability": 100.0,
          "modifierMixins": [
            {
              "$type": "DEENNOINNKK",
              "INLNELGLPPM": "SGV_InitRound",
              "EAAHLLDJHKO": "SGV_LongPushForceAcc",
              "KCMPMEOIJCN": "SGV_ShortPushForceAcc",
              "LJBIOCPPPKP": "gv_FrictionAcc",
              "KMJJNPDMJBM": "SGV_PullbackAcc",
              "LMIDANOKHGN": "SGV_ClockwiseMaxRound",
              "HDNEONBDADF": [
                {
                  "$type": "AttachModifier",
                  "modifierName": "ClockwiseEndStuck"
                }
              ],
              "KHBLAAMGGCL": "SGV_AnticlockwiseMaxRound",
              "FNKECGFBBOM": [
                {
                  "$type": "AttachModifier",
                  "modifierName": "AntiClockwiseEndStuck"
                }
              ],
              "ELEMCOGCPEL": "Wheel",
              "AIKOMMCIEKN": "gv_IsLocked",
              "LMDNJGILKBD": "gv_ConnectType",
              "FDDNLDEBGPE": "gv_Rotation",
              "PIJLINEBAJN": "SGV_IsDeltaSync",
              "CPBCEIICABG": "gv_RotationDelta",
              "IJCJGAMPJFC": "SGV_OneRoundTime",
              "EJPJCEKBMDL": "SGV_PullbackTime"
            }
          ]
        },
        "ClockwiseEndStuck": {
          "modifierName": "",
          "elementDurability": 100.0,
          "thinkInterval": 0.5,
          "onThinkInterval": [
            {
              "$type": "SetAnimatorTrigger",
              "predicates": [
                {
                  "$type": "ByTargetGlobalValue",
                  "key": "gv_ConnectType",
                  "value": 3.0
                }
              ],
              "triggerID": "WheelClockwiseEnd"
            },
            {
              "$type": "RemoveModifier",
              "predicates": [
                {
                  "$type": "ByTargetGlobalValue",
                  "key": "gv_Rotation",
                  "value": "SGV_ClockwiseMaxRound",
                  "compareType": "LessAndEqual"
                }
              ],
              "modifierName": "ClockwiseEndStuck"
            }
          ]
        },
        "AntiClockwiseEndStuck": {
          "modifierName": "",
          "elementDurability": 100.0,
          "thinkInterval": 0.5,
          "onThinkInterval": [
            {
              "$type": "SetAnimatorTrigger",
              "predicates": [
                {
                  "$type": "ByTargetGlobalValue",
                  "key": "gv_ConnectType",
                  "value": 4.0
                }
              ],
              "triggerID": "WheelAntiClockwiseEnd"
            },
            {
              "$type": "RemoveModifier",
              "predicates": [
                {
                  "$type": "ByTargetGlobalValue",
                  "key": "gv_Rotation",
                  "value": [0.0, "SGV_AnticlockwiseMaxRound", "SUB"],
                  "compareType": "MoreThanAndEqual"
                }
              ],
              "modifierName": "AntiClockwiseEndStuck"
            }
          ]
        },
        "DefaultState": {
          "modifierName": "",
          "elementDurability": 100.0,
          "onAdded": [
            {
              "$type": "CLKGEHMNIEF",
              "transformNames": ["ConnectPoint1"],
              "setEnable": true
            }
          ]
        },
        "LockState": {
          "modifierName": "",
          "elementDurability": 100.0,
          "onAdded": [
            {
              "$type": "CLKGEHMNIEF",
              "transformNames": ["ConnectPoint1"]
            }
          ]
        }
      },
      "onAdded": [
        {
          "$type": "SetGlobalValue",
          "value": 0.0,
          "key": "gv_WindmillWheel_RotationEff",
          "maxValue": 0.0,
          "minValue": 0.0
        },
        {
          "$type": "AOOCGNCCAJB",
          "isAdd": true,
          "tag": "WaterWheel"
        },
        {
          "$type": "AttachModifier",
          "modifierName": "DelayApplyController"
        },
        {
          "$type": "SetGlobalValueToOverrideMap",
          "globalValueKey": "SGV_SpeedThreshold",
          "overrideMapKey": "SpeedThreshold"
        },
        {
          "$type": "SetGlobalValueToOverrideMap",
          "globalValueKey": "SGV_FlowerWheel_activeDuration",
          "overrideMapKey": "FlowerWheel_activeDuration"
        },
        {
          "$type": "SetGlobalValue",
          "value": ["SpeedThreshold", "FlowerWheel_activeDuration", "DIV"],
          "key": "gv_FrictionAcc",
          "maxValue": 0.0,
          "minValue": 0.0
        }
      ]
    }
  },
  {
    "Default": {
      "$type": "ConfigAbility",
      "abilityName": "Ability_WaterWheel_WindmillWheel_effectController_01",
      "abilityMixins": [
        {
          "$type": "AttachToGadgetStateMixin",
          "gadgetState": 901,
          "modifierName": "DisappearState"
        },
        {
          "$type": "AttachModifierToSelfGlobalValueMixin",
          "globalValueKey": "gv_WindmillWheel_RotationEff",
          "gvInTalk": 0.0,
          "valueSteps": [-0.5, 0.5, 1.5],
          "modifierNameSteps": ["noRotationEff", "RotationEff"],
          "NMCLMHFBALJ": true
        }
      ],
      "modifiers": {
        "RotationEff": {
          "modifierName": "",
          "elementDurability": 100.0,
          "onAdded": [
            {
              "$type": "AttachEffect",
              "rotationDampTime": "Eff_ScenObj_FDrotating_01_Spin",
              "PPPDJGDDOGD": 1.0,
              "AJDILHJFNKE": -1.0
            }
          ]
        },
        "noRotationEff": {
          "modifierName": "",
          "elementDurability": 100.0
        },
        "appearEffect": {
          "modifierName": "",
          "duration": 1.5,
          "elementDurability": 100.0,
          "modifierMixins": [
            {
              "$type": "GPCGHACDPIF",
              "DPAOMNELPHI": 1,
              "KJOOHFLCIIK": true,
              "GPDICGAGGAA": 0.0,
              "NLIOHMNJBAM": ""
            },
            {
              "$type": "GPCGHACDPIF",
              "GPDICGAGGAA": 1.2000000476837158,
              "NLIOHMNJBAM": ""
            }
          ]
        },
        "DisappearState": {
          "modifierName": "",
          "duration": 0.6000000238418579,
          "elementDurability": 100.0,
          "onAdded": [
            {
              "$type": "RemoveModifier",
              "modifierName": "EffectController"
            },
            {
              "$type": "FireEffect",
              "rotationDampTime": "Eff_ScenObj_FDrotating_01_Disappear",
              "born": {
                "$type": "ConfigBornByAttachPoint",
                "useRotation": true,
                "attachPointName": "LockEffectNode"
              },
              "PPPDJGDDOGD": 1.0,
              "AJDILHJFNKE": -1.0
            }
          ],
          "onRemoved": [
            {
              "$type": "ApplyModifier",
              "modifierName": "Disappear_2"
            }
          ]
        },
        "Disappear_2": {
          "modifierName": "",
          "duration": 1.0,
          "elementDurability": 100.0,
          "modifierMixins": [
            {
              "$type": "GPCGHACDPIF",
              "DPAOMNELPHI": 1,
              "NLIOHMNJBAM": ""
            }
          ],
          "onRemoved": [
            {
              "$type": "KillSelf"
            }
          ]
        },
        "EffectController": {
          "modifierName": "",
          "elementDurability": 100.0,
          "onAdded": [
            {
              "$type": "FireEffect",
              "rotationDampTime": "Eff_ScenObj_FDrotating_01_Appear",
              "born": {
                "$type": "ConfigBornByAttachPoint",
                "useRotation": true,
                "attachPointName": "LockEffectNode"
              },
              "PPPDJGDDOGD": 1.0,
              "AJDILHJFNKE": -1.0
            },
            {
              "$type": "AttachEffect",
              "rotationDampTime": "Eff_ScenObj_FDrotating_01_Normal",
              "PPPDJGDDOGD": 1.0,
              "AJDILHJFNKE": -1.0
            }
          ]
        }
      },
      "onAdded": [
        {
          "$type": "ApplyModifier",
          "modifierName": "appearEffect"
        },
        {
          "$type": "ApplyModifier",
          "modifierName": "EffectController"
        }
      ]
    }
  },
  {
    "Default": {
      "$type": "ConfigAbility",
      "abilityName": "Ability_WaterWheel_WindmillWheel_effectController_02",
      "abilityMixins": [
        {
          "$type": "AttachToGadgetStateMixin",
          "gadgetState": 901,
          "modifierName": "DisappearState"
        },
        {
          "$type": "AttachModifierToSelfGlobalValueMixin",
          "globalValueKey": "gv_WindmillWheel_RotationEff",
          "gvInTalk": 0.0,
          "valueSteps": [-0.5, 0.5, 1.5],
          "modifierNameSteps": ["noRotationEff", "RotationEff"],
          "NMCLMHFBALJ": true
        }
      ],
      "modifiers": {
        "RotationEff": {
          "modifierName": "",
          "elementDurability": 100.0,
          "onAdded": [
            {
              "$type": "AttachEffect",
              "rotationDampTime": "Eff_ScenObj_FDrotating_01_Spin_Water",
              "born": {
                "$type": "ConfigBornByAttachPoint",
                "useRotation": true,
                "attachPointName": "RootNode"
              },
              "PPPDJGDDOGD": 1.0,
              "AJDILHJFNKE": -1.0
            }
          ]
        },
        "noRotationEff": {
          "modifierName": "",
          "elementDurability": 100.0
        },
        "appearEffect": {
          "modifierName": "",
          "duration": 1.5,
          "elementDurability": 100.0,
          "modifierMixins": [
            {
              "$type": "GPCGHACDPIF",
              "DPAOMNELPHI": 1,
              "KJOOHFLCIIK": true,
              "GPDICGAGGAA": 0.0,
              "NLIOHMNJBAM": ""
            },
            {
              "$type": "GPCGHACDPIF",
              "GPDICGAGGAA": 1.2000000476837158,
              "NLIOHMNJBAM": ""
            }
          ]
        },
        "DisappearState": {
          "modifierName": "",
          "duration": 0.6000000238418579,
          "elementDurability": 100.0,
          "onAdded": [
            {
              "$type": "RemoveModifier",
              "modifierName": "EffectController"
            },
            {
              "$type": "FireEffect",
              "rotationDampTime": "Eff_ScenObj_FDrotating_01_Disappear_Water",
              "born": {
                "$type": "ConfigBornByAttachPoint",
                "useRotation": true,
                "attachPointName": "RootNode"
              },
              "PPPDJGDDOGD": 1.0,
              "AJDILHJFNKE": -1.0
            }
          ],
          "onRemoved": [
            {
              "$type": "ApplyModifier",
              "modifierName": "Disappear_2"
            }
          ]
        },
        "Disappear_2": {
          "modifierName": "",
          "duration": 1.0,
          "elementDurability": 100.0,
          "modifierMixins": [
            {
              "$type": "GPCGHACDPIF",
              "DPAOMNELPHI": 1,
              "NLIOHMNJBAM": ""
            }
          ],
          "onRemoved": [
            {
              "$type": "KillSelf"
            }
          ]
        },
        "EffectController": {
          "modifierName": "",
          "elementDurability": 100.0,
          "onAdded": [
            {
              "$type": "FireEffect",
              "rotationDampTime": "Eff_ScenObj_FDrotating_01_Appear_Water",
              "born": {
                "$type": "ConfigBornByAttachPoint",
                "useRotation": true,
                "attachPointName": "RootNode"
              },
              "PPPDJGDDOGD": 1.0,
              "AJDILHJFNKE": -1.0
            },
            {
              "$type": "AttachEffect",
              "rotationDampTime": "Eff_ScenObj_FDrotating_01_Normal_Water",
              "born": {
                "$type": "ConfigBornByAttachPoint",
                "useRotation": true,
                "attachPointName": "RootNode"
              },
              "PPPDJGDDOGD": 1.0,
              "AJDILHJFNKE": -1.0
            }
          ]
        }
      },
      "onAdded": [
        {
          "$type": "ApplyModifier",
          "modifierName": "appearEffect"
        },
        {
          "$type": "ApplyModifier",
          "modifierName": "EffectController"
        }
      ]
    }
  }
]
