[
  {
    "Default": {
      "$type": "ConfigAbility",
      "abilityName": "SceneObj_Homeworld_Interior_Md_Decoration_Fireplace_01_Ability",
      "abilityMixins": [
        {
          "$type": "EKAACKKMOKH",
          "editorModifierNames": ["OnHomeEditor"],
          "worldModifierNames": ["OnHomeWorld"]
        }
      ],
      "modifiers": {
        "OnHomeEditor": {
          "modifierName": "",
          "elementDurability": 100.0
        },
        "OnHomeWorld": {
          "modifierName": "",
          "elementDurability": 100.0,
          "onAdded": [
            {
              "$type": "SetGlobalValue",
              "value": 1.0,
              "key": "_Homeworld_Cooking",
              "maxValue": 0.0,
              "minValue": 0.0
            },
            {
              "$type": "AttachModifier",
              "modifierName": "Fire_State"
            }
          ]
        },
        "Fire_State": {
          "modifierName": "",
          "elementDurability": 100.0,
          "modifierMixins": [
            {
              "$type": "AttachModifierToSelfGlobalValueMixin",
              "globalValueKey": "_Homeworld_Cooking",
              "gvInTalk": 0.0,
              "valueSteps": [-0.5, 0.5, 1.5],
              "modifierNameSteps": ["Fire_Off", "Fire_On"]
            }
          ]
        },
        "Fire_Off": {
          "modifierName": "",
          "duration": 5.0,
          "elementDurability": 100.0,
          "onRemoved": [
            {
              "$type": "SetGlobalValue",
              "value": 1.0,
              "key": "_Homeworld_Cooking",
              "maxValue": 0.0,
              "minValue": 0.0
            }
          ],
          "onBeingHit": [
            {
              "$type": "SetGlobalValue",
              "predicates": [
                {
                  "$type": "ByHitElement",
                  "element": "Fire"
                }
              ],
              "value": 1.0,
              "key": "_Homeworld_Cooking",
              "maxValue": 0.0,
              "minValue": 0.0
            }
          ]
        },
        "Fire_On": {
          "modifierName": "",
          "elementType": "Fire",
          "elementDurability": 25.0,
          "onAdded": [
            {
              "$type": "AttachEffect",
              "rotationDampTime": "Eff_SceneObj_Griller_FireCook_01",
              "born": {
                "$type": "ConfigBornByAttachPoint",
                "attachPointName": "FirePoint"
              },
              "PPPDJGDDOGD": 1.0,
              "AJDILHJFNKE": -1.0
            }
          ],
          "onRemoved": [
            {
              "$type": "FireEffect",
              "rotationDampTime": "Eff_FireBasin_Smoke",
              "born": {
                "$type": "ConfigBornByAttachPoint",
                "attachPointName": "FirePoint"
              },
              "PPPDJGDDOGD": 1.0,
              "AJDILHJFNKE": -1.0
            },
            {
              "$type": "SetGlobalValue",
              "value": 0.0,
              "key": "_Homeworld_Cooking",
              "maxValue": 0.0,
              "minValue": 0.0
            }
          ]
        }
      }
    }
  },
  {
    "Default": {
      "$type": "ConfigAbility",
      "abilityName": "SceneObj_Homeworld_Exterior_Common_Decoration_Junk_06_Ability",
      "modifiers": {
        "LimboState": {
          "modifierName": "",
          "elementDurability": 100.0,
          "state": "Limbo"
        }
      },
      "onAdded": [
        {
          "$type": "AttachModifier",
          "modifierName": "LimboState"
        }
      ]
    }
  },
  {
    "Default": {
      "$type": "ConfigAbility",
      "abilityName": "SceneObj_Homeworld_Exterior_Common_Decoration_Stake_01_Ability",
      "modifiers": {
        "LimboState": {
          "modifierName": "",
          "elementDurability": 100.0,
          "state": "Limbo"
        }
      },
      "onAdded": [
        {
          "$type": "AttachModifier",
          "modifierName": "LimboState"
        }
      ]
    }
  },
  {
    "Default": {
      "$type": "ConfigAbility",
      "abilityName": "SceneObj_Homeworld_Exterior_Common_Thing_Field_01_Ability",
      "abilityMixins": [
        {
          "$type": "EKAACKKMOKH",
          "editorModifierNames": ["OnHomeEditor"],
          "worldModifierNames": ["OnHomeWorld"]
        }
      ],
      "modifiers": {
        "OnHomeEditor": {
          "modifierName": "",
          "elementDurability": 100.0,
          "onAdded": [
            {
              "$type": "CLKGEHMNIEF",
              "transformNames": ["FarmSeeding"]
            }
          ]
        },
        "OnHomeWorld": {
          "modifierName": "",
          "elementDurability": 100.0,
          "modifierMixins": [
            {
              "$type": "AttachModifierToSelfGlobalValueMixin",
              "globalValueKey": "FarmState",
              "gvInTalk": 0.0,
              "valueSteps": [-0.5, 0.5, 1.5, 2.5, 3.5],
              "modifierNameSteps": [
                "FarmState0",
                "FarmState1",
                "FarmState2",
                "FarmState3"
              ]
            }
          ]
        },
        "FarmState0": {
          "modifierName": "",
          "elementDurability": 100.0,
          "onAdded": [
            {
              "$type": "Predicated",
              "target": "CurLocalAvatar",
              "targetPredicates": [
                {
                  "$type": "KGMHMHFHGIC",
                  "isHost": true
                }
              ],
              "successActions": [
                {
                  "$type": "EnableGadgetIntee"
                },
                {
                  "$type": "AFJFMNMFNLI",
                  "predicates": [
                    {
                      "$type": "ByTargetGlobalValue",
                      "key": "_ABILITY_HomeField_Mark",
                      "value": 1.0
                    }
                  ],
                  "hintTextMapId": "UI_HOMEWORLD_FARMFIELD_BUTTONA",
                  "iconName": ""
                },
                {
                  "$type": "AFJFMNMFNLI",
                  "predicates": [
                    {
                      "$type": "ByTargetGlobalValue",
                      "key": "_ABILITY_HomeField_Mark",
                      "value": 2.0
                    }
                  ],
                  "hintTextMapId": "UI_HOMEWORLD_FARMFIELD_BUTTONB",
                  "iconName": ""
                },
                {
                  "$type": "AFJFMNMFNLI",
                  "predicates": [
                    {
                      "$type": "ByTargetGlobalValue",
                      "key": "_ABILITY_HomeField_Mark",
                      "value": 3.0
                    }
                  ],
                  "hintTextMapId": "UI_HOMEWORLD_FARMFIELD_BUTTONC",
                  "iconName": ""
                },
                {
                  "$type": "EnableGadgetIntee",
                  "enable": true
                }
              ]
            },
            {
              "$type": "CLKGEHMNIEF",
              "transformNames": ["FarmSeeding"]
            }
          ]
        },
        "FarmState1": {
          "modifierName": "",
          "elementDurability": 100.0,
          "onAdded": [
            {
              "$type": "Predicated",
              "target": "CurLocalAvatar",
              "targetPredicates": [
                {
                  "$type": "KGMHMHFHGIC",
                  "isHost": true
                }
              ],
              "successActions": [
                {
                  "$type": "EnableGadgetIntee"
                },
                {
                  "$type": "EnableGadgetIntee",
                  "enable": true
                }
              ]
            },
            {
              "$type": "CLKGEHMNIEF",
              "transformNames": ["FarmSeeding"],
              "setEnable": true
            },
            {
              "$type": "AttachEffect",
              "predicates": [
                {
                  "$type": "ByTargetGlobalValue",
                  "key": "_ABILITY_HomeField_Mark",
                  "value": 3.0
                }
              ],
              "rotationDampTime": "Eff_SceneObj_Homeworld_Field_01_WaterBubble",
              "PPPDJGDDOGD": 1.0,
              "AJDILHJFNKE": -1.0
            }
          ]
        },
        "FarmState2": {
          "modifierName": "",
          "elementDurability": 100.0,
          "onAdded": [
            {
              "$type": "Predicated",
              "target": "CurLocalAvatar",
              "targetPredicates": [
                {
                  "$type": "KGMHMHFHGIC",
                  "isHost": true
                }
              ],
              "successActions": [
                {
                  "$type": "EnableGadgetIntee"
                },
                {
                  "$type": "EnableGadgetIntee",
                  "enable": true
                }
              ]
            },
            {
              "$type": "CLKGEHMNIEF",
              "transformNames": ["FarmSeeding"],
              "setEnable": true
            },
            {
              "$type": "AttachEffect",
              "predicates": [
                {
                  "$type": "ByTargetGlobalValue",
                  "key": "_ABILITY_HomeField_Mark",
                  "value": 3.0
                }
              ],
              "rotationDampTime": "Eff_SceneObj_Homeworld_Field_01_WaterBubble",
              "PPPDJGDDOGD": 1.0,
              "AJDILHJFNKE": -1.0
            }
          ]
        },
        "FarmState3": {
          "modifierName": "",
          "elementDurability": 100.0,
          "onAdded": [
            {
              "$type": "Predicated",
              "target": "CurLocalAvatar",
              "targetPredicates": [
                {
                  "$type": "KGMHMHFHGIC",
                  "isHost": true
                }
              ],
              "successActions": [
                {
                  "$type": "EnableGadgetIntee"
                }
              ]
            },
            {
              "$type": "CLKGEHMNIEF",
              "transformNames": ["FarmSeeding"],
              "setEnable": true
            },
            {
              "$type": "AttachEffect",
              "predicates": [
                {
                  "$type": "ByTargetGlobalValue",
                  "key": "_ABILITY_HomeField_Mark",
                  "value": 3.0
                }
              ],
              "rotationDampTime": "Eff_SceneObj_Homeworld_Field_01_WaterBubble",
              "PPPDJGDDOGD": 1.0,
              "AJDILHJFNKE": -1.0
            }
          ]
        }
      }
    }
  },
  {
    "Default": {
      "$type": "ConfigAbility",
      "abilityName": "SceneObj_Homeworld_Exterior_Common_Thing_Field_01_Mark",
      "onAdded": [
        {
          "$type": "SetGlobalValue",
          "value": 1.0,
          "key": "_ABILITY_HomeField_Mark",
          "maxValue": 0.0,
          "minValue": 0.0
        }
      ]
    }
  },
  {
    "Default": {
      "$type": "ConfigAbility",
      "abilityName": "SceneObj_Homeworld_Exterior_Common_Thing_Field_02_Mark",
      "onAdded": [
        {
          "$type": "SetGlobalValue",
          "value": 2.0,
          "key": "_ABILITY_HomeField_Mark",
          "maxValue": 0.0,
          "minValue": 0.0
        }
      ]
    }
  },
  {
    "Default": {
      "$type": "ConfigAbility",
      "abilityName": "SceneObj_Homeworld_Exterior_Common_Thing_Field_03_Mark",
      "onAdded": [
        {
          "$type": "SetGlobalValue",
          "value": 3.0,
          "key": "_ABILITY_HomeField_Mark",
          "maxValue": 0.0,
          "minValue": 0.0
        }
      ]
    }
  },
  {
    "Default": {
      "$type": "ConfigAbility",
      "abilityName": "SceneObj_Homeworld_Exterior_Common_Thing_Teleporter_01_Ability",
      "onAdded": [
        {
          "$type": "AttachEffect",
          "rotationDampTime": "Eff_SceneObj_PortableTeleport_02",
          "PPPDJGDDOGD": 1.0,
          "AJDILHJFNKE": -1.0
        }
      ]
    }
  },
  {
    "Default": {
      "$type": "ConfigAbility",
      "abilityName": "SceneObj_Homeworld_Exterior_Common_Decoration_Harp_01_Ability",
      "abilityMixins": [
        {
          "$type": "LNEJGOMCBMO",
          "succActions": [
            {
              "$type": "ApplyModifier",
              "modifierName": "CloseIntee"
            }
          ]
        }
      ],
      "modifiers": {
        "CloseIntee": {
          "modifierName": "",
          "duration": 3.0,
          "elementDurability": 100.0,
          "onAdded": [
            {
              "$type": "EnableGadgetIntee"
            },
            {
              "$type": "FireEffect",
              "rotationDampTime": "Eff_SceneObj_Homeworld_Harp_01",
              "PPPDJGDDOGD": 1.0,
              "AJDILHJFNKE": -1.0
            }
          ],
          "onRemoved": [
            {
              "$type": "EnableGadgetIntee",
              "enable": true
            }
          ]
        }
      }
    }
  },
  {
    "Default": {
      "$type": "ConfigAbility",
      "abilityName": "SceneObj_Homeworld_Exterior_GuQin_01",
      "abilityMixins": [
        {
          "$type": "LNEJGOMCBMO",
          "succActions": [
            {
              "$type": "ApplyModifier",
              "modifierName": "CloseIntee"
            }
          ]
        }
      ],
      "modifiers": {
        "CloseIntee": {
          "modifierName": "",
          "duration": 8.0,
          "elementDurability": 100.0,
          "onAdded": [
            {
              "$type": "EnableGadgetIntee"
            },
            {
              "$type": "FireEffect",
              "rotationDampTime": "Eff_ScenObj_Homeworld_Exterior_Ly_Decoration_Prop_Guqin_01",
              "PPPDJGDDOGD": 1.0,
              "AJDILHJFNKE": -1.0
            },
            {
              "$type": "TriggerAudio",
              "operation": {
                "$type": "ConfigAudioEventOp",
                "operation": {
                  "text": "Play_amb_sceneObj_music_guqin"
                }
              }
            }
          ],
          "onRemoved": [
            {
              "$type": "EnableGadgetIntee",
              "enable": true
            }
          ]
        }
      }
    }
  },
  {
    "Default": {
      "$type": "ConfigAbility",
      "abilityName": "SceneObj_Homeworld_Exterior_Ly_Build_Lift_01",
      "abilityMixins": [
        {
          "$type": "HPBKCIGDEBG",
          "editorModifierNames": ["ShowMode"],
          "worldModifierNames": ["HideMode"]
        }
      ],
      "modifiers": {
        "KillMovePlat": {
          "modifierName": "",
          "elementDurability": 100.0,
          "onAdded": [
            {
              "$type": "KillSelf",
              "configIdArray": [77200117]
            }
          ]
        },
        "ShowMode": {
          "modifierName": "",
          "elementDurability": 100.0,
          "onAdded": [
            {
              "$type": "TriggerSetRenderersEnable",
              "shieldHP": true,
              "renderNames": ["Homeworld_Exterior_Ly_Build_Lift_02_Vo"],
              "setEnable": true
            },
            {
              "$type": "ApplyModifier",
              "otherTargets": {
                "$type": "SelectTargetsByChildren",
                "configID": 77200117
              },
              "modifierName": "KillMovePlat"
            }
          ]
        },
        "HideMode": {
          "modifierName": "",
          "elementDurability": 100.0,
          "onAdded": [
            {
              "$type": "TriggerSetRenderersEnable",
              "shieldHP": true,
              "renderNames": ["Homeworld_Exterior_Ly_Build_Lift_02_Vo"]
            },
            {
              "$type": "CreateGadget",
              "lifeByOwnerIsAlive": true,
              "gadgetID": 77200117,
              "byServer": true
            }
          ]
        }
      },
      "onKill": [
        {
          "$type": "ApplyModifier",
          "otherTargets": {
            "$type": "SelectTargetsByChildren",
            "configID": 77200117
          },
          "modifierName": "KillMovePlat"
        }
      ]
    }
  },
  {
    "Default": {
      "$type": "ConfigAbility",
      "abilityName": "SceneObj_Homeworld_Exterior_Ly_Build_Lift_02",
      "abilityMixins": [
        {
          "$type": "KAIFOBNOMDP"
        }
      ],
      "modifiers": {
        "InMove": {
          "stacking": "Unique",
          "modifierName": "",
          "duration": 18.0,
          "elementDurability": 100.0,
          "onAdded": [
            {
              "$type": "HEKMMHJFJCG"
            }
          ]
        }
      },
      "onFieldEnter": [
        {
          "$type": "ApplyModifier",
          "modifierName": "InMove"
        }
      ]
    }
  },
  {
    "Default": {
      "$type": "ConfigAbility",
      "abilityName": "SceneObj_Homeworld_Exterior_Common_Thing_Prop_Bonfire_01_Ability",
      "abilityMixins": [
        {
          "$type": "EKAACKKMOKH",
          "editorModifierNames": ["OnHomeEditor"],
          "worldModifierNames": ["OnHomeWorld"]
        }
      ],
      "modifiers": {
        "OnHomeEditor": {
          "modifierName": "",
          "elementDurability": 100.0
        },
        "OnHomeWorld": {
          "modifierName": "",
          "elementDurability": 100.0,
          "onAdded": [
            {
              "$type": "AttachEffect",
              "rotationDampTime": "Eff_SceneObj_Homeworld_Bonfire_01",
              "PPPDJGDDOGD": 1.0,
              "AJDILHJFNKE": -1.0
            }
          ]
        }
      }
    }
  },
  {
    "Default": {
      "$type": "ConfigAbility",
      "abilityName": "SceneObj_Homeworld_Exterior_Md_Thing_Prop_KleeOven_01_Ability",
      "abilityMixins": [
        {
          "$type": "EKAACKKMOKH",
          "editorModifierNames": ["OnHomeEditor"],
          "worldModifierNames": ["OnHomeWorld"]
        }
      ],
      "modifiers": {
        "OnHomeEditor": {
          "modifierName": "",
          "elementDurability": 100.0
        },
        "OnHomeWorld": {
          "modifierName": "",
          "elementDurability": 100.0,
          "onAdded": [
            {
              "$type": "SetGlobalValue",
              "value": 1.0,
              "key": "_Homeworld_Cooking",
              "maxValue": 0.0,
              "minValue": 0.0
            },
            {
              "$type": "AttachModifier",
              "modifierName": "Fire_State"
            }
          ]
        },
        "Fire_State": {
          "modifierName": "",
          "elementDurability": 100.0,
          "modifierMixins": [
            {
              "$type": "AttachModifierToSelfGlobalValueMixin",
              "globalValueKey": "_Homeworld_Cooking",
              "gvInTalk": 0.0,
              "valueSteps": [-0.5, 0.5, 1.5],
              "modifierNameSteps": ["Fire_Off", "Fire_On"]
            }
          ]
        },
        "Fire_Off": {
          "modifierName": "",
          "duration": 5.0,
          "elementDurability": 100.0,
          "onRemoved": [
            {
              "$type": "SetGlobalValue",
              "value": 1.0,
              "key": "_Homeworld_Cooking",
              "maxValue": 0.0,
              "minValue": 0.0
            }
          ],
          "onBeingHit": [
            {
              "$type": "SetGlobalValue",
              "predicates": [
                {
                  "$type": "ByHitElement",
                  "element": "Fire"
                }
              ],
              "value": 1.0,
              "key": "_Homeworld_Cooking",
              "maxValue": 0.0,
              "minValue": 0.0
            }
          ]
        },
        "Fire_On": {
          "modifierName": "",
          "elementType": "Fire",
          "elementDurability": 25.0,
          "onAdded": [
            {
              "$type": "AttachEffect",
              "rotationDampTime": "Eff_ScenObj_Homeworld_Exterior_Md_Thing_Prop_KleeOven_01",
              "PPPDJGDDOGD": 1.0,
              "AJDILHJFNKE": -1.0
            }
          ],
          "onRemoved": [
            {
              "$type": "FireEffect",
              "rotationDampTime": "Eff_FireBasin_Smoke",
              "born": {
                "$type": "ConfigBornByAttachPoint",
                "attachPointName": "FirePoint"
              },
              "PPPDJGDDOGD": 1.0,
              "AJDILHJFNKE": -1.0
            },
            {
              "$type": "SetGlobalValue",
              "value": 0.0,
              "key": "_Homeworld_Cooking",
              "maxValue": 0.0,
              "minValue": 0.0
            }
          ]
        }
      }
    }
  },
  {
    "Default": {
      "$type": "ConfigAbility",
      "abilityName": "SceneObj_Homeworld_Interior_Md_Lamp_Light_MonaStar_01_Ability",
      "abilityMixins": [
        {
          "$type": "EKAACKKMOKH",
          "editorModifierNames": ["OnHomeEditor"],
          "worldModifierNames": ["OnHomeWorld"]
        }
      ],
      "modifiers": {
        "OnHomeEditor": {
          "modifierName": "",
          "elementDurability": 100.0
        },
        "OnHomeWorld": {
          "modifierName": "",
          "elementDurability": 100.0,
          "onAdded": [
            {
              "$type": "AttachEffect",
              "rotationDampTime": "Eff_SceneObj_Homeworld_Interior_MonaStar_01",
              "PPPDJGDDOGD": 1.0,
              "AJDILHJFNKE": -1.0
            }
          ]
        }
      }
    }
  },
  {
    "Default": {
      "$type": "ConfigAbility",
      "abilityName": "SceneObj_Homeworld_Interior_Xm_Thing_Prop_Kettle_01_Ability",
      "abilityMixins": [
        {
          "$type": "EKAACKKMOKH",
          "editorModifierNames": ["OnHomeEditor"],
          "worldModifierNames": ["OnHomeWorld"]
        }
      ],
      "modifiers": {
        "OnHomeEditor": {
          "modifierName": "",
          "elementDurability": 100.0
        },
        "OnHomeWorld": {
          "modifierName": "",
          "elementDurability": 100.0,
          "onAdded": [
            {
              "$type": "AttachEffect",
              "rotationDampTime": "Eff_SceneObj_Xm_Thing_Kettle_01",
              "PPPDJGDDOGD": 1.0,
              "AJDILHJFNKE": -1.0
            }
          ]
        }
      }
    }
  },
  {
    "Default": {
      "$type": "ConfigAbility",
      "abilityName": "SceneObj_Homeworld_Exterior_Xm_Build_Dreams_01_Ability",
      "abilityMixins": [
        {
          "$type": "EKAACKKMOKH",
          "editorModifierNames": ["OnHomeEditor"],
          "worldModifierNames": ["OnHomeWorld"]
        }
      ],
      "modifiers": {
        "OnHomeEditor": {
          "modifierName": "",
          "elementDurability": 100.0
        },
        "OnHomeWorld": {
          "modifierName": "",
          "elementDurability": 100.0,
          "onAdded": [
            {
              "$type": "AttachEffect",
              "rotationDampTime": "Eff_SceneObj_Xm_Build_Dreams_01",
              "PPPDJGDDOGD": 1.0,
              "AJDILHJFNKE": -1.0
            }
          ]
        }
      }
    }
  },
  {
    "Default": {
      "$type": "ConfigAbility",
      "abilityName": "SceneObj_Homeworld_Exterior_Xm_Decoration_Prop_Brazier_01_Ability",
      "abilityMixins": [
        {
          "$type": "EKAACKKMOKH",
          "editorModifierNames": ["OnHomeEditor"],
          "worldModifierNames": ["OnHomeWorld"]
        }
      ],
      "modifiers": {
        "OnHomeEditor": {
          "modifierName": "",
          "elementDurability": 100.0
        },
        "OnHomeWorld": {
          "modifierName": "",
          "elementDurability": 100.0,
          "onAdded": [
            {
              "$type": "AttachEffect",
              "rotationDampTime": "Eff_SceneObj_Homeworld_FireBasin_Xm_01",
              "PPPDJGDDOGD": 1.0,
              "AJDILHJFNKE": -1.0
            }
          ]
        }
      }
    }
  },
  {
    "Default": {
      "$type": "ConfigAbility",
      "abilityName": "SceneObj_Homeworld_Exterior_Xm_Decoration_Prop_Smhuopen_01_Ability",
      "abilityMixins": [
        {
          "$type": "EKAACKKMOKH",
          "editorModifierNames": ["OnHomeEditor"],
          "worldModifierNames": ["OnHomeWorld"]
        }
      ],
      "modifiers": {
        "OnHomeEditor": {
          "modifierName": "",
          "elementDurability": 100.0
        },
        "OnHomeWorld": {
          "modifierName": "",
          "elementDurability": 100.0,
          "onAdded": [
            {
              "$type": "AttachEffect",
              "rotationDampTime": "Eff_SceneObj_Homeworld_Smhuopen_02",
              "PPPDJGDDOGD": 1.0,
              "AJDILHJFNKE": -1.0
            }
          ]
        }
      }
    }
  },
  {
    "Default": {
      "$type": "ConfigAbility",
      "abilityName": "SceneObj_Homeworld_Exterior_Xm_Decoration_Prop_Smhuopen_02_Ability",
      "abilityMixins": [
        {
          "$type": "EKAACKKMOKH",
          "editorModifierNames": ["OnHomeEditor"],
          "worldModifierNames": ["OnHomeWorld"]
        }
      ],
      "modifiers": {
        "OnHomeEditor": {
          "modifierName": "",
          "elementDurability": 100.0
        },
        "OnHomeWorld": {
          "modifierName": "",
          "elementDurability": 100.0,
          "onAdded": [
            {
              "$type": "AttachEffect",
              "rotationDampTime": "Eff_SceneObj_Homeworld_Smhuopen_01",
              "PPPDJGDDOGD": 1.0,
              "AJDILHJFNKE": -1.0
            }
          ]
        }
      }
    }
  },
  {
    "Default": {
      "$type": "ConfigAbility",
      "abilityName": "SceneObj_Homeworld_Exterior_Fd_Decoration_Prop_Huopen_01_Ability",
      "abilityMixins": [
        {
          "$type": "EKAACKKMOKH",
          "editorModifierNames": ["OnHomeEditor"],
          "worldModifierNames": ["OnHomeWorld"]
        }
      ],
      "modifiers": {
        "OnHomeEditor": {
          "modifierName": "",
          "elementDurability": 100.0
        },
        "OnHomeWorld": {
          "modifierName": "",
          "elementDurability": 100.0,
          "onAdded": [
            {
              "$type": "AttachEffect",
              "rotationDampTime": "Eff_SceneObj_Homeworld_Huopen_01_Fire",
              "PPPDJGDDOGD": 1.0,
              "AJDILHJFNKE": -1.0
            }
          ]
        }
      }
    }
  },
  {
    "Default": {
      "$type": "ConfigAbility",
      "abilityName": "SceneObj_Homeworld_Interior_Xm_Thing_Prop_CafeStove_01_Ability",
      "abilityMixins": [
        {
          "$type": "EKAACKKMOKH",
          "editorModifierNames": ["OnHomeEditor"],
          "worldModifierNames": ["OnHomeWorld"]
        }
      ],
      "modifiers": {
        "OnHomeEditor": {
          "modifierName": "",
          "elementDurability": 100.0
        },
        "OnHomeWorld": {
          "modifierName": "",
          "elementDurability": 100.0,
          "onAdded": [
            {
              "$type": "AttachEffect",
              "rotationDampTime": "Eff_SceneObj_Homeworld_Smoke_Barbecue_03",
              "PPPDJGDDOGD": 1.0,
              "AJDILHJFNKE": -1.0
            }
          ]
        }
      }
    }
  },
  {
    "Default": {
      "$type": "ConfigAbility",
      "abilityName": "SceneObj_Homeworld_Exterior_Xm_Thing_Prop_Blueball_01_Ability",
      "abilityMixins": [
        {
          "$type": "EKAACKKMOKH",
          "editorModifierNames": ["OnHomeEditor"],
          "worldModifierNames": ["OnHomeWorld"]
        }
      ],
      "modifiers": {
        "OnHomeEditor": {
          "modifierName": "",
          "elementDurability": 100.0
        },
        "OnHomeWorld": {
          "modifierName": "",
          "elementDurability": 100.0,
          "onAdded": [
            {
              "$type": "AttachEffect",
              "rotationDampTime": "Eff_SceneObj_Homeworld_Blueball_01",
              "PPPDJGDDOGD": 1.0,
              "AJDILHJFNKE": -1.0
            }
          ]
        }
      }
    }
  },
  {
    "Default": {
      "$type": "ConfigAbility",
      "abilityName": "SceneObj_Homeworld_Interior_Xm_Thing_Build_Stove_01_Ability",
      "abilityMixins": [
        {
          "$type": "EKAACKKMOKH",
          "editorModifierNames": ["OnHomeEditor"],
          "worldModifierNames": ["OnHomeWorld"]
        }
      ],
      "modifiers": {
        "OnHomeEditor": {
          "modifierName": "",
          "elementDurability": 100.0
        },
        "OnHomeWorld": {
          "modifierName": "",
          "elementDurability": 100.0,
          "onAdded": [
            {
              "$type": "AttachEffect",
              "rotationDampTime": "Eff_SceneObj_Homeworld_Stove_Fire_01",
              "PPPDJGDDOGD": 1.0,
              "AJDILHJFNKE": -1.0
            }
          ]
        }
      }
    }
  },
  {
    "Default": {
      "$type": "ConfigAbility",
      "abilityName": "SceneObj_Homeworld_Interior_Xm_Thing_Prop_BarbecueOven_01_Ability",
      "abilityMixins": [
        {
          "$type": "EKAACKKMOKH",
          "editorModifierNames": ["OnHomeEditor"],
          "worldModifierNames": ["OnHomeWorld"]
        }
      ],
      "modifiers": {
        "OnHomeEditor": {
          "modifierName": "",
          "elementDurability": 100.0
        },
        "OnHomeWorld": {
          "modifierName": "",
          "elementDurability": 100.0,
          "onAdded": [
            {
              "$type": "AttachEffect",
              "rotationDampTime": "Eff_SceneObj_Homeworld_Smoke_Xm_XKC_Dpkaorou_01_Vo",
              "PPPDJGDDOGD": 1.0,
              "AJDILHJFNKE": -1.0
            }
          ]
        }
      }
    }
  },
  {
    "Default": {
      "$type": "ConfigAbility",
      "abilityName": "SceneObj_Homeworld_Interior_Xm_Thing_Prop_BarbecueOven_02_Ability",
      "abilityMixins": [
        {
          "$type": "EKAACKKMOKH",
          "editorModifierNames": ["OnHomeEditor"],
          "worldModifierNames": ["OnHomeWorld"]
        }
      ],
      "modifiers": {
        "OnHomeEditor": {
          "modifierName": "",
          "elementDurability": 100.0
        },
        "OnHomeWorld": {
          "modifierName": "",
          "elementDurability": 100.0,
          "onAdded": [
            {
              "$type": "AttachEffect",
              "rotationDampTime": "Eff_SceneObj_Homeworld_Smoke_Xm_Indoor_Barbecue_02_Vo",
              "PPPDJGDDOGD": 1.0,
              "AJDILHJFNKE": -1.0
            }
          ]
        }
      }
    }
  },
  {
    "Default": {
      "$type": "ConfigAbility",
      "abilityName": "SceneObj_Homeworld_Exterior_Xm_Decoration_Prop_Swing_01_Ability",
      "abilityMixins": [
        {
          "$type": "EKAACKKMOKH",
          "editorModifierNames": ["OnHomeEditor"],
          "worldModifierNames": ["OnHomeWorld"]
        }
      ],
      "modifiers": {
        "OnHomeEditor": {
          "modifierName": "",
          "elementDurability": 100.0
        },
        "OnHomeWorld": {
          "modifierName": "",
          "elementDurability": 100.0,
          "onAdded": [
            {
              "$type": "AttachEffect",
              "rotationDampTime": "Eff_SceneObj_Decoration_Swing_01",
              "PPPDJGDDOGD": 1.0,
              "AJDILHJFNKE": -1.0
            }
          ]
        }
      }
    }
  },
  {
    "Default": {
      "$type": "ConfigAbility",
      "abilityName": "SceneObj_Homeworld_Interior_Cyg_Decoration_Prop_Chalu_01_Ability",
      "abilityMixins": [
        {
          "$type": "EKAACKKMOKH",
          "editorModifierNames": ["OnHomeEditor"],
          "worldModifierNames": ["OnHomeWorld"]
        }
      ],
      "modifiers": {
        "OnHomeEditor": {
          "modifierName": "",
          "elementDurability": 100.0
        },
        "OnHomeWorld": {
          "modifierName": "",
          "elementDurability": 100.0,
          "onAdded": [
            {
              "$type": "AttachEffect",
              "rotationDampTime": "Eff_SceneObj_Homeworld_Indoor_Cyg_Chalu_01",
              "PPPDJGDDOGD": 1.0,
              "AJDILHJFNKE": -1.0
            }
          ]
        }
      }
    }
  },
  {
    "Default": {
      "$type": "ConfigAbility",
      "abilityName": "SceneObj_Homeworld_Interior_Cyg_Thing_Prop_Chaochaji_01_Ability",
      "abilityMixins": [
        {
          "$type": "EKAACKKMOKH",
          "editorModifierNames": ["OnHomeEditor"],
          "worldModifierNames": ["OnHomeWorld"]
        }
      ],
      "modifiers": {
        "OnHomeEditor": {
          "modifierName": "",
          "elementDurability": 100.0
        },
        "OnHomeWorld": {
          "modifierName": "",
          "elementDurability": 100.0,
          "onAdded": [
            {
              "$type": "AttachEffect",
              "rotationDampTime": "Eff_SceneObj_Homeworld_Chaochaji_01",
              "PPPDJGDDOGD": 1.0,
              "AJDILHJFNKE": -1.0
            }
          ]
        }
      }
    }
  },
  {
    "Default": {
      "$type": "ConfigAbility",
      "abilityName": "SceneObj_Homeworld_Ani_Exterior_Md_Decoration_Prop_Ljtai_01_Ability",
      "abilityMixins": [
        {
          "$type": "EKAACKKMOKH",
          "editorModifierNames": ["OnHomeEditor"],
          "worldModifierNames": ["OnHomeWorld"]
        }
      ],
      "modifiers": {
        "OnHomeEditor": {
          "modifierName": "",
          "elementDurability": 100.0
        },
        "OnHomeWorld": {
          "modifierName": "",
          "elementDurability": 100.0,
          "onAdded": [
            {
              "$type": "AttachEffect",
              "rotationDampTime": "Eff_SceneObj_Homeworld_AlchemySimCauldron_01",
              "PPPDJGDDOGD": 1.0,
              "AJDILHJFNKE": -1.0
            }
          ]
        }
      }
    }
  },
  {
    "Default": {
      "$type": "ConfigAbility",
      "abilityName": "SceneObj_Homeworld_Ani_Exterior_Fd_Build_Perpetuum_01_Ability",
      "abilityMixins": [
        {
          "$type": "EKAACKKMOKH",
          "editorModifierNames": ["OnHomeEditor"],
          "worldModifierNames": ["OnHomeWorld"]
        }
      ],
      "modifiers": {
        "OnHomeEditor": {
          "modifierName": "",
          "elementDurability": 100.0
        },
        "OnHomeWorld": {
          "modifierName": "",
          "elementDurability": 100.0,
          "onAdded": [
            {
              "$type": "AttachEffect",
              "rotationDampTime": "Eff_SceneObj_Homeworld_Fd_FDC_Yongdongji_01",
              "PPPDJGDDOGD": 1.0,
              "AJDILHJFNKE": -1.0
            }
          ]
        }
      }
    }
  },
  {
    "Default": {
      "$type": "ConfigAbility",
      "abilityName": "SceneObj_Homeworld_Interior_Fd_Decoration_Prop_Fireplace_01_Ability",
      "abilityMixins": [
        {
          "$type": "EKAACKKMOKH",
          "editorModifierNames": ["OnHomeEditor"],
          "worldModifierNames": ["OnHomeWorld"]
        }
      ],
      "modifiers": {
        "OnHomeEditor": {
          "modifierName": "",
          "elementDurability": 100.0
        },
        "OnHomeWorld": {
          "modifierName": "",
          "elementDurability": 100.0,
          "onAdded": [
            {
              "$type": "AttachEffect",
              "rotationDampTime": "Eff_SceneObj_Homeworld_Fireplace_01",
              "PPPDJGDDOGD": 1.0,
              "AJDILHJFNKE": -1.0
            }
          ]
        }
      }
    }
  },
  {
    "Default": {
      "$type": "ConfigAbility",
      "abilityName": "SceneObj_Homeworld_Exterior_Nt_Decoration_Prop_JJCQiqiu_01_Ability",
      "abilityMixins": [
        {
          "$type": "EKAACKKMOKH",
          "editorModifierNames": ["OnHomeEditor"],
          "worldModifierNames": ["OnHomeWorld"]
        }
      ],
      "modifiers": {
        "OnHomeEditor": {
          "modifierName": "",
          "elementDurability": 100.0
        },
        "OnHomeWorld": {
          "modifierName": "",
          "elementDurability": 100.0,
          "onAdded": [
            {
              "$type": "AttachEffect",
              "rotationDampTime": "Eff_SceneObj_Homeworld_JJCQiqiu_01_Fire",
              "PPPDJGDDOGD": 1.0,
              "AJDILHJFNKE": -1.0
            }
          ]
        }
      }
    }
  },
  {
    "Default": {
      "$type": "ConfigAbility",
      "abilityName": "SceneObj_Homeworld_Exterior_Nt_Build_ZDLWutai_01_Ability",
      "abilityMixins": [
        {
          "$type": "EKAACKKMOKH",
          "editorModifierNames": ["OnHomeEditor"],
          "worldModifierNames": ["OnHomeWorld"]
        }
      ],
      "modifiers": {
        "OnHomeEditor": {
          "modifierName": "",
          "elementDurability": 100.0
        },
        "OnHomeWorld": {
          "modifierName": "",
          "elementDurability": 100.0,
          "onAdded": [
            {
              "$type": "AttachEffect",
              "rotationDampTime": "Eff_SceneObj_Homeworld_DrillheadStageFlame_01_Length",
              "PPPDJGDDOGD": 1.0,
              "AJDILHJFNKE": -1.0
            }
          ]
        }
      }
    }
  },
  {
    "Default": {
      "$type": "ConfigAbility",
      "abilityName": "SceneObj_Homeworld_Exterior_Ly_Thing_Prop_Soundflower_01_Ability",
      "abilityMixins": [
        {
          "$type": "EKAACKKMOKH",
          "editorModifierNames": ["OnHomeEditor"],
          "worldModifierNames": ["OnHomeWorld"]
        }
      ],
      "modifiers": {
        "OnHomeEditor": {
          "modifierName": "",
          "elementDurability": 100.0
        },
        "OnHomeWorld": {
          "modifierName": "",
          "elementDurability": 100.0,
          "onAdded": [
            {
              "$type": "AttachEffect",
              "rotationDampTime": "Eff_ScenObj_Homeworld_Exterior_Ly_Thing_Prop_Soundflower_01",
              "PPPDJGDDOGD": 1.0,
              "AJDILHJFNKE": -1.0
            }
          ]
        }
      }
    }
  },
  {
    "Default": {
      "$type": "ConfigAbility",
      "abilityName": "SceneObj_Homeworld_Ani_Interior_Xm_Decoration_Prop_Baozhu_01",
      "abilityMixins": [
        {
          "$type": "LNEJGOMCBMO",
          "succActions": [
            {
              "$type": "ApplyModifier",
              "modifierName": "Baozhu_Intee"
            }
          ]
        },
        {
          "$type": "EKAACKKMOKH",
          "editorModifierNames": ["OnHomeEditor"],
          "worldModifierNames": ["OnHomeWorld"]
        }
      ],
      "modifiers": {
        "Baozhu_State": {
          "modifierName": "",
          "elementDurability": 100.0,
          "modifierMixins": [
            {
              "$type": "AttachModifierToSelfGlobalValueMixin",
              "globalValueKey": "_GLOBALVALUE_BaozhuState",
              "gvInTalk": 0.0,
              "valueSteps": [-0.5, 0.5, 1.5],
              "modifierNameSteps": ["Baozhu_Off", "Baozhu_On"]
            },
            {
              "$type": "AttachModifierToSelfGlobalValueMixin",
              "globalValueKey": "_GLOBALVALUE_BaozhuEffectShow",
              "gvInTalk": 0.0,
              "valueSteps": [-0.5, 0.5, 1.5],
              "modifierNameSteps": ["Baozhu_EffectOff", "Baozhu_EffectOn"]
            }
          ]
        },
        "Baozhu_Intee": {
          "stacking": "Unique",
          "modifierName": "",
          "duration": 1.0,
          "elementDurability": 100.0,
          "onAdded": [
            {
              "$type": "EnableGadgetIntee"
            },
            {
              "$type": "Predicated",
              "targetPredicates": [
                {
                  "$type": "ByTargetGlobalValue",
                  "key": "_GLOBALVALUE_BaozhuState",
                  "value": 0.0,
                  "compareType": "NoneOrEqual"
                }
              ],
              "successActions": [
                {
                  "$type": "SetGlobalValue",
                  "value": 1.0,
                  "key": "_GLOBALVALUE_BaozhuState",
                  "maxValue": 0.0,
                  "minValue": 0.0
                }
              ],
              "failActions": [
                {
                  "$type": "SetGlobalValue",
                  "value": 0.0,
                  "key": "_GLOBALVALUE_BaozhuState",
                  "maxValue": 0.0,
                  "minValue": 0.0
                }
              ]
            }
          ],
          "onRemoved": [
            {
              "$type": "EnableGadgetIntee",
              "enable": true
            }
          ]
        },
        "Baozhu_Off": {
          "modifierName": "",
          "elementDurability": 100.0,
          "onAdded": [
            {
              "$type": "AFJFMNMFNLI",
              "hintTextMapId": "UI_HOMEWORLD_BAOZHU_TURN_ON_BUTTON",
              "iconName": ""
            },
            {
              "$type": "SetGlobalValue",
              "value": 0.0,
              "key": "_GLOBALVALUE_BaozhuEffectShow",
              "maxValue": 0.0,
              "minValue": 0.0
            }
          ]
        },
        "Baozhu_On": {
          "modifierName": "",
          "elementDurability": 100.0,
          "onAdded": [
            {
              "$type": "AFJFMNMFNLI",
              "hintTextMapId": "UI_HOMEWORLD_BAOZHU_TURN_OFF_BUTTON",
              "iconName": ""
            },
            {
              "$type": "SetGlobalValue",
              "value": 1.0,
              "key": "_GLOBALVALUE_BaozhuEffectShow",
              "maxValue": 0.0,
              "minValue": 0.0
            }
          ]
        },
        "Baozhu_EffectOff": {
          "modifierName": "",
          "elementDurability": 100.0
        },
        "Baozhu_EffectOn": {
          "modifierName": "",
          "elementDurability": 100.0,
          "onAdded": [
            {
              "$type": "AttachEffect",
              "rotationDampTime": "Eff_SceneObj_Homeworld_TrainerCompetitionBead_01",
              "born": {
                "$type": "ConfigBornByAttachPoint",
                "attachPointName": "EffectNode"
              },
              "PPPDJGDDOGD": 1.0,
              "AJDILHJFNKE": -1.0
            }
          ]
        },
        "OnHomeEditor": {
          "modifierName": "",
          "elementDurability": 100.0,
          "onAdded": [
            {
              "$type": "SetGlobalValue",
              "value": 0.0,
              "key": "_GLOBALVALUE_BaozhuEffectShow",
              "maxValue": 0.0,
              "minValue": 0.0
            }
          ]
        },
        "OnHomeWorld": {
          "modifierName": "",
          "elementDurability": 100.0,
          "onAdded": [
            {
              "$type": "SetGlobalValue",
              "predicates": [
                {
                  "$type": "ByTargetGlobalValue",
                  "target": "Self",
                  "key": "_GLOBALVALUE_BaozhuState",
                  "value": 1.0
                }
              ],
              "value": 1.0,
              "key": "_GLOBALVALUE_BaozhuEffectShow",
              "maxValue": 0.0,
              "minValue": 0.0
            }
          ]
        }
      },
      "onAdded": [
        {
          "$type": "SetGlobalValue",
          "value": 0.0,
          "key": "_GLOBALVALUE_BaozhuState",
          "maxValue": 0.0,
          "minValue": 0.0
        },
        {
          "$type": "AttachModifier",
          "modifierName": "Baozhu_State"
        }
      ]
    }
  },
  {
    "Default": {
      "$type": "ConfigAbility",
      "abilityName": "SceneObj_Homeworld_Ani_Interior_Md_Thing_Prop_FairyBook_01",
      "abilityMixins": [
        {
          "$type": "LNEJGOMCBMO",
          "succActions": [
            {
              "$type": "ApplyModifier",
              "modifierName": "FairyBook_Intee"
            }
          ]
        },
        {
          "$type": "EKAACKKMOKH",
          "editorModifierNames": ["OnHomeEditor"],
          "worldModifierNames": ["OnHomeWorld"]
        }
      ],
      "modifiers": {
        "FairyBook_State": {
          "modifierName": "",
          "elementDurability": 100.0,
          "modifierMixins": [
            {
              "$type": "AttachModifierToSelfGlobalValueMixin",
              "globalValueKey": "_GLOBALVALUE_FairyBookState",
              "gvInTalk": 0.0,
              "valueSteps": [-0.5, 0.5, 1.5],
              "modifierNameSteps": ["FairyBook_Off", "FairyBook_On"]
            },
            {
              "$type": "AttachModifierToSelfGlobalValueMixin",
              "globalValueKey": "_GLOBALVALUE_FairyBookEffectShow",
              "gvInTalk": 0.0,
              "valueSteps": [0.5, 1.5],
              "modifierNameSteps": ["FairyBook_EffectOn"]
            }
          ]
        },
        "FairyBook_Intee": {
          "stacking": "Unique",
          "modifierName": "",
          "duration": 3.0,
          "elementDurability": 100.0,
          "onAdded": [
            {
              "$type": "EnableGadgetIntee"
            },
            {
              "$type": "Predicated",
              "targetPredicates": [
                {
                  "$type": "ByTargetGlobalValue",
                  "key": "_GLOBALVALUE_FairyBookState",
                  "value": 0.0,
                  "compareType": "NoneOrEqual"
                }
              ],
              "successActions": [
                {
                  "$type": "SetGlobalValue",
                  "value": 1.0,
                  "key": "_GLOBALVALUE_FairyBookState",
                  "maxValue": 0.0,
                  "minValue": 0.0
                }
              ],
              "failActions": [
                {
                  "$type": "SetGlobalValue",
                  "value": 0.0,
                  "key": "_GLOBALVALUE_FairyBookState",
                  "maxValue": 0.0,
                  "minValue": 0.0
                }
              ]
            }
          ],
          "onRemoved": [
            {
              "$type": "EnableGadgetIntee",
              "enable": true
            }
          ]
        },
        "FairyBook_Off": {
          "modifierName": "",
          "elementDurability": 100.0,
          "onAdded": [
            {
              "$type": "AFJFMNMFNLI",
              "hintTextMapId": "UI_HOMEWORLD_FAIRYBOOK_OPEN_BUTTON",
              "iconName": ""
            },
            {
              "$type": "SetAnimatorInt",
              "intID": "GadgetState",
              "value": 0.0
            }
          ]
        },
        "FairyBook_On": {
          "modifierName": "",
          "elementDurability": 100.0,
          "onAdded": [
            {
              "$type": "AFJFMNMFNLI",
              "hintTextMapId": "UI_HOMEWORLD_FAIRYBOOK_CLOSE_BUTTON",
              "iconName": ""
            },
            {
              "$type": "SetAnimatorInt",
              "intID": "GadgetState",
              "value": 201.0
            }
          ]
        },
        "FairyBook_EffectOn": {
          "modifierName": "",
          "elementDurability": 100.0,
          "modifierMixins": [
            {
              "$type": "AttachToStateIDMixin",
              "stateIDs": ["Idle"],
              "modifierName": "CloseEffect",
              "isCheckOnAttach": true,
              "DGFCLAIDIFI": ""
            },
            {
              "$type": "AttachToNormalizedTimeMixin",
              "stateID": "Open",
              "modifierName": "OpenEffect",
              "normalizeStart": 0.30000001192092896,
              "normalizeEnd": 10.0,
              "DGFCLAIDIFI": ""
            }
          ]
        },
        "CloseEffect": {
          "modifierName": "",
          "elementDurability": 100.0,
          "onAdded": [
            {
              "$type": "AttachEffect",
              "rotationDampTime": "Eff_SceneObj_FairyBook_01_CloseIdle",
              "PPPDJGDDOGD": 1.0,
              "AJDILHJFNKE": -1.0
            },
            {
              "$type": "RemoveModifier",
              "modifierName": "OpenEffect"
            }
          ]
        },
        "OpenEffect": {
          "modifierName": "",
          "elementDurability": 100.0,
          "onAdded": [
            {
              "$type": "FireEffect",
              "rotationDampTime": "Eff_SceneObj_FairyBook_01_Appear",
              "born": {
                "$type": "ConfigBornByAttachPoint",
                "useRotation": true,
                "attachPointName": "EffectPoint"
              },
              "PPPDJGDDOGD": 1.0,
              "AJDILHJFNKE": -1.0
            },
            {
              "$type": "AttachEffect",
              "rotationDampTime": "Eff_SceneObj_FairyBook_01",
              "PPPDJGDDOGD": 1.0,
              "AJDILHJFNKE": -1.0
            }
          ]
        },
        "OnHomeEditor": {
          "modifierName": "",
          "elementDurability": 100.0,
          "onAdded": [
            {
              "$type": "SetGlobalValue",
              "value": 0.0,
              "key": "_GLOBALVALUE_FairyBookEffectShow",
              "maxValue": 0.0,
              "minValue": 0.0
            },
            {
              "$type": "SetGlobalValue",
              "value": 0.0,
              "key": "_GLOBALVALUE_FairyBookState",
              "maxValue": 0.0,
              "minValue": 0.0
            }
          ]
        },
        "OnHomeWorld": {
          "modifierName": "",
          "elementDurability": 100.0,
          "onAdded": [
            {
              "$type": "SetGlobalValue",
              "value": 1.0,
              "key": "_GLOBALVALUE_FairyBookEffectShow",
              "maxValue": 0.0,
              "minValue": 0.0
            }
          ]
        }
      },
      "onAdded": [
        {
          "$type": "SetGlobalValue",
          "value": 0.0,
          "key": "_GLOBALVALUE_FairyBookState",
          "maxValue": 0.0,
          "minValue": 0.0
        },
        {
          "$type": "AttachModifier",
          "modifierName": "FairyBook_State"
        }
      ]
    }
  },
  {
    "Default": {
      "$type": "ConfigAbility",
      "abilityName": "SceneObj_Homeworld_Exterior_Dq_Thing_Prop_Shipsoul_01_Ability",
      "abilityMixins": [
        {
          "$type": "LNEJGOMCBMO",
          "succActions": [
            {
              "$type": "ApplyModifier",
              "modifierName": "ShipsoulShow"
            },
            {
              "$type": "EnableGadgetIntee"
            }
          ]
        },
        {
          "$type": "EKAACKKMOKH",
          "editorModifierNames": ["OnHomeEditor"],
          "worldModifierNames": ["OnHomeWorld"]
        }
      ],
      "modifiers": {
        "ShipsoulShow": {
          "modifierName": "",
          "duration": 7.0,
          "elementDurability": 100.0,
          "onAdded": [
            {
              "$type": "FireEffect",
              "rotationDampTime": "Eff_SceneObj_Homeworld_Shipsoul_02",
              "PPPDJGDDOGD": 1.0,
              "AJDILHJFNKE": -1.0
            }
          ],
          "onRemoved": [
            {
              "$type": "EnableGadgetIntee",
              "enable": true
            }
          ]
        },
        "OnHomeEditor": {
          "modifierName": "",
          "elementDurability": 100.0
        },
        "OnHomeWorld": {
          "modifierName": "",
          "elementDurability": 100.0,
          "onAdded": [
            {
              "$type": "AttachEffect",
              "rotationDampTime": "Eff_SceneObj_Homeworld_Shipsoul_01",
              "PPPDJGDDOGD": 1.0,
              "AJDILHJFNKE": -1.0
            }
          ]
        }
      }
    }
  },
  {
    "Default": {
      "$type": "ConfigAbility",
      "abilityName": "SceneObj_Homeworld_Exterior_Ly_Thing_Prop_Fireworks_01",
      "abilityMixins": [
        {
          "$type": "LNEJGOMCBMO",
          "succActions": [
            {
              "$type": "ApplyModifier",
              "modifierName": "FireHanabi_Pre"
            },
            {
              "$type": "EnableGadgetIntee"
            }
          ]
        }
      ],
      "modifiers": {
        "Empty": {
          "modifierName": "",
          "elementDurability": 100.0
        },
        "Hanabi01": {
          "modifierName": "",
          "elementDurability": 100.0,
          "onAdded": [
            {
              "$type": "FireEffect",
              "rotationDampTime": "Eff_SceneObj_Homeworld_Ly_Fireworks_01_Fire",
              "born": {
                "$type": "ConfigBornByAttachPoint",
                "direction": {
                  "$type": "ConfigDirectionByDefault",
                  "angleOffsetCorrect": {
                    "x": 0.0,
                    "y": 0.0,
                    "z": -8.0
                  }
                },
                "attachPointName": "FireEffectPoint"
              },
              "PPPDJGDDOGD": 1.0,
              "AJDILHJFNKE": -1.0
            }
          ]
        },
        "Hanabi02": {
          "modifierName": "",
          "elementDurability": 100.0,
          "onAdded": [
            {
              "$type": "FireEffect",
              "rotationDampTime": "Eff_SceneObj_Homeworld_Ly_Fireworks_01_Fire",
              "born": {
                "$type": "ConfigBornByAttachPoint",
                "direction": {
                  "$type": "ConfigDirectionByDefault",
                  "angleOffsetCorrect": {
                    "x": 0.0,
                    "y": 0.0,
                    "z": -4.0
                  }
                },
                "attachPointName": "FireEffectPoint"
              },
              "PPPDJGDDOGD": 1.0,
              "AJDILHJFNKE": -1.0
            }
          ]
        },
        "Hanabi03": {
          "modifierName": "",
          "elementDurability": 100.0,
          "onAdded": [
            {
              "$type": "FireEffect",
              "rotationDampTime": "Eff_SceneObj_Homeworld_Ly_Fireworks_01_Fire",
              "born": {
                "$type": "ConfigBornByAttachPoint",
                "attachPointName": "FireEffectPoint"
              },
              "PPPDJGDDOGD": 1.0,
              "AJDILHJFNKE": -1.0
            }
          ]
        },
        "Hanabi04": {
          "modifierName": "",
          "elementDurability": 100.0,
          "onAdded": [
            {
              "$type": "FireEffect",
              "rotationDampTime": "Eff_SceneObj_Homeworld_Ly_Fireworks_01_Fire",
              "born": {
                "$type": "ConfigBornByAttachPoint",
                "direction": {
                  "$type": "ConfigDirectionByDefault",
                  "angleOffsetCorrect": {
                    "x": 0.0,
                    "y": 0.0,
                    "z": 4.0
                  }
                },
                "attachPointName": "FireEffectPoint"
              },
              "PPPDJGDDOGD": 1.0,
              "AJDILHJFNKE": -1.0
            }
          ]
        },
        "Hanabi05": {
          "modifierName": "",
          "elementDurability": 100.0,
          "onAdded": [
            {
              "$type": "FireEffect",
              "rotationDampTime": "Eff_SceneObj_Homeworld_Ly_Fireworks_01_Fire",
              "born": {
                "$type": "ConfigBornByAttachPoint",
                "direction": {
                  "$type": "ConfigDirectionByDefault",
                  "angleOffsetCorrect": {
                    "x": 0.0,
                    "y": 0.0,
                    "z": 8.0
                  }
                },
                "attachPointName": "FireEffectPoint"
              },
              "PPPDJGDDOGD": 1.0,
              "AJDILHJFNKE": -1.0
            }
          ]
        },
        "FireHanabi_Pre": {
          "modifierName": "",
          "duration": 5.0,
          "elementDurability": 100.0,
          "onAdded": [
            {
              "$type": "AttachEffect",
              "rotationDampTime": "Eff_SceneObj_Homeworld_Ly_Fireworks_01_Pre",
              "born": {
                "$type": "ConfigBornByAttachPoint",
                "attachPointName": "PreEffectPoint"
              },
              "PPPDJGDDOGD": 1.0,
              "AJDILHJFNKE": -1.0
            }
          ],
          "onRemoved": [
            {
              "$type": "ApplyModifier",
              "modifierName": "FireHanabi"
            }
          ]
        },
        "FireHanabi": {
          "modifierName": "",
          "duration": 15.0,
          "elementDurability": 100.0,
          "thinkInterval": 3.0,
          "modifierMixins": [
            {
              "$type": "AttachModifierToSelfGlobalValueMixin",
              "globalValueKey": "_Fire_Count",
              "gvInTalk": 0.0,
              "valueSteps": [0.0, 0.5, 1.5, 2.5, 3.5, 4.5, 5.5],
              "modifierNameSteps": [
                "Empty",
                "Hanabi01",
                "Hanabi02",
                "Hanabi03",
                "Hanabi04",
                "Hanabi05"
              ]
            }
          ],
          "onAdded": [
            {
              "$type": "AddGlobalValue",
              "value": 1.0,
              "key": "_Fire_Count",
              "useLimitRange": true,
              "maxValue": 5.0,
              "minValue": 0.0
            }
          ],
          "onRemoved": [
            {
              "$type": "EnableGadgetIntee",
              "enable": true
            },
            {
              "$type": "SetGlobalValue",
              "value": 0.0,
              "key": "_Fire_Count",
              "maxValue": 0.0,
              "minValue": 0.0
            }
          ],
          "onThinkInterval": [
            {
              "$type": "AddGlobalValue",
              "value": 1.0,
              "key": "_Fire_Count",
              "useLimitRange": true,
              "maxValue": 5.0,
              "minValue": 0.0
            }
          ]
        }
      },
      "onAdded": [
        {
          "$type": "SetGlobalValue",
          "value": 0.0,
          "key": "_Fire_Count",
          "maxValue": 0.0,
          "minValue": 0.0
        }
      ]
    }
  },
  {
    "Default": {
      "$type": "ConfigAbility",
      "abilityName": "SceneObj_Homeworld_Exterior_Dq_Thing_Prop_Fireworks_01",
      "abilityMixins": [
        {
          "$type": "LNEJGOMCBMO",
          "succActions": [
            {
              "$type": "ApplyModifier",
              "modifierName": "FireHanabi_Pre"
            },
            {
              "$type": "EnableGadgetIntee"
            }
          ]
        }
      ],
      "modifiers": {
        "Empty": {
          "modifierName": "",
          "elementDurability": 100.0
        },
        "Hanabi01": {
          "modifierName": "",
          "elementDurability": 100.0,
          "onAdded": [
            {
              "$type": "FireEffect",
              "rotationDampTime": "Eff_SceneObj_Homeworld_Dq_Fireworks_01_Fire",
              "born": {
                "$type": "ConfigBornByAttachPoint",
                "direction": {
                  "$type": "ConfigDirectionByDefault",
                  "angleOffsetCorrect": {
                    "x": 0.0,
                    "y": 0.0,
                    "z": -8.0
                  }
                },
                "attachPointName": "FireEffectPoint"
              },
              "PPPDJGDDOGD": 1.0,
              "AJDILHJFNKE": -1.0
            }
          ]
        },
        "Hanabi02": {
          "modifierName": "",
          "elementDurability": 100.0,
          "onAdded": [
            {
              "$type": "FireEffect",
              "rotationDampTime": "Eff_SceneObj_Homeworld_Dq_Fireworks_01_Fire",
              "born": {
                "$type": "ConfigBornByAttachPoint",
                "direction": {
                  "$type": "ConfigDirectionByDefault",
                  "angleOffsetCorrect": {
                    "x": 0.0,
                    "y": 0.0,
                    "z": -4.0
                  }
                },
                "attachPointName": "FireEffectPoint"
              },
              "PPPDJGDDOGD": 1.0,
              "AJDILHJFNKE": -1.0
            }
          ]
        },
        "Hanabi03": {
          "modifierName": "",
          "elementDurability": 100.0,
          "onAdded": [
            {
              "$type": "FireEffect",
              "rotationDampTime": "Eff_SceneObj_Homeworld_Dq_Fireworks_01_Fire",
              "born": {
                "$type": "ConfigBornByAttachPoint",
                "attachPointName": "FireEffectPoint"
              },
              "PPPDJGDDOGD": 1.0,
              "AJDILHJFNKE": -1.0
            }
          ]
        },
        "Hanabi04": {
          "modifierName": "",
          "elementDurability": 100.0,
          "onAdded": [
            {
              "$type": "FireEffect",
              "rotationDampTime": "Eff_SceneObj_Homeworld_Dq_Fireworks_01_Fire",
              "born": {
                "$type": "ConfigBornByAttachPoint",
                "direction": {
                  "$type": "ConfigDirectionByDefault",
                  "angleOffsetCorrect": {
                    "x": 0.0,
                    "y": 0.0,
                    "z": 4.0
                  }
                },
                "attachPointName": "FireEffectPoint"
              },
              "PPPDJGDDOGD": 1.0,
              "AJDILHJFNKE": -1.0
            }
          ]
        },
        "Hanabi05": {
          "modifierName": "",
          "elementDurability": 100.0,
          "onAdded": [
            {
              "$type": "FireEffect",
              "rotationDampTime": "Eff_SceneObj_Homeworld_Dq_Fireworks_01_Fire",
              "born": {
                "$type": "ConfigBornByAttachPoint",
                "direction": {
                  "$type": "ConfigDirectionByDefault",
                  "angleOffsetCorrect": {
                    "x": 0.0,
                    "y": 0.0,
                    "z": 8.0
                  }
                },
                "attachPointName": "FireEffectPoint"
              },
              "PPPDJGDDOGD": 1.0,
              "AJDILHJFNKE": -1.0
            }
          ]
        },
        "FireHanabi_Pre": {
          "modifierName": "",
          "duration": 5.0,
          "elementDurability": 100.0,
          "onAdded": [
            {
              "$type": "AttachEffect",
              "rotationDampTime": "Eff_SceneObj_Homeworld_Dq_Fireworks_01_Pre",
              "born": {
                "$type": "ConfigBornByAttachPoint",
                "attachPointName": "PreEffectPoint"
              },
              "PPPDJGDDOGD": 1.0,
              "AJDILHJFNKE": -1.0
            }
          ],
          "onRemoved": [
            {
              "$type": "ApplyModifier",
              "modifierName": "FireHanabi"
            }
          ]
        },
        "FireHanabi": {
          "modifierName": "",
          "duration": 15.0,
          "elementDurability": 100.0,
          "thinkInterval": 3.0,
          "modifierMixins": [
            {
              "$type": "AttachModifierToSelfGlobalValueMixin",
              "globalValueKey": "_Fire_Count",
              "gvInTalk": 0.0,
              "valueSteps": [0.0, 0.5, 1.5, 2.5, 3.5, 4.5, 5.5],
              "modifierNameSteps": [
                "Empty",
                "Hanabi01",
                "Hanabi02",
                "Hanabi03",
                "Hanabi04",
                "Hanabi05"
              ]
            }
          ],
          "onAdded": [
            {
              "$type": "AddGlobalValue",
              "value": 1.0,
              "key": "_Fire_Count",
              "useLimitRange": true,
              "maxValue": 5.0,
              "minValue": 0.0
            }
          ],
          "onRemoved": [
            {
              "$type": "EnableGadgetIntee",
              "enable": true
            },
            {
              "$type": "SetGlobalValue",
              "value": 0.0,
              "key": "_Fire_Count",
              "maxValue": 0.0,
              "minValue": 0.0
            }
          ],
          "onThinkInterval": [
            {
              "$type": "AddGlobalValue",
              "value": 1.0,
              "key": "_Fire_Count",
              "useLimitRange": true,
              "maxValue": 5.0,
              "minValue": 0.0
            }
          ]
        }
      },
      "onAdded": [
        {
          "$type": "SetGlobalValue",
          "value": 0.0,
          "key": "_Fire_Count",
          "maxValue": 0.0,
          "minValue": 0.0
        }
      ]
    }
  },
  {
    "Default": {
      "$type": "ConfigAbility",
      "abilityName": "SceneObj_Homeworld_Exterior_Xm_Build_Tiejiangpu_01",
      "abilityMixins": [
        {
          "$type": "EKAACKKMOKH",
          "editorModifierNames": ["OnHomeEditor"],
          "worldModifierNames": ["OnHomeWorld"]
        }
      ],
      "modifiers": {
        "OnHomeEditor": {
          "modifierName": "",
          "elementDurability": 100.0
        },
        "OnHomeWorld": {
          "modifierName": "",
          "elementDurability": 100.0,
          "onAdded": [
            {
              "$type": "AttachEffect",
              "rotationDampTime": "Eff_SceneObj_Homeworld_Fire_Basin_Vo",
              "PPPDJGDDOGD": 1.0,
              "AJDILHJFNKE": -1.0
            }
          ]
        }
      }
    }
  },
  {
    "Default": {
      "$type": "ConfigAbility",
      "abilityName": "SceneObj_Homeworld_Exterior_Xm_Thing_Prop_Claypot_01",
      "abilityMixins": [
        {
          "$type": "EKAACKKMOKH",
          "editorModifierNames": ["OnHomeEditor"],
          "worldModifierNames": ["OnHomeWorld"]
        }
      ],
      "modifiers": {
        "OnHomeEditor": {
          "modifierName": "",
          "elementDurability": 100.0
        },
        "OnHomeWorld": {
          "modifierName": "",
          "elementDurability": 100.0,
          "onAdded": [
            {
              "$type": "SetGlobalValue",
              "value": 1.0,
              "key": "_Homeworld_Cooking",
              "maxValue": 0.0,
              "minValue": 0.0
            },
            {
              "$type": "AttachModifier",
              "modifierName": "Fire_State"
            }
          ]
        },
        "Fire_State": {
          "modifierName": "",
          "elementDurability": 100.0,
          "modifierMixins": [
            {
              "$type": "AttachModifierToSelfGlobalValueMixin",
              "globalValueKey": "_Homeworld_Cooking",
              "gvInTalk": 0.0,
              "valueSteps": [-0.5, 0.5, 1.5],
              "modifierNameSteps": ["Fire_Off", "Fire_On"]
            }
          ]
        },
        "Fire_Off": {
          "modifierName": "",
          "duration": 5.0,
          "elementDurability": 100.0,
          "onRemoved": [
            {
              "$type": "SetGlobalValue",
              "value": 1.0,
              "key": "_Homeworld_Cooking",
              "maxValue": 0.0,
              "minValue": 0.0
            }
          ],
          "onBeingHit": [
            {
              "$type": "SetGlobalValue",
              "predicates": [
                {
                  "$type": "ByHitElement",
                  "element": "Fire"
                }
              ],
              "value": 1.0,
              "key": "_Homeworld_Cooking",
              "maxValue": 0.0,
              "minValue": 0.0
            }
          ]
        },
        "Fire_On": {
          "modifierName": "",
          "elementType": "Fire",
          "elementDurability": 25.0,
          "onAdded": [
            {
              "$type": "AttachEffect",
              "rotationDampTime": "Eff_Xm_Thing_Prop_Claypot_01_Cook",
              "born": {
                "$type": "ConfigBornByAttachPoint",
                "attachPointName": "FirePoint"
              },
              "PPPDJGDDOGD": 1.0,
              "AJDILHJFNKE": -1.0
            }
          ],
          "onRemoved": [
            {
              "$type": "FireEffect",
              "rotationDampTime": "Eff_FireBasin_Smoke",
              "born": {
                "$type": "ConfigBornByAttachPoint",
                "attachPointName": "FirePoint"
              },
              "PPPDJGDDOGD": 1.0,
              "AJDILHJFNKE": -1.0
            },
            {
              "$type": "SetGlobalValue",
              "value": 0.0,
              "key": "_Homeworld_Cooking",
              "maxValue": 0.0,
              "minValue": 0.0
            }
          ]
        }
      }
    }
  },
  {
    "Default": {
      "$type": "ConfigAbility",
      "abilityName": "SceneObj_Homeworld_Interior_Xm_Thing_Prop_SumeruStove_01",
      "abilityMixins": [
        {
          "$type": "EKAACKKMOKH",
          "editorModifierNames": ["OnHomeEditor"],
          "worldModifierNames": ["OnHomeWorld"]
        }
      ],
      "modifiers": {
        "OnHomeEditor": {
          "modifierName": "",
          "elementDurability": 100.0
        },
        "OnHomeWorld": {
          "modifierName": "",
          "elementDurability": 100.0,
          "onAdded": [
            {
              "$type": "SetGlobalValue",
              "value": 1.0,
              "key": "_Homeworld_Cooking",
              "maxValue": 0.0,
              "minValue": 0.0
            },
            {
              "$type": "AttachModifier",
              "modifierName": "Fire_State"
            }
          ]
        },
        "Fire_State": {
          "modifierName": "",
          "elementDurability": 100.0,
          "modifierMixins": [
            {
              "$type": "AttachModifierToSelfGlobalValueMixin",
              "globalValueKey": "_Homeworld_Cooking",
              "gvInTalk": 0.0,
              "valueSteps": [-0.5, 0.5, 1.5],
              "modifierNameSteps": ["Fire_Off", "Fire_On"]
            }
          ]
        },
        "Fire_Off": {
          "modifierName": "",
          "duration": 5.0,
          "elementDurability": 100.0,
          "onRemoved": [
            {
              "$type": "SetGlobalValue",
              "value": 1.0,
              "key": "_Homeworld_Cooking",
              "maxValue": 0.0,
              "minValue": 0.0
            }
          ],
          "onBeingHit": [
            {
              "$type": "SetGlobalValue",
              "predicates": [
                {
                  "$type": "ByHitElement",
                  "element": "Fire"
                }
              ],
              "value": 1.0,
              "key": "_Homeworld_Cooking",
              "maxValue": 0.0,
              "minValue": 0.0
            }
          ]
        },
        "Fire_On": {
          "modifierName": "",
          "elementType": "Fire",
          "elementDurability": 25.0,
          "onAdded": [
            {
              "$type": "AttachEffect",
              "rotationDampTime": "Eff_SceneObj_Homeworld_SumeruStove_01_FireCook",
              "born": {
                "$type": "ConfigBornByAttachPoint",
                "attachPointName": "FirePoint"
              },
              "PPPDJGDDOGD": 1.0,
              "AJDILHJFNKE": -1.0
            }
          ],
          "onRemoved": [
            {
              "$type": "FireEffect",
              "rotationDampTime": "Eff_FireBasin_Smoke",
              "born": {
                "$type": "ConfigBornByAttachPoint",
                "attachPointName": "FirePoint"
              },
              "PPPDJGDDOGD": 1.0,
              "AJDILHJFNKE": -1.0
            },
            {
              "$type": "SetGlobalValue",
              "value": 0.0,
              "key": "_Homeworld_Cooking",
              "maxValue": 0.0,
              "minValue": 0.0
            }
          ]
        }
      }
    }
  },
  {
    "Default": {
      "$type": "ConfigAbility",
      "abilityName": "SceneObj_Homeworld_Exterior_Common_Prop_Thing_XmGrownBridge_01",
      "modifiers": {
        "XmGrownBridge_StateHandle": {
          "modifierName": "",
          "elementDurability": 100.0,
          "modifierMixins": [
            {
              "$type": "AttachModifierToSelfGlobalValueMixin",
              "globalValueKey": "XmGrownBridge_State",
              "gvInTalk": 0.0,
              "valueSteps": [-0.5, 0.5, 1.5],
              "modifierNameSteps": ["XmGrownBridge_Off", "XmGrownBridge_On"]
            }
          ],
          "onAdded": [
            {
              "$type": "AttachEffect",
              "rotationDampTime": "Eff_SceneObj_Homeworld_Xm_CaneVine_01",
              "PPPDJGDDOGD": 1.0,
              "AJDILHJFNKE": -1.0
            }
          ]
        },
        "XmGrownBridge_On": {
          "modifierName": "",
          "elementDurability": 100.0,
          "onAdded": [
            {
              "$type": "SendEffectTrigger",
              "shieldHP": true,
              "parameter": "GadgetState",
              "attachPoint": "",
              "damageRatio": "Int",
              "value": 201,
              "rotationDampTime": "Eff_SceneObj_Homeworld_Xm_CaneVine_01"
            }
          ]
        },
        "XmGrownBridge_Off": {
          "modifierName": "",
          "elementDurability": 100.0,
          "onAdded": [
            {
              "$type": "SendEffectTrigger",
              "shieldHP": true,
              "parameter": "GadgetState",
              "attachPoint": "",
              "damageRatio": "Int",
              "rotationDampTime": "Eff_SceneObj_Homeworld_Xm_CaneVine_01"
            }
          ]
        }
      },
      "onAdded": [
        {
          "$type": "SetGlobalValue",
          "value": 0.0,
          "key": "XmGrownBridge_State",
          "maxValue": 0.0,
          "minValue": 0.0
        },
        {
          "$type": "AttachModifier",
          "modifierName": "XmGrownBridge_StateHandle"
        }
      ],
      "onFieldEnter": [
        {
          "$type": "SetGlobalValue",
          "value": 1.0,
          "key": "XmGrownBridge_State",
          "maxValue": 0.0,
          "minValue": 0.0
        }
      ],
      "onFieldExit": [
        {
          "$type": "SetGlobalValue",
          "value": 0.0,
          "key": "XmGrownBridge_State",
          "maxValue": 0.0,
          "minValue": 0.0
        }
      ]
    }
  },
  {
    "Default": {
      "$type": "ConfigAbility",
      "abilityName": "SceneObj_Homeland_AYuanDu_Jump_Mat",
      "modifiers": {
        "DefaultState": {
          "modifierName": "",
          "elementDurability": 100.0,
          "modifierMixins": [
            {
              "$type": "HNBPIFIDPIP",
              "abilityName": "Avatar_Trampoline_Jump_Controller",
              "selfAbilityName": ""
            }
          ]
        }
      },
      "onAdded": [
        {
          "$type": "AttachModifier",
          "modifierName": "DefaultState"
        }
      ]
    }
  },
  {
    "Default": {
      "$type": "ConfigAbility",
      "abilityName": "SceneObj_Homeland_OwlGuard_01",
      "abilityMixins": [
        {
          "$type": "AttachToGadgetStateMixin",
          "gadgetState": 201,
          "modifierName": "LightEffect"
        },
        {
          "$type": "LNEJGOMCBMO",
          "succActions": [
            {
              "$type": "ApplyModifier",
              "modifierName": "LightEffect"
            }
          ]
        }
      ],
      "modifiers": {
        "LightEffect": {
          "modifierName": "",
          "duration": 5.0,
          "elementDurability": 100.0,
          "onAdded": [
            {
              "$type": "AttachEffect",
              "rotationDampTime": "Eff_SceneObj_Homeworld_FilmOwl_03",
              "PPPDJGDDOGD": 1.0,
              "AJDILHJFNKE": -1.0
            },
            {
              "$type": "EnableGadgetIntee"
            },
            {
              "$type": "SetAnimatorInt",
              "intID": "GadgetState",
              "value": 201.0
            }
          ],
          "onRemoved": [
            {
              "$type": "EnableGadgetIntee",
              "enable": true
            },
            {
              "$type": "SetAnimatorInt",
              "intID": "GadgetState",
              "value": 0.0
            }
          ]
        }
      }
    }
  },
  {
    "Default": {
      "$type": "ConfigAbility",
      "abilityName": "SceneObj_Homeland_BombPlay_Bomb",
      "modifiers": {
        "BombBoxLoop": {
          "modifierName": "",
          "elementType": "Wood",
          "elementDurability": 1.0,
          "onRemoved": [
            {
              "$type": "FireEffect",
              "rotationDampTime": "Eff_SceneObj_Homeworld_BombBarrel_01_Explode",
              "PPPDJGDDOGD": 1.0,
              "AJDILHJFNKE": -1.0
            },
            {
              "$type": "IIDNEOBNEJI"
            },
            {
              "$type": "TriggerAttackEvent",
              "attackEvent": {
                "attackPattern": {
                  "$type": "ConfigAttackSphere",
                  "triggerType": "TriggerNoRepeat",
                  "ignoreMassive": true,
                  "born": {
                    "$type": "ConfigBornByTarget",
                    "offset": {
                      "x": 0.0,
                      "y": 0.5,
                      "z": 0.0
                    }
                  },
                  "radius": 6.0
                },
                "attackInfo": {
                  "attackTag": "",
                  "attenuationTag": "",
                  "attenuationGroup": "default",
                  "attackProperty": {
                    "actorGrassSubHurtDelta": 0.0,
                    "actorWindSubHurtDelta": 0.0,
                    "elementDurability": 50.0,
                    "strikeType": "Blunt",
                    "enBreak": 9999999.0,
                    "GLKMCMDJBIK": 0.0
                  },
                  "hitPattern": {
                    "onHitEffectName": "default",
                    "hitImpulseY": "",
                    "hitImpulseType": "LV6",
                    "hitHaltTimeScale": 0.05000000074505806
                  },
                  "forceCameraShake": true,
                  "cameraShake": {
                    "shakeRange": 0.36000001430511475,
                    "shakeTime": 0.36000001430511475
                  }
                }
              },
              "targetType": "All"
            },
            {
              "$type": "KillSelf",
              "duration": 0.10000000149011612,
              "hideEntity": true
            }
          ],
          "onBeingHit": [
            {
              "$type": "Predicated",
              "target": "Target",
              "targetPredicates": [
                {
                  "$type": "ByTargetGlobalValue",
                  "target": "TargetOriginOwner",
                  "key": "GV_Avatar_HM_In_Shoot_Bomb",
                  "value": 1.0
                }
              ],
              "successActions": [
                {
                  "$type": "AHPEKICBIIL",
                  "target": "TargetOriginOwner",
                  "luaCallType": "FromGroup",
                  "funcName": "SLC_OnBombKill",
                  "param1": 0.0,
                  "MGAMDEHMCOL": 0.0,
                  "MMHOHAOGPLP": 0.0
                },
                {
                  "$type": "DebugLog",
                  "content": "hm_bomb_hit_by_targetOwner"
                },
                {
                  "$type": "RemoveModifier",
                  "predicates": [
                    {
                      "$type": "ByNot",
                      "predicates": [
                        {
                          "$type": "ByHitDamage",
                          "logic": "Equal",
                          "damage": 0.0
                        }
                      ]
                    }
                  ],
                  "modifierName": "BombBoxLoop"
                }
              ]
            },
            {
              "$type": "Predicated",
              "target": "Target",
              "targetPredicates": [
                {
                  "$type": "ByTargetGlobalValue",
                  "key": "GV_Avatar_HM_In_Shoot_Bomb",
                  "value": 1.0
                }
              ],
              "successActions": [
                {
                  "$type": "AHPEKICBIIL",
                  "target": "Target",
                  "luaCallType": "FromGroup",
                  "funcName": "SLC_OnBombKill",
                  "param1": 0.0,
                  "MGAMDEHMCOL": 0.0,
                  "MMHOHAOGPLP": 0.0
                },
                {
                  "$type": "RemoveModifier",
                  "predicates": [
                    {
                      "$type": "ByNot",
                      "predicates": [
                        {
                          "$type": "ByHitDamage",
                          "logic": "Equal",
                          "damage": 0.0
                        }
                      ]
                    }
                  ],
                  "modifierName": "BombBoxLoop"
                }
              ]
            }
          ],
          "onCrash": [
            {
              "$type": "RemoveModifier",
              "modifierName": "BombBoxLoop"
            }
          ]
        }
      },
      "onAdded": [
        {
          "$type": "ApplyModifier",
          "modifierName": "BombBoxLoop"
        }
      ]
    }
  },
  {
    "Default": {
      "$type": "ConfigAbility",
      "abilityName": "SceneObj_Homeworld_BombPlay_Board",
      "abilityMixins": [
        {
          "$type": "LNEJGOMCBMO",
          "succActions": [
            {
              "$type": "ApplyModifier",
              "modifierName": "State_Intee_CD"
            }
          ]
        }
      ],
      "modifiers": {
        "State_Intee_CD": {
          "modifierName": "",
          "duration": 4.0,
          "elementDurability": 100.0,
          "onAdded": [
            {
              "$type": "EnableGadgetIntee"
            }
          ],
          "onRemoved": [
            {
              "$type": "EnableGadgetIntee",
              "enable": true
            }
          ]
        }
      }
    }
  },
  {
    "Default": {
      "$type": "ConfigAbility",
      "abilityName": "SceneObj_Homeworld_Interior_Common_Thing_Prop_Fishbowl_01",
      "abilityMixins": [
        {
          "$type": "LNEJGOMCBMO",
          "succActions": [
            {
              "$type": "ApplyModifier",
              "modifierName": "Knock"
            }
          ]
        }
      ],
      "modifiers": {
        "Knock": {
          "modifierName": "",
          "duration": 2.0,
          "elementDurability": 100.0,
          "onAdded": [
            {
              "$type": "IIDNEOBNEJI",
              "volume": 100.0
            },
            {
              "$type": "EnableGadgetIntee"
            },
            {
              "$type": "TriggerAudio",
              "operation": {
                "$type": "ConfigAudioEventOp",
                "operation": {
                  "text": "Play_amb_sceneObj_sfx_fishbowl_01"
                }
              }
            }
          ],
          "onRemoved": [
            {
              "$type": "EnableGadgetIntee",
              "enable": true
            }
          ]
        }
      },
      "onAdded": [
        {
          "$type": "AttachEffect",
          "rotationDampTime": "Eff_SceneObj_Fishbowl_01",
          "PPPDJGDDOGD": 1.0,
          "AJDILHJFNKE": -1.0
        }
      ]
    }
  },
  {
    "Default": {
      "$type": "ConfigAbility",
      "abilityName": "SceneObj_Homeworld_Exterior_Common_Thing_Prop_AyuanBlow_01_Ability",
      "abilityMixins": [
        {
          "$type": "EKAACKKMOKH",
          "editorModifierNames": ["OnHomeEditor"],
          "worldModifierNames": ["OnHomeWorld"]
        }
      ],
      "modifiers": {
        "OnHomeEditor": {
          "modifierName": "",
          "elementDurability": 100.0
        },
        "OnHomeWorld": {
          "modifierName": "",
          "elementDurability": 100.0,
          "onAdded": [
            {
              "$type": "AttachEffect",
              "rotationDampTime": "Eff_ScenObj_Homeworld_Exterior_Ly_Thing_Prop_Soundflower_01",
              "PPPDJGDDOGD": 1.0,
              "AJDILHJFNKE": -1.0
            }
          ]
        }
      }
    }
  },
  {
    "Default": {
      "$type": "ConfigAbility",
      "abilityName": "SceneObj_Homeworld_Ani_Exterior_Fd_Thing_Prop_MachFish_01_Ability",
      "abilityMixins": [
        {
          "$type": "AttachModifierToSelfGlobalValueNoInitMixin",
          "globalValueKey": "Rand_State_Result",
          "valueSteps": [-0.5, 0.5, 1.5, 2.5],
          "modifierNameSteps": ["GV_0", "GV_1", "GV_2"]
        },
        {
          "$type": "LNEJGOMCBMO",
          "succActions": [
            {
              "$type": "ApplyModifier",
              "modifierName": "Random_State"
            }
          ]
        }
      ],
      "modifiers": {
        "GV_0": {
          "modifierName": "",
          "elementDurability": 100.0,
          "onAdded": [
            {
              "$type": "JPAAAOLNENF",
              "shieldHP": true,
              "canBeHandledOnRecover": true,
              "enable": true
            }
          ],
          "onRemoved": [
            {
              "$type": "JPAAAOLNENF",
              "shieldHP": true,
              "canBeHandledOnRecover": true
            }
          ]
        },
        "GV_1": {
          "modifierName": "",
          "duration": 3.5,
          "elementDurability": 100.0,
          "onAdded": [
            {
              "$type": "SetAnimatorTrigger",
              "triggerID": "Play_Idle1"
            }
          ],
          "onRemoved": [
            {
              "$type": "SetGlobalValue",
              "value": 0.0,
              "key": "Rand_State_Result",
              "maxValue": 0.0,
              "minValue": 0.0
            }
          ]
        },
        "GV_2": {
          "modifierName": "",
          "duration": 3.5,
          "elementDurability": 100.0,
          "onAdded": [
            {
              "$type": "SetAnimatorTrigger",
              "triggerID": "Play_Idle2"
            }
          ],
          "onRemoved": [
            {
              "$type": "SetGlobalValue",
              "value": 0.0,
              "key": "Rand_State_Result",
              "maxValue": 0.0,
              "minValue": 0.0
            }
          ]
        },
        "Random_State": {
          "modifierName": "",
          "duration": 0.20000000298023224,
          "elementDurability": 100.0,
          "onAdded": [
            {
              "$type": "Randomed",
              "chance": 0.5,
              "successActions": [
                {
                  "$type": "SetGlobalValue",
                  "value": 1.0,
                  "key": "Rand_State_Result",
                  "maxValue": 0.0,
                  "minValue": 0.0
                }
              ],
              "failActions": [
                {
                  "$type": "SetGlobalValue",
                  "value": 2.0,
                  "key": "Rand_State_Result",
                  "maxValue": 0.0,
                  "minValue": 0.0
                }
              ]
            }
          ]
        }
      },
      "onAdded": [
        {
          "$type": "SetGlobalValue",
          "value": 0.0,
          "key": "Rand_State_Result",
          "maxValue": 0.0,
          "minValue": 0.0
        }
      ]
    }
  },
  {
    "Default": {
      "$type": "ConfigAbility",
      "abilityName": "SceneObj_Homeworld_Ani_Exterior_Fd_Thing_Prop_BoxingMachine_01",
      "modifiers": {
        "HitManager": {
          "modifierName": "",
          "elementDurability": 100.0,
          "modifierMixins": [
            {
              "$type": "GPCGHACDPIF",
              "DPAOMNELPHI": 1,
              "NLIOHMNJBAM": "Default"
            }
          ],
          "onBeingHit": [
            {
              "$type": "SetAnimatorTrigger",
              "triggerID": "Attack",
              "mpTriggerOnRemote": true
            }
          ]
        }
      },
      "onAdded": [
        {
          "$type": "ApplyModifier",
          "modifierName": "HitManager"
        }
      ]
    }
  },
  {
    "Default": {
      "$type": "ConfigAbility",
      "abilityName": "SceneObj_Homeworld_Ani_Exterior_Fd_Thing_Prop_MovieBall_01",
      "modifiers": {
        "AniManager": {
          "modifierName": "",
          "elementDurability": 100.0,
          "thinkInterval": 5.0,
          "onThinkInterval": [
            {
              "$type": "SetAnimatorTrigger",
              "triggerID": "Personality"
            },
            {
              "$type": "ApplyModifier",
              "modifierName": "DoubleJump"
            }
          ]
        },
        "DoubleJump": {
          "modifierName": "",
          "duration": 1.0,
          "elementDurability": 100.0,
          "onRemoved": [
            {
              "$type": "SetAnimatorTrigger",
              "triggerID": "Personality"
            }
          ]
        }
      },
      "onAdded": [
        {
          "$type": "ApplyModifier",
          "modifierName": "AniManager"
        }
      ]
    }
  },
  {
    "Default": {
      "$type": "ConfigAbility",
      "abilityName": "SceneObj_Homeworld_Exterior_Ly_Thing_Prop_Shenxiang_01",
      "modifiers": {
        "EffManager": {
          "modifierName": "",
          "elementDurability": 100.0,
          "onAdded": [
            {
              "$type": "AttachEffect",
              "rotationDampTime": "Eff_SceneObj_Homeworld_Exterior_Ly_Thing_Prop_Shenxiang_01",
              "born": {
                "$type": "ConfigBornByAttachPoint",
                "useRotation": true,
                "attachPointName": "AttachPoint"
              },
              "PPPDJGDDOGD": 1.0,
              "AJDILHJFNKE": -1.0
            }
          ]
        }
      },
      "onAdded": [
        {
          "$type": "ApplyModifier",
          "modifierName": "EffManager"
        }
      ]
    }
  },
  {
    "Default": {
      "$type": "ConfigAbility",
      "abilityName": "SceneObj_Homeworld_Exterior_Ly_Thing_Prop_LyJiguan_01_Ability",
      "abilityMixins": [
        {
          "$type": "EKAACKKMOKH",
          "editorModifierNames": ["OnHomeEditor"],
          "worldModifierNames": ["OnHomeWorld"]
        },
        {
          "$type": "LNEJGOMCBMO",
          "succActions": [
            {
              "$type": "ApplyModifier",
              "modifierName": "Touch_Handle"
            }
          ]
        },
        {
          "$type": "AHHBGKCKAPE",
          "ACBJJFIEEEI": "PlayState",
          "CMHDOGOOCJF": "State_FR23",
          "distance": 30.0
        }
      ],
      "modifiers": {
        "OnHomeEditor": {
          "modifierName": "",
          "elementDurability": 100.0,
          "onAdded": [
            {
              "$type": "SetGlobalValue",
              "value": 0.0,
              "key": "PlayState",
              "maxValue": 0.0,
              "minValue": 0.0
            }
          ]
        },
        "OnHomeWorld": {
          "modifierName": "",
          "elementDurability": 100.0,
          "modifierMixins": [
            {
              "$type": "AttachModifierToSelfGlobalValueMixin",
              "globalValueKey": "PlayState",
              "gvInTalk": 0.0,
              "valueSteps": [-0.5, 0.5, 1.5],
              "modifierNameSteps": ["Player_Off", "Player_On"]
            }
          ],
          "onAdded": [
            {
              "$type": "SetGlobalValue",
              "value": 0.0,
              "key": "PlayState",
              "maxValue": 0.0,
              "minValue": 0.0
            }
          ]
        },
        "Player_Off": {
          "modifierName": "",
          "elementDurability": 100.0,
          "onAdded": [
            {
              "$type": "SetAnimatorInt",
              "intID": "GadgetState",
              "value": 0.0
            },
            {
              "$type": "AFJFMNMFNLI",
              "hintTextMapId": "UI_HOMEWORLD_BAOZHU_TURN_ON_BUTTON",
              "iconName": ""
            }
          ]
        },
        "Player_On": {
          "modifierName": "",
          "elementDurability": 100.0,
          "onAdded": [
            {
              "$type": "SetAnimatorInt",
              "intID": "GadgetState",
              "value": 201.0
            },
            {
              "$type": "AttachEffect",
              "rotationDampTime": "Eff_SceneObj_LyJiguan_01",
              "PPPDJGDDOGD": 1.0,
              "AJDILHJFNKE": -1.0
            },
            {
              "$type": "AFJFMNMFNLI",
              "hintTextMapId": "UI_HOMEWORLD_BAOZHU_TURN_OFF_BUTTON",
              "iconName": ""
            }
          ]
        },
        "Touch_Handle": {
          "stacking": "Unique",
          "modifierName": "",
          "duration": 1.0,
          "elementDurability": 100.0,
          "onAdded": [
            {
              "$type": "EnableGadgetIntee"
            },
            {
              "$type": "Predicated",
              "targetPredicates": [
                {
                  "$type": "ByTargetGlobalValue",
                  "key": "PlayState",
                  "value": 0.0,
                  "compareType": "NoneOrEqual"
                }
              ],
              "successActions": [
                {
                  "$type": "SetGlobalValue",
                  "value": 1.0,
                  "key": "PlayState",
                  "maxValue": 0.0,
                  "minValue": 0.0
                }
              ],
              "failActions": [
                {
                  "$type": "SetGlobalValue",
                  "value": 0.0,
                  "key": "PlayState",
                  "maxValue": 0.0,
                  "minValue": 0.0
                }
              ]
            }
          ],
          "onRemoved": [
            {
              "$type": "EnableGadgetIntee",
              "enable": true
            }
          ]
        }
      }
    }
  }
]
