[
  {
    "Default": {
      "$type": "ConfigAbility",
      "abilityName": "DynamicAbility_Wriothesley_Dungeon_TeamAbility",
      "abilityMixins": [
        {
          "$type": "AttachModifierToSelfGlobalValueNoInitMixin",
          "globalValueKey": "SGV_Limiter_Count",
          "valueSteps": [-1.0, 0.5, 1.5, 2.5, 3.5],
          "modifierNameSteps": [
            "Blank",
            "Limiter_Effect_Lv1_Team",
            "Limiter_Effect_Lv2_Team",
            "Limiter_Effect_Lv3_Team"
          ],
          "NMCLMHFBALJ": true
        }
      ],
      "modifiers": {
        "Blank": {
          "modifierName": "",
          "elementDurability": 100.0
        },
        "Limiter_Effect_Lv1_Team": {
          "modifierName": "",
          "elementDurability": 100.0,
          "modifierMixins": [
            {
              "$type": "CurLocalAvatarMixinV2",
              "modifierName": "Limiter_Effect_Lv1"
            }
          ]
        },
        "Limiter_Effect_Lv2_Team": {
          "modifierName": "",
          "elementDurability": 100.0,
          "modifierMixins": [
            {
              "$type": "CurLocalAvatarMixinV2",
              "modifierName": "Limiter_Effect_Lv2"
            }
          ]
        },
        "Limiter_Effect_Lv3_Team": {
          "modifierName": "",
          "elementDurability": 100.0,
          "modifierMixins": [
            {
              "$type": "CurLocalAvatarMixinV2",
              "modifierName": "Limiter_Effect_Lv3"
            }
          ]
        },
        "Limiter_Effect_Lv1": {
          "modifierName": "",
          "elementDurability": 100.0,
          "onAdded": [
            {
              "$type": "AttachEffect",
              "rotationDampTime": "Eff_SceneObj_EnergyStation_01_Follow_01",
              "PPPDJGDDOGD": 1.0,
              "AJDILHJFNKE": -1.0
            }
          ]
        },
        "Limiter_Effect_Lv2": {
          "modifierName": "",
          "elementDurability": 100.0,
          "onAdded": [
            {
              "$type": "AttachEffect",
              "rotationDampTime": "Eff_SceneObj_EnergyStation_01_Follow_02",
              "PPPDJGDDOGD": 1.0,
              "AJDILHJFNKE": -1.0
            }
          ]
        },
        "Limiter_Effect_Lv3": {
          "modifierName": "",
          "elementDurability": 100.0,
          "onAdded": [
            {
              "$type": "AttachEffect",
              "rotationDampTime": "Eff_SceneObj_EnergyStation_01_Follow_03",
              "PPPDJGDDOGD": 1.0,
              "AJDILHJFNKE": -1.0
            }
          ]
        }
      },
      "isDynamicAbility": true
    }
  },
  {
    "Default": {
      "$type": "ConfigAbility",
      "abilityName": "SceneObj_Area_Fd_Property_Ani_Tree_EnergyStation_01",
      "abilityMixins": [
        {
          "$type": "AttachModifierToSelfGlobalValueNoInitMixin",
          "globalValueKey": "SGV_Is_Block",
          "valueSteps": [-0.5, 0.5, 1.5],
          "modifierNameSteps": ["None", "Block_Station"],
          "NMCLMHFBALJ": true
        },
        {
          "$type": "AttachModifierToSelfGlobalValueNoInitMixin",
          "globalValueKey": "Is_ReceiveEnergy",
          "valueSteps": [-0.5, 0.5, 1.5],
          "modifierNameSteps": ["None_Receive", "Is_Receive"],
          "NMCLMHFBALJ": true
        },
        {
          "$type": "AttachToStateIDMixin",
          "stateIDs": ["Stay0", "Stay90", "Stay180", "Stay270"],
          "modifierName": "RotateFinish",
          "isCheckOnAttach": true,
          "DGFCLAIDIFI": ""
        },
        {
          "$type": "DoActionOnGlobalValueChangeMixin",
          "globalValueKey": "Is_ReceiveEnergy",
          "actions": [
            {
              "$type": "Predicated",
              "targetPredicates": [
                {
                  "$type": "ByTargetGlobalValue",
                  "key": "Is_ReceiveEnergy",
                  "value": 1.0
                },
                {
                  "$type": "ByTargetGlobalValue",
                  "key": "SGV_RightPosition",
                  "value": 1.0
                },
                {
                  "$type": "ByTargetGlobalValue",
                  "key": "Is_RoFinish",
                  "value": 1.0
                }
              ],
              "successActions": [
                {
                  "$type": "SetGlobalValue",
                  "value": 1.0,
                  "key": "Can_Emission",
                  "maxValue": 0.0,
                  "minValue": 0.0
                }
              ],
              "failActions": [
                {
                  "$type": "SetGlobalValue",
                  "value": 0.0,
                  "key": "Can_Emission",
                  "maxValue": 0.0,
                  "minValue": 0.0
                }
              ]
            }
          ]
        },
        {
          "$type": "DoActionOnGlobalValueChangeMixin",
          "globalValueKey": "Is_RoFinish",
          "actions": [
            {
              "$type": "Predicated",
              "targetPredicates": [
                {
                  "$type": "ByTargetGlobalValue",
                  "key": "Is_ReceiveEnergy",
                  "value": 1.0
                },
                {
                  "$type": "ByTargetGlobalValue",
                  "key": "Is_RoFinish",
                  "value": 1.0
                },
                {
                  "$type": "ByTargetGlobalValue",
                  "key": "SGV_RightPosition",
                  "value": 1.0
                }
              ],
              "successActions": [
                {
                  "$type": "SetGlobalValue",
                  "value": 1.0,
                  "key": "Can_Emission",
                  "maxValue": 0.0,
                  "minValue": 0.0
                }
              ],
              "failActions": [
                {
                  "$type": "SetGlobalValue",
                  "value": 0.0,
                  "key": "Can_Emission",
                  "maxValue": 0.0,
                  "minValue": 0.0
                }
              ]
            }
          ]
        },
        {
          "$type": "AttachModifierToSelfGlobalValueNoInitMixin",
          "globalValueKey": "Can_Emission",
          "valueSteps": [-0.5, 0.5, 1.5],
          "modifierNameSteps": ["Fade", "Emission"],
          "NMCLMHFBALJ": true
        },
        {
          "$type": "AttachToGadgetStateMixin",
          "modifierName": "ZeroDegree"
        },
        {
          "$type": "AttachToGadgetStateMixin",
          "gadgetState": 1,
          "modifierName": "NinetyDegree"
        },
        {
          "$type": "AttachToGadgetStateMixin",
          "gadgetState": 2,
          "modifierName": "OneHundredAndEightyDegree"
        },
        {
          "$type": "AttachToGadgetStateMixin",
          "gadgetState": 3,
          "modifierName": "TwoHundredAndSeventyDegree"
        }
      ],
      "modifiers": {
        "ZeroDegree": {
          "modifierName": "",
          "elementDurability": 100.0,
          "onAdded": [
            {
              "$type": "SetAnimatorInt",
              "intID": "GadgetState",
              "value": 0.0
            },
            {
              "$type": "SendEffectTrigger",
              "parameter": "State",
              "attachPoint": "",
              "damageRatio": "Int",
              "rotationDampTime": "Eff_SceneObj_EnergyStation_01_Laser"
            }
          ],
          "onRemoved": [
            {
              "$type": "SendEffectTrigger",
              "parameter": "State",
              "attachPoint": "",
              "damageRatio": "Int",
              "value": 201,
              "rotationDampTime": "Eff_SceneObj_EnergyStation_01_Laser"
            }
          ]
        },
        "NinetyDegree": {
          "modifierName": "",
          "elementDurability": 100.0,
          "onAdded": [
            {
              "$type": "SetAnimatorInt",
              "intID": "GadgetState",
              "value": 1.0
            },
            {
              "$type": "SendEffectTrigger",
              "parameter": "State",
              "attachPoint": "",
              "damageRatio": "Int",
              "rotationDampTime": "Eff_SceneObj_EnergyStation_01_Laser"
            }
          ],
          "onRemoved": [
            {
              "$type": "SendEffectTrigger",
              "parameter": "State",
              "attachPoint": "",
              "damageRatio": "Int",
              "value": 201,
              "rotationDampTime": "Eff_SceneObj_EnergyStation_01_Laser"
            }
          ]
        },
        "OneHundredAndEightyDegree": {
          "modifierName": "",
          "elementDurability": 100.0,
          "onAdded": [
            {
              "$type": "SetAnimatorInt",
              "intID": "GadgetState",
              "value": 2.0
            },
            {
              "$type": "SendEffectTrigger",
              "parameter": "State",
              "attachPoint": "",
              "damageRatio": "Int",
              "rotationDampTime": "Eff_SceneObj_EnergyStation_01_Laser"
            }
          ],
          "onRemoved": [
            {
              "$type": "SendEffectTrigger",
              "parameter": "State",
              "attachPoint": "",
              "damageRatio": "Int",
              "value": 201,
              "rotationDampTime": "Eff_SceneObj_EnergyStation_01_Laser"
            }
          ]
        },
        "TwoHundredAndSeventyDegree": {
          "modifierName": "",
          "elementDurability": 100.0,
          "onAdded": [
            {
              "$type": "SetAnimatorInt",
              "intID": "GadgetState",
              "value": 3.0
            },
            {
              "$type": "SendEffectTrigger",
              "parameter": "State",
              "attachPoint": "",
              "damageRatio": "Int",
              "rotationDampTime": "Eff_SceneObj_EnergyStation_01_Laser"
            }
          ],
          "onRemoved": [
            {
              "$type": "SendEffectTrigger",
              "parameter": "State",
              "attachPoint": "",
              "damageRatio": "Int",
              "value": 201,
              "rotationDampTime": "Eff_SceneObj_EnergyStation_01_Laser"
            }
          ]
        },
        "None": {
          "modifierName": "",
          "elementDurability": 100.0
        },
        "Block_Station": {
          "modifierName": "",
          "elementDurability": 100.0,
          "onAdded": [
            {
              "$type": "AttachEffect",
              "rotationDampTime": "Eff_SceneObj_EnergyStation_01_Lock",
              "born": {
                "$type": "ConfigBornByAttachPoint",
                "useRotation": true,
                "attachPointName": "AttachPoint"
              },
              "PPPDJGDDOGD": 1.0,
              "AJDILHJFNKE": -1.0
            }
          ],
          "onRemoved": [
            {
              "$type": "FireEffect",
              "rotationDampTime": "Eff_SceneObj_EnergyStation_01_LockDis",
              "born": {
                "$type": "ConfigBornByAttachPoint",
                "useRotation": true,
                "attachPointName": "AttachPoint"
              },
              "PPPDJGDDOGD": 1.0,
              "AJDILHJFNKE": -1.0
            }
          ]
        },
        "None_Receive": {
          "modifierName": "",
          "elementDurability": 100.0,
          "modifierMixins": [
            {
              "$type": "GPCGHACDPIF",
              "DPAOMNELPHI": 1,
              "KJOOHFLCIIK": true,
              "NLIOHMNJBAM": ""
            }
          ]
        },
        "Is_Receive": {
          "modifierName": "",
          "elementDurability": 100.0,
          "modifierMixins": [
            {
              "$type": "GPCGHACDPIF",
              "KJOOHFLCIIK": true,
              "NLIOHMNJBAM": ""
            }
          ]
        },
        "RotateFinish": {
          "modifierName": "",
          "elementDurability": 100.0,
          "onAdded": [
            {
              "$type": "SetGlobalValue",
              "value": 1.0,
              "key": "Is_RoFinish",
              "maxValue": 0.0,
              "minValue": 0.0
            }
          ],
          "onRemoved": [
            {
              "$type": "SetGlobalValue",
              "value": 0.0,
              "key": "Is_RoFinish",
              "maxValue": 0.0,
              "minValue": 0.0
            }
          ]
        },
        "Fade": {
          "modifierName": "",
          "elementDurability": 100.0
        },
        "Emission": {
          "modifierName": "",
          "elementDurability": 100.0,
          "onAdded": [
            {
              "$type": "ApplyModifier",
              "modifierName": "LaserManager"
            }
          ],
          "onRemoved": [
            {
              "$type": "RemoveModifier",
              "modifierName": "LaserManager"
            }
          ]
        },
        "LaserManager": {
          "modifierName": "",
          "elementDurability": 100.0,
          "modifierMixins": [
            {
              "$type": "NKENLIHLFPF",
              "rotationDampTime": "Eff_SceneObj_EnergyStation_01_Laser",
              "onLaserHit": [
                {
                  "$type": "Predicated",
                  "target": "Target",
                  "targetPredicates": [
                    {
                      "$type": "ByTargetGlobalValue",
                      "key": "_IS_ENERGYSTATION",
                      "value": 1.0
                    }
                  ],
                  "successActions": [
                    {
                      "$type": "ApplyModifier",
                      "target": "Target",
                      "modifierName": "SetReceiveSGV_EnergyStation"
                    }
                  ]
                }
              ],
              "onLaserLeave": [
                {
                  "$type": "Predicated",
                  "target": "Target",
                  "targetPredicates": [
                    {
                      "$type": "ByTargetGlobalValue",
                      "key": "_IS_ENERGYSTATION",
                      "value": 1.0
                    }
                  ],
                  "successActions": [
                    {
                      "$type": "RemoveModifier",
                      "target": "Target",
                      "modifierName": "SetReceiveSGV_EnergyStation"
                    }
                  ]
                }
              ]
            }
          ],
          "onAdded": [
            {
              "$type": "AttachEffect",
              "rotationDampTime": "Eff_SceneObj_EnergyStation_01_Laser",
              "born": {
                "$type": "ConfigBornByAttachPoint",
                "useRotation": true,
                "attachPointName": "ShootPoint"
              },
              "PPPDJGDDOGD": 1.0,
              "AJDILHJFNKE": -1.0
            }
          ]
        },
        "SetReceiveSGV_EnergyStation": {
          "modifierName": "",
          "elementDurability": 100.0,
          "onAdded": [
            {
              "$type": "SetGlobalValue",
              "value": 1.0,
              "key": "Is_ReceiveEnergy",
              "maxValue": 0.0,
              "minValue": 0.0
            }
          ],
          "onRemoved": [
            {
              "$type": "SetGlobalValue",
              "value": 0.0,
              "key": "Is_ReceiveEnergy",
              "maxValue": 0.0,
              "minValue": 0.0
            }
          ]
        }
      },
      "onAdded": [
        {
          "$type": "SetGlobalValue",
          "value": 1.0,
          "key": "_IS_ENERGYSTATION",
          "maxValue": 0.0,
          "minValue": 0.0
        },
        {
          "$type": "SetGlobalValue",
          "value": 0.0,
          "key": "Can_Emission",
          "maxValue": 0.0,
          "minValue": 0.0
        },
        {
          "$type": "SetGlobalValue",
          "value": 0.0,
          "key": "Is_ReceiveEnergy",
          "maxValue": 0.0,
          "minValue": 0.0
        },
        {
          "$type": "SetGlobalValue",
          "value": 1.0,
          "key": "Is_RoFinish",
          "maxValue": 0.0,
          "minValue": 0.0
        }
      ]
    }
  },
  {
    "Default": {
      "$type": "ConfigAbility",
      "abilityName": "SceneObj_Area_Fd_Property_Ani_Tree_EnergyTerminal_01",
      "abilityMixins": [
        {
          "$type": "AttachToGadgetStateMixin",
          "modifierName": "NormalState"
        },
        {
          "$type": "AttachToGadgetStateMixin",
          "gadgetState": 201,
          "modifierName": "DeactiveState"
        }
      ],
      "modifiers": {
        "NormalState": {
          "modifierName": "",
          "elementDurability": 100.0,
          "modifierMixins": [
            {
              "$type": "GPCGHACDPIF",
              "NLIOHMNJBAM": ""
            },
            {
              "$type": "NKENLIHLFPF",
              "rotationDampTime": "Eff_SceneObj_EnergyStation_01_Laser",
              "onLaserHit": [
                {
                  "$type": "Predicated",
                  "target": "Target",
                  "targetPredicates": [
                    {
                      "$type": "ByTargetGlobalValue",
                      "key": "_IS_ENERGYSTATION",
                      "value": 1.0
                    }
                  ],
                  "successActions": [
                    {
                      "$type": "ApplyModifier",
                      "target": "Target",
                      "modifierName": "SetReceiveSGV_EnergyStation"
                    }
                  ]
                }
              ],
              "onLaserLeave": [
                {
                  "$type": "Predicated",
                  "target": "Target",
                  "targetPredicates": [
                    {
                      "$type": "ByTargetGlobalValue",
                      "key": "_IS_ENERGYSTATION",
                      "value": 1.0
                    }
                  ],
                  "successActions": [
                    {
                      "$type": "RemoveModifier",
                      "target": "Target",
                      "modifierName": "SetReceiveSGV_EnergyStation"
                    }
                  ]
                }
              ]
            }
          ],
          "onAdded": [
            {
              "$type": "AttachEffect",
              "rotationDampTime": "Eff_SceneObj_EnergyStation_01_Laser",
              "born": {
                "$type": "ConfigBornByAttachPoint",
                "useRotation": true,
                "attachPointName": "ShootPoint"
              },
              "PPPDJGDDOGD": 1.0,
              "AJDILHJFNKE": -1.0
            }
          ]
        },
        "DeactiveState": {
          "modifierName": "",
          "elementDurability": 100.0,
          "modifierMixins": [
            {
              "$type": "GPCGHACDPIF",
              "DPAOMNELPHI": 1,
              "NLIOHMNJBAM": ""
            }
          ]
        },
        "SetReceiveSGV_EnergyStation": {
          "modifierName": "",
          "elementDurability": 100.0,
          "onAdded": [
            {
              "$type": "SetGlobalValue",
              "value": 1.0,
              "key": "Is_ReceiveEnergy",
              "maxValue": 0.0,
              "minValue": 0.0
            }
          ],
          "onRemoved": [
            {
              "$type": "SetGlobalValue",
              "value": 0.0,
              "key": "Is_ReceiveEnergy",
              "maxValue": 0.0,
              "minValue": 0.0
            }
          ]
        }
      }
    }
  },
  {
    "Default": {
      "$type": "ConfigAbility",
      "abilityName": "SceneObj_Area_Fd_Property_Ani_Tree_EnergyTerminal_02",
      "abilityMixins": [
        {
          "$type": "AttachToGadgetStateMixin",
          "modifierName": "NoEnergy"
        },
        {
          "$type": "AttachToGadgetStateMixin",
          "gadgetState": 201,
          "modifierName": "FullEnergy"
        },
        {
          "$type": "DoActionOnGlobalValueChangeMixin",
          "globalValueKey": "Is_ReceiveEnergy",
          "actions": [
            {
              "$type": "Predicated",
              "targetPredicates": [
                {
                  "$type": "ByTargetGlobalValue",
                  "key": "Is_ReceiveEnergy",
                  "value": 1.0
                }
              ],
              "successActions": [
                {
                  "$type": "HPIDNBEGJLL",
                  "state": 201
                }
              ]
            }
          ]
        }
      ],
      "modifiers": {
        "NoEnergy": {
          "modifierName": "",
          "elementDurability": 100.0,
          "modifierMixins": [
            {
              "$type": "GPCGHACDPIF",
              "DPAOMNELPHI": 1,
              "NLIOHMNJBAM": ""
            }
          ]
        },
        "FullEnergy": {
          "modifierName": "",
          "elementDurability": 100.0,
          "modifierMixins": [
            {
              "$type": "GPCGHACDPIF",
              "NLIOHMNJBAM": ""
            }
          ],
          "onAdded": [
            {
              "$type": "AttachEffect",
              "rotationDampTime": "Eff_SceneObj_EnergyTerminal_01_Active",
              "born": {
                "$type": "ConfigBornByAttachPoint",
                "useRotation": true,
                "attachPointName": "AttachPoint"
              },
              "PPPDJGDDOGD": 1.0,
              "AJDILHJFNKE": -1.0
            }
          ]
        }
      },
      "onAdded": [
        {
          "$type": "SetGlobalValue",
          "value": 0.0,
          "key": "Is_ReceiveEnergy",
          "maxValue": 0.0,
          "minValue": 0.0
        },
        {
          "$type": "SetGlobalValue",
          "value": 1.0,
          "key": "_IS_ENERGYSTATION",
          "maxValue": 0.0,
          "minValue": 0.0
        }
      ]
    }
  },
  {
    "Default": {
      "$type": "ConfigAbility",
      "abilityName": "SceneObj_Level_Fd_Property_Ani_Prop_GearTurntable_01",
      "abilityMixins": [
        {
          "$type": "AttachToGadgetStateMixin",
          "modifierName": "0Degree"
        },
        {
          "$type": "AttachToGadgetStateMixin",
          "gadgetState": 201,
          "modifierName": "90Degree"
        },
        {
          "$type": "AttachToGadgetStateMixin",
          "gadgetState": 202,
          "modifierName": "180Degree"
        },
        {
          "$type": "AttachToGadgetStateMixin",
          "gadgetState": 203,
          "modifierName": "270Degree"
        }
      ],
      "modifiers": {
        "LightManager": {
          "modifierName": "",
          "elementDurability": 100.0,
          "onAdded": [
            {
              "$type": "AttachEffect",
              "rotationDampTime": "Eff_Level_FD_Freminet_Light_01",
              "born": {
                "$type": "ConfigBornByAttachPoint",
                "useRotation": true,
                "attachPointName": "RootNode"
              },
              "PPPDJGDDOGD": 1.0,
              "AJDILHJFNKE": -1.0,
              "isPlatformDependent": true
            }
          ]
        },
        "UpManager": {
          "modifierName": "",
          "elementDurability": 100.0,
          "modifierMixins": [
            {
              "$type": "AttachModifierToSelfGlobalValueNoInitMixin",
              "globalValueKey": "SGV_ArriveRoute",
              "valueSteps": [-0.5, 0.5, 1.5],
              "modifierNameSteps": ["None", "UpEffect"],
              "NMCLMHFBALJ": true
            }
          ]
        },
        "LockManager": {
          "modifierName": "",
          "elementDurability": 100.0,
          "modifierMixins": [
            {
              "$type": "AttachModifierToSelfGlobalValueNoInitMixin",
              "globalValueKey": "SGV_Is_Lock",
              "valueSteps": [-0.5, 0.5, 1.5],
              "modifierNameSteps": ["NotLock", "Lock"],
              "NMCLMHFBALJ": true
            }
          ]
        },
        "0Degree": {
          "modifierName": "",
          "elementDurability": 100.0,
          "onAdded": [
            {
              "$type": "SetAnimatorInt",
              "intID": "GadgetState",
              "value": 0.0
            },
            {
              "$type": "FireEffect",
              "rotationDampTime": "Eff_SceneObj_GearTurntable_01_Smoke_02",
              "born": {
                "$type": "ConfigBornByAttachPoint",
                "useRotation": true,
                "attachPointName": "RootNode"
              },
              "PPPDJGDDOGD": 1.0,
              "AJDILHJFNKE": -1.0
            }
          ]
        },
        "90Degree": {
          "modifierName": "",
          "elementDurability": 100.0,
          "onAdded": [
            {
              "$type": "SetAnimatorInt",
              "intID": "GadgetState",
              "value": 201.0
            },
            {
              "$type": "FireEffect",
              "rotationDampTime": "Eff_SceneObj_GearTurntable_01_Smoke_02",
              "born": {
                "$type": "ConfigBornByAttachPoint",
                "useRotation": true,
                "attachPointName": "RootNode"
              },
              "PPPDJGDDOGD": 1.0,
              "AJDILHJFNKE": -1.0
            }
          ]
        },
        "180Degree": {
          "modifierName": "",
          "elementDurability": 100.0,
          "onAdded": [
            {
              "$type": "SetAnimatorInt",
              "intID": "GadgetState",
              "value": 202.0
            },
            {
              "$type": "FireEffect",
              "rotationDampTime": "Eff_SceneObj_GearTurntable_01_Smoke_02",
              "born": {
                "$type": "ConfigBornByAttachPoint",
                "useRotation": true,
                "attachPointName": "RootNode"
              },
              "PPPDJGDDOGD": 1.0,
              "AJDILHJFNKE": -1.0
            }
          ]
        },
        "270Degree": {
          "modifierName": "",
          "elementDurability": 100.0,
          "onAdded": [
            {
              "$type": "SetAnimatorInt",
              "intID": "GadgetState",
              "value": 203.0
            },
            {
              "$type": "FireEffect",
              "rotationDampTime": "Eff_SceneObj_GearTurntable_01_Smoke_02",
              "born": {
                "$type": "ConfigBornByAttachPoint",
                "useRotation": true,
                "attachPointName": "RootNode"
              },
              "PPPDJGDDOGD": 1.0,
              "AJDILHJFNKE": -1.0
            }
          ]
        },
        "None": {
          "modifierName": "",
          "elementDurability": 100.0
        },
        "UpEffect": {
          "modifierName": "",
          "elementDurability": 100.0,
          "onAdded": [
            {
              "$type": "AttachEffect",
              "rotationDampTime": "Eff_SceneObj_GearTurntable_01_Smoke_01",
              "born": {
                "$type": "ConfigBornByAttachPoint",
                "useRotation": true,
                "attachPointName": "RootNode"
              },
              "PPPDJGDDOGD": 1.0,
              "AJDILHJFNKE": -1.0
            }
          ]
        },
        "NotLock": {
          "modifierName": "",
          "elementDurability": 100.0
        },
        "Lock": {
          "modifierName": "",
          "elementDurability": 100.0,
          "onAdded": [
            {
              "$type": "SetAnimatorTrigger",
              "triggerID": "Struck"
            }
          ]
        }
      },
      "onAdded": [
        {
          "$type": "ApplyModifier",
          "modifierName": "LightManager"
        },
        {
          "$type": "ApplyModifier",
          "modifierName": "UpManager"
        },
        {
          "$type": "ApplyModifier",
          "modifierName": "LockManager"
        }
      ]
    }
  },
  {
    "Default": {
      "$type": "ConfigAbility",
      "abilityName": "SceneObj_Level_Fd_Property_Ani_Prop_BarrierGate_01",
      "abilityMixins": [
        {
          "$type": "AttachToGadgetStateMixin",
          "modifierName": "Close"
        },
        {
          "$type": "AttachToGadgetStateMixin",
          "gadgetState": 201,
          "modifierName": "Open"
        }
      ],
      "modifiers": {
        "Close": {
          "modifierName": "",
          "elementDurability": 100.0,
          "onAdded": [
            {
              "$type": "SetAnimatorInt",
              "intID": "GadgetState",
              "value": 0.0
            }
          ]
        },
        "Open": {
          "modifierName": "",
          "elementDurability": 100.0,
          "onAdded": [
            {
              "$type": "SetAnimatorInt",
              "intID": "GadgetState",
              "value": 201.0
            }
          ]
        }
      }
    }
  },
  {
    "Default": {
      "$type": "ConfigAbility",
      "abilityName": "SceneObj_Level_Fd_Property_Ani_Prop_BarrierGate_02",
      "abilityMixins": [
        {
          "$type": "AttachToGadgetStateMixin",
          "modifierName": "Close"
        },
        {
          "$type": "AttachToGadgetStateMixin",
          "gadgetState": 201,
          "modifierName": "Open"
        }
      ],
      "modifiers": {
        "Close": {
          "modifierName": "",
          "elementDurability": 100.0,
          "onAdded": [
            {
              "$type": "SetAnimatorInt",
              "intID": "GadgetState",
              "value": 0.0
            }
          ]
        },
        "Open": {
          "modifierName": "",
          "elementDurability": 100.0,
          "onAdded": [
            {
              "$type": "SetAnimatorInt",
              "intID": "GadgetState",
              "value": 201.0
            }
          ]
        }
      }
    }
  },
  {
    "Default": {
      "$type": "ConfigAbility",
      "abilityName": "SceneObj_Level_Fd_Property_Ani_Prop_EnergyOverlookCamera_01",
      "modifiers": {
        "EnableCamera": {
          "modifierName": "",
          "elementDurability": 100.0,
          "onAdded": [
            {
              "$type": "PEAJMIPBILK",
              "canBeHandledOnRecover": true,
              "enable": true
            }
          ],
          "onReconnect": [
            {
              "$type": "PEAJMIPBILK",
              "canBeHandledOnRecover": true,
              "enable": true
            }
          ]
        }
      },
      "onAdded": [
        {
          "$type": "ApplyModifier",
          "modifierName": "EnableCamera"
        }
      ]
    }
  },
  {
    "Default": {
      "$type": "ConfigAbility",
      "abilityName": "SceneObj_Level_Fd_Property_Ani_Prop_SealValveSwitch_02",
      "abilityMixins": [
        {
          "$type": "AttachToGadgetStateMixin",
          "modifierName": "Normal"
        },
        {
          "$type": "AttachToGadgetStateMixin",
          "gadgetState": 201,
          "modifierName": "ValveOpen"
        },
        {
          "$type": "AttachToGadgetStateMixin",
          "gadgetState": 202,
          "modifierName": "Active"
        },
        {
          "$type": "AttachToGadgetStateMixin",
          "gadgetState": 203,
          "modifierName": "Lock"
        },
        {
          "$type": "AttachToGadgetStateMixin",
          "gadgetState": 204,
          "modifierName": "Struck"
        }
      ],
      "modifiers": {
        "Normal": {
          "modifierName": "",
          "elementDurability": 100.0,
          "modifierMixins": [
            {
              "$type": "GPCGHACDPIF",
              "NLIOHMNJBAM": ""
            }
          ]
        },
        "ValveOpen": {
          "modifierName": "",
          "elementDurability": 100.0,
          "modifierMixins": [
            {
              "$type": "GPCGHACDPIF",
              "DPAOMNELPHI": 1,
              "NLIOHMNJBAM": ""
            }
          ],
          "onAdded": [
            {
              "$type": "SetAnimatorTrigger",
              "triggerID": "Attack",
              "mpTriggerOnRemote": true
            }
          ]
        },
        "Active": {
          "modifierName": "",
          "duration": 3.5999999046325684,
          "elementDurability": 100.0,
          "modifierMixins": [
            {
              "$type": "GPCGHACDPIF",
              "DPAOMNELPHI": 1,
              "NLIOHMNJBAM": ""
            }
          ],
          "onAdded": [
            {
              "$type": "SetAnimatorTrigger",
              "triggerID": "Attack",
              "mpTriggerOnRemote": true
            }
          ],
          "onRemoved": [
            {
              "$type": "HPIDNBEGJLL"
            }
          ]
        },
        "Lock": {
          "modifierName": "",
          "elementDurability": 100.0,
          "modifierMixins": [
            {
              "$type": "GPCGHACDPIF",
              "NLIOHMNJBAM": ""
            }
          ],
          "onAdded": [
            {
              "$type": "AttachEffect",
              "rotationDampTime": "Eff_Item_SpecialTreasureBox_LockIdle",
              "born": {
                "$type": "ConfigBornByAttachPoint",
                "useRotation": true,
                "attachPointName": "AttachPoint"
              },
              "PPPDJGDDOGD": 1.0,
              "AJDILHJFNKE": -1.0
            }
          ],
          "onRemoved": [
            {
              "$type": "FireEffect",
              "rotationDampTime": "Eff_Item_SpecialTreasureBox_Unlock",
              "born": {
                "$type": "ConfigBornByAttachPoint",
                "useRotation": true,
                "attachPointName": "AttachPoint"
              },
              "PPPDJGDDOGD": 1.0,
              "AJDILHJFNKE": -1.0
            }
          ]
        },
        "Struck": {
          "modifierName": "",
          "duration": 1.5,
          "elementDurability": 100.0,
          "modifierMixins": [
            {
              "$type": "GPCGHACDPIF",
              "DPAOMNELPHI": 1,
              "NLIOHMNJBAM": ""
            }
          ],
          "onRemoved": [
            {
              "$type": "HPIDNBEGJLL"
            }
          ]
        }
      }
    }
  },
  {
    "Default": {
      "$type": "ConfigAbility",
      "abilityName": "SceneObj_Level_Common_Property_Ani_Prop_FDPipeDoorLargeWriothesley_01",
      "abilityMixins": [
        {
          "$type": "AttachToGadgetStateMixin",
          "modifierName": "Close"
        },
        {
          "$type": "AttachToGadgetStateMixin",
          "gadgetState": 201,
          "modifierName": "Open"
        },
        {
          "$type": "AttachToGadgetStateMixin",
          "gadgetState": 202,
          "modifierName": "AnimatorOpen"
        }
      ],
      "modifiers": {
        "Close": {
          "modifierName": "",
          "elementDurability": 100.0,
          "modifierMixins": [
            {
              "$type": "GPCGHACDPIF",
              "DPAOMNELPHI": 2,
              "NLIOHMNJBAM": ""
            }
          ],
          "onAdded": [
            {
              "$type": "SetAnimatorInt",
              "intID": "GadgetState",
              "value": 0.0
            }
          ]
        },
        "Open": {
          "modifierName": "",
          "duration": 2.0,
          "elementDurability": 100.0,
          "modifierMixins": [
            {
              "$type": "GPCGHACDPIF",
              "DPAOMNELPHI": 1,
              "NLIOHMNJBAM": ""
            }
          ],
          "onAdded": [
            {
              "$type": "AttachEffect",
              "rotationDampTime": "Eff_SceneObj_FDPipeDoorLarge_01_Unlcok",
              "born": {
                "$type": "ConfigBornByAttachPoint",
                "useRotation": true,
                "attachPointName": "RootNode"
              },
              "PPPDJGDDOGD": 1.0,
              "AJDILHJFNKE": -1.0
            }
          ],
          "onRemoved": [
            {
              "$type": "HPIDNBEGJLL",
              "state": 202
            },
            {
              "$type": "FireEffect",
              "rotationDampTime": "Eff_SceneObj_FDPipeDoorLarge_01_Open",
              "born": {
                "$type": "ConfigBornByAttachPoint",
                "useRotation": true,
                "attachPointName": "RootNode"
              },
              "PPPDJGDDOGD": 1.0,
              "AJDILHJFNKE": -1.0
            }
          ]
        },
        "AnimatorOpen": {
          "modifierName": "",
          "elementDurability": 100.0,
          "modifierMixins": [
            {
              "$type": "GPCGHACDPIF",
              "DPAOMNELPHI": 1,
              "NLIOHMNJBAM": ""
            }
          ],
          "onAdded": [
            {
              "$type": "SetAnimatorInt",
              "intID": "GadgetState",
              "value": 201.0
            },
            {
              "$type": "AttachEffect",
              "rotationDampTime": "Eff_SceneObj_POI_LaiousiliDungeon_Steam_01",
              "born": {
                "$type": "ConfigBornByAttachPoint",
                "useRotation": true,
                "attachPointName": "AttachPoint"
              },
              "PPPDJGDDOGD": 1.0,
              "AJDILHJFNKE": -1.0
            }
          ]
        }
      }
    }
  },
  {
    "Default": {
      "$type": "ConfigAbility",
      "abilityName": "SceneObj_Level_Common_Property_Ani_Prop_FDPipeDoorSmallWriothesley_01",
      "abilityMixins": [
        {
          "$type": "AttachToGadgetStateMixin",
          "modifierName": "Close"
        },
        {
          "$type": "AttachToGadgetStateMixin",
          "gadgetState": 201,
          "modifierName": "Open"
        },
        {
          "$type": "AttachToGadgetStateMixin",
          "gadgetState": 202,
          "modifierName": "AnimatorOpen"
        }
      ],
      "modifiers": {
        "Close": {
          "modifierName": "",
          "elementDurability": 100.0,
          "modifierMixins": [
            {
              "$type": "GPCGHACDPIF",
              "DPAOMNELPHI": 2,
              "NLIOHMNJBAM": ""
            }
          ],
          "onAdded": [
            {
              "$type": "SetAnimatorInt",
              "intID": "GadgetState",
              "value": 0.0
            },
            {
              "$type": "GICMAMGKKKA",
              "lightName": "Light1",
              "targetColor": {
                "r": 0.30880001187324524,
                "g": 0.9140999913215637,
                "b": 1.0,
                "a": 1.0
              },
              "targetIntensity": 1.2000000476837158,
              "shouldSetColor": true,
              "shouldSetIntensity": true,
              "intensityUseCurve": true,
              "lerpTime": 1.0
            },
            {
              "$type": "GICMAMGKKKA",
              "lightName": "Light2",
              "targetColor": {
                "r": 0.30880001187324524,
                "g": 0.9140999913215637,
                "b": 1.0,
                "a": 1.0
              },
              "targetIntensity": 1.2000000476837158,
              "shouldSetColor": true,
              "shouldSetIntensity": true,
              "intensityUseCurve": true,
              "lerpTime": 1.0
            }
          ]
        },
        "Open": {
          "modifierName": "",
          "duration": 2.0,
          "elementDurability": 100.0,
          "modifierMixins": [
            {
              "$type": "GPCGHACDPIF",
              "DPAOMNELPHI": 1,
              "NLIOHMNJBAM": ""
            }
          ],
          "onAdded": [
            {
              "$type": "AttachEffect",
              "rotationDampTime": "Eff_SceneObj_FDPipeDoorSmall_01_Unlcok",
              "born": {
                "$type": "ConfigBornByAttachPoint",
                "useRotation": true,
                "attachPointName": "RootNode"
              },
              "PPPDJGDDOGD": 1.0,
              "AJDILHJFNKE": -1.0
            },
            {
              "$type": "GICMAMGKKKA",
              "lightName": "Light1",
              "targetColor": {
                "r": 0.9043999910354614,
                "g": 0.2761000096797943,
                "b": 0.21940000355243683,
                "a": 1.0
              },
              "targetIntensity": 0.6000000238418579,
              "shouldSetColor": true,
              "shouldSetIntensity": true,
              "intensityUseCurve": true,
              "lerpTime": 1.0
            },
            {
              "$type": "GICMAMGKKKA",
              "lightName": "Light2",
              "targetColor": {
                "r": 0.30880001187324524,
                "g": 0.9140999913215637,
                "b": 1.0,
                "a": 1.0
              },
              "shouldSetColor": true,
              "shouldSetIntensity": true,
              "intensityUseCurve": true,
              "lerpTime": 1.0
            }
          ],
          "onRemoved": [
            {
              "$type": "HPIDNBEGJLL",
              "state": 202
            },
            {
              "$type": "FireEffect",
              "rotationDampTime": "Eff_SceneObj_FDPipeDoorSmall_01_Open",
              "born": {
                "$type": "ConfigBornByAttachPoint",
                "useRotation": true,
                "attachPointName": "RootNode"
              },
              "PPPDJGDDOGD": 1.0,
              "AJDILHJFNKE": -1.0
            }
          ]
        },
        "AnimatorOpen": {
          "modifierName": "",
          "elementDurability": 100.0,
          "modifierMixins": [
            {
              "$type": "GPCGHACDPIF",
              "DPAOMNELPHI": 1,
              "NLIOHMNJBAM": ""
            }
          ],
          "onAdded": [
            {
              "$type": "SetAnimatorInt",
              "intID": "GadgetState",
              "value": 201.0
            }
          ]
        }
      }
    }
  },
  {
    "Default": {
      "$type": "ConfigAbility",
      "abilityName": "SceneObj_Level_Fd_Property_Ani_Prop_SealValveSwitch_03",
      "abilityMixins": [
        {
          "$type": "AttachToGadgetStateMixin",
          "modifierName": "Normal"
        },
        {
          "$type": "AttachToGadgetStateMixin",
          "gadgetState": 201,
          "modifierName": "ValveOpen"
        }
      ],
      "modifiers": {
        "Normal": {
          "modifierName": "",
          "elementDurability": 100.0,
          "modifierMixins": [
            {
              "$type": "GPCGHACDPIF",
              "NLIOHMNJBAM": ""
            }
          ]
        },
        "ValveOpen": {
          "modifierName": "",
          "elementDurability": 100.0,
          "modifierMixins": [
            {
              "$type": "DoActionOnGlobalValueChangeMixin",
              "globalValueKey": "SGV_Rotate",
              "actions": [
                {
                  "$type": "SetAnimatorTrigger",
                  "triggerID": "Attack",
                  "mpTriggerOnRemote": true
                }
              ]
            },
            {
              "$type": "GPCGHACDPIF",
              "DPAOMNELPHI": 1,
              "NLIOHMNJBAM": ""
            }
          ]
        }
      }
    }
  }
]
