[
  {
    "Default": {
      "$type": "ConfigAbility",
      "abilityName": "SceneObj_CombatInteraction_Test_PumpkinBomb",
      "modifiers": {
        "PumpkinBomb": {
          "modifierName": "",
          "elementType": "Wood",
          "elementDurability": 100.0,
          "onRemoved": [
            {
              "$type": "SetAnimatorBool",
              "boolID": "BeHitFire",
              "value": true
            },
            {
              "$type": "ApplyModifier",
              "modifierName": "PumpkinBomb_Explode"
            }
          ],
          "onBeingHit": [
            {
              "$type": "RemoveModifier",
              "predicates": [
                {
                  "$type": "ByHitElement",
                  "element": "Fire"
                }
              ],
              "modifierName": "PumpkinBomb"
            }
          ]
        },
        "PumpkinBomb_Explode": {
          "modifierName": "",
          "duration": 3.0,
          "elementDurability": 100.0,
          "onAdded": [
            {
              "$type": "AttachEffect",
              "rotationDampTime": "Eff_BombPlant_Ignite",
              "PPPDJGDDOGD": 1.0,
              "AJDILHJFNKE": -1.0
            }
          ],
          "onRemoved": [
            {
              "$type": "TriggerAttackEvent",
              "attackEvent": {
                "attackPattern": {
                  "$type": "ConfigAttackSphere",
                  "triggerType": "TriggerNoRepeat",
                  "born": {
                    "$type": "ConfigBornByTarget",
                    "offset": {
                      "x": 0.0,
                      "y": 0.800000011920929,
                      "z": 0.0
                    }
                  },
                  "radius": 4.0
                },
                "attackInfo": {
                  "attackTag": "",
                  "attenuationTag": "",
                  "attenuationGroup": "default",
                  "attackProperty": {
                    "actorGrassSubHurtDelta": 1.0,
                    "actorWindSubHurtDelta": 0.0,
                    "elementType": "Fire",
                    "elementDurability": 50.0,
                    "strikeType": "Blunt",
                    "GLKMCMDJBIK": 0.0
                  },
                  "hitPattern": {
                    "onHitEffectName": "default",
                    "hitImpulseY": "",
                    "hitImpulseType": "LV5",
                    "hitHaltTimeScale": 0.05000000074505806
                  },
                  "forceCameraShake": true,
                  "cameraShake": {
                    "shakeRange": 0.36000001430511475,
                    "shakeTime": 0.36000001430511475
                  }
                }
              },
              "targetType": "All"
            },
            {
              "$type": "IIDNEOBNEJI"
            },
            {
              "$type": "FireEffect",
              "rotationDampTime": "Eff_BombPlant_Explode",
              "born": {
                "$type": "ConfigBornByTarget",
                "offset": {
                  "x": 0.0,
                  "y": 1.399999976158142,
                  "z": 0.0
                }
              },
              "PPPDJGDDOGD": 1.0,
              "AJDILHJFNKE": -1.0
            },
            {
              "$type": "KillSelf",
              "duration": 1.0,
              "hideEntity": true
            }
          ]
        }
      },
      "onAdded": [
        {
          "$type": "AttachModifier",
          "modifierName": "PumpkinBomb"
        }
      ],
      "onFieldEnter": [
        {
          "$type": "RemoveModifier",
          "modifierName": "PumpkinBomb"
        }
      ]
    }
  },
  {
    "Default": {
      "$type": "ConfigAbility",
      "abilityName": "SceneObj_CombatInteraction_Test_BombBox",
      "modifiers": {
        "BombBoxLoop": {
          "modifierName": "",
          "elementType": "Wood",
          "elementDurability": 1.0,
          "onRemoved": [
            {
              "$type": "FireEffect",
              "rotationDampTime": "Eff_SceneObj_BombBarrel_01_Explode",
              "PPPDJGDDOGD": 1.0,
              "AJDILHJFNKE": -1.0
            },
            {
              "$type": "IIDNEOBNEJI"
            },
            {
              "$type": "TriggerAttackEvent",
              "attackEvent": {
                "attackPattern": {
                  "$type": "ConfigAttackSphere",
                  "triggerType": "TriggerNoRepeat",
                  "ignoreMassive": true,
                  "born": {
                    "$type": "ConfigBornByTarget",
                    "offset": {
                      "x": 0.0,
                      "y": 0.5,
                      "z": 0.0
                    }
                  },
                  "radius": 6.0
                },
                "attackInfo": {
                  "attackTag": "",
                  "attenuationTag": "",
                  "attenuationGroup": "default",
                  "attackProperty": {
                    "actorGrassSubHurtDelta": 1.0,
                    "actorWindSubHurtDelta": 0.0,
                    "elementType": "Fire",
                    "elementDurability": 50.0,
                    "strikeType": "Blunt",
                    "enBreak": 9999999.0,
                    "GLKMCMDJBIK": 0.0
                  },
                  "hitPattern": {
                    "onHitEffectName": "default",
                    "hitImpulseY": "",
                    "hitImpulseType": "LV6",
                    "hitHaltTimeScale": 0.05000000074505806
                  },
                  "forceCameraShake": true,
                  "cameraShake": {
                    "shakeRange": 0.36000001430511475,
                    "shakeTime": 0.36000001430511475
                  }
                }
              },
              "targetType": "All"
            },
            {
              "$type": "TriggerAttackEvent",
              "attackEvent": {
                "attackPattern": {
                  "$type": "ConfigAttackSphere",
                  "triggerType": "TriggerNoRepeat",
                  "born": {
                    "$type": "ConfigBornByTarget"
                  },
                  "radius": 2.0
                },
                "attackInfo": {
                  "attackTag": "",
                  "attenuationTag": "",
                  "attenuationGroup": "default",
                  "attackProperty": {
                    "actorGrassSubHurtDelta": 0.0,
                    "actorWindSubHurtDelta": 0.0,
                    "elementType": "Fire",
                    "elementDurability": 50.0,
                    "strikeType": "Blunt",
                    "enBreak": 0.0,
                    "GLKMCMDJBIK": 0.0
                  }
                }
              },
              "targetType": "All"
            },
            {
              "$type": "KillSelf",
              "duration": 1.0,
              "hideEntity": true
            }
          ],
          "onBeingHit": [
            {
              "$type": "RemoveModifier",
              "predicates": [
                {
                  "$type": "ByNot",
                  "predicates": [
                    {
                      "$type": "ByHitDamage",
                      "logic": "Equal",
                      "damage": 0.0
                    }
                  ]
                }
              ],
              "modifierName": "BombBoxLoop"
            }
          ],
          "onCrash": [
            {
              "$type": "RemoveModifier",
              "modifierName": "BombBoxLoop"
            }
          ]
        }
      },
      "onAdded": [
        {
          "$type": "ApplyModifier",
          "modifierName": "BombBoxLoop"
        }
      ]
    }
  },
  {
    "Default": {
      "$type": "ConfigAbility",
      "abilityName": "SceneObj_CombatInteraction_Test_BombBox01",
      "abilityMixins": [
        {
          "$type": "AttachToGadgetStateMixin",
          "gadgetState": 201,
          "modifierName": "DestorySelf"
        }
      ],
      "modifiers": {
        "DestorySelf": {
          "modifierName": "",
          "elementDurability": 100.0,
          "onAdded": [
            {
              "$type": "RemoveModifier",
              "modifierName": "BombBoxLoop01"
            }
          ]
        },
        "BombBoxLoop01": {
          "modifierName": "",
          "elementType": "Wood",
          "elementDurability": 1.0,
          "onRemoved": [
            {
              "$type": "FireEffect",
              "rotationDampTime": "Eff_SceneObj_BombBarrel_01_Explode",
              "PPPDJGDDOGD": 1.0,
              "AJDILHJFNKE": -1.0
            },
            {
              "$type": "IIDNEOBNEJI"
            },
            {
              "$type": "TriggerAttackEvent",
              "attackEvent": {
                "attackPattern": {
                  "$type": "ConfigAttackSphere",
                  "triggerType": "TriggerNoRepeat",
                  "ignoreMassive": true,
                  "born": {
                    "$type": "ConfigBornByTarget",
                    "offset": {
                      "x": 0.0,
                      "y": 0.5,
                      "z": 0.0
                    }
                  },
                  "radius": 6.0
                },
                "attackInfo": {
                  "attackTag": "",
                  "attenuationTag": "",
                  "attenuationGroup": "default",
                  "attackProperty": {
                    "actorGrassSubHurtDelta": 1.0,
                    "actorWindSubHurtDelta": 0.0,
                    "elementType": "Fire",
                    "elementDurability": 50.0,
                    "strikeType": "Blunt",
                    "enBreak": 9999999.0,
                    "GLKMCMDJBIK": 0.0
                  },
                  "hitPattern": {
                    "onHitEffectName": "default",
                    "hitImpulseY": "",
                    "hitImpulseType": "LV6",
                    "hitHaltTimeScale": 0.05000000074505806
                  },
                  "forceCameraShake": true,
                  "cameraShake": {
                    "shakeRange": 0.36000001430511475,
                    "shakeTime": 0.36000001430511475
                  }
                }
              },
              "targetType": "All"
            },
            {
              "$type": "TriggerAttackEvent",
              "attackEvent": {
                "attackPattern": {
                  "$type": "ConfigAttackSphere",
                  "triggerType": "TriggerNoRepeat",
                  "born": {
                    "$type": "ConfigBornByTarget"
                  },
                  "radius": 2.0
                },
                "attackInfo": {
                  "attackTag": "",
                  "attenuationTag": "",
                  "attenuationGroup": "default",
                  "attackProperty": {
                    "actorGrassSubHurtDelta": 0.0,
                    "actorWindSubHurtDelta": 0.0,
                    "elementType": "Fire",
                    "elementDurability": 50.0,
                    "strikeType": "Blunt",
                    "enBreak": 0.0,
                    "GLKMCMDJBIK": 0.0
                  }
                }
              },
              "targetType": "All"
            },
            {
              "$type": "KillSelf",
              "duration": 1.0,
              "hideEntity": true
            }
          ],
          "onBeingHit": [
            {
              "$type": "RemoveModifier",
              "predicates": [
                {
                  "$type": "ByNot",
                  "predicates": [
                    {
                      "$type": "ByHitDamage",
                      "logic": "Equal",
                      "damage": 0.0
                    }
                  ]
                }
              ],
              "modifierName": "BombBoxLoop01"
            }
          ],
          "onKill": [
            {
              "$type": "RemoveModifier",
              "modifierName": "BombBoxLoop01"
            }
          ],
          "onCrash": [
            {
              "$type": "RemoveModifier",
              "modifierName": "BombBoxLoop01"
            }
          ]
        }
      },
      "onAdded": [
        {
          "$type": "ApplyModifier",
          "modifierName": "BombBoxLoop01"
        }
      ]
    }
  },
  {
    "Default": {
      "$type": "ConfigAbility",
      "abilityName": "SceneObj_CombatInteraction_ElementSmoke",
      "modifiers": {
        "ElementSmoke": {
          "modifierName": "",
          "elementDurability": 100.0,
          "onRemoved": [
            {
              "$type": "FireEffect",
              "rotationDampTime": "Eff_Quest_ElementSmoke_Die",
              "PPPDJGDDOGD": 1.0,
              "AJDILHJFNKE": -1.0
            },
            {
              "$type": "KillSelf"
            }
          ],
          "onBeingHit": [
            {
              "$type": "RemoveModifier",
              "predicates": [
                {
                  "$type": "ByHitElement",
                  "element": "Wind"
                }
              ],
              "modifierName": "ElementSmoke"
            }
          ],
          "onKill": [
            {
              "$type": "RemoveModifier",
              "modifierName": "ElementSmoke"
            }
          ]
        }
      },
      "onAdded": [
        {
          "$type": "ApplyModifier",
          "modifierName": "ElementSmoke"
        }
      ]
    }
  },
  {
    "Default": {
      "$type": "ConfigAbility",
      "abilityName": "SceneObj_Area_Common_Property_Prop_ElementSmokeFormal_01",
      "modifiers": {
        "ElementSmoke": {
          "modifierName": "",
          "elementDurability": 100.0,
          "onAdded": [
            {
              "$type": "AttachEffect",
              "rotationDampTime": "Eff_Quest_Sitelntercat",
              "PPPDJGDDOGD": 1.0,
              "AJDILHJFNKE": -1.0
            }
          ],
          "onRemoved": [
            {
              "$type": "FireEffect",
              "rotationDampTime": "Eff_Quest_ElementSmoke_Die",
              "PPPDJGDDOGD": 1.0,
              "AJDILHJFNKE": -1.0
            },
            {
              "$type": "KillSelf"
            }
          ],
          "onBeingHit": [
            {
              "$type": "RemoveModifier",
              "predicates": [
                {
                  "$type": "ByHitElement",
                  "element": "Wind"
                }
              ],
              "modifierName": "ElementSmoke"
            }
          ],
          "onKill": [
            {
              "$type": "RemoveModifier",
              "modifierName": "ElementSmoke"
            }
          ]
        }
      },
      "onAdded": [
        {
          "$type": "ApplyModifier",
          "modifierName": "ElementSmoke"
        }
      ]
    }
  },
  {
    "Default": {
      "$type": "ConfigAbility",
      "abilityName": "SceneObj_Area_Dq_Property_Prop_ElectricMist_01",
      "modifiers": {
        "ElementSmoke": {
          "modifierName": "",
          "elementDurability": 100.0,
          "onAdded": [
            {
              "$type": "AttachEffect",
              "rotationDampTime": "Eff_SceneObj_ElectricMist_01",
              "PPPDJGDDOGD": 1.0,
              "AJDILHJFNKE": -1.0
            }
          ],
          "onRemoved": [
            {
              "$type": "FireEffect",
              "rotationDampTime": "Eff_SceneObj_ElectricMist_01_Disappear",
              "PPPDJGDDOGD": 1.0,
              "AJDILHJFNKE": -1.0
            },
            {
              "$type": "KillSelf"
            }
          ],
          "onBeingHit": [
            {
              "$type": "RemoveModifier",
              "predicates": [
                {
                  "$type": "ByHitElement",
                  "element": "Wind"
                }
              ],
              "modifierName": "ElementSmoke"
            }
          ],
          "onKill": [
            {
              "$type": "RemoveModifier",
              "modifierName": "ElementSmoke"
            }
          ]
        }
      },
      "onAdded": [
        {
          "$type": "ApplyModifier",
          "modifierName": "ElementSmoke"
        }
      ]
    }
  },
  {
    "Default": {
      "$type": "ConfigAbility",
      "abilityName": "SceneObj_CombatInteraction_ElectricFlora",
      "modifiers": {
        "ElectricFlora": {
          "modifierName": "",
          "elementDurability": 100.0,
          "onRemoved": [
            {
              "$type": "SetAnimatorBool",
              "boolID": "BeHitFire",
              "value": true
            },
            {
              "$type": "ApplyModifier",
              "modifierName": "ElectricFlora_Explode"
            }
          ],
          "onBeingHit": [
            {
              "$type": "RemoveModifier",
              "modifierName": "ElectricFlora"
            }
          ]
        },
        "ElectricFlora_Explode": {
          "modifierName": "",
          "duration": 3.0,
          "elementDurability": 100.0,
          "onAdded": [
            {
              "$type": "AttachEffect",
              "rotationDampTime": "Eff_Ani_FlickerWave_Bul",
              "PPPDJGDDOGD": 1.0,
              "AJDILHJFNKE": -1.0
            }
          ],
          "onRemoved": [
            {
              "$type": "TriggerAttackEvent",
              "attackEvent": {
                "attackPattern": {
                  "$type": "ConfigAttackSphere",
                  "triggerType": "TriggerNoRepeat",
                  "born": {
                    "$type": "ConfigBornByTarget",
                    "offset": {
                      "x": 0.0,
                      "y": 0.800000011920929,
                      "z": 0.0
                    }
                  },
                  "radius": 1.0
                },
                "attackInfo": {
                  "attackTag": "",
                  "attenuationTag": "",
                  "attenuationGroup": "default",
                  "attackProperty": {
                    "actorGrassSubHurtDelta": 1.0,
                    "actorWindSubHurtDelta": 0.0,
                    "elementType": "Electric",
                    "elementDurability": 50.0,
                    "strikeType": "Blunt",
                    "enBreak": 0.0,
                    "GLKMCMDJBIK": 0.0
                  },
                  "hitPattern": {
                    "onHitEffectName": "default",
                    "hitImpulseY": "",
                    "hitImpulseType": "LV0",
                    "hitHaltTimeScale": 0.05000000074505806
                  },
                  "forceCameraShake": true,
                  "cameraShake": {
                    "shakeRange": 0.36000001430511475,
                    "shakeTime": 0.36000001430511475
                  }
                }
              },
              "targetType": "All"
            },
            {
              "$type": "NMKOCGOGEBK",
              "otherTargets": {
                "$type": "SelectTargetsByShape",
                "shapeName": "CircleR1.5",
                "campTargetType": "Enemy",
                "doOffStage": 1.0
              }
            },
            {
              "$type": "IIDNEOBNEJI"
            },
            {
              "$type": "FireEffect",
              "rotationDampTime": "Eff_BombPlant_Explode",
              "born": {
                "$type": "ConfigBornByTarget",
                "offset": {
                  "x": 0.0,
                  "y": 1.399999976158142,
                  "z": 0.0
                }
              },
              "PPPDJGDDOGD": 1.0,
              "AJDILHJFNKE": -1.0
            },
            {
              "$type": "KillSelf"
            }
          ]
        }
      },
      "onAdded": [
        {
          "$type": "AttachModifier",
          "modifierName": "ElectricFlora"
        }
      ],
      "onFieldEnter": [
        {
          "$type": "RemoveModifier",
          "modifierName": "ElectricFlora"
        }
      ]
    }
  }
]
