[
  {
    "Default": {
      "$type": "ConfigAbility",
      "abilityName": "SceneObj_Gear_Gate_Common_RockGate",
      "abilityMixins": [
        {
          "$type": "AttachToGadgetStateMixin",
          "modifierName": "Idle"
        }
      ],
      "modifiers": {
        "Idle": {
          "modifierName": "",
          "elementDurability": 100.0,
          "onRemoved": [
            {
              "$type": "FireEffect",
              "rotationDampTime": "Eff_SceneObj_CommonRockGate_Open",
              "PPPDJGDDOGD": 1.0,
              "AJDILHJFNKE": -1.0
            }
          ]
        }
      }
    }
  },
  {
    "Default": {
      "$type": "ConfigAbility",
      "abilityName": "SceneObj_Gear_Gate_AncientGate",
      "abilityMixins": [
        {
          "$type": "AttachToGadgetStateMixin",
          "gadgetState": 201,
          "modifierName": "Active"
        }
      ],
      "modifiers": {
        "Active": {
          "modifierName": "",
          "elementDurability": 100.0,
          "onAdded": [
            {
              "$type": "FireEffect",
              "rotationDampTime": "Eff_SceneObj_AncientGate_01_Open",
              "PPPDJGDDOGD": 1.0,
              "AJDILHJFNKE": -1.0
            }
          ]
        }
      }
    }
  },
  {
    "Default": {
      "$type": "ConfigAbility",
      "abilityName": "SceneObj_Gear_Gate_Temple01",
      "abilityMixins": [
        {
          "$type": "AttachToGadgetStateMixin",
          "gadgetState": 201,
          "modifierName": "Active"
        }
      ],
      "modifiers": {
        "Active": {
          "modifierName": "",
          "elementDurability": 100.0,
          "onAdded": [
            {
              "$type": "FireEffect",
              "rotationDampTime": "Eff_SceneObj_TempleUnlock_01",
              "PPPDJGDDOGD": 1.0,
              "AJDILHJFNKE": -1.0
            }
          ]
        }
      }
    }
  },
  {
    "Default": {
      "$type": "ConfigAbility",
      "abilityName": "SceneObj_Gear_Gate_Temple01_Ly",
      "abilityMixins": [
        {
          "$type": "AttachToGadgetStateMixin",
          "gadgetState": 201,
          "modifierName": "Active"
        }
      ],
      "modifiers": {
        "Active": {
          "modifierName": "",
          "elementDurability": 100.0,
          "onAdded": [
            {
              "$type": "FireEffect",
              "rotationDampTime": "Eff_SceneObj_TempleUnlock_01_Ly",
              "PPPDJGDDOGD": 1.0,
              "AJDILHJFNKE": -1.0
            }
          ]
        }
      }
    }
  },
  {
    "Default": {
      "$type": "ConfigAbility",
      "abilityName": "SceneObj_Gear_Gate_Temple01_dq",
      "abilityMixins": [
        {
          "$type": "AttachToGadgetStateMixin",
          "gadgetState": 201,
          "modifierName": "Active"
        }
      ],
      "modifiers": {
        "Active": {
          "modifierName": "",
          "elementDurability": 100.0,
          "onAdded": [
            {
              "$type": "FireEffect",
              "rotationDampTime": "Eff_SceneObj_TempleUnlock_01_Dq",
              "PPPDJGDDOGD": 1.0,
              "AJDILHJFNKE": -1.0
            }
          ]
        }
      }
    }
  },
  {
    "Default": {
      "$type": "ConfigAbility",
      "abilityName": "SceneObj_Gear_Gate_Temple01_Xm",
      "abilityMixins": [
        {
          "$type": "AttachToGadgetStateMixin",
          "modifierName": "DefaultState"
        },
        {
          "$type": "AttachToGadgetStateMixin",
          "gadgetState": 201,
          "modifierName": "Active"
        }
      ],
      "modifiers": {
        "DefaultState": {
          "modifierName": "",
          "elementDurability": 100.0,
          "onAdded": [
            {
              "$type": "AttachEffect",
              "rotationDampTime": "Eff_SceneObj_Temple01_Xm_Lock",
              "PPPDJGDDOGD": 1.0,
              "AJDILHJFNKE": -1.0
            }
          ]
        },
        "Active": {
          "modifierName": "",
          "elementDurability": 100.0,
          "onAdded": [
            {
              "$type": "FireEffect",
              "rotationDampTime": "Eff_SceneObj_Temple01_Xm_Unlock",
              "PPPDJGDDOGD": 1.0,
              "AJDILHJFNKE": -1.0
            }
          ]
        }
      }
    }
  },
  {
    "Default": {
      "$type": "ConfigAbility",
      "abilityName": "SceneObj_Gear_Gate_Temple01_Fd",
      "abilityMixins": [
        {
          "$type": "AttachToGadgetStateMixin",
          "gadgetState": 201,
          "modifierName": "Active"
        },
        {
          "$type": "AttachModifierToSelfGlobalValueNoInitMixin",
          "globalValueKey": "SGV_EnvironmentType",
          "valueSteps": [1.5, 2.5],
          "modifierNameSteps": ["InteractLvUp"],
          "NMCLMHFBALJ": true
        }
      ],
      "modifiers": {
        "Active": {
          "modifierName": "",
          "elementDurability": 100.0,
          "onAdded": [
            {
              "$type": "FireEffect",
              "rotationDampTime": "Eff_SceneObj_TempleUnlock_01_Fontaine",
              "PPPDJGDDOGD": 1.0,
              "AJDILHJFNKE": -1.0
            }
          ]
        },
        "InteractLvUp": {
          "modifierName": "",
          "elementDurability": 100.0,
          "modifierMixins": [
            {
              "$type": "OELBEDLJCNC",
              "IAPBBCKJIHE": 7.0,
              "HENIPAHGMOD": 7.0
            }
          ]
        }
      }
    }
  },
  {
    "Default": {
      "$type": "ConfigAbility",
      "abilityName": "SceneObj_Gear_Gate_Temple01_Nt",
      "abilityMixins": [
        {
          "$type": "AttachToGadgetStateMixin",
          "modifierName": "DefaultState"
        },
        {
          "$type": "AttachToGadgetStateMixin",
          "gadgetState": 201,
          "modifierName": "Active"
        }
      ],
      "modifiers": {
        "DefaultState": {
          "modifierName": "",
          "elementDurability": 100.0
        },
        "Active": {
          "modifierName": "",
          "elementDurability": 100.0,
          "onAdded": [
            {
              "$type": "FireEffect",
              "rotationDampTime": "Eff_SceneObj_TempleUnlock_01_Nt",
              "PPPDJGDDOGD": 1.0,
              "AJDILHJFNKE": -1.0
            }
          ]
        }
      }
    }
  },
  {
    "Default": {
      "$type": "ConfigAbility",
      "abilityName": "SceneObj_Gear_Gate_Temple02_Electric",
      "onAdded": [
        {
          "$type": "AttachEffect",
          "rotationDampTime": "Eff_SceneObj_Gear_Temple_02_Electric",
          "PPPDJGDDOGD": 1.0,
          "AJDILHJFNKE": -1.0
        }
      ]
    }
  },
  {
    "Default": {
      "$type": "ConfigAbility",
      "abilityName": "SceneObj_Gear_Gate_Temple02_Rock",
      "onAdded": [
        {
          "$type": "AttachEffect",
          "rotationDampTime": "Eff_SceneObj_Gear_Temple_02_Rock",
          "PPPDJGDDOGD": 1.0,
          "AJDILHJFNKE": -1.0
        }
      ]
    }
  },
  {
    "Default": {
      "$type": "ConfigAbility",
      "abilityName": "SceneObj_Gear_Gate_Temple02_Wind",
      "onAdded": [
        {
          "$type": "AttachEffect",
          "rotationDampTime": "Eff_SceneObj_Gear_Temple_02_Wind",
          "PPPDJGDDOGD": 1.0,
          "AJDILHJFNKE": -1.0
        }
      ]
    }
  },
  {
    "Default": {
      "$type": "ConfigAbility",
      "abilityName": "SceneObj_Homeworld_Ani_Interior_Common_Room_Door_01_WhiteBox_Ability",
      "onFieldEnter": [
        {
          "$type": "Predicated",
          "target": "Target",
          "targetPredicates": [
            {
              "$type": "FCOADDGEDOH",
              "logic": "Lesser",
              "value": 90.0
            }
          ],
          "successActions": [
            {
              "$type": "SetAnimatorBool",
              "boolID": "Open",
              "value": true
            }
          ],
          "failActions": [
            {
              "$type": "SetAnimatorBool",
              "boolID": "In",
              "value": true
            }
          ]
        }
      ],
      "onFieldExit": [
        {
          "$type": "SetAnimatorBool",
          "boolID": "Open"
        },
        {
          "$type": "SetAnimatorBool",
          "boolID": "In"
        }
      ]
    }
  },
  {
    "Default": {
      "$type": "ConfigAbility",
      "abilityName": "SceneObj_Area_Ly_Property_Build_DahakaEntry_01_Ability",
      "abilityMixins": [
        {
          "$type": "AttachToGadgetStateMixin",
          "gadgetState": 201,
          "modifierName": "IceFireModifier"
        },
        {
          "$type": "AttachToGadgetStateMixin",
          "gadgetState": 202,
          "modifierName": "IceWaterModifier"
        },
        {
          "$type": "AttachToGadgetStateMixin",
          "gadgetState": 203,
          "modifierName": "ElectricFireModifier"
        },
        {
          "$type": "AttachToGadgetStateMixin",
          "gadgetState": 204,
          "modifierName": "ElectricWaterModifier"
        }
      ],
      "modifiers": {
        "IceFireModifier": {
          "modifierName": "",
          "elementDurability": 100.0,
          "onAdded": [
            {
              "$type": "AttachEffect",
              "rotationDampTime": "Eff_SceneObj_DahakaEntrySymbol_Ice",
              "born": {
                "$type": "ConfigBornByAttachPoint",
                "attachPointName": "CharNode01"
              },
              "PPPDJGDDOGD": 1.0,
              "AJDILHJFNKE": -1.0
            },
            {
              "$type": "AttachEffect",
              "rotationDampTime": "Eff_SceneObj_DahakaEntrySymbol_Fire",
              "born": {
                "$type": "ConfigBornByAttachPoint",
                "attachPointName": "CharNode02"
              },
              "PPPDJGDDOGD": 1.0,
              "AJDILHJFNKE": -1.0
            }
          ]
        },
        "IceWaterModifier": {
          "modifierName": "",
          "elementDurability": 100.0,
          "onAdded": [
            {
              "$type": "AttachEffect",
              "rotationDampTime": "Eff_SceneObj_DahakaEntrySymbol_Ice",
              "born": {
                "$type": "ConfigBornByAttachPoint",
                "attachPointName": "CharNode01"
              },
              "PPPDJGDDOGD": 1.0,
              "AJDILHJFNKE": -1.0
            },
            {
              "$type": "AttachEffect",
              "rotationDampTime": "Eff_SceneObj_DahakaEntrySymbol_Water",
              "born": {
                "$type": "ConfigBornByAttachPoint",
                "attachPointName": "CharNode02"
              },
              "PPPDJGDDOGD": 1.0,
              "AJDILHJFNKE": -1.0
            }
          ]
        },
        "ElectricFireModifier": {
          "modifierName": "",
          "elementDurability": 100.0,
          "onAdded": [
            {
              "$type": "AttachEffect",
              "rotationDampTime": "Eff_SceneObj_DahakaEntrySymbol_Electric",
              "born": {
                "$type": "ConfigBornByAttachPoint",
                "attachPointName": "CharNode01"
              },
              "PPPDJGDDOGD": 1.0,
              "AJDILHJFNKE": -1.0
            },
            {
              "$type": "AttachEffect",
              "rotationDampTime": "Eff_SceneObj_DahakaEntrySymbol_Fire",
              "born": {
                "$type": "ConfigBornByAttachPoint",
                "attachPointName": "CharNode02"
              },
              "PPPDJGDDOGD": 1.0,
              "AJDILHJFNKE": -1.0
            }
          ]
        },
        "ElectricWaterModifier": {
          "modifierName": "",
          "elementDurability": 100.0,
          "onAdded": [
            {
              "$type": "AttachEffect",
              "rotationDampTime": "Eff_SceneObj_DahakaEntrySymbol_Electric",
              "born": {
                "$type": "ConfigBornByAttachPoint",
                "attachPointName": "CharNode01"
              },
              "PPPDJGDDOGD": 1.0,
              "AJDILHJFNKE": -1.0
            },
            {
              "$type": "AttachEffect",
              "rotationDampTime": "Eff_SceneObj_DahakaEntrySymbol_Water",
              "born": {
                "$type": "ConfigBornByAttachPoint",
                "attachPointName": "CharNode02"
              },
              "PPPDJGDDOGD": 1.0,
              "AJDILHJFNKE": -1.0
            }
          ]
        }
      }
    }
  },
  {
    "Default": {
      "$type": "ConfigAbility",
      "abilityName": "SceneObj_Area_Dq_Property_Ani_Prop_CommonRockGate_03",
      "abilityMixins": [
        {
          "$type": "AttachToGadgetStateMixin",
          "modifierName": "Idle"
        }
      ],
      "modifiers": {
        "Idle": {
          "modifierName": "",
          "elementDurability": 100.0,
          "onRemoved": [
            {
              "$type": "FireEffect",
              "rotationDampTime": "Eff_SceneObj_CommonRockGate_03_Open",
              "born": {
                "$type": "ConfigBornByAttachPoint",
                "attachPointName": "EffectNode"
              },
              "PPPDJGDDOGD": 1.0,
              "AJDILHJFNKE": -1.0
            }
          ]
        }
      }
    }
  },
  {
    "Default": {
      "$type": "ConfigAbility",
      "abilityName": "SceneObj_Area_Dq_Property_Ani_Build_CommonRockGate_04",
      "abilityMixins": [
        {
          "$type": "AttachToGadgetStateMixin",
          "modifierName": "Idle"
        }
      ],
      "modifiers": {
        "Idle": {
          "modifierName": "",
          "elementDurability": 100.0,
          "onRemoved": [
            {
              "$type": "FireEffect",
              "rotationDampTime": "Eff_SceneObj_CommonRockGate_04_Open",
              "PPPDJGDDOGD": 1.0,
              "AJDILHJFNKE": -1.0
            }
          ]
        }
      }
    }
  },
  {
    "Default": {
      "$type": "ConfigAbility",
      "abilityName": "SceneObj_Area_Dq_Property_Ani_Prop_RuinTrapDoor_01",
      "abilityMixins": [
        {
          "$type": "AttachToGadgetStateMixin",
          "gadgetState": 201,
          "modifierName": "Close"
        },
        {
          "$type": "AttachToGadgetStateMixin",
          "gadgetState": 203,
          "modifierName": "Open"
        }
      ],
      "modifiers": {
        "Open": {
          "modifierName": "",
          "elementDurability": 100.0,
          "onAdded": [
            {
              "$type": "CLKGEHMNIEF",
              "transformNames": ["Collider"]
            }
          ],
          "onRemoved": [
            {
              "$type": "FireEffect",
              "rotationDampTime": "Eff_SceneObj_RuinGate_01_Close",
              "PPPDJGDDOGD": 1.0,
              "AJDILHJFNKE": -1.0
            }
          ]
        },
        "Close": {
          "modifierName": "",
          "elementDurability": 100.0,
          "onAdded": [
            {
              "$type": "CLKGEHMNIEF",
              "transformNames": ["Collider"],
              "setEnable": true
            },
            {
              "$type": "SetGlobalValue",
              "value": 0.0,
              "key": "GV_ReginSignal",
              "maxValue": 0.0,
              "minValue": 0.0
            }
          ],
          "onRemoved": [
            {
              "$type": "FireEffect",
              "rotationDampTime": "Eff_SceneObj_RuinGate_01_Open",
              "PPPDJGDDOGD": 1.0,
              "AJDILHJFNKE": -1.0
            }
          ]
        },
        "Receiver": {
          "modifierName": "",
          "elementDurability": 100.0,
          "modifierMixins": [
            {
              "$type": "AttachModifierToSelfGlobalValueMixin",
              "globalValueKey": "GV_ReginSignal",
              "gvInTalk": 0.0,
              "valueSteps": [0.5, 20.0],
              "modifierNameSteps": ["OpenByGV"]
            }
          ]
        },
        "OpenByGV": {
          "modifierName": "",
          "elementDurability": 100.0,
          "onAdded": [
            {
              "$type": "ExecuteGadgetLua",
              "param1": 203
            }
          ]
        }
      },
      "onAdded": [
        {
          "$type": "SetGlobalValue",
          "value": 1.0,
          "key": "GV_ReginGadget",
          "maxValue": 0.0,
          "minValue": 0.0
        },
        {
          "$type": "SetGlobalValue",
          "value": 0.0,
          "key": "GV_ReginSignal",
          "maxValue": 0.0,
          "minValue": 0.0
        },
        {
          "$type": "ApplyModifier",
          "modifierName": "Receiver"
        }
      ]
    }
  }
]
