[
  {
    "Default": {
      "$type": "ConfigAbility",
      "abilityName": "SceneObj_Area_Fd_Property_Ani_Prop_LanternFishPacman_WaterGlideChampOrb_01",
      "abilityMixins": [
        {
          "$type": "AttachToGadgetStateMixin",
          "modifierName": "Normal"
        },
        {
          "$type": "AttachToGadgetStateMixin",
          "gadgetState": 201,
          "modifierName": "Hide"
        },
        {
          "$type": "AttachToGadgetStateMixin",
          "gadgetState": 202,
          "modifierName": "Hide"
        }
      ],
      "modifiers": {
        "Normal": {
          "modifierName": "",
          "elementDurability": 100.0,
          "onAdded": [
            {
              "$type": "AttachEffect",
              "rotationDampTime": "Eff_SceneObj_FontaineGlideChampOrb_01",
              "PPPDJGDDOGD": 1.0,
              "AJDILHJFNKE": -1.0
            }
          ]
        },
        "Hide": {
          "modifierName": "",
          "elementDurability": 100.0
        }
      },
      "onFieldEnter": [
        {
          "$type": "Predicated",
          "target": "Target",
          "targetPredicates": [
            {
              "$type": "ByEntityTypes",
              "entityTypes": ["Avatar"]
            },
            {
              "$type": "HNLCJOPBDLC",
              "target": "Self"
            }
          ],
          "successActions": [
            {
              "$type": "FireEffect",
              "rotationDampTime": "Eff_SceneObj_FontaineGlideChampOrb_01_Smash",
              "PPPDJGDDOGD": 1.0,
              "AJDILHJFNKE": -1.0
            },
            {
              "$type": "AHPEKICBIIL",
              "luaCallType": "FromGroup",
              "funcName": "SLC_Avatar_PickUp",
              "param1": 0.0,
              "MGAMDEHMCOL": 0.0,
              "MMHOHAOGPLP": 0.0
            },
            {
              "$type": "HPIDNBEGJLL",
              "state": 201
            }
          ],
          "failActions": [
            {
              "$type": "Predicated",
              "target": "Target",
              "targetPredicates": [
                {
                  "$type": "ByEntityTypes",
                  "entityTypes": ["Platform"]
                },
                {
                  "$type": "HNLCJOPBDLC",
                  "target": "Self"
                }
              ],
              "successActions": [
                {
                  "$type": "FireEffect",
                  "rotationDampTime": "Eff_SceneObj_FontaineGlideChampOrb_01_Smash",
                  "PPPDJGDDOGD": 1.0,
                  "AJDILHJFNKE": -1.0
                },
                {
                  "$type": "AHPEKICBIIL",
                  "luaCallType": "FromGroup",
                  "funcName": "SLC_RemusLanternFish_PickUp",
                  "param1": 0.0,
                  "MGAMDEHMCOL": 0.0,
                  "MMHOHAOGPLP": 0.0
                },
                {
                  "$type": "HPIDNBEGJLL",
                  "state": 202
                }
              ]
            }
          ]
        }
      ]
    }
  },
  {
    "Default": {
      "$type": "ConfigAbility",
      "abilityName": "SceneObj_Area_Fd_Property_Ani_Prop_LanternFishPacman_RemusLanternFish_01",
      "abilityMixins": [
        {
          "$type": "KODOFEHIIGE",
          "moveModifiers": ["move"],
          "stopModifiers": ["stop"]
        },
        {
          "$type": "AttachToStateIDMixin",
          "stateIDs": ["OnStandby"],
          "modifierName": "IsStandBy",
          "isCheckOnAttach": true,
          "DGFCLAIDIFI": ""
        },
        {
          "$type": "AttachToStateIDMixin",
          "stateIDs": ["OnStill"],
          "modifierName": "IsStill",
          "isCheckOnAttach": true,
          "DGFCLAIDIFI": ""
        },
        {
          "$type": "AttachToStateIDMixin",
          "stateIDs": ["OnAlert"],
          "modifierName": "IsAlert",
          "isCheckOnAttach": true,
          "CODCDFCFLJF": 3,
          "DGFCLAIDIFI": ""
        },
        {
          "$type": "AttachToStateIDMixin",
          "stateIDs": ["OnWaring"],
          "modifierName": "IsWaring",
          "isCheckOnAttach": true,
          "CODCDFCFLJF": 3,
          "DGFCLAIDIFI": ""
        },
        {
          "$type": "AttachToStateIDMixin",
          "stateIDs": ["DoorOpen"],
          "modifierName": "IsDoorOpen",
          "isCheckOnAttach": true,
          "CODCDFCFLJF": 1,
          "DGFCLAIDIFI": ""
        },
        {
          "$type": "AttachToStateIDMixin",
          "stateIDs": ["DoorClose"],
          "modifierName": "IsDoorClose",
          "isCheckOnAttach": true,
          "CODCDFCFLJF": 1,
          "DGFCLAIDIFI": ""
        },
        {
          "$type": "AttachModifierToSelfGlobalValueNoInitMixin",
          "globalValueKey": "IsLightOpen",
          "valueSteps": [-0.5, 0.5, 1.5],
          "modifierNameSteps": ["LightClose", "LightOpen"]
        },
        {
          "$type": "AttachToGadgetStateMixin",
          "modifierName": "MouthOff"
        },
        {
          "$type": "AttachToGadgetStateMixin",
          "gadgetState": 901,
          "modifierName": "MouthOn"
        }
      ],
      "HKFPCGFFKMJ": ["SGV_REMUSLANTERNFISH_STILL_TIME"],
      "modifiers": {
        "Blank": {
          "modifierName": "",
          "elementDurability": 100.0
        },
        "move": {
          "modifierName": "",
          "elementDurability": 100.0,
          "onAdded": [
            {
              "$type": "AttachEffect",
              "rotationDampTime": "Eff_SceneObj_RemusLanternFish_Move",
              "born": {
                "$type": "ConfigBornByAttachPoint",
                "useRotation": true,
                "attachPointName": "Tail"
              },
              "PPPDJGDDOGD": 1.0,
              "AJDILHJFNKE": -1.0
            },
            {
              "$type": "SetAnimatorBool",
              "boolID": "Search",
              "value": true
            }
          ]
        },
        "stop": {
          "modifierName": "",
          "elementDurability": 100.0,
          "onAdded": [
            {
              "$type": "FireEffect",
              "rotationDampTime": "Eff_SceneObj_RemusLanternFish_Retract",
              "born": {
                "$type": "ConfigBornByAttachPoint",
                "useRotation": true,
                "attachPointName": "Tail"
              },
              "PPPDJGDDOGD": 1.0,
              "AJDILHJFNKE": -1.0
            },
            {
              "$type": "SetAnimatorBool",
              "boolID": "Search"
            }
          ]
        },
        "MouthOff": {
          "modifierName": "",
          "elementDurability": 100.0,
          "onAdded": [
            {
              "$type": "SetAnimatorBool",
              "canBeHandledOnRecover": true,
              "boolID": "DoorOpen"
            }
          ]
        },
        "MouthOn": {
          "modifierName": "",
          "elementDurability": 100.0,
          "onAdded": [
            {
              "$type": "SetAnimatorBool",
              "canBeHandledOnRecover": true,
              "boolID": "DoorOpen",
              "value": true
            }
          ]
        },
        "IsStandBy": {
          "modifierName": "",
          "elementDurability": 100.0,
          "onAdded": [
            {
              "$type": "FNPMFLOOCDD",
              "value": 1.0,
              "key": "IsLightOpen",
              "maxValue": 0.0,
              "minValue": 0.0
            }
          ]
        },
        "IsStill": {
          "modifierName": "",
          "elementDurability": 100.0,
          "onAdded": [
            {
              "$type": "FNPMFLOOCDD",
              "value": 0.0,
              "key": "IsLightOpen",
              "maxValue": 0.0,
              "minValue": 0.0
            }
          ]
        },
        "IsAlert": {
          "modifierName": "",
          "elementDurability": 100.0,
          "onAdded": [
            {
              "$type": "FNPMFLOOCDD",
              "value": 1.0,
              "key": "IsLightOpen",
              "maxValue": 0.0,
              "minValue": 0.0
            },
            {
              "$type": "AttachEffect",
              "rotationDampTime": "Eff_SceneObj_RemusLanternFish_Shield_Appear",
              "born": {
                "$type": "ConfigBornByAttachPoint",
                "useRotation": true,
                "attachPointName": "Tail"
              },
              "PPPDJGDDOGD": 1.0,
              "AJDILHJFNKE": -1.0
            }
          ],
          "onRemoved": [
            {
              "$type": "FireEffect",
              "rotationDampTime": "Eff_SceneObj_RemusLanternFish_Shield_Disappear",
              "born": {
                "$type": "ConfigBornByAttachPoint",
                "useRotation": true,
                "attachPointName": "Tail"
              },
              "PPPDJGDDOGD": 1.0,
              "AJDILHJFNKE": -1.0
            }
          ]
        },
        "IsWaring": {
          "modifierName": "",
          "elementDurability": 100.0,
          "onAdded": [
            {
              "$type": "FNPMFLOOCDD",
              "value": 1.0,
              "key": "IsLightOpen",
              "maxValue": 0.0,
              "minValue": 0.0
            }
          ]
        },
        "IsDoorOpen": {
          "modifierName": "",
          "elementDurability": 100.0,
          "onAdded": [
            {
              "$type": "FireEffect",
              "rotationDampTime": "Eff_SceneObj_RemusLanternFish_OpenDoor",
              "born": {
                "$type": "ConfigBornByAttachPoint",
                "useRotation": true,
                "attachPointName": "Body"
              },
              "PPPDJGDDOGD": 1.0,
              "AJDILHJFNKE": -1.0
            }
          ]
        },
        "IsDoorClose": {
          "modifierName": "",
          "elementDurability": 100.0,
          "onAdded": [
            {
              "$type": "FireEffect",
              "rotationDampTime": "Eff_SceneObj_RemusLanternFish_CloseDoor",
              "born": {
                "$type": "ConfigBornByAttachPoint",
                "useRotation": true,
                "attachPointName": "Body"
              },
              "PPPDJGDDOGD": 1.0,
              "AJDILHJFNKE": -1.0
            }
          ]
        },
        "LightOpen": {
          "modifierName": "",
          "elementDurability": 100.0,
          "onAdded": [
            {
              "$type": "AttachEffect",
              "rotationDampTime": "Eff_SceneObj_RemusLanternFish_Light",
              "born": {
                "$type": "ConfigBornByAttachPoint",
                "useRotation": true,
                "attachPointName": "Lamp"
              },
              "PPPDJGDDOGD": 1.0,
              "AJDILHJFNKE": -1.0
            },
            {
              "$type": "AttachModifier",
              "modifierName": "LightColorControl"
            }
          ]
        },
        "LightClose": {
          "modifierName": "",
          "elementDurability": 100.0
        },
        "LightColorControl": {
          "modifierName": "",
          "elementDurability": 100.0,
          "modifierMixins": [
            {
              "$type": "AttachModifierToGlobalValueMixin",
              "globalValueKey": "SGV_IsWarning",
              "valueSteps": [-0.5, 0.5, 1.5],
              "modifierNameSteps": ["LightYellow", "LightRed"],
              "NMCLMHFBALJ": true
            }
          ]
        },
        "LightRed": {
          "modifierName": "",
          "elementDurability": 100.0,
          "onAdded": [
            {
              "$type": "SendEffectTrigger",
              "canBeHandledOnRecover": true,
              "parameter": "GadgetState",
              "attachPoint": "",
              "damageRatio": "Int",
              "value": 1,
              "rotationDampTime": "Eff_SceneObj_RemusLanternFish_Light"
            }
          ]
        },
        "LightYellow": {
          "modifierName": "",
          "elementDurability": 100.0,
          "onAdded": [
            {
              "$type": "SendEffectTrigger",
              "canBeHandledOnRecover": true,
              "parameter": "GadgetState",
              "attachPoint": "",
              "damageRatio": "Int",
              "rotationDampTime": "Eff_SceneObj_RemusLanternFish_Light"
            }
          ]
        },
        "State_Control": {
          "modifierName": "",
          "elementDurability": 100.0,
          "modifierMixins": [
            {
              "$type": "AttachModifierToSelfGlobalValueNoInitMixin",
              "globalValueKey": "InternalState_4_6",
              "valueSteps": [-0.5, 0.5, 1.5, 2.5, 3.5],
              "modifierNameSteps": [
                "OnStandByHandle",
                "OnStillHandle",
                "OnStandByHandle",
                "OnMoveHandle"
              ]
            }
          ]
        },
        "BlankHandle": {
          "modifierName": "",
          "elementDurability": 100.0
        },
        "OnStillHandle": {
          "modifierName": "",
          "elementDurability": 100.0,
          "onAdded": [
            {
              "$type": "AttachModifier",
              "modifierName": "FreezeState"
            },
            {
              "$type": "AttachModifier",
              "modifierName": "Resume2Standby"
            },
            {
              "$type": "FNPMFLOOCDD",
              "value": 1.0,
              "key": "GV_MUSICMECH_Hold",
              "maxValue": 0.0,
              "minValue": 0.0
            }
          ]
        },
        "OnStandByHandle": {
          "modifierName": "",
          "elementDurability": 100.0,
          "onAdded": [
            {
              "$type": "AttachModifier",
              "modifierName": "PlayerDetect"
            },
            {
              "$type": "FNPMFLOOCDD",
              "value": 0.0,
              "key": "GV_MUSICMECH_Hold",
              "maxValue": 0.0,
              "minValue": 0.0
            },
            {
              "$type": "AHPEKICBIIL",
              "predicates": [
                {
                  "$type": "ByTargetGlobalValue",
                  "target": "Self",
                  "key": "SGV_MUSICMECH_ACTIVE",
                  "value": 1.0
                }
              ],
              "luaCallType": "FromGroup",
              "funcName": "SLC_WB46_MovePlat_Move",
              "param1": 0.0,
              "MGAMDEHMCOL": 0.0,
              "MMHOHAOGPLP": 0.0
            }
          ]
        },
        "OnMoveHandle": {
          "modifierName": "",
          "elementDurability": 100.0
        },
        "Resume2Standby": {
          "modifierName": "",
          "elementDurability": 100.0,
          "thinkInterval": "SGV_REMUSLANTERNFISH_STILL_TIME",
          "onThinkInterval": [
            {
              "$type": "FNPMFLOOCDD",
              "value": 2.0,
              "key": "InternalState_4_6",
              "maxValue": 0.0,
              "minValue": 0.0
            }
          ]
        },
        "PlayerDetect": {
          "modifierName": "",
          "elementDurability": 100.0,
          "modifierMixins": [
            {
              "$type": "AttachModifierToGlobalValueMixin",
              "globalValueKey": "SGV_IsWarning",
              "valueSteps": [-0.5, 0.5, 1.5],
              "modifierNameSteps": ["FreeState", "AlertState"],
              "NMCLMHFBALJ": true
            }
          ]
        },
        "DetectWarning": {
          "modifierName": "",
          "elementDurability": 100.0
        },
        "RefreshWarningState": {
          "modifierName": "",
          "elementDurability": 100.0
        },
        "FreezeState": {
          "modifierName": "",
          "elementDurability": 100.0,
          "modifierMixins": [
            {
              "$type": "GPCGHACDPIF",
              "DPAOMNELPHI": 1,
              "NLIOHMNJBAM": ""
            }
          ],
          "onAdded": [
            {
              "$type": "DebugLog",
              "content": "BeAttack_4_6"
            },
            {
              "$type": "SetAnimatorInt",
              "canBeHandledOnRecover": true,
              "intID": "GadgetState",
              "value": 202.0
            },
            {
              "$type": "SetAnimatorFloat",
              "canBeHandledOnRecover": true,
              "floatID": "Speed",
              "value": 0.0
            },
            {
              "$type": "AHPEKICBIIL",
              "luaCallType": "FromGroup",
              "funcName": "SLC_WB46_MovePlat_Stop",
              "param1": 0.0,
              "MGAMDEHMCOL": 0.0,
              "MMHOHAOGPLP": 0.0
            }
          ]
        },
        "FreeState": {
          "modifierName": "",
          "elementDurability": 100.0,
          "modifierMixins": [
            {
              "$type": "GPCGHACDPIF",
              "DPAOMNELPHI": 2,
              "NLIOHMNJBAM": ""
            }
          ],
          "onAdded": [
            {
              "$type": "SetAnimatorInt",
              "canBeHandledOnRecover": true,
              "intID": "GadgetState",
              "value": 0.0
            },
            {
              "$type": "SetAnimatorFloat",
              "canBeHandledOnRecover": true,
              "floatID": "Speed",
              "value": 1.0
            }
          ]
        },
        "AlertState": {
          "modifierName": "",
          "elementDurability": 100.0,
          "modifierMixins": [
            {
              "$type": "GPCGHACDPIF",
              "DPAOMNELPHI": 3,
              "NLIOHMNJBAM": ""
            }
          ],
          "onAdded": [
            {
              "$type": "SetAnimatorInt",
              "canBeHandledOnRecover": true,
              "intID": "GadgetState",
              "value": 201.0
            },
            {
              "$type": "SetAnimatorFloat",
              "canBeHandledOnRecover": true,
              "floatID": "Speed",
              "value": 1.5
            }
          ]
        }
      },
      "onAdded": [
        {
          "$type": "AOOCGNCCAJB",
          "isAdd": true,
          "tag": "IS_LMS_WHALE_SCAN_TARGET"
        },
        {
          "$type": "FNPMFLOOCDD",
          "value": 1.0,
          "key": "IsLightOpen",
          "maxValue": 0.0,
          "minValue": 0.0
        },
        {
          "$type": "AttachModifier",
          "modifierName": "State_Control"
        },
        {
          "$type": "FNPMFLOOCDD",
          "value": 1.0,
          "key": "GV_MUSICMECH_Tap",
          "maxValue": 0.0,
          "minValue": 0.0
        },
        {
          "$type": "FNPMFLOOCDD",
          "value": 1.0,
          "key": "GV_MUSICMECH_Hold",
          "maxValue": 0.0,
          "minValue": 0.0
        }
      ]
    }
  },
  {
    "Default": {
      "$type": "ConfigAbility",
      "abilityName": "SceneObj_Area_Fd_Property_Ani_Prop_WoodenFish_GamePlayController_01",
      "modifiers": {
        "WoodenFish_Handle": {
          "modifierName": "",
          "elementDurability": 100.0,
          "onAdded": [
            {
              "$type": "AttachModifier",
              "otherTargets": {
                "$type": "FHBCCNMKPHK",
                "value": 1
              },
              "modifierName": "WoodenFish_Walker_01"
            },
            {
              "$type": "AttachModifier",
              "otherTargets": {
                "$type": "FHBCCNMKPHK",
                "value": 2
              },
              "modifierName": "WoodenFish_Walker_02"
            },
            {
              "$type": "AttachModifier",
              "otherTargets": {
                "$type": "FHBCCNMKPHK",
                "value": 3
              },
              "modifierName": "WoodenFish_Watcher"
            }
          ]
        },
        "WoodenFish_Walker_01": {
          "modifierName": "",
          "elementDurability": 100.0,
          "modifierMixins": [
            {
              "$type": "KODOFEHIIGE",
              "isLogicMove": true,
              "moveModifiers": ["Walker_Move_01"]
            }
          ],
          "onAdded": [
            {
              "$type": "DebugLog",
              "content": "木头人:1号上modifier"
            }
          ]
        },
        "Walker_Move_01": {
          "modifierName": "",
          "elementDurability": 100.0,
          "onAdded": [
            {
              "$type": "DebugLog",
              "content": "木头人:1号动"
            },
            {
              "$type": "AttachModifier",
              "target": "Caster",
              "modifierName": "Set_Move_State_01"
            },
            {
              "$type": "AHPEKICBIIL",
              "luaCallType": "FromGroup",
              "funcName": "SLC_Walker_Move_01",
              "param1": 0.0,
              "MGAMDEHMCOL": 0.0,
              "MMHOHAOGPLP": 0.0
            }
          ],
          "onRemoved": [
            {
              "$type": "DebugLog",
              "content": "木头人:1号停"
            },
            {
              "$type": "AttachModifier",
              "target": "Caster",
              "modifierName": "Set_Stop_State_01"
            },
            {
              "$type": "AHPEKICBIIL",
              "luaCallType": "FromGroup",
              "funcName": "SLC_Walker_Stop_01",
              "param1": 0.0,
              "MGAMDEHMCOL": 0.0,
              "MMHOHAOGPLP": 0.0
            }
          ]
        },
        "Set_Move_State_01": {
          "modifierName": "",
          "elementDurability": 100.0,
          "onAdded": [
            {
              "$type": "FNPMFLOOCDD",
              "value": 1.0,
              "key": "Walker_Move_State_01",
              "maxValue": 0.0,
              "minValue": 0.0
            }
          ]
        },
        "Set_Stop_State_01": {
          "modifierName": "",
          "elementDurability": 100.0,
          "onAdded": [
            {
              "$type": "FNPMFLOOCDD",
              "value": 0.0,
              "key": "Walker_Move_State_01",
              "maxValue": 0.0,
              "minValue": 0.0
            }
          ]
        },
        "WoodenFish_Walker_02": {
          "modifierName": "",
          "elementDurability": 100.0,
          "modifierMixins": [
            {
              "$type": "KODOFEHIIGE",
              "isLogicMove": true,
              "moveModifiers": ["Walker_Move_02"]
            }
          ],
          "onAdded": [
            {
              "$type": "DebugLog",
              "content": "木头人:2号上modifier"
            }
          ]
        },
        "Walker_Move_02": {
          "modifierName": "",
          "elementDurability": 100.0,
          "onAdded": [
            {
              "$type": "DebugLog",
              "content": "木头人:2号动"
            },
            {
              "$type": "AttachModifier",
              "target": "Caster",
              "modifierName": "Set_Move_State_02"
            },
            {
              "$type": "AHPEKICBIIL",
              "luaCallType": "FromGroup",
              "funcName": "SLC_Walker_Move_02",
              "param1": 0.0,
              "MGAMDEHMCOL": 0.0,
              "MMHOHAOGPLP": 0.0
            }
          ],
          "onRemoved": [
            {
              "$type": "DebugLog",
              "content": "木头人:2号停"
            },
            {
              "$type": "AttachModifier",
              "target": "Caster",
              "modifierName": "Set_Stop_State_02"
            },
            {
              "$type": "AHPEKICBIIL",
              "luaCallType": "FromGroup",
              "funcName": "SLC_Walker_Stop_02",
              "param1": 0.0,
              "MGAMDEHMCOL": 0.0,
              "MMHOHAOGPLP": 0.0
            }
          ]
        },
        "Set_Move_State_02": {
          "modifierName": "",
          "elementDurability": 100.0,
          "onAdded": [
            {
              "$type": "FNPMFLOOCDD",
              "value": 1.0,
              "key": "Walker_Move_State_02",
              "maxValue": 0.0,
              "minValue": 0.0
            }
          ]
        },
        "Set_Stop_State_02": {
          "modifierName": "",
          "elementDurability": 100.0,
          "onAdded": [
            {
              "$type": "FNPMFLOOCDD",
              "value": 0.0,
              "key": "Walker_Move_State_02",
              "maxValue": 0.0,
              "minValue": 0.0
            }
          ]
        },
        "WoodenFish_Watcher": {
          "modifierName": "",
          "elementDurability": 100.0,
          "modifierMixins": [
            {
              "$type": "AttachToStateIDMixin",
              "stateIDs": ["Opposite"],
              "modifierName": "Is_Watching",
              "DGFCLAIDIFI": ""
            }
          ],
          "onAdded": [
            {
              "$type": "DebugLog",
              "content": "木头人:3号上modifier"
            }
          ]
        },
        "Is_Watching": {
          "modifierName": "",
          "elementDurability": 100.0,
          "onAdded": [
            {
              "$type": "DebugLog",
              "content": "木头人：开始监视"
            },
            {
              "$type": "AttachModifier",
              "target": "Caster",
              "modifierName": "Watcher_01"
            }
          ],
          "onRemoved": [
            {
              "$type": "DebugLog",
              "content": "木头人：结束监视"
            }
          ]
        },
        "Watcher_01": {
          "modifierName": "",
          "elementDurability": 100.0,
          "modifierMixins": [
            {
              "$type": "AttachModifierToSelfGlobalValueNoInitMixin",
              "globalValueKey": "Walker_Move_State_01",
              "valueSteps": [-0.5, 0.5, 1.5],
              "modifierNameSteps": ["Empty", "Challenge_Failed"]
            },
            {
              "$type": "AttachModifierToSelfGlobalValueNoInitMixin",
              "globalValueKey": "Walker_Move_State_02",
              "valueSteps": [-0.5, 0.5, 1.5],
              "modifierNameSteps": ["Empty", "Challenge_Failed"]
            }
          ]
        },
        "Challenge_Failed": {
          "modifierName": "",
          "elementDurability": 100.0,
          "onAdded": [
            {
              "$type": "DebugLog",
              "content": "木头人:挑战失败TriggerAbility"
            },
            {
              "$type": "TriggerAbility",
              "target": "Caster",
              "abilityName": "SceneObj_Area_Fd_Property_Ani_Prop_WoodenFish_GamePlayController_02"
            }
          ]
        },
        "Empty": {
          "modifierName": "",
          "elementDurability": 100.0
        }
      },
      "onAdded": [
        {
          "$type": "ApplyModifier",
          "modifierName": "WoodenFish_Handle"
        }
      ]
    }
  },
  {
    "Default": {
      "$type": "ConfigAbility",
      "abilityName": "SceneObj_Area_Fd_Property_Ani_Prop_WoodenFish_GamePlayController_02",
      "onAbilityStart": [
        {
          "$type": "AHPEKICBIIL",
          "luaCallType": "FromGroup",
          "funcName": "SLC_Challenge_Failed",
          "param1": 0.0,
          "MGAMDEHMCOL": 0.0,
          "MMHOHAOGPLP": 0.0
        }
      ]
    }
  }
]
