[
  {
    "Default": {
      "$type": "ConfigAbility",
      "abilityName": "SceneObj_Quest_Interact_Point_01_Eff",
      "onAdded": [
        {
          "$type": "AttachEffect",
          "rotationDampTime": "Eff_Quest_SiteInteract",
          "PPPDJGDDOGD": 1.0,
          "AJDILHJFNKE": -1.0
        }
      ]
    }
  },
  {
    "Default": {
      "$type": "ConfigAbility",
      "abilityName": "SceneObj_Quest_Interact_Point_02_Eff",
      "onAdded": [
        {
          "$type": "AttachEffect",
          "rotationDampTime": "Eff_Quest_SiteInteract_02",
          "PPPDJGDDOGD": 1.0,
          "AJDILHJFNKE": -1.0
        }
      ]
    }
  },
  {
    "Default": {
      "$type": "ConfigAbility",
      "abilityName": "SceneObj_Quest_Interact_Adjust_Firepower_Eff",
      "onAdded": [
        {
          "$type": "AttachEffect",
          "rotationDampTime": "Eff_Fire_Basin_Big",
          "PPPDJGDDOGD": 1.0,
          "AJDILHJFNKE": -1.0
        }
      ]
    }
  },
  {
    "Default": {
      "$type": "ConfigAbility",
      "abilityName": "SceneObj_Quest_Muddy_CrysTear_Eff",
      "onAdded": [
        {
          "$type": "AttachEffect",
          "rotationDampTime": "Eff_Quest_CrystTear02_Dark",
          "PPPDJGDDOGD": 1.0,
          "AJDILHJFNKE": -1.0
        }
      ]
    }
  },
  {
    "Default": {
      "$type": "ConfigAbility",
      "abilityName": "SceneObj_Quest_Muddy_CrysTear_Eff_SmallSize",
      "onAdded": [
        {
          "$type": "AttachEffect",
          "rotationDampTime": "Eff_Quest_CrystTear_Dialog",
          "PPPDJGDDOGD": 1.0,
          "AJDILHJFNKE": -1.0
        }
      ]
    }
  },
  {
    "Default": {
      "$type": "ConfigAbility",
      "abilityName": "SceneObj_Quest_Clear_CrysTear_Eff",
      "onAdded": [
        {
          "$type": "AttachEffect",
          "rotationDampTime": "Eff_CS_CrystTearQuest01",
          "PPPDJGDDOGD": 1.0,
          "AJDILHJFNKE": -1.0
        }
      ]
    }
  },
  {
    "Default": {
      "$type": "ConfigAbility",
      "abilityName": "SceneObj_Quest_Guide_TargetPoint",
      "onAdded": [
        {
          "$type": "AttachEffect",
          "rotationDampTime": "Eff_QuestGuide_TargetPoint",
          "PPPDJGDDOGD": 1.0,
          "AJDILHJFNKE": -1.0
        }
      ]
    }
  },
  {
    "Default": {
      "$type": "ConfigAbility",
      "abilityName": "SceneObj_Quest_Gravity_Board_Great_Switch",
      "onAdded": [
        {
          "$type": "AttachEffect",
          "rotationDampTime": "Eff_SceneObj_Gear_Gravity_Lv1",
          "PPPDJGDDOGD": 1.0,
          "AJDILHJFNKE": -1.0
        },
        {
          "$type": "AttachEffect",
          "rotationDampTime": "Eff_SceneObj_Gear_Gravity_Lv2",
          "PPPDJGDDOGD": 1.0,
          "AJDILHJFNKE": -1.0
        },
        {
          "$type": "AttachEffect",
          "rotationDampTime": "Eff_SceneObj_Gear_Gravity_Lv3",
          "PPPDJGDDOGD": 1.0,
          "AJDILHJFNKE": -1.0
        },
        {
          "$type": "AttachEffect",
          "rotationDampTime": "Eff_SceneObj_Gear_Gravity_Center",
          "PPPDJGDDOGD": 1.0,
          "AJDILHJFNKE": -1.0
        }
      ]
    }
  },
  {
    "Default": {
      "$type": "ConfigAbility",
      "abilityName": "SceneObj_Area_Ly_Property_Ani_Flower_Qingxin_02_Ability",
      "abilityMixins": [
        {
          "$type": "AttachToGadgetStateMixin",
          "modifierName": "GadgetZeroModifier"
        },
        {
          "$type": "AttachToGadgetStateMixin",
          "gadgetState": 201,
          "modifierName": "ShowHint"
        },
        {
          "$type": "AttachToGadgetStateMixin",
          "gadgetState": 202,
          "modifierName": "ShowHint"
        }
      ],
      "modifiers": {
        "ShowHint": {
          "modifierName": "",
          "elementDurability": 100.0,
          "onAdded": [
            {
              "$type": "AttachEffect",
              "rotationDampTime": "Eff_Item_Hint",
              "born": {
                "$type": "ConfigBornByAttachPoint",
                "attachPointName": "EffectRoot"
              },
              "PPPDJGDDOGD": 1.0,
              "AJDILHJFNKE": -1.0
            }
          ]
        },
        "GadgetZeroModifier": {
          "modifierName": "",
          "elementDurability": 100.0
        }
      }
    }
  },
  {
    "Default": {
      "$type": "ConfigAbility",
      "abilityName": "SceneObj_Area_Ljxs_Property_Prop_SwordMagnum_01_Ability",
      "abilityMixins": [
        {
          "$type": "AttachToGadgetStateMixin",
          "modifierName": "EffectLv01"
        },
        {
          "$type": "AttachToGadgetStateMixin",
          "gadgetState": 901,
          "modifierName": "EffectLv02"
        },
        {
          "$type": "AttachToGadgetStateMixin",
          "gadgetState": 902,
          "modifierName": "EffectLv03"
        },
        {
          "$type": "AttachToGadgetStateMixin",
          "gadgetState": 903,
          "modifierName": "EffectLv04"
        }
      ],
      "modifiers": {
        "EffectLv01": {
          "modifierName": "",
          "elementDurability": 100.0,
          "onAdded": [
            {
              "$type": "AttachEffect",
              "rotationDampTime": "Eff_SceneObj_DragonspineInfuse_01",
              "PPPDJGDDOGD": 1.0,
              "AJDILHJFNKE": -1.0
            }
          ]
        },
        "EffectLv02": {
          "modifierName": "",
          "elementDurability": 100.0,
          "onAdded": [
            {
              "$type": "AttachEffect",
              "rotationDampTime": "Eff_SceneObj_DragonspineInfuse_02",
              "PPPDJGDDOGD": 1.0,
              "AJDILHJFNKE": -1.0
            }
          ]
        },
        "EffectLv03": {
          "modifierName": "",
          "elementDurability": 100.0,
          "onAdded": [
            {
              "$type": "AttachEffect",
              "rotationDampTime": "Eff_SceneObj_DragonspineInfuse_03",
              "PPPDJGDDOGD": 1.0,
              "AJDILHJFNKE": -1.0
            }
          ]
        },
        "EffectLv04": {
          "modifierName": "",
          "elementDurability": 100.0,
          "onAdded": [
            {
              "$type": "AttachEffect",
              "rotationDampTime": "Eff_SceneObj_DragonspineInfuse_04",
              "PPPDJGDDOGD": 1.0,
              "AJDILHJFNKE": -1.0
            }
          ]
        }
      }
    }
  },
  {
    "Default": {
      "$type": "ConfigAbility",
      "abilityName": "SceneObj_Area_Ljxs_Property_Ani_Flower_AlbedoFlower_01_Ability",
      "abilityMixins": [
        {
          "$type": "AttachToGadgetStateMixin",
          "gadgetState": 201,
          "modifierName": "Bloom"
        },
        {
          "$type": "AttachToGadgetStateMixin",
          "gadgetState": 202,
          "modifierName": "Wilt"
        },
        {
          "$type": "AttachToAnimatorStateIDMixin",
          "stateIDs": ["State_Seed", "State_Bloom_Start"],
          "modifierName": "Seed",
          "DGFCLAIDIFI": ""
        }
      ],
      "modifiers": {
        "Seed": {
          "modifierName": "",
          "elementDurability": 100.0,
          "onAdded": [
            {
              "$type": "AttachEffect",
              "rotationDampTime": "Eff_Quest_AlbedoFlower_01_Bud",
              "born": {
                "$type": "ConfigBornByAttachPoint",
                "attachPointName": "BoneRoot"
              },
              "PPPDJGDDOGD": 1.0,
              "AJDILHJFNKE": -1.0
            }
          ]
        },
        "Bloom": {
          "modifierName": "",
          "elementDurability": 100.0,
          "onAdded": [
            {
              "$type": "SetAnimatorTrigger",
              "triggerID": "Bloom"
            },
            {
              "$type": "AttachEffect",
              "rotationDampTime": "Eff_Quest_AlbedoFlower_01_Bloom",
              "born": {
                "$type": "ConfigBornByAttachPoint",
                "attachPointName": "BoneRoot"
              },
              "PPPDJGDDOGD": 1.0,
              "AJDILHJFNKE": -1.0
            }
          ]
        },
        "Wilt": {
          "modifierName": "",
          "elementDurability": 100.0,
          "onAdded": [
            {
              "$type": "SetAnimatorTrigger",
              "triggerID": "Wilt"
            },
            {
              "$type": "AttachEffect",
              "rotationDampTime": "Eff_Quest_AlbedoFlower_01_Disappear",
              "born": {
                "$type": "ConfigBornByAttachPoint",
                "attachPointName": "BoneRoot"
              },
              "PPPDJGDDOGD": 1.0,
              "AJDILHJFNKE": -1.0
            }
          ]
        }
      }
    }
  },
  {
    "Default": {
      "$type": "ConfigAbility",
      "abilityName": "SceneObj_Area_Ljxs_Property_Ani_Prop_AlbedoDrink_01_Ability",
      "abilityMixins": [
        {
          "$type": "AttachToGadgetStateMixin",
          "modifierName": "Full"
        },
        {
          "$type": "AttachToGadgetStateMixin",
          "gadgetState": 201,
          "modifierName": "Empty"
        }
      ],
      "modifiers": {
        "Full": {
          "modifierName": "",
          "elementDurability": 100.0,
          "onAdded": [
            {
              "$type": "AttachEffect",
              "rotationDampTime": "Eff_Quest_AlbedoDrink_01_Burning",
              "PPPDJGDDOGD": 1.0,
              "AJDILHJFNKE": -1.0
            }
          ]
        },
        "Empty": {
          "modifierName": "",
          "elementDurability": 100.0,
          "onAdded": [
            {
              "$type": "AttachEffect",
              "rotationDampTime": "Eff_Quest_AlbedoDrink_01_Left",
              "PPPDJGDDOGD": 1.0,
              "AJDILHJFNKE": -1.0
            }
          ]
        }
      }
    }
  },
  {
    "Default": {
      "$type": "ConfigAbility",
      "abilityName": "SceneObj_Area_Ly_Property_Ani_Prop_ShootingPoint_01_Ability",
      "onAdded": [
        {
          "$type": "AttachEffect",
          "rotationDampTime": "Eff_Quest_LY_ShootingPoint_01",
          "PPPDJGDDOGD": 1.0,
          "AJDILHJFNKE": -1.0
        }
      ]
    }
  },
  {
    "Default": {
      "$type": "ConfigAbility",
      "abilityName": "SceneObj_Level_Common_Property_Light_Lantern_EverLit_01_Ability",
      "abilityMixins": [
        {
          "$type": "AttachToGadgetStateMixin",
          "modifierName": "Full"
        },
        {
          "$type": "AttachToGadgetStateMixin",
          "gadgetState": 202,
          "modifierName": "Death"
        }
      ],
      "modifiers": {
        "Full": {
          "modifierName": "",
          "elementDurability": 100.0
        },
        "Death": {
          "modifierName": "",
          "duration": 0.10000000149011612,
          "elementDurability": 100.0,
          "onAdded": [
            {
              "$type": "FireEffect",
              "rotationDampTime": "Eff_Quest_Lantern_EverLit_01_Disappear",
              "PPPDJGDDOGD": 1.0,
              "AJDILHJFNKE": -1.0
            }
          ],
          "onRemoved": [
            {
              "$type": "KillSelf"
            }
          ]
        }
      }
    }
  },
  {
    "Default": {
      "$type": "ConfigAbility",
      "abilityName": "SceneObj_Area_Ly_Property_Ani_Prop_LanternScreenControl_Left_Ability",
      "abilityMixins": [
        {
          "$type": "AttachToAnimatorStateIDMixin",
          "stateIDs": ["Step1"],
          "modifierName": "StateOne",
          "DGFCLAIDIFI": ""
        },
        {
          "$type": "AttachToAnimatorStateIDMixin",
          "stateIDs": ["Step2"],
          "modifierName": "StateTwo",
          "DGFCLAIDIFI": ""
        },
        {
          "$type": "AttachToAnimatorStateIDMixin",
          "stateIDs": ["Step3"],
          "modifierName": "StateThree",
          "DGFCLAIDIFI": ""
        }
      ],
      "modifiers": {
        "StateOne": {
          "modifierName": "",
          "elementDurability": 100.0,
          "onAdded": [
            {
              "$type": "AttachEffect",
              "rotationDampTime": "Eff_Sc_SceneObj_LanternScreen_01_Left",
              "PPPDJGDDOGD": 1.0,
              "AJDILHJFNKE": 100.0
            }
          ]
        },
        "StateTwo": {
          "modifierName": "",
          "elementDurability": 100.0,
          "onAdded": [
            {
              "$type": "AttachEffect",
              "rotationDampTime": "Eff_Sc_SceneObj_LanternScreen_01_Left",
              "PPPDJGDDOGD": 1.0,
              "AJDILHJFNKE": 101.0
            }
          ]
        },
        "StateThree": {
          "modifierName": "",
          "elementDurability": 100.0,
          "onAdded": [
            {
              "$type": "AttachEffect",
              "rotationDampTime": "Eff_Sc_SceneObj_LanternScreen_01_Left",
              "PPPDJGDDOGD": 1.0,
              "AJDILHJFNKE": 102.0
            }
          ]
        }
      }
    }
  },
  {
    "Default": {
      "$type": "ConfigAbility",
      "abilityName": "SceneObj_Area_Ly_Property_Ani_Prop_LanternScreenControl_Middle_Ability",
      "abilityMixins": [
        {
          "$type": "AttachToAnimatorStateIDMixin",
          "stateIDs": ["Step1"],
          "modifierName": "StateOne",
          "DGFCLAIDIFI": ""
        },
        {
          "$type": "AttachToAnimatorStateIDMixin",
          "stateIDs": ["Step2"],
          "modifierName": "StateTwo",
          "DGFCLAIDIFI": ""
        },
        {
          "$type": "AttachToAnimatorStateIDMixin",
          "stateIDs": ["Step3"],
          "modifierName": "StateThree",
          "DGFCLAIDIFI": ""
        }
      ],
      "modifiers": {
        "StateOne": {
          "modifierName": "",
          "elementDurability": 100.0,
          "onAdded": [
            {
              "$type": "AttachEffect",
              "rotationDampTime": "Eff_Sc_SceneObj_LanternScreen_01_Middle",
              "PPPDJGDDOGD": 1.0,
              "AJDILHJFNKE": 100.0
            }
          ]
        },
        "StateTwo": {
          "modifierName": "",
          "elementDurability": 100.0,
          "onAdded": [
            {
              "$type": "AttachEffect",
              "rotationDampTime": "Eff_Sc_SceneObj_LanternScreen_01_Middle",
              "PPPDJGDDOGD": 1.0,
              "AJDILHJFNKE": 101.0
            }
          ]
        },
        "StateThree": {
          "modifierName": "",
          "elementDurability": 100.0,
          "onAdded": [
            {
              "$type": "AttachEffect",
              "rotationDampTime": "Eff_Sc_SceneObj_LanternScreen_01_Middle",
              "PPPDJGDDOGD": 1.0,
              "AJDILHJFNKE": 102.0
            }
          ]
        }
      }
    }
  },
  {
    "Default": {
      "$type": "ConfigAbility",
      "abilityName": "SceneObj_Area_Ly_Property_Ani_Prop_LanternScreenControl_Right_Ability",
      "abilityMixins": [
        {
          "$type": "AttachToAnimatorStateIDMixin",
          "stateIDs": ["Step1"],
          "modifierName": "StateOne",
          "DGFCLAIDIFI": ""
        },
        {
          "$type": "AttachToAnimatorStateIDMixin",
          "stateIDs": ["Step2"],
          "modifierName": "StateTwo",
          "DGFCLAIDIFI": ""
        },
        {
          "$type": "AttachToAnimatorStateIDMixin",
          "stateIDs": ["Step3"],
          "modifierName": "StateThree",
          "DGFCLAIDIFI": ""
        }
      ],
      "modifiers": {
        "StateOne": {
          "modifierName": "",
          "elementDurability": 100.0,
          "onAdded": [
            {
              "$type": "AttachEffect",
              "rotationDampTime": "Eff_Sc_SceneObj_LanternScreen_01_Right",
              "PPPDJGDDOGD": 1.0,
              "AJDILHJFNKE": 100.0
            }
          ]
        },
        "StateTwo": {
          "modifierName": "",
          "elementDurability": 100.0,
          "onAdded": [
            {
              "$type": "AttachEffect",
              "rotationDampTime": "Eff_Sc_SceneObj_LanternScreen_01_Right",
              "PPPDJGDDOGD": 1.0,
              "AJDILHJFNKE": 101.0
            }
          ]
        },
        "StateThree": {
          "modifierName": "",
          "elementDurability": 100.0,
          "onAdded": [
            {
              "$type": "AttachEffect",
              "rotationDampTime": "Eff_Sc_SceneObj_LanternScreen_01_Right",
              "PPPDJGDDOGD": 1.0,
              "AJDILHJFNKE": 102.0
            }
          ]
        }
      }
    }
  },
  {
    "Default": {
      "$type": "ConfigAbility",
      "abilityName": "SceneObj_Area_Ly_Property_Ani_Prop_LanternScreenSuccess_Ability",
      "abilityMixins": [
        {
          "$type": "AttachToGadgetStateMixin",
          "gadgetState": 201,
          "modifierName": "StartSuccessPlayStep1"
        }
      ],
      "modifiers": {
        "StartSuccessPlayStep1": {
          "modifierName": "",
          "duration": 0.25,
          "elementDurability": 100.0,
          "onAdded": [
            {
              "$type": "ApplyModifier",
              "modifierName": "StarLeft"
            }
          ],
          "onRemoved": [
            {
              "$type": "ApplyModifier",
              "modifierName": "StartSuccessPlayStep2"
            }
          ]
        },
        "StartSuccessPlayStep2": {
          "modifierName": "",
          "duration": 0.25,
          "elementDurability": 100.0,
          "onAdded": [
            {
              "$type": "ApplyModifier",
              "modifierName": "StarMiddle"
            }
          ],
          "onRemoved": [
            {
              "$type": "ApplyModifier",
              "modifierName": "StartSuccessPlayStep3"
            }
          ]
        },
        "StartSuccessPlayStep3": {
          "modifierName": "",
          "duration": 0.25,
          "elementDurability": 100.0,
          "onAdded": [
            {
              "$type": "ApplyModifier",
              "modifierName": "StarRight"
            }
          ],
          "onRemoved": [
            {
              "$type": "ApplyModifier",
              "otherTargets": {
                "$type": "FHBCCNMKPHK",
                "value": 2
              },
              "modifierName": "SendEffectTriggerLeft"
            },
            {
              "$type": "ApplyModifier",
              "otherTargets": {
                "$type": "FHBCCNMKPHK",
                "value": 4
              },
              "modifierName": "SendEffectTriggerMiddle"
            },
            {
              "$type": "ApplyModifier",
              "otherTargets": {
                "$type": "FHBCCNMKPHK",
                "value": 8
              },
              "modifierName": "SendEffectTriggerRight"
            }
          ]
        },
        "SendEffectTriggerLeft": {
          "modifierName": "",
          "elementDurability": 100.0,
          "onAdded": [
            {
              "$type": "SendEffectTrigger",
              "parameter": "Trigger",
              "attachPoint": "",
              "rotationDampTime": "Eff_Sc_SceneObj_LanternScreen_01_Left"
            }
          ]
        },
        "SendEffectTriggerMiddle": {
          "modifierName": "",
          "elementDurability": 100.0,
          "onAdded": [
            {
              "$type": "SendEffectTrigger",
              "parameter": "Trigger",
              "attachPoint": "",
              "rotationDampTime": "Eff_Sc_SceneObj_LanternScreen_01_Middle"
            }
          ]
        },
        "SendEffectTriggerRight": {
          "modifierName": "",
          "elementDurability": 100.0,
          "onAdded": [
            {
              "$type": "SendEffectTrigger",
              "parameter": "Trigger",
              "attachPoint": "",
              "rotationDampTime": "Eff_Sc_SceneObj_LanternScreen_01_Right"
            }
          ]
        },
        "StarLeft": {
          "modifierName": "",
          "elementDurability": 100.0,
          "onAdded": [
            {
              "$type": "AttachEffect",
              "rotationDampTime": "Eff_Sc_SceneObj_LanternScreen_01_Star",
              "born": {
                "$type": "ConfigBornByAttachPoint",
                "attachPointName": "PointLeft"
              },
              "PPPDJGDDOGD": 1.0,
              "AJDILHJFNKE": -1.0
            }
          ]
        },
        "StarMiddle": {
          "modifierName": "",
          "elementDurability": 100.0,
          "onAdded": [
            {
              "$type": "AttachEffect",
              "rotationDampTime": "Eff_Sc_SceneObj_LanternScreen_01_Star",
              "born": {
                "$type": "ConfigBornByAttachPoint",
                "attachPointName": "PointMiddle"
              },
              "PPPDJGDDOGD": 1.0,
              "AJDILHJFNKE": -1.0
            }
          ]
        },
        "StarRight": {
          "modifierName": "",
          "elementDurability": 100.0,
          "onAdded": [
            {
              "$type": "AttachEffect",
              "rotationDampTime": "Eff_Sc_SceneObj_LanternScreen_01_Star",
              "born": {
                "$type": "ConfigBornByAttachPoint",
                "attachPointName": "PointRight"
              },
              "PPPDJGDDOGD": 1.0,
              "AJDILHJFNKE": -1.0
            }
          ]
        }
      }
    }
  },
  {
    "Default": {
      "$type": "ConfigAbility",
      "abilityName": "SceneObj_Area_Ly_Property_Ani_Prop_LanternProjector_01_Ability",
      "abilityMixins": [
        {
          "$type": "AttachToGadgetStateMixin",
          "gadgetState": 202,
          "modifierName": "Rotate"
        },
        {
          "$type": "AttachToAnimatorStateIDMixin",
          "stateIDs": ["Open"],
          "modifierName": "Open",
          "DGFCLAIDIFI": ""
        }
      ],
      "modifiers": {
        "Open": {
          "modifierName": "",
          "elementDurability": 100.0,
          "onAdded": [
            {
              "$type": "AttachEffect",
              "rotationDampTime": "Eff_Sc_SceneObj_LanternScreen_01_LightUp",
              "PPPDJGDDOGD": 1.0,
              "AJDILHJFNKE": -1.0
            }
          ]
        },
        "Rotate": {
          "modifierName": "",
          "duration": 2.0,
          "elementDurability": 100.0,
          "onAdded": [
            {
              "$type": "SetAnimatorTrigger",
              "triggerID": "Active",
              "mpTriggerOnRemote": true
            }
          ],
          "onRemoved": [
            {
              "$type": "ExecuteGadgetLua",
              "param1": 201
            }
          ]
        }
      }
    }
  },
  {
    "Default": {
      "$type": "ConfigAbility",
      "abilityName": "SceneObj_Area_Common_Property_Flower_Dandelion_NoFlower_01_Ability",
      "modifiers": {
        "HitMonitor": {
          "modifierName": "",
          "elementDurability": 100.0,
          "onBeingHit": [
            {
              "$type": "SetAnimatorTrigger",
              "predicates": [
                {
                  "$type": "ByNot",
                  "predicates": [
                    {
                      "$type": "ByHitElement",
                      "element": "Wind"
                    }
                  ]
                },
                {
                  "$type": "ByNot",
                  "predicates": [
                    {
                      "$type": "ByAttackTags",
                      "attackTags": ["BurningDamage"]
                    }
                  ]
                }
              ],
              "triggerID": "Hit"
            }
          ]
        }
      },
      "onAdded": [
        {
          "$type": "ApplyModifier",
          "modifierName": "HitMonitor"
        }
      ]
    }
  },
  {
    "Default": {
      "$type": "ConfigAbility",
      "abilityName": "SceneObj_Level_Common_Property_Prop_ThunderFall_01_Ability",
      "modifiers": {
        "KillThunder": {
          "modifierName": "",
          "duration": 0.5,
          "elementDurability": 100.0,
          "onRemoved": [
            {
              "$type": "KillSelf"
            }
          ]
        }
      },
      "onAdded": [
        {
          "$type": "ApplyModifier",
          "modifierName": "KillThunder"
        }
      ]
    }
  },
  {
    "Default": {
      "$type": "ConfigAbility",
      "abilityName": "SceneObj_Level_Common_Property_Prop_RealThunderFall_01_Ability",
      "modifiers": {
        "Thunder": {
          "modifierName": "",
          "duration": 1.5,
          "elementDurability": 100.0,
          "onAdded": [
            {
              "$type": "FireEffect",
              "rotationDampTime": "Eff_Thunder_EarlyWarning_01",
              "PPPDJGDDOGD": 1.0,
              "AJDILHJFNKE": -1.0
            }
          ],
          "onRemoved": [
            {
              "$type": "FireEffect",
              "rotationDampTime": "Eff_Quest_EnviroLightning_01",
              "PPPDJGDDOGD": 1.0,
              "AJDILHJFNKE": -1.0
            },
            {
              "$type": "ApplyModifier",
              "modifierName": "DelayShakeScreen"
            },
            {
              "$type": "ApplyModifier",
              "modifierName": "KillSelfModifier"
            }
          ]
        },
        "DelayShakeScreen": {
          "modifierName": "",
          "duration": 0.20000000298023224,
          "elementDurability": 100.0,
          "onRemoved": [
            {
              "$type": "TriggerAttackEvent",
              "attackEvent": {
                "attackPattern": {
                  "$type": "ConfigAttackSphere",
                  "radius": 1.0
                },
                "attackInfo": {
                  "attackTag": "",
                  "attenuationTag": "",
                  "attenuationGroup": "default",
                  "attackProperty": {
                    "actorWindSubHurtDelta": 0.0,
                    "elementType": "Electric",
                    "elementDurability": 25.0,
                    "ignoreAttackerProperty": true,
                    "enBreak": 0.0,
                    "HMBONGBFIAP": 0.0,
                    "trueDamage": true,
                    "ignoreModifyDamage": true,
                    "GLKMCMDJBIK": 0.0
                  },
                  "hitPattern": {
                    "onHitEffectName": "default",
                    "hitImpulseY": "",
                    "hitImpulseType": "LV8",
                    "hitHaltTimeScale": 0.05000000074505806
                  },
                  "forceCameraShake": true,
                  "cameraShake": {
                    "shakeType": "CustomVector",
                    "shakeRange": 1.100000023841858,
                    "shakeTime": 0.5,
                    "shakeDistance": 50.0,
                    "shakeDir": {
                      "y": -1.0
                    },
                    "extension": {
                      "rangeAttenuation": 0.20000000298023224
                    }
                  }
                }
              }
            }
          ]
        },
        "KillSelfModifier": {
          "modifierName": "",
          "duration": 5.0,
          "elementDurability": 100.0,
          "onRemoved": [
            {
              "$type": "KillSelf"
            }
          ]
        }
      },
      "onAdded": [
        {
          "$type": "ApplyModifier",
          "modifierName": "Thunder"
        }
      ]
    }
  },
  {
    "Default": {
      "$type": "ConfigAbility",
      "abilityName": "SceneObj_Level_Common_Property_Prop_FireworksExplosion_01_Ability",
      "modifiers": {
        "Fireworks": {
          "modifierName": "",
          "duration": 5.0,
          "elementDurability": 100.0,
          "onAdded": [
            {
              "$type": "FireEffect",
              "rotationDampTime": "Eff_Quest_Yoimiya_Explosion_01",
              "PPPDJGDDOGD": 1.0,
              "AJDILHJFNKE": -1.0
            },
            {
              "$type": "ActCameraShake",
              "cameraShake": {
                "shakeRange": 1.100000023841858,
                "shakeTime": 0.20000000298023224,
                "shakeDistance": 30.0
              }
            }
          ],
          "onRemoved": [
            {
              "$type": "KillSelf"
            }
          ]
        }
      },
      "onAdded": [
        {
          "$type": "ApplyModifier",
          "modifierName": "Fireworks"
        }
      ]
    }
  },
  {
    "Default": {
      "$type": "ConfigAbility",
      "abilityName": "SceneObj_Area_Common_Property_Prop_AbyssChain_01_Ability",
      "abilityMixins": [
        {
          "$type": "AttachToGadgetStateMixin",
          "gadgetState": 201,
          "modifierName": "Vanish"
        }
      ],
      "modifiers": {
        "Exist": {
          "modifierName": "",
          "elementDurability": 100.0,
          "onAdded": [
            {
              "$type": "AttachEffect",
              "rotationDampTime": "Eff_Quest_Wolf_LupiBoreas_AbyssChain_01",
              "PPPDJGDDOGD": 1.0,
              "AJDILHJFNKE": -1.0
            }
          ]
        },
        "Vanish": {
          "modifierName": "",
          "elementDurability": 100.0,
          "onAdded": [
            {
              "$type": "SendEffectTrigger",
              "parameter": "Vanish",
              "attachPoint": "",
              "rotationDampTime": "Eff_Quest_Wolf_LupiBoreas_AbyssChain_01"
            },
            {
              "$type": "FireEffect",
              "rotationDampTime": "Eff_Quest_Wolf_LupiBoreas_AbyssChain_01_Disappear",
              "PPPDJGDDOGD": 1.0,
              "AJDILHJFNKE": -1.0
            }
          ],
          "onRemoved": [
            {
              "$type": "SendEffectTrigger",
              "parameter": "Appear",
              "attachPoint": "",
              "rotationDampTime": "Eff_Quest_Wolf_LupiBoreas_AbyssChain_01"
            }
          ]
        }
      },
      "onAdded": [
        {
          "$type": "ApplyModifier",
          "modifierName": "Exist"
        }
      ]
    }
  },
  {
    "Default": {
      "$type": "ConfigAbility",
      "abilityName": "SceneObj_Environment_FireMaterial_CookingPotSnowMountain_Interact_Louder",
      "abilityMixins": [
        {
          "$type": "AttachToGadgetStateMixin",
          "modifierName": "Fire_Off"
        },
        {
          "$type": "AttachToGadgetStateMixin",
          "gadgetState": 201,
          "modifierName": "Fire_On"
        }
      ],
      "modifiers": {
        "Fire_Off": {
          "modifierName": "",
          "elementDurability": 100.0,
          "onBeingHit": [
            {
              "$type": "ExecuteGadgetLua",
              "predicates": [
                {
                  "$type": "ByHitElement",
                  "element": "Fire"
                },
                {
                  "$type": "ByNot",
                  "predicates": [
                    {
                      "$type": "ByHasElement",
                      "element": "Water"
                    }
                  ]
                }
              ],
              "param1": 201
            }
          ]
        },
        "Fire_On": {
          "modifierName": "",
          "elementType": "Fire",
          "elementDurability": 25.0,
          "modifierMixins": [
            {
              "$type": "AICCKMPNFGC",
              "attackID": "TileAttack_FireSource",
              "attachPointName": "attachPoint",
              "shape": {
                "$type": "BLEEFFJFAIB",
                "radius": 0.10000000149011612
              }
            }
          ],
          "onAdded": [
            {
              "$type": "AddGlobalValue",
              "value": 1.0,
              "key": "IS_WARM_POINT",
              "useLimitRange": true,
              "maxValue": 1.0,
              "minValue": 0.0
            },
            {
              "$type": "AttachEffect",
              "rotationDampTime": "Eff_Quest_CookingFireLoud_01",
              "PPPDJGDDOGD": 1.0,
              "AJDILHJFNKE": -1.0
            },
            {
              "$type": "AttachEffect",
              "rotationDampTime": "Eff_SceneObj_Cooking_01_Smoke",
              "born": {
                "$type": "ConfigBornByAttachPoint",
                "offset": {
                  "z": 0.0
                },
                "attachPointName": "RootNode"
              },
              "PPPDJGDDOGD": 1.0,
              "AJDILHJFNKE": -1.0
            }
          ],
          "onRemoved": [
            {
              "$type": "ExecuteGadgetLua"
            },
            {
              "$type": "AddGlobalValue",
              "value": -1.0,
              "key": "IS_WARM_POINT",
              "useLimitRange": true,
              "maxValue": 1.0,
              "minValue": 0.0
            },
            {
              "$type": "FireEffect",
              "rotationDampTime": "Eff_FireBasin_Smoke",
              "born": {
                "$type": "ConfigBornByAttachPoint",
                "attachPointName": "attachPoint"
              },
              "PPPDJGDDOGD": 1.0,
              "AJDILHJFNKE": -1.0
            }
          ]
        }
      }
    }
  },
  {
    "Default": {
      "$type": "ConfigAbility",
      "abilityName": "SceneObj_Area_Dq_Property_Ani_Prop_DqBonfire_01",
      "abilityMixins": [
        {
          "$type": "AttachToGadgetStateMixin",
          "modifierName": "Fire_Off"
        },
        {
          "$type": "AttachToGadgetStateMixin",
          "gadgetState": 201,
          "modifierName": "Fire_On"
        }
      ],
      "modifiers": {
        "Fire_Off": {
          "modifierName": "",
          "elementDurability": 100.0,
          "onBeingHit": [
            {
              "$type": "ExecuteGadgetLua",
              "predicates": [
                {
                  "$type": "ByHitElement",
                  "element": "Fire"
                },
                {
                  "$type": "ByNot",
                  "predicates": [
                    {
                      "$type": "ByHasElement",
                      "element": "Water"
                    }
                  ]
                }
              ],
              "param1": 201
            }
          ]
        },
        "Fire_On": {
          "modifierName": "",
          "elementType": "Fire",
          "elementDurability": 25.0,
          "modifierMixins": [
            {
              "$type": "AICCKMPNFGC",
              "attackID": "TileAttack_FireSource",
              "attachPointName": "attachPoint",
              "shape": {
                "$type": "BLEEFFJFAIB",
                "radius": 0.699999988079071
              }
            }
          ],
          "onAdded": [
            {
              "$type": "AttachEffect",
              "rotationDampTime": "Eff_Quest_DqBonfire_01",
              "PPPDJGDDOGD": 1.0,
              "AJDILHJFNKE": -1.0
            }
          ],
          "onRemoved": [
            {
              "$type": "ExecuteGadgetLua"
            },
            {
              "$type": "FireEffect",
              "rotationDampTime": "Eff_FireBasin_Smoke",
              "born": {
                "$type": "ConfigBornByAttachPoint",
                "attachPointName": "attachPoint"
              },
              "PPPDJGDDOGD": 1.0,
              "AJDILHJFNKE": -1.0
            }
          ]
        }
      }
    }
  },
  {
    "Default": {
      "$type": "ConfigAbility",
      "abilityName": "SceneObj_Area_Dq_Property_Ani_Prop_BBQSumire_01",
      "abilityMixins": [
        {
          "$type": "AttachToGadgetStateMixin",
          "modifierName": "Fire_Off"
        },
        {
          "$type": "AttachToGadgetStateMixin",
          "gadgetState": 201,
          "modifierName": "Fire_On"
        }
      ],
      "modifiers": {
        "Fire_Off": {
          "modifierName": "",
          "elementDurability": 100.0,
          "onBeingHit": [
            {
              "$type": "ExecuteGadgetLua",
              "predicates": [
                {
                  "$type": "ByHitElement",
                  "element": "Fire"
                },
                {
                  "$type": "ByNot",
                  "predicates": [
                    {
                      "$type": "ByHasElement",
                      "element": "Water"
                    }
                  ]
                }
              ],
              "param1": 201
            }
          ]
        },
        "Fire_On": {
          "modifierName": "",
          "elementType": "Fire",
          "elementDurability": 25.0,
          "modifierMixins": [
            {
              "$type": "AICCKMPNFGC",
              "attackID": "TileAttack_FireSource",
              "attachPointName": "attachPoint",
              "shape": {
                "$type": "BLEEFFJFAIB",
                "radius": 0.4000000059604645
              }
            }
          ],
          "onAdded": [
            {
              "$type": "AttachEffect",
              "rotationDampTime": "Eff_SceneObj_FireBasin_01",
              "PPPDJGDDOGD": 1.0,
              "AJDILHJFNKE": -1.0
            }
          ],
          "onRemoved": [
            {
              "$type": "ExecuteGadgetLua"
            },
            {
              "$type": "FireEffect",
              "rotationDampTime": "Eff_FireBasin_Smoke",
              "born": {
                "$type": "ConfigBornByAttachPoint",
                "attachPointName": "attachPoint"
              },
              "PPPDJGDDOGD": 1.0,
              "AJDILHJFNKE": -1.0
            }
          ]
        }
      }
    }
  },
  {
    "Default": {
      "$type": "ConfigAbility",
      "abilityName": "SceneObj_Area_Dq_Property_Prop_ShogunTeaSet_01_Ability",
      "modifiers": {
        "Smoke1": {
          "modifierName": "",
          "elementDurability": 100.0,
          "onAdded": [
            {
              "$type": "AttachEffect",
              "rotationDampTime": "Eff_Quest_ShogunTeaset_02_Smoke",
              "born": {
                "$type": "ConfigBornByAttachPoint",
                "attachPointName": "Point1"
              },
              "PPPDJGDDOGD": 1.0,
              "AJDILHJFNKE": -1.0
            }
          ]
        },
        "Smoke2": {
          "modifierName": "",
          "elementDurability": 100.0,
          "onAdded": [
            {
              "$type": "AttachEffect",
              "rotationDampTime": "Eff_Quest_ShogunTeaset_02_Smoke",
              "born": {
                "$type": "ConfigBornByAttachPoint",
                "attachPointName": "Point2"
              },
              "PPPDJGDDOGD": 1.0,
              "AJDILHJFNKE": -1.0
            }
          ]
        },
        "Smoke3": {
          "modifierName": "",
          "elementDurability": 100.0,
          "onAdded": [
            {
              "$type": "AttachEffect",
              "rotationDampTime": "Eff_Quest_ShogunTeaset_02_Smoke",
              "born": {
                "$type": "ConfigBornByAttachPoint",
                "attachPointName": "Point3"
              },
              "PPPDJGDDOGD": 1.0,
              "AJDILHJFNKE": -1.0
            }
          ]
        }
      },
      "onAdded": [
        {
          "$type": "ApplyModifier",
          "modifierName": "Smoke1"
        },
        {
          "$type": "ApplyModifier",
          "modifierName": "Smoke2"
        },
        {
          "$type": "ApplyModifier",
          "modifierName": "Smoke3"
        }
      ]
    }
  },
  {
    "Default": {
      "$type": "ConfigAbility",
      "abilityName": "SceneObj_Quest_AbyssGate_01",
      "modifiers": {
        "AbyssGate01": {
          "modifierName": "",
          "elementDurability": 100.0,
          "onAdded": [
            {
              "$type": "AttachEffect",
              "rotationDampTime": "Eff_ScenObj_AbyssPortal_01",
              "PPPDJGDDOGD": 1.0,
              "AJDILHJFNKE": -1.0
            }
          ],
          "onKill": [
            {
              "$type": "FireEffect",
              "rotationDampTime": "Eff_ScenObj_AbyssPortal_01_Disappear",
              "PPPDJGDDOGD": 1.0,
              "AJDILHJFNKE": -1.0
            }
          ]
        }
      },
      "onAdded": [
        {
          "$type": "ApplyModifier",
          "modifierName": "AbyssGate01"
        }
      ]
    }
  },
  {
    "Default": {
      "$type": "ConfigAbility",
      "abilityName": "SceneObj_Quest_EnergyRay_01",
      "modifiers": {
        "EnergyRay01": {
          "modifierName": "",
          "elementDurability": 100.0,
          "onAdded": [
            {
              "$type": "AttachEffect",
              "rotationDampTime": "Eff_ScenObj_EnergyRay_01",
              "PPPDJGDDOGD": 1.0,
              "AJDILHJFNKE": -1.0
            }
          ],
          "onKill": [
            {
              "$type": "FireEffect",
              "rotationDampTime": "Eff_ScenObj_EnergyRay_01_Disappear",
              "PPPDJGDDOGD": 1.0,
              "AJDILHJFNKE": -1.0
            }
          ]
        }
      },
      "onAdded": [
        {
          "$type": "ApplyModifier",
          "modifierName": "EnergyRay01"
        }
      ]
    }
  },
  {
    "Default": {
      "$type": "ConfigAbility",
      "abilityName": "SceneObj_Quest_XiaoSpaceCrack_01",
      "modifiers": {
        "SpaceCrack": {
          "modifierName": "",
          "elementDurability": 100.0,
          "onAdded": [
            {
              "$type": "AttachEffect",
              "rotationDampTime": "Eff_Quest_XiaoSpaceCrack_01",
              "PPPDJGDDOGD": 1.0,
              "AJDILHJFNKE": -1.0
            }
          ],
          "onKill": [
            {
              "$type": "FireEffect",
              "rotationDampTime": "Eff_Quest_XiaoSpaceCrack_01_Disappear",
              "PPPDJGDDOGD": 1.0,
              "AJDILHJFNKE": -1.0
            }
          ]
        }
      },
      "onAdded": [
        {
          "$type": "ApplyModifier",
          "modifierName": "SpaceCrack"
        }
      ]
    }
  },
  {
    "Default": {
      "$type": "ConfigAbility",
      "abilityName": "SceneObj_Quest_XiaoAmber_01",
      "modifiers": {
        "XiaoAmber": {
          "modifierName": "",
          "elementDurability": 100.0,
          "onAdded": [
            {
              "$type": "AttachEffect",
              "rotationDampTime": "Eff_Quest_XiaoAmber_01",
              "PPPDJGDDOGD": 1.0,
              "AJDILHJFNKE": -1.0
            }
          ],
          "onKill": [
            {
              "$type": "FireEffect",
              "rotationDampTime": "Eff_Quest_XiaoAmber_01_Disappear",
              "PPPDJGDDOGD": 1.0,
              "AJDILHJFNKE": -1.0
            }
          ]
        }
      },
      "onAdded": [
        {
          "$type": "ApplyModifier",
          "modifierName": "XiaoAmber"
        }
      ]
    }
  },
  {
    "Default": {
      "$type": "ConfigAbility",
      "abilityName": "SceneObj_Quest_VoidStone_01",
      "modifiers": {
        "StoneDisappear": {
          "modifierName": "",
          "elementDurability": 100.0,
          "onAdded": [
            {
              "$type": "AttachEffect",
              "rotationDampTime": "Eff_Quest_VoidStoneLoop",
              "PPPDJGDDOGD": 1.0,
              "AJDILHJFNKE": -1.0
            }
          ],
          "onKill": [
            {
              "$type": "FireEffect",
              "rotationDampTime": "Eff_Quest_VoidStoneVanish",
              "PPPDJGDDOGD": 1.0,
              "AJDILHJFNKE": -1.0
            }
          ]
        }
      },
      "onAdded": [
        {
          "$type": "ApplyModifier",
          "modifierName": "StoneDisappear"
        }
      ]
    }
  },
  {
    "Default": {
      "$type": "ConfigAbility",
      "abilityName": "SceneObj_Level_Nt_Property_Ani_Prop_MudTrap_01",
      "abilityMixins": [
        {
          "$type": "AttachToGadgetStateMixin",
          "gadgetState": 201,
          "modifierName": "MudTrap"
        }
      ],
      "modifiers": {
        "MudTrap": {
          "modifierName": "",
          "duration": 3.0,
          "elementDurability": 100.0,
          "modifierMixins": [
            {
              "$type": "TriggerPostProcessEffectMixin",
              "postEffectAssetName": "PostEffect_Scene_Mud",
              "duration": 3.0
            }
          ],
          "onAdded": [
            {
              "$type": "DungeonFogEffects",
              "muteRemoteAction": true,
              "enable": true,
              "cameraFogEffectName": "Eff_Quest_Muddy_01_ScreenEffect",
              "playerFogEffectName": ""
            },
            {
              "$type": "KillSelf",
              "configIdArray": [74002010]
            }
          ]
        }
      }
    }
  },
  {
    "Default": {
      "$type": "ConfigAbility",
      "abilityName": "SceneObj_Quest_Property_Ani_Prop_Flares_01",
      "modifiers": {
        "TournamentFlares": {
          "modifierName": "",
          "duration": 5.0,
          "elementDurability": 100.0,
          "onAdded": [
            {
              "$type": "FireEffect",
              "rotationDampTime": "Eff_SceneObj_Flares_01",
              "PPPDJGDDOGD": 1.0,
              "AJDILHJFNKE": -1.0
            }
          ],
          "onRemoved": [
            {
              "$type": "KillSelf",
              "configIdArray": [74002031]
            }
          ]
        }
      },
      "onAdded": [
        {
          "$type": "ApplyModifier",
          "modifierName": "TournamentFlares"
        }
      ]
    }
  },
  {
    "Default": {
      "$type": "ConfigAbility",
      "abilityName": "SceneObj_Area_Nt_Property_Ani_Prop_RaceFlame_01",
      "abilitySpecials": {
        "DamageSystemValue": 0.0,
        "Damage_Rate": 0.10000000149011612
      },
      "modifiers": {
        "RaceFlame": {
          "modifierName": "",
          "elementDurability": 100.0,
          "modifierMixins": [
            {
              "$type": "AttachToGadgetStateMixin",
              "modifierName": "Default"
            },
            {
              "$type": "AttachToGadgetStateMixin",
              "gadgetState": 201,
              "modifierName": "FireSpliter"
            }
          ]
        },
        "Default": {
          "modifierName": "",
          "elementDurability": 100.0
        },
        "FireSpliter": {
          "modifierName": "",
          "duration": 3.0,
          "elementDurability": 100.0,
          "thinkInterval": 0.4000000059604645,
          "onAdded": [
            {
              "$type": "AttachEffect",
              "rotationDampTime": "Eff_SceneObj_RaceFlame_01",
              "born": {
                "$type": "ConfigBornByAttachPoint",
                "offset": {
                  "x": 0.0,
                  "y": 1.0,
                  "z": 0.0
                },
                "useRotation": true,
                "attachPointName": "RootNode"
              },
              "PPPDJGDDOGD": 1.0,
              "AJDILHJFNKE": -1.0
            }
          ],
          "onRemoved": [
            {
              "$type": "HPIDNBEGJLL"
            }
          ],
          "onThinkInterval": [
            {
              "$type": "GDHGMAPPGHD",
              "key": "DamageSystemValue",
              "damageRatio": "ElementLevelCo"
            },
            {
              "$type": "TriggerAttackEvent",
              "attackEvent": {
                "attackPattern": {
                  "$type": "ConfigAttackSphere",
                  "triggerType": "TriggerNoRepeat",
                  "born": {
                    "$type": "ConfigBornBySelf",
                    "offset": {
                      "x": 0.0,
                      "y": 1.0,
                      "z": 0.0
                    },
                    "useRotation": true
                  },
                  "radius": 1.0
                },
                "attackInfo": {
                  "attackTag": "EvilSpirits",
                  "attenuationTag": "",
                  "attenuationGroup": "default",
                  "attackProperty": {
                    "actorWindSubHurtDelta": 0.0,
                    "elementType": "Fire",
                    "elementDurability": 100.0,
                    "ignoreAttackerProperty": true,
                    "strikeType": "Default",
                    "attackType": "Range",
                    "HMBONGBFIAP": ["Damage_Rate", "DamageSystemValue", "MUL"],
                    "trueDamage": true,
                    "ignoreModifyDamage": true,
                    "GLKMCMDJBIK": 0.0
                  },
                  "hitPattern": {
                    "onHitEffectName": "default",
                    "hitImpulseY": "",
                    "hitImpulseType": "LV3",
                    "hitHaltTimeScale": 0.009999999776482582
                  }
                }
              },
              "targetType": "All"
            }
          ]
        }
      },
      "onAdded": [
        {
          "$type": "AttachModifier",
          "modifierName": "RaceFlame"
        }
      ]
    }
  },
  {
    "Default": {
      "$type": "ConfigAbility",
      "abilityName": "SceneObj_Quest_EnergyRay_02",
      "modifiers": {
        "EnergyRay02": {
          "modifierName": "",
          "elementDurability": 100.0,
          "onAdded": [
            {
              "$type": "AttachEffect",
              "rotationDampTime": "Eff_ScenObj_EnergyRay_02",
              "PPPDJGDDOGD": 1.0,
              "AJDILHJFNKE": -1.0
            }
          ],
          "onKill": [
            {
              "$type": "FireEffect",
              "rotationDampTime": "Eff_ScenObj_EnergyRay_02_Disappear",
              "PPPDJGDDOGD": 1.0,
              "AJDILHJFNKE": -1.0
            }
          ]
        }
      },
      "onAdded": [
        {
          "$type": "ApplyModifier",
          "modifierName": "EnergyRay02"
        }
      ]
    }
  },
  {
    "Default": {
      "$type": "ConfigAbility",
      "abilityName": "SceneObj_Area_Xm_Property_Prop_CampBurner_01",
      "modifiers": {
        "CampBurner01": {
          "modifierName": "",
          "elementDurability": 100.0,
          "onAdded": [
            {
              "$type": "AttachEffect",
              "rotationDampTime": "Eff_SecenObj_CampBurner_01",
              "PPPDJGDDOGD": 1.0,
              "AJDILHJFNKE": -1.0
            }
          ]
        }
      },
      "onAdded": [
        {
          "$type": "ApplyModifier",
          "modifierName": "CampBurner01"
        }
      ]
    }
  },
  {
    "Default": {
      "$type": "ConfigAbility",
      "abilityName": "SceneObj_Area_Common_Property_Prop_FakeFire_01",
      "modifiers": {
        "FakeFire01": {
          "modifierName": "",
          "elementDurability": 100.0,
          "onAdded": [
            {
              "$type": "AttachEffect",
              "rotationDampTime": "Eff_SceneObj_Cooking_01_Fire",
              "PPPDJGDDOGD": 1.0,
              "AJDILHJFNKE": -1.0
            },
            {
              "$type": "AttachEffect",
              "rotationDampTime": "Eff_SceneObj_Cooking_01_Smoke",
              "born": {
                "$type": "ConfigBornByAttachPoint",
                "offset": {
                  "z": 0.0
                },
                "attachPointName": "RootNode"
              },
              "PPPDJGDDOGD": 1.0,
              "AJDILHJFNKE": -1.0
            }
          ]
        }
      },
      "onAdded": [
        {
          "$type": "ApplyModifier",
          "modifierName": "FakeFire01"
        }
      ]
    }
  },
  {
    "Default": {
      "$type": "ConfigAbility",
      "abilityName": "SceneObj_Quest_SpecialDisappear_01",
      "modifiers": {
        "SanbingDisappear": {
          "modifierName": "",
          "elementDurability": 100.0,
          "onAdded": [
            {
              "$type": "AttachEffect",
              "rotationDampTime": "Eff_Quest_Oldmemorycrash_DisappearStart",
              "PPPDJGDDOGD": 1.0,
              "AJDILHJFNKE": -1.0
            }
          ],
          "onKill": [
            {
              "$type": "FireEffect",
              "rotationDampTime": "Eff_Quest_Oldmemorycrash_Disappear",
              "PPPDJGDDOGD": 1.0,
              "AJDILHJFNKE": -1.0
            }
          ]
        }
      },
      "onAdded": [
        {
          "$type": "ApplyModifier",
          "modifierName": "SanbingDisappear"
        }
      ]
    }
  },
  {
    "Default": {
      "$type": "ConfigAbility",
      "abilityName": "SceneObj_Quest_Oldmemoryshield_01",
      "modifiers": {
        "MemoryShield": {
          "modifierName": "",
          "elementDurability": 100.0,
          "onAdded": [
            {
              "$type": "AttachEffect",
              "rotationDampTime": "Eff_Quest_Oldmemoryshield_DisappearStart",
              "PPPDJGDDOGD": 1.0,
              "AJDILHJFNKE": -1.0
            }
          ],
          "onKill": [
            {
              "$type": "FireEffect",
              "rotationDampTime": "Eff_Quest_Oldmemoryshield_Disappear",
              "PPPDJGDDOGD": 1.0,
              "AJDILHJFNKE": -1.0
            }
          ]
        }
      },
      "onAdded": [
        {
          "$type": "ApplyModifier",
          "modifierName": "MemoryShield"
        }
      ]
    }
  },
  {
    "Default": {
      "$type": "ConfigAbility",
      "abilityName": "SceneObj_Event_Stain01",
      "modifiers": {
        "Default_0": {
          "modifierName": "",
          "elementDurability": 100.0,
          "onAdded": [
            {
              "$type": "AttachEffect",
              "rotationDampTime": "Eff_SceneObj_GroundDirty_01",
              "PPPDJGDDOGD": 1.0,
              "AJDILHJFNKE": -1.0
            },
            {
              "$type": "AttachEffect",
              "rotationDampTime": "Eff_Quest_SiteInteract_Event",
              "PPPDJGDDOGD": 1.0,
              "AJDILHJFNKE": -1.0
            }
          ],
          "onBeingHit": [
            {
              "$type": "AddGlobalValue",
              "predicates": [
                {
                  "$type": "ByHitElement",
                  "element": "Wind"
                }
              ],
              "value": 1.0,
              "key": "_WIND_HIT_COUNT",
              "useLimitRange": true,
              "maxValue": 2.0,
              "minValue": 0.0
            },
            {
              "$type": "SendEffectTrigger",
              "predicates": [
                {
                  "$type": "ByTargetGlobalValue",
                  "key": "_WIND_HIT_COUNT",
                  "value": 1.0
                }
              ],
              "parameter": "HalfDirty",
              "attachPoint": "",
              "rotationDampTime": "Eff_SceneObj_GroundDirty_01"
            },
            {
              "$type": "FireEffect",
              "predicates": [
                {
                  "$type": "ByHitElement",
                  "element": "Wind"
                }
              ],
              "rotationDampTime": "Eff_SceneObj_GroundDirty_Blow",
              "PPPDJGDDOGD": 1.0,
              "AJDILHJFNKE": -1.0
            },
            {
              "$type": "ApplyModifier",
              "predicates": [
                {
                  "$type": "ByHitElement",
                  "element": "Wind"
                }
              ],
              "modifierName": "CameraFog"
            },
            {
              "$type": "FireEffect",
              "predicates": [
                {
                  "$type": "ByHitElement",
                  "element": "Water"
                }
              ],
              "rotationDampTime": "Eff_SceneObj_GroundDirty_Wash",
              "PPPDJGDDOGD": 1.0,
              "AJDILHJFNKE": -1.0
            },
            {
              "$type": "KillSelf",
              "predicates": [
                {
                  "$type": "ByHitElement",
                  "element": "Water"
                }
              ]
            },
            {
              "$type": "KillSelf",
              "predicates": [
                {
                  "$type": "ByTargetGlobalValue",
                  "key": "_WIND_HIT_COUNT",
                  "value": 2.0
                }
              ]
            }
          ],
          "onKill": [
            {
              "$type": "SendEffectTrigger",
              "parameter": "NoDirty",
              "attachPoint": "",
              "rotationDampTime": "Eff_SceneObj_GroundDirty_01"
            }
          ]
        },
        "CameraFog": {
          "modifierName": "",
          "duration": 1.5,
          "elementDurability": 100.0,
          "modifierMixins": [
            {
              "$type": "TriggerPostProcessEffectMixin",
              "postEffectAssetName": "PostEffect_Scene_Dust",
              "duration": 1.5
            }
          ]
        }
      },
      "onAdded": [
        {
          "$type": "ApplyModifier",
          "modifierName": "Default_0"
        }
      ]
    }
  },
  {
    "Default": {
      "$type": "ConfigAbility",
      "abilityName": "SceneObj_Event_Stain_NoticeGroup",
      "modifiers": {
        "HitandNotice": {
          "modifierName": "",
          "elementDurability": 100.0,
          "onBeingHit": [
            {
              "$type": "AddGlobalValue",
              "predicates": [
                {
                  "$type": "ByHitElement",
                  "element": "Wind"
                }
              ],
              "value": 1.0,
              "key": "_WIND_HIT_COUNT",
              "useLimitRange": true,
              "maxValue": 2.0,
              "minValue": 0.0
            },
            {
              "$type": "MCOBFPMHMHJ",
              "predicates": [
                {
                  "$type": "ByTargetGlobalValue",
                  "key": "_WIND_HIT_COUNT",
                  "value": 2.0
                }
              ],
              "luaCallType": "FromGroup",
              "sourceName": "Hitbywind",
              "param1": 0.0,
              "MGAMDEHMCOL": 0.0,
              "MMHOHAOGPLP": 0.0
            },
            {
              "$type": "MCOBFPMHMHJ",
              "predicates": [
                {
                  "$type": "ByHitElement",
                  "element": "Water"
                }
              ],
              "luaCallType": "FromGroup",
              "sourceName": "Hitbywater",
              "param1": 0.0,
              "MGAMDEHMCOL": 0.0,
              "MMHOHAOGPLP": 0.0
            },
            {
              "$type": "KillSelf",
              "predicates": [
                {
                  "$type": "ByHitElement",
                  "element": "Water"
                }
              ]
            },
            {
              "$type": "KillSelf",
              "predicates": [
                {
                  "$type": "ByTargetGlobalValue",
                  "key": "_WIND_HIT_COUNT",
                  "value": 2.0
                }
              ]
            }
          ]
        }
      },
      "onAdded": [
        {
          "$type": "ApplyModifier",
          "modifierName": "HitandNotice"
        }
      ]
    }
  },
  {
    "Default": {
      "$type": "ConfigAbility",
      "abilityName": "SceneObj_Area_Fd_Property_Ani_Build_Perpetuum_01",
      "modifiers": {
        "AttachEffect": {
          "modifierName": "",
          "elementDurability": 100.0,
          "onAdded": [
            {
              "$type": "AttachEffect",
              "rotationDampTime": "Eff_SceneObj_Fd_Property_Perpetuum_Light_01",
              "born": {
                "$type": "ConfigBornByAttachPoint",
                "useRotation": true,
                "attachPointName": "EffectNode"
              },
              "PPPDJGDDOGD": 1.0,
              "AJDILHJFNKE": -1.0,
              "isPlatformDependent": true
            }
          ]
        }
      },
      "onAdded": [
        {
          "$type": "AttachModifier",
          "modifierName": "AttachEffect"
        }
      ]
    }
  },
  {
    "Default": {
      "$type": "ConfigAbility",
      "abilityName": "SceneObj_NTQuest_FakeElementResonance_V5_0",
      "onAdded": [
        {
          "$type": "SetAnimatorInt",
          "intID": "Level",
          "value": 1.0
        },
        {
          "$type": "SendEffectTrigger",
          "parameter": "TriggerType",
          "attachPoint": "",
          "damageRatio": "Int",
          "value": 2,
          "rotationDampTime": "Eff_Goddess_Level_NT"
        }
      ],
      "isDynamicAbility": true
    }
  },
  {
    "Default": {
      "$type": "ConfigAbility",
      "abilityName": "SceneObj_Eff_SceneObj_Quset_RemnantsCrystal_Smoke",
      "abilityMixins": [
        {
          "$type": "AttachToGadgetStateMixin",
          "modifierName": "AttachEffect"
        },
        {
          "$type": "AttachToGadgetStateMixin",
          "gadgetState": 201,
          "modifierName": "SmokeDisappear"
        }
      ],
      "modifiers": {
        "AttachEffect": {
          "modifierName": "",
          "elementDurability": 100.0,
          "onAdded": [
            {
              "$type": "AttachEffect",
              "rotationDampTime": "Eff_SceneObj_Quset_RemnantsCrystal_Smoke",
              "PPPDJGDDOGD": 1.0,
              "AJDILHJFNKE": -1.0
            }
          ]
        },
        "SmokeDisappear": {
          "modifierName": "",
          "elementDurability": 100.0,
          "onAdded": [
            {
              "$type": "SendEffectTrigger",
              "parameter": "Off",
              "attachPoint": "",
              "rotationDampTime": "Eff_SceneObj_Quset_RemnantsCrystal_Smoke"
            }
          ]
        }
      }
    }
  }
]
